99.0500 95.6000 89.7600 89.7500 89.7500 95.5800 101.5100 103.4300 106.3400 107.5000 108.5200 104.5000 111.0100 112.3500 112.9500 114.0400 114.5300 115.4500 115.8700 115.6100 119.8800 102.8400 101.5000 100.6500 101.6500 103.5800 106.9200 98.9000 108.6600 108.8400 109.3600 109.5900 110.3100 110.7300 111.5400 111.9300 112.3100 102.9700 113.6000 101.6000
99.0500 95.7884 89.2325 86.9908 90.2291 96.9611 100.9507 103.7168 105.8122 107.4791 107.5123 106.4730 111.4528 112.2532 113.0792 114.3197 114.1299 114.3078 105.1965 103.7255 111.0253 111.9003 100.4500 101.0274 102.4709 106.1014 112.7140 99.9460 103.0865 102.2622 103.6665 105.7846 106.4245 106.6673 117.3400 119.9946 118.4430 105.3216 115.8284 101.6000
102.2700 98.6190 94.8033 93.2143 95.7067 99.3686 102.1582 104.4447 106.3222 107.9071 109.4075 111.2069 111.5369 112.3959 113.1124 113.9511 116.0053 120.7045 101.9207 97.6816 97.9987 107.3670 102.0924 106.1073 102.9969 110.4539 109.1048 101.7024 98.7496 105.2938 100.5424 103.5682 107.7340 108.1229 111.0421 118.8359 112.2094 108.0834 113.0001 108.3300
102.6100 101.3976 99.8110 99.1362 100.1075 101.8163 103.7426 105.4915 107.0460 108.4178 109.5691 110.5771 111.6837 112.6038 113.3302 114.0777 118.5270 111.0785 100.6989 103.8352 112.6322 104.8700 114.0940 104.7973 108.4523 114.9870 100.2602 101.8367 97.6771 102.8816 102.1683 104.5290 110.9004 111.5280 112.0646 111.1953 110.6959 102.2633 103.8187 114.9900
103.2300 103.7625 102.8154 102.5485 102.9883 104.0310 105.3220 106.6466 107.9022 109.0805 110.1621 111.1554 112.0324 112.8800 113.7784 114.4412 115.5509 112.6072 105.1332 137.0595 101.6857 98.7616 107.1293 111.1865 114.2607 104.3095 99.9261 98.5555 99.2270 109.6481 100.4602 109.4433 112.6921 113.1671 113.8628 115.5170 108.8118 106.1420 102.2945 101.7800
106.6900 105.7452 105.1209 104.6763 105.2174 105.9164 106.8086 107.8053 108.8191 109.8091 110.7284 111.5862 112.8695 113.2895 113.5845 114.1305 116.4813 113.9925 113.7500 117.9624 109.8506 109.2489 112.7519 104.9525 104.7218 100.5814 99.5469 100.3452 100.4011 102.4580 102.3431 110.2527 112.4596 113.6157 114.9419 116.2016 109.0706 100.5935 101.4345 101.7900
108.2900 107.3563 107.1304 108.1089 107.2624 107.4646 108.1881 108.9239 109.7355 110.5601 111.3896 111.9478 113.0609 109.1497 116.0378 115.7041 117.5541 98.8273 98.8780 122.4112 99.1508 99.3443 105.0177 103.6693 108.0179 98.1241 96.8203 108.0833 100.0306 103.2286 105.0288 103.8190 115.5328 119.8099 104.6747 117.9444 101.1012 112.3140 101.2427 101.8100
109.5500 108.9426 106.3477 102.2142 105.6231 109.0895 109.3609 109.9723 110.6392 111.3108 112.0059 112.7638 112.7316 117.0009 90.6238 102.1369 98.2072 98.7223 95.8746 100.3864 102.7529 99.8661 98.4846 101.8111 105.3789 109.8200 100.5470 109.0229 107.9133 116.1232 114.4752 109.1450 114.4002 106.8282 109.1154 110.1572 115.7013 100.5336 102.5844 101.8200
110.6400 109.6931 109.4609 109.6237 111.2001 109.9537 110.5326 110.9459 111.5159 112.0617 112.6363 113.3389 114.1325 107.6055 91.1510 95.6428 95.1642 98.2718 98.5527 98.3599 96.1746 102.7260 105.6182 101.7509 114.6810 109.1151 105.8706 106.8184 112.9874 111.3709 112.4149 113.7361 114.9464 116.8374 115.2628 120.6418 104.6286 111.9054 109.4635 109.9200
111.6100 112.3077 110.5961 104.0512 98.9681 111.6077 111.3645 111.8516 112.3033 112.7745 113.3160 113.5760 115.6889 100.3532 101.7528 101.5948 95.3016 94.8150 96.2811 97.6453 122.9723 105.6168 108.7221 107.8985 100.7721 104.8759 96.7265 102.9755 107.3777 107.3955 107.8386 113.8336 114.1832 114.9851 116.8342 118.0726 119.6582 118.8991 116.3406 101.8600
112.4800 110.5316 104.4576 112.4366 92.4309 111.3689 111.9845 112.7096 113.0436 113.5282 113.8592 114.3863 110.4077 110.1536 103.1427 98.4544 99.5314 97.5196 98.1746 101.0342 102.0497 108.1241 112.2851 107.2085 101.0025 96.7225 99.0316 98.9728 106.1762 109.8901 109.3196 108.5745 108.7086 110.7061 114.8167 114.7850 114.9653 119.9984 121.3044 120.2800
113.2700 113.5493 112.8044 113.1124 96.8006 111.3445 113.0555 113.4785 113.8108 113.9636 114.6614 115.0913 113.6723 108.3957 97.8252 99.3825 95.7984 99.5076 99.8997 103.5394 102.5450 108.6694 104.0368 96.0262 96.7465 96.6710 99.1617 99.8295 100.9783 106.4001 111.6831 109.6300 110.1536 109.6499 110.1235 111.4374 110.0254 116.3103 115.0119 119.9900
113.9800 113.5278 113.5095 113.6714 115.4827 114.3129 113.8805 114.1612 114.5037 114.7661 118.3636 111.3210 113.2637 99.2372 105.3541 96.8345 97.2047 99.1474 103.5544 106.4416 110.1346 112.5133 112.6609 98.0252 100.1367 109.2514 108.2720 100.3954 105.6894 108.8643 111.8826 110.6342 112.6121 110.8358 113.4424 111.0888 111.8520 112.5629 110.6464 112.0200
114.6500 114.5193 114.4366 114.3056 108.4678 114.4506 114.3136 114.8637 115.0184 114.9636 115.1477 100.7650 104.2239 100.3828 96.8501 94.7426 95.6027 97.3993 99.7158 107.7071 108.0051 98.2711 102.3433 97.7545 101.8870 111.0668 112.1104 103.1237 102.1257 105.9077 110.7026 113.0487 112.9959 112.8107 114.6421 113.1541 121.5224 111.3131 116.1059 117.8200
115.2600 115.1574 115.2329 115.6611 114.6866 113.9074 115.1295 115.5144 115.6147 117.5438 111.6456 110.1614 103.7637 99.0006 98.8739 104.8534 98.9745 99.1073 97.7491 102.1988 107.4538 98.2687 97.1103 97.5605 107.0172 110.6065 102.9107 110.2769 98.8453 107.0571 99.9037 102.6723 114.6119 113.9321 114.2516 115.8759 104.7544 106.9281 103.4732 102.3300
115.8400 115.7747 116.1154 116.1214 115.6467 115.9687 115.7398 115.9326 116.2364 116.9991 112.0248 108.6814 96.2863 97.4588 99.9555 101.8758 98.8499 102.7742 113.9191 103.3394 105.2886 109.1811 102.1460 100.3772 102.4214 112.0229 111.9328 113.2938 113.0064 112.8834 113.4322 113.5479 115.5438 115.0614 115.0439 115.7046 116.3114 104.4154 102.5544 102.3600
116.3800 116.3775 116.2321 116.2528 116.3178 116.3705 116.3174 118.3475 116.6513 118.1947 102.6639 102.9699 113.0305 98.6837 103.3161 103.8997 104.5117 100.0797 98.8257 99.3175 103.8414 106.2849 105.8530 98.2804 108.5537 111.8765 112.7303 112.2566 112.8905 114.2586 114.7324 115.0595 115.3027 115.6970 110.3668 109.8892 100.8065 101.7682 102.4794 102.3900
116.8800 116.9225 116.8878 116.8776 116.8872 116.9150 116.8265 118.5687 108.6471 119.8407 106.4285 100.9430 99.5009 99.3657 101.6256 107.3918 105.1069 107.0112 100.6235 103.6722 100.2636 103.8645 107.9249 98.8792 100.8370 108.8000 113.5175 113.0885 113.6933 114.0983 114.6519 115.3829 113.0533 100.9921 114.4765 102.8751 102.4923 102.2786 102.4439 102.5800
117.3600 117.5106 117.3199 117.3832 117.4015 117.4663 117.4015 118.2803 95.0086 103.5785 97.9236 97.9693 99.2080 100.8957 99.1240 106.2024 105.4048 105.8259 102.0650 99.3832 101.2381 100.6186 106.1781 101.2260 110.6907 111.6743 112.4260 113.5857 112.5133 114.4899 115.0487 116.8555 109.0502 103.5890 99.0829 101.5226 102.1706 102.3256 102.5309 102.6100
108.4200 112.4395 118.1620 117.8733 117.8493 117.7936 117.9869 117.7100 120.4596 104.8413 99.6562 99.0623 100.9349 108.2592 101.0131 109.4976 108.8093 111.6679 111.2128 106.7477 108.2761 108.9562 107.1998 97.7007 109.6015 112.8931 112.0847 113.9063 110.5991 115.1740 115.6898 112.2506 106.3678 103.0906 109.5880 102.6666 102.2078 102.7422 102.4637 102.8300
102.2500 105.8863 119.5053 118.3346 118.7217 119.4987 118.8239 118.5893 113.2652 97.8275 99.7405 103.1056 104.2543 104.1853 107.5199 108.5335 106.5306 112.3028 104.3180 112.5855 109.9157 99.7256 100.5937 102.1791 107.3668 104.6935 109.4349 116.5501 110.3010 111.7894 110.1620 100.6648 97.1161 102.3352 113.2766 101.7488 105.7472 102.8993 103.2959 105.3400
119.0400 120.1764 118.7360 118.7916 119.2452 110.4939 120.5882 113.4704 124.3748 103.2756 103.7625 103.5172 104.9068 99.2334 107.4005 107.0559 109.2170 110.7140 97.7201 102.8655 111.5009 108.9761 103.2612 108.9431 104.3012 103.6543 112.4466 113.0628 110.7118 99.4406 101.5720 101.6370 120.4892 110.2347 99.7808 101.8813 104.8680 102.4714 103.4789 104.6400
119.4200 119.0376 119.2097 119.2352 119.6204 110.9826 120.4008 117.7158 135.5699 101.9258 100.7930 110.4882 107.6432 110.2125 107.7431 106.9601 111.6651 110.1515 105.7830 113.0978 111.0512 113.5668 99.8875 103.3143 106.7673 106.5469 108.4604 119.0752 117.7086 112.6528 99.4264 101.3329 104.3054 106.3426 99.9701 102.5755 103.1506 103.8444 104.5030 104.7300
119.7800 119.6808 119.6179 119.6200 119.6637 119.9514 119.7870 120.0163 118.5944 108.8020 104.8274 116.0581 115.2899 105.2776 105.5945 108.5772 108.6164 105.9360 113.6890 114.2107 110.7966 108.9115 108.7829 103.5899 106.2880 108.3333 107.2034 109.6944 121.0901 114.0486 113.9422 119.6720 101.7914 101.8487 105.6518 102.2740 103.0280 104.0410 103.8685 107.0000
120.1200 120.0326 120.0151 120.0079 120.0130 120.0052 120.0989 119.9331 120.2189 122.5544 105.9237 107.7526 110.1200 115.2223 104.4294 106.5761 112.2466 114.0724 101.9163 111.6641 114.4231 111.6397 114.6635 115.7982 105.4293 106.5948 107.2021 107.9704 107.2458 120.2278 101.3886 114.9223 99.5967 107.7779 102.3210 102.9992 102.9939 104.4708 104.9071 105.1400
120.4500 120.4029 120.3819 120.3783 120.3877 120.4131 120.5037 119.9668 120.3771 121.8556 115.4906 113.0320 107.5245 108.8774 101.5719 101.2726 112.8068 112.4813 110.7445 114.0087 113.4303 114.6937 110.9029 114.6906 118.0215 107.7557 108.0810 108.7503 110.6899 123.1580 109.4133 108.9532 102.0444 102.7090 102.9914 103.8116 104.8469 104.4206 104.9124 105.3300
120.7700 120.7583 120.7365 120.7251 120.7349 120.7559 120.8166 120.9537 120.9356 120.8823 120.0405 109.3951 106.7037 107.4321 99.4786 114.3485 111.8415 112.3674 115.3372 114.2316 112.7547 116.2479 116.3299 112.0595 118.4658 119.0249 115.3487 110.9373 109.7032 109.1756 109.7916 106.8812 101.8199 104.7167 102.5447 103.1000 105.7777 104.8541 105.4815 104.9700
121.0800 121.0898 121.0740 121.0712 121.0822 121.0967 120.9284 120.6671 121.2898 121.2971 121.2176 106.9255 118.7605 114.1868 109.9711 114.9105 114.2473 114.1038 111.5529 102.8903 101.8263 117.7059 117.7265 113.7036 116.6535 118.2645 115.0960 109.1138 110.2016 109.6549 103.8038 101.6494 109.7496 115.4684 101.5440 108.2913 105.1351 105.6807 105.9494 106.2800
121.3800 121.4204 121.4015 121.3914 121.4040 121.4185 121.4377 125.5683 121.0385 121.7273 120.1978 109.5443 124.0398 113.9712 110.8794 111.1039 118.8359 120.3405 114.0431 107.4482 116.8496 117.4908 115.3803 118.6489 114.9417 118.9184 105.1707 112.8987 107.8296 113.7303 110.8637 102.5693 98.8239 103.1069 104.1487 110.6981 102.3471 106.2252 106.7902 106.7400
121.6600 121.7366 121.7141 121.7034 121.7062 121.6929 121.8038 119.2400 118.0568 120.7811 122.1700 119.1184 116.0564 115.7499 111.2240 113.0031 113.8364 116.2812 106.5076 115.6129 120.3064 103.0083 115.9085 119.9853 118.8629 116.2533 117.5590 122.1878 101.4931 107.7227 112.0970 102.3531 102.8260 103.4670 104.5684 102.7951 104.8596 104.3338 105.2001 104.7400
121.9400 122.0350 122.0303 122.1222 122.1886 122.2466 121.7120 122.4318 100.9108 107.0146 125.7788 117.2486 114.5831 115.5789 112.6366 114.9647 114.4141 117.7230 107.1166 109.0992 107.7997 112.5431 114.1394 113.9983 119.0856 118.4980 115.1431 111.6404 106.5180 104.9050 107.7333 102.6458 103.1662 103.1030 103.5029 104.4202 105.2773 104.8068 104.9783 104.7400
122.4700 122.3174 122.2798 121.6660 121.4142 121.1699 122.4248 123.4930 108.5939 103.8557 124.7945 113.2864 112.6805 122.7736 123.8493 117.5009 114.2715 117.0828 120.3332 107.5335 114.5731 118.9586 103.4333 105.2693 123.3111 120.2464 119.2017 121.3507 101.3736 106.3828 104.5544 102.8371 102.7970 105.0404 103.3540 102.5492 104.0200 105.1331 107.0379 106.5400
122.7300 122.6698 122.7899 125.7709 125.1348 129.7180 124.2549 114.4227 117.9403 108.5866 122.1894 104.6899 103.2952 117.4007 113.9743 114.4082 116.2878 113.8539 102.6078 102.2970 105.1617 115.8295 104.1459 101.8428 109.6830 120.4959 118.7492 99.3894 103.2036 102.4634 102.9999 103.3525 102.6849 117.1934 113.6301 120.9601 106.5475 112.7689 106.7088 107.0700
122.9700 122.7425 120.1314 108.8145 111.3436 117.4419 117.7198 122.0067 110.7700 109.1141 105.4981 110.4884 101.1208 110.4083 113.6776 104.3215 108.6195 116.3910 113.0147 104.4646 109.4082 116.5389 101.5775 107.8460 101.8761 104.9580 108.6433 102.6966 103.0181 102.9795 102.4281 104.0863 103.4394 104.3263 117.2151 106.8058 105.3029 108.0077 104.0606 107.2500
123.2100 123.4230 116.8584 114.7753 115.6203 113.7476 126.2751 107.8212 107.8068 109.1396 108.2335 113.2319 116.9978 116.3175 125.5207 119.2358 107.0040 112.7327 117.0409 99.1306 108.5095 104.0006 104.6399 102.8730 104.7765 101.6811 102.6831 101.4735 103.2042 103.0271 124.5631 104.2757 103.9370 103.9139 106.4530 106.7777 103.7609 104.5160 104.5723 106.0300
123.4500 122.8759 114.9662 125.4078 127.1487 106.5810 130.6986 97.4054 108.7577 108.3028 108.9577 111.2865 124.9613 119.2120 126.4136 129.2615 118.8179 117.4929 121.4145 103.6406 101.5464 104.4057 102.8242 102.3926 104.9275 105.6912 120.3898 128.9332 105.2878 103.1145 101.8165 104.0112 103.8155 103.9923 106.4681 113.9911 105.4276 104.4934 104.1365 107.5200
123.6700 129.2794 105.3121 114.9587 113.3027 114.4713 121.7614 119.3502 109.1152 108.2484 120.9913 100.1847 123.6598 110.2370 117.4990 124.5478 118.4714 119.6622 104.0616 106.8090 102.8166 103.6435 102.7393 102.4572 108.0000 126.7029 124.7669 124.8963 123.4028 126.2192 108.8756 112.8450 102.4148 102.5777 118.2972 116.5822 113.6359 104.3580 106.1075 104.7300
109.7800 111.8612 104.4006 109.4891 108.5657 122.6999 113.6763 111.9254 107.9441 110.9943 108.9209 117.2308 122.8502 106.4041 111.4653 109.3448 102.3216 117.3141 116.2629 110.6250 101.9999 104.9209 105.0577 104.3046 100.9288 126.3368 119.5467 124.8602 125.0143 123.5168 109.8010 115.7940 111.0796 116.4226 130.6229 117.3012 115.3575 105.2077 106.2279 104.8800
124.1100 110.9818 111.1237 109.1884 114.6995 121.5065 113.3882 124.6628 116.4034 110.9831 117.6665 124.4791 108.9450 120.4112 113.3797 112.9073 112.5872 116.5202 116.4727 99.9668 104.3319 99.8753 105.1264 104.3095 110.7445 122.6685 107.6180 125.5190 125.2028 126.0354 108.8053 110.3176 101.9030 122.2559 126.7041 127.7493 121.7728 110.3925 123.3975 117.9200
124.3200 106.1700 109.8400 109.8400 105.7300 117.1300 111.1700 124.3000 124.2800 112.7800 107.3400 124.4100 111.0100 110.9000 113.3000 112.7700 102.7900 102.9200 102.9200 111.6300 122.1700 105.3000 105.3000 106.4100 123.6000 117.8700 125.0200 125.3800 126.0800 126.3900 114.0100 104.2600 105.8100 127.1100 127.5300 127.8400 128.2400 117.3200 129.9100 117.9200
