125.1400 122.6700 122.6700 104.6400 119.4200 123.7100 116.9600 103.2200 108.0900 108.0900 120.4100 124.8700 124.7400 124.7400 124.6000 124.4600 124.4900 124.3400 124.3700 124.2100 124.2300 109.3100 124.0700 124.0800 124.1100 124.1100 124.1300 124.1300 124.1300 124.1200 124.1200 124.1000 107.4900 124.2500 124.2500 124.2100 124.3700 124.3400 124.5000 124.5000
125.1400 104.4258 114.5860 119.7841 109.8253 117.3940 114.6745 115.2554 103.2201 120.9711 124.1548 124.8955 124.5982 124.5470 124.4443 124.7106 124.6387 124.2267 124.1977 124.0464 124.7196 123.9123 124.3232 124.1607 124.0315 123.8780 123.8593 123.9104 123.9175 123.9338 123.9115 123.1949 113.1979 123.7479 123.7313 124.1342 124.1503 124.2135 124.2786 124.2800
121.9400 113.9281 117.7077 126.6886 113.6357 122.8542 127.0953 108.3009 102.6788 118.5267 124.1624 124.5638 124.4364 124.3259 124.2135 124.1983 118.7784 124.2990 123.9647 123.8874 123.8516 121.3156 123.8220 123.6683 123.7680 124.1946 124.9332 123.7019 123.6644 123.6769 123.6804 124.1263 124.4592 123.6416 123.8467 123.8640 123.9355 123.9872 124.0558 124.0700
126.8900 119.4184 112.7363 110.0407 110.6540 113.0517 108.8329 109.5721 111.0707 107.3944 112.8062 124.4723 124.2151 124.1088 123.9933 124.2342 123.3833 124.2609 123.7194 123.6540 123.6558 123.6282 123.6317 123.5176 123.4339 123.4914 123.3156 123.4024 123.3775 123.4211 123.4504 123.3700 123.3796 123.5594 123.5772 123.6381 123.6834 123.7574 123.8258 123.8200
116.1100 113.9292 115.7104 103.1666 108.0660 106.6658 107.0892 107.3317 121.0579 111.2146 119.9320 124.9461 123.9993 123.8834 123.8032 123.7199 123.7016 123.4803 123.4808 123.4213 123.3613 123.2977 123.2367 123.2001 123.1407 122.1153 123.3664 123.3561 123.5187 123.1955 123.1947 123.2202 123.2684 123.3094 123.3417 123.3742 123.4554 123.5085 123.5849 123.6100
116.1100 116.7802 120.0617 115.0347 112.9178 106.7839 110.6396 112.0802 120.1277 122.4868 120.1980 123.2198 123.8138 123.6950 123.7209 123.3160 123.4310 123.3261 123.2354 123.1697 123.1074 123.0588 122.9763 122.8795 122.9367 120.7563 116.4045 121.0060 121.0145 122.8357 122.9161 122.9449 122.9170 122.8760 123.0216 123.2025 123.1144 123.2901 123.3636 123.3800
112.1000 119.1556 115.6118 116.3117 105.4045 121.9628 106.6914 113.0518 110.2792 128.4213 110.9868 125.2825 123.4260 123.4847 120.6004 125.1496 123.2414 123.1114 122.9893 122.9129 122.8484 122.8125 122.7785 122.4263 124.3607 106.9593 118.9236 117.0498 123.3765 122.9055 122.5951 122.6513 123.0483 123.3182 122.8191 122.5561 123.6736 122.9833 123.1316 123.1400
109.1100 102.3365 111.1444 126.2900 105.1696 114.5538 107.9790 119.7868 110.5770 131.7097 124.5232 123.5012 123.5267 124.3837 112.0883 112.8000 117.0838 122.9317 122.7232 122.6472 122.5769 122.4401 122.3014 122.3331 125.1304 107.4908 116.9118 113.6546 116.1939 122.1002 122.2173 122.5965 116.3161 120.0480 122.0818 125.0142 116.2883 123.1818 122.8483 122.8800
109.6700 109.9383 108.8770 118.4607 112.0308 111.0283 116.4162 125.1579 122.0957 122.9909 123.4110 123.0985 123.1367 113.1372 104.7415 113.6781 121.8453 123.0309 122.4444 122.3796 122.2971 122.1227 122.8770 121.9423 115.0349 109.6520 104.4836 113.3336 110.0747 122.4805 122.2148 119.9829 122.3583 122.7952 122.5538 111.1056 106.7279 124.0962 122.6082 122.6200
102.6100 103.5669 106.6939 102.8682 117.7241 107.6932 123.8609 116.9234 123.4259 122.8461 123.1634 123.1643 123.2015 118.3880 116.0783 112.6501 122.5677 122.0791 122.2321 122.0762 122.0167 121.7338 123.1716 111.0637 115.5812 122.3174 117.2363 105.2361 106.2845 120.7169 120.1298 108.6712 114.5641 117.4965 122.2315 121.5735 119.7668 121.9699 122.4157 122.3600
103.2100 102.1298 107.3286 105.2500 114.8394 109.7722 120.4259 109.2578 124.4771 123.2084 122.4134 120.6903 112.1344 118.7501 115.3494 116.8334 121.9545 122.4533 121.3647 121.7105 121.6794 121.6598 121.4896 122.3913 125.2266 125.4566 108.7310 101.6755 118.8907 121.7932 113.6263 104.9569 107.2548 109.9502 123.5597 121.7496 122.0900 121.9238 122.0155 122.0800
102.1300 102.3920 101.8567 103.4550 101.7490 116.1056 123.6174 124.1054 122.9382 122.7215 120.8933 106.3910 118.2690 110.9909 109.2111 125.0338 122.1527 122.1137 117.7659 121.4224 121.8284 121.3728 121.2588 120.9924 121.6667 121.9694 110.5056 112.2707 112.7127 121.6032 114.8429 111.0078 118.7719 110.1016 122.6095 122.7936 121.5051 121.6604 121.7619 121.7900
102.1300 103.8689 101.1092 104.0239 104.3942 121.2858 110.9688 122.4388 122.5688 122.6028 124.1420 105.4849 118.8861 118.5685 124.8224 122.3088 121.5658 121.5952 121.5748 121.1821 122.3174 120.9982 120.9537 120.9094 120.8990 121.2366 110.9764 105.1238 106.8519 106.0156 107.8449 117.6577 122.7609 121.1540 121.0789 121.0826 121.1827 121.3725 121.4735 121.5000
101.8700 104.6004 101.4467 104.3043 107.2864 123.8387 122.8318 123.2979 122.4980 122.3439 122.1038 120.8663 124.6931 114.9438 119.2155 114.1801 121.0802 121.1665 120.9475 120.8597 120.6669 120.6582 120.5631 120.3863 120.4643 120.4095 120.4894 106.4841 130.9716 103.9573 128.6341 120.7343 120.1996 120.6120 120.7509 120.8219 120.9255 121.0435 121.1733 121.1900
113.1800 107.3877 102.0883 106.4328 102.6247 110.6644 117.3906 122.3069 122.2889 122.1822 121.8681 121.7572 121.8740 116.4343 122.4115 119.7527 121.0954 120.8270 120.6806 120.5495 120.4579 120.3731 120.0865 120.4524 120.3642 120.1150 117.3197 119.6092 105.9192 109.1846 120.4238 120.0899 120.2552 120.2945 120.3754 120.4781 120.6002 120.7237 120.8698 120.8800
101.5900 115.6181 107.6358 106.8404 103.3195 105.9637 122.1472 122.1118 122.1264 121.8355 122.2162 115.9328 124.7437 120.9736 121.1660 120.8677 120.6080 120.5389 120.3420 120.2138 120.0854 120.3290 120.1589 117.2402 115.0112 119.6805 120.1364 119.9483 111.3971 121.4390 119.4587 119.7665 119.8248 119.9228 120.0234 120.1417 120.2663 120.4062 120.5524 120.5300
101.3700 102.8203 119.2790 103.7560 107.6040 105.8861 119.9726 116.2794 121.9643 121.2020 121.8478 121.6647 121.2289 120.9649 121.5651 120.3680 120.2851 120.1880 120.0054 119.8605 119.7454 119.6855 119.0787 120.0075 119.4047 119.2705 117.9556 119.8361 121.1063 119.1835 119.3331 119.3788 119.4545 119.5446 119.6542 119.7774 119.9167 120.0626 120.2236 120.1900
101.3100 101.3377 102.2770 118.3346 112.2166 110.5042 112.9785 107.8110 116.4443 115.7926 122.3762 120.4059 122.7700 101.0370 116.2139 119.8239 119.6079 119.9121 119.6616 119.4944 119.3417 119.2290 119.1698 118.9435 118.7698 118.7631 118.6332 119.1076 119.5170 118.6994 118.9035 118.9683 119.0540 119.1540 119.2787 119.4154 119.5623 119.7168 119.8925 119.8200
114.5700 109.3723 104.8261 111.8872 114.1008 123.7395 121.1754 122.7000 120.9637 123.4497 118.7369 121.5221 112.1150 111.8271 117.9433 102.0543 120.4576 119.2506 119.2915 119.1145 118.9852 118.8214 118.7543 118.6098 119.2545 118.3670 118.4247 118.3997 117.8812 118.5134 118.5127 118.5427 118.6322 118.7425 118.8752 119.0259 119.1864 119.3624 119.5469 119.7800
101.0200 104.0549 115.0111 100.3446 119.8149 121.3424 121.3638 122.4000 116.3417 116.3190 105.7549 120.4322 123.1092 123.3453 119.9122 117.2398 119.9454 118.9932 118.9149 118.7515 118.4922 118.3990 118.2717 118.4404 112.1471 119.0676 117.7730 117.9104 117.9639 117.7264 117.8190 118.0788 118.1880 118.3200 118.4623 118.6221 118.7973 118.9940 119.1892 119.4400
118.5400 100.1579 116.8818 106.4662 110.6737 121.3059 121.9332 115.6949 104.5885 104.8830 116.0245 116.8434 119.7752 119.1333 119.2346 118.9931 118.8758 118.7823 118.5490 118.3638 118.1585 117.3405 117.3742 118.2199 101.7020 118.3641 117.1180 117.4107 117.4669 118.2665 118.2429 117.6024 117.7232 117.8746 118.0327 118.2123 118.4006 118.6112 118.8297 119.0600
118.5400 106.0944 103.4421 102.6335 103.1465 109.4039 121.7637 123.5193 117.6230 108.9345 120.8797 120.6119 115.6737 120.1269 119.0620 118.2928 118.6036 118.5794 118.1955 117.9424 117.7084 113.5942 113.3328 117.8074 110.3749 117.3411 116.7228 116.7071 116.8191 106.7849 118.0806 117.0783 117.2396 117.4070 117.5793 117.7787 117.9867 118.2143 118.4567 118.5400
106.2300 109.0324 104.0090 100.6081 116.3798 115.7506 122.0921 120.2302 121.0047 123.5204 119.0695 121.6216 124.0707 105.5388 122.2953 120.3377 118.2756 121.3556 117.3074 117.4672 117.0056 119.2491 111.6769 117.0425 119.9233 116.5823 116.1823 116.4281 124.6365 117.4199 116.5985 116.6027 116.7233 116.9118 117.1074 117.3273 117.5636 117.8064 118.0746 118.1600
122.3300 113.0177 104.2110 106.8343 112.5208 106.5910 120.1957 120.3365 120.1652 119.3965 119.4697 117.9321 95.8799 98.1170 102.6684 108.7353 117.6205 117.0166 117.5071 117.0049 116.7388 116.2469 116.5867 116.0231 115.6836 115.9384 116.5684 115.6018 112.8280 115.8311 115.8435 116.0336 116.1992 116.3914 116.6107 116.8575 117.1187 117.3921 117.6783 117.7100
118.3200 114.0445 121.2420 98.1379 115.4540 118.8656 120.4292 120.2587 120.0451 119.7207 119.5217 119.0282 117.4438 98.7109 111.7548 112.5634 117.9001 117.1976 116.7949 116.5304 116.2459 116.0217 115.7098 115.5517 115.5377 115.2888 108.5604 115.9650 115.2502 115.1805 115.2959 115.4397 115.6282 115.8497 116.0976 116.3714 116.6547 116.9557 117.2765 117.1600
120.0700 121.7712 113.6247 98.9539 101.0098 117.7988 120.6737 120.1397 119.7887 119.5423 119.2408 112.5665 120.9975 103.4840 114.4968 117.2006 117.1941 116.6813 116.4282 116.0057 115.7286 115.4333 115.1671 114.9263 114.8184 115.4129 112.4188 113.5778 114.3079 114.5091 114.6335 114.8028 115.0192 115.2740 115.5543 115.8553 116.1725 116.5290 116.8635 117.1200
100.0300 123.2468 120.1509 121.3526 121.6464 120.2547 120.2805 119.9538 119.5323 118.9287 117.6409 118.6811 118.6176 118.0558 121.4954 120.8718 116.4581 116.3150 115.6202 115.7007 115.2553 114.8568 114.5357 114.2745 113.9760 113.5486 113.3704 114.7603 113.6234 113.7844 113.9267 114.1248 114.3828 114.6478 114.9616 115.3242 115.6638 116.4179 116.2972 116.6500
99.7900 116.4619 121.5103 120.9600 120.3453 120.1729 120.0457 119.7362 119.5633 119.4003 118.6754 118.2108 117.9107 117.0633 116.5815 115.7771 116.3552 116.1736 113.5093 113.6222 114.7370 114.2244 113.8827 113.5684 113.1492 113.9898 110.4493 112.4792 112.8496 112.9764 113.1582 113.3945 113.6907 114.0329 114.4941 114.6060 115.2484 113.9949 115.1620 116.5000
125.5500 119.5196 119.8310 120.9157 120.6886 120.3273 119.9257 119.4981 119.1415 116.5999 118.3997 118.0415 117.6383 117.2766 116.8210 116.4265 115.8717 115.3641 114.9826 114.6550 114.0253 113.6076 113.1790 112.7978 112.4920 112.1154 112.2630 112.0920 111.9884 112.1070 112.3143 112.6034 112.9410 113.3469 112.5599 115.4032 111.5571 100.7163 106.3795 102.5500
99.7000 103.3195 114.5796 118.3495 120.6173 120.1225 119.7334 119.2399 119.1248 112.8825 118.7052 117.8396 117.3582 116.8899 116.4316 115.9769 115.4767 115.0492 114.4424 113.9024 113.4280 112.9143 112.4306 111.9829 111.5866 111.3027 111.0384 110.9529 110.9926 111.1401 111.4009 111.7419 112.2035 112.6777 117.2598 105.9549 109.8175 104.5690 102.9773 101.7200
121.4100 123.7188 122.4575 115.6145 120.0518 119.9172 119.7149 119.3008 118.9468 118.1583 117.4782 117.5728 117.0877 116.6470 116.1551 115.6364 115.1026 114.5397 113.9725 113.4014 112.8124 112.2176 111.6588 111.1068 110.6294 110.2214 109.9537 109.8271 109.8625 110.0573 110.3788 110.8063 111.3434 111.5713 113.9912 113.2940 115.0898 112.1456 102.9614 115.1700
121.3800 120.9129 120.1166 119.2693 122.5675 119.7934 118.9540 118.9237 118.7345 119.5299 119.8358 117.2206 116.9652 116.3841 115.8619 115.3058 114.7329 114.1306 113.5008 112.8479 112.1451 111.3847 110.8218 110.0637 109.5407 109.0519 108.6934 108.5278 108.5672 108.8198 109.2478 109.7968 110.3799 111.2015 111.4429 112.2152 113.7654 112.5433 111.3312 114.5900
121.3500 121.2145 111.4067 137.4176 102.6817 119.3107 120.7026 119.2066 118.5461 120.2905 98.3352 119.1154 115.3469 116.2418 115.5737 115.0032 114.3904 113.7311 113.0411 112.3041 111.6673 111.2589 110.2515 109.4856 108.3756 107.7162 107.2209 106.9875 107.0463 107.3938 107.9686 108.6786 109.4784 110.2682 111.1367 111.8606 112.5758 113.5209 114.4167 114.4600
121.3200 121.3805 120.5801 111.5658 116.8769 119.2361 100.5012 117.8149 117.9904 118.6734 115.4854 117.6016 116.2974 115.9304 115.3449 114.7314 114.0704 113.3637 112.6192 111.7773 110.8723 105.9096 108.1610 107.6353 107.0734 106.1678 105.4739 105.1221 105.2125 105.7310 106.5255 107.4773 108.4771 109.4633 110.4062 111.3056 112.1426 112.8853 113.6106 113.8600
121.3000 122.2425 102.2216 123.8511 102.4319 118.8370 107.7494 118.3960 117.8949 118.9851 92.7957 113.7600 115.9822 115.8240 115.1454 114.4925 113.7910 113.0354 112.2290 111.3377 110.3551 109.2491 108.9613 104.4540 106.0300 104.3364 103.3190 102.7284 102.8840 103.7230 104.9027 106.1928 107.4683 108.6610 109.7680 110.7844 111.7020 112.5678 113.3561 113.7500
121.2800 120.1049 120.5485 119.7561 120.1922 116.2814 110.2775 118.0820 118.2400 117.6674 105.9068 116.3870 115.8058 115.6407 114.9897 114.2915 113.5480 112.7715 111.8989 111.3411 109.9972 108.7110 107.4423 105.8730 104.1319 102.3345 100.5587 99.5217 99.7870 101.2444 103.0917 104.8749 106.5001 107.9287 109.2013 110.3338 111.3509 112.1232 113.1262 113.6600
99.3400 100.1748 98.9109 98.8623 115.4151 110.4327 120.0626 118.4159 118.2669 117.7078 117.5459 116.7294 115.9387 115.5048 114.8736 114.1411 113.7497 112.4993 111.6453 110.3904 109.4585 108.1817 106.6249 104.8316 102.6864 100.0390 96.7984 93.8783 94.7934 98.2260 101.1893 103.6649 105.6564 107.3201 108.7427 109.9075 111.1398 109.5606 113.0530 113.5900
121.0300 123.4138 121.4685 119.2768 121.3725 120.0234 118.7817 118.5240 118.1565 117.6700 117.0447 116.5374 116.0522 115.4362 114.8113 114.0990 110.2124 112.5384 111.5817 110.4708 109.2635 107.8438 106.1965 104.1633 101.5545 97.9465 91.5053 87.7015 88.4641 94.5681 99.5506 102.7263 105.0620 106.9065 108.4407 109.6344 111.2522 109.3139 112.8843 113.5400
121.0300 120.2798 119.8165 119.8200 119.1350 118.8612 120.1197 118.4038 118.1335 117.6591 117.1773 116.6314 116.0127 115.4066 114.8205 114.1197 104.8757 110.7845 112.4555 110.2819 109.1328 107.7180 106.0132 103.8845 101.0800 96.9828 89.0834 84.5124 85.7571 92.5685 98.9181 102.3832 104.8414 106.7614 108.3340 109.6598 111.0137 112.2849 112.7549 113.5100
121.0300 121.0300 120.5600 120.3100 119.8000 119.5300 124.9700 118.6700 118.0500 117.7300 117.0300 116.6600 115.8700 115.4400 114.5300 114.0300 113.5100 112.3500 113.3700 110.2500 109.4300 107.4900 106.3300 103.4200 101.4900 95.5400 89.6700 89.6700 89.6700 95.5500 99.0200 101.5000 105.0000 106.3300 108.5100 109.4300 111.0100 111.7000 112.9500 113.5100
