106.4800 102.3900 114.2800 108.0800 107.7300 109.3800 103.7600 103.7600 101.1600 110.3900 103.5300 116.8100 132.0300 132.0300 122.0300 122.0300 121.6200 121.6700 121.2500 121.2800 109.1800 120.9200 120.9200 120.7200 120.5000 120.5600 106.7800 120.3500 120.0800 120.1100 98.1400 103.1900 99.0100 116.2300 120.1500 120.1100 120.0900 120.0600 120.3300 120.2800
112.9300 103.6465 109.5187 109.6279 109.0556 108.8591 105.5828 103.5948 102.4794 109.4186 109.4994 102.7079 112.6423 124.3970 121.8335 122.1201 121.5853 120.9014 121.2085 110.0631 113.3301 118.6703 120.7665 120.4761 120.0088 120.0664 109.4313 120.7615 119.7487 119.7278 119.2548 121.4461 95.5220 118.5505 119.3227 119.9085 119.8992 119.9741 120.0548 120.2800
112.9300 108.2572 106.8636 109.0981 105.1576 102.9229 104.8411 104.8816 111.5922 112.7006 113.3973 114.2034 116.9786 122.3189 120.9332 119.6705 121.3016 121.2356 120.9595 121.8648 115.1834 117.3876 120.3750 120.1018 120.1653 118.3107 103.7463 120.3860 119.2003 119.5249 119.4002 118.9162 119.4804 119.1697 119.4612 119.4590 119.5226 119.5954 119.6907 119.5900
116.4900 107.3570 110.2582 110.3555 108.0930 102.5611 103.8809 109.9506 105.0243 117.0994 116.2711 108.2831 114.3181 121.2215 122.3621 119.4984 120.7499 120.6750 120.5386 120.3399 115.1428 121.3820 119.8626 119.8148 119.0764 119.5051 105.2366 117.9404 117.7623 118.9628 119.0469 119.2728 115.7407 118.8992 118.9417 119.0593 119.1260 119.2085 119.3072 119.2100
116.4900 111.0488 105.3475 109.4498 107.0758 99.2670 109.9619 108.3409 117.3645 109.5285 118.3633 116.6181 111.9336 113.0056 110.1356 123.9912 121.8180 121.0217 120.7970 120.2768 120.6771 119.6953 119.5614 119.2712 121.4026 117.6166 107.1901 102.9156 110.4089 118.5921 118.6923 118.3353 118.6693 118.4483 118.5553 118.6327 118.6745 118.8011 118.9018 118.8100
108.0100 103.3707 111.2915 108.7272 108.2983 103.4357 108.7400 105.5245 101.4210 122.6230 122.4464 122.8116 121.5357 109.8404 113.4801 108.6005 107.7482 109.4314 113.4196 117.2898 116.9983 119.2873 119.1031 119.1581 112.8569 102.1611 101.2604 100.8073 111.4202 118.1959 118.0952 118.4722 119.0722 118.4119 118.0642 118.1125 118.2838 118.3537 118.5336 118.4000
110.2800 109.0250 106.4481 105.5439 102.7141 107.8321 115.3529 100.3563 103.8522 107.7454 120.2973 120.6544 108.0777 112.2648 108.5860 111.2836 110.6247 112.0647 111.8661 116.9175 119.6233 119.2075 119.2921 109.6012 118.8168 106.9394 105.1641 103.0420 97.5594 117.3113 117.5713 118.6004 106.2718 116.2451 117.1563 117.9185 117.1761 119.3699 118.1277 117.9700
109.6800 111.1028 109.8336 109.3360 104.8504 107.0324 103.8785 109.7583 101.6964 120.3076 116.4148 121.8129 120.9154 119.7540 94.2916 104.8730 110.1558 109.5118 111.4584 117.5986 119.0079 105.2947 115.9149 95.4681 110.8690 102.1060 101.6950 102.2380 97.9008 117.6492 119.6688 107.4935 102.8358 115.5161 117.7294 110.0564 85.8684 120.3385 117.6844 117.5100
106.8600 107.8459 108.7291 108.1921 109.6968 111.4620 121.5410 117.3877 121.8086 117.4359 121.3118 121.1889 121.3259 112.0469 98.6386 96.6621 98.5717 109.5169 107.5881 106.4289 110.1603 107.1810 100.6092 95.0440 101.3048 103.7926 102.5809 98.7822 95.0155 118.5965 104.0053 96.5123 93.3339 115.7475 96.4294 99.6175 119.6168 116.3139 117.0719 117.0200
101.6500 110.2866 103.6530 106.0433 105.3216 101.4699 118.9929 115.1388 122.0247 122.6907 121.5116 120.5338 121.3470 97.9073 98.1068 107.2789 105.5059 106.4848 108.2028 107.9846 108.0879 101.9132 100.9157 97.2799 103.0818 98.3364 102.0199 97.1849 98.4737 106.6763 109.2011 93.9677 95.4918 115.3645 101.6753 104.9524 118.8829 118.0763 116.5944 116.5100
111.7400 105.7920 105.1555 102.3435 103.7365 112.9511 118.8727 112.4896 121.9968 121.1098 120.7186 114.9308 95.1074 98.3951 97.8028 111.7360 114.8345 114.2363 107.4507 106.1439 108.3096 106.4185 97.6480 103.6173 111.8819 107.9434 108.4612 94.7893 96.3019 95.6116 119.5087 98.6502 92.5387 113.5386 114.3345 107.3889 117.4841 115.5713 116.1395 115.9500
103.4000 104.6581 108.3508 105.0937 104.0935 118.3664 115.3677 117.5485 121.9004 120.9953 123.3288 103.1478 99.6435 95.5889 101.3669 103.7241 109.5824 120.1834 106.1368 104.7990 107.4205 108.4679 105.1744 112.9266 96.4861 112.3293 110.8836 101.0674 93.6440 93.4357 95.0086 114.7036 92.1036 113.5084 105.9904 114.4983 114.8909 115.3138 115.4733 115.3800
103.4000 106.0586 101.9756 106.8580 110.2008 119.1023 113.7524 121.0895 121.1097 120.5770 120.9556 93.7994 111.8382 113.5166 111.7539 109.0316 119.8592 118.5305 109.8989 99.0254 102.8482 105.3738 106.3519 105.4569 117.3856 98.6656 92.5216 110.3420 95.2113 98.0549 101.9458 114.9025 110.7382 114.2824 114.0617 114.0636 114.2838 114.6285 114.9036 114.7200
107.7500 104.6096 102.7912 103.5870 122.6711 115.1933 119.2759 121.0800 120.8638 120.3340 120.2625 113.1770 118.3589 103.3444 104.4297 107.2197 118.4578 117.8956 118.8087 108.7611 97.1425 103.0170 101.6242 103.8910 97.4033 106.4030 109.7260 105.6006 93.6150 106.9646 110.6126 113.0213 113.1988 112.9640 113.1757 113.4508 113.6998 113.9563 114.0888 114.7200
105.0800 104.0351 98.1739 117.7390 95.6092 114.1024 119.9423 121.6408 120.7228 121.1615 124.6519 104.7172 121.6551 114.0783 112.6328 112.4635 118.7520 117.6734 117.0618 116.7170 114.2124 92.7692 101.8262 98.4662 95.7799 95.9536 116.0884 97.4705 109.5877 112.1391 112.4774 112.3431 112.3742 112.3810 112.4632 112.6427 112.9197 113.2320 112.4274 113.9200
106.4200 103.9185 101.0473 103.9170 117.5957 102.8814 122.5579 120.2948 121.9476 106.5303 98.5720 104.7162 123.6716 104.9231 120.5271 117.8256 117.7394 117.4410 116.9651 116.3411 117.4896 103.7377 93.4295 96.7346 102.8043 93.4707 99.7292 113.3445 112.3942 111.8866 111.5861 111.4046 111.3239 111.3423 111.4995 111.7605 112.0991 112.3797 112.9569 113.2600
104.3800 103.6565 104.2215 100.1923 97.9701 112.8921 115.7277 120.8928 120.4872 120.6039 120.2481 119.2453 118.7233 108.0411 119.1056 118.2313 117.5514 117.1474 116.6688 116.3411 115.6106 112.1111 98.1420 110.5951 91.2240 116.2738 113.2042 111.5982 111.3062 110.8985 110.5725 110.3305 110.2305 110.2791 110.4716 110.7859 111.1920 111.6948 112.2019 112.4500
101.5300 105.2076 106.8944 100.2576 104.6537 111.7266 122.5177 111.9180 121.2712 117.7201 114.8606 119.3585 117.7891 118.7722 114.2472 118.6774 117.3551 116.9035 116.3610 115.6238 115.6501 111.3658 110.7217 108.0324 103.4249 105.0087 115.5540 111.9335 109.0217 109.8363 109.4505 109.1217 108.9874 109.0488 109.3019 109.7072 110.2245 110.8056 111.4434 111.4400
102.4100 103.6939 116.7366 106.5150 121.3400 110.7192 121.8558 116.3110 120.6135 115.8079 117.3598 117.7674 117.3228 118.9764 118.6259 113.9651 117.2329 116.7581 116.4839 116.5644 117.4242 94.5910 111.3192 113.0084 111.0091 103.4914 108.9700 106.2898 105.8344 108.8820 108.1381 107.7154 107.5396 107.6267 107.9635 108.4908 109.1604 109.8885 110.6516 111.3600
105.1100 104.9545 111.4314 103.6851 107.7480 106.8343 115.3357 112.3499 114.8776 99.2460 114.9384 107.4549 113.7818 118.8744 118.9953 104.6178 118.3748 116.3466 116.3512 106.4839 107.9965 93.1499 88.8137 115.6867 111.3811 112.9038 110.7264 109.3930 108.5101 107.1964 106.6733 106.0558 105.7951 105.9231 106.4043 107.1439 108.0142 108.9315 109.8553 110.1600
100.7500 99.6740 104.0108 113.5806 112.0734 106.8580 103.2449 109.7010 106.0073 103.6429 99.9876 113.1977 109.2810 119.2367 117.8987 118.6214 116.8143 117.0349 116.5289 96.3115 92.2266 91.8582 104.4238 102.6895 95.9785 110.7332 109.1836 108.3521 107.6556 106.2539 104.9441 104.0282 103.6118 103.8176 104.5695 105.6188 106.7820 107.9503 109.0542 110.1600
102.2400 105.2604 100.1187 99.6020 115.6897 104.9471 116.1776 111.6477 111.6753 112.1473 108.3916 121.2708 105.5184 120.0483 117.2580 117.0199 117.2108 105.2478 116.0211 115.3225 105.7621 90.8926 94.8155 90.0038 114.3577 110.4194 108.7657 107.7712 101.3809 103.8775 103.4116 101.4433 100.7236 101.0814 102.3305 103.9230 105.5176 106.9901 108.3257 108.9600
113.6700 104.0213 99.4086 104.2345 117.9777 121.4914 122.9750 122.5450 122.3746 121.5617 121.2065 120.4264 121.3916 120.5794 119.3990 118.0824 116.1072 113.3793 114.3751 114.0874 115.6463 94.4510 86.9151 93.7548 99.1849 108.8745 108.1877 106.8534 101.5981 100.2240 100.5554 97.9732 96.1238 97.1400 99.6845 102.1263 104.2940 106.1225 107.6842 108.7100
114.1400 105.8805 98.9626 115.9814 115.8696 115.9293 117.8751 116.2225 115.5444 115.8842 111.1820 108.6757 107.5550 106.5630 103.0028 104.1400 118.9709 117.8402 117.6199 116.0986 115.0156 114.7821 109.6093 114.4896 110.6108 109.7240 107.7892 106.0912 104.2401 101.8166 98.2807 92.6285 89.1890 90.9097 96.5855 100.4587 103.2898 105.4568 107.2156 108.5800
114.5000 104.7322 109.3368 109.4756 108.0181 109.7102 115.5193 114.6185 115.5621 113.0798 113.1042 105.4417 104.1995 103.4200 104.4875 101.1988 101.8086 99.4439 97.7587 96.7436 99.6486 94.4111 92.9942 92.1239 90.7639 101.0335 107.5837 105.8541 103.6292 100.7063 96.4370 88.4261 84.4455 86.4215 93.9181 99.4360 102.7351 105.1096 106.9742 107.4900
104.6500 108.7247 108.0567 108.1710 107.8042 109.6278 115.2955 113.3148 115.9681 113.0114 114.4929 106.0432 110.1095 103.6370 105.3396 103.2844 99.9725 97.5228 96.0275 94.6514 98.2291 92.3987 90.3734 89.8530 88.1127 99.6189 107.6348 105.8566 103.6869 100.8173 96.7549 89.0670 85.4735 87.1546 94.2825 99.5563 102.8041 105.1561 107.0101 108.5200
107.9500 103.4392 101.5970 99.1410 106.4645 105.1365 114.6724 113.4292 113.9979 113.1116 110.7803 104.8419 109.4523 110.6280 102.8870 105.0559 101.1947 103.9927 102.2549 95.8740 96.9140 91.5797 100.7319 107.8674 111.4870 110.0066 107.3684 106.1907 104.2709 101.8100 98.4370 93.4075 90.6135 92.1273 97.3010 100.7714 103.4724 105.5740 107.3019 108.5800
100.7000 100.3810 100.3186 99.5189 104.8210 105.1551 113.8533 112.5836 107.3060 111.8619 106.8472 113.6144 102.0231 111.6367 110.1209 116.2481 117.7510 116.8873 116.7153 116.3623 115.9600 115.3486 113.4719 111.6747 110.0042 106.2073 105.7479 106.8696 105.2193 103.2492 101.0047 98.9768 97.3431 98.1481 100.2457 102.5086 104.5415 106.2939 107.8139 108.7100
106.9000 100.9978 109.9869 101.7636 108.6529 112.0227 116.1453 113.8432 113.4345 109.0947 114.0078 118.8305 95.9585 101.6236 123.4437 116.3574 116.2067 116.0535 115.1130 114.5080 113.7409 109.2314 112.5205 111.9528 101.5830 103.1231 109.5926 107.4271 106.2117 104.7477 103.3122 101.9996 101.3652 101.6905 102.8388 104.2960 105.7858 107.1867 108.4741 108.8900
100.7500 109.9954 117.4088 116.1520 118.5887 124.0350 115.1127 112.7282 113.4239 112.0103 117.3319 109.0561 100.1106 96.4706 111.8166 119.2063 117.6298 116.3809 115.8814 115.4147 115.6327 108.5103 115.8566 113.5868 113.0160 108.4627 106.5257 108.9782 108.5315 106.3245 105.2987 104.4756 104.0972 104.2905 104.9759 105.9494 107.0472 108.1611 109.2293 109.9400
100.7300 114.3020 121.6342 122.8058 121.9956 122.7879 122.5016 107.8144 106.4998 109.0472 110.4526 111.5554 111.3351 114.6645 102.4806 104.4981 119.1031 116.6067 116.2037 114.9617 114.1522 101.0315 105.3997 100.6139 112.4715 106.7279 105.1068 105.0753 109.5336 107.7541 106.9665 106.4162 106.1722 106.2820 106.7475 107.4412 108.2675 109.1417 110.0226 111.1200
100.7700 109.6583 111.3813 116.6252 122.1710 120.3718 108.3959 114.5215 113.2045 119.3728 113.0811 110.6480 124.6741 105.0571 112.7894 106.4808 117.7732 115.5962 115.7946 116.7776 113.0703 93.9232 111.2577 95.3419 113.1307 112.1199 111.3996 104.4747 110.3882 108.9799 108.4318 108.0168 107.8487 107.9583 108.2712 108.6915 109.3683 110.1019 110.8152 111.3100
124.5600 122.1347 121.6082 120.8390 119.4559 119.4102 117.7336 122.6032 118.7504 109.6678 119.7497 100.1549 104.8740 114.6587 122.2523 121.4187 117.5053 132.0315 115.6378 101.5478 114.3341 100.1017 107.7309 113.2322 111.4896 112.4074 112.0773 111.3538 110.6737 110.0806 109.6815 109.3816 109.2670 109.2528 109.4389 110.1417 110.4627 111.3979 111.6058 112.2200
114.9200 123.8416 123.4713 121.1307 119.4048 111.9323 113.6940 119.7021 108.1732 102.0325 118.9743 115.9022 115.5702 116.7076 96.2463 96.9599 103.0496 101.0673 100.5059 108.8675 100.0014 98.3326 93.0228 103.4572 116.2391 112.7782 112.5249 111.9981 111.5368 111.1021 110.8042 110.5357 110.3803 110.0468 110.6309 111.2591 105.2306 112.0181 112.2772 113.1000
123.0200 123.0360 118.7751 121.5461 122.1130 114.5717 113.0438 121.7343 120.7336 119.8076 122.3203 119.9417 119.7811 118.9650 117.5852 116.1697 100.7763 98.8316 98.2682 102.6615 98.7295 96.1061 105.6740 113.9886 114.2186 113.6701 113.2494 112.7978 112.3774 112.0896 111.7389 111.8029 112.1350 113.5445 106.4102 107.9094 107.5988 111.9739 113.4670 113.1500
116.0000 114.9196 114.9480 120.2818 113.8478 118.1751 121.4387 122.0584 109.3917 116.8043 126.2431 120.3865 119.2409 115.6513 119.1325 118.8192 118.0206 118.0324 117.2391 98.0009 94.7673 95.4039 93.0481 116.2733 114.3999 114.0406 113.9067 113.5270 113.1648 112.8931 114.9735 109.9941 113.1362 92.2512 114.5374 98.9081 98.9360 96.8927 112.5576 113.9400
101.0800 100.1670 113.5065 115.8794 110.8923 129.2068 103.7648 119.0118 120.5691 119.4528 112.7960 120.8874 120.7494 119.8833 119.1602 118.7979 118.3069 114.5812 106.0375 96.3375 117.5014 118.5798 117.1203 111.4657 115.5844 114.8122 114.5525 114.2085 113.9138 113.4960 113.1758 113.2977 113.4498 112.5656 115.9031 95.3322 92.6631 108.7078 117.0295 114.6500
101.2900 107.7265 104.6816 99.9907 104.7897 101.5038 121.9694 111.6606 117.9882 119.1273 103.7831 116.9673 116.0774 121.9473 119.1666 118.8675 119.6702 119.7251 117.5755 112.3291 118.5333 116.7292 116.9975 115.7002 115.4764 115.4371 115.1360 114.8537 114.7689 114.3526 101.4353 113.0905 113.3736 114.1915 115.4252 95.1392 92.0639 94.2761 115.2192 115.2000
105.9200 103.8119 110.6051 118.9541 109.1818 105.8616 117.0785 114.4575 109.2004 120.6870 117.0727 105.6598 103.9415 120.3804 119.4746 119.2379 115.2115 116.1877 90.7149 114.4373 117.5276 117.3674 116.9068 116.5933 116.3239 116.0243 115.7087 115.4613 115.3490 115.4491 103.4667 114.7023 114.2866 114.9999 115.5111 95.8490 115.1141 90.3002 117.1381 115.9000
113.7000 111.6100 101.0200 100.8400 114.6500 104.6900 99.9100 103.3400 104.6700 104.3400 101.6500 104.4200 120.4100 120.2200 119.7000 119.4600 114.4400 118.7000 97.0000 118.1200 117.8900 117.5500 117.2400 116.7000 116.7000 116.2900 115.9700 115.6200 115.7100 115.7100 115.3200 115.3500 115.3700 115.3600 115.3300 93.2300 115.7400 115.6500 116.0200 115.9000
