110.9100 110.4200 114.3500 112.5400 109.3100 111.2200 101.7600 103.9300 104.8600 105.8500 106.2400 107.9700 120.0900 116.3300 120.1300 119.8800 119.6100 119.0600 118.7700 96.5900 95.8400 115.7800 116.8000 116.0400 115.6300 115.2000 96.3800 113.7800 112.6900 112.0900 111.4500 110.0200 109.2100 108.3400 107.3700 105.0900 105.2800 103.7800 103.8900 103.8500
110.9100 110.2558 110.7635 110.1091 107.1302 112.2388 102.2151 103.4101 113.7696 103.6483 102.5771 117.6779 120.0986 118.6306 121.6043 121.8596 121.8774 119.6474 107.6127 99.9138 104.7767 117.0208 116.6804 115.9224 116.4980 116.6283 109.3435 113.8515 111.9257 98.9568 112.9652 106.4213 109.3273 107.6815 106.4213 105.0595 103.7311 102.6620 102.2157 101.3300
108.7100 108.8922 106.7623 109.1263 106.6124 101.7246 101.4985 108.6856 110.9378 101.5618 98.7562 123.1847 112.6613 121.1113 121.3737 111.1213 107.3590 108.8854 93.4501 94.7054 112.6934 116.2221 116.6792 115.7498 110.4802 109.8593 104.3005 113.7575 113.2254 100.1908 109.4684 105.9961 108.8249 106.8560 105.2462 103.4332 101.4335 99.6884 98.7477 97.7500
106.2600 107.8961 108.9878 110.0703 108.3390 105.0063 105.1380 110.3184 103.0190 102.2608 106.7824 124.4135 103.7536 122.2996 114.3546 110.4297 117.8832 90.9037 112.2636 111.5774 116.3709 116.7586 116.5612 115.7954 106.7877 110.3152 107.5335 115.6964 112.3056 111.7891 110.9293 109.0686 107.7962 106.1475 104.1932 101.8152 98.8542 94.8936 92.5091 91.5900
116.4500 106.2073 111.4047 105.3063 103.4843 101.8044 114.4462 107.9052 104.1934 103.6823 101.5783 106.4257 100.6141 110.9153 118.6693 121.1378 120.0625 110.3161 112.5047 119.6805 117.8321 117.2528 116.4319 115.6644 105.9257 115.0223 105.3555 95.7366 113.7632 107.1595 110.2403 108.7387 107.3616 105.6564 103.4652 100.5556 96.3801 89.3836 87.4072 91.5900
113.2000 111.9128 110.3844 109.6566 109.3043 99.0956 112.9206 114.6040 106.5263 101.5746 97.2790 97.3986 102.6930 117.4029 118.6431 119.8470 119.1243 118.8802 117.2084 113.8416 117.9484 116.9694 116.5140 116.7174 108.0426 97.4396 102.4920 89.8334 115.5636 106.4136 110.7905 108.7945 107.3380 105.5250 103.2510 100.1483 95.3707 87.3307 86.1404 90.8900
102.1000 111.0203 101.4800 112.1081 106.3657 101.6851 100.9956 113.8319 113.7149 121.8647 120.8633 120.4252 120.6060 123.9739 121.9118 119.7572 119.3140 119.0075 118.5900 117.9799 117.5039 117.0206 118.0515 99.5324 102.5795 100.8364 94.2320 95.4006 96.9551 118.4937 106.1464 109.2634 107.4361 105.7049 103.5912 100.8024 96.8162 90.3195 88.6144 90.8900
102.1000 119.8003 99.7926 101.3982 100.8441 109.7671 109.8213 112.6150 122.2761 121.8515 121.2971 121.1537 120.4248 113.7748 114.6112 119.5045 119.6494 118.9604 118.5361 118.0457 117.5665 117.1051 118.2231 101.8928 101.0940 101.8543 96.7611 96.0130 116.9259 122.2788 110.5644 108.9601 107.5856 106.2884 104.3966 102.1695 99.4380 96.1722 94.0688 91.5800
105.6300 106.3863 110.2081 103.4634 104.4726 113.3992 116.2994 116.3192 122.4009 123.1140 121.6145 121.2754 120.8363 122.2070 99.7092 119.4730 116.0731 119.0794 118.6153 118.1292 117.6403 117.2108 116.8219 116.8947 115.3724 109.8672 114.9614 114.2646 111.1680 110.5583 110.6919 109.9445 107.4310 107.4745 105.5570 103.7654 102.0082 100.4093 99.6459 101.3200
115.9300 112.5000 122.9749 105.3455 106.5854 112.5529 118.0197 115.9593 122.4971 121.7862 121.5482 121.2797 120.3930 118.2896 107.9986 105.4731 112.0891 119.1537 118.7249 118.2086 117.7479 117.2921 116.7195 115.4417 115.4197 98.0864 113.2661 113.2453 113.1703 111.9924 110.9048 108.7900 109.4649 107.1550 106.7246 105.4270 104.1893 103.2361 102.8427 103.8500
110.4300 107.4928 102.9593 103.4657 106.4170 112.7461 121.0695 116.4567 122.7894 121.9841 121.6290 121.2993 120.9392 123.8586 115.3547 121.9271 120.4840 119.1832 118.7427 118.3285 117.8695 117.3939 116.9217 116.3025 115.7313 117.2275 114.9964 113.8620 113.2272 112.2065 111.3258 104.2398 110.3470 109.0233 107.8635 106.9106 106.0631 105.4478 105.2116 105.8000
110.4300 115.2797 107.0541 106.1672 106.1678 110.5076 123.7981 117.5147 122.5710 121.9650 121.6925 121.3618 120.6312 125.3623 122.6460 119.9213 119.3940 119.2566 118.8691 118.4398 118.0040 117.5605 116.9817 116.6099 115.9593 114.9875 114.4584 116.5256 113.2917 112.8910 112.5290 112.3284 110.4638 109.7851 108.9970 108.2662 107.6469 107.2242 107.0591 107.3900
105.1300 112.9046 110.5985 108.1712 105.1021 110.9615 109.3307 122.4183 122.4522 122.0347 121.7604 121.4688 121.0125 118.2277 107.6721 125.1691 119.3850 119.3936 119.0068 118.5919 118.1668 117.6266 117.9323 116.8562 116.1872 115.8324 115.1830 117.9789 113.7881 113.3767 112.6177 111.8813 111.3889 110.6917 110.0522 109.4813 109.0072 108.7041 108.5861 108.7400
122.6700 116.5534 110.6197 108.6767 109.6513 112.8205 115.9303 122.9371 122.4379 122.1199 121.8380 121.5662 121.2228 117.6202 114.9147 118.8790 120.2427 119.4797 119.1434 118.7491 118.3504 118.0997 112.2457 123.5696 115.7976 116.1018 115.3646 114.4885 114.4716 113.8486 113.2866 112.7139 112.1104 111.5523 111.0235 110.5669 110.2048 109.9731 109.8831 109.9000
102.3500 109.3686 111.4863 105.0889 123.5676 117.6238 123.1499 123.1807 122.4643 122.1994 121.9313 121.6384 121.2926 121.4610 120.8087 118.4578 120.0601 119.6822 119.3009 118.9235 118.5801 118.0359 116.2504 119.1729 116.6317 116.3445 115.9028 115.3723 114.8926 114.3588 113.8426 113.3194 112.8206 112.3511 111.9196 111.5511 111.2658 111.0822 111.0181 110.9300
108.8000 112.1318 108.2240 109.1132 111.5721 127.1648 116.2334 123.2879 122.3344 122.3194 122.0351 121.7408 121.4219 121.1445 119.7371 120.6840 120.1512 119.8368 119.4812 119.1104 118.7177 118.7789 118.2244 117.2072 117.2894 116.6643 116.2306 115.7870 115.3189 114.8610 114.4045 113.9527 113.5170 113.1346 112.7607 112.4498 112.2175 112.0674 112.0104 111.8400
109.8400 108.4864 106.9670 107.3238 110.2411 102.3239 126.7883 122.5071 122.6064 122.3780 122.1300 121.8328 121.5622 121.2792 120.9362 120.6459 120.3413 120.0023 119.6641 119.3604 118.6806 117.3392 108.9601 118.9827 117.3977 116.9848 116.6389 116.1722 115.7770 115.3638 114.9585 114.5347 114.1777 113.8146 113.5300 113.2704 113.0714 112.9533 112.9103 112.6700
111.4100 106.6659 107.2205 105.1426 107.8184 107.1122 126.7647 122.6015 122.7669 122.5571 121.5230 121.9339 121.7095 121.3958 121.1011 120.8039 120.5009 120.1843 119.8623 119.5166 119.0661 119.7439 118.1167 125.5690 116.8848 117.4761 117.0785 116.6795 116.2702 115.8998 115.4644 115.1359 114.7998 114.5134 114.2416 114.0237 113.8628 113.7590 113.7240 113.4300
118.6400 113.5200 105.6329 105.1595 125.6197 124.1803 123.3593 123.2060 122.7401 122.3307 119.0037 122.2116 121.8349 121.5268 121.2712 120.9658 120.6742 120.3627 120.0590 119.7243 119.4294 119.0176 118.2374 118.2196 117.9224 117.5642 117.7561 118.1040 115.8134 115.7617 115.6915 115.6691 115.3946 115.1305 114.9080 114.7232 114.5772 114.4950 114.4661 114.7700
110.1900 109.4179 110.2283 121.4970 122.8449 120.5641 123.5146 123.0541 123.3392 124.2095 122.9768 122.1314 120.5207 121.6916 121.4197 121.1332 120.8547 120.5598 120.2588 119.9603 119.5947 119.8524 119.4101 119.7660 120.1534 117.7907 118.2802 105.1724 106.4723 119.8825 116.1153 116.2388 115.9628 115.7292 115.5270 115.3732 115.2455 115.1727 115.1543 115.3700
110.1900 112.7318 118.4174 115.8017 124.9584 118.9945 124.0863 123.4578 116.2207 122.5365 122.2836 122.1740 120.3051 122.0056 121.5876 121.2995 121.0421 120.7616 120.4682 120.1913 120.0452 115.7301 117.9546 118.7723 108.4283 109.9537 118.2455 118.6911 120.5475 118.1125 117.0122 116.7106 116.4914 116.2840 116.1155 115.9707 115.8659 115.8070 115.7883 115.9300
107.0900 104.7937 106.6992 100.6280 124.9574 123.7785 123.6988 123.8088 112.9214 122.8329 122.5723 122.8025 122.5264 121.7359 121.7580 121.5535 121.2279 120.9569 120.6830 120.4270 120.2190 116.9261 118.2642 118.6603 105.8051 109.7568 119.0792 110.4009 117.1061 117.1563 117.4343 117.1964 116.9982 116.8178 116.6626 116.5403 116.4507 116.3912 116.3729 116.4600
108.3000 111.2691 113.2299 120.7874 123.0649 124.3935 123.7092 123.5076 124.3181 123.3101 122.8914 122.6763 121.7146 122.5150 122.0458 121.6667 121.4028 121.1633 120.9050 120.6616 120.1412 121.4072 119.5648 114.3321 112.1300 103.3180 116.5244 118.7437 117.8221 118.1626 117.8197 117.7070 117.4806 117.3246 117.1834 117.0754 116.9929 116.9438 116.9293 116.9600
114.9500 105.0930 127.0405 125.2301 125.6306 124.2880 124.1411 123.6225 123.2687 123.1082 123.2090 122.9263 125.9443 104.3628 125.1404 121.6111 121.6601 121.3734 121.1254 120.8879 120.5655 121.0954 103.4996 98.8275 104.9399 116.5424 117.0000 120.7418 118.7199 118.2557 118.7514 117.9314 117.9563 117.8180 117.6781 117.5804 117.5115 117.4630 117.4499 117.4300
105.4300 114.0368 124.8597 118.8806 116.1932 116.9372 124.2157 123.7690 123.6093 123.3895 122.3975 122.9541 103.3743 101.8026 114.9224 121.8790 121.7411 121.5866 121.3456 121.0973 120.8967 121.1495 117.1406 117.1342 112.4944 121.6898 119.3508 119.3403 118.8957 113.8506 116.4396 119.3000 118.4219 118.2156 118.1439 118.0628 117.9918 117.9517 117.9431 117.8700
103.2700 108.0092 124.3858 124.8592 124.7682 124.6048 124.1319 123.9352 123.7371 123.4262 123.5785 114.3671 114.2939 122.6870 122.1956 122.4184 121.9782 121.7931 121.5616 121.3388 121.1406 120.8804 120.3075 122.6782 112.0978 121.6382 119.5477 119.7396 119.7063 119.2915 120.4826 112.6966 119.1779 118.6659 118.5864 118.5128 118.4624 118.4251 118.4119 118.3000
125.3100 126.1634 125.7509 124.7067 124.5661 124.4908 124.2768 124.0569 123.8346 124.9353 109.5692 102.7182 123.6080 122.2622 122.5263 122.4473 122.2130 122.0023 121.7871 121.5791 121.3512 121.1759 121.0243 120.5663 120.4033 120.5296 121.1276 114.1914 120.2825 119.8974 110.5295 112.4905 120.2941 119.0502 119.0138 118.9465 118.8599 118.8042 118.8192 118.7000
125.3400 124.9402 124.8711 124.9150 125.2500 124.5740 124.4065 124.1457 124.4313 123.7048 124.4079 125.1131 122.5814 123.0755 122.8157 122.6356 122.3945 122.2174 122.0125 121.8054 121.6063 121.4112 121.2140 121.1292 120.0738 107.4326 117.3956 117.7426 119.6922 120.0212 119.8351 120.8363 119.2974 119.5265 119.4189 119.3440 119.4946 119.5378 119.3591 119.0900
123.0700 124.9440 125.1875 124.9751 121.7741 124.8171 124.5560 124.3846 121.1747 123.7607 123.3329 123.5106 123.6567 123.2282 123.7769 122.6816 122.7430 122.4141 122.2294 122.0332 121.8432 121.6675 121.4417 121.5115 121.1338 110.5202 110.6029 119.7605 120.2336 120.3055 120.1312 119.9019 119.9759 119.8905 119.7988 119.8211 118.8952 118.7077 119.5929 119.8200
119.5900 112.7236 126.3175 123.3436 115.0649 125.2375 124.6862 124.6329 120.9274 122.4944 124.3254 123.8069 123.5826 123.2732 121.6149 115.1096 122.8275 122.5716 122.4792 122.2710 122.0979 121.9026 121.6883 121.9657 122.4699 120.5474 120.2267 123.0055 120.6889 120.6677 120.5543 120.4523 120.3269 120.2430 120.3439 119.3101 131.7058 123.6291 120.1326 120.1600
119.2700 110.2406 127.7209 127.9895 126.8564 124.7542 124.7977 124.5852 123.8334 119.7402 119.0236 124.4097 123.5248 124.2307 121.2470 109.0828 123.5333 122.8486 122.6260 122.3615 122.2450 122.1776 122.2061 122.3151 121.3275 119.7737 118.0163 121.4322 121.0939 120.9787 120.8687 120.7603 120.6789 120.6018 120.4716 120.6007 108.0715 116.3558 120.1607 120.4900
125.9300 114.3895 123.2249 122.3250 125.1513 125.1384 124.9102 124.7787 123.4391 124.8418 119.8318 124.2958 124.4113 123.7455 118.2289 115.4004 122.6461 123.7731 122.7724 123.3113 122.9076 121.8511 119.6120 123.8301 122.8394 121.1858 120.1303 121.3713 121.4169 121.2947 121.1909 121.1018 121.0172 120.9417 120.8891 121.5666 121.3340 120.7756 120.5985 120.8000
125.9700 116.4830 124.5994 125.0267 125.4849 125.2748 125.0584 124.8458 125.5740 118.1319 123.7307 120.4520 116.8390 111.6793 113.3828 130.4209 116.8581 118.5663 123.8853 116.8607 121.2765 121.7476 114.8209 115.8428 114.5808 106.2302 122.6109 121.7959 121.7009 121.5965 121.4993 121.3917 121.3137 121.2696 121.0737 120.6747 114.9447 116.5598 120.7110 121.1100
104.1300 127.7930 126.1001 125.5857 125.4360 125.3482 125.2183 125.0735 124.7994 123.6224 124.2580 123.8894 113.6487 109.9710 127.2714 111.1988 101.4501 101.9910 124.8678 116.4880 121.7299 116.6865 114.0265 110.0081 101.0897 110.6804 122.3155 122.1279 121.9911 121.8935 121.8072 121.8312 121.6945 121.5123 122.7376 121.3312 122.0443 121.6058 121.4577 121.4000
126.1700 126.4866 125.8238 125.7551 125.6861 125.3954 125.3663 125.1949 124.9851 125.1274 122.5722 121.8597 125.3566 123.5356 124.3598 122.0323 118.3330 118.3938 103.0049 124.4188 115.8097 101.6089 104.3246 104.2491 103.0681 122.5279 122.0603 122.3459 122.2881 122.1811 121.9531 121.0877 121.9827 122.2398 120.8590 122.0396 121.5944 121.7472 121.7457 121.6900
126.3300 126.1929 125.9924 125.8044 126.0912 125.8659 125.1453 125.3580 125.2490 124.9020 125.4116 125.0803 124.6452 124.4494 124.2757 123.9902 125.0516 125.0091 123.3187 118.3635 106.5355 107.7354 102.3074 99.5769 118.2637 123.8072 122.5556 122.6343 122.5446 122.3601 121.3871 135.1223 110.9305 120.6314 107.2109 122.9836 122.1368 122.0448 122.0587 121.9700
126.3700 123.0572 126.6556 125.9432 119.0042 106.8337 119.6626 125.5740 124.9787 125.0402 119.8294 122.2407 125.0093 124.6268 124.5569 124.1176 125.7538 109.8469 101.1118 121.4206 126.5430 124.4945 107.2214 108.3557 123.1719 122.8608 123.0924 122.8837 122.7811 122.9125 103.6563 122.2532 114.1212 106.3962 124.4289 122.1279 122.3917 122.3541 122.3525 122.2300
126.5300 106.1466 125.8598 119.7794 112.2510 120.9222 127.1487 125.2311 122.2770 126.8625 125.0330 125.4632 125.0910 124.7337 124.3640 124.8449 121.5359 126.5820 111.2420 109.5578 120.3943 124.3263 120.1410 123.0891 123.3509 123.2464 123.2220 123.1581 122.9108 122.8251 111.9182 122.0888 124.7837 124.1455 122.4726 122.7185 122.6490 122.6371 122.6372 122.7500
126.5700 126.7094 127.7653 126.7418 127.0599 111.3298 125.9034 125.7866 125.5689 123.7487 120.9030 122.7149 123.4642 124.4430 125.0521 123.5642 124.8617 124.6315 121.7951 120.1731 125.4750 124.0197 124.1836 123.6590 123.6475 123.5590 123.4809 123.3844 123.1311 122.8561 108.3311 122.7246 111.6502 123.2964 123.0874 122.9292 122.9152 122.9095 122.9004 122.9900
126.7300 126.6200 126.5100 124.7200 126.3000 124.3300 124.0100 125.8400 124.0300 115.5000 103.4900 103.3500 125.2300 104.2800 124.9800 124.8700 124.7300 120.3900 124.3500 124.3500 124.2400 124.1300 124.1300 123.8300 123.8300 123.6900 123.7400 123.5900 123.4300 123.4700 123.2900 106.7700 123.1400 123.1600 123.1800 123.1900 122.9800 122.9900 122.9900 122.9900
