106.6700 108.3700 101.7400 104.5900 106.0700 102.5400 100.6800 100.8900 100.3000 108.9200 110.3800 108.4800 122.0800 122.4100 120.3500 120.1100 119.6000 119.3300 119.0600 98.9900 117.1800 110.4200 117.2400 116.8800 116.5400 101.4500 98.6300 92.9900 97.7400 97.8700 97.8700 106.8200 106.5800 112.2400 111.6300 111.7400 111.7400 110.9400 111.7800 111.7800
106.6700 111.9975 102.2685 107.1407 101.6823 100.5069 103.3252 103.3844 111.7817 104.2562 105.2447 136.0971 126.4394 122.3024 120.6249 120.1589 119.8681 115.0489 120.4769 97.7426 118.4409 113.9778 116.7063 116.4505 115.8007 95.4230 109.1148 92.0113 110.6841 103.7132 105.1896 107.5865 107.0126 111.9831 111.2019 110.9157 110.7235 110.6484 110.7087 110.8500
108.8000 111.8929 104.3995 113.1509 105.3272 106.0126 103.0131 108.4683 111.5954 99.9588 100.9813 120.1773 110.1230 121.5398 119.5255 119.9299 119.5352 109.0154 102.4950 101.8486 123.7479 123.3895 117.4739 116.2993 117.2467 105.1866 107.4192 87.8724 106.7105 99.6614 114.5079 106.1766 107.7509 110.8171 110.2472 109.8289 109.5657 109.4683 109.5452 109.8100
116.1300 108.2252 107.8717 108.0208 103.1661 109.3127 99.6845 104.6424 98.6281 104.0053 102.1328 123.5681 106.0519 121.6871 127.1137 119.4671 119.5823 116.8297 109.8442 107.0706 116.4788 107.1526 116.6492 116.1674 115.5371 91.9608 108.2148 106.2930 106.6532 94.3676 115.5176 111.8744 110.5063 109.6459 109.1325 108.5790 108.2301 108.1004 108.2050 108.6200
110.0600 114.9724 108.7579 107.0185 108.2226 103.2432 116.8617 112.1881 118.9978 113.6178 118.0637 111.7625 98.3877 111.2774 122.8514 119.9963 119.3495 119.2927 116.0768 116.8861 115.3743 118.1126 116.6334 115.9642 115.7668 120.7044 94.6203 97.1795 117.2454 93.9046 109.0464 110.8130 109.3010 108.6855 107.8359 107.1478 106.6624 106.4768 106.6277 107.2300
111.3900 105.9405 110.1411 111.9294 107.6083 104.4491 109.9527 123.1822 119.4203 122.0293 121.7425 120.7321 117.4248 108.7348 112.7060 119.1841 119.0233 118.6915 117.6923 117.8680 117.5880 116.7987 116.2692 115.6568 114.9905 114.1412 110.7322 108.4435 112.6918 106.3963 103.8857 108.0881 108.4757 107.5006 106.4342 105.4789 104.7727 104.4799 104.7182 105.5800
107.3500 113.0169 108.5428 107.4581 101.7302 104.9262 120.8755 100.5185 123.8865 121.3190 121.1900 120.8140 120.5442 124.7496 135.5242 119.6960 119.5172 118.5141 118.2289 117.7429 117.2112 116.7037 116.2245 115.5988 114.4499 114.5327 121.3021 117.8371 112.2989 110.7005 110.0658 109.1826 107.4253 106.3207 104.8981 103.5140 102.3687 101.8724 102.2611 103.2800
106.9100 107.0415 107.1949 106.2146 104.7375 108.1270 121.0010 113.4667 124.3944 112.1304 122.2969 120.7525 120.3787 121.7291 97.5371 117.0444 98.6374 120.8790 118.0895 117.6159 117.1328 116.5849 116.1663 116.3412 101.0276 115.2440 112.1280 112.2461 111.8101 110.6050 109.4317 108.6351 103.1356 105.5494 103.1881 101.1783 99.1835 98.1612 99.0918 100.8200
109.1000 110.1582 107.6497 107.3723 106.2789 106.9463 119.3457 112.4497 107.7278 122.6040 121.7803 120.8236 120.3816 122.4393 100.1561 119.9051 113.3796 119.8649 118.0828 117.5466 117.0530 116.5116 115.9226 115.3772 116.4493 115.5167 113.0669 112.5015 111.4444 110.3030 109.1128 107.7113 106.2249 104.2113 101.6994 98.6006 94.2852 91.6010 93.5955 96.8800
107.6800 110.0092 104.6400 104.1282 104.0534 107.6414 120.1945 113.4913 124.1045 121.2383 121.1094 120.5659 120.1239 119.0381 121.2108 119.7451 119.4486 118.5191 118.0648 117.5683 117.0862 116.5877 116.0159 115.5456 111.9485 108.2060 113.9557 112.1189 111.1961 110.1358 108.8689 107.4119 105.6200 103.4461 100.5282 96.2889 89.0389 86.4445 88.5541 95.9300
102.0300 104.0232 102.7441 103.9079 104.5359 108.8830 120.6079 113.7930 121.8601 121.4275 121.2066 121.8368 123.3863 120.3927 121.9895 120.6802 118.9918 118.4887 118.0415 117.4987 116.6212 115.9348 115.3640 115.4185 105.5316 88.4501 112.0954 113.3793 111.3174 110.0945 108.8277 107.3502 105.5758 103.3252 100.2563 95.5680 87.5354 84.9186 87.4398 89.4900
109.4000 112.4191 107.0745 107.0971 104.3516 105.1275 118.5944 119.8399 121.8079 121.5869 121.2626 112.6543 108.1575 107.0637 109.1478 112.0277 118.9950 118.4856 118.0817 117.7248 118.9025 118.4729 118.2333 117.1044 110.1954 102.8950 114.7985 110.4837 111.4916 110.1944 108.9521 107.5301 105.8239 103.7207 100.9965 97.3010 91.1865 88.2966 90.4958 96.5200
108.4300 111.4743 108.6318 106.7530 105.2289 109.6928 116.9530 123.3256 121.7068 121.5622 122.3374 111.9810 112.5353 109.8016 94.8211 116.1354 118.7579 118.5624 117.8746 115.0676 106.4062 103.6351 101.5563 114.7545 115.8225 115.1315 112.9834 111.1721 111.4800 110.4325 109.2619 107.9353 106.3948 104.5756 102.4098 99.9494 96.8784 94.9774 96.5322 100.3400
109.9200 103.1747 102.7200 104.4724 105.9750 117.6328 116.0122 123.5450 121.9719 121.2078 120.7486 101.9785 123.5654 113.0694 107.8463 112.7806 119.3011 118.7415 117.8184 110.1215 95.5224 110.8909 112.4342 115.5716 114.5310 113.8844 113.5681 112.8143 111.7331 110.7708 109.6965 108.5066 107.1791 105.6872 104.0372 102.3365 100.7937 100.1034 100.6764 100.7500
105.2200 101.6135 101.8357 102.5773 117.9450 110.6022 123.8658 122.0435 121.9319 121.5220 119.6502 116.8120 100.5076 105.3018 109.7229 110.2327 119.5870 118.7556 118.1123 116.3852 113.6342 118.3025 117.2293 115.6153 115.0767 114.4352 113.6721 112.8937 112.0885 111.2076 110.2376 109.1970 108.0617 106.8678 105.6512 104.4793 103.5559 103.1723 103.4815 103.4900
108.4500 102.4664 104.6871 114.8183 112.2083 123.1015 121.0895 122.5549 121.9595 121.5121 121.8794 118.1221 119.0237 120.0255 120.1615 119.6311 119.0863 118.7835 118.2905 118.0192 117.6722 116.1944 121.3690 115.3044 115.1800 114.5905 113.9395 113.2713 112.5010 111.7010 110.8462 109.9377 108.9948 108.0367 107.1098 106.2863 105.6928 105.4615 105.6486 105.5600
111.6100 106.7200 106.2186 104.2102 105.0023 114.2028 118.4482 122.9184 121.9786 121.6793 121.5050 121.0118 123.3973 98.7331 118.5331 119.3014 119.0926 118.9067 118.4742 118.0471 117.6031 116.5620 116.5321 116.0553 115.4576 114.8430 114.4300 113.6043 112.9458 112.2256 111.4825 110.7034 109.9219 109.1450 108.4273 107.8430 107.4201 107.2617 107.3960 107.2200
104.4400 106.0434 104.1863 104.4372 101.0570 119.5673 122.9604 121.0050 122.2448 122.2934 121.4842 120.9280 121.5470 120.9920 119.2823 119.9414 119.4368 119.0187 118.6179 118.1425 117.6596 118.1215 112.4768 115.9763 110.7487 111.9785 113.7817 114.9778 113.0817 112.8409 112.1336 111.4708 110.8157 110.1911 109.6334 109.1792 108.8676 108.7543 108.8500 108.6000
110.7000 117.9018 110.6954 117.8998 120.9175 105.6476 125.2289 112.2706 122.7854 119.2123 118.3926 120.6263 121.1602 118.5526 116.5329 120.6880 119.3632 119.1563 118.7945 118.8265 118.9581 114.0725 93.1146 115.6245 116.5063 110.9158 103.8448 110.7078 114.0005 113.3609 112.7721 112.2145 111.6692 111.1553 110.7043 110.3500 110.1154 110.0296 110.1029 109.7900
114.8600 111.5864 113.0202 115.3206 122.7741 124.2574 122.5929 123.1621 124.5451 107.5716 123.2337 121.0824 119.5366 121.1844 119.0052 120.2922 119.5524 119.4131 119.0408 117.3205 110.6707 95.3398 101.9153 117.5047 110.6973 104.4072 114.6862 114.8247 114.2973 113.9146 113.4142 112.9332 112.4627 112.0351 111.6764 111.3918 111.2075 111.1450 111.1989 110.8400
121.7800 112.6071 120.2144 105.3922 123.9990 123.0763 122.8085 122.7900 113.5854 123.2292 121.0995 122.4514 117.1337 120.1920 113.5612 121.6728 119.4038 119.6572 118.9531 115.5784 105.1511 98.6111 106.4385 104.2247 97.1300 110.3532 106.9709 108.7756 116.0711 114.4907 114.0199 113.6070 113.2144 112.8635 112.5567 112.3280 112.1842 112.1256 112.1719 112.6100
103.2500 103.8908 111.2646 106.3478 119.7307 117.9850 123.6503 123.5784 109.3579 122.8044 121.5088 123.3858 120.0901 120.5283 120.5578 120.7156 120.0103 119.4683 119.1326 120.2765 120.3421 110.4196 94.5596 95.0834 91.7278 108.4102 107.8846 109.8260 115.2323 114.9757 114.5487 114.2806 113.9200 113.6171 113.3629 113.1741 113.0630 113.0144 113.0487 113.3800
117.7600 108.5500 99.6905 103.7572 117.0293 112.5453 123.9902 122.6432 122.3838 120.4663 121.8268 121.1691 121.5901 120.9113 120.3613 120.3464 120.3549 120.4775 119.8040 119.1718 116.2780 104.4397 96.6363 95.3319 97.1069 106.9741 98.1489 116.4256 116.2194 115.5514 115.1418 114.8353 114.6289 114.3720 114.1421 113.9501 113.8565 113.8187 113.8484 114.0800
115.8900 115.2190 104.6896 120.6251 124.0203 121.0303 123.3915 122.7775 122.5711 121.4372 121.9631 123.4738 123.5076 123.3403 122.7308 120.8262 121.3097 108.4352 120.8882 120.1705 101.1413 97.4595 94.6588 103.9113 98.1101 116.2815 113.7089 117.6870 116.4126 116.4439 115.8894 115.6643 115.1168 114.4043 114.7999 114.6698 114.5857 114.5540 114.5753 114.7300
105.5800 121.8944 102.3000 106.6861 124.0458 123.1803 123.2864 123.0139 122.7349 122.5995 122.5586 110.6095 99.8086 105.1683 107.1575 120.6580 120.8312 118.3006 120.1958 119.9050 117.0949 118.3257 105.0945 97.7610 96.1212 119.8788 116.5962 116.2936 116.7425 117.0570 111.2284 115.3764 117.1321 115.5723 115.4735 115.3223 115.2562 115.2335 115.2460 115.3400
115.9800 113.4224 121.8585 123.4558 124.1637 123.5678 123.3444 123.1104 122.8763 122.6936 122.2372 121.5829 121.8411 122.0293 120.2368 121.0443 120.7649 120.5127 120.1837 119.7303 121.0164 104.0150 101.4048 99.0760 118.2521 119.6720 117.2236 120.0130 119.1375 116.4296 115.9824 99.3606 117.5762 116.1195 116.0398 115.9450 115.8779 115.8653 115.8874 115.9000
125.5700 119.2868 124.6989 123.8017 124.6169 124.1659 123.4438 123.2331 122.9935 122.7579 123.2221 115.4185 121.9319 121.3803 121.6083 120.7099 120.9106 120.7614 120.4408 120.1462 119.1754 100.7786 98.4816 110.9085 118.7362 119.4121 106.1081 110.2976 118.2819 117.4845 117.4652 104.1472 117.4251 116.6047 116.5959 116.5272 116.4622 116.4429 116.4580 116.4300
124.7300 124.4805 121.2961 111.3887 133.0360 127.8388 123.3587 123.3717 123.1387 122.9281 122.5036 122.5235 122.6987 121.1121 121.8820 116.9100 121.6018 120.8795 120.6803 120.1219 122.8677 106.2923 120.5270 120.3204 107.3387 115.6559 113.9590 116.4837 118.1515 117.9098 118.1991 117.6055 117.6476 117.2077 117.1410 117.0660 116.9862 116.9190 117.0040 116.9300
114.1300 112.0334 104.7886 109.1626 125.9403 123.3153 123.7584 123.3483 123.1453 123.3041 122.7112 122.6657 122.2363 116.0579 112.3758 123.4951 121.3906 121.1421 120.9407 120.7115 120.1974 120.8803 119.3767 119.4533 118.4498 96.3727 114.1688 119.2422 118.5689 118.4264 118.0253 117.9901 117.9083 117.7436 117.6353 117.5645 117.8119 118.3704 117.5191 117.4100
114.3700 114.6990 121.4972 110.0972 124.7446 124.0278 123.8594 124.6226 124.0811 120.2341 123.1924 122.8138 122.0389 124.6374 105.6985 128.4396 117.8893 121.6762 120.9602 120.9685 120.6179 120.2926 121.6925 119.5442 123.3787 118.4279 118.6650 119.1255 118.8222 118.5363 118.6111 118.5636 118.0983 118.1657 118.0767 118.3248 114.1818 111.7279 118.4111 117.8600
116.0200 125.4423 125.3168 125.7202 124.5799 124.1597 123.8962 122.3671 120.5302 120.0365 123.1132 122.7732 123.1636 123.1106 117.4180 120.7638 118.5790 122.6794 121.1509 121.0961 120.6518 120.7120 108.9581 121.0041 119.4045 117.5153 114.1717 119.6643 118.0008 118.7986 118.8523 117.9880 119.9842 118.5968 118.5243 118.4585 111.1771 108.3152 118.6947 118.6900
104.0200 125.1135 125.0557 127.9501 123.4985 125.2155 124.0959 122.7893 120.0038 123.7302 124.3470 120.3377 124.3171 117.6167 123.6644 111.3773 123.9904 112.8609 122.3056 121.8970 121.5143 122.1758 101.2106 119.9973 126.6579 122.1251 122.0771 118.6292 109.2064 120.1710 119.4131 101.2248 120.4724 118.9832 119.0430 119.0320 119.5222 106.1092 120.5613 119.0800
125.2300 125.3381 125.3438 125.9626 126.5216 110.4748 124.1722 124.6374 128.1159 123.8700 108.5284 113.7196 114.7213 117.1745 123.9811 124.6060 120.9819 101.0757 122.2649 118.1697 118.4257 108.4113 98.9821 110.5724 123.1290 99.9932 109.4984 120.4143 120.8719 119.4635 120.8074 120.8157 119.5884 119.5026 119.4654 119.0309 114.4057 110.3834 119.1767 119.4500
114.0200 125.7509 124.3570 126.0923 111.0639 108.4489 125.8970 123.6087 122.0692 119.5675 112.2766 113.6294 102.8991 124.5055 118.3785 102.0026 110.7933 100.5607 129.1159 124.6721 101.7828 99.7475 95.7943 97.2332 117.2373 120.3610 121.2432 120.2907 120.2958 120.4001 119.9417 120.0228 119.5732 120.0150 118.2698 120.1197 120.8850 120.6885 120.2056 119.8000
125.4500 126.2077 125.1110 125.0253 122.4962 124.0606 124.4553 124.3227 124.6418 121.6909 109.0721 124.1612 120.9671 124.3774 120.2572 116.0325 122.3354 100.3018 105.2891 118.6630 99.3457 103.4282 99.5782 104.4188 104.4243 107.8635 120.7878 120.8382 120.7089 120.4656 121.0297 118.5728 120.4886 121.3922 105.2298 117.9663 119.6056 120.0573 120.0304 120.1500
125.6200 126.2129 125.4839 124.8784 124.9050 123.3097 125.5937 124.2951 124.2235 122.6969 120.8990 127.2569 123.0200 123.3242 123.0872 123.1888 122.7373 123.5780 118.0344 103.4798 99.0101 100.4105 101.3214 110.5482 121.3684 124.2048 121.0553 121.1570 120.9003 121.1488 123.3866 122.9181 120.8601 120.4371 110.1639 118.9340 120.2120 120.5297 120.4788 120.4800
116.8900 112.5543 125.5104 126.8397 118.5908 102.4490 123.3966 123.8341 125.4422 113.8113 118.2531 124.0288 124.0169 123.5783 123.5289 123.2860 123.4194 117.7098 109.9070 101.2313 105.3418 97.3312 108.1417 121.4020 122.5464 121.4669 121.5133 121.4315 121.4271 120.4319 110.3869 116.8530 120.5446 121.4797 92.0535 117.2506 120.3067 120.8896 120.8287 120.7900
119.4100 104.8278 117.8836 103.7252 105.3859 124.6838 125.4018 122.5087 124.7129 125.4708 125.2553 119.8090 125.2794 123.5122 121.8255 122.9386 123.6106 125.1470 106.7075 102.8509 113.9316 112.0453 125.1039 123.1932 121.5735 121.9609 121.8553 121.7388 121.2167 123.1554 113.3074 113.1481 119.3758 121.1038 107.0872 117.4134 120.6507 121.1904 121.1667 121.1000
126.0400 128.5872 111.4504 106.9248 123.3708 118.8562 120.6345 125.3055 120.9384 120.4512 122.8632 109.5922 118.5545 121.6000 124.8264 125.3356 122.4272 120.2364 105.6191 107.4546 115.8950 124.0298 121.9356 122.3709 122.3847 122.2303 122.1212 122.0581 121.8659 118.8786 97.7137 97.8155 111.6178 122.6678 113.1854 120.9983 121.5661 121.4761 121.4837 121.4000
126.0600 125.9200 125.8000 127.2000 125.4200 125.3100 108.4700 125.0400 114.0000 110.7900 110.5600 103.2900 115.3100 111.1900 123.9900 123.8200 111.8500 107.8600 123.3700 107.4800 122.9200 122.9200 122.8000 122.6600 122.6600 122.5100 122.3500 122.1300 122.1800 121.9900 122.0300 105.9400 121.8600 121.8800 121.6500 121.6800 121.6800 121.6900 121.6900 121.6800
