114.6200 114.5100 110.3100 110.1100 115.8500 111.8400 102.8200 102.5100 104.3100 111.0200 111.0900 101.9300 121.0000 128.0100 123.3300 123.1700 123.0400 122.8500 122.7300 122.5200 122.3900 115.4400 122.0400 121.8800 121.8800 121.7200 101.6800 121.2900 121.3400 121.1400 121.1800 98.9500 120.9900 120.7300 120.7500 120.7900 120.8000 120.8000 120.8000 120.7900
114.6200 114.4182 114.7340 106.2271 119.8578 114.8103 120.5199 104.5018 102.6614 117.5307 119.1887 101.2764 119.8275 127.0496 123.0818 123.7804 123.7242 122.8023 123.1133 123.6274 116.2474 117.5845 122.2671 121.6980 121.4506 121.9009 121.1208 122.4542 121.0036 120.7350 122.7766 98.0316 123.4889 120.3475 120.4604 120.5079 120.5126 120.5075 120.5077 120.4800
107.9000 110.9157 114.5063 112.4717 118.5771 101.3571 116.3537 108.3742 111.6043 125.5523 122.9831 114.5492 123.5832 124.9389 123.0594 119.3512 120.1899 122.4748 122.0917 122.4622 118.7357 116.4553 121.7918 121.4923 121.3696 121.0848 121.0248 120.7175 120.7280 120.4308 122.0068 114.4123 121.2367 120.1651 120.2217 120.1822 120.1516 120.1446 120.1548 120.1500
118.4200 104.8120 110.5342 111.4282 119.3145 103.0266 103.5011 110.1259 112.1301 125.9196 124.3575 124.1859 119.7531 119.0019 122.7574 118.4741 121.0629 122.2674 122.1163 121.9859 116.8864 122.3867 121.3558 121.2047 121.0201 120.8685 120.7185 120.6207 120.3634 120.3188 120.0390 120.7919 119.8732 119.8719 119.8368 119.8034 119.7752 119.7671 119.7671 119.8000
115.6200 112.8085 109.9587 108.2911 106.1551 102.4369 102.8678 108.4771 115.9881 126.3988 123.1280 123.2772 124.5403 123.1003 122.6932 122.6249 123.7133 122.0200 121.8509 122.1611 121.4557 121.3329 121.0804 120.9120 120.6618 120.3562 120.3655 119.9550 120.1763 119.8874 119.8170 119.6785 119.6359 119.5361 119.4541 119.4072 119.3746 119.3648 119.3784 119.4500
113.0100 113.4779 110.8963 109.2377 107.0100 105.2428 102.4740 110.4877 114.3516 123.2453 122.7556 123.1841 122.7375 122.6914 122.3373 122.2566 121.8378 121.8683 121.6456 121.4108 121.2094 120.9723 120.8512 120.5456 120.7171 121.0332 121.2435 121.4174 118.7444 119.6349 119.4821 119.3465 119.2034 119.0978 119.0513 118.9977 118.9605 118.9527 118.9624 119.0800
116.8500 116.6827 107.1593 106.0929 116.7869 109.6793 113.2415 113.4676 104.6645 109.6412 124.3697 122.9254 122.7073 122.0576 123.4176 121.7092 121.8058 121.3885 121.4200 121.1869 120.9489 120.7693 120.3830 120.9186 110.7923 116.0095 119.9027 115.1818 119.3917 118.9548 118.9666 118.7858 118.7817 118.7711 118.6025 118.5671 118.5256 118.5162 118.5272 118.6900
125.0800 106.1438 108.0709 102.0320 106.7738 106.2196 117.6098 114.5145 112.5349 117.7977 112.9829 123.9278 122.2139 121.8651 118.8274 108.4108 121.1781 121.5312 121.1553 120.9294 120.7300 120.1593 120.9238 120.0588 114.8226 107.0665 118.0507 119.6752 118.7766 119.9903 118.7500 118.5705 116.6225 118.3158 118.3166 118.0913 118.0685 118.0592 118.0694 118.2800
108.3600 104.0776 125.0956 110.8265 113.7933 110.0280 123.6966 118.0063 123.8233 124.4597 122.6771 122.5348 123.4065 115.8147 116.8456 104.6922 106.7051 122.1907 120.7240 120.7103 120.4952 120.4196 120.0099 100.6075 117.4754 106.9468 118.5515 119.1382 117.9397 116.4261 106.5755 118.2203 101.7381 118.2291 117.7892 117.6216 117.5880 117.5716 117.5813 117.4100
122.9000 115.1920 108.6695 111.2643 110.7628 113.2716 122.0322 117.9414 123.7970 122.7027 122.7301 124.4652 116.2910 114.7450 120.1367 105.0447 120.8596 120.9202 120.7525 120.4203 119.9978 118.5746 115.9662 112.0547 108.5699 98.4601 111.7809 101.0221 119.0115 118.6153 116.1635 117.6134 117.2024 117.6068 117.2999 117.1255 117.0735 117.0606 117.0695 116.9400
107.7700 104.0898 112.2265 105.5441 106.5736 115.6407 118.4630 117.9543 123.1135 122.6981 122.2787 114.3020 100.0069 114.2650 117.8798 122.8838 122.8104 120.5606 120.4193 120.2453 120.7568 121.9360 97.8770 116.8449 123.6982 110.8945 104.6524 103.5891 119.3687 118.4542 107.5425 116.6265 116.9873 117.0516 116.2815 116.5965 116.5547 116.5082 116.5335 116.4400
106.3100 106.8248 106.8174 107.5844 116.1036 121.4325 116.2179 119.5772 123.4763 122.4482 123.0252 109.9177 98.0547 102.9944 115.9751 102.4409 120.3971 120.8361 122.6893 113.0674 118.0975 112.6879 105.6796 111.7299 115.3315 110.9155 114.7570 106.7278 120.0853 110.8176 102.8361 115.6852 116.3898 111.9498 112.8585 116.1156 115.9633 115.9323 115.9519 115.9100
109.0000 110.1676 107.8193 104.6527 113.1165 114.5846 116.6713 123.9407 122.8159 122.4302 124.1881 109.8627 116.9069 112.4397 120.9635 122.2638 121.8578 120.2773 111.0544 107.3581 102.4836 114.7266 104.3797 102.3549 114.7040 111.7653 108.3192 97.8353 104.0320 100.6639 117.1213 115.8832 115.7383 115.8347 116.2906 115.4950 115.3355 115.3108 115.3323 115.3400
109.0000 105.4137 102.4196 108.5119 124.8959 118.5385 118.7290 123.2656 122.6484 122.2384 122.3087 113.0494 122.9024 122.6625 114.5072 117.7041 120.1551 120.2569 120.9057 118.0706 102.5656 114.3411 101.4890 115.8433 116.7766 103.1485 104.4233 102.6385 111.3063 110.4313 124.7755 115.2285 115.4592 115.0299 114.7507 114.7323 114.6710 114.6389 114.6568 114.7400
104.7800 104.2520 102.2204 116.2007 109.1217 114.9944 115.2571 123.3815 122.4562 122.0371 122.3469 123.0243 121.4380 120.8213 120.2191 119.8916 120.1295 119.9345 119.3360 119.8302 102.5465 100.6715 102.2443 107.6652 119.7206 115.5653 109.7796 116.3968 117.1212 120.0966 117.1644 114.7995 114.6002 114.4159 114.2256 114.0436 113.9400 113.9105 113.9393 114.0900
112.9600 102.4862 103.8822 102.3836 118.3147 109.8595 117.2149 123.3207 122.4794 123.1578 106.4648 121.5729 120.7855 121.0637 120.9488 120.8376 120.0037 119.7014 119.3790 119.1567 120.4122 112.3114 99.0602 102.8595 120.0217 112.5971 115.6305 115.7934 115.4255 115.1267 114.4657 114.4224 113.9476 113.7035 113.4586 113.2725 113.1570 113.1172 113.1475 113.3900
103.7800 112.1437 102.9860 103.3247 101.7007 119.2549 122.2202 122.8212 122.3354 121.6635 122.8577 122.2999 120.9929 120.7782 120.6733 120.2037 119.8889 119.5235 119.1728 118.8471 117.9727 118.6649 101.3034 105.5436 111.8414 97.4072 117.6619 114.8833 115.0732 114.5150 114.1147 113.6571 113.3160 112.9536 112.6647 112.4341 112.2900 112.2378 112.2804 112.6200
104.9800 107.4176 104.4464 113.1108 115.3743 123.5782 122.4572 122.4352 121.7557 124.3292 110.9358 121.3273 120.8457 118.7785 119.0904 119.9640 119.7382 119.3462 118.9887 118.5505 118.5571 118.6045 115.8407 117.3546 98.6444 121.4272 113.8983 115.2280 114.4083 113.9771 113.4868 113.0102 112.5496 112.1390 111.7818 111.5135 111.3323 111.2707 111.3200 111.7800
106.3400 106.2266 121.7084 114.8872 121.5588 123.3397 123.3837 122.9238 123.3468 123.2951 106.8961 123.8368 121.9206 120.9089 120.4462 119.9082 119.5868 119.2029 118.8251 118.6963 113.6693 113.4148 117.5583 118.4855 118.2846 116.9790 114.9569 119.0703 114.8252 113.4308 112.8474 112.2926 111.7516 111.2588 110.8230 110.4833 110.2562 110.1733 110.2398 109.8100
109.1900 105.0488 113.0055 103.9574 123.8360 115.2240 115.9489 117.4365 114.6697 118.2521 123.2878 115.9423 126.4727 120.2306 119.8921 119.4916 119.3434 118.8924 118.6611 118.8342 108.3218 99.2663 117.4105 114.3128 112.4165 113.7152 114.5384 113.4866 113.3832 112.8955 112.2101 111.5537 110.9129 110.2997 109.7608 109.3201 109.0294 108.9199 109.0068 108.6200
103.5700 101.5275 112.6109 116.6586 118.3061 116.6888 104.5743 108.9968 108.0698 105.7086 122.9334 93.7054 121.4146 120.6828 120.0756 119.8083 119.9573 119.8889 118.4424 118.1062 119.2338 118.2092 114.9793 116.5148 115.6539 115.6321 114.6717 113.7619 113.1043 112.2976 111.5542 110.7883 110.0199 109.2667 108.5800 108.0016 107.6104 107.4546 107.5776 107.2400
114.5700 104.9145 100.4734 109.3066 114.4516 118.1893 125.1445 111.1078 123.4766 105.4153 122.4947 109.0096 118.5785 118.5555 119.6419 119.2261 119.6567 112.1492 118.5197 117.9066 119.3203 104.1735 115.6911 116.6169 114.6413 114.3140 113.9458 113.2030 111.8685 112.2509 110.8446 110.0232 109.0962 108.1625 107.2625 106.4854 105.9181 105.6980 105.8764 105.5900
120.5300 105.7448 100.4638 99.5314 114.9685 117.7799 122.2199 123.2825 122.0819 118.5427 120.6789 122.0422 121.5015 116.8402 120.8640 120.3300 119.4954 113.9333 118.7721 117.6722 118.4595 99.6130 115.5007 103.2165 118.0391 114.3187 113.7795 112.3476 116.4583 108.6984 110.3623 109.2884 108.1668 107.0036 105.8004 104.7059 103.8407 103.4845 103.7738 103.5300
119.2000 106.9580 102.2561 120.4219 118.1296 121.9001 122.4529 121.9703 121.6880 121.8055 121.5481 120.8519 120.3367 120.9135 118.8202 112.6932 118.7836 119.2172 118.2788 117.6874 117.3586 114.7529 116.9875 109.1132 94.0604 115.0160 113.1977 112.5686 113.3611 109.7525 109.7626 108.5859 107.2615 105.8072 104.2299 102.5627 101.1595 100.5407 101.0574 100.9400
121.5400 111.4965 122.5921 125.1950 124.0404 123.2048 122.6719 122.1459 121.8590 121.5034 121.1672 120.7844 120.1731 122.0911 103.1863 117.4743 119.0076 118.5146 118.0686 117.5915 117.1197 117.0223 116.7775 115.5960 112.2993 113.2724 112.3593 112.3876 111.3346 110.4631 109.2881 107.9928 106.4686 104.6916 102.5879 100.1030 97.4817 95.7716 97.1838 96.7900
118.0600 104.1527 126.5475 99.6601 115.4729 117.2219 122.8372 122.1104 121.8107 121.4928 121.2018 120.7444 120.2055 120.2006 119.1120 119.6412 118.9217 118.5137 118.0465 117.5270 117.0362 118.5732 97.0441 117.4895 114.5220 113.9047 113.0270 112.2266 111.3003 110.2088 108.9744 107.5623 105.8697 103.7951 101.1168 97.5443 91.6796 89.0314 91.1107 96.2300
103.7300 124.2322 125.2002 108.6206 122.7479 128.3101 121.8021 122.1123 121.8194 121.4696 121.8484 120.5777 115.1671 121.6037 119.4667 118.6396 118.9084 118.4879 118.0253 117.5367 117.0157 116.3923 116.6756 115.8812 114.6186 113.8242 112.7907 112.1822 111.1890 110.0902 108.8274 107.3487 105.5670 103.3226 100.2821 95.6886 87.7543 85.1321 87.6355 89.6900
118.6200 103.2595 126.9986 105.9926 122.8953 127.1990 121.9029 122.0910 121.8374 121.4257 121.5731 120.6253 120.1424 120.8052 121.6708 119.3521 118.9834 118.4305 118.0305 117.5410 116.9561 117.1365 115.6973 115.2517 114.5634 114.6460 115.5895 112.2409 111.1879 110.1087 108.8550 107.3866 105.6262 103.4160 100.4156 95.9279 88.6055 86.5350 88.5860 89.6600
117.2900 108.0568 126.1516 124.7693 123.0465 122.3106 122.4193 122.1248 121.8311 121.7133 121.4352 120.5395 114.9633 99.0017 118.5988 120.3796 119.2024 118.0717 118.0361 117.5622 117.6814 109.3199 116.7375 115.3981 114.6707 120.6920 114.5420 112.5879 111.3128 110.2688 109.0626 107.6664 106.0263 104.0354 101.5735 98.2279 93.4636 90.8688 93.0594 96.1700
114.8300 106.6999 124.1412 122.6500 123.0371 122.7907 122.4235 122.1262 121.7660 119.6385 121.3297 120.5491 117.8493 105.2437 98.6169 113.7047 120.4670 118.1409 118.1815 117.2387 117.0275 108.1541 115.9727 115.3805 114.8150 113.1467 113.1444 112.4262 111.5635 110.5600 109.4270 108.1556 106.6958 105.0204 103.0621 100.8720 98.8148 97.5887 98.5718 100.3700
122.8900 113.2667 124.8896 123.9634 123.0620 122.7127 122.4492 122.1648 121.5042 118.1832 121.5176 120.5963 120.7423 124.2156 109.1226 108.8408 122.0635 118.1339 118.0960 117.6317 118.6009 118.3783 117.3501 115.5922 115.1081 114.5511 113.6129 112.7363 111.8741 110.9401 109.9112 108.7819 107.5273 106.1684 104.7033 103.2592 102.0279 101.5039 101.9436 103.5200
123.9500 125.3656 125.9918 123.2599 123.0776 122.7875 122.5207 122.2113 122.0379 122.0487 121.2981 120.9937 120.4087 120.8200 122.6597 123.5504 120.3948 117.9149 119.5119 117.8021 117.0557 114.3918 104.5572 116.5231 115.0281 114.3948 113.7541 113.0482 112.2592 111.4070 110.4864 109.5082 108.4951 107.4133 106.1682 105.2296 104.5250 104.2050 104.4610 105.5600
123.9700 123.5887 123.3512 123.3615 123.0641 122.7536 122.4473 122.2165 121.9521 121.5243 121.2645 121.0016 120.8429 120.4202 111.2565 99.5782 116.3203 97.7028 119.7083 117.8066 117.4439 116.1304 113.5576 117.1658 115.5134 114.7486 114.0976 113.4147 112.6804 111.9074 111.1131 110.1468 109.3038 108.9580 107.8341 106.9764 106.4470 106.2591 106.4225 107.2200
123.9800 123.9579 123.6790 123.3702 123.1798 123.0597 122.7266 122.2452 121.9017 122.2406 122.0527 121.5032 120.6667 120.4880 116.6491 115.6826 114.0980 106.6736 118.6831 117.8389 119.2849 100.8790 118.8293 116.2462 115.5831 115.0473 114.4447 113.8118 113.1747 112.4987 111.7612 111.4412 110.3291 104.9603 103.6589 108.5733 108.0669 107.9150 108.0366 108.6000
124.0000 123.9660 123.6610 123.4998 122.9091 121.7002 120.5286 122.3072 123.5559 110.1558 122.8728 119.7486 120.6996 120.6497 120.5544 119.9909 119.3864 119.3625 118.6198 118.3165 114.1485 115.9972 116.5955 116.4725 115.9078 115.3697 114.8204 114.2329 113.6264 112.9733 112.2245 112.8300 101.8795 99.7038 110.8579 109.7479 109.4127 109.3114 109.3981 109.7900
124.1700 123.3130 124.0568 123.6921 123.4604 122.7396 122.7284 122.5999 122.3642 121.4740 117.8661 122.6352 115.4527 121.2730 120.2740 119.9047 119.5989 119.2024 118.8950 118.4365 118.0010 117.7387 117.1427 116.6882 116.2196 115.7188 115.2080 114.7056 113.9868 114.3491 108.3256 123.0720 95.2521 94.2815 111.0573 110.8017 110.5895 110.5153 110.5800 110.8400
124.1900 107.9697 123.7230 121.9020 115.5356 120.6725 122.6551 118.4262 121.3667 122.4928 114.4351 122.1309 121.0638 120.7133 120.4560 120.1160 119.6561 119.3445 118.8700 114.8403 117.2264 117.6706 117.4942 116.9885 116.5408 116.0744 115.6055 115.1368 114.6197 114.1550 105.1593 110.8624 112.2917 113.3348 112.1915 111.7550 111.6258 111.5707 111.6217 111.7700
104.3000 111.9820 109.1997 107.6874 124.2685 121.1704 121.4541 102.4303 121.7829 118.8461 100.8021 120.9652 121.0105 120.9918 120.5823 120.2805 120.3438 120.2416 124.3296 111.9906 119.7206 118.0153 117.6816 117.2902 116.8690 116.4486 116.0103 115.5820 115.1519 114.1475 113.4948 101.5229 114.5610 112.8585 112.8518 112.6981 112.5667 112.5089 112.5502 112.6100
124.4200 120.8545 117.5286 117.7438 104.2442 114.4710 114.7994 118.6195 118.6547 118.9355 110.9090 117.8051 121.0275 121.1182 120.8080 120.5568 119.5886 115.7340 130.9996 119.3720 118.8522 118.4074 117.9811 117.6036 117.2112 116.8240 116.4075 115.9830 115.5973 113.7776 110.7941 101.9772 114.4496 113.9291 113.7146 113.5126 113.4007 113.3635 113.3927 113.3800
124.4200 109.3500 101.9500 102.3300 123.4600 123.2800 101.1100 105.1700 106.2600 100.1900 102.2600 121.7900 121.3800 121.1700 120.7200 120.5000 120.2600 98.0500 119.5200 119.2600 119.0000 118.4400 118.2000 117.8800 117.5600 116.9200 116.6100 116.2500 115.9700 115.9700 100.7300 98.1700 114.8800 114.4700 113.9800 114.0500 114.1000 114.1300 114.1200 114.0800
