116.4600 116.4500 116.4300 116.8100 116.8100 113.0800 117.1000 117.4100 117.6900 117.6900 117.9300 118.1700 118.4900 118.7100 118.9900 119.2800 119.4800 119.9900 120.1900 120.4200 98.6400 98.8600 104.4300 121.4900 121.6900 121.8900 122.2700 100.4600 104.8600 122.9900 123.1700 115.1800 115.5500 115.9200 124.1400 124.3000 124.4500 118.9900 118.6100 103.0300
115.9400 116.0924 116.1383 116.2750 115.7637 116.6373 116.7473 116.9488 117.1923 117.4451 117.7217 117.9687 118.2756 118.4170 118.9937 117.6824 119.3653 119.5731 120.5877 106.8506 97.8062 100.0402 102.7863 121.2893 121.7002 122.0247 116.1406 99.8127 114.8789 123.1911 119.4905 115.5323 114.2058 115.8644 125.5966 128.7142 119.2098 112.7277 110.6116 119.1200
115.3700 115.4916 115.5618 115.6400 115.8441 116.1198 116.0138 116.4610 116.7299 117.0036 117.2133 117.6532 118.2184 118.3936 118.5096 118.2265 118.8067 118.4719 111.7175 108.1754 98.9189 102.7117 116.2871 122.3812 121.7099 109.5815 117.7588 110.2723 117.7406 116.6413 113.1967 120.8344 120.9790 117.4722 119.3440 111.8537 116.5128 117.6415 100.5557 118.9400
114.7700 114.8368 114.9219 115.0492 115.1986 116.7817 117.7303 115.8736 116.2295 116.5205 116.7182 118.5820 114.0233 117.9283 117.4613 118.3984 119.1533 121.6467 118.1194 106.3372 105.5031 107.5000 120.4609 120.4783 120.5369 114.5090 108.4814 102.3815 116.6938 120.1113 112.4538 112.8542 117.4963 115.6391 114.7997 116.4385 113.6862 106.8244 102.2302 118.9400
114.1300 114.1256 114.2238 114.3683 114.5425 114.5490 115.1437 115.4021 115.7292 116.0638 116.0627 112.1491 112.9805 117.8117 121.8470 101.6580 120.9070 108.8644 108.3150 106.1913 109.4675 112.8339 120.9554 121.4477 120.9511 116.5238 101.9522 101.1011 115.0034 116.5421 112.8482 113.5501 113.2197 114.4432 115.4841 115.9451 110.8667 99.9642 101.8822 102.7700
113.4300 113.3538 113.4699 113.6464 113.8946 114.2362 114.4308 114.8445 115.2216 115.6463 115.7695 117.1211 117.5558 102.2883 98.9365 101.5452 100.6295 100.0761 101.3839 101.2138 117.8267 120.5459 121.7217 111.8823 111.8681 103.7311 99.9234 105.0861 115.1801 114.4714 114.7754 115.1020 113.9611 115.4210 110.2550 116.5065 116.3833 117.2913 102.7202 115.1500
112.6800 112.5098 112.6462 112.8643 113.1357 113.4620 113.8402 114.2475 114.6981 115.0600 114.8284 118.5215 92.6806 101.2241 101.1368 102.2619 101.4060 100.4811 114.9338 118.9722 114.8522 109.5932 110.0208 110.7530 111.6465 114.2211 100.1970 114.5711 107.8082 115.2297 115.4055 114.9945 114.0096 115.4296 115.2783 116.3202 117.1382 119.0204 105.6633 102.7200
111.8500 111.5787 111.7428 112.0059 112.3388 112.7364 113.1705 113.6313 114.2076 114.3681 118.4735 99.7863 96.6199 96.8323 108.3290 104.8187 101.6898 98.1844 107.7879 103.6892 103.7127 104.9373 105.1181 111.8660 115.4542 98.9712 106.3847 115.6064 115.1466 114.7866 114.0874 114.8774 115.3615 116.6510 115.4177 114.5468 112.7636 103.4582 120.3090 118.6500
110.9300 110.5373 110.7446 111.0628 111.4653 111.9512 112.4654 113.0022 113.5584 113.9564 115.1194 115.4754 119.2280 98.8839 120.3553 116.8900 103.5512 103.4115 103.5281 102.8998 103.8408 109.3920 109.9262 110.1444 110.0860 114.9473 97.2708 109.7946 116.2365 115.6547 114.9936 115.7778 116.9366 113.7544 116.8006 118.6291 120.0068 119.6689 119.4086 119.2000
108.7500 109.3459 109.6246 110.0247 110.5389 111.1162 111.7279 112.3587 112.9685 113.6864 114.0906 114.4409 118.1102 96.6190 103.9212 97.0076 102.0354 102.8149 104.3119 104.9683 103.5045 104.9769 100.4940 98.7154 96.4075 97.1889 102.8860 108.0653 114.4849 115.4271 114.5824 116.0574 117.8357 117.8661 117.1591 117.2220 118.7568 119.6617 113.2062 119.7800
107.4100 107.9742 108.3395 108.8726 109.5241 110.2310 110.9700 111.7010 112.4184 113.1272 113.8187 114.2765 112.2661 95.6702 93.8211 100.3487 101.5945 103.1477 101.4600 103.0265 99.8307 104.8906 101.6967 105.1860 102.8894 101.9658 114.1284 102.1352 111.8391 115.2307 114.5174 116.5472 107.8413 114.2405 117.1741 117.6332 118.9140 119.8832 108.7244 119.6000
105.8200 106.3542 106.8716 107.5900 108.4263 109.3103 110.1988 111.0531 111.8633 112.6425 113.4744 111.9536 100.6993 107.0758 113.3328 101.9856 102.7513 104.2817 102.5963 103.7532 112.4432 100.7558 102.2456 102.0157 105.4858 112.5934 113.9343 108.0476 106.6185 111.9981 114.0484 111.8984 105.8951 115.8679 117.2668 117.2878 117.3499 119.5511 120.2466 119.1500
103.8800 104.3883 105.1531 106.1556 107.2739 108.3787 109.4350 110.4303 111.3862 112.1935 112.5664 111.8795 111.0452 110.8483 91.4947 95.4363 102.8495 100.6184 102.6274 101.4123 92.4379 105.8677 95.3127 99.3701 104.8139 111.8279 112.7021 110.1138 107.7930 113.7340 111.7409 115.1392 115.6510 116.4781 115.7357 116.5871 117.8229 114.1794 105.8271 102.4400
101.3700 101.8618 103.1110 104.5932 106.0711 107.4571 108.7212 109.8595 110.8666 112.1593 107.6963 116.3364 99.3567 97.2253 111.0371 101.5374 98.9362 97.4657 100.8547 101.8374 104.0297 101.1326 106.8042 100.2118 99.3635 108.8321 99.8961 107.7601 111.3479 114.4297 117.0479 115.4028 114.6534 114.6528 116.4852 116.0248 112.4660 110.8578 100.2129 102.4300
97.8300 98.5837 100.6876 102.9556 104.9216 106.6234 108.0973 109.3792 110.5082 111.5852 112.9285 108.9335 95.3623 99.4076 102.8488 97.0833 97.5307 97.0570 102.9104 103.5673 104.1143 103.1747 108.0702 106.5512 106.6811 106.3674 105.9214 105.8514 112.3156 113.1206 113.4460 113.5495 112.9951 121.2179 105.2838 127.6803 110.8524 107.4532 107.6555 115.5400
91.7700 93.1731 98.0958 101.3894 103.9474 105.9577 107.6179 109.0245 110.2310 111.2314 113.1199 105.9615 99.0740 93.0230 94.2453 93.0700 95.8122 115.8955 99.4708 115.6192 100.8971 104.4926 100.9440 105.6811 99.8478 105.9444 106.5041 121.6655 121.2067 121.3993 121.7909 122.1879 122.4947 124.1612 106.8562 115.3747 103.3892 121.5770 110.1815 115.2200
90.7500 88.2241 95.8383 100.3361 103.3433 105.5723 107.3443 108.8212 110.0818 111.1641 112.3695 113.3237 114.2259 114.9571 115.9526 116.3767 116.2317 117.0844 117.4644 118.2645 118.7977 119.6629 120.1157 118.9264 97.3625 113.9989 120.8203 121.5746 121.4776 121.6653 122.0386 122.4617 122.5728 128.8516 108.6745 107.6863 107.5882 122.3169 108.9335 112.6400
90.6300 87.6989 95.5836 100.2423 103.2914 105.5402 107.3283 108.8077 110.0667 111.1911 112.2100 113.0258 113.4428 114.3456 114.0159 116.8274 116.1630 117.3324 117.4417 117.8112 118.5425 116.0415 116.9224 115.2900 99.3833 111.1877 118.7619 119.0448 120.0810 121.8320 122.4642 123.5815 119.2261 124.7561 108.0106 102.7196 106.1045 119.9440 106.4118 112.5000
91.7700 91.9983 97.6135 101.1510 103.7949 105.8675 107.5520 108.9726 110.1989 111.1531 111.9504 113.0542 114.2425 115.0006 111.9150 125.8199 115.1237 116.0839 116.7650 118.1830 120.7729 101.4546 100.0469 98.1390 102.8881 113.1881 112.5529 110.3144 108.3889 122.7660 121.1197 117.0628 101.5708 110.0389 101.8877 105.3593 104.2128 104.3848 106.3013 104.5800
97.8400 97.6860 100.2179 102.6374 104.7234 106.4824 107.9916 109.3041 110.4594 111.4361 113.6312 112.3996 115.7234 113.2459 115.6520 114.0570 116.4087 117.1310 107.5107 117.8921 112.1830 104.1083 100.1390 100.1906 116.0076 116.9119 121.0335 122.4354 123.6401 120.6675 121.2976 108.7561 108.0251 116.9180 105.0906 109.3198 110.2368 118.8386 121.1776 113.9700
101.3700 101.3078 102.6895 104.2873 105.8547 107.2889 108.5956 109.7597 110.8583 111.7341 106.2852 112.9219 104.0332 93.4101 115.9232 115.7226 116.3433 117.4691 114.3538 120.9682 113.4538 100.3204 102.2033 107.1196 119.7851 112.6274 103.8655 121.2226 120.8151 122.1680 115.4556 125.2957 103.2060 116.9967 112.6567 109.2313 111.4241 112.2585 121.2772 117.9600
103.8700 103.9552 104.7891 105.8773 107.0473 108.2064 109.2961 110.3234 111.2631 112.0298 109.7986 112.3068 104.4758 93.1274 116.5871 116.1247 117.0318 117.4421 114.6925 112.2115 104.3496 100.7971 99.0982 104.8470 110.5395 112.0675 115.3609 120.2136 121.8339 121.8594 118.9389 121.3727 112.8933 103.2842 118.8000 106.8616 108.7794 108.3948 108.2737 102.9200
105.8200 106.0083 106.5569 107.3270 108.2150 109.1351 110.0682 110.8969 111.7784 112.7275 114.4191 114.9567 115.7086 110.2438 117.0065 115.8269 116.2613 117.2977 117.2148 119.7730 99.6886 96.4993 106.8457 104.1386 107.6992 109.3521 123.1572 121.4919 121.4568 121.6237 125.1192 122.0338 124.4013 114.0434 110.2400 103.9582 100.2272 100.9922 101.2216 102.4400
107.4100 107.6780 108.0680 108.6321 109.3216 110.0645 110.7983 111.8494 111.7901 112.5644 113.1290 114.2868 114.8190 116.2326 116.2337 117.1906 118.7334 119.1863 117.5372 99.3119 98.2197 101.2338 100.6812 103.6981 103.0960 108.6689 107.1652 123.6183 122.6383 124.6473 113.4050 125.3895 123.3020 126.4545 125.7010 107.3097 106.5527 102.1836 102.4275 102.4600
108.7500 109.0918 109.3820 109.8106 110.3521 110.9511 111.8282 109.6162 108.0669 114.7300 114.7700 114.5647 115.2124 115.7810 115.7517 105.6130 96.6857 97.6989 94.9107 118.1605 109.2466 96.9410 100.4074 103.3954 102.1195 105.1386 103.2170 116.4412 111.3016 111.3198 101.4794 103.6355 107.1198 110.2941 116.1338 102.1767 106.5517 127.8872 109.9564 111.2700
109.9100 110.3124 110.5313 110.8685 111.2988 111.7932 112.3247 113.6248 112.5233 88.8407 103.3160 116.1083 115.6374 116.9364 117.3406 96.7937 97.6612 93.7659 119.2696 118.5377 120.7885 106.8033 110.7668 106.1265 103.4191 108.2920 108.1247 106.2961 107.5164 123.7154 119.3079 125.6733 102.4031 101.5414 102.3042 111.0000 110.0657 119.6161 115.2237 117.3500
110.9300 111.3839 111.5558 111.8286 112.1730 112.5889 113.0574 113.4893 113.2901 117.9408 116.0799 110.2462 95.7127 115.3267 97.4174 120.5850 118.8173 119.2317 118.9304 119.1298 119.8501 111.8192 97.6030 105.0530 110.8558 121.9355 114.8683 112.5457 105.9658 104.6727 108.7890 108.3585 107.6937 106.3531 120.4491 107.3488 105.0824 105.6166 105.8435 111.8100
112.6800 112.3395 112.4752 112.6997 112.9882 113.3333 113.6979 114.2223 114.8573 112.1943 117.8208 101.1329 119.5774 116.1087 111.1617 113.7151 117.0551 118.1389 118.4817 112.4180 97.1154 105.8014 99.3786 104.8263 104.7701 107.6129 118.2354 106.0126 111.0935 109.4271 108.5288 102.7485 101.1705 101.0851 101.2503 107.2677 109.2602 116.8959 114.7291 105.5800
113.4300 113.1979 113.3109 113.4909 113.7447 114.0342 114.3234 114.7527 115.5090 106.7450 108.6064 116.2278 116.3478 116.2965 107.9324 106.6829 125.9469 119.8334 119.1047 109.2115 128.9332 111.1548 99.3894 101.3180 112.2799 105.6246 106.1492 115.7777 123.5626 113.8302 106.0641 109.3111 101.3617 105.8475 103.8663 103.1907 103.0185 111.9452 110.3623 112.2600
114.1300 113.9821 114.0817 114.2366 114.4392 114.6867 115.0212 115.1417 116.6690 116.7419 100.6694 119.7859 120.4665 116.2737 111.7231 109.9678 95.9781 107.0439 118.3011 123.7533 112.1697 110.4087 95.7571 111.5011 113.3667 106.7929 118.3965 113.5920 116.0961 110.8213 107.8155 102.6064 101.9847 103.0369 106.0994 106.3861 107.6269 103.1795 105.3907 106.0000
114.7700 114.7053 114.7777 114.8941 115.0931 115.3499 115.5418 116.4166 115.6516 91.2210 102.1704 107.8631 96.4469 119.0853 120.9213 112.5712 102.4829 110.0697 119.1376 115.3777 99.6123 110.6979 105.5678 111.4833 111.6904 122.3626 120.6586 100.9579 114.6439 113.7586 100.2742 100.4336 100.8157 101.7613 101.3078 101.1050 103.4902 102.9070 108.4582 104.3100
115.3700 115.3682 115.4585 115.6477 115.6823 115.6420 116.2267 114.0927 115.9260 100.6606 96.8884 96.7029 105.5157 106.6890 117.0232 102.6065 99.8474 109.0741 115.3095 122.0712 112.4219 112.6158 107.2236 97.8588 107.5607 105.0625 117.7390 106.6993 113.9158 101.3454 101.9771 102.7958 102.8235 100.8681 101.0853 100.0030 109.6415 102.6762 103.7147 104.1200
115.9300 115.9908 115.9531 115.8936 116.4237 118.9307 118.2876 98.4074 115.4408 105.5639 95.2973 103.4338 102.9717 101.0700 103.4171 117.9842 101.4510 100.3425 102.3802 102.4112 106.2464 113.5238 115.1043 117.5025 103.7081 112.2026 107.0185 114.3071 106.7838 100.6585 100.8922 101.4666 105.0492 112.8002 110.1085 122.7289 115.1778 105.6407 108.0514 102.9600
116.4600 116.5398 116.2637 117.5835 117.0168 100.7545 105.6744 108.7622 118.4209 117.4353 100.9746 101.5670 102.7377 100.5609 98.4376 102.1472 100.2059 99.1763 106.2397 103.6590 99.8776 103.2660 115.0307 114.8008 103.1739 106.9529 109.2316 108.3554 106.6703 105.3535 100.8587 101.0954 104.1233 105.4679 107.5447 110.2429 106.7830 112.6377 105.3823 103.1300
116.9600 117.1585 118.2157 117.6574 106.1574 117.3519 91.8735 102.0055 118.1146 117.0887 96.3649 100.9419 105.2492 116.4682 101.1406 102.7767 100.6169 104.5480 105.6224 106.9491 106.5260 100.9071 104.4252 102.6333 106.5654 103.4319 109.3518 110.1828 110.9112 108.5728 108.6184 101.6448 101.9141 103.1053 104.0346 107.7060 105.1997 111.7285 102.0312 103.1600
117.4300 117.3556 118.6844 101.4886 117.9374 102.1905 95.2828 94.5134 121.0595 121.4171 115.9218 104.4751 118.9083 101.9319 104.4219 105.5187 104.2334 105.9072 106.9857 109.5363 106.5626 99.3715 101.9331 103.0846 101.3684 101.8374 106.3379 105.4410 111.1168 111.0001 114.4299 103.3047 111.3186 106.2946 106.3981 120.5398 106.9925 108.9757 104.9667 110.1000
117.8700 118.6653 119.7460 118.5580 120.3652 118.2518 98.9329 96.9681 104.7206 111.8225 117.2598 102.9366 120.4331 103.8389 104.4493 114.7846 106.6446 111.5022 100.9039 105.0339 103.1965 109.6933 103.6185 105.0521 107.9362 114.0180 102.6340 107.9882 111.0365 112.0721 111.1246 113.9091 115.8952 112.8176 118.2378 119.9066 108.9183 113.3644 107.9111 109.9400
118.7000 118.2748 117.0626 99.5669 96.9791 106.0078 95.1530 99.5109 98.8408 115.5997 120.4326 119.5147 120.9682 108.7859 105.0671 106.4751 105.1509 116.6630 101.2953 103.2520 100.4062 110.1939 109.8838 112.7601 103.9211 122.9813 112.6179 109.6325 108.4399 109.2043 109.1779 114.7892 104.4561 112.7800 113.2006 114.2484 120.9500 102.3629 112.3851 115.5700
119.0900 117.7898 95.1173 99.1362 107.2513 100.1660 100.3859 117.6612 102.3860 97.7388 121.0037 119.8280 121.2753 119.9592 108.4290 104.8700 112.0931 108.6377 106.7778 108.7536 102.5730 108.1422 110.9747 111.5091 111.6811 117.5020 113.7107 113.6976 112.6431 106.2187 109.1100 108.8703 101.3262 112.9823 114.7072 113.7691 114.2240 107.7575 121.7284 125.6000
119.0900 119.0800 119.4200 100.4000 99.8400 100.3400 100.3400 99.7500 102.8200 101.1400 113.8100 113.8100 120.3900 120.6400 120.7900 106.3200 115.8400 104.3500 113.6900 102.4700 103.6600 108.0800 113.2500 111.8500 112.3600 116.8500 117.6300 112.6500 113.5000 113.8200 103.8000 102.2200 102.3700 111.6200 114.4600 115.4300 114.4900 115.2800 116.0700 125.6000
