111.9300 113.0800 110.5400 113.8800 111.1200 111.8300 112.3400 102.9800 102.8400 118.7600 113.3900 122.1700 120.1800 120.1800 123.4700 123.3800 123.1700 123.0000 122.8900 122.6900 122.5700 118.5600 122.2200 122.0100 121.8500 121.6600 121.6900 121.5100 121.3200 121.3200 99.1600 99.1600 112.0500 121.0000 120.7500 120.7700 120.7800 120.8000 120.8000 120.8000
111.9300 109.4126 111.2570 112.7577 108.5284 108.9044 106.8447 104.4299 108.9470 119.9696 116.9836 101.4904 115.5283 129.9198 123.0334 123.8578 124.1086 122.9343 122.9051 102.4752 112.5565 117.4305 122.1994 121.9880 121.5952 119.8173 104.0708 119.0730 121.1811 120.6397 118.5269 118.5433 122.5255 120.4916 120.6146 120.5475 120.5199 120.5079 120.5123 120.4900
111.3100 107.1697 101.6763 109.0255 118.5042 117.2138 106.5006 106.7533 109.8742 123.6981 126.2045 114.4592 118.5677 123.5849 123.0530 122.9142 120.4910 122.6720 122.9112 119.9436 118.8737 112.7356 122.1150 121.6323 121.5527 119.1218 115.8194 122.3021 120.5771 120.8071 112.0381 100.6747 120.8845 120.2360 120.1820 120.2128 120.1760 120.1567 120.1444 120.1600
111.3100 110.7272 109.0569 109.3410 110.6682 106.7929 110.7748 108.3833 107.4541 120.6929 123.4362 124.3740 123.5611 123.2165 123.2692 123.8815 121.3315 122.5443 122.5188 122.9366 115.3208 123.0240 121.5344 121.4378 120.7880 119.4910 118.0388 122.3449 120.1382 120.3826 120.0649 121.6538 121.2517 119.9360 119.9011 119.8454 119.7982 119.7687 119.7666 119.8200
115.5800 106.2734 105.9039 110.0164 108.1714 101.4951 105.3648 108.5885 115.5938 121.8764 123.9584 123.2392 123.1895 122.9834 122.8517 122.3397 122.8645 122.3136 122.1099 122.0886 121.6407 121.5017 121.2732 120.8835 120.8612 121.0513 115.4038 115.4826 120.0143 120.0679 119.9271 119.6094 119.5375 119.6131 119.5045 119.4507 119.4041 119.3805 119.3645 119.4600
114.3900 107.7371 109.0213 105.8471 110.8743 105.3402 110.9606 105.8519 121.3808 123.7758 123.5826 123.3308 123.0531 123.6201 122.5240 122.2996 122.2839 121.8442 121.4175 121.6555 121.3879 121.2218 120.8219 121.9485 120.6530 120.3961 120.9419 119.7231 121.0607 119.2905 119.5280 119.3182 119.2142 119.2197 119.1090 119.0500 118.9949 118.9650 118.9524 119.0900
112.2800 110.4708 108.2879 109.0683 110.8883 103.8019 108.1563 111.8292 105.8461 124.5621 122.9819 123.2768 122.8027 119.6999 109.1811 123.8594 123.1934 123.1945 121.3606 121.4803 121.2396 120.7030 121.8222 107.4135 115.4401 116.2942 120.4713 113.7861 107.3305 119.7004 118.8857 119.7987 119.3554 118.7636 118.7673 118.6052 118.5607 118.5301 118.5175 118.7000
111.5800 111.5531 119.4939 104.0879 106.6570 108.3060 115.6612 114.6640 104.3618 118.3395 123.3194 122.9821 122.4542 125.0264 102.2299 120.7218 117.5037 120.5853 121.5030 121.2070 121.0561 120.3751 123.1924 111.3970 107.6428 103.2431 116.1304 119.7095 102.6888 118.4240 118.6503 117.6731 107.8810 118.8167 118.3058 118.1641 118.1069 118.0709 118.0587 117.8700
108.8700 111.4562 118.8154 115.4868 108.1668 107.6064 120.9307 122.2765 119.6752 123.8522 122.7063 122.5880 122.6942 106.1853 100.8471 100.4495 103.9153 122.1651 120.7894 120.5966 120.5121 120.3018 119.9539 97.7727 109.0381 106.9879 105.8776 101.8139 112.1637 119.4267 118.2135 118.0767 115.1983 119.5698 117.7742 117.6319 117.6276 117.5864 117.5726 117.4300
115.5700 111.1672 107.4604 108.7174 104.3013 110.5077 125.0676 115.3708 123.4931 123.0710 123.5366 119.3382 121.0141 105.5061 108.7554 103.0572 119.0836 121.3171 120.7942 119.7828 110.9312 116.4698 115.1042 104.6406 106.8117 105.5651 105.2827 108.0265 108.2334 118.3448 116.6110 117.8203 118.6357 107.1532 118.2987 117.4989 117.0617 117.0781 117.0607 116.9600
112.0400 109.0494 112.2838 108.7633 106.2107 116.3407 120.0809 119.8411 124.1765 123.2904 118.4629 106.1080 113.0360 97.6167 103.0568 103.9106 106.8315 123.0228 121.7065 120.8004 107.2507 101.2422 95.0209 109.4126 115.3527 107.4337 108.1283 103.3359 115.1322 111.2600 102.5129 118.4117 109.9243 110.2229 124.5581 117.2913 116.5714 116.5449 116.5112 116.4600
102.8800 101.3378 106.0675 103.0087 111.0965 121.4340 117.4577 119.9900 123.1502 122.8627 115.4313 104.3714 100.0947 102.0137 118.8165 101.4903 109.2424 124.9826 114.4127 116.4358 103.3078 99.7651 101.6772 109.1788 111.5355 111.3096 97.5645 96.6562 109.3424 115.8056 95.8474 115.6291 116.4626 118.9611 117.1528 115.6533 115.9727 115.9610 115.9357 115.9300
108.4300 107.3898 106.7293 111.3055 119.1842 119.6377 115.8896 123.5573 122.8445 122.6730 125.3574 105.3450 117.9981 115.6249 121.9674 118.2783 111.9853 112.1835 115.0534 100.4305 103.3007 112.9030 98.5603 109.1388 127.0979 113.7148 110.8676 101.5124 115.1505 117.1673 100.1934 116.5578 115.9408 113.2796 115.9729 115.6375 115.4057 115.3382 115.3132 115.3700
111.8600 104.2631 103.9298 112.5635 113.6062 116.3630 121.4261 123.3431 122.8323 122.5444 122.0357 117.0437 123.1317 122.3028 117.4772 111.4185 122.8911 121.4005 120.7126 116.3280 104.8825 109.2371 108.6543 105.0599 100.6731 99.2371 83.0845 106.3905 115.8028 111.6723 120.7676 115.7515 115.2076 115.6565 115.0197 114.8127 114.7435 114.6655 114.6405 114.7700
105.8200 103.8957 100.3103 120.1765 110.8323 109.0413 121.6568 122.3944 122.6582 123.3963 124.5489 123.2903 121.3365 121.1954 118.0419 116.8157 120.1421 120.1542 119.7428 119.3423 99.6140 100.4160 102.5721 106.5112 104.9265 109.6205 112.9682 102.2522 116.1175 110.2885 116.5696 115.1538 115.0158 114.5994 114.4218 114.2142 114.0433 113.9452 113.9095 114.1300
106.2900 105.2104 102.0622 105.3946 102.0846 104.2982 115.6431 122.8112 122.1451 123.9049 99.2100 118.0101 121.6760 121.4637 120.9301 120.8238 120.2626 120.0795 119.6472 119.2214 118.0964 99.2966 101.7042 98.0343 99.6468 118.2330 116.5801 115.2563 116.4501 114.2849 115.0654 114.7361 114.2944 114.0089 113.6967 113.4505 113.2675 113.1539 113.1179 113.4300
103.2100 102.5991 103.6295 101.9459 101.6213 109.9264 120.3235 122.7922 122.5060 122.3531 123.6662 100.7413 125.5332 118.9148 120.9779 120.4921 120.1978 119.8644 119.5202 119.1410 120.1884 103.6966 99.5854 111.3499 101.5117 95.6129 117.0173 115.8205 115.2992 115.0711 114.4728 114.1061 113.6800 113.2913 112.9481 112.6515 112.4300 112.2909 112.2387 111.8400
106.0500 107.8938 106.0076 105.9693 103.2915 116.3993 123.0701 112.9788 122.5989 119.0795 115.4733 122.5674 121.4686 121.1819 117.3864 120.6057 120.0770 119.7075 119.3402 118.9146 118.5877 119.4216 113.7543 117.2672 101.4285 123.4869 108.5238 112.3635 114.8833 114.5096 113.9731 113.4755 112.9986 112.5390 112.1267 111.7754 111.5026 111.3316 111.2708 110.9300
106.7900 106.7521 114.6372 117.3776 118.7263 124.2177 123.1719 123.3593 123.5508 112.1567 121.1484 115.4552 121.2229 121.8815 120.6283 120.2342 119.9301 119.5591 119.1856 118.7999 116.6501 112.4671 117.8414 117.4345 113.2043 107.3689 116.3972 115.9007 114.6134 113.9759 113.4100 112.8424 112.2795 111.7442 111.2446 110.8168 110.4753 110.2540 110.1725 109.9000
106.0000 107.1935 111.6952 100.8655 109.1491 116.1655 115.8340 124.0918 115.4705 115.2084 117.8141 96.1181 123.0357 111.8315 121.0161 120.1225 119.8632 119.4316 119.0516 118.4190 116.7234 95.0477 119.0081 116.7851 118.8936 117.0509 115.5107 114.5129 114.0667 113.4646 112.8414 112.1948 111.5350 110.8993 110.2841 109.7483 109.3117 109.0239 108.9189 108.7400
102.3200 102.8176 109.8111 117.0532 111.3682 103.9511 111.1785 112.4458 108.8029 97.2857 121.8967 95.1886 120.5448 110.1295 120.5595 119.6163 119.4586 119.1698 118.8798 118.0747 121.2461 95.9512 105.2558 119.6696 114.2468 115.2376 114.9017 114.3542 113.6785 112.9735 112.2758 111.5354 110.7734 110.0028 109.2552 108.5668 107.9883 107.6017 107.4563 107.3900
112.5600 103.0006 100.2481 101.7128 118.1944 110.4485 126.2627 112.8538 117.9126 114.0495 123.6174 112.5345 111.3440 123.6481 121.2666 119.5001 120.6352 120.4983 118.7227 118.0547 116.7127 95.8334 97.9966 102.0732 106.1152 115.2826 114.7560 114.0127 113.0534 112.6828 111.7277 110.8916 109.9967 109.0790 108.1435 107.2391 106.4583 105.9119 105.7009 105.8000
106.3300 103.8163 106.3933 103.3076 124.4529 118.1475 122.6238 123.5172 122.7793 122.7049 119.8023 122.3322 122.6463 120.9217 122.1754 121.5040 111.7244 107.3336 119.4257 118.1410 118.5624 94.9963 102.4583 97.6877 117.5444 114.3008 114.4426 113.8525 109.3944 110.7719 111.2901 110.2721 109.2469 108.1410 106.9642 105.7810 104.6564 103.8265 103.4877 103.8500
104.9100 118.2377 103.5929 120.2440 125.4393 121.9375 122.8030 122.3787 122.0237 121.6443 121.5685 121.0307 120.5437 121.7127 105.0645 107.7286 119.4372 115.2504 118.7326 118.1384 117.0072 116.9711 94.4597 97.2344 102.4038 115.4714 114.1740 113.4230 112.0496 111.2389 110.8031 109.7243 108.5503 107.2329 105.7736 104.1752 102.5362 101.1335 100.5446 101.3300
121.2000 116.4397 122.6459 124.6741 122.7475 122.8620 122.6843 122.4373 122.1428 121.7477 121.8499 121.6514 120.6311 114.8809 119.5609 116.9982 119.6189 119.6434 118.6984 118.0882 116.9872 118.0612 90.8406 112.5976 112.9657 110.1991 114.5413 113.1693 112.4737 111.5684 110.4412 109.2718 107.9537 106.4253 104.6402 102.5257 100.0456 97.4155 95.7788 97.7600
107.9400 123.0302 110.5608 110.0380 130.6058 123.5087 122.6972 122.3917 122.1052 121.5441 121.7610 114.6798 121.2783 118.1985 119.7823 119.7224 119.3735 118.9157 118.4727 118.0634 116.9372 116.1536 103.4303 115.8863 115.4038 114.6572 113.9965 113.0767 112.2253 111.2628 110.1809 108.9471 107.5245 105.8236 103.7401 101.0419 97.4561 91.5348 89.4850 90.9700
114.5100 122.2787 119.0498 127.4655 122.5551 123.7982 122.7141 122.3756 122.0698 121.7899 121.6883 123.0293 102.7550 123.9900 114.9877 120.2864 119.2674 118.8978 118.4637 118.0095 117.5153 116.9134 116.4370 115.6766 115.3735 114.6243 113.8562 113.0196 112.1439 111.1735 110.0601 108.7943 107.3101 105.5195 103.2613 100.1931 95.4923 87.5817 85.7840 90.9700
104.0000 119.1831 121.0741 128.4456 122.5522 123.0364 122.6722 122.4064 122.5446 122.0001 118.2192 121.8787 120.2620 117.3119 115.4763 120.0734 119.1543 118.8679 118.5040 118.0456 117.6254 117.6551 116.3721 115.9255 115.1681 113.6398 113.8694 113.0228 112.1645 111.1887 110.0830 108.8217 107.3478 105.5786 103.3551 100.3439 95.8863 88.6449 86.7317 90.8500
102.0900 111.6714 121.5800 120.6030 122.6493 122.8999 122.6965 122.4145 118.4264 124.6798 102.5876 124.0961 99.1072 103.8214 113.1775 120.1309 120.2804 118.7323 118.5336 117.9348 116.3426 113.8953 116.6024 115.9468 114.6275 110.3836 114.2894 113.1199 112.2605 111.3119 110.2443 109.0312 107.6310 105.9853 103.9831 101.4666 98.2220 93.8259 90.8376 90.9600
109.6200 121.8738 123.9058 115.2402 124.0354 122.8965 122.6753 123.6935 110.6079 122.1461 124.8043 124.1333 103.6031 111.7467 117.3470 117.7519 110.2844 119.4754 118.8825 118.2850 106.7095 112.4616 116.0588 115.8085 115.6154 115.1837 114.0096 113.2834 112.4497 111.5379 110.5347 109.4004 108.1207 106.6572 104.9819 103.0284 100.8620 98.7078 97.5836 97.7500
110.0200 117.2775 127.3511 123.4065 123.1705 122.9923 122.7495 123.3666 119.8440 121.0817 114.7168 122.3864 109.8622 123.1385 107.2980 118.7100 117.5558 118.0851 118.0856 118.0573 118.8051 118.4008 119.6953 116.7665 115.4957 114.8309 114.2313 113.4988 112.7099 111.8457 110.9120 109.8829 108.7447 107.4988 106.1151 104.6768 103.2180 102.0210 101.5131 101.3200
124.1200 123.0312 125.9998 123.2183 123.3004 123.0098 122.7658 122.5222 122.6660 122.6572 112.3292 121.9361 122.8157 121.5219 122.6396 122.8908 120.6833 122.0183 118.8044 118.2886 117.5499 113.9007 102.4062 117.6033 115.4947 115.1054 114.4607 113.7666 113.0307 112.2463 111.4064 110.4772 109.4876 108.4555 107.3373 106.2348 105.2440 104.5041 104.2077 103.8500
124.2900 123.9396 123.5569 123.6151 123.3065 123.1733 122.8746 122.5270 122.2451 122.0065 122.5240 122.7453 106.3355 109.7851 121.4734 100.3409 122.1512 100.2122 118.7361 118.5025 117.5300 114.7959 110.2107 118.2897 115.6279 115.3539 114.7308 114.0822 113.3737 112.6267 111.8317 110.9910 110.2440 109.2673 108.4037 107.6802 106.9444 106.4501 106.2595 105.8000
124.3000 124.1207 123.8881 123.6148 123.4728 122.6159 122.5009 122.5714 122.2515 121.8990 121.4655 123.0646 99.8717 96.6808 119.3155 109.6500 97.0715 121.9275 118.8250 118.5324 120.6982 99.0623 119.3437 116.7636 116.1334 115.6094 115.0251 114.4314 113.8885 112.8770 112.7279 112.6112 110.5223 110.6001 110.1446 108.9056 108.4012 108.0529 107.9189 107.3900
124.3100 124.0769 123.8847 123.7073 122.8730 129.5463 122.3834 122.8179 122.7565 124.0349 120.4571 122.2523 120.2422 119.8489 120.5698 119.4381 118.2128 119.2310 119.0874 118.3417 115.5669 107.9347 117.5038 116.9803 116.4003 115.8922 115.3644 114.8032 114.1977 114.3481 107.5876 106.7633 100.9931 105.0106 110.8744 109.9739 109.6674 109.4154 109.3125 109.9000
124.3300 124.5379 118.0718 123.9329 122.6303 118.4017 123.2681 122.5291 122.6445 125.7209 119.2285 122.4895 120.7992 120.8789 120.5229 120.1574 119.7898 119.5355 119.2687 118.4010 118.6654 118.6955 117.3782 117.1570 116.6880 116.2050 115.7030 115.1622 115.8492 99.8565 94.7147 96.4422 91.7999 96.7088 111.2495 111.1203 110.7924 110.5927 110.5171 110.9200
117.8200 113.8482 117.7996 120.6215 101.6314 120.5971 123.1251 119.8983 119.9412 121.9439 113.2946 118.9476 121.2016 121.3481 120.7937 120.4483 120.1860 119.6511 120.2632 109.6871 119.4214 118.1107 117.7598 117.5550 116.9554 116.5297 116.0541 115.6754 114.8132 115.7467 93.7487 92.8631 104.9914 113.0600 113.1377 111.9834 111.7911 111.6309 111.5707 111.8400
120.5900 108.4636 107.0704 103.0914 121.7499 116.8383 119.6827 105.6122 109.1088 124.2343 110.8112 99.3723 122.5193 121.6746 120.8734 120.5708 120.2318 119.7552 120.8785 114.0717 119.0411 118.5040 116.9330 117.2207 117.2728 116.8917 116.4355 115.9899 116.1268 117.4013 107.0817 96.9838 115.9737 113.7448 113.1785 112.9004 112.6787 112.5587 112.5108 112.6700
120.5900 117.1182 111.3080 111.2299 115.6373 112.0680 105.9076 120.7758 108.7989 118.6865 105.8527 114.8148 121.9363 121.2960 121.0324 120.7447 120.4660 119.7302 122.2606 114.9902 119.3928 119.1395 111.6088 112.0996 118.0433 117.1663 116.8206 116.1528 116.0604 101.1911 99.8665 94.5726 106.1194 114.2458 113.9373 113.6787 113.5065 113.3996 113.3635 113.4300
116.5600 117.9200 102.2700 103.7400 120.4400 101.4600 101.2900 113.0500 108.8700 103.0600 117.4500 121.9900 121.7900 121.3800 121.1600 120.9600 120.4900 120.2600 119.7700 119.5200 119.2600 118.7500 98.9100 109.1700 117.8600 117.2900 117.2900 116.5900 116.3100 100.5800 97.6100 97.4300 114.7800 114.8200 114.4200 113.9500 114.0300 114.1200 114.1300 114.1300
