109.9000 109.9400 108.1400 109.4600 108.7500 108.5000 100.1200 101.2000 118.6900 99.2500 103.1200 121.2000 117.6100 119.6000 119.3300 119.0600 118.4900 118.1900 117.8800 95.2400 95.5000 110.4600 115.8000 115.4000 115.1000 114.5700 114.1100 113.8000 113.1700 112.8000 96.8900 96.8900 111.7600 111.7600 110.9300 111.7600 111.7600 111.6700 112.2900 112.1300
113.2300 112.5504 106.0419 109.4217 103.2701 102.8577 105.2961 106.1933 115.1558 100.5885 98.9352 117.2876 117.8559 112.0336 118.4638 118.8823 118.2509 109.0020 104.4458 109.1113 98.8771 114.8037 115.8360 115.2205 114.5581 102.5365 101.4965 112.5444 112.4801 110.3123 102.4242 112.2100 111.1106 110.7189 110.6346 110.6994 110.8719 111.1699 111.5499 112.1300
111.6900 115.3333 113.1774 110.2374 103.8567 103.9937 105.7012 107.0777 112.1251 102.7943 101.5674 121.0121 104.5444 121.8551 120.7024 118.7185 119.3399 109.5609 93.3861 111.3367 101.8764 116.3728 115.3874 114.8812 115.1622 114.9213 109.0983 113.4845 111.6723 112.8053 111.1644 109.9818 109.7605 109.5915 109.4767 109.5306 109.7703 110.1343 110.6087 111.1800
117.9900 117.5200 121.4997 109.5198 106.4002 101.2645 99.5601 110.1162 100.1902 99.1154 105.2755 122.7416 110.4524 120.5271 114.7205 118.8955 118.1222 109.1558 107.5513 103.5086 112.9991 116.0652 115.0202 114.5226 113.7416 113.9405 111.8591 112.1663 111.3786 100.6703 109.3398 109.4181 108.6549 108.2398 108.1024 108.1887 108.5007 108.9868 109.5866 109.9400
118.1300 123.6671 119.6299 105.0863 108.7108 100.3150 113.7167 112.7736 110.5196 117.1669 116.8011 120.6159 118.0538 112.0609 116.4173 118.6786 117.9656 119.3060 119.2248 114.9956 116.4270 115.5420 114.8384 114.1852 113.5065 112.5419 111.8507 111.3174 110.7535 111.5448 107.6923 107.8079 107.1945 106.6972 106.4784 106.6026 107.0344 107.6916 108.4869 108.8700
108.0100 108.5209 112.4813 111.7309 113.1400 98.9935 102.0026 120.3665 112.2952 120.9501 120.8558 120.0207 119.5131 114.6378 127.9336 117.6656 117.8724 117.2522 116.7126 116.4877 115.8776 115.1723 114.5487 113.8720 113.1425 112.3900 111.5387 110.5991 109.6693 108.6899 107.6222 106.5180 105.5507 104.8138 104.4802 104.6727 105.3196 106.2461 107.2871 107.5300
107.4400 114.2769 110.5709 108.2493 100.1684 105.0392 116.2335 103.6269 122.3305 120.6702 120.1202 119.8592 119.4256 119.0591 118.7982 118.3214 117.7225 117.2788 116.7591 116.1945 115.6126 114.9957 114.3185 113.6050 112.8225 111.9789 111.0610 110.0572 108.9584 107.7161 106.3996 105.0018 103.6080 102.4375 101.8709 102.2139 103.2670 104.6314 106.0498 107.1600
103.6700 105.9128 106.2618 104.4044 104.2387 110.3280 117.9288 112.5971 122.5245 115.4962 120.6818 119.8292 119.4158 118.7863 111.4597 115.3820 117.2111 117.1967 116.6482 116.0785 115.4723 114.8255 114.1388 113.3824 112.5690 111.6622 110.6721 109.5621 108.3161 106.9012 105.2661 103.4023 101.3308 99.3529 98.2067 98.8606 100.7866 102.8852 104.8016 105.6300
109.4100 110.5482 107.6500 107.5495 106.3450 110.0571 117.1003 110.8493 115.8963 120.5839 120.3961 119.8026 118.9680 119.2498 105.8513 113.8908 111.0226 117.3936 116.6193 115.9834 115.3727 114.7088 113.9957 113.2248 112.3780 111.4321 110.3836 109.1900 107.8295 106.2184 104.2875 101.8909 98.8709 94.6513 91.5992 93.5644 97.9490 101.1673 103.7214 105.3100
110.2100 109.0724 101.1640 106.0500 106.0431 113.1408 119.5822 116.4488 121.8273 120.3109 120.1217 119.7526 119.4768 118.1137 118.8113 118.2458 118.2727 117.0855 116.5496 115.9445 115.3419 114.6881 113.9576 113.1481 112.2563 111.2933 110.2132 108.9709 107.5268 105.7921 103.6444 100.7781 96.6400 89.2296 85.8039 87.8083 95.0403 99.8613 102.9939 105.0900
105.2200 101.5107 106.4977 105.9266 106.0802 114.0887 119.9460 117.5613 121.1696 120.4987 120.1434 119.7381 119.7337 117.1619 121.0747 118.1566 117.3694 117.0107 116.5199 115.9229 115.3071 114.5057 113.5896 113.0054 112.3422 111.2970 110.1832 108.9226 107.4623 105.7044 103.4939 100.5160 96.0848 87.9143 84.2517 86.3745 94.1599 99.5450 102.8328 104.9900
111.5400 110.6735 108.2310 108.7869 106.4559 113.1508 121.2544 113.3360 121.5831 120.5410 120.1294 119.7943 119.7506 106.1248 107.7982 118.1054 117.4930 117.1061 116.5453 115.9820 115.2794 115.2387 115.3410 113.8267 111.9352 111.4075 110.2781 109.0585 107.6411 105.9599 103.8934 101.2152 97.5154 91.6146 88.3791 90.1452 96.3388 100.3842 103.2866 105.0300
111.2100 114.0848 110.8365 109.3727 108.3168 115.7948 121.4629 118.8995 120.8603 120.5588 120.1905 119.5432 121.5090 108.4691 112.3587 117.2826 117.3352 117.1782 116.6088 115.7677 115.1249 106.5214 102.4518 115.4198 113.0739 111.6303 110.4951 109.3507 108.0370 106.5128 104.7220 102.5765 100.0332 97.1183 95.0068 96.3426 99.3187 101.9573 104.2014 105.3700
112.0800 105.6024 103.1390 110.8557 110.8981 114.7853 115.0461 121.3946 120.7287 120.5704 119.9909 121.3857 103.5120 123.0603 118.3606 119.7032 117.5867 117.2759 116.7042 115.7319 115.4217 99.9362 121.2661 114.3369 112.9055 111.8353 110.8420 109.7783 108.5951 107.2764 105.7957 104.1200 102.4545 100.9181 100.1031 100.5813 101.9908 103.7252 105.3888 106.9900
108.4300 111.5420 105.2203 107.3323 116.7251 117.9160 116.0863 121.6814 120.9107 120.6280 120.1250 119.7613 118.2340 110.4221 116.9278 117.9248 117.7841 117.3431 116.8023 116.0650 116.0718 114.0898 111.4368 113.1398 113.0058 112.1657 111.2724 110.3112 109.2738 108.1505 106.9580 105.7170 104.5455 103.6090 103.1686 103.4388 104.2823 105.4128 106.6418 107.2500
107.2800 107.0145 101.6099 114.9916 110.5324 123.2816 117.6593 119.6279 120.7933 120.7322 120.3151 120.2618 119.9229 118.0048 118.6976 118.3669 117.9229 117.4547 116.9502 116.4019 116.0991 115.1021 114.5798 113.9277 113.2074 112.4443 111.7663 110.9092 110.0038 109.0606 108.1150 107.1771 106.3426 105.7196 105.4637 105.6208 106.1593 106.9446 107.8642 108.6500
110.8100 105.3214 106.2263 105.1754 106.8418 121.8125 120.9788 121.6879 121.1145 120.7359 120.4612 120.0878 119.6708 119.3095 118.8916 118.4892 118.0706 117.6124 117.1368 116.5922 115.8280 121.4089 117.6232 114.3196 112.8211 112.9965 112.2947 111.5336 110.7615 109.9762 109.2117 108.4909 107.8751 107.4418 107.2631 107.3750 107.7452 108.3221 109.0164 109.9200
107.9800 109.5798 107.3747 106.5385 106.4467 113.8916 121.6835 121.5207 121.1954 120.8499 119.8449 120.0507 119.8289 119.4984 118.7955 118.6995 118.2336 117.7863 117.3300 116.8397 116.4054 115.4106 117.8109 115.7650 98.8613 112.5846 112.8461 112.1826 111.5153 110.8523 110.2297 109.6688 109.2005 108.8856 108.7634 108.8385 109.1105 109.5347 110.0786 110.0200
118.7600 115.4536 113.2632 123.2130 123.5495 123.2426 121.9345 121.6129 121.0271 120.9666 125.2053 120.9119 120.0123 119.7370 117.5518 118.9794 118.4188 117.9820 117.5467 117.0641 116.5895 117.0636 114.9572 107.0530 115.8890 114.0807 113.4098 112.8279 112.2594 111.7022 111.1889 110.7315 110.3745 110.1320 110.0354 110.0904 110.2956 110.6302 111.0632 111.1200
113.8100 111.6030 119.4721 118.7078 122.0040 121.6959 121.9740 121.5537 122.7752 121.6514 99.4922 120.6449 119.8098 119.7886 119.5526 118.6372 118.6172 118.1902 117.7793 117.3867 117.0233 111.1611 116.7075 116.3674 115.0335 114.4457 113.9616 113.4245 112.9670 112.4975 112.0683 111.6990 111.4134 111.2117 111.1334 111.1880 111.3491 111.6172 111.9685 112.0600
120.7100 109.9455 114.6376 114.9258 123.3835 122.2557 122.0411 122.1183 110.7468 124.1122 125.1340 119.5604 119.9531 119.8296 119.5911 118.5478 118.8507 118.4081 118.0215 117.6746 114.5428 102.4232 111.7892 115.5584 109.7006 112.9453 114.6105 114.3759 113.6200 113.2337 112.8848 112.5778 112.3441 112.2133 112.1575 112.1695 112.2999 112.5133 112.8032 112.8100
103.2100 101.4503 106.0882 115.2617 120.1003 120.9069 122.2778 123.1835 109.2811 122.1640 120.3936 120.9115 120.5986 120.1395 119.7308 119.4091 119.0259 118.6553 118.2844 117.8666 117.1767 117.5466 114.4710 116.9719 99.9603 114.3305 114.4183 115.4244 114.1702 113.9430 113.6414 113.3797 113.2044 112.8715 112.7536 113.0372 113.1469 113.3270 113.5695 113.6900
116.2200 108.8780 101.2537 111.8134 122.3262 118.7782 122.4922 122.0208 122.7276 121.4408 121.2751 120.7552 120.1476 119.4634 119.8996 119.6098 119.2437 118.8904 118.5397 118.1888 117.6464 117.9638 117.2574 117.3691 108.8283 108.8397 98.7228 114.6319 114.8073 114.6086 114.3338 114.1448 113.8792 115.0839 114.8972 113.8305 113.9267 114.0885 114.2838 114.3900
115.2300 114.6717 112.1057 114.3570 125.6330 121.7779 122.3687 122.0487 121.6855 121.5487 121.2244 122.0791 120.7456 122.6777 112.9240 120.1220 119.3124 119.1486 118.8061 118.4666 118.0386 118.8563 102.1093 93.1845 103.4969 112.9645 103.5474 116.0596 115.4431 115.2213 115.0047 114.8806 116.0983 102.5104 115.5464 114.5146 114.6263 114.7843 114.9535 115.0400
104.4800 119.1435 105.2370 111.6093 122.3952 118.1794 122.8822 122.2963 122.0031 121.8247 121.6559 112.1700 100.8364 98.9971 106.1116 121.5825 119.6867 119.3853 119.0843 118.7497 118.5056 118.1980 115.8066 116.9149 93.6803 119.3604 116.1681 116.3185 116.0892 115.8534 115.2056 114.9814 115.8484 112.5786 115.3835 115.1275 115.3099 115.4263 115.5799 115.6400
114.5100 115.4651 122.0191 122.3019 123.6049 122.8245 122.6316 122.4120 122.1477 121.9120 121.5823 120.8156 104.8082 121.6341 120.1243 120.1747 119.9816 119.6421 119.3539 119.0566 118.7630 118.4303 118.0545 118.0853 117.7589 117.0172 116.7858 116.7840 116.5908 116.2465 116.2920 118.5890 114.5224 116.1267 115.8785 115.8734 115.9231 116.0296 116.1626 116.2000
113.2500 136.2607 122.4504 123.1487 123.4928 122.9532 122.7979 122.5250 122.4437 121.9314 117.1942 110.7062 122.1678 121.1485 120.5337 120.3947 120.1966 119.9155 119.6320 119.3530 119.0679 118.7903 118.5439 118.3192 115.0046 116.1875 117.8381 117.5155 117.0749 116.9309 109.9892 105.5449 111.8633 116.6518 116.4930 116.4536 116.5067 116.5916 116.7083 116.7300
124.1300 124.8038 124.6968 107.8960 126.4186 122.8505 123.0190 122.6912 122.4759 121.7689 123.4072 123.1773 121.0667 121.1546 119.5344 120.8278 120.4590 120.1694 119.9150 119.6486 119.3905 119.1259 118.8952 118.7081 118.2472 118.2620 122.3377 117.1922 117.4956 118.2004 115.9825 111.8536 118.1867 116.9996 116.9761 117.0175 117.0900 117.1421 117.2292 117.2200
104.6600 117.7192 125.8581 103.5001 125.6996 123.0039 123.0509 122.8857 122.3604 122.5367 122.0802 121.8392 121.6109 121.5273 120.9955 120.3637 120.7921 120.4114 120.1861 119.9288 119.6916 119.3808 119.2064 120.6175 119.6465 104.4402 113.4881 118.5372 114.9699 115.9753 110.4958 118.4614 117.5033 117.5166 117.5190 117.4761 117.3341 117.5194 117.7231 117.6800
118.6700 107.8319 126.9363 110.4369 123.5611 123.1709 123.2709 123.0273 124.1326 119.8659 122.5036 122.0749 121.8390 122.2097 112.0139 112.6135 120.3611 120.7505 120.4616 120.2496 120.0765 119.7790 120.3688 119.2774 119.0757 119.9454 119.3435 116.4318 112.3008 119.4552 118.8636 118.0660 118.1584 118.0323 118.0137 117.9601 118.9882 119.1190 118.1359 118.1300
123.2600 122.7712 123.7850 125.0137 124.3946 123.6187 123.0179 122.3677 111.4682 115.4717 122.8501 122.1946 122.1123 121.4751 116.9683 110.8710 119.5657 120.8757 120.6452 120.4848 120.0862 120.2185 121.9940 119.5766 119.4233 118.5676 118.1647 120.8409 118.6878 118.4097 118.6294 118.2968 118.1625 118.4908 118.4966 118.4553 113.3428 113.8069 118.6217 118.5500
124.6400 124.2484 124.0175 122.4990 123.7298 123.9602 123.4626 125.0432 114.2902 122.2159 124.5261 122.4475 121.9340 123.1846 117.5148 117.9353 124.3246 122.3511 120.8682 121.1389 121.2757 116.1885 110.2447 121.0005 118.8817 120.3085 120.8118 100.1034 117.9768 119.2828 118.5694 123.8656 118.4802 118.9462 118.9045 118.7363 118.8026 117.2527 119.1506 118.9500
124.8300 125.6196 124.3565 123.6850 123.3325 123.1322 123.5163 123.6794 124.4142 119.7818 116.1685 117.6301 116.7289 108.6237 125.3423 121.9977 115.0809 112.9284 123.0421 114.0202 117.5445 109.9631 97.7968 123.4677 118.4558 113.8663 112.8092 117.0027 120.9161 119.5046 119.1673 119.3540 119.3718 119.3514 119.5945 119.3225 119.3133 119.4584 119.2537 119.3300
106.0300 123.3785 124.5056 124.2076 129.8648 125.2266 124.4253 123.5073 123.3902 121.4690 122.1951 104.6559 116.7865 104.7207 124.7317 107.7797 103.0828 99.3409 122.5890 108.0323 106.7032 110.8389 96.3702 107.9661 110.0787 96.9126 115.4730 119.8099 119.9761 119.9657 119.9285 119.8964 119.6443 119.7443 117.2456 119.7056 119.6836 119.8147 119.9122 120.0400
124.9200 125.4770 124.5213 124.3550 122.1135 118.4299 117.3505 124.2004 123.5936 123.7697 121.4341 117.6405 124.2969 118.7283 122.7014 121.7090 118.5647 119.9830 100.5964 99.3431 100.0284 104.7044 104.8161 103.3839 99.3433 100.5650 111.4181 120.3184 120.4579 120.2675 120.1461 119.7423 120.3847 120.3121 118.5461 118.2920 120.3095 120.1269 120.2001 120.3800
125.1000 125.0784 124.8448 124.3379 125.9950 124.6024 124.4791 123.8238 123.8322 123.4775 123.6131 123.2423 122.8455 122.8951 122.6912 122.1278 123.7325 119.2474 120.2410 104.8527 99.6922 104.4832 104.5327 103.1426 109.0899 122.0817 119.9062 120.8139 120.6929 120.6985 122.6913 122.2249 113.5494 119.7140 104.6260 118.4979 120.2770 120.5633 120.5734 120.7000
125.1500 125.0634 125.0139 124.6360 121.9930 104.2944 123.4928 124.1672 123.7316 123.8220 123.7484 123.2339 123.0715 124.1606 123.0553 122.8862 123.9248 111.6720 99.2821 104.6538 115.8856 122.1899 103.9989 111.5181 122.5142 120.7776 121.2020 121.1281 121.0847 121.0231 123.2520 120.8918 121.6585 121.1521 121.2038 120.8524 120.7088 120.8858 120.9110 121.0200
125.3300 125.2051 124.9373 125.6066 117.2071 120.2482 124.6005 124.3472 122.9854 124.4523 127.5516 121.6196 122.9592 130.3538 124.8487 122.5042 122.6381 113.6703 98.9836 107.7975 120.8666 122.8286 123.2579 114.4497 122.3973 121.6280 121.5558 121.4506 121.4486 121.4317 112.2960 110.4832 120.8787 120.8787 120.9053 121.0686 121.1373 121.2127 121.2427 121.3200
125.5500 125.3929 127.2037 124.2602 127.4050 124.3324 122.2390 124.5376 124.1933 123.7692 116.4994 120.1786 124.4559 122.9970 122.9183 124.5929 121.4124 126.8286 108.3565 118.1484 122.9811 122.0194 122.1959 123.0628 121.8943 121.9760 121.8398 121.7566 121.7586 121.7679 111.7360 108.7906 122.3811 121.5992 121.5232 121.5209 121.5203 121.5225 121.5599 121.6100
125.5500 125.4200 132.5700 105.0400 125.0400 124.9500 124.6700 124.5100 124.3700 124.2600 102.4100 104.1900 123.8400 124.3100 123.5200 123.3800 112.4800 105.8300 105.8600 122.8200 122.6100 122.4600 122.4600 122.3100 122.1400 122.1900 122.0000 122.0400 121.8300 121.8600 121.8900 121.6500 121.6700 121.6900 121.6900 121.6900 121.6800 121.6500 121.8900 121.8900
