103.4600 106.2000 104.4700 106.5100 111.2100 115.1200 103.0300 105.2100 107.0700 105.8800 107.5200 99.3900 125.0500 116.8200 119.6900 119.4200 118.8700 118.5700 117.9600 95.6300 114.7300 107.8900 116.2000 115.4000 114.9700 114.5200 114.1200 113.0200 111.8700 111.2400 110.5800 107.0200 109.2300 109.2300 108.4200 107.3400 107.4100 107.3200 108.5600 108.3700
103.4600 106.7943 106.3976 108.3186 104.1268 111.6519 102.2241 103.0785 114.3008 104.7134 100.3574 111.8613 120.0878 118.2552 119.6690 119.2124 118.8035 120.5837 125.8322 100.8500 113.7456 112.0176 116.5905 115.4266 114.3771 115.0189 113.7101 112.8802 112.0402 111.2187 110.7487 106.2317 109.5278 108.1262 107.2640 106.7937 106.5898 106.7378 107.1842 106.9100
107.5600 109.4200 106.7355 109.6502 106.5732 103.5231 97.6677 107.8451 107.9768 103.7492 99.5136 123.0835 120.7925 118.2215 119.9868 119.1977 119.7982 108.1976 105.4954 103.7230 113.4179 117.5504 115.9687 115.2390 113.9507 120.0272 112.7368 112.2266 111.6063 110.4997 109.5039 105.4794 106.8103 106.5738 105.6246 104.9460 104.6450 104.8569 105.4914 105.1800
105.7700 107.3214 113.0495 110.7936 105.1229 98.9810 106.7651 112.4951 105.2875 103.6583 106.6794 126.0961 106.7659 123.0365 114.7836 119.1512 119.8406 98.0085 99.7528 111.1811 115.4311 117.0948 115.5467 114.9561 114.0569 119.2961 115.9851 112.9889 110.9239 110.0857 109.9342 108.2055 106.7862 105.0373 103.7112 102.5812 102.0934 102.4523 103.4903 105.1800
104.9500 111.1274 112.5836 109.4870 122.4534 97.2211 112.7984 107.2625 106.3054 101.4922 100.3073 102.6877 101.2299 102.5335 117.5058 118.7498 118.2787 114.7580 107.4549 119.8812 116.8372 115.9177 115.4656 114.7973 114.0977 114.2366 97.5462 104.7105 111.8588 109.9747 107.5288 106.8436 105.1995 103.4560 101.3762 99.6316 98.5207 99.2364 101.0603 102.4800
113.5300 114.8971 110.0974 106.9848 122.6647 104.0960 102.5049 123.8304 116.0229 118.9167 117.9859 116.9526 116.8428 116.8750 119.5317 119.1041 118.5237 118.6121 116.5065 117.0301 116.4769 115.9717 115.3544 114.6890 114.0221 112.8635 107.8137 97.3155 92.1199 118.2007 108.4515 106.2824 104.2473 101.8682 98.9636 94.7049 92.1540 94.0817 98.4146 99.6900
101.6000 110.6440 100.0826 100.8281 100.7747 107.2374 110.4728 111.4360 121.8165 121.2059 120.9791 120.7347 120.5133 120.2831 119.6328 118.9165 118.4909 118.0098 117.6299 117.0666 116.5300 115.9143 115.2920 114.6163 113.8880 113.1213 112.4615 110.6795 109.2528 109.5925 107.4764 105.7519 103.5662 100.6729 96.5907 89.3947 86.3596 88.4375 95.5141 99.1600
119.8600 118.2311 114.9558 111.0746 109.7138 121.8388 120.2375 118.3237 121.0163 132.3730 120.3239 120.4145 120.2536 120.4404 107.5267 120.2909 118.3866 118.0297 117.5667 117.0385 116.4869 115.9008 115.2778 114.6003 113.8765 113.0734 112.1967 111.1664 109.9426 108.8474 107.4479 105.6014 103.4568 100.2933 95.7177 87.4315 83.9142 86.4363 94.4694 98.9700
103.8100 102.5272 103.5443 101.3275 101.5117 110.4761 113.2376 114.4510 120.6225 129.8920 120.5131 120.3657 120.1608 119.9537 116.6808 117.6494 116.6418 118.0861 117.5764 117.0523 116.5086 115.9317 115.3055 114.6393 113.9113 113.1177 112.2474 111.3530 110.2804 108.9828 107.5364 105.6464 105.4979 100.7889 97.3111 90.8895 87.9882 89.9258 96.4070 99.1900
108.4400 110.3567 106.3420 107.4173 106.4294 112.2989 117.1073 115.8484 121.4388 120.4982 120.8613 120.5911 119.8020 117.2697 112.7623 111.4454 115.1251 118.0382 117.6504 117.1037 116.5669 115.9894 115.3722 114.7169 114.0147 113.2419 112.4489 111.5216 110.4216 109.2733 107.9267 106.3657 104.4653 102.3387 99.6790 96.5966 94.4441 96.0746 99.3102 99.7500
110.4900 110.1698 101.6497 103.2921 105.4931 113.8606 119.9556 116.7013 122.2538 121.4332 120.8947 120.5632 120.0148 119.9058 120.2289 120.8543 118.8741 118.2002 117.6791 117.1811 116.6560 116.1045 115.5447 114.8755 114.1664 113.4182 112.3894 111.3949 110.8216 109.6949 108.4891 107.1692 105.6672 103.9655 102.2400 100.6420 99.8402 100.4151 101.8865 102.5300
110.4900 106.0173 104.1421 117.3479 105.0667 109.3970 119.5397 116.7602 121.8141 121.2536 120.9505 120.6076 120.3205 117.9846 120.2787 115.4976 118.5261 118.3114 117.7770 117.2921 116.7710 116.2287 115.5113 115.0389 114.4426 113.7081 113.4357 112.9882 111.2137 110.2022 109.1702 108.0302 106.8032 105.5578 104.3357 103.4036 102.9732 103.2824 104.1707 104.8200
112.3300 112.0599 109.3780 119.2396 102.4633 118.5228 123.2829 120.8723 121.6960 121.3401 121.0106 120.6592 120.4156 120.9467 104.2387 120.8729 118.5696 118.3626 117.8990 117.4263 116.9430 116.2926 116.5390 114.3800 114.8953 113.9248 114.1941 112.9060 111.7128 110.8059 109.9088 108.9492 107.9843 107.0235 106.1821 105.5653 105.3067 105.4915 106.0645 106.9300
110.8400 122.2627 109.2731 102.8026 104.6858 116.1028 115.4200 122.0490 121.7156 121.3939 121.0755 120.7466 120.3244 121.0127 114.4285 114.2799 119.3193 118.4758 118.0316 117.5674 116.9590 117.9845 102.7823 117.5574 114.8045 114.2597 113.3622 112.6824 112.2087 111.4519 110.6708 109.8696 109.0967 108.3580 107.7431 107.3129 107.1426 107.2691 107.6631 108.3300
101.8300 112.4505 110.3916 103.1417 122.5250 115.0863 122.2173 122.2907 121.7996 121.4708 121.1600 120.8197 120.6517 120.9371 123.2591 118.4213 118.9673 118.6298 118.1964 117.7466 117.2347 117.3412 112.9761 116.1991 115.2166 114.6387 114.0700 113.4493 112.7644 112.1051 111.4327 110.7580 110.1296 109.5578 109.0919 108.7815 108.6555 108.7423 109.0323 109.5800
108.0700 107.4802 107.8847 108.6487 111.9754 126.2429 111.3598 123.5129 121.7526 121.5406 121.2454 120.9209 120.6515 120.3488 119.9383 119.6850 119.1748 118.7801 118.3709 117.9341 117.5743 116.7957 116.4422 115.8295 115.5977 115.0511 114.4969 113.9055 113.3289 112.7493 112.1763 111.6166 111.0958 110.6346 110.2747 110.0362 109.9422 110.0098 110.2271 110.6700
114.5500 109.2780 106.7935 106.9953 110.1474 107.6304 118.5487 122.4148 121.9057 121.6505 121.3298 121.0565 120.7384 120.4103 120.0671 119.6871 119.3328 118.9557 118.5743 118.1507 117.3065 122.8223 125.9297 116.8635 115.7060 115.6281 114.9204 114.3972 113.9028 113.3828 112.8904 112.4170 111.9860 111.6152 111.3219 111.1376 111.0631 111.1162 111.2900 111.6300
107.6500 109.9398 108.1679 104.3888 102.5300 114.4948 111.2713 122.5129 122.1480 121.9942 121.5692 121.2279 120.8410 120.5189 120.1931 119.8579 119.5030 119.1453 118.7694 118.3559 118.0507 117.7569 109.8732 113.5349 116.2648 121.1114 114.6584 115.0061 114.4256 114.0050 113.5730 113.1709 112.8174 112.4994 112.2667 112.1147 112.0595 112.1010 112.2371 112.5000
113.7100 114.8195 110.2411 105.8584 126.3925 124.4735 124.1761 122.3076 122.0527 126.4213 122.4569 121.4616 120.8694 120.6742 120.3595 119.9858 119.6905 119.3393 118.9823 118.6190 118.2703 118.2611 118.5347 112.8989 116.7095 116.2858 118.2739 115.2882 115.0062 114.6074 114.2276 113.8812 113.5720 113.3195 113.1195 112.9936 112.9500 112.9836 113.0984 113.2800
102.1000 102.1991 121.2304 119.2997 123.8315 122.4508 122.4870 122.5440 122.3991 121.6441 121.7464 121.4706 121.7101 120.7600 120.4838 120.6913 119.8531 119.5538 119.2012 118.8811 118.5409 112.2993 118.1981 117.2500 117.2466 116.7481 115.0356 115.9795 115.4811 115.1706 114.8473 114.5458 114.2885 114.0717 113.9066 113.7964 113.7576 113.7928 113.8828 114.0000
107.3600 113.3634 126.1496 118.0621 118.0567 123.1780 122.9113 122.6258 122.4247 122.1071 121.8744 121.7543 122.3526 120.8946 120.6173 121.2393 120.0252 119.7740 119.4326 119.0817 119.4032 108.7326 118.0039 118.5310 112.1165 115.0279 116.2458 116.3726 115.9497 115.7177 115.4360 115.1716 114.9484 114.7654 114.6176 114.5338 114.4973 114.5228 114.5992 114.6600
107.3600 108.2459 109.7259 101.9814 117.0528 123.7140 123.0094 122.7760 122.4878 122.2355 121.9761 121.6879 121.4195 121.2088 120.8793 120.5389 120.2871 119.9798 119.6725 119.4169 118.9036 119.9739 120.9623 118.6427 105.5223 115.3101 117.8013 119.8286 116.5178 116.2505 115.9980 115.7704 115.5655 115.4074 115.2872 115.2089 115.1760 115.2052 115.2670 115.2700
113.4900 107.5886 118.0691 116.9046 122.6844 116.5250 123.6186 122.8739 122.6231 122.3823 122.1191 121.8864 121.3366 120.9085 120.9537 120.8000 120.5094 120.2059 119.9185 119.6033 119.4046 119.0860 120.2909 105.6132 111.0272 116.0141 107.3829 119.3550 116.6736 116.7602 116.5137 116.3007 116.1565 116.0049 115.9061 115.8352 115.8159 115.8321 115.8914 115.8500
117.5800 109.8077 122.1464 124.4170 124.4186 121.6435 123.2125 123.0146 122.7625 122.5187 122.3098 121.8389 121.7105 122.4316 121.2315 121.0277 120.6881 120.4374 120.1580 119.8759 119.5859 119.3785 110.4492 110.7626 105.4742 114.4032 100.2695 117.3951 117.3758 117.2333 117.1436 116.9681 116.6640 116.5856 116.4793 116.4233 116.4010 116.4210 116.4688 116.3800
121.7700 106.3400 125.3482 125.5015 103.7525 120.5848 123.4606 123.1493 122.8975 122.6565 122.3577 123.6712 107.0178 106.1738 123.9212 120.7224 120.9784 120.6642 120.4059 120.1372 119.9041 119.6002 119.6120 118.9803 116.4359 119.2682 118.1393 118.9716 117.8378 117.8682 115.4961 117.1476 117.2001 117.0824 117.0231 116.9741 116.9559 116.9732 117.0129 116.8900
102.6300 104.9460 124.5508 124.4220 122.8637 123.6177 123.4838 123.2772 123.0464 122.8121 122.6204 122.3495 121.4542 111.7157 118.6939 121.3726 121.1979 120.8941 120.6505 120.3998 120.1559 119.9069 119.6388 119.3872 119.4879 118.1650 118.6455 116.9510 118.9631 117.4698 118.1321 114.3465 117.9609 117.5854 117.5294 117.4903 117.4767 117.4884 117.5319 117.3700
118.9000 118.7459 125.0503 124.1805 123.7929 123.4394 123.6222 123.4050 123.1888 122.9685 122.7446 122.6354 121.8253 122.4572 122.2035 121.4754 121.4012 121.1324 120.8936 120.6654 120.4247 120.1912 119.9689 119.6442 120.0364 118.9638 119.8194 112.1955 118.6002 118.8442 112.6541 109.0863 119.3656 118.0080 118.0165 117.9818 117.9497 117.9631 118.0150 118.2500
116.8800 124.9054 124.4797 120.4210 124.0782 121.1402 124.0070 123.5318 123.2976 123.1404 122.8697 122.6794 122.4214 124.3396 120.5582 122.1684 121.5384 121.3480 121.1434 120.9163 120.6982 120.4825 120.2623 120.3281 124.1273 121.3742 112.8965 121.1351 118.8497 119.0183 118.6000 118.7564 118.4999 118.5467 118.4719 118.4373 118.5254 118.4920 118.4644 118.6600
124.3700 119.0584 127.0474 100.7777 127.0284 123.9723 123.8624 123.7205 123.4962 123.3118 123.0875 122.9142 122.0948 119.2302 111.3883 122.4442 122.0284 121.5208 121.4302 121.1670 120.9651 120.7680 120.5923 120.2303 119.2423 101.2353 101.6315 119.4743 119.5021 119.3023 119.2526 119.0609 119.0608 118.9656 118.9097 118.8993 118.3039 118.5268 118.9386 119.0500
120.0800 106.5451 128.0035 111.5392 124.1659 123.8807 124.0560 123.8222 123.9143 119.0078 123.7036 123.0170 123.0209 123.4031 122.9179 110.8957 118.9303 122.2526 121.4419 121.4511 121.2371 120.9860 120.8143 120.1623 122.5859 113.8600 113.2200 120.6374 119.9485 119.7555 119.6192 119.5591 119.4577 119.3791 119.3458 119.1228 122.5415 121.8679 119.0767 119.4200
124.4900 123.6402 124.1864 125.1339 124.3804 124.4241 124.1614 123.9541 124.4158 117.0287 123.2861 122.9599 122.7447 121.9788 121.5924 103.9349 114.6758 123.0448 121.8965 121.6184 121.5308 121.5380 121.3406 121.5426 120.4106 119.7504 120.7405 120.1051 119.8213 120.1092 120.0015 119.7874 119.7468 119.7630 119.6285 120.4600 110.1041 112.2329 120.4678 119.7800
125.3300 124.8837 124.1874 129.5371 125.0846 124.4760 124.2915 124.1662 123.7912 125.5795 125.3685 123.4300 124.1558 124.8089 116.9303 113.9932 127.2117 112.0580 122.2235 121.8853 122.0346 119.9162 113.0534 121.0763 120.7741 111.9785 111.2176 120.6290 120.5379 120.4525 120.2096 121.5657 120.1763 120.1472 120.0792 119.9881 116.9017 117.0592 120.0397 120.1200
125.5000 125.7317 127.7617 112.0526 125.4750 124.2638 124.5148 124.3362 123.9783 121.5780 110.7004 120.3756 122.1984 109.3033 119.8525 123.2519 123.5329 97.6430 121.5720 115.4069 122.0803 112.4087 114.7602 125.3225 122.7568 118.3036 122.6142 120.7896 120.9100 120.7908 120.6077 120.8382 120.5156 120.5104 120.4800 120.5281 120.7095 120.8833 120.4662 120.4500
125.5400 127.0238 105.2312 123.5417 124.6432 124.7620 124.5970 124.4434 124.1087 124.4914 118.4186 123.6571 123.7000 101.1463 126.2531 122.5737 116.4430 111.5232 113.7392 111.4555 121.0553 103.0226 107.4316 106.1972 101.9123 103.4274 111.4285 121.2374 121.2618 121.1197 121.0552 120.9420 120.8976 120.9021 120.1696 120.8403 120.8046 120.7803 120.8511 120.7700
125.7100 125.6475 122.1861 125.8709 124.9843 124.8532 124.7125 124.5937 124.4754 124.4214 124.1113 123.8795 123.4443 120.2056 123.8495 123.7661 120.4946 105.6958 99.3838 117.7177 113.8416 107.0376 103.7056 99.8725 102.3085 119.0210 121.7360 121.5222 121.5247 121.4342 121.2687 121.2704 121.2026 121.5521 118.7522 121.7065 121.1947 121.1092 121.1361 121.0800
125.7600 125.6319 125.4042 125.2240 125.5444 124.0092 124.8574 124.7336 124.4755 125.4635 119.5556 124.2928 123.8202 124.0266 123.7335 123.3170 123.5188 124.9326 122.8900 120.3384 111.6254 106.7217 101.2126 103.9271 115.4742 123.7150 121.6405 121.9080 121.8260 121.7077 122.1957 123.5828 118.2959 120.3249 117.1336 122.0614 121.5585 121.4432 121.4793 121.3800
125.9300 126.5194 125.3462 125.1537 126.4426 104.2499 123.6555 124.8026 124.3950 126.2486 122.6100 124.1173 124.1946 124.7810 123.7935 123.6958 123.6218 121.3203 111.9863 108.2972 124.0257 125.1968 102.6942 107.9258 124.3631 121.8911 122.3313 122.1898 122.0090 122.1271 117.5435 121.5671 119.3542 121.5654 116.4081 121.8863 121.8541 121.7553 121.7876 121.6700
103.9700 120.2438 126.0464 125.6456 126.0920 126.5526 126.5234 125.1059 125.0048 124.8051 120.6885 121.1246 124.4187 124.0444 124.0469 123.9388 123.6327 125.4372 124.5173 112.5563 124.0121 122.1259 125.4597 120.8786 123.4978 122.8019 122.5267 122.4728 122.3229 122.2701 117.6671 122.1829 122.0584 122.7084 122.4973 122.1103 122.0689 122.0697 122.0895 122.2100
126.1600 127.1691 124.3642 123.4418 124.9343 125.1270 122.9342 125.1397 125.1178 120.4078 128.4371 125.0567 124.7010 124.3878 124.1607 124.0870 122.4467 126.5591 121.3719 111.7992 124.1049 123.5521 123.0827 123.1354 122.9946 122.9334 122.8185 122.7372 122.6136 122.6133 119.3070 121.4114 122.2740 122.2849 122.3046 122.3548 122.3629 122.3686 122.3736 122.4700
126.1800 126.0700 122.0100 117.5200 125.7100 125.5900 121.7200 125.2200 125.1000 106.0900 106.8900 124.7400 124.5800 124.4800 124.3200 124.2200 118.7500 123.9400 123.7700 123.6400 123.5000 123.5300 123.4000 123.2500 123.2500 123.1000 122.9400 122.9800 122.8000 122.8400 107.6900 122.6600 122.6900 122.7000 122.4800 122.4900 122.5000 122.4900 122.4800 122.4700
