123.8400 123.8600 110.3700 123.8900 120.5600 123.9100 123.9100 119.8600 120.2100 115.5500 115.4700 108.6600 124.0300 124.0300 123.9900 124.1400 124.1200 124.2700 124.2400 124.4100 124.3800 124.5100 124.6400 124.7600 124.7600 124.8800 125.0400 125.1500 125.2500 125.4000 125.5000 125.5000 125.7300 125.8700 125.9500 126.0900 126.1700 126.3000 126.4300 126.4000
123.8400 123.7224 123.1377 123.3131 120.5425 123.0819 123.8563 123.0572 131.0944 105.9491 111.8059 116.5969 123.7233 123.6248 123.8840 123.9081 124.0861 124.0621 124.2057 124.2511 124.3276 124.4151 124.5086 124.6038 124.7030 124.8037 124.9050 125.0155 125.1260 125.2395 125.3528 125.4669 125.5852 125.6974 125.8203 125.9396 126.0639 126.1819 126.2950 126.3700
123.6200 123.5365 123.4481 123.4876 123.4642 123.3838 123.6026 116.5905 112.3561 100.7386 121.6985 108.1472 122.2701 123.8783 123.7041 123.7230 123.4341 122.0211 123.9805 124.0312 124.1122 124.2013 124.2961 124.3996 124.5004 124.6119 124.7196 124.8295 124.9432 125.0649 125.1794 125.2971 125.4232 125.5485 125.6657 125.7931 125.9209 126.0492 126.2557 126.3500
123.3900 123.2397 123.2330 123.1849 122.7031 122.6219 126.5233 118.5594 114.4021 106.8331 111.9178 110.1172 113.7126 124.2908 123.3225 123.4726 123.7441 123.6833 123.6932 123.8097 123.8889 123.9898 124.0831 124.1946 124.2982 124.4103 124.5229 124.6442 124.7630 124.8829 125.0083 125.1311 125.2558 125.3889 125.5142 125.6389 125.8117 125.6790 125.9788 126.1800
122.9100 123.0284 122.9433 122.9695 123.4501 123.1441 132.4270 118.2715 111.6300 114.1984 108.4130 114.5418 123.5292 122.7327 123.1100 123.2665 123.2754 123.3808 123.4894 123.5662 123.6654 123.7687 123.8762 123.9836 124.0951 124.2164 124.3322 124.4580 124.5807 124.7062 124.8375 124.9652 125.0945 125.2258 125.3605 125.4870 125.6298 125.9504 129.8727 125.9700
122.6600 122.7317 122.9387 123.1766 119.9859 120.0679 116.9330 122.7447 116.8861 113.0701 118.0986 98.6408 125.1312 117.7799 122.8520 122.9293 123.0460 123.1508 123.2299 123.3292 123.4364 123.5411 123.6551 123.7678 123.8756 124.0060 124.1330 124.2627 124.3972 124.5256 124.6572 124.7890 124.9271 125.0652 125.2061 125.3325 125.5623 125.3446 126.5548 125.8000
122.4000 122.2690 120.0355 116.7483 114.8522 114.7793 117.6027 116.1675 113.9785 117.2399 110.0901 118.6435 123.0461 120.6500 122.4884 122.7851 122.4379 122.9405 123.0232 123.1145 123.2004 123.3103 123.4349 123.5443 123.6833 123.8056 123.9300 124.0698 124.2053 124.3441 124.4792 124.6251 124.7626 124.9045 125.0458 125.1916 125.3489 125.4718 125.6271 125.7400
122.1300 122.4160 113.6712 108.4899 114.7882 117.7653 115.0488 113.6194 113.1815 129.1565 125.0207 119.9475 122.1386 122.2136 122.6126 110.0491 123.5749 122.7826 122.5098 122.7073 122.9587 123.0134 123.2695 123.6964 123.4605 123.5305 123.7249 123.8817 123.9896 124.1661 124.3098 124.4588 124.5920 124.7492 124.8850 125.0452 125.2211 125.4663 125.3317 125.5700
121.8600 113.6711 101.2331 107.8861 126.0183 108.0675 112.7225 111.0767 118.0315 120.5335 121.4830 121.9940 121.9946 121.9039 122.8268 121.6630 121.5712 122.4076 123.2316 125.0039 122.7136 122.7725 122.4828 119.8337 120.2056 124.2011 123.5471 123.6844 123.9551 123.9451 124.1513 124.1285 124.3560 124.5552 124.7662 124.9358 125.0389 122.7924 123.4301 131.9800
114.2400 113.6151 101.5593 102.6608 121.0023 118.5725 114.7739 108.7698 118.4912 122.2724 121.6498 121.3740 121.4333 123.5210 110.3499 119.0002 121.9574 124.8855 117.6757 121.7715 121.7673 123.0728 124.1068 103.9648 113.9832 117.4757 122.9682 124.0031 121.8996 123.9388 123.9516 124.9967 124.5250 124.3587 124.6092 124.2748 122.2975 124.2670 113.9365 116.1300
121.2800 114.7185 101.9566 100.1239 117.9606 107.2831 105.9907 111.1017 110.8525 121.6925 120.6768 131.2733 114.2859 109.1895 106.3260 116.3928 123.4006 121.2662 123.5975 122.1946 121.7351 107.2969 121.7683 111.9368 118.1409 119.3114 125.8395 123.6832 120.0164 123.6010 123.5041 123.6954 118.4987 124.3244 124.8232 125.3266 113.8827 114.5078 107.6932 122.5000
120.9800 111.9354 105.0196 98.2352 116.8856 111.6898 112.9425 126.2955 121.8885 121.3768 120.2724 127.2630 129.8650 122.2354 110.0240 114.5335 111.8894 126.0358 122.0776 118.9320 127.0655 121.0475 124.2010 101.8346 123.1083 122.6399 122.3315 122.4804 122.1916 124.1723 124.1542 123.8628 125.2489 124.1035 118.1200 118.5457 121.6754 129.9017 121.0707 122.5000
120.6600 112.2341 98.5638 105.2347 111.6162 120.2093 113.8871 116.8027 119.9391 120.5452 120.4146 119.1778 121.8568 121.6078 119.0019 124.6536 117.3107 123.2791 121.6401 120.4276 125.0631 115.0554 112.2970 97.3699 120.9640 122.5625 122.8624 122.9512 123.7501 120.4197 119.6972 123.8811 123.6499 124.2049 122.0532 122.4941 126.5559 124.0455 122.4026 124.8800
120.3400 121.6967 115.2802 101.3413 117.4514 114.8712 111.1262 119.5932 119.7917 120.1696 120.3147 120.5595 120.1358 120.3139 120.7738 113.3443 121.8699 120.6168 121.0275 121.2340 120.8929 107.1128 120.0707 120.7858 122.5645 122.1856 122.4713 122.7197 122.8686 116.1425 107.1884 123.6603 123.6133 123.7731 124.1804 125.0121 116.3109 121.9609 115.9513 114.6600
112.2500 116.6871 108.8758 105.2184 109.8895 117.8152 120.3702 119.6295 119.7681 119.7464 119.7688 119.7924 119.9890 120.1271 120.3253 120.3709 120.1100 120.7312 120.7829 120.8029 121.8143 113.5605 108.2351 117.1821 122.2935 122.0046 122.2047 122.5259 120.2384 128.1893 122.5424 121.1919 122.5174 123.6516 123.7589 119.4183 120.4967 124.5465 123.4205 124.6400
116.5200 121.8857 105.8686 112.9684 120.8590 123.2802 118.3702 119.3893 118.9525 119.2659 119.4211 119.5155 119.6054 119.7669 119.8173 119.9305 120.1738 120.3147 120.4885 120.6580 120.8699 120.7445 129.4460 122.5780 121.7084 121.6493 122.0192 122.3039 122.2774 122.9316 122.9024 122.8389 123.1136 123.2738 123.6399 123.6945 124.1961 124.0838 124.3558 124.5800
111.8300 114.4343 109.8146 113.3453 118.6406 121.8466 118.9167 118.5719 121.6070 118.8585 119.0053 119.1713 119.2103 119.2595 119.5596 119.5934 119.8598 119.9836 120.1613 120.3477 120.5975 120.4398 121.1625 120.8170 120.7412 118.6449 122.1367 121.9170 122.2056 122.7246 122.5655 123.5110 121.0082 123.4311 123.5253 123.6603 123.8917 124.1093 123.5493 124.3900
111.6200 121.4757 99.0050 114.4669 119.0296 117.9406 118.3444 118.1848 119.1795 118.2795 118.2376 117.9009 118.9216 119.3500 118.7267 119.1218 119.0833 119.7114 119.8412 120.0828 120.2068 121.0879 121.8692 120.9970 121.4435 121.2908 121.5733 121.6591 118.3072 124.7463 121.7264 123.6218 111.7941 124.3314 123.2691 123.8908 124.0633 125.6337 111.1523 124.3400
116.2600 116.0774 105.5588 112.4817 117.8493 118.0558 117.8687 119.4041 119.2193 118.4748 118.1524 117.9729 117.6533 111.7299 119.5881 115.5364 121.1744 119.1395 119.5513 119.7282 119.7964 120.1293 113.7467 114.5340 120.0512 121.3766 121.6570 121.7851 120.2661 122.0449 122.4554 124.4314 124.1407 123.1923 123.0471 125.5586 120.2262 122.3236 115.5789 134.3800
126.3800 107.6774 116.5820 112.4200 118.6157 117.3860 119.1846 97.5134 119.0614 110.0811 117.5023 117.8662 120.2913 112.4159 117.9388 118.4071 117.0307 119.6987 118.9823 119.4036 119.7394 120.6717 114.9998 109.8532 113.9845 124.7500 116.9880 121.7547 121.6661 122.0325 121.5435 121.6062 112.9259 124.0208 123.5997 116.8764 113.5912 117.5154 120.9937 134.8300
108.9600 110.0467 113.6453 114.4839 111.4271 116.4231 116.6082 117.8832 97.0806 109.4922 118.0861 116.9708 117.2853 118.8964 117.8295 117.9716 118.3056 120.6639 119.7377 118.8359 119.1833 116.1184 117.1483 118.0336 116.0657 120.5284 115.8652 121.2434 121.3799 122.5678 122.5513 122.5834 123.1446 119.7460 118.1884 114.3971 120.1061 114.9156 121.7586 124.0600
118.3900 105.2755 112.2443 107.4539 103.6166 106.8616 108.4782 116.9550 115.1554 120.5840 115.4509 117.0687 117.0508 117.3062 117.6079 117.6242 117.9327 118.8499 118.9754 118.5589 119.5441 104.6909 108.9529 105.7842 110.8342 117.3056 121.1555 121.0562 121.8845 112.6940 112.7215 122.7243 123.9704 108.6485 113.2387 119.3848 116.0940 115.5679 122.6805 123.8100
105.6100 114.1057 117.2293 114.3288 116.3037 116.8466 117.1296 115.5790 115.6973 115.5134 116.2162 116.2603 116.4578 116.7219 116.9794 117.3704 117.1047 117.4785 106.7644 119.8009 118.7218 112.5833 109.8356 106.0895 108.7521 115.0471 120.7166 120.7846 121.7963 113.7736 104.7911 122.3692 117.9724 108.2811 120.4954 119.1082 112.0885 122.1777 122.8368 123.7700
112.3900 117.2837 119.7734 115.1726 114.9793 114.8387 114.8871 115.8841 115.1798 115.4248 115.5392 115.6634 115.9803 117.0243 106.7951 108.9264 119.0167 118.6810 107.3994 112.5754 117.1452 117.8925 118.2117 119.8407 120.5118 118.6990 120.3357 120.6331 120.9024 120.3859 129.0527 113.9649 114.0360 110.3565 105.5923 124.0914 119.4067 118.9603 119.8759 132.2300
122.9400 119.9049 112.3529 114.6086 114.6759 114.5624 114.4300 114.4004 114.5816 114.7333 114.8080 115.6487 115.2851 116.2874 113.8584 112.9042 115.6075 117.2411 118.1688 118.9206 115.8200 109.6109 109.7667 105.8431 119.8574 119.6974 120.0943 120.4981 120.5487 121.4546 117.3180 128.6184 116.0261 112.7108 118.3915 118.7913 114.0778 122.4514 116.4599 123.5300
116.2900 114.7372 114.0971 114.0943 115.6231 113.6360 113.7013 113.7631 113.8757 113.8708 114.3835 114.3911 108.0012 115.1545 115.2705 115.8495 116.2509 112.1131 117.9060 111.8962 112.3048 117.9872 119.0949 118.4137 119.8479 119.5381 119.7909 120.6107 120.4599 120.8107 120.8325 120.9117 112.8380 116.1443 115.9371 115.8389 122.7935 123.1445 123.2214 123.5000
114.2200 113.9057 113.4656 113.2159 112.8287 112.8806 112.8834 112.9398 113.0830 113.2705 111.6263 115.2100 114.1070 115.1293 114.9927 115.4018 115.8204 116.3923 116.0665 107.1161 103.2573 107.8092 109.7519 101.3267 119.9259 119.1458 120.8086 116.6490 114.5767 120.9707 116.0547 111.8449 108.1358 116.5938 116.5671 123.2801 122.6583 122.8804 123.2275 123.2900
100.2300 112.7979 112.6210 112.3668 112.1839 112.0280 111.9868 112.0561 112.2217 112.4366 112.9834 113.0041 113.5150 113.9630 114.4622 114.9170 115.3126 115.8460 115.9487 114.9168 113.1497 119.0899 109.4587 107.5932 117.4694 119.8523 128.2089 121.1856 121.2203 121.2099 108.5194 110.0980 121.8948 122.6069 122.7860 122.1960 122.6101 122.9291 122.8592 123.2600
112.6900 112.4315 111.7004 111.4577 111.1812 111.0287 110.9881 111.0702 111.2657 111.5692 111.9052 112.4247 112.8924 113.3807 113.9018 114.4099 114.9446 115.5740 114.0407 116.6346 117.2949 120.3088 109.3413 118.0043 119.2774 118.2848 118.3378 119.3652 120.0511 122.5047 123.3940 122.6027 120.8610 119.8908 119.5877 122.4818 122.4542 122.0523 124.3394 123.2300
111.7900 111.2723 110.9149 110.4499 110.1117 109.9081 109.8485 109.9590 110.2137 110.5902 111.0688 111.5987 112.1556 112.7520 113.3438 113.8344 114.4387 115.0040 115.8823 116.3490 116.7732 116.1089 119.5640 118.5035 118.0248 119.2223 119.4606 119.7857 121.5745 112.7979 112.2803 116.6979 110.8640 115.0901 118.3825 122.1440 122.8226 112.6150 117.1841 123.2000
110.7100 110.5352 109.8838 109.3322 108.8930 108.6198 108.5485 108.6947 109.0309 109.5183 110.1005 110.7504 111.4258 112.1324 112.9060 113.6375 114.2340 114.9562 115.3703 115.6545 116.0945 117.1202 119.2406 119.7313 114.9999 119.1031 119.2017 120.0398 117.8891 111.3967 110.1951 112.9561 104.7491 122.1556 122.3158 121.8903 121.8701 122.6350 116.7798 110.7100
110.7100 109.5861 108.8008 108.0754 107.4925 107.1127 107.0139 107.2198 107.6749 108.3209 109.0771 109.8761 110.6721 111.4610 111.6214 112.0783 112.4606 113.3613 114.8556 116.3874 116.9219 119.6042 116.1356 125.5534 108.2191 112.1621 120.2133 113.9655 124.4708 120.2976 118.3823 115.4324 118.3539 121.5000 121.6799 122.0564 123.1923 137.8675 129.9386 110.7100
109.3900 108.6169 107.6238 106.6686 105.8498 105.3035 105.1555 105.4613 106.1200 106.9950 107.9722 108.9629 109.9489 110.7766 113.9487 119.0786 120.1689 117.6053 112.1346 115.5297 105.1617 106.1993 108.9274 114.5666 109.0798 109.1560 111.7387 115.2247 116.7782 115.0377 115.0895 111.6198 121.5461 121.1880 121.6320 121.9591 122.2493 126.9298 129.6481 114.8600
108.2200 107.6379 106.3794 105.0884 103.8991 103.0189 102.7744 103.2697 104.3043 105.5437 106.8284 108.0651 109.2084 110.2477 111.6385 113.0058 110.7324 120.1255 100.4313 108.9819 101.7933 107.4436 112.6186 99.9756 109.2224 109.3425 115.6698 111.0906 120.2622 119.3287 116.0053 120.2770 121.3308 121.5315 121.5535 121.9292 122.1358 122.5773 122.3757 122.9200
107.9400 106.6980 105.1127 103.3565 101.5027 100.0694 99.5546 100.4810 102.1298 103.9954 105.6895 107.2084 108.5542 109.7587 110.8177 111.7112 112.2677 114.1819 114.7257 107.4097 100.4256 104.7588 105.0998 105.0026 108.4263 110.7781 119.3668 119.1704 119.4190 119.7289 120.5581 120.3636 116.4481 120.4208 121.3892 121.8929 122.0905 122.7219 122.9326 122.9000
106.6200 105.8748 103.9390 101.5513 98.8033 95.1786 93.9350 96.4753 99.7544 102.4566 104.6571 106.4870 108.0247 109.3453 110.5106 111.4836 112.4229 113.1182 117.3151 115.7710 96.6456 106.8529 104.4124 118.5942 117.7436 118.3491 118.4990 118.9977 118.6771 119.8477 119.3882 127.4866 110.4244 121.7287 121.6381 122.0868 124.4429 118.8688 122.6281 110.2700
106.4300 105.3020 103.0444 100.0077 95.5409 89.1459 87.5302 90.9178 97.4658 101.1939 103.8995 105.9851 107.6611 109.0898 110.3053 111.3831 112.3602 113.2884 112.4808 115.3450 101.6731 117.9674 116.7774 116.8071 117.5366 118.0373 117.9881 118.6087 113.9511 119.5313 123.0642 111.5430 111.8001 122.0472 121.5770 122.1498 123.7763 113.3357 123.9376 122.8900
106.3300 105.0798 102.6849 99.3406 93.6230 86.4965 84.3771 88.0673 96.3437 100.6394 103.5930 105.7858 107.5232 108.9834 110.2240 111.2956 112.2900 114.0826 102.5637 110.0815 96.1102 116.7194 116.2339 117.1525 117.6050 118.0455 120.2197 119.6229 120.5940 117.4033 123.7389 120.4435 107.4144 121.8020 121.5222 122.2005 123.4285 118.0523 123.0343 122.8800
106.3400 105.2626 102.9750 99.8629 95.3246 89.1551 87.2689 90.2113 97.2331 101.0670 103.8375 105.9405 107.6384 109.0606 110.2868 111.3591 112.3794 112.3475 108.1770 114.6395 103.0112 116.9590 116.3005 117.0929 117.5913 118.1104 118.8219 118.2654 119.1022 112.5920 123.3046 115.7629 108.1297 117.3561 121.4218 121.9597 122.4113 124.9796 123.3100 122.8800
106.4400 105.1400 103.6200 99.4500 96.2900 91.1800 91.8700 91.4400 99.4400 101.7700 103.6100 106.4400 107.5700 109.4800 110.3000 111.7300 112.3700 112.9700 115.9700 114.5400 115.4600 115.8800 116.6700 117.0400 117.7300 118.0600 117.7100 118.9700 119.5300 103.8700 118.8500 107.3600 112.9000 121.2500 121.4800 121.9000 122.1000 122.5000 122.6900 122.8800
