110.2300 109.5200 108.8700 107.8000 106.9400 106.9400 105.8200 105.8200 105.7200 106.9500 107.8200 108.8700 109.5300 110.2900 111.0300 111.7300 112.8500 123.1000 93.5600 120.9700 95.4900 98.6900 97.4300 101.0200 108.5400 102.2000 115.9800 108.7800 97.9100 108.3900 109.0400 103.5800 104.5900 110.9500 110.7800 111.8100 112.6200 107.1600 108.3200 109.1000
110.2300 109.3913 110.7054 107.4006 106.3428 105.4476 104.8408 104.6896 105.0547 105.7735 106.7285 107.7608 108.8036 109.7891 110.7951 111.4508 111.7038 119.6088 97.5357 108.4644 94.9201 103.3946 98.3858 101.4625 105.2150 111.3746 112.9348 103.5287 96.9716 102.4442 103.7275 103.1525 105.5594 107.2061 107.2734 108.5876 109.6789 109.5054 104.7339 109.1000
110.0400 108.5858 107.2809 106.0656 104.6972 103.3976 102.4322 102.1875 102.7709 103.9136 105.2554 106.6192 107.9094 109.1162 110.3071 111.9221 114.2809 101.4774 93.3514 96.3190 97.0124 99.4172 102.0750 95.7530 100.2471 117.4537 105.8853 98.0978 97.1044 98.5064 101.8026 102.3482 103.4404 103.6794 104.1818 104.6327 106.9312 103.4739 102.3776 114.8100
108.7800 107.9549 106.5193 104.8172 102.9116 100.8801 99.2098 98.6652 99.8634 101.6992 103.7216 105.5165 107.0414 108.4025 109.0260 112.3255 112.0803 105.8110 101.8016 111.1324 99.4903 99.2045 100.0867 101.9366 110.2741 107.0157 99.3832 99.1861 97.3827 98.1632 101.6876 108.1731 107.1624 110.5019 108.5265 109.4488 108.1059 113.8803 99.7921 100.7200
108.6300 107.3601 105.6769 103.6486 101.0931 98.0536 93.6566 92.4866 95.4587 99.3678 102.2351 104.5160 106.7488 108.1011 112.4280 96.4773 117.6710 114.8720 105.0659 118.3107 97.7843 95.5642 97.4175 100.5282 103.5632 103.1670 96.2589 103.3026 107.0229 100.9137 100.7084 106.5994 111.4634 112.1260 113.5704 114.0126 115.4228 100.2756 100.5468 100.7100
107.5200 107.0032 105.1641 102.8538 99.6765 94.6680 88.0258 86.5120 90.1534 97.3113 101.1326 104.0036 102.5595 108.0372 90.4871 89.0067 93.3543 96.0537 97.2039 98.6860 98.7042 99.5217 100.6172 101.1798 103.5464 112.5480 97.5384 96.9452 98.1396 102.8938 109.3412 110.6318 111.3807 110.3031 108.1941 115.6597 105.0325 100.4726 100.2364 100.7000
107.4900 106.9048 105.0186 102.6087 99.2258 93.3481 85.8836 84.0606 88.2206 96.4797 100.8123 103.9241 101.2273 107.6841 88.5757 88.2395 91.6155 94.5604 96.4055 96.8274 99.4996 99.9428 101.8792 101.4364 104.0496 112.9295 96.5907 96.7145 96.8969 103.7792 110.5901 110.7191 111.3078 109.3746 107.6635 110.7163 99.0168 100.1704 99.6864 110.8900
108.5500 107.0826 105.2771 103.0223 100.0134 95.6367 89.5261 87.6932 91.4408 97.7616 101.3515 103.9729 106.3957 106.9749 97.4803 89.3029 89.7886 90.3663 92.9320 96.2355 98.2159 98.7352 98.4664 99.8654 100.1522 104.3657 96.0498 97.1159 97.6488 100.8436 101.5035 111.7883 111.4008 111.8261 114.0887 114.1205 115.5052 116.3800 106.3683 100.7000
108.6500 107.5044 105.8784 103.9380 101.6049 98.8064 95.5057 94.3548 96.9293 99.9835 102.6254 104.7916 106.5370 108.2171 92.7565 101.1794 92.6678 93.6308 95.4287 97.5407 99.2153 98.1206 101.7912 100.9241 95.5261 108.2122 95.0932 96.8869 106.7725 107.9133 109.0053 109.4664 109.7008 108.0883 115.9655 109.6941 112.8934 101.6398 117.2028 105.3400
108.8100 108.1056 106.7172 105.1437 103.4076 101.6451 100.1805 99.7583 100.6814 102.3441 104.1357 105.7805 107.0809 108.4173 116.4842 96.7006 93.6471 93.1324 96.9864 96.0755 98.9850 100.9603 98.5269 94.7579 108.9542 94.7153 94.8740 96.6471 100.4479 104.4249 107.2516 107.3809 108.5582 107.0530 111.9737 106.3798 107.4193 115.3138 115.3953 104.7300
110.0600 108.8343 107.6625 106.4160 105.1622 103.9713 103.1393 102.9174 103.4218 104.4570 105.6580 106.6243 109.9583 110.6599 117.9985 115.2502 100.6338 97.3492 96.3387 97.0131 97.9122 103.4315 106.5434 98.2232 95.7270 98.9846 98.8326 99.7752 103.6182 105.2390 107.3522 104.1012 104.5462 107.8657 110.3670 110.4112 107.7096 108.6068 112.1769 110.0000
110.1300 109.6232 108.6461 107.6732 106.7464 105.9243 105.3951 105.3067 105.6002 106.2679 107.2237 106.9356 106.9421 101.7356 112.0369 98.6528 97.2817 96.8315 99.8864 98.4857 99.9053 104.2741 114.5301 98.1450 95.6424 95.5904 103.2730 105.0829 104.0774 110.2683 106.3638 105.6574 106.5604 106.6956 107.7750 108.9175 108.7302 109.3770 109.3533 114.9400
111.2700 110.4177 109.6821 108.8236 108.1488 107.5534 107.1857 107.1351 107.5276 104.7836 108.5587 111.7604 109.6639 97.9051 97.4189 102.7793 100.6573 101.0192 100.9594 101.6519 105.4977 112.4666 113.3971 95.2925 95.0415 99.0731 108.3790 106.8768 111.1742 110.6568 116.3228 108.7916 112.2015 112.9049 109.2837 108.2651 110.9907 111.5247 111.3045 106.0000
111.2700 111.2152 110.4592 108.6999 109.4583 108.9570 108.6697 108.6856 109.2064 93.8505 107.6209 106.6753 101.9924 99.8217 95.0338 97.6226 100.9055 98.8314 102.0012 103.2405 106.4218 104.1121 104.5112 94.3381 102.3125 108.6271 109.8307 107.3931 113.2497 98.1960 101.8275 108.6976 117.0771 117.8025 116.9168 116.0659 117.2732 110.6630 106.8969 110.7400
112.2500 112.0225 111.7151 110.7684 110.5667 110.1645 109.9490 109.9899 110.3630 106.9163 90.3376 88.8952 91.6325 95.1954 99.9736 101.1987 99.3226 100.8449 102.1780 103.3847 104.9273 101.8809 96.9719 106.2660 105.5084 106.0876 102.5339 110.2088 104.4202 112.3597 102.3962 109.5370 116.2357 117.6490 118.8546 120.0846 103.5151 108.7592 99.9801 100.9800
113.1300 112.7228 112.2687 111.8486 111.5042 111.2335 111.0757 110.9204 111.1919 113.9639 85.2997 97.9408 109.2256 94.3748 97.4977 100.2481 100.9475 102.4561 103.9591 105.5185 107.4980 107.3400 113.7614 98.1678 110.9510 108.2865 107.3948 108.6327 110.9501 113.4446 114.1567 115.7608 115.0444 117.3598 109.0864 111.0754 119.5290 99.0843 100.6565 101.0100
113.8300 113.4062 113.0567 112.6999 112.4050 112.2133 112.0750 112.5753 111.7451 110.3103 87.1443 103.9614 101.1634 93.3968 100.7359 102.8303 102.0435 100.6323 102.8998 106.0155 107.0470 107.5888 108.9004 94.7580 103.9260 110.3614 110.8714 110.4384 115.4156 117.7924 115.1105 114.7908 116.2596 116.3704 116.4681 100.8764 100.7328 100.4135 101.2221 105.8300
114.6200 114.2151 113.7428 113.4726 113.3169 112.8173 111.8218 103.4549 112.2099 134.0748 110.3615 96.2035 98.9752 99.9989 101.6759 101.2758 103.8260 104.0474 103.2129 104.4043 106.5121 107.8123 110.7826 98.1409 97.6462 102.4623 109.0149 112.0883 112.4137 112.0047 115.4926 116.6871 117.4814 107.7996 98.5825 100.6140 105.6519 100.6832 100.6118 101.0700
108.2000 114.8753 114.4079 114.2109 114.0903 113.6403 105.6304 90.9816 95.8432 94.3937 94.5817 97.9808 97.5977 100.7678 104.0453 106.4261 103.0678 104.8721 103.8146 104.9166 106.0605 109.0547 108.6443 94.1928 107.9439 112.2377 110.3520 110.9643 112.9452 114.0809 114.9667 114.6113 103.6230 100.3087 100.1104 100.2455 100.2899 101.1171 101.6903 101.2700
108.2000 115.2273 115.0841 114.8577 114.8785 114.2852 107.8340 89.5545 93.8542 91.9622 98.3887 102.3104 97.9742 97.6048 99.1608 102.7129 104.7116 106.8983 106.5501 105.9888 107.6942 103.7622 98.8014 96.1986 111.9303 113.9151 113.1732 113.1918 113.1513 112.5779 113.5267 115.3103 105.6629 102.3920 107.3865 99.5557 100.1447 101.2091 102.9275 103.7900
116.4000 115.9898 115.6352 115.5891 115.2999 115.1293 110.5766 109.8509 94.4779 93.0139 96.6500 97.4818 104.8234 112.7039 109.1919 104.7906 106.8817 107.7596 107.0177 107.5293 107.3530 96.0379 95.0872 104.9698 110.1515 98.8684 113.5439 113.8013 114.3227 115.4168 110.5472 111.9706 93.8320 102.2590 110.8730 103.8667 109.4166 100.4145 101.3382 102.7700
116.4400 116.4314 116.3417 115.6666 116.7678 115.7480 115.6624 112.9670 96.2354 107.2206 99.4839 97.6404 105.9698 100.4372 99.8565 106.6591 104.0650 105.7325 104.1515 107.3979 108.1000 95.1272 98.6059 113.2047 113.2237 115.0418 114.2880 114.3143 114.7564 115.7004 101.1456 107.6127 108.0740 99.5276 97.0795 100.7056 107.6554 100.7770 101.1127 103.1600
116.9600 117.0224 116.4096 117.9814 101.8622 115.4304 110.9386 96.0991 102.5579 95.2862 93.8031 97.8073 106.9303 101.1506 107.5733 110.4299 105.0021 105.3690 106.6381 110.6117 109.2050 105.6449 97.4280 100.0269 112.7715 113.2856 113.3281 114.7507 115.1461 116.8553 104.4091 113.2548 95.6247 98.5928 108.6754 109.1538 99.0253 101.4334 102.6464 104.6900
117.4500 117.2641 116.9729 116.2450 113.2636 117.7382 111.0156 96.4138 113.1566 96.7200 98.7451 99.6380 111.6777 104.6835 105.5719 112.5358 108.0231 104.9700 98.6769 110.5669 109.7945 109.9163 107.5572 108.5228 114.3100 113.6865 113.7419 114.1937 116.1608 108.9672 105.7794 122.1939 117.5420 100.1044 111.6496 102.8190 101.5764 102.2234 102.8810 103.3300
117.9200 118.7296 117.5911 117.8940 117.7116 117.2464 117.4664 118.4490 99.0410 101.1943 102.7885 103.4533 111.2472 105.5804 107.6924 109.1231 112.1913 108.6154 105.1782 109.4487 110.6464 110.9081 111.1571 111.7382 113.0512 113.8325 114.3019 114.6257 115.5605 117.4245 103.4434 100.4990 106.6993 106.7395 103.3537 102.4003 103.5166 103.9314 103.0916 103.6100
96.3500 118.9307 118.2599 118.1116 118.1275 117.8927 113.6701 106.9406 101.9471 103.6393 103.4371 104.1321 101.5027 105.5978 105.4644 111.0757 106.6696 100.1015 108.6160 109.8855 110.6892 112.9334 111.9410 112.0490 112.5831 113.8939 114.5796 115.4829 115.6818 116.5089 97.9201 106.2820 102.7993 100.8457 100.5399 102.9487 104.1084 104.2315 104.7301 104.3000
118.7700 118.7508 118.7284 118.5806 118.5358 118.4451 116.3186 113.8432 105.7615 105.0660 104.2952 105.8057 105.8454 108.2998 108.5395 109.3212 114.2549 114.5928 111.5309 115.1947 111.2805 113.3581 114.2324 111.6601 112.9175 114.2436 114.4121 112.8059 116.3758 117.1921 120.1624 101.0711 100.3899 98.9509 101.2054 101.3478 102.3140 107.4047 105.2482 105.0800
119.1700 119.1394 118.9132 119.0035 118.9432 118.8202 119.1940 120.3231 116.5488 104.0430 110.2634 111.0928 108.1991 109.1169 111.9866 108.7003 114.1115 115.9472 115.2821 105.8716 101.6967 114.1070 114.2788 113.8447 113.9640 114.7412 106.5775 102.6954 117.3427 116.7554 104.6515 105.1589 100.1827 121.3109 100.6340 101.9177 100.5472 118.2644 103.4707 105.7100
119.5500 119.7853 120.3802 119.3896 119.3905 119.0873 118.1744 107.5722 125.7660 109.4407 121.7457 106.2556 111.4721 108.3869 100.8127 110.7707 111.0169 115.4618 121.2062 97.2559 114.8194 111.2987 113.3840 115.8634 115.3892 115.0447 110.4311 112.7028 117.4921 119.2171 119.2256 104.0095 99.3359 112.1793 101.1930 102.0991 102.3891 106.0626 101.4708 106.4300
119.9000 103.2868 121.7779 119.7633 119.8482 119.3990 112.5174 94.1737 117.3212 111.0176 109.8063 110.9247 115.0060 111.2965 107.7479 112.6978 111.9227 113.9995 103.2176 119.3534 114.1869 115.7588 117.7236 115.6523 116.5019 115.6679 116.6666 119.0494 116.1635 102.4188 118.6009 112.9727 103.1596 100.2406 101.2072 103.2392 103.4138 111.0997 103.2676 103.3600
102.8000 106.7886 120.7381 120.2712 120.0518 120.3898 110.5110 110.8475 103.9929 110.7250 113.8941 109.1912 112.3807 110.7803 113.5440 113.2197 112.8996 106.5201 107.7975 119.5666 116.6636 100.9165 113.6490 110.6152 117.3609 117.8143 116.9583 115.7662 100.2181 107.0391 102.0971 99.2299 104.5368 102.1494 101.6415 101.2472 102.2993 104.5542 105.2100 105.3700
104.7500 120.2476 121.1866 120.1450 120.1031 120.8728 114.2569 117.4228 95.7099 108.8431 112.0601 112.3082 112.0240 115.0833 113.6969 111.9848 113.8231 115.5988 106.6980 105.6589 120.2068 108.2152 103.3111 108.6679 116.7086 117.9058 110.6154 115.6390 102.6276 100.5016 101.5496 102.2083 98.4806 112.6480 116.8372 113.8253 102.1722 103.6430 106.0223 105.9000
120.9100 108.1899 122.7466 122.9696 122.9221 121.3450 110.6105 99.1932 102.1325 113.3813 107.9644 103.8887 115.0163 114.8335 112.2278 113.0942 114.3973 116.0281 100.7449 101.7454 110.1981 117.3740 101.4034 102.7758 100.1139 120.2376 110.3718 104.5801 100.5192 100.4608 101.8241 101.6374 103.7203 124.4334 121.8997 123.7958 121.3037 99.8350 103.4982 106.6300
104.8100 122.1949 113.1913 107.8206 119.0168 123.7715 96.0974 99.7250 102.6205 115.9899 103.9406 100.0582 100.3509 109.6855 113.4084 106.8919 102.7909 113.3987 103.5187 100.2158 109.5739 109.7404 100.5428 101.2278 101.7662 109.7131 102.1714 103.9527 100.7555 108.8975 106.8722 100.4252 122.4966 110.4460 126.1298 117.1776 107.2814 114.7886 102.6227 103.3300
121.8000 122.7277 120.1041 112.6551 112.1942 119.4373 97.9324 99.9941 103.0292 116.1651 112.9658 101.7968 101.5214 119.9415 112.5627 104.2907 104.3043 116.3220 113.4533 99.5560 101.8869 106.9492 102.4615 100.6996 101.0086 102.3708 103.4515 100.1926 101.3483 105.2508 112.0744 100.8454 102.8653 101.7751 103.4144 102.3144 102.3981 103.6993 102.6148 104.6900
122.0800 115.3564 121.7151 123.4977 106.2214 115.8738 97.2524 100.1873 103.5824 116.4097 112.0254 109.2684 117.1142 116.7095 106.3693 116.3603 110.4114 119.1266 122.0679 103.9732 100.6307 100.6622 100.7551 100.8674 101.5740 108.4879 109.4220 120.2312 122.6818 102.9500 102.3273 106.2876 101.9399 102.2258 111.7313 129.7105 103.7259 103.3175 103.0136 103.3100
100.3500 108.3323 111.2391 110.6429 100.3998 111.2497 99.5672 100.7458 104.7262 118.0160 112.9002 110.8613 114.9247 112.3949 107.7810 110.4953 111.0487 116.1219 102.7830 103.0968 103.1136 101.7219 101.5171 100.8574 106.6465 121.0171 120.8494 123.2127 121.9291 124.3630 109.2887 116.4362 103.1103 103.6887 106.8302 127.3263 121.3878 107.4409 102.7304 126.3300
100.6100 107.6407 106.6287 112.0930 125.3705 124.2406 99.7691 104.6722 104.2121 113.7973 111.8166 110.7727 109.8679 110.4218 114.3985 106.0116 109.7805 111.0592 119.5066 110.0980 107.8020 101.5012 103.2075 101.1563 116.2228 122.4205 112.4716 118.7436 123.0118 126.5113 107.3299 114.3287 110.0411 119.0628 120.8901 122.6052 123.7058 106.6913 114.6887 126.3300
109.4300 103.9297 108.0497 110.3761 123.7833 112.4574 101.9501 107.6473 107.2064 111.6683 111.0210 111.3465 108.2603 112.0483 114.3709 107.5832 108.3092 106.5716 109.1709 101.2781 98.6566 103.5097 103.1990 103.2114 106.7158 116.5035 105.7249 123.9570 122.6754 120.6826 103.4209 100.9425 99.9742 119.3784 124.3675 121.6723 126.4272 130.5138 128.1915 126.9700
109.4300 108.0800 108.3700 109.8400 118.7700 110.2200 102.7700 107.4600 107.4600 111.3500 102.8800 101.6000 100.9100 112.1100 112.7100 110.0000 101.2200 110.3200 110.5900 101.4900 120.4300 120.5700 102.7200 101.8900 101.8900 116.0000 122.5400 123.1000 123.7100 124.2400 102.6500 102.8100 102.9400 122.1500 121.3700 122.7800 123.0600 126.4200 126.9800 126.9800
