120.0000 120.0000 119.7500 119.7700 117.5900 119.8100 119.4600 119.8000 119.8000 119.7500 119.7200 120.0000 119.9600 120.2100 120.1500 120.3700 120.3700 120.5800 120.7600 120.9400 121.1800 121.3400 121.5700 121.5200 121.9300 122.0800 122.2600 122.4700 122.6000 122.7700 122.9600 123.1100 123.4300 123.5900 123.7600 123.8900 124.1900 124.3400 124.4900 124.6400
119.6400 119.6065 119.5268 119.5024 119.4043 119.4159 119.3457 119.4789 120.5271 107.1023 118.8730 120.2214 115.7433 119.4739 119.8500 120.1533 120.2930 120.4761 120.8988 120.6649 120.9543 121.1452 121.1160 121.5394 121.8539 130.3885 119.3763 122.5394 122.5152 122.6943 122.9056 123.1110 123.3048 123.5042 123.7091 123.6342 123.5161 123.8334 118.8155 124.5800
119.2700 119.2157 119.1188 119.0712 119.3724 118.9552 118.9240 119.3012 115.0757 109.0802 122.7536 109.4941 107.1911 116.2133 119.7251 119.7900 119.9279 116.8594 120.1460 120.4299 120.6470 120.8768 122.7818 121.2569 120.9273 120.3891 131.1222 118.7171 122.7719 122.5200 122.7211 122.9330 123.1370 123.3375 123.5277 124.0679 128.8941 127.4553 121.7087 124.5800
118.8900 118.7996 118.6997 118.6559 119.2705 118.9667 118.4078 118.5207 111.4355 101.6171 110.9787 108.8899 107.5646 115.7104 118.7873 119.4571 119.5824 119.5622 119.8235 120.1314 120.3861 120.4076 121.7972 120.9903 121.2566 121.7017 121.8846 120.5996 121.9767 122.3503 122.5373 122.7572 122.9758 123.2228 123.1095 123.8708 108.6754 113.8526 110.9517 124.3400
118.4800 118.3641 118.2657 118.1850 118.0985 117.9512 118.3750 112.0037 107.5303 92.4016 113.0312 111.2426 110.7974 118.1147 119.1183 118.9454 119.2437 119.4419 119.6376 119.8706 120.0554 120.2773 120.5062 120.7991 120.5415 121.0502 121.8089 122.9050 121.8938 122.1399 122.3588 122.5851 122.8081 123.0232 123.1814 123.6810 119.9715 122.8845 122.7000 131.0100
118.0500 117.9420 117.8164 117.7287 117.6593 117.7080 117.9644 119.4175 118.0304 108.4815 119.8938 99.0538 108.3751 109.4132 119.4868 118.6974 118.6128 119.0816 119.2928 119.5219 119.7646 120.0076 120.2442 120.4465 121.5100 120.5186 121.8863 121.4624 121.6942 121.9478 122.1920 122.4184 122.6709 122.8951 123.1290 123.5324 123.5767 123.4349 123.2852 109.4100
117.5800 117.3953 117.3103 117.1643 117.1407 117.0863 117.2355 116.6562 112.4617 107.8358 112.7031 105.3903 117.1695 109.9473 115.3518 110.5844 118.9914 118.5791 118.9631 119.2093 119.4567 119.7211 120.0044 119.9694 121.8563 119.4301 120.8918 121.3194 121.5170 121.7678 122.0109 122.2668 122.4046 122.7032 122.9086 123.1996 123.4061 123.5557 124.2783 124.0500
117.1100 116.9501 116.7609 117.0556 116.5653 116.6012 116.4463 110.9115 108.8212 118.3805 117.0595 119.8467 118.7397 113.6837 120.9349 105.0414 117.3512 118.3254 118.5972 118.8706 119.0582 119.4643 119.5746 119.9203 120.1725 120.6151 119.8530 121.2014 121.2969 121.5886 121.8357 122.0832 122.3575 121.0780 122.9427 123.0814 123.2715 123.5273 123.7271 123.8500
116.6200 116.6108 111.7020 114.5311 115.7251 116.0231 116.8070 105.7332 101.0131 116.2712 115.6923 115.9633 116.4539 111.0378 113.2034 117.8075 118.5743 117.9316 118.2596 118.5476 118.9493 119.2576 120.2686 114.9275 113.9070 119.5153 115.7177 121.7304 121.4690 121.7164 121.6961 121.5712 123.3321 110.2621 124.0075 122.8879 123.1493 123.3918 123.5514 123.8400
116.0900 115.7634 116.0938 119.7476 119.4343 115.2456 115.7220 112.8421 121.9267 115.7474 115.7420 116.4084 117.2959 114.6761 106.2896 116.4013 116.9720 117.5583 117.8926 118.0732 118.3496 113.5878 123.4537 111.5608 109.8437 108.5525 116.5351 117.6629 117.5980 121.7080 121.3052 121.8007 122.4735 122.0022 122.3727 122.8273 123.0714 123.2904 124.2403 123.7700
115.5100 115.3185 114.6218 111.2112 113.0045 114.4002 115.0547 109.5587 103.1753 117.9144 115.7995 111.2421 116.6470 107.4682 116.3184 117.3335 116.8524 117.2316 117.5219 117.7693 119.1359 105.9604 119.7312 114.7356 115.9783 111.9055 111.6060 121.5002 116.6786 119.3022 121.2511 121.7007 121.8100 122.1192 122.4664 122.6424 122.9035 123.5035 117.3818 108.9700
114.9000 114.6469 115.7491 113.8154 106.4372 110.4696 114.4943 116.4203 113.6907 108.1677 116.5952 113.8318 117.6629 106.5038 115.2562 113.1537 116.8704 116.6983 117.1870 117.4335 118.7270 112.2990 111.0660 113.0811 118.8992 120.6462 121.2012 120.7965 124.2202 119.5835 121.1633 121.5144 121.7856 122.0518 122.2972 122.7102 122.7802 124.9829 105.1792 123.5000
114.2200 114.0641 101.7419 103.4677 92.0565 114.7873 112.3377 112.8652 113.2982 114.8542 113.6938 113.6556 114.1887 115.2835 115.7198 113.3775 115.1668 116.3817 116.7641 117.1617 118.6360 118.8845 110.2858 113.5484 111.2411 119.9417 118.7136 118.6447 120.2819 120.8752 121.1669 121.3660 121.6498 121.9251 122.2672 122.5266 122.2879 127.2367 107.8141 123.5000
113.4400 108.0929 101.8533 99.9520 100.0161 110.3642 111.6761 112.4838 112.5462 112.5802 113.0781 113.3017 113.9955 114.1971 114.2134 120.9445 114.4817 116.3758 116.5731 116.8447 117.3849 114.0459 117.0289 118.9552 116.0186 119.1683 123.8430 120.9710 120.4592 120.1342 120.4249 121.3165 121.4901 121.7694 121.9470 122.2416 119.7191 125.5771 118.5647 115.2800
112.6900 113.8742 117.6615 114.5036 108.3175 111.9734 111.4567 111.4026 111.5985 111.9179 112.2430 112.6653 113.1244 113.5705 114.1163 114.3918 114.0531 115.1014 114.5871 116.6399 117.0677 116.0938 123.0355 115.0879 119.2945 119.1238 120.7635 119.7361 120.2380 122.6428 123.0595 121.2042 121.4241 121.8435 123.8423 123.1665 101.9245 107.1577 107.8510 108.7300
111.7900 111.8861 110.0515 110.5226 103.8063 110.4713 110.2315 110.3625 110.5964 110.9412 111.3769 111.8756 112.4111 112.9707 113.5347 114.1744 114.7514 115.1882 115.5921 116.1929 116.6765 117.1514 117.3926 123.2668 106.4705 120.9327 119.0580 119.5937 120.0300 120.6143 120.5624 121.0003 121.1414 121.8001 122.7806 115.0354 108.7762 109.5936 114.2794 113.9500
111.7900 110.9082 109.2469 109.9128 113.8669 109.1591 109.0254 109.1517 109.4546 109.9015 110.4531 111.0539 111.6872 112.3336 112.9781 113.6022 114.2310 114.7984 115.3654 115.9055 116.4320 116.8858 117.4039 119.4203 105.8096 119.7387 118.9301 119.4770 119.8884 120.2421 120.5946 121.0600 121.4577 126.2776 120.8710 113.5118 113.4488 117.5248 115.9653 113.7600
110.6800 109.8648 108.3501 108.4145 107.3932 107.5203 107.5653 107.7574 108.1675 108.7499 109.4445 110.1803 110.9360 111.6937 112.4252 113.1470 113.7474 114.3978 115.0466 115.6103 116.1042 116.9367 117.7591 118.1477 118.3767 118.5441 118.9786 119.3514 119.7430 120.0092 120.2809 122.1207 105.1566 121.9429 110.7705 109.2102 114.7276 118.8520 115.0312 116.4400
109.5700 109.6273 107.8090 107.2383 106.4682 105.9936 105.8403 106.1004 106.6848 107.4719 108.3609 109.2793 110.1853 111.0608 111.8906 112.6203 113.9227 114.0996 114.7802 115.4280 116.5904 114.3846 114.3309 113.8424 117.5298 118.1608 118.9463 119.2226 119.6347 119.8319 121.2797 124.7575 111.4923 109.3705 111.8895 113.2981 125.6023 118.3304 122.8845 114.2600
108.1300 107.9607 106.7756 105.6160 104.6184 103.8774 103.6786 104.0877 104.9693 106.0558 107.2332 108.3694 109.4517 110.4703 111.4058 112.0021 114.6883 113.6632 114.4166 115.0928 111.0675 100.8136 109.7240 108.7304 119.0864 119.2843 118.1842 119.1542 119.5712 119.6298 125.1832 127.6637 121.5955 114.3123 123.1264 123.0209 125.0264 123.5917 123.1870 122.9300
108.1300 107.0087 105.5545 103.9740 102.3699 101.1544 100.8021 101.5024 102.9410 104.5310 106.0825 107.4999 108.7780 109.9277 110.9425 111.9463 112.7069 113.5213 113.8200 115.8885 98.5174 99.4002 110.5626 107.4867 111.3356 111.3548 118.9211 119.0268 119.4884 119.8674 119.2959 119.2628 121.4260 121.8382 122.0956 121.5331 121.6382 114.7426 123.4066 122.9200
107.9200 106.1430 104.3174 102.1605 99.7809 97.2566 96.2943 98.1065 100.5746 102.9715 104.9992 106.7164 108.1938 109.4809 110.6032 111.6299 112.5616 113.3136 113.8653 120.2936 109.7419 110.6649 105.6903 105.3707 111.7954 115.4922 118.5616 119.0414 119.2936 120.0690 120.9048 120.8945 121.0417 121.2999 124.8561 119.1371 113.9343 105.0844 123.8796 122.8900
106.4200 105.4672 103.3117 100.4763 96.6702 90.9962 89.5617 92.7749 98.3246 101.5863 104.1230 106.1308 107.7794 109.1616 110.3628 111.4256 112.3387 112.9038 120.8158 115.5003 116.6610 117.1927 114.9743 115.1675 119.4990 119.1212 118.3997 119.0217 120.6577 123.6765 112.9319 120.6605 120.3282 123.4061 124.8653 112.7463 106.6910 114.7955 116.5760 122.8900
106.3300 105.0892 102.7247 99.4304 93.8535 86.6840 84.9008 88.5459 96.5205 100.7353 103.6419 105.8186 107.5479 108.9979 110.2466 111.3372 112.2923 112.9030 115.7862 114.3695 115.1462 115.8899 116.9497 118.2423 108.4404 118.3973 118.2403 118.9378 119.9836 124.5871 108.5952 121.4350 120.7890 131.3945 113.5286 118.6651 117.7215 121.0463 116.0899 122.8800
106.3500 105.1609 102.7712 99.5508 94.3492 87.3723 85.4121 88.9323 96.7513 100.8159 103.6919 105.8429 107.5729 109.0106 110.2542 111.3310 112.2971 113.1654 113.8810 114.7355 115.3835 115.9633 116.4426 117.0407 117.2445 118.0302 118.4510 118.9801 119.0705 120.2003 104.5848 103.7437 111.4444 109.5337 113.8572 111.4553 119.2444 118.4236 117.2627 122.8800
104.3300 105.1701 103.4226 100.7464 97.1423 91.9349 90.3899 93.7172 98.6075 101.7805 104.2473 106.2155 107.8318 109.1992 110.3890 111.7559 112.3854 113.2456 114.0179 114.7530 115.4622 116.2277 116.1264 116.6277 117.8117 118.1019 118.5311 118.9951 119.3867 119.8081 120.9054 130.8472 112.8577 115.3926 110.9247 122.5785 114.3611 116.8981 115.1544 114.1100
106.6700 106.3730 104.5000 102.4551 100.1763 98.0384 97.2063 98.6728 100.9821 103.1971 105.1716 106.7884 108.2696 109.5460 110.6664 111.6403 112.5508 113.3734 114.1125 114.9739 114.3530 116.8914 108.4990 113.9271 113.7305 117.8199 118.6083 118.9910 119.3593 119.8386 119.4886 124.2502 118.0871 113.7871 110.5797 112.0228 111.9277 111.5734 116.5321 122.8900
108.0300 107.1398 105.7438 104.2464 102.7793 101.6141 101.2875 101.9503 103.2752 104.7917 106.1167 106.7064 108.9130 110.0112 111.0283 111.9610 112.8252 113.5828 114.6389 115.9176 100.1065 117.9347 115.8902 114.9174 118.3874 118.0789 118.8237 119.4324 119.5933 119.8521 120.4589 122.6505 112.2256 121.2028 101.1862 122.1994 117.7230 121.9810 123.6457 122.8900
108.2800 108.1210 107.0095 105.8989 104.9325 104.2351 104.0361 104.4196 105.2479 106.3018 107.4684 108.6847 109.5403 110.5521 111.4770 112.3188 113.1261 114.0703 112.3115 111.7413 116.6553 109.3010 105.2299 103.9933 118.5167 117.8828 118.4025 121.9775 118.9971 122.4757 116.6021 117.8451 118.3186 115.5687 105.7164 120.4078 117.0679 119.5588 119.4450 122.9000
109.4600 109.1079 108.2327 107.4081 106.6978 106.2411 106.1214 106.3733 106.9318 107.6689 108.5846 109.1224 110.4211 111.1948 111.9736 112.7431 113.4723 114.3393 110.7015 113.8214 116.8166 103.0292 106.4006 97.5330 118.3194 118.2323 119.7193 120.2109 121.3902 113.3897 108.5581 106.4902 119.8324 110.0860 112.7042 118.1596 114.8192 119.5009 114.5003 115.7800
110.6600 110.0617 109.3569 108.7189 108.2336 107.9794 107.8322 107.9887 108.3767 108.8883 109.4172 113.0182 111.1958 111.8105 112.5012 113.2032 113.8991 114.4564 115.6721 116.1711 116.4577 114.7512 123.4033 100.2927 111.6946 118.6627 112.1234 112.1729 110.6372 101.0758 108.2834 108.6260 106.7859 107.4488 119.7440 117.8491 116.4072 119.0985 119.9179 114.3800
110.7700 110.9807 110.3913 109.9439 109.3865 108.8139 109.0796 109.3388 109.6431 110.1028 110.5728 109.7282 111.8746 112.5202 113.0591 113.6781 114.2247 114.7950 115.1756 115.7301 116.2764 116.5439 117.7253 107.7438 103.1341 116.0143 118.8022 113.3719 111.7967 105.4428 101.6833 100.1111 104.2592 119.0762 122.7065 119.4978 117.4685 110.3641 100.5278 114.4100
112.5100 111.8252 111.4558 110.7702 111.1093 112.7930 110.9663 110.5364 110.7603 111.0807 111.5090 112.0051 112.5277 113.0645 113.6165 114.1912 114.7144 115.6873 117.1141 117.4189 117.7957 117.2980 116.2711 123.1313 102.4200 106.3808 110.0124 109.2969 110.7803 106.2027 98.7664 97.2646 109.9924 122.6515 122.2248 122.0100 123.8711 123.5000 128.8756 108.7500
113.4200 112.6292 112.2745 112.1284 104.1923 95.6960 111.4877 111.5070 111.7366 112.0304 112.3708 112.7828 113.2237 113.6996 114.1817 114.6637 115.1288 112.2613 115.2721 114.2205 107.8988 119.1974 119.8572 110.6028 105.1861 112.1426 104.9267 107.5139 110.6882 106.8061 98.7079 115.1293 120.5408 115.8478 121.3983 122.5870 125.2643 102.6441 119.5590 119.3900
113.4200 113.3837 113.0528 112.5573 112.6698 108.9595 112.8187 112.4821 112.6441 112.8744 113.1699 113.5064 113.8937 114.3031 114.7264 115.1635 115.5899 116.5647 116.1415 117.8664 101.9705 105.8268 102.0188 102.9952 99.6260 109.8146 106.3756 117.6364 109.0055 111.4123 111.3848 108.6193 110.0734 117.3674 116.3838 116.0368 116.1540 115.2975 103.4173 101.4000
114.1600 114.0625 113.9181 113.3543 101.8278 110.4707 112.9278 113.3653 113.4778 113.6565 113.9022 114.1955 114.5272 114.8802 115.2652 115.6042 116.2064 116.3237 118.1586 118.3036 107.8723 114.9192 104.9815 102.7556 111.0047 120.0008 118.7250 112.2768 107.7692 109.2233 117.2840 110.6350 115.3792 108.5355 118.8784 122.9213 122.8126 114.6173 123.3653 123.4300
114.8400 114.8257 114.3552 115.9850 115.2095 114.1847 114.0516 114.1243 114.2277 114.3795 114.5916 114.8355 115.1289 115.4499 115.7689 116.1211 116.3514 119.2763 121.7908 115.1302 118.2308 119.0532 119.1272 112.2574 120.7159 119.0556 120.5084 120.9687 121.4707 118.1902 108.1087 102.7371 115.6283 117.1637 123.1720 122.3459 124.2113 110.4004 116.3642 101.4600
115.4300 115.2787 117.7823 100.5481 114.8704 114.7525 114.7714 114.8287 114.9203 115.0556 115.2334 115.4527 115.7009 115.9479 116.3449 116.3927 115.7702 116.8674 100.1667 101.0512 102.9240 118.4316 118.9926 119.7186 119.7872 119.9041 120.0198 119.8756 120.5835 121.1869 104.1134 103.3847 99.3607 123.6734 122.1661 122.5852 123.9101 109.8094 122.8408 123.6900
116.0500 115.9700 116.7826 106.1949 116.8887 115.4346 115.4146 115.4924 115.5604 115.6782 115.8309 116.0195 116.2462 116.5028 116.6389 117.0961 116.9534 110.2233 114.8292 110.8366 124.4009 119.6911 118.9992 119.4605 119.7447 120.1337 120.4965 120.8335 121.1296 119.2369 127.0504 106.7917 99.7460 118.8949 122.3967 122.8332 122.9892 122.2503 123.6511 123.6900
116.5900 116.1500 116.2300 115.8200 115.9100 115.9300 115.9400 115.9100 115.8800 115.8300 116.2400 116.6000 116.5100 116.8100 117.1900 121.2900 98.7700 109.1500 106.8100 113.2600 102.1400 119.0900 119.3000 119.5500 120.0300 120.2600 120.4900 120.7100 121.1400 121.3500 128.2600 117.7700 107.3600 117.7000 122.7000 122.8800 123.0600 123.3900 123.5700 123.7300
