116.2100 116.2800 115.8500 115.8900 115.6800 115.9400 115.9300 115.8700 116.3000 116.2400 111.3800 111.3800 116.9300 117.2100 117.1400 117.8300 117.7400 118.3800 118.3800 96.8700 97.1700 119.3700 108.2700 119.8600 120.1300 120.5600 109.6200 99.0000 112.7800 112.3100 112.8300 115.1100 115.5400 115.5600 115.5200 116.0100 116.4900 117.4300 118.3000 101.9500
116.1900 115.7986 115.6567 115.5675 115.4641 115.4887 115.5068 115.5768 115.7015 116.0075 116.1797 116.2779 116.3688 116.5440 117.0295 116.8143 119.0137 121.7523 121.4999 103.9534 93.6175 105.5527 110.5573 120.2225 121.0430 109.5900 100.6166 97.8633 112.5245 112.0922 113.6370 114.9460 115.3443 114.3097 114.8290 115.7698 116.4329 109.2386 112.6058 118.6900
115.6400 115.1970 115.0299 114.9120 114.8420 114.8303 114.8545 114.9780 114.9290 115.3253 116.0307 112.4998 117.6596 116.6692 116.5705 118.1618 99.5899 107.0528 102.4262 98.9342 100.9600 101.3587 115.4021 120.0105 114.2203 104.0483 102.8448 107.8829 113.5875 112.8979 113.9008 113.8524 114.6605 117.0477 115.4232 115.5822 116.6639 116.2614 99.6166 118.6900
114.4100 114.5502 114.3549 114.2187 114.1361 114.1139 114.1973 114.0394 115.5637 114.0733 115.9828 101.3558 104.9523 104.5033 118.8273 118.2864 109.7516 112.2289 116.2577 108.3108 106.4517 108.5186 121.9922 112.2200 108.5901 110.9557 98.8351 101.7220 113.8627 111.7706 113.6361 114.5468 113.6044 117.6745 114.7843 115.3651 115.6281 105.8388 99.9475 101.6800
113.7100 113.8470 113.6226 113.4598 113.3633 113.3432 113.3910 113.5471 115.2167 113.9679 107.9803 110.3104 104.9194 89.7294 97.4267 105.7269 118.8022 120.0342 107.9928 108.0063 106.9666 106.0937 108.2478 108.3146 109.4376 112.4026 111.6544 99.3833 114.0441 112.6698 113.2143 114.9964 113.0293 113.3224 114.8004 116.4592 99.1283 108.5833 101.3822 101.6400
112.9400 113.1033 112.8297 112.6327 112.5200 112.4876 112.5464 112.6611 112.7312 113.4249 115.3711 111.7157 104.7744 93.0076 102.0805 93.3273 116.4148 105.1101 105.6299 106.5893 108.9572 107.4130 108.7215 108.2208 111.0916 110.5173 98.6891 115.2062 114.9534 115.3250 114.7822 114.1070 114.3963 118.1292 108.8511 116.5280 115.2916 118.7954 104.1896 113.6200
112.9400 112.2918 111.9633 111.7295 111.5824 111.5462 111.6151 111.8036 112.1887 111.8719 110.3240 90.8326 95.8836 94.4708 104.2637 95.3484 98.1019 100.5729 100.5326 102.1054 106.1737 107.4389 107.6398 109.7761 110.4295 109.5098 108.9262 115.7429 117.4335 115.7232 115.9595 115.6475 113.9754 115.5433 115.0658 116.1213 117.3636 118.5906 109.9372 101.4100
112.1000 111.4060 111.0120 110.7197 110.5338 110.4889 110.5804 110.7976 111.1765 111.3895 110.3404 106.5924 107.9536 110.5198 105.4079 94.7680 103.3677 105.1641 102.1280 101.3024 102.1316 105.5888 104.7965 110.3923 107.7153 97.8562 112.4680 114.8812 115.3115 115.2169 114.7906 115.4193 115.6979 117.0760 115.9720 116.0492 110.6883 101.1837 120.2707 118.9800
111.0900 110.4577 109.9623 109.5854 109.3399 109.2792 109.3964 109.6864 110.1347 110.6398 107.3676 105.5923 112.9950 106.4667 105.4720 100.2039 101.8341 106.1053 100.0710 100.7146 102.4078 103.2686 106.6702 103.2518 107.3878 107.8606 97.6730 107.6171 116.9736 116.7427 115.9441 116.9059 118.0836 110.0201 118.3099 119.7542 120.9162 120.2738 118.7735 111.2100
110.0700 109.4170 108.7965 108.2916 107.9704 107.8811 108.0460 108.4318 108.9957 109.2088 110.6626 110.4505 106.1631 91.4369 99.9286 99.3442 100.0497 103.7798 102.2496 104.7287 102.0122 104.0685 103.8499 97.3898 94.4446 99.3403 111.2174 109.0693 115.1462 116.6254 115.5862 117.9392 118.8923 119.2932 118.1367 118.5862 120.0862 120.1150 115.3974 121.0100
108.8100 108.2926 107.4708 106.7860 106.3391 106.2163 106.4460 106.9831 107.7936 108.6743 111.9804 109.0989 92.1808 92.3822 101.6807 99.1985 100.6223 102.6228 101.5993 102.2690 102.3636 103.7491 106.9311 102.3055 102.1854 102.6310 106.2744 102.2617 108.6080 114.6275 115.6354 118.3158 109.0622 111.8364 119.1002 119.2011 118.3464 123.0959 104.8527 120.7100
108.6300 107.0844 105.9885 105.0248 104.3483 104.1519 104.5120 105.3032 106.5023 110.1780 95.5764 94.6533 98.4717 108.2411 93.4295 101.2380 100.9907 100.9499 101.5704 103.5652 102.3315 99.0392 99.9543 97.0103 102.6947 107.2147 110.2318 107.7266 106.8222 116.0958 117.1072 108.1318 104.0400 114.2583 116.2364 116.4109 119.0261 118.9173 118.6507 117.6200
107.2800 105.8244 104.3580 102.8936 101.7691 101.4410 102.0582 103.3412 104.7893 103.2609 92.1649 100.6841 107.5974 120.8565 97.6600 94.3991 101.6110 98.6233 101.9104 102.3097 98.9015 103.4438 93.5704 97.7785 103.3167 110.8076 111.4566 111.6560 113.2586 114.5502 113.9326 112.6905 114.4613 114.3515 119.1203 119.3942 118.1978 112.7539 102.7762 101.2700
105.4500 104.5946 102.5837 100.3413 98.2795 97.4694 98.8951 101.0113 103.0971 105.9008 101.7808 111.5828 97.4145 98.5517 110.9518 93.8509 99.3540 95.8153 100.9198 98.7522 116.2667 104.6921 104.2645 102.1330 96.3126 111.4724 98.0729 103.1092 102.7484 113.5421 114.1680 113.0659 117.1634 121.3381 122.3320 120.9730 114.5829 111.0534 99.0419 101.2600
105.1800 103.5374 100.8442 97.4641 92.3161 90.7054 93.7189 98.6560 101.7397 104.2044 108.4305 106.8239 84.0032 89.4591 98.8189 113.0259 94.8024 93.2236 96.6477 99.8662 103.5425 99.5724 104.4296 104.7230 104.2735 115.1466 109.0102 112.3692 108.5543 118.1358 118.4070 119.3499 121.5861 121.5366 121.5147 124.1679 106.2134 105.1359 105.7862 108.2300
105.0200 102.8704 99.6339 94.4425 87.2894 85.4634 88.9999 96.6439 100.7586 103.6413 106.5040 104.9601 96.9890 86.9303 105.1436 90.6206 92.6267 109.3563 113.2072 117.0288 101.4316 107.5113 97.2331 103.5615 96.9260 105.8826 111.1655 110.7187 119.7326 115.0174 118.5813 120.6209 121.4145 122.3291 107.9361 111.2445 99.6439 126.7078 109.6708 111.4900
104.9900 102.7886 99.5099 94.0902 86.3525 84.4534 88.3318 96.3519 100.6405 103.5583 106.6131 100.5146 98.8232 87.7516 105.9635 89.9675 93.5344 110.0492 113.8054 117.2639 101.3257 108.9484 97.2526 102.6479 96.0953 105.9038 110.7669 114.0260 119.9107 120.3635 120.4459 120.7960 121.4218 122.6683 107.6989 113.2204 106.6983 127.1015 106.7179 110.1300
105.1000 103.3279 100.5999 95.9175 90.8912 89.1639 92.4679 98.0885 101.4773 104.0719 105.9646 108.0248 110.0181 112.0685 113.1427 113.6776 114.3914 114.2792 114.3534 116.9070 102.5174 120.9749 101.2613 108.0695 96.7756 105.3220 110.3008 114.0473 119.9825 120.2272 120.9252 122.1732 118.5172 129.5088 107.9475 117.4641 102.9570 122.9345 105.3160 110.7800
105.3300 104.3239 102.1641 99.6981 97.1227 96.0183 97.8849 100.4381 102.8795 104.9472 106.8045 108.3014 109.1689 110.0266 113.9968 111.6974 113.5556 114.4451 114.7811 115.1625 117.4022 110.3989 102.6452 99.9726 101.7677 123.7219 107.9015 114.9746 119.6156 119.3103 119.0343 115.1303 103.6681 119.8187 106.0095 103.8444 108.8229 105.9966 111.3253 116.8800
107.1800 105.5271 103.9389 102.2983 101.0369 100.6435 101.3616 102.8116 104.4242 106.0059 108.0619 109.8809 109.9610 111.0436 111.6300 110.3976 113.6488 111.3610 114.8887 116.2555 113.7577 102.2390 110.4494 99.0068 110.8923 113.6617 105.3296 121.2306 119.8565 118.3798 127.0234 106.7902 105.1964 102.9690 104.0141 107.9780 111.7459 112.2510 113.1145 116.9400
107.1800 106.8050 105.6231 104.5690 103.7803 103.5466 103.9784 104.7250 106.0247 107.3309 108.2333 109.0775 110.4535 111.3417 112.2529 111.2178 114.3867 105.0004 115.6200 115.6659 97.9261 109.7923 108.7743 107.3930 111.1700 105.7999 112.0449 120.1027 119.7934 119.7247 122.2787 121.7800 103.3789 105.5003 103.9728 103.8229 110.2174 117.6809 118.6148 114.0200
108.7000 108.0296 107.1318 106.3877 105.9013 105.7640 106.0322 106.5526 106.4144 104.5214 109.1783 110.1541 111.0190 111.9191 112.7708 113.9495 114.3224 115.7274 115.1761 117.7160 126.6866 102.0547 95.0513 116.3890 111.9557 103.4595 120.2876 119.4964 120.0707 120.9431 112.5059 119.0193 111.5958 110.9898 108.4278 102.6173 103.9249 111.4960 120.5536 119.1300
108.8500 109.1641 108.4742 107.9771 107.6165 107.7960 107.5768 108.0661 108.6402 106.7897 110.3121 110.8600 111.6381 112.3232 112.7768 113.6216 114.0488 112.8366 111.3241 114.5008 100.1474 100.2963 101.3732 106.7227 100.6126 115.4542 117.2334 119.5844 120.1302 119.8682 126.1967 120.6438 122.1343 120.9094 116.2655 101.2331 112.8598 101.9795 114.4408 102.7300
110.9700 110.2200 109.6877 109.2637 110.3646 112.3437 109.4691 110.2604 110.1937 110.2507 110.9740 111.6518 112.3868 112.9638 116.1982 116.8897 115.3932 108.8439 117.3027 117.2135 99.3123 94.3687 97.4725 98.6983 111.4064 118.2743 119.5775 120.0167 120.2689 123.3378 107.1078 124.4917 122.4361 126.9384 117.3498 106.7740 111.1704 111.4563 104.8093 101.3200
112.0300 111.1871 110.7645 110.4537 109.9880 109.9413 110.7309 99.4338 111.0574 111.2650 111.8346 112.3797 112.9216 112.8194 100.1481 105.1899 94.7482 116.6994 116.0477 119.0342 93.1224 108.0838 118.5163 96.4768 105.5778 107.9783 120.0158 119.4747 120.0337 122.0305 103.2204 107.7741 103.6350 110.2146 106.2484 112.3164 104.0903 120.3481 103.0799 109.5400
112.0300 112.0874 111.7442 111.5121 111.3982 111.3748 111.4441 111.2173 113.0208 112.1982 112.5952 113.1523 113.4444 114.6593 92.1507 101.1135 104.1955 117.4336 116.6251 117.0397 118.9362 96.6309 100.5403 98.1013 106.4301 120.1271 121.5586 105.2061 119.9737 120.8380 118.6495 114.3676 106.1657 121.1455 108.3962 110.3178 109.8315 112.9813 109.0160 111.4300
112.8900 112.8875 112.6179 112.4129 112.2675 112.2550 112.3463 112.4829 112.4909 113.0079 113.5630 108.5178 108.3238 115.3913 115.1953 115.1858 116.5068 116.2044 116.8617 117.1462 118.1846 121.0163 110.1420 107.0492 101.6627 114.9074 118.0611 107.2983 104.4407 122.6225 121.2067 104.4276 114.3680 104.6731 113.7126 111.1959 111.0671 119.7729 112.3546 123.5600
113.6600 113.8370 113.5072 113.2760 113.1579 113.1317 113.1008 113.3628 113.5772 113.7559 114.1090 115.2614 115.1650 115.7573 117.5620 115.7105 116.3990 116.7424 117.2967 117.5992 119.7964 117.9347 114.3782 106.5890 106.4580 103.1792 112.0330 110.9688 113.0716 124.1373 109.7401 112.3236 107.8443 108.5859 111.4192 109.2082 110.7380 113.5107 126.5064 112.4000
114.3600 110.1246 115.5203 114.0228 113.9361 113.9213 113.7531 115.9479 114.3111 114.4119 114.7632 114.4289 114.3609 115.2518 109.1462 116.3300 116.8352 117.0742 117.9428 115.8146 118.5438 116.7181 93.1508 111.1684 121.1824 108.3372 109.0937 112.4369 112.6966 114.3478 102.1799 104.3446 109.9646 101.4018 101.2788 106.8320 106.1971 117.6880 114.3206 113.0800
109.5000 93.7951 115.2217 114.7221 114.6583 114.6493 114.5899 114.7673 112.3859 116.2855 112.3004 116.2053 116.6811 114.9359 116.3218 116.8711 117.1485 117.6013 116.1120 115.9744 119.3850 117.5860 109.7145 112.1806 121.3324 121.6722 122.1942 123.3305 119.5812 109.2773 108.6007 97.2314 99.4900 107.2904 102.0571 100.3077 101.8662 111.0448 112.1847 113.0800
93.6200 114.6136 115.6094 115.4219 115.3203 115.3023 115.1250 116.2545 96.2449 112.3873 114.4856 111.5459 116.6781 101.2337 115.9554 117.2961 117.5758 117.9313 117.6768 115.7159 105.8200 101.9859 111.8214 101.3140 118.6628 120.7222 119.9038 114.4723 111.4762 100.3031 98.6408 99.7060 100.6090 99.8961 102.3882 102.9409 104.3957 105.3364 102.6993 112.0800
94.1900 116.3682 115.9386 115.9923 116.0115 115.9186 115.8800 116.4298 105.0965 91.5034 118.6403 114.7997 117.6503 119.0875 119.4101 110.4339 116.5712 118.3388 118.5044 114.7193 111.1203 99.4038 110.3654 100.7988 108.1214 116.2232 111.3261 104.5421 106.0285 114.0925 100.8582 100.9450 101.3654 100.0697 109.9666 119.0533 104.6172 108.5081 107.5762 108.5200
116.7100 116.7674 116.6542 116.7339 116.1172 117.3502 116.3850 117.2452 112.6004 92.9620 107.0747 113.4489 94.0225 118.7454 113.8151 113.9750 102.7032 118.8401 118.6633 119.8266 121.4620 103.7848 111.2205 103.0802 105.7088 102.7887 105.3008 104.0091 100.7447 99.9892 101.0203 100.6140 100.7216 102.4963 112.9781 126.2295 120.5904 109.8161 101.0906 108.6900
117.2100 117.3183 117.1675 116.6474 116.0612 113.6697 114.7105 116.6013 99.2277 102.9369 107.9274 93.0715 99.3038 109.9200 115.1797 94.4240 95.3833 110.5011 112.2709 118.3068 101.6697 105.1288 115.8211 107.5349 105.6731 106.5703 105.2647 100.6186 100.1382 99.3170 100.4954 106.0232 108.6716 111.7204 104.5861 106.8636 109.5533 109.5890 117.9813 102.1500
117.6700 117.6417 118.3558 118.6514 107.9665 96.1469 98.8486 118.1684 109.2277 101.1798 107.3946 114.9645 119.2259 119.2070 122.3380 118.6072 111.1142 96.4225 100.7908 119.4830 102.7880 115.3108 107.0407 105.5295 104.3029 108.2710 106.2541 105.9408 111.2832 100.1739 100.7918 100.2708 109.6988 108.9936 110.4204 108.2939 100.6028 108.4674 104.4973 102.3400
118.1200 119.2288 109.4883 115.3680 110.2694 94.5073 116.2907 113.2238 119.3387 106.9906 104.0498 103.0825 118.4144 118.6166 118.5268 118.4380 119.2516 120.9335 120.8902 120.0524 111.4594 100.5121 103.5876 103.6546 102.4227 105.8789 107.8476 111.6742 108.0575 111.4939 111.4117 103.9375 104.4121 107.8449 109.5683 115.4601 117.0396 107.5418 102.9995 108.2700
118.9400 113.9498 105.0004 122.3650 97.5149 97.7072 96.2663 118.0815 104.7147 118.5874 102.6258 109.5331 119.8537 118.9905 119.3834 119.5543 119.7192 120.3782 99.0357 106.3899 109.5345 99.7646 101.2304 107.7240 107.8472 109.3437 109.0090 108.3039 106.4369 121.6540 106.7570 108.3244 106.0296 111.4534 113.8949 112.0480 111.5069 106.7127 111.8517 102.5700
103.4600 99.2318 100.3746 102.4119 96.5956 99.1698 105.4563 117.8972 118.2956 105.6746 102.8884 101.6497 120.0873 119.4452 119.6828 120.1137 120.0196 110.6954 102.7854 111.9835 102.2276 101.1525 100.2728 106.1839 121.0961 117.4197 106.3085 111.9616 109.7974 109.2446 100.1701 102.6144 104.1480 120.1112 124.2925 124.0579 117.1282 107.7225 115.2992 124.6100
97.6900 102.4266 112.2070 99.0727 113.9910 99.4723 106.9868 119.9011 116.0138 102.7621 117.0126 102.8046 121.0664 119.5539 120.1181 120.7989 108.0660 113.1289 101.6362 105.6667 101.0791 104.7323 125.4420 108.4178 123.0839 117.3290 115.2913 111.2397 110.5457 110.2456 102.6341 102.1930 100.4601 113.4921 124.2113 124.0736 124.2796 108.1964 121.4316 124.8400
97.6900 100.5700 101.5600 101.7400 119.4500 100.4700 100.6000 116.0600 119.7600 104.7400 110.7300 106.6900 120.1500 120.1500 120.3600 117.8200 117.8200 115.0300 106.9500 102.9800 101.1000 121.5100 121.6800 105.7900 122.0100 122.1800 122.3600 108.9100 112.7300 113.1900 101.2000 101.3600 101.5100 123.8200 123.9800 124.1300 124.2700 124.5600 124.7000 124.8400
