122.2400 122.2300 122.2300 122.2000 120.4800 122.4100 122.3900 122.5900 122.5600 122.7500 122.7100 122.8800 123.0400 123.0400 123.1900 123.3400 123.2900 123.4700 123.6000 123.7800 123.9000 124.0200 124.1800 124.2900 124.4500 124.6100 124.7000 124.8500 124.9700 125.0900 125.2400 125.3500 125.6000 125.7400 125.8400 125.9600 126.0800 126.3200 126.4300 126.5400
121.9700 122.0966 122.1414 122.1735 122.1601 122.2792 122.2998 122.3289 122.4217 122.4644 122.3916 122.6752 122.7845 122.9270 122.9591 123.1043 123.3831 123.3280 123.7079 123.5598 123.7246 123.8748 124.1719 124.1451 124.5278 125.3113 113.7628 125.5872 124.7353 125.0484 125.1857 125.3376 125.4860 125.6361 125.7788 125.9223 126.0581 127.3163 127.0206 126.5400
121.6900 121.7942 121.8055 121.8141 121.8882 121.7220 121.7687 122.0844 122.1637 122.1977 123.1330 122.5732 120.9688 121.5044 122.6850 122.8778 123.0016 120.7977 123.0951 123.3896 123.5612 123.7156 122.6053 124.0496 123.7629 128.8040 126.5363 121.7957 125.0623 124.9166 125.0435 125.1916 125.3467 125.4993 125.6506 125.8096 126.0084 121.2423 126.2288 126.3400
121.4000 121.4817 121.5006 121.5425 121.2956 124.3288 121.5013 121.7834 122.2237 112.1337 122.2016 122.7500 110.8469 116.3515 121.9031 122.6132 122.7277 122.8935 122.9447 123.1680 123.3068 123.4148 123.7399 123.8702 124.0637 124.3046 124.9556 123.4707 124.4806 124.7407 124.8885 125.0574 125.2140 125.3715 125.5186 125.6749 125.9265 126.4278 126.1199 126.1800
121.1100 121.1612 121.1788 121.2081 121.0998 121.3613 121.3289 121.4550 122.0878 121.5750 119.8441 123.2061 102.0323 114.5435 124.1314 122.9598 122.4779 122.6595 122.8117 122.9804 123.1167 123.2978 123.4646 123.6157 123.4343 123.6384 124.4710 125.4816 124.4323 124.6298 124.7404 124.9068 125.0663 125.2268 125.3926 125.5472 125.7060 125.6617 129.5130 126.1400
120.8000 120.8214 120.8400 120.8669 120.9461 120.9897 121.0331 121.1233 120.5717 124.5635 122.6032 105.9459 109.9322 110.2587 110.1818 115.3248 122.3870 122.3903 122.5770 122.7395 122.8926 123.0548 123.2307 123.3974 124.4505 123.1465 124.5376 124.0309 124.1986 124.4324 124.5983 124.8108 124.9275 125.1273 125.2884 125.4536 125.6172 125.6714 126.5773 125.9800
120.4900 120.4673 120.5072 120.5608 120.6088 120.5751 120.7910 120.8085 120.8175 120.6213 121.0812 111.9357 109.5389 112.7177 121.6022 103.0098 119.0024 122.5938 122.3058 122.5061 122.7319 122.7919 122.9240 123.0383 124.6356 122.5219 123.7758 123.8080 124.1059 124.2692 124.4497 124.6247 125.1048 124.9222 125.1701 125.3038 125.2010 125.6972 125.8150 125.9300
120.1600 120.1044 120.0898 120.0390 120.1675 120.7877 120.1321 120.4327 120.5591 120.2748 123.6988 122.8805 121.1489 117.7360 119.8292 117.3399 118.6768 122.1054 122.0247 122.2589 122.6871 122.5570 123.6947 123.3264 122.9337 123.0542 117.0695 124.4826 123.7984 124.2018 124.2421 124.3666 124.5549 124.5675 124.6173 125.2502 125.3533 125.5446 125.6590 125.7700
119.8200 119.7203 119.8490 119.8658 117.1847 116.2342 119.9670 120.4632 120.6610 120.6890 121.1479 121.2280 121.1164 116.9858 106.1368 120.4007 121.9410 121.6666 121.9350 122.0113 121.8618 120.4398 117.0858 119.3656 115.3089 123.9446 106.3761 123.6303 123.9163 121.1671 125.0429 124.3928 120.9916 119.4536 125.1499 125.1157 125.2205 125.6889 125.7951 125.7300
119.4600 119.2726 111.5041 118.9181 112.9724 112.1632 120.6476 119.4654 108.5728 120.4463 120.0499 120.8074 121.0493 109.4831 117.7022 122.9327 121.1997 122.0359 121.5892 121.6407 121.0357 108.4289 114.1198 110.8857 112.5752 109.3204 116.5446 112.3057 124.1630 112.1608 124.7475 124.0806 125.1584 125.4087 124.6203 125.1119 122.8955 125.2598 125.5920 125.6900
119.0900 119.0691 119.3604 118.8234 121.1553 108.9181 114.5277 118.7114 111.2813 120.2166 119.4617 121.0718 113.9990 101.2467 110.2396 122.1133 107.3967 120.0934 121.2430 121.4553 123.9617 109.0645 124.8106 104.9618 111.8710 117.8150 118.0704 112.4061 118.4992 124.1292 123.7325 124.1193 124.2183 124.4176 124.7085 124.9632 119.4372 125.0971 121.0641 106.5100
118.3000 118.2726 119.1555 118.9532 116.2362 113.1507 113.3011 119.1717 119.4342 122.5511 119.5903 122.2011 127.8110 111.1031 120.0016 117.5271 113.0405 121.7846 121.8391 122.2917 119.4377 111.2207 114.3359 104.1962 112.2252 113.8273 122.2057 126.5551 119.4016 123.7993 124.0858 123.7893 124.1454 124.3392 124.5363 125.3384 127.3261 121.0320 113.0868 106.5100
117.8800 118.4090 111.0322 119.0038 103.6119 117.9159 122.5737 118.0693 118.5516 116.9814 119.3080 118.6662 119.5375 122.3935 122.6280 120.3509 120.1994 120.3538 121.0839 121.9816 121.4167 118.6185 118.1660 112.5561 116.3273 122.1504 122.8544 120.8793 123.6564 123.1212 120.4624 124.4131 123.9841 124.3018 124.0208 123.8861 114.7689 112.8946 113.2396 112.0700
117.4300 116.8436 115.6470 121.6593 113.7808 116.3612 110.1468 114.6950 118.3734 118.6585 118.5843 119.3971 118.2753 119.5860 119.1086 119.0254 119.9654 120.8093 120.7329 121.0466 121.8307 112.2439 102.7551 98.9942 107.0043 123.0512 122.7464 123.4203 122.8605 123.4673 115.8998 119.2897 124.1701 124.1457 124.9563 123.5936 110.3227 106.1397 111.6102 113.7600
116.9600 117.3069 117.1885 115.1148 116.5942 117.1878 117.1066 118.5824 117.7217 118.1331 117.1991 118.6726 118.8308 119.1562 119.3379 119.6383 119.8185 119.8586 118.0857 117.6057 119.3549 121.5438 101.0369 98.2478 115.1709 122.0433 120.7319 115.0139 122.8447 123.3095 122.2860 122.8987 123.8174 123.7827 123.8053 102.7755 120.2289 110.7626 121.8543 122.9200
116.4600 116.4465 116.5794 117.0929 117.6130 116.3458 106.4333 117.4684 117.4463 117.7115 117.9803 118.2180 118.5014 118.7648 119.0409 119.3325 119.6061 119.9598 120.1523 120.3426 120.8244 117.7181 108.0162 110.0468 108.8386 124.9084 112.5340 122.8318 122.6707 122.9946 123.3795 123.3827 123.6142 123.7769 123.5214 127.2700 116.9336 116.4296 125.5433 120.7700
115.9300 115.8681 115.9295 115.5712 114.8483 114.8279 118.5721 116.6990 117.0080 117.2775 117.6347 117.8467 118.1313 118.3609 118.6945 119.1387 119.5092 119.5993 119.9530 120.1817 120.4184 120.9852 121.0654 119.8277 111.4075 113.0846 118.0337 122.6173 122.6200 122.8052 123.1431 123.6953 122.3158 123.5856 122.8261 117.7497 114.0863 121.7478 124.6934 125.0000
115.3700 115.2594 115.3035 115.6868 115.9770 113.9004 116.3325 116.2628 116.5724 116.7120 117.2028 116.6549 118.0882 118.1010 118.7046 116.5961 119.6925 117.5871 118.6271 120.0812 120.1806 119.2008 117.0579 108.5688 120.8415 122.4291 122.3977 122.2572 122.7015 122.6311 122.3799 122.7457 110.2050 118.0327 112.1795 113.2003 125.8899 125.8908 108.0106 124.9700
114.7700 114.5687 114.7055 114.5879 115.5537 115.3746 115.4479 115.7433 115.9858 116.6277 117.8123 114.0000 115.0259 114.3515 118.0641 113.3839 110.5828 106.6892 110.2170 120.2577 117.7294 105.1763 119.9415 112.9060 121.4031 121.3891 121.6911 122.0243 124.3249 122.8326 125.9651 116.6974 109.7790 114.2048 125.9088 120.2200 132.8377 124.0430 111.2964 110.1800
114.1300 113.9049 113.5772 114.9990 109.1478 114.6400 114.8946 115.2005 116.7757 110.9319 113.7295 116.5726 116.3167 105.0196 114.9598 119.8789 105.2002 111.1515 116.6407 119.3680 104.4191 106.1527 108.6509 114.6298 121.4025 121.7285 121.6853 122.0543 122.1432 122.1651 126.7020 127.8567 116.6801 115.0405 125.8259 122.3972 110.3890 115.7016 119.6732 122.9900
112.6800 112.8142 113.3676 113.6156 108.9960 115.9047 114.1092 114.5006 115.5537 107.9836 117.4019 117.2708 106.0898 105.7571 112.6756 118.2305 119.3680 119.7555 124.3555 112.3026 108.2307 112.4942 114.8890 123.6779 117.2361 117.2206 121.6970 121.8796 122.1056 121.6502 121.4026 121.9704 124.1743 124.9750 111.8683 117.2779 101.8912 106.6980 118.1748 115.3800
111.8500 112.8491 102.1829 100.4124 99.3590 105.5264 111.1994 114.1380 115.0151 113.2269 114.9531 108.8420 108.6254 113.0850 114.1485 117.2979 117.7094 117.4395 122.6311 114.0683 118.3095 122.6930 108.7452 108.5820 114.7352 120.1506 121.2921 121.8093 122.1005 125.3623 117.4416 124.1169 121.9515 121.6869 105.8734 109.4026 102.3706 106.2358 110.4849 118.8600
110.9300 110.2869 110.1197 107.4010 108.4060 115.3348 113.2227 113.4447 113.7490 114.7236 116.1815 91.6064 117.0831 116.7914 118.9896 119.5304 118.4514 117.9286 119.2250 115.8044 119.9480 120.2604 101.6398 93.7760 116.1748 118.6384 120.9720 121.3609 121.4556 110.5136 102.1029 127.6040 126.6247 103.1120 116.4638 102.1692 114.2574 113.3491 120.3704 118.8600
109.9100 110.2695 102.3352 108.1005 111.8271 111.2347 111.9795 112.8017 113.1917 115.7562 99.6228 113.1420 115.3717 116.0378 104.4694 101.5351 119.2992 117.9735 116.1012 118.3140 119.1456 119.6167 116.9470 117.7216 117.5276 119.2925 121.0364 121.5519 121.1222 118.3885 100.2791 101.7057 106.5427 119.1586 112.1446 115.5969 123.7089 104.2216 107.0979 102.5000
108.7500 108.5854 111.2977 109.5680 110.1456 110.7916 111.4604 112.0685 112.1828 108.4529 111.9493 114.4023 114.4563 118.5254 96.9237 106.5021 99.3832 118.1362 117.7038 118.6750 118.8722 119.5132 120.4994 104.7362 108.8670 122.3036 121.8029 112.3997 123.1714 121.9020 120.5482 130.2523 121.2658 102.2236 102.2718 102.1947 100.8886 113.4658 100.8493 118.7200
107.4100 107.4142 107.5787 108.4189 109.1216 109.8915 110.6786 111.4176 112.3769 112.7291 113.2566 118.7547 118.7468 116.3867 104.5353 116.4791 116.4652 117.7063 117.9936 118.8338 118.8549 111.5315 103.3518 106.9262 109.6354 122.9960 118.2016 100.9439 117.5942 121.9866 105.9461 99.9305 100.2304 101.5345 100.5665 115.5083 118.2744 119.6762 118.2596 118.0500
105.8200 105.6752 106.2748 107.0665 108.0070 108.9603 109.9016 110.8245 111.6619 112.2936 113.8333 108.9875 114.7947 115.0195 115.9847 116.3455 116.8899 117.3465 117.9876 112.0707 102.1373 113.7690 103.8321 104.8653 107.9363 125.4745 112.1895 111.8847 116.7823 112.4155 113.0011 100.8014 117.9610 107.1222 104.2151 124.9716 102.4935 126.0604 124.1196 124.4600
103.8800 103.5257 104.4254 105.5817 106.8204 108.0226 109.1654 110.1386 111.7087 112.4736 112.9308 114.3045 114.4868 114.7065 117.2927 115.7804 114.7428 117.1933 117.5077 118.4860 108.9952 113.3156 106.7533 107.7620 112.1366 117.5152 122.5376 111.8238 121.0031 122.1333 120.8855 108.2921 110.8667 99.9613 120.0572 113.2852 115.4431 111.1894 113.1714 115.4300
101.3700 100.7521 102.2289 103.9851 105.6309 107.1207 108.4497 110.1053 105.6529 112.1653 107.8157 113.4015 114.0685 114.8392 115.1961 110.3526 115.0541 117.0363 113.5985 117.5591 120.5329 107.9633 116.6653 116.1726 114.3438 120.9533 120.6199 118.0234 118.0590 122.0890 113.3426 113.4205 116.9511 114.7991 119.1653 117.7275 103.8073 109.9485 120.2934 121.1100
97.8300 96.7814 99.7462 102.3252 104.5152 106.3314 107.8265 110.4503 95.2935 92.1949 97.8464 113.7583 114.0259 114.7211 115.1895 116.6891 116.6653 117.1116 117.9982 118.1449 118.9397 124.4554 120.6101 107.4248 113.4876 121.5144 118.9576 121.3454 119.2236 112.3790 106.2253 108.9907 109.4825 123.6958 113.2758 115.7862 116.2935 123.5629 117.2780 116.4400
91.7800 90.8585 97.1058 100.8903 103.6554 105.7522 107.4909 110.3169 104.2119 101.5322 113.0708 112.8445 113.8827 114.6091 115.1494 115.6615 116.4801 117.1134 117.4907 118.0554 118.3054 117.1489 122.9207 127.1758 119.0339 111.1102 120.9067 114.6220 120.5813 111.9668 105.2901 107.9817 113.2819 115.5801 110.0328 119.4558 114.6116 115.4706 113.7527 102.4100
90.0600 87.3590 95.3881 100.1505 103.2460 105.4951 107.3238 109.0089 111.4309 112.1072 111.8993 112.9712 113.8579 114.5709 115.2857 115.9447 116.3615 116.3120 117.3200 117.8889 118.3990 118.7148 124.4112 130.7886 116.4881 103.9312 119.5297 103.6370 114.8498 116.1769 97.8536 104.7694 113.0041 119.5759 120.9717 123.5466 121.9374 110.8422 103.8376 102.4100
91.7400 88.7184 96.1213 100.4482 103.4026 105.6068 107.3779 108.8302 109.9823 110.9346 111.9169 113.8765 113.7848 114.5746 115.2472 115.8559 117.1104 119.6844 117.9709 118.3980 118.8381 119.8003 118.8820 125.3839 110.3188 102.4229 119.7967 118.9840 110.4344 112.5803 114.4396 119.8487 121.0518 121.3762 123.4434 123.1069 128.4176 131.3784 123.7252 119.1600
91.7400 94.2278 98.5810 101.6392 104.0910 106.0563 107.6894 109.0733 110.2937 111.3931 112.2294 113.4870 114.0137 114.6740 115.3033 115.8509 118.4246 98.7428 110.2203 118.9143 110.1931 120.9325 101.7891 114.3183 119.4520 119.4016 120.5705 119.3641 120.4117 120.5622 121.7670 124.5913 122.4236 123.1805 123.2643 123.4527 124.0757 128.0376 117.6599 112.3200
97.8200 99.2419 101.1470 103.2226 105.1180 106.7622 108.1955 109.4562 110.5688 111.6348 112.5636 107.9098 113.5280 114.5041 115.4518 116.2574 113.1234 116.8127 117.8833 105.6447 100.4766 123.9790 103.7502 97.1232 115.3458 111.8076 122.3043 121.3223 121.7996 122.0410 122.0923 122.8489 122.8385 122.8176 123.2410 123.5155 123.7820 123.9763 124.2896 124.4100
101.3600 102.3477 103.4591 104.8834 106.2822 107.6181 108.8421 109.9545 110.9741 111.8984 112.7285 113.4778 114.6527 114.8621 115.5560 116.1277 116.8187 116.0390 121.1015 99.8197 100.5290 108.4982 96.8141 98.8983 118.2259 108.7244 111.7623 112.2195 110.3017 119.3634 120.8873 128.9237 106.3592 124.1954 123.2817 123.6078 123.5336 125.3842 123.6539 124.4200
103.8700 104.7646 105.4683 106.4308 107.4758 108.5408 109.5684 110.5389 111.4452 112.2851 113.0871 113.8343 114.4912 115.1160 115.7346 116.2670 116.6171 119.5576 100.3261 109.5138 104.8222 107.6263 106.1248 114.4827 109.0990 109.3213 121.5804 109.9721 113.0707 121.4460 115.6767 103.3875 103.0365 116.7274 123.7255 124.1346 116.5271 117.5885 109.2835 111.4300
105.8200 106.6622 107.1408 107.8249 108.6316 109.4817 110.3372 111.1629 111.9661 112.7234 113.4406 114.1851 114.8489 115.3711 115.9462 116.4873 116.8134 119.7062 102.6975 103.5255 98.0217 106.2681 105.5011 109.9117 109.3274 112.1088 111.9417 115.4990 124.4135 118.2243 105.2323 104.2056 103.2909 112.4483 124.0989 123.5403 124.0437 109.2039 120.7120 117.9900
108.7500 108.2198 108.5747 109.0789 109.7057 110.4001 111.0992 111.8121 112.5182 113.2015 113.8439 114.3496 114.7352 115.6379 116.1886 116.6966 116.5747 120.1087 107.3263 109.2920 104.1736 107.9626 110.7878 105.3026 109.8831 113.0447 112.2426 111.8134 107.4156 119.8510 104.4773 110.3594 99.5498 100.9887 115.9114 121.3632 124.0025 126.1758 126.0598 124.4500
108.7500 108.6800 109.6100 109.6100 110.3000 110.8700 111.6000 112.0800 113.1700 113.6700 114.1500 114.6100 112.5100 115.8700 116.2600 116.9900 117.3300 112.7400 105.0600 103.5400 102.9100 119.4400 119.7000 110.4200 108.8500 120.9200 114.3600 112.5800 99.9400 111.4200 105.7100 107.7800 100.9600 101.5200 114.4700 114.8700 123.8200 124.1500 124.3000 124.4600
