118.2800 118.2800 118.0000 117.6800 117.7800 117.7800 117.4100 117.4300 117.4300 117.4100 117.3900 117.7700 117.7300 118.0500 117.9900 118.2700 118.2200 118.5300 118.7600 118.9900 119.2800 119.4700 119.7400 119.9400 120.1700 120.4300 120.6200 120.8300 121.2700 121.4500 121.6500 121.8400 122.2200 122.4200 122.5800 122.7600 123.1100 123.2800 123.4400 123.6100
117.8400 117.8138 117.6073 117.6270 117.1825 117.2446 117.2075 116.9285 117.3738 117.6724 117.0044 116.9658 118.2647 117.4450 117.7245 117.9059 118.1427 118.2663 118.9260 118.6553 118.9998 119.2485 119.5050 119.7679 120.3175 118.5160 118.9121 122.6605 121.0155 121.3022 121.5551 121.7980 122.0410 122.2817 122.5172 122.7640 122.8360 124.5381 114.7725 123.5600
117.3400 117.3594 117.1715 116.9832 116.8384 116.9984 116.9313 116.5142 114.8902 112.4313 114.5132 99.3803 117.8923 117.3833 117.3738 117.4547 117.6736 113.6432 117.8009 118.3899 118.6697 118.9238 119.1909 119.4644 119.6224 118.5308 118.2910 121.8999 120.8235 121.0738 121.3646 121.6169 121.8707 122.1251 122.3735 122.5783 123.9495 125.5162 107.3619 123.5600
116.8600 116.8785 116.6684 116.4867 116.2027 116.2560 113.4343 115.7724 111.0550 103.2736 114.2555 104.8308 105.9876 116.8970 116.1269 116.9917 117.1795 117.4895 117.5925 117.9991 118.2986 118.5892 118.8846 119.1905 119.4237 120.6836 120.0679 119.6094 120.7043 120.9023 121.1716 121.4398 121.7076 121.9525 122.2707 122.5504 118.4231 110.0117 111.2575 123.3100
116.3200 116.3670 116.1360 115.9234 115.5000 116.0422 104.8306 114.9831 111.5657 109.1541 115.1748 115.6674 114.2957 113.1696 117.0786 116.7186 116.7503 117.0405 117.3276 117.6667 117.9424 118.2550 118.5667 118.8783 119.2018 119.3879 119.8280 120.1469 120.4085 120.7015 120.9845 121.2681 121.5409 121.8025 122.0937 122.2176 120.0538 120.1034 108.6604 123.2500
116.3200 115.8402 115.5706 115.3500 115.0135 115.6598 112.4518 114.5255 115.5351 108.5609 106.0579 111.4995 114.3399 101.8901 111.3842 116.3889 116.2707 116.5868 116.9105 117.2424 117.5770 117.9220 118.2565 118.5898 118.9280 119.2579 119.5723 119.8909 120.2029 120.5061 120.8048 121.0966 121.3787 121.6632 121.9327 122.2086 122.8077 123.3991 121.2950 123.0400
115.7500 115.2915 114.9869 114.7156 114.5887 110.8116 118.8081 115.2972 114.3165 113.8257 114.2499 105.9802 115.3872 108.0511 115.6121 115.1165 115.8265 116.1134 116.4873 116.8481 117.2141 117.5795 117.9392 118.3020 118.6557 119.0077 119.3434 119.6820 120.0053 120.3232 120.6321 120.9348 121.2360 121.5168 121.8592 122.0524 122.1072 122.5794 122.9325 123.0000
115.0800 114.7157 114.3631 114.0367 114.2168 109.9739 102.8284 111.1961 113.0971 113.2369 114.1912 112.6618 113.8976 116.1927 114.3154 114.7986 115.3163 115.6443 116.0520 116.4448 116.8437 117.2420 117.6442 117.9849 118.3977 118.7662 119.1123 119.4730 119.8113 120.1465 120.4633 120.7815 121.0813 121.4841 121.1545 125.7872 121.6900 122.6431 122.7484 123.7900
114.4500 114.1126 113.7079 113.3645 112.9491 113.2827 107.3036 111.8962 112.6475 112.6672 112.0708 112.5861 113.1576 110.7697 113.7537 114.2922 114.7374 115.1613 115.5770 116.0898 116.4616 116.9073 117.3360 118.5884 118.3378 118.4172 118.9065 119.2653 119.6187 119.9419 120.2597 120.6619 121.4786 121.9397 121.6006 121.7555 122.1524 122.4242 122.4341 126.9300
113.7100 113.4737 113.0359 112.5409 112.2122 112.1926 101.4829 106.7738 108.5932 112.0117 111.8543 111.8270 112.2988 112.0821 113.8622 113.8171 114.1618 114.6598 115.2364 115.6903 116.2565 116.6348 116.8683 116.7651 116.6304 118.2963 118.7132 119.1166 119.1228 119.9009 120.1647 120.5310 120.6630 120.9794 121.4666 121.7811 122.0356 122.2050 122.1562 122.7000
112.8700 112.8611 112.1162 112.2660 111.1499 111.0625 104.4152 99.8015 100.8323 111.1306 110.2222 114.1261 115.3436 106.6213 104.3042 113.6128 113.8725 114.1306 114.6250 112.6390 115.8581 115.9601 117.0201 114.8115 115.0079 117.9897 118.6482 118.9231 121.8857 116.0050 120.3359 120.3713 120.7269 121.0630 121.3206 121.6221 121.9256 122.4872 124.1548 122.6700
112.8700 112.1056 112.0862 109.5890 108.9190 109.9562 110.0312 106.4398 106.8997 109.2876 109.6288 109.3357 109.7855 106.2530 110.6431 112.1457 110.5504 113.7992 114.3253 115.0115 115.6912 120.2168 107.7675 119.2410 118.8882 117.6362 117.8572 117.8252 122.6282 117.7015 120.0247 120.2535 120.5803 120.9187 121.2382 121.5596 121.9880 120.2298 114.7402 122.6100
111.8600 111.3830 110.9645 102.1754 113.3685 110.3835 109.0027 108.0556 108.0283 107.9641 108.2954 109.3933 106.9249 111.6716 111.5447 111.8522 112.5079 113.3344 113.8754 114.4673 115.3693 119.3273 116.0532 111.9442 113.8443 117.7686 120.1126 119.1834 119.0421 119.1927 119.7469 120.1407 120.4916 120.8272 121.1854 121.6297 120.4009 122.9574 105.6138 106.4800
111.0000 110.9917 107.1289 104.1271 110.5629 106.6405 106.2898 106.1275 106.0476 106.3314 106.8677 108.2933 106.9250 109.2100 110.3509 111.2512 111.9222 112.7411 113.4980 114.1128 115.1435 112.2794 119.7043 115.1293 116.8130 117.4443 120.0167 118.5259 118.9454 119.3122 119.6739 120.0517 120.4082 120.7558 120.9845 121.0314 123.8493 132.1027 109.5647 108.5800
110.7800 110.2167 107.8707 105.3245 107.1763 104.4452 105.1228 104.1617 103.9782 104.3962 105.2358 106.3493 107.4083 108.5891 109.6017 110.5729 111.5022 112.3512 113.1456 113.8539 114.6706 114.2686 115.9059 108.4378 118.4969 117.0481 117.7578 118.3402 118.7647 119.1869 119.5874 119.9601 120.3336 120.6965 120.8658 125.0296 108.6999 110.2233 108.3086 109.4400
109.8300 109.5259 108.3510 107.0053 105.7292 104.1431 102.5785 101.4781 101.2118 101.9189 103.2776 104.7916 106.2959 107.6612 108.9109 110.0435 111.0624 111.9905 112.8389 113.6264 114.3406 115.4440 116.9763 112.6867 117.0788 117.3204 117.8015 118.2411 118.6974 119.1189 119.5116 119.9071 120.3640 120.8406 111.3348 121.0282 107.4249 110.1732 117.1923 114.0900
109.6600 109.0396 107.7016 106.1664 104.3522 102.2851 99.9811 97.7752 97.0840 98.6575 101.0023 103.2573 105.2079 106.8787 108.3236 109.5820 110.7023 111.6994 112.5956 113.4221 114.1654 114.9770 115.3727 118.5094 106.2692 118.6041 117.5969 118.1611 118.6309 119.0589 119.4807 119.9524 120.3981 120.8110 117.5695 120.8884 105.2911 107.9043 121.5366 111.7300
109.5300 108.6653 107.1945 105.4456 103.2948 100.5092 96.7993 91.6302 90.2393 93.8473 98.6721 101.8763 104.3273 106.2739 107.8835 109.2506 110.4469 111.4881 112.4340 113.2807 114.0592 114.7756 114.6860 116.4490 117.0109 117.0248 117.6570 118.1323 118.5860 118.9175 119.4501 118.1448 119.7697 127.7855 111.0601 108.8064 109.9689 120.5752 119.9106 114.0000
109.4500 108.4554 106.9109 105.0319 102.6332 99.3275 93.7803 86.6535 85.0866 89.1592 96.8811 100.9688 103.8010 105.9349 107.6467 109.0713 110.3055 111.3759 112.2956 113.1340 114.0237 115.5622 101.8535 117.3783 116.2350 117.1156 117.6294 118.0960 118.6126 118.0566 120.7068 101.1782 122.2796 104.8540 108.3468 111.3817 115.8365 112.9224 114.0164 115.9400
109.4300 108.4514 106.9010 105.0130 102.6203 99.2718 93.4545 86.4229 84.9154 88.9643 96.8098 100.9327 103.7793 105.9208 107.6369 109.0673 110.2987 111.3577 112.6001 113.1101 113.8947 115.1486 108.2121 117.5073 116.4194 117.1136 117.6253 118.1059 118.6018 118.5792 120.1631 113.3505 121.7751 106.9341 113.2987 108.7973 115.2311 113.7538 116.4406 115.9100
109.4500 108.6386 107.1575 105.3913 103.2242 100.3875 96.2861 91.0393 89.7663 93.2724 98.5679 101.7728 104.2604 106.2340 107.8581 109.2359 110.4275 111.4791 111.5997 113.3868 115.0336 114.5635 115.6851 116.3429 116.5490 117.1208 117.6479 118.1255 118.5833 119.0579 119.1994 126.1443 126.1486 112.4968 123.4357 115.2502 119.1713 119.1759 124.5359 113.1600
109.5300 108.9971 107.6465 106.0889 104.2623 102.1495 99.6353 97.2297 96.5044 98.3256 100.7983 103.1357 105.1436 106.8372 108.2841 109.5529 110.6670 111.7152 113.8203 113.8544 107.1556 115.7256 117.0405 116.9088 116.5736 117.2064 117.7000 118.1628 118.6705 119.0320 119.4675 119.1579 119.1698 122.0035 121.6835 122.8892 118.8040 114.4363 122.9471 122.3200
110.6000 109.5035 108.3012 106.9751 105.5174 103.9725 102.3817 101.2131 100.9129 101.6579 103.0841 104.6696 106.1402 107.5717 108.7788 110.0190 111.0622 111.8495 114.5478 117.4054 109.1921 115.8182 105.8870 104.9784 117.5588 117.1838 117.7712 118.2067 118.7887 119.6656 119.8566 119.5454 120.1226 119.6674 126.8983 113.1963 116.0670 108.3360 123.0518 122.3300
110.7900 110.0884 109.0589 107.9568 106.7969 105.6512 104.6398 103.9193 103.7492 104.1804 105.0717 106.1714 107.3797 108.4153 109.9497 110.5428 111.5002 113.5176 116.4879 113.8698 114.9836 115.3833 112.9430 113.4833 116.8514 117.3319 117.8857 118.2710 118.5476 123.0237 112.3429 122.1040 121.1577 122.9761 132.0088 104.6635 121.7830 109.4771 123.8005 122.5300
111.0000 110.7473 109.8619 108.9474 108.0402 107.1852 106.4701 106.0053 105.8998 106.1862 106.7743 107.5507 108.4020 108.9650 112.9765 111.0536 111.6371 112.8302 113.7968 114.0682 114.7730 115.3693 116.0518 116.9608 117.1943 117.5310 117.9936 118.4740 118.8118 120.0333 104.6162 104.6039 113.0061 107.0455 116.3382 103.3224 107.7555 112.9564 116.1451 122.5500
111.8600 111.4040 110.6658 109.9263 109.1932 108.5474 108.0198 107.6997 107.6180 107.8120 108.2211 108.9061 109.4058 109.9750 112.8717 97.3031 111.9320 113.0651 113.8319 114.4862 115.0856 115.6635 116.2018 116.7190 117.2144 117.6874 118.1981 118.7057 119.0429 119.2190 125.9091 125.0438 105.4759 107.6021 123.2425 120.8893 121.9879 121.8872 122.5263 122.5700
112.6600 112.1342 111.3993 110.8479 110.2503 109.7463 109.3554 109.1177 109.0576 109.2111 109.5802 107.8835 110.7378 111.1194 112.3113 112.4816 113.3735 113.6406 114.2599 114.8737 115.4189 115.9443 116.4434 116.9360 117.4101 117.8425 118.3352 120.9974 120.3108 119.4664 120.4716 114.3767 113.6223 124.5199 113.4926 110.2201 122.4270 121.4999 122.5048 122.5900
112.8800 113.4199 112.0598 111.6989 111.2248 110.8226 110.5147 110.3334 110.2903 110.3989 110.7785 110.1929 111.6929 111.9239 112.4700 112.8253 113.4017 114.1703 114.6927 115.1568 115.7221 116.2430 116.7540 117.2042 117.6415 118.0732 118.4869 118.4891 119.0055 119.8659 119.7665 122.6930 118.9579 103.4466 120.3530 108.8746 119.7664 116.5739 121.0110 122.6100
112.2100 113.2980 112.8814 112.5116 112.1262 111.7933 111.5503 111.4067 111.3712 111.4680 111.6399 112.0299 112.2637 112.6953 113.1709 113.6574 114.1491 114.7271 113.5346 118.6306 115.9639 116.5250 116.8779 117.3935 117.8561 118.2724 118.6936 119.1442 119.5450 118.4237 118.1417 110.3441 118.7765 112.0691 115.0404 110.6938 119.4862 112.4394 116.8524 113.7900
114.3500 113.9893 113.6507 113.2780 112.9429 112.6693 112.4806 112.3665 112.3302 112.4277 112.6233 112.5745 113.0772 113.5335 113.8243 114.2519 114.6466 115.4794 112.8240 119.7725 116.0920 116.4695 118.4317 117.9272 118.2005 118.5609 118.8209 118.3030 120.5373 120.2722 113.1299 117.3609 119.0611 107.5494 113.9889 123.4846 110.8153 113.5008 122.1533 113.7900
114.4800 114.6542 114.3061 113.9860 113.7129 113.5194 113.3074 113.2131 113.1925 113.2754 113.4677 112.7785 113.6782 114.1715 114.4628 114.8273 115.2029 115.5729 116.0027 116.2834 116.9036 114.9183 111.6062 119.2877 117.2299 118.5736 119.1504 122.5903 121.1916 129.4574 106.2966 103.7307 111.0357 112.3558 106.5290 122.9626 115.0487 112.7426 119.2386 115.1500
115.2000 115.2389 114.9345 114.6614 114.3642 113.9563 114.0549 114.0215 113.9709 114.1219 114.1728 111.5534 114.4583 114.6916 115.0540 115.4089 115.6800 116.0863 116.4559 116.9189 117.1582 115.2711 99.8724 109.2064 119.6252 119.6777 119.1072 119.4986 125.7613 116.6809 106.5943 108.5625 107.7849 115.4164 119.6799 124.5094 120.8253 116.5507 112.1438 115.1700
116.1900 115.7991 115.5920 115.0723 115.0651 116.5731 115.0531 114.6981 114.7022 114.7725 115.6129 116.7759 114.2946 115.3027 115.6669 115.8499 116.4792 116.6445 116.7706 117.2049 116.7336 118.5557 111.2893 99.8070 111.2642 115.9127 115.9707 125.7404 107.3448 110.6028 105.7853 109.6066 118.0341 120.9485 121.6911 122.2963 123.2626 135.4886 118.5459 108.0500
116.2500 116.3203 116.1288 116.0053 110.1027 103.8273 115.3907 115.3476 115.3507 115.5046 115.4398 118.0093 99.5431 116.1487 116.1884 116.4526 116.2459 112.1305 117.7085 118.0244 120.5705 119.0194 113.0747 102.4304 103.8025 107.6656 116.6767 121.3663 118.2888 104.8850 105.6133 118.3847 121.3404 122.0698 122.0884 122.4905 122.9604 137.1485 110.9648 114.2000
116.8000 116.8289 116.6314 116.5128 115.8218 107.3108 117.0119 115.9530 115.9816 115.9990 116.1297 116.0513 117.4281 117.2594 116.7094 116.8892 116.9835 117.2668 116.4555 119.1446 105.9116 105.5220 116.0328 103.8395 100.6175 107.1137 115.8537 113.5313 123.1485 106.5393 120.9495 108.2439 122.8513 121.9032 122.1391 123.2783 113.1431 111.7366 111.3214 110.2500
117.3100 117.2889 117.1382 116.3660 117.1737 118.5714 116.3999 116.6040 116.5709 116.6051 116.6439 116.7904 116.6740 116.9026 117.2361 117.3726 117.6271 117.5337 119.4171 106.8392 100.1596 105.2024 98.7973 102.6674 111.2557 112.3742 111.6868 121.2956 120.6911 121.1970 117.8422 109.1211 113.9296 123.0782 122.2407 122.6061 124.0969 112.7767 123.8991 123.4600
117.7800 117.8876 117.4548 118.6809 105.9002 113.5063 117.0218 117.1615 117.1136 117.1334 117.1904 117.2655 117.4137 117.5359 117.6996 117.8337 117.9149 118.0069 117.1726 114.5035 111.1660 119.8551 119.4539 112.2167 115.2777 121.0353 122.4505 120.7010 121.0610 121.3192 121.5647 117.5982 114.2500 122.3425 122.5392 122.7291 122.4691 124.5897 123.8668 123.5000
118.2300 117.9324 120.0392 108.0865 118.1234 118.0099 117.5742 117.6342 117.6275 117.6431 117.6850 117.7648 117.8566 117.9813 117.9909 118.5342 119.2539 109.1278 117.2316 114.6792 117.6565 119.2473 119.5619 120.4458 120.8575 119.6475 126.2120 121.2871 121.4403 120.4103 124.2897 126.9585 119.8925 122.3197 122.7065 122.9269 123.3555 124.1820 123.5247 123.7100
118.6400 118.8751 106.8930 110.3445 119.7163 118.0280 118.1180 118.1078 118.1034 118.1212 118.1629 118.2268 118.3233 118.4505 118.5530 118.9241 104.5713 119.7825 109.6613 115.6390 120.0019 119.7705 120.0964 120.2854 120.4126 120.9120 120.8343 120.5666 121.8211 115.8389 109.3080 110.9070 114.8022 123.3985 122.7358 123.0417 123.1143 123.3838 123.7644 123.9600
119.0700 118.8000 99.5400 99.5400 118.6100 118.6100 118.2600 118.3000 118.3000 118.2800 118.6400 118.6100 118.5700 118.8600 118.8000 117.4900 117.4900 113.7100 104.6600 119.7000 119.9600 120.1300 120.3800 120.3400 120.7600 120.9600 121.1400 121.3600 121.5900 121.7400 100.1100 115.2000 108.1600 122.6500 122.9900 123.1600 123.3300 123.4900 123.8100 123.9600
