110.7600 110.0200 108.3400 107.3700 107.6400 105.3800 105.3800 103.8300 103.8900 103.8100 105.3400 106.3700 107.5900 108.3500 109.2200 110.7800 111.5000 114.6000 92.9000 92.1100 96.3000 117.7300 117.2500 105.4700 106.4700 111.5500 116.4300 101.8200 98.2700 99.1300 100.3800 103.0000 105.7600 111.9100 112.4500 112.9800 114.1300 114.7100 114.9900 115.6300
110.7600 109.7300 105.6218 106.6309 105.9893 104.7062 103.4231 102.4729 102.2326 102.8398 103.9830 105.3309 106.6816 107.9693 109.1291 109.8343 108.2745 113.4442 96.1514 110.7695 100.3320 108.6088 107.9961 100.6558 102.7805 112.2749 112.7147 108.5101 97.5617 98.6351 100.8391 103.9587 103.8002 111.2257 111.7166 112.4782 113.2793 115.6002 115.0709 115.6300
109.6400 109.1819 108.9336 107.0906 104.7551 102.9189 100.9094 99.3130 98.7893 99.9437 101.8249 103.7908 105.5736 107.1518 108.4383 109.4955 111.9379 106.3849 99.4060 108.2331 91.3036 97.9979 102.6628 97.3411 99.8230 113.8893 107.9129 103.6692 97.8068 98.9823 101.8672 103.0337 110.9849 114.2561 113.2475 114.8559 116.0643 107.5325 110.9443 100.3300
109.5200 108.7714 107.1762 105.5579 103.6164 101.0792 97.9952 93.8968 92.6337 95.6851 99.4802 102.3182 104.5991 106.4614 108.0274 109.7947 116.0992 105.4192 105.6644 106.9704 102.5079 101.7359 97.2467 104.4618 106.7149 118.2768 99.8033 99.8192 99.6384 98.8319 101.4575 107.2899 108.0280 108.8134 108.5766 109.6011 112.2520 109.2654 101.5553 100.3200
109.4500 108.5049 106.9941 105.1371 102.8119 99.6129 94.5410 88.0368 86.6140 90.4896 97.4626 101.2025 103.9390 106.0066 107.3036 108.6146 109.3251 112.1670 111.9846 114.4921 100.0362 96.2370 94.5408 98.1595 103.5889 104.1407 100.1448 105.9840 102.9094 105.7336 105.5331 108.1227 105.9789 107.6111 108.1258 109.3696 110.9289 103.4385 99.5030 100.3100
109.4300 108.4245 106.8655 104.9620 102.5387 99.1267 93.1388 85.9077 84.3974 88.4744 96.6410 100.8245 103.6719 106.2577 108.9690 110.5193 111.7955 112.5320 114.0763 112.9245 97.3179 94.9035 93.5011 97.4989 100.1445 103.9700 99.8735 107.6139 105.8237 107.4485 105.6819 107.7385 107.2061 108.3958 109.7696 110.8405 114.1204 102.9342 100.7322 100.3100
109.4600 108.5431 107.0365 105.2165 102.9365 99.8805 95.3751 89.1793 87.7047 91.4394 97.8216 101.3889 103.6801 109.6073 86.6539 87.7051 88.7914 89.9625 90.9097 91.7394 100.1735 95.6865 97.7269 98.1316 100.8247 105.9590 102.8751 97.0597 96.8216 98.7738 104.4589 114.0795 110.0394 115.1517 104.2009 114.6399 98.0698 100.0095 100.0602 100.3100
109.5500 108.8544 107.4524 105.8142 103.8641 101.5097 98.4981 95.0514 94.1636 96.8693 99.9853 102.6099 105.0796 102.5514 89.8662 87.9570 88.6288 93.2058 92.3550 93.0311 94.7907 100.6674 102.2368 104.1768 105.7449 98.5752 98.4893 96.6521 96.4723 100.3022 101.2074 112.2273 110.9846 108.8345 112.8467 116.7496 112.2624 112.3123 111.7476 100.3100
109.6800 109.3054 108.0592 106.6500 105.0637 103.3398 101.4908 100.1269 99.6764 100.6503 102.3356 104.1125 105.7823 109.0688 107.7411 88.8427 92.9815 88.5910 94.7182 93.6756 95.5603 100.4277 104.5524 106.6887 97.1535 101.5648 97.2814 97.1316 97.3819 110.8922 108.3527 111.8912 112.8797 103.9652 109.8144 112.1992 109.2901 101.3512 118.4780 116.7700
110.6200 109.8772 108.7849 107.6100 106.3570 105.1065 103.9101 103.0589 102.8396 103.3630 104.4720 105.7043 107.4607 108.5857 117.9057 98.7837 100.4805 92.8094 95.3571 93.5444 98.5645 107.6532 102.7183 103.2465 110.0362 93.6920 94.9709 97.3242 98.7413 108.1812 111.4872 109.4287 113.0723 108.4643 112.4758 107.9448 109.3216 117.7420 118.3512 116.8600
111.6800 110.5080 109.5797 108.6063 107.6119 106.6787 105.8698 105.3399 105.2667 105.5405 105.3885 109.8401 107.7315 114.1997 111.0028 96.5506 97.7248 100.5306 103.2247 100.9131 96.8339 110.7301 104.6419 94.6296 94.2357 96.4850 97.9080 99.5519 97.9154 102.7753 110.5580 110.6282 112.9167 113.9062 114.4703 115.3532 116.3926 116.7611 108.3871 116.8600
111.6800 111.1808 110.3872 109.5822 108.7944 108.0884 107.5125 107.1446 106.9641 107.2529 108.9745 114.6651 106.6154 112.8646 103.4571 95.2699 97.2884 96.0117 106.9675 100.1115 100.7465 104.6657 106.2693 96.2324 104.2001 104.6649 106.1987 102.9060 101.6008 110.4216 111.7592 113.6757 109.8173 113.0473 114.1020 114.8024 115.3240 116.2619 110.5114 117.1500
112.6800 111.8586 111.1799 110.5177 109.8943 109.3468 108.9200 108.6264 108.4389 108.9660 98.1102 104.6809 98.0429 105.3775 105.3347 101.8460 100.7618 92.7989 105.5957 104.5381 105.8835 110.0063 109.9709 95.3931 99.4703 105.7745 107.4483 106.3598 104.4580 112.4844 112.1924 107.0981 108.4152 113.1983 114.3159 114.8837 115.2628 117.0762 113.7495 117.2500
112.7600 112.5417 111.9579 111.4128 110.9021 110.4648 110.1374 109.9007 109.3814 114.6960 89.4656 97.2405 93.6699 91.0237 99.4903 98.4886 101.4132 99.5234 98.1430 99.8119 106.6956 103.1036 96.5961 94.4989 102.7253 110.6746 109.3022 108.2795 111.8145 100.2425 101.7994 111.9830 112.0729 109.2892 114.3366 114.7535 116.9790 110.0932 109.7403 100.6200
113.6200 113.1964 112.7107 112.2413 111.8244 111.4676 111.2162 111.0302 110.5670 112.3895 93.3730 88.6313 97.0019 92.7474 95.7131 103.7125 102.0360 96.0445 101.8652 98.4576 101.3612 102.9628 93.5695 96.9938 99.6634 109.6707 103.3412 111.8228 104.6298 109.2856 94.0629 108.3954 112.6781 112.4869 114.5048 115.1484 103.8181 108.2106 101.4577 100.6400
114.2900 113.8029 113.4040 113.0260 112.6685 112.3768 112.1366 111.8675 112.8040 102.1198 95.2036 89.1088 95.3822 94.8779 97.3087 101.5023 103.5902 102.7646 112.0328 105.9139 101.9223 104.7030 101.3933 99.6800 102.8891 112.3831 112.4610 115.0919 114.0108 115.9565 117.6136 111.8642 112.3175 113.9646 108.9575 115.6875 116.2742 102.1467 99.9840 100.8600
115.0400 114.7777 114.0675 113.7487 113.4655 113.1830 112.8531 115.0266 115.1154 104.3549 103.1170 109.9627 107.8876 99.4833 101.9652 106.9259 102.1240 98.6563 105.3863 106.8422 107.9777 103.1978 106.1687 99.0617 107.4056 112.4501 113.3355 108.0308 109.2782 117.0991 110.4693 110.6544 109.9256 113.3577 114.9936 101.5616 100.3001 100.4428 100.9927 117.3600
115.0400 115.2187 114.6728 114.4283 114.2557 113.6915 111.0775 110.4494 115.0156 104.1991 96.0268 105.6859 103.8600 100.3261 104.1121 103.6021 102.6898 104.3564 104.4677 107.5445 107.9903 109.8652 107.4122 96.6019 97.5301 104.4770 113.2948 114.4055 113.5968 109.9461 110.3464 114.2989 109.6319 109.1541 98.2541 100.2961 106.0360 100.4711 100.2508 100.9200
103.1200 115.8289 115.2710 115.0679 114.9682 114.3371 105.8753 93.5167 95.8890 116.4059 98.9931 97.6669 97.9861 102.3430 107.1136 105.1491 101.3835 100.2219 106.2932 107.3984 108.3218 107.4430 105.5205 107.5553 111.1351 107.4612 112.5115 112.3691 114.2217 114.0872 111.3132 110.0693 108.9325 99.9470 99.8876 99.9655 99.9591 100.9592 101.6864 101.1400
103.1200 115.8219 115.8580 115.6924 115.5499 115.0390 109.2353 95.5352 95.7613 95.9793 99.4031 103.1324 104.5112 107.1232 104.8993 104.3221 104.9614 109.6030 108.0606 107.7796 108.4427 110.9856 98.1612 95.5083 111.9241 107.3790 107.9557 111.4370 109.2625 113.3302 115.1062 117.3742 105.5470 104.1794 109.0513 99.6596 100.4889 101.2130 103.7316 101.1700
116.8000 116.9142 116.6176 116.1002 115.8088 116.4650 98.4837 98.7473 93.6128 93.6814 97.9859 104.2540 102.4795 105.5707 106.6256 102.9224 109.4331 110.6107 102.8764 105.8950 112.3564 101.7659 98.5727 100.6534 111.9989 102.4971 108.2898 111.6736 112.0999 111.8887 111.3881 113.8732 102.1439 102.5272 114.4023 99.9097 104.6094 100.5342 102.5129 104.0100
117.3100 117.3485 116.3876 117.1432 109.5340 119.4703 100.1969 100.2458 96.1472 105.8317 98.1895 106.3508 100.9896 101.0861 108.8181 105.6740 105.4107 107.0439 97.4489 110.7317 97.1657 96.9600 110.5225 112.5285 107.0962 111.7365 111.7329 113.9457 117.2584 111.7040 103.0971 104.9913 114.2620 108.5949 96.2903 99.3551 101.6299 101.8434 103.5808 104.0200
117.7800 107.5991 119.7880 116.9237 102.5991 120.1838 94.2421 98.9676 98.6659 98.0762 97.6704 106.4189 102.9450 107.1894 107.5219 108.0013 105.2791 106.4233 103.6910 113.0271 100.8857 96.3723 99.8553 101.8130 111.4096 111.7454 114.6942 115.2665 115.1571 115.3222 96.5008 95.5523 100.7966 105.3076 110.6607 104.0226 101.6893 103.2768 103.4555 101.6900
118.2300 101.8256 105.6835 118.1545 106.8184 112.6266 101.7554 100.4692 99.4540 100.5657 100.1695 106.3876 106.6557 104.9418 107.8276 109.7560 107.4034 107.0168 96.1295 111.8008 111.3944 111.4288 107.1547 112.3746 112.8779 113.6652 115.0282 115.7600 115.3657 113.9506 114.6705 119.4703 120.6747 96.8698 102.8636 100.5710 102.2640 103.8975 104.1808 104.2900
96.6600 120.8101 118.0383 118.8766 119.4027 99.8395 110.8383 103.2361 102.5234 102.5496 100.9291 106.9838 108.4524 115.2333 108.8606 103.7410 110.2098 108.0223 98.7506 110.4965 111.5457 111.7364 113.2410 114.2115 114.2347 114.6648 115.4702 116.3020 116.1103 118.6317 101.9472 115.6716 105.3698 111.6525 101.8236 102.8823 103.7564 104.2717 104.6503 104.7500
119.0400 119.0795 118.4734 118.5347 118.8491 111.7719 111.0338 103.6748 104.5533 105.0133 105.4622 108.3895 109.5398 106.8780 111.7232 112.2472 112.1233 106.8310 108.6411 110.7029 111.3813 112.4289 113.7683 114.2843 115.1907 114.9308 116.1553 116.8083 118.0941 123.8515 104.3422 110.8403 100.0218 101.1290 100.2599 103.8627 104.5450 104.7217 104.7950 105.2100
119.4500 119.1581 119.1983 119.1643 120.0625 112.8758 115.5279 105.8744 106.4870 107.0175 109.1721 106.5579 110.3718 109.7727 111.5980 110.8439 112.5881 111.8321 110.4301 110.5691 112.4266 113.7926 114.4824 114.6978 115.3132 117.9859 119.0549 116.6118 117.4193 117.8013 107.9669 105.4099 99.4271 102.3627 101.2441 100.9999 104.2898 105.3763 105.8454 104.8000
119.8200 120.6480 119.5724 119.4531 121.0527 107.7985 117.2238 110.2322 109.5968 106.9174 110.7979 108.6583 112.3819 110.4190 109.4329 112.0451 112.0038 112.6188 111.3705 113.2827 102.6970 113.9231 114.5063 115.8580 116.0618 116.6919 108.7628 112.5997 118.7579 119.0701 104.8162 99.5740 106.5974 110.4802 100.0298 101.6297 104.7656 103.1554 105.8113 107.0700
120.1800 112.0057 120.5641 119.8545 120.1206 118.7452 116.3542 109.3926 110.5207 110.3938 110.9979 109.2784 113.7869 117.6131 99.7835 111.9060 113.0615 114.2060 114.1818 112.4171 115.3312 115.7078 115.2501 116.2808 116.5517 117.2242 106.1521 121.5991 112.0926 115.8030 114.5641 100.5880 97.9380 102.1913 102.8587 102.6224 101.4106 107.6874 106.8453 107.0700
121.9600 100.0352 122.3624 120.1928 120.2308 119.9901 116.8438 112.7614 113.5042 110.8720 112.7505 111.2969 115.2025 112.8855 120.2008 112.3278 114.0502 114.1451 112.5822 113.3108 113.4894 115.3457 116.4716 116.1261 116.1369 117.4238 122.3619 124.1560 103.0756 107.9057 117.2501 100.5326 101.0854 102.2535 103.2610 102.9178 103.3005 102.4887 103.9870 103.5000
101.0600 112.7759 122.0886 120.2987 120.2020 120.3159 118.7678 103.0731 104.9519 112.5280 110.1843 110.1292 113.8426 113.9374 120.3360 114.9120 114.5313 109.9139 109.7964 116.4644 115.9922 115.1517 113.9773 118.3839 117.1719 119.2863 122.9574 112.5378 116.7100 108.7022 106.7911 100.9507 101.5861 101.0812 103.2624 103.7870 104.7143 103.9237 103.5346 103.8000
100.7900 122.2665 120.4578 122.4132 123.0471 120.8530 117.5568 100.3101 97.0130 109.9968 112.8579 110.5275 112.7331 115.2470 118.4188 115.3239 114.6671 106.6634 104.8129 104.2807 116.9179 109.1865 104.3363 111.2688 118.5805 117.7564 120.1437 121.2148 100.7005 102.6311 103.0012 101.2428 101.0651 105.3950 102.5957 101.1525 103.0371 104.7256 105.5663 106.0600
121.4500 121.1622 123.0395 104.5323 113.6021 115.2510 104.4030 112.1475 113.7448 113.7091 110.7688 107.0194 105.4021 116.8880 116.5579 118.3510 115.6973 119.1458 100.8600 100.2001 115.7867 118.8518 103.9356 99.2749 117.6826 121.5993 114.0709 110.6915 98.9865 101.1368 101.4068 101.4927 101.0418 119.8989 119.2623 123.6081 108.8043 111.9772 106.7623 106.0900
121.7400 121.5970 121.9416 121.7880 99.3650 101.6735 107.5858 113.8951 114.7078 116.6110 102.2876 98.5530 109.0914 109.6486 115.9402 105.7373 117.1022 115.4819 100.3229 100.2634 116.4039 105.2826 107.2101 101.6983 100.1052 116.1823 106.1226 101.8799 101.7224 101.3826 101.6136 102.6267 102.1079 116.8796 124.8572 105.3254 105.2591 107.1673 102.8580 106.8700
122.0300 121.9397 113.5991 101.4225 111.8623 107.5197 103.8929 112.9464 115.0740 115.9949 110.7587 103.7077 110.1375 110.6064 114.5726 104.3827 117.3465 116.0990 113.2902 100.5778 100.9139 105.2973 104.4494 99.4951 102.9140 100.3259 101.3900 101.2290 101.5098 101.7001 101.8095 101.8939 102.0637 100.5045 106.5799 109.9406 101.9097 103.1459 103.2697 107.0700
122.3000 122.9592 125.2922 107.1973 99.3291 107.7113 106.4032 112.8631 115.4567 117.5046 102.8797 97.9631 109.4134 110.6000 107.2913 114.3227 116.8190 114.1013 123.1019 98.2159 100.9352 100.4406 100.5247 100.3071 109.8334 118.0197 121.2231 109.0422 101.8917 101.9205 102.3216 104.2300 103.2979 104.9552 105.4794 122.0619 106.3865 102.9948 102.7899 107.1000
102.3800 116.4639 103.1072 122.1665 98.0368 99.7806 103.8475 114.8696 117.5127 117.5580 115.6052 98.2384 110.5001 110.1986 109.5053 111.4937 115.6273 116.4142 105.5711 103.6834 101.5297 101.8002 101.2357 100.4805 116.0753 121.4777 120.7258 124.6932 123.2616 111.7495 106.8720 110.5227 103.5858 101.6139 122.7425 124.7977 123.3181 102.3108 104.6004 103.4200
109.0500 100.9512 104.9122 98.3311 101.1471 100.1973 103.4191 111.2358 111.3049 113.7815 109.8044 110.2981 110.3445 110.8935 111.1120 106.8285 118.3779 119.8348 116.0364 109.7932 104.5928 101.7193 106.9444 100.8580 117.1014 121.5943 122.3572 122.5651 122.9826 120.4427 109.5618 106.3417 103.5493 105.6299 128.3134 109.9223 127.8939 104.8358 104.9024 103.6000
102.6800 106.3122 107.4457 101.9244 101.1019 100.8808 107.4177 107.6693 108.7776 112.0371 110.5783 108.7541 105.7134 111.9226 111.1934 109.5729 109.7774 111.2598 116.2572 99.0908 103.0587 103.9328 117.0530 100.1803 117.9978 122.2788 122.7691 123.0498 123.8029 124.7995 111.0494 113.7706 103.9497 108.7151 122.0238 127.5859 124.9623 117.0453 131.5286 126.8500
107.6300 107.6000 107.9500 101.1700 101.1800 101.2000 104.9200 111.6500 111.6500 111.9800 111.6300 101.2000 101.1800 111.8500 112.4900 112.4900 102.4100 104.1700 112.2600 111.5700 101.5600 122.6500 104.2500 101.9700 101.9700 121.8900 122.8700 123.4400 123.8500 124.4400 113.3600 102.8800 105.0900 125.1000 104.9100 125.6600 125.9700 125.9400 131.9400 126.8500
