120.6100 120.6500 120.6800 120.4200 120.4600 120.4700 120.4800 120.4900 120.4800 120.4600 120.4400 106.0400 120.6800 120.6500 120.8400 120.8400 121.0500 121.2500 121.1900 121.3700 121.6000 121.7600 121.7600 122.1300 122.1300 122.2600 122.4700 122.6000 122.7900 122.9300 123.2800 123.4100 123.5700 123.7200 123.8900 124.0200 124.3100 124.4600 124.6100 124.7400
120.6100 120.4084 120.3061 120.3083 119.9831 120.1700 120.1722 120.1350 120.2923 120.4461 116.9394 120.1677 120.1204 120.2649 120.5323 120.6044 120.9386 121.0923 120.8426 121.2094 121.3278 121.4927 121.6598 121.8224 121.9910 122.1823 124.4978 120.7964 122.8116 122.9040 123.0846 123.2719 123.4548 123.6360 123.8365 123.5396 124.1226 124.1265 124.5471 124.7400
120.2800 120.0527 119.9630 119.8839 119.8904 119.7805 119.3925 119.8889 113.2511 116.9937 119.9464 114.0891 119.4371 120.4156 120.2022 120.3433 116.6082 120.7648 121.6461 120.8557 121.0478 121.2200 121.3871 121.5663 121.7941 121.8591 124.5805 122.0051 122.8200 122.6853 122.8948 123.0864 123.2842 123.4539 123.6635 124.4138 124.5934 124.5423 124.4401 124.4900
119.9300 119.6779 119.5871 119.5049 119.4887 119.3312 117.7691 117.5358 123.2389 106.5219 118.0905 106.9275 109.9185 120.3914 119.7983 120.3471 119.7843 120.0539 120.0570 120.5995 120.7506 120.9348 121.1167 121.3129 121.4982 121.5171 123.4890 122.3239 122.3378 122.5007 122.7046 122.9009 123.1051 123.3212 123.3238 124.3856 115.4901 123.8367 124.2917 124.4900
119.2000 119.2921 119.1933 119.1096 119.0725 118.9130 116.4829 111.2340 115.7987 104.9187 118.3772 123.0473 119.8997 119.4969 119.5004 119.5969 119.8064 119.8842 120.1414 120.2805 120.4498 120.6427 120.8431 121.0468 121.2465 121.4888 121.6501 121.6627 122.1392 122.3000 122.5143 122.7183 122.9296 123.1297 123.2906 123.8041 125.4591 123.8613 124.7164 124.2500
118.8000 118.8895 118.7763 118.6864 118.6469 118.4440 118.6193 114.9837 123.5832 116.9544 117.3380 113.1321 116.9927 115.5009 119.1600 119.2661 119.3830 119.5605 119.7487 119.9427 120.1469 120.3526 120.5675 120.7823 121.0022 121.2116 121.4615 121.6646 121.8886 122.1027 122.3221 122.5389 122.7594 122.9721 123.1905 123.3894 123.5674 123.7951 124.0788 124.0500
118.3900 118.4665 118.3449 118.2489 118.1958 118.0923 115.4876 114.0334 115.3027 118.6197 108.7064 113.1407 120.2968 123.7249 118.3500 118.8515 119.0189 119.2097 119.4114 119.6194 119.8313 120.0543 120.2854 120.5141 120.7417 120.9792 121.2121 121.4456 121.6698 121.9018 122.1321 122.3559 122.5851 122.8050 123.0320 123.2436 123.4532 123.6705 123.8757 124.0000
117.9500 118.0350 117.8983 117.7824 117.7441 117.4699 114.0354 107.2121 111.7316 118.8329 120.0058 116.0490 117.2770 118.0618 118.4350 118.4308 118.6309 118.8404 119.0612 119.2814 119.5178 119.7498 119.9921 120.2395 120.4844 120.7327 120.9776 121.2206 121.4641 121.7091 121.9468 122.1867 122.4186 122.6482 122.8759 123.1026 123.3243 123.5326 123.7475 123.9500
117.4900 117.5671 117.4046 117.2910 117.2885 116.9591 113.3816 107.3502 105.3992 117.7929 117.0007 117.4148 117.5257 117.6601 117.7413 118.0514 118.2274 118.4587 118.6950 118.8927 119.1937 119.3877 119.7452 119.9584 120.2589 120.4990 120.7462 121.0187 121.2721 121.5120 121.7633 122.0067 122.2530 122.4940 122.7312 122.9538 123.1825 123.4644 123.6726 123.7500
117.0100 117.0930 116.9691 116.7496 116.5542 116.3676 112.5606 105.4834 106.3934 117.6660 116.8479 116.4805 116.9564 117.2874 117.3859 117.5731 117.6879 118.0631 118.3359 118.5978 119.3444 119.1740 119.2334 119.5212 119.9122 120.2203 120.5306 120.6994 120.9926 121.3130 121.5728 121.8282 122.0837 122.3357 122.5762 122.8396 123.0602 122.9994 124.5446 123.7000
116.9700 116.5801 116.2047 116.4855 117.0804 116.4627 112.6735 106.6491 106.5695 116.6879 116.1249 117.6109 115.7708 109.9733 116.9459 117.5161 118.1856 117.7740 117.9100 118.2105 117.7482 115.3884 119.3520 121.3828 120.3827 120.0293 120.2528 121.2463 121.4672 121.1159 121.4218 121.6914 121.9266 122.1781 122.4734 122.4506 122.8728 124.4702 126.1814 123.6500
116.4700 116.0454 116.4317 114.1110 110.9309 108.6803 116.0464 115.8999 115.4640 115.4211 115.4173 117.1174 115.5734 115.9403 115.9777 114.8589 114.5025 111.3723 120.1716 117.0237 119.6148 108.3990 118.4617 111.9134 118.7045 119.6108 120.1744 121.3278 121.1149 120.9237 121.1082 121.4110 121.7802 122.0443 122.1510 124.7410 122.7449 115.4853 112.3964 123.4100
115.9400 115.4975 115.2238 105.5477 110.8232 118.0672 114.6856 114.3865 114.6236 114.7941 114.9388 114.9887 120.9293 115.1964 115.2736 119.2522 116.7668 117.9314 118.2496 116.8868 119.5857 114.9722 121.2913 114.7096 121.0665 119.5118 119.3068 119.8405 120.3921 120.7912 121.6760 122.0266 121.5388 121.9039 121.9778 124.1510 123.3741 125.8896 110.3325 112.0000
115.3400 114.6139 107.2514 109.3263 106.1454 111.2326 113.9392 113.9701 113.9831 114.0773 114.2222 114.5327 114.0915 114.9564 115.4791 115.6334 115.9081 116.0518 116.9536 117.1200 117.2280 116.9031 119.1793 118.6178 119.2089 119.2915 119.4552 119.9335 120.3904 120.1804 118.2243 119.2326 121.4470 121.8066 122.0567 122.4790 117.1504 124.2264 114.2191 130.3100
114.7000 114.3327 108.8436 118.9953 110.2415 113.7108 113.5222 113.1179 113.1835 113.3207 113.5143 113.7620 114.1728 114.4046 114.7662 115.1452 115.6732 115.8811 114.1385 117.0312 117.1880 117.5143 118.5511 112.5305 118.3511 118.8710 119.4737 119.7646 119.9094 123.8088 120.1451 121.0688 121.2732 121.5813 122.3233 122.1643 120.7183 122.3594 123.1393 117.3100
113.9400 113.7567 112.4309 119.2201 112.7608 112.2929 112.2156 112.2526 112.3277 112.4871 112.7162 113.0208 113.3607 113.7651 114.1767 114.6341 115.0575 115.4941 115.9589 116.3807 116.8669 117.0900 118.1880 111.7828 119.2820 118.8533 119.2384 119.5688 119.9325 120.5595 120.5995 120.9399 121.2749 121.6800 123.3289 123.3856 122.4451 122.6304 122.9067 123.0900
113.2200 112.8577 112.4381 111.4650 111.4843 111.5361 111.3733 111.2989 111.3788 111.5684 111.8565 112.2185 112.6345 113.0898 113.5799 114.0740 114.5797 115.0816 115.5623 116.0182 116.5163 116.9568 117.4240 118.6192 109.8758 119.5815 118.9837 119.3997 119.8125 120.1194 120.4907 120.8010 121.2628 121.9270 121.5258 121.6835 121.9732 122.6076 122.8049 123.0500
112.3600 112.1686 111.6485 111.1724 110.7905 110.4133 110.2426 110.2017 110.3153 110.5464 110.9056 111.3575 111.8451 112.3872 112.9509 113.5214 114.0850 114.6370 115.1766 115.7193 116.2285 116.6793 117.1290 117.8399 118.2647 118.3797 118.8720 119.2557 119.6081 120.5805 120.3130 120.2727 118.7750 123.6684 109.8157 111.5685 110.9892 123.0227 119.6695 116.7900
111.3800 111.3072 110.7811 110.1848 109.6544 109.2695 109.0188 108.9614 109.0959 109.4109 109.8697 110.2739 111.0293 111.6573 112.3231 112.9579 113.5922 114.2060 114.6949 115.4337 115.7660 116.4625 113.6403 117.4533 117.8000 118.2809 118.6896 119.1907 119.6985 121.6675 120.0266 120.7699 112.5902 108.0058 112.6320 113.9436 118.7625 122.3601 122.8731 122.8200
111.3800 111.9473 109.8277 109.1169 108.4540 107.9200 107.5818 107.5063 107.6879 108.1134 108.7174 109.5384 110.4347 110.9790 111.6553 112.4189 113.1183 113.7700 114.7828 117.7909 115.3257 116.0496 110.9693 117.3602 117.7285 118.1176 118.5519 118.9977 119.0906 119.5456 119.4108 131.0236 120.9322 123.4414 122.4502 122.9892 122.7320 122.2589 122.5043 122.7900
110.1800 109.8061 108.8293 107.9658 107.0836 106.3470 105.8723 105.7538 106.0271 106.6256 107.4220 108.3689 106.3952 110.1065 111.0022 111.8933 112.6488 113.5389 115.7403 123.2950 114.8361 116.7363 117.5291 116.9872 117.4946 117.9697 118.4275 118.8506 119.3264 119.7561 119.6075 117.7957 120.8552 120.5517 121.0330 121.6592 121.5597 122.8173 122.5482 122.7500
110.1800 109.0378 107.9100 106.7228 105.5510 104.5033 103.7506 103.5640 103.9915 104.8924 106.0262 107.1667 108.5670 109.6033 110.4702 111.4000 112.2295 112.8990 117.9636 114.7235 115.3094 115.6362 116.1624 116.8806 117.3788 117.8629 118.3120 118.7476 119.1528 119.2937 119.6183 120.5387 120.5848 120.6235 122.8472 116.3959 122.9894 116.3413 122.9938 122.7300
108.9000 108.2721 106.9317 105.4433 103.8358 102.2355 100.9937 100.6471 101.4026 102.8685 104.4963 106.0472 107.4417 108.7234 109.9252 110.9676 111.9198 112.6798 115.0452 113.9757 114.9384 115.6242 116.2072 116.7376 117.2674 117.7545 118.2277 118.6514 119.0568 121.3942 121.0850 121.0102 120.7969 122.3892 133.5254 108.7416 121.7158 113.2438 123.0032 122.7200
108.7200 107.6595 106.0622 104.2173 102.0323 99.5497 96.9712 96.0312 97.9540 100.5260 102.9540 104.9912 106.7266 108.2096 109.4915 110.6211 111.6315 112.4836 113.2447 114.1977 114.8335 115.4697 116.0760 116.6508 117.1779 117.6784 118.1603 118.5862 118.9447 121.4605 108.1138 120.7762 120.5860 121.0977 123.0992 120.0036 122.2577 121.6070 122.8050 122.7100
108.5900 107.0411 105.3964 103.2122 100.3211 96.3546 90.6341 89.2210 92.5907 98.2743 101.6013 104.1514 106.1545 107.7889 109.1805 110.3829 111.4423 112.3973 113.2511 114.0119 114.7356 115.3960 116.0092 116.5850 117.1253 117.6293 118.1132 118.5600 118.9564 119.1137 122.7287 130.2612 113.1202 111.8067 111.2712 114.2429 120.9022 121.1323 119.3230 122.7000
107.5000 106.9212 105.0479 102.6621 99.3292 93.6765 86.1972 84.4296 88.5752 96.6251 100.8120 103.7004 105.8582 107.5883 109.0261 110.2653 111.3463 112.3080 113.1771 113.9688 114.6887 115.3553 115.9749 116.5524 117.0947 117.6093 118.0929 118.5454 118.9771 119.2473 119.8630 125.3050 112.9249 111.2799 108.1137 114.6752 122.2528 122.2149 122.4340 122.7000
107.5000 106.9644 105.1004 102.7531 99.4773 94.1154 87.3078 85.6498 89.3105 96.9545 100.9327 103.7707 105.9042 107.6135 109.0503 110.2877 111.3665 112.3147 113.1144 113.8122 114.7497 115.3532 115.9372 116.5609 117.1015 117.6163 118.0886 118.5527 118.9992 119.4766 120.1429 122.6574 113.6959 110.4198 111.0883 113.9402 121.4598 122.0925 122.3801 122.6900
108.5800 107.2692 105.5499 103.4355 100.8008 96.6150 92.1479 90.7865 94.1578 98.8838 101.9100 104.3355 106.2733 107.8824 109.2474 110.4355 111.4854 112.4695 113.4333 115.4260 114.1913 115.3377 116.5068 116.5708 117.1383 117.6427 118.1221 118.5954 118.8685 119.3723 120.0593 118.3293 120.7466 119.6315 122.0656 122.3235 121.8872 122.3866 122.4461 122.6900
108.7000 107.7873 106.2780 104.5186 102.5042 100.2696 98.2422 97.5038 99.0227 101.1325 103.3550 105.2543 106.9049 108.3426 109.5960 110.7015 111.7038 112.8216 111.0359 119.2068 114.9643 115.7329 111.7083 116.7558 117.1681 117.6924 118.1741 118.5617 119.5873 122.1357 118.3781 112.7757 116.2472 115.7900 121.0354 121.4599 122.5873 120.2046 122.4124 122.7000
109.9300 108.4626 107.1780 105.7755 104.3136 102.8660 101.7432 101.4530 102.1142 103.4261 104.8982 106.3536 107.7101 108.9457 110.0605 111.0726 112.0101 112.9731 110.5389 114.0597 114.9780 115.8677 115.1120 117.1397 117.1026 117.8239 118.2777 118.6906 120.0009 124.4531 120.5895 106.2254 105.8842 110.1179 117.2345 121.1826 117.8460 118.3764 121.5479 122.7000
109.9300 109.2187 108.1483 107.0522 105.9714 104.9985 104.3289 104.1538 104.5481 105.3542 106.3937 107.4869 108.5866 109.6311 110.6113 111.5170 112.3643 113.1163 114.3297 114.8921 115.2539 115.2200 116.3587 114.1607 117.2894 117.7418 118.4051 119.0306 112.0274 115.5118 112.4586 114.9307 111.0099 117.2722 116.3637 119.1824 116.9981 112.7184 122.6433 117.0400
110.1600 110.0198 109.1374 108.2734 107.4507 106.7681 106.3280 106.2238 106.4709 107.0255 107.7652 108.6130 109.4902 110.3713 111.2138 112.0149 112.7862 113.5061 114.1444 114.7788 115.5621 115.7664 119.5539 122.2809 117.0696 118.6632 118.1751 118.9016 117.5206 114.6420 105.2497 113.9746 117.7862 121.7413 122.3007 122.0297 121.6652 124.7807 123.4812 109.4800
111.3600 110.8188 110.0836 109.3890 108.7768 108.2729 107.9579 107.8934 108.0585 108.4549 109.0104 109.6724 110.3838 111.1171 111.8475 112.5650 113.2587 113.9200 114.5327 115.1296 115.6900 115.8912 125.0890 132.9243 115.4231 107.4798 120.3475 118.9418 119.8122 120.6059 111.1680 109.8012 121.5572 121.0639 121.3129 121.7191 121.5811 134.9836 132.1806 123.0700
112.2500 111.6031 111.0023 110.4382 109.9506 109.5709 109.3441 109.2899 109.4122 109.7106 110.1318 110.6649 111.2442 111.8516 112.4960 113.0360 113.7204 114.1981 114.9104 115.4635 115.9558 116.5161 116.2337 119.4071 104.1660 111.0629 110.2152 119.1110 119.0920 119.9607 119.6758 118.9514 121.0614 121.2780 121.5585 121.6882 123.3967 116.5888 124.4740 119.6700
113.1200 112.3620 111.8613 111.4007 111.0110 110.7099 110.5320 110.4888 110.5858 110.8142 111.1531 111.5769 112.0570 112.5746 113.0744 113.9741 113.7793 114.9005 115.2906 115.8238 116.3425 116.7564 128.1360 110.3424 110.4031 113.8419 110.1831 109.5195 119.2743 115.3376 120.9144 120.7643 120.9992 121.3524 121.6390 121.9785 122.1239 118.6761 111.2641 122.9900
113.1200 113.0866 112.6583 112.2754 111.9596 111.7243 111.5766 111.5485 111.6270 111.8066 112.0813 112.4268 112.8310 113.2683 113.7388 114.3166 114.4222 115.6451 115.8136 115.7568 116.1456 116.6154 116.8042 117.7922 118.7837 119.0866 119.5897 119.7978 119.8978 120.0314 120.4524 120.9666 121.1675 121.4325 121.7420 121.9675 122.0552 127.1707 123.4768 123.0100
114.0900 113.7755 113.4069 113.0928 112.8261 112.6290 112.5200 112.4944 112.5518 112.6975 112.9225 113.2162 113.5538 113.9262 114.3342 114.6147 115.1368 115.7925 114.8941 115.1883 115.5060 117.9278 117.9320 118.1314 118.5515 118.8197 119.1160 119.3737 119.8672 120.4076 122.0928 124.3848 121.1494 121.6397 121.8367 122.1297 122.4479 124.0916 122.2767 123.0400
115.2700 114.4281 114.1130 113.8369 113.6190 113.4563 113.3630 113.3372 113.3912 113.5129 113.6968 113.9460 114.2318 114.5613 114.9173 115.3174 115.5056 116.3368 109.2958 120.2082 112.6949 115.7799 118.0472 118.4125 118.7955 119.1545 119.5334 119.8757 120.2700 119.9105 128.3912 121.5945 110.5840 122.3219 121.9585 122.2288 121.9506 126.8986 122.4305 123.2800
115.2700 115.0472 114.7763 114.5387 114.3510 114.2157 114.1354 114.1162 114.1589 114.2597 114.4188 114.6299 114.8751 115.1654 115.4464 116.0033 115.5447 108.2611 109.1606 102.3842 112.5200 117.9469 118.3461 118.6800 119.0216 119.3492 119.6700 119.9999 120.3374 119.4419 121.4856 113.1490 121.7644 122.6339 122.1627 122.2390 122.5623 119.7935 123.1640 123.2800
115.2700 115.4000 115.0400 115.1300 114.6700 114.7200 114.7600 114.7700 114.7600 114.6700 115.1400 115.1400 115.4100 115.4100 115.7500 116.1700 116.4300 122.6000 120.0200 104.3200 103.3000 117.9800 118.5500 118.8200 119.0900 119.6000 119.8500 120.0800 120.3300 120.7800 123.0800 126.8900 106.6300 121.8400 122.2300 122.4200 122.6000 122.9700 123.1400 123.3200
