114.1200 113.6100 109.9000 112.8200 112.8200 112.3100 111.6800 111.7700 110.9000 110.9300 111.7500 111.6500 112.2700 112.2700 112.7700 113.1900 113.7700 114.1300 114.6100 115.0900 115.4100 96.4400 116.5500 116.9300 117.2400 117.8900 118.2000 103.0100 119.0700 119.3400 119.8600 120.1100 120.6000 120.8400 121.0500 121.4900 121.7000 121.9000 122.3000 122.4900
114.1200 113.5719 112.4804 112.5146 111.9173 111.5064 111.1295 110.8552 110.6815 110.6502 110.7546 110.9717 111.3044 111.7214 112.1881 112.6998 113.2039 113.7048 113.3935 118.1188 106.4147 108.9031 116.1724 116.8923 116.6041 114.8828 109.8981 101.7512 118.8559 119.1579 119.7046 120.1217 120.4456 120.7215 121.0614 121.3660 121.7793 122.2430 114.8903 122.4900
113.3400 112.8872 112.3327 111.6775 111.0848 110.5519 110.0853 109.7315 109.5154 109.4777 109.6091 109.8907 110.3126 110.8146 111.3856 111.9778 112.6514 112.9255 117.7765 112.1523 102.3940 117.2672 115.6695 116.5302 120.4664 114.5195 105.6035 113.3789 119.2462 119.1995 119.5819 119.6890 120.2783 120.6051 120.9378 121.2210 121.4640 121.6365 115.1122 122.4600
112.5100 112.3204 111.6091 110.8905 110.1868 109.5113 108.9240 108.4569 108.1663 108.1049 108.2885 108.6683 109.2013 109.8443 110.5361 111.2576 111.9572 112.4443 113.6152 109.6408 110.4084 115.2130 115.8132 116.1595 118.5048 116.6355 117.2538 118.7270 118.5442 119.0689 119.0903 123.3192 119.8904 120.5043 120.9105 121.2985 122.1690 125.7840 111.5303 107.6100
112.3200 111.7359 110.9285 110.0864 109.2233 108.3873 107.6085 106.9768 106.5750 106.4876 106.7438 107.2678 107.9864 108.8038 109.6580 110.5161 111.3210 112.4501 111.3123 114.4963 114.6967 114.7773 115.4756 116.0940 116.3620 117.3969 117.6761 117.9667 118.5068 118.9458 119.3081 120.4421 120.0735 120.4974 120.5472 120.6081 120.3417 120.3468 106.7761 116.5100
111.5200 111.1876 110.2595 109.2712 108.2402 107.1694 106.1386 105.2299 104.6290 104.5015 104.8848 105.6557 106.6449 107.7008 108.7707 109.7752 110.7398 111.6588 111.7992 113.1860 113.9073 114.6413 115.2667 115.8549 116.5985 117.6216 118.6139 117.9507 118.3789 118.8115 119.1913 119.5229 120.0814 119.6898 126.6336 121.9264 107.6184 113.3876 121.2408 131.9500
111.3500 110.6891 109.6438 108.5000 107.2374 105.8811 104.4653 103.1225 102.1181 101.8980 102.5563 103.7716 105.1813 106.5746 107.8823 109.0865 110.1899 111.1707 112.1095 112.9156 113.6960 114.4048 115.0856 115.7944 115.2693 127.1086 113.4069 117.8429 118.3443 118.7096 119.1404 119.5521 119.9488 120.1428 120.6231 121.2968 121.3212 120.6651 122.0094 122.1500
111.2100 110.2670 109.1154 107.8088 106.3080 104.5969 102.6458 100.5497 98.7367 98.2529 99.5761 101.5937 103.6441 105.4872 107.0855 108.4804 109.7073 110.8067 111.7826 112.6730 113.4803 114.2221 114.9111 115.5003 116.5642 116.4882 116.3489 117.8664 118.2244 118.6508 119.0785 119.4831 119.8779 120.2949 120.6762 119.5898 129.2656 120.7081 122.0134 121.8900
110.3700 109.9485 108.7033 107.2502 105.5379 103.4637 100.8140 97.5695 93.0015 91.7567 95.2058 99.2704 102.2194 104.5414 106.4330 108.0029 109.3501 110.5190 111.5534 112.4813 113.3183 114.0846 115.0537 115.4411 121.3010 117.2734 106.9411 117.9910 118.2372 118.5921 119.0344 119.4483 119.8291 120.2000 120.5504 120.6389 120.6718 121.6853 121.7351 125.8300
110.2900 109.7569 108.4576 106.9087 105.0482 102.6764 99.4221 94.0656 87.3248 85.9491 90.0255 97.2865 101.1922 103.9304 106.0306 107.7152 109.1315 110.3511 111.4242 112.3799 113.2296 114.0206 114.8287 114.7966 115.3347 117.5110 118.1303 117.6450 118.1038 118.5771 119.0057 119.4206 119.8169 120.1982 120.5470 120.9671 121.3561 121.5511 121.7372 122.1100
110.2600 109.7205 108.4016 106.8455 104.9367 102.5012 99.0946 93.1209 85.7969 84.2736 88.7077 96.7874 100.9533 103.7974 105.9435 107.6549 109.0880 110.3195 111.3939 112.3498 113.2405 114.0475 114.7282 115.5065 116.1805 116.3994 116.8168 117.6940 118.1450 118.5693 118.9990 119.4208 119.8056 120.1838 120.5534 120.8868 121.2309 121.6113 121.9492 122.1100
110.2700 109.8304 108.5451 107.0436 105.2356 102.9902 99.9842 95.0488 89.7163 88.3006 92.2815 98.1534 101.6024 104.1736 106.1885 107.8288 109.2172 110.4136 111.4733 112.4125 113.3087 113.7419 114.7631 115.3964 115.9786 116.6934 117.3181 117.4262 117.9492 118.5805 119.0168 119.4311 119.8232 120.2008 120.5569 120.9186 121.2421 121.3420 121.6024 122.1100
111.1500 110.0857 108.8711 107.4907 105.8720 103.9785 101.6899 98.9499 95.9603 95.0641 97.5079 100.2851 102.8760 104.9646 106.7129 108.2087 109.4936 110.6402 111.6507 112.5677 113.3622 113.8632 114.9177 115.5232 116.0749 116.6980 116.8988 117.7569 119.6935 118.6050 119.0382 119.4595 119.8555 120.2216 120.5681 121.1766 121.1398 122.4774 123.0990 122.1200
111.2700 110.4580 109.3514 108.1224 106.7341 105.1869 103.4959 101.7896 100.4703 100.1383 101.0490 102.6440 104.3680 105.9865 107.4449 108.7556 109.9256 110.9687 111.9165 112.7912 113.5382 114.4095 114.7436 115.5103 116.1820 116.5358 122.8787 117.3669 119.5601 118.6061 119.0932 119.5132 119.8951 120.2610 120.6471 120.8974 121.3674 116.4724 112.5541 114.0600
111.4200 110.9154 109.9357 108.8584 107.7132 106.4896 105.2767 104.1578 103.3641 103.1879 103.6969 104.6613 105.8792 107.1117 108.2965 109.4054 110.4328 111.3842 112.2542 113.0780 114.0029 111.4466 116.7966 115.8162 116.2901 116.9274 117.7239 117.9700 118.2545 118.7575 119.1720 119.5760 119.9608 120.3070 120.5475 120.6865 127.9087 118.1463 108.0399 115.0500
112.2100 111.4430 110.5758 109.6583 108.7077 107.7371 106.8387 106.0705 105.5793 105.4686 105.7741 106.6706 106.3542 108.2144 109.1823 110.1163 111.0174 111.8576 112.6591 113.4051 114.0391 114.7454 116.4719 105.9945 117.3627 116.7898 117.4714 117.9332 118.4473 118.8614 119.2663 119.6528 120.0527 120.4026 119.3612 129.6876 110.0857 107.8501 115.8406 122.1500
112.4000 112.0057 111.2506 110.4693 109.6786 108.9266 108.2346 107.6849 107.3445 107.2720 107.4807 108.0238 106.8666 109.3854 110.0768 110.8574 111.6277 112.3835 113.0889 113.7757 114.4285 114.6063 121.6194 116.1984 117.3379 117.1217 117.6523 118.1193 118.5582 118.9807 119.3654 119.7706 120.0778 120.5744 120.5974 121.8879 112.7500 107.4832 107.4571 108.9600
113.1300 112.5915 111.9369 111.2360 110.4314 110.0202 109.4770 109.0635 108.8212 108.7612 108.9117 109.2805 109.7544 110.2781 110.9394 111.5938 112.2653 112.9222 113.5591 114.1815 114.7557 115.2799 115.2291 116.2867 113.7182 117.4403 117.8542 118.2875 118.7244 118.9259 119.4774 119.9485 120.7518 119.8351 113.7967 103.5198 109.8818 110.1721 124.5814 122.3900
113.3300 113.1969 112.6082 111.7953 111.7274 110.9979 110.5859 110.2638 110.0778 110.0323 110.1577 110.4107 110.7841 111.2518 111.7718 112.3325 112.8939 113.4775 114.0543 114.5942 115.2696 116.2642 116.2891 118.1297 106.9898 118.7505 117.9881 118.4823 118.7617 120.7912 119.7430 119.9511 122.0668 115.8441 113.9164 105.2025 117.6946 108.1593 117.3954 113.0100
113.2300 113.7494 113.3197 110.3782 110.3289 112.0096 111.5935 111.3268 111.1746 111.1483 111.2343 111.4384 111.7420 112.1203 112.5285 113.0454 113.5387 113.9962 114.5204 115.0228 115.6248 114.6265 121.7889 116.2827 117.8105 117.8343 118.2773 118.7386 118.9110 123.3686 118.3397 121.6343 120.5060 111.7934 119.7268 113.1395 108.3130 116.3641 114.0581 113.1800
114.8300 114.4605 114.0300 114.0654 111.9081 112.8588 112.4840 112.2726 112.1526 112.1322 112.2034 112.3705 112.6149 112.9322 113.3269 111.3346 113.7124 114.5501 115.2852 116.0463 115.9867 116.7213 118.0210 115.5150 117.3947 118.1190 118.4812 118.8295 119.2538 119.4993 123.8285 119.5880 112.1977 114.7568 123.4561 120.1878 124.9967 115.3208 123.4016 113.1000
115.4300 115.9672 114.6446 114.1315 113.9514 113.5132 113.3184 113.1316 113.0327 113.0133 113.0694 113.2087 113.4143 113.6770 113.9384 114.6055 114.7454 115.2906 112.0863 115.6515 116.3397 117.1547 114.7475 118.2951 117.8990 118.3254 118.6946 119.0604 119.4101 119.7109 123.4727 106.8106 115.1624 112.4533 114.7151 121.1490 119.0110 110.6338 122.6422 122.7300
115.4300 115.0703 115.0291 114.7874 114.5097 114.2674 114.0565 113.9152 113.8304 113.8192 113.8630 113.9833 114.1491 114.3696 114.6717 114.8138 115.6771 114.9436 116.8422 116.6235 116.5646 117.0904 117.5193 117.8381 118.2198 118.5721 118.9368 119.2781 119.6354 119.7013 119.7397 114.6636 120.5236 116.4823 114.5345 128.1662 113.4008 114.6357 123.5301 122.7600
116.0400 115.9392 115.6769 115.3904 115.1413 114.9319 114.7606 114.6378 114.5673 114.5524 114.5919 114.6904 114.8418 115.0376 115.2139 115.6467 115.4328 110.4574 117.0327 116.8588 117.1694 117.4705 117.8191 118.1449 118.5192 118.8540 119.1852 119.5105 119.8473 120.4938 120.5740 120.9262 120.6318 122.0375 113.8417 108.4310 116.2146 114.3785 115.7202 114.0600
117.1300 116.4691 116.2028 115.9568 115.7404 115.5528 115.4094 115.3017 115.2414 115.2281 115.2626 115.3459 115.4582 115.6829 115.8498 115.0125 116.5776 119.2389 117.0707 117.1690 117.5380 117.8390 118.1651 118.4830 118.7995 119.1221 119.4337 119.7573 119.8407 121.2118 106.2178 122.8633 129.6888 127.0867 123.1436 108.9146 119.0262 116.3121 114.5753 114.9500
117.1300 116.9552 116.7106 116.4966 116.3044 116.1365 116.0144 115.9243 115.8680 115.8569 115.8931 115.9636 116.0522 116.8654 116.5219 115.1311 116.8130 117.3063 117.2726 117.6490 117.8992 118.2044 118.4952 118.7937 119.0956 119.3787 119.7122 119.9582 120.2724 121.2638 112.9939 127.0004 106.2761 109.9468 109.8105 122.3308 122.7175 122.9933 115.8035 114.8200
117.5900 117.4225 117.2035 117.0094 116.8359 116.6936 116.5785 116.5018 116.4532 116.4446 116.4762 116.5320 116.6340 116.7604 116.8226 117.2928 117.3255 117.4760 117.8139 118.0082 118.2873 118.5547 118.8275 119.1046 119.3971 119.6751 119.6585 120.2731 120.5938 120.2709 126.6978 119.2170 107.9331 123.9192 118.9343 117.7210 119.6901 122.7024 123.8143 123.1100
118.0900 117.8108 117.6761 117.4904 117.3397 117.2204 117.1113 117.0440 117.0036 116.9992 117.0246 117.0712 117.1578 117.2768 117.4379 117.5498 117.7596 117.9415 118.1739 118.4520 118.6500 118.9042 119.1556 119.4217 119.6646 120.1488 117.7477 120.2323 120.7027 121.7763 116.9272 110.1965 108.0057 122.1117 122.2953 122.0069 112.1203 123.8384 121.2698 123.3300
111.3500 119.1138 117.7779 117.9694 117.8210 117.7119 117.6143 117.5509 117.5201 117.4904 117.5232 117.5942 117.6567 117.7640 117.8874 118.0419 118.2116 118.8391 116.8570 119.0794 119.0177 119.2433 119.4845 119.7206 119.9624 120.2234 120.5145 120.8721 120.9987 120.8655 118.2228 116.8980 109.3249 111.1918 117.3357 122.1474 123.7936 122.2266 117.1389 123.5900
98.8300 117.6874 118.5027 118.4046 118.2788 118.1741 118.0979 118.0449 118.0128 118.0354 118.1775 117.9947 118.1392 118.2237 118.3387 118.4657 118.5669 119.2588 115.8033 119.3377 119.3652 119.5851 119.8051 120.0400 120.2401 120.4794 120.7122 120.9866 121.0701 121.6193 114.1166 124.3486 106.0155 116.7677 115.6859 118.6874 122.8626 110.6574 124.1715 123.5900
119.3500 119.7334 118.8751 118.8225 118.7146 118.6307 118.5195 118.4857 118.4790 118.3166 118.8711 118.8139 118.5257 118.6713 118.7625 118.8940 119.0964 116.0904 117.7334 119.5258 119.6847 119.8880 120.1855 119.9298 120.5513 120.7007 120.9567 121.1809 121.9591 125.0734 113.8955 119.1163 109.4644 115.9470 128.0758 114.3430 127.8631 108.8735 124.6499 123.8400
119.7100 119.3244 119.3467 119.2273 119.1152 118.9615 119.0518 118.9568 118.9088 118.7540 119.6343 115.4518 119.3638 118.9829 119.1784 119.2623 119.3263 119.7336 120.6147 120.6146 120.0257 120.3290 119.5539 126.6848 120.5585 121.5324 121.0232 122.8964 126.0323 109.3193 108.0248 109.2630 117.5965 120.4320 125.5228 123.5068 121.2871 115.1184 131.6666 123.9000
120.0600 119.8805 119.7344 119.6162 119.5664 120.2031 119.2180 119.3101 119.3389 119.1719 115.0143 115.8694 119.3599 119.5040 119.5636 119.7754 119.8751 119.4431 119.8008 109.5196 120.1535 119.3893 110.2349 110.3879 111.6288 120.5587 125.6232 114.8834 103.2783 122.1615 110.1732 108.6518 124.1531 123.2144 122.6935 123.3732 121.5720 118.2700 118.5325 116.4800
120.4300 120.2044 120.1072 119.9773 117.9242 112.9810 120.0077 119.6838 119.7553 119.6581 119.7994 118.4479 119.6147 119.8802 119.9474 120.1126 119.8027 121.5286 121.0020 106.3174 119.3421 114.6350 115.2505 105.5198 108.4115 114.8489 146.6963 112.1265 105.0533 116.1765 113.6468 109.1357 123.0647 123.2524 123.2240 122.3744 128.7549 123.2482 112.5976 117.2400
120.7600 120.5530 120.4654 120.3232 115.2316 105.1523 121.8468 119.9569 120.0833 120.1040 120.0690 120.1588 120.0634 120.2674 120.3108 120.4623 120.8026 128.2765 121.5100 103.8987 104.8584 113.6051 110.2733 120.5631 121.9570 116.8200 122.5517 110.2481 123.1791 118.7246 124.8020 115.2026 112.8906 121.1035 123.9038 111.8324 112.3290 118.0091 114.7406 124.3500
121.0800 120.8637 120.8663 120.3842 122.2673 122.7477 120.2297 120.5071 120.4720 120.4683 120.4794 120.5229 120.5876 120.6066 120.6494 120.7928 120.7517 120.3267 121.7040 118.0118 103.7191 100.3719 117.8172 112.8087 119.7240 122.3827 121.7402 122.3277 121.5499 122.3938 122.1751 112.1884 114.6194 113.3130 121.5010 124.4029 124.6943 105.8126 109.9683 110.5900
121.3800 121.2264 120.9638 122.1247 113.2808 118.0225 120.6914 120.8683 120.8220 120.8096 120.8258 120.8380 120.8648 120.9211 121.0001 121.0769 121.1555 121.3415 121.1601 113.3710 107.2959 106.9462 106.5723 116.4468 120.0401 122.4394 122.4273 122.5730 122.6998 123.7217 108.5046 108.1038 123.6811 126.6768 124.0318 123.7089 126.7122 115.2521 112.4578 113.3500
121.6800 121.4723 122.4877 115.6235 100.0522 118.8343 120.8475 121.2174 121.1614 121.1522 121.1576 121.1859 121.2223 121.2810 121.2815 121.2292 121.4723 121.3597 121.8584 121.3238 120.5227 118.8268 118.7456 117.1856 117.8696 122.9432 122.6853 122.8039 123.1477 123.8836 127.9215 102.2379 114.1891 124.1503 123.7863 124.2334 124.4159 125.1638 125.0704 124.6500
121.9600 121.6972 123.1803 102.3546 123.7656 121.5757 121.2704 121.4646 121.4701 121.4689 121.4833 121.4973 121.5297 121.5530 121.7914 122.5633 121.6344 120.8395 123.0423 119.4139 108.0639 116.0121 121.7590 118.4478 118.9485 122.6061 122.9618 123.1062 123.1153 124.4030 124.4260 112.9706 116.4128 125.0227 124.3602 124.3010 124.0941 124.1052 124.5465 124.8500
121.9600 122.0100 122.0500 104.1600 121.8700 121.6300 121.6500 121.6800 121.6900 121.6900 121.6800 121.6600 121.6500 121.8900 121.8600 121.8300 104.3700 122.1700 127.2100 122.3600 122.3100 122.4600 122.4600 122.6200 122.7700 122.9400 123.0700 123.2500 123.3700 123.5400 110.8800 111.2200 112.2500 124.0800 124.2300 124.3600 124.4900 124.7900 124.9000 124.9000
