111.8300 111.1500 110.4200 108.7400 107.7700 105.4400 104.0000 102.2900 100.4300 97.7600 97.8700 97.5900 100.1800 104.2100 105.4400 106.6800 108.7500 109.6300 110.4200 111.8300 90.4600 118.7500 103.1300 115.0700 115.5100 115.9300 117.8200 103.0100 100.2000 100.5800 102.0400 104.6800 105.8100 103.3000 120.3400 120.5800 121.0500 121.2800 121.5000 121.7100
111.8300 111.0644 109.9718 108.7297 107.2955 105.6120 103.5880 101.0241 97.9143 93.9468 92.9790 96.1737 99.7296 102.5095 104.7407 106.5615 108.0637 110.4467 96.0740 99.2454 86.9214 102.7734 97.4175 104.1856 115.8128 114.9004 116.0476 111.3488 102.4234 99.1129 100.1608 105.7454 105.9198 109.3312 121.3338 120.5509 120.9394 122.3047 122.3137 121.7100
111.7200 110.8918 109.7510 108.4479 106.9027 105.0449 102.7062 99.4955 94.3772 88.1439 87.0527 91.0862 97.7314 101.3949 104.0697 106.1122 107.5316 109.6992 98.4797 100.6182 101.8295 101.3250 107.2011 112.7845 115.7809 113.9225 109.3531 113.1875 97.6360 100.9750 99.6379 104.5478 110.3765 110.8936 121.1678 120.6383 121.2748 112.4811 103.0725 102.6600
111.7100 110.8398 109.6876 108.3604 106.7829 104.8666 102.4102 98.9565 92.8143 85.6298 84.5453 88.7807 96.8920 101.0047 103.8425 105.9729 107.7133 109.1538 112.8977 114.0005 115.9782 116.4949 114.4217 116.3626 114.6161 113.9933 105.5105 105.4497 97.6199 102.2689 99.5689 103.1868 113.2495 116.8365 120.3645 120.1115 122.9291 102.3956 110.0080 102.6400
111.7300 110.9062 109.7706 108.4741 106.9456 105.0983 102.7849 99.6936 94.0996 88.8316 87.4686 91.6517 97.8759 101.5109 104.1233 106.1620 107.8449 109.0337 108.5439 109.5422 100.4998 94.6090 116.7788 102.7973 116.1697 110.9854 102.7461 103.0866 100.2929 105.6575 103.5531 100.0053 114.7204 119.9036 120.7512 121.9853 115.5844 115.5035 102.0716 99.6900
111.7900 111.0896 109.9988 108.7706 107.3579 105.6967 103.7162 101.2822 98.2499 94.7483 93.8856 96.8113 100.0017 102.6860 104.8493 106.6472 108.1808 109.4458 108.9599 112.6924 94.3595 95.6217 96.7309 99.2346 96.9952 100.6198 107.2913 104.6786 103.4257 104.9383 107.6475 104.6867 116.0532 119.5357 122.2367 108.2940 113.8968 100.9218 98.9524 99.7000
111.8800 111.3683 110.3556 109.2261 107.9636 106.5368 104.9327 103.2038 101.3078 99.8861 99.4978 100.5591 102.2997 104.1488 105.8343 107.3476 108.6764 109.8745 110.8874 111.4501 94.9740 101.5308 91.4703 112.6170 96.7776 111.5485 96.9968 103.0923 104.1432 102.7402 103.1513 107.4759 117.5433 116.6877 108.0200 108.1813 102.0450 99.2629 98.6831 113.0500
112.0000 111.7369 110.8067 109.7995 108.6918 107.5021 106.2319 104.9548 103.7455 102.9070 102.7285 103.3089 104.4000 105.6602 106.9380 108.1718 109.3177 110.3659 111.3021 112.4714 113.4390 114.5548 105.1036 96.7010 98.2087 97.8680 95.0047 104.2343 97.2961 110.1435 108.3379 108.3282 107.4541 107.0086 108.6582 107.9523 109.7146 111.5582 104.4859 100.1300
112.7300 112.1673 111.3315 110.4345 109.4973 108.5084 107.5108 106.5640 105.7479 105.2307 105.1326 105.4857 106.1308 107.0857 108.0489 109.0515 110.0178 110.9296 111.8118 112.4638 113.0872 113.1473 114.2518 117.3380 101.4136 105.3837 98.9845 104.2894 107.3755 111.7177 118.1701 120.5467 118.5869 114.6214 120.1368 113.8344 109.1105 112.5924 108.8462 110.9900
112.8800 112.6346 111.8893 111.1098 110.3074 109.4959 108.7122 107.9832 107.4104 107.0473 106.9503 107.2309 107.8596 107.1386 109.0483 109.9495 110.7535 111.5424 112.2966 113.0203 113.8997 115.3795 113.5645 117.2512 111.8274 113.5965 104.6895 102.5474 109.1361 111.8916 110.1176 114.9799 105.7661 114.5222 123.2268 109.0772 110.9382 124.4432 105.0173 109.0400
113.5700 113.1336 112.4808 111.8004 111.1119 110.4324 109.8158 109.2888 108.8536 108.6075 108.6105 108.7485 107.9502 107.7590 110.1952 110.6743 111.4956 112.1788 112.8059 113.4472 114.2252 115.9430 120.7679 105.5294 117.8746 99.5456 114.6550 112.8707 120.2153 119.9658 120.8949 112.3711 114.2189 107.0267 112.4965 114.4041 111.2925 116.6528 121.9907 118.3200
114.3800 113.6534 113.0658 112.4795 111.9002 111.3371 110.8543 110.0085 110.0520 109.7731 109.4720 110.2122 107.9564 109.3008 101.7984 113.4842 112.2489 112.7746 113.5003 113.9992 114.6678 116.9302 116.4606 108.7457 107.5900 109.5840 112.9603 99.4895 117.7801 118.4762 118.7969 120.0928 121.2827 114.6430 115.8543 123.0032 118.3865 119.7606 117.5773 118.1500
114.4500 114.1787 113.6562 113.1471 112.6277 112.1543 111.8498 111.2137 111.1304 110.0775 109.4446 108.4667 108.1995 105.4129 83.9925 112.2096 112.7351 113.4036 114.1152 111.2666 114.5561 109.4759 115.1113 109.6225 119.9038 118.6864 117.9341 113.0886 118.9101 118.9613 119.3698 119.7153 119.7856 120.9204 121.6562 121.2139 120.4651 121.8286 123.4871 122.2700
115.1500 114.6944 114.2328 113.7846 113.1457 113.0541 112.4166 112.3482 110.9036 96.9503 95.5317 105.3424 98.9506 93.2438 112.9966 114.5417 113.5696 114.0376 114.4727 113.6681 116.1662 101.5920 110.5718 112.5385 117.1708 117.5735 117.4627 120.3715 118.7043 120.2118 120.8660 119.7243 120.3171 120.4426 120.7440 121.1759 121.7264 121.0060 130.8467 122.3000
115.8000 115.2048 114.7979 114.4198 114.0704 115.4264 113.4693 113.1953 113.8768 115.2251 114.8563 114.6235 105.6899 104.3216 113.8797 113.7041 114.2814 114.6106 115.0914 115.4152 116.0259 113.9588 115.7259 117.5711 118.3895 118.0280 118.2298 121.9790 118.3566 119.6765 106.6004 121.0417 120.4024 120.8200 121.2406 121.7051 119.6135 129.5589 113.9566 106.7400
115.8000 115.7066 115.3459 115.0305 114.6294 114.3801 113.9031 113.8764 113.1495 109.4235 107.2896 113.1080 114.5402 114.2268 114.1542 114.6800 114.8421 115.0868 115.6104 115.8960 116.1777 116.6571 116.9652 105.9252 117.3714 118.0888 118.5036 119.1688 119.2319 119.8544 118.6553 120.2114 120.5734 121.1353 121.4406 120.0710 121.2927 128.2106 110.1419 106.8600
116.4000 116.1954 115.8638 115.5580 115.3357 114.9678 114.6902 114.5066 116.5178 100.9702 103.3460 116.5169 114.4474 114.6775 114.8843 115.1839 115.4330 115.7410 116.0207 116.3742 116.7561 117.1032 117.4010 120.2881 118.4981 118.3818 118.8310 119.1650 119.5282 119.6800 120.0448 120.4999 120.4924 120.7270 126.7072 112.3956 120.9621 116.9143 122.8444 114.9400
116.9400 116.6682 116.3773 116.1099 115.8794 115.8958 96.0041 93.5775 114.0591 118.1280 117.2916 117.2736 115.1547 115.4278 115.5537 115.7426 115.9915 116.2392 116.5415 116.8346 117.1515 117.5591 117.3628 117.3617 117.6526 118.5886 119.0932 119.3950 119.7018 120.0377 120.3143 120.6611 125.0585 122.0065 119.3172 117.9073 103.3615 110.6789 121.4105 122.6500
117.4500 117.1336 116.8633 116.6228 116.4011 116.4863 106.1911 95.6553 116.2695 114.0744 113.4061 99.1472 116.8091 115.5241 116.1241 116.3661 116.5176 116.8144 116.9927 117.2548 117.5832 117.9111 117.6310 122.1074 118.7611 119.1842 119.3737 119.6508 119.9417 120.2682 120.5602 120.1039 133.7920 106.3837 105.6382 107.9232 106.1882 106.5732 108.4370 118.2300
117.4500 117.5743 117.3296 117.1174 116.8677 116.3727 109.6277 116.6383 115.7129 116.6090 112.6827 100.4594 118.0449 117.7076 116.6171 116.5409 117.0271 116.4026 117.5990 117.8860 118.3012 119.3038 120.0334 111.1351 118.7024 119.1810 119.6403 119.9054 120.1987 120.3536 120.8263 119.7388 114.0615 110.6661 110.3824 105.3239 108.8285 113.5020 108.0057 119.4600
118.3700 118.0009 117.7841 117.5614 117.3766 117.0356 117.5804 117.5695 98.8582 118.5572 116.7411 116.9475 113.8711 107.5215 117.9498 118.8258 117.5988 118.7911 110.4552 119.2187 115.6374 120.5186 115.6074 103.8637 120.3504 119.5945 119.9184 120.1623 120.4476 120.9786 120.1495 118.3045 102.4135 115.5095 124.3697 117.1594 117.3664 120.4899 110.7300 112.7500
118.3700 118.4290 117.7487 119.0619 119.1837 118.0991 117.1120 119.7627 97.3296 116.6097 117.1278 119.1912 100.1324 108.5515 117.6695 117.1832 117.9018 119.2779 108.2044 120.0851 112.0904 119.3731 111.1248 119.7163 119.7466 120.0159 120.1527 120.4463 120.5680 120.8637 113.4012 122.7278 117.0905 105.0420 114.6382 113.0571 108.2700 122.8675 111.6503 112.8700
118.8200 118.6592 118.4137 117.0009 104.9852 117.7800 118.5597 118.9848 101.2436 115.2723 117.6091 117.9005 119.7636 120.0534 118.0785 118.0856 118.4489 118.6039 119.0837 119.4875 119.2401 120.1603 120.0117 119.9988 119.8913 120.2348 120.4464 120.6908 120.8250 121.9199 108.2811 106.3694 122.3000 119.3655 105.6122 118.3855 111.3595 118.9590 111.6868 114.3300
119.2200 119.9860 118.8093 120.6388 119.6513 109.8229 119.6911 119.0579 119.8810 118.4211 118.4158 118.4890 118.1751 118.1680 118.6458 118.8311 118.8197 113.2106 123.9133 118.1813 119.4223 111.0759 116.4838 120.2810 120.3067 120.4815 120.7189 120.9457 121.0880 121.2770 120.6095 117.2990 123.4435 108.2356 110.8543 110.3776 113.1259 112.9215 116.3831 123.5000
105.0900 120.9369 119.3620 118.9740 119.3731 119.9970 118.8814 118.6312 118.5461 118.8306 118.7576 118.5187 118.6568 119.0618 119.2139 117.6744 119.2939 119.2728 118.9092 120.3709 119.8468 120.4403 120.7561 120.0294 120.6035 120.7696 120.9847 121.1866 121.4505 121.3967 122.1451 118.5759 120.5118 107.5760 109.0516 109.2126 115.9409 112.3896 118.2409 123.7200
119.9800 119.6711 119.8792 119.7294 119.5230 119.2982 119.3976 119.3785 119.3332 119.2482 119.1463 120.7351 121.0078 119.3082 119.6487 106.8346 118.2968 112.9828 114.0394 120.4564 120.1195 120.1859 120.4798 120.7158 120.8436 121.0692 121.2612 121.4673 121.6017 122.1401 117.8330 113.4934 112.9216 115.9689 100.5424 112.5364 110.4542 123.6101 120.6823 112.8600
120.3300 120.0838 120.1377 120.0436 119.9269 119.8680 119.7685 119.6915 119.6467 119.6331 119.4199 120.6478 102.6751 121.7795 119.6648 119.4647 121.2772 113.1055 121.1117 120.3498 120.4230 120.6368 120.7939 120.9932 121.1294 121.2670 121.8060 121.6319 121.8205 122.7990 123.5145 116.2755 105.3301 108.6535 102.0360 101.8030 115.8140 111.9769 123.6008 123.9800
120.6500 122.0901 120.6314 120.3568 120.2802 120.1989 120.1422 120.1179 120.1057 120.0560 120.0108 120.2210 116.4307 120.7409 120.2558 120.2280 119.8832 121.1523 120.2303 120.6869 120.8116 120.9417 121.1003 121.2572 121.3077 121.6952 122.4508 122.0068 121.8716 122.7824 107.0788 113.0834 111.3883 122.7829 115.2617 107.5404 127.4250 119.0242 123.3916 124.0300
120.9900 107.7793 121.0655 120.6874 120.6231 120.5506 120.2325 120.3233 120.2714 120.3381 120.3186 120.4538 120.6718 120.3563 120.5346 120.6063 120.7403 120.6317 120.9160 121.0238 121.1116 121.2424 121.3994 121.5303 121.6449 118.7212 111.3493 120.8172 122.3597 123.2996 121.6574 108.3563 115.2221 112.2238 124.1126 107.3544 113.5182 110.8298 113.9120 117.1000
121.3100 96.4324 123.5859 120.9660 120.9362 120.9997 120.9588 120.1094 121.4028 120.7544 121.1685 120.6907 120.8013 120.8738 120.8980 120.9496 121.0669 121.2474 121.3118 121.1222 121.4222 121.5832 121.6472 121.8280 121.9864 122.8631 122.5403 123.4842 111.5544 122.0733 116.8036 107.6200 114.6204 119.6038 116.2162 114.6566 116.1923 107.9366 115.6051 115.6900
104.9300 114.6758 122.9986 121.3861 121.2967 121.1805 122.5324 99.8572 122.5451 117.7075 117.5579 121.0492 121.1427 121.1338 121.1864 121.2789 121.3776 117.0426 120.9417 121.4774 121.6541 121.6320 122.2116 122.5009 122.2533 122.0619 122.0528 122.9768 129.0077 115.8913 119.9068 106.3526 114.4755 112.2743 114.9766 122.8199 119.6438 118.7703 115.3792 115.6700
99.9000 122.5677 121.2885 121.5658 121.3791 121.2793 123.3968 102.2536 107.4503 122.5373 122.4742 113.7633 122.1935 121.2910 121.5154 121.6048 121.5696 122.6249 114.9668 120.7333 122.3790 122.7886 121.9953 117.1574 122.7817 123.6364 123.6317 122.8722 115.3804 109.7601 112.1180 104.7460 114.5318 114.1820 114.1546 124.9697 124.5034 126.3231 118.2458 123.3700
122.1800 122.3963 121.8022 123.2460 124.4042 123.0389 101.6590 125.4548 122.5012 120.5325 117.4444 115.0158 117.3202 121.7824 121.8326 121.8711 121.9903 125.5516 98.8779 112.2063 119.8369 124.1080 107.7396 115.8515 116.7206 120.6830 108.4081 122.9986 114.6364 107.3127 107.1587 111.7384 127.5694 125.5977 123.4820 124.9338 125.1541 113.8289 119.8798 128.4700
122.4500 122.3485 123.8535 108.2475 118.7698 118.8990 124.3333 121.5042 123.2870 104.9934 106.2217 98.8598 107.2900 122.7472 122.1314 122.1269 122.0736 122.2856 105.2989 110.0850 120.7955 123.7065 103.0985 103.4073 101.7747 120.7579 108.5906 103.6504 105.1793 104.2553 104.0870 107.2968 123.1202 124.5257 124.3932 123.8971 109.5560 118.7161 110.0547 124.9800
122.7100 122.6929 123.5528 117.9731 110.0914 101.1394 110.8888 123.0591 122.8875 125.5347 125.3751 105.5721 126.3815 122.8066 122.4048 122.4229 122.6616 122.7628 98.1646 104.0239 116.7551 106.7930 113.9179 104.9639 123.7949 109.5418 101.1420 100.5625 105.0616 118.8903 116.1455 102.0211 111.0716 124.4992 126.3429 111.4886 127.1673 113.9792 114.0505 125.1800
122.9600 122.8615 122.5203 122.9969 124.7067 123.3090 122.2927 122.8459 122.4856 122.0082 122.5176 118.0819 122.3951 122.2649 122.6874 122.6679 122.8005 124.7036 118.2556 117.6985 107.3720 105.5416 117.1045 99.7004 119.5323 124.1832 124.9287 114.9791 118.0407 119.7505 115.7746 107.6070 107.8129 114.8478 126.0633 126.5161 117.5738 115.0476 105.9224 106.7600
123.2100 120.8167 123.3645 124.4364 98.1273 120.1387 111.2192 123.7104 122.7889 122.9966 122.9680 123.1885 123.5404 122.9117 123.0439 123.4641 122.7638 123.1356 107.2268 113.5809 100.7605 104.8222 103.3269 110.8049 124.7191 123.5503 122.9836 125.9516 124.1489 125.2397 118.1062 113.9337 117.9770 125.7214 125.6363 122.9297 106.4694 103.3024 112.8530 119.1100
106.5100 104.7673 111.7333 106.1566 100.4790 119.7264 123.9533 122.8937 125.3829 122.9521 123.0024 123.2307 123.2756 123.2166 123.3632 117.0727 124.5410 125.2801 118.8455 117.6147 110.2050 119.1987 110.0929 111.4861 124.1995 123.8901 124.1345 124.0528 125.4675 121.4998 117.8444 116.9080 127.4266 123.6950 125.0048 126.0674 125.8718 114.7508 120.5076 111.7300
123.6800 122.5934 112.5160 103.9665 120.2859 120.4446 122.9197 123.3671 123.4702 123.4188 123.6781 124.6372 119.1604 123.9832 123.4227 121.8208 124.3923 109.6144 109.9725 103.4116 108.5442 110.6737 122.6703 105.9262 119.6363 124.1535 124.2993 124.4068 123.8517 113.4259 111.9466 103.3444 112.0658 124.0273 126.1061 125.2943 126.3062 126.7877 126.0467 125.8200
123.9100 123.9100 104.8200 106.1200 123.6100 111.0600 123.6500 123.6700 123.6800 123.4600 123.4600 103.4000 103.4000 123.6600 123.6400 123.6300 124.1100 124.1100 103.0000 101.9300 108.8300 124.0500 124.0100 105.5400 124.2800 124.4100 124.4100 124.5200 124.6400 124.8000 102.9000 122.4400 112.2200 112.2200 125.3800 125.4900 125.4900 125.5900 125.7100 125.8200
