103.3500 104.5700 107.5800 105.4700 102.6800 103.0900 104.3700 108.0000 114.4700 114.4700 117.3700 114.0900 114.1200 114.1200 114.1000 114.0500 114.4900 114.4900 114.9200 115.2800 115.2800 115.6000 116.0500 116.3000 116.7100 116.9700 117.6400 117.9200 118.2100 118.5000 119.0500 119.3300 119.6100 120.0700 120.3100 120.5500 121.0000 121.2200 121.4300 121.6400
106.7400 102.6448 105.2252 103.0300 102.5547 101.8938 103.9217 97.5322 105.4525 110.0040 115.1232 113.5139 113.4086 113.3985 113.4601 113.8433 112.6247 115.8295 114.4394 114.6436 115.0079 115.3798 115.7595 116.1966 116.5821 117.0027 105.1567 110.1111 118.5187 118.4838 118.8396 119.1906 119.5422 119.8704 120.2355 120.3669 119.1438 117.8483 112.8739 121.5900
106.7400 104.4302 105.0087 106.2364 102.8050 106.4696 99.9337 103.2333 95.2936 108.6607 112.0461 112.7571 112.5761 112.5524 112.6197 112.8655 104.8104 105.0032 112.5642 114.0421 114.4314 114.8581 115.2852 115.7194 115.9934 117.0045 117.0062 112.1306 118.2321 118.1934 118.6057 118.9751 119.3423 119.6958 120.1010 120.2711 119.0513 120.4801 100.3404 121.5400
104.6800 106.2510 103.5740 102.7572 101.9217 102.5118 100.7263 96.9114 105.1853 115.5259 114.6562 111.4678 111.6324 111.6207 111.7113 112.1710 113.3946 112.1600 113.4336 113.2827 113.8449 114.3187 114.8102 115.2829 115.7601 116.1807 117.8278 117.8335 117.4637 117.9743 118.3874 118.7716 119.1489 119.5070 119.8312 120.1357 122.0832 106.4441 97.2177 121.5400
93.6900 102.5792 107.8492 105.3190 104.7225 94.4103 100.5681 102.0488 111.5696 111.7225 112.7752 110.6334 110.5942 110.5728 110.6982 110.7774 111.0625 111.7162 112.0689 112.7142 113.2312 113.7746 114.3142 114.8526 115.3770 115.8366 116.3239 116.7186 117.3042 117.7390 118.1718 118.5777 118.9741 119.3555 119.8337 119.8467 115.9593 112.4989 104.0751 121.2500
112.0900 102.6095 104.4563 98.8814 103.3047 98.9571 101.8623 92.1797 107.9908 110.3972 109.9482 109.6206 109.4279 109.3728 109.5269 109.8639 110.3076 110.7837 111.3892 111.9965 112.6075 113.2305 113.8385 114.4238 114.9992 115.5429 116.0663 116.5883 117.0578 117.5203 117.9698 118.4003 118.7758 119.2990 118.8169 119.9281 119.0467 121.4952 119.7131 123.1900
109.2200 105.3013 101.2445 100.9581 100.8276 98.2229 101.6078 107.2513 99.9890 108.6816 104.7588 108.8434 108.0239 108.0016 108.2104 108.6095 109.1792 109.8327 110.5441 111.2621 111.9889 112.6916 113.3686 114.0184 114.6406 115.2274 115.7881 116.3228 116.8373 117.3281 117.7880 118.2325 118.6594 119.0744 119.4584 119.8264 120.0957 120.2918 121.4398 113.6400
109.9800 103.3833 101.8023 98.6621 100.1454 103.3538 106.4167 100.3440 103.7883 109.9363 106.7113 106.9057 106.4447 106.3536 106.6563 107.2175 107.9698 108.8043 109.6729 110.5395 111.3733 112.1671 112.9237 113.6307 114.3061 114.9435 115.5361 116.0952 116.6385 117.1402 117.6246 118.0856 118.5215 119.2080 119.2851 119.2844 124.5075 120.0739 120.8202 126.5200
108.0600 103.1938 102.9071 102.4374 99.7675 99.9150 113.5409 107.8938 105.5593 103.8769 100.2303 105.4059 104.4280 104.3383 104.7912 105.6097 106.6347 107.7197 108.7887 109.8180 110.7823 111.6791 112.5106 113.2801 114.0027 114.6743 115.3113 115.9041 116.4436 116.9783 117.4894 118.0126 118.1488 121.1425 119.0786 119.6447 119.8842 120.4048 120.5165 120.8800
108.4100 107.9682 103.6586 101.3303 98.4823 103.2816 117.2422 109.8599 107.3356 105.5591 104.8260 102.7556 101.8464 101.7018 102.4435 103.7603 105.2002 106.6187 107.9429 109.1528 110.2426 111.2140 112.1098 112.9818 113.7433 114.4593 115.1151 115.7232 116.3652 116.8941 117.3687 117.8543 118.1525 118.4962 119.1715 119.6161 120.0162 120.3348 120.6978 120.8500
115.6100 109.9200 101.0907 101.5755 97.0718 109.5226 113.9991 107.5246 105.9498 104.2404 102.2498 100.1713 98.3060 97.9486 99.5908 101.5928 103.7375 105.5663 107.1707 108.5616 109.7889 110.9396 111.9130 112.7371 113.5414 114.2813 114.9742 115.7059 115.7238 116.7692 117.2598 117.7887 118.2778 118.7360 119.1028 119.4722 119.8774 120.2046 120.2594 120.8300
120.6700 103.7732 100.0899 101.2321 103.2071 107.7231 111.5893 104.4913 105.3908 103.1772 100.3768 96.8041 92.1725 91.4178 95.1989 99.4334 102.3813 104.6902 106.5527 108.1082 109.4509 110.9374 111.6468 112.5757 113.3937 114.1460 114.8602 115.1350 120.8788 116.5616 117.1862 117.6933 118.1829 118.6391 119.0918 119.6223 119.8954 120.4890 122.3427 120.8100
101.0300 103.6477 102.8063 96.1522 110.7259 108.2429 105.4912 106.9144 104.8185 102.3711 98.9619 92.9141 86.8517 85.9912 90.5406 97.7483 101.4514 104.1228 106.1845 107.8495 109.2474 110.4391 111.5116 112.4405 113.2778 114.0734 116.0178 116.1643 117.0127 116.6726 117.1724 117.6874 118.1696 118.5622 118.6876 118.5805 120.0547 114.0907 111.3539 120.8000
101.0300 102.1721 100.7614 95.8073 111.1820 106.4775 103.9151 107.0197 104.7370 102.2158 98.7085 92.5264 86.1425 85.0189 89.5921 97.3615 101.2873 104.0316 106.1240 107.8067 109.2338 110.4066 111.5738 112.4693 113.2801 113.9584 118.2367 115.1679 115.6557 116.6300 117.1759 117.6831 118.1720 118.6090 119.0076 118.9757 120.4484 118.7079 105.2428 103.6800
103.3200 106.2166 106.3154 95.2228 117.0743 110.5967 107.8322 106.8950 105.0846 102.7836 99.7594 95.4121 89.8289 88.9171 93.3105 98.6466 101.9568 104.4278 106.3829 107.9791 109.3636 111.1216 110.9804 112.6037 113.2814 114.1203 114.9375 115.5563 116.1947 116.6663 117.1962 117.7016 118.2057 118.5133 118.6891 119.0081 121.0076 117.2186 110.5608 105.4500
101.9300 103.5293 93.3754 105.4240 103.1025 120.5994 109.3892 107.6439 105.7208 103.8448 101.5563 98.8586 96.2535 95.7137 98.0738 100.7598 103.1846 105.2085 106.9111 108.3709 109.6400 110.7670 111.6512 114.4966 113.9906 114.3382 114.8955 115.5444 116.1704 116.7210 117.2491 117.7408 118.3088 118.5463 117.0544 130.4233 111.6937 106.3938 105.2449 107.7700
98.9600 101.8439 103.0579 103.0946 102.3234 120.1430 104.7312 107.9107 106.7440 105.1312 103.4776 101.8597 100.6144 100.4416 101.4002 102.9697 104.6442 106.2118 107.6343 108.9173 110.0272 111.2250 112.9735 115.3897 113.5944 114.3955 115.0493 115.6785 116.2645 116.8106 117.3351 117.8081 118.2756 118.9467 110.1058 113.3219 105.2387 104.6028 103.9557 108.2700
100.8200 103.1377 102.0461 101.4426 88.9092 117.1331 110.7469 116.2272 106.9660 106.4895 105.2782 104.2179 103.5074 103.4058 103.9539 104.9241 106.1035 107.3053 108.4658 109.5524 110.5787 111.4833 112.0051 112.8605 111.4327 114.7197 115.2413 115.8352 116.3680 116.9134 117.5030 118.2712 118.4736 120.3720 108.5405 102.3010 106.6279 105.2651 124.4792 126.2500
105.1500 100.8250 94.7691 108.6405 114.6330 112.3906 109.3436 109.7083 108.8176 107.7453 106.8676 106.1394 105.6960 105.6267 105.9629 106.6266 107.4780 108.3967 109.3389 110.2598 111.1288 112.1181 112.8930 112.5234 108.2962 114.8622 115.5127 116.0117 117.1067 117.1580 117.2314 116.5022 115.7145 111.5091 109.2988 102.0286 105.5730 105.3464 110.5281 109.5100
95.1400 103.7394 98.3393 105.5063 110.3267 111.8917 111.5429 110.4473 109.6440 108.9395 108.2778 107.7543 107.4439 107.3968 107.6289 108.0971 108.7176 109.4440 110.2144 111.0148 111.7336 112.2876 106.2958 115.0142 115.3358 114.9194 115.6989 116.2408 117.4749 117.3003 117.0767 130.5641 110.3559 109.1730 118.9712 102.3444 115.8393 112.7194 114.4144 109.6000
95.1400 100.3378 101.2469 109.1347 115.1107 113.7384 111.7074 110.8439 110.7606 110.0818 109.5214 109.1307 108.9019 108.8691 109.0401 109.3790 109.8751 110.4342 111.0422 111.6819 112.3737 112.6798 104.2289 113.7840 114.5744 115.4089 115.9527 116.4936 116.7852 116.6495 126.4975 95.9618 110.3150 108.9688 120.1417 115.2185 109.4617 110.5522 117.9299 111.2200
113.0000 95.0002 101.0784 109.6655 113.9366 102.3704 113.8666 111.3690 111.5259 111.0321 110.6304 110.3235 110.1459 110.1218 110.2438 110.5312 110.8410 111.4272 111.7750 112.3623 112.9985 113.6437 114.9566 115.1482 115.2732 115.7608 116.2555 116.7335 117.2667 117.4406 121.7991 112.1488 113.9812 98.2985 108.3656 110.4277 109.1083 108.4532 117.3887 111.1200
97.3800 93.0749 118.6327 113.8615 108.0367 102.4093 114.4000 112.7359 112.3622 111.9500 111.6180 111.3785 111.2428 111.2437 111.3529 111.5488 111.8996 112.0638 110.9928 113.0963 113.6106 114.1474 114.4134 115.0049 115.6289 116.0902 116.5620 117.0132 117.5132 117.7920 118.3736 115.0830 120.5463 105.9757 108.2366 112.4856 119.1073 107.9815 109.4750 121.4600
97.3800 110.5094 114.3624 116.2728 109.2082 116.2672 113.2346 113.4434 113.1244 112.7886 112.5267 112.3266 112.2125 112.2174 112.1880 112.4414 112.5424 110.9742 113.2789 113.8444 114.2054 114.6522 115.1062 115.5662 116.0061 116.4539 116.8872 117.3113 117.5750 117.7355 124.0670 119.8647 119.6354 117.8324 114.5965 110.8734 113.0991 110.9801 109.6494 111.1900
116.8000 116.4477 116.3556 115.8298 115.2668 115.1222 114.6052 114.1742 113.8412 113.5660 113.3440 113.1820 113.0874 113.1226 113.2293 112.7163 114.9077 112.1212 114.1046 114.3668 114.7939 115.1803 115.5824 115.9917 116.4030 116.8107 117.1947 117.7124 117.7888 116.5338 109.1772 104.2629 122.2395 126.1868 107.3969 119.9054 98.2737 109.5215 111.5479 112.5600
117.2600 116.8031 116.5679 116.1522 115.8011 115.4641 115.1103 114.8062 114.5233 114.2848 114.0985 113.9638 113.8833 113.9279 114.1389 106.3263 111.4672 100.2749 114.9918 115.0648 115.3363 115.6979 116.0745 116.4234 116.7963 117.1778 117.5485 117.9310 118.2313 118.9700 118.3222 114.6819 108.8251 114.7695 104.0550 107.2166 120.3356 121.7640 116.3260 121.7900
117.3900 115.0352 117.9997 116.4342 116.2692 116.0027 115.6850 115.4127 115.1756 114.9547 114.7952 114.6798 114.6174 114.6157 114.6246 114.9465 116.6441 114.4588 115.7282 115.6349 115.8844 116.1972 116.5167 116.8477 117.2015 117.5017 118.1144 117.9406 118.5378 119.3715 113.6178 109.6047 101.3318 105.6510 107.2868 112.0856 106.0984 116.8404 121.6879 121.8400
108.7200 116.1994 119.0696 116.9340 116.7935 116.4777 116.2814 115.9950 115.7627 115.5888 115.4439 115.3413 115.2868 115.2784 115.3257 115.3696 115.2045 115.6917 115.7850 116.1995 116.3997 116.6757 116.9659 117.2669 117.5851 118.1508 116.2982 120.7350 118.9258 119.3439 112.7971 108.1930 103.9374 110.3511 112.4704 123.9242 111.4903 123.5290 121.2854 121.8900
116.1900 118.0647 118.1404 116.9188 117.2146 116.9601 117.2366 116.7836 116.3614 116.1266 115.9967 115.9243 115.9182 115.9112 115.9398 116.0000 116.1233 116.2904 116.4716 116.6442 116.8940 117.1372 117.4037 117.6784 117.9101 118.4857 111.1246 118.6295 117.6033 119.5049 119.1780 104.5602 107.6765 109.8327 125.7864 116.2883 123.3767 111.4945 122.5028 122.1400
118.7700 103.8831 118.6015 117.9920 117.6200 117.4690 117.1359 117.0934 116.8781 117.0215 116.9167 116.8019 116.5086 116.4956 116.5190 116.5552 116.8421 116.5754 116.9964 117.1510 117.3624 117.5837 117.8351 118.0246 118.3426 118.9299 118.7865 119.5295 114.2965 116.2366 118.0036 107.7114 100.7052 103.6920 113.0353 110.7955 118.8674 112.2936 122.8063 122.4400
118.7700 118.3461 117.6159 118.9731 118.2507 117.8502 117.6340 117.6193 118.1235 110.7240 116.5921 114.7572 116.8415 117.0641 117.0609 117.1219 117.1424 114.3016 117.2381 117.6289 117.8506 118.0199 118.2749 118.9932 118.6154 118.9605 119.1359 119.0809 117.9528 110.0285 109.5885 106.0217 110.1104 107.7930 113.4394 106.6413 111.7757 109.5793 115.9627 122.4400
122.6900 119.2603 118.2661 108.2150 119.0097 118.1368 118.3155 117.8845 110.9243 110.7325 117.2743 116.1369 118.1505 117.6063 117.5723 117.6486 117.6341 119.8180 118.8398 118.2009 118.1030 118.5751 116.2203 118.7627 119.3191 119.2116 119.2869 119.5027 115.5178 110.6691 106.0369 103.6669 110.4339 121.6150 120.3991 119.1647 109.4220 111.4970 112.8440 122.5000
119.5800 118.7594 120.6534 118.5238 119.5162 119.6747 118.3364 117.9460 118.6338 118.8467 99.3894 105.5064 117.1313 118.0038 118.0532 118.1420 118.1547 111.7857 102.2483 118.4952 119.0555 120.1011 108.6419 105.5439 111.4973 119.6737 118.5129 117.8155 110.3890 103.5850 116.8472 113.1826 115.8136 120.2322 121.4193 122.6809 119.0828 113.7029 111.3624 119.0200
119.6300 119.6514 120.7715 101.9912 96.8256 117.1546 118.9506 118.6914 110.9675 115.0391 113.1190 99.2438 119.4977 118.1496 118.5155 118.6054 118.5583 117.7269 96.0226 104.0550 118.7220 111.9743 116.8360 110.2987 107.5793 120.9928 120.1736 107.9235 99.0113 101.3794 109.7921 105.5539 123.7967 121.8764 122.1976 117.8060 125.4444 123.3137 121.3654 121.1500
120.0600 120.3620 120.9838 118.2349 116.7008 119.2827 119.3066 119.1457 119.8693 118.7234 116.2101 110.0516 118.6110 119.0964 118.9787 118.9531 119.0983 119.3764 100.3917 98.3670 103.6176 113.4822 114.7933 102.2312 120.4583 102.4811 107.9175 104.6068 100.8453 104.9251 105.5715 106.7690 107.8393 123.2873 123.0566 113.3060 108.6110 115.4575 109.6519 108.8800
120.6700 119.2375 110.6574 117.5477 120.0089 119.7579 119.7880 119.6531 119.5048 119.6011 118.8770 119.1285 119.2391 119.4215 119.3084 119.3601 119.4440 120.7416 119.8169 104.1510 102.4933 104.5887 106.1431 103.4211 117.7075 117.0960 122.6624 114.9834 121.2364 123.4825 114.6163 109.9304 110.2527 109.3396 120.9562 121.3842 116.4436 120.4734 115.0134 108.2500
121.0100 97.8521 100.2405 122.9800 121.2583 120.4757 120.1092 120.0036 119.6924 119.5178 119.7406 119.7163 119.7382 119.7802 119.7994 119.2876 120.0640 120.6834 102.8495 118.4152 102.6067 100.6446 100.7616 102.0586 117.0681 121.4894 121.0804 121.1708 121.0051 122.7647 114.5790 109.2614 110.4454 118.7414 123.2463 123.1719 123.3543 106.2096 110.1647 108.9100
106.3700 105.6411 105.9202 119.5725 121.3043 120.5327 120.5080 120.1533 123.6528 120.0725 120.3699 120.2070 120.1759 120.1528 120.2725 115.2905 119.2134 120.8427 120.9189 111.8264 110.5382 106.8482 107.6418 103.6551 117.6385 120.7551 121.4365 121.5135 121.8456 121.5668 104.2190 100.7792 113.8956 118.3867 122.1587 122.7295 127.7481 127.2681 125.3560 117.3300
106.3700 105.9205 112.3787 114.3960 121.5874 121.0278 120.7888 120.4070 120.7379 120.9035 119.3453 116.8900 120.8805 120.3414 120.6121 118.3786 122.8340 122.9915 100.4025 100.2965 104.9304 118.5753 122.6548 103.1818 115.3735 121.4471 121.6240 121.7715 121.9236 122.1957 127.7576 99.9509 105.7149 123.6321 122.9696 123.0604 122.7043 123.0708 123.2736 123.8700
121.6300 121.4600 121.4600 99.2900 121.0900 121.1400 120.9200 120.9600 120.7200 120.7400 113.1600 102.4000 120.8000 120.8000 120.7900 120.7800 123.3700 120.7200 100.2100 99.7500 105.4000 121.1100 121.3000 121.4800 121.4800 121.6500 121.8100 121.9700 122.1600 122.6600 100.4900 102.9500 122.7900 122.9900 122.9500 123.2700 123.4200 123.5700 123.7200 123.8700
