116.8700 116.5000 116.1200 115.7100 114.8500 114.3900 113.3800 96.3800 112.2600 110.7000 110.2800 109.6800 104.6600 97.0000 106.8100 107.1200 105.8000 105.8300 107.0200 107.0200 107.9300 108.7000 109.5300 110.3700 111.0000 112.2700 112.8500 92.8500 114.3900 114.8600 115.7300 116.1200 116.5100 117.2300 117.5700 118.2200 118.5200 118.8200 119.3800 119.6500
116.8100 116.6006 116.0706 115.3912 113.6970 104.5791 114.0130 106.6648 107.7072 113.3051 110.0426 109.4010 105.4167 102.7769 107.0477 105.1523 104.7570 104.7285 105.1901 105.9834 106.9716 108.0016 109.0343 110.0860 110.6222 111.5050 104.3921 93.6826 114.6397 114.5715 115.4182 115.9911 116.5412 117.0591 117.5557 118.0209 118.4840 119.2269 113.5484 119.6500
116.7600 116.4498 115.8650 115.1932 114.8835 104.9517 110.5194 113.2845 106.4775 109.1956 109.2188 108.4207 105.0332 106.3812 104.1845 103.1682 102.3075 102.2484 102.9964 104.2194 105.5837 106.9417 108.1877 109.3442 111.4094 101.9085 99.6100 96.3174 114.9404 114.3033 115.1897 115.8346 116.3866 116.9241 117.4351 117.9226 118.5266 118.3113 102.3466 119.5900
116.7200 116.3363 115.7402 115.1933 115.6885 108.1595 121.1827 110.1375 111.7429 111.3833 108.9190 107.5717 105.3611 104.3902 102.4467 100.4459 98.9436 98.8068 100.2296 102.2116 104.1525 105.9012 107.4191 108.8032 111.1893 105.8469 110.3009 106.3112 113.9455 114.3469 115.0691 115.4661 116.2828 116.8172 117.3338 117.7811 117.0391 127.7930 99.3556 119.5900
116.6900 116.2725 115.5885 114.9016 115.7657 100.7374 102.1135 120.5339 112.6805 109.6026 108.4478 106.9927 105.3244 103.0951 100.4130 97.0622 93.0597 92.7600 96.5379 100.0659 102.8288 105.0111 106.7980 108.3362 109.6901 111.6123 112.1078 113.3313 113.4463 114.2373 114.9350 115.5510 116.1809 116.7487 117.3531 117.9327 120.5699 122.3433 100.6783 105.2600
116.6700 115.9681 115.7629 114.9730 116.5821 98.3672 96.1891 118.8051 111.1210 109.4980 108.1798 106.6021 104.6551 102.1954 98.8151 92.7123 87.3152 86.7801 91.9149 98.3684 101.8522 104.4139 106.3970 108.0297 109.3617 110.4934 111.5462 112.4883 113.3947 114.1635 114.8700 115.5258 116.1558 116.7073 115.6915 117.7372 124.4829 119.6394 106.2312 102.4600
127.0200 115.6717 113.4698 115.3935 105.0266 98.4127 95.1836 117.0562 110.3516 109.4221 108.0854 106.4984 104.5030 101.9188 98.2768 91.2077 84.8353 84.6650 90.1190 97.7503 101.5595 104.2410 106.2889 107.9427 109.3379 110.5333 111.5910 112.5278 113.3709 114.1458 114.8473 115.5072 116.1426 116.7323 115.3055 117.7008 122.7809 119.7252 106.3072 102.4600
116.6700 116.3764 115.2795 115.5349 106.9578 104.4837 114.9380 111.3428 110.6643 109.5761 108.2555 106.6877 104.7891 102.3942 99.1534 93.9589 88.6239 88.3240 93.1136 98.7408 102.0675 104.5367 106.4844 108.0863 109.4348 110.6170 111.6502 112.5755 113.4165 114.1754 114.8855 115.5313 116.1410 116.7136 117.3045 117.7174 118.2226 118.5406 119.4489 119.2600
116.6800 114.4075 104.3718 116.1628 98.6329 111.6094 114.5148 110.7298 111.0960 109.8352 108.5533 107.1244 105.4495 103.4362 100.8990 98.2055 94.8354 94.6638 97.7296 100.6186 103.1731 105.2296 106.9227 108.3428 109.6926 110.8107 111.8108 112.7078 113.5236 114.2712 114.9627 115.6012 116.2052 116.7617 117.2113 117.6989 118.9808 118.8421 119.0486 119.2700
114.6900 107.1460 107.3877 102.4042 101.3869 115.8994 114.0475 108.0671 111.3265 110.2466 109.1215 107.7584 106.2902 104.7642 102.9668 101.2047 100.0076 99.8756 101.0274 102.7783 104.5475 106.1856 107.6390 109.4563 110.0920 111.1199 112.0586 112.9133 113.6941 114.4235 115.0900 115.7160 116.3028 116.8482 117.3714 117.8510 118.1866 118.5412 119.1300 122.5900
107.8200 111.5762 107.8133 106.5234 95.6567 108.3138 115.7272 105.6383 111.9692 110.6519 109.5516 106.7624 107.5855 106.1120 104.8581 103.7465 103.0168 102.9772 103.6358 104.7376 105.9665 107.2430 108.4022 109.3621 110.5390 111.5109 112.3952 113.1924 113.9236 114.6161 115.2550 115.8622 116.4303 116.9580 117.4697 117.9433 118.4304 118.8784 119.2476 119.5800
107.5400 111.8660 98.6860 115.5155 95.5446 96.5235 115.0339 108.0971 112.0400 111.1940 110.2869 105.4016 108.8951 107.4910 106.5211 105.7736 105.3304 105.3006 105.7050 106.4114 107.3628 108.2315 109.3216 110.2431 111.1382 111.9710 112.7311 113.4701 114.1984 114.8434 115.4591 116.0441 116.5869 117.1009 117.5908 118.0402 118.4797 118.9382 119.3461 119.6000
108.1300 107.0140 98.3497 106.0069 98.7043 106.4845 114.5279 111.7176 112.5424 111.8343 111.2387 110.5364 109.3519 108.6672 107.9850 107.4475 107.1487 107.1287 107.4043 108.1846 106.4458 109.3276 110.1356 110.9399 111.7093 112.4630 113.4459 114.2615 114.4660 115.1184 115.6969 116.2517 116.7738 117.2696 117.7456 118.2267 118.6953 119.0486 119.4051 119.6700
115.0500 110.9914 107.6874 99.8589 106.2060 103.2188 112.7384 115.0523 112.9667 112.3996 111.6905 111.0597 110.4114 109.7951 109.2739 108.8724 108.6497 108.6392 108.8377 109.3950 108.6076 110.6282 110.9483 111.6848 112.3075 113.3437 113.5441 111.6759 115.0863 115.4262 115.9597 116.4884 116.9775 117.4406 117.8816 118.2662 118.2693 118.9551 120.3136 119.7100
115.6000 108.0350 99.4761 100.9382 98.9288 105.5644 113.1052 113.8998 113.6259 113.0119 112.4289 111.8621 111.3159 110.8272 110.4065 110.1017 109.9407 109.9266 110.0830 110.3610 110.7617 111.2656 111.8907 112.3674 112.9505 113.1052 116.4066 114.3052 115.2737 115.7254 116.2497 116.7386 117.2128 117.6682 118.1573 118.3993 122.7630 120.0551 115.2787 104.1400
107.1700 104.8449 108.4992 111.5062 107.1007 123.3039 114.2530 115.0634 114.1173 113.6075 113.1058 112.6199 112.1641 111.7595 111.4275 111.1856 111.0547 111.0557 111.1651 111.3977 111.7274 112.1197 112.5624 113.0498 113.5592 114.1327 115.0641 115.0142 115.6250 116.0759 116.5568 117.0039 117.4567 117.8894 117.8220 118.8320 120.5883 113.5481 112.4464 104.5800
108.0300 107.5730 105.8570 103.2986 100.1933 112.5892 113.1452 115.1589 114.8813 114.1570 113.7780 113.3391 112.9596 112.6210 112.3505 112.1555 112.0501 112.0449 112.1351 112.3241 112.5713 112.9099 113.2995 113.7191 114.1501 114.6375 115.0494 115.5371 115.9846 116.4292 116.8748 117.3294 117.6138 118.1143 121.1432 119.6547 114.7215 119.7130 116.1121 107.1500
105.0300 104.5411 102.5487 100.8590 96.3416 106.4991 107.4268 110.0142 115.5005 114.6508 114.4163 114.0237 113.6994 113.4147 113.1836 113.0283 112.9412 112.9388 113.0117 113.1584 113.4307 113.6717 114.0056 114.3776 114.7221 115.1286 115.5306 115.9619 116.3663 116.7820 117.1699 117.5573 118.0190 117.8501 119.3702 111.6139 114.4738 105.5634 119.8963 120.4100
109.1800 110.0059 102.9640 106.8222 99.0274 103.8742 99.6332 110.7399 116.0518 115.3346 114.9877 114.6718 114.3887 114.1452 113.9510 113.8226 113.7553 113.7520 113.8090 113.9153 114.2370 114.5513 114.6094 114.9794 115.2888 115.6498 116.0118 116.3954 116.7640 117.1632 117.5748 119.0470 119.0061 108.4447 113.1703 120.0811 113.3984 122.4159 109.5918 108.8500
116.0500 115.8970 105.6209 101.1370 113.1641 119.5347 119.1829 116.6328 116.0914 115.8573 115.5600 115.2786 115.0315 114.8319 114.6674 114.5398 114.4661 114.4873 114.5367 114.6187 114.8350 117.5501 118.0141 115.9351 115.7506 116.1334 116.4756 116.8070 117.1828 117.4134 117.7296 110.7992 106.5482 116.1078 111.5232 109.2849 110.1422 120.3547 115.1741 120.8200
96.8900 101.9264 99.7261 99.6035 119.3952 117.8113 116.7126 116.9850 116.6495 116.3655 116.1073 115.8620 115.6448 115.4610 115.3127 115.4204 115.2071 115.1711 115.2154 115.3147 115.4200 118.2203 106.7004 116.2485 116.3486 116.6196 116.9259 117.2274 117.4540 118.2242 118.3644 119.6166 110.7216 118.2771 120.7062 114.6033 121.6423 117.0035 122.2353 120.8200
109.5500 106.0780 100.3112 114.1429 113.2356 114.5099 117.6364 117.0968 117.1206 116.8553 116.6188 116.4027 116.2134 116.0570 115.9370 115.8898 115.7943 115.8104 115.8382 115.9005 116.0925 117.9211 109.0826 118.6838 116.7055 117.0843 117.3534 117.6520 117.7381 119.1348 112.2344 120.2655 120.1459 111.5051 119.5236 117.6218 97.9472 109.1284 122.1201 111.3000
101.1200 98.5933 111.5253 117.4422 116.3363 108.5659 118.7101 117.6475 117.5783 117.3284 117.1177 116.9179 116.7544 116.6172 116.4986 116.4331 116.3930 116.3872 116.4226 116.4869 116.6578 116.6362 117.4255 116.8627 117.2707 117.5370 117.7879 117.9769 118.8195 104.4074 111.7603 119.2601 119.4281 115.6339 119.1630 119.8313 116.5957 114.5517 113.5784 111.3900
103.8600 97.0981 120.4852 119.1457 118.9945 116.1379 117.9068 118.2121 117.9943 117.7854 117.5838 117.4419 117.2883 117.1161 117.1165 116.9683 116.9527 116.9503 116.9723 117.0346 117.1192 117.2739 117.3411 117.6092 117.7700 117.9587 118.1769 118.5673 118.2393 121.4175 112.7431 121.0126 121.9205 110.5728 123.7934 105.6828 115.9326 117.3861 120.5772 121.5200
103.9100 102.9007 121.1078 119.2650 119.1786 119.1762 118.7920 118.6317 118.4065 118.2136 118.0499 117.7622 117.6373 117.7277 116.9970 117.6628 117.5091 117.4714 117.4936 117.5487 117.6264 117.7352 117.8769 118.0155 118.1941 118.3852 118.5816 118.7506 119.8836 113.4731 106.7033 116.2382 101.7535 103.7158 116.9139 117.6803 110.1739 122.3687 121.2241 121.5600
120.4600 119.3176 121.1166 119.8143 119.4680 119.3706 119.1981 118.9931 118.8064 118.6287 118.4118 119.4136 118.9669 116.9081 122.0675 110.4713 117.9594 117.9505 117.9749 118.0294 118.1043 118.1986 118.3202 118.4611 118.6186 118.7841 118.9723 119.1729 119.2347 119.1367 120.4027 106.1342 107.8824 97.3856 105.0918 126.0076 120.3143 121.7118 121.7199 121.8600
120.7700 120.5368 120.7547 120.1402 119.9368 119.7408 119.5446 119.3629 119.1913 119.0665 118.7592 109.1504 117.7991 118.4237 119.2126 113.9247 118.3454 118.4574 118.4394 118.4880 118.5494 118.6400 118.7522 118.8721 119.0140 119.1810 119.3695 119.5392 119.7211 119.8960 120.5667 109.9106 119.4248 101.8080 99.3655 112.0756 122.4757 121.4227 121.9331 121.9400
120.8700 120.2005 120.8144 120.4605 120.2501 120.0763 119.8933 119.7247 119.5623 119.4352 119.8678 114.8056 120.7124 118.5554 119.1820 119.1519 118.8913 118.8640 118.8832 118.9216 118.9823 119.0589 119.1611 119.2739 119.3992 119.5201 119.7849 119.8923 119.8655 120.8543 116.1875 125.5758 117.3049 107.8322 100.2416 121.9667 121.7169 122.2466 121.6929 122.1900
118.8100 120.3929 120.9340 120.7354 120.5634 120.3927 120.2275 120.0722 119.9206 119.7922 119.5149 120.0680 119.2627 119.4424 119.2660 119.2611 119.2349 119.2287 119.3041 119.3337 119.3941 119.4669 119.5621 119.6467 119.7944 119.7121 121.4446 120.1146 120.2877 118.7860 107.2848 110.6121 124.5471 112.0959 112.9508 125.2609 120.0654 120.2318 123.8177 122.4500
121.4800 121.4516 121.2133 121.0426 120.8778 120.6998 120.5476 120.4084 120.2672 120.1556 120.0969 119.8443 119.7899 119.7804 119.7403 119.6957 119.9126 119.9617 119.6794 119.7403 119.7782 119.8206 119.9014 120.0564 120.1506 120.6231 118.5186 121.3143 117.3363 121.6685 118.2385 108.0139 115.6530 103.1972 119.5074 100.8528 115.1982 114.3365 112.2966 122.7700
121.7900 121.6640 121.4078 121.3632 121.0966 121.0503 120.8715 120.7305 120.5971 120.5456 120.2022 120.1381 120.2211 120.1772 120.1088 120.2557 118.0268 117.4230 120.0547 120.0417 120.1865 120.3002 120.3616 120.0957 120.5096 120.4095 118.1888 117.0332 119.5190 119.3768 101.1825 105.3625 107.5704 115.0484 109.7003 118.9473 108.8220 104.5607 119.6375 122.8000
122.1000 121.8350 121.8470 120.9301 122.1483 121.1481 121.1963 121.0431 120.9431 120.5745 120.2247 117.8067 120.6104 120.5228 120.4742 120.4649 119.9849 119.8994 120.2973 120.4296 120.2695 120.3857 120.4099 122.7656 120.3551 123.3339 117.3979 124.6987 114.3025 116.0452 100.3032 108.4772 112.0696 107.1194 122.2928 122.0950 119.8901 125.1295 121.2117 121.8300
122.1000 122.2109 123.9704 119.5515 118.1212 121.7108 121.4729 121.3575 121.0255 123.0065 109.1652 121.4190 120.9217 120.8643 120.8250 120.8217 120.8305 120.5945 120.8700 120.8674 121.7419 121.1619 121.5228 116.9066 108.9965 105.7086 131.5307 119.1254 108.9660 103.3883 110.3374 109.3772 116.4591 120.6645 122.8324 122.6635 122.8373 113.6881 102.7466 118.0900
122.4500 122.6374 103.1189 120.6376 122.0752 121.9721 121.7538 121.6526 121.4086 122.2791 115.9108 122.0829 121.2503 121.1956 121.1528 121.2892 121.1702 110.3721 118.9102 120.6126 120.4010 106.6871 126.2712 107.5853 124.2491 114.2760 124.5476 115.5616 109.4864 106.8682 101.2745 122.9655 123.9051 114.2797 122.4719 118.4241 122.1303 126.2333 117.4297 117.9600
122.7100 123.4348 124.7186 100.2408 123.2250 121.9123 122.0568 121.9473 121.7054 121.6663 122.2541 121.5782 121.5619 121.5100 121.4879 121.6344 118.1073 117.1293 122.0456 116.6167 124.7547 116.0680 105.5363 107.2145 122.7881 108.9619 113.9384 107.9074 120.2265 102.9735 121.8417 122.5277 124.5066 112.7200 115.0439 119.8532 127.6725 120.4572 115.7905 123.6000
122.9300 125.3577 114.3159 101.7857 122.8852 122.6964 122.2192 122.2583 122.1739 122.0862 121.9257 121.9189 121.8668 121.8032 121.7426 123.1590 106.9956 107.3769 120.9455 114.0305 113.2082 102.7378 113.2224 106.9171 125.2189 113.0107 124.9044 119.6036 122.7575 104.6122 112.8502 113.3641 118.9720 126.3759 123.2529 123.7010 121.4734 113.6954 124.7770 123.8300
123.1900 111.9499 104.6345 123.5149 119.3744 121.5470 122.3096 122.5247 122.4091 122.3275 122.2885 122.2147 122.1488 122.1558 121.9914 123.4759 124.2097 123.9406 111.5567 111.9698 104.2691 103.3388 119.7607 116.9858 122.3282 123.4743 122.1334 122.7285 122.9870 123.3959 101.6963 112.5520 116.0877 123.1379 123.3934 123.3496 119.1955 108.5639 117.6137 109.3400
104.5300 103.4305 114.3916 124.4225 111.0727 119.9586 122.4379 122.7863 122.7050 122.6305 122.5204 122.6244 122.6869 122.1268 122.5854 117.1018 121.8461 123.0842 113.7248 114.2550 102.6064 104.4133 117.3977 123.0499 122.6647 122.5495 122.7911 122.8963 122.6686 123.1992 102.2172 105.9399 116.0816 123.8430 123.5741 123.4601 127.3058 107.5512 103.2014 124.2800
104.9500 107.7589 124.4218 123.7416 122.7393 124.1644 122.7446 123.1281 123.0024 122.7015 123.4281 119.6586 122.2025 122.5510 121.6539 122.2467 122.9743 124.2879 112.3730 109.3732 111.1582 108.6127 125.0400 122.7062 122.9266 122.9717 123.0162 123.0943 123.1544 122.8755 112.3972 106.9024 115.8167 123.4360 123.7858 123.9343 118.6371 120.7488 126.2095 124.3200
105.0100 105.0100 123.6100 123.4600 123.4700 123.3200 120.4200 123.2100 123.0400 116.0000 116.0000 100.9000 122.9300 122.9400 122.7200 125.7500 122.7500 122.7500 101.6500 104.8300 122.9500 122.9400 122.8900 123.0900 123.0600 123.2300 123.2300 123.3500 123.3500 123.5000 110.0000 112.8300 126.5100 123.9000 124.0200 124.0200 124.2900 124.2700 124.4000 124.5500
