116.7100 116.3300 115.5100 115.0700 114.6000 113.6000 104.7300 111.8300 111.1500 93.6600 108.7400 107.7700 105.4300 104.0000 102.2800 100.4200 97.7400 97.8600 97.5700 102.4000 104.2100 105.4400 106.6800 108.7500 109.6200 111.1600 112.7100 98.6200 113.6000 114.1200 115.0700 115.5100 116.3300 116.7100 117.4300 117.7700 118.4100 118.7100 119.0100 119.2900
116.7100 116.2578 115.6592 115.0146 114.3339 113.8043 108.5669 111.1702 112.6539 101.6334 107.8927 114.5723 104.6918 103.2874 100.5253 97.2849 93.4569 93.2212 96.8792 100.2150 102.9176 105.0777 106.8479 108.3419 109.6577 111.3857 110.6112 105.0006 111.2059 114.0907 114.9944 115.5825 116.1829 116.7496 117.2749 117.7784 118.2434 118.7059 119.1381 119.2900
116.6700 116.2017 115.5953 114.9528 114.2636 113.5081 112.2410 117.4321 110.9404 110.7965 108.7989 110.9307 104.4734 102.4268 98.8833 93.0712 87.5750 87.3591 92.2960 98.4690 101.9025 104.4452 106.4144 107.9965 109.5428 113.7445 106.0192 102.0334 110.8731 113.9419 114.9428 115.5796 116.1298 116.7027 117.2338 117.7327 118.2149 118.5740 118.9215 119.2600
116.6600 116.1852 115.5783 114.9288 114.2323 113.4831 111.3071 123.5672 110.1472 109.2823 108.1699 105.7272 103.8604 101.9891 98.3093 91.2951 85.0232 84.8709 90.1167 97.7594 101.5613 104.2405 106.2822 107.8644 109.4381 112.9076 102.1725 99.6168 110.4660 113.9431 114.7240 115.2963 116.1209 116.6889 117.2262 117.7402 118.1479 118.8797 119.7170 119.2600
116.6700 116.2090 115.5982 114.9454 114.3083 113.5371 112.3026 113.4722 110.9600 109.6083 108.2952 106.7893 104.7826 102.3106 99.0252 93.0066 88.3110 87.7328 92.7975 98.6099 102.0025 104.4997 106.4578 108.0376 109.4707 112.0361 99.4569 97.5615 111.0440 113.8419 114.7065 117.4906 116.0476 116.6878 117.2380 117.7010 118.6442 119.1190 112.1907 112.2900
116.6900 116.2660 115.6878 115.0401 113.9805 114.1775 105.6460 115.1642 111.2223 109.7380 108.5423 107.0807 105.3894 103.3375 100.8037 97.7196 94.3221 94.1380 97.4288 100.4722 103.0771 105.1726 106.9177 108.3761 109.5784 111.9578 100.4303 116.8452 112.9408 114.3328 114.9661 115.9704 116.1601 116.7748 117.3472 117.8327 117.7268 118.0774 104.1231 109.5900
116.7200 116.3608 115.7364 115.1955 115.0449 107.0705 112.9670 111.4933 111.2078 110.1829 109.0251 107.7392 106.2845 104.6389 102.8981 101.0137 99.7153 99.5794 100.8205 102.6204 104.4416 106.1024 107.5795 108.8919 110.0617 111.0765 111.6783 113.0291 113.6626 114.4216 115.0792 115.6861 116.2841 116.9602 115.9731 118.5023 110.7229 118.0241 104.4239 119.3000
116.7600 116.4701 115.6627 114.8030 113.7839 98.1946 117.3742 111.6196 111.7011 110.6459 109.6222 108.4992 107.2948 106.0191 104.7634 103.5712 102.8288 102.7792 103.4725 104.5919 105.8743 107.1494 108.3727 109.5149 110.5545 111.4823 112.3459 113.2271 113.9936 114.6104 115.2457 115.8425 116.4154 116.9467 117.5029 117.6667 120.6171 101.6291 107.1168 126.2600
116.8100 117.2909 108.2960 113.1222 107.4652 106.4985 117.2914 110.5865 112.1955 111.1602 110.2771 109.3232 108.3409 107.3244 106.4206 105.6344 105.1828 105.1472 105.5686 106.3089 107.2493 108.2349 109.2720 110.1230 111.0087 111.9216 112.7496 113.4782 114.1529 114.8259 115.4522 116.0254 116.5709 117.0933 117.5999 118.0160 122.5740 118.8727 120.3675 120.2000
117.2200 117.8242 110.9290 115.7323 111.3788 110.3919 118.5584 111.2328 112.6577 111.7736 110.9765 110.2047 109.4246 108.5811 107.8861 107.3424 107.0262 107.0118 107.2923 107.8119 108.4787 109.4476 108.6586 113.5558 111.3534 112.4654 113.1559 113.8404 114.4960 115.1077 115.6805 116.2285 116.7569 117.2565 117.7575 117.9850 116.9807 113.9818 118.8342 118.3500
117.2900 114.8656 114.4848 110.0900 104.5771 111.6778 119.3776 113.4117 113.0769 112.3534 111.7170 110.9512 110.3761 109.7132 109.1816 108.7736 108.5468 108.5389 108.7368 109.1265 109.6486 110.3154 109.6735 116.2775 111.8718 113.0124 113.6040 114.2238 114.8226 115.3991 115.9464 116.4663 116.9715 117.4401 117.8942 118.3676 119.2176 120.0019 119.4553 119.6800
117.7700 113.9124 106.7018 109.2890 107.4992 105.2085 116.8083 108.3654 114.3101 112.8697 112.1866 111.1948 111.4212 110.7444 110.3264 110.0157 109.8516 109.8398 109.9879 110.2865 110.7007 111.1406 111.8016 112.2119 112.9128 113.4714 114.0773 114.6323 115.1756 115.7155 116.2306 116.7221 117.1955 117.6528 118.0904 118.4827 118.7001 119.0713 119.7458 120.0200
117.8600 115.9388 110.2512 108.9754 104.4404 113.1940 108.1586 107.5799 114.4376 113.3561 113.0471 112.6173 112.0721 111.6946 111.3554 111.1100 110.9764 110.9774 111.0903 111.3255 111.6486 112.0559 112.5146 112.9958 113.5226 114.0130 114.6245 115.0699 115.5735 116.0525 116.5340 116.9935 117.4386 117.8676 118.2954 118.6797 119.1276 119.5351 119.4007 120.0700
117.8600 109.9690 112.8028 111.2240 109.5880 100.0234 108.1732 116.1655 114.8579 114.2011 113.7201 113.2856 112.9015 112.5596 112.2849 112.0872 111.9802 111.9752 112.0675 112.2568 112.5218 112.8582 113.2461 113.6606 114.0905 114.7971 114.6308 115.3095 115.9952 116.3921 116.8421 117.2793 117.6978 118.0860 118.4866 118.9835 118.3045 119.1709 124.6052 130.4800
110.2300 134.2967 111.4988 109.7865 97.0956 98.0041 115.4982 115.1098 115.0725 114.7115 114.3226 113.9837 113.6430 113.3598 113.1248 112.9671 112.8787 112.8756 112.9493 113.1059 113.3304 113.6118 113.9350 114.2975 114.6982 114.4928 120.4396 117.1214 116.3189 116.7594 117.1743 117.5689 117.9676 118.3822 118.7090 119.2537 121.4325 116.4216 125.2084 120.4200
109.3200 117.7625 99.6697 116.0075 103.7675 117.4068 118.9002 115.7341 115.6343 115.3885 114.9394 114.6224 114.3376 114.0916 113.8960 113.7646 113.6961 113.6932 113.7535 113.8795 114.0687 114.3150 114.5867 114.9076 115.2278 115.6103 116.6144 115.9144 116.9350 117.1003 117.5013 117.8673 118.2576 118.4081 118.7187 119.1228 120.3176 110.7198 106.7610 108.7600
118.8300 118.4899 112.0869 101.2721 105.9644 107.3395 114.8406 116.2518 116.0029 115.8379 115.5323 115.2348 114.9911 114.7807 114.6165 114.5021 114.4433 114.4339 114.4841 114.5964 114.7558 114.9628 115.2067 115.4847 115.7835 116.1095 116.4284 116.8445 117.1241 117.4888 117.8415 118.1943 118.5084 118.5327 121.0632 120.0895 119.8245 118.9922 106.4138 120.7800
118.9200 117.2002 119.6811 121.6163 102.1342 122.1325 117.1122 112.8280 114.1995 116.4500 116.0672 115.8129 115.6012 115.4145 115.2724 115.1701 115.1113 115.1159 115.1676 115.2622 115.3929 115.5801 115.7799 116.0335 116.3013 116.5868 116.8949 117.1950 117.5193 117.8335 118.0743 118.5998 116.4558 118.6093 118.7926 110.6797 114.3797 122.6812 120.7998 104.7600
109.5200 111.6476 115.6285 100.8712 106.8657 96.6545 105.7342 113.4951 110.5368 116.8215 116.5972 116.3659 116.1716 116.0170 115.8912 115.8271 115.8075 115.7737 115.7935 115.8690 116.1585 116.2335 116.5050 116.5886 116.7483 117.0466 117.3257 117.6039 117.8972 118.1916 118.4233 119.5300 111.2772 117.2266 109.3150 116.5421 111.7760 116.9133 118.3715 120.9100
101.7400 109.9487 111.8231 108.1101 112.8981 121.5859 116.0870 111.4110 118.3313 117.6559 117.0668 116.8830 116.7182 116.5674 116.4743 116.2637 116.2214 116.3679 116.3794 116.4293 116.6046 118.0401 116.8891 117.2145 117.2340 117.5075 117.7470 118.0145 118.2199 118.6768 118.1378 120.5296 104.4752 106.7493 107.7576 115.7583 118.8748 114.1175 112.4408 121.1900
101.7400 104.6640 105.3297 113.4541 120.1131 117.2761 118.9381 119.1036 117.3568 117.4615 117.5880 117.3813 117.2336 117.0972 116.9402 119.1056 117.0347 116.9720 116.9275 116.9639 117.1910 120.4783 121.4742 116.8245 117.7161 117.9351 118.1559 118.3935 118.7389 117.8882 122.1222 119.1343 110.4601 117.5602 123.5593 113.7436 119.7052 120.8996 121.3657 121.5400
108.6300 102.5557 109.3461 104.9312 116.1026 119.6892 118.7831 118.4356 117.4445 118.9834 117.9991 117.8530 117.7129 117.5933 117.5132 117.4249 117.4307 117.4252 117.4552 117.4895 117.6605 119.6311 108.3566 118.2949 118.2023 118.3537 118.5737 118.7446 119.4554 121.7578 123.9537 117.2138 120.4145 120.4964 120.8253 122.2955 108.1062 117.8731 121.7757 121.5400
109.3600 107.6324 113.4990 120.6627 116.3146 119.5844 119.1700 118.8894 118.8333 118.5379 118.4988 118.2959 118.1788 118.0783 118.0085 117.9950 117.9302 117.9240 117.9392 117.9899 118.1010 118.0793 118.9834 118.2572 118.5583 118.7604 118.9307 119.2683 117.5344 119.1107 107.8984 121.7380 119.2103 120.9102 117.0138 117.0612 111.0505 113.4357 122.0810 121.8800
101.5800 97.6073 114.8584 121.2176 120.0194 119.7131 119.4849 119.3620 119.1490 119.0199 118.8490 118.7431 118.6389 118.5158 118.5345 118.2251 118.2780 118.3732 118.4064 118.4538 118.5165 118.6243 118.6405 118.8690 119.0027 119.1442 119.3203 119.5042 122.2868 117.3574 105.5773 119.4144 120.9815 127.1092 120.1168 118.8996 121.3748 120.8138 121.9315 121.8800
101.5800 105.5405 121.6596 119.9289 120.2050 119.9521 120.0132 119.5607 119.5298 119.3926 119.2673 119.0594 118.9298 119.0760 118.4575 120.4748 119.2810 118.8203 118.8554 118.8906 118.9502 119.0316 119.1336 119.2396 119.3695 119.5288 119.6742 119.7331 119.9449 119.8544 104.5693 112.7199 113.1613 121.1408 122.0991 120.1620 121.6151 121.9702 122.0416 122.2100
102.0900 122.5791 120.8518 120.9522 120.6450 120.7824 122.2436 120.0131 119.8943 119.7498 119.6124 120.1442 120.0094 118.9404 123.1030 117.9198 118.2954 119.1762 119.2733 119.3089 119.3635 119.4318 119.5256 119.6281 119.7608 119.8612 120.0094 120.1810 120.3159 120.3240 121.4196 123.6821 121.4673 110.2632 113.3792 122.5277 121.7034 122.1066 122.2888 122.4600
121.4800 121.2997 121.2590 121.0572 120.8943 120.5256 120.4524 120.3662 120.2457 120.1373 119.9146 113.7721 119.4052 119.5874 120.3886 113.7454 120.1622 119.3870 119.6803 119.7057 119.7543 119.8170 119.8980 119.9949 120.0889 120.3411 120.2253 120.5921 120.7058 120.7922 122.1331 119.1920 111.5693 103.0619 103.9649 115.1283 122.1612 122.2679 122.5627 122.5100
121.7600 121.7139 121.2884 121.3009 121.1329 121.0273 120.8559 120.7095 120.5758 120.4777 120.6932 118.8067 120.9274 120.0362 120.1296 120.7915 119.9194 120.0409 120.0557 120.0820 120.1226 120.1837 120.2604 120.3553 120.4445 120.1032 120.9928 120.2136 120.6609 121.4078 116.7716 120.2566 122.4987 105.2209 96.1659 124.5478 122.0159 122.0111 122.1875 122.7800
105.7000 121.9591 121.9101 121.5739 121.4299 121.2840 121.1563 121.0236 120.9084 120.7950 120.6227 120.7576 120.4795 120.5109 120.4463 120.3335 120.5186 120.4524 120.4190 120.4390 120.4920 120.5540 120.6153 120.6961 120.7779 120.5218 126.8448 121.4932 121.5401 119.4286 117.6151 116.8102 128.2468 110.4701 113.4364 121.7402 122.5702 126.7631 124.6643 123.0200
122.1200 127.0695 121.9395 121.8551 121.7103 121.5751 121.4587 121.3422 121.2201 121.1500 121.0269 120.9640 120.8334 120.8397 120.7922 120.8247 120.3426 120.3272 120.7652 120.8082 120.8306 120.8478 120.9451 121.0576 121.0841 121.3141 120.8245 121.3101 118.9577 122.9296 115.7792 117.6798 114.8446 117.7009 109.4365 118.9608 120.8973 120.4450 124.4285 123.3300
122.4500 123.1295 122.4076 122.1142 121.9849 121.8956 121.7280 121.6326 121.5492 121.2942 121.2891 120.8031 121.1887 121.1771 121.1605 120.5517 127.6466 121.5619 120.5558 120.9284 121.1413 121.3334 121.2128 121.1482 121.4123 121.3634 122.7748 127.9948 125.0813 122.7703 107.0288 109.3103 113.2729 123.0825 117.0232 113.6927 116.9542 111.6914 122.7427 123.5500
122.9300 122.5250 122.5271 122.3823 122.1621 121.9063 122.0740 121.9449 121.8323 121.7256 120.3739 120.0288 121.5246 121.5150 121.4548 121.2329 121.0430 121.8230 121.4942 121.5057 121.7547 121.2579 122.3232 123.4736 121.8559 122.0709 120.6820 117.1152 119.2644 121.0742 105.9086 110.5488 114.0962 123.2836 123.0585 125.4010 123.2808 119.9210 124.6142 123.6000
122.9300 122.8996 122.7426 122.6421 122.0756 123.2243 121.9683 122.2193 122.0748 122.4252 118.9815 122.0361 121.8469 121.7962 121.7707 121.8903 121.9969 118.1858 121.8538 121.7085 119.6035 121.2743 128.8792 121.2990 120.3197 115.8515 126.0749 115.0829 108.3999 106.0489 115.7885 110.4264 117.8392 123.1191 123.0325 123.1881 123.7396 120.5723 124.0124 123.8400
123.1900 123.1107 123.0115 122.7703 108.6951 119.2280 122.3879 122.4987 122.3735 122.5652 121.4632 122.2833 122.1509 122.0945 122.0691 122.1621 120.8153 114.7033 119.3779 122.1217 121.9707 123.4340 118.1879 116.9881 127.8469 112.7943 123.8496 119.6411 117.5360 105.9994 107.5679 114.9170 125.1642 123.6538 122.3440 124.0579 120.7680 120.6176 129.2731 124.0600
123.4400 123.4104 123.1388 123.7497 123.5877 123.6204 122.4524 122.7569 122.6370 122.5571 122.5993 122.4843 122.4303 122.3907 122.3451 122.7914 117.7651 111.6299 122.5083 115.2498 112.1553 131.5460 108.8528 110.2625 123.4197 116.9272 111.0552 114.3879 99.6436 109.3771 119.7782 125.8370 123.4836 117.0351 131.4399 126.8490 127.5647 130.9945 125.1112 124.2800
123.6700 123.7690 124.1254 123.1134 123.1633 123.0014 123.0903 123.0091 122.9418 122.8767 122.7978 122.7495 122.7035 122.6685 122.6326 122.9582 123.5790 121.0787 120.8950 114.1280 107.6962 109.6525 118.0459 119.0652 123.2444 121.9958 121.0033 119.3252 119.5630 106.3438 117.2414 116.1373 125.3047 114.9666 119.1631 122.1683 119.2646 115.4616 127.0837 124.3400
123.9200 116.9554 114.3946 123.5785 123.5989 123.4304 123.3297 123.2606 123.1831 123.1251 123.0709 123.0177 122.9752 122.9444 122.9103 122.8560 122.6914 122.9332 122.5100 111.3027 109.3489 102.5163 119.9432 123.3924 123.0855 123.2272 123.3267 123.9005 124.3822 123.3644 120.1184 115.0178 124.6448 123.8409 124.3172 124.3643 117.4180 105.9028 115.7490 124.5500
124.1500 103.6024 112.0138 124.4278 123.8374 123.6538 123.5782 123.5055 123.4353 123.3817 123.3285 123.2797 123.2432 123.2028 123.1913 123.0965 122.9999 123.8007 124.3848 120.0355 104.6976 122.4471 118.7292 123.2173 123.4380 123.4428 123.5259 123.5307 123.4214 123.5566 119.4769 107.0541 120.4432 124.1627 124.1776 124.4104 120.0379 114.2008 109.4133 124.7400
124.3700 125.5391 124.2690 123.7504 123.9355 123.8946 123.8129 123.7426 123.6772 123.6246 123.5754 123.5245 123.4850 123.4637 123.4499 123.6755 123.7747 126.0704 109.0470 119.3545 112.9814 112.2424 124.6956 123.5459 123.6050 123.6616 123.7244 123.7798 124.1666 124.1652 118.9938 115.9708 118.3328 124.6215 124.3865 124.8623 123.6386 125.4585 125.1084 125.0100
124.3700 124.4200 124.3000 124.3000 124.1600 124.0200 124.0600 123.9100 123.7400 123.7700 123.8000 123.6100 123.6300 123.6600 123.6700 104.0700 123.4600 123.4600 106.6300 106.6300 123.6600 123.6400 123.6100 123.7900 123.7600 123.9300 123.9300 124.0500 124.0500 111.2700 111.2700 114.4500 124.4100 124.4100 124.5200 124.6400 124.7900 124.9000 125.0100 125.0100
