98.6000 110.4000 110.2300 109.7600 112.4400 109.7600 111.3700 105.6800 118.8000 118.8000 114.4800 118.3000 118.0100 118.0100 117.6900 117.7900 117.7900 117.4200 117.4300 117.4300 117.4100 117.3800 117.7600 117.7100 118.0400 117.9700 118.2500 118.5000 118.5000 118.7300 119.0500 119.2500 119.5400 119.7100 119.9900 120.1700 120.6500 120.6500 121.0400 121.0400
98.6000 110.5893 113.7326 108.3952 114.6092 113.3513 106.7009 94.0489 105.9805 117.9512 117.9540 118.1292 117.7414 117.6053 117.5715 117.5892 115.6415 117.2974 117.1751 117.0983 117.1300 122.6132 120.5991 117.4175 117.5936 117.7650 117.9518 118.1503 118.3605 118.5846 118.8246 119.0722 119.3185 119.5721 119.8305 120.0830 120.3445 120.6011 120.8570 120.9600
110.0600 104.6757 105.8827 110.2176 124.9586 107.8800 111.8055 101.6050 98.9266 115.2195 117.8942 117.4548 117.3107 117.1309 117.0573 114.2022 111.3275 116.8614 116.6066 116.6043 116.6972 116.8750 117.0185 117.0902 117.0791 117.2987 117.5028 117.7237 117.9575 118.2039 118.4643 118.7294 118.9921 119.2660 119.5425 119.8168 120.0858 120.3621 120.6313 120.9600
110.0600 112.4273 109.8545 107.1165 112.4864 109.6845 99.6896 105.6722 98.1887 115.5670 117.1423 117.0611 116.8060 116.6363 116.3994 116.4224 116.9974 116.4057 116.0437 116.0462 116.1500 116.2223 116.2888 116.4329 116.6104 116.8162 117.0374 117.2798 117.5442 117.8145 118.0928 118.3825 118.6652 118.9617 119.2542 119.5454 119.8405 120.1216 120.4091 120.5700
112.1900 110.8976 111.1233 104.3656 110.3039 105.7647 95.3734 101.4328 108.1778 116.9245 116.3442 116.6172 116.3093 116.0734 115.8799 115.6788 115.4180 115.3995 115.4329 115.4331 115.4770 115.5707 115.7073 115.8713 116.0714 116.3033 116.5565 116.8278 117.1167 117.4069 117.7173 118.0302 118.3400 118.6513 118.9680 119.2777 119.5837 119.8891 120.2328 120.2700
112.5700 112.7628 115.8722 106.9718 106.9020 107.0354 103.9940 105.4385 104.6886 113.5725 117.4061 116.0945 115.7760 115.5132 115.2819 115.0940 114.9638 114.8456 114.7783 114.7752 114.8317 114.9378 115.0813 115.2810 115.5021 115.7609 116.0451 116.3515 116.6665 116.9972 117.3272 117.6693 118.0081 118.3396 118.6835 119.0126 119.3395 119.6528 120.0216 120.1900
111.0700 111.6240 114.4980 99.0330 98.5980 95.6298 104.5825 106.1854 105.9553 106.1962 115.6405 115.6649 115.2086 114.9084 114.6522 114.4244 114.2478 114.1296 114.0683 114.0666 114.1248 114.2460 114.4181 114.6401 114.9110 115.2011 115.5236 115.8588 116.2229 116.5807 116.9427 117.3092 117.6753 118.0355 118.3943 118.7484 119.0984 119.4989 119.0925 119.8700
102.5100 107.6579 113.2189 110.6236 97.1961 100.3795 102.9226 104.2241 119.3735 115.2308 111.5240 115.2693 114.5994 114.2755 113.9728 113.7121 113.5053 113.3622 113.2843 113.2843 113.3608 113.5078 113.7066 113.9682 114.2758 114.6143 114.9792 115.3439 115.7383 116.1404 116.5500 116.9499 117.3452 117.7361 118.1199 118.4933 118.8372 119.2890 119.8918 119.7900
109.3300 113.5727 101.0734 114.7456 116.3066 98.1010 114.7216 103.6160 112.0492 115.6699 114.9232 114.4047 114.0133 113.6080 113.2594 112.9428 112.6908 112.5226 112.4287 112.4328 112.5173 112.6831 112.9197 113.2521 113.6064 113.9901 114.4448 115.0756 115.3832 115.7128 116.1661 116.5876 117.0174 117.4376 117.8443 118.2405 118.6258 119.0167 119.5913 119.7200
97.7400 107.6821 109.7574 108.3569 105.3009 99.2557 113.4197 115.4716 116.4941 114.7065 114.2940 113.8242 113.3550 112.9129 112.4341 112.0860 111.8189 111.5943 111.4920 111.4855 111.6015 111.8348 112.1910 112.4397 112.8690 113.3560 114.0581 115.4545 112.4383 115.3095 115.7610 116.2456 116.7059 117.1493 117.5769 117.9978 118.3941 118.7218 119.2387 119.3900
111.3900 111.4222 99.0099 95.3748 104.5992 103.6401 112.7288 113.9286 114.9760 114.3261 113.7819 113.2387 112.6831 112.0180 111.8530 111.1904 110.7829 110.5861 110.4139 110.4389 110.3509 110.7697 110.8756 111.6326 112.1516 112.6680 112.1335 109.9853 113.1923 114.8747 115.3631 115.9020 116.3966 116.8693 117.3213 117.7820 118.2322 118.7623 120.2170 119.3200
102.1700 112.0601 111.2616 106.3855 102.7584 119.9608 111.6281 111.4693 114.7620 113.8426 113.2494 112.6194 111.9975 111.4005 110.3073 104.8491 109.7011 109.4406 109.2060 109.2950 109.5368 117.7136 109.9819 110.7485 111.3266 111.8745 111.3929 117.1442 116.3439 114.3362 115.0215 115.5738 116.0994 116.6141 117.0744 117.5286 117.8611 117.4561 111.1222 103.3700
102.1700 108.7498 104.6913 101.6947 107.4089 109.1504 113.1605 115.1818 114.0196 113.4235 112.7223 112.0136 111.2790 110.4802 109.5965 110.1746 108.6878 108.0766 107.7997 107.8475 107.3062 108.4647 108.9765 109.7685 110.5250 111.2979 111.9894 112.1759 113.2980 114.0907 114.6726 115.2665 115.8235 116.3691 116.9840 117.4361 117.8440 122.2818 104.1959 102.5500
101.4300 95.4505 97.0545 96.2935 110.7488 114.7012 115.2927 113.9638 113.6610 112.9846 112.2235 111.4143 110.5705 109.6834 108.7110 107.8340 106.9674 106.5553 106.1207 106.1633 106.6197 107.1028 107.9472 108.7806 109.6747 110.5224 111.4218 112.3144 113.0119 113.6665 114.3538 114.9850 115.5924 116.1217 116.4494 117.8471 109.4181 114.3004 116.1609 106.6500
111.1600 113.0391 95.9566 97.0436 116.2898 112.4191 114.5109 114.1132 113.3658 112.5828 111.7462 110.8490 109.8809 108.8470 107.7459 106.6140 105.5537 104.5807 104.0398 104.0372 104.5526 105.5004 106.5967 107.7194 108.8180 109.8610 110.8287 111.7127 112.5596 113.3455 114.0626 114.7297 115.3390 116.1646 116.9641 113.4512 116.2032 112.5771 110.7935 108.3000
122.3700 103.1195 102.1281 105.0673 110.2870 110.7429 115.4140 113.6721 113.0592 112.2400 111.3382 110.3417 109.2418 108.0303 106.6909 105.2336 103.7048 102.2697 101.3253 101.3055 102.2343 103.6814 105.1983 106.6667 108.0041 109.2199 110.3209 111.3123 112.2210 113.0550 113.8095 114.5227 115.1777 115.8830 116.4492 115.8811 118.9711 105.7834 118.3471 118.7400
117.7700 113.3129 96.1881 99.3282 117.7023 114.4514 114.4207 113.6355 112.8404 111.9607 110.9958 109.9199 108.7021 107.3137 105.7089 103.8447 101.6671 99.3938 97.3439 97.3402 99.3067 101.6149 103.8040 105.6825 107.2845 108.6696 109.8906 110.9717 111.9470 112.8167 113.6266 114.3380 115.0443 116.2438 116.1445 116.7205 117.7698 118.3405 118.2770 118.7200
113.6600 122.2239 118.2200 117.4862 115.7489 114.8822 114.2292 113.5284 112.6837 111.7674 110.7563 109.6078 108.2912 106.7650 104.9198 102.6384 99.6575 95.4474 90.7613 90.7496 95.3053 99.5897 102.5854 104.8815 106.7241 108.2670 109.5787 110.7336 111.7331 112.7466 113.4748 114.5022 114.2126 122.9441 115.8242 116.6472 117.1054 117.6013 118.2828 118.7000
108.0800 104.4690 115.9151 119.4312 114.9018 114.9420 114.2274 113.4293 112.5905 111.6629 110.6270 109.4408 108.0745 106.4502 104.4620 101.8765 98.2514 91.4294 85.8444 85.6716 91.2924 98.1646 101.8169 104.4128 106.4203 108.0437 109.4122 110.6257 111.6239 113.3816 113.3260 113.6735 114.9202 114.9813 116.0859 117.0990 117.8888 117.7296 118.2129 118.3800
104.8700 104.0676 111.3162 112.6123 110.6760 114.8279 114.2870 113.4370 112.5944 111.6586 110.6194 109.4308 108.0669 106.4418 104.4418 101.8467 98.1982 91.2605 85.2857 85.5465 91.0535 98.1355 101.7857 104.3970 106.4051 108.0367 109.4064 110.6049 111.5438 113.4117 113.4760 118.1054 111.7948 113.6097 116.1824 114.9617 114.6604 118.3930 118.2368 118.6800
109.6600 104.9527 104.2396 116.6698 114.0017 114.2081 114.2958 113.5007 112.6646 111.7574 110.7336 109.5863 108.2694 106.7225 104.8671 102.5587 99.5022 95.0677 90.2135 90.1472 94.8466 99.4473 102.5057 104.8318 106.6887 108.2437 109.5635 110.7140 111.7470 112.5630 113.2805 118.4543 113.4843 108.5238 116.4535 116.3526 111.3821 113.6857 118.2634 118.6800
117.7600 106.5534 119.6975 119.5450 117.0268 115.8199 114.3531 113.6215 112.8234 111.9436 110.9721 109.8826 108.6603 107.2585 105.6341 103.7373 101.4488 99.2154 96.7737 96.8297 99.0096 101.4388 103.6990 105.6001 107.2315 108.6345 109.8663 110.9517 111.9244 112.8607 113.6855 113.9376 115.1323 116.7372 116.7114 117.2640 118.3199 113.1475 118.8565 118.7000
103.5200 111.0513 115.6238 115.1611 118.8042 113.5641 114.4262 113.8526 113.0468 112.2141 111.3010 110.3000 109.1978 107.9587 106.5981 105.1039 103.5398 102.0146 101.0307 101.0122 101.9949 103.4994 105.0833 106.5702 107.9429 109.1701 110.2776 111.2862 112.2131 112.9036 113.6440 114.5950 115.3320 114.7307 118.1147 113.4846 117.1948 118.4634 118.5281 118.7300
105.9500 118.7968 119.0178 117.5408 114.7452 112.8785 114.7297 114.0736 113.3271 112.5501 111.7098 110.8105 109.8231 108.8124 107.6404 106.7531 105.3714 104.4106 103.8172 103.8076 104.3873 105.3462 106.4717 107.6323 108.7561 109.8086 110.7875 111.6860 112.5720 113.5608 114.5431 114.5649 115.5152 115.1211 115.2649 112.5005 117.3491 118.0142 118.4282 118.7600
101.0100 101.7570 96.2056 105.2585 116.7051 115.5638 114.9572 114.3336 113.6648 112.9469 112.1755 111.3654 110.4947 109.7268 107.6593 107.7937 106.9800 106.3162 105.9444 105.9321 106.3094 106.9598 107.7915 108.6884 109.5982 110.4967 111.3523 112.1541 112.7609 115.2094 100.2712 116.9262 115.3372 120.6684 112.6230 116.5620 117.1305 118.1690 118.5768 118.7900
101.3600 113.6261 115.1901 116.8023 116.3327 115.8490 115.2459 114.6557 114.0290 113.3680 112.6813 111.9618 111.2142 110.4706 108.9424 108.6871 108.3854 107.9123 107.6555 107.6478 107.9048 108.3724 109.0008 109.6964 110.4495 111.2085 111.9539 112.6577 113.3937 114.0092 113.4489 120.3563 101.5187 120.8177 116.7781 117.6560 117.7045 118.2550 118.6931 118.8400
113.8100 117.9868 117.4552 116.9982 116.6477 115.8219 115.5957 115.0054 114.4278 113.8258 113.2012 112.5675 111.9254 111.3067 110.6660 110.1416 109.6230 109.2694 109.0773 109.0786 109.2686 109.6175 110.0964 110.6624 111.2834 111.9161 112.5436 113.1673 113.8079 114.4297 114.7110 114.1157 106.5814 118.4130 108.7004 118.3694 117.9774 118.4176 118.8517 119.1700
118.3700 119.3875 117.9353 117.3533 117.0747 114.2469 116.0498 115.3495 114.8364 114.3004 113.7410 113.1842 112.6317 112.0688 111.5299 111.0988 110.7294 110.4847 110.3230 110.3090 110.4541 110.7224 111.1044 111.5645 112.0711 112.6136 113.1329 113.5475 114.3435 114.7962 114.1130 110.5459 109.6022 114.5832 117.7297 118.1453 118.1251 118.3782 118.9162 119.2200
133.2400 109.4047 118.4431 117.5266 117.1874 116.7797 116.2150 115.7575 115.2604 114.7611 114.2536 113.7367 113.2711 112.7977 112.5335 112.0572 111.7585 111.4230 111.3433 111.3801 111.4969 111.7186 112.0210 112.4029 112.8206 113.2689 113.7018 114.5426 114.7718 114.8456 117.6724 104.8249 122.4213 115.8322 116.2538 113.8969 119.4844 119.7555 119.1990 119.6000
102.6300 102.1378 119.5168 117.6593 117.3799 116.9685 116.5787 116.1380 115.6952 115.2718 115.0369 114.4435 113.8239 113.5264 112.8040 111.5367 112.3729 112.8123 112.3916 112.3537 112.4312 112.6069 112.8625 113.1750 113.5501 113.9182 114.2688 114.3374 113.9700 116.5815 117.1458 105.3282 109.1979 99.1076 107.0217 108.2935 113.3813 118.4232 120.7120 119.6000
118.3600 120.7466 118.5135 118.1137 117.4969 117.3792 116.9075 116.5301 116.1035 116.0201 114.4713 114.1807 114.5620 114.2134 114.0672 113.6425 110.4357 109.3412 113.3347 113.2275 113.2779 113.4292 113.6308 113.9086 114.2112 114.4591 113.3723 114.6425 118.7829 115.7889 111.3053 113.2086 102.5132 116.2757 112.2643 117.8010 113.9664 123.8515 114.7413 119.6700
112.3600 118.4380 118.1965 114.0943 119.8602 117.5389 117.2879 116.9190 116.5093 116.2109 113.3188 117.6083 115.1067 114.8599 114.5448 114.4301 114.6354 114.1436 113.9880 113.9590 114.0682 114.1621 114.3785 114.5973 114.8345 115.1988 115.1858 112.1838 102.8767 103.4787 105.3353 102.1620 108.2929 118.8742 118.9846 119.3756 119.3564 120.1425 111.3364 110.9600
119.6600 119.6095 120.6588 108.0558 116.3398 118.1424 117.6743 117.2954 116.9882 116.6001 117.2859 114.2106 115.8836 115.4386 115.2831 114.8064 115.8955 114.8750 114.7033 114.8442 114.5409 115.3616 114.8151 115.1520 115.4526 116.0947 119.2956 108.4849 119.0169 106.9859 110.7402 116.2753 116.8163 118.2508 118.6850 118.4478 118.8568 118.0941 119.0305 120.1100
119.7000 121.4996 101.8018 115.9968 117.9200 118.2484 118.0079 117.6895 117.3927 117.0144 117.1721 114.8837 116.3197 116.0154 115.6989 117.5255 105.8327 115.9004 115.3681 115.9594 111.4591 110.1813 116.7299 115.9391 115.8419 112.4259 111.5198 112.7237 116.4596 116.1892 103.3917 118.1791 117.4914 118.7051 118.8975 119.2428 120.0356 123.5968 118.2551 120.4400
120.0700 119.9155 116.2294 120.3699 118.9363 118.6485 118.3524 118.0659 117.7903 117.4130 117.2220 117.0630 116.7381 116.5541 116.3905 116.5076 103.7938 118.4379 115.8835 114.2725 114.9204 110.6869 104.8769 116.2295 116.5597 117.5147 112.7630 113.9589 117.8282 108.6888 116.6631 103.9579 109.3180 119.6128 119.7469 112.8352 119.6260 113.7801 108.4642 120.5000
120.1600 119.7144 120.0452 119.5894 119.2257 118.9429 118.7068 118.4381 118.1677 117.9320 117.6750 117.4347 117.2782 117.1163 116.7685 116.9946 118.0144 116.5917 116.6695 109.4032 103.7818 108.2847 116.3915 117.7024 117.1258 116.8757 119.4031 117.9454 117.8039 117.6059 118.1353 111.5922 111.6086 119.2845 119.6192 119.4763 121.2547 110.5136 120.6716 103.7600
120.4900 120.3760 120.0859 119.8274 119.5818 119.2959 119.0385 118.8049 118.5062 118.1633 118.1749 118.1135 117.6404 117.2443 117.9651 116.6563 117.1483 117.3972 115.2185 110.1566 102.3838 96.1866 114.8140 117.2138 117.5373 117.8210 117.6290 118.1290 118.1624 119.0111 114.5861 118.9391 114.9337 119.9667 119.8154 120.0175 120.8495 116.0957 108.6409 111.2600
120.8800 120.5843 120.5084 120.2708 119.8199 119.9132 119.3846 119.2686 118.8431 118.8375 116.3923 116.6961 117.9690 117.9577 115.9370 112.8265 117.5895 117.7981 116.2488 109.8643 100.1057 114.1112 117.7766 117.8244 118.0353 118.1538 118.3226 118.5232 118.9014 117.7818 116.8488 128.5600 116.5212 120.4887 119.9526 120.4619 120.1441 123.4943 122.7088 121.1900
120.8800 120.7685 120.6050 119.0970 120.3221 119.2600 116.1791 120.4314 119.1390 120.6091 116.4162 114.7443 118.6487 118.0329 119.9113 117.0399 118.6338 116.9168 116.9995 112.4595 101.1778 109.0229 118.9109 118.2046 118.4707 118.6040 118.7465 118.9194 119.0232 122.2482 121.3525 119.0437 119.5584 120.1132 120.3981 120.5872 120.6684 120.7180 121.1695 121.5500
121.2000 120.9700 120.7700 109.9800 120.3500 120.1700 108.9000 119.7300 119.5300 119.5300 97.3200 119.0900 118.8300 118.8300 118.5400 96.6200 96.6200 100.9900 108.6100 108.5800 104.1600 118.6300 118.6000 118.5500 118.8500 118.8000 119.0400 119.2600 119.2600 119.4800 116.8800 105.4400 120.1300 120.3600 120.6000 120.7400 120.9600 121.1600 121.3600 121.5500
