110.3600 118.4100 123.8100 116.5200 120.2400 116.6700 116.7800 128.0800 121.8400 112.5600 113.6400 123.3900 123.4100 123.4400 123.4500 123.2300 123.2300 123.2300 123.4500 123.4500 123.4300 123.4200 123.3800 123.5700 123.5500 123.7200 123.6900 123.8500 123.8500 123.9700 123.9700 124.1100 124.2400 124.2000 124.3700 124.4900 124.6000 124.7600 124.8700 124.8700
110.3600 109.8222 117.3925 115.4571 116.2131 116.4926 113.7103 116.0754 117.7290 118.7712 123.9917 123.6877 123.4103 123.2244 123.2104 122.3906 122.2692 124.0002 123.1246 123.1807 123.3353 122.6390 125.1546 123.2037 123.4055 123.4455 123.5131 123.5867 123.6601 123.7469 123.8345 123.9270 124.0192 124.1227 124.2277 124.3376 124.4483 124.5703 124.6761 124.8500
116.6000 113.2570 115.0091 115.5600 116.1624 117.2920 114.5302 114.0114 121.6821 123.0171 106.2586 123.6101 122.7652 123.0189 122.9400 121.8474 119.1707 124.0494 122.9272 122.9262 122.9165 123.7560 121.9247 123.1997 123.1193 123.2036 123.2699 123.3368 123.4263 123.5063 123.6052 123.7053 123.8027 123.9067 124.0199 124.1350 124.2518 124.3706 124.4951 124.6500
126.0700 123.2895 113.3421 115.0140 117.8236 110.9522 115.3776 115.0474 116.6918 109.9199 109.5404 118.7281 122.7221 122.7089 122.6966 122.7793 123.2973 122.6902 122.6502 122.6663 122.6886 122.0642 122.8111 122.7147 122.8986 122.9372 123.0160 123.0974 123.1821 123.2740 123.3690 123.4739 123.5843 123.6940 123.8109 123.9289 124.0528 124.1715 124.3096 124.4300
119.6700 121.2930 114.0357 117.2711 127.1701 118.9949 124.3876 117.8605 113.1451 111.5197 122.9049 123.5167 122.5101 122.3813 122.2662 122.1626 121.9007 122.2029 122.3472 122.3982 122.3616 122.4886 122.4618 122.5596 122.6055 122.6753 122.7643 122.8262 122.8974 123.0206 123.1471 123.2365 123.3534 123.4733 123.5905 123.7206 123.8512 123.9779 124.1494 124.1800
122.4100 135.1863 115.1955 112.8507 123.7573 114.6039 119.1667 117.4231 111.0874 104.7903 123.0523 122.6984 121.9606 122.1175 122.5637 122.5548 123.5952 122.6444 122.0440 122.1393 122.1308 122.1561 122.2139 122.2613 122.3315 122.4246 122.4323 122.5444 122.7838 122.7940 122.8950 122.9969 123.1285 123.2518 123.3743 123.4975 123.6612 123.7125 125.2596 127.7100
115.8600 123.2647 118.1270 114.6017 118.2330 120.4346 112.2788 112.5169 113.7994 108.1887 123.2993 121.3339 127.4105 121.2730 120.2867 120.5470 111.2629 115.4687 122.0463 121.8501 121.8075 121.8589 121.9100 121.9782 122.0379 122.1009 122.2268 123.1552 119.1713 122.5204 122.6353 122.7925 122.8689 122.9947 123.1481 123.2947 123.4116 123.6344 123.5520 123.7200
115.6600 115.8694 117.6159 117.9177 119.5917 119.8706 107.7749 124.2186 122.5085 126.9177 121.8428 121.7268 121.2315 120.8751 121.8213 119.7277 106.3468 113.6050 121.6792 121.5396 121.5045 121.5529 121.6119 121.6833 121.7618 122.1134 115.1367 115.3698 122.7966 122.2121 122.3853 122.4540 122.4807 123.1462 122.8930 123.1443 123.1956 123.3740 123.4007 123.6800
115.6100 112.9221 106.4317 111.4007 116.3464 119.3716 107.8027 126.3891 120.8730 121.6901 117.9161 121.3489 121.3792 122.2551 120.8025 120.1751 120.8157 121.3356 121.0949 121.1652 121.1854 121.2453 121.3009 121.3547 121.4723 121.6094 122.8333 110.2453 122.3851 121.9870 122.1241 122.3558 118.7246 121.3337 123.1118 118.4248 122.5556 124.8446 123.1794 123.4600
114.8300 121.3352 130.3370 109.0660 112.5009 116.9135 114.7697 123.4233 120.3363 121.2364 121.8604 120.7201 122.4637 110.8373 121.5106 120.4867 120.1949 120.3388 120.8151 120.8246 120.9058 120.8269 120.9642 121.1466 120.8496 121.1911 122.9085 114.5749 122.2056 121.7198 121.8530 121.8448 122.6212 123.5800 114.3533 117.6213 114.6217 113.3627 115.8897 123.2000
116.3300 120.0158 110.8438 99.4148 116.7791 110.3989 116.6214 122.9286 120.8915 120.8624 121.2586 112.4776 116.0935 109.0723 121.3086 120.1073 113.2744 116.7417 120.4775 120.5149 120.2231 121.2411 120.9320 120.6277 120.6808 118.0248 124.1226 122.6507 120.7011 121.4309 121.8005 122.1570 122.7609 118.1133 110.4956 106.9120 117.3481 113.6606 114.6750 123.1500
120.8500 115.7819 124.9900 113.6584 108.1382 113.6011 123.9889 124.1770 120.6792 120.4654 120.4327 129.6702 112.4107 119.7770 117.8225 105.7914 120.8442 120.4110 120.0877 118.6989 123.4475 111.9105 118.9445 120.3066 120.3561 120.7911 120.5869 120.3346 121.0176 121.1089 116.0223 122.6472 115.3322 107.9064 116.4703 107.1632 127.5797 122.5341 124.3141 122.9300
113.2900 117.5144 101.5792 108.2555 109.7866 123.6020 118.3333 120.9128 120.2636 120.1260 120.0785 119.1948 120.2911 119.8955 118.6183 115.3115 118.6775 119.5620 119.7614 119.4624 120.5962 107.8718 119.3805 120.0119 120.1856 120.1831 120.5141 120.6621 119.6330 122.4554 107.9618 120.0516 113.7317 120.0529 124.5982 123.0010 120.9449 121.6668 122.4080 122.6000
112.1000 116.2135 108.2920 107.0766 111.6866 124.8727 112.0366 120.2403 119.9793 119.7840 119.6578 119.7014 119.5113 118.8529 119.4938 108.0973 120.0108 119.3129 119.2726 119.2117 119.4878 119.3524 119.5835 119.3889 119.5229 119.9110 119.9845 120.6917 113.2038 111.1070 111.5265 120.5985 118.6599 120.2421 121.8830 121.2942 121.9849 122.1642 122.7852 122.3500
103.6500 113.8298 116.5190 116.1721 111.9427 114.4431 121.9916 119.6376 119.5645 119.4142 119.2863 119.1463 119.0618 119.0284 118.7509 120.1155 118.7993 118.8630 118.8814 118.8954 118.9723 119.0806 118.7755 124.5590 119.2717 119.5000 119.7098 119.2449 121.4028 111.4561 120.9299 120.6193 120.9120 121.2617 121.1770 121.5085 121.6768 121.8421 122.3397 111.0400
109.4100 122.8300 120.9295 112.6269 115.1229 100.7252 108.3280 119.6214 119.2871 119.0202 118.8883 118.7621 118.6529 118.6340 118.5000 118.2032 118.3344 118.4148 118.4325 118.4888 118.5590 118.6846 116.2956 119.2283 118.8662 119.4623 119.2856 119.6991 115.2873 117.8618 120.4848 120.1482 120.5224 120.7636 121.0907 121.1429 121.4499 121.6733 122.1237 122.0300
120.5200 112.6136 100.1713 111.9885 116.8309 108.3519 117.4718 119.4800 118.8019 118.5926 118.4284 118.3254 118.1992 117.2718 118.2767 117.9730 118.0772 117.9781 117.9858 118.0186 118.1011 118.2750 118.6117 118.4640 116.1505 118.6589 118.8985 119.0322 119.3173 120.2789 119.7889 120.0618 120.2687 120.5015 120.7849 121.4683 121.0135 121.5176 121.6014 121.7000
113.1600 115.2301 111.4294 119.2976 118.0501 118.8705 122.7641 120.0742 118.4661 118.2588 118.7199 117.9113 117.8477 116.1061 117.0826 117.3821 117.1998 117.4326 117.4938 117.5361 117.6394 117.7273 117.8329 118.1003 118.3212 118.5594 118.5684 118.3053 115.8865 119.0188 119.5079 119.7502 119.9827 120.1614 120.9221 106.7127 115.8002 121.2062 121.5221 121.6700
97.7700 101.8175 107.3352 110.4159 116.2496 119.0447 118.2022 117.8114 118.1937 117.6082 117.9446 116.6831 117.3555 117.3187 118.0780 113.3692 120.2535 118.5466 116.9210 117.0131 117.1255 117.2513 117.4114 117.5502 117.7405 117.9538 118.1090 118.6709 117.6445 117.7540 119.3967 119.4273 119.3971 120.0973 120.8084 112.6465 122.9515 120.7713 121.3366 121.3500
97.7700 110.4458 120.0769 116.4214 110.7177 118.9302 118.0769 117.7813 115.6114 118.0313 116.9272 121.4907 115.7920 116.8546 116.3167 116.8575 116.4934 115.9872 116.4262 116.5326 116.6074 116.7396 116.8966 117.0954 117.3057 117.5256 117.8068 117.9575 118.4649 118.6167 118.8384 119.2050 119.6185 117.7674 120.4580 117.5799 119.0713 120.8763 121.0648 121.3200
97.3800 94.8404 104.2002 103.3860 113.2576 118.5264 117.7883 117.7484 110.2483 113.0333 116.7626 116.0838 116.0183 116.1700 115.9861 115.7590 115.6688 115.8894 116.0601 115.8276 116.0494 116.1965 116.3793 116.5889 116.8245 117.0797 117.3492 117.6505 117.9112 118.1969 118.5310 118.6572 119.1215 105.2864 121.1773 120.4574 120.0185 120.5361 120.8779 120.9800
98.8500 97.8286 108.9243 102.1865 110.7191 119.0601 117.2220 116.0310 113.5518 114.6901 115.9991 115.8680 115.6096 115.6244 115.3063 115.7816 115.4164 113.9908 113.7060 115.1561 115.4458 115.6194 115.8300 116.0676 116.3311 116.6142 116.9123 117.2214 117.5273 117.7423 118.3206 118.2325 119.7817 113.9833 120.0632 119.8037 120.1164 120.3870 120.6787 120.8900
109.2700 97.2319 104.3344 100.6304 99.2092 109.0854 118.9681 116.5316 116.6639 116.0332 115.3923 115.2885 115.0302 114.7801 114.7098 110.0570 114.2889 105.1232 114.6477 114.1909 114.8400 115.0082 115.2457 115.5174 115.8182 116.1389 116.4643 116.8031 117.1299 117.6604 112.8132 119.1229 119.3603 109.7116 110.8908 119.7874 119.8252 120.1761 120.4937 120.6000
118.3800 111.0433 98.5432 103.5439 98.8715 102.0388 114.9141 115.9873 115.6260 115.3051 114.9664 114.7732 114.3799 114.3965 113.7735 112.3081 116.0443 117.0103 113.5664 113.9766 114.1149 114.3587 114.6313 114.9452 115.2805 115.6386 115.9942 116.3761 116.7309 117.2510 117.1434 109.2686 119.6671 113.8903 114.9588 119.4979 119.6657 119.9853 120.3134 120.5300
117.3100 120.3920 112.7691 115.5229 115.4723 117.6049 115.3961 115.7178 115.1649 114.7411 114.6227 113.0452 114.0247 113.5478 110.4346 111.1646 115.5485 113.5147 113.0497 113.1331 113.3847 113.6555 113.9798 114.3393 114.7327 115.1255 115.5023 115.9831 116.3675 116.8163 114.9193 111.6168 108.0083 109.4312 119.5571 118.7888 119.4817 119.8083 120.1347 120.2300
117.9800 118.1986 117.3767 116.7120 115.9737 122.0896 115.5876 115.1801 114.6373 114.1761 113.8208 111.3248 112.9980 112.5946 112.4985 112.5759 111.8919 112.0422 112.1217 112.3228 112.5789 112.9091 113.2859 113.6946 114.1758 114.4709 115.0896 115.5942 115.9740 116.4741 117.8922 106.6276 111.5930 118.2563 121.2168 118.7179 119.3310 119.6223 119.9701 120.1800
117.8900 117.3850 117.0009 116.6042 116.1327 115.7560 114.7876 114.6777 114.1190 113.6053 113.1237 112.6016 112.2022 111.7113 111.3917 111.1102 111.0604 111.0523 111.1652 111.3894 111.7073 112.1123 112.5593 113.0371 113.5499 114.0421 112.7069 114.9863 115.5360 117.5281 103.9745 118.4964 117.3949 117.6975 118.2397 118.6464 119.0892 119.4690 119.8290 120.1100
97.9600 110.2433 116.8510 116.3438 115.8572 115.2898 114.7856 114.1372 113.5988 113.0111 112.4204 111.8536 111.2907 110.8263 110.4035 110.1099 109.9359 109.9232 110.0763 110.3586 110.7631 111.2355 111.7839 112.3630 112.8700 115.0983 114.7090 111.7194 114.7138 116.0608 116.4792 116.5135 117.0684 117.7651 118.2263 118.5415 118.8946 119.2704 119.5966 120.0600
121.6000 112.1438 116.3572 116.1105 115.4587 114.8989 114.3097 113.7071 113.0626 112.3990 111.7234 111.0516 110.3900 109.7875 109.2575 108.8642 108.6538 108.6330 108.8360 109.2093 109.7209 110.3349 111.0628 111.6346 112.3562 112.5467 113.3013 114.1736 113.0095 115.1908 115.7332 116.4530 117.0056 117.7844 118.0300 118.3745 118.7367 119.2875 120.1863 119.7500
102.8500 103.2786 117.3375 115.7350 115.1704 114.5804 113.9362 113.2622 112.5460 111.7992 111.0157 110.2191 109.4247 108.6538 107.9741 107.4465 107.1409 107.1228 107.3909 107.9083 108.5609 109.3185 109.7197 110.5673 111.7339 112.5155 113.2222 113.7985 114.6353 115.2449 115.7457 116.2622 116.7765 117.2001 117.7031 118.0635 118.6783 113.4012 114.8207 119.7100
116.8300 118.2871 116.1738 115.5652 114.9171 114.2718 113.5785 112.8413 112.0612 111.2141 110.3207 109.3815 108.4005 107.4300 106.5138 105.7638 105.3229 105.2969 105.6899 106.4225 107.3357 108.2906 111.0886 110.8237 111.1184 111.9307 112.7402 113.4840 114.1695 114.8012 115.4530 116.0358 116.5884 117.1182 117.6160 117.9531 117.4617 125.5052 115.5148 108.3900
116.7700 116.4727 115.7835 115.3442 114.6852 114.0030 113.2639 112.4721 111.6146 110.6759 109.6553 108.5510 107.3586 106.1059 104.8425 103.7322 103.0158 102.9747 103.6199 104.7129 105.9423 107.1782 109.3367 109.8504 110.5619 111.5025 112.3758 113.1790 113.9241 114.6152 115.2526 115.8522 116.4043 116.9423 117.4632 117.9690 118.3168 134.0451 124.9126 114.8100
116.7300 116.4091 115.8368 115.1536 114.4958 113.7758 113.0038 112.1625 111.2315 110.2098 109.0651 107.7773 106.3418 104.7212 102.9609 101.1819 99.9808 99.8682 101.0001 102.7464 104.5279 106.2003 107.4940 108.7283 110.0782 111.1201 112.0505 112.9038 113.6931 114.4135 115.0861 115.7217 116.3555 116.8935 117.3743 117.9075 117.8238 121.1400 119.4379 114.8100
116.6900 116.2591 115.6716 115.0427 114.3515 113.6115 112.8078 111.9130 110.9333 109.8140 108.5394 107.1326 105.4394 103.4199 100.9215 98.0806 94.8573 94.6366 97.7334 100.5997 103.1625 105.2201 106.9787 108.4415 109.6855 110.8122 111.8062 112.7022 113.5182 114.2694 114.9595 115.5817 116.0340 116.6920 117.2491 117.8013 118.2661 118.5754 117.7536 119.2800
116.6700 116.2106 115.6059 114.9653 114.2615 113.5077 112.6742 111.7575 110.7474 109.5504 108.2015 106.7129 104.7851 102.3922 99.1438 93.7406 88.5126 88.2219 92.9705 98.7109 102.0602 104.5319 106.4833 108.0804 109.4295 110.6107 111.6490 112.5758 113.4098 114.1633 114.9680 115.9884 118.1145 116.9451 117.1064 117.7424 118.3082 118.4612 122.8324 119.2600
116.6600 116.1767 115.5849 114.9298 114.2250 113.4668 112.6291 111.6950 110.6820 109.4431 105.9831 105.6980 104.3339 101.9332 98.2615 91.2248 84.7674 84.4545 90.1474 97.7518 101.5686 104.2384 106.2841 107.9401 109.3346 110.5266 111.5785 112.5260 113.3670 114.1025 115.1299 116.2753 109.4503 117.1467 116.9807 117.7317 117.8778 119.2184 110.8905 119.2600
116.6600 116.1972 115.5983 114.9478 114.2524 113.4890 112.6559 111.7375 110.7463 109.4667 106.4066 106.2281 104.5746 102.2084 98.7802 93.2426 87.2605 86.9346 91.9507 98.4010 101.8711 104.4194 106.4056 108.0237 109.3908 110.5777 111.6235 112.5578 113.3877 114.3124 115.0969 115.5964 119.3616 117.1570 117.0677 117.7366 117.9172 123.5794 118.7503 119.2600
116.6700 116.2539 115.6506 115.0163 114.3293 113.5770 112.7660 111.8650 110.8877 109.6788 108.4726 107.0440 105.2563 103.1241 100.4565 97.1375 93.0743 92.8085 96.6499 100.0893 102.8530 105.0248 106.8073 108.3162 109.6108 110.7475 111.7555 112.6669 113.5032 112.9390 115.9116 117.7095 110.3934 116.7987 117.2430 117.7393 118.1008 120.3981 118.3418 119.5500
116.6900 116.3282 115.7509 115.1274 114.4603 113.7356 112.9506 112.0892 111.1513 110.1133 108.9053 107.5656 106.1047 104.3901 102.4767 100.5621 98.9751 98.8088 100.2559 102.2350 104.1741 105.9110 107.4415 108.7881 109.9705 111.0312 111.9864 112.8742 113.6199 113.0714 115.4815 120.4295 101.2312 117.4072 117.1895 117.8109 118.6321 114.9101 119.4436 119.5500
116.7300 116.3500 115.9500 115.1000 114.6400 113.6500 113.1100 112.5300 111.2500 110.5400 108.9300 108.0000 107.0900 105.8500 103.2300 103.2300 101.3200 101.4000 101.2200 104.7700 104.5000 106.9600 107.9400 108.9200 110.5400 111.2500 111.9100 113.1000 113.6400 114.6400 115.8400 113.1200 103.1100 116.7300 117.4400 117.7800 118.4100 118.7100 119.2900 119.5600
