106.5800 105.9800 99.2100 111.6600 104.2100 96.7000 98.3400 115.6500 95.0500 113.2600 104.8500 109.1900 108.9100 106.1900 112.0100 112.0100 110.6000 110.7600 110.7600 109.8900 109.8900 110.7800 110.6500 111.3000 111.3000 111.8300 112.5100 112.9200 114.0200 114.0200 114.8300 115.2500 116.0800 116.4300 116.7900 117.1400 117.8000 118.1100 118.4100 118.7100
106.4100 106.6397 103.5763 109.1406 106.4819 100.3914 98.5483 101.3375 98.4548 112.7476 106.7412 97.0853 112.6913 107.2043 112.2875 111.1198 110.4728 109.9315 109.6995 109.5394 109.5160 107.7721 108.1364 110.4059 110.9957 111.7890 105.8571 112.2421 113.2103 114.0019 114.5558 115.0966 115.6660 116.1860 116.6873 117.1572 117.5582 120.6223 110.1612 118.6500
106.2700 104.6535 108.7587 105.9461 106.0725 102.6785 96.5289 115.5044 100.1380 113.2101 111.9868 103.4445 108.6538 111.7049 110.2606 104.2016 109.5816 108.8695 108.3854 108.1774 108.1397 106.7669 107.7580 109.2625 110.0445 110.7515 110.9605 113.2514 112.8801 113.4880 114.4868 114.9818 115.3018 115.9045 116.4480 116.9927 117.0295 114.1077 95.3152 118.5900
108.9800 108.7537 104.9131 106.9661 99.1119 109.8508 96.9027 108.7007 87.8398 116.1452 113.1103 113.4612 107.1913 111.2300 107.8294 108.2274 107.5206 107.4969 106.8763 106.5636 106.5018 106.9445 107.6220 108.1943 109.0880 109.9254 110.0574 111.0757 112.3595 113.0985 112.4510 114.3338 115.0277 115.6770 116.0973 116.7202 117.6989 114.7565 98.9602 102.5200
108.9800 103.0328 104.6523 102.8728 100.7638 102.0321 99.7814 116.3952 118.3382 114.5445 112.5615 111.6134 111.0734 109.9648 109.3698 108.0773 106.9402 105.9398 105.0855 104.5955 104.5785 105.0778 105.9317 106.9529 108.0014 109.0595 110.1052 111.0231 111.8644 112.6771 112.7720 114.0620 114.7775 115.4045 116.5505 117.3350 106.8391 98.3046 100.0136 102.1400
105.3000 104.1986 103.6910 115.1272 100.7604 98.4709 92.3800 123.5445 110.0587 113.1892 112.2952 111.4024 110.4391 109.3351 108.1957 106.8802 105.5331 104.1467 102.8556 102.0449 102.0660 102.8999 104.1801 105.5756 106.9497 108.2298 109.3888 110.4524 111.4307 112.3116 113.2018 113.8896 114.6271 115.3210 112.1201 116.4206 104.1797 112.3845 111.9435 100.3700
104.6100 102.4493 101.7251 100.0363 98.1010 109.9608 109.3143 105.0224 113.6721 113.0877 111.9823 111.0437 109.9849 108.7993 107.4420 105.9030 104.1405 102.1371 100.0813 98.5278 98.5645 100.1406 102.1936 104.1811 105.9423 107.4831 108.8240 110.0157 111.0718 112.0251 112.8918 113.6806 114.4253 115.0799 115.4547 116.3127 116.2890 117.6094 117.4915 118.1100
103.8700 103.3529 102.9000 100.2312 101.7842 113.7057 111.3890 111.7584 113.2723 111.3971 111.8006 110.7877 109.6389 108.3445 106.8410 105.0402 102.8481 100.0429 96.4226 92.3747 92.4469 96.5370 100.1218 102.9102 105.0958 106.8803 108.3874 109.6781 110.8093 111.8099 112.7136 113.5346 114.2844 114.9756 115.7487 114.2181 118.4885 116.9651 116.9975 109.0900
107.5300 107.5209 104.6002 104.9137 103.4059 114.4512 111.4449 112.9520 113.1679 112.6944 111.6460 110.6254 109.4356 108.0784 106.4555 104.4771 101.9383 98.3967 91.9543 86.6026 86.7034 92.1570 98.5082 102.0184 104.5438 106.5112 108.1166 109.4760 110.6480 111.6832 112.6091 113.4500 114.2109 114.9261 115.6196 116.1962 116.6304 117.1957 117.8047 116.2900
109.9100 112.0473 97.3049 102.1508 103.2925 116.2549 112.8858 117.2003 113.0338 112.6403 111.6227 110.5774 109.3940 108.0074 106.3706 104.3493 101.7065 97.9822 90.6555 85.0392 84.9128 90.9558 98.1222 101.7904 104.4098 106.4175 108.0493 109.4278 110.6171 111.6589 112.5868 113.4274 114.1988 114.9008 115.5423 116.1503 116.7451 117.2012 117.6389 116.3000
109.9100 105.9997 101.3219 102.6204 103.2616 115.8541 112.9933 116.2354 113.0774 112.6766 111.7036 110.6718 109.5006 108.1937 106.5827 104.6735 102.2516 98.9982 93.7683 88.8109 88.7856 93.8954 99.1069 102.3328 104.7399 106.6408 108.2191 109.5436 110.6932 111.7166 112.6455 113.4737 114.2383 114.9376 115.5871 116.1859 116.7567 117.3132 117.7996 118.0600
103.3700 98.7413 104.4021 104.0774 102.5695 115.0778 116.1967 110.3328 113.6784 112.7715 111.8657 110.8836 109.7702 108.5437 107.0720 105.3754 103.3688 100.9567 97.8370 95.1335 95.3112 98.1983 100.9818 103.4369 105.4289 107.0726 108.4776 109.7912 110.9675 111.9161 112.7815 113.5916 114.3291 115.0180 115.6627 116.2459 116.7701 117.1697 117.6938 118.0700
105.3500 106.4077 105.2009 104.6442 101.5775 112.4024 116.8325 114.1685 113.6909 112.9751 112.1210 111.1937 110.1603 109.0154 107.7482 106.3136 104.7218 102.9654 101.2836 100.1998 100.1980 101.3534 103.0502 104.7673 106.3598 107.8115 109.2013 110.1331 110.9787 112.0658 112.9852 113.7687 114.4812 115.1470 115.7757 116.3322 116.6656 117.9670 118.2579 118.1100
105.3700 107.5122 104.1583 114.8481 110.9514 112.5599 109.8476 114.7672 113.8477 113.2394 112.4478 111.5852 110.6464 109.6386 108.5371 107.3655 106.1453 104.8992 103.8556 103.1827 103.2035 103.8699 104.9462 106.1684 107.3920 108.5476 107.9576 110.4134 112.0540 112.4991 113.2900 113.9917 114.6761 115.3116 115.9287 116.6121 116.3901 117.2000 115.8964 118.4500
106.8900 100.4105 110.0041 100.8302 106.2911 115.4477 113.0253 115.0151 114.2702 113.5452 112.8203 112.0420 111.2027 110.3189 109.3861 108.4209 107.4775 106.5796 105.8670 105.4615 105.4587 105.8859 106.6001 107.4893 108.4598 109.4697 112.3708 114.7094 97.7732 113.7426 113.3606 114.2765 114.9103 115.5084 116.0875 116.8192 115.8266 119.2687 109.4621 101.8700
106.2500 102.5195 99.2565 109.9835 101.5033 122.8911 111.6158 116.1192 114.4461 113.9080 113.2505 112.5348 111.7958 111.0214 110.2407 109.4513 108.7114 108.0429 107.5381 107.2569 107.2563 107.5421 108.0558 108.7282 109.4763 110.2345 111.1154 111.9646 111.2298 113.5463 113.9080 114.5655 115.2011 115.7837 116.1751 117.0768 118.7196 110.0411 103.3792 121.6200
105.5600 109.2304 102.9017 107.1567 105.7348 125.0656 108.1581 115.4023 114.6690 114.3587 113.6909 113.0635 112.4028 111.7371 111.0738 110.4313 109.8246 109.3320 108.9511 108.7474 108.7516 108.9563 109.3350 109.8515 110.4243 111.1077 111.8074 112.2815 113.1387 113.5722 114.3687 114.8990 115.4893 116.0176 118.5072 117.6076 109.3051 118.0620 118.9029 118.5900
106.7300 106.2701 104.3850 101.7132 93.1488 119.0284 106.2522 112.4915 115.3133 114.7982 114.1556 113.5896 113.0199 112.4363 111.9196 111.3622 110.8593 110.4701 110.1756 110.0153 110.0199 110.1769 110.4694 110.8719 111.3628 111.8919 112.4572 113.0252 113.6259 114.1712 114.7275 115.5145 116.3965 115.9930 116.1334 106.7252 100.4533 100.9699 108.6360 118.9300
104.5100 106.1362 99.5125 95.5833 99.8977 99.1627 96.2237 117.0393 115.4124 115.0775 114.0072 114.1616 113.6229 113.1626 112.5357 112.1009 111.7984 111.4763 111.2510 111.1314 111.1348 111.2518 111.4916 111.8118 112.2052 112.6586 113.1381 113.6324 114.1462 114.7012 114.8136 116.5103 109.6940 104.1731 99.5474 99.3073 105.0690 109.3769 105.4794 104.0600
99.7800 106.6042 104.4947 97.7485 120.0349 117.3789 119.0877 117.0620 116.9289 116.0678 112.7158 114.9546 114.2141 113.7769 113.3322 113.4802 112.7408 112.3694 112.2121 112.1118 112.1192 112.2141 112.4082 112.6658 113.0000 113.3747 113.7990 114.2438 114.5843 115.0270 116.4854 111.6061 104.0986 98.4642 109.4096 102.0056 100.5793 104.8555 112.8981 119.4000
97.9300 102.7292 113.6673 107.7225 121.3836 116.8761 116.0613 116.8104 108.9664 115.2518 115.6803 115.1434 114.8003 114.4438 114.3163 112.5516 113.2933 113.2047 113.0844 112.9972 113.0066 113.0835 113.2363 113.4568 113.7367 114.0641 114.3733 114.9497 114.1075 115.4597 112.4871 100.7679 105.1686 108.3023 119.6405 111.0425 105.7373 106.1809 108.2292 119.4000
101.2900 99.9305 111.0290 110.5903 106.0883 115.5666 117.3771 117.8895 106.3247 113.8457 116.3074 115.7069 115.4406 115.0192 114.6569 114.3920 114.1292 114.0116 113.8715 113.8049 113.8064 113.8715 114.0091 114.1909 114.4215 114.7108 115.0101 115.5755 115.8657 116.6689 108.7029 106.4791 120.5451 118.1047 118.2660 113.7273 97.5312 100.7704 108.6347 111.4200
104.0300 99.6346 107.3675 95.5450 109.4630 109.6346 118.2044 117.2591 119.5211 116.8363 116.1571 116.1556 115.8879 115.5871 115.3111 115.0492 114.8405 114.7045 114.5992 114.5439 114.5416 114.5945 114.7092 114.8669 115.0751 115.3176 115.5739 115.6168 115.9556 96.8461 101.5021 93.8795 116.8242 112.8438 111.2597 108.5583 108.2153 105.8431 107.3905 107.2300
104.0300 99.1975 99.2455 94.1591 120.0457 116.3530 118.8507 117.7361 117.6289 117.0388 116.9415 116.6643 116.4178 116.0973 115.9132 115.6576 115.5978 115.3671 115.2646 115.2240 115.2219 115.2705 115.3662 115.5056 115.6799 115.8838 116.1458 116.3091 119.5608 100.8198 100.9798 110.5381 113.4990 101.3846 99.0046 102.8585 118.3557 106.7058 108.4331 110.3500
104.6800 113.7806 98.5817 119.3277 119.6467 112.6052 118.0467 118.3008 117.9810 117.7215 118.1600 117.0140 116.8301 116.8277 116.8512 115.7949 115.8254 115.9669 115.8924 115.8509 115.8491 115.8912 115.9732 116.0893 116.2482 116.4417 116.6278 116.9437 115.9754 115.9159 99.1803 109.3026 106.6699 105.2796 97.1949 103.9196 108.9337 106.5595 119.8886 120.2800
103.9200 113.6997 117.7451 121.2519 119.2850 118.8240 119.1383 118.5456 118.3385 118.1426 115.3009 118.5994 117.1889 118.0943 101.0851 112.5990 116.9335 116.5419 116.4741 116.4361 116.4371 116.4709 116.5474 116.6557 116.7778 116.9119 117.2812 117.3717 117.6045 118.8712 120.3491 109.6920 111.9424 101.0267 104.9181 118.7824 122.6715 119.1457 120.6621 120.3700
101.8700 119.9218 121.1839 118.1943 102.5029 121.5383 119.0487 118.9290 118.8665 119.1613 109.9655 109.0203 117.7196 118.9750 110.6749 115.6801 117.0431 117.0805 117.0190 116.9803 116.9901 117.0172 117.0808 117.1773 117.3033 117.5572 116.8323 117.8411 118.2804 118.1540 119.7605 107.9367 100.2394 97.3593 102.9130 107.6047 116.6286 120.0657 120.4336 120.6700
120.7700 120.9902 119.7540 121.4489 119.3176 120.1899 119.4743 119.3220 119.1290 118.1253 119.4048 119.0960 118.2863 117.5309 119.0218 118.1439 117.7266 117.6182 117.5365 117.5003 117.5059 117.5287 117.5881 117.6781 117.7509 117.5396 124.3214 117.6547 118.0389 119.0779 108.0154 113.3271 114.0277 102.6351 100.9336 111.6993 112.0882 121.0529 120.5261 120.9700
121.0700 121.1907 120.7675 120.3618 120.2373 120.0582 119.8925 119.6176 119.4668 119.5380 118.6737 118.7640 118.6989 118.5421 118.0323 118.9677 118.0409 118.0345 117.9988 117.9806 117.9856 118.0239 118.0790 118.1452 118.2463 118.2484 115.5330 119.5310 120.0840 109.2614 99.6620 102.3629 120.9678 97.2589 99.6817 110.5561 113.4920 108.5936 118.7570 121.0400
121.4900 121.2245 120.9886 120.8037 120.6151 120.3585 120.3240 120.0088 118.8113 118.5802 119.6511 119.0950 119.0899 118.5981 118.9619 112.2706 118.6922 119.0828 118.4691 118.5164 118.4961 118.4600 118.4878 118.5804 118.6358 118.2785 120.9087 119.4442 117.6420 98.0706 109.2523 108.1493 107.6842 100.8154 98.8940 107.6301 110.5530 102.2526 113.9938 107.9700
120.8700 121.4922 121.3471 121.1538 120.8473 120.6565 121.1546 123.4533 118.9008 118.6454 119.6374 120.1664 119.3614 118.7481 118.0441 106.3555 113.0080 118.9353 118.9482 118.4523 118.6374 118.9635 119.1099 119.0572 119.2749 119.4505 116.9114 119.6547 123.7795 100.2222 106.8781 111.6958 103.3214 97.4928 110.9232 107.8751 108.7321 108.7199 110.0140 110.8700
121.9800 121.4577 121.4375 120.6669 121.2608 121.0283 120.4981 119.6564 104.9748 121.0565 119.4901 116.3593 119.8141 118.9615 118.4635 119.1838 120.2537 121.4760 119.0455 121.5115 120.7906 119.3790 118.8408 119.7793 117.5386 119.5991 120.7413 120.2217 116.4241 102.5345 107.2959 104.9535 103.7861 118.5087 121.5414 110.3446 117.2542 105.2598 110.4407 110.9400
122.0200 122.6128 121.9812 122.3372 120.7938 121.1479 119.9497 121.7389 118.6567 101.3174 115.8547 118.6603 120.2657 119.6904 119.7789 106.1565 116.1219 119.4794 120.8141 101.9588 107.9152 121.0127 118.1587 125.8771 119.1310 120.4852 125.3535 97.3717 100.8505 101.5688 99.1089 104.5925 106.6926 120.5353 120.7807 125.1328 123.9076 107.3976 109.0795 110.9700
122.3300 123.2499 110.0413 117.7837 122.0405 123.1728 121.4835 120.9965 116.5864 115.2968 113.4362 117.2160 118.9118 120.5817 119.1022 94.9777 96.4931 112.2944 121.1128 120.2096 111.5170 121.2018 120.6099 106.5863 110.0833 100.4104 116.0068 99.2411 101.6322 98.5205 103.1750 118.7940 115.1721 110.5218 120.9111 119.1899 120.8795 95.8829 105.8425 111.0600
122.6100 123.1910 122.2615 121.6689 122.7871 121.6177 112.7303 122.0894 121.4955 121.3922 121.2028 121.6508 120.8319 121.0733 99.4804 111.9376 103.7714 111.0185 98.8228 99.9533 99.6782 117.6255 109.3321 106.6626 115.6814 100.4820 106.0016 101.4368 103.9483 102.2350 118.2012 122.7523 117.3948 105.7768 122.7079 124.1562 115.2283 105.3472 121.4875 116.5600
116.4600 103.5536 105.9715 122.0910 125.0443 122.4099 118.0017 121.3019 121.4537 121.4538 121.3792 121.1754 121.1222 122.6892 122.0373 117.3142 109.4609 115.8860 101.4703 104.6595 101.5474 122.1881 102.3936 97.9195 114.3804 115.8131 111.4508 104.2792 112.3317 100.8715 104.6907 114.1068 121.1689 118.7171 105.4373 122.5676 113.7053 110.7550 121.8800 122.8800
116.4600 100.8136 112.7750 124.0421 120.5693 102.2542 123.2656 122.5743 123.4131 121.7727 121.6404 121.5811 121.4911 121.0868 121.1596 122.1956 122.9894 121.0212 120.3479 100.8072 102.2443 101.1182 106.7861 113.9272 118.7417 120.6435 116.3924 121.6716 121.4197 116.8126 106.5162 110.6084 113.5298 122.2842 122.2452 123.4113 110.5127 108.6714 109.2846 122.8800
105.9900 110.3450 120.3875 106.8274 121.4827 119.4668 123.9858 121.0715 106.5002 122.6850 122.1943 121.8117 121.7658 121.7734 121.0624 118.2095 122.0331 111.1133 114.5450 103.4183 102.9215 104.9952 124.8085 123.3637 121.9036 121.9443 107.7130 121.7397 123.7613 100.6965 112.3026 110.6558 115.0199 122.3067 122.7637 122.2649 109.4495 112.3206 112.4978 102.9600
107.1500 123.2196 116.6594 107.5618 123.9406 108.2480 122.5412 124.7846 121.3777 123.0623 120.3710 122.1738 122.1142 121.8553 122.4539 121.3865 115.4147 122.9398 114.8172 103.0250 102.8476 109.8216 122.6888 121.3564 121.9784 122.0215 120.8432 123.0215 123.1348 107.4230 107.4669 102.3042 120.2740 123.1627 122.9773 122.6422 122.9533 125.7034 124.0728 123.3800
123.4800 123.4800 123.2900 125.1400 123.0400 123.0400 118.5900 122.7600 122.6000 122.6000 115.0600 122.2500 122.2900 122.0900 122.1200 112.9500 112.5600 103.0200 105.4200 102.2500 99.9700 121.9600 121.9400 121.9200 122.1500 122.1300 122.1000 122.3000 122.2600 122.4400 108.2400 109.0800 110.5900 122.9200 123.0500 123.0200 123.1800 123.3200 123.4900 123.4600
