107.8300 106.8900 101.9100 108.0700 105.7100 96.9500 98.3800 100.2100 119.5800 113.8300 93.9500 99.6700 110.9700 109.1100 114.4500 113.8900 113.5200 113.0500 113.0500 112.5700 112.6300 107.7600 112.6300 112.6300 112.5600 113.0300 113.0300 113.5000 113.8900 114.4300 114.7700 115.2100 115.6600 115.9600 116.3300 117.0600 117.3600 117.6800 118.2900 118.2900
107.8300 106.5322 107.5710 105.8710 101.5781 103.0633 98.6320 102.5794 106.9200 117.7082 105.3248 91.4454 114.9325 113.1734 114.8811 113.8942 113.2704 112.5996 112.2561 111.8536 112.1365 105.7630 110.3449 111.6709 112.0659 112.5297 103.5131 110.3226 113.4496 113.9128 114.4446 114.9380 115.4081 115.8833 116.3319 116.8197 116.7639 118.4046 110.3530 118.2200
106.1400 107.3610 110.4902 104.2690 103.3816 103.9792 107.7411 98.9489 93.7467 115.0309 111.6731 101.8629 105.4851 112.4730 108.9523 112.2817 112.0742 111.7602 111.3643 110.8892 111.2783 103.6116 110.0427 110.6342 111.0655 111.4191 112.0294 113.7850 112.8609 113.4299 113.9161 114.4574 114.9758 115.4957 116.0223 116.3569 117.0361 117.4057 96.1913 118.1200
107.1800 104.7695 106.8253 106.9192 106.2161 100.3452 104.6830 111.0112 118.9520 119.0226 114.6357 116.3060 107.6078 112.9381 113.6494 113.1720 111.5857 110.8938 110.3687 109.9420 109.5615 110.1124 109.5050 109.6677 110.0006 110.4369 110.9979 111.5759 111.9615 112.7773 113.3824 113.9875 114.5820 115.1267 115.5256 117.0354 103.8561 97.0561 97.1885 118.1200
97.4400 107.8698 105.3688 105.2885 101.0637 99.0023 110.5146 118.1377 117.2584 118.6386 114.4368 114.2101 114.0682 112.9599 112.0064 111.3103 110.6652 109.9417 109.2912 108.7257 108.3234 107.9633 108.0904 108.3411 108.7764 109.3679 110.0270 110.7401 111.4620 112.1738 112.8653 113.5248 114.1842 114.8996 115.5568 116.2420 110.6334 111.1517 112.0179 96.3000
108.8000 105.6645 104.8498 101.9308 100.2029 103.9103 102.9520 119.7283 118.5064 113.9744 114.2997 113.7144 112.9777 112.2384 111.4867 110.6538 109.8286 108.9302 108.1022 107.3532 106.7800 106.4848 106.4825 106.8410 107.4410 108.2049 109.0389 109.8999 110.7526 111.5674 112.3557 113.1139 113.6095 114.6988 109.1950 115.8571 116.9805 117.2688 117.1802 116.6400
107.8600 107.6645 101.8937 100.2686 101.5856 109.0275 114.4142 103.4095 116.8070 114.8959 114.0357 113.3637 112.6046 111.7739 110.9000 109.9402 108.9491 107.8506 106.8064 105.7760 104.9562 104.4729 104.5040 105.0413 105.8929 106.9333 108.0072 109.0555 110.0645 111.0007 111.8857 112.6958 113.4245 114.3097 114.7537 115.5042 115.7994 115.9384 118.5359 97.1900
107.8500 107.4446 106.2308 105.7904 104.0752 112.5816 112.9953 114.2241 94.1170 112.4668 113.8593 113.0700 112.2390 111.3376 110.3279 109.3076 107.9272 106.7457 105.4052 103.9868 102.6796 101.8781 101.9387 102.8205 104.1609 105.5773 106.9661 108.2529 109.4200 110.4866 111.4588 112.3388 113.1611 113.9155 114.5250 114.5016 120.0502 97.7688 119.8482 117.1400
104.5600 109.2328 106.0720 103.4258 104.1250 114.9787 112.2812 113.9003 116.0851 115.3866 113.6191 112.8177 111.9484 111.0890 109.7600 108.5196 103.2022 106.0229 103.9813 101.9185 99.8274 98.2692 98.3949 100.1233 102.1810 104.2046 105.9742 107.5203 108.8582 110.0496 111.1073 112.0592 112.9302 113.7264 114.4091 115.1520 116.5701 117.7785 116.8704 117.1000
107.9000 103.4477 93.3492 99.8658 103.7684 113.8575 113.9623 116.7105 114.3484 114.1053 113.4491 112.6439 111.7783 109.7605 109.6466 108.3027 106.9396 104.8425 102.6822 99.8051 95.9414 91.9202 92.2446 96.5359 100.1789 102.9726 105.1543 106.9394 108.4332 109.7213 110.8453 111.8451 112.7419 113.5613 114.2918 115.0120 115.4975 115.9507 116.9048 117.0700
102.3600 103.3106 103.6771 107.5437 103.8778 105.4305 120.6162 110.6603 115.0126 114.2089 113.4206 112.5527 111.6218 109.5319 109.2910 107.9770 106.2780 104.3011 101.7613 98.1914 91.4966 86.4613 86.7310 92.4574 98.6661 102.1212 104.6326 106.5768 108.1751 109.5279 110.6978 111.7290 112.6536 113.4813 114.2429 114.9554 115.6134 116.2449 116.8498 117.0500
109.0100 104.4019 108.4019 107.3661 101.7946 104.9162 121.3634 107.7483 115.4608 113.9984 113.3532 112.5194 111.5814 110.8241 109.4930 107.8613 106.2553 104.2424 101.5654 97.7601 90.1794 84.9991 85.2489 91.3566 98.3293 101.9442 104.5230 106.5059 108.1241 109.4908 110.6693 111.7047 112.6271 113.4669 114.2438 114.8769 115.7104 116.3921 116.6077 117.0300
109.8300 105.4744 105.2372 107.4025 107.9351 111.8474 118.7758 112.4913 115.1167 114.1823 113.4197 112.5837 111.6578 110.5837 109.2846 108.4986 106.5714 104.6128 102.1570 98.9409 93.7633 88.9838 89.1888 94.4871 99.3532 102.4959 104.8593 106.7294 108.2884 109.6080 110.7623 111.7753 112.6966 113.5178 114.2585 114.9438 114.9783 114.3672 117.5531 117.0400
103.0900 105.5097 101.0564 102.2080 114.3612 114.0514 111.1882 116.3777 114.9643 114.2716 113.5386 112.7267 111.8283 110.7979 110.7571 102.3649 107.6955 105.3161 103.3072 100.9336 98.1488 95.4719 95.7023 98.5748 101.2005 103.5978 105.5558 107.2135 108.6403 109.8703 110.9728 111.9410 112.8395 113.6229 114.4679 115.3279 112.1414 132.8128 108.1890 100.6500
98.5600 105.0999 106.0959 100.6980 120.5914 112.8304 115.9887 115.9989 115.1178 114.4273 113.7173 112.9385 112.1151 111.1352 108.2214 106.9200 107.6886 106.3013 104.6978 103.0353 101.3734 100.3160 100.3880 101.5631 103.2352 104.9193 106.4829 107.8841 109.1406 110.2666 111.2818 112.1948 113.0407 113.9807 114.2649 114.1594 122.6833 132.5584 107.2553 100.9800
105.4500 104.8929 104.8556 105.9911 108.0456 123.5773 109.6099 116.7299 115.1367 114.6327 113.9552 113.2172 112.4067 111.6209 110.4524 112.8554 108.2373 107.3862 106.1415 104.9496 103.9190 103.2963 103.3392 104.0258 105.0844 106.2951 107.5094 108.6668 109.7453 110.7526 111.6635 112.4902 113.2303 114.4752 112.2446 119.2582 116.6640 113.3634 99.4617 102.1500
102.8800 103.2109 104.3607 104.3991 107.7614 102.3166 122.6008 116.0050 115.4737 114.8790 114.2333 113.5441 112.8072 112.0437 111.0209 110.3317 109.2990 108.4137 107.4982 106.6133 105.9273 105.5455 105.5748 105.9970 106.7211 107.5751 108.5614 109.4985 110.4136 111.3072 112.1075 112.8112 113.2414 114.5406 116.4633 103.8196 97.9877 98.1338 111.6910 117.5200
106.2500 101.9145 100.5535 104.0910 100.9777 110.9308 120.0786 114.7715 115.6257 115.2137 114.5556 113.9119 113.2462 112.5234 111.7885 111.1008 110.2440 109.4373 108.7163 108.0849 107.5915 107.3296 107.3475 107.6417 108.1514 108.8194 109.5621 110.3388 111.1120 111.8568 112.6688 112.6644 115.8972 114.9509 105.2051 115.0767 113.4394 99.7951 117.7816 101.5600
108.0200 107.9875 102.5058 104.6101 103.5985 113.6005 116.8555 117.0619 116.0159 115.2651 114.9430 114.2995 113.6796 112.9487 112.2505 111.7128 110.8219 110.4592 109.8617 109.3649 109.0033 108.8109 108.8234 109.0346 109.4176 109.9289 110.5232 111.1641 111.8447 112.4237 113.8512 116.4116 127.9251 107.5363 97.4900 102.5179 97.5710 117.2094 104.1861 118.0300
114.6800 112.2052 106.1241 109.4392 120.4674 116.3624 117.7813 116.4203 116.6506 117.7716 114.8096 116.4316 113.3540 114.2945 113.3044 113.4138 110.8024 111.3795 110.8896 110.4980 110.2144 110.0724 110.0871 110.2466 110.5440 110.9439 111.4229 111.9511 112.5168 113.1972 113.3495 103.0998 107.0610 102.3842 106.4333 96.8265 103.4476 105.4335 99.7180 118.0300
98.3000 95.9681 111.4393 113.8110 121.3478 111.6826 117.7369 116.9843 107.8516 113.9031 116.0250 107.2991 102.3208 110.9236 113.6759 115.1734 112.5220 112.2860 111.8262 111.5120 111.2896 111.1825 111.1846 111.3130 111.5448 111.8766 112.2584 112.7272 113.1173 113.3170 116.4685 109.2807 94.9873 105.9778 117.3740 100.3211 112.7009 105.7878 104.6156 104.4300
98.3000 121.4694 117.2525 108.4492 104.6577 107.9159 118.1677 117.6710 116.7159 117.5542 115.3654 100.4551 95.8140 103.8459 114.9301 114.1736 113.3407 113.0395 112.6819 112.4283 112.2519 112.1613 112.1618 112.2661 112.4586 112.7297 113.0502 113.4064 113.9604 114.4758 117.1602 110.1392 112.3764 97.1831 105.6737 117.2901 109.1586 104.2374 106.2705 105.5300
97.9100 96.3556 104.5230 91.9683 109.6831 114.6782 118.1163 117.4642 116.4808 115.1044 116.5601 117.5647 118.2137 115.3419 114.2310 116.2891 114.1302 113.7621 113.4693 113.2611 113.1141 113.0456 113.0431 113.1330 113.2874 113.5123 113.7830 114.0881 114.9822 101.8000 96.9018 112.3030 117.8773 108.1112 100.4659 117.1521 105.5546 103.5446 104.9598 105.5300
118.4400 96.5569 122.4266 111.0815 119.8855 119.3245 118.3302 117.9516 117.5661 117.2911 116.7020 116.4730 115.3523 116.1414 107.0480 107.6838 114.3815 114.4336 114.2239 114.0253 113.8997 113.8419 113.8445 113.9180 114.0457 114.2407 114.4648 114.7172 116.5316 96.5421 107.8566 119.8053 118.0472 106.4432 107.9659 100.0744 103.9075 115.1211 109.4662 119.0200
116.2100 117.9821 120.7868 119.6912 119.0866 117.4677 118.4545 118.2166 117.8864 117.5590 117.1115 116.7717 116.2353 117.5522 106.8444 111.6206 116.8514 115.0034 114.8950 114.7347 114.6233 114.5753 114.5810 114.6369 114.7471 114.9063 115.1028 115.2592 116.3372 102.4591 103.1539 113.5203 99.1584 103.8191 102.8340 95.6922 104.1518 108.7489 107.2507 119.0600
100.5400 102.0646 115.0846 119.8509 119.5848 119.1748 118.8954 118.5398 118.2349 117.9198 117.5930 117.9119 117.0804 118.1354 98.5482 91.3171 114.1924 115.6808 115.5187 115.3866 115.2986 115.2528 115.2575 115.3001 115.4079 115.5534 115.6921 115.9115 116.0696 119.4255 109.2613 101.8459 111.3513 109.9279 97.7480 111.3171 119.8049 120.3421 107.2539 119.4600
128.4000 125.1255 121.3001 103.4523 122.7156 119.5335 119.1626 118.8929 118.5694 118.2587 118.1773 112.9472 99.4846 94.2043 118.6544 115.0292 117.3106 115.9874 116.1263 115.9966 115.9163 115.8786 115.8820 115.9260 115.9889 116.0814 116.3605 116.4144 117.1147 116.0741 117.1942 102.9498 99.9435 105.2326 97.3884 106.3681 115.5246 119.5186 119.1233 119.5600
131.0900 119.1590 121.1466 120.3394 119.5875 120.6694 119.0233 119.2535 118.8836 118.4505 119.0923 115.7288 117.8457 116.9816 118.7506 116.9518 116.7683 116.9054 116.6619 116.5677 116.4958 116.4629 116.4669 116.5080 116.5765 116.8049 116.0805 117.2588 116.5026 112.0472 116.0655 108.1739 97.9295 98.5401 98.1200 104.6512 103.8986 120.1014 119.1427 119.8900
100.3800 112.3407 121.1213 118.4067 118.8756 123.6712 119.8238 119.5233 119.1692 119.1565 118.8788 118.0181 118.4667 117.6259 117.9440 118.1303 117.3808 117.4702 117.1799 117.1041 117.0389 117.0144 117.0010 117.0379 117.1144 116.8944 115.7955 117.2879 119.0127 115.1686 100.2391 107.9423 115.9567 103.1654 98.3980 108.8067 109.6993 117.5621 122.0240 120.2200
119.9200 123.2373 120.7628 116.1051 107.1143 121.8487 119.7734 119.6107 120.3658 119.1980 117.7667 118.9588 118.6996 118.0615 117.2943 110.4786 117.5934 117.1457 117.7047 117.6236 117.5603 117.5316 117.5733 117.6267 117.6559 117.7480 116.6885 118.2952 117.3210 101.9285 101.5054 103.0553 110.3133 102.3910 109.5703 110.2707 109.8779 114.8678 111.1074 110.6800
113.4100 122.0580 120.9434 124.1745 122.2097 120.4287 121.0082 120.9992 116.7425 113.4997 114.4384 119.3875 119.0024 118.6731 117.7830 102.6476 121.7570 116.5793 118.1959 118.1160 117.9768 118.0058 117.8271 117.7440 117.8630 118.4058 114.5670 118.6737 113.6906 118.6659 98.6018 99.7704 98.3220 106.6468 110.5218 101.9604 108.5992 100.6255 110.7247 110.5800
113.4100 111.5780 122.3237 120.2207 120.4056 122.5890 120.9292 118.7750 123.6915 119.3881 120.9482 119.3413 119.3729 119.3240 118.8333 102.1728 117.4659 117.2768 118.7070 118.5406 118.6855 118.1673 119.4410 119.4481 119.7759 118.7167 119.8965 115.2411 107.2515 111.4858 104.8582 104.3195 107.8114 117.8989 117.7265 110.0559 104.2704 110.3048 110.3233 110.9900
122.0700 113.7395 123.0062 120.8038 121.3332 121.3438 101.9653 120.9370 120.2408 102.3727 120.5614 118.8994 124.8949 118.3384 118.9899 110.4137 121.0337 120.4013 119.0595 117.2067 117.5647 119.8320 121.7658 103.1753 100.5709 120.1711 110.6258 99.0012 99.7102 101.3889 98.6704 102.9439 104.0314 119.0196 120.0533 121.3668 114.5517 108.2105 109.0162 109.2700
100.3200 122.3252 110.6038 119.7323 121.6801 120.4109 120.5292 120.5758 121.6758 118.0354 121.3627 119.8553 127.4937 119.2977 118.8165 94.8434 97.6623 117.6056 116.9371 105.2429 118.8390 110.0491 108.8711 96.3168 113.9646 120.9544 108.5721 95.6916 102.4462 97.6844 108.3155 112.0879 97.1409 113.8602 122.5975 117.5201 112.4755 103.1729 109.2646 109.0200
100.3500 124.4977 120.2571 121.7839 123.0988 117.2057 123.2312 120.7660 121.0556 120.9314 118.5458 119.7039 119.7272 119.9923 120.2076 107.8924 119.4768 113.4094 101.1959 114.6748 119.0700 113.9324 104.8624 99.9330 99.1533 100.2077 105.8463 100.3821 98.4966 98.9472 99.2248 122.0037 105.3969 109.2975 115.3207 123.0675 141.7464 110.3153 111.2274 115.3900
106.3100 111.2688 121.4542 122.2694 121.7804 121.7069 120.2221 120.6720 121.3207 121.1787 115.4569 122.9222 120.6737 120.5327 120.6746 109.9427 120.2680 122.8281 105.0570 98.4481 100.4690 99.1801 97.7232 97.1009 116.5866 108.7182 115.2153 98.1467 98.4053 104.5067 105.5300 114.3897 108.8781 110.3021 112.6892 115.8786 106.2974 114.8754 121.0479 121.9600
103.4200 103.1231 122.6643 122.4488 122.3593 122.1229 118.2579 121.6307 121.7123 121.1909 121.8848 121.5032 121.4669 120.9047 120.8558 121.7228 120.8781 116.2946 117.2986 97.7778 97.3344 122.4222 119.7397 121.1634 120.9000 121.2816 121.5704 120.9982 112.7099 120.9797 115.7267 106.6948 119.5332 104.6655 115.2815 124.4381 117.9879 104.5916 105.9834 116.1300
111.1400 102.4434 121.5904 105.7904 123.9596 122.1949 120.9680 122.0892 121.7620 121.8051 120.9211 121.8611 121.1307 121.2759 120.8671 118.5189 120.4924 116.2869 117.4040 102.0506 96.6340 122.6542 120.3152 120.3903 120.5860 120.6713 120.8503 120.7177 123.7994 105.0512 117.3039 109.5641 113.6954 120.6585 124.9432 117.8864 119.4466 103.0938 103.1479 100.2800
123.2100 122.9399 118.3751 116.0106 122.9396 122.2319 122.1949 122.3090 122.5324 121.5637 129.1279 127.5349 122.3899 121.2690 121.7380 121.2172 117.2271 116.2611 110.8082 102.8634 99.9869 123.1197 120.9829 121.3158 121.3411 121.3212 121.2595 121.4445 123.1009 107.9655 111.9802 115.0432 112.6888 122.6690 122.5291 110.4670 115.8187 103.1842 120.7630 122.5800
123.4500 123.2900 134.2700 116.5300 116.5300 122.4400 120.0300 122.3500 122.3800 120.1800 104.9300 104.9300 121.8900 121.7000 125.3700 121.5300 117.6400 111.3300 105.5300 104.1500 121.4000 121.4000 121.4000 121.4000 121.3700 121.3500 121.5900 121.5600 121.5300 105.5500 102.2600 108.7100 122.0600 122.0600 122.2200 122.3700 122.5100 122.7100 122.6700 122.8400
