108.5900 108.7000 108.7500 109.7600 109.7600 109.5100 110.3300 110.9000 111.6400 112.1300 112.6900 113.2700 114.2100 114.6700 115.1100 115.9300 116.3100 117.0600 104.9000 117.7100 113.0600 97.2500 99.0200 121.3500 119.7500 113.0800 117.4800 117.1500 99.1900 99.4300 110.5300 103.7200 106.2700 106.3800 105.8900 107.6400 108.2200 109.6500 109.9100 110.6300
108.5900 108.2559 108.1338 108.3520 108.1865 110.0884 109.8109 110.4708 111.1705 111.8788 112.5771 113.2526 113.8976 114.5123 115.1146 115.5192 115.2048 118.9555 114.4836 109.5690 103.4674 98.0729 101.7404 109.6658 111.5813 115.5982 113.2470 115.0816 98.6711 98.0344 106.1018 104.8786 105.5936 104.6989 105.0391 107.4924 111.9080 112.7977 104.8523 110.6300
107.2100 106.7102 106.5604 106.7124 107.2150 107.9061 108.6931 109.5628 110.4079 111.2306 112.0275 112.7821 113.4952 114.2212 114.8414 115.5567 117.8133 106.2324 107.9105 97.4274 103.2775 109.0566 99.3015 102.8647 104.8913 116.7960 109.3543 103.4860 101.3147 99.7947 103.0601 107.3127 111.6271 116.6650 107.1685 108.4272 105.8620 110.0719 101.5142 118.2900
105.5400 104.8072 104.5973 104.8998 105.5820 106.5757 107.5464 108.5482 109.6543 110.6068 111.5140 112.3461 113.1244 113.6617 114.1291 114.6461 118.6942 108.4521 106.3095 112.6799 107.8749 101.5973 111.9675 111.1071 113.5180 107.5053 103.4209 98.1378 102.2904 109.7699 101.7954 111.8008 113.7436 111.7230 111.9856 115.5526 104.8404 113.1611 101.8396 101.9700
103.4700 102.3773 102.0332 102.5278 103.6650 105.1290 105.6706 108.2454 108.8828 110.0283 111.0447 111.9617 112.8111 114.2703 116.0854 116.7776 115.5407 117.1094 115.9637 117.3515 98.5631 99.7267 122.9372 111.7111 106.7916 95.8762 98.3775 99.7018 103.1802 112.0835 110.5171 113.0922 111.1649 111.8345 114.9675 123.7819 116.8941 100.7269 101.8429 101.9600
100.5000 99.2205 98.4048 99.4287 101.3196 103.4534 104.0660 106.9148 108.2970 109.5406 110.6495 111.6383 112.5091 107.1277 98.4794 93.7877 112.5948 117.4554 101.1790 118.4588 105.5202 102.4552 105.1660 104.7952 106.2844 113.7864 96.3701 98.8606 99.5020 109.1290 113.6416 113.0120 113.1645 109.8115 110.7309 110.6080 101.3045 100.5593 101.3150 111.8400
96.5900 93.8720 91.9632 94.6980 98.8617 101.8518 104.2615 106.1668 107.7772 109.1183 110.4549 111.4475 112.8050 107.1636 94.7611 99.7173 97.4116 98.7413 99.2062 101.3414 99.7704 105.2895 104.7865 106.0614 103.9379 105.6163 96.9890 98.7601 99.0227 101.1956 103.5883 114.2528 113.1701 113.9851 114.7609 115.4011 116.3034 118.1172 103.8103 101.9400
90.2000 88.8642 86.8382 89.3182 96.5696 100.6531 103.5585 105.7256 107.4788 109.6446 102.7065 112.1735 112.3110 113.4057 103.6016 91.9730 93.3340 94.2149 97.5185 96.8605 102.1319 105.4955 107.8439 108.4700 99.9467 115.7335 97.0280 97.5094 113.6208 112.5509 114.0259 113.0732 113.9235 114.9111 114.7271 111.6026 116.0530 104.2094 120.0175 101.9400
89.4600 87.9367 86.0061 87.8040 95.7509 100.3429 103.3807 105.6017 107.4277 109.4746 104.0595 112.0034 111.9435 112.5192 106.6896 94.3031 94.7248 94.9008 98.0758 97.5003 101.9721 105.3996 107.4928 108.6317 97.8757 111.1477 96.0747 96.4311 112.5668 112.0561 112.1932 113.2672 113.6079 115.1081 114.8454 113.3748 114.9112 106.2033 119.2950 101.9300
90.2000 90.3390 88.5917 90.9456 97.3085 101.0298 103.7574 105.8567 107.5559 108.9731 110.7398 110.8394 112.5966 113.5680 119.7749 103.9563 101.4826 101.9541 100.8858 103.2155 104.8053 106.9513 107.7591 108.6781 111.5009 100.4164 101.5558 101.7942 112.0109 111.5181 112.5979 113.1778 113.9736 112.4214 115.3919 115.4051 115.8688 117.5663 117.7786 111.3900
97.4500 96.2297 94.6152 96.7513 99.7809 102.4084 104.5894 106.4034 107.9502 109.3092 110.4098 110.6552 116.6513 110.3653 109.9563 97.5443 97.4236 99.7229 101.3983 103.7093 103.9618 105.4055 105.7169 103.7777 103.9973 106.0777 107.5260 107.4410 112.3928 112.9298 113.8657 114.0583 113.5537 114.4101 114.8739 115.5461 115.1387 115.7621 116.4807 116.8100
103.4300 100.4757 99.9497 100.6864 102.2271 104.0037 105.6752 107.1692 108.5125 109.7148 111.0140 110.2707 119.2052 102.2987 95.5966 95.2389 103.4272 100.8659 99.7689 101.8153 101.8432 102.0629 102.0337 97.1566 97.6661 96.3319 97.6997 102.6671 109.0563 108.3853 106.2549 105.1886 115.4876 115.7177 115.6929 116.8369 116.7292 116.4722 115.4851 115.7800
103.4300 103.3391 103.0058 103.4153 104.5751 105.5852 106.8449 108.0584 109.1898 110.1716 111.2906 111.7605 105.4456 99.6919 98.2076 96.8880 101.0293 102.5090 103.6612 104.3897 104.4227 102.4375 97.4776 99.7289 97.1149 98.3558 103.7476 106.8117 105.5193 102.1023 101.2345 102.9293 107.6457 107.0345 112.2244 112.7139 109.2937 115.6319 119.2617 118.9300
105.5100 105.5416 105.3312 105.6734 104.4762 106.5243 108.0074 108.9776 109.9409 110.8859 111.6794 112.0688 107.0841 93.2508 99.9357 95.0119 102.3790 98.7419 100.4490 102.6726 105.0591 112.1115 102.1365 107.3841 106.9432 106.6432 104.9909 108.1798 99.8948 99.3500 99.5974 101.8129 104.9566 106.9315 107.3076 110.7165 105.6378 115.8522 104.7987 101.9600
107.1800 107.3056 107.1267 107.4546 105.6815 108.5467 109.1113 109.9085 110.6956 111.0737 110.0856 112.6400 111.8827 109.1790 98.7895 103.0775 100.4818 99.1473 101.0162 102.3560 104.2376 98.7739 108.2699 111.6034 100.5590 110.6868 110.0243 111.3643 110.4035 111.5859 106.9403 106.2707 106.0577 107.7808 105.1753 111.0269 108.1182 117.0693 99.6549 101.9800
108.5800 108.7801 108.6927 108.7875 109.3156 109.5504 110.1608 110.7847 111.4854 111.5856 119.6273 105.2229 112.8448 111.8618 106.9563 98.4741 100.9209 100.5641 110.7840 102.9383 105.1714 106.1364 116.3928 98.1632 98.6208 108.4173 110.6440 111.4617 111.8991 112.6701 113.2517 114.3638 115.2115 120.7323 108.9562 109.3283 100.8556 102.5103 101.7946 101.9900
109.7700 110.0424 109.9692 110.0707 110.2748 110.6700 111.1107 111.6846 112.0618 112.9850 112.8092 96.8071 109.0063 93.3884 96.1189 102.8394 97.8143 100.1672 102.7608 104.0706 104.7079 105.3745 107.1862 99.1495 106.7053 109.8510 106.3490 103.4880 112.4868 112.2420 113.5754 114.3389 114.9106 115.1376 116.0153 108.2555 101.1196 102.4393 101.8573 102.1700
110.8200 111.1385 111.0934 111.1609 111.3554 111.6350 112.0188 112.3721 113.4150 106.8138 107.7459 96.1759 94.0270 94.1681 97.3986 95.6475 95.0743 97.2177 102.0914 103.8077 105.0815 106.1411 106.8425 103.0453 109.1349 105.1710 111.8659 112.1423 112.2205 105.7583 109.1735 114.5485 112.9692 101.9794 100.1138 100.7200 101.6855 108.3849 104.1883 102.1900
112.6000 112.1008 112.0613 112.1328 112.2878 112.5345 112.7958 113.2086 113.4229 110.0619 108.6777 99.6995 95.7220 95.7123 99.6697 100.4861 99.9348 99.5189 98.6241 101.3958 104.6153 103.2171 105.2760 110.1208 101.0399 110.5495 110.7045 111.6331 112.1065 113.3061 114.1308 115.2425 106.5322 101.2388 100.5177 101.2110 101.6450 100.8356 100.9965 102.2100
108.4700 113.2197 113.1547 113.0250 113.1461 113.2705 113.8095 113.8175 114.2334 116.1829 93.7942 99.4695 96.0543 96.8663 99.5885 101.5822 101.9191 105.1281 106.2047 99.5249 104.3307 105.3651 111.8485 94.7605 107.5290 110.6716 111.0428 112.1739 112.6618 111.3942 111.7186 113.1504 101.8805 107.6149 107.2058 102.4198 101.3173 102.3571 102.3660 102.2300
95.5500 99.1642 113.9396 113.8096 113.6630 115.1292 113.2924 117.2511 114.0379 114.7557 109.3553 95.1106 97.3950 101.0048 98.9798 103.8022 104.1477 102.2526 104.3185 102.3243 102.0682 119.7044 101.7174 96.9291 105.3036 108.1452 108.3297 112.9228 113.2999 114.3048 105.9638 102.4189 100.6396 103.2862 120.7050 100.6077 112.2793 101.3523 102.2471 102.6600
114.7300 108.4432 115.7063 114.5007 114.4073 112.7554 126.8702 117.1957 115.0270 98.4705 109.1910 92.4832 101.3779 97.7814 101.4820 101.2192 106.1240 105.1852 104.5319 108.2063 102.0515 95.4696 99.6795 100.7055 101.6682 103.3804 106.1197 112.2156 113.2281 114.0814 116.1810 98.2925 99.1939 98.7054 107.0210 100.5630 107.2911 101.4450 102.8520 103.3500
115.3300 115.9064 115.1607 115.2080 114.4948 116.5893 104.9587 115.3924 103.8185 98.0970 124.4640 110.5145 112.9360 101.2405 102.8154 102.1178 102.2562 105.7318 100.7893 105.3920 107.1388 107.7413 105.1151 105.1559 102.9149 106.1874 110.4010 112.8990 110.2292 109.0432 115.8332 110.4354 112.1143 105.9178 110.6433 100.6208 102.0256 101.7782 104.0035 102.6300
115.9000 115.7800 115.8360 115.8512 115.7300 114.4504 99.2052 118.5574 113.9009 100.1729 112.1107 117.7267 109.3182 101.7707 104.5104 104.6553 104.0607 106.4381 112.5676 111.4368 108.8344 108.3805 108.7495 105.6821 105.3834 106.3765 107.7612 116.1422 111.4451 112.2404 102.9857 115.7863 118.4909 113.4635 114.1435 101.8771 104.0295 104.3891 104.7408 105.9200
116.4300 116.4326 116.4202 116.4358 116.2488 118.0399 114.3574 117.6701 115.9942 119.5453 117.6688 117.3503 118.6056 106.7998 101.9807 105.2190 107.6454 112.0356 101.8885 111.5420 110.5442 105.7920 110.7991 110.9660 111.3972 108.9086 106.3671 108.0205 112.1170 114.6928 100.3802 102.3135 106.2767 105.5380 110.6058 101.1003 101.6212 102.7138 103.8084 104.9500
116.9300 116.9828 116.9677 116.9942 117.0823 116.9973 109.2918 111.7201 117.8086 98.4166 112.5395 111.3308 115.8378 99.9022 111.7726 99.4893 113.6519 108.2696 105.8463 105.5874 113.2304 98.6124 111.7708 111.4010 112.2776 112.8792 111.8524 107.6044 107.2183 118.3052 98.4966 108.8493 100.8042 101.4102 101.9128 101.4643 112.8918 119.9455 115.9074 104.7300
117.4000 117.4978 117.4862 117.5070 117.5717 117.4566 118.1990 118.6674 117.3263 116.0863 117.9845 104.2809 108.8518 103.0547 96.3096 112.5012 107.6819 108.8776 110.2156 111.1977 107.3748 101.1240 100.9582 110.6846 112.3095 112.4587 114.6390 113.2672 107.7370 109.0155 111.3920 108.9437 104.5452 101.6668 102.0091 102.2908 101.8225 100.1159 115.1379 121.4000
117.8500 117.9880 117.9781 117.9859 118.0373 118.1078 118.1419 117.6322 114.0793 113.1275 116.8729 95.0366 106.7425 120.0149 108.1447 101.0955 108.4763 112.7899 111.1713 108.1111 100.9075 100.5978 113.8150 98.2881 113.9447 114.4574 110.3914 99.8365 117.5663 113.4989 110.2010 108.2234 100.8895 101.9387 102.7990 102.4611 102.5296 102.7993 102.1309 102.9500
118.2800 118.4476 118.4334 118.4522 118.4944 118.5357 118.5741 122.1344 118.0526 120.4458 120.6090 109.0931 113.3089 116.2899 113.6553 108.9293 113.4257 113.3782 108.7740 113.9498 114.1348 103.2968 103.5951 105.6568 118.5471 117.1446 113.7810 120.6193 115.0583 111.6149 112.8070 109.2062 101.4763 101.4813 101.7616 103.0488 104.7543 109.0656 105.2414 105.1300
119.0700 118.8881 118.8928 118.9105 118.9388 118.9571 118.8715 120.5124 110.8014 106.4552 119.6814 112.3359 123.7277 110.6719 116.3874 114.3090 114.1534 114.5030 107.4748 116.1390 112.5141 109.1217 100.6574 105.1051 115.6858 119.4620 112.6270 119.2762 121.5681 106.3681 101.0730 104.0391 101.9347 108.2273 102.5626 102.8956 105.8716 112.8857 106.0359 105.1300
119.4400 119.3305 119.2185 119.2349 119.3032 119.3870 118.9831 119.8557 106.5350 99.1677 117.0162 119.4318 111.3339 97.9127 118.9009 114.9947 115.2015 99.4830 108.8844 112.3897 111.0267 115.7988 105.5239 101.2321 107.6508 114.1249 120.2735 110.6649 103.9342 103.3916 101.7755 101.7399 101.8394 107.4191 101.5847 101.6688 103.2812 103.5186 105.2866 106.7200
119.8000 119.5724 120.1940 119.9470 119.9165 119.6526 121.0648 122.4586 105.6887 103.8795 106.4153 117.5915 108.6380 120.4807 111.1100 110.5459 116.8521 116.4488 117.1757 95.0262 106.5573 116.7807 99.5543 99.6648 102.5113 106.9978 111.4688 99.5311 99.4462 100.7446 101.7786 101.9588 101.1673 111.0624 115.6896 113.6092 104.7000 104.1766 105.7226 106.3400
120.1400 120.3617 113.4805 119.4383 119.9533 121.6066 115.0371 104.4342 102.5749 105.7223 104.1280 113.5135 110.0667 112.7597 108.3019 95.8648 115.5957 118.7847 109.7122 107.1988 99.7653 99.1689 102.8584 100.1842 100.7638 102.6977 108.7269 108.5568 101.5737 101.7456 101.9389 102.4132 101.6235 123.1826 122.7064 129.2282 120.3270 100.5697 105.0469 104.7600
120.4700 120.0529 119.8062 121.8185 120.4123 125.0719 112.9301 120.4562 105.6225 106.8979 105.2911 100.0972 98.0317 100.4563 113.4997 95.9947 103.6172 108.2052 111.6396 107.4704 103.5689 106.3960 111.3756 101.1223 101.0079 104.6790 103.9882 100.1626 102.2500 101.8249 102.0645 102.2502 102.4904 103.6394 123.3239 121.5018 108.3938 104.6078 103.5984 103.6200
120.7900 120.8147 122.3045 99.5990 103.6606 108.0120 104.9172 106.6411 104.5949 105.9361 106.5091 99.3388 105.7074 107.2478 114.2959 113.4621 99.1520 109.4535 114.3701 101.1558 99.2159 101.8721 107.7545 99.6996 101.1795 101.4397 105.2902 101.8559 108.6824 101.1696 102.1551 102.6013 102.4866 102.0922 102.6466 103.4347 103.2240 103.4110 103.6660 103.6600
121.1000 119.3819 115.4469 120.5401 104.1137 109.8679 98.8273 118.1521 123.5300 108.8749 107.3017 107.8814 113.8694 103.0165 114.3988 117.0806 117.5693 112.2471 122.6187 111.4745 101.1587 100.6129 101.2611 101.7272 101.6366 102.6755 107.0541 104.2821 109.9920 111.4940 103.0842 102.8789 107.9635 105.2967 104.6717 103.9300 103.5250 104.4180 103.6563 103.8300
121.3900 107.6736 104.7886 97.7056 99.8603 113.9696 114.6263 109.7494 109.6070 108.1923 108.6521 107.4609 118.6033 107.6579 115.5595 125.2767 117.0979 99.2436 102.0643 107.4929 112.9185 100.7275 101.4026 101.3927 101.6948 104.3575 120.6848 117.9242 115.8188 118.4599 112.6061 115.2837 103.5887 110.5535 116.3628 106.8952 105.5348 111.9946 103.8307 103.8700
121.6800 123.5556 95.9241 100.1713 106.8140 118.1756 118.3774 116.1280 113.0824 109.0106 107.4377 109.7987 114.9199 109.5834 104.6413 118.4867 104.8743 110.6830 100.2296 107.2513 101.4104 100.6421 101.5725 104.1609 105.6489 104.6786 101.8176 106.2131 111.1971 114.1873 109.7850 104.8696 102.6023 103.9710 129.1207 125.6352 108.0667 102.1800 105.4522 104.0400
101.4000 108.2220 102.7152 100.2044 102.7313 111.1781 114.6835 105.4461 110.9023 107.1159 110.2958 111.5417 112.0645 113.5922 109.5480 117.7191 110.1204 114.0134 109.4936 107.4392 100.3732 104.5371 110.6403 107.7881 104.9413 106.5180 105.7147 109.3804 119.7712 108.6814 109.8699 102.1019 102.9787 114.0711 129.1116 131.1394 130.9203 121.3143 115.0296 131.8500
122.2300 110.2800 110.1200 100.2300 100.2200 111.3500 114.0300 106.0300 122.3700 111.3300 107.2700 113.4700 111.8100 104.6800 101.9500 101.9500 101.1300 106.0200 113.3000 104.3400 104.3400 114.1000 114.0700 102.9100 104.0200 105.2500 106.8000 107.6600 105.9700 109.2100 103.0200 103.1600 103.2800 113.8300 128.4100 128.9600 129.3500 129.7400 131.1000 131.8500
