114.4400 112.8800 112.8800 112.6100 112.6800 118.2100 117.7800 99.6000 109.9600 109.9600 123.4000 121.0500 120.8400 120.8400 120.6000 120.6800 120.6800 120.4400 120.4600 120.4700 120.4900 120.4900 120.4700 120.4600 120.4200 120.6800 120.6500 120.6100 120.8400 120.8000 121.0500 121.2500 121.1900 121.3700 121.6000 121.7600 121.9100 122.1300 122.0800 122.2600
114.4400 113.5633 115.6124 99.9948 110.9791 112.0082 106.7877 99.3656 103.4295 114.5656 120.6225 120.7022 120.6848 120.5795 120.5900 120.6057 119.5178 120.2330 120.2020 120.1725 120.1333 120.2789 120.5076 120.1737 120.2493 120.3142 120.3850 120.4715 120.5688 120.6858 120.8060 120.9362 121.0822 121.2324 121.3835 121.5455 121.7159 121.8812 122.0596 122.2600
113.0500 113.4759 112.8283 112.3760 109.6646 125.7868 119.7494 108.8508 101.3671 110.3764 121.2970 120.2814 120.3477 120.2358 120.2149 116.0842 116.5910 119.8363 119.8208 119.7971 119.7436 119.0123 119.3191 119.7796 119.8853 119.9426 120.0268 120.1197 120.2316 120.3498 120.4856 120.6315 120.7821 120.9356 121.1022 121.2743 121.4479 121.6358 121.8211 121.9600
99.9900 112.2255 111.4081 110.7741 98.0863 110.1241 111.1946 102.6328 106.0450 104.7455 126.0028 119.8759 119.9910 119.8938 119.6958 119.7948 120.2344 119.5802 119.4370 119.3963 119.3806 119.4519 119.4128 119.4416 119.4927 119.5685 119.6491 119.7584 119.8834 120.0270 120.1403 120.3003 120.4644 120.6376 120.8112 120.9990 121.1821 121.3763 121.5692 121.6500
99.9900 111.7504 112.1320 111.5373 102.0531 98.9210 104.8267 110.3493 114.4420 115.8051 112.9679 119.8342 119.6215 119.4868 119.3781 119.2222 119.0228 119.0355 119.0221 118.9829 118.9466 118.9268 118.9833 119.0234 119.0832 119.1659 119.2747 119.3324 119.4691 119.5852 119.8327 119.9655 120.1421 120.3247 120.5188 120.7143 120.9091 121.1129 121.3213 121.3500
113.5600 113.5996 112.2805 118.9667 117.2763 96.7939 103.2049 102.2753 102.1391 120.0798 110.0235 120.1170 119.2846 119.1034 119.0125 118.8567 118.7631 118.6716 118.5898 118.5481 118.5296 118.5370 118.5495 118.5980 118.6655 118.7635 118.7295 119.0926 119.3048 119.3645 119.4579 119.6229 119.8150 120.0118 120.2154 120.4222 120.6420 120.8532 121.0735 121.2600
99.3700 106.0596 112.1909 101.2582 111.6344 97.9137 108.4206 104.5723 106.6740 107.5382 113.2684 120.0198 118.9022 118.7172 118.3586 118.3835 118.3524 118.2052 118.1417 118.0976 118.0734 118.0718 118.0998 118.1517 118.2313 118.3115 118.2726 118.5772 114.9992 118.9270 119.0811 119.2725 119.4807 119.6886 119.9094 120.1299 120.3495 120.5982 120.8198 120.9900
111.9300 114.0801 103.8400 109.1175 121.4914 107.8715 109.1324 106.9538 116.1857 118.5856 119.7656 118.4904 118.5518 118.1695 118.9724 118.1574 117.6748 117.8098 117.6690 117.6165 117.5887 117.5904 117.6137 117.6790 117.7239 117.9198 117.8536 108.6863 119.2789 118.3984 118.6976 118.9109 119.1366 119.3515 119.6288 119.7740 120.3930 120.3248 120.4765 120.6300
112.0900 119.9667 116.6129 96.7210 120.2478 106.1879 112.2386 103.6591 112.7267 116.4959 114.4099 118.5495 118.0934 117.7036 115.7036 110.2801 117.6831 117.2038 117.1550 117.0860 117.0780 117.0761 117.1085 117.1681 117.3105 117.1893 120.1016 102.4633 120.1540 118.1288 118.3067 118.5270 118.7791 118.9924 119.2996 119.2079 119.9608 118.3895 118.9013 120.5800
117.3400 117.2655 113.9635 105.8328 131.6070 109.0928 116.3711 111.8853 120.4971 118.3141 118.6855 117.8211 117.6592 116.9057 118.7666 122.0999 116.6975 116.7569 116.6336 116.6443 116.5281 116.5335 116.5697 116.6557 116.6294 117.0158 107.0244 117.6923 116.6948 117.6579 117.9005 118.1557 118.4309 118.7185 119.1063 119.8512 114.1423 110.6984 105.1735 108.8400
98.5900 100.9225 113.6577 110.0287 112.7562 97.6720 113.3599 121.7491 118.0482 118.0328 117.6485 117.7185 117.1021 116.5565 110.9351 108.4843 116.0844 116.5080 116.4986 115.8503 115.8906 115.9480 115.9898 116.0817 116.1352 115.2823 111.9904 120.5888 115.2369 117.2203 117.5200 117.7524 117.8130 118.3647 117.5688 119.3756 106.7084 115.4693 114.5578 120.1700
130.5200 106.8531 102.7675 98.1884 106.8581 111.1032 108.1958 118.6077 117.7619 117.6549 117.3250 116.4327 119.6922 116.1263 114.4653 113.5336 116.2187 115.8700 111.9819 119.5180 116.7935 115.5022 115.3534 115.4751 115.5264 116.0666 116.3506 115.0533 116.5234 116.7689 116.7898 117.3519 118.2245 119.5899 113.8498 120.4345 114.5100 109.3300 118.8101 119.7500
105.3400 104.2003 98.4286 96.7619 98.0139 113.4736 111.2198 117.7437 117.6817 117.2336 117.2692 117.2275 115.0727 115.6869 117.3166 116.7415 115.1857 115.2840 114.2376 114.6694 114.3857 114.7330 114.7140 114.8269 115.0185 115.1031 115.4030 115.8239 115.9037 117.1420 118.3647 116.8318 116.8016 112.4568 110.0309 109.3940 119.0632 115.2515 118.9563 119.7500
112.2300 99.4385 97.9867 102.2639 101.7011 106.4726 119.2850 117.2825 117.1793 116.8627 116.4782 116.1349 117.0477 115.0096 111.6323 104.9577 114.5839 114.3657 114.1584 113.9975 114.0126 113.9293 114.0069 114.1269 114.3011 114.5507 114.8437 115.2261 116.2358 112.5405 102.9685 120.4476 116.6881 117.5423 118.7247 118.8130 118.3096 118.9350 113.9722 119.3200
109.3700 97.2113 99.6150 103.2089 102.7804 106.7722 109.7333 117.5364 116.8772 116.4658 116.0697 115.5628 115.2801 114.9307 115.7666 113.9385 114.0159 113.5813 113.3532 113.2219 113.1217 113.1320 113.2227 113.3810 113.5949 113.8574 114.1943 114.6119 115.4455 106.7473 109.5854 114.6688 116.0574 116.9032 117.3117 117.6405 117.9653 118.5836 117.4253 118.9700
123.1500 121.0523 105.8447 110.0647 103.2657 114.7690 116.9798 117.0075 116.5358 116.0795 115.6355 115.1842 114.7538 114.0447 113.7706 113.4807 113.0051 112.8667 112.5409 112.3584 112.2791 112.2803 112.3694 112.5567 112.8116 113.1299 113.5097 113.9257 114.1288 115.4185 115.7105 115.5299 116.3725 116.4784 116.9626 117.4069 117.8293 118.1816 118.6545 118.8800
98.1200 104.7574 97.1417 103.1001 117.4491 105.0093 118.3188 116.5481 116.1609 115.6888 115.2051 114.7017 114.2019 113.7071 113.2101 112.7425 112.3446 111.9250 111.6360 111.4196 111.3046 111.3086 111.4307 111.6547 111.9673 112.3585 112.7487 113.0853 113.8138 114.1492 114.9277 115.1775 115.9199 115.9075 116.5976 117.1171 117.5344 117.9713 118.3891 118.5200
103.7400 101.7436 111.8369 115.4012 100.5205 119.0275 116.8084 116.3884 115.8946 115.3678 114.7564 114.3183 113.8719 113.0805 112.5681 111.8082 111.4408 111.0238 110.6290 110.3539 110.2202 110.2244 110.3807 110.6526 111.0421 111.4935 112.2876 111.2972 110.4022 113.8556 114.2724 113.7272 112.8825 107.2594 116.7127 117.7144 117.0881 117.7850 118.1901 118.4400
119.2200 113.5973 118.3977 112.5935 114.4279 116.8984 116.5211 115.9983 115.1715 114.8202 114.3160 113.4965 112.3155 111.8657 112.0487 111.8226 110.4558 110.0008 109.5106 109.1573 108.9778 108.9840 109.1837 109.5496 110.0366 110.6244 111.1404 112.2538 112.6256 113.2083 112.3669 108.1727 116.3192 116.9984 115.4584 121.6554 116.9043 117.6616 117.9891 118.3700
100.7400 95.1693 119.9345 122.2811 118.3406 116.5446 116.3727 115.6887 120.2475 115.3347 114.0392 112.1977 111.7367 117.1398 110.9743 114.1564 109.3391 108.9659 108.2554 107.7769 107.5297 107.5357 107.8105 108.2942 108.9343 109.6483 110.4226 111.1118 111.9231 112.5179 114.1039 115.0785 114.5066 114.8889 115.5050 116.3949 116.8617 117.3578 117.8189 118.3000
97.0800 96.2923 108.6590 83.7445 112.8710 117.4295 116.0049 115.9459 114.3801 116.4180 113.5931 113.0378 110.7042 102.8689 110.7396 109.2360 108.5713 107.6487 106.8146 106.1535 105.7884 105.8011 106.2002 106.8757 107.7210 108.6384 109.5693 110.4744 111.3345 112.1914 112.9044 113.5590 114.2510 116.4763 117.3500 116.9221 116.4551 117.2094 117.6785 117.8800
113.4500 103.2168 98.3084 127.0886 104.2763 111.3130 116.3497 115.7317 107.4624 113.8487 113.2254 112.4667 112.9313 112.2111 109.6862 108.6446 107.5095 106.3208 105.1743 104.1967 103.6192 103.6440 104.2600 105.2503 106.4164 107.5865 108.7277 109.7928 110.7776 111.6962 112.5492 113.3414 114.4924 105.0111 105.2324 111.9534 116.2845 117.1550 117.5009 117.8300
120.2200 102.9842 94.8649 95.9763 110.9685 109.5671 116.1971 115.0489 115.3262 113.9660 113.0184 112.1447 110.7930 109.7940 108.9941 107.8412 106.4501 104.9103 103.2772 101.7243 100.7654 100.7877 101.8399 103.4141 105.0277 106.5641 107.9336 109.1730 110.2867 111.2980 112.1938 113.1268 114.5547 111.0068 121.5936 107.0529 115.9246 116.7241 117.4821 117.7900
120.3500 111.4203 113.9261 114.0371 118.2320 115.4869 116.0149 115.0259 114.2041 113.5228 112.7653 111.8740 110.9486 109.8450 108.5508 107.1234 105.4731 103.5371 101.1944 98.6982 96.2510 96.4442 98.8179 101.3713 103.6758 105.6082 107.2450 108.6568 109.8844 110.9617 112.0254 112.6104 113.7184 111.9826 108.7594 104.0315 123.2275 111.4057 117.8290 117.7600
128.2100 119.9211 119.0768 118.7979 117.0099 116.4553 115.5886 114.9091 114.2166 113.4628 112.6180 111.6928 110.6670 109.5059 108.1781 106.6207 104.7163 102.3449 99.1925 94.2741 89.5160 89.8465 94.7537 99.4521 102.5477 104.8703 106.7309 108.2823 109.5986 110.8898 110.6340 117.5425 109.2177 99.9427 101.0877 104.2362 117.8963 116.7291 117.2549 117.7400
96.3700 109.2083 117.9808 94.2240 112.9061 110.9097 115.8285 114.9271 114.1534 113.3882 112.5441 111.6110 110.5605 109.3668 107.9780 106.3379 104.2847 101.6684 97.9300 90.6350 84.9303 85.1911 91.3072 98.2671 101.9045 104.4888 106.4767 108.0999 109.4612 110.6202 111.7365 116.2246 103.7657 105.8851 112.4472 116.1394 116.0779 116.7254 117.2758 117.7300
96.3700 110.3294 118.2888 94.0135 113.6831 111.1856 115.7742 114.9221 114.1578 113.4001 112.5562 111.6271 110.5780 109.3780 108.0023 106.1118 104.3318 101.7834 98.1922 91.1919 86.1662 86.2816 91.8413 98.4929 102.0085 104.5442 106.5204 108.1160 109.4794 110.6101 111.7885 115.1311 104.7951 105.7457 112.8776 115.9131 116.1068 116.7313 117.2873 117.7300
96.6800 119.1448 118.6929 105.3443 117.7885 111.9744 115.7340 114.9567 114.2301 113.4904 112.6503 111.7390 110.7628 109.5594 104.9237 106.2071 104.6978 102.6224 99.6792 94.8817 91.1707 91.3416 95.9769 99.9002 102.8006 105.0345 106.8466 108.3746 109.7889 110.7866 111.2995 112.5281 114.0375 115.1455 115.2238 115.8310 116.2096 116.7826 117.3121 117.7300
118.4900 119.5363 119.2831 118.2834 117.1137 116.6944 115.6660 115.0235 114.3512 113.5655 112.8144 111.9387 110.9848 109.8384 107.7549 107.4621 105.7294 103.8670 101.8093 99.6045 97.7003 97.7852 99.7034 101.9079 104.0255 105.8406 107.4168 108.7676 108.9985 110.7092 111.9181 110.3056 113.4030 114.6665 114.9346 115.6881 116.2970 116.8402 117.3529 117.7500
112.5600 106.9728 119.0837 117.4424 116.8283 116.2739 115.7951 115.1966 114.5548 114.3770 113.0607 112.2179 111.3184 110.5694 106.3795 108.2735 105.9958 105.2945 103.7947 102.4024 101.5356 101.5650 102.5070 103.9155 105.3907 106.8260 108.1356 109.3511 110.9405 113.0411 107.0401 114.6713 114.8539 115.0744 115.2707 115.8545 116.4078 116.9912 117.5278 117.7700
118.8000 107.4465 114.4886 116.9259 117.0066 116.5419 115.9531 115.3801 114.8684 114.2972 113.3583 112.5791 111.7612 110.8546 110.0342 109.1188 107.1279 106.7994 105.6335 104.7131 104.1848 104.2225 104.7757 105.6883 106.7580 107.8523 109.0029 109.8835 110.8359 112.7326 99.7990 104.6621 102.8102 115.5069 115.3100 115.9815 116.6028 117.1174 117.3649 117.8000
96.8100 116.6572 115.5649 117.5610 117.1504 116.6807 116.1523 115.5959 114.8937 114.2567 113.6773 112.9677 112.2249 111.3992 110.5403 109.6659 108.8445 108.0070 107.2021 106.6839 106.4106 106.2659 106.6268 107.2613 107.9877 108.9204 109.4401 111.4780 112.3376 112.2528 111.3561 96.8627 121.7588 114.3997 115.5778 116.2859 116.4669 116.6340 120.6397 122.3300
118.8600 118.3790 118.6916 117.8638 117.3746 116.8794 116.3747 115.8413 115.2888 114.7045 114.0447 113.7539 112.7156 112.0375 111.3156 110.5719 109.8098 109.1115 108.5034 107.1369 107.0047 107.9284 108.1781 108.6262 109.2211 109.9128 110.7503 111.3524 104.9586 113.2812 114.1667 110.8803 117.5115 114.9009 115.8014 116.6409 116.0997 120.8937 114.8597 110.0200
119.1900 118.9463 118.4092 117.9841 117.5644 117.0991 116.6144 116.1083 115.5899 115.0329 114.4588 113.9574 113.2631 112.6447 112.0184 111.3998 110.7735 110.4064 109.7313 110.9760 108.8983 108.8423 109.5065 109.8457 110.3030 110.8597 111.4380 111.6461 112.0273 113.2028 113.8712 114.7176 115.1057 115.6552 116.1398 116.6826 119.3855 127.0321 110.0691 103.6500
119.2500 118.9644 118.6069 118.2035 117.7767 117.3414 116.8836 116.4068 115.9186 115.4446 114.8887 114.3663 113.8192 113.2584 112.7121 112.1809 111.6888 111.0950 110.4944 108.6380 110.9467 112.4401 110.8171 110.9325 111.2906 111.7278 112.2168 112.8173 113.2889 113.8311 114.3886 114.9345 115.4461 115.9538 116.4406 116.9632 117.2277 116.8117 106.0390 108.1900
119.3100 119.1893 118.8021 118.3917 118.0032 117.5948 117.1581 116.7237 116.2490 115.7772 115.1676 114.8062 114.3468 113.8807 113.3847 112.9338 112.5386 111.8816 112.0021 92.2739 111.3313 112.5622 111.8446 111.9090 112.1892 112.5554 112.9802 113.4231 113.8997 114.3973 114.8344 115.3589 115.8295 116.3014 116.7518 117.1975 117.6154 118.4751 118.7223 118.7500
119.6400 119.3665 118.9975 118.9097 118.3098 117.8753 117.4461 117.0355 116.6237 116.0234 115.6333 113.4010 115.0006 114.4685 114.1035 113.6333 113.3048 112.7482 113.9761 97.4121 113.0715 112.2783 112.5831 112.7840 113.0125 113.3278 113.6724 114.0581 114.5173 114.6222 113.5197 115.7406 116.5297 116.6549 117.0680 117.4748 117.8803 118.1889 118.6439 118.8200
119.7100 119.3971 119.5984 114.6606 118.6428 118.0678 117.7358 117.3628 116.9626 116.4460 116.8682 117.6327 115.2243 114.8114 114.6553 114.3683 114.2278 114.4041 109.4680 94.4824 110.7942 113.1019 113.4589 113.5634 113.7773 114.0368 114.3436 114.6710 115.0638 115.4876 122.7537 116.2816 116.1015 116.9804 117.3936 117.7860 118.1867 118.7336 118.9200 119.1800
120.0300 120.4920 119.4377 109.7954 119.5789 118.2027 118.2159 117.6750 117.4898 118.4875 115.9269 115.3515 115.3809 115.4473 115.2768 114.4188 111.5286 114.8507 106.0271 112.7287 114.3101 114.1546 114.1977 114.3136 114.4817 114.7083 114.9683 115.2666 115.6888 113.7903 116.7323 104.0758 116.2639 117.3420 117.7441 118.0793 118.4064 118.7844 119.1280 119.2600
120.1000 119.8600 98.4700 119.3600 118.8700 118.5700 118.8500 117.9900 117.4100 117.0800 96.3600 96.0800 116.1700 116.1700 100.1400 100.1400 104.0100 112.1300 114.6700 114.7200 114.7700 114.7700 114.7200 114.6700 115.1400 115.0400 115.4200 115.7500 116.1700 116.0900 116.8300 116.7500 117.3800 117.6800 117.9800 118.2400 118.5500 118.8200 119.3500 119.3500
