120.5800 119.6200 116.9200 102.4000 101.8400 100.5200 100.5600 99.6200 104.6400 102.9600 123.1500 121.1000 110.0700 110.0700 120.7100 120.5000 120.5500 120.3100 120.3500 120.0800 120.1000 113.0100 120.1500 120.1600 120.1500 120.1500 120.1200 120.0900 120.0600 120.3300 120.2900 120.5300 120.7500 120.6900 120.8900 120.8900 121.3200 121.3200 121.4800 121.4400
112.0400 121.9200 112.8638 113.9763 110.5620 110.8061 107.1459 104.8260 104.4846 117.2646 119.5240 120.7984 121.0660 120.4536 120.5070 120.7985 120.2573 120.1506 120.0186 119.9074 120.5559 119.0608 119.8711 119.8054 119.7822 119.8101 119.5867 119.5725 119.9786 120.0410 120.1374 120.2456 120.3714 120.4998 120.6397 120.7994 120.9513 121.1191 121.2933 121.4000
112.0400 110.2936 112.1150 117.2863 108.1070 108.0683 117.9984 98.5672 96.9279 121.5928 121.0319 120.6190 120.3871 120.2835 120.2262 117.1928 115.8136 119.8335 119.6424 119.4809 119.6021 114.4308 119.7584 119.4214 119.3651 119.2255 122.4983 119.6329 119.6150 119.6735 119.7773 119.8935 120.0227 120.1679 120.3176 120.4848 120.6478 120.8337 121.0242 121.0700
100.4500 110.1566 111.5956 113.0166 112.1642 100.1077 99.3212 99.8406 108.5348 114.6345 120.0005 120.1472 120.1276 119.9739 119.9781 118.5080 119.4994 119.6078 119.2473 119.1600 119.1389 119.0153 119.1300 118.9975 118.9638 118.9395 119.1654 118.9950 119.2024 119.2856 119.3913 119.5223 119.6727 119.8248 119.9922 120.1687 120.3544 120.5564 120.8264 120.7400
114.2300 110.2278 113.4884 110.5432 97.2837 102.1382 99.4505 103.7873 112.4156 109.8993 121.1675 119.9456 119.7938 119.6201 119.3580 119.4183 119.1024 118.8357 118.8567 118.7502 118.6706 118.5693 118.5161 118.5448 118.5322 118.6064 118.5879 118.7100 118.7736 118.8791 119.0010 119.1452 119.3009 119.4708 119.6435 119.8362 120.0348 120.2074 121.0262 120.3800
103.0200 107.1156 112.3609 104.5880 106.9396 100.0852 102.4746 109.9109 107.3951 122.5838 119.5652 119.6836 119.4583 119.2421 119.1040 118.7595 118.7089 118.5344 118.4334 118.3094 118.2152 118.1618 118.1179 118.0829 118.1038 117.9907 118.6237 118.1901 118.4198 118.4555 118.5869 118.7451 118.9147 119.1034 119.2950 119.5024 119.7169 119.9212 120.1491 120.3200
105.0700 109.2809 106.2035 117.7900 111.3240 98.2841 109.7115 111.7938 114.0996 116.5628 119.5073 119.3868 119.1005 118.9152 118.6302 119.3165 118.4905 118.6129 117.9328 117.8589 117.7530 117.6763 117.6250 117.6454 117.3637 117.6704 113.5488 117.6182 117.9106 118.0122 118.1497 118.3352 118.5236 118.7260 118.9321 119.1571 119.3807 119.6727 119.8450 120.0000
112.1500 111.4793 102.8872 103.3507 111.0696 98.1254 110.3522 103.0023 111.4337 120.4721 117.6070 119.2667 118.6663 118.3320 118.6732 117.7276 105.0224 117.7532 117.4915 117.3782 117.2642 117.1772 117.1141 117.1316 116.8642 113.9733 108.7623 117.1641 119.0462 117.5507 117.6972 117.9085 118.1023 118.3334 118.5391 118.9074 119.0983 118.8848 119.3335 119.6100
104.3200 118.2097 117.6953 105.0363 103.6665 97.3364 110.7784 113.0787 117.7031 119.0374 119.1104 118.5610 118.6753 115.5129 118.8433 117.5530 116.8876 118.2493 117.0383 116.8680 116.7381 116.6408 116.5751 116.6105 116.1595 115.9633 98.3311 93.7424 121.0709 117.1059 117.2466 117.4462 117.6653 117.9218 118.0517 118.2447 117.2381 119.9621 120.1791 119.5500
111.1600 117.8039 112.9145 117.3965 105.3052 99.9157 104.4698 111.5847 118.8519 118.8356 118.5825 118.2619 117.9622 113.9582 109.8933 116.7716 117.0860 116.6050 116.5347 116.3325 116.1899 116.0793 115.9930 115.8117 117.3039 105.8298 115.1037 110.5211 117.0994 116.5708 116.7317 116.9956 116.6295 116.9367 117.4249 117.9870 106.9648 112.5002 112.6491 119.1900
113.6900 113.2384 118.4563 115.1440 112.0887 129.3482 100.3413 113.8531 120.4020 118.4817 118.2193 118.2388 117.5626 119.3520 100.0000 112.7224 116.4935 116.2064 115.9681 115.7632 115.5975 115.4715 115.3788 115.3123 115.6429 115.8044 119.3080 116.5205 114.5139 115.8623 116.1780 116.6843 116.7884 119.3894 101.5035 120.6018 100.1440 106.6261 108.4485 118.7400
113.6900 103.0893 106.3850 110.7606 99.1018 104.5409 111.2528 101.9199 118.3808 118.2649 118.1673 118.1451 112.5401 116.9646 100.2427 117.8362 116.8808 115.6504 115.3929 115.1624 114.9704 114.8211 114.7208 114.6626 114.6112 114.5679 113.7894 113.3134 105.3765 115.8706 116.5556 115.4999 116.4901 111.7663 105.8354 112.5927 111.0100 120.0944 120.1494 118.7100
98.7700 108.6854 101.5231 97.6219 109.2024 110.9923 116.7658 121.0006 119.4412 117.9096 117.3795 116.2959 114.1462 115.8507 111.3278 117.9054 114.3998 115.0888 114.7856 114.5261 114.3004 114.1267 114.0058 113.9565 113.9168 114.0012 114.2610 115.0302 114.4945 114.1339 109.4882 116.7656 110.8124 112.0456 119.6969 117.0806 118.3478 117.3089 117.9624 118.2100
98.7000 111.9500 96.3546 107.1547 109.4031 115.7104 118.1430 118.3327 117.8343 117.6761 117.2918 119.8506 115.8400 116.9687 108.7692 110.2593 115.8240 114.3285 114.1510 113.8349 113.5773 113.3665 113.2276 113.1621 113.1891 113.2377 113.7413 112.3786 117.6928 114.0580 110.8185 115.7280 116.3439 115.6789 116.2324 116.1328 116.9544 117.4155 117.8025 118.2100
98.4100 99.3436 95.9499 116.3578 106.1632 101.4471 117.1242 118.3000 117.7356 117.3430 116.9460 116.1997 115.8606 115.7792 115.7137 113.9889 114.1491 113.8593 113.4550 113.1036 112.7902 112.5450 112.3730 112.2896 112.2910 112.3955 112.5687 109.5183 113.1260 96.6066 114.5943 112.7714 114.4751 115.2345 115.6988 116.2134 116.6145 117.0144 117.4448 117.6900
109.0100 107.5505 109.9336 96.0170 111.9452 117.9885 118.1375 117.9316 117.5057 117.0601 116.6128 116.1522 115.7585 114.5516 119.2922 114.2020 113.7373 113.2015 112.7367 112.3100 111.9349 111.6386 111.4302 111.3293 111.3412 111.4539 111.7404 112.3473 113.9508 112.2707 113.2631 113.7324 114.3815 114.7826 115.2828 115.7721 116.2492 116.7078 117.1568 117.2600
100.7700 100.5644 104.1138 102.0108 118.9837 115.2832 118.1348 117.7487 117.2429 116.7871 116.3031 115.7992 115.2757 114.6597 114.4976 113.3821 113.1216 112.5077 111.9690 111.4583 111.0114 110.6315 110.3702 110.2438 110.2545 110.4289 110.7036 111.0388 112.2640 112.1458 112.5392 113.2115 113.7599 114.3171 114.8655 115.3987 115.9139 116.4115 116.8830 117.1700
102.1000 103.5867 117.8150 119.5178 121.3825 118.4791 117.8760 117.4776 116.9674 116.5258 116.0114 115.4810 114.4486 113.9722 113.7852 113.4050 112.3529 111.8273 111.1613 110.5477 109.9829 109.5190 109.1708 109.0044 109.0181 109.2356 109.6125 110.0822 110.7945 111.2149 111.9494 112.6077 113.2341 113.8585 114.4504 115.0274 115.4489 116.1495 116.6327 117.0700
102.8000 103.3066 119.9148 114.9617 117.1746 118.1132 117.7194 117.3415 117.5266 116.1865 115.7280 115.2465 116.1132 114.8592 113.7111 108.6771 112.1803 111.1055 110.3175 109.5650 108.8568 108.2435 107.7932 107.5536 107.5810 107.8772 108.3706 109.0177 109.7439 110.5107 111.2454 111.9957 112.7157 113.4132 114.1029 114.7688 116.1604 115.8471 116.3877 116.6200
111.7400 105.9091 120.1669 118.0397 118.5360 118.0225 117.5957 118.3085 109.7865 116.5940 115.4780 114.9967 116.8990 119.2189 112.6943 101.9947 112.2482 110.2706 109.4589 108.5266 107.6330 106.8019 106.1629 105.8216 105.8641 106.2837 106.9627 107.8196 108.7293 109.6561 110.5480 111.4183 112.2265 112.9780 113.7543 114.4503 116.3539 115.6081 116.1694 116.5400
99.9000 97.4648 109.1253 121.0361 120.1204 118.2664 117.7325 112.3133 106.4026 116.7749 115.1434 114.6104 112.5405 112.1368 112.6687 112.0745 110.5866 109.6894 108.5853 107.4433 106.2710 105.1348 104.1970 103.6568 103.7250 104.3655 105.3700 106.5285 107.7060 108.8277 109.8835 110.8673 111.7640 112.6165 113.3462 114.6835 114.4387 115.4688 115.9973 116.4100
101.7500 107.9278 97.9722 104.9255 118.2374 115.0266 117.6055 114.2958 117.6642 116.3376 115.1109 114.4236 114.0816 113.3662 112.0573 110.9547 110.0227 109.0211 107.7621 106.3642 104.8303 103.2256 101.6968 100.7964 100.9137 101.9964 103.5790 105.1781 106.6780 108.0447 109.2820 110.3815 111.3655 112.2227 113.7459 104.7786 115.6787 115.2849 115.8250 116.3600
117.6100 105.8363 95.6076 97.4580 113.8830 109.8930 117.8521 117.1383 116.4275 115.5571 114.9627 114.2645 113.4562 112.6351 111.8281 110.8713 109.7229 108.4728 107.0307 105.3716 103.4099 101.0539 98.5970 96.3265 96.6861 99.2405 101.5896 103.8530 105.7489 107.3687 108.7335 109.9704 111.0516 111.6391 115.2114 99.1846 115.6815 115.1141 115.7130 116.3600
117.6500 105.0090 114.6756 114.6815 119.8109 116.0680 117.4994 116.6168 116.0594 115.5081 114.8664 114.1617 113.4037 112.5715 111.6318 110.5894 109.4273 108.0808 106.4953 104.5796 102.1685 99.0303 93.8727 89.7045 90.2217 95.3444 99.7382 102.7565 105.0273 106.8596 108.5156 109.6774 110.6584 112.3147 115.2389 112.0758 114.1975 115.0196 115.6593 115.8900
118.6700 113.8079 115.7112 118.5593 118.3166 117.9552 117.3472 116.6618 116.0922 115.4808 114.8153 114.1101 113.3289 112.4695 111.5432 110.4910 109.2814 107.8752 106.2095 104.1550 101.4548 97.6099 90.0593 84.8144 85.5355 91.9728 98.5771 102.1229 104.6650 106.7198 106.3914 110.7126 112.9595 100.6530 97.7051 113.5727 114.0090 114.9711 115.6175 115.8700
117.1200 115.4177 115.1600 118.4751 118.1146 117.5649 117.1884 116.6624 116.0934 115.4847 114.8218 114.1193 113.3488 112.5069 111.5820 110.5146 109.3021 107.9028 106.2456 104.2003 101.5382 97.8360 90.5444 85.7837 86.3029 92.4113 98.7309 102.2032 104.7076 106.7540 106.4645 111.0357 112.2970 99.4029 96.2581 113.6509 113.8845 114.9829 115.6287 115.8700
116.5800 105.5956 121.4698 102.6650 116.9362 120.3277 117.1705 116.6842 116.1326 115.5339 114.8916 114.1710 113.3875 112.8974 110.8498 110.7668 109.4778 108.1424 106.5896 104.7188 102.3877 99.3572 94.8782 90.8816 91.4016 96.2595 100.0831 102.9591 105.1547 106.8800 108.8516 113.3633 107.4529 100.3993 104.4017 114.4505 113.8266 115.0304 115.6752 115.8800
100.1700 120.9431 121.1265 99.1888 107.9479 110.4763 118.0115 116.7455 116.2097 115.5673 114.9333 114.2965 113.7821 108.8975 102.8486 111.8557 109.7545 108.5584 107.1771 105.5636 103.6847 101.6516 99.5012 97.4971 97.7793 99.7636 102.0294 104.1292 105.9388 107.5077 108.8042 109.4675 111.3673 113.2685 113.8413 114.4220 114.3352 115.1164 115.7618 116.3100
98.6000 119.5741 119.5418 121.7611 119.6922 118.5762 117.3154 116.8652 116.2452 116.4760 115.2111 114.0512 114.2045 98.9514 112.5381 111.1487 110.5247 109.1383 107.9283 106.5867 105.1410 103.6443 102.2582 101.4238 101.5346 102.5379 103.9625 105.4834 106.9254 108.2404 109.4447 110.6921 111.5027 112.2570 112.9453 113.8196 114.6147 115.2561 115.8718 116.3400
111.9900 116.1750 118.6647 118.4041 118.0433 117.8769 117.5055 116.9854 117.0456 109.1823 116.0290 114.6432 115.3869 115.5076 114.0038 113.0414 110.3441 109.7537 108.7804 107.6724 106.5631 105.4916 104.6237 104.1332 104.1992 104.7886 105.7761 106.6088 107.7165 108.4821 109.5636 110.9761 111.8684 112.7070 113.4731 114.1903 114.8363 115.4484 116.0396 116.3900
97.8800 120.4383 120.8293 115.6171 118.8148 118.1296 117.6245 117.0448 117.1115 108.9674 115.8167 114.9345 114.1477 113.7711 105.5507 111.8544 110.7749 110.5718 109.6336 108.7482 107.8908 107.1123 106.5087 106.1965 106.2321 106.6403 107.0928 108.4064 111.0960 111.5496 111.3879 111.3684 112.4168 113.0323 113.6595 114.4300 115.1277 115.6845 116.2052 116.4500
98.2000 107.1178 121.2219 117.5991 118.6341 118.2459 117.7897 117.3485 117.2774 117.4315 115.9468 115.2656 114.7379 114.3439 105.9200 112.5229 111.9256 111.1992 110.5271 109.7104 109.0028 108.4772 108.1141 107.8709 107.8919 108.1918 108.5714 108.5334 100.5753 95.7509 103.1015 113.8096 112.7069 113.5298 114.1620 114.7707 115.4727 116.0671 117.0601 116.9500
120.2400 116.1147 119.6968 119.5420 118.8160 118.3957 117.9789 117.5516 116.9094 116.2381 114.2490 114.7969 115.2025 114.2239 113.6079 112.8738 114.8071 111.9332 111.4385 112.9175 110.6756 109.9777 109.3395 109.2601 109.2779 109.4228 110.7319 109.7360 109.1691 112.6050 96.4172 109.7237 113.7120 113.9223 114.5437 115.1387 114.7211 121.7264 108.5664 117.0400
120.2800 120.6927 119.7044 119.3290 118.9848 118.5746 118.1644 117.7457 117.3238 116.6921 116.8555 115.9181 115.2875 114.8621 114.3870 111.6159 98.3796 113.2980 110.1840 117.0738 105.7157 109.9092 110.7442 110.4755 110.4818 110.5083 112.4958 111.2884 111.7144 112.7556 105.7662 112.9138 113.8564 114.4101 114.9928 115.1217 118.4228 121.4845 110.6078 101.7000
120.3300 120.1749 119.8935 119.4998 119.1726 118.8088 118.4436 117.9682 117.5674 117.9819 106.7597 115.0441 115.5284 115.2226 114.7506 113.6669 114.6079 112.6617 100.2480 109.6150 111.3121 109.7827 111.7813 111.5276 111.5429 111.6938 111.7930 112.1604 112.6989 112.1321 113.6069 113.7864 114.4078 114.8881 115.3814 116.0046 113.7544 105.2739 105.9812 100.6300
120.6200 120.3672 120.0074 119.7365 118.2904 119.7325 118.5965 118.2850 117.9351 117.0529 116.5097 117.0821 116.8977 113.8369 115.5701 114.7065 114.7557 114.7042 115.3971 97.3142 110.3325 114.8456 112.3709 112.4660 112.4824 112.5756 112.7831 113.0148 113.3475 113.7817 114.0668 114.5222 114.9171 115.3599 115.7951 116.2850 116.7564 114.7796 99.8518 100.3800
120.6800 120.5204 120.6130 119.0487 105.5788 126.4700 120.5047 118.2041 117.5450 119.2199 110.5004 113.9888 117.5025 117.7321 115.7586 115.1751 115.7491 104.2870 107.0219 101.6079 115.1385 113.1507 113.4256 113.3280 113.3351 113.4156 113.5669 113.7765 114.0059 114.4777 114.3173 114.9169 115.4614 115.8525 116.2290 116.5665 117.6337 118.6052 119.2469 118.0600
120.7300 120.2265 122.1464 102.3776 122.2290 117.0735 118.9733 117.0705 113.8243 118.1115 114.3679 118.3055 116.8986 116.4506 116.3136 115.7582 116.3027 111.8775 98.5320 106.8992 114.3608 114.3772 114.1568 114.1047 114.1094 114.1723 114.3068 114.4845 114.5504 114.7739 111.4099 105.7274 116.2866 116.3180 116.6441 116.9947 117.0784 117.2508 118.1264 118.1700
121.0200 121.0419 118.1289 110.4108 120.7442 112.9494 119.7228 119.7156 119.5832 119.2416 117.2786 116.7229 117.1956 117.0227 116.6512 115.7018 113.8166 116.7250 99.6277 109.7401 115.7099 114.9286 114.8660 114.8138 114.8178 114.8730 114.9817 115.1414 115.2249 115.7430 107.1881 112.3851 117.1454 116.6652 117.0599 117.3988 118.0447 118.2614 118.4377 118.5600
121.0800 120.8600 115.7400 98.4500 120.2000 114.5000 118.7200 119.2000 119.7500 118.4000 96.1200 117.8700 117.5400 117.3100 117.3100 116.6800 113.0300 115.9700 115.9700 115.7000 115.7000 115.3100 115.3500 115.3700 115.3600 115.3400 115.3000 115.6700 115.6700 116.0300 102.7600 102.7600 116.6300 116.9300 117.2600 117.5300 117.7900 118.4500 118.6700 118.6700
