126.1600 125.1500 113.9000 114.0800 112.9900 112.9900 100.0300 100.0300 106.9100 120.5300 121.5300 121.5300 121.3400 121.1300 121.1700 120.9500 120.9800 120.7300 120.7500 120.7700 120.8000 103.9500 120.8000 120.7900 120.7700 120.7500 120.7300 120.9800 120.9400 121.1700 121.1300 121.3300 121.5200 121.4800 121.7000 121.8600 122.0200 122.2400 122.3800 122.3800
126.1600 119.5262 113.2331 113.9735 113.1097 113.4612 110.1351 101.0704 103.6713 120.6982 122.7187 121.1987 121.1068 120.9916 120.8751 120.6014 120.1635 120.6819 120.5504 120.8790 119.9746 143.3252 124.3697 120.8033 120.4791 120.6097 120.7038 120.5747 120.8148 120.8984 121.0113 121.1176 121.2473 121.3733 121.5173 121.6521 121.8088 121.9631 122.1394 122.0900
123.6200 111.4952 114.8115 112.5120 113.7414 115.0989 116.7533 102.6809 102.4252 123.0533 120.9729 120.9492 120.7938 120.6716 120.5922 116.5155 128.3674 119.4478 120.2853 120.0692 120.5398 113.6222 118.7228 120.0211 120.2223 120.1722 121.9462 120.3540 120.4886 120.5709 120.6800 120.8044 120.9370 121.0785 121.2288 121.3842 121.5453 121.6975 121.8824 122.0900
113.2200 112.5400 113.6245 111.6205 96.4172 104.6578 114.7331 111.3483 106.7043 113.7672 121.2068 120.0673 120.4607 120.3620 120.3037 119.2294 120.0146 119.2652 119.8738 119.8334 119.7181 120.1854 119.9078 119.8131 119.8072 119.8242 119.8221 120.0173 120.1106 120.2255 120.3475 120.4797 120.6181 120.7759 120.9338 121.1008 121.2691 121.4526 121.6734 121.7300
100.1900 103.9018 109.1148 113.1646 102.0329 99.7634 103.8004 105.0506 109.7278 114.0418 121.5035 120.4456 120.1386 119.8162 119.8402 119.7799 119.6408 119.5929 119.4860 119.4241 119.4012 119.2468 119.3493 119.3842 119.4352 119.4907 119.5847 119.6461 119.7817 119.8695 120.0007 120.1455 120.2974 120.4612 120.6324 120.8040 121.0103 121.0366 121.2781 121.4700
112.0000 111.0780 109.8152 103.9125 105.3733 96.7854 103.3555 104.8779 115.1502 115.8161 121.5559 119.9784 119.7685 120.4394 119.4536 119.5540 119.2408 119.1365 119.0639 119.0097 118.9675 118.9871 118.9605 118.9789 119.0038 119.0523 119.2641 119.3020 119.1970 119.4997 119.6495 119.7996 119.9661 120.1429 120.3219 120.5091 120.7414 120.8173 123.9663 127.7800
113.3400 114.7426 100.2653 112.0463 101.3401 99.0395 107.2263 101.4784 104.9827 107.5859 120.6744 119.5430 119.3269 119.7418 107.4165 119.5308 118.7997 118.7197 118.6467 118.5820 118.5413 118.5092 118.5193 118.5467 118.5611 118.8170 116.1452 118.7166 118.7959 119.1084 119.2708 119.4431 119.6263 119.8109 120.0057 120.2158 120.4106 120.7226 120.6866 120.7900
111.7600 113.6151 104.5121 111.2680 102.0105 101.6664 102.5172 102.1053 116.0957 118.8390 119.5406 119.1287 119.0216 118.7580 103.4974 118.2727 118.3764 118.3089 118.2018 118.1305 118.0832 118.0615 118.0639 118.1232 117.9244 116.7940 100.2613 119.9167 117.9387 118.7316 118.8941 119.0720 119.2678 119.4599 119.8188 119.9435 120.0897 120.3907 120.4993 120.7900
106.6200 116.3294 122.7765 115.2363 101.3604 108.0542 110.1713 107.0496 118.3214 119.4325 119.0364 118.9714 118.4426 119.4986 124.4229 113.6475 117.9353 117.8560 117.7322 117.6365 117.6002 117.5723 117.5820 117.6380 117.4538 117.0506 108.2834 115.8059 118.9712 118.3014 118.4940 118.6865 118.8988 119.1607 119.3812 116.8783 122.8548 121.0615 120.1394 120.4600
102.8600 115.4130 107.8231 115.9202 95.9697 96.3886 111.0012 114.4724 120.8450 118.5421 119.7002 118.2697 119.3573 114.5271 117.2772 111.6362 117.4065 117.4684 117.2635 117.2256 117.0786 117.0703 117.0623 117.1325 116.9239 120.0309 115.5020 109.9378 117.4257 117.8754 117.9902 118.3968 118.6880 118.5518 119.6422 114.1450 106.6646 112.7558 115.7594 120.3600
99.1300 127.3422 108.7051 132.9454 119.6001 98.8909 115.7819 114.5483 118.8886 118.4290 110.0756 119.8606 114.0892 110.3587 118.2265 119.3787 117.1888 116.9372 116.6685 116.2767 116.5842 116.4965 116.5233 116.5777 116.4311 115.5947 117.8734 123.3651 116.9400 117.4762 117.5186 115.8102 114.3104 119.0594 114.7134 120.1058 110.2389 111.8774 110.7991 120.0400
103.1600 104.6873 110.6639 94.8920 106.3234 103.5135 102.6815 118.6581 118.4900 118.8717 118.7995 112.6648 97.3068 118.3313 98.3430 110.7159 116.9100 116.3940 116.1651 119.8440 116.5747 116.1558 115.9168 115.9875 116.1233 116.4375 115.8816 115.9355 116.8453 116.6844 111.9927 117.3549 114.9688 101.3340 109.7775 116.3858 118.5247 120.3813 119.5730 119.6300
103.1600 99.1274 98.6184 97.1924 104.8375 114.2269 112.2762 120.1089 118.0556 118.1331 118.6900 109.9443 117.1477 117.2263 115.0612 108.4994 114.6094 115.6224 115.5556 115.5248 115.5986 115.4023 115.3109 115.3676 115.4035 115.5073 115.8758 116.2210 115.3594 118.9343 118.8981 116.7487 109.5478 114.2290 118.2924 115.9401 118.0888 119.1456 119.2710 119.6000
122.7100 100.4578 99.3459 104.5141 104.5190 102.5007 115.5314 118.0939 117.9758 117.5206 117.3664 116.8596 117.1997 115.8127 115.4652 107.7554 116.4274 115.1425 114.9456 114.7868 114.7360 114.7028 114.6465 114.6994 114.8196 114.9862 115.1721 115.7134 108.7375 106.1870 98.9999 115.6981 112.7660 119.0271 123.9619 117.6323 118.4422 119.2862 108.9218 119.1600
125.1100 96.7942 97.5101 109.1507 102.3574 117.4552 117.4140 117.9944 117.5870 117.3184 116.6150 116.3145 115.7952 115.9896 104.5444 116.7295 114.5758 114.4362 114.2879 114.0961 113.9587 113.8895 113.9165 113.9858 114.1147 114.2961 114.5092 114.6217 115.8652 115.4253 115.6557 116.6687 116.8783 116.2007 118.9876 117.5258 117.9301 118.4590 116.5724 118.7900
99.4600 108.1089 97.1023 107.4319 101.1093 119.1994 117.7469 117.6895 117.2369 116.8570 118.1106 121.2851 115.1792 115.4807 117.6839 113.4408 114.1233 113.8261 113.5371 113.3381 113.1991 113.1321 113.1245 113.2086 113.3626 113.5757 113.8568 114.3425 103.7998 110.1259 116.1325 115.6296 116.0203 116.4722 116.8603 117.3343 117.7058 118.0893 118.4790 118.7000
99.8900 101.5825 104.7793 108.9107 117.8983 109.2262 118.4804 117.3744 116.8686 116.5581 115.6712 115.5951 115.2873 114.6444 114.2539 113.9428 113.4350 113.0809 112.7671 112.5076 112.3345 112.2456 112.2580 112.3543 112.5363 112.8025 113.0842 113.4176 114.1212 115.3246 114.8449 115.2261 115.6600 116.1189 116.5506 116.9919 117.4131 117.8243 118.2173 118.6100
102.1400 102.6806 119.5149 114.5946 110.2830 118.1523 117.4659 117.0862 116.5331 114.8491 115.8257 114.9277 115.0008 114.5298 113.6844 113.1876 112.7177 112.2904 111.9137 111.6035 111.3908 111.2807 111.2903 111.4079 111.6346 111.9484 112.4130 112.3187 107.9297 113.9247 113.9373 114.7783 115.2362 115.7225 116.2045 116.6659 117.1212 117.5593 117.9750 118.2300
121.0800 112.5830 125.7721 113.7504 117.8508 117.3369 117.2730 116.8361 117.0205 108.0361 113.8728 114.9523 109.3180 113.6546 112.8404 112.5439 111.9562 111.4447 110.9801 110.5955 110.3269 110.1834 110.1978 110.3548 110.6381 111.0454 111.4197 112.3292 111.4675 112.6221 113.7199 114.2698 114.8274 115.3988 115.8616 116.4000 116.8503 117.3327 117.7765 118.1400
97.5000 104.1950 111.8603 114.7054 118.4720 117.1894 116.9780 118.1003 110.1752 118.5443 115.7811 115.6068 101.4292 112.4208 112.3087 111.8349 111.1355 110.5336 109.9607 109.4770 109.1251 108.9383 108.9493 109.1548 109.5321 110.0250 110.6458 111.1307 111.9685 112.6574 113.1804 113.8123 114.3968 114.8264 115.2272 115.8669 116.5812 116.9108 117.3551 117.6800
100.8000 105.5623 97.6251 109.2085 116.4100 118.5039 116.5780 117.2023 92.1115 117.2517 114.1515 113.4200 101.6375 109.6229 111.7043 111.0893 110.3197 109.5510 108.8414 108.2080 107.7383 107.4830 107.4977 107.7777 108.2821 108.9240 109.6402 110.4278 111.1631 111.9290 112.6381 113.3698 113.9520 116.0828 116.7655 116.2860 115.9238 117.5275 117.9574 117.6100
111.0900 100.6608 96.9251 108.1402 111.8977 116.0451 116.4617 116.2520 105.4643 113.5508 114.0889 113.8948 114.8141 113.2209 111.1758 110.3835 109.4595 108.5214 107.6039 106.7611 106.0989 105.7365 105.7624 106.1690 106.8561 107.7128 108.6378 109.5696 110.4765 111.3563 112.2236 112.7647 113.8795 105.9668 107.8167 110.1566 117.9149 110.1753 115.8087 117.5500
101.7100 114.9726 105.4747 108.4651 115.7495 112.9920 116.5208 115.9162 116.1515 115.2461 113.9577 113.1065 112.0377 111.3481 110.5665 109.6780 108.6047 107.4531 106.2556 105.0994 104.1170 103.5446 103.5821 104.2266 105.2366 106.4068 107.5903 108.7385 109.7965 110.7857 111.4172 113.1940 115.8168 112.7679 104.3597 106.2651 109.3673 105.9979 117.8199 117.5000
103.2900 117.5707 119.1739 115.0329 117.6013 115.6022 116.3255 115.7469 114.8982 114.2605 113.7187 112.9933 112.0762 111.4273 110.3993 109.0687 107.7774 106.3835 104.8423 103.2024 101.6243 100.6419 100.7195 101.8145 103.4064 105.0366 106.5641 107.9497 109.2094 109.9532 115.2143 108.3071 102.1997 102.8838 100.7118 102.3291 112.5749 107.3321 117.9801 117.1100
115.4200 130.4284 117.1774 119.4578 117.9661 117.1314 116.1536 115.6322 115.0088 114.3220 113.5570 112.7843 111.8623 107.1060 109.0909 108.2847 107.1066 105.4053 103.4400 101.0529 98.6260 96.0845 96.3009 98.8529 101.3801 103.6972 105.6253 107.2639 108.6822 110.0146 109.4327 113.5921 107.3607 104.5583 107.0131 114.8795 115.8311 115.5298 116.8235 117.0700
116.6300 97.2243 122.5040 96.1824 105.5704 108.7019 116.9642 115.4888 114.8798 114.1906 113.4303 112.5896 111.6647 110.6691 109.4698 108.1685 106.5536 104.6487 102.2524 99.0556 94.0443 89.4140 89.6575 94.9047 99.4835 102.5762 104.9006 106.7680 108.3125 109.6358 110.7468 112.0032 113.8305 98.5978 110.3619 111.1165 115.5813 116.2451 116.7925 117.0500
97.2100 118.9704 120.4524 95.3547 104.1090 108.8315 117.3058 115.4444 114.8261 114.1522 113.3733 112.5253 111.6017 110.5196 108.8258 104.7258 106.2797 104.2991 101.5838 97.8216 90.3725 84.9010 85.4226 91.4314 98.3583 101.9712 104.5308 106.5198 108.1284 109.4966 110.8465 111.7958 113.0402 113.9326 114.3490 115.1093 115.5997 116.1992 116.7590 117.0400
97.2100 99.7958 122.0325 99.4045 118.0099 110.0649 116.6649 115.5021 114.8544 114.0786 113.3473 112.5374 111.6251 106.2608 108.9329 106.1905 106.2914 104.3534 101.7126 98.0787 91.1109 85.8657 86.2696 92.1261 98.6063 102.0905 104.6090 106.5423 108.2184 109.3916 110.5254 110.3121 112.4034 113.2285 114.0285 114.8574 115.5915 116.1954 116.7622 117.0300
118.9600 121.0002 118.8341 119.2072 117.0607 117.2552 116.1335 115.5654 114.8604 114.7471 113.4637 112.2420 110.0968 103.8356 109.2002 108.5764 106.6728 104.8484 102.5788 99.6287 95.7370 91.2895 91.5877 96.3408 100.0240 102.8905 105.1022 106.8998 108.5025 110.7599 112.7664 106.3115 114.6572 114.0121 114.3622 115.0341 115.6197 116.1759 116.7885 117.0400
118.9900 117.1705 118.1222 117.9381 117.2948 116.7211 116.2504 115.6060 115.2527 109.0390 113.8069 112.6599 113.1576 112.1312 107.9684 108.6786 107.2522 105.6946 103.8588 101.7807 99.5398 97.8256 97.9332 99.8277 102.0142 104.0938 105.8841 107.5389 108.5556 112.4355 105.2603 106.2453 103.7980 111.3164 114.3447 115.0924 115.9133 116.5763 116.9782 117.0500
97.0000 115.6575 115.4965 115.1481 117.4231 116.9421 116.3606 115.5977 114.8363 111.4241 113.6302 112.9996 111.8456 111.0221 109.6795 109.1932 108.0154 106.7104 105.2821 103.8050 102.4467 101.5918 101.6551 102.6043 103.9870 105.4646 106.8697 107.8535 112.7114 111.6303 94.8757 94.6536 98.4932 111.6645 114.4750 115.2571 115.3256 115.4595 116.2371 117.4700
97.0600 109.6894 116.3610 117.5474 117.4855 117.0364 116.4980 115.8854 115.9218 117.3220 115.4638 113.4951 112.5325 111.7708 110.8325 109.9173 108.8669 107.7660 106.6807 105.5988 104.7719 104.2414 104.2898 104.8580 105.7555 106.8233 107.9290 108.9236 111.8818 110.8566 106.2580 107.7860 104.8509 117.2855 114.9013 115.5292 116.4926 123.3740 121.6967 117.5100
119.3700 118.3048 118.9978 118.2296 117.6664 117.1722 116.6577 116.2008 115.8287 103.0862 113.9101 109.0217 113.3801 112.2147 111.4143 110.5714 109.7261 108.8606 108.2552 107.2652 106.5709 106.4183 106.3250 106.6882 107.3072 108.0904 108.9586 109.8463 110.6618 111.4554 112.9731 113.9023 115.2734 114.1079 115.0659 115.6772 115.9110 118.4362 111.4682 101.4400
119.4100 119.2905 118.6390 118.2354 117.8546 117.3850 116.8745 116.4054 115.8701 111.9803 114.7846 113.0468 113.4068 112.7435 112.0296 111.3080 110.5752 109.9082 109.3354 108.1078 109.0566 106.7084 107.9422 108.1992 108.6688 109.2669 109.9502 110.6682 111.4384 112.0882 112.8150 113.4057 114.0282 114.7666 115.3573 115.8419 117.1679 121.4040 120.1278 116.0800
119.4600 119.1951 118.8629 118.3821 117.8773 117.4123 117.0996 116.6113 115.9643 116.2542 115.0703 114.5888 113.8644 113.2643 112.6423 112.0232 111.4066 110.8149 110.1466 108.2937 114.9577 115.8710 109.7842 109.6793 109.8434 110.3404 110.8822 111.4787 112.1001 112.7221 113.3336 113.9907 114.5344 115.1005 115.6893 115.8283 116.1397 109.1604 113.5872 101.2100
119.5100 119.4788 119.0391 118.7951 117.4891 117.8936 117.0415 116.9267 116.4465 115.8651 115.5684 114.9919 114.3768 113.7849 113.2813 112.7326 112.2112 111.7005 111.0430 104.7535 110.9409 114.7607 112.1433 110.6897 110.9357 111.3175 111.7684 112.2574 112.8021 113.2809 113.9235 113.9853 114.9280 115.4757 115.9642 116.4425 116.9036 117.4529 117.7448 118.0800
119.8300 119.3311 119.3903 117.4157 99.2750 120.5400 117.6456 117.4505 115.5588 116.2721 113.3100 114.8739 114.7627 114.4187 113.9989 113.0509 112.9445 112.5936 108.8356 100.8776 109.6491 110.9507 111.3422 111.7166 111.9062 112.2130 112.5847 113.0167 113.3810 114.2134 113.8186 114.4731 115.7043 115.8570 116.3063 116.7857 117.3029 117.3976 117.7984 118.1600
101.2500 118.7039 117.2953 111.9017 108.4199 120.3513 117.2359 117.7283 111.6654 117.8641 109.8821 116.2590 115.4866 111.9705 114.3183 114.4716 113.6419 113.5966 111.6974 107.4494 113.1555 112.6381 112.5740 112.6141 112.7921 113.0433 113.3480 113.7032 114.1230 114.3212 115.0361 111.8895 115.1085 116.2512 116.6657 117.0503 117.4589 116.0835 118.5160 118.5400
120.2600 120.8673 121.0128 113.1548 119.4427 118.0542 116.9230 117.8660 117.5599 116.9089 114.6734 114.3131 114.8441 111.9673 117.2869 115.9657 114.0415 113.9724 114.1603 114.0677 113.4015 113.3594 113.3643 113.4553 113.5935 113.8051 114.0700 114.3692 114.6887 114.9934 110.8048 106.8323 117.7438 116.5651 117.0525 117.3087 117.9032 114.1951 118.8694 118.9900
120.2800 120.0300 119.7700 119.2600 119.0000 118.7200 118.1800 117.8600 117.5600 117.2400 116.9700 94.5900 93.9500 93.9500 115.1600 115.2000 110.4100 114.4600 114.4600 114.0400 114.0900 114.1200 114.1200 114.0900 114.0400 114.4400 114.4400 114.8400 115.1800 115.4500 115.9100 105.6700 116.5500 116.9100 117.2300 117.5500 117.8500 118.4400 118.7200 118.9900
