108.4900 107.8200 100.9600 99.9600 108.9800 109.0100 96.0300 100.1500 100.6300 101.1500 119.6500 120.5200 116.4300 113.7800 113.7200 113.2100 112.1200 112.2800 110.8500 110.2900 110.2900 88.6600 109.7400 108.7400 108.7100 109.6800 109.6800 110.4300 111.0100 110.8900 112.1700 112.8100 113.2200 113.7300 114.2100 115.1400 115.5300 115.9300 116.6800 117.0400
108.4900 107.3925 107.6997 104.0990 101.4615 101.8129 96.0060 102.4312 104.4014 102.2251 106.5502 117.1186 106.4073 111.5699 114.1807 112.7109 111.5484 111.3810 110.3038 109.7785 92.5319 100.6543 109.2317 108.0976 108.1703 108.4641 108.9004 109.4746 110.1412 110.8322 111.5402 112.2490 112.9308 113.5941 114.2299 114.8327 115.3609 117.8342 116.3935 117.0400
106.6600 108.8497 109.8729 105.1881 108.6300 100.4228 101.4573 111.6716 104.2388 101.9740 100.1833 118.3948 93.7776 100.4885 112.6960 111.1242 112.0597 110.7122 109.6910 110.7992 98.3922 100.9903 107.3698 106.6016 106.6189 106.9754 107.5702 108.3274 109.1552 110.0069 110.8393 111.6514 112.4302 113.1591 113.8481 114.4749 115.6447 106.7472 98.1668 116.5200
107.3200 107.2028 105.1477 103.8488 103.7595 100.3055 100.0219 106.8016 97.7512 94.7279 93.2619 118.6294 113.3658 104.3953 111.4901 107.3267 110.1594 109.8285 108.9573 107.7425 105.5219 100.4981 105.5918 104.6959 104.6797 105.2132 106.0638 107.0867 108.1303 109.1710 110.1578 111.0893 111.9569 112.7655 113.4674 114.7089 111.6387 104.6014 98.5831 99.1300
108.2900 110.4169 104.4725 103.7854 100.5984 98.5979 111.9563 109.3910 117.0594 110.4863 109.2258 114.6337 113.3898 114.8430 113.1165 112.6268 110.9120 109.2586 108.0953 106.8784 105.7783 104.4521 102.7334 102.0673 102.1708 103.0561 104.3596 105.7445 107.1004 108.3669 109.5134 110.5742 111.5296 112.3804 113.3794 114.9888 101.4921 97.5051 99.2986 102.5200
107.0100 102.3576 106.8303 100.6195 106.3305 99.3664 98.5458 119.3999 114.9731 115.7484 115.8608 114.7414 113.6907 110.5659 111.8196 110.7281 109.7942 108.6789 107.3198 105.7598 104.0005 101.9729 100.0205 98.5953 98.7760 100.3986 102.4405 104.3924 106.1279 107.6350 108.9597 110.1236 111.1817 112.2191 111.4233 114.7395 100.2681 113.6131 103.7435 115.4900
103.3200 102.6580 102.0433 98.0315 99.4399 101.9055 117.3297 95.4923 118.2841 115.3222 114.7398 114.1763 113.4265 112.6476 111.7126 110.6644 109.5294 108.2280 106.6939 104.8727 102.6411 99.8047 96.1050 92.3364 92.8650 97.0586 100.4637 103.1732 105.2998 107.0477 108.5265 109.7963 110.9146 111.9104 112.7642 113.7286 113.6825 115.1553 114.7718 115.9100
106.1500 105.3028 105.1556 103.8487 102.3834 105.9535 117.6225 110.3636 117.8381 109.9316 115.4638 114.0732 113.3408 112.4790 111.5459 110.5252 109.2939 107.9305 106.3009 104.2709 101.6619 98.0826 91.2184 86.7063 87.2222 93.0507 98.9283 102.3061 104.7592 106.6799 108.2556 109.5924 110.7582 111.7800 112.6071 113.4464 111.6437 115.0527 115.6568 115.8800
108.1900 107.9913 106.3792 106.7742 105.3264 105.3777 117.4880 109.9019 116.8021 115.8636 115.0240 114.1131 113.3295 112.5181 111.5337 110.6856 106.9420 108.0645 106.2037 104.1178 101.4026 97.4984 89.7264 84.3675 85.3879 91.6358 98.5026 102.0783 104.6193 106.5899 108.1902 109.5482 110.7154 111.7578 112.5583 113.7076 112.0430 115.0248 115.6448 115.8700
108.1900 108.4078 106.3333 105.6728 104.5595 105.2350 117.9375 110.2285 117.3134 115.3019 114.8151 114.1394 113.4005 112.2997 111.6012 110.9690 106.9007 108.1765 106.4186 104.4509 101.9613 98.6029 92.9514 88.6144 89.0754 94.4871 99.4116 102.5732 104.9175 106.7911 108.3328 109.6495 110.7985 111.8181 112.7320 113.5028 114.4445 114.9923 115.6394 115.8800
106.1100 109.5490 102.0926 104.2460 103.8569 106.4401 119.5328 113.9089 117.4004 115.6047 114.9266 114.2655 113.4425 115.0827 111.5161 110.7413 109.9364 108.3477 106.9088 105.1796 103.1205 100.5861 97.8560 94.9072 95.3491 98.4488 101.1742 103.6037 105.5864 107.2507 108.6691 109.9103 110.9985 111.9772 112.8539 113.6654 114.3751 115.0649 115.7170 116.3200
108.5700 108.6008 105.5814 104.4585 104.6963 109.8408 118.8263 113.5910 116.0626 115.7116 115.0580 114.4795 113.9125 114.2209 112.8688 111.8862 109.6377 108.8969 107.5980 106.1524 104.5279 102.7933 101.0961 100.0301 100.1665 101.4318 103.1792 104.8999 106.4804 107.8973 109.1540 110.2821 111.2999 112.2195 113.0548 113.8121 114.5321 115.2129 115.8009 116.3200
107.5800 110.3935 107.8029 102.8700 104.6857 116.7564 117.3809 116.7257 116.3801 115.8392 115.2363 114.6210 113.6071 112.6988 109.8540 110.1070 110.4841 109.7838 108.3886 107.2232 105.9394 104.7522 103.7039 103.0881 103.1761 103.9060 105.0092 106.2579 107.4836 108.6605 109.7505 110.7535 111.6807 112.5356 113.3208 114.0531 114.8009 115.2783 115.8530 116.4100
107.5300 108.3935 105.4434 106.4225 112.8274 113.1993 111.1889 117.5390 116.4460 116.0140 115.4461 114.8274 114.2739 113.3420 111.5007 108.8761 111.5567 110.2653 109.2432 108.3095 107.3536 106.4577 105.7643 105.3938 105.4419 105.9102 106.6949 107.5546 108.5175 109.4800 110.4162 111.2962 112.1249 112.9091 113.6393 114.2972 114.4145 115.6854 116.6893 113.2100
105.9100 103.2918 110.5081 100.6000 118.4082 116.7774 114.7445 117.3662 116.7697 116.2395 115.6831 115.1014 114.4966 113.7849 112.1700 111.1312 111.5586 110.9318 110.1434 109.3482 108.5981 107.9586 107.4565 107.2050 107.2424 107.5979 107.4922 108.8261 109.5295 110.3138 111.1114 111.8752 112.6142 113.3008 113.9960 114.7850 115.4343 119.9270 108.0949 112.5600
110.4500 104.2142 101.3061 102.1522 108.3345 122.2610 114.5986 117.6841 116.8964 116.4835 115.9409 115.4044 114.8392 114.2416 113.5295 113.0087 112.3319 111.6526 110.9893 110.3496 109.7530 109.2583 108.8863 108.7003 108.7399 108.9484 109.3198 109.8517 110.4829 111.1377 111.8006 112.4843 113.1333 113.8662 113.7371 116.1001 116.3843 110.5337 99.8668 102.2100
103.0100 106.6530 106.6955 104.9626 108.9945 119.9952 119.6952 116.4103 117.5491 116.7103 116.2350 115.7408 115.2034 114.6615 114.0958 113.5519 112.9465 112.3717 111.8045 111.2688 110.8001 110.4005 110.1200 109.9861 110.0011 110.1762 110.4703 110.8936 111.3987 111.8993 112.5447 112.8845 114.0626 114.7367 112.3694 122.7393 115.1373 105.8533 102.3803 117.0500
107.2700 104.4203 105.2595 100.2018 100.8792 120.8327 123.3714 113.2821 118.0012 117.3312 116.8955 116.1049 115.5607 115.0858 114.5909 114.0729 113.5514 113.0623 112.5771 112.1354 111.7427 111.4285 111.2065 111.0981 111.1200 111.2485 111.4881 111.8254 112.2179 112.7030 113.1161 114.6721 110.1976 116.2144 106.7105 98.1130 96.7886 108.8358 119.7643 109.1000
108.3400 108.5389 107.0828 103.1573 104.1764 98.1985 119.1919 117.6687 117.6245 113.0328 116.6216 116.2655 115.9988 115.5985 115.0462 114.4015 114.1889 113.8270 113.3106 112.9375 112.6124 112.3548 112.1784 112.0871 112.0857 112.1938 112.4027 112.6812 113.0400 113.4007 113.8541 114.4459 96.7923 112.7687 115.5072 94.5540 105.2989 88.7603 117.0943 117.5900
100.9000 112.0662 110.1392 111.5716 122.2556 120.4350 118.9372 118.4912 118.7489 108.1260 116.4134 116.7948 116.5103 115.8825 115.3037 116.0031 112.3862 114.4611 113.9901 113.6836 113.4088 113.1908 113.0520 112.9791 113.0671 113.1405 113.2383 113.4030 113.7492 113.9582 114.0324 115.1041 115.5426 103.8531 116.1582 95.9763 97.3949 95.5717 106.1364 105.7500
101.7200 105.0689 118.0692 114.0887 121.4356 119.7869 118.6821 118.6911 114.9341 115.0287 117.2537 122.2196 112.5221 115.7230 116.3093 116.5615 105.4233 115.2610 114.6479 114.3735 114.1444 113.9615 113.8437 113.7914 113.4489 113.4992 113.9941 114.5252 114.6605 114.6122 104.4628 107.7258 112.8014 110.0784 107.7857 99.2186 101.3298 124.2582 115.8084 105.7500
101.7200 102.1307 116.5276 112.8275 111.4522 112.7950 120.8637 118.7694 117.3950 113.6369 117.9691 103.2858 117.4203 117.3292 116.4512 115.4420 117.1560 115.7861 115.2390 115.0257 114.8303 114.6777 114.5801 114.5417 114.3180 118.4945 114.1738 113.5028 110.2785 116.0828 107.4229 115.2520 109.2235 96.4807 100.5699 101.3286 105.0611 117.5031 108.2129 118.6000
99.0400 107.9578 109.6131 99.6153 99.9831 112.5782 119.6744 118.8355 119.9319 118.4788 118.0704 118.8972 117.1332 116.7767 116.9333 116.5542 116.2135 116.0293 115.8533 115.6359 115.4650 115.3301 115.2439 115.2603 115.1486 115.8869 115.0343 115.8521 113.9951 108.3602 109.9730 116.3192 118.2742 101.2390 100.6999 100.3416 100.3232 103.5719 113.7734 118.9700
119.6100 108.0134 99.5304 113.2151 116.9215 123.0403 119.9895 119.4299 119.0273 118.7429 118.5262 118.1757 117.7371 117.3661 116.2924 117.1770 116.8755 116.5470 116.4012 116.2107 116.0656 115.9471 115.8656 115.8287 115.8400 115.8437 116.0562 116.6967 104.0276 99.9150 106.8065 117.7352 119.0561 110.7190 102.4367 104.5327 109.0730 106.4751 114.4032 119.0600
115.7000 108.9666 116.8871 121.0410 120.4631 118.3159 118.6597 119.7778 119.4300 119.1145 118.8640 118.3742 119.5083 115.8285 104.7897 111.8720 117.3095 117.0823 116.9186 116.7565 116.6196 116.5194 116.4504 116.4209 116.4192 116.4550 116.5908 116.4695 108.8985 96.2732 102.3552 116.4043 115.7014 102.1635 115.1804 104.0821 107.8900 106.0658 106.9523 113.5300
101.4000 101.8098 123.0374 119.7425 121.2948 120.4742 120.2477 119.9385 119.6887 119.0250 119.8664 119.9114 117.9400 99.4884 92.8811 110.9613 117.9800 117.5701 117.4157 117.2704 117.1525 117.0618 116.9971 116.9741 116.9725 117.0064 117.0222 117.0901 119.4437 111.6126 103.3124 115.4818 118.2719 108.7080 115.5605 118.0041 119.5646 116.5087 106.5815 113.4800
121.7800 121.9494 123.8860 101.6344 122.0767 120.3574 120.5181 120.2372 119.7619 120.4491 99.2859 114.7230 121.0202 103.7630 109.5787 118.2986 118.1729 118.0163 117.8765 117.7491 117.6488 117.5674 117.5100 117.4914 117.4798 117.4959 117.7658 117.9127 117.0208 119.5471 106.1424 101.5643 101.8754 105.3253 104.5357 107.1859 119.9817 116.4649 114.3228 119.8800
128.6400 122.1173 121.7349 122.3646 121.2144 120.7660 120.7924 120.4866 120.3795 120.0297 121.3850 119.0247 122.2443 120.1157 120.7473 118.4372 118.6773 118.4421 118.3636 118.2270 118.1225 118.0461 118.0003 117.9793 117.9761 118.0984 118.2304 115.4720 119.6853 115.9425 108.8050 104.2047 98.9678 97.1868 117.0947 121.7971 119.2662 119.9525 119.3285 109.3100
117.6200 121.7102 121.7039 120.8698 115.3700 121.9379 120.9740 120.7924 120.2247 120.0302 120.1272 119.6578 119.7001 118.9034 119.7929 119.8580 118.8839 119.3485 118.6827 118.6578 118.5739 118.5093 118.4649 118.4451 118.4259 117.8125 118.0813 118.3896 121.3487 98.5562 111.7880 110.1371 101.1332 97.3691 121.8655 119.1667 118.6810 114.8962 120.6941 123.4800
117.6200 121.9600 121.8601 123.5792 104.6687 122.6829 121.2675 121.3181 119.7404 117.7859 120.7358 120.1786 120.0697 119.8612 112.9258 111.3583 119.7044 115.9179 119.2792 119.0982 118.9921 118.9245 118.9005 118.8818 118.9296 119.0447 118.6727 119.0152 113.0908 99.1538 111.9473 111.9961 103.7729 101.4235 114.0590 118.8714 115.0798 96.4011 119.9600 106.1200
126.6800 122.3615 123.7784 123.8170 121.8702 122.5150 121.5031 121.2217 119.3899 119.8443 120.6922 120.5360 120.4190 119.5806 120.1451 104.2776 121.6802 117.2156 119.7934 119.3000 119.3689 119.3865 119.2949 119.3411 118.9909 119.8292 112.0028 120.3021 117.6536 96.4253 101.8055 97.2177 111.1169 104.0786 104.3934 118.7794 112.6067 107.0040 126.1833 121.2500
122.9400 108.4135 123.3657 114.6194 122.1232 121.2316 121.5170 121.5135 122.3083 121.6356 123.7261 120.1742 119.9559 119.5990 119.7163 94.8740 119.2598 121.1501 119.5793 120.9479 120.2201 119.7533 119.7772 119.4734 121.2897 119.4955 116.8837 112.2196 107.1632 99.9902 109.0627 101.9850 108.6653 112.3032 101.8975 119.7823 121.1461 115.8252 119.8704 121.3000
122.9400 118.0861 122.3970 123.4285 123.9333 122.7907 121.6180 122.4177 121.1843 109.6432 112.4423 122.3330 131.0998 121.1975 116.7596 108.4866 121.2391 119.6529 122.0086 109.5575 119.1704 119.9786 119.2007 122.3188 103.8069 121.9447 121.0756 97.1646 97.5048 102.0030 109.8299 102.0872 117.0419 117.2897 121.2892 121.5924 121.3912 118.7790 122.5296 121.6400
107.4500 122.7968 114.1269 122.4154 99.0227 101.6092 116.1709 122.9528 121.8879 122.3775 111.9135 117.3410 122.6263 120.3399 100.7113 99.8782 120.4062 123.2050 99.5032 115.9334 120.2590 120.3001 105.6458 102.2042 116.4676 118.9829 106.0152 97.1977 105.6258 109.9066 105.1558 104.9024 123.0769 121.5956 120.5331 111.5803 122.4119 118.0283 122.0351 121.9200
123.4600 123.4630 101.4678 124.4888 123.2648 120.6361 123.1027 122.0868 120.9215 122.0743 123.3133 116.1394 121.3841 122.2524 106.2541 110.5257 121.0919 111.3876 99.5772 104.4497 117.8901 105.6411 100.3195 98.7113 98.7375 102.5906 106.8329 100.6357 113.9834 101.3192 105.5122 119.4987 114.0648 120.8589 117.5282 135.5578 130.7735 116.8970 123.2950 122.1800
104.2200 113.5718 117.0829 124.8091 122.8376 123.0785 122.7841 122.5029 122.4376 122.5001 121.8157 119.9412 121.7089 122.4593 122.5609 111.3245 123.1468 124.3648 101.6810 98.9402 113.9890 103.9829 98.9811 101.2578 100.8800 104.4027 106.2089 98.9851 113.0715 109.6839 115.0222 106.1963 104.9704 116.1217 123.2372 105.6678 103.8804 109.0213 123.6766 122.5000
111.1600 104.3890 120.2365 121.3798 122.7635 123.6961 106.7003 117.6603 122.7665 122.2578 119.8883 120.4301 122.1593 121.9192 121.7738 122.9977 121.7628 119.7866 114.3626 97.9479 94.7547 107.5273 102.2444 104.4503 101.9233 123.9969 123.5567 116.6155 120.9116 122.5964 118.1465 107.5899 117.1053 115.8237 122.6254 119.3700 101.6583 101.3338 113.1887 122.5000
106.3500 114.0494 121.3963 100.4355 123.4185 120.9826 119.0592 123.7404 122.9767 122.7354 123.1312 123.1697 122.2605 122.4078 121.8056 121.3054 121.8346 110.9052 118.0621 96.1669 114.4993 126.9952 107.9137 125.1947 123.1494 122.4822 121.0324 120.2912 113.7916 121.6049 110.3169 109.7860 115.9538 122.2851 121.9195 122.9200 102.2387 103.5887 121.7994 122.7900
124.2400 123.9093 123.3105 122.6350 124.0255 101.5197 119.5913 122.7341 123.1288 122.9026 124.4659 125.2999 122.9966 121.8674 123.3967 121.9654 118.1981 114.8180 104.9552 103.4085 103.8638 122.3830 123.3480 121.4165 121.6404 121.7002 122.0683 122.3505 122.3228 121.4255 100.8257 113.6189 111.5413 121.4287 122.1464 123.5596 119.1839 97.0613 123.5086 123.0400
124.2400 124.2400 124.1300 123.9700 123.8500 123.6900 123.0600 123.4400 123.2500 123.1200 105.9500 105.9500 122.8300 122.8800 132.9700 122.5300 118.5200 102.4100 102.5000 100.7100 122.4400 122.2100 122.2300 122.2300 122.2300 122.2300 122.2200 122.4300 122.4300 122.3900 113.7500 111.0100 108.2000 122.6900 122.8600 122.8600 123.0100 123.1600 123.2900 123.2900
