113.6500 113.2900 114.8000 119.4200 113.8000 110.5900 104.4000 104.4800 105.2800 102.3700 114.2300 114.2300 115.3200 119.7100 119.5200 119.5200 118.9400 118.7700 118.4400 100.4500 100.4500 117.6500 117.6500 117.3800 117.0700 116.7100 116.7900 116.7900 116.4200 116.4500 116.4600 116.4600 116.4400 116.8200 116.8200 116.7100 117.1200 117.0400 117.3400 117.2300
115.8200 115.0398 129.8945 129.5257 114.5604 120.0117 107.3624 108.2023 102.5136 111.9399 100.0973 109.2673 118.0841 119.3806 119.5232 119.5543 118.7917 118.6031 118.4872 117.9543 110.9588 116.9061 117.5801 116.9750 116.7760 116.5878 116.4145 116.2717 116.1703 116.1107 116.0793 116.0929 116.1439 116.2248 116.3502 116.5096 116.6848 116.8997 117.1293 117.2300
117.2500 111.3123 125.6732 124.3904 108.2240 117.4554 107.5722 111.0947 104.2274 122.7336 113.7395 121.5214 120.2937 119.4923 119.7354 116.9087 118.9031 118.2560 117.9430 117.9216 125.3332 112.6375 116.8801 116.5564 116.2583 116.0479 115.8496 115.6945 115.5806 115.4990 115.4630 115.4841 115.5348 115.6415 115.7797 115.9524 116.1661 116.3946 116.6517 116.7100
116.2100 117.1116 112.5627 109.9279 108.5580 110.2772 110.2428 124.3840 116.5468 122.3300 119.0997 119.6883 119.3135 119.2655 119.2380 114.0867 118.2093 117.8679 117.6065 117.0594 117.0551 114.7717 116.7217 115.9885 115.7193 115.4670 115.2492 115.0715 114.9316 114.8460 114.8107 114.8189 114.8914 115.0012 115.1646 115.3657 115.6050 115.8689 116.1559 116.1600
113.3500 112.0959 110.9861 112.1947 108.9820 105.6691 114.5236 128.7633 120.6907 121.0671 120.0968 119.6809 119.3861 119.0406 118.6745 118.4599 118.0464 117.6023 117.2274 116.8677 116.4890 116.4430 115.7177 115.4865 115.1430 114.8650 114.6117 114.4067 114.2411 114.1382 114.0979 114.1134 114.1918 114.3248 114.5158 114.7456 115.0175 115.3211 115.6417 115.5600
112.9600 114.7260 100.0217 103.7772 122.9566 98.9093 115.5797 111.5123 123.5576 118.9219 119.7792 119.4746 119.1184 118.7630 118.3115 117.9012 117.5564 117.2648 116.8637 116.4725 116.0217 115.6671 115.2913 114.8982 114.5508 114.2265 113.9317 113.6875 113.4956 113.3703 113.3216 113.3379 113.4297 113.5957 113.8152 114.0815 114.3986 114.7471 115.1068 115.5600
113.5200 113.6251 114.1247 108.3961 100.1182 103.6640 113.3133 111.3422 112.0253 120.5606 119.9045 119.2479 118.9139 118.5351 118.4933 117.8396 117.3207 116.9007 116.5061 116.0600 115.6272 115.1882 114.7529 114.3214 113.9198 113.5372 113.1980 112.9106 112.6793 112.5302 112.4643 112.4889 112.6023 112.8000 113.0569 113.3757 113.7464 114.1354 114.5638 114.9100
112.8400 100.3105 98.5079 114.6731 108.9384 107.2745 109.3989 112.1787 121.8398 121.2483 118.2008 119.0936 118.6980 118.4839 118.3070 118.4864 116.4695 116.6218 116.1454 115.6626 115.1809 114.6991 114.2033 113.7330 113.2533 112.8166 112.4048 112.0602 111.7862 111.5980 111.5215 111.5508 111.6903 111.9242 112.2427 112.6229 113.0455 113.5127 113.9892 114.2300
112.6100 101.3516 102.3362 99.0923 98.5139 99.1796 116.2482 116.7231 119.2844 119.6738 119.3846 118.8653 118.5220 118.0835 116.7703 117.4785 112.9952 116.6266 115.7539 115.2755 114.7409 114.2204 113.5764 113.2486 112.6668 112.0341 111.5590 111.1353 110.7915 110.5619 110.4627 110.4969 110.6745 110.9646 111.3644 111.8172 112.3286 112.8618 113.4113 114.0400
113.7600 116.3663 116.0465 103.3714 100.0962 103.9555 115.0016 105.5918 121.7953 119.4792 119.1415 118.7638 118.3254 118.0290 117.6483 117.2390 116.6954 115.9936 115.4523 114.8841 114.3140 113.6872 113.4179 110.8323 111.8021 111.4612 110.6624 110.1157 109.6795 109.3815 109.2508 109.2995 109.5318 109.9049 110.3920 110.9537 111.5663 112.1897 112.8161 113.4000
114.5600 109.3969 111.7757 109.4228 107.3046 117.0060 123.6439 111.1961 120.9735 119.4083 118.8566 118.3795 118.1564 118.0144 117.4147 116.5032 116.2520 115.6584 115.1250 114.5283 113.9066 113.0811 113.0636 103.2018 110.7716 108.6134 109.8486 108.9893 108.4284 108.0286 107.8463 107.9139 108.2289 108.7171 109.3402 110.0417 110.7747 111.5087 112.2320 112.4900
102.4800 96.6918 105.7123 124.0518 106.0531 108.9558 118.8988 120.9865 119.6696 119.4114 118.7610 119.1826 118.0065 117.7913 111.6946 118.5579 115.8389 115.4431 114.8370 114.1899 113.5070 112.8175 112.2376 111.6186 109.8832 109.7870 108.5815 107.7347 106.9920 106.4316 106.1709 106.2733 106.7141 107.3905 108.2015 109.0809 109.9665 110.8304 111.6607 112.4300
116.7500 109.1110 109.3700 117.9460 106.0577 110.3723 130.9650 119.5355 119.4392 119.2926 119.0331 107.7902 117.9930 117.2469 114.9279 118.4141 115.5167 115.2185 114.5765 113.8861 113.1602 112.3687 111.3858 110.6289 109.4808 108.6756 107.4618 106.3672 105.3197 104.5090 104.0968 104.2563 104.9197 105.8863 106.9743 108.0852 109.1662 110.1822 111.1224 111.4500
116.9100 116.6170 110.8092 98.1324 111.4374 113.8114 125.7229 119.1573 119.5353 119.1462 118.6536 116.7028 117.6237 117.3351 115.9010 116.9259 115.5123 115.0127 114.3584 113.6353 112.8519 112.0073 111.1028 110.0728 108.9726 107.6986 106.3308 104.8736 103.3758 102.0443 101.3778 101.6363 102.7361 104.1977 105.6931 107.1101 108.4032 109.5770 110.6365 111.2900
100.1200 102.1458 99.0093 108.8880 100.6149 116.6021 113.9739 119.7911 119.4734 119.0545 118.6601 118.2753 117.6799 117.1303 116.3261 116.0621 115.5156 114.8661 114.1789 113.4246 112.6081 111.7135 110.7122 109.5977 108.3450 106.9176 105.2596 103.3411 101.1039 98.9786 97.3608 98.0512 100.1149 102.3801 104.4312 106.2043 107.7345 109.0642 110.2353 111.1700
110.5300 107.7974 101.8521 103.4904 105.0186 108.6947 125.4687 119.8905 119.5759 119.0139 118.5724 118.1172 117.6363 117.1344 116.6144 116.0524 115.4292 114.7596 114.0531 113.2798 112.4351 111.4970 110.4518 109.2629 107.9049 106.2971 104.3555 101.9267 98.8080 94.0381 90.5919 91.9014 97.0184 100.5937 103.3505 105.4761 107.2143 108.6785 109.9378 110.3300
115.9000 103.7651 110.2660 109.6073 114.7754 118.7853 120.3739 119.7411 119.4591 118.9955 118.5468 118.0995 117.6202 117.1315 116.5476 116.0230 115.3741 114.7131 113.9864 113.2075 112.3414 111.3823 110.3060 109.0733 107.6435 105.9378 103.8094 100.9825 96.9904 89.3562 85.4883 86.8100 93.8647 99.3681 102.6683 105.0462 106.9246 108.4620 109.7792 110.2700
108.9500 106.4363 109.2169 122.1945 120.9892 120.4868 120.2457 119.8760 119.3911 118.9928 118.7216 118.3674 117.6921 117.1834 117.8881 115.8110 115.3624 114.7089 113.9801 113.1995 112.3349 111.3710 110.2889 109.0631 107.6253 105.9043 103.7594 100.8974 96.7766 88.7685 84.6797 86.4322 93.4834 99.2567 102.6087 105.0090 106.8996 108.4466 109.7637 110.2500
100.1100 110.1093 102.8351 123.4430 119.6551 120.5657 120.1849 119.8027 119.3840 119.3637 112.5845 118.5259 117.3992 118.3763 124.2491 115.6957 115.3646 114.7582 114.0421 113.2588 112.4121 111.4694 110.4114 109.2148 107.8328 106.2098 104.2287 101.7192 98.4501 93.1207 89.5237 90.7487 96.4175 100.3252 103.1933 105.3732 107.1467 108.6257 109.8982 110.2800
111.1800 108.2274 114.3863 114.0031 120.1909 120.5857 120.2576 119.7426 119.1087 119.6451 108.5745 120.0812 117.4806 116.2732 115.7797 116.1105 115.5007 114.8491 114.1520 113.3960 112.5671 111.6628 110.6613 109.5319 108.2560 106.7840 105.0704 103.0444 100.6738 97.6126 96.2143 97.0632 99.6275 102.0440 104.2118 106.0602 107.6236 108.9834 110.1734 111.0900
110.4500 104.5347 110.4317 113.1280 120.5657 120.3895 120.2086 120.4924 119.9820 119.9535 119.9320 116.3179 120.0160 117.3201 116.9543 116.1961 115.6132 114.9901 114.3158 113.5845 112.8065 111.9424 111.0073 109.9724 108.8264 107.5513 106.1351 104.5893 103.0115 101.5072 100.7526 101.0569 102.2946 103.8760 105.4642 106.9404 108.2712 109.4728 110.5598 111.1900
103.3600 106.4806 113.9538 125.5818 125.1151 121.1630 120.2005 116.3243 120.3018 118.2653 117.5835 115.9426 120.5195 117.2294 116.8510 116.3511 115.7802 115.1741 114.5307 113.8364 113.0992 112.2967 111.4362 110.5054 109.4955 108.4140 107.2612 106.0985 104.9752 104.0791 103.6283 103.8084 104.5297 105.5882 106.7370 107.9070 109.0242 110.0634 111.0324 111.3200
107.4900 104.8644 117.8211 114.5263 114.3788 114.3724 120.6566 114.0515 120.5643 119.1232 119.7760 118.8595 117.7031 117.5566 117.0425 116.5153 115.9724 115.3963 114.7807 114.1300 113.4427 112.7050 111.9225 111.0948 110.2227 109.3151 108.3914 107.4912 106.6896 106.0860 105.8103 105.9139 106.3900 107.1097 107.9854 108.9006 109.8149 110.7155 111.5651 112.2800
103.4400 112.1500 125.3949 105.7287 119.6333 117.2241 120.6190 120.5704 119.6146 119.3782 118.8284 118.4554 118.1643 117.6847 117.2109 116.7111 116.1899 115.6467 115.0689 114.4608 113.8230 113.1555 112.4474 111.7184 110.9679 110.2033 109.4482 108.7618 108.1695 107.7371 107.5439 107.6368 107.9540 108.4782 109.1456 109.8646 110.6254 111.3905 112.1273 112.4700
118.1600 104.8328 104.6041 103.0681 123.0134 120.7915 120.4868 120.1753 119.8669 119.5092 119.1301 118.7247 118.2902 117.8652 117.4148 116.9471 116.4514 115.9230 115.3825 114.8170 114.2306 113.6289 112.9927 112.3579 111.7065 111.0723 110.4650 109.9038 109.4569 109.1315 108.9860 108.9385 109.3012 109.6878 110.2088 110.7971 111.4241 112.0696 112.7112 113.2100
124.6200 116.9396 118.4842 121.5377 121.4065 120.9198 120.6452 120.3592 119.9984 119.6333 119.2589 118.8787 118.4748 118.0528 117.6493 117.1914 116.7104 116.2165 115.7143 115.2002 114.6662 114.1142 113.5549 112.9856 112.4277 111.8895 111.3916 110.9460 110.5890 110.3403 110.2144 111.1974 110.3216 110.7986 111.1825 111.6655 112.1789 112.7415 113.3040 113.4100
122.4600 122.5793 122.2057 120.3188 121.0500 119.0793 120.7990 120.4975 120.1323 119.7878 119.4274 119.0540 118.6733 118.2218 117.4427 117.5132 116.9541 116.5334 116.0725 115.5889 115.1039 114.6031 114.1044 113.6079 113.1254 112.6739 112.2465 111.8834 111.6000 111.4111 111.0681 112.6279 111.4827 111.7570 112.0812 112.4860 112.9264 113.4069 113.8791 114.0600
122.4900 119.3925 121.8044 100.9089 126.4660 122.2630 120.8912 120.6043 120.2860 119.9438 119.5749 119.2363 118.8778 118.7326 113.5465 117.3826 117.2184 116.8734 116.4315 115.9872 115.5425 115.0957 114.6520 114.2137 113.7935 113.4000 113.0521 112.7533 112.5137 112.3625 112.2984 112.1654 112.3736 112.6318 112.9077 113.2433 113.6194 114.0313 114.4606 114.7100
118.1400 107.1337 125.5749 110.6315 122.4444 121.2745 121.0464 120.7516 120.3811 120.6112 120.1760 119.4460 119.1300 118.2648 118.1926 119.1719 117.5507 117.2101 116.8001 116.3869 115.9859 115.5788 115.1921 114.7912 114.4422 114.1004 113.7833 113.5021 113.3414 113.2156 113.1586 113.2010 113.2880 113.4423 113.6752 113.9595 114.2750 114.6332 115.0022 115.4400
118.6000 104.1118 124.4155 123.0837 121.4916 121.5300 121.2019 120.9297 120.7034 116.8254 119.8076 119.5751 119.3850 119.0990 117.6870 112.6745 117.9319 117.5480 117.1686 116.8154 116.4446 116.0465 115.7027 115.4165 115.0240 114.7561 114.2455 114.2503 114.1061 113.9968 113.9527 113.9682 114.0472 114.1927 114.3859 114.6254 114.9021 115.2146 115.5432 115.4900
119.3700 125.1255 122.1747 122.4652 121.8940 121.6063 121.3535 121.0704 120.8941 115.4703 120.0572 119.7524 119.5578 118.9246 112.8594 111.1270 118.9566 117.8895 117.5133 117.0910 116.8167 116.8428 116.8952 115.7074 115.7541 115.1023 113.8670 115.0021 114.8257 114.7161 114.6754 114.6867 114.7574 114.8732 115.0391 115.2584 115.4955 115.7681 116.0685 116.5500
123.0500 117.4267 124.3939 121.7688 122.0444 121.8155 121.5211 121.2676 120.8819 122.7794 122.0147 119.9116 119.8420 119.7328 112.9415 118.0918 118.2159 118.1152 117.9122 117.9397 118.4640 114.8152 116.6982 116.6543 115.0920 115.6576 115.8127 115.4110 115.4695 115.3763 115.3450 115.3516 115.4246 115.5458 115.6757 115.8120 116.0711 116.3097 116.5674 116.6300
123.0900 111.9043 122.4277 122.3284 122.1364 121.9236 121.6788 121.4782 121.0963 117.4826 113.6914 118.9207 120.2283 119.5243 120.2882 120.1823 119.5614 118.4348 119.3127 113.0452 115.8089 103.6989 100.0970 115.9558 117.8803 117.5638 114.2058 116.1501 116.0609 115.9888 115.9647 115.9787 116.0192 116.0212 116.1850 116.9905 116.5996 116.8162 117.0338 117.1500
101.3100 125.1108 122.7965 122.8108 122.4103 122.1270 121.8446 121.6067 121.2386 120.4981 119.5942 119.5157 120.2457 119.9469 119.6607 119.4240 118.8662 108.8567 106.5906 125.4627 117.8162 117.6306 101.6996 100.8944 119.8862 97.9153 114.6783 116.7387 116.6194 116.5662 116.5433 116.5483 116.5881 116.7578 116.6362 116.1408 119.3161 117.1423 117.5663 117.6700
123.3500 123.2474 122.9971 122.6280 122.3146 122.1027 122.0474 121.7832 121.5229 121.2736 122.8015 119.7219 120.6464 120.2595 119.9984 119.5995 119.7522 119.4413 107.3613 117.3969 105.9272 112.3195 101.5981 105.2772 114.5463 105.0842 118.1915 117.2659 117.1439 117.1064 117.0903 117.0930 117.1177 117.2937 116.3680 118.1057 122.7178 117.7554 117.8283 118.1100
123.4000 123.3918 123.0838 122.9067 122.1289 121.9382 122.3010 122.0511 121.7424 121.0776 121.8893 121.9293 120.4818 120.5840 120.2343 120.0111 119.7734 119.5749 119.8673 124.8035 105.8748 105.8932 123.3813 119.9726 106.4638 117.1908 117.9986 117.7497 117.6568 117.6146 117.5983 117.6042 117.6013 117.7142 120.9358 122.5423 105.6426 117.8702 118.4290 118.5500
123.6100 122.6561 123.2499 121.4549 102.0300 111.4145 124.1720 121.9360 120.8728 121.9632 112.5724 115.4302 121.4676 120.6576 120.5314 120.2984 120.0694 119.8662 120.4276 119.3143 121.1080 115.3219 124.4053 117.0773 119.4103 118.5720 118.2584 118.2038 118.1445 118.1001 118.0845 118.0908 118.1239 118.1778 117.8972 118.1255 101.8773 116.6788 118.6320 118.9700
104.4000 115.5141 124.8568 101.4639 121.3402 117.4077 122.9554 121.6907 113.9208 123.4242 123.0393 122.1089 121.2676 121.1190 120.8034 120.4949 120.3884 120.0458 119.9738 119.4892 119.3042 119.5669 118.6530 119.0503 118.8617 118.8347 118.7318 118.6587 118.5957 118.5555 118.5382 118.5476 118.5783 118.6212 118.6396 119.3473 117.1784 117.8139 118.9377 119.3600
123.8900 124.8332 124.4184 121.2934 125.3546 114.6255 121.8741 123.7178 121.4593 121.7865 116.5347 121.4477 121.7471 120.3256 121.1248 120.9646 121.7250 120.5547 120.2472 120.1108 119.9506 119.6691 119.6754 119.4621 119.3721 119.2473 119.1541 119.0749 119.0210 118.9858 118.9745 118.9816 119.0101 119.0520 119.1176 119.1453 120.8560 113.8836 119.4095 119.7400
123.9200 123.7700 119.9000 101.4800 123.3000 121.1000 115.8200 122.6600 117.4000 117.9800 99.9500 99.9500 99.5600 121.3900 121.1800 121.0100 124.2500 120.5900 120.3500 120.4400 120.1700 119.9800 119.7600 119.8300 119.5900 119.6400 119.3500 119.3900 119.4200 119.0800 119.0900 119.0900 119.4300 119.4100 119.3800 119.3400 119.6200 119.5700 119.8100 119.7400
