115.2100 116.8200 102.5900 111.1300 106.8100 98.3100 100.7500 103.1300 97.7200 106.0300 101.0300 101.6100 112.6800 117.2900 117.0600 117.0600 116.2700 116.0200 115.5600 115.2600 115.2600 113.2500 114.4700 113.9700 114.0400 114.0900 114.1300 114.1200 114.1000 113.9900 114.4900 114.3900 114.9200 115.2800 115.6000 116.0500 115.9300 116.7100 116.9700 116.9700
113.0800 119.3394 103.6153 109.1534 108.9048 109.7280 100.9593 112.3492 101.6942 106.9880 96.7808 111.4855 114.9606 112.4999 116.4301 116.9026 115.9988 115.7392 115.0549 114.4622 98.2750 110.4361 114.2833 113.8077 113.5896 113.4588 113.4010 113.4158 113.5005 113.6482 113.8615 114.1276 114.4287 114.7641 115.1288 115.5042 115.8969 116.2761 116.6776 116.8300
109.7600 112.8805 110.7389 107.0601 111.2699 105.3114 98.5379 113.5781 97.5327 105.2643 107.4798 97.5346 113.7703 117.5709 117.7375 110.8729 116.2616 115.2433 114.8530 115.7864 112.6020 105.2518 113.6225 113.0331 112.7783 112.6326 112.5574 112.5717 112.6703 112.8536 113.1061 113.4129 113.7724 114.1650 114.5699 115.0000 115.4285 115.8862 116.2532 116.8300
109.7600 112.1671 103.0707 104.9559 103.1533 100.5247 102.0774 110.2047 108.1638 127.9867 120.4445 112.2007 109.3160 115.6892 116.1421 109.9615 115.2798 114.7407 114.2397 113.6857 113.8364 108.4836 113.0799 112.1862 111.8952 111.7115 111.6192 111.6422 111.7638 111.9894 112.2917 112.6618 113.0787 113.5335 113.9978 114.4809 114.9896 115.3202 116.2016 116.2200
99.2300 115.4820 109.7822 108.1278 99.6882 104.4579 106.8005 121.4875 114.7101 120.4352 117.4069 117.7279 114.7878 116.5859 115.9085 115.6870 114.8108 114.3252 113.7691 113.2446 112.6551 112.6927 111.5745 111.3130 110.9176 110.6875 110.5774 110.5954 110.7554 111.0305 111.4101 111.8506 112.3464 112.8721 113.4156 113.9502 114.5003 115.2245 111.9780 101.7700
107.8400 104.0796 109.3411 106.2921 101.2610 101.7690 100.9508 118.9754 112.5021 118.1897 117.3277 116.9386 116.7483 116.0887 115.3706 114.8031 114.3710 113.8341 113.2143 112.5934 111.9272 111.3533 110.8015 110.2529 109.8279 109.5309 109.3811 109.4134 109.6196 109.9707 110.4436 110.9847 111.5797 112.1943 112.8151 113.4347 114.0587 114.5030 114.7060 115.5700
108.1100 107.7605 107.5779 101.5381 102.5124 104.3476 117.0351 98.7303 119.9227 117.5640 117.3038 116.8223 116.3425 115.9978 114.9144 114.6131 114.0146 113.3061 112.6735 111.9722 111.2485 110.5351 109.8094 109.1627 108.6014 108.1970 107.9992 108.0451 108.3241 108.7860 109.3910 110.0668 110.7837 111.5048 112.2229 112.9173 113.5886 114.2098 114.9242 115.0300
104.8100 103.3005 107.8585 99.3952 106.2171 106.6042 116.6135 109.1627 98.1945 111.2107 117.2638 116.5914 115.9905 116.8446 101.7024 115.9136 112.8640 112.9230 112.1597 111.3478 110.5160 109.6554 108.7816 107.9460 107.1959 106.6388 106.3590 106.4253 106.8160 107.4515 108.2432 109.0909 109.9609 110.8125 111.6417 112.4224 113.1508 113.8925 114.6799 116.8100
104.8100 107.5256 98.7535 104.9201 105.9142 107.2358 114.8262 109.0228 115.2322 118.7182 117.0777 116.4346 115.8340 115.1809 115.2185 113.5678 106.8815 112.9511 111.5766 110.7538 109.7940 108.7665 107.6898 106.6100 105.5855 104.7617 104.3366 104.4411 105.0295 105.9376 106.9937 108.0796 109.1405 110.1500 111.0893 111.9558 112.7721 113.5291 114.1478 114.0600
100.8000 100.4371 104.9740 104.0361 105.5885 115.4255 117.4347 116.0191 118.2254 116.8017 116.7619 116.1717 116.5376 115.2745 114.1043 113.5641 113.4390 112.2622 111.2387 110.2078 109.1140 107.9149 106.5870 105.1620 103.7195 102.4276 101.7004 101.8638 102.8464 104.2484 105.6809 107.0707 108.3566 109.5288 110.5861 111.5474 112.4264 113.2247 114.0414 114.7200
108.5200 110.3502 102.7182 109.5651 103.7586 117.6425 115.5720 115.9861 117.4161 117.3476 116.7737 115.9072 115.2019 110.4901 115.0654 114.6270 112.6249 111.7620 110.8490 109.7500 108.5286 107.1315 105.5270 103.6681 101.5445 99.4662 97.9303 98.3491 100.2120 102.3400 104.3649 106.1289 107.6570 108.9831 110.1622 111.2115 112.1492 113.0796 113.8541 114.1700
114.1800 108.2744 107.0899 113.3634 108.3983 115.9703 119.0795 114.6250 117.7264 117.2750 116.6439 115.9988 116.4734 102.8344 110.3288 115.8778 112.3209 111.6210 110.5853 109.4129 108.0776 106.5148 104.6317 102.3076 99.3465 94.9909 91.3554 92.2062 96.8961 100.4517 103.2163 105.3523 107.1024 108.5906 109.8533 110.9699 111.9481 112.5254 113.5444 114.0600
103.7400 106.7626 107.6419 102.4750 117.8058 112.5272 114.8688 118.6917 117.6299 117.1838 116.6312 116.0404 115.3024 116.5033 111.4008 116.4315 112.2852 111.4081 110.4258 109.2150 107.8096 106.1378 104.0633 101.3609 97.5769 90.2588 85.9338 86.8782 93.1778 99.0743 102.4421 104.8641 106.7740 108.2890 109.5607 110.8099 111.8073 116.2986 112.0476 114.0400
103.7400 108.1185 102.8879 100.0179 111.3454 113.8127 111.1580 118.5253 117.6780 117.1458 116.6208 116.0604 115.2733 115.7008 114.5671 122.3276 112.0467 111.4025 110.4065 109.1801 107.7673 106.0723 103.9679 101.1947 97.1056 89.7937 85.1464 85.6765 92.4788 98.8261 102.3100 104.7914 106.6957 108.5087 109.9172 110.6941 111.7738 120.0392 111.1594 114.0400
102.6800 104.6530 102.9585 104.9544 121.0052 113.9400 118.9282 118.3504 117.7156 117.1830 116.6379 115.7293 116.2490 101.4129 110.0385 114.2309 112.4441 111.5415 110.5027 109.3125 107.9491 106.3302 104.3676 101.8702 98.5113 93.2577 89.0255 89.7662 95.4488 99.8319 102.8570 105.1290 106.8660 108.6458 109.1028 111.3566 112.3812 112.7253 110.8364 97.1400
101.4500 99.1163 101.9994 113.3040 111.3291 122.9714 110.8507 119.0160 117.7367 117.2344 116.7153 116.0581 115.4481 114.5903 113.7062 113.4377 112.6279 111.7275 110.7276 109.6095 108.3344 106.8679 105.1579 103.1175 100.7205 97.9448 95.7223 96.2924 99.0152 101.6173 103.9006 105.8284 107.3131 107.9642 128.5096 110.9216 105.1295 113.7100 114.5437 114.0900
102.9800 106.4751 105.0262 105.0995 107.0218 116.5944 120.2817 118.2528 117.8105 117.2963 116.8130 116.1972 115.6270 114.9349 114.4105 113.6464 112.8627 112.0015 111.0593 110.0275 108.8771 107.5985 106.1743 104.5867 102.9250 101.3628 100.4265 100.6609 101.9253 103.4660 105.1936 106.7011 108.1036 109.6545 109.5303 109.7251 97.6906 102.4844 94.7228 96.5500
107.0300 109.0369 106.7085 101.8559 120.6734 115.7024 118.7768 118.4042 117.9146 117.4930 115.8847 116.3906 115.8808 115.4330 113.6084 114.0175 113.1536 112.3347 111.4805 110.5374 109.5335 108.4352 107.2733 106.0686 104.9027 103.9301 103.3951 103.5240 104.2246 105.3127 106.4560 107.8647 105.9505 108.8281 110.8924 112.3534 114.0495 101.3027 109.0259 100.3000
113.0200 115.2354 110.8988 119.4303 117.2976 119.6012 118.9561 118.4931 117.6632 117.3947 112.6315 116.6865 116.1218 114.3189 108.1229 114.6827 113.3419 112.7262 111.9534 111.1122 110.2349 109.3156 108.3567 107.4452 106.5980 105.9543 105.6339 105.6988 106.1577 106.8928 107.7539 109.0842 102.7698 97.7884 105.9735 108.1848 113.0892 113.5328 114.3419 114.7800
113.0200 109.2636 115.7793 113.8239 118.0952 119.1799 119.0260 118.5121 119.5053 119.1942 117.8986 116.5243 115.3737 116.0139 115.6253 115.5501 113.8950 113.2106 112.4640 111.7239 110.9673 110.1915 109.4213 108.6987 108.0831 107.6267 107.3792 107.4685 107.7730 108.2905 109.0355 109.8076 102.0701 93.1900 111.7613 91.8378 110.1366 114.8572 114.5707 115.4200
119.6900 111.1145 121.3961 113.7089 121.5043 119.9405 119.1680 118.9723 108.8328 118.1111 116.9786 116.2841 115.7370 115.7653 115.1242 116.5387 114.2781 113.6945 112.9920 112.3543 111.6950 111.0507 110.4238 109.8523 109.3758 109.0355 108.8406 108.6480 108.8820 109.5239 109.9320 110.6285 110.0302 110.3093 117.0041 105.1863 105.0502 102.4895 115.7579 115.4200
105.2100 103.5394 106.7181 113.8236 113.6443 118.7517 119.3305 119.7493 106.7500 119.0602 117.4958 117.5523 116.6713 116.3127 115.7609 115.1019 114.5445 114.1152 113.5557 112.9828 112.4188 111.8657 111.3413 110.8897 110.5133 110.2538 110.0702 110.2947 110.2881 110.6576 112.0511 111.6017 112.0658 112.6640 113.2561 114.2925 102.2369 102.7967 116.0596 116.0500
101.4400 109.5843 98.5635 109.1226 119.2620 117.8063 119.7178 118.9608 119.0129 118.1462 117.8785 117.4301 116.9685 115.8907 117.0694 116.4954 115.1335 114.5971 114.1034 113.5995 113.1010 112.6401 112.2061 111.8310 111.5244 111.3165 111.2841 111.7799 100.9430 107.0278 112.9174 111.8288 112.8411 113.4201 111.6479 111.9549 112.9024 113.6167 115.7038 116.1700
114.1200 114.3280 104.3551 118.3702 122.8035 119.1420 119.6560 119.1740 118.7923 118.5422 118.1593 117.5775 118.8101 118.9632 110.2080 113.1386 115.5223 115.0885 114.6412 114.1947 113.7755 113.3711 113.0057 112.6925 112.4486 112.2666 112.3354 112.4395 98.5571 95.5062 103.8583 114.4039 113.5022 114.1543 113.8969 114.4848 115.1443 115.9914 116.0112 116.6600
103.3600 121.6800 100.0788 111.4858 118.4344 114.5438 120.3867 119.4608 119.0951 118.7380 118.2470 118.2310 108.7421 99.8533 95.5571 117.4030 115.7426 115.5988 115.1636 114.7784 114.4091 114.0584 113.7485 113.4847 113.2780 113.1351 113.1417 112.9551 113.6533 95.4672 100.3062 111.6152 109.8654 117.3016 114.0140 115.2395 115.6871 116.1175 116.5502 116.7800
101.9800 107.7044 119.1668 120.3378 120.8592 120.1170 119.9441 119.6739 119.3027 118.9434 119.7043 117.5584 119.4008 94.2929 103.2415 117.5393 116.2498 116.0731 115.6818 115.3399 115.0094 114.7082 114.4380 114.2158 114.0463 113.9339 113.8725 113.9770 113.3401 114.4462 90.5078 104.6737 113.8696 103.0337 112.0752 115.8314 116.1756 116.5451 116.9250 117.2500
112.1300 114.2936 122.1817 121.1139 120.8600 120.3940 120.1769 119.8673 119.5756 118.8948 120.1755 97.0018 120.4008 117.2318 118.2141 117.2582 116.8153 116.4916 116.2070 115.8874 115.5814 115.3266 115.0937 114.8956 114.7496 114.6407 114.6520 114.6549 114.3464 115.2170 110.5430 102.6686 99.7195 115.1156 113.8965 117.5855 116.6404 116.9484 117.3408 117.3300
121.9000 121.7580 122.1140 117.8463 122.7805 119.2348 120.5891 120.0488 119.6871 119.4606 119.4706 119.2200 118.9953 117.9747 117.8802 117.5558 117.2200 117.0111 116.4420 116.3893 116.1320 115.9055 115.7010 115.5326 115.4083 115.3497 115.0722 114.3097 114.6876 116.9571 107.5185 98.1604 105.0081 102.8803 106.9995 117.5796 117.0664 117.4146 117.1953 117.8200
119.4000 122.3736 122.4295 95.9020 121.5652 120.2301 120.6650 120.3246 120.4806 119.7635 119.1368 118.8703 118.5396 118.4112 112.6300 116.8522 118.0360 118.7068 117.1077 116.9008 116.6561 116.4520 116.2654 116.0990 116.1712 114.7232 110.0753 116.8031 103.3627 107.2191 107.8402 115.0432 117.3356 100.4468 120.7562 116.4314 117.5403 117.5890 119.8930 118.2400
122.2000 115.6365 121.3284 105.3789 119.5774 121.1755 120.8195 120.3923 122.0766 120.1402 119.8394 119.4868 119.1521 119.2059 120.2467 113.8356 111.3151 117.9653 117.5635 117.3813 117.1230 116.9865 116.8177 116.6848 116.7040 116.6781 116.0046 116.8424 106.7586 94.1433 114.4402 101.5700 110.2810 97.5123 116.8985 120.0927 116.9362 117.3626 119.0196 118.7600
105.1600 113.9707 122.9676 125.0962 122.5176 121.2122 121.0011 120.8136 118.5724 120.0259 115.3554 120.1612 119.3980 119.0661 118.1241 107.8964 99.2096 119.4294 117.6674 117.6953 117.7651 117.5146 117.0830 117.1358 116.9782 115.8285 107.0434 117.5911 109.1318 100.5669 104.4732 106.7805 117.6053 112.0158 104.1646 117.8247 114.7044 116.6781 119.0837 119.1300
105.1600 125.1383 112.9668 121.7411 122.5848 121.3225 121.2703 120.9219 120.1799 121.3705 115.2638 119.8871 120.0419 119.5638 121.1468 109.7824 121.0787 117.7432 120.5501 118.2153 118.0007 119.1791 118.9911 118.6954 116.9640 116.8073 113.6843 108.1123 121.0799 98.7326 96.1299 101.8546 108.1630 117.8630 118.6447 118.6567 119.0278 119.0648 118.8493 119.1900
113.7300 122.9532 117.2998 113.9201 118.3471 121.7476 121.3008 121.6003 116.4157 114.7426 119.6678 123.7637 120.4398 108.6661 115.3005 98.4087 118.1770 105.3397 103.0985 118.3264 118.2150 121.6209 101.8774 120.9527 119.5294 119.0662 95.7847 94.3459 100.3358 100.4535 106.6631 105.1426 97.9701 119.6769 119.1148 119.1023 118.6690 119.8452 119.6444 119.5900
122.8600 123.8118 123.1841 122.3737 121.0859 121.6702 123.1396 120.7800 121.7525 116.3021 121.0478 121.8906 121.0247 101.1697 99.2112 112.7108 119.1616 97.6243 106.7241 118.1258 116.4903 118.4006 103.1864 101.6252 104.1450 118.1876 94.8989 96.7345 111.7745 101.6372 105.3701 109.2586 118.5213 119.1507 117.6240 115.7438 116.9855 112.6973 119.0515 119.9800
103.1000 121.9447 122.6407 122.5423 124.1120 104.2035 119.2510 121.8380 121.5176 122.0215 118.7313 103.6506 120.2236 119.1012 120.7308 120.4458 120.0020 94.2264 102.8145 108.7918 108.6328 114.9903 103.2655 102.8900 103.4925 101.6102 97.5191 101.8621 118.4557 107.2455 104.5833 121.1450 118.6016 120.7455 118.4183 116.5274 120.8773 116.9705 121.7036 120.3400
123.1600 123.4598 122.7281 122.8352 122.4626 122.7475 122.7038 121.8271 121.7814 121.2332 121.5715 121.7124 121.4130 120.7857 120.7230 119.9964 120.5220 116.0440 114.6926 101.9718 103.9967 96.9631 99.1579 104.8357 118.8236 114.8687 96.6808 102.9258 122.7450 101.7748 104.8186 111.4971 112.6939 119.4163 104.0740 102.9169 110.6372 109.1970 121.7003 120.6900
123.3800 119.7857 121.2169 123.0901 117.9250 106.5124 114.6714 123.2096 121.6320 122.3096 104.9538 118.2218 123.1708 120.9496 121.1417 120.7284 120.5549 100.5685 116.5793 96.5314 121.8010 120.1440 106.4589 105.0006 120.6589 118.6333 118.8691 116.9080 119.5530 120.4491 107.6218 114.1261 120.4540 121.0506 120.9381 123.3197 104.5341 103.8200 122.5657 121.0200
123.6000 101.7715 106.3913 108.7446 114.0916 112.6529 123.1683 122.2900 122.0324 121.7938 124.2302 121.9512 121.8632 121.2891 120.6969 121.1422 120.7258 109.8403 104.1164 105.8817 120.5793 120.3018 114.5280 110.9655 120.5057 118.1989 96.4769 121.4784 119.4478 119.6976 104.3548 114.5168 120.8321 120.3005 120.2963 122.1027 104.9366 101.2223 122.3326 121.0200
123.6700 126.3374 117.8695 114.2221 125.5704 121.2117 122.1940 122.5670 122.6076 125.6790 120.9481 121.4101 121.9520 121.5542 121.6043 121.5840 125.8604 108.6747 99.1225 107.2244 121.9970 120.7640 122.3741 121.6737 120.3410 120.8046 120.8025 120.7087 120.1262 120.6068 104.5554 111.5495 113.0824 120.6769 120.9306 121.0414 117.3380 98.9139 121.7342 121.3500
123.8900 123.7300 111.0700 102.0500 123.2800 123.1200 133.7300 122.6400 122.4900 122.4900 106.2200 121.9700 122.0100 121.7900 121.6300 121.4600 111.1800 111.1800 102.6600 99.2700 120.9200 120.9600 120.7200 120.7400 120.7800 120.7900 120.8000 120.8000 120.7800 120.7700 111.2300 108.0900 108.0900 120.8900 121.1500 121.1100 121.3000 121.4800 121.6500 121.6500
