119.6000 114.4500 113.0200 101.6700 119.0300 134.5800 112.5800 103.3600 100.7200 120.5000 107.6700 117.0300 115.9100 106.3100 121.4500 121.2200 121.0700 120.8200 120.6600 120.4800 120.4800 114.3800 120.0700 119.8400 119.8400 119.5900 119.6300 119.3500 119.4100 119.4300 119.0900 119.0900 119.0900 119.4200 119.4200 119.3700 119.6600 119.6100 119.8700 119.8700
119.6000 118.3980 118.1541 109.0328 105.2655 123.1046 103.7074 100.9015 98.4932 121.7484 119.6771 98.2523 117.3317 117.1741 122.9053 121.1760 121.1450 120.6830 120.5040 119.9487 108.9990 119.5159 120.0068 119.6116 119.4886 119.3639 119.2597 119.1707 119.0987 119.0428 119.0596 118.9652 110.5364 118.4211 118.6824 119.1827 119.2169 119.3254 119.4354 119.5000
112.0300 107.7456 123.7379 117.4429 108.9880 102.9950 107.8488 114.1133 123.1216 124.2494 124.6154 112.8765 122.7208 121.1847 120.8520 116.4965 119.9153 120.3778 120.2028 119.8887 122.5668 117.6689 119.3142 119.2654 119.1041 118.9721 118.8553 118.7549 118.6692 118.6133 118.5842 118.5180 119.0260 118.4804 118.6725 118.7139 118.8155 118.9217 119.0482 119.1200
118.7700 114.0374 113.5327 106.4470 117.7061 107.2999 104.5025 116.6224 111.6935 114.9343 121.7294 121.9456 122.7507 120.8101 120.8094 118.5895 120.5714 120.0452 119.8833 119.3021 120.4076 117.8914 119.2163 118.8522 118.7071 118.5595 118.4230 118.3126 118.2272 118.1611 118.1198 118.0345 118.0094 118.1661 118.1955 118.2834 118.3819 118.5046 118.6446 118.6700
111.0100 121.5185 120.1999 107.9706 104.4300 104.5089 109.8256 108.1877 116.9957 120.4504 121.7527 121.0614 120.7958 120.7917 120.5934 120.2693 120.0760 119.7475 119.5326 119.1295 119.0783 119.2447 118.5581 118.4927 118.2875 118.1213 117.9791 117.8597 117.7568 117.6833 117.6421 117.6467 117.6484 117.6582 117.7296 117.8158 117.9301 118.0652 118.2169 118.3000
106.9000 109.0822 115.9763 112.5968 110.6629 99.9773 102.8139 104.5278 109.9378 124.8149 120.9002 121.0270 120.7756 120.5046 120.2474 119.9759 119.6983 119.4682 119.2143 118.9709 118.7274 118.4436 118.3089 118.0417 117.8604 117.6668 117.5128 117.3766 117.2705 117.1839 117.1332 117.1055 117.1201 117.1646 117.2360 117.3295 117.4540 117.6014 117.7726 117.8500
115.4400 114.2432 108.5618 105.2943 119.1269 110.3853 106.0596 102.0590 101.0840 120.3128 120.7885 120.8331 120.5631 120.2075 119.9452 119.6098 119.3065 119.2550 118.8678 118.6211 118.3480 118.1239 117.6566 117.6087 117.4052 117.2593 117.0227 116.8659 116.7442 116.6586 116.5933 116.5670 116.5786 116.6134 116.6937 116.8132 116.9574 117.1215 117.3138 117.4000
114.1300 113.5034 118.1235 101.4910 104.6069 106.5352 109.2737 111.9071 101.0288 113.5062 119.9412 120.6006 120.1903 120.6643 118.6479 119.6864 116.8971 119.0521 118.5259 118.2614 118.0290 117.3767 118.5190 117.0667 117.4488 116.5022 116.5228 116.3261 116.1809 116.0784 116.0214 115.9950 116.0144 116.1037 116.1899 116.2770 116.4305 116.6161 116.8321 116.8800
104.1000 115.3691 117.3632 122.1264 108.4649 108.5276 118.4659 119.9627 118.6445 121.7788 120.8034 120.3488 119.6387 119.8583 106.9644 120.0336 118.6808 118.5718 118.2157 117.8933 117.5759 117.4617 116.3850 102.2391 115.1884 116.7961 115.8743 115.7577 115.6306 115.5248 115.4186 115.3752 115.3135 115.2795 115.4098 115.7048 115.8663 116.0899 116.3256 116.3500
106.2000 106.5603 107.9557 109.0317 99.3814 105.6658 116.5058 117.0988 121.2354 120.3701 120.7677 121.1008 121.2213 118.9813 120.8102 118.7376 118.6160 118.1946 117.8810 117.5274 117.2122 116.8343 116.9757 114.8484 104.7430 115.7107 115.2490 115.1610 114.8962 114.6747 114.6907 114.7001 114.8444 115.0081 114.6820 115.0725 115.3048 115.5234 115.7933 115.7700
103.9600 105.5579 117.8472 102.2467 104.1483 127.4629 113.6807 111.9463 121.6085 120.5533 118.9813 111.9181 115.7174 99.4078 119.2437 118.0785 118.2971 117.9030 117.5324 117.1669 116.7511 116.8707 117.4755 105.2577 112.1015 117.1897 114.8668 114.4765 113.8014 114.4509 114.0880 113.9117 105.7363 111.9074 114.2169 114.5944 114.6226 114.9327 115.2409 115.7100
112.6800 117.6649 112.6397 104.3879 107.4029 118.6612 119.1019 118.4893 121.0640 120.4901 118.9188 108.3333 107.2187 100.3451 110.6409 119.2906 118.1786 117.6194 117.1920 116.8046 116.3927 116.0603 115.6352 116.1610 115.9417 116.4677 114.8412 113.6975 114.4325 113.5835 101.8872 113.3661 113.8246 113.5224 110.9142 113.0877 113.9719 114.3148 114.6615 115.1600
112.6800 112.7375 110.8117 116.9390 108.8200 125.5456 113.8324 121.1286 120.4566 120.2990 120.2398 121.1454 117.1023 114.3559 112.4995 112.5942 117.6842 117.1782 116.8728 116.4336 115.9985 115.3044 115.6116 114.4629 115.2812 107.7596 106.7005 113.0616 113.0770 98.7713 108.5697 112.3745 112.4400 112.6072 111.4086 112.8074 113.2664 113.6593 114.0614 114.5400
100.6800 103.3290 100.7306 107.1222 119.5165 120.1386 117.1665 120.4987 120.4654 120.1587 119.7874 119.3410 119.0336 118.9627 118.4928 116.4763 117.8785 116.9482 116.5357 116.0540 115.6455 115.0301 114.3091 106.5594 111.8786 100.9305 113.1130 113.2429 111.8323 112.6547 116.9886 111.2651 111.3989 111.4716 111.8596 112.1124 112.4986 112.9594 113.4276 113.6700
104.6300 100.8322 105.0516 107.7417 123.5529 119.2541 120.9866 120.8004 120.3167 119.9234 119.5909 119.2446 118.8535 118.3757 117.5875 117.2739 117.1819 116.7154 116.2241 115.7242 115.1157 115.4879 103.1510 114.0551 113.1420 112.2454 112.0120 111.0894 110.9821 110.5383 109.6257 110.1930 110.3342 110.5441 110.8246 111.2291 111.7022 112.2282 112.7738 112.9500
100.6200 100.1620 100.5139 103.0014 99.8265 123.9416 125.1850 120.1720 120.2336 120.0538 119.7642 119.0497 118.7083 118.3329 117.8966 117.3350 116.9242 116.4400 115.9224 115.3815 114.8197 114.2875 113.3489 110.6940 113.2804 112.0240 110.9932 110.5825 109.8695 109.5139 109.3329 109.1032 109.1149 109.3474 109.7516 110.2572 110.8363 111.4675 112.1050 112.1700
106.7000 105.8197 115.5671 103.3762 104.3935 114.9162 121.2820 120.4395 120.2535 119.2942 118.9671 119.1003 118.5734 118.0206 117.9048 117.2691 116.6889 116.1911 115.6410 115.0725 114.4796 113.5429 114.0022 100.4858 96.4002 107.2799 110.4485 109.8217 108.8165 108.2078 107.7749 107.6046 107.6967 108.0237 108.5438 109.2022 109.9195 110.6730 111.4257 111.9900
105.8100 108.4988 107.7116 117.2673 117.0448 121.1492 120.9757 120.3908 120.6313 118.4663 141.8079 117.6522 118.2453 118.5840 127.7639 115.9687 116.5199 115.9788 115.3852 114.7738 114.1109 113.4981 113.3849 112.1553 111.6518 117.2961 102.8779 107.7623 107.5350 106.7396 106.1640 105.8954 106.0065 106.4771 107.1924 108.0472 108.9562 109.8674 110.7537 110.9000
106.1700 105.3434 119.1751 111.8392 121.3121 120.3610 120.5793 120.6447 120.4716 118.8839 112.2096 120.3965 118.6071 117.8589 116.7667 116.7326 116.3033 115.7754 115.1640 114.5226 113.8339 113.1000 112.0212 111.2356 110.1347 109.9449 108.9443 107.3301 106.1283 105.0236 104.1625 103.7420 103.9270 104.6462 105.6611 106.8201 107.9663 109.0733 110.1099 110.8500
110.4600 106.5453 106.6980 104.5478 120.7483 120.5054 120.6366 122.1398 112.4686 119.6202 120.0654 117.7706 124.6229 117.7270 117.3222 116.8197 116.1763 115.6082 114.9801 114.3026 113.5792 112.7879 112.0075 111.0526 110.1235 108.8160 107.5052 106.0531 104.5999 103.0181 101.6154 100.8902 101.2187 102.4113 103.9714 105.5363 107.0027 108.3279 109.5166 110.6600
102.6900 100.3664 120.1444 122.6055 122.7421 120.8600 120.9162 110.9820 108.9786 120.5825 119.3032 111.2664 119.4617 117.8007 117.1458 116.6198 116.0818 115.4808 114.8308 114.1384 113.3792 112.5607 111.6312 110.6288 109.4736 108.2257 106.7998 105.0968 103.0526 100.6915 98.2313 96.4765 97.3285 99.7851 102.1683 104.2978 106.1211 107.6846 109.0207 109.5900
113.7200 104.2568 103.3364 111.2810 119.7778 120.0418 120.2887 117.7708 120.1197 120.2004 118.9946 119.5132 118.2423 117.6255 117.1128 116.5941 116.0110 115.3982 114.7397 114.0195 113.2452 112.3907 111.4479 110.3945 109.1993 107.8125 106.1748 104.1848 101.6828 98.4462 93.0131 89.6986 91.0843 96.6122 100.4348 103.2790 105.4430 107.1996 108.6719 109.4700
105.9300 102.1164 100.4133 98.4825 116.0746 118.7840 121.0286 120.3858 120.3209 119.0170 118.9833 118.4201 118.0349 117.6435 117.1529 116.5739 115.9759 115.3582 114.6881 113.9683 113.1802 112.3109 111.3489 110.2616 109.0298 107.5877 105.8639 103.7049 100.8289 96.6230 88.7488 85.0237 86.4519 93.8457 99.3733 102.6866 105.0664 106.9441 108.4852 109.4300
105.9300 101.8466 97.7697 96.8716 113.2679 109.0836 120.6646 119.7231 119.6980 119.4212 118.9830 118.5710 118.0990 117.5723 116.9510 116.4615 115.9851 115.3609 114.6867 113.9726 113.1804 112.3136 111.3565 110.2715 109.0410 107.6049 105.8770 103.7387 100.8835 96.7102 89.2066 85.3719 86.8932 94.0545 99.4396 102.7242 105.0882 106.9617 108.4932 109.4400
105.1900 117.7516 120.1615 118.4600 120.3334 119.0737 120.6313 120.2216 119.8215 119.4131 119.0041 118.5624 118.1469 117.8454 117.3111 116.4879 116.0542 115.4012 114.7438 114.0332 113.2586 112.4099 111.4669 110.4092 109.2214 107.8472 106.2261 104.2704 101.8114 98.4157 93.2667 90.3284 91.7546 97.0228 100.6160 103.3750 105.5062 107.2437 108.7027 109.5000
119.5700 109.6230 122.9208 121.3868 121.3287 120.8094 120.5664 120.2255 119.8458 119.4530 119.0470 118.6637 117.8056 115.3842 111.4796 116.4914 116.1278 115.4894 114.8470 114.1519 113.3951 112.5801 111.6756 110.6749 109.5540 108.2932 106.8484 105.1718 103.2228 101.0197 98.6944 97.0887 97.8558 100.0616 102.3683 104.4411 106.2126 107.7493 109.0789 109.6100
103.8400 117.2376 121.2199 102.1665 125.1098 120.4152 120.6758 120.2737 119.8832 119.5062 119.1024 118.6879 118.0610 118.1846 117.9346 116.2529 116.0866 115.6462 114.9994 114.3256 113.6001 112.8229 111.9697 111.0410 110.0172 108.8847 107.6386 106.2615 104.7821 103.2167 101.8904 101.2286 101.5360 102.6858 104.1932 105.7187 107.1133 108.4067 109.5854 110.5400
122.3300 118.6713 123.2945 100.3532 121.6315 117.6404 120.8190 120.3713 119.9998 119.5733 119.2018 118.7725 118.9769 116.7541 113.7824 113.7753 116.1287 115.8634 115.1909 114.5465 113.8605 113.1325 112.3435 111.4859 110.5613 109.5770 108.5157 107.4112 106.2896 105.2207 104.3862 103.9847 104.1668 104.8512 106.0231 106.9789 108.0813 109.1640 110.1787 110.7100
118.4600 102.8070 121.5083 123.5817 121.6625 121.4596 120.7290 120.2188 119.6729 119.6892 119.0013 118.9563 113.1828 94.2665 115.3121 109.7856 116.8343 116.0470 115.4045 114.7922 114.1846 113.4210 112.6443 112.0019 111.1651 110.3065 109.4168 108.5236 107.6739 106.8995 106.3350 106.0843 106.1995 106.6477 107.3423 108.1633 109.0627 109.9570 110.8338 111.7900
117.8800 154.5972 123.5668 121.3195 121.3073 121.0580 120.8746 121.0940 122.2925 119.0253 121.0575 122.0609 93.4176 103.5428 114.5699 112.0131 116.9362 116.2476 115.7080 115.1273 114.2281 114.8568 113.9746 112.4816 111.7313 111.0815 110.3290 109.6085 108.9208 108.3536 107.9531 107.7723 107.8502 108.1754 108.6808 109.3192 110.0366 110.7713 111.5091 111.7900
126.1800 126.0000 125.2299 120.9039 121.5356 121.3075 120.7959 117.6987 119.1330 119.3196 110.9454 120.4318 108.5982 121.7394 117.9881 118.1649 116.9689 116.3814 115.8303 115.4393 115.2209 105.2382 113.4469 113.0686 112.7974 111.6028 111.1122 110.5915 110.0540 109.6167 109.3216 109.1868 109.2463 109.4773 109.8732 110.3694 110.9366 111.5557 112.1878 112.7900
108.6200 126.4630 123.0545 121.7228 121.5841 121.3888 121.0369 114.5184 119.6899 121.5729 111.1879 119.1988 119.0869 117.8888 117.9713 117.5123 116.7655 117.6451 117.4518 115.5137 116.3226 101.7218 106.7414 113.7485 111.5210 112.6926 111.9408 111.5070 111.0774 110.7403 110.5091 110.4084 110.4583 110.6434 110.9022 111.3082 111.8320 112.3067 112.8545 113.5200
122.8500 120.9408 122.1127 122.0546 121.7429 121.3971 120.9557 121.4116 120.8865 111.3486 120.2622 117.1920 119.1295 118.7401 118.1794 119.2937 117.1781 113.5704 114.0869 115.8833 115.7881 111.3638 100.7020 109.4561 109.2582 113.2001 112.8441 112.3558 112.0120 111.7365 111.5527 111.4751 111.5193 111.6096 112.0944 112.3388 112.4002 113.0443 113.5087 113.6200
122.8800 122.8582 122.4124 122.0744 121.8254 121.7595 121.3882 120.9610 120.5917 117.8019 120.5595 120.0644 119.0159 118.9642 118.5707 110.2988 100.7616 99.1754 118.4545 118.9842 110.0203 106.0569 101.3670 111.6849 115.2384 113.7825 113.5017 113.1585 112.8625 112.6404 112.4858 112.4241 112.4687 112.5261 110.4229 111.9474 114.0307 113.6253 114.1286 114.3400
122.9100 122.7096 122.4808 122.3005 121.9038 120.0185 120.8211 121.0219 120.6849 120.9608 116.7985 113.1606 119.7384 119.5642 118.5805 118.0722 116.1194 115.0553 117.3813 117.2770 115.1442 98.4188 100.7149 116.5805 116.9119 114.3774 114.1890 113.8881 113.6473 113.4542 113.3338 113.2853 113.3292 113.3064 113.2942 112.9270 114.3224 114.3509 114.7535 115.0600
122.9400 122.9761 122.6088 122.1606 122.3749 121.9639 121.4191 121.3047 121.8826 105.9920 116.2516 121.0857 113.5906 118.6587 118.8827 118.6928 118.0005 117.8524 117.5237 117.0585 117.6482 116.2553 114.9355 117.1542 115.3771 115.1423 114.8453 114.5780 114.3704 114.2106 114.1050 114.0596 114.0837 114.1642 114.0473 114.7781 110.7860 115.1077 115.2851 115.5900
123.1600 122.8545 122.3745 122.0755 112.2671 122.4783 121.0786 121.5673 120.7509 121.2303 112.6106 117.9849 117.6652 119.4677 119.1855 118.9711 118.5952 118.4248 117.9338 117.5710 117.2249 116.5213 117.0686 115.7311 115.9909 115.6847 115.4412 115.2236 115.0413 114.8982 114.8112 114.7806 114.7949 114.8545 114.7473 116.3300 99.0924 115.1756 114.7549 116.2800
105.7900 122.4162 117.7045 117.1560 108.6884 124.2901 122.2445 121.6103 120.9098 121.3300 118.0698 117.0563 109.5387 113.4762 119.5149 119.0017 119.1170 118.5452 119.2904 119.1708 117.5745 117.3949 117.0875 116.8309 116.4752 116.2290 116.0122 115.8196 115.6679 115.5390 115.4751 115.4421 115.4505 115.5037 115.4459 116.9548 101.6806 97.0655 116.4644 116.2800
123.4500 123.5111 124.9522 112.8595 123.9783 120.5805 116.8535 122.0167 121.1894 121.3757 118.2138 99.7904 122.0927 121.0419 120.3422 119.5356 117.4488 118.9384 103.7739 121.7840 117.6511 117.8409 117.5035 117.1918 116.9733 116.7603 116.5575 116.3832 116.2460 116.1434 116.0790 116.0539 116.0601 116.1027 116.2860 115.8603 117.6570 118.6522 116.7236 116.8300
123.4500 123.2800 123.1200 101.0100 122.5800 121.1400 101.1600 121.8300 121.4500 121.2300 103.8600 103.7500 120.3600 120.1600 119.9000 119.6700 111.3800 119.2000 118.6700 118.4200 118.1400 118.1400 117.5800 117.6400 117.3800 116.9900 117.0800 116.7400 116.8100 116.4000 116.4500 116.4600 116.4600 116.4200 116.3800 116.7700 116.7000 117.0300 117.3200 117.3200
