119.7800 119.8000 119.4600 119.4600 117.8600 119.7900 119.7700 119.7200 119.9900 119.9500 120.6600 120.6600 120.4200 120.3500 120.5500 120.8200 120.9900 121.1600 121.4000 121.5400 121.5400 121.9000 122.1200 122.2500 122.4400 122.6400 122.7700 105.3400 123.3000 123.4300 123.5900 123.7400 124.0700 124.0700 124.3400 124.4900 124.6300 124.9100 125.0600 125.1800
119.4200 119.4298 119.4025 119.4466 119.4269 119.4602 119.5807 119.5651 119.6633 119.6539 119.9145 119.7088 119.9738 120.2305 120.0704 120.6162 120.4974 121.1074 121.1061 121.3456 121.5144 121.6992 121.9536 122.1811 125.6804 127.5341 121.2126 116.4312 123.7473 123.0897 123.4998 123.6843 123.8787 124.0694 124.2609 124.4274 124.5490 125.1380 121.0089 125.1800
119.0500 119.0217 118.9909 118.9589 119.0001 119.2641 118.7199 119.1578 119.0589 119.4694 118.9044 120.8880 121.1763 117.9676 120.4047 120.3306 120.6974 117.7927 122.7750 120.2131 121.2330 121.4512 121.6098 122.1873 111.4860 128.5917 121.9828 123.8117 122.9800 123.1369 123.3320 123.5322 123.7286 123.9299 124.1235 124.0587 124.8274 125.9039 110.4152 124.9700
118.6600 118.5896 118.5599 118.5596 117.8941 125.3834 117.9141 118.2675 120.5028 118.4893 119.7864 109.6471 99.4626 112.7053 120.4449 119.5111 119.8765 119.3229 121.8982 120.7895 121.0466 121.2089 121.4693 121.8454 121.5704 121.1249 122.4163 121.8485 122.8078 122.9483 123.1718 123.3851 123.5899 123.7986 123.9399 124.9469 119.8334 118.2048 108.9403 124.9200
118.2500 118.1319 118.1017 118.0867 117.7094 117.5142 118.3321 118.4202 122.5444 118.9246 114.3378 115.8592 101.9971 99.3721 118.9612 118.7297 120.4354 120.0926 121.4890 120.3358 120.7443 120.9637 121.1969 121.4322 121.6453 121.8905 123.6848 122.3590 122.5478 122.8013 123.0174 123.2374 123.4391 123.6552 123.8213 123.8364 117.6561 123.1360 123.2397 130.7500
117.8200 117.6580 117.6206 117.6109 117.7165 117.7961 117.7692 117.5576 116.3944 117.2004 119.3998 113.3644 105.0853 106.6241 107.8108 112.4993 120.0701 119.4808 119.9985 120.2507 120.4835 120.7193 120.9723 121.1959 121.4480 121.6776 121.7619 122.1287 122.4138 122.6384 122.8645 123.0804 123.3280 123.5395 123.7728 124.0604 125.0862 124.1639 124.8387 108.4200
117.3700 117.1548 117.1125 117.0937 117.0924 117.1513 117.2430 117.4064 117.6751 117.4260 118.3797 111.2373 131.6804 115.0605 102.5704 113.0859 119.7141 119.4701 119.7639 119.9265 120.2122 120.4864 120.7210 121.0028 121.2316 121.7574 121.5839 122.0086 122.2746 122.4661 122.7163 122.9499 123.0959 123.3723 123.5349 123.8627 124.0098 124.2120 124.8733 124.6500
116.8900 116.6177 116.5702 116.5533 116.5847 116.6368 116.7255 116.8259 116.9734 117.1665 116.7619 113.9737 113.3506 117.7819 111.5109 99.5232 110.1450 115.4188 118.9654 119.7238 119.9572 120.2277 120.6445 120.6708 121.8845 121.6809 113.3423 123.0065 121.9763 122.3126 122.5666 122.8171 123.1358 121.9094 123.6170 123.7279 123.9143 124.1518 124.2718 124.4700
115.8500 116.0463 115.9909 115.9789 116.0013 116.0781 116.1775 116.3310 116.3956 116.6731 116.7600 116.9611 118.4400 117.1256 99.7077 102.7661 108.3610 117.9002 119.2297 119.3896 119.7094 119.5596 120.2008 118.7726 123.6084 121.9777 112.6761 120.2706 122.2241 122.0631 122.4188 122.3938 124.1352 112.1047 124.5884 123.5797 123.8159 124.1009 124.3261 127.9900
115.2700 115.4464 115.3706 115.3604 115.4066 115.3638 115.4994 115.6060 116.5049 116.0125 116.7196 116.4007 113.9537 98.3691 98.0595 114.6545 119.3014 118.1842 118.7484 119.1719 119.5597 120.7994 114.1684 110.5629 104.8050 118.5443 109.6588 112.0927 120.5901 122.3903 122.2650 122.5603 123.2167 122.7215 123.1010 123.5140 123.7611 124.0450 123.3618 124.4000
114.6600 114.7673 114.7664 114.7169 114.6117 115.2634 115.3440 116.1614 108.6588 117.0061 116.2952 105.1608 114.1854 100.4323 104.1000 110.6067 117.9596 118.0544 118.4933 119.0641 119.0291 116.3665 116.5363 105.3735 109.6283 112.0740 113.1971 120.3467 123.2471 119.0389 122.1800 122.4732 122.5870 122.8888 123.1954 123.4105 123.7175 123.4759 130.9554 110.5000
114.0000 114.0809 113.4906 113.6698 115.4347 106.7783 113.9096 114.8347 109.7213 108.0041 116.8668 102.1093 112.4411 109.0848 114.3811 105.7235 118.0140 117.8106 118.4711 115.1398 119.7355 104.1203 112.7223 101.8821 107.3375 115.4878 115.4176 125.5617 124.1417 120.1082 121.9580 122.3383 122.5701 122.8176 123.0527 123.3500 123.3958 125.8735 120.1532 124.1500
113.2800 113.2892 115.5196 115.8544 106.1810 114.6558 115.9541 113.7063 115.1847 108.8550 115.3489 110.0601 111.1417 111.3581 116.9478 112.9050 117.5507 117.3851 118.0964 115.9674 118.4781 120.7367 115.8098 112.6539 107.3273 120.7502 123.2294 107.7947 122.8477 122.1500 121.9327 122.1796 122.4562 122.7039 122.9831 123.6989 125.4499 123.8228 107.7508 111.1500
112.5000 112.5006 112.8767 117.1087 110.5704 111.3224 111.7425 112.9779 113.2288 113.9320 114.2565 114.9925 113.9424 115.1264 112.8230 116.4349 117.1800 117.2486 117.5449 118.0507 118.3117 119.4926 120.5368 119.8701 116.9107 119.6274 112.1947 116.1284 113.2017 121.6035 121.4293 122.1224 122.3386 122.6243 122.6943 121.7985 107.9869 124.6207 108.5703 111.1500
111.6100 111.5259 111.1627 110.1423 111.1586 111.8669 111.7632 112.2680 112.6483 113.0693 113.5350 114.0146 114.5425 115.1811 114.7530 116.1406 116.5572 116.9472 117.7868 118.4816 118.3473 124.5497 121.8617 98.7392 116.1787 119.9921 119.1058 121.3066 119.9615 123.7453 122.3799 122.1029 122.2886 122.6181 122.4341 128.0095 111.1250 110.8388 112.8116 108.0200
110.6700 110.5268 110.3549 110.7445 110.7336 110.5064 110.9209 111.3487 111.8346 112.3801 112.9321 113.4891 114.0527 114.5900 115.1993 115.7099 116.1642 116.6701 117.0861 117.5134 118.1555 118.7732 118.6599 122.9270 109.8717 120.7367 120.3696 120.7050 121.1094 121.6176 121.5302 121.9129 122.1275 122.3369 123.0283 115.7685 109.2672 110.4885 114.5927 116.8800
109.5800 109.3544 109.0931 108.8961 109.1129 109.4414 109.8731 110.4092 111.0023 111.6427 112.2594 112.9235 113.5676 114.1696 114.7613 115.3177 115.8693 116.3894 116.8692 117.3616 117.8371 118.3333 118.8245 114.9515 121.2387 107.8021 121.1050 120.6098 120.8656 121.2517 121.4913 121.9120 122.1184 125.2792 109.5343 116.8317 115.7250 113.7862 114.4371 116.0400
108.3400 108.0283 107.6814 107.5853 107.7385 108.1330 108.7041 109.3785 110.1285 110.9149 111.6227 112.7720 113.0782 113.7868 114.4466 115.0855 115.5723 116.0483 116.6289 117.1752 117.8163 118.3155 120.5497 101.6365 115.1902 120.5004 120.1022 120.4398 120.7774 120.8910 121.1088 121.5786 104.3526 118.2666 109.2455 122.0444 109.5597 114.6295 117.2839 114.4000
106.8600 106.4930 105.9931 105.8416 106.0749 106.6308 107.4058 108.3014 109.2036 110.1425 111.1335 112.7792 112.5361 113.1119 113.7272 114.4620 115.9616 115.8634 116.5947 117.1969 116.6739 115.2191 117.2561 119.9698 120.7625 119.3068 119.6446 120.2608 120.3968 120.4722 121.2302 122.7170 111.2335 105.0024 107.9734 112.6116 120.5073 116.8013 118.6946 114.3900
105.0600 104.6890 103.9177 103.6709 104.0414 104.8780 105.9755 107.1453 108.2920 109.3849 110.3039 111.2214 112.2623 113.5621 114.8608 112.9789 117.4458 115.3507 115.9503 115.9607 109.3037 100.9040 107.7550 108.3343 115.1737 121.3339 120.4676 120.9826 120.7135 120.6061 125.4122 130.3496 119.4471 112.1182 123.6576 114.8832 121.2717 115.3250 113.4121 123.8100
102.6900 102.4883 101.2219 100.7925 101.4283 102.8198 104.4207 105.9716 107.3931 108.6865 109.8587 110.8696 111.8523 115.2862 113.9783 114.4663 114.7819 115.6219 113.8669 116.6141 109.4608 101.5325 103.5894 105.0418 105.2434 121.9567 119.3936 113.7442 120.8744 120.7283 119.7853 120.3786 122.7454 123.1061 123.9167 122.6052 107.2385 102.9723 118.0513 110.2100
102.6900 99.9001 97.4161 96.2655 97.9524 100.4091 102.8158 104.8652 106.6068 108.0974 109.3921 110.5219 111.6364 112.0739 113.2071 114.0409 114.5601 115.3629 115.7096 117.5908 100.4402 99.7603 101.6619 106.6227 116.0920 108.6852 119.8141 118.4015 120.4989 121.2696 125.1750 122.1534 121.4059 121.9289 123.1124 111.8728 119.5813 103.4303 105.9873 123.6100
99.3100 97.0079 91.3172 89.5692 92.3433 98.0194 101.3707 103.9599 105.9941 107.6485 109.0629 110.2873 111.4015 112.4211 113.1829 113.8533 116.0257 115.7983 115.7901 117.6887 112.0794 114.3669 113.8421 114.5484 120.6543 119.8645 120.3380 120.3008 120.9955 121.7079 121.0381 123.4167 121.4070 121.4365 128.6018 114.4253 111.4135 112.4395 112.8072 121.2500
99.0000 94.5473 86.8290 84.6471 88.0813 96.0354 100.4918 103.4672 105.7006 107.4711 108.9039 110.1445 111.2341 112.1767 112.9505 115.9778 101.4114 116.5056 116.3131 117.0676 117.7401 118.2400 118.9021 117.5422 119.4328 111.7006 119.7442 119.9851 120.9344 123.7867 115.8242 111.4305 124.0860 123.3100 115.9556 126.4423 115.3454 115.8047 113.6426 114.1200
99.0800 94.9143 87.5345 85.2208 88.4713 96.2729 100.5612 103.5137 105.6432 107.3390 108.8965 110.2178 111.3026 112.2063 112.7751 116.3695 99.9966 116.5111 115.9669 116.3916 117.0072 117.3695 117.6532 118.0670 118.9490 118.8970 119.9109 120.1567 120.5215 120.8836 116.9715 105.6326 106.7502 109.1961 108.9333 112.8642 115.9283 115.1800 114.8373 114.1200
99.5300 97.3988 92.2337 90.3827 93.3652 98.3250 101.5705 104.0379 106.2356 107.7497 109.1315 110.3115 111.3093 112.3270 113.0506 113.1065 98.8511 116.6131 116.0500 116.4437 117.0279 117.8946 117.9116 118.2379 118.9915 119.4921 119.7381 120.2244 120.4855 120.7789 122.7354 126.8873 116.6673 108.8954 111.5644 117.1154 119.4576 113.8678 114.6922 114.8400
102.3200 100.4859 98.1620 97.1631 98.5663 100.8028 103.1172 104.8014 106.5652 99.6462 108.3139 108.2823 112.3175 112.5875 113.6106 114.0855 115.0316 115.5497 115.8346 118.4447 116.3716 117.1714 102.4734 102.2347 119.3381 119.5748 120.4350 119.3084 120.7094 120.8689 121.2841 120.9465 114.7718 109.5899 110.4592 109.4901 117.3007 114.4105 129.4927 113.9900
102.6100 102.8800 101.6697 101.2807 101.8704 103.1719 104.6817 106.2728 105.9641 108.6891 110.6163 101.0615 110.2732 112.4393 110.4496 114.5628 115.2538 115.4380 114.3489 133.2536 99.5007 95.5522 117.3909 117.1965 117.6846 115.3937 116.5156 117.9828 119.8450 120.7632 121.7654 119.9573 103.8628 118.8375 106.4367 116.8822 110.3639 123.8527 119.5489 114.2500
106.7400 104.9745 104.2615 104.0344 104.3848 105.1778 106.2053 107.2952 108.7473 104.8692 109.7712 111.9932 112.0342 113.7589 102.8688 116.0462 111.6545 115.7013 118.1461 119.9473 110.8056 99.9460 101.0728 97.1533 118.3131 107.6021 110.3618 115.7137 122.0700 123.5506 116.5144 111.8459 106.3523 108.4690 121.7755 120.4547 116.6188 123.4846 116.8934 123.7800
106.7400 106.7509 106.2753 106.1262 106.3448 106.8794 107.6241 108.4467 110.1586 101.2451 109.9503 112.8559 113.4326 113.2979 114.8656 115.8531 107.9217 116.8384 119.9651 118.0744 114.9324 103.9766 106.3927 105.3031 103.9464 116.0635 117.5114 114.8699 121.3941 114.0038 107.9604 109.4138 107.6786 119.5723 113.0176 110.3379 119.0380 127.1610 113.2775 114.2800
108.2900 108.2511 107.9089 107.7976 107.9559 108.3369 108.8774 109.5671 110.2325 111.5421 102.5228 109.9476 110.2488 113.9812 114.3987 114.7178 115.9931 116.2744 116.3630 116.7488 118.3168 108.5720 113.6409 106.0887 99.5636 105.8730 121.0362 105.2192 104.1534 98.0967 104.0478 103.3867 103.4982 110.4657 117.6937 114.1141 114.6456 118.9560 116.4951 116.5200
109.5500 109.5441 109.2899 109.2373 109.3419 109.6111 109.9038 110.4892 111.1391 111.5596 114.0654 113.2388 113.0481 115.0645 114.6479 115.8894 117.1265 116.2015 116.8200 117.4247 117.5412 118.3755 123.4565 120.8106 101.4503 107.9270 110.7086 111.9621 99.7261 98.6519 99.6380 99.0648 98.0213 108.5808 115.5048 116.0538 122.8350 106.9136 105.6386 101.8400
110.6400 110.6816 110.4860 110.4308 110.0894 110.9402 110.5082 112.1100 111.9524 112.4955 113.0046 114.6080 107.4820 113.2637 115.1279 113.8664 103.4797 118.6872 117.8256 118.6528 119.0060 117.7451 122.9738 126.5373 104.9653 101.4239 108.7210 107.3539 109.7350 106.7173 98.5661 98.8105 109.2749 114.9261 113.1507 123.9356 113.4207 109.5610 107.0497 101.8600
111.6100 111.6905 111.5362 111.5153 112.4235 111.2938 104.2715 113.5462 112.4367 113.1777 113.6577 114.1375 114.7110 114.8575 116.5629 105.5315 101.2854 100.8892 113.3994 117.4425 105.6109 113.7111 108.2876 108.4509 105.1352 107.7194 114.1419 110.8223 112.7898 110.9355 110.2880 106.8491 109.1690 112.5950 113.6901 116.8660 116.6301 100.8209 103.0809 102.0400
112.4800 112.6026 112.4671 112.4499 114.3082 94.2882 95.1198 108.3060 112.8036 113.8637 114.2664 114.6438 115.1663 115.5959 115.9854 116.0506 116.2982 116.8896 117.6204 119.8169 105.6586 100.0390 112.3413 99.7542 97.2508 103.1074 106.2512 112.1173 109.6333 108.5323 110.5986 122.7656 114.5804 109.3715 110.1191 110.3905 114.5280 109.5593 100.1715 122.1900
113.2600 113.4274 113.3297 113.3101 113.3279 114.8986 107.2260 108.5174 114.2671 114.5422 114.8464 115.2423 115.6050 116.0378 116.3784 116.7019 117.0188 117.2273 119.0754 117.8081 104.6998 110.9457 103.5545 107.4539 114.5539 119.9914 117.6177 106.6902 110.2016 109.3865 120.6315 110.9559 108.3074 116.3886 114.2528 120.7095 110.2457 110.0815 112.8421 120.4900
113.9800 114.1878 114.1005 114.0732 114.1105 112.9711 94.7685 115.9037 114.5899 115.1900 115.3855 115.7617 116.0969 116.4534 116.8439 117.3034 117.3914 118.6165 96.4371 106.9912 107.9460 110.8972 114.5459 105.8830 120.3844 121.0447 121.1676 122.3738 122.3013 122.6237 116.1324 98.5200 117.7948 114.2457 124.3636 123.7568 121.0152 106.3900 112.8887 111.4600
115.2600 114.8882 114.8191 114.7804 114.5482 116.1011 107.6436 116.1288 115.1326 115.6168 116.1116 116.1357 116.5265 116.8825 117.2396 117.2594 118.3303 111.9294 104.5646 113.7692 100.2752 106.3614 120.2294 114.2847 121.6317 120.6207 122.9458 121.0022 120.9712 119.8038 105.1757 113.0322 99.1781 110.7725 123.0765 123.0287 122.8812 123.4369 117.2764 121.8700
115.8400 115.5294 115.4727 115.4539 115.5667 115.7522 117.4699 112.6371 117.5914 116.1755 114.8506 118.7715 117.0519 117.3346 117.6047 118.1440 114.8955 103.9427 98.6816 109.3025 105.1487 108.1958 121.0910 120.4610 120.7709 120.9286 125.8735 122.1170 122.4090 117.5282 126.6796 123.2219 100.9681 117.9930 124.7618 123.0614 122.0515 114.9578 124.8574 124.3200
115.8400 115.8800 115.9300 115.9400 115.9300 115.8700 97.6600 97.7200 116.5800 116.5100 116.8800 114.3800 117.4100 117.7400 118.0200 118.2500 98.9800 118.5300 100.9000 112.0100 99.5500 102.4300 120.2600 120.4900 120.7100 121.1400 121.3500 121.5600 121.9500 109.4100 122.2100 110.3800 110.2900 123.0600 123.4000 123.5600 123.7300 124.0500 124.2000 124.3500
