106.1600 108.8500 107.8200 108.7000 101.4100 101.2400 101.0600 101.2300 102.6400 114.9200 102.3300 120.5600 129.5400 114.9500 120.9100 120.4600 120.2200 120.0000 119.7500 119.2500 100.8500 115.1000 118.4500 118.2300 117.8800 117.3300 117.3300 116.6900 116.6900 116.3900 101.8700 101.8700 117.7300 117.7300 115.3000 115.3600 115.3700 115.3600 115.3300 115.2800
113.0300 111.6387 108.4887 108.0904 104.7943 102.9113 103.2335 112.1025 107.3481 114.0439 101.0798 121.0015 126.6973 119.6582 118.5810 119.7870 119.9063 120.2894 108.0469 117.0775 108.7476 117.6063 118.5187 117.7222 117.2081 117.8464 103.6306 115.8160 116.6321 98.7252 95.5384 95.9151 124.4300 114.1866 114.9170 114.8618 114.8364 114.8573 114.9336 115.2800
113.1000 113.1967 112.2407 108.8602 109.8486 106.4564 102.8238 116.9171 103.7484 97.6441 98.3502 120.1468 98.5965 118.7376 138.6305 121.3084 120.2375 120.8726 106.1722 104.9494 111.7951 113.0247 118.2327 117.5584 117.2562 116.7869 114.1136 117.4776 118.6083 91.5745 100.9502 116.7511 111.8872 114.4902 114.2622 114.1651 114.1311 114.1581 114.2432 114.0100
107.1800 107.7101 112.0949 105.4028 107.2519 107.1867 103.3386 116.7909 103.0050 116.4759 117.2332 119.1822 113.6610 118.5915 132.1310 118.3782 119.3638 119.0047 116.7589 97.1775 113.3285 114.4689 118.0439 117.2338 116.8159 116.3751 116.2022 115.3808 114.5486 103.1054 118.7498 114.6486 114.2608 113.6780 113.5027 113.4053 113.3531 113.3899 113.4878 113.2900
107.1800 113.2850 108.5624 105.5236 105.1431 105.1738 104.4198 121.8850 114.4529 124.0083 119.9381 120.8934 119.2235 121.1977 119.0393 120.3201 120.0361 119.1610 119.6263 116.1506 117.2396 118.1638 117.1824 116.8925 116.4519 116.0490 115.8318 115.0522 115.7096 116.6810 109.9679 112.3931 112.9083 112.9483 112.7002 112.5615 112.5111 112.5498 112.6651 112.5100
101.9100 105.4635 107.8797 108.0691 102.6966 105.2777 100.5692 125.9554 117.1627 121.6796 120.3606 121.0715 120.8636 121.8689 117.6358 120.4222 119.3245 119.0933 118.5783 118.4193 117.9157 117.3739 116.9861 116.5557 116.0909 115.8088 114.0159 112.6770 114.0158 113.8281 109.2824 112.9338 112.3990 112.0524 111.8002 111.6280 111.5675 111.6120 111.7656 111.6500
108.8700 108.0142 107.0089 101.6453 103.4900 114.6672 115.3043 98.0382 120.8205 121.1869 121.4010 121.0472 119.9293 120.5469 95.7551 117.3965 119.4446 118.7670 118.4579 118.0212 117.6129 117.1773 116.6993 116.2619 115.6874 114.8423 123.2988 120.7946 113.2109 113.1009 112.5446 112.1000 111.3563 111.1403 110.8041 110.5897 110.5101 110.5694 110.7593 110.7000
107.4100 105.9348 109.8608 108.1998 106.1712 116.0048 114.0856 104.2087 101.6896 121.8506 121.2038 120.9995 120.1043 115.0202 116.9965 97.4515 109.7108 119.2911 118.4150 117.8335 117.4085 116.9389 116.4299 115.8919 115.6050 113.4312 114.2935 113.6308 113.0843 112.3766 111.8305 111.1027 110.6499 110.0908 109.6929 109.4157 109.3099 109.3824 109.6361 109.6100
108.8200 109.2958 103.5203 103.2434 105.8656 102.7489 112.7403 114.2670 106.1520 122.7937 121.1963 120.8904 120.4206 110.3589 124.7041 113.2915 117.9477 118.2088 118.2121 117.6173 116.9460 116.4569 116.1140 115.2510 116.2146 94.5422 107.5437 113.8211 112.4739 111.7591 111.0251 110.2674 109.6169 108.9587 108.4174 108.0618 107.9163 108.0213 108.3564 108.3700
109.9400 102.9710 105.3556 104.5025 104.5722 109.6572 119.8249 112.8292 123.4618 121.2753 120.9626 120.5730 120.8772 121.1364 117.2709 107.4647 118.8135 118.3607 117.9768 117.9112 118.7234 117.6025 115.6872 116.3516 114.8426 115.8036 114.3385 112.2377 111.9567 111.1259 110.5792 109.2972 108.5149 107.6899 106.9712 106.4631 106.2503 106.4059 106.8754 106.9100
112.1200 114.3382 109.3973 108.3905 101.2935 109.9854 118.5594 117.6863 122.2335 121.1881 121.6830 121.6590 120.7233 108.3434 94.9192 118.9493 118.6032 118.3257 117.7154 118.8721 108.6139 108.8391 112.2536 111.3668 114.3768 113.1520 113.2143 111.7322 111.4298 110.4130 109.1705 107.0048 108.2304 106.2818 105.3190 104.5198 104.1920 104.4303 105.1255 105.1200
107.8800 109.0317 106.6885 107.5503 104.4431 110.7395 114.1420 125.1672 121.4690 121.0050 122.6146 112.8024 121.4365 107.3469 105.1153 113.9565 118.5566 118.1781 117.4380 118.2707 96.1468 90.7010 93.8019 102.5583 115.0081 113.7044 112.8711 111.8867 110.9724 109.7251 108.4599 98.9577 106.4684 103.2965 103.8118 102.0489 101.4971 101.8962 103.0477 102.8800
101.6100 104.2210 103.5777 101.3066 114.7169 115.2794 123.1307 121.6710 121.3363 120.9101 121.9784 92.5929 124.4325 110.0765 108.0154 112.2991 119.0922 118.1115 117.6997 117.9461 99.0270 113.5473 113.7096 118.7262 113.4603 112.8158 112.2613 111.4371 110.3158 109.5171 108.3589 106.5527 104.7599 99.7923 101.0399 98.7345 97.5720 98.4980 100.5463 102.8800
104.7100 101.5935 100.8120 101.7719 118.6700 111.2584 123.7061 121.8015 121.5460 121.1306 121.4967 114.9515 100.0187 98.3322 113.2327 107.1292 119.0887 118.0780 117.5586 116.8592 117.1891 113.5606 114.9412 112.3030 114.5725 115.1991 113.2451 112.0903 111.6464 109.0260 107.5937 106.0563 104.2020 101.9658 98.3564 93.5059 90.7781 92.7816 97.8372 99.5700
101.6000 102.4107 102.3362 113.7592 110.5509 121.3655 120.0854 121.8018 121.5094 121.0069 121.0995 117.0190 117.4050 115.2765 118.6851 117.3802 118.9109 118.0357 117.5402 117.0608 116.2197 115.8076 112.1785 112.1460 107.7384 95.4994 100.3747 113.6366 95.7196 110.0963 107.5208 105.6505 103.4412 100.4675 96.1884 88.7478 85.6556 87.6685 95.1119 99.0400
111.3300 103.2793 105.1637 106.9886 109.6775 124.7735 117.7600 122.5251 121.4611 120.9600 122.8351 115.4701 120.6381 120.4550 120.1817 119.2132 118.4435 118.0385 117.5518 117.0482 116.7097 117.2367 113.6505 115.0789 108.7426 90.9603 96.8640 114.6535 93.1021 110.4768 107.4372 105.5894 103.3987 100.3750 95.8476 87.6995 84.2669 86.7836 94.6799 99.0100
104.2400 104.7245 102.9266 103.9989 101.5161 112.2976 117.5772 122.4667 121.5745 122.8303 100.8716 122.7059 122.1522 98.8009 114.7653 119.2900 118.3949 118.0517 117.6542 116.9508 109.7506 98.2804 97.8292 99.4227 96.5127 96.5932 114.8619 107.4980 104.7559 109.4552 107.5989 105.9181 103.8601 101.2171 97.7067 91.7940 89.0700 91.0458 97.0516 99.3500
101.6000 103.4749 101.7882 99.1004 119.2319 116.3565 122.6310 120.6049 121.7129 121.5930 121.0281 120.4217 120.9652 120.8192 119.2271 118.8796 118.5272 118.0986 117.6354 117.0671 118.0309 101.0606 96.7480 101.1594 103.2460 97.1245 112.0250 111.1767 110.6621 109.3314 108.0249 106.5190 104.7537 102.6479 100.2823 97.5807 95.8072 97.1621 99.8171 100.0200
120.2300 115.5781 110.2392 103.5212 101.7879 111.9651 123.0398 115.4650 121.7880 120.6774 107.4337 120.4143 119.8946 116.4144 118.4125 119.5514 118.5360 118.2177 117.7449 116.7277 114.8857 95.9198 98.4337 116.2132 116.2542 90.6997 111.6617 111.3955 110.8405 109.7890 108.6172 107.3153 105.8648 104.2736 102.6406 101.2008 100.5470 101.0331 102.3568 102.7100
105.2900 105.8441 115.0210 106.5629 121.4627 121.7461 123.0724 122.4345 121.0262 120.5471 104.8930 121.8463 121.3867 119.6838 119.3098 112.8167 118.7524 118.2017 117.8649 117.9084 113.0235 104.8682 107.2157 103.3580 107.1052 106.2134 114.3203 112.4045 111.3033 110.3303 109.3044 108.2061 107.0367 105.8483 104.7376 103.8634 103.4906 103.7664 104.5815 104.8100
114.2700 107.4190 104.1289 107.5292 122.4507 119.7039 122.1151 123.2751 122.7472 121.4832 122.3612 114.6826 116.9403 119.2701 116.7240 116.5094 118.2884 119.2699 119.4852 107.6779 96.3707 100.0474 91.6384 91.7232 120.1920 111.6793 108.3777 113.1312 111.6327 110.9350 110.0510 109.1351 108.2063 107.2976 106.5026 105.9367 105.6999 105.8697 106.4016 106.8500
102.2700 115.5232 110.9727 107.0301 122.5416 122.5065 122.3982 112.4105 118.4736 120.6349 121.8176 110.0030 119.8245 119.7049 120.9155 119.8585 120.5848 108.8904 107.8613 97.0751 95.2003 98.3192 93.4413 96.4802 107.1716 102.4753 110.0636 112.8992 112.2193 111.6046 110.8248 110.0396 109.2979 108.6032 108.0219 107.6223 107.4626 107.5805 107.9523 108.3300
116.2500 107.7293 98.5757 109.1667 114.9017 119.7227 122.9653 113.2574 121.5243 124.1699 120.4585 121.9446 120.0897 122.5060 118.9243 119.0408 116.9521 97.2615 113.8903 106.8670 94.9153 100.6789 99.0938 94.5554 107.5425 104.9261 114.8612 113.5799 112.8432 112.2289 111.4796 110.9476 110.3059 109.7779 109.3388 109.0432 108.9238 109.0074 109.2803 109.5800
105.2000 116.4316 100.6933 119.4678 121.9509 124.3634 122.3817 123.1973 121.9419 121.3049 121.1839 120.8461 120.9250 125.0045 119.2760 119.8288 117.9970 110.5528 117.0279 113.7049 102.8312 95.7353 97.2861 110.9716 116.9572 115.9022 114.6007 113.9618 113.8810 113.3429 112.5100 111.8025 111.2791 110.8338 110.4925 110.2644 110.1753 110.2381 110.4490 110.6700
103.8300 106.0590 102.2820 115.9004 125.3488 123.1397 122.4505 122.1846 121.8502 121.6298 121.4379 120.6946 119.6397 110.5212 115.2397 121.0536 120.7307 100.1611 120.4257 118.0160 116.2581 115.8930 114.2826 116.3997 116.1185 115.2987 114.8706 114.5032 113.7594 107.8283 110.9276 112.5399 112.1553 111.8023 111.5165 111.3396 111.2681 111.3207 111.4871 111.6300
120.1900 118.1623 122.1122 123.6650 123.0243 122.8674 122.6436 122.3364 122.0632 121.8007 121.4985 120.8478 120.9964 118.2855 100.5165 119.6434 119.4712 118.6161 118.7975 118.5786 118.0431 117.6360 117.1733 116.8527 116.4772 115.9478 115.3356 114.9452 115.0289 110.9299 113.2818 114.1005 112.9247 112.6721 112.4384 112.2945 112.2515 112.2841 112.4121 112.5100
124.3200 117.6416 118.2778 110.3181 126.9441 124.6859 122.7862 122.4094 122.1707 121.7757 122.3926 114.3295 121.6329 121.0681 120.9939 120.3271 119.6444 119.2913 118.9657 118.6793 118.2527 118.4538 112.0431 117.5162 115.4956 118.2800 113.9803 114.7474 114.8108 115.0102 114.2479 114.3077 113.6495 113.4747 113.2795 113.1597 113.0694 113.1377 113.2542 113.2800
124.1100 123.7885 101.4912 109.7250 133.0782 125.5609 122.7250 122.5321 122.2689 121.9815 121.9508 121.5047 121.0141 121.3191 116.1775 120.5564 119.8619 119.6293 119.2810 118.8938 118.5980 118.4173 113.2745 120.0918 107.7027 91.5269 91.5845 115.8153 115.7840 115.2438 114.9647 114.6380 114.4314 114.2088 114.0531 113.9335 114.1069 114.0027 114.0216 114.0000
114.3100 104.7400 107.7281 114.4488 122.8380 122.8406 122.9270 122.6524 122.4272 122.5373 121.8116 121.3676 122.1473 124.2363 132.7698 120.0694 120.1057 119.7916 119.4914 119.1644 118.5325 119.7082 102.4713 115.8618 119.0448 99.0070 106.2428 117.1037 116.9436 115.8733 115.5381 115.3011 115.0714 114.8929 114.7422 114.7248 113.9440 114.4222 114.7470 114.6600
114.3100 115.7619 126.6176 123.6299 123.5557 123.3009 122.9263 122.7991 122.5714 119.2143 122.0746 123.0373 110.5751 115.3486 135.9738 125.1207 120.0152 120.0511 119.7128 119.4119 119.3775 119.6201 119.4238 119.4633 118.2774 117.8682 117.9175 116.6550 116.5252 116.3380 116.1168 115.8780 115.6907 115.5187 115.4672 115.0438 119.1392 117.5587 115.3740 115.2700
115.3400 125.7219 122.9267 122.9913 123.5661 122.9671 123.6953 122.4976 128.4165 118.5742 115.8027 121.9773 108.9405 121.5375 109.9934 127.3732 120.6139 120.4953 119.9775 119.6219 119.3568 108.2643 120.3111 110.5558 119.2270 112.3231 118.9111 118.3986 117.2329 116.8262 116.6420 116.4275 116.2612 116.1211 115.7988 117.1397 99.3658 98.7116 116.5708 115.8500
103.4000 120.8366 126.6675 132.3813 122.7968 126.4694 109.5285 124.4617 127.8531 126.0125 109.4961 106.7285 124.3225 116.6780 124.2187 122.7467 120.4786 120.2214 120.2368 120.0856 119.1355 111.3425 107.6860 97.3677 116.9350 118.9743 109.7634 114.2329 114.8492 117.3501 117.1132 116.9603 116.7990 116.7004 116.3316 116.9500 117.3641 115.8364 118.1029 116.3800
111.8800 104.3533 127.7070 124.3074 124.3818 120.4068 111.1400 123.3032 119.0504 107.9499 107.3515 109.8133 113.6922 118.5032 125.2729 107.8356 122.6465 119.7755 122.0208 116.0936 122.3062 113.7594 102.2627 107.8726 117.5407 117.7904 118.0278 118.3167 117.9267 117.7555 117.6257 117.4054 117.3263 117.0966 118.1628 117.6173 117.2364 108.3131 116.8137 117.3700
124.6400 121.7836 113.1088 113.5428 115.5123 122.8612 124.0883 123.0556 122.9447 115.4656 104.9527 119.3433 121.6064 118.8809 99.5409 117.1854 103.0453 103.4534 112.5192 115.3413 111.0425 100.0459 100.9942 117.4938 105.9227 115.9309 119.1295 118.6004 118.4634 118.2340 118.0859 118.0970 117.4850 118.5307 107.8225 115.3636 117.5510 118.4728 118.6496 117.8200
124.8300 124.9350 122.7657 123.5417 123.3317 116.6670 119.0603 123.3666 123.4804 120.4454 105.6410 123.9139 122.1097 122.6493 120.9591 123.1380 110.6307 107.3294 123.6875 100.2258 100.3762 99.6288 101.7819 99.5744 102.5244 120.5280 119.0899 119.0102 118.8254 118.6855 118.4262 117.7406 119.2434 118.0664 110.6718 117.7120 117.8398 117.9864 117.8758 118.2500
115.7900 122.1391 124.4030 124.6573 122.5651 124.3556 122.1520 123.9396 123.3793 121.3381 120.9953 124.0592 122.5493 122.1467 122.3388 121.4627 123.4560 122.1045 120.8344 106.6202 105.6576 99.6973 99.1133 101.8094 114.6479 120.4226 119.5513 119.3558 119.1884 118.8094 124.7028 119.1964 109.4025 119.9704 98.1044 114.9855 118.2160 118.6036 118.6103 118.6600
102.9100 110.6441 126.8079 125.6055 116.1194 100.7377 122.8094 120.0444 124.8591 122.4844 129.0674 122.2225 122.7233 122.5353 122.2785 122.0474 121.9947 119.9193 108.2926 104.5743 108.3436 112.2921 109.4973 108.6828 122.9928 120.0480 119.8427 119.7444 119.4904 119.7257 105.0625 117.6133 113.4796 120.7186 92.2535 115.2427 118.5024 119.0376 118.9948 119.0500
115.8700 117.4182 100.0808 108.6379 106.3076 125.9139 124.2475 108.5271 124.1730 124.9107 118.0351 122.0796 123.3994 122.6689 122.4929 122.1714 122.9458 122.8922 112.6687 106.5799 118.3033 121.3312 118.3755 119.9316 120.3269 120.3876 120.2172 120.1423 119.7184 119.5826 105.9549 106.1929 122.2595 120.1154 111.0612 114.0171 118.9444 119.4493 119.4127 119.4200
127.4900 124.1372 107.1018 107.2494 121.3815 113.4198 119.4106 120.7177 112.5596 119.7892 100.0140 104.5777 123.0747 122.8426 122.7522 122.6269 118.1504 107.0572 108.4252 108.4957 118.7074 128.3529 122.1955 121.4724 120.9355 120.7180 120.5626 120.4144 120.1020 120.5567 99.8239 98.2937 111.4525 117.6152 119.4727 119.8776 119.7400 119.7864 119.8023 119.7800
127.5000 117.7200 103.0400 126.4000 124.6200 107.7800 113.4900 107.9100 111.5900 103.8800 103.1900 112.5200 105.2600 122.9800 122.7900 122.6300 100.4900 110.8700 108.5400 105.5400 121.7600 121.5200 121.2200 121.2200 121.0700 120.8900 120.8900 120.7000 120.4900 120.4900 120.3100 120.3100 120.0800 98.1100 120.1300 120.1400 119.8200 120.1500 120.1400 120.1200
