102.4700 119.3500 106.4100 116.2900 113.2200 110.7800 101.3900 103.8000 100.9600 111.5400 109.6900 109.6900 115.2900 125.8600 121.6600 121.4200 121.0200 120.8200 120.6000 98.4500 98.4500 120.0100 120.0100 119.5300 119.5300 119.3100 119.0700 118.7900 118.8600 118.8600 96.6000 96.6400 118.2800 118.2900 118.3000 118.2900 118.2800 118.6400 118.6000 118.5600
102.4700 118.2450 117.3318 112.8596 111.6968 109.5063 105.7981 103.0111 99.9044 116.1135 106.9104 102.8966 114.3451 122.8120 121.4931 122.2521 120.9815 121.0880 122.2565 114.3153 119.1062 114.7187 120.5878 119.4366 119.2476 119.0466 118.8773 118.7158 118.5530 118.4453 119.2447 97.1979 105.5366 119.0370 118.3049 118.1374 118.1724 118.2309 118.3080 118.5600
109.7300 115.3176 113.7777 107.4625 112.9800 106.5032 108.6997 120.1634 106.2186 124.6399 123.2942 112.8765 112.3814 126.3752 119.7016 117.2421 120.6079 120.3959 120.2571 121.9319 114.7794 110.1876 119.8236 119.0401 118.8681 118.6676 118.4711 118.2908 118.1229 118.0330 117.9830 118.0395 119.5956 117.7770 117.6336 117.6553 117.6916 117.7552 117.8448 117.7100
108.7900 109.5525 111.5133 110.5575 101.9907 105.4578 106.8967 97.9488 103.1297 119.5142 121.1311 123.5950 117.2158 118.8824 119.9459 117.8708 120.5457 120.1762 119.9103 119.6144 116.8503 115.5018 119.3582 118.7526 118.4868 118.2659 118.0608 117.8570 117.6831 117.5114 117.4125 117.1896 116.7911 117.0392 117.1573 117.1478 117.1909 117.2633 117.3584 117.2400
108.7900 111.1191 108.8778 110.3660 112.4510 101.5770 101.6840 115.4698 118.1786 120.5706 121.8733 121.4982 122.9158 121.5257 120.9095 120.6859 120.2934 119.9774 119.7497 119.4301 119.9952 119.5615 118.5030 118.3759 118.0882 117.8660 117.5634 117.4008 117.2105 117.0424 116.8839 116.7860 116.7677 116.6587 116.6010 116.6089 116.6575 116.7396 116.8517 116.7500
101.9600 105.9025 109.3131 108.2350 103.3069 109.6909 113.2208 103.7715 120.2584 122.2285 121.6386 121.4384 120.7533 121.9877 121.8913 119.8585 120.0507 119.7260 119.4273 119.0268 118.7629 118.5487 118.2333 117.9711 117.6809 117.3703 117.3513 117.1194 116.8206 116.5006 116.3448 116.2097 116.0913 116.0345 116.0126 116.0313 116.0920 116.1799 116.3059 116.2300
104.0200 107.0122 112.6802 107.3867 106.2090 114.2395 115.3369 101.6838 117.0732 121.7492 121.8902 121.2819 120.9380 114.1229 111.9561 120.5336 119.7675 119.4411 119.1546 118.8441 118.5339 118.3021 117.8222 117.7009 117.3144 117.0836 116.4364 112.2369 116.1976 115.9786 115.7866 115.6205 115.5114 115.4360 115.3998 115.4203 115.4817 115.5883 115.7379 115.6700
115.1600 107.1077 102.7237 106.0588 106.5514 106.5454 120.5171 108.5695 106.4774 118.9024 119.6192 120.9915 120.7162 120.8818 119.6552 106.0403 120.0710 119.2208 118.8705 118.5613 118.1729 117.9414 118.0029 117.1351 117.0728 116.3055 116.2478 115.2762 115.9975 115.3640 115.1630 115.0124 114.8533 114.7751 114.7374 114.7599 114.8316 114.9502 115.1217 115.0700
112.6800 113.7389 103.6074 108.1802 106.0171 113.2109 125.2228 120.9022 120.9230 121.0741 121.2227 120.8924 120.4193 117.9655 122.8988 106.0563 112.8220 119.3384 118.5226 118.2455 118.0767 116.6812 112.4285 113.5862 116.1127 111.2648 114.4876 115.5747 114.9492 114.8475 114.5658 114.1552 114.2023 114.0329 113.9836 114.0194 114.1388 114.2694 114.4699 114.4300
108.5600 112.2318 110.7690 112.8053 106.9719 114.2598 120.2069 117.0390 121.0031 122.2717 123.5092 122.2862 122.7403 104.0925 103.1029 104.5799 121.1772 118.6907 118.3663 117.8009 117.7204 102.7543 101.0872 100.7510 99.6632 100.8057 110.0520 116.6457 114.4422 113.8643 113.8059 114.8278 113.2301 113.5474 113.5325 113.4030 113.3545 113.5411 113.7645 113.7300
108.4800 105.9911 110.5458 104.8836 111.3385 109.4543 122.3322 117.4488 121.9235 120.7638 104.3337 113.4072 111.3733 99.6183 118.1663 120.4355 118.3674 118.5317 118.0832 117.6836 117.2428 118.1753 118.5520 103.3237 102.7195 105.3777 98.6372 109.8845 113.2975 114.0691 113.8444 102.1337 114.3024 110.7962 110.2416 111.6434 112.5144 112.7443 113.0136 112.9700
103.5700 109.1413 110.6536 104.7306 106.5887 121.7438 108.9074 119.0660 121.3296 121.7852 126.4379 97.4123 102.4285 102.0098 102.8118 117.0720 118.3690 118.2858 117.8135 117.3682 116.3639 112.1292 111.8830 116.1691 114.2251 113.2132 108.2732 97.8168 116.5488 111.8985 96.0445 101.3822 112.6613 108.7586 107.8246 111.2312 111.5064 111.8758 112.1935 112.8900
102.9900 106.1085 106.8883 112.4164 112.4118 113.7509 106.2831 123.0572 121.1797 120.8633 119.3282 112.3248 112.1417 104.3659 135.0707 118.7300 118.4891 118.0220 117.6666 117.4875 101.5784 109.7080 94.9241 115.8280 114.7818 95.6675 116.5502 92.4924 103.2154 111.8931 108.2606 113.6035 110.3806 110.6704 111.0753 110.4062 110.6086 110.8961 111.3051 111.2100
105.9700 109.9186 104.6549 109.4396 122.3894 115.2717 119.9022 122.5629 121.1289 120.8963 120.4822 121.2207 115.5014 114.6840 123.4622 118.0066 118.4107 117.8341 117.3989 116.9174 114.3122 116.4856 106.2831 110.9192 113.7959 107.7689 109.7864 95.2884 94.0558 109.9745 110.8780 109.4209 109.6334 109.2341 108.9974 109.1828 109.4410 109.8368 110.3420 110.1100
108.3300 109.9841 102.8280 114.9203 111.6013 122.9585 121.5751 121.5328 121.1425 120.7887 120.4829 119.9652 119.9761 119.9138 119.9466 118.8464 118.1471 117.6565 117.1626 116.6980 116.6468 116.1216 111.1657 115.1625 113.7094 107.7053 114.3240 110.4286 109.2419 109.3194 109.4082 108.8965 108.2232 107.8418 107.7124 107.7867 108.1268 108.6481 109.3037 110.1100
104.4200 102.9421 101.6127 107.8875 108.0670 109.0263 125.0123 121.2882 121.0073 120.6945 120.3273 120.0224 119.5680 119.1629 118.6375 118.3090 117.9651 117.5035 116.9837 116.4603 116.3460 116.0017 114.6589 114.2924 113.4336 111.9716 112.3905 110.9802 110.0666 109.4194 108.3805 107.5160 106.7765 106.2234 105.9822 106.1206 106.6017 107.3115 108.1689 108.7700
104.3600 104.1960 101.5439 101.7979 99.5863 117.5802 122.0813 121.3301 120.8558 120.6953 120.3595 119.9215 119.5706 119.0864 118.7529 118.2551 117.8303 117.3651 116.8336 116.0003 117.0077 95.9407 94.9581 113.4454 112.8101 112.4869 111.3866 110.5068 109.4413 108.3762 107.2669 106.1065 105.0436 104.2267 103.8594 104.0735 104.7996 105.8358 106.9555 107.4800
102.0500 119.6226 111.1299 118.3283 117.5257 122.2273 121.6649 121.3045 120.5311 119.3921 114.8656 119.8964 119.6525 115.9482 112.2933 118.6419 117.7678 117.2408 116.7415 115.8025 115.8936 94.7735 94.6369 104.3482 105.0602 109.1121 110.9237 109.8735 108.7630 107.4979 106.0855 104.5651 103.0150 101.6726 101.0450 101.4181 102.6328 104.1735 105.7072 107.1100
109.6900 107.6843 115.4767 113.9767 119.7544 120.9223 121.5607 121.1264 121.2513 119.6479 109.6854 120.1394 119.8469 119.2226 119.1520 118.1672 117.6764 117.1520 116.6486 115.8413 112.4082 97.5837 91.0261 102.2572 110.1836 106.5011 108.7095 109.3432 108.2025 106.6922 104.9803 102.9711 100.6493 98.3092 96.7147 97.7421 100.0878 102.4064 104.4932 105.5900
111.9200 109.3067 108.7208 108.1555 121.5438 121.4670 121.5178 123.0147 118.1846 120.7651 120.8973 113.7627 112.8239 119.2624 118.4297 118.0348 117.6114 117.0929 116.5668 115.6765 114.1589 102.8626 98.4630 108.1520 100.2643 112.0869 110.7355 109.0134 107.7226 106.0807 104.0680 101.5239 98.1918 93.1410 89.9378 91.7538 97.0921 100.7340 103.4896 105.2800
105.4400 102.4324 114.2263 115.7528 119.6808 119.8727 121.9945 115.2535 111.2173 120.7609 120.4016 102.0022 116.1160 118.3159 118.3788 118.0823 117.5798 117.0588 116.5164 115.9670 115.3495 115.6372 115.8967 114.1736 113.5945 112.0514 110.0238 108.8847 107.4859 105.7360 103.5388 100.5996 96.2488 88.3005 84.9185 86.9760 94.4986 99.6630 102.8929 105.0700
101.0700 100.1405 98.7415 107.6693 115.2939 113.2922 122.1558 115.8760 115.5974 120.8417 119.6740 118.1962 106.9436 119.9111 118.9425 118.1064 117.6066 117.0581 116.5169 115.9170 115.1837 115.1524 116.5113 113.2014 111.8062 111.1215 110.2187 108.9442 107.4856 105.7382 103.5441 100.6056 96.3161 88.4247 84.8760 86.9625 94.5294 99.6723 102.9049 105.0400
101.8900 105.7889 100.9515 105.4525 113.1273 110.9862 122.0199 122.0303 120.8323 121.0313 118.0339 117.6078 118.5806 114.3049 119.0581 117.8443 117.4839 117.0987 116.5523 116.0356 115.5183 107.0005 99.8316 115.1260 113.2738 111.1944 110.3174 109.1187 107.7272 106.0774 104.0750 101.5397 98.0458 93.0956 89.8930 91.8208 97.2379 100.7654 103.5035 105.2200
120.1800 103.5111 100.6744 98.1152 115.8404 124.2180 121.2512 121.1350 120.8511 120.3880 120.0055 120.2315 119.5688 117.7597 118.7833 118.5589 117.4289 117.1813 116.6128 116.0650 115.7110 110.3767 110.7296 108.4384 110.4869 111.2351 110.6453 109.4593 108.1789 106.6992 104.9909 102.9833 100.7224 98.3745 96.7360 97.7751 100.0862 102.4463 104.5152 105.5100
117.9100 106.5544 102.9871 121.8490 121.9924 122.1364 121.6370 121.2790 120.9184 120.6137 120.1246 119.7073 119.5576 118.5553 116.2418 111.4254 117.4882 117.3371 116.7188 116.1773 115.5962 115.4679 114.6740 111.8525 112.8035 111.8716 110.9195 109.9100 108.7787 107.4967 106.1020 104.5692 103.0432 101.6978 101.0548 101.4398 102.6629 104.1923 105.7290 107.0300
122.0400 114.1891 118.8237 122.3238 122.1698 121.8639 121.6719 121.3115 120.9720 120.6758 120.4830 119.6429 119.2687 121.8952 99.0022 118.5647 117.8119 117.3333 116.8440 116.3123 115.7509 115.1398 114.4157 113.8035 113.0261 112.0921 111.3291 110.7073 109.4063 108.3931 107.2633 106.1396 105.0589 104.2322 103.8567 104.0872 104.8157 105.8504 106.9845 107.2500
120.4900 114.9559 123.0513 104.2618 117.3101 122.4286 121.8478 121.3604 121.0837 120.3963 118.8019 113.9748 119.5682 121.1525 119.5960 118.3960 117.9438 117.4970 117.0022 116.4809 115.9666 115.3564 114.7056 114.0887 113.5186 113.5450 108.9123 110.7907 110.1104 109.3481 108.4054 107.5433 106.7813 106.2190 105.9902 106.1284 106.6192 107.3344 108.1869 108.6900
104.2700 103.4540 103.7036 104.6445 124.7203 121.8661 121.7128 121.4600 121.0788 121.4341 121.1439 120.9895 119.6284 118.0688 117.2513 118.2862 118.1826 117.6487 117.1869 116.6839 116.1012 115.4917 113.8071 114.3038 115.2068 95.4850 110.4874 111.6165 111.0118 110.2110 109.4910 108.8168 108.2559 107.8557 107.6914 107.7927 108.1360 108.6538 109.3134 109.8200
101.8200 123.0286 124.8708 123.7967 122.1108 122.1483 121.8338 121.2828 121.2324 122.2453 120.7076 119.3913 122.3795 94.9786 132.5704 118.8165 117.8923 117.8145 117.3873 116.9629 116.0361 114.3355 105.7240 115.2376 114.2956 110.3656 107.1038 112.7737 111.6915 111.0670 110.4976 109.9722 109.5317 109.2423 109.1242 109.2000 109.4473 109.8522 110.3582 110.0200
121.7700 116.3936 122.1661 121.6180 122.3326 122.1518 121.8978 123.2945 121.8873 113.5241 122.1176 122.1555 106.3620 107.6566 90.9166 117.4325 118.3918 117.9395 117.6608 117.1752 116.6689 118.7509 117.7200 115.0826 114.1006 115.0250 111.6426 113.1165 112.6016 111.9086 111.4424 111.0064 110.6660 110.4401 110.3453 110.4002 110.5937 110.9073 111.3155 111.1600
117.4600 121.0066 123.8322 128.4993 122.1874 122.2637 122.0915 112.2906 118.4920 115.3742 112.6817 111.2530 109.4271 123.6054 126.4413 118.6435 118.9779 118.1794 117.6812 117.4606 117.2415 106.5147 116.0597 117.1642 115.0784 114.3109 108.3298 113.7436 112.6709 112.6904 112.2925 111.9458 111.6763 111.4884 111.4453 111.4684 111.6181 111.8694 112.2028 112.0600
111.0000 124.6078 112.0224 128.8997 122.4331 122.6825 123.1898 111.4676 123.8959 123.9734 101.9238 114.0870 120.8949 119.0612 121.3816 120.3007 117.9242 119.2020 119.1288 117.4188 118.1528 109.3898 111.7205 109.9108 115.1477 115.6767 114.7890 111.1768 113.2485 113.4567 113.0909 112.8033 112.5810 112.4399 112.2823 112.4076 112.5294 112.7464 113.0160 112.9200
123.6100 123.3333 121.0220 122.5895 123.3929 122.0093 119.7610 122.5732 113.3363 120.0605 117.7397 121.8481 120.1955 120.5010 105.9355 119.0872 120.6255 106.1806 115.2770 118.2993 119.5095 105.5761 101.1966 114.2941 117.1699 114.6387 115.3496 114.6088 114.5106 114.1125 113.8440 113.5722 113.4043 113.2471 113.5307 113.3149 113.3769 113.5373 113.7711 113.6900
123.8000 124.0856 123.9089 123.3020 118.0595 112.9814 123.0625 121.7528 118.8797 121.2249 121.9840 121.2758 120.5575 120.3372 116.4358 122.2590 101.1351 95.7096 108.5877 106.3104 103.1492 100.4436 102.4333 101.8305 110.6690 117.0532 115.6869 115.4325 115.0748 114.7885 114.5283 114.4099 114.1287 114.3960 108.6528 113.4243 114.0416 114.2921 114.4748 114.3900
123.8400 123.5786 123.3938 123.2255 122.4534 121.5181 122.4829 122.1180 122.0600 121.7854 117.1689 120.1671 121.2344 120.6712 119.9780 117.9760 103.0789 120.0623 119.1337 100.8611 102.6749 101.2770 97.3439 113.1609 115.9697 116.4724 116.2286 115.9220 115.6477 115.4032 115.1508 114.4524 114.4813 114.9194 112.9822 114.6553 114.7602 114.9711 115.1327 115.0400
123.8700 124.1221 123.9551 123.0365 122.7198 123.2467 122.3833 122.4050 122.0143 121.7145 121.7813 121.9902 115.3549 120.8327 120.1468 120.3049 119.6960 118.7319 113.2359 98.7104 100.3047 104.4275 113.5569 117.7865 117.3548 117.2220 116.6997 116.4365 116.2398 115.8333 115.7803 119.7872 114.4714 114.6908 94.6738 111.3406 115.3044 115.6334 115.7445 115.6400
123.9100 108.9585 118.9587 123.6853 107.0392 125.4812 122.0222 119.1278 122.1008 120.6613 115.8474 121.2908 120.8355 121.4063 120.5639 120.2183 120.5935 112.2796 102.6435 102.3620 119.5454 119.0174 121.8954 117.7866 117.6803 117.4236 117.1602 116.9256 116.8045 116.5585 105.9927 116.0574 107.6971 116.5804 117.0510 116.5916 115.9693 116.2073 116.3183 116.2000
105.1900 104.8152 100.4412 123.4750 108.5599 122.9046 123.8804 106.2553 122.4305 121.1138 132.1127 115.1965 121.8376 123.2409 120.6301 120.5930 119.8044 121.2366 120.8576 105.2295 121.1066 118.8624 118.3823 118.2134 118.0129 117.8618 117.6198 117.3984 117.2825 117.0047 109.0344 116.2981 117.0488 116.1402 116.2464 116.3940 116.5511 116.7501 116.8524 116.7200
124.1400 128.8063 109.1857 115.9041 121.9938 117.2293 122.3145 122.3077 123.3789 113.3071 117.5169 101.9683 121.5448 120.8837 121.0111 120.7730 120.7535 120.1334 115.2904 114.4332 119.8196 119.2127 118.9648 118.7379 118.4916 118.2714 118.0576 117.8680 117.7771 117.7622 105.9625 115.9196 116.8982 117.3406 117.2371 117.2202 117.2431 117.2685 117.3657 117.2200
124.1800 124.1800 116.9500 101.7200 106.7900 117.5800 117.9200 113.4000 122.5300 104.4400 100.1700 121.7800 121.5900 121.3900 121.2200 120.9800 108.3500 120.3800 120.1200 119.8900 119.7000 119.4300 119.2400 119.2400 118.7400 118.5200 118.5200 118.2700 117.9900 117.9900 117.7400 117.7400 117.4000 117.4200 117.4300 117.4200 117.4000 117.3700 117.7400 117.6900
