112.4100 111.7500 110.2700 116.0500 116.1500 97.8200 97.7500 105.5700 103.6000 115.8300 100.2000 97.0900 121.0200 106.8600 116.6300 116.3500 115.9300 115.6400 115.6400 115.3200 95.2400 114.5100 114.5100 114.0100 114.1100 114.1300 114.1200 114.0800 114.0300 114.5400 114.4400 114.8600 115.2200 115.2200 115.9800 115.9800 116.2900 117.0200 117.3000 117.3000
112.4100 108.8789 107.8513 111.1489 108.7700 106.3552 95.3954 101.0921 106.8000 118.1401 110.1780 97.6601 116.3406 112.4963 116.8592 116.0425 115.7533 115.3765 114.9673 115.0433 120.5933 106.4182 114.4165 113.5047 113.4481 113.4008 113.4140 113.4969 113.6470 113.8519 114.1194 114.4246 114.7588 115.1186 115.4939 115.8828 116.2811 116.6699 117.0617 117.2000
109.8800 102.2228 111.2172 103.1676 105.2870 101.9259 108.4174 107.5606 104.5566 116.7836 118.9630 109.1164 116.8803 116.6298 116.6190 116.1275 115.2863 114.8688 114.4350 113.2871 106.7000 111.4776 113.0667 112.7754 112.6336 112.5509 112.5733 112.6690 112.8502 113.0972 113.4095 113.7676 114.1516 114.5641 114.9901 115.4214 115.8546 116.2973 116.7097 117.1700
112.1300 106.7242 110.3188 98.5212 109.6985 93.8703 118.9475 112.7797 113.4665 115.1273 117.4773 117.3521 115.5800 116.2146 115.6850 115.4343 114.7664 114.3250 113.9140 113.0705 112.8822 113.1513 112.1293 111.9278 111.7112 111.6271 111.6419 111.7620 111.9794 112.2834 112.6570 113.0702 113.5218 113.9884 114.4688 114.9549 115.4305 115.9286 116.2706 116.6200
110.8700 111.4845 109.2260 104.1313 105.6728 96.2499 120.1531 110.8826 120.1306 117.4946 117.2268 117.0050 116.3376 115.8673 115.3896 114.8300 114.3140 113.7721 113.2339 112.6984 112.1491 111.6241 111.2792 110.9275 110.6918 110.5743 110.5911 110.7540 111.0226 111.3981 111.8448 112.3353 112.8604 113.3976 113.9425 114.4856 115.0182 115.4247 117.3879 116.5800
108.5200 108.7445 106.4557 106.6196 111.4959 98.9919 99.1013 111.8798 113.2709 116.5142 117.0305 116.5938 116.0592 115.5440 115.0122 114.4349 113.8488 113.2520 112.6059 111.9856 111.3810 110.8117 110.2706 109.8393 109.5365 109.3808 109.4091 109.6129 109.9646 110.4346 110.9721 111.5664 112.1804 112.7988 113.4204 114.0230 114.5965 115.1683 116.0036 115.9700
107.7200 106.6062 105.9594 99.9602 101.8045 109.0751 113.8254 103.9548 118.7320 117.2387 116.7840 116.3330 115.7893 115.2767 114.6336 113.9445 113.3870 112.6684 111.9865 111.2660 110.5343 109.8346 109.1750 108.6185 108.2068 108.0052 108.0402 108.3154 108.7776 109.3714 110.0502 110.7667 111.4861 112.2077 112.8995 113.5750 114.2062 114.8218 115.4171 115.8600
106.9300 106.0234 103.6567 105.1591 104.2560 112.6694 113.2661 114.4803 105.6449 118.6065 116.4261 116.0881 115.5227 114.9605 114.9020 114.7572 112.7709 112.1177 111.3804 110.5323 109.6674 108.8023 107.9688 107.2162 106.6492 106.3659 106.4199 106.8045 107.4383 108.2236 109.0684 109.9435 110.7920 111.6229 112.4033 113.1391 113.8472 114.5106 115.0692 115.3500
116.1800 107.9577 107.9314 103.2554 103.1543 113.4336 113.0032 114.4349 118.2963 117.5898 116.4686 115.8873 115.3085 114.7421 113.7366 113.2424 108.3231 112.0086 110.7821 109.8130 108.7975 107.7166 106.6351 105.6076 104.7965 104.3442 104.4319 105.0122 105.9170 106.9662 108.0550 109.1224 110.1275 111.0667 111.9368 112.7561 113.5005 114.2379 115.2234 118.0600
109.2000 102.0785 99.4226 102.9814 104.1031 106.3036 120.4390 112.4883 119.7046 116.6012 116.3015 115.7253 115.1443 113.8345 113.8339 113.0695 112.2878 111.1865 110.2529 109.1453 107.9366 106.6208 105.1995 103.7510 102.4479 101.7034 101.8650 102.8264 104.1899 105.6566 107.0381 108.3273 109.4995 110.5613 111.5240 112.4014 113.2219 113.9809 114.5795 115.1800
114.0200 111.1234 109.1646 101.0577 102.8598 107.7345 119.9897 112.3857 117.7583 116.7500 116.1941 115.6067 114.9798 113.4224 113.5113 112.5911 111.8544 110.8237 109.7810 108.5615 107.1679 105.5675 103.7275 101.6034 99.4995 97.9621 98.2430 100.1615 102.3017 104.3207 106.0914 107.6243 108.9574 110.1368 111.1903 112.1265 112.9770 113.9029 114.4553 115.1100
109.9400 112.4901 112.5094 108.9934 106.1457 111.7667 120.4601 113.9362 117.8527 116.6791 116.0945 115.5077 114.8579 114.2732 113.6431 113.0133 111.5994 110.6027 109.4426 108.1070 106.5544 104.6760 102.3692 99.4384 95.2432 91.3835 92.2151 96.8079 100.3950 103.1573 105.3050 107.0639 108.5465 109.8212 110.9379 111.9355 112.8527 112.8117 114.8240 115.0300
111.1200 106.5401 104.9520 108.8226 110.9003 115.3844 111.9310 118.9259 117.3688 116.6341 116.0584 115.4561 114.7922 114.0587 113.7468 108.9671 112.0114 110.4328 109.2374 107.8448 106.1815 104.1201 101.4392 97.6728 90.4575 85.9435 86.7837 93.1092 98.9797 102.3787 104.8229 106.7344 108.3103 109.6376 110.8257 111.8440 111.9044 119.4970 105.2409 115.0300
111.1200 103.3407 100.4540 98.9597 109.7397 111.5646 111.9467 117.7147 116.9316 116.6318 116.0654 115.4463 114.7707 114.1613 113.4587 106.5624 111.9235 110.3433 109.2067 107.8062 106.1168 104.0235 101.2734 97.3379 89.5095 84.8952 85.6859 92.3262 98.7316 102.2399 104.7433 106.6811 108.2793 109.6068 110.7425 111.8938 110.8812 122.2629 98.2761 115.0000
107.4200 104.1599 101.9282 104.8523 116.7440 116.4792 115.3522 118.1475 117.0951 116.6508 116.0924 115.4848 114.9082 113.5860 117.4442 110.3295 111.5205 110.5527 109.3419 107.9835 106.3731 104.4221 101.9458 98.5049 92.8265 89.0605 89.7442 95.3290 99.7670 102.7940 105.0833 106.9048 108.4306 109.7770 110.8745 112.1268 111.3583 121.1238 101.3765 101.2700
103.7500 100.7805 96.5397 113.2166 108.0314 124.3474 113.5117 117.7762 116.9045 116.7354 116.1676 115.5605 114.9401 114.1883 113.3854 112.7613 111.7427 110.7531 109.6348 108.3673 106.9056 105.2036 103.1805 100.7331 98.1786 95.6413 96.2272 99.0438 101.5449 103.8508 105.7680 107.3867 108.7796 110.2008 110.8028 111.1046 112.9863 115.3421 113.5431 115.0500
114.0100 104.7162 105.0610 103.6560 105.6351 106.8293 115.6050 116.9615 117.1205 116.8236 116.2593 115.6738 115.0513 114.3551 113.6763 112.8302 112.0307 111.0834 110.0536 108.9063 107.6345 106.2011 104.6365 102.9525 101.3802 100.4447 100.6412 101.8344 103.4949 105.1332 106.6708 108.0495 109.2736 110.6666 113.4550 121.4441 112.5729 104.5279 99.1497 115.0900
108.2400 102.7106 103.8289 99.5832 102.2188 117.9447 118.0145 118.0467 117.4497 116.9114 116.2995 115.8776 115.2783 114.6048 113.3317 113.1615 112.3630 111.5001 110.5608 109.5560 108.4587 107.2988 106.0897 104.9334 103.9532 103.3998 103.5158 104.2158 105.2753 106.4834 107.6664 108.8415 109.8062 108.3527 109.5466 112.4213 114.0484 114.6077 115.2261 115.1500
116.8900 112.4716 116.2031 121.6511 120.4400 118.8745 118.4623 117.9973 117.5557 115.8347 116.1395 115.2347 114.7345 114.7489 111.5256 113.5822 112.7686 111.9664 111.1341 110.2541 109.3336 108.3906 107.4628 106.6240 105.9676 105.6299 105.6915 106.1502 106.8748 107.7517 108.7038 109.3599 110.4235 105.7311 100.4231 111.1377 113.8721 113.6577 114.7756 115.2300
105.3700 108.5640 125.5272 115.0315 119.7665 118.7420 118.6461 118.1983 117.6723 117.3425 116.6553 119.2752 116.1625 115.1921 114.8546 113.8260 113.1923 112.4883 111.7436 110.9883 110.2110 109.4429 108.7275 108.0923 107.6265 107.4028 107.4341 107.7064 108.2294 108.9059 109.7277 110.1620 113.3892 111.7031 112.8129 103.4857 110.4996 115.1030 115.4473 115.7300
101.3300 107.0198 119.6040 109.4455 114.4292 119.1779 118.7355 118.3262 117.8953 117.3719 116.7716 124.8279 116.4143 115.6087 114.8137 114.2698 113.6487 113.0174 112.3698 111.7112 111.0601 110.4422 109.8570 109.3857 109.0400 108.8722 108.8876 109.4115 109.6890 110.5000 111.0908 111.6916 113.6547 112.5324 113.5302 116.5726 97.3428 114.0193 115.3752 115.8300
101.3300 104.5185 106.8111 105.7587 112.9253 119.5402 118.7719 118.5591 118.0923 117.6303 117.3086 116.0004 115.9638 115.8057 115.2423 114.7031 114.1266 113.5701 112.9943 112.4243 111.8719 111.3605 110.8976 110.5237 110.2577 110.1308 110.1082 109.3783 107.1952 110.5418 108.7815 111.9100 112.3437 113.3162 113.5219 115.6504 103.0765 117.2468 115.7690 116.4200
113.4700 101.4879 114.5746 123.0117 127.8687 112.5450 119.9771 118.7311 118.2765 117.8905 117.5162 116.9718 116.3307 115.3787 115.6400 115.0759 114.6197 114.1118 113.6055 113.1173 112.6455 112.2207 111.8353 111.5356 111.3303 111.2395 111.1499 111.6233 111.4489 103.6006 113.9084 113.0400 113.2269 113.1348 114.6162 114.8512 115.7474 115.7876 116.2490 116.4900
116.2100 104.7251 119.2115 121.0312 123.9504 107.4992 120.7271 118.6966 118.5146 118.1262 117.7648 117.2910 118.8474 118.4592 116.4339 115.6266 115.1217 114.6459 114.2036 113.7793 113.3810 113.0153 112.6992 112.4485 112.2843 112.1952 112.2303 112.2978 111.2266 92.8794 106.3486 114.0821 114.4298 114.3604 123.5113 114.1076 115.7293 116.1213 116.6071 117.0000
121.0600 103.2146 122.3243 122.0671 101.3820 121.2316 119.4233 119.0864 118.7488 118.3731 117.9384 118.5321 103.4039 98.2941 102.3740 116.8268 115.3583 115.1945 114.7850 114.4124 114.0629 113.7574 113.4964 113.2869 113.1416 113.0770 113.0497 113.1137 114.6514 105.2799 103.3773 113.8299 111.9133 113.8821 115.3538 115.7020 116.1743 116.5303 116.9323 117.0700
101.0400 103.7372 121.3419 121.0059 119.4578 119.9580 119.6848 119.3244 118.9882 118.6341 118.3071 117.8622 117.4090 112.1125 101.2926 116.9286 115.8514 115.7029 115.3457 115.0207 114.7181 114.4504 114.2246 114.0530 113.9296 113.8861 114.0124 114.0471 113.5877 116.2404 110.2109 115.8039 117.2571 108.2119 115.2476 116.3146 116.4981 116.9178 117.2900 117.5600
117.2400 116.3384 121.6429 120.7526 120.3889 120.1729 119.8698 119.5675 119.2270 118.9007 118.5630 118.1753 117.5401 117.8661 117.1389 117.2343 116.4990 116.1024 115.8778 115.5925 115.3301 115.0952 114.9030 114.7542 114.6541 114.6031 114.0619 114.3335 114.6757 114.6335 111.4693 103.9365 99.7200 111.4359 113.4407 116.5514 116.7999 117.3300 117.6341 117.6900
114.3600 121.7190 121.1240 117.0949 121.3255 120.6494 120.0509 119.7630 119.5304 119.1614 118.8619 118.5531 118.3147 117.7319 117.6748 117.2448 116.7548 116.6971 116.3950 116.1425 115.9064 115.6997 115.5385 115.4033 115.3276 115.3387 114.3266 124.4837 116.4216 116.5626 117.5622 102.1400 112.6268 106.4444 116.6885 117.5964 117.2961 117.4803 117.7044 118.1100
121.7600 116.5164 123.5715 98.2179 123.3226 120.3049 120.3258 120.2037 120.0582 119.5893 119.0875 118.8431 118.5289 117.8636 109.2150 115.1392 117.2412 117.0159 116.8999 116.6576 116.4574 116.2724 116.1310 116.0020 115.9911 115.3770 115.8113 115.6435 108.3458 102.6137 117.9259 116.4457 120.0022 103.6952 119.9817 117.2650 117.9661 119.3839 119.1117 118.5100
114.2700 104.8979 124.5027 110.0784 120.7329 120.6282 120.5057 120.4605 114.6701 119.9509 119.4431 119.1981 118.8875 119.1362 120.7592 93.4438 117.0225 117.3832 117.3788 117.1480 116.9675 116.8127 116.6671 116.6098 116.4851 116.5373 116.0572 116.2646 116.1752 97.1180 110.8545 110.1172 119.6259 99.6804 119.3913 118.1415 118.2975 110.8022 118.9275 119.0100
105.8400 121.4739 120.9685 122.2521 121.0356 121.0529 120.7902 120.3976 120.0008 120.1555 119.5496 119.3856 119.1066 118.8091 109.2753 98.3358 118.5452 117.5859 117.8217 117.6730 117.4998 117.3504 117.2659 116.8781 117.6730 117.3412 113.7346 119.7194 120.2949 96.0442 103.4612 117.8517 111.1177 107.9924 112.6899 118.2116 114.4791 116.8709 119.6905 119.3800
105.8400 118.9548 120.8382 124.1176 122.1172 121.2189 120.9940 120.6205 121.5176 122.0584 120.6157 119.7977 120.0367 119.5043 112.0997 101.0311 118.2313 118.2479 118.2667 117.8364 117.8177 117.7770 117.1219 117.6949 113.0153 117.2856 117.1031 112.6115 110.1271 100.1589 103.9503 104.4159 112.4569 118.6983 118.6471 118.7917 118.9314 119.7646 119.2748 119.4300
122.6300 121.9521 124.0475 118.3268 120.3206 121.8051 121.2434 121.4869 112.1124 109.1129 120.5984 111.1343 118.5942 121.1195 109.7060 111.4003 119.9362 115.6369 118.2276 118.2390 118.9969 119.1006 120.5139 104.0047 120.7362 118.2104 115.4518 98.9454 109.9437 101.8939 112.2965 111.7863 120.3719 118.4472 118.8055 119.1259 119.7590 119.5454 119.7405 119.7700
122.6900 125.3824 100.7177 117.2741 121.5560 121.4646 121.5648 120.9370 121.2507 113.6530 121.5500 120.3352 119.6937 108.1726 100.5565 106.7499 117.9022 98.0538 117.2086 109.9809 116.7034 117.9157 102.3224 100.4492 112.2125 118.0965 106.6227 103.9210 103.6877 119.1525 105.6748 105.3245 119.1482 119.1094 119.3230 117.5298 117.3665 117.1274 120.1341 120.2000
101.3700 123.7063 122.5058 122.2431 123.1061 121.7791 121.6600 121.4511 121.2933 121.9352 118.3687 106.2185 121.5226 117.5803 119.6204 115.4223 119.3140 111.8042 119.2284 106.8379 121.8527 109.0857 99.9980 102.4831 109.5709 101.8246 102.1263 104.7185 129.5819 117.6719 102.9185 119.5246 120.8535 119.2053 120.0755 119.2461 120.4450 117.8730 121.2250 120.5100
100.9900 110.8348 124.4154 122.4426 122.4791 122.5608 122.2973 121.6148 121.5831 121.2164 121.0448 121.0860 120.5833 120.4288 120.5245 120.2364 119.2100 120.8704 119.8118 96.6155 117.0636 116.3108 108.6206 104.2046 117.5944 113.5028 115.3939 104.8994 120.5873 121.5540 105.8475 106.4614 117.7805 120.8118 123.9433 120.1831 102.0642 107.4798 120.8769 120.9000
123.2300 121.6061 122.9826 122.8803 121.6370 111.7624 112.6792 122.8658 121.6744 121.5996 121.2618 116.8925 120.5996 120.8901 121.0235 120.0006 121.1637 118.2760 114.5670 102.9084 118.1935 121.1671 107.1480 122.0425 119.9410 120.3123 120.4161 118.8192 120.3964 119.4586 113.3463 107.9822 116.4439 120.0890 121.7691 120.2564 103.4516 119.8394 122.6930 120.9000
101.2900 100.3360 125.0971 124.5309 105.3992 115.8673 122.5209 122.0818 121.9108 121.7656 122.0977 119.5385 121.6571 121.0216 119.9843 118.5187 118.2441 111.9583 98.1868 100.5614 119.1550 120.6648 121.2811 119.8789 120.1418 120.0655 120.0972 120.1581 120.1535 120.2897 116.2659 116.7870 121.5546 120.5619 120.3610 121.5289 116.6312 103.0518 105.6825 121.2400
123.5100 124.7429 124.2452 121.0047 125.8418 120.8202 121.2130 122.3899 122.4858 123.3915 120.5316 121.8286 121.6170 121.4063 122.5932 121.1123 111.0074 113.1651 103.6647 112.4647 121.1000 120.5517 120.3631 120.5820 120.4832 120.4910 120.4836 120.5163 120.6838 121.1887 108.1654 111.3753 121.0572 120.8838 121.0569 122.1652 115.8872 97.3056 122.1619 121.5400
123.7600 123.5900 123.4300 112.7800 123.1300 122.9600 119.3700 122.4800 122.3200 122.3200 110.5600 121.1000 121.8000 121.6700 101.7100 101.7100 117.8300 100.2100 103.5000 120.9300 120.9800 120.7300 120.7500 120.7700 120.8000 120.8000 120.8000 120.7900 120.7800 120.7400 108.9100 109.9200 120.9100 121.1300 121.3300 121.2900 121.4600 121.4600 121.6400 121.8100
