120.4000 100.6100 115.2800 112.8800 100.0800 109.1700 113.9400 107.6600 120.9900 120.9900 99.7000 99.7000 113.4600 113.4600 119.8600 119.8900 119.6800 119.4400 119.5100 119.2400 119.2400 118.9900 119.0200 119.0500 118.7000 118.7000 118.7000 118.6900 119.0300 119.0000 118.9700 119.2600 119.2100 119.4600 119.7000 119.7000 119.9200 120.1100 120.3000 120.3000
112.7200 106.5306 109.8360 110.2043 103.4721 100.5627 108.2463 106.2475 118.3848 117.6286 121.0361 109.5736 121.0838 115.2252 119.8527 119.8233 119.8753 119.2483 119.1458 118.7156 120.1838 111.1940 118.8395 118.6614 118.5852 118.5635 118.5715 118.6023 118.6485 118.7192 118.8072 118.9132 119.0408 119.1826 119.3385 119.5019 119.6790 119.8674 120.0642 120.3000
112.7400 112.8273 107.5793 113.6809 118.1791 112.9302 104.9114 109.0151 118.8261 121.1830 118.9323 120.8004 128.1399 119.8962 119.6653 115.3296 118.7422 118.8174 118.7266 118.5906 118.3673 118.7049 118.4194 118.2014 118.1299 118.1186 118.1200 118.1474 118.2009 118.2738 118.3760 118.4892 118.6341 118.7843 118.9518 119.1395 119.3330 119.5381 119.7522 119.9300
102.1600 112.9310 114.8334 112.4846 102.7180 108.9522 105.2393 106.6935 110.9401 126.4119 120.2987 120.0319 119.4517 119.1451 119.3143 118.8867 118.9876 118.4132 118.3196 118.1555 118.0363 117.8301 117.7825 117.7222 117.6448 117.6237 117.6363 117.6669 117.7299 117.8144 117.9237 118.0577 118.2084 118.3720 118.5595 118.7581 118.9751 119.1885 119.4201 119.5000
100.1600 100.3719 104.5398 112.1068 117.1198 98.1181 100.2174 101.7042 111.8192 124.1723 118.5206 119.6552 119.2952 119.0237 118.7126 118.5321 118.2473 118.0957 117.8905 117.7082 117.5405 117.4122 117.2888 117.2092 117.1993 117.1707 117.1446 117.1775 117.2340 117.3249 117.4469 117.5982 117.7654 117.9505 118.1533 118.3690 118.5948 118.8396 119.0857 119.1400
112.6200 111.4043 111.5458 104.3904 111.8380 106.1160 103.5214 104.2626 103.6687 121.3671 119.7552 119.7211 118.9060 118.6682 118.4141 118.0989 117.8994 117.6526 117.4435 117.2355 117.0568 116.9065 116.7729 116.6656 116.4652 116.3980 116.5268 116.6120 116.7204 116.8146 116.9478 117.1127 117.2962 117.5030 117.7307 117.9687 118.2207 118.4840 118.7433 118.7000
112.2600 111.9270 105.3587 103.4071 100.7632 99.3314 108.4859 106.6189 106.0595 104.9316 118.7640 118.9414 118.5614 118.3242 117.9798 117.8849 117.3666 117.5471 116.9615 116.7383 116.5428 116.3689 116.2206 116.0571 116.3312 116.5872 116.1517 115.9448 116.1601 116.2620 116.4240 116.6008 116.8154 117.0460 117.2962 117.5503 117.8356 118.1118 118.4043 118.6400
99.7800 117.6621 125.1218 112.6173 105.4866 99.8776 103.2187 108.2071 106.1259 113.4162 122.9804 117.7245 118.3568 117.9376 117.6498 117.2896 113.0893 116.7242 116.4828 116.2255 116.0022 115.7965 115.6360 115.3965 116.4663 105.7822 112.2681 115.4805 115.6039 115.6881 115.8608 116.0636 116.3059 116.5615 116.8358 117.1329 117.4022 117.7513 118.0503 118.2400
103.4800 103.0671 96.3486 114.2032 116.2199 105.4498 104.6691 115.9823 118.1681 119.3886 118.5743 118.5687 117.7822 117.7000 117.1426 117.1482 116.5241 116.5196 115.9422 115.6880 115.4244 115.2043 115.0115 114.9084 114.9540 109.7390 113.4514 114.6856 114.9536 115.0654 115.2693 115.4994 115.7705 116.0738 116.3431 116.9792 117.0669 117.3415 117.6439 117.7400
127.7000 113.4862 105.2694 100.6823 104.4970 104.7219 118.5799 108.1988 120.3291 118.1180 118.3416 117.9427 118.3043 113.2765 116.9231 116.4105 116.0296 115.7515 115.4400 115.1104 114.8222 114.5586 114.3390 114.4330 111.2656 122.0116 118.8737 113.9879 114.2711 114.4117 114.6329 114.9071 115.2064 115.5267 115.8028 115.7790 114.4148 116.3280 117.5306 117.7000
116.2300 104.7694 110.9498 112.8248 122.4556 107.3086 114.1917 119.7431 120.0160 118.4528 118.0611 117.5299 118.1414 99.6969 115.4992 116.1905 115.7159 115.2680 114.8786 114.5144 114.1725 113.8730 113.6344 113.3860 113.5738 111.7035 112.9546 113.2883 113.4804 113.6774 113.9708 114.2820 114.6138 115.0065 115.8029 116.2197 109.7476 109.9036 117.2232 117.1300
101.5500 111.0978 112.7863 96.9670 108.3643 115.7212 111.7256 100.4582 117.8430 118.1412 117.7928 117.2413 115.3211 101.2738 102.9346 114.3908 115.2581 114.7640 114.3054 113.8901 113.4921 113.1439 112.8337 112.6026 112.3875 112.5647 112.4347 112.4926 112.7189 112.9760 113.2298 113.6265 113.9931 114.4035 111.9556 112.4757 116.8061 116.9258 116.7256 117.1300
123.2100 107.7751 103.8572 106.5334 104.1573 109.4446 117.3821 123.1290 119.6087 117.9171 117.4952 117.0869 117.5975 119.8313 117.7255 114.5910 114.6830 114.1371 113.7144 113.2250 112.7730 112.3481 111.9855 111.6956 111.5031 111.3599 111.4478 111.5549 111.7154 112.0534 112.4257 112.8206 113.3746 113.9938 114.3596 113.1099 115.1705 115.6188 116.2919 116.5400
113.6700 103.1740 97.3509 104.4650 106.4165 112.9362 111.7077 118.3171 117.9695 117.6824 117.2435 116.7889 116.1472 115.7696 118.7238 113.7862 114.3955 113.5808 113.1066 112.5352 112.0054 111.4999 111.0696 110.6976 110.4407 110.2820 110.5975 110.0584 114.8271 111.0973 111.5880 112.8974 112.6917 113.2599 113.9530 114.3879 114.8964 115.4841 115.9548 116.5400
105.3100 100.2673 99.9824 111.6962 101.8206 109.6161 117.4684 118.3730 117.9929 117.4709 116.9989 116.5165 116.0082 115.5401 113.8558 114.0633 113.7060 113.1206 112.4733 111.8329 111.1928 110.6049 109.9901 109.5844 109.2590 109.0709 109.1926 106.1738 109.7627 110.3133 110.7590 111.3235 112.0202 112.6765 113.2967 113.9191 114.5186 115.0857 115.6397 115.9400
101.1200 121.8900 110.3353 112.3882 105.9160 130.4017 114.7279 118.5214 117.7372 117.2985 116.8180 116.2718 115.7272 115.1424 114.4405 113.9762 113.2445 112.5742 111.8443 111.1006 110.3621 109.5488 109.2222 108.3938 107.8916 107.6791 107.8939 108.5867 108.4696 109.1067 109.8526 110.5807 111.3344 112.0749 112.7933 113.4791 114.1228 114.7554 115.3384 115.8300
106.1700 97.9756 103.1542 105.0741 119.8633 118.4117 118.5418 118.1207 117.5956 117.2605 116.5586 116.0457 115.4559 114.8544 114.2795 113.5372 112.8226 112.0544 111.2360 110.3681 109.4759 108.6361 106.9958 103.2734 106.3736 105.9458 106.2136 104.7707 107.2918 107.9472 108.8561 109.7513 110.6463 111.4951 112.3023 113.0561 113.7676 114.4328 115.0639 115.3200
103.6000 104.0546 107.9858 119.6729 119.0524 119.0233 118.4805 117.8994 117.3700 119.4130 116.4367 115.8206 115.2715 114.0208 113.0451 113.1906 112.4325 111.5718 110.6535 109.6635 108.6016 107.4669 106.4721 105.0102 104.5561 103.8235 103.9650 102.5302 102.4900 107.1545 107.7256 108.9536 109.9823 110.9484 111.8437 112.6738 113.4406 114.1558 114.8254 115.2300
104.2300 102.9163 111.6879 118.4578 115.9890 118.7039 118.2241 117.7483 117.4649 116.5495 116.1040 115.7531 115.1962 114.4835 113.7993 112.8798 112.0705 111.1464 110.1268 109.0054 107.7563 106.3496 104.8583 103.3646 101.8177 101.0194 101.1586 102.8376 100.9547 104.3859 106.8513 108.1705 109.3716 110.4625 111.4443 112.3424 113.1668 113.9227 114.6232 115.1600
111.6400 105.6001 106.7519 113.3948 117.5392 118.5934 118.1125 118.2426 116.2502 116.9455 116.2799 114.8381 123.0727 113.6860 113.4472 112.6783 111.7932 110.8022 109.6996 108.4455 107.0080 105.3588 103.4031 101.1084 98.7232 96.7211 97.2396 99.3946 102.1233 104.3889 105.8832 107.4882 108.8546 110.0576 111.1272 112.0813 112.9522 113.7378 114.4642 115.0900
103.0700 105.4522 110.2680 124.9310 118.1150 119.0939 118.0454 114.7881 123.9716 115.7212 116.1381 115.5996 114.1077 114.2037 113.3626 112.5242 111.5959 110.5551 109.3839 108.0320 106.4433 104.5240 102.1107 98.9873 94.0441 90.0300 90.8177 95.9412 99.9930 102.8987 105.1751 106.9698 108.4800 109.7596 110.8761 111.8823 112.7995 113.6132 114.3570 115.0500
99.1700 101.5419 110.6627 106.3386 115.2231 115.3886 118.0479 117.5439 122.3872 117.4282 116.3729 115.4225 114.9383 114.0815 113.2992 112.4436 111.4940 110.4310 109.2208 107.8154 106.1394 104.0589 101.3295 97.4472 89.8184 85.1698 86.1258 92.5725 98.8153 102.2869 104.7668 106.7039 108.2738 109.6697 110.8755 111.7965 112.7237 113.5505 114.3081 115.0200
115.3000 104.8575 119.7951 96.1755 111.9972 111.0668 118.7685 117.8025 116.1121 116.0915 116.0638 115.4558 114.7702 114.0696 113.2983 112.4431 111.4971 110.4374 109.2268 107.8218 106.1478 104.0708 101.3527 97.4685 89.9341 85.4463 86.1948 92.7105 98.8529 102.3086 104.7755 106.7080 108.2606 109.4293 110.1044 111.8850 112.7200 113.5495 114.3074 115.0000
117.1300 101.3230 107.2364 98.6594 119.9731 112.0705 118.7622 117.7102 117.3467 116.7410 116.1036 115.4982 114.8412 114.1367 113.3657 112.5281 111.6024 110.5706 109.4000 108.0474 106.4733 104.5614 102.1832 99.0997 94.4706 90.3067 91.0031 96.1990 100.1080 102.9952 105.2215 107.0371 108.5240 109.0032 118.6618 111.0693 112.8530 113.6298 114.3613 115.0200
116.9600 103.0407 119.0824 118.6703 119.2323 118.4341 118.2382 117.7670 117.2481 116.7308 116.1807 115.5838 114.9431 114.2524 113.5213 112.6990 111.8066 110.8158 109.7229 108.4710 107.0527 105.4098 103.4907 101.2649 99.0467 97.0350 97.4934 99.6293 101.9961 104.1268 105.8993 107.4359 108.7806 110.1198 111.8600 112.0098 112.9890 113.7568 114.4733 115.0600
127.8700 116.5248 123.2297 119.8395 119.2881 118.7360 118.2910 117.8368 117.3549 116.8326 116.2851 115.7045 115.0879 114.4360 113.6842 112.9306 112.0698 111.1662 110.1592 109.0393 107.8047 106.4451 104.9585 103.4079 102.0132 101.1762 101.3440 102.4109 103.9131 105.4725 106.8313 107.9600 109.5918 110.4394 111.4204 112.3470 113.1723 113.9376 114.6396 115.1000
120.6100 120.4939 109.5740 105.2426 124.6263 118.2873 118.3870 117.9479 117.4732 116.9714 116.4310 115.8688 115.2633 114.5271 113.9018 113.0568 112.4043 111.6046 110.6898 109.7031 108.6595 107.5401 106.4059 105.3212 104.4381 103.9539 104.0380 104.6899 105.6597 106.6872 108.5633 102.8749 109.8593 110.7694 111.9035 112.6819 113.4394 114.1524 114.8428 115.1700
120.6300 117.1816 117.2653 101.8340 112.4267 115.7745 118.4407 118.0987 117.5662 117.0213 116.5687 116.0576 115.5522 115.2012 111.5643 110.4678 112.8504 112.1137 111.2691 110.4165 109.5332 108.6278 107.7637 106.9632 106.3615 106.0499 106.1359 106.4991 107.2003 108.0298 108.6400 105.3057 111.2422 111.4472 112.3256 113.0923 113.8162 114.6416 115.0916 115.2500
98.6600 116.6652 118.8758 113.3158 120.7744 119.7136 118.6392 118.2237 117.8954 117.6511 116.7387 116.3013 115.6787 117.6898 114.9753 115.7262 113.1840 112.5901 111.8852 111.1486 110.4057 109.6727 108.9765 108.3909 107.9709 107.8120 107.3853 108.2326 108.5664 109.1951 109.8773 110.4949 111.8082 112.2061 112.8128 113.5094 114.1512 112.2657 115.3817 115.7600
118.0500 122.2852 121.6215 121.4506 119.3155 119.0110 118.7919 118.2665 117.8357 112.6123 117.2034 116.5127 116.0753 115.3257 113.8573 106.4538 113.6093 113.1365 112.5092 111.8763 111.2517 110.6459 110.1025 109.6349 109.3924 109.1858 105.4709 107.9202 110.1734 110.2651 110.8490 110.5532 111.0671 112.7197 113.3465 113.9423 114.6524 116.4582 115.8769 115.8500
116.0700 122.5398 119.2834 118.6770 119.6668 119.3837 118.9469 118.4095 117.9748 113.2888 117.2106 116.8846 116.4423 115.4483 110.4088 105.2953 114.0516 113.7145 113.1386 112.5654 112.0839 111.4974 111.1342 110.7232 110.5888 111.6479 105.9498 111.0578 111.4505 111.1874 111.7266 112.1297 113.0904 113.3029 113.8592 114.4134 114.9431 115.4071 115.9175 116.4500
99.0400 115.8200 119.9205 119.7565 119.8088 119.5009 119.1125 118.7176 119.0668 119.5357 118.3283 116.6272 116.4172 116.3267 112.5654 115.0497 114.6748 114.1441 113.7812 112.7060 112.2741 112.3870 112.0593 112.1305 111.4307 111.4029 111.1684 112.8726 112.1186 112.2634 112.5279 112.9987 113.4128 113.8978 114.4011 114.8552 115.3128 115.8044 116.3506 116.4500
99.3000 121.2470 120.9584 120.4236 120.0182 119.6573 119.3025 118.9749 118.3425 117.0067 110.9304 121.8660 116.8467 116.5559 116.5272 116.2174 115.4576 114.8709 114.5915 103.8244 112.9732 113.2280 114.5288 109.0365 113.2073 112.2567 111.8937 111.7111 105.3591 112.3636 113.3501 113.6471 114.0475 114.4834 114.8456 115.7927 115.8117 116.1799 116.6570 117.0300
121.3500 121.6088 120.7971 120.4824 120.2085 119.8808 119.5047 119.1639 118.7551 118.3334 116.2130 118.1594 117.2252 116.9288 116.4446 116.0766 115.5177 113.6857 115.9763 113.6326 115.2853 111.6932 114.5481 100.4482 115.5104 116.0173 113.5817 112.2184 104.1058 113.8206 114.0866 114.3166 114.6653 115.0369 115.4537 115.2261 111.9316 117.7301 116.7069 117.1600
121.4000 121.1396 120.9816 120.6248 120.2888 120.0493 119.7055 119.3891 119.0381 118.8305 120.0006 116.7983 117.7223 117.2700 116.8952 116.4863 116.5430 115.9547 101.6962 102.4801 114.6477 116.7467 104.9894 115.1625 113.8093 114.4145 114.2199 114.1294 114.8770 114.4898 114.7377 114.9389 115.2502 115.5693 115.9278 116.4871 113.2981 107.2257 111.9452 117.6000
121.6600 121.4562 121.0100 120.8615 119.7789 119.7049 120.0880 119.6886 119.3272 118.5101 119.5562 119.4159 117.6116 117.7097 117.2833 116.7402 118.3573 101.1763 102.0330 105.1124 115.6539 120.0326 109.9678 116.0291 114.6863 114.7447 114.7600 114.8537 114.7817 115.0693 115.3281 115.5397 115.8018 116.0919 116.3961 116.7570 104.3985 105.5981 116.2071 118.0200
121.7200 119.4470 121.1595 119.7111 108.4454 107.5267 123.9265 119.4927 118.7241 119.6270 109.6717 110.3257 119.0270 117.8346 117.7337 117.3566 115.6417 98.3427 113.8073 117.8037 116.1362 115.4683 116.2031 115.3918 115.4563 115.4131 115.4244 115.4734 115.6895 115.7504 115.8824 116.1238 116.3037 116.5930 116.9567 116.5510 119.1332 116.2921 99.4336 112.7200
104.5400 113.5293 123.6791 102.7569 123.9704 119.5555 120.7319 119.5018 112.0615 120.8959 121.1216 119.7210 118.6674 116.1409 118.0166 117.5486 120.1074 121.6678 95.0858 118.7836 116.4539 116.4977 116.1917 116.1632 116.0821 116.0418 116.0509 116.0994 116.1017 116.3620 116.8838 116.5017 116.9096 117.0714 117.3162 117.6915 116.8573 106.5105 111.7850 118.5400
122.0400 123.2120 119.0740 108.7770 122.6186 113.8992 117.7580 121.2730 119.3877 119.1741 116.4654 119.6310 118.6990 117.5001 118.0129 118.4292 118.5327 116.9939 107.1178 117.5532 116.8564 116.9008 116.8103 116.7008 116.6430 116.6070 116.5856 116.6216 116.8566 116.3878 119.7361 117.3947 117.3263 117.5269 117.7570 117.9602 118.2699 118.4205 118.5472 119.0100
122.0900 122.0900 118.7000 99.5200 121.3100 120.0400 107.1800 120.4800 116.5700 115.8100 119.7800 97.5600 97.0600 97.1100 118.5500 118.2900 112.3600 117.5700 117.8100 117.5000 117.5300 117.2700 117.2700 116.8900 116.9400 116.9600 116.9500 116.9300 116.9000 117.2900 103.9000 117.5500 117.8400 117.7700 118.1000 118.3200 118.5500 118.8400 118.7800 119.0100
