118.2000 118.2300 117.8600 117.8700 117.8800 117.8700 117.8500 118.2200 118.1800 118.1300 118.4400 118.7200 118.6400 118.9700 119.2000 119.4100 119.3700 119.8800 119.8800 120.3200 120.3200 120.5000 120.9600 121.1300 121.3400 121.5300 121.7500 105.3500 122.2900 122.4700 122.8500 123.0000 123.1700 123.3300 123.6600 123.8200 123.9700 124.3000 124.4300 124.5800
117.7600 117.7658 117.7048 117.6576 117.9728 117.3167 117.4390 117.7982 117.8802 117.9926 118.1350 118.3518 118.3197 118.5151 118.9608 119.0640 119.3220 119.3702 119.5342 120.5113 120.3166 120.5437 120.7495 120.9950 121.1509 122.1792 115.6085 116.7848 121.7666 122.3321 122.6872 122.8819 123.1065 123.3219 123.5430 124.1333 124.3040 123.9804 119.4749 124.5800
117.3100 117.2751 117.2076 117.1723 116.9624 120.4286 117.1480 117.3170 117.4582 117.5535 117.7022 117.0977 117.4065 119.3753 118.2174 118.8187 119.0535 118.3327 120.2150 111.5298 119.9820 120.2426 120.4950 120.7683 120.9749 121.7721 117.1939 124.2815 121.7171 122.2382 122.4977 122.7331 122.9643 123.1941 123.3712 123.2196 123.0009 126.4344 116.1733 124.3500
116.8200 116.7495 116.6774 116.6200 116.4504 119.2984 116.4072 116.7860 116.7273 116.9055 117.0869 119.6649 99.1438 111.5551 119.4570 118.1255 118.5165 118.6000 120.7799 121.1869 119.6421 120.0087 120.2635 120.5279 120.8117 120.9980 122.2502 122.4593 121.8531 122.0977 122.3461 122.5846 122.8245 123.0647 123.3229 124.0800 129.6956 111.6255 110.9702 105.4400
116.3100 116.1939 116.1095 116.0522 115.8745 115.7384 116.2114 116.0708 121.0150 115.7233 117.3087 119.6901 101.7252 100.5495 114.2116 119.2440 118.9689 118.6102 115.4815 118.9556 119.4747 119.7288 120.0161 120.3275 120.4584 120.8619 121.0440 120.9717 121.6980 121.9438 122.1962 122.4374 122.6855 122.9249 123.1511 122.9116 112.7862 119.3221 114.6886 105.4400
115.7700 115.6082 115.4971 115.4319 115.4403 115.4798 115.5685 115.1702 115.4644 115.9218 115.4207 118.7695 94.5351 101.0593 99.9852 100.5970 116.0290 118.5262 118.5530 118.8721 119.1456 119.4740 119.7622 120.0503 120.8000 118.1008 121.0441 120.9115 121.5684 121.7776 122.0477 122.3015 122.5599 122.8048 123.0675 123.7724 124.6744 124.3031 122.8832 124.0800
115.1800 114.9681 114.8494 114.7723 114.7593 114.7875 114.9239 115.0683 115.2207 115.5304 112.6998 98.9626 102.5003 118.0219 104.0254 96.5170 103.8792 108.0128 118.8162 118.5019 118.8829 119.2161 119.5751 119.7487 120.4521 109.6386 115.2757 121.4021 121.3816 121.6343 121.9016 122.1725 122.4328 122.6838 122.9453 123.1960 123.3849 123.6389 123.8868 124.0400
114.5500 114.2908 114.1499 114.0647 114.0402 114.0765 114.1717 114.3203 114.5132 115.3050 114.9782 111.9017 114.9698 117.7069 103.7843 103.7818 108.1172 111.8972 118.1488 118.2646 118.6350 118.9262 119.3622 120.6511 119.3070 121.3842 120.8568 120.2048 121.4108 121.5164 121.7642 122.0447 122.3111 122.5619 122.8065 123.6761 122.3482 123.6820 123.7823 123.9900
113.8600 113.5542 113.3868 113.2829 113.2608 113.3008 113.4306 113.6144 113.8469 114.1049 111.8289 112.2101 115.2084 110.5330 106.2537 104.2193 99.1139 105.7877 117.9524 117.8811 118.2038 118.1876 118.4819 120.6494 101.5298 117.7364 114.5609 109.1580 120.8053 121.3070 121.6335 121.9157 122.2002 122.4035 122.7468 122.9843 123.2456 123.4803 123.7393 123.8200
113.1400 112.7516 112.5541 112.4333 112.3962 112.4594 112.5931 112.8041 113.1116 113.3573 114.2902 114.0059 109.0438 101.6767 99.9377 101.6371 110.6791 112.9076 117.6858 117.6862 118.9176 120.7266 119.6341 112.2078 99.7327 113.7981 110.7431 110.9148 122.6093 121.7889 121.4584 121.8046 122.0986 122.3795 122.6383 122.9018 123.1383 123.3577 123.3187 123.7900
112.3300 111.8829 111.6401 111.4854 111.4457 111.4674 111.6560 112.0185 112.3238 112.7820 114.5941 111.8418 94.2144 101.7499 100.3942 104.0443 109.5131 117.2437 116.9086 117.8154 115.1807 108.5811 110.4781 106.4405 115.2180 119.4488 116.4012 117.0961 121.1236 121.1952 121.1164 121.7118 121.9893 122.2741 122.5569 122.8199 123.0921 123.4319 124.8975 123.7600
111.4300 110.9245 110.6206 110.4287 110.3546 110.9822 111.2063 110.9618 111.4132 112.0291 111.4397 96.2471 114.0680 105.3339 101.4767 93.8516 111.6250 116.6445 116.2850 121.2646 102.7640 103.3473 99.5652 111.8121 108.4410 120.7771 121.1038 112.9413 117.5801 120.7687 121.2231 121.6091 121.9034 122.1845 122.4379 122.6831 122.8711 122.4518 113.2399 123.7100
110.4200 109.8652 109.4736 109.2198 109.1497 110.8057 114.1728 109.6602 110.4598 109.1714 117.0734 104.8581 106.0766 110.6058 108.0912 108.9724 115.9670 115.6920 116.0932 121.0341 98.7815 115.8583 113.6480 109.3170 104.9823 119.6497 121.6244 123.1425 123.4381 121.6322 121.2279 121.5025 121.8260 122.1147 122.5120 123.0088 122.4797 124.1497 109.4697 123.7100
109.2700 108.6859 108.1637 107.8244 107.6972 107.4030 108.9132 108.8229 109.8542 109.1981 109.7488 112.6214 111.7875 112.6333 114.3493 115.5805 115.3011 115.6297 116.1881 117.5349 113.3209 116.0441 111.4189 103.4106 109.2932 120.9387 113.9511 113.3966 106.9653 122.4648 120.9499 121.4291 121.7388 122.0331 121.9497 121.3800 122.5956 128.9940 110.4689 108.9200
107.8500 107.3539 106.6425 106.1699 106.0617 106.2845 106.7728 107.5922 108.3097 109.7364 104.3151 110.8869 111.6700 112.7554 113.3888 113.9807 114.7144 115.3605 116.0040 116.4686 117.1512 117.1201 101.2032 109.9641 103.2241 121.7790 117.7733 119.8528 117.4009 120.7574 121.0608 121.3485 121.7131 121.8965 124.5172 129.6575 107.4761 108.3159 104.2205 114.1400
106.2900 105.8547 104.8621 104.1393 103.9118 104.2760 105.0979 106.1415 107.2939 108.4213 109.2705 110.6596 111.4004 112.2542 113.0706 113.8131 114.4938 115.1392 115.7502 116.2839 116.8407 118.0709 116.1099 121.1190 93.6677 121.3173 119.3924 120.0574 120.5139 120.6469 120.9932 121.3573 121.1580 123.7385 107.7569 113.1104 108.2405 107.5924 118.5495 112.5200
104.6500 104.2217 102.6920 101.4944 101.1288 101.7490 103.0849 104.6123 106.1262 107.4939 108.7939 109.9641 110.9299 111.8998 112.7526 113.5426 114.2737 114.9452 115.5772 116.1602 116.7473 117.2930 116.9256 112.8105 94.2117 120.8065 119.0347 119.8821 120.2339 120.6074 120.9327 121.3955 121.2832 124.3811 110.8367 108.0624 107.3080 121.8714 124.0954 112.5100
104.1500 102.4579 100.1205 97.8625 96.8357 98.3627 100.7140 103.0175 105.0059 106.6878 108.0840 108.2607 110.5646 111.6198 112.5133 113.3374 114.1567 114.8105 115.4421 116.0263 116.6915 117.9605 104.4960 96.0324 115.7775 118.7381 119.4798 119.8021 120.1633 120.3015 120.4547 119.8481 109.2716 121.7133 107.7332 108.6572 112.9933 121.2521 114.6152 113.7700
101.9600 100.7695 97.1500 91.8109 90.0236 93.2252 98.2480 101.5651 104.1347 105.8935 106.7776 106.3408 110.2265 111.4322 112.3101 113.1072 112.9952 114.6967 115.3413 116.0847 116.2246 115.0893 115.6200 105.1441 119.7337 119.0922 119.4036 119.7888 119.2843 120.3246 118.0137 107.4413 115.6769 107.1726 125.5489 112.0111 112.2700 112.6844 115.5207 113.7800
101.6000 99.6533 94.4685 87.0000 84.9502 88.3709 96.2937 100.6269 103.5583 105.5949 107.8952 109.2375 110.2123 111.3055 112.2285 111.1685 111.3507 114.7594 115.3068 115.4329 116.8254 117.8783 101.3555 119.9903 117.8333 118.7236 119.2422 119.7093 120.2146 120.4271 122.2172 133.2169 110.2586 111.8968 99.5250 110.5554 117.2741 111.4496 112.4221 114.7600
101.4800 99.6384 94.5183 86.9928 84.9596 88.3906 96.2753 100.6074 103.5434 105.7290 107.3601 108.7836 110.1879 111.2843 112.1887 113.1146 112.8473 114.3973 114.9611 119.3198 111.1891 109.8700 102.1106 110.0204 119.5682 120.1148 120.0598 119.6749 120.1239 120.7239 119.3554 125.5555 116.6005 114.5587 112.4974 110.7444 112.7576 119.7897 117.7107 114.7400
103.7500 100.7143 96.6757 91.7551 89.7292 92.8752 98.2501 101.5207 104.0664 106.0755 107.7386 109.1414 110.3240 111.3798 112.3378 113.2129 114.2096 114.7781 121.6786 128.6474 104.2665 101.8929 99.9736 101.9387 113.7005 110.6083 112.9910 119.9279 120.0554 120.3221 121.0545 121.1761 121.9192 124.3805 127.4858 123.2549 110.1257 110.3204 125.4352 109.9100
104.1500 102.3891 100.0023 97.6415 96.5980 98.1838 100.6202 102.9607 104.9699 106.6841 108.1591 109.4344 110.5780 111.6151 112.5296 113.0939 113.6095 115.3972 106.7376 106.1169 113.2752 105.8312 111.0474 107.9234 106.0209 116.1615 119.0548 119.0901 120.3269 120.7613 121.7489 120.4236 122.0400 118.7846 119.9349 126.5513 101.7683 100.5513 114.9711 123.4300
105.9400 104.1080 102.6181 101.3640 100.9695 101.6262 102.9932 104.5610 106.0811 107.4849 108.7692 109.9198 110.9801 111.7813 112.6115 113.7154 115.2949 114.6174 124.3234 121.3505 114.8577 95.7546 99.8137 101.8722 106.1302 109.6619 118.2863 120.0226 120.6845 119.8330 118.4322 123.8276 124.4739 107.6495 110.9492 104.4090 105.8423 108.5745 118.6219 123.4300
106.1800 105.8081 104.7635 104.0250 103.7994 104.1793 105.0236 106.0966 107.2501 108.3761 109.4433 110.3985 111.3210 112.9163 113.3946 114.0675 98.7462 114.4825 116.6828 118.3068 117.2293 115.6435 116.0328 118.4743 101.3373 107.0086 117.7828 119.5949 120.4045 121.2570 106.5459 99.6300 104.7752 106.4541 115.8505 111.3436 114.2485 112.6533 113.1130 119.5200
106.4000 107.2921 106.5688 106.0858 105.9425 106.1761 106.7335 107.5369 108.3998 109.3397 110.1306 110.9054 112.0327 112.6631 113.3408 114.1354 114.9959 115.7257 115.8891 116.4948 117.0073 117.4378 118.3880 117.7515 118.5618 119.4540 119.6534 119.7665 120.4062 120.9110 119.2860 126.4557 116.2917 115.8647 104.7161 101.1815 102.3714 103.2262 115.4344 115.5000
109.1900 108.6581 108.0886 107.7517 107.6535 107.8271 108.2510 108.5064 109.4747 110.0892 111.3641 105.5176 109.1923 113.2331 113.7660 114.4103 114.9270 115.5114 116.0612 116.8585 117.4772 117.6061 113.8793 101.9534 120.8640 119.0270 118.7620 118.7956 120.4829 120.9911 119.4823 121.3209 111.5445 107.4988 111.5650 114.3774 122.4997 112.3437 113.3046 111.7000
110.3600 109.7473 109.4384 109.1667 109.0873 109.2153 109.5169 110.0197 106.3045 110.8399 112.8815 112.8499 113.6093 113.6294 114.2133 114.8019 115.4069 115.9331 116.5379 117.0762 115.6649 120.5502 130.2568 106.8360 120.3142 119.7511 111.0873 116.5510 120.0911 122.5847 106.4509 109.0874 99.9302 103.3411 114.4167 103.7211 111.9090 112.2413 115.8675 112.7200
111.3800 111.0534 110.5073 110.3801 110.3175 110.4106 110.6399 111.0731 111.5652 109.8403 112.7076 112.6624 113.4165 114.0712 114.6534 115.1841 115.6884 116.1796 116.1869 115.4198 101.0487 112.2879 110.3447 110.2916 118.4537 119.5183 113.1649 111.6401 122.7981 121.3945 125.5229 105.1751 120.4439 104.5264 111.3438 105.9074 113.9302 113.5169 111.5718 113.1800
90.2900 112.9192 111.4116 111.4488 111.3990 111.4681 111.6402 111.7470 113.0244 93.9471 109.5827 113.7898 114.1062 114.6150 115.0862 115.5752 116.0663 116.4164 116.9102 116.1658 109.1995 91.8435 95.5659 113.2828 119.9747 120.1319 121.5958 121.9067 111.2317 128.1915 117.3205 104.8214 120.3752 108.5953 110.0323 122.8972 117.1866 108.2464 114.9150 105.5700
91.1100 111.3059 112.5526 112.3856 112.3549 112.4076 112.5733 112.8368 111.7436 89.0792 118.2915 114.0887 114.5194 115.1618 115.5149 115.9731 116.4377 116.9448 117.2754 117.3898 118.9416 92.3006 114.2251 103.5047 105.8999 116.6956 121.0625 123.3169 107.1717 114.7127 103.8507 105.1328 111.3300 111.0629 114.2861 126.7773 117.4543 116.2123 115.7637 125.0500
113.8500 114.2357 113.1329 113.2620 113.1889 113.3115 113.3786 113.6941 111.5236 89.1451 115.0140 100.1907 114.6741 115.4204 115.8563 116.5820 116.7909 116.9625 117.3523 117.8988 120.0737 115.7015 110.7204 102.8483 102.5678 107.1380 121.5700 115.9769 112.7290 102.0144 102.0918 103.2429 115.0993 106.7857 111.3899 113.9588 113.9895 107.1021 115.5787 119.8100
114.5300 114.1077 114.1612 113.9928 114.0167 113.9738 113.9758 114.3083 115.6245 110.4750 102.4506 105.3980 110.1033 116.5429 115.5746 116.4224 118.5976 120.1396 118.1735 118.6690 119.5735 120.7308 113.4037 112.5698 103.8894 104.7255 112.2792 108.0001 111.8359 101.4808 112.3570 111.1962 109.8542 119.1499 117.8985 122.8931 119.7892 101.2290 103.1561 101.9600
115.1500 114.9490 114.6512 114.9231 107.1929 116.9583 108.9806 115.1889 116.9018 113.4989 101.2971 103.6787 104.7598 112.7157 91.6985 120.2430 120.8918 104.3308 107.3960 120.3405 111.9562 108.6557 114.7659 109.0729 104.0783 106.4763 107.7717 108.9747 109.1392 108.8157 100.2276 103.3598 121.6800 123.2085 124.6655 124.7712 109.7951 127.3614 109.3830 101.9900
115.7300 115.7732 115.5290 115.5214 117.2162 97.1080 94.2142 115.8132 115.7558 116.1464 118.0004 104.1928 118.6779 116.1324 113.0160 116.7598 118.0860 117.2188 119.7160 108.4081 97.1791 107.5683 98.8225 105.9431 102.9398 109.4444 112.3857 108.7107 109.3070 108.8280 109.1627 111.8201 113.3848 123.4689 112.3131 110.8868 116.0182 106.9823 102.8500 107.6500
116.2900 115.0378 115.3084 116.0160 116.3751 113.3473 111.1514 111.4633 115.5731 116.5670 116.2579 116.0918 117.3427 107.8862 116.1715 117.9796 118.7239 116.6283 117.4250 116.5791 100.2956 105.6234 111.5335 101.9195 101.5278 103.1850 103.1648 105.3743 108.6476 109.4676 109.8803 111.9047 101.7245 118.7256 115.7568 122.8421 123.3517 122.4882 114.5544 113.7800
116.8100 124.5133 117.6503 116.5349 119.5770 93.0101 102.6070 112.3752 115.9711 117.1144 117.2254 117.3281 117.7183 117.8046 118.7284 118.4498 118.9654 119.2235 114.0568 105.3948 110.9852 105.8328 103.7954 102.5332 116.9228 122.8910 120.0071 106.8440 112.0405 112.3153 109.9292 110.3969 116.4711 114.8712 114.7867 114.9475 117.3139 103.7832 117.6485 116.2300
103.9100 97.7280 118.3616 117.6759 109.3968 99.5212 101.4903 116.0630 118.3414 118.0015 117.7443 117.7592 118.1020 118.3608 118.7256 117.4165 105.0435 119.8209 105.8072 110.1759 101.3939 114.9499 124.6606 107.6696 110.6175 122.1004 117.7097 114.9263 118.1006 110.2779 108.9625 112.2568 108.8822 112.8929 112.0758 114.2446 114.7177 108.9830 120.4069 124.4400
117.7500 115.6373 117.6852 116.6794 102.5856 97.1035 106.2805 118.6370 118.3455 119.5773 117.3497 118.7684 117.9038 118.6901 118.8361 119.0702 109.9373 107.6246 106.8273 107.3824 106.1585 113.0973 121.6058 120.9781 120.9088 121.6069 121.8154 121.9679 122.1179 111.4764 108.6645 110.6044 101.4097 113.1028 112.8176 112.9231 112.7150 114.8089 123.9963 124.4700
118.1900 118.1900 117.8500 117.8700 117.8800 96.1200 98.8400 112.6400 118.1600 118.1100 106.2500 105.0000 118.6300 118.9100 119.1300 120.3000 105.3600 112.3400 108.7400 101.6400 120.4400 120.6900 120.8600 113.3000 113.4000 121.6600 121.8500 122.0400 122.2200 109.1300 110.7200 100.9300 101.1000 112.2500 113.0100 113.3300 114.1600 114.6000 115.0500 124.5100
