108.4600 108.8500 106.8200 106.2600 107.6300 102.2800 100.4900 100.8100 103.0800 102.8400 111.3000 128.1000 124.2800 121.8100 120.1000 119.6000 119.3300 118.7800 118.4900 96.1900 119.2200 110.0900 116.8900 116.5400 115.7900 94.5000 93.3900 101.3700 99.7600 97.7100 97.7100 96.4000 112.3100 112.3100 111.6800 111.7700 110.9300 110.8900 111.7500 111.6500
108.4600 112.3371 110.0273 108.5057 103.5468 99.2566 103.5904 107.2383 110.9040 102.6862 106.2305 128.3068 128.1867 121.3418 120.1137 119.6654 119.5647 120.1928 122.0991 100.8849 117.5504 111.8349 116.8380 116.2511 114.9886 113.2396 97.0361 91.3699 105.8094 98.0110 105.0292 101.0280 107.7102 111.5641 110.9176 110.7302 110.6475 110.7045 110.8888 110.7000
108.8100 111.0077 111.2862 108.2777 103.5406 103.8535 112.3247 104.1507 112.4098 100.6145 102.4642 125.7737 108.8120 119.9874 119.7779 119.4403 120.0335 107.9738 105.4468 116.5901 111.8810 119.2435 116.7318 115.7922 115.6083 95.2654 110.6025 94.4124 90.7520 96.5685 115.3959 105.1581 105.7135 110.4100 109.8738 109.5632 109.4675 109.5371 109.7816 109.6100
115.3400 111.5572 110.3559 106.1327 104.3323 102.8391 101.5644 99.9912 99.4910 104.0060 104.3019 120.1535 109.1427 122.9575 121.1643 119.2383 119.2523 111.4653 106.7970 112.3737 114.8705 113.5748 116.1256 115.7241 115.1811 106.7880 104.0721 111.6233 102.9596 93.6511 111.1749 111.1098 109.8178 109.1136 108.5776 108.2398 108.1013 108.2015 108.5221 108.3700
115.3800 111.1329 110.7666 107.8637 109.6941 104.8734 112.3009 116.4844 116.0551 118.1923 113.5638 118.4044 114.7435 99.6213 120.6330 119.1615 118.8465 119.3994 117.9283 115.9997 115.9256 116.9947 115.9777 115.4409 114.8641 113.4720 108.0841 102.5062 111.8956 110.1626 112.9785 109.5536 108.5748 107.8634 107.1663 106.6739 106.4746 106.6212 107.0604 106.9700
111.3100 109.0900 107.0343 106.6297 104.1833 105.1950 99.7449 126.9811 117.2343 122.1490 120.0698 120.8871 119.6359 117.6176 114.3351 119.1041 118.5387 118.2215 117.4841 117.3917 116.9350 116.2451 115.7257 115.1326 114.5125 113.8361 113.7630 109.0989 111.4739 109.0184 107.6344 108.5597 107.5493 106.4603 105.4965 104.7911 104.4765 104.6986 105.3586 105.1200
113.3500 110.4001 108.3611 104.5694 102.8035 110.4560 118.3720 104.9506 122.6559 121.6505 120.9254 120.6028 119.4312 119.9068 106.2419 119.8121 119.4844 118.1637 117.7558 117.2539 116.7173 116.1800 115.5882 114.8088 114.6847 114.2914 112.0210 117.0915 110.5856 109.9501 108.9279 107.6459 106.3476 104.9338 103.5481 102.3910 101.8743 102.2494 103.3254 105.1200
107.0800 106.8744 107.4204 105.0307 105.3668 113.5521 117.6939 114.3447 123.0381 112.8835 121.5005 120.6228 119.6300 117.8120 94.7266 118.6121 105.4672 118.4432 117.7817 117.1355 116.6161 116.0563 115.4696 114.3031 113.3519 103.0739 112.7397 111.7737 110.5503 109.4961 108.2552 106.8343 105.1900 103.3107 101.2161 99.3295 98.1781 98.9409 100.8697 102.6200
109.0500 110.0671 107.5087 106.6569 105.8137 112.4945 116.2564 108.1526 118.5680 121.1281 121.0699 120.6408 119.7189 118.1115 111.6741 116.0956 115.4117 118.0129 117.6895 117.0715 116.5333 115.9465 115.2858 114.9497 114.6983 113.9796 112.2554 111.4678 110.3512 109.1179 107.7548 106.1289 104.1821 101.7672 98.7273 94.2858 91.6168 93.6943 98.0843 99.8500
110.9600 110.9365 101.1271 103.9213 104.0579 113.4458 116.6962 117.0404 122.7801 120.8620 120.8028 120.1728 119.6612 119.2642 119.1947 118.4655 118.4335 117.8897 117.6032 117.0400 116.5417 115.9899 115.1809 114.6680 108.6808 109.6062 111.3001 111.2601 110.1544 108.9037 107.4533 105.7029 103.5210 100.6080 96.3706 89.0032 85.8202 88.0258 95.3348 99.2500
103.4000 100.8675 104.1440 104.1723 104.8958 115.4896 117.7654 116.2372 121.2439 121.2584 120.7970 122.3074 122.1755 121.2710 121.1917 120.0634 118.5452 118.0515 117.5516 117.0383 116.3277 115.5655 114.3814 115.7429 87.6314 95.2177 103.8717 111.8674 110.1362 108.8578 107.3859 105.6101 103.3765 100.3400 95.7846 87.5802 84.1408 86.5917 94.5710 98.9800
103.4000 108.4816 105.7779 106.5350 102.1360 111.4687 116.7949 123.0585 121.4002 121.1554 121.7049 106.6892 109.2626 105.2665 109.1896 115.8721 118.4680 118.0630 117.5608 116.9940 117.4538 117.4247 117.5389 115.8224 103.5625 105.8984 109.5896 110.4266 110.2490 108.9983 107.5674 105.8719 103.7769 101.0686 97.2931 91.3131 88.2074 90.3124 96.6289 99.4500
108.6400 111.8567 107.5080 106.1543 104.8179 115.2437 114.5769 122.5340 121.4903 120.9730 120.9310 113.1522 110.1473 111.8438 96.0935 117.7189 119.0957 118.0688 117.5589 117.7644 107.1782 105.1802 103.4670 117.8949 115.4037 114.2387 112.6672 111.3110 110.4427 109.2952 107.9688 106.4325 104.6275 102.4624 99.8920 96.9215 94.9515 96.4851 99.4947 102.3800
101.6100 102.5024 102.2336 103.8777 113.8163 115.7481 121.5270 121.4184 121.6595 121.1581 122.9217 103.5449 113.5671 105.3738 120.3103 108.9236 120.1370 117.9975 117.5184 118.4963 94.9695 91.1417 119.5604 115.0730 113.9383 113.2204 112.6590 111.7900 110.7987 109.7235 108.5352 107.2095 105.7219 104.0536 102.3730 100.8363 100.1096 100.6436 102.0829 102.7100
109.8300 110.3870 100.5221 102.1194 115.5094 112.5512 119.7786 121.7964 121.5967 121.2375 120.9235 115.6859 114.8190 93.1106 114.6595 104.7336 119.2548 118.0457 117.7126 117.8076 113.5533 112.6323 118.6503 115.4679 114.4568 113.7359 112.9146 112.1107 111.2221 110.2634 109.2214 108.1001 106.8976 105.6725 104.4903 103.5721 103.1718 103.4671 104.3185 104.8200
108.7700 107.5974 101.2127 115.9659 109.1406 124.6302 120.3088 121.9978 121.5433 121.3698 121.4722 117.7529 119.8314 118.2288 119.2089 118.8735 118.8457 118.3413 117.9108 117.5522 117.3301 116.7069 118.1210 115.0220 114.5149 113.9083 113.2847 112.5371 111.7263 110.8527 109.9611 109.0172 108.0505 107.1233 106.3031 105.7054 105.4564 105.6346 106.1954 106.8500
111.5400 110.7677 104.1933 106.1018 104.3525 103.2776 120.6277 121.2652 121.5495 121.4608 121.1867 120.0213 119.8737 107.0812 113.4359 120.1312 118.8128 118.4699 118.0580 117.5964 117.1839 115.9374 115.9661 115.8310 114.6520 114.2917 113.5391 113.0101 112.2122 111.5327 110.7112 109.9444 109.1682 108.4512 107.8487 107.4298 107.2648 107.3860 107.7727 108.3300
104.3700 105.1149 103.6744 102.5332 102.5206 117.8189 121.9489 120.9656 121.8504 121.4791 120.9807 120.6297 121.6483 121.5409 119.2671 119.3635 119.0733 118.6307 118.2058 117.7847 117.6083 117.6344 116.5987 109.6590 104.1377 112.5186 114.3265 110.2919 113.7379 112.0635 111.4824 110.5838 110.1209 109.6556 109.1871 108.8768 108.7563 108.8473 109.1260 109.5800
118.5500 112.6101 117.2587 105.1439 123.6517 115.4795 121.9842 116.4474 121.7535 121.1918 112.2920 121.3011 120.5933 119.7897 116.9134 120.1136 119.2237 118.7786 118.3778 117.8155 117.0892 112.0100 107.7554 117.1541 115.5412 100.4496 115.4318 92.9399 114.1383 112.6593 112.3385 111.5827 110.8205 110.7122 110.3580 110.1233 110.0299 110.0998 110.3112 110.6700
121.7000 108.1685 121.7703 115.9686 122.5724 121.9631 123.6172 123.0790 122.7218 121.0755 113.1397 121.2437 117.5821 121.6771 118.0989 120.9409 119.0684 118.9490 118.6717 119.6672 105.1859 93.8585 97.6471 118.6221 117.8170 116.1549 115.9596 114.3574 114.7385 113.3040 112.9559 112.5205 112.0508 111.6848 111.3950 111.2132 111.1409 111.1931 111.3635 111.6300
121.7000 111.2664 117.7512 111.3786 115.8327 120.3823 122.4520 122.9115 110.3984 116.2181 122.7154 121.0871 111.9918 122.2328 103.7994 122.6252 119.2577 119.1724 118.5192 118.2465 100.7991 101.5736 96.7235 117.5329 109.0426 110.1598 116.5916 108.2508 114.9650 114.0460 113.6995 113.2161 112.8725 112.5653 112.3351 112.1841 112.1288 112.1697 112.3038 112.5000
102.0700 101.6614 114.1547 101.5328 115.0177 119.8429 122.6150 123.1666 107.7707 118.6862 121.4194 121.4115 118.5609 120.6743 121.4912 119.8087 119.7734 119.3962 119.0338 116.7069 115.4727 100.6570 100.0824 90.3621 96.2666 104.8927 105.1537 104.5379 115.3824 114.4209 114.3223 113.9307 113.6321 113.3911 113.1690 113.0510 113.0117 113.0467 113.1525 113.2800
112.4000 104.1875 104.8506 105.9168 114.5618 115.5797 123.1138 123.1742 123.3476 123.4975 119.1864 121.5663 120.7937 120.4632 120.0772 120.1323 119.8992 119.5474 119.2007 120.4199 117.8965 97.9329 99.6725 95.1634 94.3330 104.6715 104.0334 117.0277 116.7159 115.3327 114.7921 114.6130 114.3605 114.0137 113.9886 113.8605 113.8158 113.8498 113.9354 114.0000
110.8300 106.8723 117.7689 115.7873 121.9541 123.9741 122.6460 122.5601 122.2034 121.9442 120.8042 121.6980 122.4809 123.7093 122.3395 120.4238 120.0867 119.7682 119.2400 120.4010 97.4325 95.3505 96.2911 107.4254 97.8596 115.6018 113.7690 117.1966 116.7582 115.6987 116.3255 115.1283 115.4771 115.3531 114.5679 114.6012 114.5512 114.5744 114.6502 114.6600
121.8800 105.2996 115.9361 117.8922 129.4742 123.5938 122.9775 122.7697 122.5463 122.3713 121.5571 123.2825 102.3004 103.0446 110.1863 120.9628 120.2071 120.0006 119.6395 119.7242 114.2480 118.0972 98.6550 101.0075 94.9891 118.2232 116.6604 116.1474 116.3529 106.7865 109.4132 115.7635 109.3296 112.3068 115.1863 115.2807 115.2265 115.2531 115.3151 115.2700
119.9100 110.7702 124.1113 123.6914 123.7026 123.1747 123.1938 122.8860 122.6456 122.3912 122.1498 122.1311 121.1388 120.5273 118.9438 120.9548 120.5078 120.2083 120.0186 119.3389 120.7128 118.6931 98.5690 103.1298 121.3032 117.0037 117.6339 117.0942 117.7988 115.9996 112.2184 109.9389 115.0527 116.3295 115.5502 115.9215 115.8674 115.8767 115.9356 115.8500
111.3300 118.3213 124.5897 124.0699 121.9547 124.8622 122.9236 123.0563 122.7795 122.3648 123.3685 113.0645 122.4153 121.4908 121.2612 120.9425 120.7387 120.4527 120.1905 120.2264 114.2989 98.7996 97.6915 112.7115 118.8865 116.4471 122.8562 116.8840 117.1936 115.8902 109.6913 97.8816 119.2944 116.3215 116.5593 116.4639 116.4423 116.4641 116.5093 116.3800
118.5200 124.6573 121.0369 123.3879 109.4789 125.3380 123.3013 123.0841 122.9028 122.6945 122.5456 122.4449 122.0160 121.6137 121.3300 118.8927 121.0906 120.6975 120.4586 119.8906 122.2607 104.3557 114.3995 119.8349 106.7669 104.6491 105.4425 116.2165 117.0944 119.4333 104.0435 107.1245 116.8812 117.2160 117.0425 117.0103 116.9306 116.9564 117.0615 116.8900
124.6200 123.2160 105.4554 120.6182 125.0391 123.4745 123.6234 123.2818 123.0992 122.8945 122.5132 122.0952 122.0598 121.8444 122.6506 122.7257 121.4093 120.7513 120.6558 120.6379 120.0312 119.6954 121.5469 118.9140 118.5636 109.3976 95.6128 119.8858 118.1947 116.6166 106.4349 119.8566 117.2855 117.6639 117.5745 117.5383 118.1511 118.1948 117.5153 117.8200
114.8800 109.1328 128.1373 124.2361 123.8177 123.8466 123.6186 123.3792 122.8437 122.7901 123.1269 124.0910 122.1121 122.7701 116.6080 130.8412 116.4707 121.3644 120.8992 120.9053 117.9965 122.2517 123.0264 119.4430 120.2249 119.4051 118.1550 119.0579 118.1563 119.1452 118.3370 117.8767 118.3536 118.1077 118.0564 118.1124 115.2336 111.1352 118.9449 118.2500
114.4800 113.9954 124.4689 123.8637 124.2560 123.7510 123.4727 123.3842 126.1537 122.8879 120.2609 117.3952 122.2892 123.1854 113.4399 129.0362 122.9811 122.9220 120.9351 120.9178 121.1100 120.5519 106.8539 115.4048 119.0867 117.4372 117.5538 117.2587 123.2028 120.2068 119.3036 118.8013 118.6241 118.5685 118.5101 118.6649 113.7595 111.8464 118.4783 118.6600
103.8800 129.9098 128.0433 125.1363 124.3918 124.7010 124.8035 123.5539 126.2247 123.8274 123.4677 114.2651 124.3727 119.7617 121.6326 116.7668 123.1369 115.8609 122.4643 121.5750 121.2398 120.4210 101.6759 112.9052 121.6428 120.2631 117.7520 100.0673 121.8524 103.9427 119.3843 119.1317 119.0708 118.9920 118.9113 119.1803 120.7085 106.2588 119.3040 119.0500
125.1000 108.6138 125.9859 124.2991 123.8097 125.8001 107.3200 125.3352 123.1186 122.7031 112.8802 116.4228 118.9596 97.2368 121.5196 123.1176 119.4652 100.6222 122.0115 117.5734 120.7226 113.6147 97.9975 106.1175 114.4182 106.2669 121.2551 120.5605 121.5726 116.1651 120.9067 119.5574 119.4605 119.4283 119.3991 119.6279 119.3694 116.0718 119.2436 119.4200
120.6100 121.8473 124.7054 124.3023 123.4321 115.1967 121.3243 124.2527 123.8452 123.6927 106.5807 105.4568 123.4189 124.6702 118.5020 103.3153 112.8003 100.2643 120.8955 123.3574 104.1431 97.1035 103.4589 105.4404 99.3539 109.4823 121.8803 120.3008 120.0472 120.3596 119.9169 119.9101 119.9035 119.6055 115.9054 116.5621 119.4721 119.9490 120.0296 119.7800
125.3200 125.3760 125.0479 125.0278 125.2533 121.8350 124.3828 124.1030 124.1865 120.4940 118.0729 121.1013 123.6725 123.6761 120.4033 99.9331 121.0921 120.4664 104.5856 119.4812 98.6747 104.1830 103.3061 100.8164 98.4215 120.5705 120.5316 120.7408 120.6220 120.5390 120.2606 120.4337 120.1651 120.7733 106.5033 119.7350 119.8076 120.1169 120.1107 120.1200
125.3600 125.3912 118.5099 123.8441 123.6814 124.7336 124.4015 124.2616 124.2671 121.9622 124.5042 124.8381 123.3064 123.1667 123.7398 122.3619 122.5628 122.3457 119.2146 103.0555 98.9634 104.2434 99.1925 106.9958 120.9227 122.4049 120.9540 121.0271 120.9617 120.6325 121.1407 117.8542 118.0484 118.6009 106.7815 116.2582 119.8245 120.5565 120.4949 120.4500
125.5400 114.2278 126.5054 124.2286 114.7220 116.0780 124.9859 123.8707 124.2560 123.8689 130.3079 123.5746 123.4922 123.5728 123.2380 123.0671 124.5944 109.2986 105.0642 104.1751 108.7957 118.3837 101.4693 111.7628 121.5025 121.3086 121.5176 121.3118 121.1342 121.4058 105.0445 120.2538 112.7062 121.2649 92.8735 117.2680 120.3033 120.9089 120.8533 120.7700
103.5800 110.0683 113.4307 104.5831 115.2629 122.5820 125.9279 123.2690 124.7223 125.2248 122.4620 116.7204 124.4272 123.5494 121.9772 122.9237 122.8823 126.4983 108.7661 101.6728 115.9127 106.5743 110.6816 123.7679 122.4802 121.8504 121.7489 122.0907 119.9552 120.8828 110.1873 100.6454 125.0383 121.5823 102.3423 119.7708 120.6967 121.2276 121.1850 121.0800
118.2900 130.1397 108.2108 113.5833 125.5599 116.7341 121.6310 119.7311 123.9977 120.7487 108.5415 103.0280 120.4571 121.9754 124.4071 125.5900 122.5092 116.3559 104.5018 114.8225 124.5113 124.3790 124.3526 122.6166 121.7703 122.1739 122.0664 121.9676 118.1128 122.1310 100.8802 99.0477 109.0890 123.3396 123.5717 121.5201 121.5025 121.5001 121.5023 121.3800
125.8000 125.8000 125.6900 126.9000 125.3000 126.5100 114.3800 105.1000 114.0800 103.5400 103.1300 103.1000 115.9300 111.3600 123.8100 123.6700 111.0600 115.8700 106.3300 122.9200 122.9600 122.7600 122.6200 122.4600 122.4600 122.3100 122.1500 122.2000 122.0100 122.0500 99.8300 100.9700 121.6300 121.6500 121.6700 121.6900 121.6900 121.6900 121.6800 121.6700
