112.4600 107.5100 110.2300 101.7000 107.0000 107.8800 110.4100 111.4800 110.2700 108.8900 108.0800 109.0600 124.9300 117.3100 119.8100 119.2700 118.9900 118.3900 118.0700 100.5200 97.5300 119.0900 115.8900 115.4700 114.5600 114.0700 125.6700 112.3900 111.0600 110.3100 108.6000 107.5900 106.4600 103.6200 101.7600 96.2300 91.5600 91.8400 91.1700 96.7900
112.4600 107.1494 109.0320 106.6422 110.1522 109.5544 109.3477 109.5424 112.2413 107.2881 102.7979 116.3725 119.5857 117.3319 119.6867 119.3426 118.8899 118.2676 118.5746 106.5039 107.7265 116.6881 115.2653 115.2911 114.5827 115.5454 117.1253 112.1340 111.4541 110.1769 108.9454 107.4733 105.7276 103.5995 100.7091 96.5450 89.7188 87.6703 89.3921 96.2400
118.7800 114.8595 111.2960 110.3698 113.3144 113.5327 105.9513 102.8424 111.7007 104.7070 99.3700 122.1834 116.8201 111.9713 120.2296 119.3291 118.9370 119.3320 120.9047 102.4389 118.2284 114.7375 116.1594 115.2225 114.6689 116.0916 113.6993 112.0812 111.1615 109.9738 108.7505 107.3343 105.5531 103.3010 100.2314 95.6641 87.5659 85.4035 87.3881 89.6400
116.1700 113.7259 114.9877 116.4099 108.0092 104.1793 99.4329 106.4753 110.1623 101.9446 101.3873 125.7849 114.6319 115.7919 119.6936 119.5087 119.0294 113.8903 102.2350 95.5283 116.7993 117.7722 115.8155 115.2498 114.7603 115.7841 115.1020 112.3223 111.1815 110.7978 109.2432 107.4807 105.7509 103.6096 100.7805 96.2387 90.0704 87.4176 89.6721 96.1600
116.1600 117.4327 109.6857 111.0592 105.5770 104.9296 106.3762 109.1647 106.0598 103.0440 104.2671 123.1553 119.1832 115.1948 116.7092 119.8335 119.1476 105.8359 100.1757 114.2215 112.3333 117.1765 115.9300 115.3280 114.8003 115.0694 114.5407 112.3171 111.7995 105.4591 109.2377 107.8004 106.2658 104.3895 102.1334 99.3205 95.7748 93.5674 95.4160 96.6700
102.3700 103.6857 107.6202 109.0405 110.5710 102.9171 105.8641 111.6289 107.0645 104.3443 101.2214 99.9578 98.1746 99.6441 119.5504 118.8731 119.1364 116.6465 117.1591 117.8045 116.1696 116.6230 116.0668 115.4649 114.7522 114.2912 109.8155 113.1330 111.8167 115.5774 109.7086 108.5282 106.9959 105.4543 103.7043 101.8309 100.1968 99.3402 100.0237 100.4000
107.8000 112.8604 116.7921 104.3517 101.8456 99.9636 108.6512 112.5089 104.9203 116.9606 120.1051 120.1302 119.5951 113.9181 119.1204 119.0517 119.0901 118.9018 118.2411 117.7857 117.3073 116.7448 116.1944 115.6131 114.9448 114.3130 114.0106 106.0851 111.7186 116.6960 109.0073 109.1368 107.9154 106.6261 105.3389 104.0648 103.0705 102.6319 102.9885 103.5100
106.2100 105.3178 105.1462 104.7099 101.2197 117.0195 116.2753 119.9118 122.3403 121.7123 121.1619 120.9137 120.0722 114.3490 116.5368 119.1649 119.1820 118.7764 118.3510 117.8745 117.4013 116.8892 116.3600 115.7939 115.1739 115.1840 98.5461 100.5822 100.3239 124.2039 109.0022 110.0099 108.8031 107.8517 106.8779 105.9335 105.3179 105.0543 105.2609 105.5600
106.0000 106.3709 106.6726 114.8806 119.1897 123.1811 114.1901 113.8470 122.1890 120.4830 121.5444 121.2317 120.6304 120.8992 117.0676 120.6674 119.1481 118.8784 118.4441 118.0060 117.5425 117.0693 116.5530 115.7620 117.0287 102.1486 113.8369 113.6112 96.4720 105.7811 107.0623 110.5633 109.7735 108.4757 107.7600 107.6906 107.1097 106.9340 107.0770 107.2200
117.2100 109.4863 107.0728 100.1945 99.0256 117.7147 127.6134 109.5552 123.1177 121.9759 121.3977 121.0956 120.7140 120.1269 120.9046 120.4623 119.4591 119.0449 118.5931 118.1679 117.7254 117.2607 116.7717 116.1791 115.0831 102.7269 98.0803 98.0997 107.6139 113.5310 113.5041 111.2797 110.7459 109.8049 107.5215 108.9639 108.6083 108.4777 108.5813 108.6000
103.9000 113.3901 112.8633 101.7879 101.3852 108.3609 118.4873 112.5549 122.6225 121.7926 121.5480 121.2452 120.9841 119.9139 118.1260 113.9459 119.5321 119.2047 118.7483 118.3403 117.9124 117.4660 117.0345 116.3493 113.7015 106.8890 111.0476 105.0929 114.5077 113.4291 112.6633 112.0122 111.5982 111.2864 110.4837 110.1236 109.8988 109.7918 109.8703 109.8000
103.9000 112.7729 108.4973 101.8477 101.1964 102.4353 117.0593 115.7999 122.6152 121.9065 121.6258 121.3190 121.0043 120.2757 122.6161 120.9434 118.9807 119.3219 118.9406 118.5283 118.1226 117.6930 117.2945 116.8980 112.8392 111.8632 105.9162 116.4170 114.2348 113.7990 113.3193 112.7713 112.2938 111.8229 111.4960 111.1985 111.0015 110.9370 110.9927 110.8400
102.8700 107.1279 107.7385 108.8635 109.4564 105.5293 118.2866 122.4539 122.2387 122.0343 121.7432 121.4420 121.0550 121.6825 107.0776 123.3092 120.0571 119.8658 119.0807 118.7311 118.3467 117.9504 117.4675 117.0600 117.2496 116.1831 116.1849 115.1672 114.8277 114.3818 113.9185 113.4769 113.0757 112.7107 112.3897 112.1501 112.0003 111.9404 111.9882 111.7700
115.7600 111.6218 100.1084 105.0465 125.5657 122.6371 129.1398 122.0952 122.6252 122.1233 121.8455 121.5605 121.1142 120.9301 114.9129 122.8547 120.2222 119.7972 119.3098 118.9464 118.5751 118.1855 118.1415 117.6331 116.8563 116.5367 116.0077 115.7787 115.3781 114.9200 114.5178 114.1401 113.7889 113.4750 113.2135 113.0178 112.8967 112.8459 112.8821 112.6100
117.8400 106.4751 104.7615 116.6171 107.3932 116.6119 116.0421 122.8550 122.5718 122.2289 121.9611 121.6783 121.4198 121.4936 120.7310 119.7110 120.0945 119.8173 119.5164 119.1668 118.8605 118.3980 117.9383 111.9011 118.1157 116.8826 116.6178 116.2086 115.8148 115.4565 115.0965 114.7603 114.4688 114.1716 113.9812 113.7910 113.7026 113.6682 113.6957 114.0800
114.7800 101.5917 103.4210 103.5174 102.0655 120.4877 122.5802 122.8140 122.6121 122.3606 122.0903 121.8151 121.5391 121.2513 120.9122 121.4928 120.3481 120.0417 119.7261 119.3955 119.0644 118.6359 118.9034 117.0853 117.9831 117.3411 116.9573 116.6463 116.2928 115.9784 115.6517 115.3589 115.0730 114.9682 114.5094 114.5642 114.4400 114.4127 114.4373 114.7300
103.5500 114.5241 114.7182 106.3004 106.4551 124.6942 124.9956 122.7842 122.7619 122.4780 122.2181 121.9603 121.6927 121.4298 121.0858 120.8221 120.5688 120.2493 119.9486 119.6519 119.1761 119.5483 118.4994 113.7685 118.3843 117.6625 117.4125 116.9784 116.7040 116.4633 116.1779 115.9203 115.8199 114.7589 116.8364 115.2207 115.1131 115.1067 115.1179 115.3400
109.1400 105.9820 102.2035 102.4545 102.4636 120.6454 123.3998 123.0362 122.8495 122.6145 122.3763 122.1255 121.8475 121.5364 121.3110 121.0275 120.7251 120.4643 120.1695 119.9065 119.4794 119.1044 120.7879 118.7488 118.2336 119.6155 117.0776 117.5569 117.1886 116.9378 116.6839 116.4630 116.3216 116.4594 120.4633 115.4307 115.7398 115.7474 115.7582 115.9000
112.0900 114.5583 107.6987 102.5177 107.2542 106.4448 124.3742 122.9846 122.9040 122.6820 122.2654 122.1408 122.0374 122.1711 121.6784 121.5735 120.9105 120.6876 120.4024 120.1250 119.7708 119.5698 118.9803 118.8343 118.0726 128.7165 118.3132 118.0205 117.6491 117.3914 117.1731 116.9681 116.8600 116.2731 116.0885 116.4383 116.3488 116.3317 116.3464 116.4300
102.7200 110.5115 117.1076 116.0646 126.4321 125.0485 123.7263 123.2365 124.0576 123.4902 121.7142 123.9200 122.2165 120.6993 116.4688 120.8736 121.6147 120.8514 120.6310 120.3711 120.1214 119.8719 119.6067 119.6777 119.1021 118.6109 117.7806 118.0351 118.0392 117.8478 117.6366 117.4563 117.2790 117.2135 117.0979 116.9588 116.9046 116.8903 116.9008 116.9300
107.1100 108.2434 129.9320 128.8575 126.2279 124.1199 123.5751 123.6243 115.2584 123.3516 122.8199 116.1174 111.1176 118.4230 111.1865 110.8709 122.2226 121.1171 120.8700 120.6098 120.3631 120.1056 119.7059 119.6125 116.2773 120.2209 119.9173 118.7256 118.5206 118.2564 118.0835 117.9148 117.7744 117.6308 117.5346 117.4695 117.4257 117.4132 117.4224 117.4100
107.1100 118.6465 124.0758 113.0705 111.4826 124.5665 123.7090 123.9862 114.4706 121.9338 122.8108 116.3368 124.2689 123.6513 122.8049 121.9712 121.5530 121.3219 121.0988 120.8593 120.6235 120.4108 120.1835 120.7271 118.3157 111.2423 120.3526 117.9663 118.8938 118.6849 118.5097 118.3603 118.2223 118.1250 118.0539 117.9683 117.9177 117.9078 117.9172 117.8600
105.9200 107.8731 108.2567 117.3891 117.8262 124.3302 123.8887 123.5840 124.6758 123.8807 122.9152 124.1244 122.3382 121.6150 121.8681 121.8846 121.7969 121.5753 121.3284 121.1022 120.8910 120.6149 120.5977 117.5346 105.2483 97.6573 114.1604 119.1864 119.3567 119.0665 118.9008 118.7824 118.6751 118.5228 118.3664 118.3966 118.3858 118.3713 118.3874 118.2800
118.2500 106.0027 119.8957 126.2828 124.9414 124.2213 124.0812 123.8452 123.5070 123.4717 123.2894 122.9203 123.0725 124.1613 122.9190 122.4414 121.9302 121.7890 121.5638 121.3536 121.1359 120.9644 120.5176 120.4454 120.9374 119.5029 119.8486 119.7713 119.6133 119.4817 119.4192 119.2157 119.1864 118.9703 119.3837 118.8542 118.8234 118.8194 118.8255 118.6900
115.0000 121.9134 126.3212 124.5920 124.4302 124.3492 124.1973 124.0049 123.8281 123.6226 123.4062 123.8903 116.5310 104.4199 107.4693 119.0306 122.4807 121.9587 121.7970 121.5917 121.3929 121.1937 121.0055 120.7700 121.0138 120.1027 120.2864 120.3280 119.8117 119.7656 117.5453 119.5150 119.5170 111.3734 119.1591 119.2970 119.2452 119.2327 119.2497 119.0800
103.9000 108.1317 117.3783 125.4420 124.7263 124.4956 124.3340 124.1467 123.9518 123.7707 123.5726 123.4089 122.8108 118.2144 114.9853 123.2702 122.3772 122.2224 122.0219 121.8305 121.6442 121.4563 121.2762 120.8627 120.9210 120.9417 120.5473 119.0155 120.4305 121.4193 120.4238 121.8246 122.7216 120.1578 119.6605 119.6811 119.6551 119.6514 119.6455 119.8000
110.7400 123.8122 125.6068 124.8926 124.8496 124.6897 124.5349 124.2223 124.1101 123.9198 123.7433 123.5410 123.0453 123.4774 122.9895 122.8448 122.6166 122.4370 122.2526 122.0751 121.8909 121.7123 121.5620 121.4046 120.9990 121.2579 120.4630 132.0690 119.4797 120.3975 121.4452 104.0750 121.1703 119.9895 120.0908 120.0614 120.0142 119.9701 120.0371 120.1500
116.4200 126.6919 125.0404 125.1331 124.9511 125.2327 122.0688 124.9955 124.4046 124.0457 123.9206 123.7140 123.6246 123.2926 123.1916 122.8704 122.7971 122.6620 122.4770 122.3083 122.1382 121.9671 121.7789 121.6932 120.9898 116.5444 117.8206 118.8767 122.3005 120.7947 120.0127 121.3353 120.6963 120.5304 120.4463 120.4197 120.4897 120.6308 120.3806 120.4800
125.6500 121.2118 125.6684 125.3242 124.7901 125.3242 111.8178 125.8666 120.9501 124.8010 124.0051 123.8881 123.7279 123.5879 123.6329 123.2105 123.3166 122.8649 122.7094 122.5366 122.3769 122.2895 122.0567 121.9518 122.5662 103.4689 118.4602 110.5017 122.9289 121.2642 120.8638 120.8790 120.9278 120.8454 120.8059 120.8089 120.4372 119.9503 120.8204 120.7900
123.4300 117.1526 126.0022 125.2729 125.2407 125.3789 124.6502 125.3229 116.0719 124.7673 124.2347 124.0933 123.9089 123.7232 122.8162 123.0978 122.2440 123.1328 122.9071 122.7159 122.6044 122.8493 122.2010 121.9513 122.7746 121.4004 122.6146 120.9565 112.3164 121.5304 121.4515 121.2523 121.2670 121.2007 121.2408 120.6680 127.1986 126.8476 120.5528 121.1000
123.4300 126.4927 125.9376 125.7565 125.1748 125.0973 125.0417 124.4185 124.4662 124.5488 124.3423 124.1679 123.9726 124.8352 121.9312 117.0441 122.3826 123.7176 123.1289 122.9944 123.3062 121.8916 122.5659 123.2613 122.2309 121.8270 123.0408 115.7810 123.2712 121.6044 121.5818 122.3592 121.4300 121.5197 121.4536 121.4350 112.9544 106.2081 122.4766 121.4000
126.0600 125.5319 125.2320 121.6278 127.1607 125.2028 125.2175 125.1303 126.3060 125.8339 125.0953 124.8025 124.2306 123.9250 118.8783 118.1708 124.5013 123.4716 123.3473 122.8980 122.1938 125.7966 126.5258 117.4399 123.7197 122.4960 123.0221 116.4347 122.3676 122.1241 121.9326 124.1655 121.5438 121.8507 121.7082 122.1149 122.6900 122.4973 122.1972 121.6800
126.2200 126.3108 127.9768 116.4156 124.8298 125.2290 125.2036 125.9496 105.5507 122.4049 124.7657 118.6272 124.7421 123.6940 128.8827 123.9107 123.5982 124.0839 123.6961 125.6298 124.1956 113.6487 105.1247 130.1723 120.2429 110.7811 123.0501 123.2076 122.4114 122.3553 122.2207 121.9356 122.1906 122.0703 122.4216 121.9591 121.7446 121.8299 121.8578 121.9600
126.2700 127.9824 106.1037 123.8060 125.3434 125.5341 125.4788 125.5245 124.0822 125.4606 125.1389 122.2018 125.7549 124.1370 111.6443 127.0798 113.9192 116.8964 121.7319 122.8661 118.7577 115.9783 105.1802 119.7077 109.5237 112.2574 124.0133 122.6929 122.6985 122.6174 122.5790 122.6869 122.4205 122.7148 119.2957 122.4357 122.4332 122.3656 122.3809 122.2300
126.4300 126.7676 124.5100 126.5260 126.0574 125.6704 125.5282 125.4782 125.6034 125.2207 125.0070 125.1274 124.7563 123.6077 125.1369 125.5532 116.6381 121.9744 109.9862 114.9883 118.3494 111.4103 112.8195 103.9710 108.7340 121.3291 123.3630 123.0836 122.9368 122.9253 122.7677 121.8934 122.2818 122.5697 123.8635 123.0590 122.6477 122.5969 122.6016 122.7400
126.4700 126.4927 126.1945 126.1611 126.3537 124.2165 127.0790 125.3290 125.5577 125.3783 124.8722 125.1647 124.9320 124.7728 124.6231 124.5180 124.2425 125.5476 125.1986 102.3407 109.1892 104.7605 106.1642 107.0651 114.9476 124.2387 123.4014 123.2973 123.2821 123.0324 123.5188 129.4880 122.0794 123.2198 109.2736 123.8255 122.9297 122.8741 122.8941 122.9900
126.6300 124.6977 126.4884 126.2148 126.9215 109.6127 121.6461 126.1342 124.9565 125.4060 117.0986 125.6102 124.9685 125.0498 124.8539 124.6615 125.3237 118.7629 112.9028 111.4193 124.2820 123.6756 110.5526 126.5729 124.2311 123.7714 123.5458 123.5396 123.5140 123.5585 115.1852 124.5567 114.0128 123.5001 122.8391 123.1550 123.1727 123.1380 123.1568 123.2300
104.6700 113.3087 126.4362 127.6567 106.9976 123.2232 127.8767 125.5059 118.5846 127.9237 122.2046 119.2864 126.0166 125.0471 125.0838 124.4130 126.9972 113.0395 122.3234 119.1399 123.9828 125.0686 119.8898 123.7238 123.9731 123.9278 123.8469 123.7720 123.7893 123.7401 120.8830 123.3485 124.0387 123.1274 123.3768 123.4380 123.4172 123.4164 123.4137 123.4600
126.8300 127.3802 127.1708 126.1185 124.9652 114.7741 125.7035 126.4341 127.0786 119.6746 126.8988 125.3448 125.6177 125.3311 125.2001 125.1345 123.6182 119.9485 117.5324 114.7613 124.6576 124.4106 124.8675 124.2297 124.2352 124.1424 124.0754 124.0113 123.9691 123.9471 119.3838 123.2202 123.5497 123.8287 123.7149 123.6762 123.6710 123.6643 123.6691 123.6900
126.9800 126.8800 126.7700 123.1500 126.5800 127.4400 121.4200 126.1200 126.0100 103.9100 125.7800 125.6900 125.5500 125.4600 125.3200 125.2200 117.4400 124.9600 124.8500 124.8700 124.7600 124.6400 124.6400 124.5200 124.3800 124.2400 124.2800 124.1000 124.1300 123.9700 124.0200 124.0200 123.8600 123.8700 123.8900 123.9000 123.9100 123.9100 123.9100 123.9100
