114.7800 107.8500 106.1500 115.3600 112.4700 112.3000 109.8900 104.5400 102.9700 102.9700 124.7000 124.7000 117.4900 121.2500 124.3200 124.3200 124.1800 124.0300 124.0700 123.9100 101.9400 123.7700 123.8000 123.8200 123.6300 123.6500 113.7700 123.6800 123.6900 123.4700 123.4700 123.6800 106.4200 123.6600 123.6400 123.6100 123.8100 123.7900 123.9400 123.9400
108.7200 114.0316 113.1058 113.9562 109.3146 110.4938 110.5931 103.1853 102.8220 109.1762 125.4896 125.8336 122.0802 120.5358 124.4921 123.9126 123.8285 124.0451 123.8883 123.8797 124.0773 124.0461 123.9980 123.5380 123.4579 113.9891 111.2479 123.9732 123.1466 123.3760 123.5336 123.6315 113.0144 119.4188 123.2952 123.5655 123.6051 123.6475 123.7043 123.7100
108.7200 113.0261 106.3417 109.3573 114.6514 116.2144 112.2095 105.1781 106.3901 106.3654 111.4749 125.2493 121.8898 123.7253 123.8612 120.2551 118.2068 124.0704 123.5967 123.5446 124.0971 116.9860 123.4034 123.2269 123.8008 109.3859 108.3191 123.9349 122.8916 123.2145 122.9543 122.3207 122.7279 123.4201 123.2368 123.3029 123.3515 123.4029 123.4620 123.4800
107.5600 108.1491 110.4995 108.7909 109.6370 112.7226 105.9560 106.2319 109.5814 106.4327 114.7367 119.2985 124.7115 124.0563 123.7195 124.9046 119.9376 124.9331 123.6120 123.3817 123.1708 123.9258 123.3097 123.0947 125.0375 109.0192 109.4883 121.8924 122.3109 122.7830 116.7957 122.8463 122.6009 122.9475 123.0039 123.0308 123.0889 123.1593 123.2129 123.2400
118.3800 109.7012 107.0282 106.3264 112.4663 103.0719 106.7864 107.5632 118.2180 103.6619 108.8870 120.6600 123.9019 123.1987 123.6063 123.4058 124.0910 123.2833 115.4005 123.4859 123.0635 122.7147 122.8843 123.7658 116.6083 108.8862 110.8811 110.1422 124.4729 123.5611 124.7495 123.2131 122.7009 122.7014 122.7643 122.8371 122.8630 122.8705 122.9530 123.0000
112.5900 115.4398 112.9505 105.0387 110.3081 105.5393 107.9251 110.2691 108.0873 105.4258 117.1418 127.1804 120.0767 125.6970 122.8725 123.9291 119.5557 123.3879 122.3560 119.8385 121.2937 122.6357 122.7075 123.5906 104.9793 114.7371 107.9879 110.8208 111.3576 114.4697 112.9941 120.8922 122.0655 122.4545 122.3432 122.1789 122.2783 122.6767 122.7027 122.7500
109.4100 106.4506 112.6143 110.0956 104.2225 105.3925 115.2129 108.0264 113.0344 107.7251 106.0251 114.9108 101.1247 116.3545 105.4463 114.2935 108.1138 125.3867 122.5485 122.4296 122.4963 122.3086 122.4762 124.0796 111.8609 108.8692 107.9870 111.6584 106.7489 117.3319 115.6919 122.6203 123.0780 120.6737 122.9792 123.4143 123.6456 122.2624 122.4794 122.4800
105.4400 103.0782 103.4992 103.7389 110.8337 103.2810 117.2268 116.5289 112.7576 117.8192 121.9791 126.0895 124.3700 103.6863 106.6627 102.9824 97.6439 120.2453 122.4138 117.9370 122.3867 121.8396 122.5006 115.5012 103.6160 99.3221 107.9081 110.0445 108.6476 109.5248 118.6594 122.5312 110.9793 102.7778 118.4864 108.8254 115.8301 122.3384 122.0096 122.2200
110.1700 109.4365 111.8457 104.5294 112.7389 101.9950 110.0490 117.1310 123.2296 114.2614 123.9076 123.4764 122.6346 102.8231 100.8636 100.4819 108.9651 122.4977 114.1181 118.1736 120.3573 119.4461 118.9679 107.5604 102.5344 99.3728 104.7481 107.5234 109.2040 107.1874 114.0675 108.4843 116.1406 103.5793 125.9556 104.2364 115.8909 122.3486 121.8254 121.9500
108.0200 107.7148 107.8536 102.2592 106.1583 108.2223 110.1150 116.5318 122.6074 123.2187 122.9586 123.1991 105.8002 101.4728 105.1331 118.1363 124.4468 115.2410 100.0011 119.2292 112.5458 117.2226 100.8253 102.2863 98.9318 104.3335 106.1264 102.4456 106.3482 121.1559 111.0203 100.3494 104.2763 102.4801 121.0230 106.2566 117.5273 117.7448 121.6286 121.6500
106.5300 105.6296 109.9101 108.4204 107.5172 107.1100 107.4373 105.4684 126.9184 123.1116 122.9889 103.0170 103.5457 105.8616 108.5153 127.9005 122.4958 120.1735 119.0783 119.0869 113.2927 117.6139 105.7020 100.5849 112.6918 110.8414 106.2556 98.7634 107.6648 119.6424 96.8525 120.7146 101.0082 97.9867 116.4408 120.3735 123.5971 121.0288 121.0473 121.3500
106.7000 104.6242 105.6063 106.3870 109.3676 116.2888 117.6203 104.4570 109.2103 120.5163 117.0813 100.5980 101.7289 106.0905 104.9789 115.0389 120.6555 120.9039 114.3611 106.0634 106.9411 109.8352 101.4599 99.6231 119.4765 110.8869 103.7474 104.5344 102.8031 101.4866 107.7338 103.1869 119.2365 113.9323 122.1853 121.4051 120.4477 120.8262 120.9597 121.0500
102.1000 102.0076 100.5442 104.8826 104.0478 115.6863 116.9080 117.2994 121.3371 122.4682 122.3817 120.9043 105.1730 110.5995 104.0715 121.3145 121.3067 125.6195 115.8043 117.7460 107.1507 108.5034 109.7235 108.4919 116.1082 115.2032 99.9598 102.9779 100.6334 114.4409 111.0681 121.6161 121.2633 121.2678 119.9150 120.2906 120.4708 120.4976 120.6200 120.7300
105.0500 101.0522 106.2503 104.0834 109.6194 119.5330 121.6179 122.9009 123.4748 122.4382 123.0348 122.8084 118.8932 96.9737 98.8617 108.4926 121.0389 120.3293 122.0844 119.6705 108.6828 105.4275 110.1560 103.7985 122.4225 110.2339 109.8385 110.7629 97.6920 118.3180 122.4971 119.3115 119.9426 119.6800 119.9292 119.9418 120.0423 120.1633 120.2857 120.3900
102.1200 102.5592 104.7452 101.9725 103.0380 100.2690 119.6984 122.9279 123.4565 109.6680 124.6258 110.0253 122.3075 122.9624 118.0671 120.4890 121.0498 120.3671 119.4729 114.9989 111.8569 105.5105 101.0932 100.7527 123.6108 102.1937 105.6187 96.0983 94.2372 119.8447 118.5301 119.4502 119.3455 119.4090 119.4706 119.5787 119.6801 119.8074 119.9414 120.0400
101.6200 101.7730 101.3088 111.5659 99.1010 108.6302 110.9313 122.5106 123.2991 108.3853 104.8824 98.5838 99.4849 119.9552 114.9638 120.3980 120.2014 120.1179 120.6786 120.3128 102.5516 103.3200 106.8395 108.8146 112.8229 100.2594 112.5198 105.1087 108.7588 118.4715 118.8654 118.8299 118.9166 118.9857 119.0750 119.1451 119.3228 119.4378 119.5860 119.6800
101.5600 100.8455 107.6945 102.8254 100.8432 100.1954 115.0315 111.6220 121.1736 119.8607 96.9458 108.0746 123.9371 120.2112 120.3725 120.6373 119.9678 119.8733 119.5902 120.1978 119.6888 102.2625 106.9351 111.4021 110.5703 99.5149 118.9746 120.6641 112.0743 118.9432 118.4990 118.5119 118.5304 118.5836 118.8029 119.0803 118.9258 119.0485 119.2148 119.3100
101.3400 102.5285 102.7913 111.5070 104.8524 101.8098 102.2729 106.5240 119.6038 103.5209 101.7745 120.3421 118.5647 114.3544 121.7123 119.7830 119.7617 119.4691 119.4510 119.0560 119.8634 104.8042 105.4927 106.6052 120.5197 114.6103 106.6049 103.6392 116.9402 117.8868 117.8650 117.7281 117.8795 118.1255 118.6140 118.3959 118.5009 118.6543 118.8274 118.9000
118.3700 115.5300 111.0904 102.6270 110.3053 108.3438 108.3102 110.1530 116.5155 120.3210 97.5944 101.1041 100.7847 115.0712 116.5986 118.0863 119.7968 119.8791 117.3860 119.6426 105.9738 102.4010 103.5599 107.4706 116.9701 117.7317 120.5872 114.8532 117.2582 117.4492 118.0644 118.1339 117.3246 117.6757 117.7202 117.9096 118.0691 118.2313 118.4343 118.4800
115.2900 113.6950 99.5012 99.2999 107.9787 110.4137 107.6617 114.3022 98.1668 114.7686 116.0396 105.1702 99.2917 93.9190 113.5715 116.1883 118.6018 118.5039 100.7233 109.9376 102.6355 104.7412 101.4004 104.4049 113.5848 115.4445 116.4368 96.0350 108.5735 116.9453 106.1400 115.5660 116.7040 117.1711 117.2869 117.4295 117.6056 117.8050 118.0188 118.0300
100.9700 107.6677 101.3052 99.0323 105.3993 107.6792 109.0747 107.3937 105.4361 100.3248 106.5498 100.6180 106.4984 111.4711 123.0005 120.5106 116.6493 111.0988 97.9769 109.9402 118.2069 117.2101 101.0472 99.9905 99.8896 116.0070 108.5092 112.5118 106.1698 116.3530 117.0949 116.5035 116.5068 116.6232 116.7757 116.9476 117.1414 117.3564 117.5950 117.9800
100.9700 109.7554 99.4815 105.0820 111.1666 113.6887 105.8279 106.7748 105.9183 106.9176 122.0990 116.0416 115.2004 120.2067 118.4943 118.9671 119.9579 116.7222 118.2887 97.5382 114.1720 106.4278 103.6316 99.1383 95.2550 116.5526 116.6877 114.7454 101.0892 115.1600 115.0141 115.8245 115.9189 116.0768 116.2361 116.4297 116.6535 116.8923 117.1547 117.0900
117.6900 106.8305 102.1116 108.9804 111.0664 106.1672 117.6117 102.8134 105.9799 105.7620 108.6900 111.5570 123.2335 120.7139 121.2046 116.2632 106.8940 105.8138 116.8307 117.1778 118.4301 109.7915 105.4706 95.5336 100.3405 96.0020 115.9706 115.5914 118.5013 117.9754 117.7922 115.1566 115.3111 115.4786 115.6666 115.8809 116.1371 116.4065 116.6916 117.0900
117.6900 116.9313 105.0704 105.2580 101.5925 105.5357 111.4278 106.0454 102.3370 102.0998 101.9090 102.3955 100.9493 101.7338 102.0252 108.0897 91.6651 106.1040 117.6294 117.0543 115.8220 114.2646 117.5516 107.3096 109.4603 97.7193 115.4853 114.5622 112.2028 119.2289 115.4076 114.5748 114.6368 114.8492 115.0621 115.3124 115.5949 115.8962 116.2259 116.4400
116.7800 112.9809 119.8418 101.3269 121.1847 118.4668 118.1618 119.6425 103.5061 116.5006 100.9752 101.6818 99.6233 103.5035 113.6347 109.2839 114.7673 116.8553 116.8581 116.2861 116.0467 115.5871 116.2163 116.2439 115.9359 110.7732 111.5782 113.9000 114.0974 112.9648 113.6892 113.8076 113.9728 114.1654 114.4192 114.7059 115.0350 115.4094 115.7034 115.9300
115.7900 122.1519 116.1435 100.2388 126.0473 120.6039 120.7548 119.4179 105.7892 119.6965 106.4533 102.4875 100.1161 103.8128 95.8691 117.6508 96.4431 118.3796 115.9693 116.0091 115.2712 117.1529 100.3116 114.5649 100.7510 113.4876 108.3652 112.9549 112.9901 113.0051 112.9374 113.0290 113.2023 113.4228 113.6614 114.1243 114.5095 114.5912 115.1160 115.3000
101.0600 111.5804 125.6896 101.7080 110.9663 115.1265 121.5061 116.6259 120.4505 119.3328 106.1331 120.1868 108.9488 97.9593 107.8939 119.8784 116.1835 116.4082 115.3665 115.4518 114.9952 115.0188 113.7639 116.9055 106.1488 113.0857 109.5472 112.0403 112.1456 112.0041 112.0385 112.1609 112.3737 112.6735 112.6015 112.5903 112.3234 114.9167 115.8065 115.1900
100.1000 112.7718 122.6780 106.0156 122.9710 121.1057 120.6530 120.4257 121.0230 119.5090 119.0258 119.4922 106.7589 95.0362 105.8602 118.7328 117.6960 116.4024 105.2719 114.5285 114.3984 113.9399 113.2044 112.6767 113.8038 117.5806 110.2893 111.3218 111.1476 111.0103 111.0464 111.1919 111.5394 111.4251 113.1392 103.2975 95.4029 110.0326 113.3065 114.6000
102.6000 114.8082 121.1712 121.3451 120.5057 120.5526 120.2962 119.9360 120.4850 117.7685 118.7863 118.1051 117.5881 99.0532 94.9080 116.5858 107.8014 104.5258 116.8150 115.6633 113.9302 113.3947 112.8946 112.2672 111.8008 111.1475 110.6056 110.1550 110.0082 109.8854 109.9205 110.1220 110.3453 111.4901 111.2687 100.1704 100.7487 90.8142 98.4649 97.2100
101.6300 114.4162 122.1795 125.2604 120.5779 120.6743 120.1547 119.9170 117.3295 114.2504 120.4252 118.2275 118.2963 120.0060 118.7380 111.9819 100.1569 105.0369 115.6661 113.9048 113.4979 112.8172 112.1770 111.4996 110.8822 110.1614 109.6014 109.0901 108.7469 108.5894 108.6415 108.9028 109.2586 109.6552 106.1547 101.9247 98.8589 99.9582 102.3862 99.8100
113.2100 119.9194 121.4526 126.2697 120.4208 121.2581 120.3178 119.8787 119.4861 118.5268 119.6066 117.9202 117.4679 116.5901 116.9496 117.2102 116.8574 115.8390 114.0966 113.7938 113.0322 112.3330 111.5284 110.7539 109.9477 109.1524 108.3981 107.7494 107.2829 107.0641 107.1419 107.4979 108.0273 109.0852 109.5713 102.5241 101.9087 107.4400 103.8164 95.8800
108.2700 112.4740 122.1455 118.0290 121.8328 112.3107 118.7830 118.9912 119.9628 121.9304 119.8081 117.8702 117.5564 117.0909 116.3831 115.7146 114.8021 114.3010 114.0305 113.4852 112.4568 111.5513 111.0277 110.0203 109.0529 108.0699 107.0938 106.2142 105.5404 105.2094 105.3317 105.8457 106.6333 107.6006 108.7563 108.7521 109.3214 111.7925 103.0114 112.7600
108.2700 114.7415 111.5516 112.2265 108.4013 101.9917 98.9319 122.0783 122.5140 99.8437 100.2084 118.1511 117.0732 116.8478 116.3154 115.7607 115.2144 114.4804 113.6572 112.5063 112.3214 113.1343 109.9901 109.3720 108.1305 106.9399 105.6714 104.4162 103.3920 102.8529 103.0440 103.8740 105.0431 106.3247 107.5490 108.9876 110.3373 111.7806 110.6741 112.0300
113.5100 111.4999 109.6221 107.9415 106.3123 108.4901 106.5820 110.0306 105.6668 105.1593 107.9745 117.9369 116.9919 116.7011 116.1959 115.5858 114.9459 114.3651 113.8972 114.0972 112.5879 95.1347 112.9595 107.8313 107.3975 105.8270 104.1404 102.3389 100.6353 99.6640 100.0749 101.4515 103.2670 105.0206 106.6156 108.0045 109.2790 110.3189 111.4752 111.9100
109.6300 109.2206 108.8291 106.5133 107.2139 107.0401 105.3646 109.5848 103.1538 103.9035 113.2922 118.7043 114.0890 116.9776 115.9972 115.4757 114.7586 114.0525 115.0430 92.9143 91.3624 91.9333 95.8233 109.3130 106.6267 104.8036 102.6607 100.0050 96.8818 94.2040 95.1714 98.5475 101.4066 103.8089 105.7746 107.4166 108.8300 110.0559 111.1198 111.8000
107.4400 106.4387 107.8684 106.4856 103.8837 101.0195 102.9322 99.9744 98.7462 113.6887 111.7078 113.4704 111.1117 116.2524 116.1064 115.4227 114.6260 113.6053 113.1268 107.2560 115.1042 89.3979 113.5382 105.6065 105.9086 104.1116 101.4398 97.8498 91.4472 87.6627 88.9399 95.1510 99.7910 102.8868 105.1729 107.0019 108.5323 109.5989 110.9848 111.7400
100.5200 100.1104 98.3207 98.6374 121.7473 107.7359 120.7612 107.3760 119.9510 112.2664 92.4514 119.9781 117.1094 116.2819 116.0325 115.4166 114.1026 113.2735 100.1418 108.0741 112.2042 111.4335 104.5978 105.9606 105.5292 103.8001 100.9081 96.7355 88.5785 84.1709 85.4951 93.0904 99.0661 102.4916 104.9273 106.7343 108.5827 106.6264 111.0169 111.7100
109.6400 101.6136 102.9534 115.4149 118.2150 107.5576 120.0581 118.3922 118.3298 112.0359 99.8921 118.9466 116.8967 116.6070 116.0221 115.4078 114.6762 108.4428 103.3996 102.5496 112.2262 109.9915 104.8263 107.4057 105.8448 104.0044 101.2686 97.5345 90.5242 86.6030 87.9213 94.5017 99.5710 102.7713 105.0986 106.8901 108.6578 107.0286 111.0885 111.7100
103.9100 104.9831 117.4785 117.3166 114.7759 113.2028 113.5827 119.4542 118.9729 119.9615 120.0059 117.6126 117.2183 116.6210 116.0145 115.7462 110.0298 95.2195 108.3179 94.7955 113.0579 110.4622 109.2017 106.0695 106.5521 104.6356 102.3913 99.4891 95.3093 92.6271 93.8622 97.9358 101.0580 103.6076 105.6368 107.3127 108.7080 109.4028 111.0918 111.7400
112.3100 121.4800 111.4500 114.7000 120.5700 120.3200 100.4400 119.5500 118.9900 118.6900 118.1200 117.7500 117.0600 116.6900 116.3100 115.4900 93.0500 103.9400 121.6200 112.4400 111.8100 110.4000 107.4300 99.5900 106.7500 105.4700 103.9900 100.6400 100.6400 97.8400 97.7900 100.4500 102.2900 103.9800 106.6500 107.7400 108.6900 110.3900 111.1300 111.8000
