111.0700 111.0700 110.1400 117.5400 99.7400 97.7400 97.6900 102.1900 113.1200 113.9700 105.8700 114.9300 110.5100 109.2700 116.5700 115.7400 115.3700 115.4800 114.6700 114.6700 114.2800 113.8300 113.8300 113.2900 113.4100 113.4100 113.4200 113.3800 113.3200 113.8600 113.7500 114.1900 114.5600 115.0600 115.3700 115.8000 116.1200 116.4800 116.8300 117.2000
111.0400 110.7276 113.6333 120.3032 110.3792 107.7296 97.1444 105.4692 107.5675 112.4877 109.5483 105.6451 112.7339 110.9702 116.9223 115.8631 115.2991 114.7458 114.4687 113.9832 118.0213 105.1533 113.6153 112.7422 112.6492 112.5762 112.5959 112.6899 112.8724 113.1170 113.4263 113.7820 114.1647 114.5746 115.0036 115.4346 115.8607 116.2978 116.7225 117.1600
115.1400 110.9841 117.3460 116.9353 109.1491 127.1090 103.6976 119.0871 104.2580 115.8143 119.2442 100.0534 118.4948 116.9813 114.0174 110.2714 114.8828 114.3345 113.8711 112.9552 107.6374 111.5071 112.2147 111.9164 111.7351 111.6484 111.6663 111.7847 112.0031 112.3049 112.6746 113.0883 113.5374 114.0015 114.4811 114.9657 115.4389 115.9161 116.3751 116.6200
106.2300 107.0964 113.4623 107.5275 106.2657 110.1865 106.8593 119.4792 103.1035 119.8566 117.0709 113.0487 115.4073 115.7340 113.6681 110.7168 114.1580 113.6461 113.2505 112.6838 112.9497 112.2553 111.2655 110.9735 110.7165 110.6028 110.6261 110.7798 111.0515 111.4213 111.8662 112.3532 112.8827 113.4096 113.9599 114.4906 115.0241 115.5435 116.0403 116.5700
106.2300 111.3163 110.2054 111.9341 102.1404 105.9764 106.5994 123.0973 124.0389 120.0153 116.8751 116.9511 116.4587 115.5601 115.3058 114.4183 113.9529 113.2642 112.6237 112.0057 111.3188 110.7965 110.2991 109.8674 109.5664 109.4118 109.4397 109.6432 109.9932 110.4598 110.9926 111.5873 112.1988 112.8123 113.4309 114.0300 114.6096 115.1792 115.7127 115.9700
102.0800 102.1580 108.5552 118.3885 105.3002 100.6510 101.2046 123.0603 118.6968 117.8358 116.9649 116.2949 115.7527 115.2262 114.6341 114.0062 113.3416 112.7070 112.0010 111.2891 110.5557 109.8727 109.2034 108.6425 108.2460 108.0413 108.0772 108.3511 108.8082 109.3986 110.0697 110.7892 111.5030 112.2234 112.9108 113.5775 114.2190 114.8267 115.4146 115.8600
105.6900 105.1264 99.6744 97.9827 99.6568 109.5869 108.6205 115.2259 117.6016 116.9519 116.6727 116.1101 115.5424 114.9439 114.2951 113.6246 112.9071 112.1883 111.3826 110.5537 109.6927 108.8275 107.9931 107.2517 106.7012 106.4091 106.4644 106.8433 107.4709 108.2477 109.0961 109.9655 110.8175 111.6368 112.4112 113.1531 113.8569 114.5123 115.1279 115.3400
110.4700 110.3313 107.0287 104.4983 104.3858 112.6241 109.1509 115.1191 109.8830 119.1071 116.4353 115.8838 115.3108 114.6905 113.9735 113.1365 112.5526 111.6599 110.7898 109.8332 108.8156 107.7446 106.6702 105.6486 104.8497 104.4080 104.4860 105.0643 105.9568 106.9983 108.0840 109.1403 110.1410 111.0747 111.9484 112.7648 113.5140 114.2264 114.8790 115.2500
111.2600 108.7196 110.2209 100.1315 117.5311 108.9523 115.7260 107.0419 118.4219 116.8617 116.3396 115.7298 115.1128 114.4492 113.6740 111.7850 110.5474 111.1945 110.2827 109.1574 107.9590 106.6489 105.2368 103.7987 102.5247 101.7784 101.9312 102.8891 104.2403 105.6852 107.0621 108.3465 109.5139 110.5694 111.5357 112.4139 113.2276 113.9704 114.6739 114.6900
110.0100 95.4154 99.5824 101.4909 99.6493 105.0649 118.5826 112.1244 118.1947 116.7122 116.2086 115.6014 114.9250 114.6058 113.5251 112.9644 112.0837 110.8504 109.7966 108.5697 107.1815 105.5961 103.7620 101.6743 99.6056 98.0909 98.3900 100.2286 102.3526 104.3535 106.1118 107.6419 108.9685 110.1482 111.1955 112.1428 112.9990 113.7725 114.5170 115.1100
99.8100 108.9126 106.2163 106.9179 99.1039 103.8230 112.5547 113.5761 117.8598 116.6822 116.1054 115.5108 114.8354 114.7585 113.3449 112.5326 111.5434 110.5816 109.4448 108.1221 106.5644 104.6987 102.4008 99.4857 95.3612 91.5958 92.4209 96.9271 100.4302 103.1806 105.3276 107.0791 108.5544 109.8255 110.9413 111.9315 112.8247 113.6443 114.4026 115.0600
110.0800 116.3679 111.0052 112.9202 106.4297 107.2362 112.6791 118.9568 117.1302 116.6557 116.0599 115.4581 114.7921 114.0101 113.2462 112.3892 111.5059 110.4601 109.2464 107.8453 106.1912 104.1274 101.4633 97.6921 90.6039 86.1209 86.8723 93.1897 99.0130 102.3858 104.8281 106.7409 108.3144 109.6395 110.7954 111.8181 112.7416 113.5208 114.1823 115.0200
113.2600 115.4318 112.5441 115.1090 119.0966 125.9943 122.4317 118.0103 117.1195 116.6279 116.0601 115.4465 114.7795 114.0850 113.2958 112.7558 111.7834 110.3987 109.2053 107.7971 106.1201 104.0249 101.2794 97.3194 89.5360 84.8412 85.5875 92.2709 98.7235 102.2332 104.7337 106.6826 108.2680 109.6062 110.7629 111.7905 112.7578 113.5003 115.3065 115.0000
110.6800 101.1223 101.8209 106.3479 105.9213 106.8945 110.5526 117.6493 117.1910 116.6569 116.0908 115.4777 114.8211 114.1373 113.4307 109.6956 111.7716 110.4455 109.3390 107.9774 106.3704 104.4055 101.9034 98.5369 92.7498 88.8937 89.6339 95.1940 99.7203 102.7785 105.0716 106.8997 108.4316 109.7333 110.8796 111.8770 112.8468 114.3218 104.2727 115.0200
111.6800 113.1598 105.2314 96.1821 109.2745 111.9134 114.3164 117.7679 117.2877 116.7182 116.1556 115.5565 114.9125 114.2157 113.5272 111.4861 111.8133 110.7505 109.6274 108.3539 106.8925 105.1778 103.1487 100.6981 98.0589 95.4754 96.0759 98.9527 101.5016 103.8261 105.7531 107.3728 108.7755 109.9936 111.0386 112.0007 112.9244 113.3697 102.6046 115.0500
111.6200 109.6178 96.6988 108.5399 105.1339 120.3802 116.9865 117.9038 117.3508 116.8129 116.2430 115.6671 115.0512 114.3800 113.6441 112.9286 112.0059 111.0701 110.0455 108.8939 107.6110 106.1720 104.5986 102.9003 101.3126 100.3666 100.5625 101.7692 103.4623 105.1095 106.6520 108.0291 109.2528 110.3978 111.4876 112.2520 113.0637 115.1587 100.2138 99.4200
109.1400 106.5811 102.9623 104.1313 106.0085 134.0244 114.6995 118.3126 117.4559 116.9448 116.3732 115.8554 115.2173 114.5783 113.8908 113.1493 112.3515 111.4854 110.5504 109.5376 108.4351 107.2734 106.0584 104.8918 103.8903 103.3370 103.4483 104.1740 105.2355 106.4444 107.6422 108.8268 109.8396 110.8442 112.3848 106.9289 113.8748 113.9155 114.8978 115.1600
104.9900 114.9622 103.2276 101.2822 110.9764 112.6941 118.5223 118.0783 117.5687 117.0439 117.4375 116.0334 115.3998 114.8226 114.1785 113.4838 112.7463 111.9577 111.1224 110.2380 109.3181 108.3634 107.4315 106.5840 105.9202 105.5825 105.6474 106.1033 106.8397 107.7247 108.6703 109.5168 110.9164 109.4708 112.2653 113.0839 113.8851 114.5827 112.5730 115.2300
115.1900 109.5108 106.7666 121.4991 120.7930 120.0660 118.5863 118.1493 117.9315 117.7971 123.3668 115.9115 115.6951 115.0980 114.4966 113.8543 113.1834 112.4686 111.7325 110.9699 110.1893 109.4200 108.6978 108.0601 107.5890 107.3624 107.4024 107.7144 108.2413 108.9194 109.6987 110.2151 111.0594 99.2153 114.2054 113.2089 114.0050 115.3447 104.9647 115.7400
114.9700 102.2683 120.3864 121.4887 119.9496 118.8615 118.7615 118.3352 118.1329 116.3752 123.0756 115.9206 115.5260 115.4173 114.8523 114.2548 113.6417 113.0018 112.3568 111.6955 111.0360 110.4100 109.8338 109.3554 109.0065 108.8347 108.8777 109.1153 109.5035 109.9990 110.6826 111.4408 108.1727 110.9250 113.0791 113.9219 114.4480 114.8581 116.6301 115.8300
114.9700 107.5271 112.8432 109.2678 120.0562 119.2142 118.8384 118.5260 118.0638 117.3855 116.5435 116.6716 115.7203 115.7458 115.2190 114.6690 114.1178 113.5496 112.9793 112.4079 111.8610 111.3386 110.8734 110.4984 110.2302 110.0948 110.1269 110.2135 110.4955 110.9343 111.4467 111.9530 112.9270 114.0182 113.6265 114.3206 114.8499 115.3709 115.7883 116.4300
125.7000 100.2061 97.7617 101.7764 118.5796 120.5377 119.1998 118.7120 118.2661 117.9278 117.5006 117.0237 116.7370 116.0605 115.6855 115.1214 114.6100 114.0985 113.5942 113.0999 112.6278 112.1982 111.8126 111.5149 111.3023 111.1994 111.2254 111.7268 112.9892 111.6057 109.7307 112.7265 113.2655 113.4715 114.1264 114.6079 115.2717 115.7829 116.2752 116.4900
99.8700 109.1152 113.2992 120.9187 125.2325 113.8178 119.7671 118.7973 118.5061 118.1031 117.6945 117.2783 117.0059 116.4398 115.8637 115.4603 115.0908 114.6370 114.1876 113.7700 113.3635 112.9992 112.6802 112.4279 112.2606 112.1703 112.2124 112.1760 112.8514 107.1566 113.9431 113.6751 113.7725 114.3497 115.3872 116.5473 115.6235 116.1338 116.5745 117.0100
110.4100 112.6403 108.9560 121.7224 121.1587 117.7168 119.5838 119.1057 118.7403 118.3758 117.9859 117.6014 116.4167 119.5831 117.3656 116.4202 115.5200 115.1843 114.7805 114.3998 114.0476 113.7374 113.4792 113.2681 113.1238 113.0577 113.0524 113.1009 114.6130 94.9388 105.0739 114.0875 115.1664 117.3740 100.6312 115.8350 115.9049 116.5588 116.9204 117.0700
114.2700 123.1141 120.1614 120.2929 120.0212 120.1510 119.6603 119.3228 118.9832 118.6215 118.2923 117.8377 117.6150 99.6139 105.4424 113.2095 116.3785 115.6207 115.3213 115.0070 114.7005 114.4353 114.2084 114.0272 113.9094 113.8698 113.8523 113.8956 115.0436 111.9679 111.3905 113.4660 110.5904 116.8545 118.2625 116.4456 116.5453 116.9065 117.2763 117.5700
102.5000 104.9798 119.3389 120.9046 120.5932 120.2008 119.8719 119.5418 119.2333 118.8952 118.5608 118.0806 118.7653 101.4887 120.1431 120.4773 116.3198 116.2380 115.8806 115.5808 115.3157 115.0804 114.8840 114.7379 114.6376 114.5480 114.5756 114.6482 115.0808 114.6410 113.3969 123.9164 119.2468 110.5446 110.2629 116.6767 116.9849 117.2880 117.6350 117.7000
116.4200 122.4131 121.5098 120.8428 120.1965 120.3430 119.8467 119.8309 119.4705 119.1474 118.8271 118.6749 117.6772 118.6304 117.5300 117.5531 116.7579 116.7125 116.3796 116.1299 115.8927 115.6864 115.5177 115.3939 115.2803 115.4193 115.3825 115.3277 115.4536 115.6817 115.4496 114.7485 101.2085 113.0968 109.9137 117.5414 117.3735 117.6578 118.0114 118.1100
121.7600 121.9041 121.2305 121.2288 113.3210 116.0747 120.3426 120.0567 119.6713 119.6491 119.0609 118.8307 118.5539 118.2318 117.9466 117.6151 117.3401 117.0965 116.8975 116.6416 116.4431 116.2619 116.1241 115.9875 116.0028 115.5697 115.4069 115.9492 115.9027 115.9615 117.0018 116.3029 113.7612 120.0723 116.7794 117.3756 117.7880 118.0886 118.1837 118.5200
114.4400 121.2724 121.4137 120.6739 118.7946 122.6941 120.5857 120.2702 119.3868 118.9284 119.3196 119.1702 118.8719 118.5933 118.2637 118.1387 118.4095 117.7124 117.3316 117.1388 116.9611 116.7983 116.6759 116.7062 115.4245 130.8979 121.0945 116.5092 117.5393 117.5238 113.0471 117.0141 117.9438 113.4100 118.1653 117.7441 118.1714 118.2878 118.1538 125.0600
121.5800 108.4241 123.1597 122.0473 110.8591 121.3532 120.6994 120.3981 119.1543 114.1308 120.1873 119.4738 119.2390 118.9591 118.4562 120.7718 111.2047 118.9408 117.7755 117.6137 117.4524 117.3162 117.1754 117.1986 116.3611 115.9665 116.2943 117.0342 117.9425 103.0884 112.0584 116.4555 119.0613 103.6457 119.7173 118.0858 117.7849 114.3510 120.9848 119.3900
118.6900 106.9507 122.6549 122.6619 123.1478 121.2648 121.0832 120.7463 121.3045 120.3908 119.9096 119.7199 119.2653 119.8814 112.6360 111.6144 113.4443 118.8935 118.2417 118.0925 117.9550 117.7934 117.8154 117.3739 118.3366 117.9195 116.8782 118.5320 118.7158 110.7917 100.1420 117.1282 118.1792 110.4646 118.5683 118.5294 114.3849 112.7867 120.0723 119.4300
122.6300 108.8173 124.5399 122.0373 121.5067 121.2645 121.2192 120.8395 121.1069 120.8298 120.6037 120.8145 119.9382 123.0732 123.2206 116.2743 121.3319 118.7629 118.6022 118.4013 118.1898 118.2568 117.4120 118.6846 113.5013 117.9468 120.4382 111.1152 121.7979 101.7309 108.0184 118.2577 118.3916 119.1413 119.1491 119.1345 119.4453 120.6216 119.5490 119.7700
122.6600 114.8486 122.7816 122.0079 121.9800 121.7001 121.2775 122.6458 110.1295 119.3345 120.5175 114.0480 119.2147 122.5163 115.9136 99.8461 118.9818 117.2965 119.0493 118.0746 119.5585 118.5661 124.5812 99.2422 116.6237 117.3026 111.1670 98.8414 117.9017 103.2445 104.8879 106.2885 119.0445 119.0266 119.2085 119.6793 119.7856 119.6278 120.0416 120.2000
122.9300 123.0706 108.1088 124.0419 121.8281 121.9393 121.6877 121.5906 119.8059 121.1689 121.3195 117.5684 120.8539 119.7543 97.2625 113.2145 113.8459 100.3203 117.0092 121.5841 113.1108 118.5922 118.7671 111.7658 112.7044 124.7421 109.0667 103.8510 106.9295 119.0424 112.1109 119.4270 120.2068 119.4551 119.9185 115.9207 118.7407 119.1032 120.4136 120.5200
123.0000 123.5925 119.8837 122.7140 122.2798 122.0155 121.8648 121.6902 121.6952 121.2972 121.0572 121.1006 120.4336 122.0336 116.5089 118.4719 106.0762 110.8425 119.9481 113.4329 118.0504 115.7873 112.5191 107.7105 110.8432 106.4561 106.6179 103.8758 120.9882 120.6860 106.5215 119.0278 118.8863 120.1237 119.9834 121.1759 121.7474 122.1966 121.1208 120.5600
123.2300 123.0339 122.9995 122.5138 122.9656 120.0962 123.4442 121.4862 121.8423 121.5541 121.4358 121.1952 121.1026 119.9826 120.6209 121.3934 120.6085 121.1160 120.1773 99.3715 118.2811 115.0433 105.1202 112.8837 117.3575 116.0054 117.9265 103.9852 121.8086 119.4496 115.5947 115.7605 120.2288 119.5680 117.6645 119.3873 107.5847 108.4916 120.8120 120.9000
123.3000 123.2317 123.3896 118.6201 126.1272 102.8392 120.6035 122.3735 121.9837 121.8402 121.6480 121.5800 121.3157 121.2460 121.6543 120.5748 120.9730 118.9912 114.1935 99.9810 117.8567 121.6022 112.4921 121.5758 120.1661 120.4555 120.3873 119.8867 120.7214 120.3511 115.7200 109.1784 120.2043 120.6648 119.1541 122.0366 130.0150 110.5074 124.1577 121.2500
123.5200 123.1624 125.1423 105.4391 122.7710 123.1432 124.5458 122.3946 122.2845 122.0905 121.7748 121.6703 121.6249 121.3817 119.9684 116.1670 121.4908 110.6561 100.1172 101.0426 119.4920 120.6520 121.3288 120.3835 120.5360 120.4826 120.5054 120.4571 120.4829 120.6362 115.0260 110.9314 121.8232 120.7257 121.4482 119.9470 116.8432 105.9891 107.5422 121.5400
123.7600 123.5934 123.6941 115.3923 125.2659 123.1498 121.5935 121.4949 122.2991 122.5678 122.3930 121.8681 121.7912 121.5337 123.0492 122.1661 120.6884 114.6095 105.7163 112.1193 121.4389 120.9619 120.7613 120.8874 120.8204 120.8166 120.8179 120.8628 120.9893 121.1427 115.3486 111.3106 121.2776 121.2270 121.2825 122.1229 116.2165 115.3448 122.1940 121.8100
123.8000 123.8000 123.6700 123.3500 123.2100 123.0500 112.4600 122.7300 122.7300 122.3200 123.2600 123.2600 122.1100 121.9600 121.7300 99.7900 110.6200 109.7100 103.6900 121.2400 121.2800 121.0400 121.0600 121.0800 121.1000 121.1100 121.1100 121.1000 121.0800 121.0500 116.1000 118.5500 121.2200 121.4400 121.6300 121.5900 121.7500 121.7500 121.9200 121.8500
