125.2000 117.3000 112.9400 120.3900 114.8300 111.1900 111.6300 103.2500 125.1100 120.3900 120.3900 120.7300 113.8800 112.1600 119.5200 119.2300 119.0300 118.8100 118.4800 118.2100 97.3300 118.0200 118.0200 117.7000 117.7900 117.3700 117.4200 117.4300 117.4200 117.4000 117.7900 117.7500 117.7000 118.0300 118.3200 118.2400 118.4900 118.8200 119.0300 119.0300
125.2000 123.4932 112.6676 117.7906 114.4578 109.6732 109.0218 102.0455 121.4386 121.9434 116.4225 102.1320 115.0272 116.5526 119.9327 119.5592 119.2112 118.5453 118.2925 118.5532 117.9580 113.4085 117.8364 117.3224 117.3258 117.2384 117.1859 117.1631 117.1693 117.2037 117.2760 117.3634 117.4872 117.6397 117.8074 117.9932 118.1976 118.4145 118.6372 118.9900
121.7100 109.6877 114.0540 110.2382 119.5328 113.1262 107.0186 106.5176 113.0467 120.1548 121.8285 113.4790 120.7328 119.5561 119.0725 111.9144 117.8398 118.1238 117.9493 117.4725 117.5667 116.3868 117.1255 116.9599 116.8076 116.7123 116.6544 116.6249 116.6321 116.6750 116.7497 116.8566 116.9932 117.1579 117.3449 117.5472 117.7676 118.0073 118.2625 118.6100
122.3300 110.3182 105.6168 111.6489 109.4126 120.4760 107.8521 109.1024 113.7447 116.0903 119.7201 119.5907 119.3376 118.7415 118.5111 113.5530 118.0195 117.6216 117.4996 117.2432 116.9905 116.8311 116.5789 116.4053 116.2596 116.1516 116.0825 116.0466 116.0554 116.1089 116.1924 116.3086 116.4628 116.6508 116.8566 117.0920 117.3391 117.5994 117.8708 118.1600
105.5000 111.2019 108.0879 106.4179 114.9860 106.4831 113.9895 111.9356 120.2599 118.2570 119.4243 119.1918 118.8422 118.6349 118.4749 118.1882 117.6484 117.3362 117.0599 116.7694 116.5022 116.2465 116.0334 115.8383 115.6733 115.5531 115.4740 115.4327 115.4439 115.4985 115.5978 115.7410 115.9112 116.1204 116.3534 116.6096 116.8874 117.1796 117.4777 117.6300
111.5800 111.8441 110.0660 108.5678 108.6026 101.1268 104.6413 109.2878 120.7638 121.9145 119.2671 118.9543 118.6240 118.2696 117.9222 117.5881 117.2063 116.9485 116.6091 116.2935 115.9944 115.7105 115.4534 115.2362 115.0606 114.9199 114.8214 114.7714 114.7854 114.8517 114.9610 115.1215 115.3238 115.5546 115.8239 116.1082 116.4167 116.7366 117.0688 117.1800
104.7200 103.8413 111.9499 119.4871 114.4451 102.8702 111.7073 101.2003 103.1272 118.6915 118.8569 118.6947 118.3300 117.9669 117.5726 117.4049 116.7188 116.5755 116.1259 115.7965 115.4560 115.1441 114.8528 114.6088 114.3335 114.1920 114.1052 114.0605 114.0711 114.1517 114.2770 114.4646 114.6989 114.9693 115.2679 115.5952 115.9422 116.2951 116.6578 116.6100
111.7000 105.7375 104.4393 100.5595 101.3387 99.8842 114.4810 106.8551 104.0723 123.4704 117.2045 118.4038 118.0790 117.6627 117.2220 116.8753 113.4655 116.3715 115.6185 115.2922 114.9005 114.5485 114.2030 113.8842 113.9364 113.6130 113.3430 113.2740 113.2924 113.3833 113.5422 113.7599 114.0306 114.3394 114.6875 115.0556 115.4439 115.8330 116.2368 116.5600
111.6300 115.7267 120.0646 107.9930 102.3786 108.7567 116.7998 116.7345 116.5602 118.9342 118.7608 118.1150 117.7261 117.3350 116.8544 116.6489 116.0489 115.6348 115.2072 114.7490 114.3290 113.9106 113.5244 113.2746 111.6324 112.0390 112.5252 112.4568 112.4334 112.5460 112.7398 112.9994 113.3195 113.6777 114.0795 114.4989 114.9357 115.3746 115.8099 116.0500
104.2900 103.1615 112.4989 112.1793 98.8879 100.1299 114.4542 112.7387 119.5952 118.8134 118.3542 117.8433 118.1194 117.5728 117.2791 116.1231 115.6543 115.1807 114.7084 114.2097 113.7300 113.2557 112.8115 112.2019 115.9678 120.4215 113.2783 111.4195 111.5015 111.6286 111.8607 112.1734 112.5582 112.9705 113.4411 113.9180 114.4156 114.9100 115.3938 115.9100
103.8000 100.4779 105.6825 101.1272 104.4834 106.8840 118.2288 110.6772 119.8496 118.3545 118.1228 118.7121 116.8741 108.5102 115.1583 115.7226 115.2814 114.7688 114.2163 113.6703 113.1186 112.5668 112.0432 111.9219 110.3574 106.4149 108.4370 110.4421 110.4354 110.6086 110.8968 111.2759 111.7423 112.2670 112.8411 113.3600 113.8576 114.4364 114.9748 115.2200
120.1700 108.3178 103.9163 96.2386 100.9829 117.8492 106.9890 119.5150 119.2766 118.3500 117.7533 116.2265 114.6300 105.3299 115.6183 115.3233 115.0017 114.3479 113.7361 113.1143 112.4866 111.8502 111.1973 110.5625 110.3559 109.5411 110.0189 109.2041 109.2297 109.4506 109.8195 110.3022 110.8504 111.5050 111.1958 114.1871 113.2634 113.9441 114.5911 115.2200
120.7900 120.3236 103.9645 119.7947 101.3838 107.4689 113.1505 119.5622 118.5021 118.2045 117.6554 116.7102 107.1745 118.0112 118.3766 110.7695 114.7353 113.8391 113.2670 112.5719 111.8602 111.1224 110.3945 109.6659 108.9159 108.4022 107.8586 107.7666 107.8279 108.1246 108.6141 109.2444 109.9537 110.6907 111.1580 109.7909 112.6391 113.5160 114.1859 114.5200
101.9100 105.3746 104.2339 111.9831 110.8638 110.9735 119.1340 119.2962 118.5303 118.0368 117.6093 117.1820 117.1483 115.7417 114.2659 113.3727 114.3631 113.4974 112.8133 112.0540 111.2345 110.3819 109.4901 108.5972 107.7443 106.9581 106.4016 106.0979 106.1601 106.5823 107.2542 108.0784 108.9690 109.8419 110.8254 111.5449 112.6256 113.1241 113.8232 114.4000
110.9200 96.7226 101.4303 110.7684 105.1730 122.4166 116.5722 118.7442 118.4025 117.9163 117.4346 116.9131 116.2663 115.7902 115.1154 114.8001 114.0385 113.2012 112.4039 111.5660 110.6457 109.6607 108.6084 107.4997 106.3679 105.2969 104.4427 103.9981 104.1059 104.7552 105.7224 106.8313 107.9583 109.0473 110.0620 111.0359 111.8771 112.7420 113.5017 113.7900
110.6400 112.5027 98.5350 98.1845 99.7033 112.1264 123.0257 119.0556 118.1763 117.8294 117.3302 116.8111 116.2892 115.7088 115.0710 114.3924 113.6673 112.8996 112.0539 111.1335 110.1137 108.9912 107.7538 106.3902 104.8972 103.3796 101.9869 101.2372 101.4361 102.5121 104.0107 105.5176 106.9609 108.2759 109.4689 110.5474 111.5157 112.4071 113.2261 113.7000
113.9100 104.9216 101.4933 123.1780 117.0102 120.0044 119.4466 118.8062 118.1137 117.7335 117.2288 116.7160 116.0710 115.6599 114.9267 114.2218 113.4701 112.6577 111.7613 110.7728 109.6699 108.4175 106.9892 105.3329 103.4100 101.1605 98.9331 97.1009 97.6652 99.8013 102.1116 104.2290 106.0440 107.5960 108.9453 110.1373 111.1876 112.1400 113.0018 113.6200
114.1200 112.3636 108.0155 121.7724 119.1058 118.9993 119.0619 118.6942 117.9932 115.7015 115.8230 116.6543 115.5670 120.4957 115.0309 114.1046 113.3288 112.4935 111.5590 110.5191 109.3411 107.9842 106.3996 104.4702 102.0672 98.9447 94.0674 90.4952 91.3599 96.4494 100.2806 103.1195 105.3108 107.0771 108.5667 109.8413 110.9610 111.9485 112.8436 113.5600
110.1100 109.3889 134.4076 123.1609 120.2757 119.2774 119.0617 118.6144 117.7739 116.3016 110.3777 116.3931 115.4667 114.9904 114.4810 114.0432 113.2606 112.4002 111.4502 110.3865 109.1642 107.7484 106.0592 103.9602 101.1959 97.2473 89.5991 85.2661 86.4582 93.1501 99.0496 102.4493 104.8859 106.7973 108.3566 109.6857 110.8371 111.8524 112.7648 113.5200
111.5900 105.2475 112.8602 109.0698 117.9914 119.4921 119.0700 118.6003 118.0982 117.8985 117.6570 116.0208 119.7413 115.4058 114.7688 114.0382 113.2619 112.4016 111.4464 110.3745 109.1552 107.7421 106.0483 103.9367 101.1680 97.1922 89.6905 84.9177 86.0124 92.9704 98.9941 102.4243 104.8691 106.7846 108.3500 109.6814 110.8342 111.8471 112.7656 113.5100
116.5100 108.8754 110.4194 110.8681 118.7372 118.6508 119.0579 118.5836 118.5160 117.4980 117.1585 117.4765 121.2223 115.3616 114.7493 114.0947 113.3266 112.4766 111.5491 110.4976 109.3190 107.9574 106.3559 104.4138 101.9653 98.7321 94.0629 89.7692 90.7507 96.1829 100.1485 103.0550 105.2627 107.0469 108.5451 109.8246 110.9477 111.9441 112.8367 113.5200
114.3100 102.8937 123.0479 126.1802 124.7023 120.0417 119.2414 118.6329 114.1710 117.8356 117.4660 116.8543 116.7322 115.5761 114.8833 114.2084 113.4543 112.6397 111.7437 110.7476 109.6317 108.3757 106.9330 105.2505 103.2802 100.9964 98.6114 96.5071 97.1903 99.5558 101.9699 104.1282 105.9766 107.5472 108.9119 110.1119 111.1671 112.1243 112.9823 113.6000
114.0300 106.6080 98.5774 105.4828 116.0090 114.8943 120.1127 118.1278 117.9156 117.7468 117.4278 116.4755 116.1567 115.6553 115.0520 114.3788 113.6546 112.8720 112.0257 111.0932 110.0717 108.9436 107.6861 106.2905 104.7676 103.1929 101.7479 100.9244 101.1472 102.3045 103.8385 105.4163 106.8749 108.2186 109.4245 110.5009 111.4867 112.3782 113.2034 113.6600
117.9200 103.8769 109.3538 97.1684 120.4437 110.9211 119.7781 119.0058 118.3961 117.9303 117.4458 116.9813 116.4372 115.8265 115.2234 114.5813 113.8988 113.1679 112.3768 111.5177 110.6043 109.5985 108.5421 107.4057 106.2530 105.1407 104.2372 103.7590 103.8902 104.5675 105.5861 106.7067 107.8768 109.0474 109.8357 111.0069 111.8807 112.7039 113.4760 113.7700
105.2700 120.7186 95.2254 116.4824 120.0317 118.8999 119.3242 118.8630 118.4566 118.0294 117.5695 117.0737 116.5606 116.0290 115.4489 114.8505 114.1987 113.5130 112.7765 112.0032 111.1850 110.3233 109.4214 108.4911 107.6230 106.8193 106.2047 105.9116 105.9891 106.4350 107.0087 107.8413 108.7646 109.9961 110.4323 111.5629 112.3310 113.0880 113.7952 114.3700
116.4900 111.6663 121.5747 120.4774 120.1127 119.9880 119.4029 119.0100 118.6101 118.1715 117.7287 117.2562 116.7551 116.2535 115.7069 115.1199 114.5175 113.8857 113.2243 112.5312 111.7995 111.0539 110.3059 109.5607 108.8602 108.2736 107.8245 107.6187 107.6635 107.9862 108.4786 109.9970 113.9381 114.3838 110.9159 112.2066 112.8033 113.5071 114.1525 114.4700
107.1600 116.9842 120.6893 120.0965 114.9348 122.5966 119.3339 119.1355 118.7598 118.3381 117.8989 117.4549 116.9959 116.3110 115.7603 115.4643 114.8190 114.3140 113.6964 113.0716 112.4321 111.7874 111.1612 110.5443 110.0634 109.5572 109.2770 109.0728 109.2024 109.3693 109.6259 110.2496 110.0521 111.1724 112.0583 112.6998 113.3365 113.9444 114.5419 115.0600
121.6200 118.3251 122.7336 100.0452 120.7393 121.8698 119.6550 119.3043 118.8479 118.4802 118.1081 117.6556 117.2847 118.0862 112.3586 112.5964 115.2448 114.7567 114.1682 113.6195 113.0623 112.5068 111.9715 111.4497 110.7504 110.6796 110.0992 110.2935 109.7569 110.2753 110.7493 111.2520 111.6880 112.1775 112.7242 113.2894 113.8500 114.4018 114.9425 115.1900
117.6500 107.7629 123.8615 104.6567 123.0217 119.8883 119.7959 119.4673 119.2743 118.6359 118.1910 117.9058 116.9566 121.4265 116.3864 116.6136 116.1106 115.1032 114.6694 114.1670 113.6787 113.1875 112.7451 112.3738 111.9442 116.6819 111.0641 111.4005 114.2399 112.8302 111.7326 112.1136 112.4919 112.9399 113.3915 113.8785 114.3724 114.8694 115.3597 115.7300
99.6900 120.0738 121.0310 122.2625 120.4439 120.4698 119.9830 119.6675 118.7843 116.7441 118.5606 118.2015 117.9380 116.8836 115.1491 116.0290 112.4397 115.8390 115.1616 114.7073 114.2832 113.7460 113.4041 113.0843 112.3620 112.3556 112.5539 112.2429 101.1501 95.7236 114.0465 112.8796 113.2425 113.6284 114.0281 114.4523 114.8924 115.3350 115.7812 116.3800
121.4500 121.7253 121.6922 117.0711 121.2582 120.3900 120.1732 119.3289 119.9960 115.5733 118.8676 118.2219 117.9379 117.8041 113.9103 112.9260 110.9516 116.0425 115.5467 115.2324 114.9035 114.4508 114.8734 114.3886 113.8099 113.1267 112.2300 113.6477 113.6123 112.4820 114.4526 113.6893 113.9592 114.2899 114.6336 115.0197 115.3952 115.7992 116.2006 116.4800
100.0200 122.1389 110.1970 119.5258 121.2432 120.6250 120.3170 119.5479 121.6792 121.2735 119.5342 119.0418 119.0739 117.7853 114.9630 112.3480 118.0582 116.3507 116.1203 115.8764 115.2737 115.3667 105.0217 114.1946 113.1759 114.0196 114.2922 114.3925 108.6133 97.2392 115.1387 114.3407 114.6244 114.9150 115.2191 115.5560 115.8723 116.2605 116.6318 117.0100
122.0700 122.1326 116.6180 121.6840 121.0885 120.8130 120.4812 120.2362 119.5841 118.6087 105.9475 113.9878 117.6252 118.0843 119.6030 117.7141 116.7249 117.9884 116.5585 116.1839 116.3492 118.3169 108.5667 121.4089 126.9776 115.6897 114.0620 114.8132 114.6559 115.9490 116.0251 115.0581 115.2612 115.4974 115.7767 116.1027 116.7874 116.7078 117.0295 117.4600
122.3100 122.5797 122.4404 121.4729 121.2812 121.0162 120.7024 120.4244 119.9911 120.3149 114.1891 117.9829 118.9318 118.5770 118.0534 119.4130 100.8018 114.6014 117.3531 110.5497 116.4455 115.5574 98.5185 107.2863 105.9047 112.0696 105.0460 115.4379 115.2556 115.0710 115.1732 115.6722 115.8689 116.0627 116.3504 115.8120 114.5449 116.1487 117.4477 117.5600
122.3600 122.2183 121.9543 121.6699 121.3813 121.1861 120.9074 120.6178 120.3829 120.3417 120.9632 119.4131 119.1696 118.8057 118.6088 118.3705 115.5575 118.0447 108.6831 112.0645 121.4239 108.3993 107.3132 111.7921 105.1156 103.4634 98.3436 116.4600 115.6524 116.1376 116.2318 116.2618 116.4147 116.6339 116.5746 120.2623 119.1392 117.0535 118.1238 118.0300
122.6000 122.4020 122.0031 121.9633 120.8490 120.8359 121.3521 120.8322 120.5533 120.2185 120.3443 119.3848 119.4891 119.2244 118.9283 118.3208 120.1952 123.6090 114.2885 105.4853 119.1293 108.9552 103.4420 117.8061 114.6162 107.0995 103.5226 117.4262 116.2501 116.6120 116.6818 116.8050 116.9559 117.1207 116.9599 120.2159 106.2150 105.1424 119.3578 118.4400
122.6500 120.0926 122.0916 120.3399 106.9137 107.3331 124.4534 120.5550 120.1631 120.2119 122.4032 119.8491 119.7709 118.8650 119.1802 118.9390 119.2698 119.8458 114.5352 106.8505 117.6591 119.2370 115.8976 117.8011 117.5995 118.6392 118.2687 117.0073 117.1359 117.1582 117.2285 117.3219 117.4503 117.5768 117.6208 117.6112 101.8750 101.1985 118.6415 118.5100
104.8400 113.3329 125.6747 104.4322 110.2334 121.9546 121.7261 121.4734 118.5279 122.5024 114.5153 118.0636 121.1849 115.4544 118.3466 119.1549 124.4914 118.4835 99.6079 124.6059 118.2310 117.8073 118.1657 117.8465 117.7703 117.4471 117.4345 117.6454 117.6274 117.6605 117.7250 117.8115 117.9229 118.0514 118.0857 119.3863 113.9504 104.9320 119.2024 118.9700
122.9400 124.2391 119.5445 114.2577 123.9599 114.9540 121.7834 121.3049 121.4856 112.6055 116.2654 121.2746 116.7602 117.6590 120.6311 118.3608 116.1566 112.0627 109.7303 120.5242 118.5378 118.6223 118.4177 118.3135 118.2231 118.2170 118.1669 118.1041 118.1114 118.1440 118.1945 118.2747 118.3750 118.4878 118.6096 118.6215 121.6830 118.1657 121.3807 119.3500
123.0000 123.0000 116.1900 113.0100 122.3100 122.1200 121.7700 121.5600 121.3700 121.2100 98.9800 120.7700 120.6000 98.3500 120.1900 111.9800 112.0200 119.4500 119.2500 119.0200 119.1000 118.8400 118.8400 118.5400 118.6300 118.6300 118.2900 118.3000 118.2900 118.2800 118.6300 118.5900 118.5500 118.8400 119.1000 119.0300 119.2600 119.2600 119.4800 119.7000
