110.0500 110.1300 107.9900 108.1700 106.3000 106.3000 100.8200 99.6300 99.8800 116.5900 104.2600 120.0000 128.8600 110.6000 117.1200 116.8000 116.5100 116.2300 115.7600 93.4500 93.4500 115.1500 115.1500 114.6700 114.7500 114.7700 114.7600 114.7300 114.6900 115.1700 115.0900 115.4800 115.8300 115.8300 116.5500 116.5500 117.1900 117.1900 117.4400 117.7500
113.3400 112.2172 110.6847 107.3361 109.6701 105.8921 103.4762 103.1026 105.6168 116.3146 112.8515 106.6865 117.0775 110.9100 118.7005 117.0538 116.6694 115.8515 115.4718 117.6216 120.9647 107.3409 115.2436 114.1729 114.1773 114.1534 114.1653 114.2286 114.3546 114.5354 114.7613 115.0254 115.3234 115.6434 115.9810 116.3302 116.6923 117.0482 117.4244 117.7500
108.3800 109.7866 110.9512 102.9623 105.4069 105.2381 101.1899 105.1423 109.1997 116.8174 117.6333 106.9748 118.7147 117.8797 100.7597 112.7233 114.2920 115.3667 115.0933 114.0000 103.4507 104.6576 114.5490 113.6165 113.4422 113.3773 113.3926 113.4778 113.6310 113.8335 114.1036 114.4099 114.7413 115.1075 115.4877 115.8702 116.2697 116.6358 117.0396 117.2000
108.3800 109.0361 108.1626 109.1798 107.8962 103.0300 105.8346 114.0067 112.9118 121.5826 117.9581 118.2391 109.9697 116.7442 116.4637 112.4337 115.3489 114.7563 114.4322 115.0181 113.7031 108.0765 113.3815 112.8072 112.6051 112.5315 112.5521 112.6475 112.8299 113.0784 113.3912 113.7515 114.1368 114.5504 114.9760 115.4090 115.8508 116.3839 116.7191 116.7100
113.8800 99.1953 108.0343 106.7407 105.4181 99.8769 107.0374 123.2242 113.5982 117.7946 117.3034 116.9885 116.9846 116.0482 115.6323 115.3780 115.3068 114.2382 113.7703 113.4064 112.9051 112.8865 112.1111 111.8859 111.6859 111.6011 111.6172 111.7381 111.9586 112.2631 112.6383 113.0486 113.4984 113.9791 114.4567 114.9451 115.3824 116.0142 114.4796 116.5900
108.3800 110.6977 108.2162 107.2412 106.2004 99.4213 115.8070 112.1478 108.1560 118.9709 117.1899 116.7904 116.3819 115.8269 115.4004 114.7780 114.3128 113.7512 113.2514 112.6806 112.1460 111.5751 111.2747 110.9123 110.6617 110.5464 110.5642 110.7273 111.0037 111.3760 111.8251 112.3225 112.8456 113.3851 113.9352 114.4693 114.9902 115.5366 115.6801 116.4700
112.6500 111.0957 107.1210 106.1617 103.1765 105.7223 118.1006 99.1126 119.9344 117.6312 117.0376 116.5745 116.0580 115.5293 115.0064 114.3417 113.9771 113.0725 112.5621 111.9763 111.3598 110.7842 110.2446 109.8120 109.5082 109.3511 109.3783 109.5847 109.9363 110.4101 110.9538 111.5490 112.1660 112.7862 113.4090 114.0041 114.5981 115.1626 115.7144 115.9800
103.4700 101.2441 108.5935 104.0890 103.1927 109.0929 114.8707 106.9579 116.4050 114.6673 117.3352 116.2765 115.7767 115.2044 114.6586 114.4876 105.9729 110.0223 111.9863 111.2793 110.5139 109.8140 109.1451 108.5825 108.1596 107.9573 108.0019 108.2839 108.7422 109.3435 110.0310 110.7432 111.4735 112.1882 112.8867 113.5617 114.1991 114.8205 115.3980 115.8700
107.0600 104.6465 100.8140 103.0031 104.4011 109.1804 107.9372 108.8870 115.9845 116.4647 116.7946 116.0947 115.5147 114.9283 114.2671 114.0910 108.0351 113.0334 111.0998 110.5402 109.6482 108.7751 107.9356 107.1769 106.6483 106.3774 106.3849 106.7524 107.4043 108.1861 109.0460 109.9178 110.7749 111.6081 112.3880 113.1348 113.8356 114.4952 115.1050 115.3600
110.0200 110.9831 107.4362 100.9425 104.7285 116.3230 118.1756 116.8048 118.2679 116.8270 116.4379 115.9603 115.3489 114.6112 113.8788 113.2535 112.6727 111.7600 110.7891 109.7921 108.7692 107.6860 106.6033 105.5552 104.7483 103.7400 104.3190 105.0523 105.8627 106.9399 108.0311 109.1060 110.1111 111.0467 111.9333 112.7431 113.5016 114.2049 114.9220 115.2600
108.3800 109.1282 107.3666 110.4055 100.0451 106.0976 120.8342 111.0039 117.3736 116.7979 116.2343 115.4243 114.8947 115.3615 114.6420 112.8662 112.0896 111.1862 110.2393 109.1291 107.9219 106.5840 105.1568 103.6876 102.4000 101.5514 102.0209 102.3271 104.1326 105.6252 107.0148 108.3122 109.4832 110.5450 111.5178 112.4071 113.2203 114.0115 114.4143 115.1800
108.3000 110.7854 103.0037 106.9946 105.5260 110.6436 121.0022 113.0572 118.0510 116.7051 115.9806 116.9179 115.5341 114.2828 108.2118 113.4662 111.7966 110.8698 109.7745 108.5483 107.1458 105.5437 103.6965 101.5406 99.4557 97.8258 98.1327 100.5900 102.2493 104.2907 106.0643 107.6081 108.9434 110.1275 111.1825 112.1163 112.9726 113.3210 115.4083 115.0600
105.4700 106.2476 103.4366 103.0083 110.7344 113.6475 116.8852 118.4105 117.5595 116.6917 115.6317 114.6673 108.9967 115.9970 108.1689 105.3866 112.3618 110.5682 109.4227 108.0973 106.5381 104.6580 102.3453 99.3894 95.0899 91.2177 92.0733 96.7068 100.3272 103.1300 105.2925 107.0561 108.5422 109.8130 110.9168 111.9986 112.6321 116.5859 103.3234 95.6800
105.1800 101.6519 100.2718 107.7693 115.1013 114.8658 116.2747 117.4368 117.0982 116.6445 115.9920 115.9186 109.1021 101.9458 116.7616 110.7946 111.4965 110.3470 109.2342 107.8427 106.1734 104.1150 101.4223 97.6345 90.3519 85.7378 86.6385 93.0257 98.9709 102.3606 104.8133 106.7256 108.2827 109.6546 110.8638 111.5939 109.9486 116.1139 96.1255 95.6800
105.1800 103.3292 105.4690 106.1025 118.6668 115.3918 116.9710 117.9553 117.1453 116.6283 116.0663 115.5208 117.4600 95.5639 116.7399 112.2361 111.4556 110.4425 109.2118 107.7969 106.1227 104.0236 101.2804 97.3813 89.5683 84.9527 85.9319 92.2787 98.7423 102.2398 104.7409 106.6917 108.2611 109.5358 110.2581 112.4859 111.2235 117.3671 97.4320 98.6900
102.3900 99.5662 96.6058 114.9205 107.5242 123.3457 114.3058 117.9441 117.0671 116.6659 116.0897 115.4685 115.1565 113.1622 113.2627 112.5071 111.5712 110.5356 109.3530 107.9886 106.3840 104.4418 101.9700 98.5530 92.8507 89.2472 89.9317 95.4446 99.7924 102.8181 105.0915 106.9061 108.4078 109.0501 118.0565 109.3639 92.9209 97.4119 102.5164 99.5700
107.5500 106.9446 104.5337 104.6599 105.4606 106.9480 122.3996 117.7625 117.2206 116.7205 116.1561 115.5807 114.9145 114.2668 113.5141 112.6386 111.7610 110.7633 109.6434 108.3826 106.9228 105.2218 103.2142 100.8446 98.2384 95.7947 96.3719 99.1170 101.5951 103.8840 105.7931 107.3891 108.6545 110.2858 110.4041 109.7799 114.2102 94.2602 98.2577 99.4600
107.0300 107.4326 103.3774 101.1689 109.4012 110.5076 118.7814 116.8104 117.2682 116.6490 116.4900 115.5391 115.0618 113.6482 113.3884 112.8609 112.0338 111.0927 110.0686 108.9256 107.6514 106.2291 104.6621 103.0682 101.4393 100.5270 100.7217 101.8901 103.5483 105.1629 106.7236 108.2082 110.3759 112.2014 88.8572 94.9015 92.1403 114.5188 114.5059 115.0900
101.9600 117.5520 110.4970 119.1822 97.9890 117.9234 114.3918 116.3724 117.2783 109.7506 115.4836 115.4611 115.5333 108.8567 113.1665 113.0736 112.3878 111.5135 110.5782 109.5723 108.4809 107.3136 106.1346 104.9776 103.9991 103.4627 103.5696 104.2815 105.3296 106.5093 107.5880 108.6015 108.7083 105.6335 89.3580 93.6203 100.2931 99.4566 101.3060 100.1900
103.3500 103.8491 115.8764 107.0909 122.4057 118.5544 119.0829 118.2657 118.4077 109.8017 115.0875 115.7350 112.6485 115.7942 114.5344 113.5013 112.7635 111.9816 111.1534 110.2738 109.3620 108.4163 107.4969 106.6638 106.0128 105.6810 105.7371 106.1411 106.8265 107.7857 108.5580 109.1213 98.4776 106.6110 97.6335 96.0297 96.4072 99.4518 99.3412 107.3000
115.8200 104.2448 123.7089 99.2011 118.7756 119.3553 118.3867 119.9202 115.7856 117.0810 116.5799 116.2694 111.9501 115.2978 114.4594 113.9038 113.2204 112.4955 111.7591 111.0057 110.2372 109.4682 108.7569 108.1253 107.6660 107.4453 107.4529 108.0992 108.7513 109.5384 110.3451 93.7738 112.8368 98.0160 112.8869 101.4190 97.9122 100.3869 108.3597 107.3000
105.6400 101.1217 108.8522 114.0128 108.5184 117.6060 119.1473 106.5868 110.8686 116.0562 116.9003 116.9803 116.7542 115.5277 114.9085 114.1947 113.6610 113.0254 112.3845 111.7309 111.0810 110.4640 109.8864 109.4144 109.0728 108.9087 108.8768 107.8421 104.9665 104.5301 103.7770 111.7401 113.3792 112.4048 113.1459 116.5073 92.5492 101.9417 110.0370 106.9000
118.9600 112.2273 96.1649 108.1191 114.7314 117.2264 119.3722 109.4947 119.6454 117.9059 117.2191 116.7638 115.5766 115.3900 115.4400 115.4931 114.0541 113.6261 113.0075 112.4425 111.8956 111.3847 110.9212 110.5420 110.2880 110.1683 110.0459 110.8238 110.1109 105.8205 100.2227 109.5865 111.6527 121.5870 114.1798 117.1993 110.8431 108.1979 111.9871 116.4100
115.8800 103.5974 117.4348 113.8834 120.9829 115.8157 119.5428 119.1714 118.1308 117.7622 117.5862 117.2736 117.9923 118.0835 114.8795 109.2731 115.0587 114.0935 113.6320 113.1341 112.6643 112.2396 111.8585 111.5619 111.3534 111.2445 111.3116 111.2817 100.7902 91.4504 97.5265 114.9067 112.5580 110.8333 103.9015 111.0972 114.6175 115.9609 116.6944 116.4900
105.2000 113.4646 105.1847 109.1417 120.1244 114.8582 119.4648 118.7743 118.4844 118.1223 117.0936 116.9994 96.9748 97.7629 111.5650 114.5183 115.2544 114.6740 114.2257 113.7875 113.3982 113.0340 112.7224 112.4706 112.3053 112.2209 112.2551 112.6719 102.5557 88.8978 93.5911 112.0177 110.0581 119.9777 114.6779 114.8898 115.3958 116.2834 116.5207 116.9900
103.0900 117.6315 115.9534 102.1688 122.3468 119.3962 119.4971 119.1314 118.7832 118.3703 118.2130 108.7416 111.9402 96.0842 116.6234 115.5108 115.7098 115.1915 114.7983 114.4248 114.0875 113.7727 113.5154 113.3073 113.1599 113.1064 113.0561 113.0002 115.5615 106.0638 91.9614 114.6695 112.8618 111.8339 99.2613 111.4982 116.0525 116.5553 116.9569 117.0700
112.1200 120.5769 121.6074 120.3370 120.2953 120.2278 119.8600 119.2893 118.8986 120.3702 101.4891 96.8237 118.3216 97.7492 121.2098 116.1419 116.1556 115.7082 115.3566 115.0334 114.7330 114.4681 114.2426 114.0703 113.9515 113.8184 114.1162 114.2459 113.7504 116.2188 105.3033 100.8414 100.1861 98.9532 97.4651 112.5378 116.9817 116.9370 117.2748 117.5500
121.4400 121.8391 119.9209 120.9856 125.9854 125.8759 120.0175 119.4270 119.3596 120.1544 104.7720 121.4628 120.5307 117.2808 116.6572 116.6111 116.5596 116.5478 115.9139 115.6015 115.3470 115.1122 114.9152 114.7764 114.6326 114.9608 115.2004 110.8865 116.1775 110.9497 111.2744 98.0127 102.7237 97.7372 97.7210 118.8578 116.1076 117.4192 117.6328 117.6800
114.1000 120.9072 115.2528 113.9022 119.0138 118.5835 120.3224 119.8248 116.9396 119.5138 118.4882 118.1788 117.7200 118.0441 114.0278 119.0216 116.1087 118.1427 116.3686 116.1551 115.9217 115.7159 115.5574 115.3547 115.7098 110.7683 113.9056 115.4140 118.1498 96.4514 112.9495 103.5727 102.0859 102.0202 107.0515 116.1289 117.9797 116.3727 118.6508 118.1000
116.9100 116.1892 125.0480 117.8474 118.8535 120.8774 120.2593 120.2047 117.5923 117.3604 119.3943 119.0316 118.5227 118.7901 120.0956 110.7565 106.4379 116.9283 116.9450 116.6661 116.4640 116.2967 116.1212 116.0343 116.0598 115.9148 115.6739 115.9905 108.7974 100.1136 105.5683 104.6446 101.8677 103.2439 103.2320 101.1131 111.2786 116.3890 117.7236 105.7100
116.9100 102.9611 123.0346 122.4824 121.5116 120.7178 120.5619 120.1802 120.0240 115.7328 119.4080 118.9212 118.2433 118.5316 110.9542 100.7622 115.8684 118.8526 117.3694 117.1868 117.0087 116.8115 116.8151 116.3166 117.0408 116.7618 111.4180 117.1676 115.5075 94.1452 95.0989 102.2052 103.7980 101.3977 103.6477 104.3093 108.8447 118.4368 119.6037 119.0100
114.3400 112.1547 122.2483 120.3301 121.2813 121.0484 120.7812 120.5096 120.3040 118.9492 119.4224 119.2839 121.0466 119.0079 118.1070 100.0947 117.5871 117.6663 117.8352 117.5237 117.3995 117.4255 116.3880 118.1434 112.7054 117.4484 109.3125 109.4892 98.6337 99.6011 102.4995 101.2083 100.9341 106.7342 98.8668 103.5375 110.5950 103.0969 118.9486 119.3700
122.3800 104.9072 122.6094 122.4227 121.1289 121.1488 120.9202 120.7813 120.4983 121.3264 119.5542 121.0410 110.6954 99.1245 99.3281 113.1390 120.0264 114.8898 117.8926 117.3497 118.0557 117.3440 121.3798 100.5892 118.7135 118.0809 103.9894 94.2382 93.7432 95.7570 104.9678 98.7154 109.5566 118.5114 119.8628 118.4737 121.0822 106.1607 119.1100 119.4300
101.9600 120.8308 114.7421 117.2802 121.7745 121.3535 122.0255 120.9560 120.4867 121.4337 111.6520 121.4031 100.2897 94.1679 95.7792 114.4655 117.9125 98.3119 116.8669 115.0959 118.3932 116.9961 101.4401 100.3224 105.7501 122.2217 105.1492 98.2557 95.9125 100.5402 102.9356 100.0455 121.0066 118.5374 118.8158 112.9748 108.7438 95.1948 104.5241 119.7700
122.6900 122.6089 122.4234 122.0749 122.5831 113.6028 110.7288 122.2920 120.9613 120.9107 120.7253 120.9107 119.1225 111.8110 121.5117 121.6912 122.5972 111.3074 96.6664 102.3321 110.7179 110.3500 98.6284 95.4489 96.0788 109.9077 103.4039 96.5991 110.2877 117.5632 102.1591 115.4783 111.1837 119.2292 118.9060 117.3900 110.8763 110.7158 115.5808 120.2000
122.9200 122.5899 122.4476 122.9708 120.9187 123.4170 122.9184 121.2708 121.2855 121.7475 119.2701 113.4999 126.4923 120.8725 119.8121 119.7080 115.6871 106.1037 119.6587 97.5544 117.2856 99.9865 97.1335 98.9753 104.6126 112.6012 98.0364 96.7724 111.3651 102.4724 102.8436 104.4086 102.1632 114.0078 115.3721 115.0511 101.3277 95.6536 122.2227 120.5000
122.9900 120.4749 120.7174 120.3116 103.5039 107.0530 125.8396 120.6772 121.5503 121.9280 112.9392 112.8030 121.9654 120.1248 120.4486 120.0175 123.4297 116.9715 114.4995 98.0367 118.0505 110.3371 104.7742 103.6441 122.2650 120.9214 121.9360 97.6979 110.7520 121.2809 114.0263 103.3261 111.5508 121.4546 116.1121 121.5830 101.1100 106.1379 113.0629 103.0400
111.6500 109.5263 106.0285 102.3054 106.3252 114.5650 124.2439 121.7721 121.9439 121.6763 123.3218 120.3290 120.8537 120.6140 120.4416 121.7825 117.3254 110.0005 99.8382 98.0822 117.7434 121.1423 121.3219 102.3682 121.2951 119.7978 108.0613 98.7825 111.9288 118.9469 110.1090 105.0309 112.4230 120.2230 120.8871 120.9546 117.4743 97.3089 108.1817 103.0400
123.5100 112.0258 118.3750 119.0658 125.7722 121.9358 122.8533 122.1826 121.2241 121.9710 121.3659 121.3719 121.4392 121.1519 122.9407 120.5820 115.1201 113.2861 106.2861 112.7814 120.4726 119.8600 120.9021 121.3913 120.2150 120.7177 104.8117 121.6950 120.6036 119.9695 99.5349 103.8761 105.2823 117.9675 120.6521 120.6140 118.9912 106.4202 116.1362 121.2300
123.5100 123.3500 109.5800 112.7100 122.8800 122.7100 124.0800 122.3800 115.2900 122.0400 121.8100 121.5200 121.5200 121.3600 106.1600 106.1800 111.8000 106.2200 100.7300 120.6200 120.6600 120.4100 120.4300 120.4500 120.4800 120.4900 120.4800 120.4700 120.4600 120.4200 105.6800 108.1500 108.1700 120.8200 121.0200 120.9800 121.2100 121.3800 121.3400 121.5400
