118.2800 118.2900 118.3000 118.2900 118.2800 118.6300 118.6000 118.5600 118.8600 119.1300 119.0600 119.3000 119.5200 119.8100 119.7300 120.0000 120.1800 120.4300 120.6100 121.0800 121.0800 109.4600 121.6600 121.8100 122.0000 122.1900 122.3900 103.1700 122.8900 123.0600 123.4100 123.5600 123.7200 123.8700 124.1800 124.3300 124.4800 124.7800 124.9100 125.0500
118.2800 118.1349 118.1280 118.1439 118.1735 118.2616 118.3951 118.4511 118.5672 118.7095 118.8689 119.0526 119.2014 119.4287 119.8831 113.9284 119.1618 120.4400 120.7421 121.2915 101.1705 118.7739 118.5954 121.8711 121.7259 124.4386 116.0068 108.8105 123.8878 122.8398 123.2838 123.4531 123.6638 123.8675 124.0732 124.6401 124.7309 124.5234 120.0995 125.0500
117.8500 117.6564 117.6500 117.6548 117.7054 117.7984 117.6061 117.9976 118.1275 118.3023 118.5219 118.5138 118.8998 119.9642 119.2336 119.8393 119.4277 113.7265 116.1746 124.8988 124.7912 122.5328 121.6793 121.4216 121.5672 121.5125 108.2320 117.3774 122.6514 122.7634 123.0879 123.3108 123.5254 123.7437 123.9091 123.8274 123.9933 127.3903 107.8668 124.8300
117.4100 117.1485 117.1393 117.1628 116.8819 120.9778 117.0853 117.5682 117.7549 117.9841 118.4445 118.0434 111.3276 106.9344 119.9608 118.3701 118.6569 117.6985 118.1510 112.9140 109.2112 116.7361 121.1312 121.3054 121.3602 121.5164 118.9457 123.5771 122.5390 122.7582 122.9454 123.1778 123.3971 123.6239 123.9214 124.2454 131.7972 110.7054 115.3457 106.2900
116.4300 116.6070 116.5970 116.6173 116.4507 116.5114 116.8820 117.0176 115.4186 117.0741 113.1327 111.8030 110.9483 93.6262 101.9131 122.0509 121.4241 120.4850 114.8908 109.2487 117.9656 120.6241 120.8995 121.0797 121.2364 122.1801 122.0980 121.4990 122.1688 122.4836 122.8229 123.0423 123.2708 123.4987 123.7248 123.4906 114.7452 121.0508 117.1395 109.6600
115.9000 116.0416 116.0211 116.0453 116.1519 116.2509 116.3370 116.6503 115.4084 116.6939 118.7551 117.9928 107.9425 98.0529 98.1557 98.8116 103.2737 108.2198 107.8749 119.9255 120.2331 120.5667 120.4957 120.7360 121.6991 112.3485 112.0900 122.5436 122.1612 122.4308 122.6919 122.9093 123.1499 123.3830 123.6309 124.2296 125.2529 124.8360 123.0001 124.5700
115.3400 115.4203 115.3990 115.4312 115.4918 115.6054 115.7744 115.8610 116.2422 116.6050 102.8636 113.7407 107.4954 112.4041 103.9298 97.0729 104.3076 104.8935 109.2205 115.4282 113.1588 120.1461 120.1656 121.4996 120.5300 118.2107 116.3815 122.5427 113.2666 123.1810 122.5195 122.7760 123.0270 123.2654 123.5298 123.7588 124.0378 124.1275 124.4301 124.5400
114.7300 114.7609 114.7402 114.7758 114.8542 114.9835 115.1491 115.4329 115.6371 115.9837 109.3804 112.0663 104.2708 115.0969 102.0825 106.7638 108.6046 104.2628 105.2159 119.3223 117.6689 120.7020 119.9349 119.0121 111.4986 122.1284 108.7839 117.1384 121.6571 122.0281 122.4487 122.6820 122.9165 123.5215 123.4423 122.7812 124.1049 124.0357 124.3794 123.4200
114.0800 114.0521 114.0212 114.0596 114.1546 114.3094 114.5920 114.5709 114.5657 115.5862 115.9894 112.5645 118.9050 111.7448 99.0881 107.8670 102.8923 103.8712 113.6145 111.0520 107.7185 118.5372 117.6559 118.7737 107.0840 109.3692 110.8368 111.3716 115.0438 122.5686 122.3334 122.6801 122.9978 126.0113 123.2268 123.5522 123.8056 124.0076 124.2747 124.3300
113.3800 113.2706 113.2376 113.2778 113.3996 113.5775 113.8559 114.4601 115.7648 113.4841 114.9900 109.8545 106.7742 106.1211 101.8181 101.4719 101.6101 103.4806 105.9376 110.4220 120.8820 120.8053 112.0860 102.0204 102.6586 107.7221 109.9772 114.0727 109.7474 122.0394 122.1615 122.4458 122.6053 122.5323 123.2430 123.4512 123.6946 123.9312 123.9941 124.3000
112.6100 112.4201 112.3762 112.4855 112.5592 112.8243 113.0578 113.8071 103.9366 117.2564 116.1781 93.0899 94.0708 100.2011 100.6246 100.2988 102.4920 105.8957 113.6938 120.6305 117.2121 111.9159 99.5039 105.2655 113.5213 97.3838 113.8623 111.9104 121.1261 122.5465 122.1861 122.6282 119.4611 123.2099 123.1326 123.3741 123.6020 123.9003 125.0652 124.2700
111.7700 111.4529 111.4326 111.0159 111.6417 111.7143 112.3437 112.5073 115.4506 97.7277 108.0688 97.7804 102.4290 106.1841 102.9343 99.2635 98.8677 117.2427 117.5343 127.1278 106.7812 110.0166 100.6010 101.0278 109.3842 114.0826 121.9651 119.1197 118.0795 121.7371 121.8161 122.2025 119.6352 122.8517 123.0663 123.3021 123.6376 123.2201 120.1411 124.2200
110.8400 110.4353 110.0949 114.4522 110.5992 111.2799 113.7467 111.9324 113.1994 108.1221 110.5958 106.6581 109.2492 108.6088 96.8328 111.4659 115.0346 115.0048 116.5917 126.7327 98.2558 126.3192 114.1415 107.9610 108.4769 121.1706 119.4758 115.4957 118.3942 123.1498 122.6884 123.1547 122.9652 122.7461 122.9964 123.3147 122.9192 126.7739 109.9353 124.2200
109.7900 109.1945 108.9617 113.3503 108.7182 109.5608 106.5884 110.7133 111.7124 110.5307 103.9423 114.9108 113.8970 114.1719 109.6037 116.3014 113.5990 116.2438 117.2920 118.4378 113.6996 118.1267 113.4910 105.8320 105.4648 116.5701 105.1302 116.4515 104.3899 118.2094 117.0848 116.3942 122.7788 122.6427 122.8712 122.8755 123.2611 127.9023 108.0710 108.3100
108.6000 107.8008 107.4474 107.3310 108.2380 109.1643 109.3675 110.2319 110.8420 112.5882 106.2170 113.4562 113.5949 114.5108 114.9681 115.4151 116.6353 116.9209 117.2929 117.5925 118.0112 117.3511 102.3405 103.6596 102.7376 123.0286 109.6134 109.7855 113.9180 119.4490 117.5699 121.4036 122.3660 122.6697 123.3424 124.0300 104.1333 121.7285 114.7602 115.2600
107.2100 106.1390 106.0112 106.2690 106.7307 107.4240 108.3956 109.2390 110.1714 111.0180 111.4687 113.1664 113.3453 114.0695 114.7189 115.3203 115.8616 116.4082 116.9186 118.4673 117.8929 119.5539 114.7514 108.7012 96.8514 111.8357 111.0629 120.8514 121.0005 121.2383 121.7916 121.9635 122.2164 122.5874 120.6830 108.8615 106.0153 116.1062 111.1879 112.3800
105.5500 104.1010 103.8575 104.1860 105.0034 106.0667 107.1980 108.3308 109.4031 110.4062 111.2320 111.3551 113.5293 113.7107 114.4315 115.1112 115.7111 116.2668 116.8185 117.4448 117.5717 111.9718 111.3039 111.4694 96.3953 108.5548 120.9241 120.5493 120.9259 121.2567 121.5646 122.0100 121.8681 125.3120 104.0038 110.8156 106.8892 118.8180 112.0829 113.5400
103.4800 101.4667 101.0459 101.6325 102.9502 104.4959 106.0181 107.4337 108.6840 109.7976 112.8788 91.1506 114.7841 113.1240 114.2263 114.9207 115.6183 116.1703 116.6996 117.3400 117.1521 115.2083 109.8584 95.9684 115.3338 120.3323 120.1380 120.6091 120.9322 121.8756 121.3355 121.4565 107.1286 111.0452 113.0229 110.1339 113.4384 113.3058 114.1521 125.2900
100.5400 97.8682 96.7258 98.1685 100.5452 102.8692 104.8939 106.6210 108.0914 109.5261 110.9352 100.3077 112.8954 112.9994 114.0362 114.6973 113.8626 115.9950 116.6135 116.7623 116.6972 119.9586 104.4321 105.9796 121.1264 119.7571 120.4294 120.5780 122.4467 121.4823 118.3722 120.3790 107.9340 117.3533 109.6387 114.5423 113.4208 116.6043 113.7370 125.4300
96.6100 91.9295 89.8997 92.8251 98.0571 101.3971 103.9666 105.9887 107.6339 108.9602 109.6665 112.2227 112.1780 113.2002 113.8912 113.2079 112.8290 116.0102 115.9820 120.9996 115.7098 118.0099 108.2880 99.8764 120.9769 117.1800 119.9762 120.2601 120.6813 121.1109 121.6285 128.4135 109.9456 103.9910 115.3091 108.8000 113.0042 113.5555 113.9399 120.4100
89.4800 87.9671 85.6225 88.1630 95.9536 100.4379 103.4248 105.6239 107.5538 111.4014 113.4036 111.3795 112.1596 113.0914 113.8154 114.8636 115.5499 116.0350 111.1638 131.2506 114.1365 102.8373 103.8955 100.3049 123.0545 111.7795 122.4241 120.7621 120.7688 121.2875 122.1969 123.5015 104.3259 124.5440 125.0489 112.8964 111.0570 124.2829 112.1134 112.9800
89.4800 88.0977 86.2465 88.3019 96.0113 100.4483 103.4296 105.6312 107.5408 111.1907 113.2477 111.5639 112.1231 113.0644 113.8965 114.5779 115.2902 116.2618 113.6494 123.6368 104.9910 113.7274 98.7720 105.3974 111.1947 107.4394 111.1163 119.1835 120.9339 123.1172 114.9392 113.4051 116.8841 115.3726 112.8560 119.9194 103.5480 110.4510 104.5656 101.9300
90.1700 92.1430 89.9758 92.7600 98.0354 101.4023 103.9759 105.9970 107.6264 108.9037 109.7042 111.5431 112.4178 113.2272 113.9040 114.4621 114.7158 114.8590 113.8117 114.7738 94.0517 104.0352 108.0654 107.6918 105.1540 110.5745 111.6477 117.9075 119.1784 110.1882 112.0114 115.7835 123.0611 110.1268 99.6924 103.7509 101.8065 100.1017 102.6174 103.8100
100.6500 97.8949 96.7269 98.2494 100.5754 102.8919 104.9148 106.6258 108.1335 109.4847 110.5397 111.4828 112.0997 113.0338 114.1027 115.3211 117.7587 116.4969 117.2687 116.1826 114.9915 102.6793 107.6052 102.4356 107.0878 105.6880 116.4336 120.2020 107.5355 114.6130 106.2548 123.4026 117.9944 110.8788 110.3122 99.8303 100.6999 101.4647 101.7363 101.9400
103.4300 101.4726 101.0439 101.6333 102.9707 104.5225 106.0346 107.4593 108.6159 109.7503 110.8371 111.7197 113.2593 114.0430 114.1985 111.3432 97.9507 106.8538 102.9395 119.2152 117.8853 116.9649 119.5732 118.4876 118.4255 118.7652 119.3104 120.7407 120.3748 108.8079 97.4464 101.4236 101.3269 100.6730 101.5974 102.7092 104.3559 104.5059 104.8570 105.4000
105.5100 104.1092 103.8551 104.2061 105.0115 106.0799 107.2129 108.3409 109.5399 109.9890 111.4188 112.9530 99.0721 95.6657 115.0021 115.8867 97.3577 117.2812 116.6210 117.6336 117.8176 118.1571 119.9376 102.9995 120.6541 119.9958 120.2327 120.6050 120.8877 121.5711 124.4473 128.5600 106.8090 108.4910 107.7421 110.1906 103.4770 104.8798 105.3650 105.4100
107.1800 106.1459 105.9828 106.2035 106.7497 107.5069 108.3717 109.1746 111.3678 96.3754 114.4246 106.6513 121.4974 115.0439 103.3154 114.9085 115.4406 116.2410 116.9098 117.4171 118.5604 120.0373 100.6648 100.6162 119.2511 120.0684 120.7037 119.0326 120.6090 121.1973 121.2980 117.7369 132.3516 107.0705 104.9314 117.8339 111.6632 114.0240 113.6816 122.7000
108.5800 107.8075 107.6893 107.8478 108.2300 108.7898 109.4571 110.0348 112.5469 107.3583 111.9819 98.4263 114.9623 113.1938 115.4651 109.7298 114.3972 116.3245 117.6632 118.0311 114.1854 117.6082 109.1195 98.4667 121.1711 119.3701 117.1363 100.8669 120.1376 121.2017 121.8986 116.0601 115.3998 97.9274 102.8190 106.3183 119.3727 108.1434 107.2300 113.0200
109.7700 109.2052 109.1213 109.2335 109.5162 109.9432 110.4567 111.0775 111.5865 110.3887 99.8022 93.8460 106.8662 117.3375 113.9597 116.6250 116.8540 116.7851 116.1404 115.7315 105.2256 100.2912 111.9611 98.4885 122.2803 121.5152 107.2878 113.0208 122.9963 123.6407 117.1378 109.1555 109.9607 103.4705 111.0197 113.9872 107.5529 99.8294 107.9205 117.7100
110.8200 110.4098 110.3446 110.4266 110.6530 110.9858 111.4147 111.8821 112.4922 108.5539 97.5773 117.3349 90.2653 100.2212 111.5649 105.6668 112.8891 116.7745 116.4294 114.2456 117.4121 95.7492 97.5291 101.5802 110.7223 118.1226 121.3409 117.3085 120.0882 116.5977 107.3539 101.8545 105.2052 102.5684 107.3216 104.1638 108.1289 107.9843 118.3334 117.7100
111.7600 111.4686 111.4263 111.4959 111.6621 111.9190 112.2714 112.6705 113.2162 106.9457 91.0586 117.0180 108.8707 95.7470 96.6732 110.5508 111.6843 116.3247 119.0807 118.4800 117.5452 96.0293 106.3414 101.7624 101.8752 108.0878 120.6112 107.9657 125.1575 102.2619 105.4553 110.5987 108.7043 118.3302 106.6554 109.0999 106.9781 111.1879 110.5120 121.5500
112.6000 112.4129 112.3854 112.4053 112.5759 112.8522 113.1382 113.4155 114.1743 114.2509 109.9542 105.6843 97.3040 94.6044 96.2263 95.8573 102.4180 120.7774 111.0830 119.9639 121.1985 113.4295 119.0741 102.7633 101.7932 100.9776 110.4226 102.9204 114.8748 98.2132 101.3894 102.1310 103.4252 117.3760 102.4297 120.3059 111.8157 101.6593 108.3617 122.0100
113.3700 113.2657 113.2455 113.2548 112.9839 114.1990 111.1413 113.8298 114.3837 114.5156 117.8183 99.8849 98.7265 99.0872 99.3985 99.4261 99.8713 105.9569 101.7184 101.7848 114.1471 119.0975 111.4320 119.2401 102.1988 106.8995 106.7082 109.2119 109.9166 97.9903 99.3490 99.0724 111.4080 115.5846 120.5163 125.1148 120.7258 121.8818 108.7783 107.1600
114.0700 114.0485 114.0469 114.0548 112.5126 100.8624 106.9729 115.5837 115.7259 114.7584 116.3327 102.0991 110.9896 98.0475 97.2992 100.4193 99.4969 98.8471 104.7354 101.0794 103.3299 115.1678 118.0304 120.4498 103.4952 102.3647 108.5316 109.1491 110.3508 108.0068 108.2430 110.5954 111.8428 113.9053 114.6964 116.1193 102.8850 135.9748 118.4687 112.4500
114.7300 114.7663 114.7279 114.8002 115.8884 113.5146 92.4170 95.3071 116.0383 115.6456 116.7410 116.4192 116.6036 114.6848 109.2758 120.7298 112.1872 111.7534 107.0012 108.7758 104.7235 99.0857 106.7487 101.9988 99.8805 116.5632 103.4685 107.7277 109.8481 109.7968 110.2844 112.8378 112.1623 112.0820 112.8372 113.4748 114.8366 115.5367 102.2314 102.4600
115.3300 115.2838 115.3982 115.3384 116.6204 100.5898 93.4482 91.0036 116.9601 116.1400 116.7587 116.9722 117.2157 118.3102 117.9241 118.2446 116.9788 111.7324 109.3363 104.8087 102.7185 101.2607 104.9513 99.0330 101.0644 102.5882 104.1025 112.6435 110.4499 111.1527 110.7773 109.7854 109.9700 111.5105 112.2458 111.7343 113.1968 115.7886 105.0630 115.6300
115.9000 117.6049 115.8725 116.5745 118.2439 96.1993 95.5715 93.4816 118.6167 117.2150 117.0350 117.4283 117.6655 117.9384 118.2400 116.6117 116.9352 109.3385 98.8170 106.1427 101.5449 111.3736 111.7368 108.7380 107.1447 123.7201 120.7189 112.2392 106.7231 107.7376 109.1394 111.9942 111.9400 111.8087 112.1574 111.9734 113.1444 113.5420 114.1616 102.6600
116.4300 116.6184 115.9429 115.8642 114.4826 98.4094 98.2181 97.5337 99.5670 112.6706 117.1324 117.9554 118.0614 118.5352 118.1971 113.6523 111.7201 112.4959 104.4956 105.8129 99.4275 103.4376 109.4956 111.8639 110.1550 123.5398 108.8386 110.3494 113.3915 107.4803 107.5381 108.5591 109.9303 110.3791 115.2941 114.5433 114.4533 111.9981 115.8430 120.0700
117.4000 107.4497 118.4427 118.2298 108.2864 118.3368 97.1107 99.9779 97.9008 111.6167 118.0368 118.1962 119.1869 112.7948 118.2153 111.7959 116.3410 103.4666 106.9872 100.7933 106.4492 111.5827 112.1152 110.6375 109.5417 119.0865 110.8014 111.5605 108.9529 124.3317 112.4144 107.2714 104.5536 108.2308 115.1657 118.8142 119.3898 112.9598 120.2069 118.4000
117.4000 117.4200 117.4300 117.4200 117.4000 117.7800 96.3600 96.2500 104.2000 103.9500 107.6000 114.0300 118.7300 96.9500 119.2200 97.4200 115.3900 112.5300 112.9700 100.6500 100.5900 102.9100 116.6500 111.3600 111.7600 110.1600 109.5000 109.9700 110.7600 112.1200 110.3900 101.2100 101.5400 110.4200 111.3700 124.1700 117.9900 118.2200 117.6000 118.4000
