111.1900 110.4200 108.3300 119.8800 112.6600 101.5000 101.5100 103.6700 104.6600 114.9500 102.1200 102.1700 122.0200 114.7300 121.3200 120.8500 120.6400 120.4100 120.1900 97.7200 105.8600 113.1200 113.1200 118.6900 118.5000 118.1700 96.9100 117.7000 117.7000 117.4200 101.5800 101.5800 109.5000 109.5000 116.4300 116.4500 116.4600 116.4500 116.4300 116.3900
111.1900 110.7408 111.1592 114.0251 112.9460 105.3992 104.3951 111.7216 106.3369 108.8654 106.9861 114.8014 114.0284 118.1338 121.5647 120.2404 120.5337 120.0038 121.3860 95.0539 106.0250 117.4322 119.5155 118.5113 118.3810 108.8444 109.3429 118.5998 116.8922 96.0124 102.9327 115.5669 116.7536 116.4032 116.3471 116.1346 116.0817 116.0937 116.1483 116.3900
115.5600 109.9420 112.0945 107.6323 110.0319 104.5157 103.9347 113.1846 100.8179 112.4782 114.2871 121.4235 108.9686 121.8228 121.4324 123.3948 120.8237 120.1183 118.4498 112.5658 112.3845 117.1283 118.5544 118.1869 118.5400 118.4280 117.3486 116.8018 118.9764 113.0199 106.1601 116.6437 115.7029 115.6469 115.5047 115.4796 115.4610 115.4866 115.5496 115.8500
115.8300 113.9781 109.2392 111.1055 106.8257 103.6163 101.9298 113.5885 116.3687 119.1082 125.6411 122.6051 111.8227 121.6131 121.2803 122.2024 120.0224 119.8617 116.5569 116.1307 117.8116 118.8421 118.2047 117.8996 117.6741 117.7223 116.8693 116.5199 116.3627 115.4477 114.4652 115.1791 115.1829 115.0580 114.9317 114.8410 114.8024 114.8253 114.9022 114.6700
115.8100 117.0599 108.1296 108.9738 106.4441 116.2049 107.8218 126.0437 120.0907 119.6018 121.3044 121.4504 119.1085 120.9105 119.8165 119.9918 119.8091 119.6740 120.1304 119.0185 118.8218 118.2116 117.8994 117.5425 117.1541 116.8113 116.3678 116.0789 115.7392 115.5290 115.1591 114.8724 114.6160 114.3693 114.2249 114.1255 114.0948 114.1222 114.2079 114.0100
109.3500 109.3852 108.2269 107.7239 108.6288 103.5962 112.2941 119.0170 118.5450 122.7090 121.8111 121.3749 121.0892 121.5502 121.9031 120.1925 119.8054 119.2313 119.0101 118.6606 118.3238 117.9761 117.5989 117.2068 116.8287 116.3601 116.4003 115.6741 115.2117 114.8250 114.4971 114.1709 113.8908 113.6536 113.4732 113.3653 113.3128 113.3500 113.4482 113.3000
110.6700 109.2974 108.0828 106.0480 103.4622 107.6924 119.0169 104.8816 107.6439 122.0595 121.4780 121.2707 120.8714 113.5284 97.4824 120.8072 118.3289 119.4681 118.9026 118.4758 118.0940 117.6926 117.2768 116.8514 116.4585 116.0482 114.0681 111.0675 115.1202 114.1987 113.8762 113.4917 113.1487 112.8722 112.6551 112.5179 112.4673 112.5057 112.6223 112.5100
101.9100 101.3971 105.9466 106.0744 104.0279 111.2541 116.9142 109.0735 117.5282 115.7592 122.2381 121.0151 120.3752 123.3611 101.7941 128.8871 103.7071 120.9953 118.1834 118.2733 117.8276 117.3832 116.9165 116.5514 115.9032 115.8178 114.5071 114.6311 114.1414 113.6701 113.1863 112.7565 112.3562 112.0141 111.7518 111.5797 111.5180 111.5628 111.7162 111.6500
110.8200 110.0835 101.3825 102.6715 105.2665 110.1355 106.0223 109.9828 119.8920 120.9274 121.5635 121.0472 120.4471 121.0878 91.8587 128.3679 121.7742 119.7044 118.4522 118.0537 117.5846 117.4839 117.6786 114.7736 116.3625 111.9567 105.4852 114.8559 113.4594 113.0241 112.4844 111.9692 111.4949 111.0846 110.7563 110.5359 110.4554 110.5141 110.7038 110.7000
113.2900 110.1295 106.7793 104.1702 105.7192 117.2410 119.7516 116.3872 122.8483 121.1735 121.1070 120.5589 120.2952 115.4301 109.0503 118.7331 117.2049 118.6181 118.3101 117.7657 117.5651 111.8336 114.6905 107.3880 111.1452 113.8534 118.0715 113.5331 113.0747 112.4072 111.8152 111.1244 110.6239 110.0040 109.6176 109.3642 109.2441 109.3185 109.5783 109.6100
109.3400 109.7684 113.7654 112.7085 100.6956 105.9525 122.6203 114.8736 122.0129 121.3944 121.3510 123.1740 121.8608 103.4256 121.7820 120.5986 119.0977 118.5907 118.1507 117.7676 120.2892 100.0219 98.9598 103.3134 108.9043 100.9777 101.5684 109.6634 112.6059 111.4181 110.9017 110.2537 109.0610 109.3126 108.4185 107.9792 107.8596 107.9450 108.2882 108.3700
107.8800 103.7939 109.0456 103.9235 105.2665 110.5483 118.2116 119.4415 122.2342 121.3060 123.1070 110.0592 115.2960 114.0049 107.5456 117.7785 118.5522 118.3521 117.9460 118.1795 105.7875 94.4543 109.5887 113.1138 122.0700 114.1147 102.6265 102.4103 112.7998 113.5241 111.0530 109.2607 107.5824 105.4722 102.6924 106.5072 106.1696 106.3149 106.7971 106.7500
101.8100 104.0314 105.7827 102.6718 113.1509 113.4965 121.9517 122.0264 121.6713 121.2617 122.4763 94.7992 108.7580 124.1177 110.4384 108.1530 119.3648 118.2946 117.8201 118.2998 112.2902 109.4767 119.8623 115.8644 113.1229 111.2316 109.9403 109.4160 108.8801 96.3658 108.6625 108.2318 107.4270 103.5906 105.3751 104.6260 104.0869 104.3206 105.0473 105.1300
101.6200 105.2760 100.7332 106.4468 120.7974 115.2556 122.1962 121.9656 121.5638 121.0946 121.5371 115.9781 102.6641 102.3882 117.0910 107.1704 119.4224 118.1092 117.4829 118.0023 103.3536 105.7919 103.6007 111.7246 116.9848 115.0847 110.2039 103.5053 95.5588 111.6272 110.0746 107.7613 106.2248 104.6513 103.2411 101.8411 101.3525 101.7526 102.9301 102.9800
101.6100 101.2480 102.0322 115.4833 103.4664 112.8491 118.3669 121.6924 121.6077 121.5165 122.8226 112.5090 121.6435 116.7395 119.3582 116.3789 118.8924 118.0782 117.7104 117.1747 107.3483 99.2844 103.8102 111.0402 93.6531 94.0697 99.4798 109.7089 109.6675 111.7538 108.5243 106.4498 104.8933 103.0426 100.7644 98.6340 97.3020 98.2897 100.4191 102.3600
104.3100 106.4356 105.2616 105.9969 105.8365 113.2732 117.0512 122.3538 121.5597 122.7707 100.2963 121.6103 122.2928 100.2268 110.6876 119.9291 118.3951 118.0553 117.5550 117.0393 118.3618 96.5941 99.7607 99.6686 96.9438 93.5668 112.8940 110.6756 105.9089 109.5816 107.6448 106.1083 104.0381 101.5140 98.2928 93.2409 90.5123 92.5690 97.7041 99.5700
101.6000 101.8520 101.2224 99.7773 120.6464 117.9724 122.1993 122.0141 121.5251 121.2138 121.4759 121.0336 119.9532 119.6575 119.9202 119.1682 118.4328 118.0337 117.5553 117.0373 115.8877 116.9300 93.4127 95.0993 97.2050 114.2709 112.6282 111.1197 110.1550 108.9713 107.4221 105.6584 103.4606 100.4763 96.1467 88.5041 85.2627 87.3964 95.0170 99.0900
102.3600 103.9595 101.5528 98.3065 121.5323 122.0469 122.0800 120.3925 121.6970 122.3573 120.6310 120.7969 120.0649 119.0156 118.1666 118.6686 118.4319 118.0449 117.5945 116.9673 116.3147 117.0210 93.9542 96.7471 100.0555 110.2498 112.3354 111.0216 110.0370 108.8485 107.4033 105.6220 103.4009 100.3882 95.8822 88.0875 84.7444 86.9224 94.7313 98.9800
116.4300 109.7029 109.0633 103.8431 103.6466 123.9042 122.1091 115.9078 121.4936 119.4413 106.6249 120.8134 120.0121 114.9091 117.9029 119.9408 118.9137 117.9399 117.2815 117.8274 111.3584 113.4206 97.3931 113.0871 111.6881 92.2204 113.6629 111.0552 110.2608 109.0419 107.6147 105.9515 103.9003 101.2865 97.7234 92.5926 89.2872 91.3682 97.1733 99.2800
105.2100 106.9041 115.3061 105.3181 123.8138 120.0153 122.9629 122.5971 121.7832 118.5652 103.2551 123.4389 121.0623 120.6966 118.3925 112.7997 118.8311 118.8440 119.6222 114.0077 92.4203 93.8988 95.5061 108.3642 106.7266 101.6128 112.5800 111.3329 110.5043 109.3609 108.0522 106.5558 104.8037 102.7328 100.3056 97.7870 96.1000 97.4023 99.9373 102.6600
102.7700 107.9995 108.5294 108.7110 122.3139 120.8689 122.1131 121.7049 118.4482 110.0795 124.2625 108.8234 116.1125 119.1096 112.4000 109.6119 119.2339 113.4723 107.3441 105.2188 99.1085 94.5825 95.6458 104.2173 92.4034 129.8742 112.5363 111.8137 110.8648 109.8091 108.6521 107.3477 105.9233 104.3584 102.7586 101.3562 100.7254 101.1832 102.5022 104.7800
104.1500 102.7303 115.2320 113.1663 124.9820 119.7788 122.7794 122.6287 98.1495 111.0792 122.5385 108.5672 116.3592 119.8682 120.5855 120.4425 119.0535 103.5674 109.2965 97.7953 99.3676 93.9038 93.6043 89.3661 98.8664 86.8329 112.3920 112.1827 111.3330 110.3906 109.3543 108.2527 107.0947 105.9217 104.8261 103.9767 103.6142 103.8824 104.6760 105.0400
103.6100 109.5571 100.3001 102.7685 112.9623 115.2141 122.6119 120.8363 120.6545 123.9263 117.0391 122.7056 120.6520 119.7288 119.3361 118.8503 119.9942 100.4893 119.4024 108.3063 95.1580 93.3764 100.1829 109.0766 115.4469 118.4891 113.5604 112.5986 111.7225 110.8091 109.9247 109.1927 108.2727 107.3722 106.5816 106.0267 105.7947 105.9624 106.4799 106.8500
120.6500 107.0702 113.8944 108.5752 107.2096 123.1781 123.3981 122.5810 121.6995 121.5047 120.0396 120.4062 121.9323 121.2524 120.2796 119.6598 119.9395 102.7305 119.9289 118.3161 113.6369 112.4568 115.3122 114.5830 114.7912 113.8448 113.6838 113.0830 112.3512 111.7953 111.9977 109.9879 109.3604 108.6600 108.0939 107.6985 107.5404 107.6562 108.0235 108.3300
105.1100 106.8926 100.4553 118.4114 122.7426 110.0685 123.1046 121.5754 121.7409 121.5540 121.4651 121.9295 103.6637 121.9122 111.7099 119.6297 118.9861 117.3118 118.0873 117.9318 117.8349 117.4818 116.5047 115.3104 115.2651 114.8019 114.1158 113.3829 113.6919 104.6434 109.3556 111.6011 110.3831 109.8363 109.4003 109.1073 108.9893 109.0722 109.3405 109.5800
117.9700 109.0798 124.3528 122.7562 122.9522 122.0560 122.5033 122.1920 121.8781 121.5768 121.2263 121.1793 119.4987 121.6158 94.4427 113.8071 119.1178 119.0011 118.4029 117.9791 117.5150 117.1127 116.6379 116.1497 115.6729 114.8414 114.6700 113.7091 113.5422 112.8737 112.2514 112.3289 111.3094 110.8857 110.5467 110.3207 110.2358 110.2954 110.5025 110.6700
118.7800 119.5403 122.5164 109.0209 125.1246 126.6475 122.2214 122.2319 121.9583 121.6862 122.3956 110.7722 121.5381 119.4656 120.9025 120.4853 119.2925 118.9872 118.6322 118.1996 117.7444 117.2830 116.8169 116.7220 116.0620 114.3835 108.4763 104.1850 114.9724 113.7815 113.0442 112.6240 112.1973 111.8427 111.5634 111.3897 111.2992 111.3633 111.5352 111.6300
112.9100 103.3908 102.7249 108.6634 125.7416 119.6988 123.1453 122.3077 122.0814 121.8769 121.5226 121.3975 120.8570 119.6822 108.5653 119.9431 119.2781 119.2042 118.8145 118.4537 118.1019 118.1609 113.3833 117.1784 114.4480 90.5896 102.5445 116.0782 114.8186 114.0084 113.7589 113.3465 113.0086 112.7104 112.4856 112.3343 112.4042 112.3750 112.4503 112.5000
116.2200 113.9692 104.5615 108.3549 125.1470 123.0965 122.6354 122.4836 121.9577 121.5707 121.4934 121.8728 120.9191 114.4499 115.7931 120.5277 119.8329 119.3959 119.0399 118.6011 118.5419 112.3758 100.4473 116.3985 97.1519 98.8164 109.3063 116.5231 115.3538 114.6225 114.3909 114.0482 113.7476 113.5122 113.3112 113.2272 112.6307 112.9561 113.3186 113.2800
117.3200 124.2257 126.2711 124.6943 123.0537 123.1050 122.7244 122.2328 122.9894 122.7392 122.7506 119.9707 117.2126 101.5778 124.3947 118.2472 120.1254 119.5729 119.2627 118.4998 119.2325 101.3232 122.4723 121.4382 118.7965 120.6285 113.7906 115.6875 115.5733 115.3130 114.9942 114.7072 114.4538 114.2393 114.1104 113.8707 116.0101 115.0876 113.9891 114.0000
117.7000 125.4545 123.7921 122.5154 123.5421 123.0900 123.6565 124.5686 122.6300 125.1285 115.5811 105.9798 108.4472 111.1652 125.1995 119.9784 120.1466 119.7872 119.5381 118.9822 119.8264 108.4842 107.3492 108.6955 117.3504 115.5300 107.6940 116.3694 116.0188 115.8547 115.5751 115.3259 115.1047 114.9306 114.5276 116.0329 98.1767 97.7680 115.8348 114.6600
104.5600 111.1344 115.4015 124.1516 123.4021 123.6487 115.1974 125.4099 112.7815 110.5139 114.9514 99.3829 123.9159 121.0388 121.0365 121.8512 119.8313 120.1062 119.3725 119.3187 120.3952 106.1079 106.9899 120.9054 117.8472 117.5749 118.4955 116.9516 116.5433 116.3773 116.1243 115.9046 115.7069 115.5781 115.2465 115.5826 114.8062 115.4684 116.2850 115.2700
124.3800 117.6845 122.5153 124.2402 124.7298 124.6151 120.1985 123.1786 117.0168 105.5337 105.5484 113.0934 120.9682 123.1039 124.1659 110.2105 122.7288 122.0215 118.9490 119.7302 105.0957 106.5386 107.2388 116.9838 118.2099 118.2715 117.6791 117.3180 117.1219 116.8791 116.6467 116.4494 116.3222 115.9934 116.8370 116.0725 115.8948 115.7252 115.6650 115.8500
124.5700 125.7006 120.3160 124.0124 118.2255 122.8988 111.5942 123.8379 124.0249 104.7910 121.0679 122.2415 122.1025 112.2721 107.0132 119.7891 105.6535 103.7848 111.7376 117.9592 99.7831 96.8775 102.0888 106.7619 115.9330 117.2278 118.1929 117.8170 117.5603 117.3548 117.1860 116.9520 116.4246 117.8713 109.9279 116.9663 116.6074 116.6426 116.7352 116.8900
124.6000 124.2050 123.7488 124.0718 123.5471 118.3437 119.0525 122.9488 123.5519 122.2222 123.7502 122.0314 121.8405 121.5408 122.6296 112.7357 96.3689 118.0578 119.4413 105.1420 100.9136 101.8858 100.3420 113.6540 119.3496 119.1437 118.5081 118.1921 117.9893 117.7967 117.5430 117.7458 118.0253 117.0559 112.5520 117.8033 117.1697 117.0598 117.1059 117.3700
124.6400 125.8432 113.3518 126.6957 113.0553 123.7804 123.3454 123.4545 123.1077 117.9729 116.6378 122.9574 122.1639 122.0506 121.4509 122.3067 118.5037 121.6767 115.6596 103.5459 104.4879 102.8145 96.8992 118.6206 119.6714 119.5438 118.7683 118.6456 118.4519 118.2039 118.5482 112.3130 111.1822 119.7839 103.2780 119.0870 117.6680 117.5969 117.6603 117.8200
116.8300 113.5588 115.0793 122.0472 98.0309 110.8221 123.2185 119.7791 123.5529 122.5142 129.7787 121.7227 122.4231 122.1154 121.8869 121.3637 121.9930 113.5963 118.4180 101.7955 121.3739 100.3708 111.8051 121.1147 119.5783 119.3957 119.1915 118.9845 118.8984 118.6727 105.9289 113.5978 110.5513 120.7283 99.2174 119.1029 118.1933 118.0629 118.1239 118.2500
102.8600 104.4412 99.7100 101.9309 110.1564 126.7001 124.4820 108.8114 123.8661 125.1046 126.4485 122.6073 122.6243 122.3111 122.0860 121.9876 121.6269 120.5130 107.6600 108.6433 123.5227 120.2673 122.0689 120.3414 120.1447 119.7357 119.5530 119.3891 119.2552 119.0750 108.4257 120.2005 120.0112 119.0980 117.5566 118.5064 118.6353 118.5363 118.5798 118.6600
125.0800 119.4069 113.6013 120.1367 127.7226 120.7908 121.6585 118.7515 120.5514 120.7278 116.0400 117.2390 122.1967 122.2444 122.3271 122.4278 122.7879 115.3567 106.3784 111.4255 115.9216 120.9329 120.4633 119.8997 120.2495 120.0716 119.9018 119.7398 119.6706 119.9011 105.4018 99.0489 118.7482 118.2705 119.6213 118.9281 118.8103 118.9570 119.0100 119.0500
125.0800 117.0100 134.1000 124.5200 124.3700 109.7300 115.5600 102.4000 106.9300 105.8400 108.0200 101.8000 122.8000 122.6300 122.4600 122.3000 112.4600 107.9000 108.1000 121.3700 121.2000 120.9900 120.9900 120.3000 120.3900 120.1900 120.2100 120.0100 119.7900 119.7900 119.6100 119.6100 119.3700 97.4000 119.4300 119.0900 119.0900 119.0800 119.4200 119.4200
