113.6300 112.1700 113.8900 106.4200 119.7400 103.8800 105.2700 107.4800 108.0700 106.6400 120.1400 122.8700 122.7300 119.5400 122.3800 122.4400 122.2800 122.1100 122.1100 121.9200 121.7300 110.6200 121.5500 121.5800 121.6000 121.3600 121.3900 121.4000 121.4000 121.4000 121.4000 121.3700 121.3600 121.6000 121.5800 121.5400 121.7600 121.7200 121.9200 121.8800
113.6300 111.8084 106.1399 109.4987 113.3072 108.4982 108.8490 102.3703 115.8051 123.6110 120.3642 122.9777 122.5399 122.1175 122.7865 122.9511 121.7809 121.7510 121.8046 121.5351 120.3053 120.8520 121.6574 121.3953 121.2725 121.1124 121.1777 121.1763 121.1767 121.1818 121.2447 121.4681 109.7174 118.7933 121.0813 121.4726 121.5287 121.6233 121.7227 121.8800
112.7100 112.7610 109.8084 111.5405 111.5242 116.0734 103.9442 104.2852 108.9713 119.8264 121.6923 122.4957 122.3558 122.2867 121.7651 108.2835 123.1083 121.7008 121.4760 120.9312 121.8851 114.1550 121.1525 121.0105 121.0133 121.4213 121.2335 120.8941 120.8239 120.8398 120.8762 120.9065 121.7386 120.9921 121.0312 121.1316 121.2218 121.3161 121.4254 121.5800
113.5200 114.3878 112.9895 115.5129 117.5927 102.4118 116.0950 110.5560 114.4173 135.0134 123.5140 122.2600 122.0370 121.7816 121.4744 124.5490 119.7445 121.4706 121.1630 120.9407 121.3889 120.7947 121.0842 120.6936 120.3721 120.4798 121.0735 120.5209 120.4863 120.4878 120.5192 120.4434 120.4268 120.6581 120.7183 120.8001 120.9023 121.0115 121.1205 121.2800
102.0100 111.8944 111.6187 110.0343 109.8590 103.3410 109.2923 103.2235 117.2496 120.3516 118.9561 123.4791 121.7502 121.8707 121.4988 120.9784 121.3039 121.0480 120.8903 120.7600 120.5739 120.5023 120.4060 120.4259 122.1792 120.6673 120.0453 120.1612 120.1352 120.1388 120.1497 120.2050 120.2962 120.3190 120.3797 120.4803 120.5661 120.6781 120.8129 120.9600
107.1600 109.2696 111.9030 112.2721 105.2640 107.5236 106.5112 105.3288 113.9950 123.2146 120.2036 121.7748 121.5493 121.3942 120.9373 121.0674 120.7889 120.7028 120.5632 120.4210 120.3038 120.1718 120.1824 120.3665 109.6560 113.6525 120.5149 118.9974 119.7225 119.7000 119.7653 119.8105 119.6983 119.7959 119.9894 119.9986 120.2563 120.3806 120.4772 120.5900
107.1600 108.3122 107.0800 112.3958 105.2244 104.3804 110.3831 109.8992 98.9082 115.7233 121.6701 121.5051 121.4205 120.5938 123.2254 115.6096 119.7633 120.4055 120.2570 120.0867 119.9423 119.8046 119.8086 120.5461 103.6134 101.3748 122.5089 110.8000 120.6793 119.4739 119.3203 119.4003 120.2521 120.0654 119.9479 120.2481 119.6844 119.9687 120.2352 120.2900
103.9700 110.7292 107.0584 110.1189 114.1545 107.6907 110.0608 110.6896 104.4655 116.2358 118.6392 121.7477 120.7025 121.7396 111.3341 123.6941 119.1831 120.7325 119.9110 119.7286 119.5850 119.4523 119.2401 120.1899 102.6641 98.8096 114.2476 116.6718 116.0927 118.9844 118.6040 119.2227 105.5184 117.5130 114.1080 115.2575 119.6214 120.4664 119.6200 119.9400
101.2600 103.1178 116.1955 105.8305 105.2366 102.5172 116.5109 114.7286 119.9275 107.9340 122.0903 120.8014 121.9155 116.0816 112.5105 105.7160 104.8760 121.8188 119.5244 119.3595 119.1982 119.1175 118.6198 115.7910 110.7869 97.4207 101.2411 103.7979 104.5485 118.1815 118.1997 117.4659 117.6076 120.4664 118.0073 114.4729 103.1817 118.0095 119.5013 119.5800
104.0600 110.9486 101.4280 101.8974 109.5522 108.2443 108.3560 116.6326 122.8503 121.0948 121.3849 119.7802 119.0084 103.5648 122.6942 121.4209 121.1272 119.2338 119.1463 119.0072 118.8243 118.5747 117.9690 113.8573 119.3881 108.6910 103.4027 104.6170 113.7318 118.5407 118.4826 101.0699 122.3861 111.1988 105.5822 109.3353 109.6042 119.7972 118.9321 119.1700
103.5600 104.2582 103.8446 107.7296 105.6837 118.1275 106.0743 109.3723 121.2993 120.8538 121.4451 105.4609 116.1635 115.3707 105.8076 114.6123 118.8776 119.4826 118.8099 118.5636 118.4223 118.1996 118.8864 114.6793 128.2809 105.3593 101.3348 96.8113 112.5258 117.4260 117.7973 101.9289 99.8208 104.6710 109.0088 120.3374 105.4339 119.3479 118.8015 118.7600
113.2000 102.8654 117.8769 110.2794 107.0359 112.1410 107.8731 112.2644 121.9288 120.6201 121.2252 102.0126 120.8382 117.2658 108.9391 104.4954 117.0170 118.6961 118.5918 118.2452 117.9839 117.7884 118.3346 105.6449 117.5653 114.8182 116.7594 109.1231 107.9893 117.0726 113.0946 103.4904 120.4131 105.3542 119.5175 115.3122 117.6998 118.7122 118.3965 118.7100
113.2000 101.5400 108.6858 104.1799 109.1238 118.2755 124.1172 121.8885 120.5945 120.4454 121.1970 95.7365 101.2101 96.4225 115.9069 115.1206 119.7965 118.1840 117.4431 117.8211 117.5891 117.1526 117.1750 118.0898 116.5043 114.2984 96.2100 102.3186 99.1136 116.7880 103.1458 106.4601 118.3809 115.2241 118.7376 117.6785 117.2790 117.7966 118.0734 117.8900
103.5100 99.7321 100.3357 107.6879 117.9218 117.2227 117.2414 120.6997 120.5729 120.3443 120.0918 115.3952 119.6650 113.8382 104.1564 114.7853 117.6527 117.7929 117.7247 117.3618 117.1219 116.9680 116.7089 117.2035 115.6357 115.8765 110.8331 111.4909 94.8457 115.8512 118.1221 117.3593 115.7426 118.2443 115.8107 116.5925 116.9148 117.1222 118.0098 104.8800
100.5300 101.0665 108.7458 102.0243 110.9221 112.9516 120.4545 120.6926 120.3866 120.0973 119.3508 120.0996 119.3517 119.7963 120.6278 123.1343 117.6038 117.6725 117.2308 116.9349 116.6509 116.6332 104.1366 112.7015 116.1216 111.4584 105.3194 104.3909 115.1322 99.3548 117.0813 115.2102 115.7026 115.6213 116.0884 116.2398 116.5184 117.0089 115.7193 112.8100
101.8600 109.3038 100.4858 105.0620 115.8584 111.2895 122.3780 120.2129 120.1748 119.7489 119.6364 119.2222 118.9887 111.1948 111.7758 114.3632 117.4047 117.1700 116.8187 116.4843 116.1627 117.4416 102.8386 108.0895 113.6042 115.1705 112.3598 115.2807 94.8285 116.5162 114.1669 114.8532 114.9326 115.1825 115.4149 115.6866 116.0367 116.2469 116.7140 116.8500
103.1200 117.5481 97.9116 100.0944 99.3457 101.8543 118.6043 120.2538 119.8575 119.6551 120.7096 118.6542 118.6172 118.0613 118.1014 117.6814 116.9572 116.7843 116.3945 116.0185 115.6776 115.1262 113.7543 121.1303 114.4201 114.1120 114.0820 113.3728 115.1832 113.5872 114.0151 114.0984 114.3196 114.4926 114.8643 115.2022 115.4064 115.8441 116.1582 116.3300
102.7600 105.4941 121.4026 104.8109 103.6641 106.0337 107.0050 114.4709 119.9580 116.0648 96.0345 117.1643 118.1759 117.9154 117.7552 117.0511 116.8289 116.3592 115.9639 115.5379 115.1486 114.6605 114.6630 114.0291 113.6981 113.7712 108.7961 111.4370 108.2111 112.9615 113.1391 113.3598 113.5922 113.8461 113.1801 114.6831 114.9753 115.3232 115.7357 116.1800
114.1400 106.3299 115.5033 113.3462 120.6718 122.1046 121.5929 120.0488 119.9676 110.3893 100.7543 117.1817 117.7112 117.4202 116.5170 118.4868 115.9763 116.0559 115.5125 115.0617 114.6222 114.1701 113.7450 113.3363 113.0184 112.6125 112.6435 112.9011 108.7978 112.3955 112.3319 112.5336 112.8100 113.1757 113.2401 114.2005 114.3155 114.8204 115.2758 115.6700
104.6700 103.6671 104.1055 102.0048 121.5298 121.0395 119.8560 122.1412 120.6856 120.5257 109.8626 90.2532 121.7934 116.9852 114.5859 133.3167 115.0079 115.8185 115.0595 114.5765 114.0632 113.5678 113.0794 112.8482 112.0521 111.6030 111.4337 110.8576 111.3204 111.0333 111.3297 111.6348 111.9788 112.3468 112.8121 113.3009 113.7951 114.3034 114.8036 114.9800
104.9200 103.7700 102.4803 103.5204 121.9267 108.7036 120.9869 94.5745 112.0670 119.0668 110.3234 106.7467 107.5767 117.1709 116.9251 116.0994 115.7128 115.1564 114.6520 114.0828 113.5217 112.9508 112.3731 111.8382 106.3588 110.8933 110.4746 111.1302 111.2942 110.6904 110.2110 110.6462 111.0641 111.5529 112.0737 112.6416 113.2090 113.7727 114.3441 114.9200
104.1700 103.8452 97.9406 97.8259 114.1743 106.5123 121.1547 130.8592 111.1250 119.3537 119.8521 120.2049 118.2392 117.0935 116.6360 115.9632 114.9091 115.3172 114.2122 113.6110 112.9605 112.3190 111.6610 111.4942 110.3879 110.2669 109.2427 107.1388 91.9508 108.5446 109.1211 109.5513 110.0688 110.6632 111.3044 111.9587 112.6169 113.2602 113.8886 114.2200
104.1700 118.8971 101.2763 97.6964 118.0770 115.1451 120.8358 116.9184 118.7521 118.6718 118.0329 117.3805 117.2265 116.1206 115.5858 115.6836 114.6678 119.7486 113.4496 113.1471 112.4284 111.6821 110.9108 110.1010 109.3308 108.6017 107.9025 108.6647 122.7480 107.3933 108.0002 108.3186 108.9799 109.7237 110.4973 111.2695 112.0261 112.7566 113.4499 114.1600
101.2900 117.9439 97.5491 113.2084 120.3838 106.4082 119.9207 119.2790 119.0123 118.2830 117.5936 117.3521 116.9447 117.4295 117.4545 115.4177 114.8405 115.6704 113.3035 112.6832 111.9072 111.0698 110.1895 109.2521 108.3317 107.3922 106.5051 105.5147 109.3107 105.6451 106.3100 106.9064 107.8053 108.7431 109.6838 110.5979 111.4587 112.2757 113.0406 113.3700
117.3200 111.7517 119.2460 119.1783 120.1723 119.7397 119.3336 119.0816 118.7436 118.7442 119.4596 118.4470 116.6128 113.1259 94.4983 115.9618 114.1860 113.7569 113.1153 112.2844 111.4277 110.4883 109.4693 108.3694 107.1892 105.9929 104.7693 103.9031 103.3387 103.5469 104.2807 105.3530 106.5424 107.7453 108.8857 109.9426 110.9236 111.8371 112.6735 113.2400
101.9700 120.7147 112.0415 104.9163 123.9353 119.6579 119.5420 119.0894 118.6194 120.6224 95.2896 106.5618 116.9358 116.6694 115.2046 115.1663 114.2670 113.5985 112.8127 111.9532 111.0069 109.9654 108.8153 107.5209 106.0791 104.5024 102.8131 101.2513 100.3960 100.6824 101.9470 103.5881 105.2438 106.7649 108.1266 109.3564 110.4586 111.4484 112.3570 113.1300
105.4400 120.9095 128.3073 99.6610 122.5236 118.5961 119.2375 119.1458 118.9974 109.9584 100.1937 119.3504 116.2355 116.3562 106.9896 116.0100 114.0698 113.3946 112.5919 111.6804 110.6717 109.5493 108.2608 106.7820 105.0461 102.9912 100.5172 97.8652 95.5599 96.3608 99.1383 101.7070 103.9833 105.8813 107.4921 108.8743 110.0797 111.1495 112.1064 112.4600
116.2400 101.8876 118.0127 118.7660 121.3364 120.0219 119.3117 119.0165 118.5954 118.9405 119.3172 116.8756 114.1976 98.5742 121.0190 115.3226 114.2401 113.2634 112.4344 111.5016 110.4402 109.2484 107.8695 106.2418 104.2468 101.7171 98.3023 92.7768 88.8656 89.9361 95.6884 99.9913 102.9721 105.2233 107.0245 108.5292 109.8214 110.9437 111.9453 112.4000
113.6800 113.3924 123.1573 121.7177 120.0486 119.7500 119.3745 119.0115 118.5779 117.9066 117.2907 116.7541 113.6550 90.1505 91.1673 106.9232 113.7066 112.9075 112.3867 111.4191 110.3359 109.1375 107.7125 105.9769 103.8456 101.0116 96.9526 88.9689 84.7093 86.0275 92.9166 99.0114 102.4456 104.8989 106.8084 108.3751 109.6972 110.8428 111.8658 112.3600
113.6700 116.7258 121.2135 120.3672 120.1910 119.8380 119.4297 119.0385 118.6878 118.5672 117.7817 116.8432 114.1396 103.0353 104.7228 109.6219 114.4750 113.1607 112.3876 111.4376 110.3760 108.9606 107.6392 106.0638 103.9521 101.2032 97.3860 90.0410 85.8234 87.0772 93.7161 99.2788 102.5931 104.9805 106.8633 108.4164 109.7488 110.9500 111.9184 112.3500
99.8100 113.5315 120.8227 120.4145 120.1800 119.8395 119.4365 119.0416 119.2882 117.6996 117.7596 116.9305 117.1990 118.4620 116.7125 115.2834 114.0717 113.3515 112.4973 111.5815 110.4647 110.5316 108.6715 106.4098 104.5040 102.1987 99.1806 94.3962 91.3086 92.4836 97.1954 100.6496 103.3550 105.4594 107.1911 108.6451 109.9644 110.7771 111.8395 112.3600
121.4900 122.5036 120.0268 120.6059 120.2369 119.8765 119.4880 119.0948 118.6002 118.2811 117.7249 117.1910 116.4533 115.7337 115.3337 114.8567 113.9657 113.5135 112.6892 111.7008 111.1862 101.0864 109.0880 106.9363 105.4544 103.6042 101.5337 99.3278 97.9298 98.4472 100.3198 102.4896 104.4848 106.2287 107.7357 109.0277 110.4063 112.2880 113.3555 113.0700
121.5000 121.1095 121.0725 120.6488 120.2938 119.9157 119.5424 119.1569 118.7423 118.2901 117.8510 117.3683 116.8856 116.3348 115.7130 115.1150 115.5064 110.9024 113.1840 112.2484 111.4693 106.4892 109.4824 105.9694 106.7003 105.0988 103.6805 102.3836 101.6806 101.9146 102.9492 104.3256 105.7755 107.1530 108.4413 109.5536 110.3948 116.2988 103.0247 113.1500
121.5200 121.4195 121.0531 120.6878 120.3821 120.0214 119.6082 119.1986 118.7843 118.3499 117.9209 117.5119 116.8912 116.4085 115.9282 114.8058 111.7415 104.1088 113.1009 108.1143 111.9429 110.7796 109.7325 108.3990 107.6980 106.5755 105.5556 104.7515 104.3341 104.4650 105.0802 106.0088 107.0679 108.1564 109.2076 110.2650 110.6121 117.1745 101.3832 113.2500
121.5400 121.4868 121.1229 120.8584 120.3250 120.0362 119.7249 119.3300 119.0192 118.5329 119.9024 117.3670 117.0443 116.6216 116.0692 115.3631 114.8775 114.3421 113.6538 112.6699 112.0625 111.3146 110.4837 109.6281 108.7493 107.9309 107.1741 106.6257 106.3587 106.4455 106.8507 107.5003 108.2943 109.1505 110.0170 110.9015 111.7397 108.8524 96.7347 97.9200
121.7800 120.2707 121.5664 121.0467 120.5488 120.1896 119.5485 119.5760 119.1847 118.2357 119.0730 116.6551 116.2195 116.9252 116.2943 115.7149 115.1546 114.5834 114.0015 113.3635 112.6318 111.9400 111.2226 110.4947 109.8039 109.1408 108.5821 108.1927 108.0016 108.0610 108.3523 108.8221 109.4346 110.1142 110.8322 111.5666 112.2235 113.7624 113.4459 95.8400
121.8000 100.5319 120.5742 117.9234 113.9097 119.7729 119.5290 115.6592 118.6104 121.1110 107.3347 119.3393 117.2479 116.8431 116.5850 116.0413 115.5155 114.9834 114.3964 113.7952 113.1987 112.5738 111.9553 111.3533 110.7725 110.2519 109.8217 109.5219 109.3809 109.4296 109.6407 110.0020 110.4772 111.0251 111.6241 112.2403 112.8593 113.2879 114.9809 114.1900
103.6500 104.0036 104.4201 102.3815 122.7856 118.5405 118.5630 103.0350 118.8008 116.1840 99.0048 114.9879 118.1893 116.2420 116.8149 116.2600 115.8498 115.3161 114.8059 114.2860 113.7386 113.1948 112.6600 112.1496 111.6783 111.2463 110.9104 110.6779 110.5758 110.6048 110.7727 111.0598 111.4305 111.8885 112.3738 112.9141 113.4451 114.1557 114.5275 114.8000
122.1000 103.5550 116.1631 115.3925 118.9326 106.0659 111.9512 121.8544 114.1321 116.5252 114.9953 107.2632 118.4374 117.5624 117.2270 116.6465 116.1917 115.7283 115.2551 114.7727 114.2925 113.8114 113.3466 112.9097 112.5086 112.1617 111.8900 111.7059 111.6230 111.6425 111.7791 112.0102 112.3200 112.6880 113.1127 113.5597 114.0231 114.5101 114.9286 115.5200
122.1000 99.9000 100.3100 101.9000 120.8300 98.6000 99.8100 119.8800 98.7200 98.2500 102.9500 98.5900 117.9400 117.6700 117.3200 116.9700 116.2800 115.9100 115.5700 115.1400 114.7300 114.3500 113.4200 113.4200 113.0000 112.4600 112.5600 112.6300 111.8500 112.6200 112.6200 112.4700 112.9900 112.9900 113.4200 113.8700 114.3300 114.7200 115.0800 115.5200
