113.1700 112.8000 112.8000 112.2900 111.6700 111.7600 110.9300 110.9300 111.7600 111.6700 101.3000 101.3000 112.8000 113.2300 113.8000 114.1300 114.6400 101.1900 102.2600 104.7100 95.5300 95.8700 100.4600 110.5400 110.6300 113.1400 97.0700 97.3400 98.2400 98.1300 100.8400 104.9600 105.4200 115.6800 116.7400 117.3000 118.0800 121.5100 122.3000 121.7700
113.1700 112.5356 112.0657 111.5301 111.1455 110.8582 110.6926 110.6200 110.7249 111.0440 111.4447 111.5824 112.3477 112.5858 114.1822 113.9792 117.2790 102.7971 106.0654 102.5159 97.2627 96.3981 98.7884 109.6877 110.0972 112.9446 102.4306 98.0560 97.4142 97.3902 107.2349 108.8527 110.1472 114.9994 117.8729 119.4777 120.3712 108.6358 109.0820 121.7700
112.3600 111.7325 110.4171 110.5784 110.1081 109.7404 109.5234 109.4710 109.3472 111.8846 104.6586 112.1839 111.6422 111.8570 113.4761 107.0610 105.4938 102.0776 109.9076 95.1989 96.4761 96.5843 101.8619 112.9965 111.3220 107.5817 99.8176 101.9790 105.3191 104.8956 112.8351 117.3662 117.1304 117.5476 120.6808 121.0432 123.8291 111.3656 105.9888 100.8100
103.7000 120.9069 110.4113 109.5514 108.9405 108.4664 108.1926 108.1094 108.0735 108.5344 91.9779 110.2094 108.5819 111.1987 107.7563 101.6591 104.8817 100.4237 109.5207 110.7617 94.8975 104.8180 109.7204 108.7913 111.5651 102.5610 106.8526 103.0770 111.3862 114.9993 116.0531 106.5707 120.0663 119.2063 119.9432 122.1084 108.2651 112.7054 102.5937 100.7900
110.3700 112.0906 107.9248 108.4714 107.6242 106.9991 106.6167 106.3664 106.5786 108.2040 108.9609 108.5006 111.7270 92.8742 91.3906 89.8212 98.1179 104.4849 99.8803 113.1182 105.4632 106.0886 104.7588 103.9218 106.5142 108.3771 112.5890 110.1915 105.1113 115.7859 115.7331 113.5679 118.5721 119.0289 120.7555 121.2904 110.9612 98.9667 100.5735 100.7700
110.1100 108.6069 108.1031 107.1822 106.1941 105.2637 104.6608 104.4391 102.0541 101.0624 106.5747 108.4137 109.1969 97.1010 97.3293 97.2075 99.9522 101.8051 100.9077 103.0391 101.9788 102.8679 107.9293 110.7272 110.7825 108.1925 95.5800 108.9229 108.5550 113.7677 112.9311 116.9632 118.6037 120.1089 107.8858 123.0742 100.0514 99.6990 99.9504 114.3900
109.0600 108.5725 107.3339 105.9519 104.5230 103.1742 102.1751 101.9173 102.8236 104.1439 105.5688 98.9267 89.8206 111.4851 91.5595 101.6817 99.9931 104.9488 100.9419 103.1055 109.0454 109.4216 110.2629 110.8545 110.4492 110.4403 93.6174 104.6199 98.5548 109.3544 108.1326 113.7665 117.8198 117.4489 118.9064 119.3022 118.2630 117.2512 103.1323 100.7300
108.8400 107.8561 106.3911 104.6790 102.7322 100.6260 98.7614 98.2154 99.4131 101.3751 104.7495 115.0661 88.1752 118.2345 120.2403 101.2549 103.5912 105.8310 106.7217 108.0356 108.8366 109.3809 109.7077 110.6182 108.1824 105.4094 98.2286 106.0042 110.5005 109.4685 114.4692 113.5070 114.6979 109.5797 118.0689 114.5617 111.0878 104.4067 119.3017 113.0400
108.6700 107.3169 105.6192 103.5599 100.9356 97.6677 93.2332 91.6596 95.0141 99.0535 101.3875 101.9605 108.9618 100.6063 118.3520 102.6877 100.5966 105.8285 106.0327 107.6180 108.6262 109.4100 109.8138 108.7880 103.8243 105.1415 97.4385 107.8593 110.1924 106.7900 111.9479 110.2111 114.8995 113.9673 112.4571 120.6505 122.7690 117.9308 118.4437 114.8300
107.5500 106.9862 105.1363 102.7962 99.5819 94.4439 87.4438 85.8321 89.7215 96.9208 101.5807 106.4661 107.9678 120.5200 111.3131 99.5465 100.8672 103.2728 103.8336 106.2261 108.5249 106.3567 106.4587 98.8439 106.2692 105.1516 109.5957 112.5502 108.7893 111.3389 116.5535 116.1564 118.1241 118.5029 119.1663 118.6964 119.6170 120.6066 121.1682 121.4500
107.4900 106.9105 105.0267 102.6235 99.2536 93.5234 86.1204 84.3254 88.3451 96.6901 101.7094 105.0227 105.9872 117.2122 96.1090 90.5265 94.2583 96.8817 96.6673 100.1944 105.7467 102.7832 102.7474 96.2659 92.7343 97.3284 94.7882 100.8953 113.8406 115.7241 114.7035 115.6957 116.5653 117.6950 118.4290 118.7834 120.0469 120.5021 120.9965 121.4600
108.6100 107.1160 105.3190 103.1048 100.1306 95.2495 89.9616 88.4182 91.8112 98.4269 97.0859 103.7997 111.4954 103.8768 99.4258 91.4642 93.9210 97.4359 101.5420 99.4803 106.2651 102.6435 103.5625 96.0960 100.9269 99.9984 101.4352 103.6499 106.1728 115.1248 116.2599 116.9849 118.1004 118.0564 118.5299 118.7119 119.7924 119.8506 121.1185 117.3100
108.7500 107.5558 105.9485 104.0174 101.7089 99.0944 96.0527 95.0116 97.3012 100.1059 96.3883 102.2660 113.8790 83.7029 90.6378 90.0337 93.6011 97.5784 96.5482 99.5242 109.8368 94.8322 100.7261 100.8936 101.7085 110.8884 109.5839 112.6463 103.2833 116.1451 114.0885 113.8794 116.6958 118.0257 118.9202 119.2225 119.1506 121.6633 119.8303 121.0500
108.9400 108.1683 106.8020 105.2931 103.8980 101.2457 100.9708 100.0927 100.9733 103.1091 86.3843 91.8317 102.5100 88.0095 91.1342 90.7563 92.5923 97.9337 98.7438 103.7865 100.0415 106.8278 98.4538 105.1659 107.3383 111.0349 110.5684 114.4010 111.5760 116.1002 116.3469 111.0496 116.7101 117.3184 116.6476 118.3274 119.4977 110.1032 104.3145 100.7100
109.9900 108.9080 107.7788 106.4882 105.6778 100.5024 103.7385 103.2431 103.6931 104.8575 104.9448 112.1078 88.2776 88.2809 93.6229 94.5754 97.6340 98.1451 99.0370 101.4366 101.1276 100.9615 110.1875 101.2209 106.1298 112.8002 108.5844 114.2921 115.2015 115.6719 116.7724 116.7965 116.2403 117.5908 118.7540 120.2818 113.1189 107.1212 99.8843 100.7200
110.2300 109.6905 108.7524 108.0412 106.9739 106.3939 105.5761 104.8108 105.7522 105.0861 108.7669 95.5350 100.3191 89.5757 90.0156 93.6598 96.4374 97.9335 99.5368 100.8151 95.8782 93.5752 113.9544 94.5149 96.5368 109.6691 113.8376 114.6507 114.6497 114.2619 115.6338 114.9575 114.9521 116.8362 102.9226 100.8057 99.9930 100.8740 100.6719 100.7400
111.1700 110.4999 109.7143 109.7674 108.9178 107.4869 106.9267 104.6352 102.5755 109.8364 100.4414 108.7535 103.1460 95.2414 94.8688 94.7822 97.8438 103.3440 104.7188 102.1034 106.1389 110.0055 99.0764 102.3278 103.2474 108.0711 108.4445 108.4613 111.5718 114.0869 113.9910 113.6296 115.7367 115.8951 117.4470 111.9817 108.9615 99.8994 100.5725 100.7500
111.4300 111.2707 110.3682 110.0252 109.5745 108.9369 101.4293 85.4365 99.8666 115.6430 91.1714 98.5911 109.8492 94.4865 95.7278 97.2747 97.8576 100.1062 102.0549 104.2028 107.1500 106.4277 112.5495 94.8468 111.9196 104.4740 106.6122 109.1950 109.6428 110.5938 111.2844 113.1076 113.7796 105.6805 97.4144 98.3861 99.5548 100.3761 100.6521 100.7700
112.2800 112.0961 111.3112 111.1066 110.6164 110.3153 102.0620 88.2271 95.8292 108.1368 114.3683 92.5569 96.7749 109.0884 96.1305 97.5895 99.0956 101.6479 101.9246 103.7859 105.4087 107.3786 110.1951 99.6431 92.3341 111.9447 114.8586 110.1487 111.0524 109.4776 112.0619 114.0523 97.1224 98.4001 100.0204 100.1105 100.6682 100.5942 100.7681 102.1400
109.6100 118.1255 115.4451 111.8404 111.7187 110.7735 107.2032 94.2723 92.1803 97.2166 98.5765 101.7087 93.4688 97.4571 93.5076 95.9799 101.3888 104.6182 104.1301 105.7003 106.6962 104.9843 102.0893 96.1798 114.5436 112.7091 112.3299 112.2090 112.5971 117.4386 110.2738 109.3493 99.4090 100.8087 99.6909 104.5794 99.1636 100.3420 101.0000 101.0000
113.9100 116.4691 114.0758 112.7502 111.9358 113.4443 99.9064 102.5242 97.9507 95.6324 98.4749 95.4745 106.6661 105.7061 95.9613 105.2409 104.6225 104.6463 103.9971 97.2251 99.2604 93.1738 93.2475 100.9855 108.6032 105.8773 113.0648 112.0305 112.6567 113.4813 107.1693 102.7881 102.9022 98.8432 111.8588 108.3241 105.7000 101.4531 102.5834 102.7600
114.6200 114.4223 112.9568 114.5211 108.5400 114.4695 95.0285 102.9579 100.8490 105.4669 100.5599 96.4399 102.5593 98.2134 99.8280 113.6291 99.4278 104.7303 105.5766 104.8110 101.4858 95.4545 97.4102 103.9468 113.7745 109.1689 112.8728 112.9392 113.6360 114.7922 105.8849 101.3530 97.9203 99.6376 96.5452 97.5256 101.5706 102.7236 103.4448 103.2200
115.2400 114.3592 115.4082 113.1473 92.0139 113.8588 88.5813 88.6721 102.7427 101.9300 100.4854 103.3314 102.1267 100.7249 99.8549 102.9794 104.1872 98.8987 106.3550 106.6270 108.6909 105.8696 100.2582 99.1889 110.2717 109.7315 111.9205 112.8098 113.3506 115.5388 115.4630 110.0880 107.5624 98.3210 108.4205 100.0449 100.9932 101.8141 102.0093 103.6300
96.0400 93.8130 112.5916 100.9158 107.1376 118.7286 99.3806 103.4292 98.9425 102.7294 103.6779 104.8076 103.8051 101.9934 100.1197 101.9367 109.3442 105.7145 111.7703 97.7353 110.0502 110.7061 102.0656 102.5167 108.7066 109.5347 112.2945 112.4585 115.2161 102.7882 113.5156 118.9615 119.1335 114.9530 115.9221 101.8320 103.6812 103.7731 103.7574 104.3800
96.0400 115.6937 117.1971 108.6721 117.5589 116.3304 98.1126 107.1126 102.1098 97.6770 104.3455 103.8691 107.7674 100.7706 107.5130 102.0454 110.9469 111.6664 113.8693 102.4335 110.0758 109.0488 109.9857 110.0710 110.8348 111.9718 112.2440 112.9580 114.1600 114.8204 104.6606 99.0933 108.3779 114.6902 101.2042 101.1426 100.1471 103.4515 103.9771 104.3400
95.2500 117.4157 115.7952 117.0838 115.5191 116.7015 108.3188 109.3650 106.9979 99.5271 107.7445 107.0369 107.5913 105.5575 109.2243 110.4192 104.1971 106.7023 103.5520 106.1031 111.0163 110.5763 110.3253 111.7715 112.8588 111.1629 112.5715 113.5639 113.8139 116.1235 101.9685 112.6055 103.5232 100.2024 100.3034 101.1214 102.6115 125.1684 106.3293 105.3200
116.9600 117.0366 116.8263 116.5885 116.3405 116.8067 107.0183 106.1191 105.3704 100.2001 111.9644 106.6837 108.2166 111.1633 96.9644 105.5947 107.9553 109.4214 112.9211 106.7338 106.2591 105.4505 112.0280 112.3957 112.5486 106.5867 114.6939 112.5157 114.7614 115.9163 113.1749 108.9315 99.0898 100.5234 100.5185 100.5407 100.7312 96.6563 120.3121 122.1500
117.4500 117.4401 117.2333 117.2397 116.9831 116.9113 107.3185 106.4209 107.1170 105.6689 115.7986 110.5446 108.2261 111.5339 111.2658 111.7113 110.8161 112.5571 110.3745 103.7015 97.2722 97.9862 101.9977 111.7035 113.4526 114.6875 112.8294 106.4648 115.8240 116.6705 105.7259 102.0431 99.9598 100.6586 100.4807 105.6622 98.2481 105.0192 109.8206 101.6600
117.9200 118.8194 118.1168 117.7274 117.7880 112.4592 105.6438 96.6669 109.5547 114.0065 114.4745 107.6263 110.3326 110.7980 115.0423 112.9350 111.9176 112.1730 107.9227 108.4538 98.4032 99.5204 100.7102 102.9194 115.7356 115.2357 106.2783 114.6507 113.1941 112.1794 117.6319 103.3155 100.3134 99.3128 98.6134 117.7768 115.6249 107.0314 100.1422 101.8600
117.1900 110.0118 119.9821 118.1822 118.6133 111.7288 105.7465 100.1662 101.0964 109.2669 118.6826 112.6777 110.9591 111.6069 113.8006 103.4690 111.2017 113.2309 105.5525 115.8972 115.9210 99.8349 104.2727 103.2716 111.5173 116.0880 115.5752 117.0538 104.6247 108.6834 107.4489 103.6924 100.8600 108.0449 103.5488 101.4147 101.7399 111.9864 102.6246 105.1300
112.0600 97.8120 119.5393 118.6280 119.1233 110.5336 111.2835 114.2362 95.5167 109.2636 114.6046 112.3243 110.8108 112.9091 113.6383 113.5529 114.0706 113.9640 112.5464 106.8085 98.7732 105.3274 103.3644 103.6589 109.7226 120.8805 118.6290 120.0919 107.5416 108.1224 98.7661 100.1763 100.8504 107.5057 100.3881 100.8713 104.9756 103.6461 103.6387 105.1300
103.0600 119.8150 119.0843 119.0001 119.7301 112.2567 112.4439 103.5698 101.3238 105.2978 120.2780 113.4802 113.3711 112.8903 113.1593 115.2381 114.0472 118.2924 109.2643 97.0371 109.4624 116.2614 101.9004 110.3020 103.1035 106.0336 102.7211 102.0265 101.3119 99.4970 100.6906 100.7391 100.0823 100.4288 113.5856 120.2938 99.5977 104.4784 104.3720 103.8500
119.5500 119.4458 119.9276 120.1020 120.7034 107.1513 97.7265 97.0014 101.8290 120.7810 118.9529 109.4965 104.1540 115.7341 115.7339 114.7715 117.4842 114.5572 109.6156 97.4790 101.8203 105.7980 101.0772 98.7999 103.5061 109.4736 105.0285 99.1616 100.0005 100.4796 100.6590 101.4568 101.8370 120.2249 122.3995 128.6333 118.8918 104.2646 105.4722 105.6100
119.9100 119.9523 117.2876 114.1520 130.1786 100.2199 97.1992 98.0891 102.0069 111.8399 110.2373 95.0580 97.1439 111.8300 114.2981 105.8990 115.9513 106.4469 112.2087 101.3229 99.4798 111.1400 101.3085 107.8546 102.4241 106.7055 99.5175 100.8017 100.3899 100.7221 100.8492 101.0635 99.8079 102.9722 121.1912 102.7778 111.1802 105.8031 102.2071 106.1800
120.2500 121.0447 116.5911 108.1736 103.4947 113.2296 96.7200 99.7411 101.1093 121.0348 121.1771 101.9446 115.2784 115.7290 114.1317 103.3611 104.6601 118.5605 114.6513 98.3955 99.5667 103.6533 109.9927 100.4693 99.8932 105.5951 108.6186 101.4906 100.2708 101.1384 101.0925 101.1040 101.8738 101.6611 103.1150 103.7740 102.0326 102.3937 102.6609 102.6400
120.9100 115.8927 101.5091 118.2668 108.1187 97.8966 99.3477 100.3644 102.2559 121.8971 110.9007 100.1489 116.2238 116.2151 116.0715 117.7084 115.8006 121.4514 123.3885 111.8617 101.3411 102.8044 101.4103 99.3131 103.5262 108.8736 110.0852 111.1165 112.4178 102.2787 101.5058 102.7235 102.8786 106.0664 102.6598 123.3489 101.7109 102.7838 102.7046 102.8200
106.2100 100.5011 100.8093 103.9857 104.1741 98.6325 101.6855 101.8490 100.8431 113.7665 117.4196 94.7956 115.8316 113.5419 111.3553 113.6434 110.5459 118.5172 106.2867 106.7648 100.7223 103.8886 99.8086 101.1627 100.2758 105.3022 109.6554 110.4283 112.0068 112.4495 112.9330 109.9270 102.3106 120.6836 103.3666 107.0676 104.5999 104.8211 103.8845 102.8700
99.5100 102.6339 104.2325 103.5097 103.7331 98.7814 104.0350 107.9988 103.4454 115.1519 115.1977 113.6874 116.7741 110.9519 111.8833 103.5361 112.3405 115.6882 115.2687 111.4650 100.7815 104.4436 103.5195 104.1343 100.4342 101.5108 109.3691 111.0394 112.0484 110.5919 102.9369 109.4942 104.4163 121.4847 126.8939 117.5023 111.7100 105.6489 105.6442 109.0100
99.8000 101.5156 106.5845 103.9837 103.4781 99.2173 105.1407 107.5285 106.7909 109.9512 116.6555 120.5500 107.2022 112.0808 112.1890 112.1874 109.7032 119.9755 105.2213 99.5198 98.9419 106.4797 104.7892 105.6714 102.6659 103.6022 104.6196 111.0688 111.8810 113.7808 104.0140 101.6362 102.1807 107.0557 119.9439 110.7184 125.9637 114.4105 128.5581 126.3300
99.8000 106.9800 108.8400 108.8400 99.6700 99.6800 104.2500 106.6700 104.8400 113.2900 116.4800 104.1700 99.8600 112.0900 112.8100 113.4000 100.1900 105.9500 112.1000 100.5000 100.5000 121.0500 105.3100 105.9400 107.1100 112.1900 104.9300 108.9000 112.5000 113.2200 101.9500 102.0900 102.2500 104.3300 106.6300 124.9300 124.6800 124.9800 125.8700 126.3300
