122.1700 122.1700 121.9400 121.9600 119.4000 121.9700 121.9600 121.9500 121.9400 122.1700 122.1500 119.2500 122.3400 122.3000 122.4500 122.4500 122.6300 122.7900 122.7400 122.9500 123.0900 123.2300 123.2300 123.5400 123.5400 123.6600 123.8400 123.9500 124.1200 124.2200 124.3900 124.5000 124.7900 124.7900 125.0300 125.1700 125.3200 125.4200 125.5400 125.6700
121.8900 121.8714 121.8220 121.9678 121.2740 121.9493 121.9115 121.6581 121.6738 121.0471 121.1507 121.7741 122.0722 121.8955 122.2213 122.3375 122.6069 122.6847 122.6534 122.7506 122.8736 123.0071 123.1417 123.2768 123.4041 124.7259 124.0852 123.6595 124.0089 124.1457 124.2957 124.4522 124.6036 124.7578 124.9125 125.0576 125.2177 125.3702 125.5187 125.6700
121.6100 121.5634 121.5150 121.5004 121.0803 120.9912 121.2960 121.3026 116.6728 118.2859 121.8338 122.4439 121.1126 122.3684 121.9308 122.2690 119.0211 122.0358 122.3202 122.5060 122.6343 122.7707 122.9051 123.0493 123.2354 123.2384 124.7855 123.7521 123.8307 123.9697 124.1247 124.2848 124.4380 124.5980 124.7582 124.9181 125.0747 125.2414 125.3971 125.4500
121.3200 121.2481 121.1834 121.1396 124.1913 127.4741 120.5632 121.2656 114.7376 118.6173 105.8615 114.2341 109.3136 122.9674 121.7140 121.9443 121.0403 122.3515 122.1198 122.2506 122.3843 122.5340 122.6758 122.8315 122.9946 123.1375 123.3250 123.4736 123.6383 123.7857 123.9520 124.1191 124.2768 124.4378 124.6051 124.7736 124.9356 125.0596 125.2485 125.4400
121.0200 120.9251 120.8806 120.8669 120.8096 121.3286 120.8568 120.9448 117.5442 122.9832 120.5412 121.3889 122.6762 117.1211 121.2249 121.4308 121.6765 121.6702 121.8481 121.9893 122.1398 122.2925 122.4435 122.6030 122.7588 122.9283 123.1128 123.2630 123.4353 123.6045 123.7733 123.9408 124.1190 124.2844 124.4565 124.6186 124.8106 124.9149 125.9317 125.2100
120.7100 120.5778 120.5302 120.4911 120.5119 120.5138 120.4478 120.6033 124.9194 111.6430 122.3213 115.4554 118.0960 110.6498 121.8593 121.2091 121.2867 121.4239 121.5680 121.7143 121.8792 122.0382 122.2003 122.3690 122.5457 122.7118 122.8921 123.0636 123.2456 123.4207 123.6035 123.7789 123.9562 124.1309 124.3077 124.4818 124.6622 124.8161 125.1304 125.0300
120.3900 120.2198 120.1769 120.1296 120.0493 120.0568 120.1344 120.0531 110.6821 113.0653 117.6055 111.8275 123.1338 128.6034 120.0785 120.8024 121.0023 121.1356 121.2951 121.4538 121.6163 121.7982 121.9462 122.1578 122.2890 122.5030 122.6802 122.8699 123.0509 123.2335 123.4208 123.6075 123.7861 123.9690 124.1534 124.3354 124.5171 124.6883 124.8662 124.9800
120.0500 119.8503 119.7995 119.7659 120.1975 119.9765 119.7809 120.0030 120.3969 120.5936 121.2496 119.0198 118.0828 120.3400 120.5265 120.6461 120.6647 120.8398 120.9975 121.1768 121.3519 121.5440 121.7026 121.9888 122.1408 122.2423 122.4761 122.6717 122.8130 123.0582 123.2403 123.4415 123.6293 123.8177 124.0126 124.1905 124.3802 124.5674 124.7285 124.8000
119.3300 119.4602 119.4121 119.3773 117.2302 117.0507 120.2108 109.1436 120.3415 119.1976 119.3627 119.4706 120.5568 120.1722 120.0538 120.2300 120.3723 120.5348 120.7109 120.9213 121.0875 121.0781 121.4423 119.9027 122.0640 121.9672 122.2116 122.7036 122.7433 122.8888 123.0789 123.2738 123.4709 123.6682 123.8591 124.0504 124.2351 124.3938 124.9259 124.7500
118.9500 119.0673 118.9975 118.8798 118.3856 114.3795 120.0754 123.9820 108.0354 120.2093 119.2970 118.4323 115.7460 112.5769 119.6382 119.8255 120.0224 120.2259 120.4408 120.5412 120.5148 121.9574 121.7673 118.2503 118.3528 122.0827 122.1735 120.1907 121.7574 122.6061 122.8874 123.0990 123.3128 123.5162 123.7199 123.9342 124.1942 124.3153 124.2684 124.7000
118.5500 118.6357 118.8247 118.3842 117.5502 118.2338 111.3855 112.5808 113.3162 119.0845 118.3391 127.0245 122.3943 114.0417 119.2561 119.8105 119.8321 119.9445 119.6665 120.3436 120.4887 112.7801 121.6277 121.7811 121.9097 121.7188 120.7827 120.3843 126.0594 122.1713 122.7970 122.9290 123.1657 123.3606 123.5834 123.5550 123.7959 124.3557 117.2858 112.7200
118.1300 118.1860 115.6753 118.9343 115.3218 112.6329 113.6197 121.5952 118.2209 118.2333 117.9415 119.4891 129.3446 119.0899 119.1437 117.0665 119.1353 118.4203 122.6900 119.4307 120.9315 114.0338 118.8089 120.9158 121.1835 121.4728 120.5194 129.7460 128.4155 122.2609 122.2626 122.5432 122.9785 123.2141 123.3883 124.8272 123.8119 125.0710 112.7059 112.7200
117.6900 117.6897 113.8883 112.5718 117.4937 116.5862 119.8310 116.9781 117.6423 117.7588 118.1361 117.5108 120.8823 118.1618 117.7592 121.3569 119.0353 119.5699 118.6833 119.2555 119.5436 124.1791 119.0734 120.6963 120.7956 121.2366 120.7947 121.7041 121.2322 122.2185 123.5065 123.2142 122.7852 123.0796 123.2572 124.4712 124.3014 115.3275 114.3620 124.2300
117.2100 117.5552 106.2174 109.7739 122.5720 108.8959 115.8730 117.1996 117.1528 117.2805 117.3747 117.5764 117.5261 117.8607 115.4358 116.4931 118.5927 118.8512 119.1027 119.3450 119.4985 119.8595 120.4857 120.7030 121.0108 120.9604 121.0527 121.5950 121.7217 121.9927 111.4804 117.4182 122.9523 122.9409 123.1286 123.2663 124.5564 114.8751 114.0787 117.2400
116.7300 119.3021 115.9920 106.8749 116.8643 105.9908 117.4746 116.4122 116.6331 116.7617 116.9231 117.0954 117.3061 117.8889 117.2743 118.4077 118.3388 118.5616 118.8176 119.0415 119.4394 119.6915 120.2397 110.2491 120.6993 120.5987 121.0385 121.2823 121.4980 122.0522 119.6025 121.5213 122.5400 122.7867 122.9991 123.4033 123.3308 122.6767 119.8814 118.6000
116.2100 116.0047 115.3860 121.2170 111.7623 104.0493 116.8726 115.8794 116.0668 116.2189 116.3916 116.5945 116.8171 117.0262 117.2912 117.5829 117.8666 118.1833 118.4686 118.7703 119.0640 119.3737 119.7246 119.5109 120.6559 120.4847 120.8149 121.0904 121.3735 121.6286 121.9413 122.3324 122.3841 122.6651 123.4483 115.4245 125.3034 117.3862 123.5637 123.9500
115.6600 115.5881 115.4918 115.2934 115.1905 116.4019 115.1931 115.3659 115.4720 115.6346 115.8352 116.0577 116.3187 116.5962 116.8836 117.1799 117.4882 117.8156 118.1373 118.4555 118.7731 119.1160 119.3253 119.6852 120.0000 120.3336 120.6205 120.9125 121.1604 121.4301 121.7575 122.0581 122.5998 122.3555 119.3472 113.6336 123.9484 123.1001 123.7774 123.9100
115.0600 114.9877 114.7665 114.7097 114.6313 114.2850 114.6147 114.6960 114.8313 115.0250 115.2461 115.5014 115.7798 116.0932 116.4985 116.7698 117.1207 117.4564 117.7849 118.1354 118.4830 118.8145 119.1687 119.4954 119.8218 120.1177 120.4214 120.7580 121.1711 121.3626 121.5128 121.4061 108.9194 109.1299 118.9621 116.7101 123.9389 123.4343 123.5453 123.7200
114.4100 114.0728 114.1664 113.9363 113.8528 113.8957 113.8849 113.9850 114.1493 114.3606 114.6294 114.9263 115.2744 115.7128 115.9944 115.2197 118.1219 116.8561 117.5472 117.8908 118.1887 118.5523 118.9024 119.2392 119.5844 119.9208 120.2339 120.5314 120.6819 121.2634 122.9510 119.1067 117.1660 114.8390 123.9812 123.9049 127.6687 122.8685 123.4679 123.6800
113.7100 109.8924 113.8402 113.1519 112.9978 112.9865 113.0440 113.2117 113.4030 113.6617 113.9688 114.3227 114.9268 117.8647 115.1416 114.9247 113.6031 116.4866 116.8503 117.4251 117.8705 118.2887 118.6645 119.0297 119.3862 119.7318 120.0609 120.4071 120.7781 121.2327 120.9377 122.1708 122.6865 122.9621 121.9681 121.9565 127.8719 124.2088 123.5182 123.6500
112.9400 106.3514 113.4286 112.2076 112.4646 112.3877 112.3353 112.3547 112.5991 112.9057 113.2612 113.7114 113.7212 116.6078 115.4695 115.4801 116.4809 116.1476 124.9995 116.8509 117.7556 118.0351 118.4346 118.8168 119.1833 119.5418 119.8922 120.2310 120.5637 120.4732 120.8555 121.4060 121.8622 122.1893 124.4154 124.6080 118.5332 117.1826 123.7063 123.6200
112.1000 107.3877 105.0617 111.5701 109.8874 108.5490 111.4334 111.4152 111.7285 112.0903 112.5282 112.9545 113.5334 113.9076 114.1946 115.0035 115.5521 115.3580 118.5172 115.7927 117.3433 117.8154 118.2071 118.6099 118.9944 119.3753 119.7375 120.0688 120.3858 122.7122 120.6607 121.3557 121.2768 121.1826 113.3092 111.8557 115.0900 118.8134 123.8392 123.5900
104.3400 105.8084 111.2941 110.4494 110.0612 109.5467 110.1529 110.3817 110.7789 111.2229 111.7051 112.2866 112.8368 113.4598 113.9977 114.5635 115.0742 115.4848 113.0193 116.3491 117.0901 117.5582 117.9941 118.4193 118.8201 119.2125 119.5875 119.9185 120.3135 123.6374 123.1554 122.4982 122.6562 122.2324 132.2348 116.9098 115.8332 119.4326 117.4230 119.6800
110.0700 113.0224 107.0314 108.8122 108.8590 108.8164 108.9281 109.2351 109.5091 110.2331 110.8945 111.5334 112.2055 112.8585 113.5064 114.1236 114.7093 115.2029 116.1887 116.5237 116.8861 117.3618 117.8107 118.2432 118.6641 119.0671 119.4511 119.8022 120.2749 121.3637 114.7246 119.5168 110.7300 116.8193 117.2128 115.6966 112.2912 118.2799 122.0058 123.3400
110.0700 105.4037 108.0152 107.9532 107.4017 107.3089 107.4883 107.9061 107.4788 109.2167 109.9900 110.7974 111.5642 112.3130 113.0283 113.7193 114.3674 114.9730 115.5041 116.0874 116.5871 117.0928 117.6182 118.0677 118.5158 118.9291 119.3293 119.7064 120.1889 120.2225 122.6315 136.0744 109.1916 111.5269 110.5002 123.2858 121.7929 122.9826 123.2396 123.3200
107.4500 107.7570 107.0832 106.0843 105.6627 105.5097 105.7762 106.3271 107.2211 108.1464 109.1071 110.0366 110.9328 111.7858 112.5823 113.3330 114.0322 114.6906 115.3103 115.8811 116.5223 117.1124 117.3847 117.9303 118.3873 118.8193 119.2206 119.6202 120.0315 120.1912 120.1412 126.9116 111.8266 109.5590 108.1615 123.3412 122.5035 122.7786 123.0787 123.3000
107.2800 106.6589 105.3583 104.3109 103.4688 103.2412 103.6805 104.6192 105.7657 107.0011 108.1917 109.3044 110.3424 111.2936 112.1755 112.9924 113.7407 114.4414 115.1494 116.3399 108.8906 117.1792 116.9143 117.9540 118.2566 118.7318 119.1343 119.5409 119.9062 120.4585 121.1153 117.8776 121.8432 115.7733 120.7545 121.9663 122.4119 123.0122 123.0340 123.2800
107.0400 105.3702 103.7079 101.9878 100.6535 100.1995 100.9806 102.4983 104.2275 105.8441 107.3147 108.6353 109.8163 110.8756 111.8261 112.7037 113.4959 114.2205 115.0369 117.3546 113.8975 116.2079 117.7701 115.3257 118.1623 118.6535 119.0613 119.4726 119.9243 120.6372 120.8797 112.4089 118.3694 114.7015 114.5749 121.9535 117.3551 121.5289 123.7911 123.2700
105.5100 104.1657 101.9231 99.3216 96.3265 95.1731 97.2676 100.1103 102.6561 104.7776 106.5602 108.0768 109.3869 110.5341 111.5565 112.4781 113.3151 114.0875 114.1497 114.4472 115.9320 116.1917 116.3450 116.1521 117.9121 118.6336 119.0213 119.3775 119.4008 123.7159 120.9773 113.2952 109.0577 112.4992 118.3897 120.6078 119.2571 118.5895 123.6710 123.2600
105.2200 103.2323 100.3186 96.2311 90.2294 88.5751 91.6828 97.7305 101.3133 103.9557 106.0050 107.6800 109.0899 110.3028 111.3762 112.3304 113.1935 113.9674 114.8207 115.4922 116.0249 115.9289 117.6543 117.9338 117.8682 118.3821 118.9555 119.2884 123.1118 114.1819 116.7382 111.8301 119.2274 116.0533 122.5898 122.3684 123.3579 123.3827 122.7500 123.2500
104.9900 102.7697 99.4659 94.0086 86.2189 84.5394 88.0801 96.2016 100.6017 103.5586 105.7518 107.5018 108.9576 110.2004 111.2948 112.2602 113.1333 113.9210 114.6197 115.3147 115.9804 116.0526 115.4414 116.7231 119.9196 118.6625 118.9943 118.1749 129.4975 104.7075 108.8329 107.4553 117.7035 119.5840 122.0752 122.1384 122.0956 121.2400 123.3749 123.0600
105.0700 102.9353 99.7599 94.8181 87.6927 85.9770 89.4047 96.7609 100.8574 103.6933 105.8371 107.5642 109.0007 110.2357 111.3277 112.3002 113.1699 113.9423 114.6757 115.3426 116.0103 116.1920 124.6089 130.4968 107.1087 116.5281 118.8793 119.2906 122.5408 117.0907 106.4709 111.2692 119.1748 120.6766 121.9770 122.2501 120.9088 132.7182 126.9522 109.6300
105.2700 103.6612 101.0745 97.8278 93.2150 91.5241 94.6492 98.9340 101.9433 104.3293 106.2583 107.8547 109.2177 110.4031 111.4652 112.3694 113.2021 114.0173 114.7289 115.4023 115.9849 117.0588 118.4387 126.9622 106.2691 113.2431 118.9166 119.4347 119.4949 120.4320 119.1567 117.8468 121.9068 121.6431 121.8968 122.1822 122.7120 138.8867 131.8754 121.3400
105.5900 104.7611 102.7827 100.6949 98.8046 98.1016 99.3825 101.3361 103.4373 105.3048 106.9300 108.3450 109.5852 110.6924 111.6988 112.6514 113.5111 114.1362 114.8387 115.4750 116.1772 115.9680 118.2442 118.7017 117.3127 117.8244 119.0340 119.4645 119.8656 120.2067 120.7169 121.4135 121.2953 121.5419 121.8668 122.1818 122.4013 128.2941 119.8176 123.2500
107.1800 106.0058 104.5887 103.2036 102.1342 101.8167 102.4120 103.5976 105.0250 106.4244 107.7503 108.9665 110.0737 111.0715 111.9915 113.3000 109.4021 114.7128 114.8946 115.5364 116.8024 117.6739 126.6388 117.7701 118.2023 118.7622 119.0904 119.5067 119.8911 120.2345 120.5956 120.9103 121.2625 121.6277 121.9056 122.2227 122.5121 122.8500 123.1037 123.2600
107.4900 107.2527 106.1902 105.2756 104.6253 104.4351 104.7853 105.5342 106.5183 107.5866 108.6464 109.6753 110.6337 111.5357 112.3879 113.1258 113.9176 114.7165 115.1539 113.1611 116.6220 116.2923 117.6100 118.0401 118.3298 118.7890 119.1914 119.5284 119.9507 120.2943 120.5450 121.7115 121.2162 121.5734 121.9414 122.3196 122.6336 123.9346 123.7146 123.2700
108.7700 108.4586 107.6562 106.9953 106.5609 106.4455 106.6658 107.1822 107.8905 108.7075 109.5566 110.4195 111.2522 112.0486 112.7999 113.5106 114.1548 115.2582 119.0438 110.8733 106.4952 124.0920 117.5496 118.0235 118.4435 118.8900 119.1927 120.1387 120.0357 120.4525 120.2383 128.1931 110.5678 122.3911 121.9991 122.5793 123.7175 119.8052 122.8880 108.6200
111.0600 109.5644 108.9507 108.4636 108.1573 108.0732 108.2288 108.5905 109.1293 109.7654 110.4616 111.1975 111.8856 112.5922 113.2712 113.9090 114.6033 115.8353 121.6930 114.1258 105.4027 117.2543 117.6790 118.1293 118.5900 119.0807 119.0315 122.8118 119.9087 119.5530 121.0568 124.5988 116.4835 121.1143 121.8751 122.4476 123.0723 121.3970 124.2011 123.3000
111.0600 110.5847 110.1072 109.7361 109.5039 109.4324 109.5575 109.8322 110.2441 110.7423 111.3659 111.9019 112.5375 113.1407 113.7536 114.3511 114.8931 116.0113 119.6183 113.8780 107.1055 121.6254 117.5845 118.3587 118.7386 119.1190 120.3652 119.8158 120.2025 119.4802 122.4642 123.5040 108.0945 122.8679 121.8328 122.3961 122.3256 128.1078 123.4630 123.3100
111.2300 111.3000 110.6300 110.8000 109.9000 109.9100 109.8700 110.7100 111.3600 111.2300 111.8700 112.3600 112.8800 113.4800 113.8600 114.7700 115.1900 118.2100 121.5200 106.1600 102.8100 117.4200 118.0600 118.3600 118.9400 119.2200 119.4900 120.0100 120.2500 120.7300 123.2800 137.9300 108.8000 121.8200 122.2200 122.4200 122.8000 122.9800 123.1600 123.3300
