113.4300 113.0200 113.0200 111.8200 111.9500 111.4100 110.7300 110.8400 109.8700 109.9100 110.8100 110.7000 111.3600 111.3600 111.8900 112.3900 112.9600 113.5400 113.9200 114.3800 115.3000 115.6600 120.5000 116.7900 117.1400 117.4700 118.1100 114.2700 119.0100 119.2700 119.5400 120.0500 120.3000 120.7800 121.0000 121.2300 121.6600 121.8600 122.2600 122.4600
113.3400 113.1050 110.9412 111.6909 111.1661 110.5651 110.1174 109.7604 109.5419 109.5005 109.6367 109.9174 110.3363 110.8396 111.4063 112.0037 112.6636 113.0123 113.7581 115.2939 114.7375 115.4576 118.0496 116.4357 116.9709 119.6843 118.4375 107.7864 116.1396 119.0758 119.5417 120.0111 120.3318 120.6121 120.9437 121.2730 121.6190 121.6525 118.5285 122.4600
113.2300 112.3260 111.6379 111.0054 110.1695 109.5427 108.9498 108.4912 108.2029 108.1430 108.3231 108.7002 109.2303 109.8677 110.5653 111.2472 112.0007 112.5788 117.3260 109.0592 115.4177 115.0955 115.5460 116.3363 116.9431 117.0356 105.4497 111.1367 119.7053 119.0134 119.4914 119.2895 120.0061 120.5109 120.8669 121.1496 121.6349 122.5581 120.6414 122.2100
112.3000 111.7398 110.9341 110.0851 109.2547 108.4166 107.6433 107.0166 106.6181 106.5312 106.7844 107.3113 108.0153 108.8300 109.6766 110.5263 111.4787 111.6667 119.3932 111.2351 108.0575 115.0958 115.5556 116.2046 115.5833 114.6048 116.2230 125.2586 117.9454 118.9187 118.9175 124.2575 119.5441 120.4464 120.7527 121.3042 121.2890 115.7955 111.0462 104.4900
111.5000 111.1987 110.2753 109.2951 108.2630 107.1975 106.1765 105.2769 104.6820 104.5559 104.9376 105.6959 106.6794 107.7308 108.7860 109.8046 110.7551 111.2913 110.5252 114.8514 112.9214 114.6382 115.2733 115.8992 116.0674 117.0686 119.6121 118.7408 118.4710 118.8169 119.1738 120.9827 119.9813 120.3430 120.8018 120.3752 129.9078 110.6763 108.5490 117.1800
111.3400 110.7010 109.6545 108.5133 107.2593 105.9126 104.5130 103.1790 102.1913 101.9776 102.6226 103.8066 105.2238 106.6017 107.9053 109.1019 110.1883 111.2250 111.9078 113.4311 113.9282 114.4202 115.0908 115.7811 114.9685 126.4978 107.9411 117.7650 118.4217 118.7090 119.0533 119.4053 119.9112 120.4220 119.3934 122.5501 109.1618 115.5407 106.5990 122.4700
111.2100 110.2752 109.1211 107.8224 106.3341 104.6204 102.6938 100.6068 98.8459 98.3734 99.6687 101.6461 103.6888 105.5140 107.0986 108.4973 109.7206 110.8013 111.7931 112.6485 113.4750 114.2269 114.9439 115.5824 114.4208 127.9978 106.8342 118.2382 118.3150 118.6347 119.0869 119.4894 119.8735 120.2650 120.5903 121.2961 120.8084 121.0527 121.6863 122.1300
110.3600 109.9544 108.7113 107.2630 105.5519 103.4836 100.8483 97.6590 93.1751 91.9340 95.3561 99.3214 102.2501 104.5644 106.4435 108.0171 109.3557 110.5258 111.5566 112.4786 113.3248 114.0946 114.8060 115.4011 116.3847 116.7042 116.4938 117.8202 118.1660 118.5979 119.0399 119.4417 119.8339 120.2145 120.5723 119.6607 128.6989 120.6320 121.8551 121.8700
110.2900 109.7649 108.4571 106.9193 105.0494 102.6880 99.4378 94.1718 87.4798 86.0913 90.1529 97.3459 101.2019 103.9407 106.0341 107.7255 109.1393 110.3568 111.4251 112.3779 113.2365 114.0161 114.9617 115.0680 121.3023 117.4031 106.0960 118.1105 118.2012 118.5608 119.0055 119.4211 119.8161 120.2002 120.5542 120.6659 120.6820 121.7027 121.7627 125.5800
110.2600 109.7197 108.4029 106.8389 104.9351 102.5044 99.0754 93.0532 85.7516 84.2333 88.6766 96.7864 100.9310 103.7979 105.9370 107.6531 109.0868 110.3220 111.3941 112.3535 113.2111 114.0076 114.7521 114.9429 115.2429 117.3015 118.4906 117.6160 118.1042 118.5686 118.9994 119.4209 119.8060 120.1900 120.5333 120.9088 121.3193 121.5309 121.6198 125.4400
110.2700 109.8309 108.5422 107.0362 105.2258 102.9691 99.9441 95.0701 89.6248 88.3516 92.0748 98.0987 101.6434 104.1609 106.1742 107.8172 109.2093 110.4125 111.4657 112.4156 113.2764 114.0604 114.7609 115.4920 116.1776 116.5199 116.8469 117.6191 118.1543 118.5889 119.0148 119.4314 119.8215 120.1995 120.5617 120.8993 121.2372 121.6187 121.9389 122.1100
111.1600 110.0801 108.8677 107.4751 105.8599 103.9433 101.6327 98.9049 95.8000 94.7692 97.4106 100.1026 102.5868 104.9456 106.7022 108.2011 109.4953 110.6324 111.6472 112.5531 113.4084 114.0077 114.8466 115.4798 116.0698 116.6751 117.3911 117.6211 118.0390 118.6146 119.0522 119.4606 119.8530 120.2252 120.5761 120.9598 121.2531 121.2906 121.6347 122.1100
111.2800 110.4449 109.3377 108.1027 106.7145 105.1547 103.4396 101.7363 100.3987 100.0893 100.9678 102.5927 104.2867 105.9693 107.4290 108.7430 109.9062 110.9536 111.9111 112.7813 113.5443 114.1062 115.0051 115.6195 116.2111 116.7533 116.8556 117.2133 119.2374 118.6943 119.0892 119.5082 119.8938 120.2631 120.6142 121.0877 121.1975 122.8455 122.9717 122.1200
111.4300 110.9047 109.9127 108.8482 107.6927 106.4657 105.2247 104.0943 103.3005 103.1166 103.6443 104.6408 105.8647 107.0777 108.2747 109.3897 110.4221 111.3701 112.2459 113.0675 113.8737 114.7430 115.0970 115.7281 116.3333 117.0094 116.8565 123.6336 119.1477 118.7113 119.1729 119.5722 119.9560 120.2922 120.6242 121.1058 123.0952 113.3016 113.2587 113.7200
112.2300 111.4228 110.5573 109.6353 108.6780 107.5481 106.7552 106.0668 105.5330 105.4214 105.7338 106.3907 107.2490 108.1991 109.1609 110.0987 111.0029 111.8475 112.6437 113.3557 114.5828 110.4414 115.8263 116.0567 116.4489 117.0175 117.3935 119.4541 118.2054 118.8529 119.2586 119.6486 120.0349 120.4006 120.5505 121.2118 123.2442 127.5400 109.8405 109.0900
112.4100 111.9936 111.2346 110.4560 109.6759 108.7541 107.6558 107.6614 107.3060 107.2318 107.4493 107.9115 108.5379 109.2751 110.0559 110.8380 111.6168 112.3655 113.0843 113.7781 114.3950 114.8306 116.1846 112.0151 117.1161 117.1678 117.6794 118.0296 118.5548 118.9630 119.3677 119.7509 120.1362 120.5472 119.8269 123.7306 119.2876 113.5991 123.5996 122.1700
113.1500 112.5799 111.9158 111.2478 110.6006 110.0625 109.4676 109.0323 108.7875 108.7276 108.8825 109.2205 109.7088 110.2803 110.9195 111.5850 112.2478 112.9089 113.5471 114.1715 114.7437 115.3189 115.8455 115.5350 116.9976 117.4009 117.8222 118.2659 118.6893 119.1016 119.4898 119.8522 120.2238 120.8270 120.0660 124.6219 113.8296 106.5478 108.2649 108.8600
113.3400 113.1641 112.5964 112.0092 111.4838 110.9691 110.5557 110.2339 110.0480 110.0059 110.1253 110.3833 110.7651 111.2265 111.7476 112.3093 112.8799 113.4570 114.0327 114.5994 115.1383 115.4713 116.2686 116.6094 117.0948 117.6011 118.0324 118.4574 118.8548 119.2347 119.6313 119.9525 120.2884 119.9006 112.6987 104.1359 109.7080 121.7420 123.3094 122.4200
114.0400 113.7558 113.2584 112.6809 112.2681 111.9125 111.5528 111.2963 111.1481 111.0947 111.2110 111.4151 111.7195 112.0927 112.5409 112.9955 113.5057 114.0260 114.5222 115.0137 115.5690 116.1671 118.2656 116.9841 117.4121 117.8269 118.2410 118.6409 119.0272 119.4360 119.9396 120.7741 118.7852 119.1265 109.2776 106.0426 108.3680 109.5140 119.3714 113.0200
114.7700 114.3349 113.8601 113.5104 113.5303 112.7233 112.4546 112.2610 112.1409 112.3364 112.1679 112.3502 112.5953 112.9102 113.2483 113.7119 114.1214 114.5547 115.0151 115.4604 115.9449 116.8742 115.1101 117.0058 117.5524 118.0685 118.4585 118.8415 119.2260 119.5398 118.9700 122.5778 105.5506 127.9432 122.6118 111.0679 108.4088 120.1494 117.9914 114.1600
115.4300 114.8888 114.4980 114.1041 114.1758 113.4975 113.2958 113.0563 112.8618 111.1477 113.2028 113.1595 113.3946 113.6649 114.0390 113.3589 114.4866 115.0850 115.4815 115.9289 116.3232 117.3419 110.4840 118.3364 117.8400 118.3277 118.6970 119.0523 119.4214 119.8976 125.0144 127.7562 114.4473 118.3212 121.8944 114.4606 116.5351 113.4723 120.1735 122.7300
115.9700 115.4249 115.1137 114.7717 114.4504 114.2505 114.0476 113.9008 113.0926 111.7917 113.8235 113.9529 114.1335 114.3605 114.5838 115.1810 115.3139 115.6173 115.9764 116.3297 116.7051 117.1097 117.5593 117.8817 118.2231 118.5723 118.9330 119.2772 119.5055 120.0361 114.5486 114.4874 120.2168 119.6616 121.0387 117.6943 122.7803 110.2671 123.0594 122.7300
116.0400 115.9541 115.6474 115.3768 115.1267 114.9116 114.7410 114.6154 114.6688 114.7563 114.6871 114.6689 114.8175 115.0082 115.2469 115.4505 115.9444 116.0511 117.3238 116.8031 117.1311 117.4650 117.7934 118.0868 118.5128 118.8468 119.1773 119.4959 119.7434 120.0772 118.5335 118.1188 121.1254 118.6949 111.0276 115.5544 119.9186 113.8274 124.0306 122.8100
116.6700 116.4590 116.1902 115.9384 115.7250 115.5455 115.3962 115.2846 115.2040 115.1774 115.2206 115.3335 115.4663 115.6224 115.8797 115.9389 116.2155 113.0623 117.9915 117.1929 117.5202 117.8304 118.1635 118.4727 118.7938 119.1139 119.4255 119.7501 119.9515 121.5453 122.6080 121.5308 120.9270 120.0157 112.1682 112.1277 112.4756 113.2002 123.1948 123.0200
117.1300 116.9468 116.6992 116.4865 116.2909 116.1262 115.9947 115.9095 115.8532 115.8446 115.8802 115.9486 116.0514 116.2166 116.2832 117.8317 116.1774 117.3616 118.4282 117.4791 117.9143 118.1921 118.4878 118.7868 119.0878 119.3866 119.6811 119.9941 120.2652 118.6777 118.1632 121.7987 124.1099 132.8636 123.6309 121.8004 119.7981 115.1615 114.7236 123.0700
117.6000 117.3976 117.2002 116.9969 116.8200 116.6801 116.5620 116.4881 116.4364 116.4302 116.4625 116.5212 116.6044 117.0633 116.8747 118.9806 117.4792 117.6535 117.6505 118.0984 118.2410 118.5595 118.8205 119.0989 119.3796 119.6614 119.9512 120.2166 120.6237 120.1061 120.8357 117.4110 106.0000 107.1808 110.7173 120.4667 122.7851 123.1033 118.8976 116.1600
118.0900 117.9160 117.6232 117.4841 117.3287 117.2060 117.0988 117.0304 116.9907 116.9831 117.0105 117.0583 117.1472 117.2669 117.4120 117.3881 117.6895 118.0227 118.1714 118.3945 118.6490 118.8985 119.1478 119.4127 119.6723 119.9286 120.1310 120.3339 120.7503 119.9992 121.9308 117.7720 110.9631 118.1130 113.4419 108.7319 115.6041 123.0701 123.3623 123.3300
118.5300 117.9927 118.2706 117.9411 117.8090 117.6914 117.6041 117.5397 117.5071 117.5079 117.5254 117.5703 117.6456 117.7517 117.8764 118.0524 118.2070 118.3400 118.6535 118.7696 119.0063 119.2349 119.4765 119.7144 119.9593 120.2278 120.3114 120.1202 121.0006 121.7134 119.0430 119.0349 103.1410 117.0079 122.6204 123.6918 123.2474 121.1165 123.8406 123.3800
126.5900 119.2571 118.3611 118.3864 118.2731 118.1620 118.0787 118.0257 117.9972 117.9458 117.9685 118.0623 118.1183 118.2142 118.3270 118.4630 118.6197 119.0126 118.2054 119.2586 119.3655 119.5767 119.7953 120.0297 120.2506 120.4748 120.6512 121.0227 121.0455 121.7921 117.3036 113.7710 110.9700 110.0300 117.5065 123.2373 123.1896 117.5860 119.7745 123.5900
99.6000 118.4523 118.8794 118.8106 118.7028 118.6124 118.5378 118.4897 118.4612 118.4448 118.8045 118.4257 118.5684 118.6576 118.7585 118.8729 118.9878 119.4525 117.3821 119.4908 119.7055 119.8854 120.1100 120.3037 120.5287 120.7668 121.0785 121.1716 121.6270 123.8671 120.5821 115.2646 105.2327 113.3901 109.6090 113.2742 123.4861 122.4576 112.1401 123.8500
119.7200 120.0389 119.2421 119.2175 119.1235 119.0445 118.9508 118.9058 118.9148 118.8669 119.8856 119.2085 118.9683 119.0756 119.1599 119.2841 119.4430 117.9993 118.7636 119.9294 120.0130 120.3603 120.3540 120.7772 120.8099 120.9549 121.1019 121.2762 116.5277 116.3075 108.7794 109.6686 110.6052 109.8167 119.6806 118.4514 119.4236 116.0288 124.6082 123.8500
120.0700 119.6904 119.7129 119.6146 119.5004 119.3133 119.4244 119.3606 119.3092 119.1950 119.2640 115.1461 119.6936 119.3816 119.5577 119.6356 119.7130 119.9641 120.5932 121.1355 120.1943 120.1275 120.8297 120.2938 120.4178 121.3673 121.4195 122.5751 117.5022 112.8065 109.7563 105.9623 112.2701 118.5699 124.4957 123.9077 112.6336 121.0012 120.6457 124.1000
120.4000 120.2092 120.0750 119.9828 120.1200 120.8383 119.7281 119.7002 119.7120 119.5317 120.2132 120.0516 120.0129 119.8103 119.9404 120.1218 120.2188 119.7756 120.2486 110.3067 120.7186 123.3987 113.1904 115.5573 126.7617 122.8440 122.3160 119.1698 105.9267 111.6791 112.1592 107.4520 121.1769 122.7949 123.2160 123.5911 122.7441 115.1503 116.8376 115.7900
120.7600 120.5404 120.4331 120.3402 118.5301 111.7222 120.2016 120.0588 120.1055 119.7763 115.9762 113.9445 120.0146 120.2491 120.2956 120.4564 120.2132 121.9683 121.6412 107.3277 120.3121 117.0761 109.4885 114.7556 115.8668 122.1771 116.1125 121.1165 106.8976 121.5809 106.8145 108.6614 118.9770 123.4554 123.2612 123.8248 121.0545 130.7310 103.3082 120.7500
121.0800 120.8801 120.7689 120.7380 116.4355 107.0529 122.0420 120.3494 120.4476 120.4639 120.5918 120.5064 120.4032 120.6365 120.6436 120.7902 121.0860 127.5436 121.5296 106.1233 107.4436 110.9737 112.4540 114.5191 121.4925 119.8127 122.4688 107.0730 122.3659 105.4186 122.5317 110.1079 111.7438 119.1086 126.9399 114.7236 113.8584 121.9665 116.9767 123.1000
121.3800 121.1801 121.1772 120.6488 122.3471 122.9568 120.5247 120.8512 120.8158 120.7950 120.7877 120.7049 120.7323 120.9410 120.9854 121.1007 121.0989 120.7695 121.6246 117.0561 115.1131 104.6480 110.5406 107.3255 119.8980 122.8979 122.8068 121.6517 124.8307 122.3076 116.3008 115.5243 119.2051 113.4662 124.7002 123.3692 125.9662 114.7746 115.3647 109.6000
121.6800 121.5255 121.2563 122.5297 112.4092 118.4269 120.9761 121.2159 121.1462 121.1464 121.1503 121.2123 121.2560 121.2561 121.3150 121.3961 121.4585 121.4661 121.5941 112.7902 114.9208 108.2096 109.7367 104.9119 124.9185 121.6638 122.8543 122.7740 122.8488 124.5195 113.9113 106.7397 121.6181 123.8183 124.0196 123.9232 124.3633 122.5456 110.4386 110.9700
121.9600 121.7517 122.7141 115.8767 100.0451 119.1735 121.1884 121.5219 121.4781 121.4626 121.4790 121.4899 121.5201 121.5756 121.5887 121.5252 121.7698 121.5102 121.9133 116.9082 121.3187 116.8935 122.7110 109.1484 118.3472 122.9093 122.9016 123.0731 123.2980 122.8774 121.8191 115.9340 117.6768 124.6304 123.9896 124.4459 124.3654 126.4680 126.2700 124.8500
122.2400 121.8596 123.5385 105.6264 124.2892 121.8150 121.7337 121.8125 121.7948 121.7802 121.7823 121.8017 121.8356 121.8626 122.0519 122.8316 121.8150 121.0103 124.1115 114.4170 106.6004 113.4333 123.0564 115.8001 123.1341 122.7765 123.1731 123.2559 123.4608 123.5810 122.4136 94.9058 115.4209 124.1478 124.3018 124.4461 124.5039 124.4176 124.8115 125.0900
122.2400 122.2800 122.3200 104.2600 122.1400 122.1600 121.9300 121.9600 121.9600 121.9600 121.9600 121.9400 121.9300 122.1600 122.1300 122.1000 104.4800 122.6400 128.6400 125.7400 122.5700 122.7300 122.7300 122.8700 123.0200 123.2000 123.3200 123.4600 123.6100 123.7400 130.3200 110.7000 124.1500 124.3000 124.4300 124.5600 124.7000 124.8300 124.9600 125.0900
