120.2700 120.3200 120.3600 120.0800 120.1300 120.1400 120.1500 120.1600 120.1500 120.1300 120.1100 117.0300 120.3600 120.3200 120.5100 120.5100 120.7300 120.9300 120.8700 121.1200 121.2900 121.4600 121.6900 121.8300 121.8300 121.9900 122.3900 122.3400 122.7000 122.9000 123.0200 123.1900 123.3700 123.5000 123.6500 123.9700 124.1400 124.2500 124.4000 124.5400
120.2700 120.0626 119.9271 120.0687 119.5497 119.8219 119.8053 119.6463 116.9516 117.7309 119.6295 119.0474 120.0313 119.9822 120.1985 120.2929 120.3709 120.5784 120.8596 120.8612 121.0534 121.2263 121.3956 121.5507 121.7292 121.1497 130.6707 121.6266 122.5498 122.6943 122.9045 123.0929 123.2804 123.4711 123.6641 123.8661 123.9812 124.0711 124.4175 124.4900
119.9300 119.6873 119.5995 119.4993 119.4802 119.3868 119.4931 119.8062 109.1163 110.2075 120.4226 125.6129 118.4794 120.3411 119.8632 119.9085 121.0781 119.1837 120.2250 120.5826 120.7575 120.9438 121.1331 121.3167 121.5990 121.3583 126.2640 123.1602 122.3425 122.4996 122.7065 122.9053 123.1032 123.3055 123.4981 123.6992 123.7726 124.9653 124.7936 124.4900
119.2000 119.3025 119.2008 119.1176 120.7585 119.4319 118.0135 118.2326 109.8458 113.0352 116.3087 117.3823 105.6898 120.5462 119.4407 119.5041 119.7956 120.2048 120.1238 120.2735 120.4588 120.6581 120.8500 121.0562 121.2370 121.5295 121.6429 121.3691 122.0987 122.3050 122.5160 122.7317 122.9354 123.1380 123.3400 123.5116 124.6167 114.4565 125.3923 124.2400
118.8000 118.8994 118.7880 118.7018 118.5669 118.4121 116.7549 112.4816 111.5707 107.1775 117.9971 113.4848 119.9280 118.9633 119.1045 119.3025 119.4004 119.5596 119.7548 119.9454 120.1538 120.3607 120.5727 120.7861 121.0080 121.2252 121.5081 121.6695 121.9091 122.1123 122.3294 122.5452 122.7551 122.9696 123.1800 123.4299 123.8520 120.1476 123.9741 124.3200
118.3900 118.4761 118.3573 118.2585 118.2299 118.0776 113.9390 107.9796 121.7867 113.3126 119.0796 111.9490 115.8754 113.9725 118.8138 118.8975 119.0320 119.2178 119.4198 119.6276 119.8413 120.0606 120.2928 120.5191 120.7457 120.9808 121.2117 121.4471 121.6785 121.9121 122.1338 122.3686 122.5890 122.8113 123.0263 123.2541 123.4290 123.9065 123.9380 124.0000
117.9500 118.0483 117.9074 117.7945 117.7398 117.4057 118.7060 117.3190 112.9823 108.0161 110.5237 113.0861 120.5274 124.1900 117.7968 118.4567 118.6391 118.8493 119.0674 119.2894 119.5230 119.7655 120.0069 120.2559 120.4850 120.7363 120.9797 121.2230 121.4769 121.7116 121.9457 122.2093 122.3617 122.5867 122.8878 123.0978 123.3230 123.5329 123.7462 123.9500
117.4900 117.5618 117.4313 117.3017 117.2673 117.1298 113.1590 109.5930 108.5127 120.1051 118.7145 116.4217 115.4088 119.0430 117.9925 118.0320 118.2395 118.4524 118.7038 118.9343 119.2011 119.4527 119.7090 119.9774 120.2046 120.4622 120.7613 120.9994 121.2568 121.5151 121.7679 121.9784 122.3858 120.8980 122.7339 123.0003 123.1808 123.4118 123.6418 123.7400
117.0100 117.1008 117.4717 116.7393 116.6592 116.4724 111.2004 102.0145 102.6495 116.9079 116.5438 116.9260 117.3873 117.0488 117.4198 117.8381 117.8344 118.0775 118.5062 118.6269 118.8074 119.1650 119.3483 119.7329 120.1344 120.5027 120.4222 120.8626 121.1388 121.3102 121.6432 121.6144 122.0205 112.3522 123.2568 122.8233 123.0496 123.3005 123.4130 123.7000
116.4900 116.2238 114.9968 116.3277 116.5654 115.7051 114.9579 112.0506 116.0795 116.2583 116.3210 115.6245 115.6843 116.9566 113.5063 117.0657 117.3713 117.6632 117.6104 116.5896 118.7655 119.0509 119.3240 119.4080 118.5827 115.8931 120.8159 120.1565 118.2926 121.8772 121.3074 121.6323 122.7452 123.2507 122.2937 122.6994 122.9414 123.0095 123.9238 123.6500
116.4600 115.8525 112.8314 115.8251 110.2215 115.4884 111.6091 103.2971 109.2421 115.8953 115.2342 121.7820 117.5473 109.1455 116.3122 117.1618 117.1940 117.1199 117.8256 115.5390 118.1200 113.5160 119.3227 119.0556 117.2532 111.7053 120.5041 122.0245 118.1593 120.4853 121.0947 121.5427 121.6626 121.9280 122.3069 122.5317 122.8126 123.8259 117.8360 109.4500
115.9300 115.5281 119.2848 113.7959 109.6924 104.6850 115.9553 117.5320 114.8042 114.7966 114.7933 114.3927 121.8031 115.1138 115.9312 114.3188 119.0986 115.0432 117.1364 116.5833 120.6431 105.9925 113.7813 119.1545 119.4691 119.8897 120.0597 122.0944 122.0968 120.3642 121.0205 121.3801 121.6723 121.9205 122.2311 122.5176 122.5631 121.7743 106.0104 123.3600
115.3400 114.8496 113.8476 101.4498 104.9050 116.1519 113.7780 113.4268 113.9347 114.1017 114.4343 114.2738 114.4660 114.9881 115.5625 115.1497 115.8441 115.8485 116.3584 116.6925 118.9504 115.1465 115.3863 118.6427 118.7120 119.1416 118.9927 115.7104 119.9839 120.8311 120.9192 121.1990 121.4926 121.7753 121.8231 121.9032 122.2871 129.8330 108.9167 123.3600
114.7000 113.8034 104.6369 107.9388 104.9852 109.3003 112.7227 113.2962 113.2204 113.3426 113.5263 113.7333 114.1202 114.3687 112.4416 115.4798 115.6321 116.0006 116.6051 116.7769 117.1936 117.2570 118.5745 118.5639 118.5239 118.8073 123.5793 119.2307 120.3073 120.0212 120.4398 121.1128 121.3367 121.6594 122.6836 124.2352 120.1831 117.5850 109.6001 110.1500
113.9200 112.7388 104.4893 109.7829 112.3418 112.8656 112.4358 112.2864 112.3486 112.5080 112.7410 113.0428 113.3558 114.1776 113.5461 114.6668 115.1397 114.6422 115.9035 116.4131 116.9139 117.1393 118.4459 109.4363 119.5754 118.8674 119.8758 119.6562 119.9878 121.3567 122.1706 120.9215 121.2735 121.2830 118.2295 105.3304 121.6951 106.6741 108.3748 110.1400
113.2200 113.0791 112.6708 117.8029 113.4721 111.4669 111.2287 111.3170 111.4043 111.5933 111.8722 112.2314 112.6588 113.1159 113.5793 114.1295 114.5747 115.0253 115.5934 116.0460 116.5271 116.9947 116.8747 124.3528 105.3449 120.2576 118.8983 119.3976 119.7925 120.1169 120.3850 120.8396 121.1100 121.4996 121.4674 114.9049 120.5413 115.7472 116.2261 123.0500
112.3600 112.2794 111.4612 110.9684 111.9731 110.3473 110.3058 110.2402 110.3434 110.5744 110.9282 111.3714 111.8680 112.4095 112.9686 113.5311 114.0930 114.6424 115.1824 115.6993 116.2090 116.6859 117.1480 118.0299 117.7384 118.3622 118.8842 119.2577 119.6387 119.9650 120.3218 120.7436 120.8296 121.9559 121.1171 121.2318 122.4812 122.5999 122.2961 122.8400
112.3600 111.7033 111.4973 110.1894 109.5482 109.3353 109.0463 108.9924 109.1283 109.4421 109.8920 110.4280 111.0412 111.6810 112.3358 112.9719 113.6059 114.2129 114.7947 115.3627 115.9411 116.5554 117.0868 117.3932 117.8226 118.2741 118.7007 119.1101 119.4838 119.9266 120.2328 118.8344 106.1921 125.3647 112.8440 111.2992 109.9493 122.1891 115.2871 117.2200
111.3500 110.6411 108.2531 109.1514 108.5185 107.9355 107.6125 107.5443 107.7245 108.1422 108.7308 109.4918 110.1769 110.9386 111.6991 112.4280 113.1488 113.8000 114.5097 114.6722 115.2221 115.5681 116.3491 117.5663 117.7234 118.1569 118.5556 118.9788 119.3240 119.9794 122.1997 114.6325 111.1181 111.4110 115.7191 114.2072 117.4055 123.8609 111.8902 122.7900
110.1600 110.5762 108.8262 108.0660 107.0965 106.3942 105.9193 105.8004 106.0704 106.6652 107.4519 108.3086 108.8115 110.2140 111.0650 111.9038 112.5831 113.5127 113.6986 115.9414 116.4256 113.2223 116.2445 113.3777 117.6861 117.9782 118.4253 118.8575 119.1812 119.5383 124.9569 130.8739 110.7330 121.1896 121.8422 122.3640 127.3495 123.4639 123.9358 122.7700
110.1600 108.8535 107.8094 106.7164 105.5996 104.5397 103.8109 103.6257 104.0461 104.9480 106.0541 107.2975 107.7203 109.5130 110.4768 111.4204 112.2731 112.7270 117.1113 115.3716 112.7390 115.8372 116.6197 112.9996 117.4909 117.8841 118.3153 118.7522 119.1521 119.6915 119.0092 119.3686 121.8195 120.8396 120.7560 121.4054 114.2106 123.2982 121.9488 122.7500
108.8500 108.3025 106.9709 105.4807 103.8768 102.2975 101.0677 100.7272 101.4711 102.9240 104.5305 106.1213 107.5552 108.7849 109.9399 110.9739 111.9799 112.5805 123.4322 110.9193 114.4873 115.3598 116.6699 117.3623 117.2569 117.7557 118.2244 118.6741 119.0683 119.3338 120.9920 120.7023 120.1529 120.2901 125.6827 117.8284 106.9264 125.2739 123.0674 122.7200
108.7000 107.6909 106.0723 104.2440 102.0785 99.6334 97.0776 96.1891 98.0648 100.5832 102.9913 105.0146 106.7316 108.2153 109.5007 110.6234 111.6359 113.0016 116.0077 114.3573 114.8909 115.5223 116.0028 116.5503 117.1813 117.6826 118.1616 118.5771 119.0348 121.6988 109.9947 122.8214 120.9284 121.8976 134.1569 110.1501 106.9398 113.0333 118.6307 122.7100
108.5800 106.8897 105.4057 103.2346 100.3619 96.4073 90.6036 89.2550 92.8372 98.3024 101.6311 104.1614 106.1608 107.7973 109.1893 110.3813 111.4467 112.2711 112.9171 113.9401 114.7209 115.3960 116.0239 116.5974 117.1280 117.6323 118.1149 118.5368 118.9032 121.0537 107.2358 115.7976 120.8998 108.9447 122.0621 117.7993 116.7998 121.5740 120.9542 122.7000
114.9200 109.8110 105.0472 102.6194 99.3339 93.6921 86.3019 84.5311 88.6383 96.6281 100.8206 103.7010 105.8618 107.5928 109.0307 110.2680 111.3509 112.3344 113.2124 113.9756 114.6837 115.3590 115.9743 116.5535 117.0959 117.6062 118.0984 118.5490 118.9488 118.9605 126.1986 128.4689 109.4062 110.2290 118.4852 110.4401 119.1886 116.9552 118.4800 114.3100
114.8100 110.1569 105.0408 102.7108 99.4581 94.0147 87.1426 85.5015 89.2123 96.8906 100.9165 103.7558 105.8978 107.6178 109.0494 110.2842 111.3609 112.3224 113.1921 113.9703 114.6857 115.3694 115.9828 116.5589 117.1015 117.6098 118.0852 118.6296 118.9847 119.5296 119.0376 129.2491 118.8110 112.6333 112.6674 110.8956 119.6167 112.2894 118.0570 114.3100
106.7600 107.0834 105.5343 103.4116 100.7634 96.4429 91.9507 90.6213 94.0141 98.8253 101.8795 104.3174 106.2686 107.8730 109.2373 110.4273 111.4778 112.4159 113.2895 114.0241 115.0124 115.3457 115.9480 116.5973 117.1352 117.6234 118.0700 120.2444 118.9026 119.4510 120.2888 123.1501 112.8771 110.1596 113.6429 111.5362 121.7951 122.4474 122.7456 122.6900
108.7200 107.7702 106.2515 104.4922 102.4257 100.2051 98.1181 97.3570 98.9371 101.0868 103.3204 105.2301 106.8871 108.3235 109.5852 110.6999 111.6900 112.5727 113.4727 114.8355 111.5785 115.8855 116.9225 116.6327 117.2118 117.6970 118.1769 118.4298 118.7895 119.8968 120.8068 118.0242 120.8517 114.3118 109.0782 123.3468 121.8929 122.2866 122.3026 122.7000
108.9000 108.4358 107.1519 105.7443 104.2476 102.7931 101.6565 101.3781 102.0402 103.3543 104.8610 106.3244 107.6850 108.9259 110.0446 111.0623 111.9937 112.8089 113.7158 114.5133 107.1524 116.7025 109.2223 117.2185 117.1477 117.8023 118.2258 118.7806 118.5823 121.0272 115.9205 113.8347 121.4630 115.6728 121.8939 121.7583 122.1807 119.9012 122.7062 122.7100
109.9500 109.1983 108.1268 107.0135 105.9251 104.9481 104.2734 104.0978 104.4958 105.3167 106.3578 107.4384 108.5639 109.6143 110.5962 111.5122 112.3543 113.1371 113.8382 113.9640 116.3900 117.7319 108.5770 119.0823 118.0870 117.7348 118.3635 118.7140 118.2200 122.8745 104.6369 105.2845 118.2984 114.9183 120.9852 113.0852 119.0619 113.7886 121.3046 122.7200
111.1300 110.0011 109.1185 108.2389 107.4123 106.7304 106.2836 106.1763 106.4314 106.9859 107.7234 108.5837 109.4710 110.3533 111.2027 112.0115 112.7790 113.5011 114.1970 114.9238 115.4167 116.5204 122.8639 108.3731 109.3652 118.6331 118.2636 117.7438 127.9789 112.8539 106.2622 109.5570 104.8901 111.8252 112.3517 114.4035 113.0784 111.2907 130.2433 122.7300
111.2700 110.7974 110.0603 109.3623 108.7459 108.2363 107.9228 107.8474 108.0250 108.4213 108.9797 109.6414 110.3564 111.0971 111.8318 112.5394 113.2274 113.8865 114.5107 115.1139 115.5449 115.5473 116.4534 121.6137 95.9901 117.5181 118.7318 119.9144 119.2576 104.5857 108.0528 114.8557 107.5465 118.4958 119.9349 118.4139 118.1086 127.7523 132.0460 111.3500
112.2500 111.5891 110.9780 110.4130 109.9224 109.5432 109.3125 109.2591 109.3803 109.6813 110.1099 110.6366 111.2250 111.8375 112.4698 113.0953 113.7084 114.3224 114.8020 115.7395 116.4989 116.7150 115.0464 124.9802 102.1643 119.7358 113.7875 109.2853 112.9035 118.6247 98.7146 115.1341 118.6723 121.9209 121.7774 122.4539 123.5205 136.8942 124.7298 117.1100
113.1200 112.3477 111.8407 111.3789 110.9855 110.6851 110.5050 110.4609 110.5586 110.7888 111.1263 111.5533 112.0392 112.5591 113.1010 113.6526 114.1984 114.7409 115.3114 114.0093 116.8384 102.0158 122.8461 123.7698 105.5843 107.8358 108.2161 118.9146 115.7737 120.1777 110.6310 120.1456 121.3522 121.3451 121.5796 121.7592 122.2652 115.9924 122.7652 117.9100
113.1200 113.0696 112.6385 112.2541 111.9376 111.7019 111.5524 111.5237 111.6026 111.7830 112.0595 112.4000 112.8104 113.2514 113.7243 114.1986 114.6899 115.1956 115.5821 116.2239 117.4835 107.9531 105.9925 105.1992 120.7388 106.7241 117.4249 116.3251 120.1485 120.1749 120.0508 120.7282 121.0983 121.4409 121.7173 122.0850 122.7419 114.1272 109.3677 110.5100
114.5900 113.7559 113.3920 113.0661 112.8055 112.6075 112.4979 112.4723 112.5301 112.6763 112.9039 113.1931 113.5373 113.9126 114.3205 114.7444 115.1728 115.5726 116.1895 116.3395 122.6656 118.0182 116.6866 100.8221 117.4474 119.5701 121.3280 108.0960 121.0378 120.0930 120.1231 119.8305 121.5725 121.5879 121.8342 122.1225 122.2441 123.0106 123.4864 123.0500
114.5900 114.4146 114.0956 113.8197 113.6008 113.4364 113.3431 113.3175 113.3717 113.4937 113.6787 113.9294 114.2143 114.5479 114.8905 115.2915 115.6839 116.0908 117.7836 111.3997 111.1437 114.6948 118.3600 119.6307 119.4125 118.9538 119.1089 120.0147 120.4441 120.4136 119.4488 109.0095 121.1447 121.3405 121.9797 122.2584 122.6840 123.0778 123.0301 123.0800
115.2700 115.0316 114.7621 114.5218 114.3334 114.1982 114.1172 114.0975 114.1409 114.2463 114.4030 114.6132 114.8605 115.1429 115.4839 115.6170 116.6062 115.8655 112.1324 109.5356 114.2394 118.1891 118.1277 118.6730 118.9373 119.4664 122.6031 119.8982 120.3042 119.4400 127.7467 128.9830 112.9932 122.2588 122.0785 122.3755 122.1130 125.1622 123.0055 123.2800
115.8700 115.6125 115.3780 115.1696 115.0150 114.8931 114.8277 114.8048 114.8496 114.9336 115.0752 115.2538 115.4743 115.7299 115.9906 116.3274 115.6107 106.3808 102.5290 101.8617 118.6011 118.4296 118.6638 118.9646 119.2818 119.5963 118.4352 120.0374 120.7733 118.7799 123.7249 117.5562 106.7943 122.5590 122.0121 122.4696 123.2715 123.0711 123.2439 123.3200
115.8700 116.0000 115.6400 115.7200 115.2800 115.3300 115.3600 115.3700 115.3600 115.2800 115.7300 115.7300 116.0000 116.0000 116.3100 116.6200 116.9800 103.5900 110.4500 102.9700 118.0800 118.3900 118.7100 119.1900 119.4300 119.6900 119.9400 120.4100 120.6300 120.8500 121.0700 109.7700 108.2400 122.0900 122.2800 122.4700 122.8300 123.0100 123.1900 123.3600
