121.2700 121.3200 119.2300 113.0600 112.2500 112.2100 112.7800 111.7800 106.4800 110.2200 99.3000 120.8000 120.8000 120.7700 120.7500 120.7300 120.9900 120.9500 121.1800 121.1400 121.3500 121.5400 121.5400 121.7200 121.8800 122.0400 122.0400 122.1900 122.4000 122.5300 122.7300 122.8500 123.0400 123.1700 123.5200 123.5200 123.6400 123.9600 124.0900 124.0900
121.2700 121.1036 120.6535 120.5561 112.5314 113.1538 115.6987 119.9585 104.4681 116.8695 118.4728 120.5996 120.3362 120.3911 120.5808 120.5984 120.7625 120.8692 120.9378 121.0125 121.0840 121.1850 121.4488 121.4608 121.6310 122.1384 114.6532 121.1774 122.2392 122.4395 122.5920 122.7620 122.9334 123.1116 123.2900 123.4632 123.6383 123.8181 123.9975 124.0400
120.9500 120.9205 119.3633 116.8844 115.0754 123.4064 115.2660 104.3669 103.8967 107.1323 108.2768 120.5483 120.2990 120.4500 120.2351 120.3645 120.1810 126.2984 120.7459 120.6652 120.7590 121.2116 119.9454 121.2290 121.3111 121.5313 121.6156 121.4823 122.0186 122.1838 122.3633 122.5503 122.7328 122.9119 123.0951 123.2796 123.4638 123.6538 123.8372 124.0400
120.6200 120.4752 120.3327 135.5542 122.6559 117.7518 109.6747 111.7795 101.2518 121.7020 103.8172 110.1196 111.3998 120.5897 119.8419 119.9652 119.9496 120.2039 120.1620 120.3238 120.4403 120.5421 120.8602 120.9139 121.0720 121.2020 121.3630 121.5861 121.8171 121.9536 122.1383 122.3294 122.5259 122.7124 122.9063 123.0993 123.2903 123.4794 123.6717 123.7600
120.2800 120.2454 118.8005 121.7985 117.6399 113.0241 107.3924 102.8455 101.5623 101.6478 110.7110 119.7546 119.8787 119.3727 119.4874 119.5800 119.6546 119.7585 119.8403 119.9627 120.1064 120.2649 120.3667 120.5629 120.7616 120.9452 121.1336 121.3229 121.5131 121.7130 121.9149 122.1114 122.3101 122.5190 122.7197 122.9196 123.1157 123.3163 123.5138 123.5400
119.9100 119.5244 120.2625 119.2044 108.3908 110.6153 112.1719 103.3075 112.8681 107.1860 119.1281 119.7489 119.2248 119.2269 119.0679 119.1233 119.2270 119.3276 119.4660 119.6087 119.7568 119.9200 120.0926 120.2791 120.4670 120.6529 120.8543 121.0629 121.2712 121.4762 121.6836 121.8968 122.1001 122.3217 122.5248 122.7395 122.9472 123.1488 123.3532 123.4800
119.9600 120.0446 114.7860 119.6880 113.5951 109.2063 115.3915 100.1901 105.9832 110.4081 111.9898 118.3368 119.5936 118.9467 118.6499 118.7080 118.8110 118.9508 119.0835 119.2339 119.3974 119.5876 119.7591 119.9147 120.1455 120.3606 120.5897 120.8066 121.0070 121.2361 121.4581 121.6755 121.8972 122.1221 122.3383 122.5586 122.7712 122.9827 123.2044 123.2600
119.1600 118.2125 101.8987 118.4896 113.2927 106.5298 114.0472 95.8143 121.5148 119.6801 119.5635 118.4768 117.9056 118.0983 118.1882 118.3742 118.4710 118.4942 118.6834 118.8293 119.0379 119.2166 119.4855 119.7191 119.9286 120.0245 120.3208 120.4152 120.7480 120.9842 121.2210 121.4590 121.6901 121.9181 122.1563 122.3802 122.6037 122.8231 122.9995 123.2000
110.8000 110.7756 100.0238 98.8966 116.8258 109.4656 115.6377 105.4064 119.1752 117.1399 114.9968 117.6948 117.7406 117.6479 117.7338 116.7125 117.7257 118.0205 118.2772 118.6036 118.5762 118.8265 119.0885 117.0914 119.4061 119.7037 119.9438 121.3355 120.8382 120.7464 121.0096 121.2444 121.4869 121.7240 121.9679 122.1851 122.4274 122.6718 123.2037 123.1400
133.0700 111.2547 113.9221 96.0118 107.0925 116.6932 110.0786 107.6822 117.7174 116.9816 117.4662 116.6155 116.7550 117.4004 117.2732 116.5873 117.5323 117.6230 117.9051 116.8417 118.9408 118.5730 119.1503 116.3979 112.8814 119.6252 119.7395 115.7006 117.1279 120.3982 120.7690 121.0242 121.2823 121.5337 121.8058 122.1869 122.3584 122.5734 119.0746 122.9200
133.0700 109.3018 115.5967 93.1690 98.9818 104.2665 120.1433 104.5277 116.5534 116.4983 116.0367 122.1186 115.7269 115.9334 116.7108 117.1338 117.5702 116.8125 117.4390 115.3947 118.7455 110.4155 119.7449 119.5533 119.1545 119.2228 119.6693 111.9219 121.3998 120.2324 120.6211 120.8445 121.0770 121.3273 121.5552 121.4113 121.9590 124.5234 112.4243 122.8600
115.1400 110.6106 119.9279 113.8498 92.9977 108.6666 119.3842 116.8389 116.3911 116.0108 115.9420 115.3241 125.1401 119.4719 115.8395 110.4005 115.5711 118.9646 117.3972 117.0792 108.3162 109.3032 113.3797 114.9010 118.7998 118.4333 118.9837 119.5608 120.0838 119.9832 120.1223 120.6107 120.8897 121.1828 121.2203 125.5442 125.0179 113.3600 115.2906 122.5700
108.0200 109.7541 105.1738 101.6821 98.1069 114.5960 121.4348 114.9538 115.2520 115.3779 115.3478 114.9978 115.1435 114.7763 115.9065 115.0487 116.3405 116.2761 115.5933 118.2136 116.9039 120.4800 118.0220 115.1787 118.5355 118.5718 120.8124 120.5628 119.1864 119.8670 122.1387 120.9499 120.6520 120.9954 121.0194 122.8911 109.7824 120.4068 109.4406 122.5200
100.5300 110.1482 101.6209 106.5540 108.8723 98.4017 117.2425 114.8097 114.8347 114.7235 114.6526 114.7733 114.8351 114.7672 114.7707 115.1627 115.3104 115.6735 116.1878 116.0681 116.4135 115.3918 117.6252 117.6057 117.8277 118.5547 108.5801 117.9825 119.1919 117.2584 108.1924 119.9663 120.3352 120.7863 121.5580 120.1682 117.4503 124.9425 95.6878 101.9800
102.6900 107.7143 111.5136 107.6007 104.0451 115.6383 114.8460 114.2944 114.1232 114.0080 113.9258 113.8516 113.9032 114.0737 114.2840 114.4562 114.7387 114.7681 115.3264 115.6903 116.1261 116.3851 116.7341 116.7186 117.5984 118.0529 118.8347 118.7966 119.5108 114.8277 117.8112 119.8100 120.3273 120.6048 121.0828 120.8391 116.2308 116.7719 111.0967 135.9300
104.4500 116.1727 119.4020 114.5327 102.2382 114.3948 113.9742 113.5840 113.3793 113.2225 113.1331 113.1376 113.1901 113.3102 113.5076 113.7803 114.0769 114.4211 114.7764 115.1840 115.6525 115.4413 120.6120 118.1233 117.2098 117.5577 118.0047 118.3035 118.7546 118.6649 119.7918 119.8301 120.1178 120.4066 120.7188 120.2518 121.6296 118.1467 117.0886 122.2000
115.6100 101.2246 109.5808 121.7214 114.1169 107.4950 112.9174 112.8290 112.5684 112.3756 112.2625 112.2354 112.3166 112.4856 112.7325 113.0184 113.3680 113.7941 114.2084 114.6502 115.0510 115.5381 115.9131 116.1230 116.9282 117.2904 117.7094 118.1331 118.4803 118.8727 119.2473 119.6524 119.5275 121.2927 108.3616 107.4223 118.4494 121.5545 121.4594 121.9600
105.2900 97.4773 104.0169 114.7059 112.6034 112.7194 112.9558 111.9346 111.6716 111.4368 111.2973 111.2760 111.3694 111.5779 111.8435 112.3136 112.7262 113.0882 113.5958 114.0963 114.5774 115.9407 115.8736 116.1061 116.5501 117.0094 117.4481 117.8709 118.2446 118.7853 119.2324 117.9646 108.8598 105.9094 110.5640 110.2935 122.6060 121.2405 119.7820 121.9200
93.0500 94.7195 106.9473 111.9172 110.1220 112.2768 111.4607 111.1242 110.6914 110.3869 110.2099 110.1795 110.2943 110.5634 110.9281 109.9800 111.9019 112.4875 112.9118 113.8805 113.8335 113.7652 113.1143 115.5463 116.2405 116.7218 117.1934 117.6650 118.0599 118.9573 120.1710 106.7902 114.9394 106.2847 122.0458 124.5836 122.2549 122.6629 112.3974 121.8800
114.1200 115.7121 114.1307 113.3582 113.2501 112.2100 110.7460 110.1118 109.5804 109.1987 108.9677 108.9297 109.0880 109.4226 109.9588 109.5152 110.7705 108.4090 113.9454 109.0134 114.0653 114.3608 116.7523 115.5046 115.9486 116.4579 116.9553 117.4329 117.7862 118.2314 119.9902 120.3382 119.9717 120.5952 120.0369 121.8431 123.4108 121.4017 122.2935 121.8400
114.1200 110.5158 112.5707 111.7999 104.4438 105.4250 109.6292 108.8412 108.3584 107.8367 107.5232 107.4654 107.6857 108.1442 108.7070 109.5440 110.6479 109.1688 116.6365 109.2615 113.4036 113.3127 114.0945 115.0786 115.6673 116.2161 116.7426 117.2308 117.7135 118.2586 118.3227 118.6400 119.0845 119.5517 119.8390 120.9023 115.0684 121.8868 122.0495 121.8100
118.6400 109.7259 112.2132 111.5604 103.7086 101.9923 109.5953 107.8164 106.9949 106.2474 105.7980 105.7135 106.0223 106.6518 107.4832 108.3977 109.2557 110.3640 112.3059 112.4167 112.7444 113.5327 114.1458 114.8200 115.4284 115.9979 116.5439 117.0604 117.5292 118.0087 119.0188 119.7629 119.2391 119.6059 122.3235 114.8977 119.0954 115.9024 114.0424 121.5500
109.8000 114.4872 111.9534 111.5852 107.4180 105.1290 107.8849 106.4874 105.3912 104.3448 103.6387 103.5114 104.0036 104.9423 106.0954 107.2900 108.4290 109.5603 110.2163 111.0792 112.3265 113.1166 113.8656 114.5631 115.2037 115.8061 116.3767 116.9021 117.5619 118.4537 116.9018 118.5362 118.7269 120.6387 113.6328 106.9851 117.0221 111.5519 119.5130 121.5300
101.7500 103.2480 110.9888 110.2585 109.3547 108.4260 106.7931 105.2896 103.6303 102.0287 100.8116 100.5890 101.4417 102.9721 104.6134 106.1745 107.6025 108.8797 110.0696 111.1072 111.9951 112.8444 113.6289 114.3513 115.0297 115.6502 116.2452 116.7979 117.2801 118.4517 112.5729 117.9823 119.3989 114.4578 119.8156 111.7714 120.2512 115.0069 120.4598 112.4900
111.6000 106.9650 111.1338 109.9513 108.8529 107.4307 105.8467 103.9898 101.7368 99.2251 96.6337 95.8993 98.1584 100.7006 103.1343 105.1556 106.8579 108.3168 109.5902 110.7106 111.7185 112.6143 113.4397 114.1947 114.8877 115.5291 116.1287 116.6996 117.3358 117.1443 123.4513 129.2545 105.6749 107.5959 114.3454 116.7726 115.6369 112.1380 119.3039 112.4500
112.3900 112.0526 110.9803 109.7621 108.5051 107.0025 105.1939 102.9481 99.9660 95.7198 90.1683 89.1243 93.1527 98.5624 101.8456 104.3446 106.3128 107.9264 109.3000 110.4789 111.5352 112.4742 113.3069 114.0919 114.8001 115.4542 116.0645 116.6396 117.2115 117.5045 117.3594 123.2275 107.2758 103.7152 117.8044 106.9388 120.8849 120.6565 121.3039 121.4800
112.3500 111.8269 110.8119 109.6621 108.3349 106.7636 104.8459 102.3782 98.9239 92.7195 85.9194 84.5680 89.2423 97.1463 101.1314 103.9205 106.0302 107.7250 109.2074 110.4840 111.7177 112.3991 113.2175 114.0378 114.7598 115.4180 116.0302 116.6232 117.1737 117.7396 118.9021 129.8471 118.8698 119.1335 119.1827 114.9333 120.6619 120.8336 121.2029 121.4800
112.3500 111.8023 110.8406 109.6931 108.3651 106.8035 104.9102 102.4969 99.1471 93.2992 87.0412 85.8470 90.0602 97.4438 101.2694 104.0044 106.0864 107.7625 109.1163 110.8850 108.3204 112.4633 113.7683 114.0327 114.7528 115.4273 116.0248 116.5866 116.8833 117.7918 119.9683 107.5177 120.3648 113.1115 120.3128 120.7250 120.6892 121.2771 121.1327 121.4800
112.3700 111.6755 110.9749 109.8792 108.6025 107.1214 105.3726 103.2291 100.4696 96.9155 92.3872 90.9358 94.7849 99.1785 102.2038 104.5568 106.4520 108.0294 109.7115 109.7377 104.6160 115.6097 109.4344 114.2834 114.8576 115.4902 116.0829 116.7358 118.5327 118.5845 113.4677 105.4079 116.1101 111.8307 117.9798 116.8291 118.6283 117.6131 122.0776 121.4800
122.8700 112.1268 111.2058 110.1091 108.9753 107.6669 106.1357 104.3738 102.3473 100.1271 98.1192 97.6755 99.2906 101.4079 103.5826 105.4508 107.0737 108.5236 109.6346 112.4794 113.0721 112.4145 117.8400 115.3398 114.5053 115.4673 116.1891 116.5336 116.7640 120.4765 114.1703 113.8214 125.0405 110.9635 110.2368 109.7400 111.2063 117.1944 117.0665 121.4800
122.8700 112.0433 111.5880 110.8133 109.4985 108.3710 107.0648 105.6732 104.1772 102.7955 101.7450 101.5482 102.2905 103.6079 105.0699 106.5128 107.8485 109.0614 110.1703 111.1269 112.0710 111.3538 125.0667 101.7654 116.1474 116.0171 116.3152 117.4204 125.3604 115.4458 112.6459 110.6368 106.1720 108.0230 116.9165 117.5769 117.2279 119.0811 114.4104 121.5000
109.5100 112.8113 111.8496 108.6290 110.2744 109.1355 108.0713 106.9767 105.8973 104.9660 104.3434 104.2332 104.6666 105.4913 106.5246 107.6315 108.7130 109.7395 110.7185 111.6174 112.5661 113.1321 117.1261 115.7261 111.2585 113.6752 115.9194 118.0785 122.1896 106.0663 105.7313 109.6848 106.1004 119.5511 120.9473 120.8370 120.2662 128.2376 124.9870 118.8000
113.9300 113.1525 112.2632 110.6686 110.8374 109.9602 109.0741 108.2123 107.4098 106.7587 106.3467 106.2754 106.5529 107.1154 107.8725 108.7169 109.6044 110.4839 111.2594 112.4252 113.0265 113.4372 116.7669 122.6180 103.8853 115.7881 117.9269 107.5632 108.7126 115.6742 94.8310 110.2082 118.0656 119.9288 119.8849 120.2699 122.3321 133.2579 127.6000 109.0600
114.0700 113.5678 112.9943 112.3317 111.4734 110.7692 110.0482 109.3593 108.7524 108.2704 107.9809 107.9264 108.1323 108.5335 109.1056 109.7372 110.4680 111.2092 111.9600 111.3480 112.7444 115.0665 118.4134 120.0286 103.7850 105.5387 101.3570 117.8168 116.1337 118.8409 116.0785 116.7391 119.6873 120.0226 120.1802 120.1638 121.8495 114.5498 115.3028 115.2900
114.2300 114.0391 113.4227 112.8010 112.1919 111.5671 110.9736 110.4118 109.9377 109.5706 109.3618 109.3202 109.4703 109.7684 110.1938 111.0705 111.0737 111.8826 112.5188 113.1943 113.5564 109.9636 105.9644 109.5071 103.1076 101.6531 103.4011 105.8774 116.3345 118.0921 118.8666 119.1207 119.5087 119.9377 120.2821 120.6991 121.2129 114.2931 109.3779 121.8000
114.8300 114.4910 113.9461 113.4055 112.8579 112.3315 111.8322 111.3809 110.9988 110.7161 110.5519 110.5171 110.6290 110.8703 111.2192 111.6447 111.7358 112.8432 113.1605 113.3144 118.1159 115.1538 115.7554 115.9985 117.6691 117.4177 117.7724 118.1781 118.5557 118.4155 118.7931 118.3710 120.0017 120.0555 120.3919 120.7216 120.9199 121.3457 122.1080 121.8300
114.9900 114.9615 114.4745 113.9914 113.5157 113.0589 112.6405 112.2652 111.9568 111.7271 111.6007 111.5734 111.6603 111.8404 112.1175 112.4904 112.7888 113.2816 114.1697 116.0136 109.6787 115.5166 115.5832 116.1135 116.5788 116.8078 117.2615 117.9449 118.2853 118.6181 118.1699 108.3523 118.4216 119.8903 120.5723 120.8722 121.0126 124.4638 121.4390 121.8700
115.5600 115.4237 114.9931 114.5650 114.1481 113.7580 113.3948 113.0771 112.8221 112.6354 112.5329 112.5116 112.5871 112.7511 113.0196 112.8675 114.0222 115.6231 115.0787 108.3244 107.3446 115.8693 115.9877 116.5831 117.0442 117.4969 117.5753 117.9668 118.6358 118.3944 122.3932 132.7347 110.2779 121.0030 120.6432 120.9781 120.9188 123.4519 121.6673 122.1000
116.1400 115.8876 115.5025 115.1164 114.7489 114.4084 114.1008 113.8367 113.6187 113.4653 113.3792 113.3659 113.4212 113.5212 113.6579 114.9873 115.0858 103.6695 112.0128 105.6645 114.7383 116.2050 116.4934 116.8990 117.3043 117.6999 117.8976 118.5204 118.8121 118.6949 124.4173 121.5245 114.9907 120.5163 120.7036 121.0960 120.9093 120.0084 122.0217 122.1400
116.2500 116.3200 115.9000 115.5300 115.1600 114.8200 114.4000 114.4200 114.0300 114.0800 114.1200 114.1300 114.1000 114.0500 114.4700 114.4700 99.0900 107.4900 107.4400 115.9600 115.9000 116.2000 116.5800 117.2300 117.5300 117.8500 118.1500 118.7200 118.9900 119.2500 129.4900 107.8900 113.7700 120.4900 120.9400 121.1600 121.5800 121.7900 121.9900 122.1800
