121.1100 121.1100 121.1100 110.0200 121.0800 121.3100 121.3100 121.2500 121.4700 121.4300 120.2700 120.2700 121.8200 121.9900 121.9400 122.1500 122.3100 122.4500 122.6600 122.7800 122.9800 123.1000 123.2900 123.4100 123.5700 123.7500 123.8600 124.0200 124.1900 124.3000 124.5800 124.7400 124.8500 124.9900 125.1200 125.3900 125.5100 125.6300 125.7600 125.8800
120.8000 120.8216 120.8939 118.9657 120.0607 120.9390 120.9396 121.1056 121.1442 121.3508 121.3260 121.4420 121.3479 121.7057 121.8515 121.9880 122.1280 122.3755 122.4608 122.6237 122.7812 122.9376 123.0679 123.2719 123.3239 121.3722 120.6601 119.5230 124.2280 124.2877 124.4543 124.6205 124.7877 124.9590 125.1233 125.2873 125.3460 125.4221 123.0390 125.8400
120.4900 120.4955 120.5762 120.7365 120.6625 121.3310 120.6244 120.7491 120.9225 120.7765 121.3572 121.0580 122.7137 121.0817 121.4448 121.8344 121.9032 121.7420 122.9284 122.0730 122.5314 122.7203 123.0800 123.0720 123.2014 125.2900 131.4547 123.8133 124.2751 124.1097 124.3032 124.4757 124.6507 124.8209 124.9892 125.1685 125.2255 126.6328 124.2423 125.8400
120.1600 120.1360 120.1483 120.1532 120.1881 122.0932 120.0008 120.5242 120.0596 120.7570 118.5514 111.7136 100.9446 118.9160 121.4269 121.3244 121.5497 121.7216 122.5061 122.1245 122.3434 122.5093 122.6784 122.8366 123.0784 123.3873 125.3065 123.5780 123.7472 123.9669 124.1500 124.3356 124.5081 124.6879 124.8586 125.0083 125.8081 116.9010 113.1661 125.6400
119.8200 119.7546 119.7657 119.7872 119.7714 119.6691 119.9939 119.9768 118.9842 120.5719 117.1647 122.4597 115.2296 102.6515 121.1151 120.7813 121.5842 121.3646 122.5450 121.8386 122.0965 122.2769 122.4588 122.6686 122.8999 122.9012 123.1492 123.2863 123.6580 123.8178 124.0011 124.1837 124.3672 124.5496 124.7264 124.9314 125.1588 121.7957 123.4196 125.5900
119.4600 119.3549 119.3694 119.4003 119.4548 119.5428 119.5725 119.7630 118.7481 118.6060 120.7512 120.9357 104.0041 108.0053 118.0758 111.2508 121.0061 121.3410 121.4661 121.6784 121.8617 122.0659 122.2668 122.4241 122.7857 123.6766 123.3400 123.1573 123.4820 123.6423 123.8573 124.0500 124.2452 124.4220 124.6212 124.8020 125.0408 125.3294 122.6273 108.9400
119.0900 118.9416 118.9529 118.9811 119.0350 119.1063 119.2088 119.2903 119.5190 119.3457 119.4875 108.8415 118.4002 121.4652 113.1631 101.0934 122.6168 120.6416 121.2415 121.4189 121.6208 121.8490 122.0916 122.1028 122.7293 113.5737 116.2407 124.0623 123.2228 123.5003 123.6986 123.9215 124.0854 124.2909 124.4561 124.6815 124.8820 124.9310 125.4368 125.3800
118.7000 118.5070 118.5187 118.5503 118.6112 118.6895 118.7868 118.9038 118.9544 119.2591 121.2631 127.4953 116.2554 119.4317 108.9278 100.9871 112.5701 120.2401 120.9866 121.1741 121.3956 121.5084 121.8652 122.4479 122.4521 123.8822 115.0695 123.0320 122.8488 123.6203 123.7222 123.7851 124.0022 123.0641 124.3567 124.5797 124.7525 124.9346 125.0545 125.2000
117.8700 118.0468 118.0615 118.1055 118.1612 118.2502 118.3881 118.4156 119.1006 118.5852 118.5856 118.8480 118.9304 122.3525 104.3708 119.1330 119.5237 120.9771 120.6820 120.9589 121.4596 124.1195 119.7746 119.3693 119.6888 117.3010 106.3181 114.8860 123.8347 120.6039 123.4440 123.5355 123.7400 118.9974 124.5395 124.4689 124.6206 124.8551 125.1567 125.1700
117.4300 117.5597 117.5724 117.6007 117.7118 117.7618 117.7808 117.8666 114.0855 118.8645 118.7092 117.4511 115.8037 107.3652 102.1432 116.2644 120.0602 120.2885 120.4366 120.4633 121.1061 116.5956 111.2055 108.8359 106.4782 104.8262 107.3902 105.9770 119.3747 112.3272 123.4107 124.3108 124.6484 124.6830 124.0532 124.3381 124.6302 124.7271 125.2336 125.1300
116.9600 117.0471 117.0790 117.2025 117.0740 117.4504 118.6617 117.3486 110.8902 119.0562 119.0132 117.7590 98.6660 102.7479 106.1656 111.1375 119.6873 120.2034 120.4986 120.5197 120.9135 104.2687 109.8825 104.3496 101.9572 105.6217 105.9218 119.1444 119.9740 123.2230 123.5466 123.1670 123.4634 123.5363 123.9982 124.2293 124.4236 125.1260 115.3233 109.6300
116.4600 116.4936 116.5038 116.2715 117.7158 108.9948 110.7138 117.4667 117.4274 115.7496 105.0265 105.2302 102.2401 119.0254 115.7965 117.3564 120.5695 119.1962 118.4051 113.9355 118.6633 109.1033 107.0022 98.9907 104.0113 116.6097 120.0341 123.9234 126.0730 122.9377 122.7156 123.2266 124.0524 124.6567 123.7966 124.1245 124.0819 128.2938 110.5336 109.4800
115.9300 115.9269 115.2262 117.0610 115.4333 107.3802 119.2809 116.7726 116.7314 118.6967 113.1455 115.5966 117.3426 119.6028 118.6539 118.5976 119.4843 119.4499 119.0414 116.4324 120.9890 115.2180 102.8526 113.2506 122.9003 123.4276 121.7916 120.7966 122.1919 122.6855 123.3174 122.9897 122.0667 117.8145 123.6739 124.0459 124.7578 124.3931 105.9226 109.4800
115.3700 114.9574 108.7409 121.7764 118.5028 112.5856 114.5456 115.7681 116.3186 116.5098 117.1282 118.0814 115.8552 117.6848 119.1155 117.2900 118.7576 119.3259 119.1231 119.4469 121.1267 110.0245 108.2868 114.7614 104.0285 122.3028 123.2019 120.6523 112.7391 121.7882 123.7523 114.8109 122.8681 122.6781 124.2475 126.4758 114.0087 118.1981 107.7989 110.2600
114.7700 115.0978 116.0229 112.3964 114.2287 115.1283 115.0341 115.5489 115.7756 116.3474 113.4248 116.8735 117.0586 117.6035 117.7740 117.8490 118.5734 117.3116 126.0586 120.1916 120.8399 118.8345 103.5482 107.2876 118.9550 121.3883 122.3097 122.1161 123.2904 124.0927 123.5870 122.4615 123.3147 123.5237 119.2187 105.1266 122.2217 100.0277 107.6048 116.4600
114.1200 113.6203 114.0540 114.0141 114.5726 114.3918 112.8913 114.8754 115.2765 115.6017 116.0009 116.4014 116.6989 117.0657 117.4203 117.8323 118.1223 118.4455 120.0831 108.3525 117.8910 119.4860 122.2674 130.0670 108.4551 122.9424 121.3015 121.5362 121.8711 122.3975 122.5960 122.8072 123.3832 122.7619 122.5364 113.3871 116.0096 116.9873 113.5966 115.5100
113.4300 113.1651 113.1320 113.2634 113.3700 113.9392 110.7956 114.6015 114.7041 115.0627 115.4970 115.8817 116.2862 116.6761 117.1011 117.4766 117.8669 118.3458 118.5727 118.9581 119.9833 119.6724 120.1848 118.5649 99.3000 113.4512 121.4894 121.5453 121.8469 122.1421 122.5007 122.3375 122.0730 114.4756 111.1747 117.4335 109.9941 128.3844 115.2369 116.4700
111.8400 112.2052 112.2773 112.4049 112.5934 113.0754 112.3968 114.0619 114.0950 114.4163 115.0041 114.9140 115.8396 116.3740 116.5690 116.8916 117.6221 117.9635 118.2136 118.7190 119.2033 119.9977 118.8882 107.9434 114.2972 121.8544 110.4642 120.0724 121.5984 122.9291 122.2352 120.2023 105.7973 124.3380 107.1570 121.1060 116.9777 114.7839 109.8408 102.4100
110.9200 111.2455 111.3119 111.4845 111.7295 112.1008 112.5022 112.9480 113.4124 113.8751 115.3142 114.3383 115.8599 112.0298 117.1919 116.5602 117.3820 119.3903 118.7688 117.9784 117.9552 114.5376 105.9474 110.6625 113.2616 122.6503 110.1808 122.9667 121.3109 125.5937 124.0490 121.4489 107.5801 112.1793 112.6644 103.7178 111.7444 109.4293 107.7786 120.7600
109.8900 110.1422 110.2306 110.4494 110.7969 111.2303 111.7005 112.2547 113.9174 114.6936 106.9144 113.9321 116.0379 103.9786 116.6570 115.2753 115.9419 106.6786 117.9554 122.9575 109.1831 103.0341 107.7414 110.5910 114.3797 113.6550 109.3705 121.8496 120.9579 121.3423 124.0544 110.9797 103.1833 122.3535 123.9799 118.6452 113.3670 114.6020 121.7774 120.7900
108.7300 108.8831 108.9936 109.3149 109.8649 110.2695 110.9994 111.5401 112.4946 101.9125 104.3637 114.0255 114.7542 110.9159 115.2092 116.1162 117.9362 118.8544 116.5278 130.9199 101.3592 106.0027 106.2129 109.1784 108.4324 108.5063 107.7932 120.0489 121.3305 122.2275 116.5608 123.4883 122.3123 121.2787 123.5484 115.6757 102.5091 98.5299 121.1210 115.3200
107.3800 107.4225 107.6334 107.7241 108.2587 105.6239 110.2168 110.6841 112.1076 108.1894 115.1559 113.5877 114.1322 115.0021 116.8982 116.8798 116.5245 117.8043 113.1449 114.0106 106.8181 102.4594 100.0476 101.5420 110.7185 114.9385 116.4511 120.7586 121.2426 121.3563 126.4368 121.4935 122.0778 116.8082 122.3940 113.0185 111.0577 113.2907 117.4965 116.6400
105.7900 105.6476 105.9165 106.8288 111.0638 106.8813 109.0275 109.9857 110.8512 111.7626 112.3640 112.9875 113.9155 116.9421 103.5369 117.4025 114.2315 107.5402 109.8336 110.9785 115.8919 110.1933 103.4634 104.3600 107.7363 112.8310 121.0084 120.8748 121.4534 123.0303 115.6960 125.5152 123.5625 130.7019 130.8293 109.6067 111.4778 105.9794 118.0185 116.6400
103.8300 103.4281 103.8219 104.2259 106.0147 107.0561 108.2650 109.2629 110.2662 111.2431 112.2329 114.2728 102.5013 101.3059 99.7142 102.4839 107.7163 103.5142 104.3490 113.1900 115.7112 113.4743 118.0786 118.1182 118.1299 117.7707 120.6411 120.8394 121.2072 122.6098 112.2180 106.4928 109.0234 110.8785 116.2383 120.7418 113.0021 122.1385 114.8538 117.4300
101.3000 100.4541 101.0796 102.5795 104.0902 105.7928 107.2537 108.5506 109.7760 110.9909 111.7355 111.8522 89.5133 97.0161 95.7871 108.1256 102.1443 103.3732 116.5750 117.5495 117.6943 118.6361 119.1369 119.7253 120.0307 120.3194 120.4624 121.1996 121.4813 121.4894 125.5864 125.4106 123.8886 111.7031 119.9854 116.3239 114.5953 115.7661 118.1880 117.5000
97.7000 95.6042 97.3524 100.0396 102.5481 104.6656 106.4573 107.9924 109.0854 114.6859 116.0815 112.8155 96.4916 110.5776 110.8545 111.3714 115.8443 116.3862 117.0591 117.4961 118.0675 118.7344 114.4756 107.7617 120.4692 119.8906 121.1909 107.7167 117.1105 121.2026 123.7878 103.2837 102.4069 100.5308 100.2355 101.2433 101.6368 101.7655 102.4930 102.1000
91.1100 89.6396 91.5786 97.4506 101.0889 103.7856 105.8639 107.5503 108.8128 110.7730 110.8624 110.5127 113.7837 113.7999 114.5452 115.8837 115.7583 116.4176 117.0782 118.7141 113.4343 102.9262 108.2701 101.9899 112.4272 104.5457 117.8471 108.6505 118.0980 121.2363 124.5164 105.2848 98.9816 116.3968 98.3619 115.3930 116.6965 116.8849 123.7819 116.9800
91.1100 86.3396 87.7152 95.6408 100.2688 103.3233 105.5755 107.3556 108.8777 110.1969 111.3283 112.1360 112.7590 113.9253 115.4135 117.6632 115.9553 116.4817 117.0735 115.3220 120.4125 102.9220 104.1461 102.3984 103.7527 107.7758 105.5501 109.1442 117.3081 116.2664 121.0806 105.3471 103.1103 99.9444 99.9468 112.9732 112.0666 113.1714 115.1683 116.2600
91.4100 86.5069 88.5217 96.0772 100.4658 103.4247 105.6130 107.3850 108.6456 109.8726 111.1943 112.1854 113.1287 113.9368 114.6416 117.9579 116.2649 116.4264 116.8608 115.2923 118.6183 98.5100 107.9131 102.5803 109.1208 108.3715 106.2349 114.0276 119.8296 108.1480 114.1509 104.1260 104.0338 102.9185 102.6922 109.0292 109.5976 110.5865 112.6212 116.2500
91.4100 91.0101 93.6708 98.4498 101.5790 104.0641 106.0905 107.7063 110.2784 111.7876 111.3389 112.2523 113.1741 113.9078 114.8152 115.9870 112.9047 116.5998 117.1808 115.4184 118.4314 105.4355 120.8175 99.1320 103.5466 115.3958 110.6522 118.2058 115.9513 109.3717 105.7322 98.9385 100.3996 98.8350 107.7884 100.1875 108.1700 101.7155 103.3031 104.5700
97.6800 97.6891 98.8582 100.9403 103.1343 105.0524 106.6472 107.5934 109.4538 102.0919 111.8193 112.7188 113.1835 114.0464 115.2276 115.9165 106.2172 117.1403 116.9580 117.8867 118.1578 120.1074 117.4884 104.0435 105.9953 121.2084 117.6812 110.6894 109.5773 102.8933 101.0864 100.7058 100.9455 101.6435 111.4770 111.2943 120.9301 103.6580 113.0877 117.1700
101.2800 101.5770 102.0993 103.3081 104.7520 106.1568 107.9320 110.3159 110.1768 103.8466 113.1508 112.7442 114.8761 114.0461 114.8286 115.8036 111.9304 116.5597 117.9154 117.2630 117.9056 118.2505 115.1659 124.0724 106.2027 106.8809 123.1924 117.6887 104.2803 100.0811 100.1819 99.9067 98.4066 107.6265 124.7169 122.1979 114.7074 102.5272 110.3027 102.1100
103.8200 104.2599 104.5689 105.3079 106.3109 107.4012 108.5280 107.3278 110.2096 111.0932 104.4999 114.8700 98.1588 115.8516 115.1258 115.5919 117.1667 118.5975 102.8343 119.3110 118.8191 119.4897 121.0410 127.0926 108.3322 103.4458 106.9123 121.0786 116.0637 110.3322 98.7131 103.8591 110.5927 121.3587 124.2601 123.8282 125.5119 130.2976 123.6327 117.4300
105.7800 106.2930 106.5021 107.0024 107.7089 108.5465 109.4257 110.2843 110.7402 115.2602 92.2707 110.5692 111.5604 115.0243 115.3845 115.7112 116.5347 105.3593 115.5297 114.2639 107.1448 110.7574 104.4952 99.9396 105.6167 104.5470 104.6502 105.5960 113.5243 111.4017 110.9514 110.1163 122.4525 120.7172 115.7473 114.8027 117.0035 109.8467 106.8926 110.2000
107.3800 108.0060 108.1037 108.4519 108.9797 109.6204 110.3229 111.0861 111.5623 112.4362 90.4825 92.3052 113.3956 114.7393 115.7017 116.1578 116.4982 113.7412 118.1066 118.2508 118.5843 106.1754 109.2814 98.3409 109.2644 111.6821 109.2816 109.9469 116.0330 112.3255 111.2283 112.1140 114.3670 121.3708 117.7771 116.5386 115.9133 116.0339 116.4641 116.3500
109.8900 109.0893 109.3707 109.7203 110.1121 110.6200 111.2003 111.8087 112.3949 113.1705 115.5907 98.6580 116.8615 115.0379 115.9215 116.4605 116.8017 117.0681 109.2728 108.7820 116.0555 118.7290 96.2974 104.2151 112.7490 111.7513 121.7667 121.0530 119.8774 122.3088 121.6141 104.5165 115.7269 113.4483 124.2235 124.1828 117.0653 112.3684 115.1509 115.8900
110.9200 111.3249 111.2112 110.7931 111.1877 111.5572 112.0246 112.5403 113.0675 113.6264 114.4577 114.6709 115.2288 115.7860 116.2063 116.6876 117.0224 116.1434 121.2965 104.4737 110.9605 99.8261 107.5416 116.2600 119.6490 121.0756 120.9590 121.5103 118.7766 122.1075 120.9916 126.6171 122.9241 123.4781 123.4251 123.4924 124.6472 118.6426 119.1706 102.3300
111.8400 111.0198 103.8642 112.1213 112.1037 112.4078 112.8012 113.2415 113.6975 114.1577 114.6656 115.2461 115.5750 116.1265 116.5454 117.2410 118.5758 118.5664 118.6321 104.5138 102.3255 101.1313 104.0371 104.8384 120.6739 121.4108 117.7272 122.2844 108.2757 120.6785 120.1361 123.1323 108.2648 124.3727 123.1160 123.5813 123.3077 127.1150 116.8433 124.3500
112.6700 112.5579 110.6977 112.7820 112.9624 113.1988 113.5336 113.9051 114.2984 114.6633 115.1981 112.8953 115.8013 116.4688 116.8815 116.7220 111.4507 113.2127 98.7650 113.7434 104.9364 104.9999 105.2774 105.7095 96.5046 117.7120 113.4761 120.3919 124.1450 115.8631 126.2501 112.0164 104.6245 127.8142 123.1556 123.6040 123.8926 124.9091 124.2856 124.5400
112.6700 112.6800 113.3900 113.3300 113.2400 113.7500 114.1700 114.1700 114.5400 114.9300 115.3900 107.0400 116.4200 116.7500 117.0900 117.4200 100.6400 110.8100 120.1800 105.3700 100.9600 99.0500 119.9400 106.9200 106.4400 107.0400 121.3200 119.2700 109.7700 118.9200 117.6100 105.5400 103.3600 123.2400 123.4200 123.7500 123.9100 124.0800 124.3900 124.5400
