115.8800 115.4500 115.0100 114.0400 113.5100 112.9500 111.7400 106.8100 109.4400 108.5200 106.3500 105.0200 101.5200 99.0500 89.7700 89.7700 89.7700 89.7700 99.0500 101.5100 105.0100 106.3400 107.5000 109.4300 110.2600 111.7100 112.3500 113.5100 114.0400 115.0000 115.4500 116.2800 116.6600 117.0300 117.7300 118.0600 118.6800 118.4100 119.5400 113.8100
115.8800 115.6152 114.9705 114.2996 113.4629 115.7919 111.5911 109.9484 109.5988 108.2596 106.6901 104.7824 102.3592 99.0587 93.1110 88.1732 87.6788 92.2399 98.4164 101.8930 104.4298 106.4053 108.0133 109.3840 110.6735 111.1889 111.9778 106.8265 114.6378 114.8415 115.5027 116.1204 116.6877 117.2259 117.7291 118.2009 118.7350 119.0100 119.8319 113.8100
115.8900 115.6728 115.0400 114.3474 113.6355 112.5773 112.0927 111.0243 109.8129 108.5559 107.0896 105.3666 103.3039 100.8088 97.2205 93.9672 93.5321 97.0299 100.2686 102.9229 105.0653 106.8374 108.3392 109.6195 110.8839 112.2131 107.9131 109.0144 114.3505 114.8195 115.5808 116.1919 116.7349 117.2651 117.7671 118.2265 118.6551 118.6099 118.6091 119.8200
116.3500 115.7778 115.1583 114.4904 113.7959 113.0254 112.1095 111.1818 110.1795 109.0170 107.7184 106.2514 104.5807 102.7111 100.8353 99.4024 99.3252 100.5815 102.4229 104.3018 105.9866 107.5099 108.7889 109.9558 111.1287 112.0394 115.8867 111.0178 114.7748 115.0521 115.6411 116.1911 116.8232 117.3400 117.8317 118.2852 118.7085 121.4231 123.9990 119.8300
116.4000 115.9148 115.3170 114.6742 113.9789 113.2416 112.4345 111.5703 110.6296 109.5992 108.4679 107.2539 105.9430 104.6414 103.4360 102.6390 102.5644 103.2679 104.4214 105.7377 107.0396 108.2511 109.6671 110.7569 111.3273 112.4786 107.3423 106.7462 114.7048 115.2872 115.7366 117.0434 116.8791 117.4334 117.9217 118.3737 118.8102 118.7191 100.6341 119.8500
116.4500 116.0944 115.5125 114.8999 114.2542 113.5549 112.8938 112.0904 111.1487 110.2550 109.2953 108.2818 107.2831 106.3229 105.5220 105.0286 104.9900 105.4128 106.1738 107.1217 108.1378 109.0822 110.1400 107.6921 112.0188 113.2746 114.0776 108.0682 115.1746 115.3092 115.9962 116.6609 117.0630 117.5601 118.0269 118.4716 118.8988 119.3975 121.7004 106.9400
116.5200 116.2915 115.7392 115.1624 114.5594 113.9285 112.6485 112.0497 111.7366 110.9560 110.1288 109.3143 108.5193 107.8003 107.2381 106.9061 106.8805 107.1644 107.6891 108.3956 109.1837 109.9837 110.8885 111.5361 112.5214 108.6637 102.5908 114.5063 115.0321 115.6511 116.2014 116.7239 117.2259 117.7057 118.1621 118.5923 118.9962 119.3905 119.8762 119.9100
116.9600 116.5194 116.0022 115.4530 114.9016 114.2365 113.8117 113.0983 112.3251 111.6499 110.9541 110.2893 109.6445 109.1071 108.6865 108.4516 108.4293 108.6334 109.0242 109.5537 110.1736 110.8434 111.5326 112.2839 112.7528 114.2090 109.0529 115.6149 115.2890 115.9112 116.4384 116.9331 117.4087 117.8695 118.3298 118.6894 119.4230 119.4883 119.7943 120.2000
117.0400 116.7671 116.2817 115.7668 115.2116 114.5510 113.0863 113.9567 112.9415 112.3386 111.7522 111.2013 110.6957 110.2606 109.9398 109.7627 109.7542 109.9017 110.1954 110.6064 111.1115 111.6372 112.2258 112.6483 113.2577 114.1577 114.6742 115.1055 115.7154 116.1985 116.6879 117.1728 117.6248 118.1194 118.5353 118.5585 124.9855 119.0897 120.3977 110.3800
117.1400 117.0371 116.5716 116.0969 115.4611 116.1454 113.5207 110.5459 113.8488 112.9696 112.5377 112.0458 111.6182 111.2966 111.0451 110.9066 110.8942 111.0154 111.2426 111.5768 111.9793 112.4448 112.9388 114.1338 113.8836 114.4771 114.9791 115.4969 116.0282 116.4944 116.9620 117.4145 117.8388 118.5998 118.6013 119.0100 122.2947 120.4124 115.8167 120.2800
117.5900 117.3082 116.9110 116.5495 116.3402 109.6413 109.0170 114.9761 114.3674 113.6074 113.2944 112.8662 112.5936 112.2007 112.0209 111.9107 111.9088 111.9993 112.1869 112.4595 112.7924 113.1793 113.6261 113.9886 114.4803 114.9616 115.4650 115.9117 116.3658 116.8117 117.2480 117.6654 118.0717 118.4502 118.8694 119.2690 119.0791 119.5607 114.1908 108.1300
118.0700 117.6066 117.1429 117.0420 111.4911 109.8484 112.9074 113.0527 114.0306 113.6671 113.8625 113.7573 113.2575 113.0620 112.9032 112.8178 112.8153 112.8861 113.0424 113.2654 113.5516 113.8758 114.2462 114.6374 115.0510 115.4708 115.8645 116.2965 116.7671 117.1347 117.5407 117.9373 118.3280 118.7083 119.0727 119.3997 119.8388 120.0671 121.6382 120.6600
118.1100 117.9065 117.3276 118.0219 106.7478 110.5492 110.3005 123.4271 115.9264 114.7507 116.7140 117.4197 114.0599 113.8357 113.7144 113.6406 113.6302 113.6973 113.8257 114.0106 114.2502 114.5327 114.8549 115.1970 115.5580 115.9301 116.3992 116.6915 117.0533 117.4711 117.8434 118.2180 118.5732 118.9358 119.2891 119.6277 119.9449 120.2722 120.3594 120.9500
118.5700 118.2160 117.6448 113.8331 113.1956 111.4376 110.1652 115.6722 116.0367 115.6336 115.0127 114.7840 114.8604 114.5461 114.4531 114.3855 114.3817 114.4396 114.5443 114.6995 114.9078 115.1528 115.4297 115.7436 116.0635 116.4130 116.2984 116.2820 117.6339 117.7825 118.1525 118.5026 118.8419 119.1776 119.4942 119.8427 120.1044 119.9755 121.1891 121.0100
118.5900 118.4489 118.6582 113.5366 108.7908 120.0318 121.6941 114.1888 116.3390 116.0149 115.8127 115.5718 115.3529 115.2386 115.1280 115.0776 115.0694 115.1137 115.2078 115.3490 115.5332 115.7435 115.9902 116.2587 116.5445 116.8238 117.3037 117.1319 117.8125 118.1332 118.4594 118.7832 119.1051 119.4255 119.7653 120.0209 120.4203 128.3078 114.8737 108.6600
119.0500 118.7043 119.0022 111.4144 117.8938 117.6908 113.8875 117.1188 116.7639 116.5439 116.3301 116.1363 115.9717 115.8488 115.7629 115.7119 115.7073 115.7508 115.8361 115.9546 116.1109 116.2932 116.5107 116.7583 117.0128 117.2865 117.5669 117.9079 118.1399 118.4648 118.7696 119.0666 119.3714 119.6890 119.7895 120.2771 117.5961 112.9891 107.7087 121.3500
119.4700 119.1362 118.7847 118.2706 118.4713 119.6518 118.2401 117.0710 117.3080 117.0716 116.8439 116.6786 116.5388 116.4293 116.3511 116.3108 116.3073 116.3425 116.4112 116.5174 116.6552 116.8196 117.0204 117.2305 117.4672 117.7101 117.9713 118.2374 118.5191 118.7936 119.0837 119.3749 119.6462 119.7319 119.7697 122.2587 121.6261 109.4501 122.4574 121.4200
119.5200 119.4178 119.2344 118.7026 119.1875 113.5708 109.0868 117.5479 117.7615 117.4525 117.3442 117.2007 117.0617 116.9595 116.9047 116.8609 116.8601 116.8977 116.9564 117.0466 117.1703 117.3413 117.5072 117.6626 117.9067 118.1220 118.3574 118.6032 118.8622 119.1417 119.2025 119.9927 117.2082 120.7747 112.7291 121.1981 118.2697 121.3861 121.4427 121.6800
119.8700 119.5518 119.2723 119.2705 119.2571 114.1160 110.2968 108.4857 118.9861 117.9640 117.8323 117.6790 117.6437 117.5250 117.4205 117.4182 117.4091 117.4172 117.4690 117.5198 117.6911 117.7220 117.8568 118.2688 118.3055 118.5252 118.7413 118.9649 119.2027 119.4545 119.6418 120.4117 109.7753 121.3831 115.1147 118.2144 106.4246 121.2125 121.4252 121.7500
120.2600 120.3589 120.8591 119.4945 119.3104 119.5529 120.8102 111.9673 119.3241 118.4431 118.2297 118.1844 117.6401 117.7123 117.9193 117.8497 117.9154 117.9176 117.9586 117.9907 118.2243 121.0653 120.1624 118.3972 118.7304 118.9086 119.1046 119.3239 119.5628 119.7588 119.7882 121.9434 105.8927 116.9852 121.4129 119.6403 116.1370 118.2624 121.7631 122.0100
120.6200 110.1846 125.0470 119.7689 119.8187 119.5531 118.9493 119.8940 118.6632 118.2970 118.6894 118.1312 122.6800 118.1603 118.3391 119.5882 120.7485 118.1631 118.4312 118.4252 118.7731 123.9361 122.2583 119.0752 119.0985 119.2862 119.4693 119.6533 120.0202 120.0636 119.3648 121.1063 114.8751 120.5361 121.0440 123.4661 122.8730 121.7832 122.3601 122.3400
120.9200 120.1297 120.1189 119.9783 120.0022 119.8406 119.7511 119.5116 118.8076 119.0625 119.1299 118.7056 119.2711 118.8354 118.8061 118.6810 118.4861 118.7117 118.8622 118.8675 119.2352 119.1954 119.2898 119.4393 119.4587 119.6421 119.8144 120.0104 120.1222 123.3899 129.1617 121.0232 121.1726 121.7168 121.1957 122.1215 113.0489 122.9486 122.1104 122.3400
120.9600 122.5443 120.6773 120.5124 121.1698 120.2319 120.0211 119.8210 119.7716 119.6010 119.5267 119.4799 119.3249 119.2739 119.2327 119.3733 119.3541 119.2811 119.2740 119.3308 119.3641 119.5620 119.6755 119.8208 119.8400 119.9957 120.1586 120.3307 120.2336 115.0929 116.6420 121.9457 121.3584 121.2521 121.6477 121.4330 119.3550 122.3727 122.4929 122.6500
121.2900 118.1321 121.0691 120.6469 121.2989 120.7464 120.3700 120.2436 120.0958 119.9871 119.8783 119.7891 119.7292 119.6629 119.7316 118.8982 119.1958 119.6228 119.6731 119.7144 119.7996 119.8579 119.9479 120.0514 120.2081 120.3343 120.4846 120.6862 120.9581 120.5971 111.0776 121.7210 121.3883 122.2214 123.1943 122.1074 122.6214 122.3835 122.6946 122.8900
121.6100 123.2708 122.3302 121.1203 120.9108 120.8150 120.8181 120.5064 120.4446 120.3414 120.2498 120.1775 120.0950 120.2367 119.6623 126.2180 123.3114 119.8573 120.0514 120.1041 120.1571 120.2337 120.3377 120.4300 120.5374 120.6636 120.8013 120.9665 120.7830 121.6437 120.6680 119.1462 120.7682 122.9880 123.0715 122.3014 122.4721 122.6885 122.8629 122.9500
121.8800 122.0430 121.3588 121.4490 121.2781 121.1838 121.9539 120.8532 120.7805 120.6850 120.6064 120.5228 120.4794 120.2129 123.0504 122.8941 122.5522 120.3319 120.4240 120.4635 120.5148 120.5858 120.6693 120.7608 120.8714 120.9837 121.1234 121.2063 121.5352 121.5662 121.6581 124.1224 127.1274 122.5697 121.0397 122.0445 122.7112 122.8904 123.0693 123.2000
121.9800 121.9654 121.8333 121.6773 121.5886 121.3696 121.2395 121.2136 121.1104 121.0152 120.9355 120.8754 120.8141 120.7346 120.8041 120.4108 120.4037 120.6600 120.7684 120.8086 120.8611 120.9240 121.0010 121.0941 121.1765 121.2958 121.4468 121.7177 121.3038 121.7502 121.9515 119.2429 109.7090 121.8306 111.5257 116.3344 123.9275 123.0686 123.2626 123.4800
123.3200 122.1951 122.1059 121.9711 121.8463 121.7366 121.6226 121.5093 121.4176 121.3418 121.2642 121.1968 121.1362 121.1209 121.0979 121.1292 121.1067 121.0900 121.1055 121.1426 121.1873 121.2496 121.3240 121.4080 121.4891 121.5984 121.4858 121.7917 122.0407 128.5381 118.7647 122.7528 124.2099 116.4438 112.8607 124.6983 122.5051 123.3963 123.1742 123.4800
123.3200 122.6149 122.3477 122.2415 122.1216 122.0035 121.9093 121.8070 121.7247 121.6083 121.5659 121.5344 121.4805 121.4352 121.4159 121.3666 121.3978 121.4441 121.4231 121.4699 121.5089 121.5683 121.6288 121.7151 121.7892 121.7916 126.4471 122.4790 121.3463 122.9672 112.1828 120.7782 121.9094 115.6339 124.2082 123.0837 123.7387 123.3266 124.6314 123.7200
119.3700 122.6304 122.6125 122.5057 122.3914 122.2861 122.1888 122.0949 121.9551 122.3308 121.8859 121.7969 121.7395 121.7149 121.5874 126.1884 121.9023 121.3992 121.7821 121.7530 121.8161 121.8846 121.9419 121.9932 122.1057 122.0065 122.8542 121.1886 122.3089 121.8427 117.1202 109.0759 124.8820 132.7763 121.2025 120.6954 122.7430 108.6543 124.2653 123.9900
123.0200 123.0782 122.8484 122.7565 122.6523 122.5439 122.4547 122.3834 122.2877 122.7254 122.0250 122.1723 122.0724 122.0317 122.0326 121.8170 121.6987 122.1696 121.5854 122.0737 122.1271 122.0959 122.0093 122.3299 122.2802 122.5253 119.7829 123.3977 123.8050 125.6035 115.9213 108.3405 113.6538 111.3354 118.8681 122.9743 135.1691 124.0153 124.4385 124.2100
123.2800 123.2024 123.1046 123.0045 122.8674 122.8720 122.7478 122.6335 122.5760 122.4588 122.1213 120.9763 122.3826 122.3387 122.3422 122.3846 122.4466 122.3360 122.4316 122.2568 122.3729 122.3554 124.7987 122.2283 123.5042 122.7252 122.0743 124.3064 124.7733 119.9940 114.2445 112.3068 122.3085 123.6402 124.5284 123.8722 123.4447 123.3236 124.0040 124.4200
123.5300 123.4574 123.4011 123.1923 124.5657 122.8830 122.9060 122.9272 122.6439 123.9684 117.3256 122.9498 122.6648 122.6179 122.5951 122.5769 122.5132 122.3641 122.7374 122.9028 122.6455 122.8938 124.2524 124.2653 114.6045 123.7414 126.2049 121.1483 108.9691 108.8993 115.8427 111.3370 123.5345 123.6443 123.7342 123.9475 124.5428 124.4560 124.4638 124.4600
123.7700 123.6830 123.6107 123.3461 124.4791 123.8920 123.1979 123.1842 123.0209 122.9289 116.9747 123.5778 122.9606 122.8891 122.8847 122.8796 122.9157 125.0649 122.8076 123.1339 119.7849 127.9761 111.6910 123.6469 119.4728 124.5910 116.5155 106.3125 108.3793 107.1379 115.5478 124.3210 124.0685 123.9560 124.4459 123.5914 123.1727 122.5137 124.7218 124.6500
123.9900 123.9088 123.8953 123.6868 113.8183 120.7659 123.3767 123.4407 123.2978 123.5742 123.8867 123.1986 123.1852 123.1627 123.1438 123.1456 123.1362 123.7948 123.3670 126.3382 124.3911 136.0257 110.8011 125.4398 124.2822 123.9988 113.6567 109.6008 125.2893 115.2908 125.6620 124.1023 124.1876 124.2625 124.3047 123.4665 126.1552 120.7625 125.5614 124.8800
124.2000 124.1304 124.0423 123.9902 124.3538 124.1765 123.4828 123.7010 123.6312 123.5294 123.4360 123.4764 123.4434 123.4250 123.4124 123.3924 123.3913 123.4873 123.2463 117.6405 107.2903 124.5278 122.1919 124.4584 123.5545 122.2676 118.6842 113.3905 124.7055 124.3212 124.2348 114.6052 125.0663 124.3140 124.5651 123.0608 114.3689 112.8365 126.6728 125.1200
124.4400 124.3399 124.3102 124.1630 124.0178 123.9425 123.9782 123.9015 123.8453 123.8039 123.7676 123.7273 123.6939 123.6810 123.6573 123.6814 123.6682 123.7314 123.5334 122.4235 113.1762 107.3357 120.5298 123.4477 123.8471 123.8123 124.7806 123.8655 124.3735 124.6563 124.7742 115.1884 124.7866 124.5539 124.6645 125.0074 125.8274 111.5445 117.7457 125.1200
124.6600 124.5538 124.4573 124.3971 124.3621 124.2643 124.1832 124.1366 124.0873 124.0413 124.0024 123.9627 123.9430 123.9184 123.8969 123.8260 123.8670 124.1349 123.3278 120.8274 111.5076 119.7158 123.8816 123.8654 124.1582 124.2037 124.1667 124.4141 124.3360 123.7989 111.9813 117.1463 126.2110 124.8768 124.8672 125.0526 127.1809 111.2183 120.3182 125.3300
124.8600 124.7528 124.6821 124.6065 124.5358 124.4680 124.4110 124.3583 124.3087 124.2688 124.2298 124.2002 124.1667 124.1436 124.1754 123.6781 123.8768 124.9974 117.8464 117.3577 117.4436 124.7480 124.0980 124.2267 124.3625 124.4071 124.4822 124.4988 124.6397 125.7584 125.5038 106.6915 125.4966 124.9850 125.0999 125.1730 126.6648 124.4131 127.7324 125.5200
124.8600 124.9100 124.7800 124.7800 124.6800 124.6800 124.5600 124.5600 124.4300 124.4500 124.4500 124.2900 124.3000 124.3200 124.3300 108.5400 108.5400 127.8700 115.6200 108.9100 124.2900 124.4600 124.4500 124.4300 124.5800 124.5600 124.5300 124.6700 124.8100 124.7800 122.8100 122.8100 125.0200 125.1300 125.2400 125.2400 125.4900 125.4600 125.5800 125.5800
