110.0600 116.8700 116.8700 120.3300 116.5800 115.8800 116.6000 115.2900 113.8900 106.1100 114.5700 122.9600 122.9600 122.7400 122.7400 122.7400 122.7400 122.7300 122.9600 122.9400 122.9100 123.1000 123.0800 123.0500 123.2300 123.3900 123.3900 123.5100 123.5100 123.6500 123.7900 123.7600 123.9200 124.0400 124.2200 124.3300 124.4400 124.6000 124.7100 124.7100
123.4200 124.4365 120.6830 119.9575 116.1718 116.5502 115.1480 115.2413 128.6048 111.4729 122.8371 122.5233 122.6676 122.6645 122.6294 122.7014 121.4239 122.0586 122.7047 122.7417 122.7010 125.0931 124.5151 122.9620 123.0126 123.0988 123.1904 123.2804 123.3806 123.4787 123.5825 123.7007 123.8101 123.9301 124.0514 124.1807 124.3083 124.4320 124.5717 124.7100
123.1700 120.2516 116.9966 116.8676 114.0767 111.6706 115.3715 116.8307 118.1315 111.2887 112.4085 122.1713 122.6387 122.3596 122.3604 122.5650 120.2147 121.8899 122.4262 122.4627 122.5193 121.8556 122.2234 122.7662 122.7462 122.8495 122.9411 123.0337 123.1448 123.2431 123.3614 123.4813 123.5993 123.7248 123.8529 123.9853 124.1192 124.2425 124.4112 124.4400
122.9200 111.5218 118.6308 114.7316 117.1712 116.5603 123.2143 108.7928 110.9940 110.0577 110.5742 110.9648 122.0544 121.9177 122.0736 122.2216 122.4216 122.1366 122.1307 122.1745 122.2537 122.3622 122.3705 122.4175 122.5029 122.5859 122.6838 122.7872 122.8910 123.0088 123.1286 123.2540 123.3796 123.5070 123.6441 123.7789 123.9496 123.9438 124.2618 124.2400
117.6500 123.4342 119.0992 114.0368 114.2683 109.9844 121.8782 111.4631 113.1045 105.1856 122.6993 122.3983 122.3851 121.7032 121.7739 121.7271 121.7229 121.7962 121.8286 121.8788 121.9112 121.9643 122.0506 122.1387 122.2261 122.3189 122.4187 122.5341 122.6398 122.7673 122.8892 123.0211 123.1592 123.2903 123.4339 123.5823 123.7494 123.7644 124.8057 124.0300
116.9000 122.0841 122.5140 115.4277 116.5968 127.9788 113.1291 111.2439 117.6687 104.8645 122.9480 123.8600 122.2951 121.3788 121.4533 121.4713 121.4891 121.4982 121.5223 121.5721 121.6250 121.6933 121.7659 121.8441 121.9430 122.0355 122.1901 122.2588 122.4010 122.5008 122.6520 122.7855 122.9283 123.0761 123.2222 123.3692 123.5298 123.6773 123.8346 123.9600
116.9000 116.2611 124.9575 114.2193 118.4351 117.0719 110.1872 114.4919 111.0551 115.3360 110.1858 123.7187 122.3903 121.1868 121.1386 121.1184 121.1198 121.1559 121.2106 121.2562 121.3100 121.3755 121.4595 121.5563 121.6473 121.7972 121.6415 121.9963 122.0833 122.3072 122.3930 122.5500 122.7018 122.8561 123.0006 123.1603 123.3341 123.4736 123.6552 123.7500
115.3100 128.9359 118.9737 115.6338 117.9223 115.5709 111.8162 126.9534 121.5763 120.0102 124.3595 121.1662 120.4948 120.7897 120.8064 120.8249 120.8344 120.7978 120.8701 120.9231 120.9868 121.0852 121.1586 121.2374 121.4145 121.4269 123.2293 121.4412 122.0850 121.8761 122.1727 122.3028 122.4659 122.6300 122.7869 123.0080 123.1812 123.0769 123.3964 123.5000
114.2400 122.6564 118.3150 116.8571 115.0506 120.6142 107.9502 125.1069 119.3693 121.1489 117.6742 120.3831 120.6069 119.6623 120.5488 118.6143 120.4646 120.4321 120.5417 120.5818 120.6596 120.5818 120.7853 120.9471 121.0904 121.7434 114.9567 108.0766 122.1470 121.7853 121.8956 122.0516 122.2294 122.3279 122.5486 122.6583 122.5065 124.3181 123.8514 123.4600
117.5300 108.1709 115.8818 111.7500 114.2084 115.0275 117.0146 127.4932 119.8385 120.4173 120.2086 120.3875 120.5754 110.7828 119.8837 120.0981 120.3884 120.1563 120.1651 120.1726 120.2999 121.1585 120.8078 120.6561 120.8004 121.3726 118.2400 130.8910 121.4867 121.4510 121.6316 121.8220 121.9956 122.3216 122.3839 122.7074 117.7555 117.8106 112.1162 123.2300
113.7000 115.5920 112.1359 104.0073 113.3972 111.1026 119.5975 127.7158 119.8625 119.9539 123.1705 121.3053 119.3904 117.0741 119.9663 119.1298 116.6393 119.8626 119.7467 119.9531 120.4767 109.8023 120.5551 120.0694 120.4122 120.8494 121.9250 124.2108 122.9167 121.1879 121.4145 121.5582 121.3470 121.6409 118.0914 122.4555 112.5788 116.7016 113.7892 122.9400
113.8900 115.7188 111.7242 111.3158 108.0124 118.7451 124.2834 129.9486 119.4436 119.8735 119.5713 123.4070 123.1174 119.2611 117.8957 118.4300 110.8219 120.1813 119.5712 117.1951 123.2265 121.2074 117.2678 119.8729 120.0753 120.2366 120.2445 119.2727 120.7451 120.6446 121.0599 121.2004 121.3167 123.4715 105.5564 123.7301 119.4733 122.4926 124.0334 122.9300
123.7700 118.5812 108.7629 112.0577 115.4789 113.4365 123.8224 118.8926 119.0273 119.1693 119.1640 118.8351 119.0209 118.6121 119.0384 119.7921 119.9169 118.8513 119.0764 118.7886 118.3483 110.5472 118.7123 119.4624 119.7345 119.8950 120.0118 120.7459 119.1286 122.5234 121.9117 121.6103 120.7859 113.8043 117.0947 121.7344 122.1247 122.5972 122.4952 122.6200
98.1800 112.2573 118.5851 117.7018 111.6610 124.3113 121.0993 119.1230 119.0550 118.7826 118.6604 118.6017 118.5459 118.5160 118.4236 118.2480 118.3047 118.4858 118.5400 118.6624 119.9638 119.5800 118.3474 118.8699 119.3920 119.5436 119.6176 120.5961 111.2290 113.1310 110.9959 122.0351 120.6590 121.6828 122.3509 122.1050 121.8826 122.0848 122.3391 122.3700
98.1400 100.4661 113.1133 105.4995 109.6014 117.7257 118.1898 118.6854 118.4487 118.3653 118.2405 118.1382 118.0558 118.0054 117.9758 118.0131 118.0137 118.0506 118.1314 118.1345 118.3183 118.7032 118.3187 119.9868 118.9724 119.1723 119.6308 117.3834 120.0197 109.4067 115.5621 116.7678 120.4763 121.0519 121.2908 121.3535 121.6613 121.9097 122.1387 122.3000
111.4000 114.8938 109.5406 117.0560 107.9998 113.8948 118.0205 118.1719 118.0773 117.9295 117.8007 117.6647 117.5731 117.4911 117.5002 117.4809 117.5377 117.5935 117.6384 117.7576 117.9050 118.0467 117.3436 117.8801 118.6893 118.7947 119.0335 119.4085 119.6396 119.8231 120.1912 120.1220 120.6510 120.6803 121.1280 121.1813 121.5025 121.7328 121.9463 122.0400
119.3500 107.3366 101.0096 121.2041 117.6304 103.1684 109.7505 117.8257 117.6545 117.2875 117.1776 117.1620 117.0423 117.4977 116.9426 116.9982 116.8881 116.9687 117.1596 117.2564 117.4124 117.6246 117.7813 118.0866 118.1644 118.4376 118.6450 118.9226 119.0671 119.5060 119.6234 119.9432 120.2438 120.4890 120.7710 121.7548 121.1241 121.5113 121.7733 121.9800
108.9500 110.2049 110.5595 118.9676 115.2064 117.0196 118.3891 117.4580 117.1604 116.9944 118.8643 116.4698 116.5342 116.4521 116.3872 116.3887 116.5932 116.9408 116.5404 116.7437 116.9214 117.1005 117.3020 117.5294 117.7836 118.0318 118.3141 118.5256 118.8324 119.1392 119.4099 119.7053 119.9634 120.2286 120.7881 111.7196 119.4345 121.0216 121.6694 121.7100
97.2300 114.5542 108.5254 112.3925 115.7050 117.3721 117.1423 116.8158 116.7207 116.2052 116.4737 115.7658 115.9970 115.8623 115.8376 117.0794 105.5442 120.2876 115.9205 116.2197 116.3957 116.6099 116.8388 117.0968 117.3623 117.6387 117.9228 118.2254 118.5133 118.8157 119.1181 119.4160 119.7230 120.1168 120.2028 120.0554 119.1249 121.2097 121.4174 121.6500
110.4500 107.1109 111.7940 118.7635 116.8967 117.2620 116.4506 116.4067 116.1187 115.8901 115.6104 117.0869 115.1271 115.3062 115.2003 115.7801 115.6873 113.2005 115.5979 115.6003 115.8456 116.0871 116.3484 116.6280 116.9179 117.2270 117.5429 117.8614 118.1902 118.5079 118.8344 119.1409 119.4157 119.6647 120.3968 120.0182 119.8833 120.9805 121.2799 121.3100
110.7800 109.2855 104.4077 110.9356 117.8014 108.3757 116.5348 115.8597 115.6052 115.3081 114.9558 115.4430 114.7043 114.6241 114.5343 114.3846 114.6634 114.7906 114.7856 115.0450 115.2584 115.5393 115.7317 116.1430 116.4803 116.8120 117.1547 117.5039 117.8490 118.1896 118.5351 118.9398 119.2027 119.3106 117.0015 119.3469 120.5861 120.7478 121.1262 121.2500
109.4100 106.7705 103.8236 100.2974 116.7945 112.0368 116.3554 115.2424 115.0325 114.6971 114.4469 114.1291 113.9967 113.8313 113.7314 113.6954 113.6471 113.9410 114.1527 114.3665 114.6479 114.9392 116.4843 115.5211 116.0063 116.3802 116.7631 117.1456 117.5138 117.9478 118.2624 118.4987 119.0220 115.6405 108.5868 122.0515 120.7467 120.6260 120.9274 121.2500
112.5500 109.3780 111.1234 100.9700 116.7553 116.4524 115.2204 114.8792 114.4217 114.0760 113.7429 113.4568 113.2268 113.2263 113.3213 113.8552 113.4254 113.2066 113.4015 113.6752 113.9987 114.2006 115.2905 115.1846 115.5532 115.9515 116.3644 116.7811 117.1869 117.5933 117.8822 119.0784 119.6347 117.8819 107.8382 120.1709 119.8697 120.4521 120.7702 120.9300
112.5500 111.8954 118.0985 101.0400 116.1770 100.3936 112.3344 114.3439 113.8061 113.3937 113.0117 112.6725 112.3887 112.3297 109.2418 110.3174 111.8580 112.3870 112.6124 112.9307 113.2987 113.7199 114.1503 114.5503 115.0606 115.5128 115.9701 116.4180 116.8946 116.8669 122.7414 118.6817 114.3081 119.6695 117.3801 119.6486 119.9607 120.2989 120.6326 120.8700
118.2700 113.0235 116.5625 113.1473 116.3650 111.5159 113.8749 113.6547 113.1689 112.6726 112.2197 111.8190 111.4834 111.2776 110.4964 110.2168 111.2946 111.3704 111.7444 112.1264 112.5734 113.0474 113.5537 114.0633 114.5825 115.0807 115.5784 116.0587 116.5490 117.0948 116.6289 130.0298 110.5021 114.3671 119.3923 119.8014 119.7834 120.1515 120.5020 120.5900
116.1200 116.1957 115.8800 115.3874 114.7779 114.3341 113.5627 113.0603 112.4832 111.9178 111.3750 110.8871 110.4717 110.1718 110.0429 110.0501 110.1062 110.4014 110.7913 111.2614 111.7999 112.3583 112.9386 113.5227 114.0949 114.6450 115.2289 115.7560 116.2458 116.7194 117.0936 118.1634 107.9840 111.9449 114.6136 119.6424 119.5220 120.0300 120.3786 120.5400
116.3100 116.1319 115.5137 114.9932 114.3786 113.7646 113.1286 112.4580 111.7886 111.1222 110.4661 109.8656 109.3424 108.9492 108.7245 108.7021 108.8819 109.2496 109.7480 110.3423 110.9845 111.6498 112.3145 112.9757 113.6233 114.2038 115.3269 115.8112 115.8905 116.1437 117.5305 102.6817 114.7864 118.5782 118.7122 119.1915 119.5462 119.9069 120.2644 120.4900
112.4000 115.8178 115.1697 114.6291 113.9731 113.3010 112.6041 111.8624 111.0892 110.3019 109.5130 108.7521 108.0740 107.5448 107.2275 107.1980 107.4544 107.9450 108.5976 109.3422 110.1317 110.9233 111.7113 112.4380 113.2291 113.4254 119.4460 117.2816 115.8530 116.4250 113.3621 108.7753 118.2640 118.1762 118.6308 119.0172 119.4086 119.7817 120.1330 120.4600
131.6900 115.1283 115.0300 114.3187 113.6309 112.8949 112.1204 111.2891 110.4042 109.4685 108.4998 107.5389 106.6270 105.8785 105.4349 105.3888 105.7624 106.4502 107.3415 108.2903 109.2632 110.1417 111.0201 112.0199 112.7345 113.3802 113.6121 114.4120 116.6953 116.3939 116.9898 117.7739 117.5534 120.3231 118.4993 118.9835 119.3105 119.8236 120.2965 120.4200
115.5800 114.7485 114.7303 114.0509 113.3182 112.5281 111.6739 110.7490 109.7380 108.6488 107.4702 106.2281 104.9926 103.8908 103.1625 103.0852 103.6943 104.7462 105.9567 107.2068 108.4124 109.6415 111.1187 111.1369 112.0465 113.2220 113.9812 114.5434 117.8339 110.3596 116.4098 116.8198 117.4474 117.7656 118.3848 118.8090 119.2250 118.8199 118.5169 120.3900
115.5200 115.1290 114.5228 113.8264 113.0571 112.2159 111.2912 110.2770 109.1453 107.8877 106.4651 104.8705 103.1455 101.4037 100.1798 100.0165 101.0806 102.7669 104.5083 106.1328 107.6088 108.9119 110.2084 112.5797 112.1183 112.9342 113.6555 113.9208 117.6337 113.3013 116.3289 116.8847 117.3739 117.8797 118.3017 118.7270 118.9973 125.2299 127.6833 119.4800
115.4800 115.0669 114.3798 113.6564 112.8571 111.9670 110.9962 109.9004 108.6622 107.2374 105.5693 103.5862 101.1549 98.3696 95.3238 94.9208 97.7224 100.5724 103.1074 105.1757 106.9164 108.3227 109.3631 115.0142 111.5971 112.6747 113.4911 114.0063 115.0987 115.9466 116.1891 116.7225 117.2513 117.7484 118.2424 118.6571 118.5089 131.7065 132.7982 119.9300
115.4600 114.9930 114.3011 113.5429 112.7219 111.8151 110.7932 109.6492 108.3302 106.7806 104.9068 102.5579 99.3861 94.3725 89.0948 88.3873 92.9550 98.6391 101.9679 104.4538 106.4156 108.0482 109.5070 110.6012 111.6361 112.5343 113.3764 114.1495 114.7976 115.4482 116.1138 116.6886 117.2213 117.7251 118.1981 118.6437 118.5932 121.1705 124.1904 109.5700
115.4500 114.9644 114.2597 113.5059 112.6727 111.7447 110.7153 109.5391 108.1911 106.5887 104.6139 102.0729 98.4989 91.6944 85.1338 84.6756 89.7610 97.5473 101.4090 104.1321 106.2026 107.8821 109.2219 110.4766 111.5320 112.4845 113.3336 114.1040 114.8267 115.4882 116.0792 116.6418 117.1915 117.7047 118.1848 118.6413 119.1964 118.8735 122.2351 109.6500
115.4500 114.9763 114.2816 113.5231 112.6922 111.7762 110.7578 109.5951 108.2574 106.6784 104.7632 102.3101 98.9263 93.1419 87.2993 86.4245 91.4377 98.0749 101.6891 104.2853 106.3044 107.9435 109.3279 110.5288 111.5670 112.5039 113.3528 114.1285 114.8309 115.4914 116.1218 116.6938 117.2387 117.7137 118.1913 118.6385 119.1055 119.3455 119.8696 120.0600
115.4700 115.0400 114.3586 113.6126 112.7969 111.9025 110.9146 109.7967 108.5330 107.0562 105.3041 103.1882 100.4645 97.1546 92.8369 92.3970 96.1357 99.8436 102.6601 104.8891 106.7057 108.2338 109.5449 110.6890 111.7017 112.6159 113.4509 114.2014 114.8985 115.5224 116.0453 117.0059 117.2026 117.7587 118.2235 118.6653 119.0790 119.4361 126.1025 120.0600
115.5000 115.1522 114.4865 113.7624 112.9782 112.1260 111.1756 110.1372 108.9629 107.6428 106.1349 104.4204 102.4554 100.4292 98.8490 98.5739 100.0189 102.0328 104.0332 105.8024 107.3344 108.7033 109.8990 110.9658 111.9248 112.8004 113.5780 114.3199 115.0181 115.7572 117.0251 117.8415 119.2155 117.8037 118.2542 118.7250 118.4898 127.7455 118.8119 120.0700
115.5400 115.3028 114.6564 113.9646 113.2177 112.4121 111.5388 110.5788 109.5270 108.3722 107.1226 105.7445 104.3831 103.0803 102.1769 102.0887 102.8709 104.0485 105.4990 105.5486 108.2062 109.2882 110.3595 111.3371 112.2350 113.0447 113.7737 114.2847 115.1990 115.1232 119.3944 116.5730 112.7084 117.8207 118.3898 118.7803 118.8758 122.7084 119.0928 120.3600
116.0800 115.4990 114.8834 114.2187 113.5147 112.7630 111.9598 111.0963 110.1666 109.1831 108.1462 107.0888 106.0605 105.2283 104.6850 104.6516 105.0480 105.9895 106.6790 105.3581 109.2765 109.9398 110.9042 111.7803 112.6029 113.3658 114.1004 114.7533 115.4206 115.7026 120.7592 115.9232 108.6002 118.5880 118.4147 118.8616 119.4796 117.7328 120.0796 120.3600
116.0800 115.6800 114.8300 114.3500 113.8600 112.8000 112.2300 111.6100 110.3500 109.5200 108.6900 107.8000 107.0500 107.0500 105.7800 105.8300 107.0200 107.0200 107.8900 108.8500 109.4500 110.2500 111.0500 112.2200 112.8000 113.3400 114.3400 114.8100 115.6700 116.0800 128.3400 109.3000 110.6400 118.1800 118.4900 119.0700 119.3500 119.6200 120.1400 120.3800
