109.3500 109.7000 109.6800 109.3900 109.3000 111.1700 108.8800 99.3500 110.1200 110.1200 102.3900 118.8200 118.8800 106.6600 118.6100 118.6400 118.2800 118.2900 118.3000 118.2900 118.6300 118.6300 118.5500 118.8500 118.8500 119.1200 119.0500 119.2900 119.5900 119.7900 119.9800 119.9800 120.4200 120.4200 120.8200 121.0600 121.2300 121.4300 121.6500 121.8100
113.3000 110.0937 107.5763 113.7601 108.0868 109.0181 106.2567 106.1064 99.6717 116.7224 117.6030 119.1047 118.7835 116.5315 117.8835 116.9690 115.2350 118.2835 118.0673 118.1151 118.2754 119.6644 119.9970 118.4858 118.6052 118.8046 107.5375 118.0268 119.1919 119.5058 119.7131 119.9271 120.1583 120.3599 120.5904 120.3023 116.6219 107.4699 122.4158 121.8100
115.1300 108.9527 108.3440 106.8837 109.5139 109.9635 108.6688 104.0961 99.8120 115.5203 118.2189 118.1076 118.0190 118.0613 118.0546 114.4512 111.4544 118.0239 117.6476 117.6809 117.7547 116.4722 115.9988 117.9910 118.2034 118.6757 118.3867 119.9682 118.8395 119.1596 119.3832 119.6121 119.8575 120.0991 120.4277 120.9299 120.5658 115.2601 121.2090 121.4600
110.2600 108.2244 109.3742 107.5881 102.7187 103.4823 100.7287 103.3945 105.8585 114.6954 119.6702 117.5753 117.5776 117.4359 117.3111 117.4864 118.2459 117.5081 117.1435 117.1757 117.2388 117.0199 117.4439 117.4032 117.7955 117.8655 118.1764 118.3576 118.5296 118.8068 119.0474 119.2986 119.5529 119.8227 119.9258 120.6780 116.1379 121.7502 121.2400 121.1800
105.3200 107.3731 107.8181 107.5229 98.9719 102.0752 103.9406 101.6313 114.2128 100.5529 117.2619 117.1111 117.0911 116.9678 116.8032 116.7082 116.4334 116.4651 116.5989 116.6374 116.6006 116.7834 116.8844 117.1121 117.2568 117.4843 117.6965 117.9353 118.1837 118.4436 118.6939 118.9793 119.2386 119.5111 119.7889 120.2377 120.7055 120.6166 120.1942 121.1000
106.1600 105.9233 105.3161 114.6638 111.7670 101.4196 104.4630 99.2201 107.5788 117.5968 114.8883 116.3071 116.5830 116.3061 116.3268 115.9629 116.1679 116.0380 116.0253 116.0752 116.1685 116.2700 116.4092 116.5779 116.7801 117.0107 117.2530 117.5150 117.7832 118.0684 118.3507 118.6822 118.9916 119.2817 119.5361 119.8197 120.0899 120.3832 120.5993 120.8100
113.1100 107.4571 104.6425 106.6819 105.5684 99.4556 102.9639 111.3652 101.9628 105.9633 107.8485 117.3346 116.0826 115.7922 115.1030 115.6128 115.2089 115.4909 115.4015 115.4481 115.5371 115.6644 115.8362 116.0446 116.2685 116.5251 116.7896 117.0827 117.3815 117.6855 118.0234 118.1538 119.0152 119.1448 119.2004 119.5667 119.8711 120.1673 120.4713 120.7300
102.2000 107.3493 97.5227 105.1077 108.3870 111.8967 108.3959 112.3221 102.7162 118.3819 118.2940 115.6632 115.4984 115.0246 115.4754 99.2058 115.2032 114.3254 114.7546 114.8011 114.8993 115.0482 115.2387 115.4760 115.7241 115.9965 116.3193 116.6434 116.9440 117.3000 117.6521 117.5105 118.3786 118.3160 118.7969 119.3491 119.6317 119.9529 120.2812 120.4300
108.0000 108.8002 107.5887 108.8256 102.5870 102.4803 111.5672 111.3564 101.8835 116.1271 115.2670 115.1512 114.9485 115.1104 114.0264 112.6472 113.9853 113.8913 114.0410 114.0824 114.2155 114.3318 114.6190 114.8690 115.1563 115.5962 115.7737 116.3864 116.6037 116.8428 117.3663 118.6624 117.7765 120.7193 118.6487 119.0674 119.3933 119.7375 119.9582 120.3600
113.3300 114.1754 116.2511 98.4450 104.0975 102.9073 116.6438 112.9884 116.0768 115.0292 115.0568 114.6036 114.3470 103.8778 113.4494 113.3691 112.2930 113.2220 113.1811 113.2838 113.3905 114.0074 113.8967 114.2395 114.5641 114.3902 116.3379 114.2936 114.7563 116.6075 116.6737 120.0901 117.9765 117.5272 118.4770 118.8325 119.2445 119.4523 122.2128 120.0000
101.8200 101.7055 109.1802 106.1706 101.5243 107.2809 105.7619 108.5815 116.1357 114.7717 114.3821 113.9768 113.9772 112.5385 113.9099 105.2561 96.1162 113.6255 112.2704 112.8002 113.1429 110.2010 113.3447 113.5661 113.9525 114.6726 117.9224 111.9661 111.2364 116.3816 116.6378 116.5540 117.5664 117.9116 118.2253 118.6445 118.6849 118.7291 123.6970 119.9800
104.1700 108.2585 106.1293 105.0990 106.7480 109.1784 112.9677 105.0394 115.3497 114.2264 113.8384 113.4333 112.7465 112.5491 111.8530 115.4051 113.9842 112.5390 111.5192 112.5390 111.8940 110.2109 113.1161 112.6655 113.3081 113.7392 113.9813 113.5620 115.5253 115.7671 116.1105 116.5298 117.1074 117.5436 117.9736 118.7814 120.2699 121.7927 112.5339 106.9000
114.8900 101.2979 104.0875 105.6202 111.7985 112.2580 110.3485 114.8117 114.2377 113.8024 113.2033 112.7732 112.1270 111.6307 111.2004 110.6193 109.7796 110.0209 110.2402 110.3745 110.6572 103.8133 110.5406 112.0271 112.6266 113.2158 113.7963 114.5424 114.7056 115.2157 116.0775 116.8142 116.8430 117.2803 117.8736 118.3678 116.2030 103.8201 97.8531 97.5400
95.7100 96.9136 95.4145 107.2352 112.9187 115.5371 111.9690 114.5509 113.8413 113.2402 112.6105 111.9494 111.3299 110.7264 110.1545 109.6929 109.4927 109.2822 109.1672 109.3941 109.6114 110.3392 110.4767 111.3008 111.9217 112.5535 113.1966 113.8166 114.3808 116.0315 106.1587 115.4426 116.5451 116.9470 117.9077 120.1936 95.1570 99.6080 97.6438 97.4800
102.6500 99.2563 105.8327 110.6965 102.9791 103.5492 114.5760 114.0777 113.4046 112.7163 111.9958 111.2635 110.5151 109.7693 109.0769 108.4541 107.9533 107.6976 107.7115 108.0027 108.3934 108.8855 109.7918 110.4780 111.2277 111.9485 112.6712 113.3493 114.0178 114.8363 113.6356 115.8542 116.2809 117.8937 104.7186 101.3241 115.7163 96.5606 97.1658 97.4300
110.3100 113.1307 104.8188 101.5234 103.4426 114.5016 114.3709 113.6766 112.9797 112.2105 111.4064 110.5554 109.6755 108.7633 107.8727 107.0578 106.4158 106.0388 106.0194 106.3670 107.0109 107.7874 109.3351 109.6136 110.5036 111.3480 112.1580 112.9235 113.6556 114.3013 115.0922 115.5405 116.1395 116.6075 117.2942 107.8616 105.7907 95.8822 107.6656 107.3700
103.0700 107.0442 98.5098 99.8572 111.5563 113.6541 114.2052 113.3497 112.5790 111.7498 110.8436 109.8741 108.8266 107.7125 106.5715 105.4498 104.5149 103.9321 103.9146 104.4612 105.3985 106.4877 107.6559 108.7250 109.8035 110.7797 111.6857 112.5298 113.3027 114.0473 114.7115 115.3444 116.0832 116.9186 106.9762 113.3708 119.3558 107.6698 120.0027 119.0700
103.7800 108.4156 109.4814 117.2657 115.3351 114.4705 113.9107 113.0834 112.2401 111.3391 110.3382 109.2467 108.0270 106.6698 105.1972 103.6464 102.1550 101.1763 101.1468 102.0797 103.5317 105.0961 106.5713 107.9436 109.1625 110.2686 111.2766 112.1855 113.0177 113.7693 114.4796 115.0641 114.3132 111.7131 101.3001 104.0810 106.7315 119.3376 107.3382 107.3600
104.2500 103.5785 114.5053 104.9881 114.9263 114.1401 113.6413 112.8411 111.9619 111.0095 109.9249 108.7095 107.3175 105.7098 103.8303 101.6147 99.2462 97.1405 97.0042 99.0844 101.4519 103.6858 105.5915 107.2154 108.6142 109.8486 110.9330 111.9040 112.8271 113.6925 110.6215 115.3094 99.8258 97.6969 104.3450 103.5542 105.9461 111.9419 109.0700 107.3700
108.8600 105.0834 98.8272 98.7490 115.7764 113.8921 113.5182 112.7513 111.8693 110.7710 109.6288 108.3110 106.7803 104.9396 102.6465 99.6439 95.2643 90.5654 90.3212 94.8550 99.4314 102.4675 104.7978 106.6607 108.2152 109.5390 110.6932 111.7155 112.5994 113.4211 111.9768 116.8681 104.0437 117.0894 115.6620 107.0489 112.4623 113.0421 111.8365 109.8800
116.2500 98.1179 118.3410 121.5692 113.1851 114.1546 113.4574 112.7057 111.0396 110.6778 109.4673 108.1055 106.4889 104.5017 101.9279 98.3366 91.5027 85.6696 85.4288 90.9610 98.0289 101.7225 104.3464 106.3648 108.0021 109.3823 110.5701 111.6167 112.5587 113.5590 114.2510 115.3045 116.6929 115.4523 117.0781 118.7363 119.6382 118.7183 119.4999 118.9800
97.3200 93.1954 104.0202 130.1421 109.8825 114.8501 113.3899 112.7698 109.9511 110.7953 109.4566 108.1039 106.4936 104.5030 101.9401 98.3515 91.5297 85.9180 85.7102 90.9534 98.0458 101.7294 104.3558 106.3668 108.0038 109.3845 110.5741 111.6123 112.4684 113.0736 114.0069 114.8806 115.3287 115.0568 116.2679 119.2785 107.6867 118.6105 118.5793 118.9700
111.6700 101.6568 97.7915 104.3718 114.0154 113.0120 113.5378 112.8334 111.3323 110.7856 109.6316 108.3172 106.7827 104.9453 102.6566 99.6642 94.8103 90.5338 90.4751 94.9461 99.4529 102.4830 104.8114 106.6645 108.2231 109.5413 110.7024 111.7140 112.5366 114.5644 114.8922 114.6724 115.6615 114.4468 118.0147 117.6600 97.9459 119.4127 118.5250 118.9800
103.8100 98.9195 94.0081 99.2735 116.2885 110.1994 113.8390 112.9048 112.0296 111.0085 109.9315 108.7149 107.3263 105.7183 103.8550 101.6865 99.2348 97.1673 97.0355 99.0909 101.4834 103.7078 105.6057 107.2237 108.6261 109.8533 110.9381 111.9368 112.5424 111.3337 107.8460 115.8676 116.5706 115.7242 117.7659 99.0966 118.0417 117.1070 119.3118 118.9900
117.4300 97.8414 93.6996 99.6940 116.1415 114.4289 113.8107 113.0819 112.2444 111.3410 110.3518 109.2523 108.0330 106.6927 105.2082 103.6723 102.1819 101.1969 101.1541 102.1017 103.5672 105.1118 106.5947 107.9433 109.1693 110.2783 111.2806 112.1697 113.0698 114.5356 105.9420 113.2215 109.1703 117.0687 111.5878 99.4504 109.0667 105.1354 109.7858 106.8000
117.6400 115.2306 111.9334 115.8364 115.3316 114.7562 114.0695 113.3649 112.5892 111.7553 110.8518 109.8839 108.8359 107.7289 106.5989 105.4813 104.5228 103.9404 103.9260 104.4783 105.3995 106.5143 107.6595 108.7674 109.8149 110.7937 111.6946 112.5222 113.2656 114.5684 111.8830 128.1881 104.0342 109.2821 102.3569 118.2443 117.5461 118.4640 119.1289 119.0400
108.0700 105.7966 118.0218 114.4653 116.0299 115.0976 114.3600 113.6943 112.9840 112.1982 111.4234 110.5573 109.6830 108.7775 107.8628 107.0643 106.4322 106.0389 106.0281 106.3754 107.0258 107.8270 108.7206 109.6171 110.5145 111.3642 112.2199 112.7637 113.5436 114.6639 118.9997 117.9751 100.6793 104.6590 102.6236 109.7799 117.4899 118.7417 119.0769 119.3500
117.6000 113.9302 114.8293 96.5557 123.7366 117.8999 114.5346 114.0468 113.4532 113.0814 111.9854 111.2715 110.5199 110.0990 109.0261 108.5971 107.9460 107.7655 107.7191 107.9738 108.4259 109.0331 109.7311 110.4717 111.2265 111.9452 111.3426 112.1577 113.8996 114.6962 116.8856 115.5359 101.4212 110.8919 101.3331 106.3393 106.8228 117.2732 116.8735 119.3900
116.2000 105.2500 120.2605 100.1489 117.2359 115.2225 115.0569 114.4358 113.3476 112.0808 112.5650 111.9932 111.3353 110.8066 110.4202 108.8115 109.3084 108.9302 109.1382 109.3238 109.6652 110.1356 110.6903 111.3004 111.9304 112.6314 114.6398 114.3796 114.9006 113.8414 115.0910 110.0688 118.0107 97.6904 103.5210 106.4404 108.9004 105.6311 106.1992 108.9800
116.2000 104.3842 120.0538 101.8859 117.3351 115.6501 115.4370 114.7621 113.3930 108.9519 113.5407 112.6251 112.1789 111.5834 110.5757 108.7563 111.1316 111.6688 110.3713 110.5014 110.7710 111.1352 111.6015 112.1059 112.6385 113.1428 113.6409 113.7933 112.1097 114.6331 107.4757 113.5468 106.3607 103.6230 100.9660 107.7402 115.4739 109.0396 108.9382 110.0700
121.7400 118.4070 117.3092 117.8585 116.8095 116.2366 115.7574 115.3695 115.4358 114.3052 113.9380 113.4890 112.8552 112.3580 112.2704 112.3732 105.1652 106.0033 111.4216 111.5982 111.7178 112.0908 112.3694 112.7543 113.2857 113.8427 113.9780 118.2204 105.2967 117.4999 100.5845 101.6237 102.4437 107.6159 110.5348 116.7854 119.7807 108.1050 109.1649 110.0700
118.5900 118.4128 117.7345 117.8729 116.8066 116.6380 116.1623 115.5408 115.8917 115.1986 113.7723 110.8300 114.1361 113.0368 112.9169 112.9770 110.8905 111.1395 112.5788 112.4079 112.9491 112.6477 113.9840 113.7446 114.3255 114.3852 114.6420 112.8742 108.5534 97.4254 107.8315 107.8093 104.9530 114.1704 119.2141 118.7044 117.4515 114.5466 107.6921 108.9400
118.6800 120.0050 117.9579 117.8390 117.4246 116.9528 116.4435 117.5597 104.3204 113.1779 113.9705 101.5864 114.0426 113.9548 113.5584 112.7127 113.6673 113.9838 113.4137 113.7467 110.6728 114.7810 114.4784 112.4412 107.4278 115.4937 116.0127 116.0067 102.9177 98.0017 106.7478 97.4242 108.0259 120.4149 118.5986 118.5061 119.6822 126.0018 113.8423 120.2200
99.5000 119.2955 99.6919 120.2440 117.3294 117.3150 116.9245 116.7245 110.1716 116.2558 120.6771 114.2382 115.3284 114.7104 115.1479 98.1513 113.9629 97.5829 114.0696 115.3887 106.5533 112.1791 115.6762 112.3797 112.1341 115.2461 114.9361 103.6551 96.6865 115.9748 118.5825 102.1730 112.4098 100.1955 118.6225 120.0874 119.3505 124.9451 123.2213 104.0000
119.1300 120.3656 115.2416 118.5015 118.0358 117.6487 117.3984 116.7017 117.1920 116.4778 116.0322 115.6845 115.4707 115.3546 115.6030 101.7126 117.0242 116.6713 114.8958 115.1589 108.5458 120.0871 118.4341 99.3796 116.5818 115.3454 120.6434 100.6584 120.2614 104.8761 99.3583 116.8778 102.0939 102.8795 107.4350 109.1048 103.5934 119.5253 113.0734 116.6300
119.4900 119.2467 119.1170 118.4413 118.1877 118.0580 117.6993 117.4533 116.8555 116.0599 116.6369 116.2857 116.0554 115.9162 115.7626 117.4873 93.6497 104.4118 115.6459 109.6050 97.0635 100.1031 106.3669 104.1226 117.4110 116.5147 119.2273 115.2226 119.5325 115.9491 119.7323 116.6567 107.6620 109.9042 109.6932 120.8123 123.2975 106.2521 120.3853 103.5600
119.5800 119.4477 119.5039 115.0816 118.8259 118.2575 118.1029 117.7992 117.5446 117.3020 117.0464 116.7819 116.5832 116.4423 116.2327 117.0845 119.4793 116.9995 115.1891 108.1008 101.6807 92.9962 94.5556 105.6414 117.5349 117.1198 117.2715 117.1988 117.7166 118.3717 114.2166 104.8210 106.4442 120.7162 119.4532 119.5153 114.0260 107.8579 112.3747 104.2900
119.9200 119.5105 120.8317 99.9403 120.0686 118.6872 118.5182 118.2003 117.9286 117.7122 117.6236 117.3325 117.0996 116.9539 116.9292 117.9085 115.9895 115.7691 118.2024 106.4371 102.0013 94.0622 107.7420 103.8235 118.8036 117.5555 117.7179 117.9391 118.3363 118.0898 115.6888 103.7541 109.9070 120.0081 119.6664 120.0585 123.2154 117.3813 121.9079 121.0200
120.2900 120.1598 119.3013 113.6416 121.1732 118.6020 118.8178 118.5676 118.4038 118.2781 116.3359 116.5853 117.5785 117.4548 117.1838 119.3369 113.4816 105.1513 107.5975 114.9188 98.2584 94.1155 113.4803 116.8873 118.3949 117.9813 118.1227 118.3739 118.1306 125.0704 109.6408 118.7405 112.0591 120.5409 120.1039 120.2916 120.2206 120.7245 120.9208 121.3800
120.3400 120.3400 120.1500 119.6700 119.4500 119.1900 119.1900 118.7700 118.7700 118.4500 115.5000 117.9400 118.0200 117.6900 117.7500 122.5700 105.0100 117.4200 97.4700 102.8500 98.5300 117.7700 117.6700 117.9800 117.9800 118.2500 118.4900 118.7100 118.7100 118.9500 105.4200 103.2200 119.9300 119.8900 120.1100 120.5500 120.7600 120.9700 121.1700 121.3800
