108.1200 107.3100 107.4900 106.4900 108.6800 104.8900 101.1200 104.0200 101.2000 112.8500 107.1500 112.1200 101.7500 101.7500 110.2200 110.3300 109.6100 109.7600 108.7400 108.7500 109.6600 109.6600 110.4000 110.9700 110.9700 111.5300 112.7700 113.2200 113.7300 114.2100 115.1100 115.5500 115.9300 116.6800 117.0400 117.3800 118.0300 118.3400 118.9300 118.9300
108.1200 107.6413 106.9361 112.3214 110.1566 107.5875 99.9385 123.0900 107.4187 114.2214 108.0767 90.6241 109.2817 103.4851 110.1749 109.1137 108.4875 108.5122 108.1914 108.1896 108.4280 108.8448 109.4009 110.0573 110.7521 111.6022 111.6921 121.2055 113.0852 114.2505 114.7366 115.3318 115.9001 116.4297 116.9381 117.3935 117.9104 118.1132 117.9851 118.8700
112.3300 107.1528 108.6668 112.7794 119.5713 105.1393 98.7291 112.6057 111.6867 111.4865 114.3902 99.1268 111.7294 109.9908 109.9331 98.6154 106.9408 106.8192 106.6142 106.6051 106.9242 107.4964 108.2255 109.0535 109.8689 110.9262 112.2910 120.6325 112.5273 113.7525 114.6020 115.1678 115.6186 116.2007 116.7410 117.3242 117.7889 118.7809 121.2836 118.8300
119.3500 107.3263 107.1452 107.1066 105.1659 97.2491 98.4614 100.5232 113.9242 112.4771 111.8712 112.4868 109.6557 108.9999 107.9831 106.8953 106.5868 104.9578 104.6653 104.6493 105.1326 105.9611 106.9533 108.0077 109.0521 110.0072 110.9729 111.2196 112.7952 113.4207 113.4436 114.7534 115.3808 116.0239 116.5530 116.1922 127.7009 115.5454 103.3475 97.7000
108.1900 105.9790 104.3201 100.5770 104.2640 94.7185 93.7234 100.8781 115.2751 112.1634 111.4329 110.0475 109.3190 108.2683 106.9916 105.4944 104.1166 102.9841 102.1364 102.1139 102.9230 104.2039 105.5817 106.9438 108.2236 109.4001 110.4675 111.4291 112.3136 113.1299 113.4153 114.5328 115.2152 115.8378 116.5505 116.5088 124.4512 96.7385 97.7321 108.4600
121.7200 116.6219 116.2092 115.1703 117.5685 96.0334 93.3862 109.1747 105.5367 111.0012 110.9169 110.1146 108.8450 107.4923 105.9649 104.2221 102.2363 100.2168 98.7037 98.6472 100.1766 102.1929 104.1779 105.9260 107.4670 108.8104 109.9898 111.0568 112.0118 112.8744 113.6994 114.3980 115.0814 115.8103 114.8956 117.5508 102.1822 115.4551 96.0385 114.1000
106.9200 106.6196 106.1623 104.2090 100.8589 118.5828 121.4287 113.6463 112.4419 111.6354 110.7609 109.6776 108.3899 106.8893 105.1072 102.9458 100.1694 96.6474 92.5851 92.5699 96.5684 100.1087 102.8860 105.0693 106.8572 108.3609 109.6551 110.7862 111.7979 112.6953 113.5211 114.2730 114.9610 115.6247 116.1645 116.9001 116.4828 117.4249 119.0634 99.9200
106.8400 106.6297 110.5519 112.5647 102.0195 109.6159 117.5384 108.0807 112.9110 111.7824 110.5953 109.4725 108.1122 106.5115 104.5413 102.0289 98.5338 92.2050 86.9477 86.6814 92.1616 98.4404 101.9621 104.4994 106.4720 108.0831 109.4442 110.6227 111.6644 112.5912 113.4333 114.1943 114.9041 115.5323 116.2749 117.2463 120.4337 117.6814 118.6929 118.3800
106.9100 108.7534 109.4965 101.8194 102.5443 107.9619 114.6655 107.9180 113.1974 111.6865 110.5980 109.4243 108.0476 106.4139 104.4010 101.7779 98.0730 90.9048 84.7975 84.6759 90.5905 97.9734 101.7145 104.3530 106.3773 108.0149 109.3994 110.5814 111.6367 112.5671 113.4106 114.1810 114.8800 115.5357 116.2891 116.9350 120.1245 117.7741 118.2977 118.3700
107.0500 107.1935 104.6930 104.1642 102.5087 104.6711 115.1619 108.6721 112.9727 111.7241 110.6846 109.5334 108.1964 106.6169 104.7186 102.3023 99.0320 94.0906 88.7138 88.6022 93.5401 98.9937 102.2465 104.6677 106.5869 108.1623 109.5102 110.6685 111.7038 112.6246 113.4592 114.2169 114.9238 115.5649 116.1633 116.7632 117.0578 117.7243 118.2623 118.1600
114.9500 108.4454 105.8370 98.7511 101.2539 104.9684 117.4288 111.6079 112.9750 111.8706 110.8954 109.7911 108.5422 107.0947 105.4041 103.3852 100.9382 98.1766 94.9635 95.0888 98.0698 100.8580 103.3460 105.3670 107.0647 108.5126 109.7734 110.8830 111.8662 112.7535 113.5650 114.3166 115.0015 115.6382 116.2325 116.7924 117.3684 117.8354 118.2048 118.6900
105.2900 106.6414 105.9230 99.7993 100.7977 109.2372 114.2946 110.3203 113.0530 112.1485 111.2006 110.1754 109.0390 107.7610 106.3301 104.7276 103.0082 101.2946 100.1598 100.0879 101.2415 102.9632 104.6941 106.3009 107.7355 109.0077 110.1546 111.1434 112.1054 112.9598 113.7365 114.4634 115.1241 115.7471 116.3333 116.8713 117.3701 117.9628 118.6156 118.7000
101.2100 102.1335 104.0124 107.6684 106.8130 113.2810 120.7073 113.4945 113.2590 112.4574 111.5938 110.6587 109.6521 108.5457 107.3684 106.1179 104.8965 103.8073 103.1284 103.1269 103.7986 104.8707 106.1132 107.3368 108.5539 109.5385 110.7821 111.7876 112.5417 113.2203 113.9718 114.6579 115.2972 115.8988 116.4574 116.9788 117.5234 117.7943 117.5644 118.7500
116.2900 110.6704 99.8212 102.8956 109.7272 109.3819 109.9475 114.1815 113.5262 112.8355 112.0457 111.2079 110.3188 109.3847 108.4228 107.4676 106.5620 105.8365 105.4196 105.4074 105.8231 106.5523 107.4392 108.3994 109.3609 110.4497 109.1544 111.7827 112.1138 113.5970 114.2425 114.8922 115.5048 116.0716 116.6375 117.1746 117.4873 118.1190 118.8040 118.7800
105.9500 111.0152 101.6380 99.2818 107.3907 114.4765 110.8638 114.7750 113.9295 113.2476 112.5390 111.8025 111.0278 110.2334 109.4436 108.6901 108.0261 107.5025 107.2225 107.2165 107.4997 108.0153 108.6821 109.4360 110.1980 111.2351 106.0380 109.9184 114.8552 113.9122 114.5355 115.1567 115.7438 116.3359 116.7455 117.2125 118.0770 120.7418 107.3353 104.2900
104.1100 108.9787 103.3612 102.8763 106.7853 114.5195 115.2640 114.9352 114.2658 113.7037 113.0628 112.4049 111.7385 111.0657 110.4172 109.8227 109.3089 108.9227 108.7162 108.7154 108.9192 109.2988 109.8103 110.4081 111.0268 112.0685 112.3820 112.8279 113.6896 114.2953 114.8959 115.4598 115.9769 116.6696 117.1312 117.0463 117.8206 118.1400 103.4023 103.1600
110.3000 106.1646 103.1714 106.8995 104.8482 123.2879 114.4560 114.0522 114.6540 114.2021 113.5872 113.0160 112.4402 111.8676 111.3291 110.8518 110.4499 110.1552 109.9906 109.9889 110.1331 110.4250 110.8314 111.3218 111.8582 112.3994 113.0298 113.5638 114.1260 114.7199 115.2524 115.8235 116.1642 116.2381 127.1766 107.7284 117.3042 114.0480 119.4340 119.2100
103.0600 106.6030 101.9841 102.6370 94.0352 97.3724 115.9021 111.1532 115.6629 114.6239 114.1350 113.6198 113.1118 112.6284 112.1950 111.7994 111.4573 111.2237 111.1088 111.1099 111.2886 111.4986 111.7964 112.1723 112.6219 113.1081 113.6109 114.1367 114.6335 115.1393 115.6376 116.0816 117.2459 120.6569 115.0629 112.4814 102.6174 106.1859 118.5253 119.2700
108.0500 109.1210 101.0671 97.9429 100.4727 100.8298 105.7260 116.7870 115.5567 115.0699 114.6602 114.2954 113.7827 113.2784 112.9171 112.5867 112.3991 112.2186 112.0893 112.1080 112.0306 112.2517 112.6679 113.0227 113.3528 113.7636 114.2000 114.6552 115.1052 115.5754 115.9135 116.8798 117.4103 99.6212 100.0032 107.5124 113.4901 113.1918 102.7719 109.4800
98.3200 108.5186 103.0866 109.2077 114.4119 120.3130 119.9014 116.0939 116.0001 115.5695 113.6714 114.8078 114.3223 113.6488 113.8895 113.9721 113.1826 113.0812 112.9778 113.0124 112.9722 113.8612 114.0033 113.7976 114.0365 114.3918 114.7796 115.1843 115.5876 116.0302 116.5315 113.5449 109.2476 118.4779 107.5107 128.0362 105.9205 103.9756 110.0336 110.3700
98.3200 106.1440 98.0017 116.0120 119.2499 117.5340 117.0954 116.4968 116.4219 116.2315 115.9966 115.2752 114.7672 110.4029 113.4861 106.1709 113.9967 113.8896 113.7883 113.8355 113.8466 108.6846 112.4547 114.3216 114.6777 114.9951 115.3236 115.7004 116.0482 115.6646 118.4904 117.0532 101.2520 103.6450 119.8496 113.0643 104.9740 111.4073 116.7678 108.8400
101.3200 101.3699 108.9310 115.9882 111.8240 105.9541 118.5432 117.0284 116.8808 116.5146 116.1035 115.7416 116.1453 115.9474 115.0975 113.8139 114.6769 114.6384 114.5215 114.5271 114.5288 114.9906 115.4317 114.9610 115.2980 115.5716 115.8493 116.1202 116.7494 120.4361 116.2555 115.7434 112.6533 118.6295 118.8537 121.9878 105.6072 122.1626 106.2251 108.8000
99.5000 100.3472 116.3937 105.6196 98.5931 109.5071 117.8731 117.5035 117.2794 116.9586 116.6521 116.4189 116.1522 115.6944 115.5875 115.3736 115.3632 115.2432 115.2005 115.1995 115.2487 115.3062 115.3590 115.6689 115.8880 116.1135 116.4022 116.5926 117.3076 105.8984 112.3494 125.7601 118.3580 113.4556 111.1987 110.1407 112.3349 122.2412 118.8786 109.3900
105.7100 100.8457 122.1522 102.1632 113.1003 121.6863 118.2723 117.8839 117.6893 117.3995 117.1239 116.8762 116.6620 116.2729 116.3397 116.4478 115.8764 115.9118 115.8313 115.8352 115.8760 115.9604 116.1038 116.2258 116.4085 116.6363 116.8638 116.9673 117.3084 110.6072 106.9971 117.5366 119.7897 114.0193 94.6992 111.5942 120.9340 120.0180 114.2778 120.5000
102.8600 101.2110 114.0674 116.9350 119.1283 118.4301 111.8605 118.8960 118.0337 117.8698 117.5421 117.3117 116.9748 116.6024 115.9370 111.6620 117.2294 116.4351 116.4249 116.4209 116.4573 116.5263 116.6327 116.7785 116.9366 117.1298 117.3271 117.5609 118.0139 128.4192 116.5351 105.2272 103.2416 104.6694 119.1529 118.1163 117.6147 120.4378 120.8769 120.8100
103.9000 100.4727 121.1889 119.1502 119.6454 118.3980 118.9216 118.9801 118.3933 118.1775 118.4749 117.7533 118.6145 118.4121 114.4465 100.2840 115.5445 116.9123 116.9817 116.9753 117.0028 117.0690 117.1643 117.2876 117.4286 117.5976 117.7940 118.0055 118.8930 115.9129 122.5812 106.1186 113.8569 99.6495 102.8764 118.0308 120.1559 120.5351 120.7489 120.8700
120.5600 118.4593 121.1894 120.7118 115.9771 120.7481 118.8490 119.2275 118.8391 118.6590 118.7527 103.5113 117.0638 117.5020 104.2789 114.1414 118.3545 117.2375 117.4944 117.4961 117.5154 117.5722 117.6623 117.7700 117.8934 118.0721 118.2218 118.4635 118.6409 117.8175 121.4314 115.3811 119.1735 93.7061 96.3409 108.5922 121.8797 120.7937 120.9963 121.1800
112.4900 119.1043 120.8064 121.9679 122.4804 119.8974 119.5975 119.4075 119.1463 118.9462 119.6314 117.4093 120.0403 118.7468 119.1523 118.4940 117.9429 118.0233 117.9808 117.9815 118.0037 118.0545 118.1272 118.2246 118.3430 118.3451 118.7609 118.5692 118.5776 114.1719 121.9940 118.5948 120.2449 107.0474 100.3522 112.3078 117.6720 120.9710 121.3879 121.2700
117.7600 121.4567 120.6763 120.5703 119.9866 120.2181 119.9408 119.6894 119.7252 119.8481 118.8769 119.2060 118.6958 118.7225 118.5659 118.5779 118.4786 118.3996 118.4325 118.4420 118.4649 118.5065 118.5798 118.6650 118.7703 118.8408 121.0770 119.4476 119.1048 120.5258 104.5864 104.5679 123.2021 108.7701 96.9240 104.3171 109.6571 116.5933 122.6445 121.5400
112.3400 110.2803 121.8117 120.5919 120.6845 120.5492 119.8059 119.9754 116.4442 117.1263 119.5839 119.3615 119.2061 119.2026 119.0921 118.9821 119.1900 119.1842 118.8820 118.8714 118.8928 118.9364 119.0048 119.0817 119.1696 119.3173 119.4281 119.8303 117.6145 118.5566 118.8561 97.2123 116.4046 122.8265 107.2811 98.1816 109.9920 101.8554 112.8555 112.0700
99.8100 120.3958 120.9797 122.6606 120.7129 120.6960 120.6358 122.4400 118.2230 120.9429 119.9688 119.4888 119.5335 119.5971 119.4997 119.7383 116.5421 118.9941 119.3344 119.3405 119.3319 119.3672 119.3558 119.4786 119.5854 119.5921 119.7801 120.3428 119.8894 111.5080 101.4524 104.8767 99.7148 118.9746 113.4768 111.0204 102.9375 116.9518 120.3058 121.6500
118.2900 122.7325 122.9104 110.0091 121.6983 120.8463 120.8364 120.2114 102.9024 121.3312 118.2189 115.6545 120.9810 119.9603 119.8711 120.0723 119.3392 121.9341 119.4861 119.5729 119.5771 119.6818 120.4155 119.8185 119.8832 119.9853 120.8957 111.3033 127.9211 114.7673 103.1652 106.6307 103.1663 124.2135 121.3768 122.3994 115.1686 105.7024 113.4198 121.6500
122.1700 121.8400 121.2370 122.9300 123.8322 121.4271 120.8326 121.7682 121.0223 120.7357 108.2912 122.7500 113.5648 120.6660 120.2404 120.1815 119.8919 121.4195 120.1995 120.5439 120.5736 119.8305 122.8975 114.4992 121.7045 119.4679 123.2888 97.8219 110.8129 104.3524 105.8689 103.6377 110.3383 118.9629 121.7240 121.2350 123.2458 111.8674 112.1848 114.0000
122.4400 122.2521 115.9981 119.9444 123.7571 121.4686 121.5209 121.2232 121.2904 103.3826 116.2234 122.0402 115.3912 121.0966 120.3680 121.0138 98.5488 111.3811 120.7220 121.3766 110.4444 121.5125 115.6458 100.9291 108.6800 111.0288 122.1489 111.0921 103.7634 119.7663 109.5026 114.5931 120.8479 119.0770 123.0493 122.8463 124.0933 98.9979 105.7594 113.1600
122.7200 123.3804 122.1674 124.0313 122.1412 121.9055 121.6390 121.6528 121.8580 121.8700 122.4837 120.8125 120.2447 117.8409 121.1731 106.9148 118.7238 119.5177 120.8557 120.9637 120.6985 116.6768 113.3576 105.7502 109.7704 97.0409 107.0738 113.4279 100.7951 109.6699 111.8260 124.2722 120.1619 110.8921 114.4684 121.6091 124.9136 124.6411 113.5416 123.0400
122.7200 110.5768 104.2496 122.7344 122.0454 122.1323 122.5722 121.8158 121.7775 121.5919 121.3675 121.5123 121.5389 121.6706 121.5680 111.2808 102.9974 111.1768 121.6543 114.0787 99.5990 114.3164 118.7573 105.2270 125.3094 115.4978 109.5677 99.0886 117.6514 105.7366 114.7271 116.5329 115.1439 123.2312 119.9967 119.0200 118.4937 107.7141 118.1630 123.0400
123.0000 97.3790 112.3475 123.1739 122.2606 122.6394 117.7342 122.8375 122.0605 121.9601 121.9840 121.2358 121.5968 121.5950 121.6514 123.9822 123.6978 109.7821 118.5289 114.6151 103.3726 104.1694 118.5324 120.1101 121.9547 122.3982 121.2703 114.6915 124.5546 119.5257 107.3857 108.2199 119.6986 123.0860 118.5676 123.2486 119.5824 105.9142 113.2793 123.3500
103.5200 110.7837 124.1896 109.3527 125.4954 123.4284 114.8137 122.8032 122.3890 122.1981 121.0015 121.4871 122.1453 121.8282 121.6309 117.7651 121.5284 107.2776 114.4171 109.4721 107.1455 111.5831 123.4974 121.9466 121.8877 121.9763 121.8536 123.0170 122.5095 122.5639 108.7453 102.6954 116.6705 123.3478 123.1477 122.7431 116.0533 111.1071 116.7362 123.5300
104.5900 106.7306 125.6712 106.4037 124.8656 103.1224 122.4987 122.6108 122.6832 122.2168 122.8906 116.5472 122.2725 122.0128 122.1793 123.3633 118.9307 118.8415 115.4102 112.8690 103.8575 120.1123 122.5612 122.3044 122.2398 122.2985 122.3607 122.2114 122.5634 111.8641 106.7019 112.9806 115.3029 123.2929 123.2175 123.9100 118.5362 119.4496 123.3591 123.8300
104.5900 123.5700 123.4500 114.8800 123.1200 118.8000 118.8000 122.8300 122.6700 119.8400 106.0200 122.5700 122.5700 122.4000 122.4200 124.5900 112.8400 102.6900 105.6400 105.6400 105.5100 104.9200 122.4300 122.4300 122.3900 122.5800 122.5800 122.7300 122.7300 100.8500 100.8500 116.5700 123.1500 123.1500 123.2800 123.4100 123.5500 123.7000 123.8300 123.8300
