112.8700 111.1700 101.8900 111.3800 111.3800 98.1400 118.1400 118.1400 118.6500 118.6500 118.0900 118.0900 117.8200 117.5300 117.6000 117.2600 117.3100 116.9100 116.9400 116.9500 116.9600 116.9400 116.8800 117.3200 117.2700 117.5400 117.5400 117.8400 118.1000 118.0500 118.6700 118.5900 119.1800 119.1800 119.6400 119.6400 119.8300 120.3200 120.5200 120.5200
110.4000 111.3878 108.8884 107.9742 113.0378 108.7865 102.0107 102.2158 117.9339 115.3207 118.0339 117.7821 117.4887 117.3107 117.1414 117.7797 116.8901 116.7543 116.6814 116.6131 116.8335 113.0613 117.7827 116.6904 116.9780 117.1318 117.3160 117.5225 117.7360 117.9782 118.2267 118.4809 118.7439 119.0093 119.2831 119.5569 119.8310 120.1062 120.3735 120.4400
110.4000 110.6800 109.0587 102.7850 114.9272 121.6713 109.9348 102.5115 106.7960 114.6483 117.8185 117.2636 117.0615 116.8346 116.6377 112.0970 111.5446 116.4081 116.0950 116.1850 115.6265 116.6825 119.4042 116.4701 116.4458 116.6273 116.8325 117.0538 117.2979 117.5589 117.8299 118.1072 118.3979 118.6831 118.9771 119.2695 119.5549 119.8454 120.1807 120.4400
98.0000 109.0945 108.3713 108.9307 114.2097 101.8582 100.0643 103.7147 108.8492 120.1783 117.2655 116.8404 116.5263 116.3262 116.1446 115.5398 116.1092 115.8633 115.4931 115.4850 115.4353 112.2323 115.7625 116.0331 115.8439 116.0868 116.3244 116.5745 116.8389 117.1253 117.4294 117.7333 118.0380 118.3517 118.6636 118.9763 119.2823 119.6469 119.7254 120.0400
98.0000 110.0451 109.6478 115.9160 106.5880 95.4083 98.7936 100.7853 105.7947 117.6828 116.7454 116.5124 116.0789 115.7947 115.5132 115.2845 114.9793 114.7998 114.8418 114.8180 114.7692 114.8206 115.0807 115.0817 115.2971 115.5226 115.7894 116.0728 116.3731 116.6909 117.0162 117.3493 117.6824 118.0219 118.3597 118.6978 119.0312 119.1156 122.4585 124.2400
109.2100 118.4533 107.4909 108.3243 108.9801 99.3523 101.9238 101.3651 100.7318 108.1298 118.2922 114.5688 115.6364 115.1753 114.9270 114.6556 114.4670 114.2969 114.1450 114.0877 114.0860 114.1452 114.2506 114.4507 114.6650 114.9320 115.2214 115.5401 115.8877 116.2338 116.5959 116.9607 117.3271 117.6918 118.0520 118.4094 118.7583 119.0989 120.0094 119.6100
111.9500 115.1555 105.1799 100.9385 100.2029 99.4779 108.0267 105.9381 102.1040 102.9771 134.2804 113.6565 115.2333 114.6152 114.2840 113.9838 113.7197 113.5130 113.3779 113.3036 113.3053 113.3829 113.5282 113.7336 113.9910 114.2977 114.6318 114.9945 115.3750 115.7707 116.1739 116.5704 116.9710 117.3641 117.7540 118.1336 118.4994 118.8793 119.2219 119.5300
112.8900 109.8229 110.4038 110.2880 99.3797 101.4333 106.0078 103.5446 99.1408 119.4572 116.0109 114.8669 114.3621 114.0045 113.6151 113.2656 112.9547 112.7126 112.5431 112.4544 112.4547 112.5391 112.7173 112.9636 113.2682 113.6273 114.0206 114.4292 114.8602 115.3042 115.7373 116.1754 116.6077 117.0343 117.4532 117.8634 118.2538 118.6341 119.0096 119.1900
104.0600 104.3327 115.3944 117.7187 109.5647 102.2295 110.5117 110.8937 117.1412 116.3168 114.2143 114.5181 113.8040 113.3735 112.9057 112.4936 112.1198 111.8259 111.6167 111.5039 111.5078 111.6229 111.8340 112.1300 112.4972 112.9204 113.3334 113.8532 114.3455 114.8243 115.3149 115.7953 116.2635 116.7207 117.1654 117.5934 118.0178 118.4377 118.7555 119.1100
118.1900 103.0638 106.5494 119.5957 104.5018 95.8664 103.1813 111.4894 115.4775 114.7243 114.3975 113.6938 113.2551 112.6962 112.0933 111.6413 111.2077 110.8477 110.5803 110.4472 110.4474 110.5863 110.8573 111.2231 111.6703 112.1643 113.0782 113.4392 113.7043 114.3622 114.8833 115.4113 115.9192 116.4166 116.8917 117.3502 117.7837 118.1502 118.6857 119.0400
97.3500 101.6067 105.5772 98.3094 100.9417 116.9144 115.0640 106.6429 115.9448 114.3747 113.8738 113.2571 112.6205 112.0294 111.8444 110.7605 110.2440 109.7663 109.4182 109.2348 109.2404 109.4203 109.7636 110.2307 110.7705 111.3449 111.5480 111.7860 113.6038 113.9181 114.4680 115.0440 115.5926 116.1223 116.6274 117.1046 117.6252 118.3173 117.9439 103.5100
109.4300 111.1547 101.6135 104.8099 97.2051 123.2625 119.4317 112.1523 115.2737 114.0431 113.3985 112.7230 112.0054 111.2446 108.4881 111.3162 108.9080 108.5036 108.0760 107.8338 107.8416 108.0901 108.5447 109.1424 109.8393 110.5882 111.1161 112.1163 113.2859 113.3901 114.0680 114.6989 115.2860 115.8417 116.3739 116.9332 117.1931 115.6792 115.1529 118.5700
103.6700 113.3561 104.3056 118.2270 101.5675 105.5822 112.7231 115.0290 114.3649 113.7227 112.9637 112.2078 111.4270 110.6938 105.1149 105.3645 107.9679 107.1001 106.5085 106.1583 106.1676 106.5307 107.1569 107.9491 108.8242 109.7079 110.8319 111.1928 112.0340 113.0083 113.7037 114.3774 115.0052 115.6043 116.1242 116.7724 117.9009 117.5188 107.8017 101.6000
103.6700 106.5657 97.2052 102.3442 115.2296 116.4356 112.1101 114.7803 114.0832 113.3471 112.5745 111.7399 110.8514 109.8587 109.4436 108.1159 106.8039 105.5007 104.6429 104.0937 104.0989 104.6553 105.5685 106.6450 107.7703 108.8775 109.8789 110.8664 111.7877 112.5888 113.3676 114.0812 114.7540 115.3751 116.2375 116.3446 108.7989 120.4839 104.1613 101.6000
96.1300 95.8160 97.5801 106.6009 108.3131 117.4242 114.9487 114.3286 113.8500 113.0582 112.2248 111.3166 110.3251 109.2114 107.9280 106.6033 105.1863 103.7070 102.2974 101.3842 101.3980 102.3395 103.7654 105.2794 106.7164 108.0576 109.2621 110.3518 111.3419 112.2479 113.0789 113.8400 114.5642 115.2199 114.3738 121.3173 106.0410 113.1194 106.8507 109.0400
118.1000 125.0422 91.2705 95.9869 96.6994 116.8886 111.1268 114.8670 113.6317 112.8189 111.9426 110.9782 109.8946 108.6825 107.3063 105.7037 103.8339 101.6719 99.4289 97.4675 97.5015 99.4709 101.7325 103.8890 105.7438 107.3294 108.7160 109.9279 111.0108 111.9711 112.8470 113.6438 114.3884 115.0604 115.5222 113.8416 104.3334 105.3868 118.8337 118.1000
118.0700 100.3958 115.1099 114.4039 118.5690 117.6980 114.8908 114.3262 113.4938 112.6586 111.7531 110.7291 109.5834 108.2682 106.7326 104.8866 102.6009 99.6187 95.4347 90.8521 90.9195 95.5790 99.7066 102.6720 104.9452 106.7804 108.3071 109.6226 110.7577 111.7744 112.6854 113.5017 114.2706 114.9497 115.5691 116.6583 117.4296 117.0860 117.6381 118.0800
112.1700 107.9256 107.5628 116.9272 115.5186 115.2180 114.9547 114.1804 113.4246 112.5727 111.6436 110.5949 109.4168 108.0458 106.4086 104.4139 101.8229 98.1709 91.2470 85.8253 85.8696 91.4696 98.2998 101.9007 104.4750 106.4646 108.0835 109.4455 110.6513 111.6814 112.6328 113.4661 114.2234 114.8846 115.5270 116.0191 116.5835 117.2079 117.8120 118.0600
112.1600 109.0311 113.2764 115.8356 116.8155 115.5727 114.8678 114.1805 113.4176 112.5712 111.6324 110.5912 109.3995 108.0300 106.3961 104.3819 101.7629 98.0910 90.9593 85.4441 85.3351 91.2663 98.2245 101.8490 104.4436 106.4427 108.0725 109.4498 110.1965 111.6743 112.5349 112.9279 114.3315 114.7532 115.5551 116.1946 116.6236 117.2194 117.7574 118.0600
111.9000 116.6031 113.3522 109.0340 116.7432 115.4047 114.9341 114.2314 113.4739 112.6437 111.7265 110.7082 109.5562 108.2291 106.6721 104.7994 102.4641 99.3735 94.5339 90.0904 90.0877 94.9069 99.4748 102.5466 104.8620 106.7229 108.2706 109.5809 110.2561 111.6876 112.6154 115.3685 112.7664 115.9884 115.5313 116.3083 118.0365 118.0478 117.7846 118.0600
106.6700 97.4531 116.0117 104.5123 116.4081 116.0018 114.9996 114.3496 113.6011 112.7983 111.9144 110.9423 109.8487 108.6178 107.2098 105.5723 103.6685 101.4441 98.7926 96.6630 96.6876 98.9605 101.4389 103.7168 105.6216 107.2502 108.6573 109.8872 111.0530 112.0341 112.7682 116.0902 109.2238 105.4874 115.7304 116.1371 113.7981 112.6486 118.3235 118.0700
100.8700 105.4580 124.0597 121.4877 115.6287 116.2652 115.1411 114.5188 113.7877 113.0206 112.1878 111.2758 110.2642 109.1418 107.9073 106.5388 105.0131 103.4368 101.9295 100.9349 100.9435 101.9479 103.4867 105.0857 106.5841 107.9502 109.1877 110.2979 111.2746 112.1854 113.0765 113.5721 111.5183 106.3668 116.4680 117.4234 109.7850 104.6239 118.7140 118.1200
101.1600 110.5257 114.3160 123.4955 118.4382 112.4321 116.1726 114.7067 114.0217 113.3085 112.5218 111.6806 110.7927 109.8392 108.7533 107.6427 106.4364 105.3065 104.3407 103.7489 103.7609 104.3623 105.3343 106.4733 107.6310 108.7589 109.8181 110.7961 111.7047 112.5461 113.3159 114.1088 115.5130 115.6669 124.8853 110.1296 116.5633 114.4324 118.7200 118.4600
116.2300 111.9874 120.1750 117.7858 118.1588 109.7655 116.0951 114.8470 114.3111 113.6388 112.9175 112.1474 111.2188 110.3424 109.3543 108.5891 107.4517 106.9226 106.2657 105.8925 105.8904 106.2804 106.9429 107.7781 108.6872 109.6009 110.4992 111.3545 112.1676 112.9250 113.7360 114.3577 114.9037 113.3464 119.2229 109.5751 117.3864 118.3053 118.2197 118.5000
102.3900 100.9557 114.0330 112.1770 116.6088 115.7556 115.8457 115.2331 114.6283 114.0033 113.3431 112.6887 111.7848 111.8415 111.3876 110.4277 108.8975 108.3429 107.8709 107.6086 107.6136 107.8758 108.3528 108.9890 109.7014 110.4446 111.2083 111.9492 112.6885 113.3206 113.9919 114.7724 114.9132 123.5905 119.0372 115.8377 117.1799 117.8207 118.2587 118.5500
114.1200 110.3946 117.8532 117.8374 116.9662 116.5558 116.0517 115.5414 114.9791 114.4051 113.7898 113.1688 112.7376 106.1657 100.8967 107.9511 110.0616 109.5949 109.2396 109.0451 109.0490 109.2424 109.6043 110.0847 110.6555 111.2764 111.9194 112.5512 113.1935 113.9451 113.5472 124.9332 113.1857 111.1068 101.8686 118.7797 117.2035 117.9917 118.4315 118.6000
113.6300 118.8275 118.1158 117.8174 117.1069 116.5117 116.3599 115.8734 115.3497 114.8125 114.2649 113.7700 112.9146 113.5938 109.9992 111.2920 111.1505 110.6931 110.4189 110.2704 110.2793 110.4277 110.7061 111.0866 111.5589 112.0484 112.6111 113.1732 113.6229 114.4921 112.2034 114.1037 107.8829 117.2033 116.9161 117.8984 117.7805 118.2009 118.6293 118.9500
119.0200 118.5742 118.3694 114.4453 111.7487 114.7695 116.7979 116.1877 115.7242 115.2371 114.7499 114.2351 113.8261 112.9789 112.9642 112.4253 111.9684 111.6933 111.4931 111.3709 111.3636 111.4753 111.7015 112.0100 112.3816 112.9558 113.0288 113.7451 114.3087 115.9608 111.4988 103.0037 112.9909 113.6054 117.0503 117.3947 118.0803 118.0613 118.6848 119.0100
119.0900 119.4311 119.1997 95.3183 119.2510 117.3858 116.9326 116.5659 116.1152 115.6731 115.2214 114.7758 114.3333 113.8162 113.5575 113.1599 112.7609 112.7633 112.3603 112.3278 112.3238 112.4153 112.5911 112.8527 113.1642 113.5364 111.4764 114.3959 114.4023 114.1968 112.7654 106.0482 105.6761 102.3469 118.1998 117.8074 117.9464 120.8634 119.1671 119.4200
119.4300 117.9465 120.4080 104.3608 118.7155 117.4216 117.3259 116.9065 116.5069 116.0973 115.6986 115.3021 114.9117 114.5701 114.1907 113.6940 114.3055 111.8375 113.3272 113.2102 113.1855 113.2653 113.4049 113.6117 113.9117 114.1966 114.6346 115.2543 115.2668 115.4271 120.1882 116.4501 116.6955 113.3998 112.2114 114.4841 118.9714 122.7082 119.3587 119.4200
122.6100 118.3416 119.0835 119.7404 118.7142 118.1218 117.6276 117.2746 116.8985 116.5281 116.1667 115.8042 115.4565 115.1347 114.8349 114.6734 111.9190 110.7320 114.2104 114.0222 113.9895 114.0328 114.1714 114.3982 114.4957 114.8422 114.8087 116.4676 116.9888 118.1927 106.5791 107.4101 115.3888 120.8493 108.0687 106.0745 118.3775 116.4627 119.1074 119.8200
119.9100 120.5532 118.8495 114.4851 119.6677 118.2427 117.9599 117.6369 117.2859 116.9498 116.6165 116.2849 115.9723 115.7487 115.4182 115.5279 114.0081 114.8405 114.7288 114.6262 114.6473 114.7590 115.0311 114.8290 115.6152 115.4247 115.2761 115.5943 107.7843 109.2332 113.6438 105.4803 99.0236 117.4568 115.9998 114.2329 119.7323 116.0831 121.1700 119.9000
119.9100 120.8153 121.2068 100.5321 119.5678 118.2958 118.3288 117.9762 117.6728 117.3615 117.0621 116.7723 116.5186 116.2175 115.9629 109.2539 118.1850 116.8078 115.3780 115.5271 115.2827 115.2984 115.7330 116.3325 110.8941 115.6434 118.5561 114.2184 95.2915 108.5028 104.1145 106.6735 119.4821 118.5574 118.7994 119.0570 120.3194 111.6530 112.2761 120.2200
98.3100 119.7905 100.3591 117.3692 118.7766 118.9007 118.6846 118.3456 118.0466 117.7745 117.4635 117.2137 117.0273 116.6380 115.7763 103.2450 95.1715 116.6299 115.8929 114.2074 110.1028 116.8423 116.9226 112.7276 103.8322 116.6250 109.1874 100.8632 116.0263 107.5906 113.7572 82.0438 121.6600 118.1008 119.0173 118.8187 115.5368 117.8763 98.8160 110.9200
120.6200 120.7701 117.6484 120.2085 119.5934 119.1121 118.8883 118.6669 118.4095 118.1737 118.4800 117.8008 117.3567 117.1421 117.3549 119.1601 115.5957 116.8668 117.0674 112.1804 122.6508 113.6844 105.4103 118.8234 117.7141 117.9664 104.7153 98.9829 121.1355 103.5371 99.7483 104.8442 118.7375 118.9141 119.1980 119.8161 116.3649 114.8490 107.3720 120.6100
120.7000 120.5351 120.1993 120.1448 119.8171 120.2959 119.6801 118.9813 118.8362 118.5829 116.3959 117.8134 117.7921 117.8723 117.5001 116.7056 117.3431 117.0281 117.0919 97.9178 100.2749 113.1965 116.1150 117.7189 117.0676 117.8828 116.2267 114.1829 118.0157 117.5239 118.6002 108.7955 118.7543 119.1213 119.5742 119.7626 120.1910 105.0057 109.0341 120.6800
121.0000 120.1369 120.7264 119.8687 121.3212 107.7708 113.9578 120.2921 119.0190 118.6283 115.6429 112.8430 118.3588 118.1043 118.0321 118.7305 117.8206 117.4123 117.9278 99.5070 100.9886 108.8746 118.1907 117.7884 117.8067 118.0040 118.0787 117.7269 118.6388 119.4499 103.2643 110.9679 116.5977 119.5726 119.9045 119.9408 120.3464 113.5016 105.8324 106.2900
99.0900 108.4174 120.9059 119.8347 118.4078 113.2466 119.9167 119.6978 119.7813 119.2416 117.1777 115.3106 118.4172 118.5991 117.9206 111.2774 118.1912 118.1867 119.3764 100.3203 99.1208 121.0899 118.3272 118.2611 118.3548 118.4615 118.5898 118.8439 119.0892 117.6329 118.2758 107.8208 113.0978 120.3049 120.1289 120.4494 120.2843 119.2311 123.7753 121.0800
121.3800 122.2841 121.4365 120.9508 121.9871 111.2629 120.4360 121.8119 120.5303 116.2754 117.6132 116.3188 119.4269 119.2760 118.6975 118.8116 119.0634 111.7126 110.8768 102.1869 99.5882 119.6977 118.3548 118.6582 118.7681 118.8788 118.9999 119.1399 119.0781 124.2897 119.6468 100.2159 110.6573 119.5771 120.4369 120.5787 120.0870 120.7672 120.6569 121.3700
121.4800 121.4800 121.2700 121.0700 120.8900 120.6700 119.9600 120.2300 120.0500 119.8700 100.3900 100.3900 119.4400 119.1900 99.4600 118.9600 120.0900 108.4300 109.1400 103.6700 99.5900 118.6900 119.0400 119.0100 118.9700 119.2600 119.2000 119.4600 119.6800 119.6300 119.8900 120.0700 120.2600 120.5000 120.6700 120.8700 121.0700 121.2600 121.4900 121.6400
