119.1500 118.0100 118.0100 113.6400 110.3400 101.0800 101.0800 104.9500 104.9500 119.9100 119.7200 119.7200 119.4800 119.2200 119.2700 118.9700 119.0100 119.0400 118.6900 118.7000 118.7000 118.6900 119.0400 119.0200 118.9800 119.2800 119.2300 119.4900 119.4300 119.6600 119.8700 120.1500 120.3300 120.3300 120.7600 120.7600 121.1500 121.1500 121.3200 121.5200
113.0000 107.8448 108.5315 111.5267 110.7197 110.4160 107.2223 99.6925 103.0262 115.1866 119.6586 119.3233 119.1593 119.0303 118.8957 119.9324 119.3174 118.5925 118.6019 118.5949 118.5084 118.0351 118.0521 118.6200 118.8129 118.8954 119.0196 119.1609 119.3124 119.4789 119.6576 119.8414 120.0370 120.2388 120.4493 120.6583 120.8604 121.0726 121.3174 121.5200
110.8900 112.9694 107.1168 107.8044 108.8972 109.7050 114.7995 102.2019 101.4343 116.7072 118.8690 118.9411 118.7597 118.6183 118.5030 113.1794 110.5806 118.9111 118.1044 118.1285 118.1105 115.6446 117.3112 118.1421 118.3808 118.4780 118.6143 118.7672 118.9342 119.1097 119.3044 119.5090 119.7169 119.9346 120.1553 120.3901 120.6165 120.9421 121.1827 121.1800
110.8900 109.2374 108.2204 107.8573 118.8371 103.6920 101.2418 101.1704 110.4134 115.4269 118.2984 118.6737 118.3454 118.1926 118.0702 116.6759 117.3171 118.1278 117.6596 117.6356 117.5963 117.9142 117.7216 117.8088 117.9042 118.0333 118.1827 118.3473 118.5332 118.7327 118.9413 119.1642 119.3856 119.6191 119.8566 120.0923 120.3342 120.2330 120.7418 121.1500
110.8000 107.1935 115.2328 106.6482 105.6591 99.3794 108.8050 100.8578 100.0290 118.3569 118.4669 117.8476 117.9159 117.7403 117.5707 117.4633 117.2908 117.0372 117.1475 117.1210 117.0975 117.0991 117.2209 117.3066 117.4297 117.5755 117.7357 117.9236 118.1223 118.3426 118.5672 118.8065 119.0510 119.3011 119.5625 119.7978 120.2808 119.6690 128.1233 120.7600
105.4100 109.4682 105.4885 104.6504 104.7922 104.5858 103.6368 113.6131 104.9694 109.5744 120.3084 117.7451 117.4535 117.3012 117.0846 116.9231 116.8113 116.7473 116.6310 116.5850 116.5986 116.6319 116.6903 116.7968 116.9256 117.0858 117.2708 117.4730 117.6962 117.9359 118.1844 118.4453 118.7063 118.9780 119.2469 119.5238 119.8130 119.9217 121.6267 120.4600
109.8900 105.5059 106.0057 120.5025 108.1182 96.6062 104.9076 108.2747 98.8584 100.1171 120.5616 117.2183 117.0256 116.6206 116.5650 116.2909 116.2507 116.1127 116.0474 116.0125 116.0084 116.0458 116.1296 116.2452 116.4018 116.5688 116.7822 117.0136 117.2719 117.5160 117.7947 118.0712 118.3604 118.6509 118.9467 119.2464 119.5207 119.8950 120.1413 120.3700
100.0100 107.9330 104.2497 112.3392 117.9376 95.8652 108.2297 108.5538 117.8614 123.1166 117.8815 116.4246 116.4572 117.5771 115.7537 116.7330 115.6148 115.5220 115.4330 115.3976 115.3953 115.4430 115.5351 115.6704 115.8180 116.0712 116.3005 116.2953 116.6837 117.1043 117.3864 117.6920 118.0044 118.3189 118.6352 118.9525 119.2645 119.5878 119.8240 120.0500
112.2200 99.0802 108.7603 103.6686 109.3904 105.8962 107.6677 103.7443 109.6430 116.7900 114.4956 116.6298 115.8256 115.4273 98.9620 112.4064 115.0146 114.9013 114.7835 114.7326 114.7334 114.7805 114.8815 115.0423 115.2001 115.2662 115.5380 117.6247 117.0125 116.4191 117.0164 117.3052 117.6536 117.9896 118.3252 118.6671 119.0168 119.3385 120.0031 119.9700
122.7900 117.5494 100.1586 95.7021 99.0296 103.9005 102.3343 113.9683 118.3123 116.6794 116.3799 115.7937 115.6056 115.1606 114.9576 111.7271 114.4264 114.1322 114.0900 114.0150 113.9457 114.0637 114.2109 114.3700 114.6881 116.0070 114.8601 111.1327 109.6121 116.2270 116.4846 116.9264 117.2893 117.6577 118.0476 118.3703 118.7561 119.3339 114.0127 119.6400
101.3800 110.4353 115.3960 105.9945 100.7001 106.0436 110.1956 110.2143 117.2813 115.9124 115.6761 115.3264 114.8084 114.7569 114.2857 114.5471 113.3368 113.7240 112.7752 112.9845 114.0973 113.2779 113.4752 113.6540 113.8990 114.6921 113.1299 114.0374 109.5383 116.1689 116.1517 116.5331 116.9307 117.3129 117.6948 118.1468 117.8497 121.1679 104.6161 119.5500
102.2900 106.0622 99.4340 104.0847 105.0048 107.1370 111.4482 101.9444 117.3179 115.6266 115.2506 114.8331 114.3519 114.5703 96.5908 110.4905 113.3831 113.0172 108.5273 112.6217 116.5355 111.9021 112.7135 112.8686 113.3257 113.5990 113.3460 115.4171 113.6419 115.2466 115.6151 115.9647 116.6023 117.0822 117.4741 118.9822 119.9946 110.4139 115.3572 119.1500
107.6300 105.2372 102.4476 101.6106 111.5799 117.0305 113.3322 117.1814 115.5306 115.2852 114.7519 114.2673 113.6187 112.9109 107.3629 105.9048 111.4341 111.7024 111.8851 111.6803 110.8736 111.5708 111.7363 112.0489 112.4067 112.8526 113.3803 113.8141 114.2613 114.7353 115.3377 116.4138 116.1902 116.6852 117.1586 110.4929 103.2457 109.5946 117.0836 119.0600
107.6300 96.9948 95.9493 104.3432 105.5027 117.3271 112.6604 115.9704 115.2358 114.8252 114.2923 113.7399 113.2112 112.4491 109.6378 107.3763 111.4077 110.7523 110.4159 110.2700 110.4116 110.4722 110.7383 111.1100 111.5824 112.0952 112.6093 113.2018 113.6885 115.5434 102.1755 115.6851 115.7807 115.9727 122.8081 113.7287 112.9701 115.6912 108.6983 119.0600
99.0700 97.2829 101.4543 109.1747 104.8915 106.5439 114.6556 115.5144 115.0485 114.4035 113.8179 113.1892 112.5645 112.0245 111.8536 111.0849 109.9826 109.6491 109.3029 109.1166 109.1032 109.2981 109.7118 110.2054 110.6662 111.3082 111.9413 112.5676 113.2312 114.1395 113.0987 115.0453 115.5397 116.0099 117.8492 117.3220 117.6999 117.8346 117.6634 118.6500
114.4100 103.7679 101.8374 99.1477 100.6162 132.6843 114.7144 115.6786 114.6206 114.0178 113.3608 112.6745 111.9519 111.1703 110.4735 109.6830 109.0318 108.3974 107.9288 107.6761 107.6839 108.0300 106.9659 108.9972 109.7329 110.4795 111.2280 111.9679 112.7001 113.3604 114.0101 114.6652 115.1525 115.7727 116.2488 116.9106 117.2250 117.8339 118.3512 118.5900
107.1100 98.4740 99.4872 104.2472 108.3598 110.2556 115.7157 114.9628 114.3302 113.6470 112.9282 112.1713 111.3514 110.4940 109.6135 108.6943 107.7971 106.9851 106.3384 105.9742 105.9853 106.4374 106.9825 107.9388 108.7225 109.6338 110.5195 111.3789 112.1858 112.9499 113.6697 114.3578 115.2431 114.6336 116.0239 116.3580 117.3307 111.9759 118.9993 112.9500
102.8000 105.8373 106.4459 118.9982 116.5585 115.9285 115.6476 114.7084 114.0389 113.3184 112.5490 111.6865 110.8097 109.8062 108.7581 107.6371 106.4894 105.3646 104.4300 103.8614 103.8678 104.4370 105.3913 106.5112 107.6755 108.7848 109.8368 110.8120 111.7131 112.5267 113.3422 113.4537 112.6882 103.8763 108.5881 109.6976 103.2690 118.1797 112.7485 107.3900
104.0400 103.2076 116.2969 108.4829 116.2582 115.4837 115.0967 114.5528 113.8482 113.0189 112.2176 111.5968 110.4325 109.1914 107.9435 106.5837 105.0843 103.5249 102.0209 101.0793 101.0912 102.0699 103.5721 105.1296 106.6191 107.9799 109.2077 110.3067 111.2961 112.1665 112.8037 109.7091 103.1643 102.8835 111.7911 113.2004 106.6669 118.1070 117.9959 118.1400
106.9600 105.6682 99.5825 104.1784 116.9492 115.4405 115.0649 114.1027 113.2510 112.7901 112.0162 111.3256 111.5667 108.6423 107.2052 105.6050 103.7025 101.4475 99.0350 96.9241 96.9420 99.1287 101.5132 103.7560 105.6528 107.2725 108.6691 109.8888 111.0010 112.0304 111.8419 115.7797 110.3334 104.7301 116.9209 116.9432 120.3845 117.7481 117.9568 118.1100
104.2200 99.1670 119.7686 119.2697 116.3243 115.4831 114.9913 114.1142 115.7934 112.6072 111.7091 110.6694 109.3429 108.2959 106.6834 104.8232 102.4962 99.4581 94.9072 90.3228 90.3299 95.1419 99.5495 102.5659 104.8824 106.7360 108.2787 109.5947 110.7451 111.7296 112.6275 112.7425 115.0671 116.1027 115.5100 116.0533 116.2310 117.3040 117.7972 118.0800
111.4400 99.7051 109.0466 104.4181 114.4567 115.4384 114.7836 113.9870 116.4512 112.1762 111.6414 110.6092 109.4688 108.0675 106.3990 104.3860 101.7720 98.1277 90.9933 85.5088 85.5767 91.2487 98.2468 101.8568 104.4508 106.4454 108.0717 109.4460 110.6331 111.7753 112.8314 113.5587 114.0195 114.1769 114.9184 116.4946 116.9951 117.2898 117.7661 118.0600
111.4400 101.0201 124.2153 95.2615 116.2731 114.3098 114.7476 114.2395 113.2239 112.5686 111.6307 110.5837 109.3967 108.0359 106.4090 104.3979 101.8000 98.1507 91.4665 85.8283 85.7514 91.5140 98.2727 101.8877 104.4637 106.4596 108.0781 109.4478 110.7228 111.2168 112.1698 113.4190 114.5397 114.2551 118.1923 116.0769 116.0545 117.1748 117.7733 118.0600
103.6900 96.3362 99.2146 108.9214 114.8501 113.2948 114.8735 114.3002 113.5200 112.6526 111.7412 110.7287 109.5796 108.2554 106.7158 104.8612 102.5500 99.5716 94.6978 90.6377 90.6246 95.3786 99.6384 102.6304 104.9233 106.7598 108.2974 109.5886 110.9491 112.2784 115.6894 113.5313 113.9723 115.1878 121.1864 98.9991 118.7692 117.6005 117.7701 118.0600
102.9900 115.2567 115.1879 117.1909 115.7772 115.6364 115.0030 114.3296 113.6157 112.8170 111.9405 110.9660 109.8876 108.6596 107.2713 105.6616 103.7791 101.6440 99.2047 97.2247 97.2483 99.3090 101.6617 103.8419 105.7094 107.3065 108.7027 109.9059 111.0672 112.8131 101.3749 114.6975 113.7239 115.4603 108.3087 115.5657 110.6643 110.3607 118.0906 118.0800
117.2200 108.3605 117.8755 116.5417 116.4149 115.8683 115.1464 114.5073 113.8159 113.0485 112.2142 111.3070 110.3108 109.2077 107.9911 106.6488 105.1779 103.6133 102.1423 101.2408 101.2581 102.2261 103.6894 105.2258 106.6849 108.0252 109.2437 110.3329 111.3312 112.0043 114.3370 120.5487 106.6125 102.6582 111.6856 116.3255 117.2066 117.4913 117.9081 118.1100
106.2100 112.7631 117.9113 116.3428 113.6132 122.0434 114.9320 114.7127 114.0728 113.3353 112.5636 111.7203 110.8247 109.8558 108.8111 107.6916 106.5913 105.4728 104.5527 103.9820 103.9965 104.5666 105.4977 106.6021 107.7339 108.8369 109.8848 110.6477 111.6781 112.5648 112.8875 123.1979 100.6781 108.1504 121.6517 101.8909 116.8763 117.4894 118.2055 118.4500
118.4900 115.6597 118.2750 103.1381 116.7567 109.7292 116.2048 114.9052 114.2692 113.5697 112.9057 112.2007 111.3827 110.5504 109.6490 108.7959 107.9991 107.0347 106.4666 106.0853 106.0760 106.4457 107.0900 107.9038 108.7909 109.7564 109.7557 110.1902 112.1415 113.3080 113.0232 119.2565 113.2108 100.5225 113.6619 99.3520 104.4662 115.8774 115.7578 118.4900
116.0100 104.7408 112.2760 118.4894 117.5271 117.2978 115.8343 115.3347 114.8071 114.4968 113.3509 112.6548 112.0091 111.3822 110.6981 108.8975 108.9538 108.6248 107.8990 107.7558 107.7630 108.0210 108.4825 109.0948 109.7962 110.5997 109.2251 112.4611 110.3976 112.8990 113.9168 110.1252 111.5003 113.7471 106.3867 107.4790 113.3127 114.3227 109.1539 106.7600
98.5300 115.3606 118.6077 117.9898 116.8472 116.4086 116.0076 115.4279 114.9832 108.2282 114.5680 113.3098 112.6127 111.8553 106.9228 111.1290 110.9171 107.9507 109.6188 109.1980 109.1978 109.3633 109.7138 110.1883 110.7428 111.3699 111.9131 112.5782 112.4259 114.8186 115.8436 110.3406 113.5434 100.7410 109.2080 112.7649 119.1052 105.8458 119.1914 107.8000
119.9200 117.4794 117.4546 117.4625 117.3733 116.9359 116.4703 115.7633 115.5780 108.4670 112.2428 114.0334 113.0452 113.0927 95.1934 100.4323 111.3521 106.3528 110.6960 110.3604 110.2560 110.5522 110.7921 111.1911 111.6332 112.1108 112.5717 113.7905 104.9770 108.4102 108.9076 117.0689 107.9046 114.6374 110.7480 115.1740 117.8833 113.3965 118.7653 118.9900
97.4800 116.2332 123.3819 118.9893 117.5293 117.1335 116.6820 116.2626 115.8617 115.9163 106.0600 114.0911 114.9514 114.6517 109.3277 112.1228 112.8054 111.9516 111.5505 111.7201 112.2432 111.4978 111.9019 112.0398 112.4581 112.9868 112.3266 115.5035 97.4624 100.6445 100.1641 98.4749 104.3975 118.4081 117.0975 118.0266 118.3264 118.2920 118.5009 119.0400
97.4000 119.3112 120.3292 118.6993 117.8451 117.4323 117.0193 116.5944 116.0613 115.5881 116.4159 107.6941 113.8208 113.6906 112.3964 101.5704 113.5412 112.7797 112.4630 110.6822 105.3686 113.1128 112.8036 112.9671 113.2380 113.4405 116.3603 112.5304 100.8164 111.3880 100.6408 105.5377 113.8283 116.7381 117.5719 117.3174 117.4270 122.4952 116.4665 119.4000
119.4800 119.8588 118.8876 118.4001 118.1162 117.7228 117.3575 116.9398 116.5453 116.1654 115.8344 114.3426 113.3726 114.1973 109.4684 86.9442 112.2556 113.4082 112.9343 116.4008 109.3241 113.7217 114.1361 113.4994 113.9878 114.2690 113.0294 101.4823 111.5031 115.7073 103.2214 106.9451 117.6837 117.4536 117.7166 118.9602 121.6296 130.2987 122.3887 101.9100
119.5500 119.3010 119.1124 118.7991 118.3509 118.1581 117.5994 117.3148 116.9395 116.5823 116.1217 116.2945 115.6605 115.2803 93.7341 98.1301 112.4570 113.9986 114.7201 94.5136 96.6396 114.9501 108.0531 115.1548 114.6850 114.5998 115.9623 95.8629 112.4030 115.7814 117.4143 102.6677 103.2271 115.4107 118.9642 109.4244 102.7347 108.6262 107.7118 103.9400
119.9000 119.7386 119.3367 118.9551 118.7812 118.3887 118.0497 117.6866 117.3101 116.9932 116.5119 116.4550 115.7249 116.6040 116.0251 116.4510 115.4409 114.4989 115.9287 98.8570 96.2477 118.4943 109.3957 114.7698 115.1976 115.4475 116.3975 112.9781 118.0894 115.0281 118.8946 108.9447 113.6405 118.1557 118.3344 118.6762 121.5959 109.6730 119.5295 101.5300
119.9700 116.7291 119.7551 119.1828 113.3463 102.2998 121.3205 117.4498 117.7197 117.3909 116.8233 116.9232 116.5096 116.0362 116.0974 116.2326 115.5552 115.1122 114.8200 98.2969 96.9622 92.1981 111.3596 115.2524 115.8755 116.0359 116.2831 116.9293 116.6560 117.4495 115.3316 108.7243 114.1616 118.6586 118.6155 118.6771 118.8429 122.9596 109.4614 104.9800
120.3000 106.1335 121.3376 120.4421 109.9625 112.8591 119.4465 118.3014 118.2740 118.1342 111.1647 116.4349 117.1286 116.6965 116.2038 111.2140 116.4063 116.1621 111.5176 100.6461 94.1155 118.0734 110.9821 116.0660 116.5192 116.6020 116.8150 117.0822 117.0774 117.2021 118.5007 118.7278 118.4559 118.7486 119.0032 119.2896 119.9462 120.1734 121.3077 120.2800
120.6800 120.8813 119.8965 116.3395 122.0370 111.7809 116.9249 118.6419 118.7589 110.8796 107.0429 118.9843 117.3192 118.1135 116.9648 112.5861 116.7223 115.8872 111.5060 105.6618 100.6543 117.9352 116.9750 116.7288 117.0084 117.1149 117.2863 117.5124 117.7375 117.8933 108.5735 92.3876 119.5671 118.7833 119.2752 119.5360 119.7186 120.0585 120.1561 120.6700
120.6800 120.4600 120.2400 102.3400 119.7800 119.5400 112.8500 118.8100 118.8100 98.1200 97.8400 121.1700 117.7700 117.4900 95.5700 117.2400 115.5300 105.9900 102.5500 116.9500 116.9600 116.9400 116.8800 117.3100 117.2500 117.5100 117.5100 117.7900 118.0300 120.9900 118.2100 118.8000 118.8000 119.2900 119.2900 119.7700 120.0000 120.2300 120.4400 120.6700
