105.3800 113.3600 97.8300 107.6000 106.9900 95.6300 99.1600 100.1300 116.0800 101.8600 99.5000 123.3300 119.3500 104.0500 112.4200 111.8700 111.2400 109.8400 109.0900 109.2300 108.4300 107.3500 107.4100 107.4000 108.5600 108.3700 109.1500 110.0700 110.5900 111.3500 111.8800 112.4700 113.5500 114.0500 114.5500 115.4000 115.8200 116.2100 116.9500 117.3000
108.8700 108.6109 102.6720 107.3079 102.7854 97.9540 98.0405 101.4610 112.4602 98.9330 105.6816 113.8428 111.7662 108.0414 112.5835 111.5220 110.6988 109.8627 109.0308 108.2182 107.6993 110.1099 106.4348 106.6539 107.0143 107.6000 108.3392 109.1570 110.0049 110.8352 111.6478 112.4185 113.1526 113.8443 114.4993 115.1463 115.9023 116.1701 116.2732 117.3000
114.4100 105.2420 110.8044 106.9101 107.5372 99.0154 96.3769 107.1432 103.9032 94.8746 104.8545 109.5132 113.6075 113.7532 110.4556 110.9907 109.9543 108.9981 107.9476 107.0639 103.8149 105.1277 104.5289 104.7290 105.2455 106.0920 107.0875 108.1410 109.1709 110.1511 111.0806 111.9517 112.7533 113.5003 114.1920 114.9977 114.5965 116.7286 120.2003 116.8200
114.4100 121.5392 116.5019 107.1574 103.2580 102.7104 100.9489 102.5620 107.6594 96.2286 97.5675 120.2470 114.2029 111.6683 110.3209 110.4483 109.2820 108.1587 106.8561 105.4686 102.2887 103.2838 102.1784 102.2380 103.1032 104.3725 105.7522 107.0987 108.3515 109.5055 110.5685 111.3867 112.4084 113.2184 114.0134 113.4490 125.3011 110.2595 100.6506 116.7700
109.5500 121.1374 114.8215 106.3498 103.3191 99.1143 113.8366 113.6177 113.1977 110.9022 115.2419 115.7335 119.2434 111.8550 111.1145 110.0143 108.7346 107.3742 105.8348 104.2532 102.2256 100.1020 98.6381 98.8785 100.4233 102.4402 104.3811 106.1141 107.6164 108.9378 110.1218 111.1213 112.1029 112.9323 114.1045 114.5147 116.6180 111.5122 97.7076 100.2000
118.2300 108.9206 119.4428 103.8565 110.1711 103.1857 98.4359 123.1065 115.1956 115.3399 114.4191 113.4441 111.7065 111.6622 110.6832 109.5607 108.2689 106.7510 104.9381 102.7272 99.9235 96.3276 92.5478 92.9384 97.1017 100.4420 103.1371 105.2716 107.0201 108.5031 109.7723 110.8879 111.8774 113.1235 110.4316 114.4672 116.1861 115.3636 100.3592 112.1900
97.2600 117.5860 96.1753 96.8706 96.1993 105.4113 107.1557 117.7729 115.4504 114.8116 114.1366 113.3672 112.5642 111.5942 110.5453 109.3492 107.9777 106.3477 104.3380 101.7619 98.2156 91.5090 86.8507 87.1476 92.9311 98.8816 102.2667 104.7187 106.6428 108.2291 109.5710 110.7250 111.7588 112.7416 113.4157 114.2458 115.0182 115.6715 115.9705 116.6700
97.2600 97.3421 96.8706 96.7401 96.0884 105.4842 107.7387 114.6747 115.5627 114.9057 114.1063 113.3442 112.5060 111.5705 110.5004 109.3026 107.9032 106.2403 104.1807 101.4764 97.6173 89.9409 84.4297 84.9519 91.4532 98.3892 102.0039 104.5658 106.5465 108.1551 109.5181 110.6858 111.7198 112.6415 113.4664 114.2040 115.1357 115.5522 116.1035 116.6600
108.8700 107.8172 110.5778 105.6392 105.6570 119.5232 115.5027 112.9941 115.6749 115.7499 114.1264 113.3886 112.5489 111.6190 110.5778 109.4066 108.0510 106.4467 104.4943 102.0143 98.6915 92.7322 88.4188 88.7487 94.2162 99.2913 102.4968 104.8632 106.7422 108.2940 109.6204 110.7673 111.7916 112.7111 113.5393 114.0876 117.3621 115.3281 116.3532 115.4300
106.0100 104.5892 103.2196 101.2342 101.4012 106.6234 112.9022 110.4885 115.8999 114.9022 114.2503 113.5062 112.6862 111.8260 110.8249 109.6718 108.3988 106.9307 105.2035 103.1405 100.6444 97.6642 94.7509 95.1011 98.3371 101.0790 103.5259 105.5237 107.1965 108.6256 109.8684 110.9714 111.9467 112.8310 113.6390 114.3902 114.8069 115.5578 116.2791 116.4000
108.6200 107.7600 107.0357 96.4394 101.7290 108.7753 117.4987 111.7089 115.8448 115.0927 114.4059 113.6805 112.8987 111.9085 111.0824 110.0571 108.9084 107.6125 106.1625 104.5265 102.7899 101.1845 99.9555 100.1187 101.3232 103.0869 104.8228 106.4225 107.8510 109.1102 110.2495 111.2695 112.1914 113.0345 113.8094 114.5136 115.2322 115.8097 116.3642 116.7000
108.6200 109.8781 108.1602 98.8887 100.5865 104.6081 117.6902 113.5443 115.8935 115.2860 114.5971 113.9129 113.1690 111.9920 111.4990 110.5426 109.5319 108.4184 107.2225 105.9715 104.7294 103.6687 103.0442 103.0977 103.8332 104.9412 106.2027 107.4304 108.6109 109.7111 110.7240 111.6470 112.5090 113.2950 114.0281 114.7166 115.3352 115.9899 116.5489 116.7400
108.4600 102.0361 102.2332 110.9531 104.7845 108.1088 103.2161 119.2187 115.7689 115.4376 114.8382 114.1873 113.4862 112.7782 111.9646 111.1193 110.2215 109.2776 108.3041 107.3388 106.4533 105.7327 105.3541 105.3847 105.8300 106.6197 107.5192 108.3658 109.4480 110.3755 111.2615 112.0955 112.8775 113.6184 114.2984 114.9465 115.5166 116.0296 116.2014 117.2000
112.4000 108.5371 100.3463 105.6600 104.8043 118.2237 111.3429 116.5956 116.3147 115.6791 115.1086 114.5000 113.8526 113.1679 112.4401 111.6566 110.9371 110.1324 109.3532 108.5914 107.9357 107.4282 107.1687 107.1931 107.5187 108.1331 105.8913 109.5642 110.2777 111.0660 111.8456 112.5856 113.3000 113.9595 114.5954 115.2216 115.8730 115.7005 121.9057 117.2600
101.9200 103.7770 100.3685 107.0891 101.3362 116.0633 115.5765 116.8605 116.5006 115.9514 115.4124 114.8443 114.2448 113.6337 113.0696 112.7575 111.6077 110.9772 110.3341 109.7409 109.2318 108.8678 108.6747 108.6900 108.9068 109.3757 111.5338 111.1296 111.0820 111.7752 112.4437 113.1008 113.7189 114.4476 114.9797 115.5424 115.7066 116.2974 118.7265 117.3200
121.4400 107.1093 95.6724 104.5703 105.7766 121.8875 117.1830 117.4858 116.7415 116.2343 115.7368 115.2048 114.6651 114.1082 113.4949 113.1043 112.3590 111.7981 111.2687 110.7813 110.3872 110.1016 109.9572 109.9666 110.1483 110.3416 111.0967 111.0893 111.9308 112.4635 113.0410 113.6493 114.1751 114.7707 115.7297 115.5449 116.2398 120.5295 106.8340 104.8700
104.7000 103.3386 107.2933 102.7772 102.9303 123.7477 112.5485 118.0372 116.8286 116.5791 116.0736 115.5891 115.0876 114.5813 114.0676 113.5551 113.0640 112.5797 112.1236 111.7338 111.4097 111.1857 111.0723 111.0889 111.2097 111.4647 111.8202 112.2156 112.6465 113.1357 113.6488 114.1253 114.9513 113.9564 124.8220 105.4376 118.5188 118.7966 101.4294 117.8200
107.1600 107.5926 111.7470 101.3578 97.6405 117.2136 120.4595 121.3938 117.1225 116.9916 116.4407 115.9745 115.5257 115.0747 114.6041 114.1154 113.7239 113.2955 112.9213 112.6005 112.3348 112.1560 112.0667 112.0788 112.1804 112.3786 112.6437 112.9820 113.3660 113.7982 114.2404 114.5957 114.5570 116.1304 112.6715 104.7047 113.6046 117.3041 117.4383 117.9100
109.7600 107.9835 103.6922 98.5266 105.1399 102.1043 99.5106 119.4196 117.1004 117.1711 116.6309 116.3460 115.9614 115.5312 114.9885 114.6050 114.1848 113.9991 113.6693 113.3951 113.1794 113.0275 112.9564 112.9613 113.0459 113.2137 113.4474 113.7256 114.0550 114.3841 114.8854 115.2907 109.8454 110.1736 118.2926 107.4373 113.9428 107.0363 117.6890 118.3000
98.4700 110.8134 109.3555 111.6977 112.6142 120.9208 118.5058 118.2705 118.0885 117.2532 115.1533 116.7252 116.9211 115.9148 116.6115 115.4563 115.6029 114.3785 114.3679 114.1385 113.9551 113.8288 113.7614 113.7731 113.8440 113.9816 114.1397 114.4243 114.7359 115.0773 114.7890 117.3117 107.0029 106.8437 114.4226 115.5221 117.8461 107.4515 112.4545 106.1300
101.1600 104.0429 112.8097 119.8209 128.0512 120.0028 118.7783 118.6705 117.8173 118.3850 118.0140 117.7210 113.3628 116.7058 116.0600 104.7062 114.8071 115.1902 115.0223 114.8239 114.6574 114.5594 114.5021 114.5097 114.5675 114.6872 114.8300 114.9520 114.9615 115.3473 115.8700 113.8821 102.6453 120.4980 116.5722 116.6448 118.9509 120.0402 111.4789 106.1300
101.1500 104.4983 112.2802 118.2066 106.8523 118.0277 118.9863 118.9943 113.4420 118.1236 117.7138 116.1768 108.9486 117.3430 116.7201 116.0490 115.7337 115.8816 115.6282 115.4559 115.3236 115.2283 115.1810 115.1862 115.2393 115.3393 115.4614 115.6173 115.0571 117.2028 118.2402 117.8672 117.4945 116.9460 118.1554 119.3084 118.2289 118.4874 121.0252 119.2400
104.8200 102.1831 117.9764 104.1323 111.0472 115.1518 120.0411 118.9896 119.1840 119.0221 118.1618 118.6270 117.9070 116.8738 117.0688 116.8676 116.6150 116.3985 116.2038 116.0465 115.9365 115.8561 115.8198 115.8177 115.8670 115.9566 116.0719 116.1856 117.0432 112.3145 112.5260 117.3169 117.2839 117.5703 116.9700 111.2255 110.0834 119.3765 118.6653 119.2800
100.5400 102.1670 120.5587 93.8821 121.2658 116.2484 119.8671 119.2758 119.1248 118.7999 118.6051 118.2856 118.0560 117.6906 117.5241 117.3161 117.0917 116.9125 116.7438 116.6137 116.5051 116.4404 116.4039 116.4092 116.4494 116.5221 116.6192 116.7666 118.0183 102.2001 111.1488 117.6593 117.8152 122.3313 107.4377 116.1437 117.8570 118.1098 119.5225 119.6900
101.8100 112.9445 109.1820 123.5535 120.6997 120.5807 110.4886 120.7043 119.2560 119.1945 118.9152 118.6744 118.1803 118.6650 118.2259 116.2510 117.5354 117.4025 117.2551 117.1422 117.0508 116.9873 116.9581 116.9634 116.9966 117.0637 117.1603 117.2461 118.2816 103.0231 105.3267 114.1663 117.8117 119.4200 115.5430 120.3523 119.3633 118.6703 119.7797 120.0200
108.2200 117.3527 121.0609 121.1820 120.7731 120.9271 119.1837 120.2530 119.6908 119.5093 119.2640 119.0605 118.7096 118.6737 105.0213 109.8356 118.1864 117.8763 117.7454 117.6443 117.5526 117.5010 117.4770 117.4793 117.5084 117.5577 117.6537 117.8539 117.5651 121.1295 109.1436 111.1360 119.2405 110.1399 116.2316 119.9409 119.6708 119.7783 120.0143 120.0900
121.8600 121.8303 121.0944 121.1853 121.2819 120.2117 120.4883 120.3265 120.0493 119.8183 119.5959 119.3741 119.1380 120.1677 113.7503 120.3703 118.2749 118.3606 118.2028 118.1122 118.0344 117.9915 117.9697 117.9609 118.0236 118.0977 118.1636 118.2536 117.1808 114.0513 122.6154 105.7021 103.6141 117.6493 114.4932 111.1238 120.0511 120.0962 120.3311 120.4500
121.9400 122.8400 121.5894 121.2580 121.7822 111.5410 121.6347 120.4354 120.3741 120.1132 119.9334 119.7118 119.5357 119.2211 119.8466 118.8376 118.9813 118.7516 118.6659 118.5587 118.4914 118.4493 118.4287 118.4289 118.4901 118.3529 118.4597 118.7497 114.3838 131.4355 119.9851 115.1324 108.6588 104.1211 119.9738 120.8469 120.0787 120.3955 120.5665 120.7600
111.5600 122.6609 122.7219 122.6385 120.3939 121.4728 121.0643 120.6895 120.6239 120.1409 120.2593 120.0390 119.8770 119.7653 119.3080 119.3701 119.2328 119.0856 118.9885 118.9931 118.9270 118.8887 118.8686 118.8505 118.9204 119.8339 120.7702 118.9527 122.1405 95.3713 112.0475 110.1771 123.4754 99.1532 121.6109 120.1617 120.4793 120.7292 120.7349 122.1900
118.7000 109.4264 123.0490 112.7600 105.9772 123.1506 121.1783 121.1192 120.8545 119.3807 120.5982 120.3663 120.2102 120.1169 120.5047 123.0929 118.3928 120.0093 119.5401 119.4014 119.3438 119.3022 119.2752 119.3177 119.3613 119.3341 119.1632 119.4112 120.2992 110.2911 104.4642 112.3083 117.3851 103.3719 124.4192 119.8784 120.5878 122.5875 121.4553 121.4400
124.2800 122.7358 122.4455 125.1551 123.9578 121.5768 121.6052 121.3426 121.3598 120.4050 120.8067 120.6917 120.5395 120.4268 120.0729 119.9356 115.5160 115.1503 120.0056 119.8119 119.7386 119.7152 119.8132 119.6346 119.5403 119.8166 119.3739 120.4784 119.9277 111.9333 107.8737 103.7292 105.6546 100.2349 112.7420 117.3571 118.7563 117.5926 121.3163 121.4700
117.6300 122.5241 121.8858 122.3380 121.6118 121.9993 121.8046 121.5062 121.7355 122.3992 121.7655 120.9448 120.8680 120.6771 120.4852 121.4952 121.7240 120.2649 120.0081 120.0693 120.1129 120.0343 119.6943 120.1766 120.6549 119.9722 122.6153 111.2946 120.6284 109.7652 112.4512 104.4142 110.3245 121.3328 122.5638 122.1006 121.1860 122.1991 121.5024 121.8200
123.0800 122.5092 125.2329 124.0982 122.2972 122.2493 122.0889 121.3861 104.6439 119.6809 113.9779 121.8493 121.1797 120.7598 121.8293 108.1997 120.9791 120.2056 121.9480 121.1434 120.1901 120.9024 122.2097 122.5210 106.2318 121.5772 114.1794 102.2896 108.0892 118.7004 115.1578 107.0738 113.7537 121.3413 120.9144 121.9045 121.9103 121.5028 121.9516 122.1000
123.3100 123.2942 107.7109 104.4915 124.1691 122.4395 122.2785 125.3709 121.4848 120.6608 126.3296 121.1342 121.4898 120.7291 120.0671 102.2203 108.7055 122.9495 106.6435 123.3435 121.7950 122.0120 108.4282 105.6050 112.6504 122.7094 118.9291 100.6180 116.1221 124.0859 106.7278 108.6889 123.4239 121.5752 121.8405 119.3748 121.7470 121.2261 122.2566 122.3500
123.3400 124.2235 117.3688 122.6782 122.1849 122.5420 122.1373 122.7865 122.0513 122.1710 121.4286 121.9014 121.7806 121.2673 119.7702 110.1320 110.7251 125.8754 98.0024 116.5634 110.9905 119.2895 103.1486 103.1916 104.7468 102.0297 115.0252 106.5209 110.8896 108.4162 119.0662 107.3490 126.9931 121.7248 122.8693 114.1913 123.8468 123.1185 122.8089 122.3900
123.6100 122.6925 108.3364 114.4985 124.7986 121.9703 123.1004 122.6028 122.5939 122.3804 122.3775 122.1502 122.0545 121.8166 122.2285 122.6730 122.3204 121.5542 120.4318 101.2450 113.7571 116.0317 110.2245 107.2413 118.7638 112.9034 115.5135 107.7864 103.4218 115.9916 123.9685 111.1780 115.4678 122.1179 123.1358 111.7885 108.2801 110.9194 122.9824 122.6700
102.3700 103.1592 124.5613 124.2951 117.0461 113.8596 113.0763 123.5180 122.7900 122.6517 122.5108 122.3239 122.3816 122.0264 122.5064 120.9170 122.2153 108.6584 112.3785 104.6283 98.1956 115.0375 123.9877 106.1916 118.9463 122.3372 123.4191 121.4914 122.2317 123.2042 121.1212 113.3746 120.1821 122.5081 122.5310 123.3316 120.0679 105.0254 126.9275 122.9500
105.0000 124.2770 124.2284 124.0736 120.0685 103.7714 125.0931 122.7773 122.9883 122.9596 123.0420 123.1102 122.4165 122.4413 121.0279 118.8473 122.3615 123.0870 119.4274 101.4052 112.1611 124.0409 121.7911 123.6724 123.0486 121.9254 122.0076 122.1746 121.7359 121.7702 106.1275 116.0873 119.0322 122.6864 122.7327 122.8245 116.8950 105.3223 117.6783 123.2000
124.1100 125.8758 122.7899 114.1551 107.5243 101.0756 124.2183 123.4686 123.2472 123.7169 118.2537 120.2146 122.6527 122.2407 124.0764 118.1680 122.1311 110.4784 104.6294 106.1383 109.5947 122.3833 122.1969 122.0525 122.0596 122.3528 122.4318 122.5146 122.8943 122.5920 111.0678 122.9588 113.8471 122.4074 123.0286 122.5336 124.5162 115.5797 125.7311 123.4200
124.3200 124.1900 124.0500 123.9100 123.7700 121.2400 121.2400 123.5300 123.3900 123.3900 116.5800 123.1000 122.9400 122.9800 108.2400 122.8300 122.8300 106.3300 101.0400 105.2900 101.3600 122.4900 122.4900 122.4900 122.4800 122.4700 122.7000 122.6800 122.6600 107.7300 107.7300 122.9700 122.9700 111.5400 123.0900 123.2400 123.3800 123.3800 123.5100 123.4500
