107.5000 108.5300 113.4500 107.7500 108.5100 104.2200 103.9900 97.8300 105.0800 104.9200 113.2400 119.1800 112.6600 112.6600 118.7000 118.4300 118.4900 118.1700 118.2100 117.8400 117.8600 97.5100 117.8700 117.8600 117.8400 118.2100 118.1600 118.4800 118.4200 118.7000 118.9500 118.8800 119.1700 119.3800 119.6700 119.8500 120.1300 120.2800 120.5400 120.5000
110.7000 106.9959 110.0750 106.4707 107.8953 104.7564 105.6022 101.5729 102.2035 115.3249 117.6358 119.1108 116.6652 119.1187 118.4838 118.8337 117.9645 117.9974 117.8116 117.5551 118.9926 103.6846 115.6512 117.4602 117.7813 117.8300 117.9357 118.0689 118.2130 118.3773 118.5615 118.7569 118.9706 119.1909 119.4152 119.6435 119.8940 120.1110 120.2645 120.4300
108.6000 109.1451 105.2982 109.5741 109.0031 102.2014 101.0792 100.4314 99.5170 117.8341 119.0053 118.5489 118.3610 118.0708 117.6422 111.5141 112.2267 117.5160 117.3185 117.1176 117.3408 103.4105 114.2711 117.1021 117.2781 117.3385 117.4571 117.6070 117.7667 117.9477 118.1576 118.3678 118.6019 118.8373 119.0792 119.3391 119.4276 119.8237 120.5904 120.0800
105.5700 106.3151 102.9457 107.1175 104.6748 101.0113 101.0153 102.2879 109.5370 117.5499 117.9700 117.9590 117.9251 117.7264 118.0255 116.5231 117.5233 117.2746 116.8047 116.6713 117.0481 111.5820 116.3629 116.5556 116.7295 116.8266 116.9599 117.1181 117.3044 117.5128 117.7268 117.9646 118.2182 118.4731 118.7302 119.0026 119.0712 120.8106 107.2534 119.9800
98.7900 109.6247 107.6290 108.4788 104.2680 101.3680 107.8369 103.2497 114.9618 103.7047 121.2021 117.0939 117.4868 117.3210 116.9397 116.8622 116.5012 116.2819 116.2693 116.1492 116.0485 116.5966 116.0581 116.0899 116.1625 116.2812 116.4292 116.6122 116.8178 117.0304 117.2906 117.5462 117.8182 118.1013 118.3893 118.6893 118.8211 119.4323 112.1535 119.6500
105.9400 106.5887 103.0944 103.7955 103.7768 104.7345 108.3114 105.6337 106.5916 96.7551 122.1514 117.3045 117.1227 116.6783 116.3814 115.9668 116.0611 115.8333 115.6864 115.5458 115.4669 115.3771 115.4270 115.4781 115.5655 115.6976 115.9086 116.0652 116.2660 116.6236 116.8222 117.1252 117.4199 117.7263 118.0392 118.3441 118.7030 118.7565 119.5386 105.4100
105.6500 104.4309 107.1138 105.5317 103.5645 105.2533 105.1939 108.0281 97.2681 101.2168 106.2250 116.9048 116.6524 116.6339 120.7804 116.8594 115.1865 116.3029 114.9785 114.9092 114.8159 114.7640 114.7672 114.8196 114.9141 115.0911 115.0784 115.5566 116.1628 115.8545 116.4120 116.6724 117.0107 117.3396 117.6776 118.0397 118.3592 118.6681 119.3076 119.2000
107.6100 107.5870 107.6566 107.7008 103.8143 106.0494 109.8667 110.9928 100.8297 115.3492 114.5040 116.6482 117.2166 109.9029 96.4637 103.0851 96.2988 114.5647 114.3757 114.2144 114.1071 114.0421 114.0473 114.1081 114.2819 114.2607 115.8396 113.4659 112.4569 115.8618 115.8054 116.2535 116.5913 116.9797 117.3290 117.6517 118.2272 118.3885 118.6649 119.1000
106.7100 107.0829 104.6860 106.2948 102.4320 104.8551 110.6448 112.0067 115.8800 108.5779 116.7373 116.2680 114.5973 114.7532 126.9878 115.6187 114.3825 115.1473 113.6011 113.4530 113.3332 113.2673 113.2646 113.3437 113.5086 114.1827 109.3481 104.9418 101.2980 115.4566 115.4070 115.7400 116.0739 116.5870 116.9394 117.5112 115.4290 118.2581 118.7910 118.7400
100.2100 106.7649 106.8384 108.5518 102.3643 105.4198 117.0641 114.2902 117.6504 116.6676 116.4811 117.6195 90.8455 87.7858 113.8814 113.3359 113.6845 113.0943 113.0098 112.7183 112.5214 112.4020 112.4170 112.5022 112.7201 113.3440 103.9153 102.2925 108.4742 114.4327 114.5411 115.3473 117.5313 118.2317 116.2413 116.8624 103.9382 119.2398 117.3425 118.6500
105.6200 103.8080 109.0770 109.7118 102.1762 109.4497 118.2621 125.4353 117.4077 116.3436 113.3917 110.2904 100.5149 88.5178 101.3756 114.2482 112.4720 112.4064 112.0415 111.7876 111.4235 111.5176 111.4378 111.5758 111.7945 112.0321 113.1950 107.7109 114.8355 114.0654 114.3881 116.0412 113.2177 110.9121 116.2006 118.2604 105.8375 118.9913 101.0421 96.3300
103.8400 101.5300 104.4865 104.3635 109.9655 119.5921 109.7307 93.0997 115.5534 115.9603 104.3759 86.2095 101.9875 105.2957 100.8260 104.9479 111.8719 111.5662 111.0938 114.9563 112.4168 110.4304 110.3834 110.5408 110.8285 111.2695 111.0660 111.4850 112.5777 112.8115 113.8739 106.8663 115.4738 112.5821 115.8783 116.3519 114.8825 110.0800 100.1627 102.7300
102.4500 103.4626 106.5868 101.9066 109.9351 112.4361 115.8555 120.5946 117.8891 115.5075 115.9156 108.6689 95.3215 117.0652 108.5501 105.7565 111.8789 110.4930 110.3292 109.5160 109.0228 109.2069 109.1761 109.3751 109.7204 110.1093 113.3940 111.5531 111.9155 115.8702 100.8509 109.8505 106.9927 113.3123 116.9299 112.5444 103.7040 112.4000 99.9343 102.7300
106.4800 107.6199 98.1962 103.5359 120.7254 113.5824 117.1235 116.1641 115.3756 115.0521 113.7848 115.1473 107.9792 97.2738 99.3401 108.9238 110.4206 109.5337 109.0269 108.4901 108.0690 107.7529 107.7715 108.0314 108.5045 109.1216 109.8453 110.6469 111.8236 101.3087 92.4274 107.8931 115.7032 113.0440 105.6430 118.0639 93.3685 103.8523 99.1636 98.4200
105.8800 104.1560 100.2436 112.9302 120.0627 122.2467 112.1068 116.4998 115.5735 114.7940 114.8737 113.9597 113.2697 109.7940 104.2129 110.4821 109.6003 108.6892 107.8262 107.0244 106.3801 106.0541 106.0840 106.4715 107.1106 107.9232 108.8269 109.6686 114.8775 99.4396 107.3961 111.5261 109.7149 112.8391 109.7766 94.6301 102.8440 95.4186 95.0291 105.6600
101.0500 102.3327 100.1830 102.6565 99.4477 103.4312 118.5886 115.6878 115.4326 115.5872 98.1807 113.3077 111.9932 111.7408 110.5055 109.7854 108.7262 107.6363 106.4977 105.4050 104.5038 103.9660 103.9998 104.5935 105.5256 106.6368 107.7849 108.8361 110.3453 110.2897 112.0540 112.6434 113.3958 114.5156 115.0850 105.6702 99.3430 99.5390 104.4364 103.5000
99.1700 100.6715 101.7343 98.2262 98.9368 116.9707 116.3668 115.7434 115.1491 114.2415 114.3345 113.5964 112.0742 111.0618 110.3713 109.1385 107.9203 106.5666 105.0917 103.5433 102.1014 101.2021 101.2725 102.2630 103.7360 105.2694 106.7410 108.1192 109.2355 110.3982 111.2917 112.0815 113.5040 90.5676 96.4430 96.8077 98.8271 105.6718 102.9413 104.2200
117.8400 112.3620 105.1692 97.1928 102.2198 117.6329 116.1866 115.6995 115.4160 108.0508 113.5787 112.5865 112.3432 103.7444 108.0326 108.4847 107.2276 105.5626 103.6686 101.4542 99.1171 97.1085 97.3077 99.4091 101.7404 103.9161 105.7737 107.3766 108.7958 109.6303 110.8805 104.4862 87.1727 115.4481 99.0429 101.4746 100.2802 104.4056 105.6491 106.1500
107.4400 101.1211 106.8864 107.9776 110.3627 117.5618 116.3041 115.6503 115.1802 99.8353 114.7219 111.9901 110.3078 111.1562 109.8824 108.1063 106.6319 104.7568 102.4118 99.3758 94.8931 90.3979 90.7676 95.5699 99.7651 102.7426 105.0031 106.7862 108.5730 107.2703 111.6699 97.1334 98.7787 96.1309 96.6509 99.9978 101.9038 106.4365 105.9432 105.8900
115.6500 111.7812 100.5280 105.1781 113.0907 118.2245 116.0447 115.2426 115.8395 116.4720 114.5973 114.3239 106.0897 111.3637 109.1010 107.9156 106.3218 104.2860 101.6535 97.9589 90.7529 85.7349 85.9540 91.8485 98.4660 102.0183 104.5640 106.5231 108.3824 109.9864 106.1524 118.5880 113.5306 92.3539 91.7064 96.5978 110.7154 106.9272 103.6605 104.5800
101.2900 108.7033 104.6947 121.8002 117.2667 116.6535 116.0481 116.5250 115.6258 107.8151 113.1622 108.2911 109.3868 107.4091 109.4534 107.9963 106.3105 104.2796 101.6243 97.9195 90.6129 85.3550 85.7208 91.7055 98.4452 102.0017 104.5609 106.5364 108.0806 109.3424 109.3600 112.5232 114.1256 103.3933 103.9582 105.5306 106.4573 113.3765 110.3583 104.6100
102.1700 102.7997 109.5044 119.2483 114.9947 115.8239 116.2916 105.8440 104.4391 114.1990 114.0177 95.0450 108.5307 109.3628 109.4800 108.1689 106.6158 104.7347 102.3779 99.2952 94.4075 90.2451 90.4571 95.4495 99.7170 102.7075 104.9857 106.8178 108.4000 110.0300 111.0786 112.0134 112.1210 114.8418 116.2814 116.9712 107.9688 109.7797 110.9275 117.0500
113.5400 100.6295 94.2470 102.1757 116.8882 115.4370 116.9872 106.7010 114.7230 110.9104 115.2633 106.6910 111.6902 113.4840 109.3239 108.5230 107.1759 105.5275 103.6079 101.4034 98.8772 96.8614 97.0506 99.2578 101.6571 103.8697 105.7441 107.3511 108.7950 106.5772 110.0723 111.7767 112.8997 113.1334 113.9440 109.4433 102.9960 105.8218 101.3776 117.0700
104.0200 115.1373 96.2763 95.7149 118.9265 115.8969 116.4273 116.7825 114.7736 113.3681 99.1124 117.5655 113.6154 116.8310 109.6701 109.2513 107.9007 106.5183 105.0264 103.4754 101.9765 101.0597 101.1248 102.1420 103.6614 105.2260 106.7098 108.0629 108.6089 116.0464 114.6976 112.5842 112.7812 107.3319 116.9773 107.3026 116.4066 107.3389 114.3815 117.4500
104.1300 101.5355 94.3298 103.9783 117.4569 116.8384 116.4816 115.8886 116.3335 115.5777 102.0918 90.9900 90.0231 101.6389 108.0382 110.1417 108.6318 107.6107 106.4437 105.3281 104.4089 103.8514 103.8902 104.5024 105.4716 106.5960 107.7393 108.8642 109.8151 108.5177 109.9303 92.5975 115.5031 117.9950 96.3646 99.0748 100.6402 96.8247 115.6581 117.4900
120.7700 123.8516 121.5651 119.2435 117.3111 117.4935 115.7758 116.7566 93.8238 110.1077 113.7401 112.0490 114.1487 112.7345 110.9860 110.5089 109.5647 108.6683 107.7761 106.9600 106.3228 105.9719 105.9991 106.3785 107.0728 107.8848 108.7810 109.7019 110.5101 111.3700 107.0561 101.4622 105.7229 97.0758 100.6972 96.4887 97.0513 100.7940 103.0730 117.5400
113.5000 113.1537 120.4832 101.1886 107.6681 123.9593 116.4292 102.3756 117.6183 115.4254 115.6554 101.1780 114.5482 112.6943 111.9210 111.1613 110.4211 109.7345 108.9980 108.3821 107.9250 107.6803 107.6970 107.9945 108.4025 108.9450 109.8471 110.5444 111.3130 111.3973 99.7272 109.6288 96.6293 105.5684 106.1603 103.0299 111.5837 100.4902 101.0405 106.2300
119.4400 116.8685 108.2817 100.4954 118.1179 118.0225 116.9825 116.7413 116.1671 115.3335 115.0594 114.7167 113.6887 113.0028 112.6367 111.8487 111.0737 110.6639 110.0990 109.6295 109.2863 109.1053 109.1220 109.3408 109.6189 110.7528 108.3845 113.5698 111.9007 112.6859 112.2804 95.7056 94.0236 93.0867 103.7132 117.5951 114.3007 120.1737 112.1110 117.9800
102.6700 98.4039 102.3233 104.0679 114.6423 117.7706 117.2671 116.8261 116.1405 115.9868 115.2033 114.5320 113.9254 116.2228 113.2865 113.6861 111.6201 111.5282 111.0991 110.7311 110.4692 110.3334 110.3403 110.5143 110.6490 107.4083 99.3144 112.5552 112.5706 114.1655 111.5413 103.2538 94.1156 97.4744 97.8755 111.8472 102.2856 110.7948 115.1961 118.0500
115.8900 101.1756 123.9814 103.1195 107.9553 118.2123 117.5252 116.4708 117.8573 116.1627 115.7143 115.3043 113.4486 97.9073 114.5161 115.1428 113.1604 112.2116 112.0696 111.7381 111.5006 111.4006 111.4260 111.5650 111.4548 112.8259 111.7731 112.7522 113.6699 108.4506 114.6539 98.7056 97.9868 103.9832 103.0946 98.8781 103.4240 97.9018 106.6068 107.2200
116.2900 109.3376 119.1334 120.9533 120.9802 117.6132 117.8345 117.4765 116.0729 116.3498 115.5959 115.2204 115.3652 103.6388 113.6635 100.3963 113.1922 113.0234 112.5817 112.5393 112.4859 112.3788 112.3197 112.4529 112.8377 112.8025 112.9663 113.1706 111.9937 110.2244 102.8616 103.4955 97.7210 96.9272 99.6953 101.9528 103.2462 105.3175 105.0386 107.2200
99.1900 112.9687 125.1671 120.4705 118.2957 118.8926 119.1981 110.5085 100.2217 117.7712 119.9084 104.8235 115.0097 108.9540 97.6554 97.1820 114.1043 113.2851 115.5457 113.8752 113.2024 113.1778 113.4787 113.3599 112.0051 115.7468 112.9324 112.9368 101.6341 102.6482 92.9099 94.9120 99.3433 109.5883 110.0079 97.0816 102.5004 108.1083 106.1404 104.8900
120.3000 103.3004 107.5312 122.4182 120.5681 117.1394 100.6999 121.2510 111.7537 119.0300 100.9970 111.5802 111.3648 95.7028 94.3164 101.8688 114.6265 116.7641 99.2178 114.9730 113.8994 113.8603 111.3940 111.4289 114.3259 98.1609 119.0736 113.3236 93.0404 99.3790 103.1305 96.3622 114.2003 116.7864 120.1584 115.7131 101.5925 103.9255 108.3983 105.8200
120.3700 118.5376 120.5446 108.7289 101.0336 102.5445 111.0159 119.6864 118.1178 118.1187 109.4390 108.7952 102.4085 92.9786 100.7465 93.9957 113.4951 106.0712 91.9066 112.1104 114.0755 114.6195 116.3392 95.6413 101.7011 91.3072 98.9157 96.3016 94.0163 94.3002 99.9019 110.9435 116.6017 117.2258 118.0485 108.9216 117.1463 116.3209 102.6023 106.6500
101.0000 119.5532 118.6025 120.1202 118.5488 117.9073 100.6397 120.1874 118.9491 108.1728 96.5493 114.9027 99.7357 111.4332 109.2030 108.8814 115.7268 94.8296 96.1415 107.5636 114.3015 113.7266 100.6203 92.2450 103.5500 98.8276 108.3277 93.7256 109.6951 96.8949 98.5885 92.5626 97.3536 109.5668 118.0189 106.0467 108.3086 109.1144 98.1525 104.6800
114.3500 118.7484 112.6722 102.8389 104.5230 121.9559 117.5425 119.3021 118.4615 119.3062 102.8219 120.0851 110.4959 115.3313 117.0501 117.2909 115.7404 101.4716 93.2432 93.5996 114.8249 114.7987 105.2819 98.1037 113.4537 112.0259 91.3311 94.2018 111.4190 107.9129 98.2711 102.5751 101.5127 103.5556 118.4586 120.6329 111.7018 100.0150 97.6464 97.8200
114.8300 109.7519 105.0157 104.6206 106.7200 118.0544 119.6783 119.3327 118.3078 119.0920 101.2200 109.9832 106.9897 116.4254 117.5711 117.0036 117.5380 100.1228 110.2268 95.5374 91.5733 99.7144 115.1570 102.3924 118.9971 120.5389 99.4292 117.0523 118.9905 112.3675 96.8588 106.1230 103.5554 117.3474 118.7328 117.8177 120.4051 96.8334 106.0716 101.2300
109.1800 102.3444 107.3809 108.6837 112.3088 111.4988 119.2237 108.8856 114.7873 115.5934 100.3994 105.4952 106.0772 110.3930 117.1706 114.6241 117.8531 97.9934 118.3925 94.4442 95.0923 121.1643 117.0574 118.5335 117.8729 117.6009 105.1850 118.1493 118.5057 113.4826 107.3254 98.6184 99.4438 117.1381 119.1184 119.1127 118.9250 105.9027 121.8748 105.8500
109.1800 109.8522 111.3171 111.9682 122.5641 113.9249 113.3732 120.7106 117.3376 120.6654 114.2283 105.0501 108.3879 115.9610 117.0466 118.3604 111.3142 100.2526 104.7671 98.9920 94.8948 118.1277 117.1273 117.2947 117.7296 118.0802 114.4384 118.6912 119.1873 101.2038 108.9783 98.7435 101.4197 105.7768 116.9975 119.5695 120.7010 120.1347 120.3465 120.6500
109.3500 109.4100 121.2800 120.8700 120.6900 110.3500 104.7500 110.1200 109.2500 119.4900 97.1000 97.1000 97.2200 97.2400 111.3000 118.3800 109.2900 100.6200 99.6400 98.6100 96.7100 117.8700 117.8700 117.8600 117.8300 118.2000 118.1500 118.4600 118.3900 118.6500 103.3000 103.3000 105.6700 105.6800 103.8000 119.7800 120.0100 120.2300 120.4200 120.6500
