105.8000 108.4700 105.4500 106.3200 107.8100 99.8700 97.9600 98.9100 116.0500 101.6400 106.5600 123.2900 119.5400 119.5400 112.8400 112.2600 110.9900 110.2800 109.6800 108.7000 108.0600 107.1200 107.1200 105.8000 105.7600 107.0200 107.0200 107.9300 108.7000 109.5300 110.3700 111.6500 112.2700 112.8500 113.9000 114.3900 114.8600 115.7300 116.1200 116.5000
105.8000 107.8890 105.8878 106.3421 101.0758 96.9072 103.3152 104.4767 116.3492 99.5291 96.4290 118.6947 105.4660 105.2771 112.3093 111.7113 110.9393 109.9822 108.7817 108.5259 89.9227 104.5632 105.1934 104.7385 104.7796 105.3043 106.1424 107.1377 108.1775 109.2113 110.1845 111.0989 111.9722 112.7760 113.5267 114.2358 114.8634 115.5333 115.3586 116.5000
107.1100 107.0838 108.0495 107.4968 99.0998 102.5386 105.6778 107.5354 109.8496 100.5346 98.2500 118.6564 91.0735 113.4990 112.7105 111.3959 110.3546 109.3210 108.3252 106.4791 117.6018 103.6797 102.9710 102.2395 102.3162 103.1785 104.4501 105.8138 107.1532 108.4008 109.5692 110.6225 111.5435 112.4295 113.2317 113.9732 114.8490 115.3155 119.1794 116.3800
103.9700 105.3064 105.3643 105.7303 107.2695 105.2343 95.3050 106.6010 101.3323 98.9226 100.6572 117.6247 106.8111 109.2437 112.0505 110.6221 109.9113 108.6863 107.6924 105.2391 117.5008 101.4712 100.4056 98.7736 99.0012 100.5380 102.5494 104.4576 106.1696 107.6515 108.9762 109.7418 111.2026 112.1379 112.9648 113.7162 114.1909 120.1889 106.8552 116.3800
110.8900 103.7849 111.1489 115.2822 103.6376 97.8483 106.1596 107.9649 101.9765 96.6318 104.5473 113.5120 114.8490 110.0000 113.5251 110.2630 109.5453 108.2476 106.7863 105.0349 108.0047 99.5611 96.3391 92.7131 93.1673 97.2850 100.5536 103.2320 105.3346 107.0709 108.5295 109.7596 110.9188 111.9132 112.9041 113.7696 115.0337 115.5089 107.7447 97.4500
100.2200 109.7293 107.4463 113.8928 102.5942 100.0005 96.9823 120.5653 112.1448 113.3567 113.8592 114.5964 113.3272 113.6057 112.3077 110.3259 109.3149 107.9496 106.3007 104.3151 101.5284 98.2543 91.4102 86.8948 87.2452 93.2408 98.9910 102.3476 104.7780 106.6857 108.2763 109.6024 110.7757 111.7889 111.5448 113.4041 106.2445 115.1161 95.0452 97.2500
110.5900 112.1393 107.8740 109.5180 102.0343 100.2668 103.8560 101.5206 117.4098 115.5128 114.7146 114.1008 113.3327 112.3838 111.5365 110.4232 109.2650 107.8705 106.1951 104.1197 101.4041 97.5301 89.7123 84.3977 85.2106 91.6111 98.4853 102.0713 104.6160 106.5871 108.1883 109.5460 110.7324 111.7750 111.2411 113.4952 103.1279 114.4979 94.9474 97.2400
97.8100 99.9569 101.2089 96.9749 96.4768 96.5789 108.7245 103.4923 117.3103 115.4900 114.8549 114.1483 113.3795 112.5181 111.5978 110.5525 109.4043 107.9987 106.3978 104.4345 101.9259 98.5396 92.7058 88.2488 88.6767 94.3215 99.3462 102.5367 104.9000 106.7672 108.3196 109.6420 110.7955 111.8111 112.7569 113.5165 115.3314 115.0796 115.6818 115.8800
116.8700 109.5040 110.9862 112.9823 106.2898 107.9338 117.6422 113.2346 116.3550 115.5556 114.9188 114.2375 113.4870 112.6836 111.7683 110.7209 109.3348 108.3417 106.8790 105.1354 103.0620 100.4612 97.6188 94.5730 95.0174 98.3343 101.0753 103.5460 105.5467 107.2214 108.6487 109.8884 110.9845 111.9719 112.7602 113.4707 117.6803 114.8683 115.7392 115.8900
123.4900 107.2808 119.1636 116.3227 105.6060 104.6314 106.8946 115.7070 116.1088 115.7117 115.0592 114.3796 113.6662 112.7653 111.9212 110.1730 109.4562 108.8251 107.5789 106.0964 104.4568 102.6744 100.9524 99.8490 99.9859 101.2963 103.0870 104.8367 106.4343 107.8635 109.1278 110.2624 111.2869 112.2060 113.0645 113.8402 114.1160 114.7691 116.3744 106.2300
105.3800 108.0514 107.6044 102.4367 99.3421 117.2253 115.8749 114.2742 116.4516 115.8428 115.2261 114.5782 113.8520 114.1111 112.2230 111.7589 110.7277 109.4875 108.3695 107.1705 105.8868 104.6710 103.5870 102.9639 103.0411 103.8056 104.9262 106.1901 107.4369 108.6230 109.7240 110.7352 111.6669 112.5209 113.3071 114.0305 114.8153 115.4287 115.8791 116.3700
108.6900 112.9283 112.0759 101.9225 101.8868 111.8011 115.6236 115.1110 116.5922 116.0242 115.4335 114.8216 114.0054 114.8610 112.6293 111.9184 111.0254 110.1844 109.2321 108.2525 107.2866 106.3804 105.6737 105.2951 105.3463 105.7995 106.5624 107.4933 108.4699 109.4379 110.3806 111.2686 112.1043 112.8864 113.6233 114.3053 114.9152 115.5492 116.1696 116.4200
107.7600 103.1444 103.4745 103.0088 111.9375 108.3574 117.2490 117.2271 116.7380 116.2205 115.6728 115.0840 114.4816 113.7436 113.1569 112.4322 111.6839 110.8946 110.0955 109.3039 108.5502 107.8846 107.3797 107.1245 107.1297 107.5295 108.0877 108.7496 109.4754 110.2740 111.0749 111.8408 112.5902 113.2965 113.9805 114.6300 115.2820 115.8429 116.1616 116.9200
109.5000 109.0164 119.3257 104.1853 103.2646 105.5884 118.3861 117.2626 116.9467 116.4602 115.9347 115.3915 114.8323 114.2625 113.5025 112.8773 112.2905 111.6215 110.9502 110.3028 109.6950 109.1977 108.8211 108.6366 108.6254 108.4501 109.1639 109.7648 110.4234 111.1008 111.7723 112.4383 113.1008 113.7435 114.3273 114.9504 115.4114 115.2295 119.5638 117.0000
109.3700 116.6744 98.6263 98.8621 105.9713 115.2498 117.9203 117.4969 117.2268 116.7180 116.2270 115.7157 115.1803 114.6218 114.5179 113.6707 112.9384 112.3332 111.7649 111.2311 110.7506 110.3481 110.0637 109.9322 109.9112 109.7170 121.1919 111.4932 111.4733 111.9052 112.4656 113.0359 113.6319 114.2001 114.8231 115.2019 116.6279 117.7629 118.7045 117.0500
104.3200 108.5776 98.7700 106.6800 103.8369 119.1470 115.6414 117.9817 117.3839 116.9822 116.5283 116.0511 115.5650 115.0574 114.5856 113.9652 113.5323 113.0229 112.5443 112.0899 111.6991 111.3797 111.1566 111.0568 110.9857 111.2412 111.6557 110.7164 112.3660 112.6446 113.1398 113.6453 114.1365 114.7555 114.8330 114.5967 114.6726 104.5917 99.2572 117.5100
109.8700 108.6056 108.5101 109.8351 105.1522 102.0052 117.1435 117.2824 117.8197 117.2820 116.8465 116.4051 115.9601 115.4977 115.0572 114.5799 114.1229 113.6851 113.2729 112.8999 112.5699 112.3115 112.1337 112.0398 112.0638 112.1196 112.3893 112.8283 112.9690 113.3682 113.7971 114.2175 114.6672 115.0267 115.6867 120.2685 118.0461 102.8518 112.5442 117.6000
104.1100 106.1176 103.1088 99.6313 100.5277 107.3951 117.5415 116.7373 117.7551 117.6180 117.1862 116.7663 116.3466 115.9257 115.5277 115.1060 114.7028 114.3262 113.9697 113.6492 113.3719 113.1516 113.0107 112.9357 112.9435 113.0386 113.1943 113.3918 113.7158 114.0145 114.4665 114.8844 109.0398 114.7619 109.5275 97.4596 117.9140 117.0707 117.1396 118.0100
107.4200 110.9487 103.2856 99.9296 103.8184 108.4676 103.0290 119.9102 117.7829 117.9868 117.5268 116.9546 116.7326 116.4301 115.9801 115.6203 115.2675 114.9329 114.6223 114.3458 114.1097 113.9243 113.8050 113.7493 113.7566 113.8250 113.9661 114.1691 114.3954 114.7604 114.5411 127.4324 118.9919 114.2772 112.3059 102.5441 108.8244 117.1957 113.8784 118.1100
98.9900 115.0780 105.5306 95.3382 121.3649 122.2243 120.1049 118.9584 118.8486 117.5007 117.3452 117.4962 117.4769 116.3077 116.4732 116.1506 115.8035 115.5105 115.2365 114.9949 114.8015 114.6446 114.5399 114.4868 114.4905 114.5515 114.6704 114.8121 115.0753 115.2813 116.9831 109.2451 100.8436 118.8524 117.7555 111.2981 105.3119 112.2853 121.0975 118.5100
113.2500 103.3981 108.2979 104.4744 116.9777 119.6024 119.2387 118.8938 118.7916 118.5678 119.1651 110.0734 117.2474 118.1589 116.9405 116.6782 116.3186 116.0661 115.8231 115.6115 115.4337 115.2999 115.2113 115.1701 115.1716 115.2306 115.3320 115.5197 115.6081 115.6113 116.1835 106.6805 119.8677 117.4578 117.1958 109.3556 112.4969 101.5197 111.8704 106.8500
113.2500 107.1811 114.7378 122.8712 121.0900 107.7999 120.0850 119.2251 119.1452 118.7707 118.7306 113.2331 119.2445 116.0713 116.7018 117.1312 116.8139 116.5805 116.3735 116.1836 116.0376 115.9184 115.8355 115.8017 115.8104 115.8497 115.9530 115.8912 116.1241 118.9693 118.2791 118.0071 116.4405 117.4138 117.7448 117.7807 119.6933 113.5519 119.1458 125.3300
100.9300 102.7278 112.3747 109.0701 102.2686 110.6823 120.4144 119.5826 119.3854 119.1682 118.7284 119.4255 118.1876 117.4557 117.7083 117.5652 117.3056 117.1147 116.8847 116.7312 116.5931 116.4921 116.4226 116.3925 116.3910 116.4301 116.5338 116.6535 115.0533 112.3975 117.5022 117.2416 117.5930 118.7163 111.8379 117.5097 103.7721 119.5366 119.3801 119.4600
101.2700 116.7520 113.4638 101.9718 116.4246 122.5357 120.6299 119.8378 119.7553 119.4053 119.1599 118.9031 118.6306 119.7921 118.1563 118.4372 117.6096 117.4285 117.3988 117.2478 117.1211 117.0359 116.9710 116.9479 116.9443 116.9749 117.1071 117.6487 106.6294 102.9339 111.7085 118.3213 117.5803 120.3799 96.3911 111.3509 117.5799 120.2407 119.5622 119.8000
115.5800 116.4822 116.8541 120.6041 121.5662 109.8300 110.9537 121.1747 119.7743 119.7369 119.4780 119.3419 118.6938 119.7848 110.6238 113.9751 119.1856 117.9634 117.8692 117.7295 117.6207 117.5438 117.4850 117.4667 117.4625 117.4969 117.6137 117.9561 110.6192 114.8852 101.1635 117.0026 113.7164 118.9178 108.0922 119.9168 113.7627 119.8655 119.7144 119.8800
104.2200 121.3673 121.5051 117.8277 105.3933 122.1677 120.1629 120.6050 120.2560 120.0477 119.7973 119.5614 118.4092 121.7726 99.5793 109.5901 119.5731 118.3417 118.3207 118.1984 118.1017 118.0242 117.9766 117.9533 117.9590 117.9813 118.0532 118.1012 118.4253 117.1627 102.4059 119.8756 122.7146 111.8057 119.0924 119.1105 119.8069 119.7002 120.1230 120.2400
122.1300 117.7922 123.9115 106.8881 116.6332 121.6236 120.8134 120.7952 120.5413 120.3228 120.1100 119.9411 119.7698 117.1950 108.0131 119.9420 118.8374 118.8911 118.7343 118.6334 118.5515 118.4828 118.4428 118.4193 118.4116 118.4369 118.5208 118.5770 118.3160 119.2794 118.4659 100.1689 111.1597 111.5937 102.3224 119.8927 119.7732 120.1654 120.3728 120.5600
122.3800 122.1689 122.4984 122.5723 123.4727 120.4265 121.6340 121.0325 120.8223 120.7092 120.3600 120.1507 120.3371 118.6425 122.5145 119.2248 119.4856 119.2483 119.1899 119.0740 118.9750 118.9155 118.8738 118.8592 118.8737 118.9283 118.9811 118.5761 119.2617 119.0828 115.5929 107.1221 108.9590 117.9830 117.1997 119.8656 120.3735 120.4159 120.6457 120.9400
118.5100 122.4350 121.7519 121.9936 122.0038 121.3126 123.1132 120.8506 121.4919 119.8464 120.5994 120.5967 120.2695 120.5540 119.7435 120.6496 119.4122 120.1513 119.4598 119.4563 119.3860 119.3354 119.2975 119.2828 119.2721 119.1449 119.1445 119.3874 120.1875 118.1652 115.6179 104.9207 108.8842 108.6852 120.9708 120.3224 120.4976 120.7957 120.8979 120.9700
113.9600 122.2552 122.4816 122.3802 122.1306 121.9152 121.6231 121.4545 120.1502 116.1428 120.8251 120.8137 120.6994 120.4678 118.5955 108.7099 120.8894 115.5034 120.0476 119.8656 119.7825 119.7256 119.6870 119.6619 119.6690 119.8745 119.8102 119.6810 121.4939 107.1279 117.5186 108.5510 111.0229 114.0897 121.4440 120.5120 120.7640 121.7673 121.1960 121.2700
113.9600 122.7854 122.7297 122.5097 122.3164 122.1499 122.4535 124.2030 119.5600 126.2123 121.3219 121.0868 120.8924 120.5233 121.9729 112.7966 119.0913 117.2391 120.5414 120.1800 120.1074 120.1153 120.1085 120.1559 120.0184 120.1409 116.0032 120.3807 122.7131 99.7108 110.6603 110.0793 103.9390 109.3536 112.6203 121.1263 116.5394 119.4236 121.5002 121.6200
123.2400 123.0041 122.7030 122.9350 122.6582 122.3835 122.2787 120.8210 126.3672 123.9000 121.9349 121.4413 122.0661 120.5002 119.3464 96.9077 119.2277 123.0449 120.4169 120.6931 120.8123 120.4520 120.3369 120.1847 120.3786 119.7601 131.9700 116.6375 115.2312 109.2621 107.2694 108.2513 107.8090 122.6237 120.0877 122.0651 121.6813 121.8724 121.5582 121.9300
123.4800 123.3654 122.9446 123.8513 119.8085 122.7093 122.3886 123.8759 105.3310 105.0999 121.8136 123.0557 112.0602 122.1330 120.2637 108.1117 121.7340 120.8972 120.8859 118.8932 119.2502 121.0360 122.2595 121.3401 119.6509 120.9662 118.1468 104.9653 101.5937 103.5812 116.6417 111.6550 117.4737 121.4146 121.5130 121.6794 121.4323 122.7153 122.0812 122.2200
123.4800 123.5488 122.7098 113.9960 124.3899 122.4160 122.5437 124.2608 116.5257 119.2785 123.6492 117.0474 115.1605 124.2498 117.6170 98.3700 121.2857 119.1519 120.7024 116.1267 119.8935 120.9360 107.9999 102.3349 107.2422 128.0236 107.3974 100.2640 104.8491 122.6400 108.7975 107.9649 122.3165 121.4284 121.6297 120.4200 123.4231 116.9098 124.3341 122.4600
123.7600 121.6163 125.9510 118.6067 124.5738 122.8515 122.6648 122.6446 122.6628 122.3537 119.6232 118.2778 123.6387 121.4781 101.6430 109.9295 121.5638 122.1698 98.8764 111.1543 116.3742 120.9725 108.5423 103.0306 100.9621 103.3276 112.1463 109.7389 114.5969 119.5754 108.6888 121.8112 122.6532 122.4289 123.6216 135.0085 131.9943 118.7718 123.3222 122.5000
123.9900 101.0356 121.7192 123.5693 123.3664 123.2714 123.1464 123.0592 122.9339 122.8457 118.8185 122.4207 121.9125 123.6304 123.2143 111.3497 122.6651 123.7183 106.5831 101.1149 112.3645 120.8259 114.1999 113.9808 109.0584 109.6645 114.2945 107.1487 124.5826 109.1192 120.0392 121.2475 117.8310 122.0206 118.5802 116.3086 105.7730 108.8851 122.6865 122.7700
124.2300 103.4289 125.6125 123.9109 123.7048 122.7817 123.2406 123.2895 123.1126 122.7156 122.9728 123.0235 122.7942 122.4807 122.3047 123.6327 122.4698 119.3082 120.3049 109.1009 99.8681 118.5382 112.5724 108.4224 118.2025 124.4109 123.7894 117.9833 122.5889 123.9495 121.7083 119.4419 118.6491 123.7312 121.8538 118.5590 106.5376 120.6542 125.0215 123.0500
104.6300 101.2065 127.5384 110.9584 124.9478 123.6779 123.9882 123.2450 123.5778 122.9689 122.1766 121.6108 122.7430 122.7927 122.7353 120.8563 120.9846 118.1434 111.0148 102.8215 116.7002 123.1906 124.6521 124.0048 122.9063 121.7428 122.0631 122.7651 122.3802 121.4646 112.0520 116.9311 122.4469 122.5734 122.6834 123.7818 100.9034 103.2260 121.9600 123.2900
124.4600 123.6557 125.1745 121.1112 120.8518 107.1963 126.4326 124.2816 123.2172 124.2030 122.6515 121.1965 123.3717 124.4073 121.5394 123.9280 110.1013 120.8818 103.9175 104.7641 121.2735 122.1054 121.9716 122.1608 122.4490 122.6903 122.7569 122.6980 122.5371 123.4072 107.0649 110.9703 118.0082 123.4300 122.8954 124.1441 121.5931 122.0206 125.7076 123.5100
124.6800 124.5300 124.4200 117.6900 124.1500 124.1500 118.4600 133.8600 123.7300 125.7200 107.9700 107.8900 123.3200 123.3700 101.7000 123.0400 122.1500 102.4300 107.7200 102.3100 122.9400 122.7300 122.7400 122.7500 122.7500 122.7400 122.7300 122.9500 122.9400 122.9000 123.0900 111.5300 123.2300 123.1900 123.3600 123.3300 123.5000 123.4600 123.6000 123.7800
