113.9500 112.8200 112.8200 105.5200 107.0100 107.9500 109.1500 109.1500 102.7100 102.7100 124.4000 124.4000 117.3200 115.4600 123.9800 124.0300 123.9000 123.7500 123.7500 123.6000 101.4400 106.2100 123.3000 123.3200 123.3500 123.1600 123.1900 123.2000 122.9800 122.9900 122.9900 122.9900 122.9900 123.2100 123.2000 123.1700 123.1500 123.3400 123.3200 123.2900
113.9500 117.2149 114.7275 106.7017 115.4833 110.1188 105.9456 107.7316 101.8162 112.0470 124.5246 124.3058 122.2138 120.6536 124.6309 123.9213 123.6083 123.6347 123.1787 125.9436 108.4902 120.1947 123.9676 123.1525 123.1583 115.1547 121.0972 122.8676 122.9696 123.2974 123.6793 123.4041 110.7236 121.7363 122.4018 123.0795 123.0592 123.1054 123.1612 123.2900
109.5400 113.4716 110.7773 108.6936 110.6884 113.3262 105.8472 105.3812 104.6444 120.0720 128.9701 123.8696 122.5122 123.6162 123.4212 116.5416 123.4929 123.3568 123.4073 123.3076 121.6231 116.6424 123.1358 122.6957 124.4475 109.5242 117.6220 122.5547 122.7455 122.1933 118.2734 122.0447 123.4247 122.5776 122.7437 122.7433 122.7909 122.8461 122.9052 123.0400
109.5400 114.7284 115.4009 111.4708 120.1407 106.6214 118.0030 104.1775 113.6193 105.2604 113.1455 123.7808 123.9456 123.7145 123.2102 123.0961 123.3393 123.1311 123.0054 122.7568 123.4444 122.4863 122.7495 122.5309 119.0241 111.7488 110.6180 122.5846 122.0876 122.3193 116.1867 122.1770 122.0735 122.4603 122.4352 122.4677 122.5168 122.5705 122.6375 122.8000
118.7700 114.4810 113.7965 112.2032 108.3448 103.5977 108.6628 111.5649 109.1498 122.6764 119.2538 124.3600 123.4386 123.1894 123.2503 123.7329 123.0279 122.9284 122.7510 122.6793 122.4709 122.4523 122.8795 122.7114 113.1884 110.1309 111.1036 121.1249 121.3722 122.7358 124.0896 122.5117 122.0308 121.9025 122.0269 122.1767 122.2298 122.2982 122.3629 122.2700
111.9800 110.5086 107.8470 113.9513 108.3431 107.2608 109.5546 114.7015 106.1454 116.6029 124.7484 124.1569 122.7120 124.5738 116.8479 124.0713 122.4272 122.6291 122.5140 122.4024 122.2775 122.1565 123.2941 109.6830 103.6633 111.1458 112.4704 111.8966 117.1630 120.6387 107.6267 120.8495 121.4595 123.1000 122.2645 121.8858 121.9023 121.9743 122.0855 122.0000
105.3300 107.9566 108.8209 108.2100 107.0529 105.9826 109.3085 112.8453 101.3402 111.3805 125.2492 120.3078 108.3202 122.8269 100.0381 116.4390 121.0545 122.4528 122.2753 122.1220 122.0716 121.7037 122.5396 110.5616 101.9455 101.2118 107.3631 109.2140 117.5537 122.1510 119.2986 121.3837 119.1764 111.1294 122.0760 121.6056 121.8897 121.9653 121.8275 121.7200
105.4200 103.4857 113.8654 113.3520 107.1478 106.8932 116.1079 116.2709 123.1347 115.4066 120.7279 123.3314 121.7798 124.7363 102.5296 100.7745 107.6510 123.8050 121.9949 121.8735 121.5070 121.6596 123.2808 110.4525 101.7008 100.4536 108.6215 108.7377 119.1384 120.6841 101.6052 121.5079 102.8467 101.2342 123.9946 119.3222 114.0505 122.1008 121.4150 121.4200
103.1900 106.8491 104.0043 113.6709 109.3995 107.0313 116.9110 111.2469 109.5585 112.0568 121.3146 122.4579 124.3118 105.4159 100.0641 97.5544 109.2321 123.4879 121.6692 121.5817 121.3919 120.1571 112.7836 105.9090 99.5974 99.2494 108.6146 108.3286 105.0970 120.7641 99.9028 106.8121 104.2646 103.9871 104.5483 106.8888 120.6305 116.4741 121.0746 121.1200
108.2700 103.2279 103.3583 98.3748 111.0261 106.9739 109.3182 116.4347 124.6625 123.5981 124.3591 123.5946 112.1059 101.4299 102.7974 109.4882 124.4459 121.2177 121.3750 121.3253 121.1622 116.6365 99.7256 107.6636 105.4957 105.3145 105.6498 114.3623 116.2419 119.5555 97.6538 102.0283 97.7466 117.9134 109.4405 101.2643 124.1465 120.0983 120.5516 120.8000
106.7000 112.9012 102.3797 104.7481 105.6704 110.0439 105.2802 108.6600 122.7299 122.7174 116.4845 112.3630 103.8471 107.4237 111.2236 122.9129 121.6641 121.4616 121.1641 120.7562 121.4784 122.2753 111.4666 110.6193 108.8540 99.8183 102.7408 109.6743 110.8165 102.7333 101.1666 117.9054 101.2818 119.0887 120.8444 115.5409 118.4040 120.4910 120.5183 120.4800
106.7000 111.1673 106.7249 104.2461 107.9289 113.3965 114.7645 109.0878 124.0470 122.3415 114.2346 104.7220 108.5660 110.7203 107.4776 120.6894 119.9984 114.3599 118.8883 120.4854 119.7305 104.6046 104.9490 102.0643 107.2174 118.9251 100.1470 104.8121 102.8524 100.5726 112.1587 105.2410 117.7105 119.0960 122.7659 108.5139 121.9870 119.9795 120.2437 120.1400
107.7300 101.1139 110.4028 102.0742 103.0046 107.6779 117.8282 120.0363 122.5273 121.8811 123.4458 104.2924 114.4855 113.3008 120.7655 116.9949 120.4755 119.2282 119.4003 120.5008 122.0058 120.4356 102.7804 111.6735 110.9590 97.9412 100.6952 105.1680 98.0744 111.4399 116.5967 121.1003 120.7531 119.4721 120.3214 120.9595 119.3451 120.3225 119.3261 119.7800
101.7700 101.4126 100.9415 102.9706 105.2320 102.7206 120.2545 122.2723 123.1052 121.8219 122.1724 118.0908 103.2071 103.1581 105.5192 120.7020 120.8815 120.6191 120.2427 120.0978 119.3620 121.2012 115.6993 102.3128 121.4940 99.8444 110.9493 114.6136 98.8340 117.5363 122.1847 118.5401 118.7487 119.0445 118.9580 118.9085 119.2161 118.9771 111.3742 119.4200
105.3600 114.8112 103.7055 112.8050 104.2811 102.1598 120.5431 122.0879 122.8430 99.8158 125.2060 124.8395 122.6690 118.5615 102.3438 119.8133 120.5668 120.0818 119.8680 119.7194 119.5932 118.0323 106.8241 100.5292 116.9187 103.1681 106.4062 104.1614 93.5450 119.3451 117.5725 118.5400 118.4967 118.4860 118.5818 118.7071 118.7496 119.6278 120.7103 119.0200
101.6700 103.6916 103.2598 108.7794 99.5350 106.2308 121.6225 121.8144 123.6714 111.3238 105.7933 103.5240 121.1577 117.7425 107.4606 121.8264 119.6754 119.8348 119.5435 119.1867 119.3616 112.7317 111.0419 106.1090 119.4014 101.8179 111.5226 117.8315 107.5924 116.9951 117.9053 117.9522 117.9933 118.0676 118.1498 118.2461 118.3991 118.2103 118.5831 118.6100
101.4400 102.7749 104.8610 102.8217 100.8405 100.8367 116.3418 123.9393 106.8052 103.9490 98.9234 105.9918 123.5629 120.6449 120.2599 119.7360 119.8043 119.4039 119.2423 118.9217 118.6403 114.5622 119.8753 124.0112 99.7615 95.4677 100.2632 117.0785 110.4291 118.0272 117.4903 117.5039 117.5433 117.6034 117.6783 117.7950 117.9161 118.1239 118.2636 118.1700
101.4000 101.0575 115.7433 116.7762 107.4270 102.1717 108.6213 110.5664 124.4150 103.0349 101.2015 120.9985 120.1947 120.1465 119.7489 120.0174 119.4045 119.1356 118.8655 118.5829 119.4702 109.6049 118.1005 112.5973 119.5700 107.4049 104.8347 115.9621 117.0939 116.8424 116.9946 116.9479 116.9473 117.0622 117.7467 117.1566 117.4675 117.6278 117.8313 118.1700
114.3900 112.4453 115.8215 107.3531 119.9892 125.6847 118.8338 118.0989 121.4995 118.9804 95.4115 102.1569 98.5154 120.5268 117.8291 118.4166 119.5488 118.8015 118.3112 118.8566 109.5012 100.4059 116.1491 118.3890 116.2801 111.7488 116.0340 119.3875 114.6961 116.2945 115.0500 116.0464 116.8708 116.5315 116.6355 116.8089 116.9613 117.1722 117.3896 117.7200
104.0100 112.7276 104.4847 99.4246 106.0346 116.2687 117.4852 118.5783 116.6865 121.1897 113.1588 115.5997 95.5424 107.4084 119.3741 104.8027 118.5429 118.1663 118.3149 109.9869 102.1917 103.3465 99.3576 117.1181 105.4033 89.8148 95.2785 104.1823 116.7763 115.9339 100.3369 115.6365 115.5436 116.0034 116.1074 116.2659 116.4640 116.6776 116.9196 117.2300
100.8700 103.4937 98.5610 99.1152 108.3436 109.8267 108.1197 108.3727 100.6745 117.0176 116.1536 106.5444 101.7501 107.9051 121.3612 103.7766 118.9619 118.0540 118.2222 103.9217 99.3057 99.8904 96.1847 105.5740 115.5749 118.7475 109.1835 91.9388 117.1853 115.5154 115.2280 115.1834 115.2763 115.3588 115.5112 115.6940 115.9165 116.1681 116.4334 116.7400
100.8200 101.8429 106.8015 112.9858 108.9690 115.6159 104.9896 106.9802 102.2855 95.8659 121.1953 121.2982 114.2251 119.9741 118.6775 113.9595 120.0246 113.1573 117.4433 111.1674 106.3446 97.2465 99.0219 100.2479 113.7639 113.5494 117.8258 108.9914 98.2404 113.4285 114.0735 114.5105 114.5845 114.7053 114.8852 115.0983 115.3483 115.6287 115.9326 116.0600
117.6100 101.4228 105.4371 96.7544 105.5633 110.5949 104.1286 101.7780 103.7184 112.2595 107.3874 122.7467 119.8849 120.3047 121.4772 118.5663 111.9663 111.2474 117.3661 117.1655 116.3456 110.4406 95.3450 94.2308 108.2727 115.3256 114.1408 114.1550 113.8963 114.9189 113.6824 113.7795 113.8675 114.0088 114.2106 114.4629 114.7472 115.0649 115.4089 115.5600
120.8900 108.1363 103.9155 111.7320 108.2034 105.7007 106.0465 105.6449 101.4932 102.0359 95.3702 102.7258 106.0333 105.4012 104.0314 104.2584 95.8553 112.3174 116.5295 116.2251 115.7436 116.6092 93.7152 90.8089 104.9351 113.5710 113.5191 111.9983 107.1562 112.6727 112.8740 112.9687 113.0759 113.2513 113.4856 113.7760 114.1143 114.4781 114.8651 114.9400
122.0800 113.9197 100.4106 100.2064 124.6629 118.7515 119.2474 100.7387 101.3117 119.6877 108.9164 103.3398 96.0799 108.2461 118.8352 95.5238 113.4625 117.6386 116.4001 115.8496 115.7808 116.3686 92.3360 106.0593 114.9265 112.6949 113.0051 112.5805 112.6339 112.2395 112.1275 112.0841 112.2077 112.4237 112.7042 113.0485 113.4392 113.8593 114.3088 114.1900
113.3200 108.6442 125.1504 103.2464 120.3194 122.4775 122.1422 103.7159 120.3501 111.0773 104.2511 101.7952 97.7423 121.8493 119.7643 116.4579 117.0457 116.3651 116.0584 115.2163 114.7838 94.0073 119.7855 100.8843 98.0978 115.0278 110.2627 112.2439 111.1675 111.0944 111.0655 111.0987 111.2534 111.5083 111.8630 112.2638 112.7114 113.2404 113.7427 114.1200
100.9300 113.0337 124.3733 101.6808 123.2830 120.7964 120.5588 121.2806 120.9198 119.3504 120.9554 121.1873 99.2813 107.6322 115.9030 117.1844 116.3832 116.2460 115.6038 114.8543 117.2034 96.6852 112.6470 109.8009 93.1007 116.1537 109.5194 110.4094 110.3088 110.0666 109.9459 109.9855 110.1864 110.5080 110.9480 111.4802 111.9488 113.0500 113.0065 113.4500
101.3000 113.8949 122.4991 104.1381 122.1414 121.0441 120.6036 120.4233 116.9777 119.7315 118.7392 118.1781 120.1116 106.4137 96.7967 118.4122 116.1484 114.9951 117.3643 114.8610 113.8546 113.6765 112.8833 111.3033 112.4994 112.2764 110.7857 109.8667 108.9878 108.8007 108.6597 108.7119 108.9883 109.3782 109.8463 110.2347 111.1836 107.6761 113.8106 113.2500
100.2000 118.4133 121.1936 112.1210 120.3567 120.4015 120.5057 120.6485 107.5590 119.4217 118.7972 119.1521 110.0720 119.8583 114.4073 113.9225 116.1261 112.9771 103.0689 114.1322 113.6258 112.8073 112.1542 111.6055 110.8160 110.0241 109.2333 108.4784 107.7907 107.3572 107.1418 107.2238 107.5924 108.0138 109.2884 110.8516 111.4303 94.0533 108.2261 112.5100
105.7100 121.1903 124.9965 122.6629 122.4904 120.5854 120.3496 120.0801 118.1840 115.7556 119.0175 118.5968 107.4989 118.4474 98.9363 116.7578 116.0790 116.1850 117.5761 114.9068 113.3557 112.6159 111.7834 110.9434 110.0334 109.0715 108.0907 107.1207 106.2794 105.6229 105.3140 105.4365 105.9759 106.6551 110.9582 95.1988 105.8343 95.4643 95.1072 99.1800
122.1400 121.6738 123.2824 122.1727 120.7815 120.6334 120.3318 119.9400 119.6804 119.6497 118.7444 118.3211 119.5741 119.0277 109.0131 118.0280 115.3203 113.4424 114.1375 113.6247 113.0366 112.2085 111.3034 110.3527 109.3106 108.1863 106.9762 105.7141 104.4892 103.4932 102.9813 103.1839 104.0580 104.9748 106.7156 111.0412 104.9837 109.6603 102.0992 97.0100
122.1300 122.3472 121.0884 120.6722 121.1742 120.5735 120.0452 119.9674 119.4154 118.6412 118.5604 118.2277 117.4445 116.9911 117.9191 116.9779 115.6635 113.3572 114.4614 113.5623 112.5853 111.7499 110.9327 109.8474 108.6634 107.3333 105.8404 104.1821 102.4092 100.7589 99.8479 100.2376 101.5998 103.4836 105.0105 107.0064 107.4282 121.1363 98.2617 111.2100
112.9700 121.9208 122.1104 122.4634 120.8454 120.2548 121.0279 119.6393 119.9998 120.4992 118.7942 118.1198 117.7181 117.2164 116.4839 115.9252 115.4634 114.9523 114.0920 113.2065 113.2481 112.1306 110.5957 109.4109 108.1252 106.6107 104.8236 102.6723 100.0432 97.0395 94.5082 95.5797 98.8730 101.5516 103.9223 105.9096 107.6073 111.0300 101.9320 111.1100
108.0000 123.1442 124.1659 106.8669 122.8771 121.9951 105.5621 120.2770 122.3585 100.7088 116.7565 117.3325 117.3696 117.1443 116.6099 116.0298 115.3992 114.7243 114.0358 112.8936 111.9769 108.0112 110.5302 109.3555 107.7589 106.0898 104.0522 101.4113 97.9811 91.5545 88.0093 89.3350 95.4820 99.9468 102.9821 105.2566 106.9958 108.4790 108.0096 110.2900
112.0100 111.5506 111.2543 108.1358 109.2078 106.4623 104.2548 119.6290 111.0561 98.5461 116.7285 116.7767 115.9764 116.3060 116.4538 115.9962 115.3718 114.7023 113.9746 113.1646 112.3138 110.7454 110.4226 109.0771 107.6063 105.8935 103.7066 100.8224 96.5860 88.3670 84.0659 85.7812 93.2518 99.1646 102.5636 104.9862 106.9163 108.4373 109.8844 110.2500
111.9600 111.2391 110.8664 108.7103 106.9198 119.4297 102.4259 119.0962 110.4624 97.6770 116.1120 117.1436 114.6924 116.4631 116.5050 116.0068 115.3922 114.7198 113.9906 113.1973 112.1965 111.4899 109.9093 108.3661 107.7801 106.0120 103.8977 101.1533 97.3311 90.2452 86.2327 87.8452 94.5510 99.6093 102.8035 105.1218 106.9849 108.5143 109.8227 110.2600
110.4200 105.8467 106.0661 105.5738 103.3946 103.0635 101.3699 99.6048 100.5367 110.0151 111.2055 116.4880 101.7158 118.1124 116.7270 116.0323 115.3376 114.6447 114.2256 109.4279 112.4505 103.3254 113.1069 101.5103 108.6692 106.4750 104.5441 102.2556 99.3784 95.4743 92.2974 93.6299 97.9096 101.0411 103.6053 105.5919 107.4624 108.7046 110.0086 111.0600
101.0200 101.7082 103.8556 105.1193 109.3770 115.3101 114.0020 104.9431 120.2668 120.5496 98.4044 116.7956 118.9584 117.1796 116.6960 116.1321 116.1341 116.0040 111.6239 103.5159 113.0597 111.7431 104.5419 110.6762 108.2555 107.1063 105.5251 103.7154 101.8186 99.8316 98.5665 99.1341 100.7679 102.8721 104.7768 106.3764 107.4949 107.6206 110.3626 111.1400
112.0000 111.8462 111.5688 117.7477 109.7827 106.6042 119.3501 106.2097 120.6062 118.5198 120.7690 118.5125 117.4892 117.3543 116.7737 115.9820 110.5310 110.2222 100.9432 97.0695 113.6455 112.2134 111.7708 110.1526 109.1497 107.9111 106.6217 105.2724 103.9227 102.7114 102.1022 102.3540 103.3350 104.6580 106.0402 107.3517 106.9606 107.9205 110.7411 111.2600
104.2900 109.6200 102.7800 99.3000 121.0700 107.8700 101.2700 119.8600 119.5900 119.3200 117.6000 118.4500 117.8200 117.4800 116.7800 116.4000 98.5900 93.1700 113.1700 113.7500 113.2200 112.0600 111.4200 110.7800 109.1900 108.3200 107.3600 107.3600 105.3800 103.6300 103.8900 103.8000 105.2300 106.3700 106.3700 108.4500 109.1800 109.9800 110.7200 111.4100
