106.3600 107.7100 107.6200 107.3100 101.1400 98.3200 98.5500 101.0600 117.7900 112.7000 101.5400 104.0700 114.3600 118.1000 116.6700 116.3900 115.9500 115.5600 115.1700 92.8400 97.0400 111.4600 113.5900 113.1000 113.1000 112.5200 112.6000 111.8500 111.8500 112.6000 112.5300 113.1100 113.5900 113.5900 114.0000 114.3400 92.8500 94.1800 95.0800 96.5300
106.3600 108.4700 107.4848 107.1859 103.6566 102.6219 98.0015 108.7048 107.0529 108.3754 103.7963 111.1231 106.1740 113.4629 116.5401 116.3810 115.7473 115.1009 108.9258 108.6157 98.5385 108.8849 113.3259 112.5513 112.2077 112.0496 111.7967 111.6523 111.6893 111.8174 112.0389 112.3342 109.9656 115.1614 113.1217 112.9260 91.0775 95.0417 93.2835 115.9600
106.7300 109.6449 105.0296 105.1924 105.6474 106.6039 100.5418 107.1599 103.4848 96.2317 93.3405 122.9668 106.2378 116.9092 115.9036 115.8351 115.3868 114.9521 104.5725 114.3140 113.4573 109.1662 112.2019 111.7636 111.2872 110.4376 109.4917 110.6253 110.6642 110.8192 111.0944 111.4644 111.8643 111.6431 113.7535 115.4362 103.0836 100.1738 99.3508 115.3300
109.5200 109.4892 105.4047 103.4636 104.0526 102.5255 104.2678 111.2215 116.1561 113.2358 110.2817 111.7603 100.4091 117.3470 115.9967 115.4900 114.9644 114.7724 115.9505 107.3905 109.8382 108.1450 111.6360 110.8079 110.2468 109.9041 109.6446 109.4448 109.4808 109.6822 110.0518 110.4863 111.0652 111.6253 113.3558 94.4602 116.4617 105.2699 94.7548 115.2700
105.1800 104.7866 105.7308 104.3613 102.5236 102.9844 105.5995 113.1529 114.1572 119.9871 120.2345 118.3624 109.8698 115.8538 115.9311 115.3523 114.7151 113.8770 112.7305 111.1978 111.8206 111.5149 110.6211 109.8896 109.2026 108.6531 108.2445 108.0536 108.1242 108.4027 108.8647 109.4567 110.1417 110.7544 112.5031 106.8778 103.8557 109.5113 108.1849 92.5600
105.9100 106.9697 104.2405 101.9480 102.3415 101.9816 103.3344 118.3232 114.9251 117.9795 117.0202 116.8849 116.8264 114.6934 113.0883 114.2240 114.1235 113.6068 112.9519 112.4699 111.5603 110.4666 109.6652 108.8130 107.9925 107.2617 106.7230 106.4533 106.5156 106.9053 107.5363 108.3215 109.1456 110.0397 110.8699 111.9480 111.8958 115.0028 96.8270 92.4400
105.8100 106.2719 105.6767 102.2861 102.0262 103.7932 119.2648 97.1897 120.4803 117.7857 117.5035 117.0869 116.5614 105.9380 92.6164 117.2809 113.6528 112.9589 112.5630 111.6379 110.7669 109.8116 108.7900 107.7252 106.6476 105.6453 104.8664 104.4463 104.5489 105.1403 106.0424 107.0802 108.1599 109.1942 110.1940 111.0871 112.0038 112.8419 112.9463 113.8300
107.6600 107.7759 107.1587 105.8694 101.9744 106.2920 116.8804 109.8068 120.1364 116.1217 117.5522 116.8157 115.9483 118.6073 92.9604 93.9074 91.3447 113.9516 111.8655 111.1809 110.2162 109.1215 107.9228 106.6044 105.2042 103.7664 102.5404 101.8305 102.0255 103.0075 104.3422 105.7826 107.1579 108.4185 109.5700 110.6268 111.6265 112.2720 112.4722 108.2500
102.7500 107.8719 103.4504 108.3819 104.2887 107.5012 116.2753 109.6047 108.7815 117.8427 117.3161 116.5090 115.7772 116.8208 98.5771 113.7058 112.1128 113.6104 111.8690 110.8295 109.7529 108.5213 107.1318 105.5299 103.6972 101.6266 99.5796 98.1569 98.5039 100.3696 102.4900 104.4704 106.2089 107.7247 109.0360 110.2084 111.2407 112.4386 113.2110 131.4200
109.8400 107.8624 99.3046 102.2399 102.3400 109.3954 116.3312 112.5414 120.0193 117.4736 117.6312 117.7566 117.6900 114.8994 116.6663 114.0763 113.2775 112.3103 111.5569 110.5593 109.3889 108.0429 106.4810 104.6200 102.3003 99.3540 95.2543 91.6353 92.7562 97.1755 100.6246 103.3153 105.4277 107.1620 108.6287 109.8893 110.9953 112.0348 112.0507 113.5800
101.5500 102.2540 104.6002 104.5680 100.8292 107.8446 112.5175 116.2115 118.2820 117.3914 117.6937 108.8880 108.6556 103.6670 106.9076 113.2202 113.3959 112.4906 111.5119 110.4087 109.2091 107.8455 106.1653 104.0293 101.3025 97.4410 90.2655 85.8031 86.9400 93.6278 99.2043 102.5277 104.9297 106.8234 108.3791 109.7034 110.8702 111.9451 113.0495 113.5300
107.2600 109.5085 110.2459 107.6669 98.0910 100.3110 111.4903 121.0487 117.9206 117.5024 118.8862 90.4691 89.4696 88.8197 89.2556 107.7910 113.0220 112.3660 111.4280 110.3582 109.1710 107.5414 105.5233 103.8168 101.2997 96.9921 89.1073 84.5625 85.6449 92.6343 98.8915 102.3664 104.8352 106.7589 108.3373 109.6854 110.7164 111.7052 112.8177 113.5100
107.0900 108.0321 107.1765 105.4392 103.1451 110.7645 115.8596 119.2338 118.0225 117.4390 118.1844 110.3223 109.5788 109.7722 93.0016 115.2403 113.7971 112.4243 111.5151 110.5196 109.0413 108.6130 108.1690 105.0625 101.5395 98.3120 92.2894 88.6465 89.5846 95.3873 99.8347 102.8781 105.1495 106.9524 108.4627 109.8039 110.7557 112.4035 112.2497 113.5300
106.2800 100.2875 99.6953 105.3175 110.3518 114.1234 114.1749 118.8629 118.2399 117.6967 118.7348 101.2203 105.5428 101.7020 116.4257 104.4828 114.4306 112.3746 111.6971 110.2442 111.0623 94.4523 92.9648 104.6684 102.5110 100.6209 97.7192 95.2438 96.0378 98.9150 101.5689 103.8916 105.8172 107.4939 108.8797 110.1413 111.2862 101.7990 114.7919 113.5800
103.3300 107.2906 97.1137 99.1254 110.9670 110.0557 113.1435 118.1191 118.4519 117.8354 117.2075 111.6954 115.9343 96.7587 115.9469 103.1320 113.8193 112.6098 111.9764 110.8774 109.8050 105.2665 104.5265 108.5789 103.3933 102.8074 101.1674 100.2609 100.5013 101.7632 103.4908 105.1559 106.6790 107.9624 109.1437 110.4241 111.9303 100.5983 97.2278 98.4000
107.8200 106.4647 104.3185 113.3972 108.4107 122.5520 124.2058 120.4945 118.6554 117.7155 118.6055 118.0226 116.8414 114.1118 115.6811 114.3149 113.8093 113.1012 112.2743 111.4690 111.1320 109.6735 102.0401 107.9710 105.7062 104.8363 103.7961 103.2407 103.4039 104.1583 105.2574 106.4726 107.6494 109.3724 110.7819 111.1423 112.3238 111.6055 97.2037 97.1200
109.8500 108.4863 104.1565 103.3486 106.0361 115.5619 117.8071 118.8957 118.8270 106.1527 95.4188 119.0022 116.3707 116.3545 109.6271 114.9838 113.9248 113.4625 112.7216 111.5730 113.0395 88.7059 108.4591 108.2392 108.2788 106.4944 105.7875 105.5721 105.6289 106.0891 106.7976 107.7382 108.6189 111.0915 101.3549 104.3741 110.3536 100.3037 98.3307 92.3300
105.8800 103.3273 101.8332 100.8682 101.0422 106.4129 119.3467 118.4137 118.5394 118.9736 117.5818 117.0491 116.7718 116.1307 115.6690 115.1137 114.4689 113.8096 113.1112 112.4342 112.4428 109.6929 111.9989 101.1347 106.3092 107.7572 107.9540 107.2248 107.3992 107.7244 108.2072 109.3979 110.4468 111.2421 88.4167 91.2485 105.3725 108.2129 111.7670 114.4400
105.0100 109.1228 108.1395 105.8747 109.2722 107.0323 118.6096 115.8211 118.6820 117.4162 112.3716 116.8283 116.8985 116.9050 116.1439 116.1482 114.7704 114.2373 113.6013 112.9836 112.0796 111.5366 104.5349 99.9055 109.9239 109.5860 102.7551 108.7223 108.8849 109.0109 109.4801 108.8452 108.0808 102.4103 109.0849 101.4943 90.4775 89.6031 91.9033 95.5100
120.1600 106.6179 117.1474 123.1345 118.2450 121.4728 120.2681 119.5936 119.0691 120.5426 123.0435 120.2727 113.9887 116.3693 115.7117 109.3394 115.0823 114.6987 114.0753 113.5066 112.9729 113.1783 112.1854 112.5445 110.6452 106.6234 107.8969 109.9822 110.7197 110.0056 109.0417 115.2868 97.5024 91.7411 107.8926 93.6776 93.6113 95.5400 97.5725 99.4100
120.1600 111.4771 112.2211 112.6386 118.5992 119.9107 119.4862 118.7476 113.3422 107.1366 114.8838 117.9943 107.2662 112.5479 116.2654 107.2512 115.9210 115.0550 114.5673 114.0220 113.5846 112.0004 112.4062 112.1502 111.4834 111.9533 111.1814 108.9530 106.6369 112.5756 100.3548 90.9675 93.9516 111.9462 115.2699 107.1640 91.0810 96.4406 98.6110 99.8500
118.6400 99.0923 104.9284 97.4396 117.6559 114.4788 121.2044 127.7347 95.8074 102.7028 118.6663 119.5696 118.1376 118.5405 118.2975 117.8279 116.0036 115.5565 115.0468 114.5730 114.8954 112.4424 110.2495 112.9737 112.5353 112.5223 106.8015 101.5919 104.6260 113.3355 84.5665 113.1365 97.8966 92.3117 87.6309 93.1424 102.2923 95.7981 99.5853 99.8500
105.0300 108.1838 97.8858 95.9336 115.9823 107.7943 120.6420 106.0423 111.3311 118.6144 118.2555 117.3419 117.7977 117.3775 116.6854 116.5550 116.2659 115.9434 115.5522 115.0284 116.5398 116.6496 101.9736 114.3813 113.2823 113.5197 105.9786 113.2002 102.2787 96.8910 100.8776 114.3837 116.3989 97.8056 101.3676 93.8419 96.8205 98.3086 117.6041 102.3000
111.2500 112.6593 115.3501 116.8047 120.5564 117.7363 120.4744 121.4994 121.1887 119.8698 118.9647 118.4756 118.1074 123.3363 119.6647 117.1534 116.8271 116.4037 116.0044 115.4798 115.8658 105.4285 100.4164 115.2978 114.1010 111.1966 105.9379 102.6961 98.7411 90.6175 102.3661 115.1766 108.8021 98.7771 101.3833 98.2271 98.8929 111.8906 113.2952 116.9500
103.7700 115.6980 106.1378 107.0152 118.2966 127.1818 120.2975 120.0462 119.7175 119.4521 119.2338 120.6025 119.5826 103.0476 107.5622 116.2051 117.2971 116.7798 116.4595 116.2121 115.4282 116.1935 116.7706 114.6379 114.4003 110.8404 105.4182 88.3801 89.5506 91.8377 99.5282 106.9441 111.5924 102.3092 101.5480 101.4735 103.0651 102.3185 112.9419 117.0400
100.3000 103.5863 122.7409 100.1937 124.1608 120.2880 120.6769 120.3768 120.1139 119.5573 119.5001 114.6415 94.9627 98.0802 115.7404 117.9421 117.5596 117.2346 116.9218 116.6577 116.3936 115.9603 115.5518 115.8185 114.8234 112.1949 108.4496 113.2651 112.5820 114.7906 98.7047 110.7655 114.6465 99.0618 95.4928 100.0692 103.9030 95.5092 118.7121 101.5400
110.1700 122.0254 122.0582 121.4283 121.3061 121.1959 120.6135 120.6182 120.2864 121.0821 107.5712 98.6486 98.6962 99.7421 118.2654 117.8504 117.9770 117.6454 117.3728 117.0943 116.8515 116.6535 116.4582 116.3293 115.4331 114.3539 98.0155 97.8477 109.4672 115.2598 107.7819 107.5029 100.6403 99.3682 99.6562 103.6566 107.1244 102.5664 107.3414 117.9800
122.4000 122.6372 121.7661 121.7345 116.8423 113.2529 121.5970 120.7450 120.2732 121.7064 103.3982 123.1269 119.3236 120.6734 118.1218 118.6134 118.2186 118.1187 117.8359 117.5486 117.3287 117.1195 116.9392 116.5349 117.6491 107.4610 111.8201 95.9849 108.8482 95.5172 110.4269 99.2690 97.2112 95.8702 99.9467 100.9512 103.5010 102.0393 118.7877 118.4400
127.6200 122.6674 123.5170 115.7922 120.5651 107.8713 122.3510 120.9476 121.3589 120.4488 119.9869 121.0088 118.9800 119.9776 120.0720 118.7655 119.8033 118.1436 118.1394 117.9827 117.7895 117.6037 117.4294 117.2488 117.0229 104.3337 102.5062 118.0162 106.4760 97.8352 96.5436 95.2357 111.5646 94.8420 104.1523 102.6613 102.4856 104.4277 109.7310 118.5300
120.3200 112.1009 116.5639 105.9539 115.2891 122.7322 121.4372 120.9763 115.9313 115.0647 120.6110 120.2079 120.2670 108.0342 117.0023 117.4728 123.2908 118.8861 118.6455 118.3935 118.2148 118.0759 117.7774 117.3173 119.8437 107.9128 117.4236 93.4000 97.2995 98.0082 104.4839 97.0304 94.5557 107.6198 103.7680 104.5577 105.5115 105.5698 103.9244 96.9400
112.7400 109.0091 115.3050 123.9631 123.3097 121.8666 121.4001 121.6628 105.5664 117.9379 120.6471 120.5060 120.1392 122.4244 119.1042 107.3982 117.8419 119.0456 118.8309 118.8352 118.6973 118.4675 119.1269 119.3502 118.8193 102.4895 112.5354 106.3125 102.7946 96.9208 95.8274 100.1417 101.8349 96.4119 98.9067 103.7701 102.9023 103.9014 108.5228 106.4800
107.4600 108.6431 127.3224 125.0758 121.5292 124.7030 122.2729 124.0792 113.6553 121.7898 120.8518 121.7665 119.9984 113.8272 105.0283 102.3307 119.6569 120.5417 119.5355 118.9459 119.0928 119.6327 109.6038 112.4396 120.1952 110.2346 106.7751 108.6632 107.3730 97.9841 96.8322 106.1001 100.2789 98.0257 113.0389 103.6874 103.0163 106.7624 106.5740 108.9700
106.0700 118.1532 111.3098 125.2398 109.3242 111.4156 120.0835 123.2649 103.4809 121.9454 121.3960 117.0840 114.5306 102.0352 95.2616 98.7791 120.6261 106.7168 118.5215 118.5407 119.2179 120.3694 101.0774 101.3875 104.1892 100.6584 94.7888 95.7889 100.2670 98.9677 99.0398 105.0732 106.7087 119.9298 120.8916 122.5285 114.3677 107.1764 107.2611 107.9100
125.2300 124.5232 113.3400 115.4404 111.5235 110.0414 123.4446 122.3200 120.2266 121.6475 119.6752 117.4091 116.4696 110.4119 99.5094 112.5664 116.3727 100.8594 116.3889 117.9278 119.0328 111.5950 97.9360 108.3582 115.0081 112.8107 97.3998 96.8692 101.7926 103.5248 101.1810 106.6646 103.8158 116.7718 118.7335 116.4905 107.4025 107.3158 107.6764 107.3700
123.5500 123.7198 121.2214 121.5070 122.7672 120.4315 106.3429 124.1603 121.7775 123.8629 103.2358 116.2811 113.0757 103.7857 113.1447 122.6902 96.0292 106.3447 101.8355 107.4064 114.7941 107.8974 97.1882 98.6147 97.6917 97.9051 99.3886 102.7433 103.3623 106.8544 104.7166 106.9072 109.5025 106.3488 115.7232 105.7048 110.8079 110.0974 110.0817 112.5600
123.7700 110.9131 110.5687 125.0461 116.8175 102.7716 116.9225 122.6901 122.4130 122.2787 117.3570 122.2668 122.6360 121.1926 121.8902 123.3464 114.6217 109.5680 122.2609 107.5166 119.3393 103.6583 99.9377 98.0407 98.6405 100.4433 98.6366 111.3116 107.3546 106.1705 106.1611 108.1329 105.0311 99.2676 114.9851 103.2943 107.1700 103.2637 113.9431 113.2800
113.0100 115.0239 117.9755 121.5550 111.8308 102.3940 124.4452 123.3697 121.8881 122.2417 116.2568 114.3934 125.3187 121.6166 121.4913 120.9210 123.2245 110.2674 111.6551 98.5960 117.7756 107.2359 105.7176 100.7415 116.9737 104.4814 104.2889 112.5066 108.2338 105.3118 110.8284 104.2811 102.1727 117.8848 110.5327 120.6412 100.1881 97.0511 110.8987 110.4800
102.0400 117.7457 103.7996 102.5644 113.7406 114.8747 125.1547 118.0291 115.3283 125.6047 112.9594 112.7606 122.1743 121.8076 121.8198 121.9415 122.5382 114.1030 100.1386 102.8299 118.9287 117.1324 101.8826 122.0371 115.0876 109.3700 99.8468 113.4139 108.8631 107.3301 107.0850 97.5484 104.8181 120.2504 122.7704 120.9225 98.3639 99.4303 115.4837 114.8000
117.4700 123.9006 113.0804 113.0219 124.8800 124.7775 124.5052 124.4414 123.9213 120.4804 112.3927 121.0473 125.9692 121.6389 121.5364 120.0268 116.5378 99.5963 102.6490 111.0864 121.8551 123.4497 104.0122 122.0713 114.2144 104.6506 111.5928 112.4951 109.6421 108.2103 107.6654 104.3637 109.6834 119.6749 120.4414 123.5638 111.0854 94.8867 125.4847 114.8000
123.0500 123.0500 117.4100 107.1700 123.7600 123.5900 104.9700 123.3000 124.6800 101.0000 100.8300 100.6700 101.3700 105.0900 105.3900 105.3900 111.3700 104.7600 104.4800 121.7100 121.7600 121.5400 103.5700 103.5700 114.8000 115.4900 113.1800 113.6900 108.0200 108.5300 107.4800 106.2400 108.4600 121.5500 121.7600 121.7200 121.9100 121.8700 122.0400 122.0400
