113.1300 104.1100 104.1100 115.6900 106.2200 108.6200 116.6000 107.8700 103.0900 115.2300 107.4400 107.2200 132.4600 129.2600 124.3300 124.1600 124.0500 123.8700 123.7600 123.5800 106.9300 123.3200 123.3200 123.1800 123.0300 122.8700 122.8700 122.7000 122.7400 122.5500 122.5800 100.3800 130.4100 122.4500 122.2100 122.2200 122.2300 122.2400 122.2300 122.2300
108.0500 109.7076 112.8892 110.3213 105.2573 109.1490 107.8829 107.5249 115.1408 109.8066 115.9183 117.6122 121.1108 126.0023 123.7736 124.3469 124.0511 123.7635 124.0946 121.4267 112.0860 118.2559 122.8045 123.6152 112.5977 118.5868 118.8818 122.3146 122.6220 122.5685 114.3947 97.1909 110.9964 122.6633 122.2071 122.1356 122.1323 122.1230 122.1176 122.2300
108.0500 110.9683 113.5754 108.9347 104.2930 104.2810 103.6017 108.5954 123.0034 112.4603 111.0492 127.9159 124.1203 122.8310 124.3150 121.4841 123.7135 123.3968 123.9804 123.7827 119.4874 128.4024 122.9042 124.7509 116.9958 121.7076 116.7947 123.3627 121.9896 121.8264 124.1185 113.5320 119.5653 121.9781 121.9677 121.7981 121.7863 121.7854 121.7957 121.6800
103.9400 106.6551 108.5399 112.4739 105.3054 104.6414 104.6868 107.8566 109.9412 115.5612 111.1354 121.1230 123.4979 123.8169 123.6257 121.5715 122.9751 124.1165 119.0980 124.8546 119.1549 122.7951 122.6054 121.9067 123.8349 107.1248 103.4504 121.4579 121.8502 122.8795 121.3830 122.3828 119.6399 121.6006 121.5516 121.4951 121.4846 121.4800 121.4779 121.4000
103.7700 110.3754 107.5342 108.1241 105.0998 99.8310 111.4320 107.9048 117.0566 119.6757 119.2333 123.6828 123.8026 123.1614 123.9642 124.8290 123.7931 122.7096 110.4814 114.2010 123.4633 122.4339 122.4138 123.7052 118.1174 107.3820 104.2520 123.7482 121.9966 108.7714 123.2285 121.2835 121.1714 121.3403 121.2219 121.1659 121.1564 121.1508 121.1594 121.1000
107.2200 108.1213 106.9537 105.8237 105.7374 105.2093 110.8371 106.2425 105.2963 124.8217 124.9802 125.0160 123.2997 128.0029 114.6396 111.8182 112.3423 111.1336 108.7711 109.3289 122.4331 122.2846 121.6226 118.2106 106.6725 104.6312 105.3228 112.3479 113.4047 101.3587 109.0565 121.0569 121.1353 120.9070 120.8977 120.8641 120.8186 120.8097 120.8182 120.7900
106.0100 106.6050 107.2694 102.9119 102.5385 103.9800 104.2789 110.2222 101.5798 109.1671 120.1208 124.0113 102.7000 104.6397 101.8263 111.6914 108.7785 110.0940 109.3059 109.3490 111.2365 118.1939 124.8785 113.6754 104.9529 106.0456 104.6532 107.4951 112.0377 118.1698 109.9085 121.6885 120.6399 120.3730 120.4320 120.4518 120.4852 120.4645 120.4645 120.4800
108.4700 107.9967 105.4413 106.5695 103.2326 102.6804 103.3312 109.7288 112.3636 117.3680 118.9053 124.0046 124.4531 123.6644 101.2054 122.3225 104.0881 109.5154 108.8932 108.4475 107.4922 107.0396 108.7460 100.6159 105.6321 105.6089 105.0631 105.1160 100.3170 118.2589 101.0241 108.0755 122.2940 121.8058 120.4560 119.7558 120.0985 120.0989 120.1120 120.1500
110.9200 109.3105 108.9222 103.2820 104.3676 101.6702 109.7852 107.7693 118.4436 120.1711 123.6414 123.5525 119.5877 109.5473 99.4847 99.6498 101.1032 108.3670 107.9158 106.6141 110.1716 118.2450 102.7601 98.8753 98.2120 104.0041 103.5574 104.2202 95.8812 121.5677 95.2233 96.6875 109.1462 104.7959 122.5677 111.8786 120.3098 119.5731 119.7087 119.8100
108.1900 113.4028 111.2192 107.1966 105.3251 104.5808 106.5245 106.7861 115.1621 115.0487 123.0935 122.9632 115.4834 100.3138 110.5608 105.6981 119.5606 113.4471 107.8494 105.0870 107.3366 106.4293 104.8726 103.6172 101.5207 110.2474 104.5572 98.7879 101.6422 119.9040 95.2576 97.7341 115.3788 97.2208 121.2194 127.4745 119.6198 119.4027 119.3253 119.4500
112.4700 108.2593 110.5011 104.6364 110.7310 108.4490 109.9592 107.6893 115.2384 114.4664 108.4152 107.7846 98.3701 99.3077 100.6530 115.6475 125.3112 123.2681 120.0871 116.3364 107.7773 108.8533 103.0471 100.8183 113.9874 114.7699 104.7682 102.2775 107.6553 104.2327 97.8678 103.5189 105.5671 114.6113 119.2996 118.0431 118.0415 118.9910 118.9709 119.0800
105.3200 103.2322 109.0761 108.0819 107.0654 109.8321 122.5343 118.3983 118.2908 114.9756 111.5153 99.9281 103.0115 101.3001 99.4443 103.9348 112.0126 117.2247 122.5396 112.3001 103.8098 107.5144 105.2410 107.2865 101.6684 117.1448 116.7410 101.2846 95.4639 96.2318 100.1885 95.8479 122.7373 110.6173 125.5446 118.0867 118.3479 118.2205 118.2289 118.2800
105.3200 104.5419 105.3700 103.7718 107.4727 116.8076 133.2888 124.5054 123.0518 118.3985 113.4183 100.5456 115.9760 100.4247 108.5313 114.9904 119.9475 119.6499 117.4881 115.3712 109.6692 103.6741 105.2933 103.4969 96.8512 110.9546 105.2060 97.4333 95.3639 105.5594 119.4372 110.3024 121.1473 117.8645 118.4881 117.7019 118.9387 119.4364 118.7254 117.8600
105.4500 102.2601 116.2185 110.5807 118.8357 112.1059 115.9535 123.3445 123.6192 123.5502 119.9341 108.7840 104.2345 100.2759 102.8453 114.7606 123.2593 121.3835 121.0948 121.5260 121.5074 97.1248 105.6643 102.1927 99.3475 107.5460 109.7245 110.0652 95.6633 111.1756 115.9197 118.5861 111.9678 117.7501 117.5688 117.5246 112.8138 99.4277 118.3308 117.4100
107.6800 101.6970 113.5205 101.6414 104.8230 107.8423 122.3423 122.0959 123.1737 123.0491 124.9135 104.7839 109.4229 108.0569 109.1653 106.3090 110.5005 114.5258 120.5986 120.3295 120.0710 94.1569 101.0564 97.1281 98.4129 101.8567 119.6557 101.5024 109.3145 118.1507 110.9159 117.5290 118.0966 117.2559 117.1676 117.0029 117.0433 115.1054 116.9980 116.9400
103.6500 108.7017 104.2742 108.2385 111.3502 114.8321 117.5691 126.1500 123.3618 123.1615 114.3675 112.4999 125.4112 104.8196 109.6350 108.0601 107.4539 106.7655 107.0706 122.9155 111.4791 100.8098 113.3757 97.9934 101.5411 104.8586 118.4199 116.4717 109.1818 116.7467 117.6482 117.0640 116.8086 116.7420 116.6219 116.5186 116.4272 116.4268 116.4916 116.4400
102.5600 100.7928 115.0297 100.1917 101.8637 104.8264 113.3286 112.5945 113.7277 122.6959 122.1501 119.8879 121.7449 120.4505 119.6605 110.8654 106.6864 105.7992 105.4835 118.1948 119.5345 113.7663 104.9044 113.4731 102.3250 116.5438 117.5534 115.7578 117.4595 117.7522 116.5374 116.5576 116.3950 116.1769 116.0396 115.9463 115.8925 115.9161 115.8727 115.9100
102.5300 104.1938 115.8191 105.5901 116.7259 110.7089 111.8276 111.4390 110.6584 102.1939 106.3456 119.4918 122.1614 111.9662 118.9014 121.3133 115.1540 107.1640 104.8821 104.5731 98.8492 96.6333 113.9849 113.9740 113.2681 102.0913 116.6965 108.6822 115.8383 116.4316 116.3072 116.0250 115.7860 115.6050 115.4453 115.3271 115.2499 115.2150 115.2526 115.3400
107.0900 112.7879 110.4835 114.5604 116.5843 113.4197 110.4194 107.6016 120.1726 107.0914 101.9364 100.1233 121.2949 123.5767 121.8269 117.7467 119.9484 109.4832 107.8946 104.1596 107.2189 102.8024 98.2821 110.4559 119.0119 117.8892 116.7875 110.3794 117.0371 116.0436 115.7583 115.4655 115.2134 114.9822 114.8029 114.6627 114.5788 114.5560 114.5718 114.7400
106.2700 104.0641 106.0790 110.5147 101.7887 116.8463 115.8034 124.7913 109.2455 100.5768 99.5172 100.3997 119.5604 115.9957 118.5569 111.6966 113.3751 112.8586 116.6797 102.7926 104.1401 102.1881 99.3661 100.5460 100.0863 114.3051 116.9509 116.4088 115.9201 115.5590 115.2623 114.8805 114.5799 114.3229 114.1148 113.9521 113.8494 113.8169 113.8457 114.0900
102.2900 101.5730 112.5432 108.3484 111.0367 113.5911 106.3116 110.5113 112.6336 110.5889 110.7128 109.1950 111.3738 114.7925 121.1063 120.1986 122.0316 106.7029 111.2778 99.4924 100.7555 100.9383 99.9946 96.9490 93.0006 120.2704 115.9690 116.0537 114.8378 115.5883 115.5572 114.2518 113.9281 113.6127 113.3673 113.1722 113.0536 113.0127 113.0439 113.3800
102.2300 101.9998 101.5994 100.0608 110.9675 112.6559 120.3966 109.9645 120.1149 113.6112 124.2209 122.6599 109.2976 121.6850 120.9239 120.1987 115.3745 117.1348 113.9027 115.5844 99.7454 98.9505 98.0802 99.7177 104.5258 106.5674 115.5274 115.0613 112.4140 101.9464 113.7322 113.4921 113.2178 112.8558 112.5586 112.3265 112.1764 112.1235 112.1679 112.6200
114.2800 108.6909 102.7830 101.4235 110.7536 108.4636 119.5163 119.7237 111.0887 107.2632 116.1675 122.4056 124.9452 122.4067 121.0879 120.3166 105.5857 108.1273 112.9352 102.9232 99.0669 100.5350 96.2665 96.4153 92.9562 91.9881 116.9241 114.7945 115.8331 108.8184 114.6992 112.9521 112.4692 112.0293 111.6657 111.3880 111.2075 111.1436 111.1933 110.8500
102.0300 102.0527 103.0101 104.5157 107.7411 104.8101 113.5430 120.0650 124.1784 112.4682 114.7203 110.9657 107.3734 105.0608 108.8204 122.8223 116.4159 116.6003 119.9198 113.0610 113.3744 115.7100 113.3538 112.6261 116.0938 105.3680 111.9097 106.2860 114.5842 113.2437 112.6795 112.1585 111.6425 111.1355 110.7046 110.3416 110.1135 110.0273 110.0964 109.8100
112.8500 108.2366 99.8213 108.6346 117.8846 117.3657 120.6734 115.8128 102.7361 122.6587 114.8057 107.9641 106.8730 97.3873 100.4951 98.7664 125.3256 118.7801 118.1188 118.2779 118.2027 119.5270 104.7247 117.5486 116.5924 115.6424 114.3492 111.4205 113.7627 112.6919 112.1300 111.4635 110.9765 110.1820 109.5293 109.1762 108.8657 108.7532 108.8426 108.6200
101.9900 120.6827 114.8632 98.8091 118.5281 112.5534 123.1018 115.5592 112.2792 124.0871 105.0970 107.5923 111.5086 110.2193 113.7292 118.1629 109.6277 119.2847 119.0248 117.9946 117.2930 119.9616 94.5684 115.9944 113.2243 114.8291 114.3234 113.6317 112.9042 112.2158 111.8095 107.1748 109.7677 110.3407 108.4581 107.8252 107.4108 107.2570 107.3849 107.2300
101.9800 121.0053 114.1417 100.6251 118.2246 116.5987 122.7448 118.1326 110.5555 113.8923 105.7656 110.7736 110.7511 128.2407 119.7204 119.4107 118.7032 117.7370 97.2494 98.7378 95.5117 111.9012 116.1666 114.5258 115.2996 113.7646 114.0557 113.2971 112.5052 111.6897 110.9123 109.8339 109.1285 108.0224 107.0185 106.2908 105.6858 105.4553 105.6376 105.5800
112.7000 101.9515 118.9241 113.3169 122.0265 115.9877 126.5798 125.1064 108.5553 113.6732 111.5121 113.0364 106.6563 114.4661 121.6191 121.7418 118.8812 119.3965 107.2685 103.7893 98.5835 99.7355 108.5740 96.2286 116.3139 106.2511 113.9857 112.7662 112.0242 110.8804 109.8560 109.0160 108.0148 106.8760 105.6225 104.4468 103.5456 103.1635 103.4783 103.5300
113.7900 109.3348 127.7515 117.2196 117.6863 123.7385 122.2692 115.2434 122.3179 116.8764 122.7617 121.3867 117.1305 104.5492 101.9502 115.9165 118.8446 119.0422 119.2223 119.8214 108.2939 119.2216 116.7460 117.5032 116.1019 115.2742 113.7542 112.6045 112.2443 112.7226 111.0825 109.4853 107.0530 105.6623 104.0141 102.2690 100.7772 100.0962 100.6774 100.8200
128.4100 107.8233 130.2060 123.3744 123.8447 122.0550 123.8444 109.2590 124.5110 125.0300 122.0839 121.8940 113.7249 114.6594 122.7847 106.5921 112.2891 127.4382 118.0954 117.3094 118.0493 111.1239 115.3737 114.7427 114.3879 113.8836 113.3066 112.3423 113.0652 100.5591 99.5359 99.2626 106.9083 104.6018 102.3760 99.7943 96.8200 94.9369 96.4790 100.4300
116.5700 109.7804 129.5755 119.1124 123.0613 124.8756 117.0121 123.6917 120.0028 121.1230 115.1250 111.2598 123.6451 118.1784 115.3781 121.4045 121.5169 126.6951 115.8525 117.5636 116.4575 107.8928 116.4521 114.8516 115.6132 113.5431 112.5334 111.4418 112.8853 86.9213 84.7036 99.4021 105.7682 103.4524 100.9526 97.2010 91.0773 88.5908 90.4716 96.7900
116.5700 123.3148 125.7286 119.5669 124.0254 116.0000 111.5921 121.4830 107.6675 106.9373 105.8850 101.6092 109.0552 103.8818 104.0355 105.6233 105.2416 120.7504 129.1203 117.7533 118.7492 107.1578 122.0658 112.2386 105.6080 116.2609 115.1104 113.5288 115.5947 88.9539 91.4861 116.2442 104.2432 103.9670 100.3307 95.5616 87.4308 85.5626 87.6592 89.4600
123.9300 124.6886 124.2910 122.7747 124.1394 121.9837 119.2406 122.8943 118.6120 119.4009 106.6452 105.7214 111.3680 106.9553 106.3253 108.0592 106.2849 108.9630 112.4341 108.7212 107.9549 103.1865 105.4267 101.4639 97.1518 99.0032 99.0729 99.2423 94.6161 90.4754 95.2892 90.2962 109.8558 96.5528 101.5906 96.1157 89.0150 86.3610 88.5340 95.8400
118.8800 119.2896 118.5429 117.9457 114.9989 110.7451 116.0092 115.6142 115.1071 109.8831 106.1496 104.3923 115.5916 110.4484 110.3455 109.9974 108.3745 106.4313 105.3503 104.9841 105.2025 106.0128 98.4378 98.0816 97.0757 96.3612 94.1392 93.5807 91.1147 89.0503 89.2815 90.5247 104.1955 95.3013 101.8208 98.5047 94.2061 91.6543 93.8088 96.6700
119.4400 118.4988 101.1433 101.7748 118.1872 116.0545 104.7534 111.7550 109.5187 97.8769 110.1234 107.7187 115.9940 112.8225 114.8887 111.7032 108.9530 108.3331 106.1003 106.5491 97.8255 98.9969 106.9296 102.5890 97.3766 96.1258 94.8149 92.3230 91.0791 89.8910 87.8692 83.5753 105.8662 104.3276 103.4846 101.1285 99.2496 98.1900 99.1201 100.3600
101.9400 101.4419 101.6652 101.0990 100.4614 99.7978 115.6292 114.9362 97.8374 107.5809 108.4364 111.7064 108.1924 116.8066 115.1254 111.6893 108.2938 107.8038 106.9014 107.5498 106.9470 107.9075 109.9564 103.0957 101.4114 101.5604 93.0208 91.0869 90.8011 87.9097 108.3845 109.0769 107.9313 106.2815 104.8943 103.5341 102.3717 101.8797 102.2796 103.2200
102.1600 101.9687 101.2493 101.3803 106.9053 102.9879 99.2759 99.2743 101.1240 110.1789 107.2302 104.8095 109.6259 116.1372 114.4730 112.9199 109.0147 107.4797 110.4952 104.6214 103.5089 113.5178 110.1195 101.8711 104.4122 94.4959 97.6790 95.9639 111.1092 111.5747 112.7080 109.7280 108.8742 107.5155 106.4265 105.4853 104.7742 104.4865 104.7310 105.5600
101.9600 101.6624 104.1527 102.2057 110.6484 104.8363 104.2937 103.6934 100.9390 102.0348 99.3600 112.4360 109.0856 116.0982 114.8560 114.4259 110.4159 107.0151 114.8606 102.4917 100.6130 101.7889 111.4306 112.3753 117.7770 99.0337 109.6493 115.5137 113.4999 110.6387 109.1190 96.5086 109.8208 108.0127 107.8876 107.1576 106.6654 106.4849 106.6388 107.2100
101.9700 101.2736 109.3519 102.7675 100.3538 102.7931 112.8221 109.5831 114.3896 114.8520 100.1636 110.9656 109.5296 115.7734 115.0838 112.2962 107.0922 98.5970 111.8167 97.8930 101.3238 104.7861 112.6838 110.0616 116.4538 118.0223 115.9308 113.3974 113.1031 112.8721 87.8649 104.5979 100.2768 107.7450 109.0666 108.5721 108.2329 108.0936 108.2104 108.6000
101.9900 101.8300 101.6600 101.4900 101.1400 100.9600 100.5900 114.3700 113.3200 112.1200 106.8000 110.6300 110.6400 115.9500 115.0800 109.2700 101.3700 97.1800 109.6200 106.9600 117.6700 105.2600 114.3500 116.2700 115.8800 115.0600 114.6700 114.1800 113.6800 112.6500 90.1700 113.7900 111.0300 110.2200 109.5400 109.7200 108.6500 108.7500 108.7100 108.6000
