106.1800 107.8200 107.7300 103.3300 100.8200 97.9600 98.3000 100.6800 117.3600 112.2300 104.8100 104.1100 114.4300 116.3900 115.4000 115.0700 114.5600 114.0800 113.7700 113.1700 91.6400 111.7800 111.7800 111.6500 111.7500 110.9300 110.9300 111.7700 111.6800 112.3100 112.8300 90.6600 113.2600 113.6600 114.6700 114.6700 115.4100 115.8100 96.0900 96.6000
106.1800 106.6849 109.0182 105.5022 103.3882 102.4995 97.9572 107.3675 106.9705 107.6937 104.3366 112.6436 102.0265 112.6130 115.2452 115.0068 114.3941 113.3131 114.3250 98.9561 100.4250 113.5705 111.2511 110.9656 110.7745 110.6530 110.6663 110.8340 111.1217 111.6993 95.1445 97.9516 112.2034 113.1994 113.5136 114.4052 115.2582 117.0386 96.1518 96.6000
107.4300 106.6016 104.6677 104.1785 105.7976 106.5581 100.4232 111.8709 102.5879 95.4056 92.6703 117.4679 102.3282 116.1268 114.7352 114.4439 113.9097 113.1487 113.0462 96.4486 106.7962 111.7378 110.2692 109.9451 109.6212 109.4752 109.5058 109.7045 110.0461 110.2427 107.9709 111.3866 113.1428 112.9060 113.4402 115.3960 110.4168 98.0854 95.3228 93.9700
109.8400 109.5164 105.1000 101.0058 103.4768 102.3012 103.8755 109.7778 115.9685 112.2813 112.2343 115.1262 99.9796 115.7926 114.9434 113.9857 113.4064 112.5656 112.0684 107.6998 105.4710 110.7841 109.1779 108.6919 108.3165 108.1153 108.1493 108.4212 108.7813 109.6066 110.0537 110.8813 111.5010 112.0422 114.4009 97.6146 110.8570 96.9890 99.6272 115.8400
100.4300 106.8424 105.2981 103.2839 104.0386 102.6023 105.0237 112.8061 114.4063 119.1172 118.8187 116.5265 108.2544 114.6392 114.9207 113.7248 113.0641 112.2316 111.1871 108.4989 109.7489 109.0498 108.0391 107.3293 106.7749 106.4966 106.5474 106.9231 107.5559 108.2864 109.1571 109.9855 110.8909 111.6769 112.3341 101.5276 90.9721 114.0368 102.9801 97.1000
105.5300 107.5587 106.4022 104.2150 95.0244 102.0400 102.5783 117.6952 114.5231 116.8098 116.0198 115.7799 115.5710 112.9083 111.9281 112.7395 112.3003 111.6908 110.9913 110.0959 108.8395 107.7692 106.7351 105.7328 104.9412 104.5110 104.5878 105.1512 106.0411 107.0689 108.1397 109.1305 110.2194 113.7700 116.3789 112.1329 112.0038 116.6124 95.9371 93.2400
107.0300 105.6953 103.6480 102.6301 102.6044 103.1082 118.3270 101.8276 118.9104 116.7786 116.3316 115.8574 115.3290 102.7122 113.2433 113.1367 112.3516 111.1970 110.2864 109.1819 107.9995 106.7038 105.3058 103.8830 102.6544 101.9239 102.0617 103.0005 104.3336 105.7501 107.1162 108.3710 109.6258 110.5730 111.0813 112.6482 113.4842 115.6602 93.3072 93.4200
107.5200 107.7290 104.7571 102.7647 101.7182 105.4274 117.0048 110.8787 118.6227 115.8556 116.2958 115.5648 114.6263 117.2896 91.0700 91.3597 93.0306 112.0660 109.6955 108.5768 107.2232 105.6441 103.8235 101.7801 99.7571 98.3139 98.5926 100.3636 102.4335 104.4164 106.1528 107.6731 109.0095 110.2635 111.3269 106.7510 108.5842 98.5086 116.2920 109.1500
107.7100 108.2492 105.3927 105.4731 104.4189 106.3153 116.4551 109.4357 106.9805 116.8668 116.2620 115.5348 114.7684 115.5037 101.1015 117.8321 110.5520 111.3825 109.4974 108.1182 106.5861 104.7353 102.4599 99.5625 95.6081 91.8835 92.6892 97.0537 100.5029 103.2264 105.3548 107.1012 108.5635 109.8399 110.8120 112.1546 114.2600 114.9492 114.6392 110.5400
105.0200 107.0280 99.9311 102.4672 101.6402 107.1658 116.8548 111.6302 119.1154 116.5316 116.1059 115.2680 114.5111 112.6868 113.5622 111.5447 111.1206 110.3461 109.2731 107.8491 106.1926 104.1471 101.4853 97.7251 90.6892 86.3762 87.0226 93.3452 99.0500 102.4041 104.8416 106.7500 108.3194 109.6630 110.7277 111.6435 112.3802 113.2791 114.4874 115.0200
100.3700 98.9280 101.1962 101.9769 102.5744 109.0753 117.3834 111.8990 117.2013 116.5475 115.9501 116.6359 117.5035 112.1936 116.0431 113.5746 111.5714 110.4744 109.2225 107.7970 106.1126 104.0183 101.2551 97.2999 89.4188 84.5798 85.4130 92.1577 98.7020 102.2208 104.7243 106.6732 108.2640 109.6047 110.7841 111.8649 112.7743 113.5963 114.1680 115.0000
100.3700 103.1509 105.7265 104.0367 102.2736 103.2518 114.6154 115.5776 117.1329 116.7132 116.3298 106.3550 104.9522 100.2726 101.3513 107.7262 111.6596 110.4909 109.3259 107.9642 106.3483 104.3748 101.8652 98.5195 92.7522 88.6102 89.4186 94.9768 99.6438 102.7369 105.0416 106.8811 108.4149 109.7231 110.8541 111.8540 112.7791 113.6292 114.2435 118.2300
106.2500 106.9805 107.0895 104.2553 102.4581 108.5569 113.6325 118.3633 117.0671 116.7451 117.4209 93.2552 90.2600 105.2653 87.3549 112.4514 111.7420 110.6687 109.6150 108.3363 106.8566 105.1274 103.0718 100.5896 97.7900 95.1036 95.7313 98.7033 101.3978 103.7561 105.7043 107.3447 108.7494 109.9743 111.0618 112.0437 112.8381 113.4322 114.5704 115.0500
106.3900 105.9973 108.2081 102.4213 104.8294 114.8560 112.6453 117.6270 117.2633 116.8714 117.4296 110.2272 112.0229 118.3077 102.3423 104.0061 112.4308 111.0806 109.9989 108.8617 107.5737 106.1261 104.5238 102.7425 101.0932 100.6703 100.5970 101.6318 103.3589 105.0404 106.5980 107.9889 109.2427 110.3701 111.3554 112.2590 113.1770 114.9178 116.8171 115.1000
98.6100 102.2424 104.2630 103.1711 115.4549 108.2621 117.7941 117.2958 117.3877 116.7867 116.1287 116.5996 117.4738 95.7159 110.3636 103.8211 113.0617 111.4381 110.5187 109.5041 108.3954 107.2176 106.0024 104.7721 104.2913 98.0752 102.8861 104.0672 105.1493 106.3787 107.5965 108.7536 109.8347 110.7562 111.8148 112.8407 113.6834 105.6312 97.9061 94.3200
106.2300 105.4927 99.7815 105.8456 108.9801 119.2499 132.7458 116.5679 117.6622 117.4645 117.0240 108.2841 116.5121 113.2424 111.0249 110.6781 112.6508 111.9828 111.0906 110.2009 109.2678 108.3067 107.3306 106.4863 106.0652 104.2941 105.1577 106.0314 106.7601 107.6620 108.6196 109.5810 110.4164 112.0695 112.6083 112.3695 113.2631 118.3085 93.1897 95.5100
108.2900 104.8417 103.9292 104.1408 106.1291 114.8536 116.6184 118.6737 117.0023 116.3299 104.4460 116.5071 115.6290 115.1473 114.6195 114.1030 113.0923 112.4432 111.7024 110.9341 110.1440 109.4132 108.8242 108.0931 107.3660 107.3902 107.3473 107.6186 108.1721 108.8659 109.5902 110.3783 111.1866 112.5665 110.2600 115.4184 111.2139 105.0753 102.6496 93.9800
104.8900 106.7741 110.4690 98.4628 99.8247 104.2100 119.1652 117.6066 117.8683 118.0482 115.0159 104.5901 116.0829 111.2548 114.9768 114.2208 113.6403 112.9648 112.3349 111.6583 110.9487 110.3471 109.7354 108.0517 109.9586 108.8017 108.7941 109.0370 109.4318 109.9217 110.6997 110.9508 113.3063 112.1467 96.5468 92.2799 91.9237 88.3689 113.1108 115.8500
103.9500 107.6705 107.9554 99.7657 104.5758 108.5568 106.5621 116.0387 117.8753 119.5918 114.8056 119.4896 118.6416 110.4378 115.3276 114.9611 114.0359 113.5329 112.9103 112.3831 111.8195 111.2742 111.0297 111.1924 110.4210 110.0895 110.0640 110.2883 110.5668 111.0439 111.0107 113.3474 116.4121 98.4153 91.3748 102.2696 95.0359 97.6166 99.9147 97.7300
101.2100 113.7529 110.4612 106.7582 122.6334 120.1534 121.1666 118.8682 119.5022 117.7667 110.6791 104.6110 112.1413 115.9530 110.3607 108.1651 115.0537 114.6092 113.5356 113.1015 112.5971 112.1546 111.7819 111.3812 111.4342 111.2862 111.0804 111.0734 111.5514 111.5825 111.8542 113.4220 89.1558 90.3398 99.8581 94.9968 94.8274 98.7269 99.9340 97.7300
99.3000 108.8828 116.9894 108.7055 113.6964 119.8848 117.9744 118.0889 117.2171 110.3877 123.1629 97.8925 98.9064 114.9021 116.2839 101.8972 116.4702 111.2367 114.0797 113.7610 113.3304 112.9612 112.6303 112.5288 110.0123 112.0300 112.2080 113.0580 112.3818 113.8062 107.5055 113.9539 101.2886 96.6382 106.5133 96.3897 96.8020 96.1678 97.2764 103.5100
99.3000 102.7602 106.3219 104.7679 104.2431 116.8091 118.6054 110.4982 104.7322 108.9893 117.9448 105.4493 108.9335 119.6990 116.7949 116.0524 116.0010 111.7568 118.3507 114.1784 114.0284 113.7018 113.4601 113.3022 110.3250 113.3386 113.6195 109.1723 101.4410 113.8335 98.3563 113.8194 101.9528 92.5116 93.6299 112.5494 99.7698 101.2410 100.2995 103.5100
99.3600 103.8994 98.4720 101.8299 111.8504 112.4820 120.9133 119.9052 118.9009 104.3619 120.1278 121.8674 118.2786 116.6695 116.5621 116.6395 115.9835 115.9856 115.4323 114.9187 114.6769 114.4012 114.1841 114.0219 114.3497 113.7055 116.0830 102.1957 108.0654 106.7047 111.7690 113.8688 116.0987 102.8671 95.4820 99.4674 103.2278 97.3027 100.8645 117.5900
118.5800 103.3838 102.1814 106.2865 120.6528 114.2305 120.1276 119.1211 119.2277 113.8799 118.7684 117.7251 118.0166 119.1347 114.0089 114.9091 116.5135 116.0341 115.8524 115.5506 115.2853 115.0477 114.8615 114.7126 114.5120 114.3921 116.1825 93.4979 105.9608 91.5746 103.4802 115.9145 116.4852 102.1324 97.2859 99.6770 105.9918 103.2544 105.8316 103.4000
101.1400 98.9841 105.5256 121.5130 122.5911 125.0827 119.5740 119.9007 119.5198 119.4511 118.6733 119.5009 106.5513 108.4662 113.9352 124.7716 115.0998 116.6221 116.3486 116.1042 115.8643 115.6565 115.4909 115.3557 115.2767 115.0818 114.8046 112.7327 89.8944 92.6572 102.9090 109.4715 112.3531 106.3096 99.2992 102.6650 103.0901 103.7847 104.0381 104.7100
99.7700 105.9703 123.4383 99.4130 108.3137 121.9710 120.2282 119.9923 119.7349 119.1884 119.8067 118.5452 117.8586 96.2913 97.5764 119.2723 115.8259 117.4459 116.8504 116.6192 116.4165 116.2365 116.0875 115.9691 115.9031 115.9057 115.4622 115.2091 99.2162 109.2677 96.0083 115.8970 113.7931 106.1573 96.8495 100.6134 99.9593 101.3679 107.4763 103.5100
114.3400 116.8936 117.1504 114.3190 121.9014 120.7085 120.3608 120.2575 120.0292 119.6410 117.0079 103.2190 113.3436 103.4969 122.4682 118.2640 117.6885 117.5661 117.3322 117.1191 116.9338 116.7733 116.6434 116.5431 116.4834 116.4274 116.4112 115.5062 117.2560 118.9739 92.2663 103.3942 99.4703 96.7048 98.0368 98.9019 100.8004 100.6315 107.8805 108.4000
122.0900 122.5384 122.6526 121.5602 121.5193 113.8520 120.8266 120.5073 120.1475 119.9416 119.8207 118.9707 121.6369 118.3498 118.7779 119.4913 118.2218 117.9854 117.7824 117.5975 117.4327 117.2914 117.1678 117.0780 117.0679 117.0696 114.4157 117.6251 105.8449 98.1578 100.5135 98.7799 99.1776 96.3057 112.4798 102.2128 100.3840 103.7594 107.1096 108.4000
127.2700 121.3822 123.9762 117.8916 118.3426 121.2328 122.0930 120.2929 122.7965 119.8941 119.6932 119.5757 118.9908 119.2490 119.1962 118.8104 118.6098 118.4144 118.2209 118.0479 117.9061 117.7731 117.6648 117.5529 117.7229 117.2658 104.5548 115.8173 100.6722 99.4253 99.2399 102.3717 100.6409 100.2262 104.4398 120.6711 102.1109 102.8000 108.5711 107.9800
124.9000 120.9394 121.8665 113.8644 111.9844 122.5342 120.4112 122.1142 128.1367 120.4992 120.5579 120.0990 119.8484 119.5582 119.1589 118.5992 118.8388 118.8132 118.6367 118.4775 118.3431 118.2389 118.1417 118.0927 118.2127 118.0918 115.3898 118.5768 98.0231 99.5538 99.8011 106.0268 100.2541 109.5068 103.0924 103.4017 102.7880 105.6938 108.4649 97.7800
119.8200 115.7546 105.8785 123.6762 122.2954 121.2884 122.4688 102.8523 122.3897 119.9391 119.8502 119.8650 120.1025 119.3672 119.1953 113.9318 120.0267 118.8790 119.0767 118.9574 118.8252 118.6810 118.6061 118.3470 118.2598 118.8309 115.8419 113.8792 100.6202 98.1460 98.0446 104.2021 103.1469 107.5256 98.1207 107.3841 102.5941 101.6777 111.1391 111.7900
107.3900 101.8202 106.9896 123.8199 122.6119 124.4151 108.5042 120.4468 116.0077 121.5835 118.8573 120.9030 122.3653 119.6431 119.6109 100.2995 118.4689 119.2853 119.2628 118.9947 118.8614 118.6908 118.6446 119.3739 120.3480 119.1797 107.9940 107.7185 107.9172 101.4269 99.4522 103.9310 104.6954 107.5185 112.4028 114.7499 103.9925 107.4088 111.9294 112.2100
107.3900 122.3660 117.5461 115.8848 121.9175 107.6163 118.6468 121.9235 114.7534 111.9550 121.1225 120.6076 123.7779 113.1632 104.8808 100.9254 120.8293 117.9594 120.6341 120.3811 119.9786 116.6674 118.8708 102.4059 111.1837 119.4070 104.0970 96.4449 100.4601 102.0977 103.9360 104.1820 106.4981 108.1214 113.6024 123.4800 108.7204 109.6939 108.3253 111.5400
102.8900 105.9539 106.4168 120.8311 122.9290 105.9880 125.7087 121.0970 121.4498 121.5539 123.3207 120.1512 110.5786 98.2557 113.4819 109.7333 118.1585 99.3807 102.3115 119.2015 109.2986 109.4075 101.4423 97.4679 101.6584 120.0165 105.8379 100.0699 97.2680 104.1497 103.7943 103.8522 109.3878 119.6699 117.5776 115.5307 110.2545 109.3031 107.3592 113.1100
109.7800 123.4880 120.0047 123.5894 124.2205 107.3535 122.3599 121.5036 122.1225 122.5480 112.3298 117.7608 125.5397 106.6843 121.3141 117.3891 99.9708 102.2213 100.6646 113.6754 113.0803 114.8082 98.7828 99.6860 100.2565 101.9800 99.6958 99.8584 98.6423 103.3765 103.9445 109.5367 110.4208 110.8262 108.2455 109.1608 110.6773 110.9351 109.4114 111.5500
111.7800 108.3407 111.0050 107.1510 122.0324 123.5983 104.4169 124.0794 121.9846 122.1193 113.7867 121.2685 118.4249 114.5712 121.3492 121.8589 102.8969 98.1616 121.2677 100.0262 119.7429 97.8021 98.7138 100.4772 117.0323 95.9194 100.9248 104.5676 105.7324 107.6828 106.8015 104.5106 111.0947 110.0658 105.1164 117.6674 99.6149 98.1754 121.0209 121.5500
111.1800 101.3796 111.0378 125.1407 117.9154 101.5018 117.5275 122.9282 122.4422 122.5946 118.5433 120.8612 123.0645 120.7296 122.8470 121.8185 122.1935 106.2987 113.1127 102.5759 120.0872 115.7983 103.4246 104.3716 122.9136 122.2805 107.0461 100.6880 110.0085 111.0279 107.5383 106.6991 110.5883 111.7545 106.6264 116.8784 98.0693 99.2839 108.3059 112.1200
101.8200 101.0960 112.8288 99.0291 106.5937 103.5516 122.6983 123.2504 122.8832 122.9479 122.3500 119.5216 119.0024 107.5973 120.0154 120.3188 121.2594 105.5626 117.1552 102.9453 119.1750 121.9374 112.4517 106.8278 122.1868 121.6194 109.2905 105.0427 113.3850 111.9332 108.2437 107.1600 109.2727 112.2435 116.9807 114.7317 114.6872 98.0283 115.5975 122.1000
115.4100 123.2425 117.6930 105.6030 111.1418 107.1485 121.8403 122.8530 122.0816 120.3140 127.1817 124.0197 116.2034 117.5773 121.1465 122.7642 110.8065 113.8678 106.7178 100.9814 121.7493 121.1701 124.4688 106.5090 122.6204 122.7174 111.4584 123.2972 113.5611 113.4062 108.6196 108.1575 109.8942 112.9162 111.9899 113.7645 119.3184 97.1815 123.7023 122.4200
124.2500 120.7100 105.8000 108.9300 111.7200 123.5500 125.1000 123.2500 123.2500 114.8600 115.4100 115.4100 100.4600 100.4600 113.5500 111.1800 110.2200 105.1100 104.9500 121.8300 121.8600 121.8900 121.6500 103.7500 121.6900 121.6900 121.6900 121.6800 121.6700 113.6300 109.2100 109.4800 113.6400 112.6300 113.2600 114.1500 122.3200 122.3200 122.4800 122.4200
