116.2900 115.4800 106.2900 106.7900 125.2200 104.4000 115.9100 113.7600 105.5400 110.8400 125.7400 125.7400 121.4300 121.4300 125.2500 125.2500 125.1500 125.0400 124.8900 124.7700 124.7700 115.0700 124.5200 124.3700 124.4200 124.2700 124.2700 124.1200 124.1500 123.9800 103.3000 103.3000 123.8600 123.8800 123.8900 123.9000 123.9100 123.9100 123.9100 123.9100
116.2900 115.0588 106.7858 109.9168 117.0592 111.2662 107.1696 108.1116 109.4522 112.5857 125.9672 112.2811 125.7854 119.0317 124.3890 125.7982 124.9104 124.8561 124.7827 124.8020 116.5410 122.6325 124.8840 124.2700 124.0194 121.7176 119.9271 123.8189 124.1067 123.6051 125.0769 108.6243 114.8416 124.1989 123.7610 123.6923 123.6805 123.6754 123.6807 123.6900
115.3700 115.6110 110.6167 113.4891 105.4852 118.3421 102.2931 109.9017 101.1339 123.8994 125.8775 125.3164 126.4596 124.9708 125.4125 119.6734 124.8733 124.6863 124.5798 124.9069 116.3887 121.3377 124.1054 124.1581 123.7173 122.2603 118.6420 124.1721 123.6098 123.7312 123.5240 124.2611 125.5209 123.6116 123.4701 123.4438 123.4280 123.4290 123.4252 123.4600
115.3700 116.8832 114.1576 115.5980 105.5186 101.3975 110.7566 113.9742 125.2094 136.7169 125.8957 125.1328 124.8696 125.0632 125.3264 122.9983 124.5424 124.3700 124.4388 124.7164 124.2790 120.6787 124.3446 123.8660 123.6830 125.2911 105.3244 124.1676 123.1602 123.4215 123.3794 123.1863 122.9288 123.1578 123.2019 123.1771 123.1708 123.1631 123.1696 123.2300
108.6700 112.6205 113.9245 114.5942 105.6686 105.3727 107.3599 104.2580 119.4525 119.0071 120.9932 126.1889 124.8765 124.7981 124.5100 124.6927 124.4149 124.3205 124.1940 124.1363 123.9920 124.1195 123.7524 123.6686 124.1219 121.4343 116.8221 118.3009 123.7984 123.1437 123.1013 123.1033 123.0670 122.9732 122.9309 122.9165 122.9051 122.8976 122.9044 122.9900
107.7700 110.2437 113.2933 113.4967 108.4968 108.2540 107.1366 105.2611 113.7283 126.2861 123.6742 124.9525 124.7811 124.5989 124.4993 124.1783 124.3645 123.9423 123.9927 123.8763 123.7179 123.6274 123.3572 123.3917 123.3793 117.0303 115.3172 113.0777 122.9458 122.9333 122.8493 122.5969 122.6318 122.6973 122.6610 122.6404 122.6264 122.6286 122.6285 122.7400
107.7700 116.0701 106.2744 116.6665 106.2729 105.3041 111.2189 108.1122 102.1996 119.4998 125.0561 124.7489 124.6496 124.4528 120.9447 125.2302 124.3901 123.9138 123.7822 123.6609 123.6488 123.0633 124.3531 123.6193 121.3246 118.5385 118.5317 110.6065 124.2471 122.6800 122.3791 123.2512 123.1064 122.5897 122.5098 122.3731 122.3376 122.3426 122.3398 122.2300
105.8800 122.4107 116.6289 105.8551 122.1418 113.6908 110.3784 112.2646 107.2743 117.7543 122.6688 124.8554 124.1311 125.3185 111.6027 113.3813 103.7482 123.2178 123.6088 123.4593 123.1072 124.1707 120.3626 109.6166 123.7612 111.8034 109.9988 109.8545 124.3648 122.2740 123.0734 122.5913 112.6886 122.2038 119.5237 122.2190 122.1132 122.0454 122.0534 121.9600
105.1600 106.0128 114.7039 119.3814 105.3921 102.7139 117.8406 114.7848 120.9656 110.5560 125.6006 123.7968 124.5662 124.3290 115.5469 111.2951 115.4975 125.9293 123.1053 124.4314 120.9325 121.2382 109.7440 107.0262 105.6015 110.3439 111.8432 107.3060 112.6356 121.9953 115.0862 111.1897 122.2317 124.2712 110.8252 121.6565 121.8472 121.7331 121.7544 121.6800
107.3100 111.3617 103.3220 107.8360 109.8958 108.6084 108.9372 117.5727 126.4467 124.2360 125.4691 125.4512 121.3132 106.0010 107.1243 121.0952 125.9159 123.6108 120.4393 123.1895 112.1260 114.3580 116.9403 96.5484 116.7729 102.9161 114.6122 102.7107 106.2705 122.3673 115.4039 101.8449 124.2536 113.7740 123.1143 128.9804 120.5585 121.5282 121.4383 121.4000
109.3400 105.7058 105.5468 103.8584 107.6195 115.6595 110.2738 112.9445 124.6955 124.2148 117.2228 109.2375 109.2744 120.2078 121.5259 120.6656 120.7812 124.2281 117.3009 123.3117 125.1962 115.6117 109.2955 112.9595 114.2882 104.8529 107.6690 107.9767 106.4092 122.2461 121.9737 103.7789 115.4664 114.9495 121.7180 121.2406 120.9512 121.1434 121.1145 121.1000
109.3400 109.1249 108.0275 111.7456 108.8317 112.2562 113.0796 118.9669 125.0992 124.6900 124.2202 108.0523 104.2641 123.9778 108.1863 110.2363 122.7200 122.1159 96.7149 118.0686 108.3234 104.1020 107.0037 108.4295 101.2293 124.1741 125.0861 106.2838 100.3449 104.7381 115.0802 104.3664 123.6575 120.0837 119.6705 120.8951 120.8305 120.7768 120.7685 120.7900
106.2700 103.1063 104.4121 109.9366 113.8464 117.6909 118.4310 125.2700 124.1020 123.9050 124.7631 98.3840 106.5844 101.3769 114.7872 121.7986 123.9404 125.0751 117.0017 115.7036 117.9557 113.9899 104.3386 107.3026 113.0606 104.6311 101.2842 101.8690 104.4745 115.4987 113.3429 118.9465 129.6459 119.1361 119.9321 120.4902 120.4021 120.4054 120.4145 120.4800
107.5900 103.2301 102.6882 105.4954 115.0500 119.8813 120.9345 124.3999 124.1292 123.8890 123.7900 118.2733 122.1502 105.3927 107.3605 114.2747 122.8222 122.3427 123.3802 123.2992 108.5034 114.2213 117.8805 107.6411 109.5731 111.2775 115.0129 100.5672 104.9036 122.9204 121.1870 120.5270 119.2663 120.3200 120.1313 120.0473 120.0587 120.0472 120.0513 120.1500
103.3100 101.3788 113.3174 105.8116 107.5311 106.4984 127.4211 124.6458 123.8099 124.6797 125.3540 123.9304 123.6090 122.9349 122.8433 122.4069 122.2376 122.2467 121.7700 122.0454 112.7063 113.9874 122.9351 119.2083 104.8119 104.6350 108.7791 112.5441 117.7488 120.8384 119.2406 119.9561 120.1016 119.8426 119.7425 119.7120 119.6722 119.6579 119.6644 119.8100
105.0800 108.8917 105.5922 101.2379 114.5420 103.3225 105.5326 123.1791 124.0419 115.6333 102.7954 122.8706 122.7302 120.6928 120.1377 122.6679 122.1350 122.0132 121.7740 122.2498 119.5085 103.8179 101.3037 122.7913 98.6409 104.2043 115.1537 122.2994 120.2524 119.8313 119.6938 119.5944 119.4453 119.3943 119.3499 119.2932 119.2620 119.2540 119.2677 119.4500
103.0900 107.3840 106.5696 103.2151 102.2567 116.4777 124.0660 124.3634 123.9578 123.2691 122.9647 124.0092 122.6846 122.5753 122.4461 122.2248 122.0113 121.7777 121.5489 121.3301 121.3322 118.5475 113.9815 124.7287 121.4315 110.2222 121.3734 118.7729 119.6249 119.5024 119.3179 119.2116 119.1147 119.0111 118.9330 118.8832 118.8439 118.8389 118.8451 118.6900
103.3500 102.6944 107.5008 115.5357 110.3552 109.0195 126.9506 123.4537 121.1026 105.8624 100.7213 124.4750 122.7792 122.3105 122.4838 122.3140 121.7932 121.5559 121.3703 120.9088 121.4881 122.2223 107.2098 114.2013 121.8899 114.5554 120.4403 120.2501 121.5442 119.0804 118.9317 118.8050 118.6820 118.5809 118.5056 118.4429 118.4066 118.3922 118.4075 118.2800
117.0200 114.4777 116.9133 114.8502 117.6509 124.2307 123.4984 123.6388 123.9116 126.3032 109.4888 112.4950 119.1036 122.8549 118.1714 121.4188 121.6028 121.3520 121.0694 120.9910 117.8723 98.9699 98.2690 107.5524 121.0751 119.7329 119.2453 119.2601 118.6646 118.6582 118.5209 118.3828 118.2510 118.1314 118.0511 117.9777 117.9388 117.9303 117.9387 117.8600
115.6100 114.2200 99.7080 108.8909 116.4356 123.9307 123.0855 124.2874 115.6268 121.6876 128.0623 100.4465 106.2836 118.5221 112.0720 119.4453 121.2573 121.1219 120.6938 119.5704 119.2640 101.4081 105.6931 106.9083 105.8406 115.3194 118.3515 118.5750 118.4870 118.3582 118.0892 117.9416 117.7834 117.6700 117.5706 117.5012 117.4554 117.4361 117.4449 117.4100
107.6800 110.5909 102.4224 101.5364 109.0355 124.5492 125.4167 115.7523 107.4233 120.0891 121.5036 111.0847 114.9686 103.3782 123.5137 121.9631 121.1576 121.0777 120.6231 115.0473 100.8190 114.8237 106.9133 100.3518 109.7178 96.6795 123.7019 118.3798 118.2202 117.1196 117.7460 117.4585 117.3136 117.1758 117.0612 116.9827 116.9294 116.9153 116.9265 116.9400
102.7600 112.6015 101.9691 102.4041 109.8232 117.9020 112.5393 118.9045 125.3201 123.6295 122.6030 123.2086 122.7965 121.8574 120.5570 120.7088 121.2743 117.0907 120.6264 122.3200 105.5948 107.0750 100.7653 113.2595 112.5919 114.5164 107.5527 117.8546 117.8525 113.4641 117.3746 116.9589 116.8417 116.6538 116.5255 116.4359 116.3840 116.3571 116.3810 116.4400
104.9500 104.7811 102.4300 105.0877 108.3295 117.8140 119.0855 123.4109 124.3582 123.9861 122.8034 122.8141 121.6311 123.7482 123.7092 122.1463 120.7309 117.3172 120.1109 120.4955 116.0000 115.9026 107.7535 110.8269 119.3860 113.6213 115.0001 120.7253 117.3334 114.3131 117.7458 116.6711 116.0441 116.0663 115.9769 115.8564 115.7918 115.7690 115.7888 115.9100
123.0400 116.9709 102.5113 104.4783 116.0534 107.7035 111.5426 124.8372 122.9253 110.6163 110.3729 104.9636 117.5869 101.9068 101.5569 112.7423 121.1596 120.1249 119.9764 119.5718 119.6470 117.9359 117.0865 119.1056 117.3003 118.2018 117.7682 111.0095 116.2805 117.8865 111.2353 114.8416 115.8569 115.7099 115.2427 115.2436 115.1551 115.1349 115.1531 115.3400
119.3600 116.8353 123.2809 99.3645 120.2928 120.5965 120.4272 124.0764 110.1530 125.8216 103.3639 101.7682 104.8921 99.2986 119.5569 118.0505 120.2928 120.1426 119.7465 119.3930 118.9874 119.0100 120.8730 121.2977 118.2247 117.1945 116.8989 117.1752 116.2573 115.8991 108.9961 116.2306 111.5905 113.4217 114.7054 114.5658 114.4794 114.4449 114.4688 114.7400
113.7800 121.4368 122.7955 101.1560 128.9910 121.7155 123.3181 122.7939 122.6810 121.7199 120.6292 107.7615 102.0507 101.6654 117.9926 120.2514 120.1744 119.8633 119.5291 119.2388 118.6871 117.4875 93.5302 94.6848 112.9693 116.7311 116.8111 116.1117 115.6644 116.5426 106.8955 93.0501 114.6226 115.9410 113.5617 113.8766 113.7392 113.7032 113.7313 114.0900
124.2700 122.1389 117.0030 119.2120 122.8852 123.0430 122.9621 122.6340 121.9581 121.7564 121.7712 122.0640 116.3104 103.0477 126.5964 117.8157 120.0274 119.8349 119.2814 118.9431 118.3526 121.0285 98.6122 114.9549 105.0329 117.3337 117.1160 115.9175 115.3367 114.9093 102.3554 113.7432 103.2848 102.2484 114.0517 113.0999 112.9159 112.8868 112.9191 112.6200
119.3100 102.5351 126.6664 124.0833 122.9340 123.1012 122.7956 122.5946 122.4892 122.2533 121.7670 121.0913 123.4492 100.7255 112.5727 119.6546 120.1357 117.0098 119.3388 118.7323 118.4304 117.5807 117.9972 117.0821 117.0205 114.1493 110.8293 115.6406 114.9142 114.0361 115.6768 109.7659 95.5858 93.0664 114.2865 111.9992 112.0520 111.9840 112.0304 111.7800
120.6500 108.7056 124.9135 123.3971 123.1602 123.0106 122.7698 122.4840 122.2993 120.8309 121.6362 121.4417 120.8087 121.5755 122.1072 111.1343 121.1457 109.7583 119.9842 118.4183 118.1176 117.6331 117.1823 116.8162 116.4692 116.6426 116.0147 114.8627 114.3348 113.3031 108.5768 114.5716 105.5437 97.3554 105.7841 111.3313 111.0992 110.9836 111.0391 110.8500
104.9800 115.9990 123.6623 123.6729 123.3271 122.9445 122.6600 122.3967 122.2819 119.5548 121.8019 121.1914 120.9964 119.7514 114.8552 109.2180 119.6560 120.5176 118.9819 118.3805 117.9038 117.5106 117.0636 116.5418 116.0325 115.4072 114.9293 114.3981 113.8140 113.8142 104.3707 114.6557 112.5565 106.8896 102.1136 110.7421 109.9658 109.8444 109.9222 109.8100
124.0000 119.6558 123.2542 122.4931 122.6234 122.9113 122.7002 122.3983 122.1663 122.0915 121.5779 121.1594 120.8444 120.4290 118.6492 116.3257 119.3947 114.6827 118.9062 118.1750 117.7301 117.2221 116.7286 116.2648 115.7423 115.1845 114.6134 114.0145 113.3543 111.9665 112.9071 111.2713 110.8860 110.2849 109.0278 109.2304 108.6820 108.5444 108.6418 108.6200
123.9800 124.8290 124.2725 124.6404 125.1717 122.7139 122.2967 122.1473 121.5921 121.3809 121.3742 121.0431 120.7361 120.4119 120.2324 120.4933 119.0024 116.5164 118.6391 117.8818 117.5008 117.3441 116.7853 116.0195 115.4616 114.8635 114.2378 113.5744 112.9025 111.6745 111.2761 108.7426 109.2365 108.9707 108.2506 107.4959 107.1934 107.0092 107.1491 107.2400
123.9700 123.1211 114.1985 122.7301 103.8056 121.8009 123.0711 122.0912 122.7906 122.7066 121.1489 121.0923 120.6377 120.2707 119.8736 119.3823 119.1063 119.1136 118.5264 117.6405 117.3952 115.4887 115.5516 115.8076 115.2192 114.5835 113.9119 113.1963 112.4305 111.3959 110.7717 110.0162 109.0578 107.8442 106.8916 106.0397 105.3931 105.1509 105.3569 105.5900
123.9500 124.6198 122.4453 124.1984 119.7115 122.4904 110.6574 120.1706 115.4264 102.3352 122.7572 120.0802 120.5394 120.3798 119.8879 119.5031 119.1007 118.6695 117.9751 119.1141 103.3813 121.1187 118.6989 115.6390 114.9840 114.3368 113.6195 112.8515 112.0260 111.1488 110.1487 109.0414 107.8931 106.6741 105.3767 104.1589 103.1796 102.7654 103.1008 103.5400
112.9200 113.3282 113.7913 111.8238 112.2143 111.0714 113.1040 121.7209 112.9709 117.5248 116.3764 119.2160 119.4009 118.6874 119.7341 119.4301 119.0148 118.6556 117.9956 108.1700 114.4591 112.1188 108.1091 115.0524 114.9072 114.1353 113.3826 112.5683 111.6791 110.6955 109.5941 108.4623 107.0266 105.4832 103.7765 101.9196 100.3107 99.5318 100.2221 100.8300
113.5100 108.2258 110.3098 110.9540 108.2642 104.1228 104.0511 122.2038 97.0818 119.8519 116.3808 119.7397 120.3752 120.1239 119.7346 119.3685 118.9343 118.7485 117.6959 110.2382 116.5420 105.7131 111.9749 110.9606 114.9749 114.0086 113.2021 112.3573 111.4094 110.3715 109.5672 107.6318 106.2494 104.4222 102.1479 99.3806 96.0339 93.8867 95.5636 97.1400
102.5400 101.7412 102.6933 101.9285 115.0617 118.7807 124.2513 122.6207 120.3509 121.7114 121.2066 120.9264 120.3837 120.0955 119.7196 119.3420 118.6504 120.3538 98.8741 110.4956 117.3128 116.9703 119.4158 111.0349 114.8843 113.9414 113.0861 112.2169 111.2254 110.2912 112.8919 109.2467 105.9400 103.5832 100.7911 96.9064 90.2389 87.5704 89.7627 96.1100
109.8500 108.8172 118.0331 116.1637 124.4352 120.2635 121.4485 121.2536 121.4203 121.2152 121.1397 120.7728 120.4661 120.1297 119.7467 119.2265 121.1005 120.6038 101.0147 95.0655 116.8490 115.6476 115.1195 115.4027 114.5681 113.8773 113.0484 112.1599 111.2447 110.5414 99.8506 126.2119 104.2442 103.2831 100.2304 95.5212 87.5007 84.7600 87.3417 89.5600
123.9300 115.8130 123.1786 115.6136 123.3668 123.2127 114.7402 122.5798 121.7109 121.5851 121.1834 120.8356 120.4899 120.1161 119.8442 119.0988 118.1212 115.5899 106.2654 100.4808 117.7949 116.4134 116.1098 113.6253 114.8038 113.8778 113.0837 112.1903 111.3073 110.9331 101.9639 116.8588 104.8258 103.4864 100.6738 96.1756 89.6700 86.9721 89.2616 96.2800
123.9300 123.7600 123.4200 117.1000 122.8800 122.6900 122.5000 122.1100 121.9000 121.4800 121.2600 120.8000 120.5600 120.0600 119.8000 119.2600 100.1700 102.8600 120.0300 115.7400 117.0400 116.6700 115.4300 109.0000 114.5500 114.0500 112.9700 112.3800 111.0500 110.3000 108.5800 105.1800 106.4600 103.6200 101.7700 99.4500 91.1700 91.8300 91.1600 96.6600
