118.6100 118.6400 118.2800 118.3000 118.3000 118.2900 118.2700 118.6300 118.5900 118.5500 118.8500 119.1200 119.0500 119.2900 119.5900 119.7900 119.7300 119.9800 120.1800 120.4200 120.6100 121.0600 121.0600 121.2300 121.6500 121.8100 122.0000 114.8600 122.5700 122.7200 122.8900 123.0600 123.2300 123.5700 123.7200 123.8700 124.1800 124.3300 124.4800 124.6200
118.2000 118.2222 118.1688 118.1239 118.1331 117.8310 118.0153 118.2584 118.3659 118.4812 118.6967 118.7073 119.1601 119.5258 119.1087 119.2021 119.9541 120.1386 116.5677 115.7732 121.1258 121.2578 121.3712 121.2117 121.5319 111.1871 119.0390 119.8789 122.6317 122.5529 122.8174 123.0254 123.2467 123.4641 123.6583 124.0428 124.0719 124.6879 117.0321 124.5800
117.7600 117.7538 117.6955 117.6682 117.5532 119.8124 117.6835 117.8327 118.0237 117.4416 119.6684 117.1064 111.2714 115.5489 118.6921 119.4577 119.4309 116.2437 118.0731 99.2624 119.9210 120.2381 115.4935 120.8296 120.9265 113.7801 123.6404 124.0652 122.1502 122.4178 122.6513 122.8758 123.1012 123.3320 123.5577 123.1042 124.9350 116.4208 103.5112 124.5800
117.3100 117.2626 117.1936 117.1377 116.9330 119.7500 116.9205 117.3394 117.4180 104.4817 106.2732 116.2432 95.2945 108.8397 118.9916 118.4278 117.8015 119.0548 115.4103 116.3646 119.7332 120.4341 120.9031 120.9800 120.9483 120.6760 113.8188 119.1773 122.0721 122.2667 122.4897 122.7300 122.9599 123.1655 123.5300 124.0129 119.6431 103.4789 106.8509 124.3500
116.8200 116.7358 116.6614 116.6111 116.4095 116.2927 116.7651 116.5569 122.2694 118.8602 115.5987 120.4580 102.2129 103.3620 116.7978 119.1882 119.7437 118.7440 119.9594 119.5097 119.6767 119.8852 120.3097 120.5352 121.1777 121.1961 122.6253 121.3649 121.8087 122.0974 122.3393 122.5843 122.8277 123.0520 123.0000 124.3586 106.4736 120.9915 112.0152 106.9300
116.3100 116.1802 116.0931 116.0382 116.0494 116.0894 116.1526 115.8229 116.2525 116.2301 117.2714 100.7996 94.6175 119.6918 104.8593 103.3981 114.6168 119.0790 118.8372 119.0327 119.4436 119.7150 120.0578 120.0007 121.6302 108.5340 122.7107 121.3080 121.6950 121.9588 122.1886 122.4403 122.6818 122.9259 123.1372 123.4038 127.2833 124.9518 113.8130 106.4400
115.7600 115.5921 115.4802 115.4256 115.4027 115.4263 115.5463 115.6915 115.7853 116.1917 112.4478 99.2998 105.7028 116.9861 110.9063 104.0335 114.1896 118.3639 118.6156 118.8647 119.1597 119.4878 119.8135 120.4292 121.0244 115.4963 120.8569 120.8133 121.5730 121.8212 122.0469 122.2985 122.5543 122.8038 123.0521 123.2542 123.3735 123.6727 123.4399 124.0800
115.1800 114.9536 114.8339 114.7553 114.7422 114.7723 114.8577 114.9740 115.1601 116.1232 114.5168 115.5119 117.1322 119.4239 102.2593 106.2283 105.7578 112.5991 111.3541 119.1492 118.8439 119.3201 119.7903 120.5823 118.6715 115.1938 110.5435 120.8192 120.6729 121.7046 121.8949 122.1731 122.4262 122.7521 122.9302 123.1532 122.5134 123.6824 123.7680 124.8100
114.5400 114.2698 114.1284 114.0548 114.0282 114.0615 114.1606 114.3221 114.5112 114.6960 114.2754 114.7642 116.1257 109.4481 107.7339 101.3906 103.4311 110.9011 118.8766 118.3302 118.4766 119.4935 115.2871 111.2255 104.5867 123.9726 111.8358 109.7966 113.6434 121.9779 121.5961 122.0630 123.4669 123.2140 122.8851 123.1089 123.3972 123.6132 123.8590 123.4100
113.8800 113.5364 113.3684 113.1770 113.1885 113.2543 113.4047 113.5889 113.8283 114.1251 114.7114 114.4963 103.8538 102.8345 99.3015 104.2390 107.2496 120.0386 117.2803 117.6602 117.8931 119.5765 104.0916 97.9921 108.6343 110.3403 112.4446 114.0428 123.7835 121.3526 121.5901 121.9694 122.0222 122.3203 122.7197 122.9799 123.2140 123.2456 123.2772 123.8200
113.1400 112.7602 112.5761 113.0286 112.7608 112.4748 112.5578 112.8184 113.3106 113.3330 112.9921 118.6213 104.8876 100.0693 104.3969 106.3801 117.0983 117.8162 117.5512 118.8287 119.8331 107.1393 115.7862 102.2621 111.5452 109.3366 118.0190 106.3486 123.7129 114.3863 122.0622 121.9022 122.1593 122.4028 122.6334 122.9005 123.1072 124.3476 125.7184 123.7900
112.3300 111.7577 111.8897 107.4854 108.5049 112.3369 111.6621 111.9105 111.8479 110.1262 108.7835 92.5955 112.5407 105.9784 101.4172 119.0742 114.4267 112.9803 116.2972 105.7646 110.9871 110.3949 100.0756 106.3625 105.3702 109.3945 119.1936 106.0001 122.2624 114.6860 121.4532 121.5278 121.9153 122.2749 122.5483 122.7124 123.4420 112.9695 114.1007 123.7300
111.4300 110.9852 109.1924 107.6819 108.5804 114.9747 110.6016 111.0477 110.9817 105.2749 108.0032 107.3302 100.0883 105.8425 116.1147 115.0911 116.3294 115.3664 117.2317 127.6926 114.6413 120.6843 118.1421 97.8023 109.8484 117.6418 123.4704 123.1291 122.1857 122.1719 122.2314 122.3090 121.8563 122.2026 122.4691 122.6726 122.1347 119.3355 110.2989 106.9500
110.4200 110.1452 103.1121 104.1570 111.0379 108.3488 107.0356 110.0786 111.0368 109.7188 117.9266 112.6071 113.1051 112.8439 114.4990 113.8567 110.3074 116.4138 115.5502 115.7528 119.4510 102.6368 109.6387 98.7341 113.3184 119.5466 114.2270 118.3187 105.7975 122.9503 112.8647 115.6864 122.0193 122.1773 122.3926 122.3455 122.9840 130.2639 108.2984 106.9500
109.2700 108.7195 106.2045 106.7229 107.3097 108.1859 108.4500 108.8308 109.5010 110.3799 111.7921 111.6452 112.4212 113.1295 113.8417 114.3143 115.8385 115.5626 116.2734 116.6494 117.2453 115.0808 115.7095 114.1667 119.1396 120.7494 106.0522 114.3808 118.1715 120.9181 119.1996 121.0325 121.7472 121.9295 121.7054 125.4577 106.2935 107.7110 116.6292 124.2200
107.8800 107.2543 106.6595 106.6737 105.9230 106.1684 106.7460 107.5359 108.3921 109.3469 110.1412 111.0450 111.8755 112.6810 113.4089 114.0397 114.6529 115.3367 115.9115 116.4861 117.1082 117.7849 118.0034 102.4669 97.5094 114.6232 119.4547 120.1532 120.5240 120.7585 121.2192 121.3988 121.7631 122.4077 114.2695 119.5407 104.2124 104.5917 110.9859 102.3300
106.2900 105.8367 104.7811 104.0161 103.8773 104.2274 105.0537 106.1119 107.2577 108.3816 109.4460 110.6440 111.4235 112.2645 113.0204 113.8111 114.4881 115.1292 115.7335 116.3185 116.8704 116.9447 118.3630 106.6112 99.3121 103.6391 120.4823 119.9583 120.3093 120.6088 121.0100 121.5060 122.0106 107.3759 112.4971 106.8180 106.1489 119.4780 112.5455 113.3600
104.6900 104.1735 102.6396 101.4291 101.0335 101.6796 103.0306 104.5703 106.0887 107.4991 108.7595 108.6123 111.0405 111.8660 113.2921 113.8668 114.4576 114.9317 115.5722 116.2081 116.6904 117.0777 116.6832 111.5835 116.5157 118.6982 119.5380 119.8941 120.3600 121.1126 120.4562 119.8654 112.1306 120.9264 104.8158 116.3811 111.9684 113.7099 115.1752 113.7500
104.1900 102.4133 100.0665 97.7341 96.7451 98.2568 100.6519 102.9758 104.9769 106.6867 108.9679 101.9198 111.4195 111.5300 112.4160 113.0888 113.1116 114.8119 115.4274 115.6344 116.3185 115.1522 113.9536 104.6647 119.7101 119.1746 119.3735 119.8053 124.9054 120.8272 117.0818 107.2271 114.8116 107.5665 105.5639 113.8056 113.2606 113.6947 109.7775 109.6900
101.6200 100.7300 97.1001 91.6666 89.8773 93.0198 98.2570 101.5364 104.0692 106.1093 107.6979 109.6085 110.2394 111.4357 112.3738 110.6983 112.1951 114.7662 115.3917 119.5515 114.3331 111.0748 100.1192 117.0105 118.3991 118.7217 119.2640 119.8202 119.7365 120.5055 121.7163 130.7468 114.8138 112.8215 110.7075 112.9147 114.2314 114.7492 113.4201 114.8000
101.6200 99.6321 94.4289 87.0111 84.9037 88.3667 96.2521 100.6143 103.5427 105.7543 107.4952 108.8670 110.1970 111.2926 112.2039 113.4409 114.0512 114.5394 115.2154 125.3608 104.3330 100.1479 97.9570 104.4465 120.9698 119.9047 119.8785 119.8132 120.3537 120.6717 120.0740 122.0425 122.2315 123.5316 122.9088 115.8946 108.7320 123.8485 118.5707 114.3400
101.5800 99.6419 94.5253 87.1443 85.2239 88.4785 96.3159 100.6211 103.5492 105.7414 107.4911 108.9572 110.1952 111.2798 112.2398 113.1203 113.9189 114.8305 121.0570 125.4155 105.6368 103.5535 101.3406 103.1436 114.3580 110.0711 114.4564 119.5365 119.6844 119.8166 120.7877 121.4136 121.2364 123.2737 125.9245 122.0093 110.7290 109.3523 124.5308 109.9100
103.7300 100.7580 96.6899 91.8733 89.9443 92.9940 98.2558 101.5560 104.0778 106.0820 107.7314 109.1161 110.3221 111.3843 112.3522 113.0063 113.3623 111.4691 109.4402 97.7951 112.9087 96.3298 109.4000 104.9017 103.1277 116.4117 111.1363 118.4456 120.4464 122.6765 123.3069 120.2555 121.9653 118.4095 121.3081 125.5003 102.7442 101.7599 116.3037 123.4200
104.1200 102.4130 100.0767 97.7628 96.7311 98.2875 100.6843 102.9969 104.9981 106.7019 108.1805 109.4688 110.5932 111.5955 112.4749 113.9130 116.0792 114.8864 114.8318 121.5950 113.7364 108.8637 98.6393 107.0009 104.0585 108.7734 120.0428 119.6242 113.3355 113.7639 110.7425 124.0210 120.6606 109.2048 110.4071 100.2199 99.9436 100.6606 102.4716 101.4300
106.1800 104.2322 102.6744 101.4372 101.0496 101.6988 103.0517 104.5896 106.1118 107.5015 108.7794 109.9120 110.9365 111.8977 112.5984 114.5036 96.3143 110.1191 115.6101 110.6139 116.9049 117.6000 116.1698 117.4990 117.4221 117.6776 119.5478 119.9373 120.2178 120.1130 107.3722 99.4263 99.9132 100.0227 100.5663 102.1518 103.6360 103.7705 103.6257 101.4300
106.1800 105.9120 104.8047 104.0826 103.8588 104.2323 105.0513 106.1922 107.2255 108.3912 109.4322 110.5803 111.3696 112.1848 113.3447 111.4822 114.6776 114.9399 115.4515 116.4482 116.7618 117.3519 117.8948 117.6115 118.7699 119.1270 119.5370 119.8342 120.2974 120.7001 119.7155 124.4156 119.6421 116.5212 107.8726 108.0326 101.0607 103.8703 104.5744 104.5100
109.1900 107.3578 106.6052 106.1285 105.9891 106.2202 106.8260 107.1252 110.7541 107.9888 110.1638 110.7796 108.6788 112.8809 113.2999 113.9098 114.3322 115.1247 115.8674 116.7512 117.0548 117.3658 116.7576 104.4981 119.9328 118.9819 119.4149 118.9934 120.1805 120.9256 118.8280 119.3725 114.1953 108.3677 127.3269 111.0141 127.0419 111.9879 115.0382 116.1700
109.1900 108.5293 108.1770 107.7898 107.6917 107.8665 108.2379 108.9885 108.3304 100.9132 111.3818 111.9729 112.6444 113.0662 114.4721 115.4109 115.6132 115.7242 116.5352 111.9665 117.9907 117.1056 102.1945 107.0468 120.4431 118.7213 115.2854 114.8178 120.2036 122.2262 105.0860 118.8106 103.3015 99.9723 106.8083 110.9309 109.7465 113.3688 119.8331 113.1000
112.5900 110.1788 109.3853 109.2068 109.1211 109.2439 109.5325 109.9445 111.9150 107.2039 112.0343 112.4601 112.9808 113.4716 116.0273 103.8418 114.0491 115.8239 113.1762 103.8257 115.3420 119.2498 116.3752 102.5901 121.3222 119.4757 109.5374 120.0999 122.5441 122.4279 119.5166 127.5125 121.5198 106.6539 107.9801 110.6968 111.5433 103.2528 112.8290 113.1000
91.6200 112.0126 110.2301 110.4108 110.3483 110.4416 110.6860 110.7411 112.7013 89.2370 113.6591 112.8719 113.4638 114.0861 115.1279 125.7123 118.9009 116.1987 115.3444 116.4162 109.3520 104.4061 94.8308 104.6335 113.2713 119.7476 120.6555 121.6597 110.3500 130.4874 121.2852 110.6957 104.5600 116.6000 110.1774 110.2696 123.3857 108.5450 113.1003 125.7300
90.6900 110.1865 111.6385 111.4671 111.4109 111.4806 111.6760 111.9798 110.2550 90.2780 114.4868 113.4314 114.1507 116.4199 114.3448 109.2504 113.9175 116.1897 116.6939 118.3236 112.5398 110.8804 104.2444 100.3790 98.9343 122.3502 121.2811 124.0888 113.1691 113.9569 111.7013 109.0242 109.9266 99.4617 116.7153 102.5730 110.3660 115.5552 115.3214 113.5100
113.1000 113.5100 112.3319 112.3930 112.5307 112.4684 112.5386 112.9955 111.1828 91.0360 115.1623 97.8513 97.1707 113.8821 116.0782 123.6071 117.1150 116.2253 116.9575 116.9972 118.5817 114.6832 106.4377 100.2739 103.5461 109.3028 109.5831 112.6697 116.0870 105.4260 107.4494 107.7119 105.4200 117.5748 108.4454 116.3791 108.5282 104.3830 111.5489 109.2300
113.8500 113.3760 113.2707 113.5364 110.7552 113.3342 113.7554 113.3649 114.8718 109.1550 100.7893 100.0241 97.3010 120.1799 97.2863 115.4001 116.7800 118.3958 119.9618 118.9664 119.3753 118.3955 114.6116 117.6554 102.4459 105.8083 108.9662 108.1910 101.4441 99.3547 105.2717 106.5242 121.8286 119.5412 119.5175 125.4028 124.0508 112.7260 100.5582 101.9300
114.5200 114.2840 114.0909 113.9258 111.4917 109.4896 105.3535 114.4843 115.6953 112.7546 106.0647 97.6959 106.8916 99.9482 96.2898 111.3329 115.4020 98.2181 100.5140 109.4374 104.0262 115.3934 111.9053 110.9891 101.8483 101.3278 108.5122 109.0093 107.7069 108.7623 100.1752 101.9084 116.8900 123.1842 122.7000 124.8070 106.0827 135.7067 116.0384 113.3400
115.1300 115.1520 114.8931 114.7894 116.6166 94.9610 92.8101 110.2162 115.0694 115.5935 117.4339 102.6809 122.1807 110.7649 119.7646 115.5380 119.8831 118.0297 119.3286 106.4988 106.6841 104.4630 98.8457 125.2424 100.6775 114.4645 104.6379 109.6054 108.9376 109.7753 108.0826 114.0310 116.1610 116.2924 118.7113 111.7394 110.3620 115.7054 100.2198 101.9900
115.7500 114.4598 114.8461 115.4568 115.8551 113.9585 110.3921 111.3495 114.8195 116.0766 116.5224 107.5560 116.7791 102.8251 117.1257 117.5495 117.4441 115.0116 119.4801 117.0453 104.8079 100.8247 104.2965 100.6583 104.0744 101.1722 103.8985 106.1631 107.1821 115.0972 116.1587 110.2612 111.9667 115.5073 114.7594 114.3364 117.4267 121.7853 125.1631 124.1800
116.2900 123.9234 117.0334 116.3585 117.4387 92.3279 103.6659 111.3154 115.8162 116.6412 116.7182 116.8991 117.0783 117.8104 117.7683 118.4079 120.3534 114.1248 118.0826 108.4799 104.9482 106.0481 102.4059 105.9118 109.4538 125.8619 110.1654 113.0681 108.5614 109.9413 113.5265 110.7815 110.6260 114.3831 112.9565 113.0819 114.4455 109.8274 117.6412 102.2100
103.7300 98.5886 117.1395 115.8734 97.9298 99.6715 100.8710 114.6178 114.6882 116.4086 117.2194 117.3529 117.6253 117.9067 117.8836 117.5001 111.7651 131.2204 101.5311 99.4266 105.8506 119.6569 108.7233 104.4528 116.2912 120.1595 120.1513 114.0413 113.9083 105.6878 107.6513 109.5907 106.5565 113.8030 112.1789 112.9528 114.4234 111.3593 115.3791 115.6000
117.2900 113.6736 117.2819 118.8468 115.7175 97.1985 106.4509 118.0913 117.0274 116.6334 116.4818 118.5224 117.9940 118.0090 118.3121 119.9506 113.9033 103.0483 101.4101 114.1121 100.8392 115.4787 123.0615 111.1746 117.1810 121.3897 121.2754 123.0699 123.9003 110.8689 108.5042 102.4388 99.9040 111.8065 112.0971 113.1043 113.5997 110.9952 118.3237 115.3200
117.7500 117.7500 117.4100 117.4200 117.4300 96.1100 99.2600 112.4300 117.7200 117.6700 106.2300 118.2500 118.4900 118.4900 118.7100 96.9500 105.2900 120.9200 119.2300 100.7200 100.3500 120.3300 120.5500 120.9700 121.1700 121.3800 121.6100 121.9600 122.1500 109.0500 110.9900 100.8700 101.0400 111.4000 113.2700 113.2600 113.6400 114.5100 124.3200 121.1600
