116.4800 113.8500 113.8500 117.3200 117.3200 106.1400 106.1400 103.8200 103.4600 117.7500 112.7700 125.0900 115.7200 115.7200 124.8600 124.7300 124.7300 124.6300 124.6300 124.4900 102.3300 106.8000 124.2000 124.2200 124.2600 112.1300 112.1900 124.1000 124.1200 124.1300 124.1300 124.1300 106.3900 124.1100 124.1000 124.0800 124.2600 124.2400 124.2200 124.1900
116.4800 114.9219 114.0970 112.6652 114.2308 113.7842 104.4610 104.1232 102.4565 106.9544 120.0946 124.9119 120.2550 124.4862 125.1034 125.6104 123.9882 124.9365 124.0774 126.1119 111.9295 119.4384 124.7792 123.9685 125.6535 111.4410 114.7120 124.2556 123.7177 123.9056 123.9919 123.5942 113.4384 119.9713 123.6235 124.0541 124.0316 124.0622 124.1155 124.1900
108.3700 112.0400 114.6571 114.7051 107.9315 102.4915 114.4089 105.3719 103.4169 118.0896 127.5940 124.5050 123.4010 120.7444 123.1914 120.2445 114.7797 124.3052 124.5784 124.2642 121.7689 116.8740 124.2808 123.5307 125.2310 110.9546 110.0156 124.4471 123.4165 123.6906 123.0805 123.2280 123.0446 123.8569 123.6953 123.7510 123.7923 123.8266 123.8792 123.9700
103.8400 106.2448 115.8932 116.8647 109.0968 109.1336 108.1418 104.9604 113.7627 121.6435 103.8442 121.7848 123.8143 122.0372 124.6962 123.5535 124.4180 125.2468 120.7314 123.3976 124.6526 123.1986 123.9164 123.7567 122.4859 110.3624 109.9628 123.9261 123.0896 123.5190 118.7647 123.3116 123.1096 123.4328 123.4545 123.4919 123.5402 123.5835 123.6374 123.7500
109.1300 115.2026 111.1003 110.7441 106.9035 105.9505 109.7584 113.0441 110.8962 116.7737 105.3102 124.9858 125.2139 124.2966 123.6988 124.0029 123.8903 123.7415 116.9807 123.8821 123.3643 123.5166 123.5137 124.0849 112.4891 110.1925 110.8345 123.7466 123.2915 123.0224 122.9358 123.6524 123.1833 123.1579 123.2482 123.2829 123.3217 123.3398 123.4004 123.5200
114.3900 114.0870 107.8630 105.2621 109.8102 106.0113 113.4552 107.0220 108.5971 102.4923 126.8850 124.2461 113.3636 123.3168 121.6613 122.7454 123.7102 122.0499 124.2146 123.2120 123.2757 123.2714 122.8131 124.2468 110.0318 108.8771 112.2344 112.7256 113.7240 118.1657 106.3254 122.1619 122.5910 123.3777 122.9478 122.8299 122.8687 123.0747 123.1134 123.2900
106.9700 112.0931 109.9642 104.4810 104.8718 106.5720 112.4557 114.4857 109.0936 108.7314 125.3760 123.6599 113.8852 119.0605 112.9418 105.2460 113.9618 117.1113 123.7474 118.1499 121.9219 122.4877 124.4210 124.1773 109.9317 102.1552 113.3417 111.3739 108.1413 113.4144 103.8529 121.5995 122.5787 117.9401 122.7677 123.4601 123.4703 122.5264 122.9387 122.8000
109.1800 108.6741 116.0370 111.5417 103.1630 103.1373 109.3834 114.7552 124.2843 114.7763 123.6152 123.4662 121.4211 100.9104 102.8649 100.0274 100.5591 112.6414 121.7843 115.6808 114.4347 123.8005 124.9126 101.2149 107.0954 100.6438 105.1440 112.1346 115.5883 123.8110 103.0720 123.9501 103.8386 101.5966 125.9337 107.0747 125.3579 123.3313 122.4551 122.5400
117.3500 110.0844 104.0148 119.0875 104.5913 100.3604 113.7010 114.6090 109.4528 119.2630 119.8758 123.2292 126.2407 111.4058 115.6251 106.8580 120.8583 117.6015 120.1153 112.6401 110.6841 121.7584 106.6220 110.6462 104.3515 99.4339 105.9105 107.8794 104.1702 121.6918 105.0806 108.3532 112.2780 111.4259 111.1909 102.9121 110.2801 118.1506 122.1931 122.2700
105.4300 105.5332 107.7281 111.1126 104.7548 104.1673 109.9424 110.1935 125.2916 124.4354 124.2088 125.0130 116.3560 104.4105 103.8038 107.6005 123.1565 117.2949 99.5545 120.0651 112.3902 121.7762 99.4899 108.5711 102.9011 104.6413 108.6385 112.1118 106.2725 123.0869 98.4556 114.9345 100.7432 123.5800 112.5995 102.5928 120.0535 121.2345 121.8157 122.0000
107.6500 104.0371 108.8452 111.3157 108.0412 110.6374 108.5288 111.4453 124.8932 123.9582 116.4964 115.8778 103.2527 106.4189 103.4853 111.9472 121.1688 124.6312 100.2712 121.5891 109.4082 115.3819 104.6307 108.5054 109.7272 99.0545 106.4167 105.5868 109.7241 104.2414 98.9542 101.3017 104.1777 105.7007 126.4503 119.4437 121.4763 121.6627 121.7490 121.6900
104.8800 105.4537 102.2835 104.7889 109.4120 112.2232 117.8204 122.2815 123.1307 121.2889 120.6823 109.8842 102.6247 115.6604 99.9677 112.8248 123.1234 121.9690 104.3573 111.4077 109.0447 114.7866 110.4616 101.7003 106.7845 105.6952 106.4648 102.3263 104.3827 101.4026 110.5221 105.0519 121.6822 116.8201 120.9284 120.9376 121.2664 121.2764 121.5181 121.6900
108.0400 102.5313 101.9993 103.5130 104.5790 114.9942 119.7569 120.1908 122.1846 122.1785 122.9543 104.0246 111.2549 99.2894 118.9920 111.9137 121.7601 121.5914 123.4957 108.4100 109.2167 112.5144 102.2961 113.3292 120.7423 100.4212 98.2318 104.2193 107.7417 103.2960 109.4963 121.2466 123.3238 122.0402 120.6887 120.9153 120.8328 121.7940 120.1213 121.1200
108.0400 104.5875 107.0651 104.2443 108.0576 117.4162 118.9954 123.5601 122.6504 122.9117 122.7180 119.3172 119.4824 96.7392 123.8736 112.3620 122.0368 121.1668 122.0100 120.2355 111.4230 110.1107 121.4746 103.7185 111.6509 110.4244 107.1341 114.5494 95.9620 119.5932 121.1191 120.2867 120.4281 120.4069 120.5355 120.5598 120.5819 120.4732 107.1472 120.8000
102.4100 104.3319 117.9398 112.4338 108.5004 102.6119 123.9475 123.2003 123.4644 122.7615 124.1499 114.8943 119.9287 122.4565 110.9388 109.1532 121.4546 121.2360 121.0628 116.2699 106.7169 110.0675 100.6518 106.5711 123.0975 101.8035 114.6006 101.2674 96.6116 120.5727 119.2270 120.1190 120.0911 120.1026 120.1431 120.2052 120.2342 121.3929 121.9801 120.4900
102.0500 102.2036 100.3622 115.5384 100.5125 104.4291 110.9272 121.8785 123.4413 105.2530 102.6138 99.6487 114.6884 117.1358 104.1401 123.1481 120.7228 121.0827 120.8293 120.4685 116.5436 109.9465 105.4360 109.9403 121.3836 102.0004 98.6795 119.3205 101.6900 119.0600 119.2287 119.6475 119.6775 119.7136 119.7759 119.8438 119.9520 119.7536 120.0252 120.1400
101.9900 102.1252 101.5138 103.5371 100.9938 101.7641 110.1658 113.4677 123.6833 123.8822 102.5009 101.6532 121.2705 120.7821 121.5924 120.8329 120.8875 120.6652 120.4308 119.8165 122.1332 106.7934 106.7302 113.2402 103.4934 99.3496 104.2945 119.8850 113.2582 120.0512 118.9288 119.1896 119.2665 119.3222 119.3782 119.4548 119.5477 119.7190 119.8113 119.7800
101.7800 103.2614 100.1363 113.4146 104.9971 102.7887 102.4531 99.6433 122.8939 106.6535 96.9203 117.3230 121.9015 100.0306 118.9611 120.9400 120.5909 120.3250 120.3129 119.3841 121.0254 103.1767 105.1789 111.1196 123.0111 108.8597 118.4957 113.0492 118.2498 118.7270 119.5005 118.9589 118.6864 118.9251 118.9753 119.0600 119.1672 119.2739 119.4151 119.4100
106.0800 113.4744 101.6953 106.0810 110.4827 111.3483 107.5576 107.2110 115.8652 123.2904 99.2293 106.8125 93.9472 111.7500 124.7356 120.1439 120.0156 119.9945 119.3592 121.0383 114.5108 102.3971 103.9826 100.9347 113.6163 111.7640 122.4327 105.0286 115.4745 118.6649 107.2803 118.1887 117.8120 118.5138 118.5354 118.6419 118.7518 118.8925 119.0380 119.0200
103.3700 113.1237 102.8051 100.5491 104.8892 109.7627 107.8035 106.4825 109.3645 111.2098 109.7394 102.2890 105.7837 99.5308 119.0326 112.7792 119.7802 112.3178 113.3542 119.6102 110.8709 111.8372 104.3029 100.7978 104.5779 90.7846 112.6072 113.6187 119.7718 117.4362 94.4085 116.9774 117.6046 118.0355 118.1048 118.2061 118.3280 118.4742 118.6395 118.6100
102.2500 103.4575 101.6339 101.6645 103.2016 105.6201 107.2833 108.8690 110.1507 103.5719 114.1573 104.0473 105.6568 108.0464 121.4468 122.1466 119.6988 119.7256 101.0942 105.1015 115.2405 110.6386 102.9799 97.8503 110.9416 106.6458 112.2565 92.9576 114.2152 117.3913 120.6644 117.6041 117.5564 117.5221 117.6313 117.7429 117.8859 118.0389 118.2221 118.5600
101.4400 114.0351 101.7208 102.7895 109.9652 110.0732 108.4316 107.2791 104.5823 107.6397 111.6646 109.0128 112.6215 120.6204 118.6771 119.5040 119.5180 121.0567 124.7345 108.4190 120.4769 105.2390 102.8362 98.2689 97.0704 120.2881 118.0351 94.5186 100.1656 116.8180 116.4308 116.8958 116.9487 117.0230 117.1345 117.2514 117.4024 117.6738 117.8210 117.7200
118.8600 109.7613 104.3894 103.8538 124.5287 107.5976 116.5877 107.2940 107.3621 105.1185 104.7255 107.8334 124.2814 121.3553 122.8198 122.3069 104.8293 104.9123 117.7937 118.1969 101.0638 108.2591 113.8165 96.0158 99.7905 101.9092 119.5775 109.0437 124.9381 119.4728 116.5267 116.4358 116.4114 116.4953 116.5897 116.7779 116.9398 117.1002 117.9452 108.5300
121.2800 113.7668 108.7133 103.8120 107.6743 97.9887 123.0554 113.8584 104.4117 103.8914 101.0548 101.2696 106.2290 99.0928 101.8044 109.3678 87.4322 119.3074 119.8103 117.8167 114.0505 120.3353 118.7856 111.2548 111.3494 110.3358 117.3877 116.2365 110.9335 134.2098 113.7955 115.7625 115.8471 115.8887 116.1362 115.9971 116.2327 117.1582 115.7828 108.5300
115.6700 113.4332 100.4786 103.1546 120.6179 122.4159 120.5973 120.9925 119.7925 120.2003 106.9339 103.0025 100.9890 103.9926 115.3463 100.2144 115.2158 117.7980 117.6428 117.3303 118.8578 105.1503 109.1461 115.7662 114.1491 109.0751 104.2811 115.1587 115.6616 113.4326 113.9005 115.1336 115.1594 115.4471 115.4887 116.3779 115.5125 117.3937 103.4277 101.7200
116.3300 110.6330 117.3130 99.3054 126.6717 122.0231 121.2385 120.7177 120.1205 120.3720 118.9885 107.9651 98.0785 103.1913 104.8321 108.8286 118.7999 117.7389 117.3723 117.0715 116.7300 116.9292 110.8497 116.7205 115.4184 111.6242 112.7248 113.8169 114.7692 114.6895 114.7165 114.4445 114.5014 114.6433 117.0403 99.2958 116.0550 112.9038 101.6418 98.7000
100.7900 123.9058 124.4667 102.4173 100.9490 111.5277 121.8331 116.7129 120.2338 119.8735 119.7782 120.2400 118.3014 98.3274 103.6777 118.9105 117.1830 117.4688 117.3183 116.8922 116.1830 114.6505 94.9931 116.8084 114.8774 110.5823 115.0945 114.8102 113.9432 113.7081 113.6316 113.6934 113.8020 113.9929 114.6618 116.8497 111.7531 104.5456 100.5114 104.2000
101.3100 115.9779 122.4230 122.7121 123.7720 123.0289 121.2425 121.2296 120.0980 120.0539 119.7056 118.9012 121.1835 100.8475 95.8574 112.6981 117.4378 116.3696 104.2814 117.1063 115.7288 114.8834 115.7344 114.6031 114.3471 111.1187 110.0839 112.9844 113.1000 112.9259 112.8543 112.9365 113.0899 112.6015 115.5321 96.4447 95.0934 96.0887 95.0810 105.5900
121.9200 122.6022 119.9957 121.6865 120.8311 120.5850 120.5480 120.6199 116.0254 118.0896 119.2288 119.3204 118.6624 120.5127 105.1768 119.2517 105.9554 116.9202 107.6166 116.2963 115.2762 114.8387 114.5221 113.7535 113.6551 113.1524 112.6530 112.5641 112.0810 112.0333 111.9518 111.9945 112.8091 96.8158 100.5930 109.7881 99.5744 100.1849 100.2168 114.8100
118.4100 120.0004 114.2874 123.4706 121.0509 121.4650 121.9264 120.4974 118.3333 114.7120 121.7305 118.8662 118.6204 117.6857 118.6609 118.9643 116.7163 117.2532 116.0920 115.7144 115.0292 114.4363 113.9077 113.4221 112.8707 112.4136 111.9793 111.5487 111.2811 111.0546 110.9609 110.9984 112.0492 112.6737 104.9918 112.0176 113.5512 101.1564 105.5597 114.1900
114.7000 111.2490 116.9755 124.8491 122.2205 120.8347 107.7499 120.1319 121.2180 120.9440 120.7910 118.3848 118.5049 118.0378 117.4482 116.7585 115.6746 115.7539 115.3861 114.7290 113.8401 112.9711 113.4262 112.7647 112.1858 111.5952 111.0614 110.5969 110.2002 109.9381 109.8231 109.8706 109.7358 110.0719 110.8025 106.6016 116.9893 111.7854 107.2989 113.3900
113.7300 111.2998 108.3953 109.0639 113.1728 109.6114 114.9416 122.3807 107.8468 107.7865 121.7623 120.2033 117.9344 117.8128 117.3601 116.9347 116.4045 115.8340 116.9128 116.5556 115.0742 114.0795 112.3897 111.9106 111.4430 110.7630 110.1071 109.5059 109.0157 108.6694 108.5188 108.5659 108.9052 109.3049 110.6925 106.5554 109.0629 111.6350 102.8687 113.3100
110.8400 109.5482 110.6338 109.3828 99.4361 105.7079 108.6687 106.0442 104.0019 96.2915 105.4656 105.8540 119.6232 117.4635 117.1604 116.6273 116.1551 115.1310 113.6950 103.3455 90.9237 103.7565 114.2308 111.6874 110.7083 109.8717 109.0760 108.3215 107.6659 107.1996 106.9781 107.0667 107.4195 108.0443 108.8127 109.3341 112.4406 100.4618 113.7697 112.3800
110.7900 109.8338 109.1954 108.3178 105.3296 106.7988 108.0968 120.4212 102.0015 114.3989 110.9903 117.7282 99.6151 119.5313 116.7416 116.4453 115.8140 114.9292 116.7110 95.2869 104.0200 93.2008 96.2831 111.8730 109.6929 109.0315 107.9866 107.0139 106.1146 105.4332 105.1084 105.2360 105.7672 106.5907 107.5389 108.5201 109.6176 108.0915 109.8895 111.5800
107.0400 106.6143 105.9378 103.4996 103.5911 102.1020 103.6040 102.1215 101.7193 98.6808 101.0143 121.2868 113.2345 118.0233 116.7673 116.2860 115.6770 115.8014 101.9295 93.8595 92.6212 89.9595 115.3841 108.7615 109.2450 108.0956 106.8557 105.5531 104.3095 103.2497 102.7126 102.9280 103.7848 104.9863 106.2851 107.5960 108.5347 110.1569 111.0473 111.4000
110.4800 110.2852 108.5105 107.0707 104.4628 103.2277 106.1372 121.1729 102.0996 121.1713 114.9803 118.9332 98.4393 119.1140 116.7418 116.1799 115.3168 107.5352 108.8504 108.5001 98.6524 95.1265 108.7759 109.1648 108.3568 107.2932 105.7344 104.0312 102.1667 100.4599 99.4512 99.8849 101.3724 103.2238 104.9717 106.7108 108.4179 106.4019 89.8222 91.6700
100.1200 99.1731 100.0164 99.9184 108.9987 116.5057 111.7804 104.1847 119.2664 120.5133 94.1327 112.3329 118.4654 117.6999 117.0674 116.6759 116.1228 114.2248 94.2854 109.2984 112.7873 113.7367 106.4836 110.3627 107.8757 106.5425 104.7310 102.5267 99.8226 96.5250 93.8383 95.0263 98.5177 101.3780 103.8157 105.8625 107.0930 101.6859 106.9660 111.1400
102.4800 102.4797 106.7128 102.0984 106.0506 108.9483 112.7887 118.7322 110.1187 116.4032 116.8388 105.3667 115.9102 116.7445 114.5838 112.2346 112.2267 101.1814 105.1788 94.4506 111.9249 105.2679 110.0689 108.7580 107.6964 106.0466 103.9872 101.3145 97.6586 91.1892 87.1482 88.6587 95.1634 99.8141 102.9069 105.1710 107.5580 105.2540 110.4939 110.3100
106.8800 107.1033 105.5447 111.4730 112.0595 111.4466 108.6605 107.7913 108.4958 106.4947 107.4313 107.3281 113.9545 112.7833 112.2867 97.2516 97.4199 100.7063 121.2966 100.2968 113.0834 96.8414 104.3585 102.3644 107.9445 105.9143 103.7067 100.8360 96.5656 88.5506 84.5879 86.1573 93.2585 99.1797 102.5756 104.9919 106.9299 108.6899 109.6350 110.2600
107.2200 106.7200 112.1000 110.6900 110.5100 110.4200 106.8100 109.0700 108.9800 106.1100 105.3600 106.6300 117.7300 117.0300 116.6600 99.8500 98.9400 101.3100 118.2900 92.5800 112.3500 111.7000 106.6000 99.9500 107.4900 106.3300 103.4200 101.4900 95.5400 89.6700 89.6700 89.6800 95.5400 99.0100 103.4200 105.0000 106.3300 108.5100 109.4300 110.2500
