124.4200 123.9700 112.1900 112.7500 107.4000 109.9700 108.2200 103.4300 101.8700 125.6400 102.1700 102.1700 113.5000 113.5000 119.9500 120.0100 119.5000 119.5300 119.3100 119.0700 119.0700 118.8600 118.8600 118.5600 118.6400 118.6400 118.2900 118.3000 118.2900 118.2800 118.6400 118.6000 118.5600 118.8600 118.8000 119.0700 119.3100 119.3100 119.5300 119.4400
124.4200 111.7648 116.7192 110.3763 118.3389 109.1283 108.5419 105.5176 108.3631 119.9878 126.2013 108.9933 121.0455 113.1261 120.3557 119.8536 119.4462 119.2816 119.0903 118.9292 120.2133 111.9804 118.7868 118.2606 118.2405 118.1902 118.1525 118.1307 118.1323 118.1627 118.2198 118.2942 118.3889 118.5056 118.6464 118.8023 118.9713 119.1524 119.3518 119.4400
114.5000 104.6084 109.7882 111.7500 115.5125 105.7479 111.1400 108.2859 108.5223 121.6323 120.3663 120.1589 120.9705 119.6530 119.8093 119.3653 119.1480 118.9025 118.7087 118.3872 118.3206 118.3202 117.9912 117.9020 117.7894 117.7186 117.6674 117.6495 117.6544 117.6826 117.7449 117.8274 117.9431 118.0743 118.2254 118.3946 118.5804 118.7815 118.9939 119.3800
112.1700 109.9266 106.9980 108.1448 103.4012 101.2669 98.8948 114.1445 106.1404 110.0888 120.2458 119.9711 119.5778 119.5276 119.1581 119.0387 118.7335 118.5300 118.2906 118.0966 117.8950 117.6905 117.5694 117.4349 117.3020 117.2150 117.1632 117.1389 117.1443 117.1804 117.2509 117.3399 117.4653 117.6164 117.7870 117.9639 118.1701 118.3933 118.6228 118.6200
106.8600 112.3991 113.3390 105.8439 102.2958 98.6083 98.8703 106.0138 117.3786 118.9386 120.1801 119.7467 119.4710 119.2072 118.9373 118.6491 118.3884 118.1368 117.8911 117.6513 117.4376 117.2378 117.0566 116.9124 116.7811 116.6850 116.6261 116.5957 116.6036 116.6470 116.7241 116.8309 116.9673 117.1339 117.3210 117.5333 117.7543 117.9893 118.2453 118.1600
112.3500 105.6440 109.7941 109.2970 111.4747 104.7657 101.5511 104.4301 107.4005 123.6910 119.8333 119.4664 119.1697 118.8926 118.5945 118.3447 118.0059 117.7820 117.4624 117.2102 116.9734 116.7506 116.5382 116.3573 116.2636 116.1389 116.0521 116.0270 116.0301 116.0798 116.1634 116.2811 116.4415 116.6250 116.8337 117.0662 117.3124 117.5764 117.8528 118.0800
112.1900 110.9232 104.1724 106.2821 113.6321 117.3209 102.9806 100.3728 121.2284 105.9668 120.3742 118.9440 118.9368 118.5865 118.1110 117.9411 117.5590 117.0978 117.0337 116.7447 116.4832 116.2232 116.0166 115.8600 115.4144 115.4058 115.4477 115.4024 115.4124 115.4676 115.5673 115.7102 115.8835 116.0942 116.3275 116.5905 116.8632 117.1535 117.4554 117.6800
112.2300 112.0749 125.9527 97.7760 103.2728 103.8059 105.5872 108.6103 114.3117 110.5289 120.0745 118.9196 118.6154 118.0718 118.1647 116.7613 116.0420 116.9619 116.5853 116.2694 115.9695 115.6779 115.4239 115.0730 116.5309 115.6609 114.7513 114.7380 114.7517 114.8187 114.9290 115.0901 115.2929 115.5328 115.7945 116.0900 116.3936 116.7175 117.0440 117.2000
103.6300 129.8743 119.7869 112.5375 113.9787 100.8079 117.2570 117.6867 119.8809 119.9441 118.8033 118.6445 118.1344 117.8154 116.0513 106.5429 117.8587 116.6680 116.1042 115.7774 115.4306 115.1112 114.8162 114.8741 107.8846 105.9140 114.8307 114.0325 114.0232 114.1152 114.2419 114.4331 114.6675 114.9351 115.2397 115.5679 115.9145 116.2661 116.6332 117.0600
105.0500 102.4979 104.3459 110.5627 98.3979 103.2364 120.2265 112.2931 119.3151 118.8762 118.7331 118.9618 119.3318 117.4526 119.5614 117.6070 116.0996 116.1277 115.6409 115.2603 114.8727 114.5069 114.1868 114.4527 110.5534 112.9365 114.8723 113.2740 113.2364 113.3434 113.5045 113.7232 113.9962 114.3038 114.6060 115.0304 115.4058 115.8159 116.2143 116.6100
99.7700 104.0483 112.3448 99.7281 104.6515 113.2330 112.4890 115.0515 120.6361 118.9080 118.7835 111.8697 109.6707 107.8644 116.1345 116.2764 116.0460 115.5936 115.1780 114.7285 114.2996 113.8817 113.5504 112.9406 113.9825 109.5281 113.5720 112.3970 112.3882 112.5032 112.6992 112.9629 113.2835 113.6529 114.1938 114.8383 114.8757 115.3708 115.7890 116.0000
113.0300 117.9688 103.6475 100.0366 108.6117 112.5658 119.0461 121.9730 118.8584 118.7151 118.7169 110.2726 107.4718 101.4600 109.8988 116.0209 115.4947 115.1771 114.6828 114.1885 113.7008 113.2182 112.7766 112.3890 111.9473 111.4942 111.7271 111.4729 111.4425 111.5810 111.8155 112.1320 112.5195 112.9442 113.3498 110.2307 114.5901 114.8289 115.3798 115.9300
113.0300 112.0094 106.3941 114.0735 107.3203 117.3375 130.1396 119.0317 119.1417 118.5430 118.0160 118.6586 119.1263 110.2473 111.3901 111.5743 115.4542 114.6527 114.2002 113.6388 113.0870 112.5332 112.0017 111.5075 111.0687 110.7362 110.7533 110.2971 110.3871 110.5553 110.8465 111.2291 111.7115 112.1975 113.0355 111.3298 113.9830 114.3962 114.9545 115.2400
101.7500 113.7054 97.3146 104.9242 116.9422 113.8615 118.0519 119.1356 118.8144 118.3389 117.9176 117.4694 116.5669 117.0320 116.0155 113.8569 115.1842 114.2570 113.7087 113.0954 112.4607 111.8122 111.1831 110.5831 110.0510 109.6282 106.5433 109.4860 109.0455 109.3929 109.7609 110.2531 110.8230 111.4621 112.0693 112.7758 113.3180 113.9535 114.5508 115.2400
124.7700 100.8375 103.1457 102.3529 124.3273 120.4905 120.9029 118.5429 118.6366 118.1847 117.7352 117.2559 116.7971 116.1601 115.5118 115.0882 114.5341 113.9238 113.2339 112.5482 111.8226 111.0885 110.3365 109.5942 108.9169 108.4036 107.3235 107.5519 107.7166 108.0515 108.5513 109.1912 109.8948 110.6444 111.3795 112.1093 112.8415 113.5201 114.1679 114.5400
111.6600 104.3395 106.2607 107.9171 105.1248 105.0109 116.0965 118.6914 118.4661 118.0450 117.5662 117.0768 116.5616 116.0110 115.5039 114.8487 114.1968 113.5263 112.7977 112.0232 111.2024 110.3456 109.4737 108.5096 107.7020 106.8524 106.3278 106.0469 106.0639 106.5002 107.1850 108.0215 108.9155 109.8237 110.7069 111.5445 112.3458 113.1039 113.8106 114.4100
105.8900 107.2965 104.2735 99.2980 114.5771 119.3650 120.5963 118.6723 118.2582 117.9799 117.4384 116.9140 116.3460 116.0964 115.1825 114.5699 113.9118 113.1804 112.3914 111.5371 110.6203 109.6184 108.5525 107.4830 106.3006 105.2512 104.5012 103.8971 103.9889 104.6488 105.6539 106.7669 107.9068 109.0123 110.0450 111.0038 111.8914 112.7225 113.4807 113.8100
99.3000 114.0099 108.1090 123.1674 119.8658 119.1717 119.2176 118.8977 118.0760 117.4620 114.7318 116.7101 115.7860 123.4297 112.6122 114.7652 113.6595 112.8823 112.0364 111.1081 110.1140 108.9502 106.1231 104.1169 104.9922 103.0621 102.3078 101.0841 101.2806 102.3876 103.9158 105.4540 106.9101 108.2443 109.4387 110.5179 111.5017 112.3878 113.2080 113.7100
113.2600 107.9414 127.4226 116.1416 118.2503 119.3819 119.0765 118.5657 117.8060 117.4893 107.5551 117.1895 116.6874 114.7789 114.4041 114.2735 113.4753 112.6460 111.7524 110.7598 109.6449 108.3853 107.1280 105.4094 103.2577 101.0686 98.6885 96.8132 97.4041 99.7301 102.0205 104.1679 106.0037 107.5658 108.9247 110.1208 111.1739 112.1307 112.9915 113.6300
108.6300 106.4686 108.6590 102.4768 117.6652 119.1518 119.0647 118.8960 118.3013 117.5714 118.0380 117.5596 121.9390 115.6427 114.8500 114.0920 113.3361 112.4871 111.5489 110.5105 109.3326 107.9771 106.3070 104.4144 102.0161 98.8490 94.0247 90.1072 91.0812 96.2528 100.1954 103.0849 105.2806 107.0594 108.5506 109.8295 110.9522 111.9488 112.8391 113.5700
114.0600 105.0099 124.9908 125.0195 122.2878 119.0204 119.0023 116.8332 116.5195 117.4219 117.0777 116.6769 119.5240 115.3477 114.6360 114.0361 113.2631 112.4023 111.4499 110.3749 109.1598 107.7447 106.0661 103.9546 101.1814 97.1733 89.4319 85.0751 86.2432 93.0469 99.0157 102.4214 104.8743 106.7886 108.3524 109.6846 110.8358 111.8491 112.7663 113.5300
103.2000 99.4228 108.7954 123.0999 126.4243 119.3471 118.9616 116.0213 115.7119 117.5876 117.2386 116.5402 115.8789 115.5512 114.7642 114.0411 113.2576 112.4036 111.4456 110.3805 109.1575 107.7465 106.0558 103.9521 101.1897 97.2124 89.5423 85.0748 86.1896 93.0570 99.0329 102.4541 104.8888 106.7830 108.3473 109.6858 110.8345 111.8499 112.7637 113.5100
101.6700 107.1589 103.5629 106.3015 117.6401 115.0691 119.5648 117.1764 118.0702 117.6176 117.1671 116.6696 116.1045 115.4472 114.7976 114.0911 113.3295 112.4854 111.5547 110.5118 109.3335 107.9744 106.3836 104.4416 102.0158 98.8497 93.8715 90.0601 91.0883 96.3907 100.1889 103.0214 105.2396 107.0978 108.5986 109.8335 110.9558 111.9496 112.8399 113.5400
118.1500 101.9520 95.8132 99.3160 120.4434 111.6481 119.6751 118.7954 118.1833 117.7453 117.2377 116.7005 116.1466 115.5342 114.9662 114.2341 113.4480 112.6506 111.7517 110.7630 109.6586 108.4005 106.9628 105.3030 103.3449 101.1074 98.7757 96.8287 97.4486 99.7000 102.0443 104.3751 106.2429 107.4772 108.7609 110.1322 111.1888 112.1371 112.9921 113.5900
118.1500 105.0496 119.6414 119.8660 120.1053 119.2078 119.1155 118.7028 118.2776 117.8148 117.3232 116.8079 116.2560 115.7371 114.7206 114.3345 113.6620 112.8950 112.0389 111.1116 110.0942 108.9701 107.7217 106.3482 104.8333 103.2890 101.8782 101.0822 101.2954 102.4268 104.1533 101.0924 106.8861 109.0837 110.3648 110.5351 111.4942 112.4016 113.2160 113.6600
122.1500 116.4804 117.1718 120.5372 120.6109 119.5870 119.1763 118.7994 118.3744 117.9107 117.4363 116.9405 116.4049 114.9806 123.6390 113.6583 114.0387 113.1868 112.3914 111.5478 110.6241 109.6404 108.5745 107.4580 106.3229 105.2313 104.3454 103.8792 104.0003 104.6678 105.6336 106.6455 107.2512 108.3982 110.0189 111.0472 111.9030 112.7221 113.4890 113.7500
110.1600 121.5778 123.2411 97.7795 127.9398 118.9577 119.2637 118.9218 118.4899 118.0559 117.5823 117.0951 116.5464 115.9033 115.4738 114.6052 114.1469 113.5346 112.8023 112.0284 111.2133 110.3540 109.4650 108.5632 107.6870 106.8893 106.2900 106.0034 106.0792 106.5149 107.2087 108.0420 108.9264 109.9542 110.7110 111.5548 112.3422 113.1163 113.7811 114.3500
121.3400 118.4554 117.8601 101.1219 119.4719 115.7749 119.3855 119.0685 118.5234 118.0581 117.7055 117.2662 116.7925 116.2451 114.2892 112.7278 114.5452 113.9511 113.2411 112.5600 111.8379 111.0893 110.3373 109.6188 108.9250 108.3425 107.9151 107.7048 107.7505 108.0637 108.5546 109.1995 109.9091 110.6262 111.4024 112.1390 112.8833 113.6519 114.3079 114.4700
99.3700 109.6613 120.5788 112.5644 121.0329 120.6716 119.5425 119.1558 119.6363 118.7805 117.8935 117.4672 116.9883 116.3835 115.9030 115.9236 114.8007 114.2659 113.7178 113.1005 112.4627 111.8717 111.1820 110.5881 110.0719 109.5841 109.2307 109.1159 109.1862 109.3926 109.7752 110.2673 110.8177 111.4577 112.0858 112.7284 113.3304 110.8554 114.5314 115.1700
118.4300 114.2681 122.1960 122.6330 120.1424 119.8469 119.6840 119.3373 113.6291 114.6530 118.2586 117.7109 117.2566 116.8394 115.9758 116.0096 114.7674 114.7387 114.1900 113.6395 113.0909 112.1906 111.9273 111.5405 110.9732 110.7759 110.7036 110.2219 110.3360 110.5517 110.8468 111.2418 111.7142 112.2232 112.7635 113.3150 113.9539 116.7440 115.3421 115.1700
119.1700 124.8041 120.7229 119.3185 120.5654 120.2113 119.8602 120.4365 114.9864 115.6473 118.4132 117.8252 117.4166 117.1464 110.1552 115.1482 114.3912 115.2893 114.7156 114.2358 113.7403 112.4320 112.6311 112.2556 112.0970 110.7680 108.4404 112.5612 111.8809 111.5788 111.8159 112.1414 112.5274 112.9613 113.4286 113.9019 114.3396 114.8569 115.3125 115.8500
101.2100 115.5345 120.7824 120.7873 120.5835 120.3102 120.0311 120.1945 121.9124 119.5826 118.5538 118.5522 118.1044 117.4992 112.2050 115.7607 116.1200 115.1966 114.8893 114.7426 114.2191 118.1314 114.2824 113.7838 112.5515 112.5386 113.2193 112.9832 111.1248 112.5719 112.6440 112.9667 113.2919 113.6551 114.0552 114.4894 114.9168 115.3826 115.8415 116.3600
105.2500 121.4887 121.5608 121.2798 120.7990 120.4695 120.1709 119.5309 118.8590 118.9812 118.8259 113.8861 118.1166 117.4362 118.0044 118.0014 117.4761 116.3754 118.4062 115.2836 114.3168 115.1555 99.5783 114.5917 113.8169 113.5234 113.9136 113.3279 113.0024 113.3322 113.4749 113.7306 114.0050 114.3124 114.8368 115.4782 115.4968 115.6830 116.2098 116.4800
122.0200 122.3809 121.5069 121.2574 120.9468 120.6433 120.3430 120.0537 119.7577 119.4289 118.5452 117.1294 118.3139 117.8777 117.5656 117.2841 114.2584 106.5684 104.6734 109.5675 117.8399 116.4476 96.9357 113.7654 104.8750 112.7170 99.2206 114.7677 113.8000 114.0981 114.2326 114.4376 114.6682 114.9502 115.1424 112.5921 114.3954 116.2130 116.3558 116.9800
122.0600 121.8286 121.7063 121.3753 121.1533 120.6341 120.4994 120.2271 119.9050 119.6217 120.3735 118.1431 118.7450 118.2955 117.9646 117.3709 117.7917 117.0776 100.0987 106.9666 115.8241 104.9805 105.4035 117.6726 101.7198 112.8487 92.6561 115.4156 114.4182 114.8255 114.9487 115.0976 115.2993 115.5327 116.5393 116.1552 117.7135 116.2445 117.6140 117.0400
122.3000 122.1362 121.7428 121.6002 120.3494 120.8226 120.8685 120.4523 120.1606 119.5270 120.1029 120.1134 118.5722 118.6637 118.2510 117.9049 117.6946 116.9645 104.2988 111.6473 118.0018 112.0821 111.6871 116.4398 111.6410 117.7201 111.7972 115.7226 115.2075 115.4664 115.5731 115.7149 115.8894 116.0962 116.2211 116.9236 97.2357 110.6004 117.7785 117.5600
122.3600 119.7060 121.8760 120.0572 109.3905 107.3487 124.2377 120.2268 119.7371 120.3159 115.0082 112.8377 119.7117 118.8401 118.6025 118.3052 117.9917 117.8726 103.7380 106.4167 116.9297 117.0530 116.9769 116.0468 116.6836 115.8158 116.1432 115.9917 116.0394 116.0757 116.1688 116.2927 116.4415 116.6331 116.7616 117.3826 107.6428 101.2978 116.1639 118.0100
122.6500 112.7837 125.9066 103.5628 124.5525 119.6847 121.3006 120.7996 121.3603 120.1154 121.6165 120.5084 119.3554 119.1796 118.9517 118.6589 118.4913 119.3667 117.7555 118.7999 117.2591 117.1839 116.9978 116.9796 116.7565 116.7414 116.6010 116.6041 116.6014 116.6506 116.7259 116.8305 116.9703 117.1295 117.5632 116.7070 112.7296 118.5853 101.8790 118.4300
122.6500 123.8883 118.6744 112.0286 123.3404 113.3943 122.2143 120.7174 120.6826 121.0395 115.2951 120.1403 121.4722 119.9653 119.2663 119.0846 118.5248 118.5264 118.2360 118.1014 117.8932 117.7272 117.5643 117.4002 117.3078 117.2108 117.1728 117.1388 117.1466 117.1851 117.2492 117.3463 117.4692 117.6268 117.8111 117.9732 116.5321 117.2691 118.8450 118.9500
122.7000 122.7000 121.2600 100.1700 121.9700 119.6200 122.6700 121.2100 120.7500 119.0800 102.9300 98.3800 104.0100 119.7000 119.4300 119.2400 119.2400 118.7400 118.7400 118.5200 118.2700 117.9900 117.9900 117.6800 117.7400 117.3700 117.4200 117.4300 117.4200 117.4000 117.3700 117.7400 117.6900 118.0000 118.2700 118.2100 118.5200 118.7400 118.9500 118.9500
