105.7800 117.9200 114.3500 118.4400 114.4400 114.3400 104.1400 114.0500 105.1600 118.3900 122.4200 122.4200 122.2600 122.0900 121.9100 121.9100 121.7100 121.7500 121.5400 121.6000 121.6000 122.0800 121.3800 121.3900 121.4000 121.4000 121.3900 121.3800 121.3600 121.6100 121.5800 121.7700 121.7700 121.7300 121.9300 122.1200 122.0600 122.2300 122.3900 122.3900
113.9500 111.9917 115.8047 115.8802 109.2967 113.5517 106.1445 101.6563 108.0118 120.1296 122.4713 122.1367 122.0293 121.9087 121.9114 121.7753 121.8519 121.3921 121.4217 121.3553 121.1797 121.2644 121.1822 121.1965 121.1784 121.1701 120.8273 120.7583 121.2472 121.3067 121.3637 121.4374 121.5170 121.6117 121.7082 121.8189 121.9390 122.0636 122.1903 122.3900
113.9500 118.4880 107.9675 115.0921 114.3359 112.1188 123.2133 102.3124 100.7916 124.8673 122.0487 121.9004 121.7589 121.6306 121.5330 117.9361 120.8206 121.1365 121.1031 120.9860 121.1269 119.7714 120.9295 120.8560 120.7945 120.7374 124.4879 121.0694 121.0075 120.9809 121.0439 121.1202 121.2076 121.3124 121.4180 121.5347 121.6590 121.7889 121.9244 122.1200
101.6600 108.8332 112.0682 113.1747 113.3806 112.6342 101.5623 106.0745 106.0425 119.0292 121.6771 121.5954 121.4664 121.3316 121.1637 121.1449 121.2360 120.8308 120.7757 120.6963 120.6046 120.7086 120.5705 120.5082 120.4737 120.4445 121.2298 120.3923 120.5943 120.6483 120.7070 120.8005 120.8888 120.9938 121.1126 121.2337 121.3684 121.5111 121.6537 121.8200
115.8200 100.5244 120.1083 111.7437 110.7580 100.6783 101.6630 108.7739 116.5604 117.3386 121.5355 121.3259 121.1858 121.0424 120.9036 120.7502 120.5889 120.5354 120.4349 120.3458 120.2771 120.1932 120.1594 120.1426 120.1165 120.1460 120.1130 120.2009 120.2306 120.2893 120.3667 120.4561 120.5570 120.6700 120.8009 120.9336 121.0745 121.2254 121.3763 121.4700
114.4800 105.0064 100.8143 114.9218 111.0093 107.1718 102.5373 107.7671 109.4992 120.4210 120.7228 121.0446 120.8724 120.7428 120.5749 120.4304 120.2936 120.1856 120.0798 119.9845 119.9011 119.8417 119.7945 119.7649 119.7424 119.6779 119.9871 119.7822 119.9062 119.9229 120.0092 120.1031 120.2132 120.3341 120.4735 120.6155 120.7692 120.9347 121.1014 121.2000
114.0900 105.1881 111.7018 105.1362 113.4637 108.2722 107.6508 109.3485 114.8908 128.9034 121.8187 120.7719 120.6329 120.3027 120.2207 120.0140 120.0438 119.8071 119.7175 119.6095 119.5214 119.4478 119.3994 119.4111 119.2243 119.4563 116.7170 119.3791 119.5049 119.5705 119.6371 119.7445 119.8526 120.0146 120.1343 120.2984 120.4345 120.6476 120.8152 120.8800
114.8100 106.4249 100.7416 114.1459 100.1824 111.9271 114.1411 113.2650 109.7683 124.1888 122.7543 120.4772 120.0086 120.7918 119.9584 121.0440 119.3400 119.5188 119.3258 119.2151 119.1233 119.0484 118.9963 118.9674 118.5561 115.4747 111.5335 118.6883 118.9786 119.0900 119.2626 119.3555 119.5038 119.5493 119.8541 120.0688 120.3073 120.3462 120.4205 120.5200
115.2900 125.9730 121.1834 102.8374 101.4509 98.5930 114.6262 114.5027 119.7426 120.7550 120.2191 120.0812 120.3225 117.8962 106.5835 114.4562 119.5377 119.0827 118.9346 118.8123 118.7041 118.6157 118.5651 118.6420 118.9163 118.2748 105.6762 118.8606 118.1810 118.5089 118.8483 118.9888 119.1042 119.8609 119.5052 115.2076 116.9577 119.8205 120.6388 120.4600
118.4500 115.5611 108.2374 112.5417 105.6886 100.5094 110.9649 120.0468 120.3682 120.2254 120.1034 119.7551 119.9516 109.1709 114.9005 116.5515 118.5751 118.7575 118.4898 118.3778 118.2623 118.1731 118.1048 118.3945 113.9417 108.9823 116.3483 119.1475 110.9397 118.9536 118.5001 118.4079 118.2194 114.9892 119.5646 114.7116 102.3709 105.8119 120.5348 120.1600
106.2600 117.8226 100.8679 112.6233 103.1785 110.6913 104.2792 108.4529 120.8963 119.9911 119.7452 119.3685 118.6769 108.8717 106.7393 123.1929 118.6838 118.5249 118.3082 117.9217 117.8130 117.6982 117.6390 117.5293 116.6235 116.2683 116.2476 120.5715 102.2232 117.2395 118.0376 118.1003 113.6214 117.5444 110.4566 117.3069 104.6771 111.0700 118.9301 119.8000
100.9300 106.3055 113.1371 96.2647 99.6313 113.8312 116.5830 108.8687 120.6736 119.5135 120.6807 109.8385 108.7542 120.9167 101.2374 116.4746 117.8828 118.0089 114.6376 117.6105 117.3201 117.2150 117.1173 117.0799 117.1387 116.8534 115.1939 114.9652 111.2720 117.6226 117.6662 118.3509 116.1655 118.7640 107.2123 118.0169 113.8111 120.0791 119.4604 119.3700
108.1400 106.6751 105.2044 121.9648 105.8330 113.5891 114.8125 119.8974 119.7037 119.5658 118.1391 129.0851 112.8594 118.3729 112.2033 117.6626 117.3541 117.6681 116.4784 117.2854 116.8116 116.6558 116.5890 116.5207 116.4830 116.5649 116.6099 117.5666 116.9872 117.2315 112.4890 116.1681 113.8022 118.1243 114.4597 118.2518 118.8158 118.6639 118.7141 119.3400
111.8300 105.0146 101.1269 101.8310 114.8066 112.4615 119.7633 119.8256 119.3561 119.1229 119.1097 123.2070 117.2563 118.4101 113.4599 107.7852 117.4315 116.8911 116.6663 116.4123 116.2388 116.2467 116.0284 115.9485 115.9110 115.9083 115.9776 112.9645 110.4174 116.0175 110.8141 104.8473 119.0495 115.9578 117.4249 117.9017 118.0691 118.3302 118.6326 118.9700
100.0700 101.1762 102.1899 110.1668 113.3643 106.1733 119.9548 119.2272 119.1988 118.8575 118.4935 118.2148 117.7739 117.6601 117.5993 116.6301 116.5823 116.4098 116.1471 115.9134 115.6764 114.1131 115.3896 115.3326 115.2778 115.2824 115.2859 112.6969 112.9165 108.6761 116.8300 114.6879 117.0138 116.8253 116.9918 117.3431 117.6821 117.9838 118.3045 118.5000
99.2800 118.6944 102.8427 108.8403 104.0632 123.2326 118.8781 119.2432 118.9098 118.5578 118.2230 117.8944 117.5569 117.1701 117.2002 116.5449 116.1544 115.9033 115.5856 115.3341 115.0825 114.8017 114.3926 114.6503 114.6088 114.6205 114.5178 115.4959 116.0581 114.6556 115.8947 115.8168 115.9448 116.2867 116.6078 116.9488 117.2837 117.6256 117.9770 118.0100
99.2200 101.7061 103.1027 106.1255 102.3449 114.8583 119.4161 119.0539 118.6348 118.2722 118.0769 117.5034 117.1640 116.8265 116.5108 116.0290 115.7051 115.3471 115.0244 114.7179 114.4538 114.2070 114.0803 113.9050 113.8747 113.8569 114.4383 109.6487 114.2782 114.5477 114.8005 115.0998 115.4417 115.7913 116.1475 116.5464 116.8934 117.2724 117.6502 117.9500
105.3500 107.7384 116.6374 109.7752 114.6707 118.8365 119.2277 118.7433 118.3458 118.1582 119.9663 117.2480 116.6991 115.1261 116.4068 115.5570 115.1096 114.7981 114.4155 114.0672 113.7534 113.5002 113.2910 113.1532 113.0809 113.0679 113.4683 113.2192 113.7224 113.7506 114.1694 114.5120 114.8923 115.3032 115.7112 115.9343 116.5423 116.9177 117.3204 117.5200
111.0500 107.4268 120.6963 124.4151 120.5500 119.1377 118.9223 118.3059 118.1785 118.7790 104.6267 116.8415 113.6049 113.7786 114.6773 115.4470 115.0026 114.1911 113.7994 113.3809 113.0201 112.7005 112.4523 112.2808 112.1981 112.1987 112.2523 112.5050 113.5927 113.1964 113.4971 113.8973 114.3218 114.7781 114.9921 114.0242 116.1880 116.5572 117.0028 117.4100
98.8400 106.6615 107.7504 118.3443 119.4300 118.9688 118.6919 118.6521 118.0499 117.2760 117.5684 117.9426 104.7007 119.3442 108.1776 111.6557 113.4097 113.5964 113.0778 112.6513 112.2172 111.8418 111.5405 111.3290 111.2277 111.2492 111.3869 111.6136 111.8389 112.2784 112.8067 113.2467 113.7526 114.2525 114.8398 115.4652 115.7622 116.2311 116.6925 116.8500
108.4900 107.6147 99.5168 108.8547 115.4987 120.2033 118.5423 117.2655 106.7912 111.9958 116.1217 116.3186 108.4380 112.9333 115.6914 114.8190 111.9369 113.5022 112.4016 111.8780 111.3622 110.8998 110.5263 110.2547 110.1237 110.1448 110.3049 110.6149 111.0175 111.5128 112.0329 112.5942 113.1469 113.7237 114.2651 114.8129 115.3744 115.8921 116.3868 116.7500
98.6200 106.0151 101.7082 104.6288 108.4012 119.2324 118.0937 117.5891 110.6008 117.9337 116.2890 115.7816 115.1799 116.0764 114.1900 113.1815 113.6526 110.1319 111.7115 111.0719 110.4425 109.8665 109.3847 109.0362 108.8646 108.8980 109.1146 109.5020 110.0247 110.5758 111.1943 111.8127 112.5709 113.2012 113.8294 114.4473 115.0093 115.5783 116.1072 116.7500
115.8200 103.4591 115.5967 97.9651 119.3986 117.6544 118.0488 117.9108 118.4737 117.4070 116.2224 115.7615 115.1561 114.3042 113.8448 113.2704 112.7028 109.2497 111.5622 110.1872 109.4500 108.7247 108.1016 107.6287 107.3948 107.4317 107.7362 108.2552 108.9674 110.1553 110.8381 111.2179 111.8007 112.5423 113.3990 114.0459 114.6774 115.2790 115.8454 116.1900
108.6300 106.3175 113.0583 116.9913 119.7019 119.1408 117.9635 117.5416 117.1154 116.5132 115.9321 115.2918 114.7997 114.8113 113.9940 112.2075 111.9942 110.9281 110.1627 109.3054 108.4045 107.4755 106.6251 105.9736 105.6300 105.6805 106.1178 106.8377 107.9047 107.3369 104.0946 110.0346 111.4165 112.3134 113.0099 113.6807 114.3689 115.0119 115.6095 116.1000
117.1200 113.4226 118.2777 107.4367 119.6768 118.8000 117.8583 117.4426 116.9305 116.4059 116.6730 116.2742 114.6639 115.5236 101.7151 116.0732 111.4763 110.6428 109.6489 108.4780 107.3156 106.1081 104.9321 103.9547 103.4050 103.4896 104.1793 105.2298 106.4289 106.9744 110.0781 115.7703 98.7301 113.3237 112.4645 113.3585 114.0995 114.7777 115.4046 115.6200
101.1000 114.5871 117.9990 94.6092 114.6116 113.3456 117.9620 117.3864 116.7963 115.9929 118.1257 94.5096 118.5119 95.9848 114.0378 112.1944 111.1672 110.0546 108.9305 107.6569 106.2267 104.6526 102.9762 101.3973 100.4447 100.6314 101.7764 103.4418 105.0553 106.5436 108.0464 111.6858 111.3415 111.3686 112.2719 113.1094 113.8737 114.5793 115.2371 115.5600
120.0800 119.2356 116.8637 111.2027 118.5777 113.9863 117.7557 117.3319 116.7333 116.2049 115.4040 115.1450 114.6183 113.7572 107.9033 111.9748 110.6239 109.6667 108.3912 106.9337 105.2258 103.2165 100.7778 98.0948 95.7490 96.1100 98.8586 101.4697 103.7869 105.6933 107.4314 108.5865 109.7598 111.0485 112.0204 112.8978 113.6933 114.4294 115.1040 115.5100
120.0700 119.7516 119.5079 119.1870 118.0559 118.2977 117.6044 117.2374 116.6674 116.0717 115.5160 114.4459 115.5957 98.6155 114.3566 112.1371 110.4663 109.3722 108.0162 106.4133 104.4582 101.9940 98.7055 93.4231 88.9166 89.5960 95.0584 99.6596 102.7190 105.0303 106.8961 108.4837 109.7794 110.8436 111.8537 112.7564 113.5848 114.3305 115.0195 115.4700
120.0600 120.3268 119.2807 118.8635 118.5983 118.1312 117.6701 117.2059 116.6345 116.3830 115.4362 114.8977 113.9865 114.2669 112.5664 111.4508 110.4305 109.2381 107.8387 106.1557 104.0754 101.3451 97.4093 89.5949 84.9869 85.6367 92.0905 98.6303 102.1629 104.6920 106.6345 108.2113 109.5558 110.7466 111.7795 112.6983 113.5117 114.2631 114.9970 115.4500
120.0600 117.3637 119.8049 119.6268 118.6271 118.1882 117.6995 117.1760 116.7863 113.7867 115.5614 114.8207 114.0999 113.1144 112.7008 111.5411 110.4699 109.2557 107.8789 106.2247 104.1793 101.5209 97.8034 90.7942 85.7106 86.4565 92.9388 98.9048 102.3110 104.7779 106.7018 108.2808 109.6159 110.7722 111.7918 112.7112 113.5877 114.4711 114.9763 115.4500
98.9900 115.5171 115.5769 117.2097 118.6653 118.2194 117.7247 117.1590 116.4532 115.3797 115.5058 114.8828 114.2052 113.4406 112.5431 111.6419 110.6628 109.5251 108.1681 106.5886 104.7317 102.4388 99.6290 95.5636 91.4504 92.1331 96.7222 100.3473 103.1173 105.2750 107.0383 108.5168 109.7960 110.9179 111.9146 112.7741 113.5505 113.1368 114.7162 115.4800
120.0800 119.3331 116.7825 118.8448 118.6645 118.2510 117.7827 117.2525 116.9942 116.3005 115.6256 114.9792 114.2872 113.5502 112.7528 111.9088 110.6740 109.6729 108.6640 107.2123 105.6218 103.7890 101.7215 99.5312 97.9731 98.2821 100.1055 102.2805 104.3018 106.0708 107.5991 108.9386 110.1170 111.1668 112.1282 112.9648 113.3437 119.8098 118.5222 103.4700
120.1000 120.2046 120.0479 119.2127 118.7684 118.3247 117.8679 117.3666 116.8173 116.3043 115.7502 115.1281 114.4691 113.7705 112.9904 112.0333 112.8457 111.5089 108.8387 107.8137 106.6728 105.2458 103.7833 102.4973 101.7218 101.8501 102.8135 104.1937 105.6357 107.0253 108.3139 109.4815 110.5475 111.5112 112.4107 113.2546 112.9593 120.1147 127.8156 124.1000
120.3700 119.9551 119.5862 119.2544 118.8470 118.4218 117.9678 117.5000 117.0003 116.4632 115.9205 115.3131 114.6974 114.0008 113.3605 113.0813 99.6030 109.8005 109.9660 109.8391 107.7369 106.6691 105.6488 104.8103 104.3552 104.4388 105.0068 105.9009 106.9605 108.0539 109.1065 110.1196 111.0529 111.9258 112.7311 113.7692 113.7893 128.3373 113.7369 105.7300
120.4000 120.1149 119.7435 119.3529 118.9462 118.5542 118.1044 117.6460 117.1622 116.6515 116.6713 115.4921 114.9400 114.3168 113.6994 112.8156 110.7994 111.3790 110.5799 109.5237 108.8815 107.9980 107.2503 106.6687 106.3712 106.4227 106.8002 107.4325 108.2228 109.0615 109.9437 110.7871 111.6086 112.3959 113.1403 113.8281 114.4363 115.4530 115.3954 100.0000
120.4300 120.2082 119.7981 119.4204 119.0453 118.7768 118.2535 117.8194 117.3350 116.8279 116.9338 115.7122 115.1793 114.6690 114.0377 113.3956 112.6107 112.0330 111.5269 110.5316 109.8824 109.1984 108.6338 108.2189 108.0093 108.0472 108.3141 108.7745 109.3656 110.0581 110.7040 111.5058 112.2032 112.8952 113.5663 114.1974 114.8617 115.4785 116.4937 116.1900
120.4700 120.3413 120.6831 120.2478 119.3633 116.9143 118.5280 117.9069 117.4275 116.4359 109.1584 113.1408 115.5740 115.0504 114.4308 113.8398 113.2509 111.3752 107.5607 111.3769 110.8268 110.2903 109.8577 109.5432 109.3885 109.4190 109.6129 109.9582 110.4405 110.9886 111.5119 112.1651 112.7965 113.4115 114.0097 114.6359 115.4822 115.9008 116.0556 116.6500
120.7800 120.2061 117.7871 118.1358 120.2811 109.0342 119.6450 118.5001 118.4566 114.3000 118.9521 117.0081 115.9032 115.3735 114.8645 114.5867 113.9612 113.3586 112.8349 112.1624 111.7037 111.2860 110.9434 110.6998 110.5835 110.5953 110.7487 111.0225 111.4443 111.6276 112.9411 112.8751 112.8743 113.9607 114.4881 114.9429 115.1375 113.5820 116.6292 116.7500
120.7800 121.4334 117.4397 115.8577 119.2551 119.5272 114.6707 118.2711 112.6776 118.8126 113.4957 117.6362 116.1432 115.7920 115.2399 114.8316 113.0052 113.7884 113.4547 112.9197 112.5510 112.1958 111.9132 111.7194 111.6253 111.6349 111.7573 111.9886 112.3488 113.0494 109.6442 105.5736 114.0347 114.5021 114.8607 115.3987 116.1885 113.4657 117.2194 117.3000
120.8300 120.6000 98.3700 119.8800 119.6200 119.3600 103.0100 118.5300 118.2700 117.6300 95.3100 116.9700 116.2700 115.9400 115.5300 115.1400 115.4900 114.3100 113.8700 113.3900 112.9500 112.4300 112.5400 112.6100 111.8500 111.8400 112.5700 112.4800 113.0300 113.4800 113.4800 99.0200 114.3800 114.6600 115.5900 115.5900 116.2700 116.6100 116.9600 117.3000
