112.6900 111.5400 104.8100 111.1100 119.4700 101.1600 100.9900 103.8000 122.0100 105.3600 104.7500 108.1300 105.4300 117.1900 120.8500 120.6400 120.4100 120.1700 119.9500 119.7800 103.5300 118.9700 118.7100 118.4300 118.2200 117.8800 99.2600 117.3100 117.3600 117.0600 94.9200 94.7800 116.8400 116.4100 116.4400 116.4600 116.4600 116.4100 116.8300 116.8300
112.6900 110.4967 109.1426 110.4866 110.3277 105.9593 101.8684 108.7740 117.0191 110.2652 103.6331 114.9144 120.1812 122.0600 121.8988 120.9019 120.4427 119.7655 120.4036 98.2634 105.2226 113.6235 118.6990 118.3043 118.2822 116.2980 102.2795 117.9027 117.0614 114.1262 96.6341 91.8971 119.3112 115.9505 116.0312 116.0518 116.0922 116.1415 116.2352 116.3200
110.3800 113.9713 118.4736 114.6217 111.9770 108.9728 103.8829 120.1503 108.6771 109.2575 96.2246 121.5848 109.9853 120.6642 118.8983 120.6035 120.1721 119.6015 119.5220 101.8417 113.3837 113.9903 118.4591 117.9408 117.3413 117.2573 117.9781 116.6826 116.4498 116.0674 117.7905 113.4031 116.8590 115.4618 115.4946 115.4771 115.4866 115.5501 115.6508 115.7800
111.7600 112.3918 114.6556 98.4369 111.8101 103.7738 106.6173 119.6297 113.7851 127.5815 112.2318 107.3008 101.8215 118.5971 117.5883 121.1639 119.9380 119.5436 120.3486 119.0572 118.9277 115.1042 118.2186 117.5776 117.2007 116.7560 116.5782 116.1247 116.0135 115.7238 115.1303 115.4406 114.9207 114.8879 114.8377 114.8111 114.8304 114.8990 115.0199 115.1900
115.2400 114.4329 109.9500 114.8080 108.6908 101.4838 106.9327 120.4667 120.4083 124.4243 121.9706 124.6871 115.0756 121.4316 120.7460 119.0504 119.6933 119.3058 118.8215 118.5358 118.2173 118.2163 117.4808 117.1962 116.8184 116.4683 116.1093 115.7892 115.4190 115.1082 114.8818 114.5685 114.4128 114.2398 114.1324 114.0920 114.1172 114.1946 114.3444 114.5700
109.5800 110.0644 109.8081 106.5992 113.5366 106.6848 104.5786 123.2641 118.8759 120.9734 121.0549 120.7244 121.1486 114.3388 117.4608 120.4216 119.5058 119.0501 118.7353 118.3808 118.0051 117.5864 117.2080 116.8138 116.4171 116.0202 115.6266 115.2340 114.8675 114.5086 114.1808 113.8983 113.6537 113.4724 113.3672 113.3219 113.3427 113.4496 113.6154 113.8900
104.0700 108.6218 110.5746 101.9152 103.8315 113.4932 115.1915 106.5094 123.3057 121.8706 121.1298 120.9263 120.1319 122.8567 99.9301 113.2737 119.7722 118.8364 118.5086 118.1006 117.7011 117.2900 116.8766 116.4492 116.0086 115.5765 115.1381 114.6975 114.2780 113.8707 113.5034 113.1629 112.8744 112.6574 112.5165 112.4636 112.5044 112.6201 112.8237 113.1600
112.7600 102.3399 102.6090 101.9436 103.0409 115.6573 114.2135 103.6171 125.0882 117.4710 121.3093 120.8475 120.0994 119.8323 106.0801 122.4608 100.6534 120.1937 118.2215 117.8362 117.4352 116.9747 116.5476 116.0761 115.6070 115.1332 114.6397 114.1552 113.7006 113.1929 112.7562 112.3634 112.0254 111.7546 111.5899 111.5186 111.5662 111.7110 111.9562 112.3500
112.1800 106.5940 102.5669 106.2765 104.8503 107.9148 109.1463 113.0192 122.2548 121.2220 120.9522 120.6868 120.3941 122.0940 103.0597 116.9322 114.7302 118.7205 118.1323 117.6057 117.1852 116.9735 116.1224 115.7561 115.1984 114.6705 114.2361 113.5626 112.5206 112.4996 111.9816 111.5044 111.0888 110.7585 110.5416 110.4567 110.5145 110.7053 111.0058 111.4600
110.1600 114.8486 107.6809 104.8447 105.2005 112.4193 123.2248 117.0333 120.2185 121.2020 120.6337 120.2694 120.7448 118.9912 119.0069 120.5428 118.7333 117.9806 117.9039 117.3574 116.5828 115.9050 112.2423 115.3622 115.0001 114.2637 111.0384 117.8992 112.4062 111.7902 111.1471 110.5726 110.0544 109.6416 109.3596 109.2436 109.3206 109.5636 109.9616 110.4700
113.6700 111.3947 114.0753 109.0898 108.3665 114.6995 120.0233 116.2653 121.9492 121.0552 121.4095 121.9188 120.9664 108.5719 102.9431 119.5181 118.5180 118.0677 117.6583 117.4367 118.1051 117.2902 95.5530 115.0967 113.4050 114.0751 104.9440 93.1537 111.4559 110.8829 110.3359 109.6801 108.9063 108.3724 107.9958 107.8384 107.9392 108.2696 108.7884 109.3100
104.1700 104.4377 111.3315 110.7092 113.1461 113.8523 122.4820 116.3943 121.5995 120.6099 121.6941 110.2044 119.8128 103.2878 116.2123 120.2835 118.4456 117.9468 117.2689 118.2332 109.2452 113.8849 107.7338 119.3687 112.6654 113.5091 113.2502 106.4441 111.9128 110.4353 109.0257 108.3897 107.6261 106.9132 106.3825 106.1636 106.3055 106.7798 107.4784 107.9800
114.6200 103.8609 108.4240 100.1997 113.3212 113.9156 119.2193 122.2566 121.2971 120.6694 120.5767 91.2420 118.6025 122.0042 113.2072 120.8395 118.0712 117.8524 117.0336 116.6007 104.0947 112.4612 123.4582 114.9488 113.8188 112.3793 111.6306 111.6494 111.2206 96.3712 114.5476 107.0916 106.2135 105.2025 104.4287 104.0833 104.3083 105.0161 106.0145 106.3700
101.4500 105.3846 104.6854 106.7785 122.1120 114.7617 121.1035 121.6284 121.2179 120.9046 120.7165 112.4762 118.1634 109.5105 115.0240 119.8814 118.0448 117.7163 117.1917 116.8200 112.4937 116.9439 102.2905 112.8276 114.3154 115.6826 114.0712 111.3902 110.3755 107.0269 101.4750 105.8934 104.7218 103.2020 101.9264 101.3437 101.7311 102.9088 104.3743 104.5300
102.4600 100.8700 99.5034 115.1025 111.5371 122.3914 117.4354 121.2914 121.1505 120.9417 120.5585 120.9588 120.3411 114.5069 117.7705 118.4782 118.0877 117.6482 117.1438 116.2873 117.8394 100.1425 102.2561 116.0278 100.2636 91.9825 91.3006 110.1070 109.3845 110.6386 107.3710 105.1436 103.0849 100.8352 98.6426 97.3039 98.2271 100.3650 102.6389 104.0500
108.0800 107.1406 106.2933 107.3325 107.8664 106.8421 123.8677 120.9140 121.1149 120.7717 120.3963 120.0474 119.6659 119.6963 119.1079 118.6149 118.0746 117.5940 117.0796 116.6428 115.6463 107.2566 103.2900 99.4816 114.6216 110.5463 109.9572 107.3512 105.9500 107.6081 106.0012 104.0650 101.5870 98.3731 93.4245 90.4344 92.4605 97.5405 100.9479 101.8600
103.0300 105.3079 102.7268 101.5853 113.5247 114.6977 123.1484 121.3041 121.1781 120.7822 120.2251 119.9154 119.7112 119.3475 118.9763 118.4926 118.0504 117.5585 117.0503 116.4515 115.9896 116.7690 95.6637 95.2921 108.6660 110.8981 111.2657 110.1201 108.8058 107.4310 105.7146 103.5153 100.5591 96.3130 88.4974 85.2932 87.5621 94.8015 99.7849 101.5400
110.2600 103.6573 106.9920 122.3708 119.7706 119.8346 123.1994 108.9094 122.2737 121.4813 109.2822 117.1211 119.5730 119.3725 117.8307 118.5806 118.0135 117.5662 117.0808 116.4305 116.4279 117.8354 96.7168 96.5281 110.5070 111.3075 111.6087 110.2271 108.8678 107.4254 105.6913 103.4689 100.4618 96.0691 88.0608 84.7142 86.9249 94.5205 99.6943 101.4700
110.9100 117.3738 108.6740 99.9703 104.0731 101.7424 124.6068 112.2240 121.9996 119.4018 110.0606 119.4288 119.6700 119.2195 110.8204 119.9059 118.1413 117.5798 116.7741 116.9813 111.4578 112.3421 112.7265 109.8659 113.6381 110.1810 111.4420 110.2585 109.0686 107.6545 105.9863 103.9515 101.3561 97.9288 92.4324 89.4147 91.2342 97.0162 100.6892 101.6600
106.9900 114.7364 110.4823 108.6005 125.8326 123.8840 121.9238 122.3969 123.2070 107.1361 107.4529 121.2147 120.2686 120.3818 120.4866 111.8191 118.5285 117.7864 118.5026 102.0859 93.9127 95.8074 89.7361 117.0946 100.9615 106.5225 112.0396 110.5183 109.3766 108.0931 106.5973 104.8449 102.7892 100.3754 97.7543 96.1381 97.3296 99.9015 102.3218 103.8300
112.3000 105.0400 113.1091 110.9008 121.4054 121.8294 121.7855 122.2566 111.0201 115.1211 122.9920 105.7403 115.6491 119.2742 118.6303 112.9862 118.1212 117.1789 107.9910 104.9803 97.4108 97.0848 93.0052 103.1560 112.6445 112.4782 111.8098 110.8679 109.8428 108.6770 107.3782 105.9532 104.3999 102.7833 101.3748 100.7269 101.1672 102.4668 104.0675 106.0300
104.3400 105.6167 113.9147 121.7583 123.2015 120.8490 121.7717 119.2678 104.0297 117.9159 119.8734 116.8006 114.2498 119.7905 120.1217 119.6605 118.1524 118.0946 109.5844 110.8065 96.1832 98.6909 93.7364 91.6652 102.6606 113.6079 111.9921 111.3252 110.3877 109.3830 108.2891 107.1605 105.9595 104.8591 103.9963 103.6146 103.8662 104.6418 105.7275 106.2500
113.7800 103.1293 98.6919 108.5252 119.4044 118.1060 121.9699 115.3393 121.7189 121.9248 118.8941 121.1186 120.4097 121.1019 118.5726 118.6944 118.5214 110.0903 118.9652 112.2742 93.3371 97.7880 94.0208 108.8870 104.1351 113.5618 112.5482 111.8262 111.0453 110.0170 109.0941 108.0529 107.2844 106.6105 106.0323 105.7973 105.9558 106.4637 107.2137 107.7300
106.1200 113.4645 103.7997 102.4132 125.2774 117.1484 122.8843 122.0894 121.2346 120.5769 120.4071 120.2806 120.3910 121.2865 119.2800 118.8785 118.7328 113.3255 117.6451 118.6105 112.1736 111.6950 112.1202 115.5620 115.2459 113.7379 113.1478 112.3804 111.7023 110.5537 112.1721 109.5332 108.6871 108.1050 107.7040 107.5366 107.6493 108.0087 108.5473 109.2400
120.7100 105.1585 105.1317 109.4985 124.1490 121.4979 111.5374 121.9348 121.5868 121.2784 120.9604 120.1334 119.1256 104.2092 119.8544 118.8267 118.6981 118.5731 117.7995 117.3342 117.4580 117.0451 116.1174 114.8492 114.5546 114.1093 113.5361 112.8212 113.0562 104.8096 110.8478 110.3527 109.9197 109.4044 109.1119 108.9876 109.0708 109.3315 109.7437 110.4000
122.6700 118.8719 119.0120 122.7357 122.3632 122.5344 122.3212 121.8218 121.5735 121.3047 120.9590 120.2691 120.1485 114.9302 112.0506 119.0778 118.9381 118.4170 118.0174 117.5695 117.1300 116.6489 116.1490 115.6635 115.1136 114.6726 114.2667 113.4453 112.9415 111.1597 114.9816 111.6214 110.9363 110.5452 110.3210 110.2342 110.3002 110.4975 110.8190 111.4100
116.7900 123.1104 121.8782 127.0646 126.2810 123.4935 122.1281 121.9991 121.6784 121.1532 122.4748 107.9750 122.3004 112.6537 121.4548 119.1758 118.9820 118.6259 118.2165 117.8060 117.3653 116.9283 116.4720 115.9545 115.5709 114.9106 113.0111 102.8046 114.7909 112.5791 113.2109 111.9656 111.8601 111.5696 111.3906 111.3156 111.3404 111.5186 111.7874 112.3200
114.8400 113.6139 112.7041 106.8587 128.8792 123.0453 122.3716 122.0632 121.7797 121.5116 121.7711 121.6264 120.2067 120.4262 119.7918 120.0146 119.3154 118.8206 118.4506 118.0508 117.6478 117.2431 116.8529 116.4638 113.6835 114.1115 102.9502 116.4718 114.5327 113.7427 113.3236 113.0101 112.7429 112.4868 112.3474 112.2993 112.4079 112.4928 112.6754 113.1300
117.4000 108.1000 125.5887 122.2353 122.6682 122.6505 122.4208 122.1913 121.9022 121.7403 120.9682 120.7977 121.9111 118.4564 119.7473 117.9407 119.2563 119.0369 118.6837 118.3285 117.9794 117.5030 117.0382 117.0227 108.0363 99.2538 110.9578 116.3830 114.9896 114.3722 114.0609 113.7592 113.5115 113.3206 113.2034 113.1605 112.8925 113.2875 113.2054 113.8700
117.4000 112.3500 123.7264 123.2939 123.0898 122.8604 122.5969 122.3214 122.1223 120.2446 122.5680 121.4101 110.3274 106.5917 110.6466 118.4158 119.5655 119.2149 118.9393 118.5716 118.1307 117.7832 118.7468 116.8564 117.3648 118.8810 114.9594 117.2123 115.4396 114.9533 114.7199 114.4615 114.2483 114.0846 113.9847 113.9662 114.0177 118.3747 114.9040 114.5500
104.9500 125.9274 122.5911 122.8787 123.2409 122.6990 122.5674 122.3086 123.8503 120.5900 108.5477 117.7854 106.2466 117.4842 107.9274 116.9318 120.1190 119.5837 119.1612 118.6317 118.7468 106.6691 112.6969 119.0513 117.4181 116.8428 113.2038 114.3500 114.7329 115.6132 115.3309 115.1132 114.9262 114.7924 114.6900 114.7226 115.7276 102.3559 114.3806 115.1700
124.2000 112.3067 128.8570 124.8874 122.9570 124.7139 124.4242 122.3508 124.5018 124.3840 103.0572 101.6107 125.1543 121.3835 122.2885 122.5459 120.2015 119.6424 120.4258 119.3156 119.4094 100.8591 103.8536 110.3800 115.5324 117.1728 118.0383 116.4767 115.2978 116.1752 115.9086 115.7199 115.5600 115.4439 115.3607 115.3474 115.2974 116.4259 116.8038 115.7600
103.3800 119.8208 125.8708 124.1666 124.5673 115.3712 121.1401 122.3896 116.8438 112.8293 117.0673 104.2053 121.3056 122.2742 115.3039 105.8166 122.8774 120.9210 116.4611 119.3258 122.4309 107.9528 102.1312 115.4008 117.6733 117.5236 117.6069 117.2196 116.8684 116.6272 116.4683 116.2861 116.1642 116.0528 116.2230 116.0232 115.9955 115.8722 115.9226 116.3100
124.2700 125.0542 123.6184 124.7264 109.0723 110.5184 123.8412 122.6809 121.0884 118.3355 122.5173 121.0159 122.6941 108.8465 100.0016 116.4912 99.4232 110.6745 100.6585 117.2791 98.8089 95.5972 96.4293 109.2885 118.2332 115.7966 118.0912 117.5669 117.3631 117.1610 116.9943 116.8422 116.4959 116.8412 114.1226 116.6930 116.5753 116.6308 116.7375 116.8200
124.4500 124.3486 124.0114 123.8733 123.2777 113.0723 123.5400 122.6713 122.8320 122.5900 120.5112 119.2508 121.6225 120.1857 120.0425 123.4144 99.5723 119.4745 99.0072 116.5636 100.6287 101.4722 102.6339 106.0904 122.1021 117.2723 118.4168 118.0219 117.7928 117.6595 117.4996 117.2152 117.6269 117.5143 114.7737 116.7549 117.1544 117.1287 117.2063 117.3000
124.4900 124.6507 116.0165 124.5656 123.3787 123.2907 123.4995 123.0830 122.8428 123.0720 114.9107 123.0359 121.3103 120.4396 121.6187 121.3243 120.3519 122.1367 109.3498 104.3793 101.9648 99.5823 100.9339 117.4904 122.4902 118.7944 118.6186 118.4191 118.3315 117.9576 118.4453 118.0580 109.8759 116.2384 105.0297 116.3489 117.7776 117.6051 117.7116 117.7600
115.4200 112.8385 121.3372 123.3994 108.0909 118.3189 123.0909 124.0404 122.5262 123.2251 129.2463 118.6823 122.6377 123.0659 121.6182 121.4857 121.5879 119.0571 105.8291 102.9065 121.2820 100.7447 108.8266 124.4235 118.9906 119.2414 119.0132 118.8336 118.7692 118.7399 115.4676 116.4770 116.8332 117.7566 113.9170 118.5317 118.2112 118.0938 118.1816 118.2000
116.5100 102.4649 99.6038 112.2382 106.5435 127.5084 123.5218 119.5984 118.8721 121.8731 123.3468 122.4009 121.9156 124.5936 119.9168 121.4277 120.7945 121.3573 101.5093 102.3610 112.2451 120.0457 122.4418 119.0529 119.3306 119.5044 119.3863 119.2205 119.2023 119.0254 109.5825 117.8179 118.0362 119.1517 118.7672 118.5084 118.5795 118.5684 118.6289 118.6100
124.7600 129.4445 108.1956 114.1841 125.2578 121.1739 122.1236 128.3060 122.3863 122.9871 120.4192 111.6572 118.0047 122.4197 122.0211 121.5932 115.4193 121.0092 108.9448 109.0649 114.3316 121.8689 123.5060 120.1471 120.2194 119.9191 119.7461 119.5853 119.4707 119.7192 110.4835 117.8292 118.7208 118.9621 118.9346 118.9753 118.9803 119.0102 119.0634 119.0000
124.9400 124.8000 124.6700 110.4700 124.2300 124.0800 115.9100 103.4500 113.0400 112.8200 105.9500 104.8600 101.0300 122.4600 122.1100 122.1400 112.7100 108.0700 103.4000 121.1800 121.0000 120.7900 120.5900 120.3900 120.4300 120.2500 120.0400 119.7500 119.8200 119.5800 119.6300 119.3500 119.3800 119.4100 119.0800 119.0900 119.0900 119.4100 119.4100 119.3800
