104.3100 109.4600 115.6700 115.0800 107.4900 107.7800 104.0400 103.3400 103.2500 103.2500 107.1100 118.2500 113.8400 118.5600 124.4600 124.2900 124.2000 124.0200 123.9100 123.7300 123.6200 123.4900 123.4900 123.1400 123.1400 123.0100 123.0600 122.8900 122.7200 122.7200 104.0600 100.6000 130.5500 122.4200 122.4400 122.2100 122.2200 122.2300 122.2400 122.2300
111.1900 107.6499 106.6699 102.1238 106.0732 105.6376 104.6697 106.3865 110.6948 117.5245 112.9005 114.3244 119.5493 122.7665 124.6299 124.4121 124.2621 123.9137 124.7910 122.7774 108.9740 118.0900 123.3917 123.0908 122.6090 117.5407 117.0190 122.1668 122.4512 122.8656 103.8154 101.0502 113.3074 123.5946 122.1882 122.1250 122.0881 122.0863 122.0848 121.9700
111.1900 112.0677 107.8682 107.4645 106.3191 105.8668 103.9710 105.9574 107.7059 124.9323 109.9996 120.0371 121.4329 123.9368 124.2510 121.6606 123.8994 123.4579 123.6489 122.9097 126.9699 121.5453 123.1580 122.8698 122.0486 119.7161 106.5753 123.6029 122.1641 121.8842 122.0953 101.7700 124.4667 121.9600 121.9459 121.8355 121.8151 121.7995 121.7898 121.6900
104.0600 110.6177 111.7351 110.8364 105.3733 104.0500 103.0896 106.8088 117.0277 119.2592 111.9597 110.3945 122.8582 123.7992 124.1022 121.8190 122.9511 124.4376 123.2974 116.8709 128.8969 122.0470 122.8213 122.7397 122.2501 115.7675 117.5008 121.9886 121.2093 122.4050 120.3663 122.9214 120.5246 121.5654 121.5619 121.5238 121.5001 121.4786 121.4792 121.4000
104.0600 116.7831 112.8014 113.0786 111.7250 101.4088 108.9785 107.6078 116.1833 115.6952 116.1841 117.5489 126.2880 114.3461 115.9094 126.7629 123.7396 122.0965 110.0872 123.7877 122.5827 122.3470 122.4903 123.4893 112.9825 119.8916 124.0534 117.9803 114.8036 120.1721 121.7101 121.2816 121.4744 121.3149 121.2383 121.1993 121.1799 121.1611 121.1513 121.1100
107.2900 115.2503 108.1081 112.0762 113.9912 102.7935 110.3587 107.2919 106.3465 122.8431 126.2649 124.9622 120.1457 112.1463 109.9255 111.0709 112.9735 110.5240 122.8755 114.8732 123.3618 122.1770 121.6948 114.3174 104.8985 103.0590 113.1392 120.6087 105.2663 101.1857 121.7467 120.8869 120.8968 120.9978 120.9510 120.9083 120.8352 120.8198 120.8094 120.8000
105.9900 106.8557 109.8984 104.5456 104.9055 110.5235 112.8097 113.3080 101.2947 107.4860 118.1751 125.6062 104.7509 121.8288 100.3433 111.0644 109.3930 109.2837 110.2479 108.2298 120.4719 123.2441 124.1102 114.5123 105.2660 105.8741 104.0277 121.4991 103.1270 103.6212 123.2099 122.2030 121.6571 120.5066 120.4978 120.3878 120.5085 120.4657 120.4662 120.4900
105.3700 105.7507 104.6013 110.0960 107.6926 105.3659 111.1700 114.5455 108.2139 121.2798 118.3817 122.8287 122.3527 126.7626 101.3483 109.9259 104.7118 109.9351 108.5963 107.9873 115.9114 115.8479 105.7829 102.9930 105.1579 108.5444 104.4144 110.1933 108.6508 99.9543 114.9385 113.5295 110.8181 121.4228 120.6773 120.7116 120.0652 120.1224 120.0973 120.1600
114.0200 107.4101 104.1358 102.5106 104.4203 105.3546 115.6735 124.2361 125.6011 124.7011 123.4968 123.5857 121.6376 115.2570 99.4984 99.7148 100.7400 108.7552 108.0757 106.5822 110.7560 117.4892 102.1421 98.9093 105.1818 106.7268 105.7106 98.5284 100.0133 121.9539 98.1620 96.8881 118.8184 114.7257 121.2764 110.7377 120.6583 119.5627 119.7134 119.8200
110.9200 110.9805 114.1024 101.9488 103.2606 102.1007 106.4242 117.1813 124.3087 123.6812 123.9064 125.7788 102.2587 100.0928 106.1009 109.5690 110.1272 110.5042 108.4869 106.9953 107.6451 103.4544 104.1460 99.4381 102.6208 100.6845 106.4588 101.9125 108.7743 120.0033 96.1913 99.7546 114.2653 92.2466 120.0191 126.9309 119.3306 119.4022 119.3148 119.4600
108.7400 107.9480 111.9731 105.2119 104.8863 97.9836 105.2041 113.4987 124.7578 124.2553 123.1540 116.0831 97.5317 103.5192 111.8054 114.5475 121.7267 122.0156 114.2974 112.6056 107.9871 105.8029 99.4686 101.3363 117.7588 108.4808 103.9036 99.6384 110.1687 119.0482 98.3930 96.5084 113.4440 108.2816 120.4850 118.3214 118.1880 118.9329 118.9014 119.0900
105.5600 105.2319 110.3308 109.4060 113.6393 125.4009 120.6702 104.6056 107.6893 120.2332 119.0425 100.5207 102.1909 108.8259 102.4541 101.6662 119.0393 117.6591 118.1959 113.7436 107.1425 105.6699 105.2651 97.9590 98.7438 114.9913 99.0935 102.1332 94.8016 118.9951 98.5281 96.1593 119.6427 120.7941 112.9706 119.0863 118.6923 118.4771 118.4612 118.3000
109.2800 105.4623 104.4468 104.9890 111.0577 111.9030 126.6241 115.9624 118.2286 113.6593 113.8588 97.7880 100.3650 104.6694 119.4020 110.3137 122.9336 119.5047 121.9513 110.7954 104.4967 106.4125 104.9463 101.7341 98.5104 108.5384 95.3937 100.7603 93.7432 106.3295 108.8857 104.7826 124.6021 117.7977 117.4357 118.3229 118.0224 117.9956 118.0013 117.8700
109.2800 104.2644 100.2612 109.4713 110.5821 113.9419 118.9473 124.5387 123.1103 120.1906 119.3172 112.1027 106.9599 103.7257 110.7939 107.9331 122.8567 122.2625 120.3705 119.9999 101.0186 101.9892 103.9258 103.2487 98.6565 109.2355 112.1108 114.8492 100.4995 115.2285 113.6343 112.6217 108.8994 117.9483 117.7989 117.5629 117.5772 117.5259 117.5098 117.4300
102.9300 101.2604 113.5933 111.0731 109.2268 106.8206 119.1891 123.8099 123.5622 123.2262 123.8371 106.0536 113.9174 108.7741 118.9366 108.3650 108.2052 121.3683 120.8047 121.8754 118.6323 105.0564 101.6788 102.5494 98.5088 102.9207 113.9583 118.4580 114.9952 106.1609 118.1079 119.7186 116.8643 117.8674 117.2684 117.1626 117.0689 117.0077 116.9947 116.9600
105.3800 104.2490 109.1734 102.2095 102.6921 102.0279 134.7920 122.1733 123.0932 122.6067 113.4148 103.1431 119.9286 98.7485 110.5452 121.5397 122.3237 122.3953 107.1617 120.6950 121.1167 108.8940 100.4577 95.8923 102.0109 97.2945 119.4753 116.9685 117.7975 113.6223 118.6590 116.9047 117.0661 116.7713 116.7411 116.5980 116.5198 116.4684 116.4404 116.4600
102.8600 102.2365 103.4247 103.0214 101.8024 101.5610 114.2287 118.8788 122.5520 124.2166 121.9783 122.2618 122.1103 122.2448 111.8224 106.8943 117.4685 120.4661 119.9546 121.0793 120.1969 98.9246 101.6832 107.2405 106.1700 116.6474 118.0366 115.8604 117.9795 117.4589 116.6678 116.8716 116.5499 116.3823 116.1731 116.0383 115.9434 115.8818 115.8610 115.9300
103.4700 105.4246 121.0253 108.6696 116.4100 112.1875 113.1844 100.6246 117.1234 119.2474 102.8465 125.0919 122.4536 110.7073 117.2298 123.6308 105.6528 102.1997 119.4186 118.5999 110.6294 95.8407 111.0402 119.8794 118.2748 111.4367 115.9639 110.0829 116.3799 116.9245 116.5444 116.2594 116.0224 115.7879 115.6024 115.4432 115.3243 115.2488 115.2332 115.3700
107.1400 115.5987 105.2331 111.6698 120.3210 115.9560 113.2158 105.9928 118.0725 107.4918 96.9318 116.9151 121.4996 122.9126 121.3027 118.9382 111.9969 108.6303 104.2376 104.9495 99.3379 98.1663 96.0514 105.6160 114.4514 116.6925 117.6811 111.0012 110.5128 116.5422 116.0109 115.7559 115.4603 115.2073 114.9820 114.7969 114.6632 114.5795 114.5538 114.7700
113.1100 102.0475 113.0976 111.1151 104.0556 101.1911 116.2159 119.6518 106.6886 102.4195 102.1785 100.2104 121.3737 115.3040 120.5523 115.6707 111.8334 120.7446 108.7313 107.8737 104.5956 103.4490 97.6654 95.5790 99.9533 112.3506 118.4369 116.8189 116.7750 115.8103 115.5447 115.1788 114.8720 114.5792 114.3219 114.1110 113.9519 113.8517 113.8150 114.1300
102.5900 101.5026 111.3413 108.2241 110.0775 107.2402 110.9037 112.8383 108.3124 112.5602 106.6588 110.7220 107.3256 105.7524 122.1607 121.5726 122.3490 112.6036 104.6392 102.3011 101.9959 102.9587 99.6388 97.4852 104.0573 93.9498 116.4018 115.7934 116.0014 115.3234 115.7015 114.6194 114.2661 113.9085 113.6083 113.3585 113.1670 113.0509 113.0148 112.6700
109.1900 102.5085 100.7727 98.7755 112.6528 110.0086 124.6549 107.5648 114.5122 126.0347 124.2644 124.0467 109.4296 117.1591 120.7095 120.2382 120.0798 117.0277 130.4831 111.4945 99.3599 99.8451 101.0323 99.7172 117.5801 111.1648 120.0648 116.2907 111.9358 106.4682 114.2187 113.9315 113.5932 113.1989 112.8494 112.5462 112.3236 112.1780 112.1232 111.8400
114.3500 102.5932 103.1030 101.2215 112.9673 118.2940 122.6781 120.2235 122.6881 121.0303 123.2852 122.4340 124.6377 123.5619 120.1198 119.4848 116.1339 95.9909 101.3948 119.3544 111.9547 109.2079 96.1090 95.7156 102.5365 111.1843 111.9770 115.4043 111.8738 109.6788 114.9896 113.3883 112.9326 112.4559 112.0210 111.6615 111.3873 111.2045 111.1426 110.9300
102.3500 101.5582 102.6030 101.5391 110.5295 108.2974 110.3960 119.4544 120.8326 118.2793 110.8262 112.4339 102.5961 103.4481 123.7225 123.3082 119.3903 114.9394 121.9377 119.9669 119.6172 119.2987 114.0286 113.3601 115.1981 115.2451 116.2072 115.0562 114.4917 114.1912 113.3154 112.7840 112.1411 111.6271 111.1325 110.6917 110.3381 110.1114 110.0268 109.9000
117.6800 110.8339 102.0835 102.9291 116.4943 118.6001 120.2445 122.5686 103.8140 119.7434 117.3328 108.6756 105.8034 100.7616 102.8633 99.0374 119.9720 119.6366 118.8407 118.1653 119.7537 97.9692 107.5370 117.1537 117.2275 115.5727 115.1164 114.6146 114.0570 113.3766 112.7406 112.0994 111.6156 110.6245 110.4711 109.6065 109.1604 108.8573 108.7531 108.7400
113.0700 110.3718 122.5436 98.7251 116.1568 112.6586 120.5221 121.3543 109.0870 122.1026 113.5580 103.9526 111.6022 113.3053 106.5856 124.5302 102.9292 121.3148 119.1129 118.7771 117.8289 113.4435 107.9126 108.9000 116.9621 115.2832 114.8307 114.3007 113.6226 112.9308 112.2215 111.3479 111.0166 104.2073 109.0121 108.4443 107.8054 107.4126 107.2579 107.3900
102.1400 112.8943 120.5871 99.3607 117.1213 115.8444 122.6819 121.6267 109.4487 120.7095 105.6141 103.7184 116.5515 125.6155 121.2047 119.5902 119.6606 121.1657 97.5805 99.1369 97.5804 107.1826 115.8747 114.2688 116.1217 114.4088 114.7698 113.9285 113.2481 112.5027 111.6694 110.8088 110.0456 108.7073 108.2533 107.0330 106.2627 105.6691 105.4566 105.8000
102.1200 113.8038 116.6813 120.4877 120.4987 118.8485 115.9880 123.6928 119.3734 120.4563 101.2199 123.0896 101.6916 107.6955 127.8000 121.4081 118.7367 118.6491 116.1314 102.4600 99.0942 99.7559 100.5390 107.1275 114.2588 111.2072 112.4322 113.3661 112.7442 112.0279 111.1609 110.0617 109.1186 107.9877 106.7829 105.5754 104.4206 103.5255 103.1674 103.8500
107.1400 122.1314 125.9602 119.2332 123.2556 122.6958 122.9932 122.1249 112.2756 120.1060 109.4469 121.9396 104.6386 107.1218 109.0727 123.1122 125.8441 118.6673 118.8198 119.5401 116.5200 115.2178 118.7121 117.9131 117.0187 115.1145 114.8111 114.3954 113.0881 112.3720 111.4935 110.3768 108.4945 107.1260 105.6347 103.9698 102.2293 100.7708 100.1024 101.3300
108.7100 120.6138 125.5761 123.8818 123.8591 122.9606 123.6192 111.0616 128.2779 125.0683 123.8756 121.3322 108.1374 123.6191 115.4225 111.0609 124.2720 118.1015 118.8969 117.6718 118.8145 110.9987 116.1153 115.7431 115.0558 114.6663 115.0543 102.0710 111.0214 102.2097 110.3438 107.1525 107.7855 106.3939 104.5145 102.3152 99.7172 96.7524 94.9075 97.7500
116.4900 122.1383 128.1270 122.4648 122.6597 125.6481 115.5797 122.3692 120.2805 120.5492 112.4065 121.7915 123.5902 117.4659 119.5495 122.7583 118.1162 125.5744 118.3290 117.6814 118.7462 100.6463 118.1088 114.8176 115.0277 114.1632 113.7466 104.1717 106.0421 91.9717 103.3608 100.3933 107.6323 105.7360 103.6610 100.8880 97.1084 90.8755 88.8049 91.6000
124.0900 126.5300 122.9123 119.6865 125.6894 116.2269 119.3792 121.2696 110.5299 110.6866 102.5282 108.9274 115.8888 103.0376 102.2070 114.3585 119.5492 128.5870 117.7502 118.8530 120.6141 102.9124 123.2366 114.6366 116.6234 116.6099 115.6248 115.8426 107.4561 96.1802 94.9518 113.4319 106.9562 105.8981 103.1296 100.1467 95.3590 87.4132 86.3009 91.6000
116.2300 118.3213 117.3697 114.1699 116.7037 111.5218 114.9236 113.6178 108.8107 109.7929 108.8080 108.9999 114.0409 110.0958 109.4534 114.8011 116.5261 108.6624 116.3426 106.5925 111.2240 102.5384 107.4491 106.4063 104.3202 100.2727 98.6103 98.1278 94.1943 101.5298 91.6433 104.0636 108.1775 99.6677 103.4758 100.5141 96.0989 88.8810 87.9807 90.8400
116.2300 116.1719 116.2752 114.7003 112.9473 112.4649 112.2393 111.4109 111.3588 110.4556 110.2350 111.8036 116.0725 116.4788 115.8964 113.8387 106.6923 105.5881 105.6836 103.1403 103.5449 104.0275 102.7221 102.6326 100.5355 94.0652 92.8121 93.2779 92.3395 91.2488 89.1974 86.9412 106.0545 105.3984 104.0927 101.6340 98.3870 93.5825 91.6343 91.5600
116.2300 105.8747 102.1449 109.0886 113.5970 113.6334 101.4168 113.3216 101.4870 104.2471 107.7818 109.8670 114.1348 112.8385 117.8117 113.3944 113.8176 113.0548 104.0452 103.6216 100.8090 111.6992 106.7327 100.4443 103.8777 97.6006 94.2197 89.9725 93.9813 96.2629 111.5116 109.2480 108.1885 106.7818 105.1297 103.2004 101.2098 99.2352 98.1790 97.7400
102.1000 101.5840 101.7140 109.4746 101.3004 102.0244 100.0252 112.6310 101.8149 103.2563 110.5431 110.0949 108.9280 121.0817 120.1915 120.0028 111.1111 112.7293 109.4703 104.8338 102.9211 101.9856 114.2529 99.5602 97.2073 96.1897 113.4665 113.7071 113.7690 112.9585 99.9580 107.6982 108.1779 107.7968 106.2640 104.8598 103.4761 102.3437 101.8826 101.3200
102.3300 102.9909 101.7121 101.3739 101.5069 110.8839 99.7839 99.4384 99.2658 109.3878 107.1645 119.5110 105.2619 112.1880 120.7299 119.1821 112.5215 108.7285 107.2387 106.7529 103.9346 110.6183 111.0067 114.1838 117.0672 115.0881 114.4526 113.3721 112.8275 111.6583 111.7781 109.4296 109.7021 108.4932 107.4779 106.4285 105.4654 104.7678 104.4874 103.8400
102.2800 102.0177 103.0377 103.6136 110.0468 110.6148 101.0319 104.0894 99.7665 101.1535 99.6729 106.1964 109.5286 114.7462 119.3534 112.3896 122.0440 115.0027 115.4080 110.9476 114.0944 119.0624 115.2309 116.8091 115.5711 115.3750 114.7029 114.2571 113.4424 113.3287 114.5441 94.1615 111.7203 109.2327 108.7534 107.8363 107.1395 106.6628 106.4851 105.8000
102.3700 101.6093 109.8485 107.9947 98.6982 107.6166 105.9195 109.1845 106.8566 108.5910 106.6749 111.4602 112.7283 121.3130 120.8756 119.9921 113.1258 101.1783 116.3317 117.0011 97.5123 117.2343 115.9188 115.3980 116.2867 115.6603 115.0552 114.5658 113.7882 110.5154 90.3767 96.8518 104.5053 110.0122 109.6287 109.0832 108.5707 108.2283 108.0890 108.7300
102.3100 102.1500 101.8300 101.6600 101.4900 101.1400 100.9600 100.5900 110.9900 101.1600 106.5000 121.3700 121.1500 120.9300 120.4600 120.2100 99.0200 118.9700 115.1800 118.6000 118.3000 117.6700 114.1400 110.6000 116.3000 115.9000 115.0600 114.6200 114.1600 113.6800 91.2700 115.6200 111.5000 111.5000 110.2200 110.3600 109.6500 108.7100 108.7500 108.7300
