120.4500 120.4700 120.4900 120.4900 120.4800 120.4600 120.4500 120.4000 120.6600 120.6200 118.7900 118.7900 121.0100 121.0100 121.2100 121.3800 121.3800 121.7800 121.7300 121.9300 122.0800 122.2900 122.4300 122.6100 122.8100 122.9300 123.1100 123.2600 123.5700 123.7500 123.8700 124.0200 124.3200 124.4800 124.6000 124.7400 124.8700 125.1500 125.3000 125.4100
120.1200 120.1799 120.1624 120.1492 120.1018 120.2338 120.2815 120.2802 120.3622 120.4486 120.5555 120.6533 120.7069 120.6762 121.0893 120.9780 121.2841 121.5330 121.9171 121.7360 121.9932 122.1565 122.3399 122.4695 122.6989 121.5817 129.8256 122.3614 123.3777 123.6573 123.8006 123.9851 124.1651 124.3493 124.5267 124.7425 124.4843 126.1010 125.7861 125.4100
119.7800 119.8068 119.7834 119.7696 119.7906 119.6943 119.6462 119.9862 119.8657 120.1738 120.1753 120.1821 120.5032 121.8456 120.7510 120.8711 121.6181 118.0916 121.0513 121.6178 121.7315 121.9219 122.1045 122.3016 122.6380 122.4596 129.7313 117.0691 123.6766 123.3786 123.6441 123.8280 124.0147 124.1962 124.4237 124.5768 126.0834 115.9866 126.6877 125.1900
119.4200 119.4105 119.3854 119.3778 119.0770 122.5257 119.2026 119.0062 121.0763 119.3603 119.8818 119.7498 107.9372 118.0313 120.0213 120.6106 120.0637 120.9252 120.7060 121.2794 121.4736 121.6826 121.8811 122.0813 122.2168 122.6359 114.6677 117.1674 123.4535 123.2590 123.4798 123.6740 123.8734 124.0682 124.0503 125.2083 112.8379 116.7088 119.8845 125.1900
119.0500 119.0008 118.9688 118.9573 118.8257 118.8394 119.1333 119.3231 126.4839 119.6878 118.4334 119.1645 118.4691 121.8153 116.8550 121.3600 120.3311 120.6449 120.9088 121.0016 121.2342 121.4423 121.6545 121.8604 122.0904 122.3983 122.7626 123.3061 122.8679 123.1324 123.3131 123.5170 123.7229 123.9162 124.0762 124.8935 120.0448 124.6404 128.9335 124.9700
118.6600 118.5673 118.5338 118.5292 118.5781 118.6217 118.6639 118.2152 117.0760 118.3975 119.1839 116.2805 112.6213 108.8805 102.5023 116.5887 120.5689 120.2941 120.5441 120.7594 120.9818 121.1970 121.4151 121.6350 121.8588 122.0807 122.2072 122.3275 122.7005 122.9512 123.1663 123.3727 123.5825 123.7731 124.0110 124.1855 124.3368 124.2606 126.3464 109.3700
118.2500 118.1127 118.0762 118.0675 118.0726 118.1145 118.1855 118.3796 118.6817 117.6718 122.6460 102.5870 110.1177 127.8684 112.3303 121.0502 119.7367 119.9683 120.2785 120.4887 120.7236 120.9543 121.1904 121.4190 121.6512 121.8915 122.1066 122.3418 122.5667 122.7888 123.0121 123.2215 123.4341 123.6457 123.8599 124.0592 124.2408 124.4216 124.8818 124.7400
117.8200 117.6405 117.5953 117.5862 117.6024 117.6582 117.7253 117.8334 117.8678 118.2456 122.1113 119.2267 120.4192 117.2152 119.3580 118.3193 118.9120 119.7531 119.9711 120.2222 120.4590 120.7253 120.9254 121.1234 121.4362 121.6332 121.9002 122.1291 122.4043 122.6309 122.8679 123.0339 123.2933 123.5117 123.7297 123.9405 124.1370 124.3766 124.5829 124.7000
117.3700 117.1270 117.0877 117.0714 117.0890 117.1261 117.2354 117.0732 118.1509 117.3027 117.4650 116.7106 116.8618 119.1945 113.7514 112.4770 121.2586 119.3591 119.7009 119.8985 119.8832 120.4920 120.7581 122.0244 121.9309 121.9738 121.8229 122.2220 122.2308 122.4423 122.6349 123.7655 122.9265 123.4013 123.6166 123.8250 124.0404 124.2379 124.3463 124.6600
116.8900 116.5953 116.5486 116.5256 116.5621 116.6117 116.2941 120.2416 111.2818 117.5069 117.0930 118.3468 118.6331 106.7129 115.0053 114.6941 118.9130 118.7156 119.1511 119.8749 120.5412 120.5382 120.2812 114.6646 116.4073 117.2003 120.2195 119.1753 121.9508 122.8250 122.0933 125.4840 122.8679 123.3090 123.4907 123.7152 123.9267 124.1576 125.0286 124.4800
115.8500 116.0073 115.9552 115.9485 115.9493 116.0382 115.9807 116.5894 111.2517 117.2260 117.0440 111.2282 121.2822 115.6764 112.4821 118.7295 119.7707 119.6305 119.9372 118.2417 113.5539 112.7440 122.1525 123.8653 112.3769 115.7721 118.7948 115.9763 128.5257 116.9064 122.5645 122.5683 122.9086 123.1308 123.3735 123.5974 123.9165 124.0647 119.4370 124.4400
115.2700 115.4224 115.2623 115.2899 115.4104 115.2547 114.8772 115.6907 116.2983 119.5435 116.3602 115.0824 127.5755 118.7091 117.9887 117.5888 111.2579 114.1381 118.5204 114.5167 114.3135 111.5017 120.2523 115.2173 116.0024 122.5451 121.9869 121.8512 128.4967 117.2487 122.3851 122.4920 122.6940 123.0382 123.2571 123.5295 123.3398 125.3833 108.7174 109.6300
114.6600 114.7475 115.2350 115.4455 110.7693 118.8545 117.6674 115.0572 115.1545 114.1137 115.7658 116.0079 121.5326 118.3429 117.1127 117.6646 116.4742 118.4831 118.9993 122.4401 119.3382 118.9369 119.3889 115.9472 117.1189 120.6539 118.1513 121.4256 121.6537 122.9329 122.0540 122.8078 122.7082 122.9382 123.2007 123.0067 124.3627 115.3987 111.5133 112.3500
113.9800 114.0327 115.1466 118.4632 113.4581 114.2454 115.1265 114.3405 114.9979 113.5396 115.5207 115.5670 116.0044 116.6898 112.9502 117.1966 117.8692 117.5540 118.2608 118.4085 118.9507 118.3141 119.0298 117.7646 114.2669 120.9056 120.9486 124.5186 121.4617 121.3146 122.7416 113.8939 123.4799 122.8253 122.8192 125.2214 114.3265 113.9798 112.0150 111.7600
113.2700 113.2620 112.9634 112.7759 112.1751 113.3547 113.5722 113.7169 113.9772 114.3185 113.4838 115.2185 115.4642 115.9592 115.6158 116.7745 117.1491 117.5228 117.9458 118.3568 118.6504 118.6363 122.7409 111.7587 121.1121 120.0353 121.0673 121.3031 120.8666 126.0412 122.0297 120.8519 122.4787 122.2703 124.2227 107.0295 121.5808 110.1361 109.3320 114.0900
112.5000 112.4298 112.3445 112.7526 113.4719 112.4279 112.6867 112.9866 113.3199 113.8263 114.0272 114.6452 115.0174 115.4497 115.9144 116.3811 116.8034 117.2265 117.6414 118.0468 118.3966 118.9929 119.7472 115.3500 118.1072 120.1062 120.6033 120.8295 121.1005 121.7925 121.7707 122.1862 122.3642 122.6278 122.6831 122.3897 111.0162 115.7996 125.7895 126.5900
111.6400 111.5028 111.3419 111.0521 111.2752 111.5458 111.8183 112.1814 112.5940 113.0253 113.5210 114.0318 114.5196 115.0320 115.5187 115.9980 116.4681 116.9268 117.3660 117.7985 118.2218 118.6027 119.0675 119.6858 123.3181 119.9556 120.3875 120.7680 121.0890 121.2250 121.5867 122.0211 122.5465 123.2993 115.5611 122.8667 124.8314 116.0910 122.7564 116.2100
110.6800 110.4654 110.2628 110.2504 110.3035 110.5217 110.8656 111.3034 111.8070 112.3386 112.8987 113.4687 114.0472 114.5850 115.1187 115.6607 116.1861 116.5333 117.1340 117.5489 117.9642 118.7242 116.8968 119.5127 119.1422 119.9961 120.3083 120.6215 120.9371 123.0631 121.9778 119.5862 119.1421 129.7520 111.1237 111.4781 120.8966 114.9345 115.5594 120.1800
109.5900 109.2949 109.0359 108.9453 109.0720 109.3697 109.8187 110.3563 110.9587 111.6012 112.2569 112.8948 113.5432 114.1192 114.7460 115.2741 116.0309 116.5309 116.8834 117.3557 118.3556 120.0235 102.4483 117.7376 119.8584 119.8290 120.1873 120.6116 119.7310 130.0761 113.7065 110.5586 108.0769 110.4015 113.8526 116.6527 115.6599 124.6162 116.6473 123.8600
108.3400 107.9622 107.6045 107.5043 107.6608 108.0632 108.6423 109.3216 110.0760 110.9362 111.5842 112.3663 112.9242 115.6849 114.1856 114.9050 117.6112 116.4043 116.7983 118.9292 113.5751 109.6120 109.9606 108.7257 119.8901 119.7095 120.0811 120.4128 120.4522 120.1452 128.1288 136.5846 113.3243 122.3472 123.5536 124.9255 130.2156 118.8536 125.2270 123.8400
106.8600 106.4203 105.9017 105.7470 105.9855 106.5584 107.3402 108.2596 109.2239 109.3028 111.0286 111.8321 112.3733 115.7599 113.8164 114.7843 115.0945 115.8632 116.1258 110.4930 102.4497 101.7964 114.9616 113.7999 119.4990 119.6136 119.9862 120.3327 120.7693 120.6017 119.6282 120.4767 123.4789 122.4764 122.8045 123.2156 119.6912 112.7061 124.5906 123.8100
105.0600 104.5899 103.8020 103.5492 103.9339 104.7962 105.9140 107.0729 108.1012 108.1713 110.3875 111.3007 112.1188 112.7504 113.7738 114.4312 115.2190 115.7192 122.1860 101.6718 113.5037 111.3734 117.7968 119.3652 119.1076 119.5239 119.9108 120.2708 120.5992 121.3138 122.5702 122.4213 121.4056 122.8818 124.5650 113.9806 115.4544 107.2137 125.9845 123.8100
102.7300 102.3619 101.0766 100.6362 101.2893 102.7118 104.3419 105.9161 107.4141 108.7552 109.8135 110.8737 111.8516 112.7212 113.4898 114.2295 114.9159 115.7663 120.8504 113.3116 118.2933 118.8117 118.2841 118.5438 119.0542 119.4647 119.8407 120.1932 120.7654 122.0632 115.2640 123.2659 122.4324 124.0056 133.7455 107.2733 108.7402 113.2836 115.1703 114.2400
102.7300 99.7820 97.2035 95.9640 97.7234 100.2905 102.7425 104.8168 106.5626 108.0454 109.3677 110.5123 111.5359 112.4569 113.2984 114.0338 114.7583 115.2534 115.8394 116.9383 116.9682 117.4837 118.0959 118.5704 118.9938 119.4062 119.8050 120.1467 120.6257 122.6364 109.4470 121.5658 114.9659 110.6507 124.4766 120.7629 123.2254 114.9710 122.7966 123.6100
99.3400 96.8560 91.0163 88.9639 92.1785 97.8394 101.3130 103.9275 105.9631 107.7061 109.1024 110.2837 111.3524 112.3022 113.1393 114.2661 114.6369 115.3796 115.9695 116.5120 117.1093 117.6010 118.0761 118.5303 118.9592 119.3716 119.7594 120.1240 120.5574 121.0422 121.6516 125.9078 122.1996 109.2239 115.8190 116.3883 113.6732 114.8559 115.7486 116.6000
99.0200 94.4855 86.5927 84.2707 87.9420 96.0238 100.4723 103.4599 105.8927 105.8168 109.0626 110.1479 111.2540 112.2193 113.0904 113.8981 114.6159 115.2969 115.9204 116.4672 117.0508 117.4831 118.0509 118.5502 118.9310 119.3551 119.7563 120.1891 120.5764 121.0490 118.0932 122.0373 120.9135 111.0027 113.3635 108.4680 109.5556 122.7201 121.5459 117.6000
99.0400 94.8706 87.6553 85.5346 88.7434 96.3816 100.5989 103.5261 105.8968 105.7092 109.2716 109.6003 111.2426 112.2413 113.1119 113.9023 114.6308 115.3000 115.9336 116.4088 116.5603 117.9216 118.0038 118.5715 118.8994 119.4566 120.0980 120.1882 120.5697 120.8906 121.3960 120.9068 121.5292 109.4510 112.1527 116.1049 110.7551 122.4298 123.0897 123.5900
99.4300 97.2117 92.4984 90.6711 93.6090 98.5033 101.6432 104.1297 106.0823 107.8521 109.6395 105.5950 111.9627 112.3031 113.1848 113.9718 114.6875 115.3473 116.2303 115.9068 115.9845 105.8208 115.6757 106.4529 119.4184 119.6209 117.2288 119.7552 120.5068 120.7706 121.0781 122.9431 116.5686 120.8485 109.4899 123.5150 121.7888 124.0625 123.3031 123.5900
102.6100 100.7606 98.3828 97.4495 98.7910 100.9266 103.1558 105.0815 106.7612 108.2002 109.4210 111.0425 111.7867 112.5289 113.3339 114.0991 114.8114 115.4661 114.4442 114.7439 118.9944 106.6964 102.9841 110.9082 118.2912 119.5068 112.7638 115.7976 120.6998 125.3855 116.5389 119.5939 111.8906 112.8208 113.7984 123.3025 116.0949 120.6228 123.4660 123.7700
102.6100 102.9930 101.8121 101.4346 102.0045 103.2709 104.7581 106.2185 107.5795 108.8312 109.9681 110.9441 111.8896 112.7777 113.5513 114.2750 114.9605 115.5275 115.2926 115.3879 117.4003 117.9410 120.6664 117.7975 120.3403 119.5031 120.8356 121.7745 120.7082 123.9568 108.5267 110.9619 115.8867 112.9820 112.1480 122.6748 112.7860 116.9239 116.0532 123.7700
106.6600 105.0712 104.3683 104.1502 104.4549 105.2746 106.3833 107.3984 108.5100 109.5348 110.5222 111.4282 112.3037 113.0770 113.8115 114.5144 115.1353 115.8300 116.5581 117.2935 117.4505 117.4335 128.7137 106.0397 115.7657 119.1428 120.1806 115.8255 119.8359 120.3399 114.5477 112.1473 119.4556 123.8522 115.0309 122.2065 120.8253 115.0237 121.3592 121.7400
106.7900 106.8306 106.3603 106.2156 106.3744 107.0850 106.6120 108.4945 109.3609 110.2843 111.1330 111.9423 112.7175 113.4388 114.1165 114.8016 115.2193 115.5067 116.2447 116.9433 117.4860 117.1138 117.8742 116.4689 103.3778 121.8365 119.8618 117.7821 113.9910 101.8599 105.9485 103.3334 103.9552 121.8750 121.4746 123.3535 123.6524 131.8610 123.6900 110.6300
108.2900 108.3193 107.9833 107.8795 107.9776 108.4977 124.0839 108.6169 110.2912 111.0445 111.7720 112.4899 113.1759 113.8388 114.4630 114.9160 116.4280 118.4474 117.3735 117.2060 117.6819 117.9078 125.7464 116.8473 116.0077 109.5041 119.4553 122.0043 109.6975 122.9642 93.4592 110.9055 117.8406 121.2556 122.7678 122.6201 128.0498 140.6827 123.7662 111.4200
109.5500 109.6038 109.3535 109.2811 109.2677 110.2361 109.9162 110.8560 111.2362 111.7858 112.4226 113.0504 113.6657 114.2552 114.9145 115.0689 115.5041 98.2779 115.2897 117.1728 117.7379 117.9798 123.9334 126.9667 112.9649 109.7210 111.5465 111.0383 112.5676 114.2074 120.3008 121.5835 122.6557 122.4733 122.6599 122.9414 124.4268 118.3625 112.9290 119.4600
110.6400 110.7349 110.5436 110.4878 110.5828 110.7178 111.4580 111.5132 111.9882 112.5254 113.0644 113.6105 114.1603 114.6949 115.2268 115.9406 113.1052 115.6958 117.1250 118.0753 117.4418 124.0179 120.5345 105.5930 121.0028 116.9083 103.5770 109.8208 109.3608 114.8303 113.6466 118.1388 122.5757 122.6885 122.7018 123.0098 123.0588 123.7155 111.5900 113.3100
111.6100 111.7374 111.5904 111.5466 111.6121 111.7903 111.9926 112.3808 112.7818 113.2249 113.6867 114.1704 114.6598 115.1378 115.6289 116.0688 116.7597 117.0098 117.7651 117.6511 117.8222 123.3937 119.1406 119.2754 120.0242 120.2106 120.8386 121.2163 121.4823 121.5613 121.0536 110.6241 115.7479 117.1042 123.0357 123.1133 123.4613 124.5789 128.3829 124.0300
112.4800 112.6454 112.5268 112.4885 112.5416 112.6820 112.9093 113.1851 113.5183 113.8904 114.2988 114.7157 115.1552 115.5911 116.0187 116.4713 116.9472 117.1294 118.3012 110.9161 118.3254 117.8460 119.2852 119.4257 119.7946 120.1920 120.2177 120.6166 121.0088 121.5694 123.0484 111.7234 122.5130 122.6889 122.7975 123.2970 123.4152 126.6524 123.8452 112.2700
113.2600 113.4663 113.3708 113.3440 113.3838 113.5043 113.6807 113.9184 114.2086 114.5373 114.8805 115.2575 115.6310 116.0367 116.4296 116.8108 117.6972 114.0268 113.1759 112.5689 102.8435 109.3448 119.9563 119.8508 120.1360 120.4663 122.2310 120.9737 121.5562 120.5664 122.6689 132.6561 112.9570 122.6779 122.6397 123.3311 123.8988 124.9581 124.2159 124.0800
113.9800 114.2229 114.1367 114.1131 114.1519 114.2475 114.4016 114.6010 114.8544 115.1182 115.5002 115.3883 116.0861 116.4742 116.8329 117.0826 117.8531 107.1376 103.5646 112.4758 111.4282 115.1986 120.3973 119.8015 120.2843 120.4944 123.5235 121.5742 121.5171 119.8010 125.7867 118.9051 108.5780 124.7359 122.8743 123.2689 123.4839 122.6474 124.1052 124.1100
114.6500 114.7100 114.7700 114.7700 114.7600 114.6800 114.6200 115.0700 115.4500 115.4500 115.7800 114.6200 116.4700 116.8000 117.0700 117.4400 117.6800 114.7600 113.3400 105.6600 107.8400 101.6300 119.8500 120.0900 120.3300 120.7800 121.0000 121.2200 121.6400 121.8300 121.3200 115.8500 109.7700 122.9700 123.1400 123.3200 123.6500 123.8100 124.1300 124.1300
