113.7800 106.5300 112.7500 105.6900 105.6900 101.9900 117.8000 101.7300 114.0000 102.5400 119.6300 123.0900 115.0700 113.3100 122.6400 122.5100 122.2800 122.1400 122.1400 121.9800 121.8100 121.6200 121.6200 121.4600 121.4600 121.2400 121.3100 121.3100 121.0700 121.0900 121.1100 101.8600 101.8600 121.0900 121.0800 121.0400 121.2900 121.2600 121.4800 121.4800
113.7800 105.9657 110.4453 114.9406 111.3248 106.5977 113.0943 106.9092 109.4374 113.0288 124.8020 122.5182 114.1295 120.8854 123.1457 122.5543 122.3958 121.9833 121.8921 121.9610 116.4596 107.0177 121.2451 121.1144 121.1930 120.9707 120.9118 120.9758 120.9026 120.8909 120.9686 119.3039 110.9559 116.4526 120.5829 120.9964 121.0069 121.0757 121.1501 121.1800
117.0000 110.3001 103.3802 107.6645 116.0926 115.4577 110.5078 105.2855 114.1328 121.0274 122.5929 122.5365 123.3914 120.3474 120.6311 115.5015 120.8711 121.7389 121.5925 122.5355 118.8409 121.5640 121.4025 120.9366 120.8827 121.5692 122.2098 120.6051 120.5676 120.5260 120.5802 120.5080 119.2925 120.6906 120.5004 120.5998 120.6699 120.7281 120.8218 120.8700
112.2000 114.4756 108.6496 110.0270 114.8314 104.3568 111.7978 105.9941 112.3116 113.6791 123.8081 122.0943 122.1642 122.7580 122.5146 119.3705 121.9749 121.4592 121.3247 121.1062 121.2730 120.7650 120.7238 120.6818 120.6165 120.3745 120.4363 120.2833 120.2032 120.1700 120.1537 120.1197 120.1515 120.1277 120.1856 120.2487 120.3108 120.3917 120.4805 120.5500
102.3500 111.1439 110.2352 112.5018 109.9778 99.8531 107.0680 106.5386 115.1734 119.5188 122.6713 122.2912 122.1061 121.6657 121.7529 121.9167 121.3541 121.1797 121.0425 120.8760 120.6772 120.5635 120.4261 120.3265 120.1503 120.0230 119.9957 119.9374 119.8313 119.7943 119.7570 119.7765 119.7852 119.7896 119.8193 119.8741 119.9421 120.0363 120.1304 120.2100
111.8700 111.7974 111.6288 111.0973 112.7359 104.0036 104.6459 108.0649 105.9228 116.5351 122.5214 122.0858 121.8975 121.5574 121.2754 121.3868 121.1255 120.9379 120.7517 120.5594 120.3801 120.2610 120.1152 119.6973 119.9548 120.2535 119.5712 119.4812 119.4735 119.3710 119.4020 119.3655 119.3870 119.3631 119.4308 119.5171 119.6068 119.6570 119.7659 119.8700
107.8000 109.8438 110.8860 104.9901 106.1950 105.5999 112.1918 106.3976 101.5000 109.5756 122.5832 121.9362 121.3328 123.5941 119.4282 121.8697 120.6616 120.7484 120.3611 120.2431 120.1110 119.8303 119.4620 120.2718 120.4311 113.4907 118.9555 119.2625 118.9507 119.2738 118.8359 118.7803 118.7654 119.1387 118.9969 118.9433 118.9627 119.2769 119.3948 119.5000
108.1700 108.9193 107.7180 112.5868 105.7124 107.1624 111.6384 111.4938 109.5140 113.5542 121.8087 121.6243 121.4764 122.8188 117.3523 121.4293 118.4074 121.0125 120.1061 119.8302 119.6557 119.7820 119.8657 109.4585 109.9147 104.4338 121.0357 118.2650 118.5599 117.5668 117.7753 119.6469 118.6332 117.3088 118.4176 119.5979 119.8737 118.8178 118.9730 119.1200
112.1200 120.7653 110.3150 105.5251 118.9869 107.4516 118.3609 115.1939 120.0765 116.0259 122.5507 120.5087 122.0929 117.9664 112.5212 104.9487 102.8042 121.9759 119.6447 119.6433 119.1677 116.1142 109.6940 100.3296 97.6985 116.4963 107.8778 119.7233 118.0057 118.6582 109.9276 107.2492 112.3244 114.9992 118.8925 105.8625 118.2212 118.3506 118.6417 118.7300
112.2800 110.0546 114.9559 102.4926 105.9336 105.3220 118.2933 118.8109 122.6003 121.8680 121.5043 123.2252 109.6271 112.0641 104.8601 121.7458 120.9843 119.6601 119.5651 119.2722 119.6356 113.2665 108.8529 100.8689 102.4437 118.3922 98.0687 106.8917 118.6677 118.2608 112.0724 112.9342 111.7772 117.1985 117.6319 117.1616 120.3597 118.0471 118.1626 118.3000
109.1400 111.0009 114.2517 102.6105 107.5271 109.4864 116.2086 116.2220 121.7576 121.3808 114.1886 116.0106 97.2788 100.1614 103.9034 104.9942 119.0590 119.0497 119.1794 118.6713 118.7366 112.2333 104.3781 101.1932 112.2145 107.8044 105.5434 102.2702 109.5928 104.7849 109.0354 112.4425 108.0253 114.7200 118.3511 117.3098 119.1054 118.3432 117.7117 117.8500
103.7600 110.8371 107.4989 110.0812 106.1361 114.5452 119.2094 115.3485 122.3805 121.5964 121.3505 102.0211 101.2006 111.4131 111.6065 107.2079 121.2734 118.8420 119.3151 118.5797 118.6979 121.4055 100.0516 103.3184 115.3523 116.3260 110.2999 98.1197 121.3796 110.7419 96.1503 101.7885 110.2967 114.2956 112.4735 116.2890 116.6058 117.0681 117.3116 117.3800
110.8200 106.3246 107.3301 108.4222 118.5381 117.2178 116.5627 121.3378 121.1824 121.0079 121.3936 112.0513 108.5067 110.8644 117.0869 119.0393 119.2027 118.8456 118.8285 118.1547 117.8106 118.0362 103.3066 110.1288 113.5194 113.2845 103.1819 99.6975 109.2521 108.9529 107.0494 116.2791 115.6911 116.0690 115.4227 116.2864 116.3675 116.5612 116.7690 116.8200
103.9700 108.2156 101.2811 111.6923 112.0035 121.7157 119.6828 121.4201 121.0304 121.0703 121.0621 121.3518 119.0885 111.3371 105.9466 118.6970 118.8029 118.4745 118.1707 117.9107 117.4306 117.3837 114.8637 103.2099 93.0970 105.3251 103.4899 100.8259 107.7853 110.6281 116.1929 114.9286 115.3035 115.3644 115.4685 115.6291 115.8031 116.0182 116.2606 116.3500
101.0200 100.3965 99.1080 110.5112 105.0096 103.9530 119.9227 121.6493 121.1619 120.4111 121.7417 102.4615 122.3245 119.3082 115.6657 120.1408 118.5022 118.2003 117.8306 117.4903 117.3331 115.1883 105.8120 113.6816 92.1392 94.2537 105.3144 115.3615 116.5968 114.8772 114.5852 114.6877 114.6695 114.7065 114.8251 114.9988 115.2073 115.4545 115.7266 115.7900
104.7100 100.3972 110.9684 98.7202 118.6450 120.5967 121.1268 121.1069 120.8184 120.6115 120.5585 116.8520 120.6315 101.2956 121.5693 117.6954 118.1859 117.8716 117.4959 117.0658 116.9223 103.6274 96.9960 124.3524 116.1440 96.9381 106.4939 114.2222 113.7923 114.0438 114.0214 113.9035 113.8998 113.9907 114.1355 114.3323 114.5795 114.8562 115.1698 115.1500
100.9400 100.3901 101.6848 100.1958 100.0688 102.6458 122.4104 120.0763 120.8235 120.5663 120.0663 119.7505 119.8515 118.6198 118.8825 118.3591 117.9056 117.5533 117.1564 116.7233 116.0194 117.0331 115.8647 114.7593 112.4190 107.1538 112.5959 113.6898 113.6443 113.2628 113.1231 113.0892 113.1182 113.2138 113.3861 113.6230 113.9044 114.2338 114.5865 114.4800
101.6600 101.8360 119.3034 107.0467 112.9583 107.4796 124.4778 107.3465 121.5451 120.0106 118.4887 119.9039 119.0283 118.6170 118.3166 118.1958 117.7069 117.2500 116.8294 116.3340 114.8520 115.4578 113.9438 111.1846 115.0147 111.9873 109.7446 112.8616 111.9610 112.4682 112.3080 112.2206 112.2443 112.3664 112.5734 112.8518 113.1832 113.5678 113.9815 114.4100
103.5500 105.0300 119.9671 108.3204 121.5955 123.9824 121.9355 119.1077 121.8917 122.2910 107.0368 114.8511 118.7884 118.8168 118.2393 117.0060 117.3050 116.9269 116.5032 116.2185 111.2815 95.7618 113.2829 114.1126 113.4221 113.1943 113.0207 111.8662 109.9007 111.5277 111.3380 111.2458 111.2843 111.4323 111.6821 112.0161 112.4168 112.8689 113.3451 113.7500
103.5000 101.5792 108.0419 91.9672 124.5846 113.4151 114.8663 120.0967 111.6839 111.0966 113.5435 98.3799 122.8260 117.7018 117.9090 115.5618 117.1460 116.6407 116.2095 115.4631 114.4259 99.0661 100.4383 108.2722 114.3202 112.3500 111.6451 111.3145 110.9435 110.4496 110.2581 110.1462 110.1915 110.3825 110.7024 111.1129 111.5997 112.1397 112.6946 112.9200
103.5900 100.9908 105.2579 122.2612 121.6143 101.8474 108.1253 111.3362 96.0785 111.9318 104.1043 96.2131 107.8138 117.9009 117.7714 117.7733 117.0698 116.2725 115.8913 115.3038 115.6083 109.8816 98.0170 95.1053 112.1186 111.5041 111.0368 110.3491 109.8035 109.3620 109.0342 108.8885 108.9544 109.2019 109.6087 110.1327 110.7353 111.3668 112.0214 112.8200
102.9800 105.2187 100.2150 96.1637 108.6767 108.4236 124.9061 110.3389 108.2193 112.8978 116.6846 108.7090 105.7751 111.8002 117.5701 117.1104 116.6284 116.7487 115.5882 115.0451 114.2728 114.3382 116.7798 100.8797 104.8980 111.1752 110.0460 109.3169 108.6467 108.0397 107.6111 107.4202 107.5061 107.8455 108.3886 109.0616 109.8011 110.5735 111.3476 111.8100
102.9800 118.7008 100.1059 100.0917 119.4143 115.1878 121.4169 121.8833 122.2391 124.0965 115.1432 120.3989 120.8405 117.2211 117.9352 116.8901 116.5325 116.3665 115.3315 114.7405 114.0909 113.2630 111.6680 110.6318 109.9784 109.7014 109.8094 108.2413 107.3412 106.5399 105.9321 105.6581 105.7760 106.2661 107.0104 107.9001 108.8389 109.7692 110.6710 110.9400
104.0700 115.8986 101.9818 110.7668 120.5119 120.0784 120.9464 120.1850 119.6282 118.8140 119.2836 118.4732 117.8425 118.8825 106.3396 116.2138 115.8147 115.7299 115.1421 114.4890 113.8045 113.0639 112.3087 112.1685 110.9974 109.1926 107.4891 103.5665 106.6662 104.7743 103.8847 103.4338 103.6301 104.3909 105.4672 106.6663 107.8563 108.9760 110.0349 110.7300
110.9900 112.7659 120.9931 121.1855 121.9789 121.2452 120.6272 120.2687 119.9216 119.5839 119.1195 118.7198 117.8592 114.9354 110.1442 116.0960 116.1209 115.6022 114.9662 114.2774 113.5480 112.7608 111.9019 110.8855 109.9017 108.7052 107.3722 104.8705 104.3465 102.7708 101.2466 100.4703 100.8424 102.0895 103.7723 105.3839 106.8919 108.2391 109.4540 109.7800
100.3200 118.1869 117.9951 96.6257 117.1807 117.4111 120.5054 120.2499 119.8373 119.4551 119.0551 118.8594 117.9443 117.6583 116.5350 116.5946 116.0478 115.4627 114.8197 114.1180 113.3589 112.5246 111.6197 110.6038 109.4724 108.2000 106.6880 104.8813 102.8843 100.4063 97.7652 95.7088 96.6532 99.3951 101.9334 104.1618 106.0305 107.6100 108.9701 109.6200
122.3100 121.6718 118.8592 109.3137 126.5916 121.8435 120.5111 120.1605 119.7650 120.2682 119.1495 120.0881 103.1265 125.0418 116.8086 116.5889 116.0310 115.3927 114.7314 114.0201 113.1614 112.3352 111.4230 110.3718 109.1876 107.6400 106.1213 104.1102 101.5295 98.0760 92.4254 88.9080 90.3500 96.2039 100.2648 103.1715 105.3759 107.1510 108.6332 109.5000
100.3100 118.6748 117.8424 116.8990 120.6241 120.7041 120.5517 120.1497 120.2699 119.3178 118.8859 119.7945 103.3078 112.2358 122.1340 116.5426 115.9318 115.3204 114.6877 113.9716 113.3007 112.8308 111.2491 110.2560 109.1958 105.5617 106.0917 103.6465 100.7721 96.5551 88.5248 84.8170 86.3338 93.6415 99.2996 102.6477 105.0531 106.9338 108.4822 109.4400
109.1400 120.7274 122.0263 121.8613 121.3722 120.9347 120.5457 120.3161 114.5136 119.9958 118.9980 119.9522 101.7798 106.5331 116.5154 114.6049 117.0414 115.4785 114.7180 113.9083 111.6833 111.2129 111.2495 110.3007 109.3050 105.9256 106.1023 103.7646 100.9505 96.9193 89.5573 85.4769 87.0434 94.2799 99.5339 102.7719 105.1210 106.9818 108.5126 109.4300
109.1400 118.0112 121.5417 121.0422 121.1849 120.8499 120.4770 121.6592 107.7759 118.4461 119.1264 120.3947 104.3594 104.6565 107.8794 112.7099 106.7647 115.3612 114.8414 114.3826 100.7044 112.4401 111.0352 110.4243 109.3076 108.0796 106.2745 104.3712 101.9638 98.9305 94.7959 91.0471 92.6412 97.3505 100.8335 103.4890 105.5779 107.2919 108.7373 109.4700
101.2000 120.3347 122.1435 125.4903 121.2168 120.8838 120.5997 121.0429 121.1074 118.7098 119.0870 118.9957 121.1213 120.3787 104.9573 115.3969 111.3153 115.5561 115.0208 114.0577 114.4564 113.2943 112.7237 110.4002 109.5703 108.3472 106.9363 105.3025 103.4059 101.2928 99.0927 97.7434 98.4043 100.4209 102.5996 104.5888 106.3319 107.8302 109.1331 109.5600
122.3300 122.1492 122.7400 122.1970 121.3346 120.9561 120.6267 120.1008 119.8632 119.6127 119.1302 118.5832 117.6665 117.1416 118.1292 119.6135 117.1050 114.0037 114.9563 114.2757 113.1056 108.8038 109.4766 110.7984 110.3432 108.9630 107.7400 106.4085 104.9552 103.5008 102.2570 101.6005 101.8868 102.9741 104.3825 105.8465 107.2102 108.4793 109.6685 110.6400
122.5400 122.2596 121.7067 121.6457 121.3298 121.0091 120.6857 120.3451 119.9612 119.6331 119.2317 118.8239 118.5021 118.8440 118.7806 97.2430 119.6021 100.7946 115.6983 114.7475 114.4747 112.0630 99.1862 110.1371 110.8044 109.5710 108.6383 107.5409 106.4551 105.4414 104.6502 104.2731 104.4452 105.1144 105.9474 107.0674 108.4213 109.6038 110.1896 110.7800
122.5500 122.3487 121.9230 121.5810 121.4338 121.1049 120.7598 120.3886 120.0461 119.3802 119.1903 118.9351 118.5715 108.6614 95.8798 92.7938 93.9616 116.2417 115.0450 114.8200 109.2741 98.0781 93.5143 113.5430 110.9812 110.4119 109.5383 108.6549 107.8238 107.1019 106.5549 106.3104 106.4181 106.8549 108.1009 107.4817 107.2119 107.7922 110.8713 111.7000
122.5700 122.2143 121.7916 121.7915 121.4870 121.1337 120.8603 120.4860 120.0457 122.5999 115.1483 119.8190 118.6727 117.3899 116.8681 116.2238 115.5922 116.5849 115.8202 114.3946 115.0738 96.1982 114.2859 112.4997 111.8718 111.1553 110.4235 109.7176 109.0668 108.5182 108.1338 107.9598 108.0361 108.3585 109.3233 103.3304 108.4826 100.5060 113.6568 111.8500
122.6000 122.5216 106.0586 122.8026 120.6843 121.6876 120.8796 120.6739 120.4519 119.1745 112.1973 119.7977 115.1781 118.1329 117.5337 117.2834 116.8407 116.4660 115.9503 115.0214 115.6375 114.0476 113.6048 113.1447 112.5237 111.8914 111.2835 110.7024 110.1884 109.7620 109.4766 109.3471 109.4056 109.6452 110.0367 111.2532 107.6020 96.1955 112.6243 112.7100
101.9000 98.7985 123.2933 120.4240 100.6408 122.0673 120.8226 117.7659 117.5606 120.2780 113.0779 120.2172 116.7059 119.5478 118.2804 117.7696 117.2625 116.6714 117.0007 110.6408 114.9468 114.5549 114.1619 113.6767 113.1453 112.6054 112.0908 111.6134 111.1988 110.8660 110.6441 110.5482 110.5841 110.7607 111.0789 111.2497 113.8282 101.3298 91.2160 113.6200
110.4600 107.2672 109.5204 105.3298 106.0298 121.4884 117.7696 98.6922 109.5935 122.5747 97.6883 117.2714 101.2372 115.5773 118.3778 117.8738 117.4409 117.4168 115.5296 116.4174 116.0625 115.2019 114.7322 114.2500 113.7653 113.2987 112.8615 112.4626 112.1218 111.8539 111.6733 111.5980 111.6277 111.7660 111.9811 112.5227 114.1042 94.7895 108.0558 113.6200
110.4600 113.0473 118.8760 113.6846 112.4278 110.5132 102.9127 105.8843 118.5808 116.0783 99.6902 105.2371 122.3841 119.6304 118.5334 118.1840 117.7110 116.7659 112.1313 116.7469 116.0493 115.6504 115.2206 114.7798 114.3658 113.9632 113.5838 113.2491 112.9661 112.7434 112.5942 112.5317 112.5612 112.6712 112.8596 113.1824 114.2604 111.9037 117.7065 114.3400
122.9000 122.7100 120.7800 105.7700 121.9500 99.8300 101.0800 107.9900 103.3300 98.4300 100.3200 119.7200 119.4500 119.1700 118.6300 118.3400 118.0400 117.4600 117.1000 116.7700 116.4300 116.1400 115.3300 115.3300 114.3200 114.1300 114.1300 113.7000 113.2200 113.3100 113.3800 112.6800 113.4000 113.3500 113.2700 113.7800 114.2100 114.1300 114.5700 114.5700
