121.6100 121.6100 121.3800 121.3900 119.9200 121.4000 121.4000 121.3800 121.3700 121.6000 121.6000 121.2000 121.7500 121.7500 121.9500 121.9000 122.0900 122.2600 122.2100 122.4200 122.5700 122.7100 122.9100 123.0300 123.2200 123.1800 123.5200 123.4900 123.8100 123.9300 124.0800 124.2400 124.3700 124.5000 124.8000 124.8000 125.0400 125.1700 125.3100 125.4500
121.3200 121.2633 121.2126 121.2629 121.0357 121.2904 121.2720 120.9728 121.6082 120.3202 120.6589 123.3110 121.5577 121.1253 121.6635 121.7467 121.9037 121.9460 122.0960 122.2864 122.4003 122.5455 122.6834 122.8602 123.0396 125.9173 124.2906 123.3836 123.6221 123.7931 123.9600 124.1247 124.2866 124.4432 124.6480 124.3967 124.7032 124.8692 125.2684 125.4300
121.0200 120.9419 120.8868 120.8736 120.7762 120.6085 120.6896 121.3968 113.0484 116.7528 121.5339 114.2388 121.4568 121.4830 121.3677 121.5125 121.5815 122.4815 122.0273 122.0075 122.1487 122.3021 122.4528 122.6319 122.6070 122.9572 124.1957 123.4335 123.4463 123.6161 123.7829 123.9543 124.1261 124.2825 124.4651 125.2641 125.4443 125.2326 125.2204 125.2300
120.7100 120.5953 120.5331 120.5054 122.1841 124.6910 120.1394 120.0473 113.6644 107.2469 111.4523 116.8123 109.0967 122.1930 121.0661 120.9964 121.2838 121.6245 121.5920 121.7484 121.8921 122.0542 122.2114 122.3781 122.5829 122.7210 122.9053 123.0134 123.2525 123.4303 123.6037 123.7858 123.9645 124.1598 124.1164 124.5930 114.6185 124.6084 124.9398 125.2000
120.3900 120.2370 120.1937 120.1509 120.0196 119.8761 119.4678 126.8606 114.8214 122.2804 119.6774 120.2741 122.4787 116.4992 120.8559 120.9000 121.0090 121.1176 121.2909 121.4548 121.6309 121.7957 121.9725 122.1519 122.3281 122.5160 122.7038 122.8809 123.0677 123.2448 123.4285 123.6174 123.7887 123.9755 124.1442 124.7273 127.2844 124.3933 130.2390 124.9700
120.0500 119.8679 119.8119 119.7771 119.7882 119.8291 119.4912 120.0090 120.6586 111.7162 121.3458 113.0395 117.4533 108.6975 120.7563 120.6287 120.6890 120.8571 121.0218 121.1860 121.3672 121.5462 121.7292 121.9159 122.1059 122.2958 122.4838 122.6750 122.8681 123.0643 123.2499 123.4435 123.6576 123.8411 124.0249 124.1551 124.3986 124.4582 125.5278 124.7900
119.7000 119.4830 119.4209 119.3703 119.2760 119.2803 119.3558 119.4179 119.6255 113.6625 119.2574 112.1188 122.7131 122.2319 119.6997 120.0805 120.3882 120.5420 120.7241 120.9023 121.0930 121.2827 121.4813 121.6861 121.8706 122.0780 122.2780 122.4720 122.6804 122.8834 123.0776 123.2350 123.5058 123.9394 123.8760 124.0630 124.2308 124.4645 124.6272 124.7400
118.9500 119.0788 119.0218 118.9535 119.3079 119.1663 119.0755 119.0799 119.0592 119.9390 121.0274 120.6536 118.5672 118.9553 119.7006 119.9631 120.0377 120.2265 120.4244 120.6058 120.8231 121.0216 121.2115 121.4372 121.5758 121.8445 122.0660 122.2810 122.4704 122.6991 122.9263 123.0451 122.6996 123.7328 123.5386 123.9379 124.1156 124.3058 124.4804 124.6900
118.5500 118.6640 118.5975 118.5491 117.0290 116.1194 118.7729 116.5355 119.3993 118.1429 119.4794 118.0520 119.7029 119.4080 119.2745 119.5445 119.7396 119.8968 120.2150 120.3304 120.5407 120.7683 121.0047 121.4147 121.6858 121.5770 122.0945 122.0095 122.6171 122.4592 122.6816 123.2368 115.2836 122.3995 123.5135 123.8301 123.9918 124.1932 124.6718 124.5100
118.1300 118.2087 118.1815 118.0392 115.1083 111.0672 120.4690 106.9767 124.3542 117.5888 118.4058 117.7287 114.5973 111.2597 118.8057 119.1432 119.2944 119.5907 119.5597 119.0007 120.3265 120.4206 120.6688 118.5764 116.5158 113.7288 121.3700 118.3718 121.0936 122.3891 122.4523 126.0990 124.0056 124.2998 123.4051 123.6308 123.7752 123.6869 123.2256 124.4600
117.6900 117.7592 117.5905 117.5601 114.8186 111.5673 110.8734 108.9562 116.3715 117.8016 117.5091 124.8540 118.5586 113.1527 118.7553 118.8531 119.0951 119.2299 119.6122 118.0522 119.9227 120.6238 121.1109 119.1592 114.6711 121.5833 122.4476 119.4273 125.3269 122.0102 122.4694 122.5025 122.5317 122.8893 123.3006 123.8418 123.9212 126.0609 113.2330 111.3200
117.2300 117.3421 117.5885 117.0815 114.5641 111.0377 113.3262 116.5208 117.8899 117.1879 117.0744 119.2183 128.6040 122.9018 117.7709 111.6297 118.7218 117.7892 119.1561 117.2655 121.4380 110.8838 118.4181 117.6126 121.2423 121.3990 120.3113 126.4492 126.8125 121.4506 121.9782 122.2419 122.8082 122.9561 123.1298 121.7984 124.3617 116.5498 108.5338 124.1800
116.7400 116.3539 111.7095 116.9262 114.5808 114.3702 119.7514 117.4427 116.4282 116.8270 117.1361 116.5215 117.2342 116.2976 118.0180 116.8248 118.1193 118.1637 118.6926 118.0322 120.2213 116.7436 111.9460 117.6213 110.7041 121.4658 118.8957 120.7309 121.0768 122.0556 123.0325 122.7819 122.5220 122.8330 122.6628 126.3648 114.6934 125.3766 113.2632 124.1800
116.1900 117.1117 106.8817 105.9221 121.5807 104.3737 116.7198 115.7815 116.1067 116.2482 116.3642 116.7275 116.9909 116.8661 117.2131 119.2033 118.0417 118.2305 118.6237 118.8417 119.1302 120.0980 112.5837 122.0503 117.6353 120.7733 120.4928 121.1943 121.3350 121.6153 110.5795 120.0219 122.4187 122.5414 125.2786 124.5078 121.3387 119.2265 111.3333 106.3300
115.6500 121.1406 116.1738 108.6184 117.7479 104.1288 116.1499 115.2945 115.4917 115.6677 115.8827 116.0561 116.3098 116.6698 116.9726 117.1902 117.6345 117.1038 117.9435 118.4670 118.7714 119.6800 116.4585 109.0840 119.5943 120.1269 120.6720 120.9209 120.9633 125.8317 120.5284 121.9460 122.4910 122.5661 124.6241 113.2331 123.4140 108.8269 120.9755 120.0400
115.0600 114.4991 114.2093 117.3047 112.9089 108.1651 115.1165 114.7003 114.8597 115.0584 115.2696 115.5428 115.8213 116.1239 116.4465 116.7929 117.1078 117.4710 117.7992 118.1357 118.5449 118.6080 119.5820 111.6931 120.9006 120.0800 120.4354 120.7201 121.0976 121.8508 121.5556 121.8647 122.1285 122.2969 122.8958 122.4644 123.6679 116.9542 116.5117 117.4400
114.4100 114.3957 114.2164 113.8065 113.8197 114.6971 113.8769 114.0187 114.1827 114.3967 114.6599 114.9510 115.2781 115.6171 115.9760 116.3459 116.7197 117.0958 117.4659 117.8411 118.1885 118.6239 118.9929 120.0841 112.6966 120.5778 120.1736 120.5636 120.9074 121.2121 121.4726 121.7838 122.1112 122.3404 115.1021 122.5385 121.1645 116.8532 124.9174 123.6800
113.7100 113.6101 113.3598 113.2423 113.1329 112.9103 113.1330 113.2531 113.4404 113.7014 114.0007 114.3302 114.7150 115.1107 115.4870 116.0217 116.3232 116.6906 117.1378 117.5435 118.1088 118.7374 118.4120 116.0576 116.2940 119.6931 120.1399 120.4035 120.7169 121.3430 121.5276 119.1347 111.9481 107.9538 110.8350 115.2970 115.0639 123.8134 121.7394 123.6400
112.9400 112.8450 112.5625 112.3447 112.2192 112.2205 112.2588 112.4099 112.6439 112.9407 113.3005 113.7862 114.1353 114.5102 114.9637 115.3579 115.5662 116.5489 116.7669 117.3188 116.5577 113.5733 119.2147 118.9193 119.8755 119.5534 119.8949 120.2530 120.4995 120.7187 125.5344 111.9436 110.6530 117.0104 124.0984 123.5571 125.2215 124.2154 113.9012 123.6100
112.1000 112.0155 111.6717 111.4229 111.2764 111.2219 111.3031 111.4720 111.7598 112.1653 112.5552 112.8426 112.1348 114.2160 114.5258 114.7826 115.0032 117.0263 116.5423 121.0477 114.7900 109.0864 121.8863 117.5424 118.8961 119.3938 119.7406 120.0952 120.4215 120.9062 121.1001 123.6564 115.8920 122.6503 121.6454 121.8839 127.5154 121.8735 124.3718 123.4100
111.1000 111.1051 110.6834 110.3723 110.1212 110.0748 110.1984 110.4494 110.5819 111.1893 111.7325 112.5714 110.7921 113.5064 114.0036 114.7988 115.0695 115.5111 115.8628 115.1131 116.5299 118.3408 118.0280 119.5628 118.7014 119.2421 119.6007 119.9548 120.2774 120.7917 120.5906 121.4268 122.1517 121.6896 123.6557 123.0576 118.3799 124.6686 117.2100 123.3600
111.1000 110.1136 109.6385 109.1760 109.3375 109.5144 108.9398 109.2712 109.5296 110.9304 110.9290 111.6447 112.2469 112.9312 113.5341 114.1271 114.7200 114.4306 116.8730 111.0931 116.1468 116.8276 117.2728 113.1116 118.7347 119.1272 119.4553 119.8317 120.3550 119.8697 125.1171 120.6928 121.2135 122.5985 114.3808 119.5465 119.4910 114.8812 119.7250 123.3400
110.0700 109.1406 108.3109 107.8412 107.4703 107.3835 107.5741 107.9391 108.5534 109.1822 110.0650 110.7969 111.5876 112.3213 113.0514 113.7474 114.3647 114.7522 117.3079 117.3010 116.9935 117.1463 116.9111 117.2309 118.4784 118.9555 119.3342 119.7120 119.8407 126.4779 113.3111 123.2740 122.3024 126.6464 129.5356 115.2576 121.7926 119.2335 118.8004 123.3200
101.6500 108.1726 107.0310 106.2515 105.7458 105.6221 105.8634 106.4627 107.2412 108.6933 108.9955 110.0799 110.9707 111.8126 112.6062 113.3511 114.0142 114.8181 115.2818 115.7600 116.4072 116.9488 117.8362 118.1201 118.4033 118.8177 119.2396 119.5917 119.8493 122.8634 108.6886 112.4376 121.3370 111.2688 113.2994 120.5311 115.5921 128.2156 114.5761 117.4100
112.4800 107.1948 105.3084 104.4074 103.5992 103.3636 103.7748 104.8080 102.5719 105.3197 108.3630 109.3522 110.3707 111.3228 112.1981 113.0086 113.7552 114.4542 115.1237 115.7283 116.2973 116.8576 117.3538 117.8288 118.3022 118.7250 119.1545 119.5392 119.8039 120.6563 120.0995 133.7326 112.0607 110.1502 110.4425 114.3171 122.5048 122.8734 116.7470 123.2800
105.8200 105.0968 103.9013 102.0904 100.8082 100.3775 101.1247 102.4960 104.4616 105.9385 107.3300 108.6755 109.8389 110.8886 111.8407 112.7159 113.5146 114.2481 114.9237 115.5548 116.0960 116.6817 117.1973 117.7551 118.1607 118.6604 119.0923 119.4501 119.8560 120.2885 120.5865 127.0304 118.1347 107.9071 109.5770 117.5280 119.5258 122.6450 122.8598 123.2700
105.4500 104.1916 101.9811 99.4359 96.6415 95.4926 97.4914 100.2354 102.7098 104.8068 106.5965 108.0997 109.4001 110.5489 111.5685 112.4902 113.3166 114.0829 114.7954 115.6702 116.5412 114.8151 116.5193 116.0602 118.0512 118.5822 118.4359 118.5660 119.8648 120.5239 120.1215 125.5637 119.2845 118.7293 115.2411 122.5452 122.8647 122.8927 123.1562 123.2600
105.1800 103.2793 100.3663 96.4237 90.4573 88.7316 91.9865 97.8557 101.3720 103.9887 106.0263 107.6919 109.0965 110.3163 111.3780 112.3362 113.1992 113.9573 114.3417 119.8286 116.6934 101.6215 112.6031 108.6049 118.1254 119.1444 112.6073 116.0542 119.8637 120.5151 119.3833 113.9909 116.9612 117.6192 119.5404 121.1381 121.2523 121.5006 121.7779 123.0700
105.0200 102.7825 99.4730 94.0149 86.4819 84.6116 88.1682 96.2461 100.6074 103.5600 105.7582 107.5047 108.9588 110.2069 111.2956 112.2688 113.1604 113.8766 113.5852 113.5247 116.1084 116.6034 120.7068 111.7266 117.9681 118.7527 119.8691 119.6553 119.7730 125.6282 109.1762 108.8949 103.8016 108.5708 118.6644 115.4636 114.6258 115.1445 116.4131 118.9500
104.9900 102.9083 99.7223 94.7536 87.5498 86.0313 89.1971 96.6696 100.8229 103.6731 105.8267 107.5529 108.9948 110.2316 111.3174 112.2824 113.1560 113.8851 114.5151 114.6592 116.0743 115.8735 123.4110 111.4891 117.7549 118.6582 118.8510 118.7842 119.9430 123.2034 109.2082 110.3271 109.9229 112.8607 117.9705 114.4584 119.1496 116.1796 120.8963 123.2400
105.0900 103.6177 100.9975 97.5511 92.8947 91.1111 94.2128 98.8256 101.8738 104.2897 106.2322 107.8345 109.2051 110.3914 111.4464 112.3834 113.2332 114.0197 114.7208 115.4685 115.9516 115.7934 124.5498 117.4724 119.2888 118.3141 118.7837 118.8250 123.3784 111.9728 107.1263 107.3928 111.8976 120.3516 118.9591 118.3366 123.4570 117.9758 124.5862 123.2500
105.3200 104.6932 102.7511 100.5506 98.4457 97.8621 99.1166 101.2101 103.3623 105.2514 106.8892 108.3163 109.5692 110.6722 111.6701 112.5707 113.3912 114.1457 114.8257 115.4524 116.1950 117.1113 122.3007 130.4708 108.8717 119.2701 119.7640 120.6083 123.8521 116.8110 105.8528 114.0942 108.7436 120.0455 122.2868 122.9067 121.2399 133.2827 124.8204 109.2200
107.1800 105.9410 104.5035 103.0978 101.9835 101.6676 102.2863 103.5077 104.9457 106.3726 107.7094 108.9357 110.0465 111.0603 111.9805 112.8190 113.5891 114.3262 115.0176 115.6451 116.1804 116.0784 117.7763 124.8169 106.3110 105.4808 112.0764 112.1270 111.6868 113.8298 112.0253 119.0082 118.9470 122.3830 121.8472 121.8660 125.7946 138.4815 127.5740 119.8300
108.7000 107.1983 106.1079 105.1806 104.5179 104.3207 104.6792 105.4440 106.4450 107.5277 108.6002 109.6338 110.6096 111.5131 112.3592 113.1351 113.8862 114.5516 115.1406 115.6916 116.4495 119.0846 110.9794 108.7147 114.2624 104.2276 111.3161 118.2990 118.4182 119.8210 111.8784 119.9606 121.4942 121.7953 121.9438 122.2867 122.8537 131.3603 116.9024 123.2700
108.7000 108.4004 107.5888 106.9181 106.4754 106.3499 106.5844 107.1023 107.8253 108.6518 109.5131 110.3798 111.2203 112.0197 112.7873 113.5532 113.5145 114.7937 115.4211 116.0810 116.7571 114.8471 132.5682 100.6411 117.3092 118.4903 118.8776 119.6034 120.0381 120.4800 120.4939 120.9958 121.3352 121.7111 122.0123 122.2602 122.5129 122.8696 123.0367 123.2800
110.9500 109.5044 108.8926 108.3945 108.0845 107.9980 108.1573 108.5263 109.0662 109.7162 110.4120 111.1385 111.8578 112.5638 113.2481 113.8976 114.5556 115.1144 115.1834 116.8701 114.3209 117.6677 117.8302 118.1165 118.7676 118.8466 119.3282 119.7563 120.1385 120.4938 120.8293 121.5745 122.4513 121.7386 122.0649 122.3021 122.2964 127.8923 122.4219 123.3000
110.9500 110.5453 110.0581 109.6777 109.4447 109.3788 109.4990 109.7782 110.1937 110.6981 111.2764 111.8833 112.5012 113.1173 113.7213 114.3142 115.0765 115.2794 119.8384 102.1798 110.7189 117.5265 117.7622 118.1826 118.5452 119.1723 119.5366 119.8972 120.2511 120.7340 120.9286 130.3402 122.3742 122.0422 122.1074 122.4315 121.7310 129.3850 110.5432 123.3200
112.0300 111.4827 111.0971 110.8051 110.6178 110.5703 110.6630 110.8796 111.2057 111.6125 112.0927 112.6049 113.1323 113.6829 114.2181 114.7582 115.1814 112.0193 120.8543 106.7967 104.2118 108.5516 118.3987 118.5498 118.9183 119.2759 119.5745 119.9970 120.4725 119.3986 124.3199 131.2951 108.9490 123.5185 122.0947 122.5436 122.1345 127.2015 115.0098 123.5300
112.8900 112.3584 112.0373 111.8050 111.6582 111.6135 111.6873 111.8648 112.1243 112.4670 112.8448 112.9501 113.7587 114.2195 114.7180 115.1918 115.8574 120.0985 106.4544 110.5765 101.9088 110.8674 118.7856 118.5879 119.0732 119.4478 119.8192 120.1545 120.7048 117.5133 128.5515 115.5459 110.6667 123.6802 122.3573 122.5851 122.6637 126.4234 123.5916 123.5300
112.8900 113.0500 112.4700 112.5800 111.8400 111.8500 112.6000 112.5200 113.0900 112.9500 112.8300 110.4700 114.3000 114.7200 115.1300 115.5200 115.8900 114.2900 107.6900 108.0900 102.5000 117.9100 118.5200 118.8100 119.0900 119.6200 119.8700 120.1200 120.5900 120.8200 133.2200 109.5700 109.1800 122.0900 122.2900 122.6700 122.8500 123.2100 123.3900 123.5600
