110.0700 109.0900 108.3700 108.5500 107.4000 107.4100 107.3500 108.4300 109.2300 109.2300 110.6800 110.6800 111.2500 112.4700 113.0400 113.6100 114.5200 114.9700 101.8600 116.2100 96.4300 99.4600 98.8600 100.6800 108.6500 102.8500 117.4200 108.2200 98.5100 110.2100 110.7600 105.2300 106.1400 106.7500 106.3600 107.5500 108.4100 109.7500 110.7700 111.3600
108.7300 108.5484 107.7661 107.1395 106.7169 106.5998 106.8208 107.3198 108.0012 108.8000 109.6418 110.4802 111.3027 112.1007 112.6486 113.6019 111.8714 120.6709 96.1135 104.1902 95.6587 103.6868 100.2367 106.5193 104.2163 112.0266 114.3816 104.4482 98.1907 104.9337 105.3448 105.0221 107.1923 106.8544 105.6093 106.7748 109.3423 111.5699 106.5599 111.3600
108.7300 107.3515 106.3360 105.4387 104.8224 104.6548 104.9836 105.6945 106.6508 107.6872 108.7265 109.7393 110.6824 111.5730 112.4155 112.7710 116.8994 99.4756 92.1449 97.0363 96.9136 99.4706 95.1826 105.4412 100.0910 119.8765 107.4737 100.6946 99.7753 100.4311 104.3240 104.9391 105.2458 106.8989 111.6362 112.2256 105.1962 104.5173 103.8514 115.6100
107.0700 106.0955 104.7157 103.3993 102.3942 102.0991 102.6556 103.8090 105.1473 106.5311 107.8342 109.0317 110.1173 111.1652 111.5316 112.2027 115.8145 107.1212 106.4393 113.2966 105.2583 98.9881 98.5656 112.0913 113.8890 112.6527 102.9649 102.3673 105.1551 105.1781 101.5107 109.2224 116.9012 106.3589 121.0026 119.9120 105.5144 114.1877 100.1898 101.2800
105.5400 104.8476 102.9577 100.9057 99.1819 98.5430 99.7086 101.5567 103.5870 105.3949 106.9990 108.3798 109.6964 110.6650 113.2368 114.5531 114.7069 114.6891 114.4150 116.2798 97.6961 97.0167 97.9764 95.8040 118.7252 94.3099 97.2105 99.6022 101.4427 100.8237 108.0512 103.5916 120.6296 120.2365 123.7095 113.4097 116.4798 102.3408 101.3623 101.2700
105.2400 103.7333 101.2040 98.1166 93.7961 92.2066 95.1293 99.1325 102.0732 104.4160 106.3346 107.9350 108.6844 111.6615 90.2842 94.8780 100.4691 115.3348 110.1937 110.3155 112.4886 109.5586 99.9728 110.9989 105.2059 110.8639 98.6607 97.7943 97.9565 102.0049 101.1592 111.5369 119.0401 119.6491 107.7707 113.6273 100.3765 99.5797 100.9040 101.0800
105.0500 102.9595 99.8229 94.9787 88.1688 86.1670 89.7484 96.9796 100.9266 103.7352 105.8395 107.5650 109.5875 104.4267 102.4340 89.6702 91.6807 92.1468 93.4134 93.9699 94.3890 95.5086 117.1766 101.8416 104.9835 103.2046 98.4156 97.7115 97.7528 101.4314 101.9885 104.6874 111.5643 111.9652 112.3259 113.1021 114.2084 114.9931 109.5751 101.0700
104.9900 102.7468 99.4230 93.8521 86.0396 83.9385 87.9218 96.2016 100.6210 103.6178 105.2760 107.5343 109.8499 104.3044 101.1870 89.7959 91.0710 91.9285 93.7897 93.6656 95.1768 94.1505 116.3259 102.2899 104.8797 103.2682 98.3477 97.6970 98.3849 101.4839 102.7396 105.0405 111.6396 112.1472 112.5226 112.9764 114.3971 114.4512 110.0428 101.0700
105.0600 103.1582 100.2253 95.9808 89.7968 87.9077 91.2616 97.6498 101.2692 104.0470 101.6372 107.7215 108.7295 110.8945 105.8305 93.8002 92.4567 91.9346 96.3931 93.3765 96.3289 103.0900 103.3957 103.0961 97.6436 109.6430 97.0293 97.2937 106.6891 109.0676 109.9972 110.7031 111.0651 111.4123 112.2649 113.0409 112.8584 101.7132 118.1489 101.2500
105.2600 104.0652 101.7627 99.0708 95.7511 94.5031 96.8722 99.9032 102.5358 104.7025 107.1074 107.3628 112.5524 109.4250 119.4193 105.2746 102.1535 96.9448 99.3596 96.8343 101.1146 103.0923 103.3430 99.4489 112.0602 94.6905 97.0631 98.9162 98.4362 104.2136 108.9578 108.2263 109.6242 108.3598 112.7148 113.2644 114.2883 115.5403 116.3473 108.6100
107.0800 105.2594 103.5465 101.7814 100.3393 99.8391 100.7076 102.3039 104.0898 105.7479 107.2084 105.2277 119.9109 114.2529 119.5094 99.7601 99.8766 99.6391 101.9334 105.0249 105.1593 107.6009 106.9399 99.5640 103.0570 99.0441 103.1815 105.2918 105.6458 109.0843 111.5481 108.4357 109.7145 108.1879 111.5145 112.7468 103.3544 107.1707 113.5523 111.3600
107.1800 106.4947 105.2542 104.0897 103.2404 102.9871 103.4580 104.4302 105.6392 106.9347 108.2199 107.2918 115.0648 107.5600 107.2162 99.2041 98.4131 98.5462 101.3373 103.7324 104.6098 107.9079 108.3018 102.0093 104.5672 104.9111 105.2937 103.0364 106.7571 113.2654 112.7866 112.3635 109.7068 112.3655 116.3580 116.3311 112.1525 108.2840 112.5484 116.0300
108.7400 107.7353 106.7029 106.2332 105.4315 105.3001 105.5959 106.2592 107.0610 107.9093 110.3685 95.0232 101.0390 108.7504 98.5179 100.9338 101.3496 101.5467 102.8724 107.5560 109.3416 106.3988 100.5142 107.7090 109.3403 109.2037 109.8115 108.1102 102.5698 108.3992 109.0250 108.3819 109.1041 110.9346 110.7800 110.7935 117.0081 115.9683 116.8233 120.1700
109.8700 108.8617 108.6693 106.1199 107.4851 107.1357 107.3299 107.7603 108.6775 109.0466 110.2044 99.9369 93.5985 93.5316 92.2368 101.9306 100.1190 102.2281 104.1827 106.4117 108.5215 108.0680 95.5072 101.4886 98.1530 111.2166 111.7205 109.4552 112.7312 112.4634 103.1124 109.8712 113.1118 108.1480 115.3888 110.1811 112.5286 102.4576 105.8848 117.8500
109.8700 109.9786 109.5771 106.1026 109.2320 108.6322 108.8021 109.2047 109.6439 107.2068 110.7683 107.8700 90.0529 91.0590 95.2087 97.0752 102.0625 102.5186 103.8893 104.5761 105.7606 103.1476 104.2056 113.2277 111.4970 110.6973 111.1117 112.5887 99.1517 115.3655 113.3161 113.9375 115.2507 115.2031 116.1173 116.4473 112.1778 112.3971 99.4701 101.3200
111.2000 110.8500 110.6823 110.4430 110.0094 109.9433 110.0436 109.9176 110.9085 111.3061 110.2581 102.5930 106.1860 94.7297 92.2973 94.7923 105.8819 108.0339 108.6526 108.7426 106.0022 105.7583 110.2021 95.1874 104.5804 111.3531 113.8319 113.9747 112.0256 113.9635 114.5499 115.1723 115.7718 117.1088 108.6641 111.5205 114.8258 101.1871 101.7676 101.3400
112.0300 111.9496 111.5183 111.2519 111.1133 111.0622 111.0624 111.8820 107.4004 110.9755 100.8954 113.4427 111.7952 103.1237 96.2713 98.6404 101.7043 104.5279 106.3541 108.7857 107.6299 110.3078 107.5952 102.7710 96.2304 108.1720 108.1838 110.9877 112.6158 114.0040 113.9110 115.2291 115.8553 115.7112 117.0328 104.6280 100.0750 101.5637 101.2400 101.5300
112.8800 112.6028 112.4449 112.2263 112.0952 112.0550 111.8669 113.5731 108.9806 112.9125 95.7840 105.5124 106.9030 94.7948 99.5002 98.8050 98.2755 99.9796 104.5535 106.5853 108.7268 109.6794 112.5704 98.9497 99.3359 105.4201 107.4843 110.0974 111.6795 113.5101 113.7148 114.4299 112.4895 101.6435 99.4775 100.0626 101.0083 109.5477 103.1527 101.5600
113.6200 113.8018 113.2267 113.0844 112.9804 112.9333 112.6705 114.7847 89.8022 104.3060 98.9902 97.0499 115.4882 93.1470 96.9441 100.0828 106.0747 109.6348 103.4709 108.0699 107.7221 110.0228 111.3936 106.8869 109.1629 110.7690 108.8581 110.0674 109.9834 112.4063 113.2667 114.5403 104.7185 111.5438 99.2412 100.5824 101.1544 99.7235 101.8790 101.5800
104.1500 114.1897 114.0192 113.8742 113.7917 113.8548 113.5682 114.4642 92.5271 92.3737 96.8357 99.7206 99.0502 98.8870 95.0570 99.0200 104.4682 109.4668 108.5673 110.5114 108.6188 107.4004 101.5158 98.1139 114.3398 112.3370 110.8967 113.0290 111.7910 113.1250 109.9849 110.3371 98.2184 112.6529 104.7285 103.9581 100.1748 101.8296 102.6971 101.8100
98.4100 114.6761 114.5701 114.5895 114.4855 113.9105 114.8912 114.2872 111.1822 92.5673 95.2196 95.6845 98.6435 113.0997 100.0384 102.5249 111.9305 104.3557 100.2309 100.1169 100.4724 98.8038 97.2338 98.9679 116.4658 115.3321 114.6961 114.7177 114.4676 115.4922 109.7031 109.6381 100.2660 105.3023 109.4477 109.9903 109.8227 101.2718 101.3838 101.8100
115.6200 115.8108 115.2576 115.2936 115.5349 117.9395 115.5674 110.6869 112.9362 107.9931 99.4278 96.5218 102.8656 107.2698 99.1574 101.0103 102.1575 106.4329 104.5752 102.3115 93.5278 97.7688 96.2443 106.7566 106.7047 114.3087 114.5374 115.9341 115.9424 115.8534 95.1831 99.7487 99.6156 100.3189 104.8156 106.2871 108.7499 100.9681 101.7754 101.8600
116.1900 116.0540 116.0725 115.7837 110.6299 95.5989 117.4339 115.4068 113.6838 100.1344 97.1567 100.7241 100.5214 101.1991 105.4301 108.8604 109.6688 106.3569 105.6559 109.2491 101.7773 98.0639 100.6622 100.6034 107.5694 113.4272 114.3442 114.9616 115.3099 117.6851 111.1452 112.6200 111.4547 99.9541 98.1203 99.3604 100.5032 101.5481 101.7828 102.1800
116.7100 116.6741 116.5869 116.3997 115.8008 116.7106 117.9894 116.1583 116.6993 101.8727 98.8046 100.4700 102.2239 102.6649 102.2747 103.0727 107.0650 104.7937 102.8207 103.2826 110.7271 109.9393 100.5573 102.6062 107.7232 110.4775 113.8885 114.0223 117.3933 102.4526 116.2472 121.4623 120.1292 99.9465 117.1626 103.0676 101.9432 102.3573 101.8700 102.3600
117.2100 117.1864 117.1048 116.9326 116.9967 116.9735 116.9545 115.4675 118.6071 109.6041 99.6285 102.7813 102.0104 106.5247 101.2869 107.0766 106.0527 107.8992 102.7558 105.1738 101.7962 113.5647 113.0811 103.3035 118.4072 116.4113 119.9958 115.1503 116.5978 116.8885 105.7122 100.1621 104.8661 110.4664 117.1490 100.5026 103.6452 103.2841 102.8539 102.2200
117.6700 117.6791 117.6012 117.5967 117.5505 117.5331 117.8387 114.3090 110.8132 103.7197 108.2225 106.3193 104.4995 104.4989 104.7313 102.5091 106.9807 106.0826 107.8558 108.5847 108.7644 110.4017 113.2266 108.5461 112.6575 119.2081 119.6840 120.8193 116.6625 117.0965 101.2434 100.6159 100.4316 101.1367 99.2091 101.6411 103.5698 102.1598 103.8862 104.2800
118.1200 118.1502 118.0534 117.9689 117.9381 117.9662 118.1227 118.1896 108.6289 124.9838 106.1312 108.6812 106.1668 102.9873 98.8661 106.8356 106.6746 106.7822 109.2755 109.4253 109.7324 98.1943 109.7722 113.1586 115.4512 119.5726 120.2613 118.9732 121.2577 121.3881 108.2242 101.7021 101.0857 98.3021 101.5157 101.6774 99.6398 104.8356 107.3781 104.9700
118.5400 118.5836 118.5688 118.4933 118.4401 118.4268 118.0398 117.3012 118.2027 119.4265 111.2276 106.8667 106.4096 107.9917 104.9199 106.8836 111.2193 110.1415 101.9419 98.9415 105.6778 97.4929 106.9195 114.6483 114.1921 117.4737 112.6045 106.9511 121.5450 124.7177 98.1741 103.3414 98.7362 126.7113 101.1386 101.8422 99.3513 104.1907 121.6549 124.3300
118.9400 119.2503 118.8053 118.8834 118.8607 118.8694 119.2780 124.3694 119.3601 116.3730 108.6363 107.5854 111.3340 108.6946 106.0929 104.0525 113.7846 112.1828 110.4427 105.1486 99.3848 98.2717 102.3331 104.9153 113.9100 116.0385 108.9451 123.4548 112.9356 118.2973 134.3351 102.1067 101.0311 99.6896 100.6761 103.1190 117.4922 106.3760 102.9117 102.6000
119.3200 116.8702 119.9877 119.3408 119.2842 119.2970 120.2044 104.7685 107.4503 106.9723 115.4868 109.0885 117.5139 108.6585 114.2168 109.0119 113.4571 114.9347 105.9732 115.4955 113.7647 100.7797 103.9451 103.9491 116.1014 116.0613 118.7786 121.6348 123.5501 106.6290 112.3118 100.7850 101.8540 111.0835 104.3744 102.2920 102.1356 114.4614 109.1508 104.7700
98.7100 105.8878 121.2318 119.6477 119.6334 119.6883 119.2669 120.2898 99.8246 105.3917 117.3174 107.1391 114.7197 110.1411 114.1100 109.1279 117.2377 104.3656 109.3959 114.1427 110.8310 108.7788 102.7632 103.7970 107.7074 114.1464 108.4574 102.6685 102.8714 99.6659 99.1750 101.4685 102.6241 104.3246 100.6512 103.2537 105.5759 104.5312 105.1369 105.1000
120.3700 114.8328 119.8694 120.1700 120.1858 120.2826 120.3025 118.8437 100.9295 100.4523 112.9376 109.7705 111.2648 119.7415 116.8275 112.7193 116.1770 117.3030 116.9098 100.3035 113.1966 107.3246 100.7354 108.4683 106.6489 107.3884 106.5518 116.3929 98.4711 105.6325 101.6137 101.5753 100.1692 111.3197 117.6550 124.7783 100.7960 103.3438 104.1284 106.3500
120.7000 106.1907 122.3399 120.3548 120.0576 119.5172 121.5819 107.7604 105.5192 96.4241 111.3023 102.5288 105.3421 116.4045 113.8257 115.5564 116.1879 117.3946 101.6973 103.2389 103.7057 106.3378 111.7922 105.1642 99.5649 106.8479 110.4134 112.0986 100.9748 101.1512 101.7111 101.7295 102.0201 115.9744 128.4738 129.8935 128.0241 102.0678 105.8141 106.1100
121.0100 122.3616 120.0268 119.6708 124.1984 124.1801 115.6592 101.3609 103.8614 97.6703 90.6267 107.2060 97.7083 110.0011 112.1547 103.8942 103.6181 113.5209 113.5673 100.1277 108.6294 100.2640 106.0857 99.8045 102.8629 106.9909 110.3437 102.6962 101.1836 101.6328 101.7573 101.8523 102.3854 100.4448 104.4575 129.3560 102.8841 112.6079 104.1536 106.6700
121.3100 122.5786 115.4175 108.5751 114.1151 110.1729 102.9831 102.5459 104.2303 103.6542 112.0633 98.2501 112.7592 116.9547 117.6871 111.2185 106.1887 107.3717 113.7587 107.3036 100.5911 102.0137 104.2844 100.2498 103.4122 106.0319 109.9724 106.0216 102.3618 101.4361 101.9321 102.1477 102.3684 101.6681 105.2514 103.4757 103.0329 103.4924 102.5860 103.3200
121.6000 108.8210 115.8591 119.1175 114.4765 102.1482 118.2325 103.5186 105.5910 105.8789 101.1918 104.5577 114.7357 114.1466 118.6964 116.6751 119.2998 121.7587 121.7698 114.7533 98.0510 102.3345 100.3287 101.0756 103.6947 109.3983 109.9921 110.0741 111.2039 108.8989 101.5245 102.6129 103.4012 103.3477 104.2701 114.6216 103.7216 104.0500 103.2096 103.5100
107.9900 123.2687 100.3459 105.0378 117.6160 109.1594 105.5051 103.8428 107.1915 105.1638 120.4839 97.7281 108.1974 108.7180 120.4266 115.2683 114.9198 122.2157 103.4884 107.2443 105.4832 104.8208 101.5578 101.1483 100.5559 105.5342 110.0739 110.0482 110.4238 112.3021 104.3226 111.2174 103.5495 102.8922 106.6530 106.5663 104.5810 110.9119 102.2617 103.5600
100.1600 111.4094 105.1055 102.2937 113.8718 113.2301 105.8488 116.1912 110.4894 108.6796 121.5565 108.7742 108.3547 103.3536 109.4677 106.3035 114.0766 120.7876 111.5381 109.7178 100.8626 105.6184 104.7630 104.6260 101.4220 112.6518 111.5630 111.6031 111.8195 111.4249 105.4983 110.1576 104.1806 109.8202 127.7082 106.9142 109.7568 105.7740 114.0151 130.5200
100.4200 100.6061 106.2716 102.3704 108.2232 109.4613 106.6447 121.1394 112.1748 109.2116 119.7725 116.3801 110.0912 108.0925 110.2291 116.6298 108.8868 113.3436 116.4871 101.4025 101.8120 102.7109 104.9537 105.4730 104.8452 104.9488 108.0682 112.5161 111.6801 115.6501 102.9715 102.7652 104.2307 118.1272 123.5704 127.8763 128.4848 103.8635 131.9753 130.0100
100.6800 100.7000 106.1400 106.1600 108.9400 110.5500 106.6500 122.4800 112.7300 111.8000 108.9500 109.4300 104.4300 102.6900 110.2600 116.4400 101.1000 101.7500 105.0900 101.4000 115.2600 124.8800 124.8800 105.6000 106.7200 114.4100 103.2400 112.7500 112.6800 112.5200 102.7100 102.8400 104.8900 106.1400 122.5500 124.1300 124.4000 127.5900 129.2800 130.0100
