119.5600 119.6200 119.3400 119.3800 117.1400 119.4300 119.0900 119.0900 119.0900 119.4300 119.4000 116.1200 119.6200 119.6200 119.8200 119.8200 120.0500 120.2600 120.2100 120.4600 120.6300 120.8900 121.0500 121.2900 121.4300 121.6500 121.8000 122.0000 122.2100 122.3500 122.7100 122.9000 123.0300 123.2000 123.5300 123.7000 123.8300 123.9900 124.1400 124.2800
119.5600 119.3257 119.2003 119.2230 118.9631 119.0154 118.8411 118.8536 119.3405 118.4966 118.6173 119.8240 119.4647 119.1902 119.4964 119.6166 119.7887 120.1462 120.1747 120.2209 120.4786 120.6703 120.8701 121.0767 121.2611 120.0691 119.6744 116.9311 122.1904 122.3172 122.5319 122.7422 122.9424 123.1475 123.3530 123.5584 123.7043 123.7980 124.1521 124.2300
119.2000 118.9187 118.8102 118.7079 118.6565 118.5902 119.0524 118.9832 111.9172 115.7155 117.8966 112.7599 118.0073 119.1266 119.0827 119.3011 119.3940 117.7947 119.4037 119.9670 120.1731 120.3811 120.5828 120.8417 120.7582 123.5367 127.4242 122.3429 122.3400 122.1013 122.3362 122.5582 122.7698 122.9791 123.1919 123.3957 123.4779 124.6294 124.5080 124.2300
118.8000 118.4973 118.3793 118.2826 118.2148 118.1626 116.0733 114.9962 109.7110 115.7383 117.4241 111.1663 115.7035 119.2789 118.8352 118.6791 119.1102 118.6841 119.2917 119.6065 119.8562 120.0755 120.3082 120.5233 120.7289 121.0913 121.8659 121.2524 121.6783 121.9232 122.1410 122.3763 122.5977 122.8220 123.0337 123.2343 124.1772 114.8668 124.5058 124.0000
117.9500 118.0688 117.9288 117.8153 117.7426 117.5768 117.2958 114.2942 115.0787 118.3117 116.3832 116.3328 119.2121 112.8545 118.1090 118.5038 118.6310 118.9767 119.1104 119.3171 119.5385 119.7796 120.0176 120.2619 120.5437 120.7069 120.9906 121.2834 121.5101 121.7228 121.9611 122.1961 122.4266 122.6591 122.8774 123.1322 123.3930 119.9921 124.3741 123.9400
117.4900 117.6016 117.4550 117.3276 117.2387 117.2004 117.1021 117.5674 120.6450 114.4617 116.8585 111.8162 114.7744 107.3410 118.5354 118.1094 118.2699 118.4857 118.7161 118.9659 119.2152 119.4708 119.7280 119.9852 120.2455 120.5040 120.7674 121.0132 121.2710 121.5224 121.7738 122.0259 122.2599 122.4998 122.7343 122.9853 123.1915 123.5898 123.7187 123.7300
117.4900 117.1286 116.9575 116.8126 116.7269 116.5593 116.1205 117.2378 108.4475 117.9524 104.1338 109.0658 118.7288 121.2842 117.0061 117.4640 117.8536 118.0967 118.3566 118.6190 118.8832 119.1580 119.4325 119.7077 119.9883 120.2651 120.5300 120.8023 121.0676 121.3337 121.5946 121.8501 122.1000 122.3485 122.5863 122.8259 123.0653 123.2892 123.5165 123.6900
117.0100 116.6205 116.4287 116.2684 116.1842 115.9271 116.0600 117.7236 104.7322 117.4737 121.2591 118.8985 114.9212 117.2367 117.0467 117.1870 117.4507 117.6809 117.9798 118.2591 118.5546 118.8423 119.1367 119.4357 119.7251 120.0207 120.3120 120.6009 120.8570 121.1298 121.4176 121.6858 121.9378 122.2031 122.4531 122.6931 122.9397 123.1714 123.3935 123.4800
116.4900 116.0920 115.8613 115.7083 115.6651 115.3086 110.9529 100.6262 116.8283 115.1860 114.6359 115.8531 116.3212 116.2029 116.4413 117.1597 116.5290 117.2908 117.5905 117.9064 118.2090 118.5562 118.8587 119.1600 119.4818 119.7867 120.0834 120.4192 120.6468 120.9455 121.2769 121.5080 121.7866 122.0503 122.3087 122.5674 122.8144 123.0740 123.3796 123.7900
115.9000 115.5264 115.3146 115.0331 114.7871 114.6105 111.6109 104.2973 104.6882 115.7503 115.1589 114.9110 115.1655 115.8528 115.8345 115.8997 116.4536 116.9292 117.1940 117.5651 117.8514 118.2252 118.3838 118.8290 119.1309 119.5546 119.8294 119.9767 117.0122 121.6335 120.9768 121.3443 121.6446 121.9092 122.1804 122.4401 122.6813 122.8005 123.0657 123.4000
115.3400 114.9544 114.5171 114.6474 115.1344 114.0249 112.6033 107.4946 113.7178 114.1036 114.2276 116.4306 114.6685 111.7539 115.3353 115.9923 116.0983 116.6123 117.1399 117.1132 117.4799 118.4508 118.7079 118.5276 119.9092 119.2308 119.6254 121.7851 110.5782 121.7242 120.7285 121.2306 121.4979 121.7792 122.0580 122.3189 122.6213 123.7910 124.2931 123.3600
114.7000 114.2670 114.7252 112.3416 109.8827 104.7528 113.8102 113.7787 113.1562 113.3949 113.4581 114.2876 115.7376 114.5047 114.8912 113.5959 115.5073 115.6695 114.3867 116.7562 118.6331 112.6903 111.4582 114.4124 117.8142 118.9732 119.5763 121.8633 115.9173 119.7682 120.5032 121.0688 121.3653 121.6546 121.9233 122.2437 122.4343 117.5618 117.9349 123.1100
113.9900 113.6414 112.4275 106.7806 119.4954 117.5648 112.8393 112.1792 112.4066 112.5482 112.8601 112.9574 111.0451 113.8281 114.1620 114.0705 115.2819 115.4749 115.6960 116.4690 117.3153 114.2600 113.3983 115.3040 117.9668 118.7291 119.2324 117.7493 119.6747 120.3922 120.6549 120.9202 121.2366 121.5344 121.8006 122.1058 123.9953 122.1931 113.4477 118.2700
113.1800 113.2003 99.0102 115.4366 112.9299 108.4392 111.0850 111.3567 111.4484 111.6418 111.8782 112.3497 112.8230 113.2043 113.6532 113.5281 114.5846 115.1713 115.5516 116.0145 116.6893 114.4662 118.3087 117.8136 118.5885 118.6750 119.0086 119.3266 119.8037 120.1526 120.1896 120.8121 121.1222 121.3954 121.8004 122.8962 111.1335 130.5772 113.4691 127.6600
112.3600 108.3812 110.7761 114.5644 109.8942 111.0400 110.7372 110.2911 110.3893 110.6236 110.9815 111.4017 111.9092 112.4470 113.0115 113.4477 114.0954 114.6500 115.2056 115.7153 116.3324 115.8189 117.1262 117.4545 117.9403 118.4693 118.9077 119.2855 119.4409 123.3281 120.2246 120.7919 120.9825 121.3640 120.9917 125.4640 116.3513 111.5826 110.1479 109.3800
112.3600 112.1920 112.0006 107.2919 109.7306 109.2847 109.0289 109.0385 109.1892 109.5021 109.9435 110.4783 111.0854 111.7211 112.3652 113.0019 113.6346 114.2380 114.8250 115.3905 115.9262 116.4387 117.0012 122.0416 117.3799 118.2663 118.7027 119.1042 119.4860 120.2270 120.1911 120.5675 120.9608 121.2892 121.0334 125.1247 122.8129 113.9634 122.7340 122.8100
111.3100 110.7344 109.8383 109.2425 108.5842 108.0307 107.7152 107.6273 107.8072 108.2130 108.7970 109.4838 110.2195 110.9757 111.7279 112.4522 113.1528 113.8251 114.4638 115.0725 115.6423 116.1871 116.7142 116.6640 122.8097 117.5839 118.5749 118.9776 119.3937 119.7705 120.1423 120.5012 120.9109 121.4083 121.0975 121.6143 122.1825 122.4499 122.1712 122.7900
110.3800 110.3335 108.5102 108.1013 107.0829 106.4875 106.0091 105.8936 106.1597 106.7388 107.5217 108.4094 109.3287 110.2244 111.1016 111.9222 112.7042 113.4406 114.1325 114.7708 115.3927 115.9676 116.4982 116.8159 117.3200 118.0434 118.4289 118.8538 119.2608 119.6432 119.9706 120.1578 120.2152 121.2714 107.9655 125.1627 120.4537 121.6795 114.2725 115.8300
106.4500 110.7962 106.1766 107.0476 105.6634 104.6335 103.9281 103.7473 104.1582 105.0277 106.1290 107.2870 108.4225 109.4992 110.4993 111.4342 112.2929 113.0867 113.8083 114.6230 115.1537 115.7868 116.4281 117.3440 117.3374 117.8578 118.3197 118.7554 119.2203 119.5855 120.1706 125.1782 110.2863 108.6730 113.2947 112.6767 117.5887 116.4256 116.8137 115.7000
109.0700 108.6195 107.1152 105.4632 103.9815 102.4105 101.2189 100.8928 101.6204 103.0277 104.6101 106.1422 107.5481 108.8251 109.9608 110.9969 111.9439 112.8089 113.0862 114.3539 114.9929 115.5464 115.3247 115.8519 117.1979 117.7811 118.2292 118.6693 119.0834 119.5230 121.9561 132.7110 119.5847 121.2881 121.6995 116.3773 126.9680 123.2468 123.3036 122.7300
108.6800 107.6477 106.1143 104.2909 102.1547 99.7727 97.3388 96.4970 98.2618 100.7167 103.0567 105.0729 106.7806 108.2485 109.5240 110.6439 111.6538 112.7073 110.8749 113.9400 114.9623 115.5576 110.5683 116.5808 117.0507 117.6861 118.1609 118.6094 119.0466 119.5089 119.2612 118.9586 120.7290 120.4650 120.9852 121.6991 116.5723 122.9003 121.8181 122.7200
108.5600 107.1960 105.4395 103.2773 100.4457 96.6321 91.1855 89.5452 93.1312 98.4157 101.6917 104.1984 106.1869 107.8186 109.1976 110.3965 111.4928 112.2106 119.1885 114.9440 114.8746 115.3118 116.5263 116.5417 117.1408 117.6396 118.1161 118.5639 118.9794 119.3563 120.0728 120.5222 120.4439 121.5201 128.3176 117.8382 108.6125 124.3678 122.5549 122.7000
108.5600 106.9168 105.0430 102.6753 99.3579 93.7856 86.3575 84.6621 88.7594 96.6430 100.8474 103.7135 105.8669 107.5961 109.0331 110.2607 111.3944 112.5226 116.8203 114.0026 114.7291 115.3015 115.8791 116.5588 117.0941 117.6122 118.0964 118.4920 119.0389 125.0639 119.6373 120.2672 120.5326 114.9355 114.7940 113.4828 113.1251 115.3926 121.0635 122.6900
107.5100 106.9887 105.1159 102.7033 99.4101 94.0227 86.9688 85.2967 89.0759 96.7872 100.8941 103.7395 105.8859 107.6025 109.0464 110.2768 111.3605 112.2389 112.7172 113.8451 114.6774 115.3687 116.0009 116.5715 117.1004 117.6145 118.1028 118.4757 118.7845 127.0125 121.0878 120.4373 120.2020 123.1573 129.1807 103.5053 108.5899 112.6396 121.8063 122.6900
108.6000 107.1249 105.3946 103.3562 100.6225 96.5901 91.7339 90.3715 93.7616 98.6717 101.8259 104.2812 106.2379 107.8549 109.2299 110.4159 111.4750 112.4150 113.3019 114.0581 114.7480 115.4050 116.0165 116.5906 117.1325 117.6451 118.1176 118.5562 118.9617 120.7780 109.1014 121.5155 120.9942 116.3419 122.0940 120.5065 120.8464 121.7672 123.0353 122.7000
108.7400 113.0836 105.5401 104.5111 102.3613 100.2146 97.8656 97.0877 98.7326 100.9516 103.2372 105.1774 106.8615 108.3051 109.5642 110.6838 111.6758 112.5779 113.4018 114.1575 114.8487 115.4950 116.0981 116.6585 117.1912 117.6910 118.1680 118.6201 119.0448 119.4185 120.0056 132.8069 109.0250 114.6033 109.5871 110.1084 123.2692 114.6398 114.1569 116.4400
108.9400 108.4752 107.1141 105.6657 104.1174 102.6914 101.5141 101.2161 101.9085 103.2646 104.7835 106.2743 107.6450 108.8954 110.0211 111.0408 111.9680 112.8211 113.6080 114.2564 115.0178 115.6394 116.2101 116.7651 117.2806 117.7755 118.2368 118.6857 119.1306 119.5481 120.1520 122.2608 112.5497 109.2166 109.5440 111.7437 124.0936 114.8355 115.4089 122.7100
109.9800 109.1669 108.1315 106.9475 105.8455 104.8481 104.1614 103.9815 104.3897 105.2271 106.2853 107.4176 108.5189 109.5802 110.5637 111.4846 112.3367 113.1206 113.7335 115.5674 115.0556 115.6727 116.3904 116.9027 117.3977 117.8753 118.3188 118.7541 119.1136 119.2757 122.2653 110.8574 122.9982 109.1622 112.4492 123.3306 122.0254 122.2884 123.1936 122.7200
110.2200 109.9408 109.0638 108.1855 107.3424 106.6477 106.1960 106.0854 106.3433 106.9031 107.6645 108.5289 109.4200 110.3093 111.1642 111.9857 112.7618 113.4682 114.2795 118.0429 115.7265 117.1968 116.4115 116.9424 117.5495 117.9901 118.4711 118.9417 119.2499 122.5442 115.4691 119.9661 122.2087 106.9012 124.7621 121.8703 121.9245 122.9419 122.5584 122.7300
111.2700 110.7586 110.0245 109.3308 108.6829 108.1669 107.8466 107.7718 107.9487 108.3629 108.9304 109.6167 110.3087 111.0661 111.7969 112.5186 113.2065 113.8195 115.2348 114.5175 116.7713 108.9909 117.7194 118.0142 117.6782 118.2305 118.5521 118.1835 119.3978 119.8945 113.1156 111.8004 122.2211 109.6733 118.9251 118.0171 123.6706 118.8832 121.3377 122.7500
112.2700 111.5446 110.9332 110.3625 109.8665 109.4825 109.2466 109.1948 109.3167 109.6381 110.2821 108.1198 110.8945 111.7878 112.4377 113.0677 113.6846 114.3007 114.8174 115.1832 115.6213 107.8772 116.6135 113.6814 118.0172 117.9189 118.4137 122.6315 119.0541 114.7506 111.4134 110.8169 111.1008 108.9765 111.0815 118.4514 116.7296 113.4220 120.8467 122.9700
113.0400 112.3066 111.8016 111.3325 110.9362 110.6307 110.4500 110.4058 110.5029 110.7461 111.2312 109.5481 112.4183 112.4989 113.0700 113.6237 114.1857 114.6683 115.1791 115.7729 116.4409 117.0835 107.6747 111.9286 108.5574 120.4548 118.7224 121.9423 112.3481 103.4851 109.2704 108.1111 113.1340 117.6371 117.8489 124.8732 118.7304 127.2328 114.7541 115.3900
113.1200 113.0303 112.6007 112.2121 111.8914 111.6532 111.5033 111.4738 111.5514 111.7533 111.9962 112.5486 112.7565 113.2202 113.6943 114.1800 114.6576 115.3034 115.7908 116.0340 116.4022 118.4509 125.3284 117.9257 99.9102 106.9435 120.6756 118.4310 121.8538 119.1227 109.8439 108.0256 120.4330 122.0766 121.6493 122.2100 124.7580 131.0910 130.9297 108.0500
113.9100 113.7262 113.3540 113.0356 112.7646 112.5645 112.4536 112.4279 112.4867 112.6335 112.8703 113.1325 113.4933 113.8873 114.2885 114.7234 115.1542 115.2248 112.9173 117.4866 117.1475 117.5029 126.4725 117.6851 110.0821 105.6247 117.3728 119.9961 121.2390 119.6729 119.6050 119.3916 121.6670 121.4549 121.8580 122.1484 121.8737 128.4633 121.8164 118.8700
114.6200 114.3815 114.0651 113.7862 113.5620 113.3973 113.3035 113.2776 113.3317 113.4550 113.6401 113.8988 114.1817 114.5150 114.8744 115.2615 115.6434 116.0152 116.4063 116.9123 117.7010 112.5204 112.5226 110.1126 111.0999 109.2586 108.1401 117.0156 117.6533 120.9524 120.6146 121.1357 121.3216 121.6848 121.9520 122.1482 122.8160 124.8084 121.5930 110.7100
115.2300 115.0002 114.7306 114.4894 114.2986 114.1624 114.0804 114.0606 114.1044 114.2112 114.3687 114.5764 114.8299 115.1148 115.4312 115.7680 116.1289 116.4645 116.8006 117.6297 111.1117 117.7646 106.4343 104.0080 117.8066 119.5030 119.7805 120.4266 120.7049 120.4254 120.9848 120.5023 121.5666 121.6826 122.0642 122.3492 122.5656 122.4761 123.5037 123.2900
115.8700 115.5868 115.3492 115.1385 114.9843 114.8606 114.7946 114.7714 114.8168 114.9013 115.0431 115.2225 115.4432 115.6907 115.9735 116.2535 116.5816 117.0147 117.4245 115.4423 114.0250 114.5771 120.4099 119.9208 119.6532 119.3216 119.7159 120.2026 120.4582 120.7282 120.4368 113.2251 119.9593 121.7633 122.2421 122.4584 122.7699 123.8175 123.1491 123.3300
116.4400 116.1450 115.9335 115.7518 115.6101 115.5122 115.4511 115.4331 115.4727 115.5449 115.6686 115.8239 116.0155 116.2328 116.4909 116.7355 117.0529 117.4216 116.1060 112.7660 108.3205 119.3429 118.7614 118.9994 119.4192 119.9003 120.0917 120.4050 120.7390 120.5711 120.2935 131.4114 112.7894 122.6412 122.3124 122.6032 122.3348 126.6021 122.8593 123.5700
116.9600 116.6689 116.4884 116.3252 116.2063 116.1106 116.0609 116.0467 116.0792 116.1370 116.2525 116.3820 116.5566 116.7525 116.9639 117.2319 117.5633 115.6744 110.7220 114.8919 119.2266 118.7408 119.2148 119.5607 119.7795 120.0397 120.3339 120.6100 120.9686 121.0594 126.5351 122.6869 112.4682 122.3351 122.3731 122.6313 122.6737 121.5638 123.4562 123.5700
116.9600 117.0600 116.7200 116.7900 116.3900 116.4200 116.4500 116.4600 116.4500 116.3900 116.7900 116.7900 117.0600 117.0600 117.3500 117.7400 117.7400 109.4200 111.1900 115.6100 118.6600 118.9200 119.4100 119.6600 119.8900 120.1100 120.3500 120.7900 121.0100 121.2200 126.2800 110.2800 108.0700 122.2100 122.5800 122.7600 123.1100 123.2800 123.4400 123.6100
