109.5000 108.6000 107.5900 105.1600 103.6300 99.4400 96.2300 91.4700 91.8700 91.3300 99.4400 101.7800 103.6300 106.4600 107.5900 109.5000 110.3200 111.7500 112.3900 91.0500 99.9900 114.0400 103.1700 102.4100 98.6500 104.5700 117.5500 102.7900 99.8800 100.1900 101.5900 104.2100 105.9200 107.2900 107.4000 107.4500 107.9600 109.4200 109.5700 110.3900
109.5000 108.5216 106.9951 105.1715 102.8500 99.7552 94.8385 88.5101 87.3095 90.7819 97.4792 101.2822 103.9939 106.0492 107.7332 109.3941 107.1854 112.1634 101.3887 95.9785 96.1212 106.6745 101.4840 102.6943 100.3027 107.5769 113.6978 104.8882 98.9526 99.6544 105.2111 103.9146 105.5503 110.0177 110.1759 110.2485 111.0804 112.1661 113.0708 110.3900
109.4300 108.4233 106.8600 104.9591 102.5285 99.1077 93.1243 85.6986 84.1911 88.4159 96.6054 100.8349 103.7204 105.8579 107.5363 109.5238 103.1784 114.7257 94.0696 102.9840 91.7116 95.9148 100.2347 101.1276 102.9168 109.3790 106.4985 108.4912 97.5430 100.5446 107.7137 103.5543 107.5761 112.7562 112.7516 113.1524 114.3491 116.8918 114.1464 100.3100
109.4800 108.5294 107.0176 105.1822 102.8937 99.8228 95.1098 88.7982 87.2954 91.1770 97.6311 101.3372 104.0158 106.1247 107.8098 109.1387 107.4726 113.2247 89.0793 95.3109 91.5121 95.8242 95.1127 106.0185 100.5624 113.1452 106.9099 103.5437 98.1004 99.4093 104.6562 103.7613 110.4780 113.1301 112.2449 113.6664 115.3488 103.1014 110.3052 100.3100
109.5800 108.8203 107.4123 105.7573 103.7798 101.3485 98.4497 94.7321 93.6696 96.4755 99.8176 102.5255 104.7306 106.4350 107.9317 109.3299 110.6198 112.6239 101.6169 107.6555 94.4613 95.3449 99.5836 110.7624 113.6066 112.2039 103.1851 100.9801 100.2818 99.8339 102.3894 106.4092 109.9513 107.2645 107.1671 107.8537 108.6259 114.4170 99.9474 100.3100
109.7200 109.2681 108.0093 106.5813 104.9812 103.1810 101.3229 99.8692 99.3756 100.4080 102.1655 104.0094 105.7367 107.8409 109.3338 110.0821 110.2903 111.9257 99.7869 122.1361 90.7797 99.3535 93.5770 101.1531 99.4690 103.4429 102.8840 100.8133 102.8451 102.3301 103.0626 106.0522 105.0207 105.6561 106.3962 107.7316 113.2472 101.3065 100.3635 100.3200
110.6600 109.8322 108.7310 107.5347 106.2636 104.9680 103.7405 102.8705 102.6544 103.2041 104.2684 105.6322 106.6106 108.1290 107.6474 107.1409 111.3684 112.3788 110.1560 119.5465 99.8077 99.4605 97.8376 98.0216 101.3757 100.2759 98.6590 101.9059 104.1694 107.4054 104.3193 111.3960 108.7520 109.0085 110.9819 108.4788 103.2605 100.0903 100.2044 100.3300
110.8600 110.4588 109.5181 108.5342 107.5266 106.5653 105.7375 105.1914 105.0634 105.3973 106.0824 106.9834 109.4132 111.0074 111.9528 92.7899 100.9932 111.7446 112.5813 90.4223 93.3239 95.7845 100.7703 103.0182 106.3220 105.9137 97.7102 103.4857 107.2898 104.6574 105.2117 111.0825 109.9800 111.6550 111.0095 111.5155 114.6752 100.4781 101.5772 100.7100
111.7300 111.1306 110.3224 109.5013 108.7254 107.9919 107.3968 107.0277 106.9382 107.1664 107.6699 108.2824 109.0974 110.0572 108.7736 89.0927 92.9398 94.4615 103.3993 116.9365 117.4280 107.1586 100.2838 99.7067 104.0593 111.6452 100.5706 108.8253 110.0774 107.8421 106.1865 111.5201 111.4898 111.5952 111.4792 111.8486 111.3180 114.4081 112.4366 113.9200
111.9500 111.8141 111.1283 110.4560 109.8180 109.2571 108.8183 108.5518 108.4868 108.6464 109.0018 109.4231 110.0903 111.3695 105.4379 89.0668 98.0567 107.6540 115.1837 113.9942 114.8617 117.1689 117.9237 113.6446 106.3644 102.3899 96.7713 99.3551 110.4125 110.4793 111.6049 111.7976 109.5097 110.3529 112.8004 116.0516 115.0624 115.9149 103.0902 115.4800
112.7600 112.4988 111.9028 111.3468 110.8290 110.3862 110.0442 109.8389 109.7830 109.9591 110.3667 110.5850 108.6624 106.5533 109.1632 104.9971 113.9038 114.2893 113.8439 114.8455 116.0534 109.1898 105.7869 106.6925 124.0200 98.6375 101.6739 100.2935 108.3315 109.3387 109.2219 111.8280 112.4066 112.8890 113.5913 115.0810 111.6190 115.3476 118.3938 117.3500
113.6000 113.1475 112.6725 112.1817 111.7643 111.3957 111.1284 110.9745 110.9249 111.2960 109.3411 111.3125 106.9544 102.9981 98.3418 108.5647 115.3707 113.9164 115.1613 115.7353 116.1811 114.9816 104.2278 100.8692 94.9914 99.9482 108.9660 96.2950 104.1071 106.5796 108.3504 111.4147 109.6358 113.3230 113.5929 114.1275 114.1360 114.6117 114.1090 116.6900
114.3600 113.7874 113.3865 112.9800 112.5905 112.3149 112.0960 111.9846 112.0782 110.2277 112.6681 106.8488 103.0875 112.7796 93.0466 96.2217 109.5624 114.9595 115.5871 110.2296 116.3364 113.4552 101.2327 100.9507 107.0509 112.1908 114.0896 118.3911 114.9085 116.8866 116.3888 110.6271 108.7880 113.2968 112.4339 114.1758 115.3212 115.0161 114.3484 116.1600
114.3600 114.4563 113.6117 113.6712 113.6052 113.1409 112.9616 112.8972 113.0788 104.8521 97.1975 94.4971 92.5356 98.0651 103.1495 92.0878 97.5357 117.8673 115.7596 113.7858 117.4793 98.0499 115.1395 101.3231 102.2922 119.2048 111.7783 116.8346 132.2679 117.6348 123.8545 124.7524 118.9935 118.6949 110.0808 111.2736 112.4958 117.1036 116.8742 114.8900
115.0400 114.8628 115.3412 112.3120 114.1389 113.9117 113.7600 113.6700 113.5215 114.4396 105.9792 90.0865 94.1326 91.7505 100.3322 97.1527 95.4943 116.0171 116.0700 116.5415 119.0236 98.3150 107.1850 99.5646 105.2076 119.9209 117.3838 119.8433 115.4991 101.2759 99.5728 116.7751 121.1591 121.8247 120.3097 119.3133 105.5093 104.1465 107.9197 116.0600
116.2500 115.5552 115.6349 115.0791 114.8662 114.6326 114.5260 114.5424 113.7309 116.1209 94.6181 91.6632 90.4037 101.4687 100.4565 100.0721 96.3752 116.3962 116.6355 116.9989 117.4622 118.0500 103.1971 100.2169 118.0494 118.5002 119.7523 120.2883 121.9382 119.1414 119.6922 120.8764 121.1950 121.5239 121.7055 123.3445 122.1854 117.2426 99.2782 101.1400
116.2500 116.1196 115.8055 115.6202 115.4628 115.1886 113.9946 114.3271 115.9008 117.9640 108.6230 82.8599 108.5359 103.6492 94.5569 103.5036 99.3537 91.0731 115.2736 117.1690 117.5739 117.8891 117.5250 99.0404 110.0476 120.7917 119.7341 120.1747 120.4176 120.4927 120.8248 121.0978 121.4414 122.1992 122.1627 107.6320 99.7375 105.1567 104.3100 102.9100
116.7700 116.6047 116.4048 116.1892 116.0582 115.8483 115.9450 105.9451 107.0254 114.1570 93.7900 103.7705 108.4877 94.6534 94.6694 101.6740 104.1603 100.1574 110.8858 119.1049 118.1712 117.1563 120.7816 97.9545 101.3399 107.8332 120.1867 120.1628 120.4595 120.8206 121.0710 121.3353 122.1676 117.5434 101.1600 119.2661 104.2734 108.7957 123.7863 123.2200
117.3100 117.1389 116.9067 116.7397 116.6253 116.3826 110.2117 93.3163 97.3876 119.3469 97.0213 100.2482 97.8110 97.3440 96.5329 99.6824 115.1430 99.9864 101.6439 109.0668 118.4375 121.6726 119.8106 95.3756 118.2609 120.3320 120.2146 120.4921 120.7273 120.9985 121.3169 121.8188 123.7274 106.6110 101.6895 100.7677 108.0772 105.8445 104.8886 108.8300
116.8200 117.5542 117.3904 117.2606 117.1749 116.9413 118.3094 98.0722 94.5877 96.2498 96.4875 104.1655 100.2748 99.7306 106.4433 100.9493 108.7289 107.6938 104.6861 102.3119 116.2683 104.0011 105.0362 99.6070 121.6657 119.7306 120.0340 120.6319 120.9589 120.9950 121.4676 119.0449 114.5002 113.7787 110.4104 102.9785 106.7622 112.4699 108.1205 110.3900
118.2300 118.0843 117.8872 117.6854 117.5086 117.2394 117.8185 116.8009 111.8101 114.7457 97.0055 99.9301 103.4527 111.8063 107.7944 103.8921 109.4561 108.1212 108.6682 100.3982 112.7546 99.9448 112.2308 99.4488 123.1500 116.7257 120.7664 120.9807 121.1925 121.8677 119.9709 119.1096 94.5480 112.7159 123.6888 102.2673 107.7418 115.2298 109.1767 110.8100
118.6600 118.4849 118.1069 118.6377 118.5591 118.2863 114.8223 102.2475 101.4772 108.1240 98.4474 98.9521 102.7392 101.4134 102.3425 105.4812 102.2746 103.8918 96.8495 101.9234 98.9634 102.6439 98.0295 119.0436 106.7620 100.4042 121.8988 120.9621 121.2189 121.5279 106.9332 111.0666 116.9921 103.2048 110.9436 103.7918 100.7043 119.0773 114.2065 110.7800
119.0700 118.8670 118.8033 118.2558 101.0467 120.0298 120.3103 106.4568 104.0706 101.1938 98.8715 112.5159 108.5642 107.1935 108.9419 107.7045 106.4136 113.4085 106.4962 99.5927 102.2625 103.6314 97.7347 108.1549 112.2315 117.2712 121.6226 121.4096 121.4131 123.2487 101.6162 97.5716 104.6679 105.9145 106.5948 110.9687 113.8652 108.8393 110.8506 110.5100
119.4500 119.2882 118.9641 119.5267 96.6944 117.7727 120.2021 102.1738 98.8477 108.8135 101.8293 116.2092 106.5162 110.6423 109.5568 109.5452 117.7042 108.0782 111.8968 106.1141 111.9414 107.0227 108.1427 105.0108 108.5729 119.4680 121.3607 121.5996 121.7264 122.0049 118.2207 121.7781 105.0887 104.0876 109.8161 99.7802 112.2891 110.2628 112.6404 109.1500
119.8000 119.6615 119.4200 120.4224 119.5661 119.3465 120.4998 101.9806 99.5312 116.9562 108.7469 109.2032 108.8624 106.7354 110.2158 105.2100 109.9870 111.5278 101.7660 111.4675 113.5167 106.6782 108.4620 111.5252 120.6558 121.9992 121.5442 121.8950 121.7889 123.4536 103.0524 130.3109 106.9675 110.7632 109.1058 108.3710 118.5119 112.1138 109.0347 114.4800
120.1700 120.0438 119.8871 119.4402 119.5470 119.7072 118.3064 110.7964 107.9092 105.3803 117.5870 111.3125 110.3725 111.7191 112.3642 112.8255 111.9830 105.9579 100.8881 109.3846 110.6024 112.7954 108.5644 111.1947 121.7794 121.6199 121.9699 122.2938 122.0172 123.3749 112.4762 99.9497 130.9768 103.1052 101.5888 108.7172 108.6491 109.1166 111.3039 116.6700
120.5100 120.2023 120.3022 120.3123 120.1762 120.0976 120.7774 121.3003 117.1007 101.3867 118.8989 109.2708 103.9862 112.8016 113.3661 110.7321 112.9045 116.4739 120.1501 116.0840 110.2742 113.6389 109.9995 110.9390 108.3840 121.2335 121.4152 121.2085 122.4658 122.7850 117.0034 117.6763 104.2055 103.2536 102.0518 103.0625 114.5619 113.4929 115.7712 112.5100
120.8400 121.8822 120.7020 120.5479 120.4815 120.4700 120.5593 120.2744 115.6422 101.5251 121.1158 111.5497 105.2882 112.7506 113.5679 112.4198 110.9702 116.2615 112.7509 107.2491 114.6139 114.5891 115.7433 109.2161 111.0887 117.2650 120.6968 120.1835 122.8865 123.0836 111.7437 111.6785 105.6164 111.2247 104.2728 107.5180 113.6711 110.0726 109.2990 112.3700
121.1500 111.1357 121.5196 120.8777 120.8839 120.6787 116.7487 117.7809 120.2111 119.3119 121.3328 114.5930 122.0887 112.6105 114.6393 113.2037 112.0619 112.4482 116.9336 106.1702 110.2081 116.8609 116.0094 114.2514 111.7174 113.3138 104.8938 119.9626 122.4613 125.3569 118.8576 107.4411 104.8436 113.2608 111.4221 104.9695 109.5966 108.9158 111.2773 111.8900
119.7400 97.5759 123.1164 121.1471 121.1846 121.0364 120.8401 121.9232 123.5238 108.5889 122.1817 122.3358 117.2806 116.6418 114.3753 114.0707 113.5957 113.5363 118.8768 118.3968 112.5840 115.7364 116.4321 115.9268 112.3333 113.0469 115.8525 121.0286 123.7204 115.9082 116.7370 103.2091 102.1105 109.4653 109.4699 111.2909 117.1485 107.9551 109.4435 112.4700
112.8100 114.9821 122.9034 121.4998 121.5275 121.5223 122.7212 102.9024 105.0983 111.4128 121.8644 115.9682 113.8553 117.7014 114.8863 115.9653 112.9264 103.9084 112.8999 123.1373 117.9767 115.4602 117.9472 117.8019 116.1266 113.7301 113.3819 114.2745 116.6453 119.8531 98.9214 101.0918 108.9286 108.1654 110.9836 109.5235 112.2899 108.2423 107.7286 107.5600
100.5300 122.4153 121.6496 121.8897 121.6060 120.9848 124.4910 102.0598 101.4652 105.8750 122.8774 115.4921 113.3305 118.3861 115.3897 115.8078 115.3757 106.6241 104.7264 107.9752 117.5312 117.8859 111.3492 117.7502 120.7802 113.7180 114.0296 112.9544 110.0314 106.3554 104.7968 104.4655 103.2911 104.2858 105.5115 116.9955 126.2835 113.3363 117.1020 112.4300
122.3000 122.4102 122.1164 122.0960 123.0578 126.1438 104.3324 124.1177 121.8606 109.7510 113.9969 104.3119 116.5682 118.3633 117.0965 117.4958 115.9219 117.6107 101.1596 104.7249 121.6764 115.6460 103.0386 101.5463 112.9705 120.1477 115.6735 104.0519 101.1576 102.0060 104.4205 104.8018 125.9844 125.0367 119.7195 125.3680 113.0115 111.2780 116.8016 112.4300
122.5600 122.5127 122.1986 122.4581 105.4058 110.8174 117.4290 118.0057 122.4915 115.7449 101.7024 98.0614 102.2022 112.0580 116.5226 108.0133 119.3004 115.8866 102.4738 101.1432 113.0551 112.3989 101.9654 99.6988 100.5263 106.9123 106.3911 101.1620 102.2563 101.4510 109.1196 108.9255 115.7124 125.1762 126.2306 110.2794 111.0433 104.2436 104.7951 113.8100
122.8200 122.8605 122.6863 123.9064 114.5903 118.7554 101.2580 119.5645 122.2140 119.3990 102.5855 98.0299 89.7444 117.7446 111.0141 103.8912 118.5471 117.8353 100.7765 101.8071 102.0803 106.6676 105.6091 101.1923 118.3575 99.0214 100.8673 97.2440 103.0932 101.9902 102.9077 106.1114 102.7437 116.3237 123.9553 105.4071 104.4649 106.0937 103.7277 113.5500
123.0600 122.9695 122.4463 118.2421 114.4187 102.7478 115.8533 118.8335 122.3920 121.0675 115.8233 106.7324 124.2732 126.7967 119.4419 109.9180 115.1350 119.8956 114.9304 100.5433 101.2536 101.0032 102.1474 100.2584 116.2300 114.1527 123.9557 119.6167 107.8141 107.0759 114.2167 110.3378 108.2409 112.2094 125.8000 127.7596 114.0261 102.7316 104.0018 103.6300
123.3100 119.1948 118.1316 100.7822 100.7503 113.7046 104.0773 120.8838 124.6645 120.9616 119.7197 97.5469 124.2545 123.5948 112.7281 118.9805 111.3152 120.6559 106.4569 106.0434 101.5923 103.5622 101.7097 104.0314 113.3768 118.4414 119.4400 121.9411 120.2960 118.3844 117.6155 105.2270 111.6881 111.2484 125.8703 123.8250 104.4738 105.8465 102.6361 103.8400
102.0200 103.2426 121.2225 110.1899 112.9857 111.0952 123.4243 110.8241 109.4567 114.5823 124.8850 113.4519 123.3578 115.7550 123.0122 117.9279 113.3572 118.0063 115.2035 111.4708 107.3865 103.9436 103.1388 102.2828 113.4206 118.6355 123.6839 122.6524 124.0775 117.5349 109.3756 103.7989 106.2603 111.3144 129.6459 127.5007 126.9006 117.5294 107.2654 104.0000
103.9500 125.6142 117.6620 117.4226 105.7196 118.6444 112.8576 123.0426 120.5008 113.9965 124.7561 114.3307 106.8414 113.4071 123.7540 108.7929 112.6157 105.6829 117.3156 100.7301 104.9991 107.0927 109.7518 101.5765 113.9364 116.2735 116.2217 120.1428 124.7332 104.7620 103.9259 103.0323 106.1012 102.1120 116.1229 125.3688 126.3260 127.6240 127.8838 126.2200
123.9900 117.9000 105.7800 116.4300 109.5700 112.4900 110.2400 107.4800 116.0400 115.7300 101.9000 103.5400 101.8700 110.7900 124.0300 112.9200 114.4100 114.4100 113.4500 111.9800 107.6600 120.5600 111.2100 105.8700 102.6100 124.7500 119.7300 123.7300 124.0700 124.0300 103.2100 103.3200 105.5500 121.2800 110.5700 125.7800 125.8900 126.0200 126.1000 126.2200
