123.4700 123.6900 123.6800 115.1800 123.6600 123.6300 123.8200 123.7900 123.7700 123.9400 123.9100 124.0700 124.0300 124.1800 124.3100 124.3100 124.4500 124.5700 124.5400 124.6900 124.8000 124.9600 125.0600 125.1700 125.3100 125.4100 125.5500 125.6500 125.7800 125.9200 126.0000 126.1300 126.2300 126.3400 126.4700 126.5600 126.6700 126.9000 126.9900 126.9900
123.4700 123.4393 123.5635 123.0673 123.3446 123.6311 123.5203 123.6150 123.7128 123.6036 123.4288 124.8350 118.2361 125.0293 124.1746 124.2132 124.3026 125.5758 123.2131 125.6177 124.6553 124.8132 125.0630 125.0449 125.2813 126.4038 125.9454 125.5032 125.6494 125.7799 125.9043 126.0342 126.1592 126.2852 126.4093 126.5371 126.6556 126.6413 126.7607 126.9600
123.2300 123.1766 123.1576 123.2168 123.2947 122.9012 123.5796 123.4082 123.3952 123.7400 124.6750 127.3890 109.7443 117.1489 123.8071 124.1200 124.0939 124.0694 110.5755 124.5700 124.5857 124.6701 124.0125 124.8790 124.8856 125.5793 127.2266 125.4439 125.4990 125.6317 125.7597 125.8935 126.0186 126.1472 126.2795 126.4153 126.5604 127.1816 126.9081 126.8000
122.9900 122.9156 122.9499 122.9614 122.2914 125.1350 121.7230 123.0514 123.8228 110.4657 120.9063 111.9625 119.8153 119.6236 123.7004 123.4518 123.6452 124.2836 123.5845 123.7092 124.3222 124.3965 124.6846 124.7113 124.9198 124.8296 125.0482 125.1678 125.3465 125.4800 125.6113 125.7438 125.8772 126.0161 126.1532 126.3177 126.2483 127.0031 117.5012 126.7500
122.7500 122.6361 122.6519 122.6561 122.6172 122.9765 120.2270 124.4527 123.6075 122.7242 120.6638 114.6050 108.0038 124.0671 123.2451 122.6590 124.2160 123.7090 124.0391 123.9560 124.1265 124.2426 124.3824 124.3822 124.6039 124.8077 124.9108 125.0643 125.1965 125.3303 125.4693 125.6032 125.7453 125.8813 126.0273 126.1565 126.2058 126.4978 123.7993 126.6000
122.2300 122.3519 122.3775 122.4270 122.3782 122.9031 123.4146 122.6962 121.9599 109.7082 122.7860 119.3824 113.0050 111.2078 114.6498 117.5795 123.6578 123.6003 123.6497 123.7985 123.9136 124.0497 124.1887 124.3166 124.9052 124.2950 124.7101 124.9158 125.0273 125.1806 125.3161 125.4652 125.6070 125.7488 125.8926 126.0345 126.1921 126.3506 126.3776 126.5600
121.9700 122.0510 122.0620 121.8852 122.5854 116.9776 118.5358 121.7326 123.0621 122.4671 126.8698 117.4780 115.9634 123.0770 122.6031 119.5133 123.0153 123.4696 123.4205 123.5775 123.7199 123.8534 123.9763 124.2427 123.0238 117.8327 125.3982 124.5918 124.9064 124.9946 125.1796 125.3243 125.4631 125.6199 125.7644 125.9102 126.0580 126.2021 126.3226 126.4000
121.6900 121.7820 121.8624 123.1196 122.5086 115.7927 115.8194 120.5148 122.0604 121.3209 123.7810 124.9570 121.2965 124.7200 123.9663 123.8544 123.8045 122.5621 123.3840 123.4847 123.7960 123.4985 124.1446 123.6727 124.9306 123.7729 124.5680 124.6176 124.6866 124.9224 125.0317 125.1726 125.3318 125.4883 125.6356 125.7907 125.9338 126.0631 126.1568 126.3600
121.4000 121.4290 118.4745 121.8123 123.2690 100.3456 116.1061 117.5108 122.9800 122.3137 120.6730 120.4603 122.9854 121.2247 123.3602 107.1964 124.5625 122.7581 122.7636 122.9655 117.8775 126.2995 123.3757 119.7931 120.5688 124.3190 120.5280 126.1851 119.5280 125.1859 124.6029 125.0140 125.1570 125.3588 125.5208 125.6199 125.7782 126.3906 126.9220 126.1700
121.1100 121.1522 118.9704 119.2615 119.1989 113.9304 114.7945 110.7261 111.5565 122.0748 121.9032 121.9070 120.3597 116.9848 103.5573 123.9739 122.0850 122.7615 122.6750 128.9794 109.3943 117.4899 122.3466 106.2596 111.5741 119.2797 122.3937 116.3701 110.1269 123.9465 124.7634 124.9399 125.6653 125.7525 125.2789 125.6012 126.2406 125.5859 117.5062 112.6900
120.8000 120.7962 120.7997 120.1015 109.1221 111.5524 100.5450 122.2716 112.3342 121.7457 121.3393 122.0113 123.8304 114.9533 109.8011 123.2867 101.4767 122.6337 122.3853 121.9085 122.6632 107.3699 108.1683 107.6074 110.3377 119.3089 127.4611 112.8013 127.0395 124.5522 124.2800 124.3724 122.1222 125.0886 125.2455 125.5661 118.0238 125.4526 110.5603 112.0800
120.4900 119.9462 115.7781 120.4929 110.7519 101.6844 100.7367 119.0998 121.0036 123.2637 120.9862 122.7283 131.6452 125.5494 117.7719 113.1410 101.9074 123.4080 122.0560 112.8508 119.1429 108.0991 107.6663 111.8453 109.3922 124.3056 123.8239 123.4471 119.9212 124.4120 125.1980 125.5101 121.3679 123.8098 124.9056 126.6776 120.2481 115.9552 119.3800 125.9100
120.1600 119.3872 108.9315 117.7529 99.9288 120.6830 117.5128 118.2756 120.4042 122.0816 120.7685 120.7897 115.9759 114.2515 122.0211 123.3949 105.5858 121.8197 122.5994 122.0891 122.4471 117.4900 120.2432 111.1458 117.4547 123.5238 127.0669 110.8624 123.8028 125.0264 113.7066 121.1814 123.5233 124.8785 125.9983 122.1242 123.1139 114.2447 123.7351 121.7500
119.8200 120.7146 108.5097 122.3605 97.4723 113.8924 107.4894 116.8989 119.9353 120.3462 120.7319 120.6035 121.0138 117.0197 121.6214 109.5151 105.1012 121.9401 121.8347 121.4620 122.8924 116.5846 113.9952 123.5287 103.5952 114.8977 103.5152 114.8681 124.2692 119.8466 116.9729 123.2110 123.8469 125.0167 118.1450 124.4468 121.2321 111.3153 116.3851 124.4700
119.0900 121.4742 114.9803 116.8367 101.6474 123.2168 118.8127 119.9813 119.6016 120.4881 117.8590 120.3092 120.6893 120.9279 121.7919 112.6136 120.9783 121.9521 123.3877 120.3069 122.2750 121.5667 119.4566 108.8384 121.1172 121.6737 121.0503 123.6201 124.5581 117.2381 123.6390 124.0854 124.8697 124.2962 122.2288 116.1864 116.6954 116.6586 117.2772 120.2700
118.7000 118.2852 113.6934 112.4412 113.3165 119.4986 117.2523 119.1193 119.4498 119.8977 121.0380 117.3300 120.3315 120.1385 109.8364 108.9588 121.0019 121.1540 120.7165 123.6915 121.4386 122.9366 113.4869 112.8614 126.6120 122.4791 122.9665 123.3314 123.4389 123.1884 124.0325 123.9957 124.1399 125.2006 116.2996 123.3544 115.5424 120.2173 121.8640 125.5000
118.3000 119.4802 114.2482 118.8275 108.8380 118.7887 121.3028 118.6402 119.0150 119.3190 119.1620 119.4031 119.3359 119.8455 108.7316 121.2783 120.1844 120.7997 121.1944 121.2958 121.2362 122.9007 110.3105 113.5377 110.3170 123.8597 122.8357 123.0950 123.2643 123.4931 123.6503 123.8280 124.6081 109.2907 115.7233 111.6925 125.3351 122.9117 122.8951 121.6400
117.8800 110.5602 116.4675 115.4429 117.9486 116.5378 118.6766 118.4796 118.4068 118.9418 119.4621 116.0475 125.5873 121.1133 111.3830 109.8615 121.7714 120.5353 120.9469 121.1425 120.4634 118.9986 117.3944 122.7456 116.2245 122.8453 122.5909 122.9826 123.4578 123.3746 123.3588 125.3288 109.9608 110.0908 123.3429 123.2132 123.2918 115.3577 113.6067 103.2900
117.4300 124.3225 109.5142 108.4712 112.9830 118.1237 117.9346 117.8985 117.0340 117.3034 119.8488 118.9502 108.8470 104.3130 120.4321 119.7163 117.7100 120.5431 120.6009 120.0382 111.5030 105.0314 104.8659 112.4458 122.5743 122.7702 122.6821 122.6477 124.9234 123.5095 123.7110 128.1308 116.5764 128.3362 123.4955 116.0932 117.5402 132.6721 102.9426 121.8500
116.9600 116.6911 104.7636 113.2841 118.3156 117.7741 117.5180 117.6997 114.1354 110.4350 111.5424 107.6965 101.4568 101.0046 122.0457 119.6195 115.5000 118.4546 125.4514 116.0683 111.6875 115.9509 113.4617 115.8360 121.3347 119.2066 123.6703 122.8619 122.5409 123.0162 123.9408 116.3563 120.8019 126.1537 125.5786 114.5433 98.6456 114.5768 108.6654 103.2200
116.4600 116.0857 110.2002 106.7647 109.4034 113.7924 117.1812 117.1136 115.6197 103.3218 119.5303 113.0030 105.8373 116.1186 118.9051 118.7694 120.0257 118.1257 124.2602 118.4675 116.1945 116.1047 105.2066 124.5074 127.9818 123.3053 117.5054 122.7630 122.5605 121.2262 119.8320 107.2437 118.6977 129.2751 117.5636 122.4242 105.2822 108.5688 120.5096 135.0200
115.9400 115.2125 109.8574 102.3491 104.4669 115.4656 116.0126 116.4918 118.2293 103.0351 117.1540 113.1857 117.6054 117.7935 118.9042 118.7915 119.1387 121.2752 107.9469 119.2232 114.7674 124.2792 97.9492 109.5397 118.8590 125.8859 117.2363 119.1917 124.1530 111.0694 117.0816 116.2049 123.9798 107.5890 101.3767 123.3917 115.5872 119.3427 118.4229 118.9100
115.3700 108.1845 106.6183 118.0870 112.7956 115.5284 116.1969 116.2876 118.0483 108.7742 103.6068 118.5597 117.7308 118.4608 117.4030 119.4144 119.5925 119.9863 103.3407 112.1217 121.9804 119.7429 115.6882 108.9330 113.8904 118.0644 116.7792 122.3972 114.3221 110.1524 107.9919 126.2417 125.7197 112.6115 118.6284 119.5471 117.7980 114.4804 106.6639 118.9100
114.7700 113.4804 124.0504 113.4863 114.8078 115.1448 115.3887 115.7709 118.3215 119.9046 113.3513 117.0315 117.9562 121.6516 102.4026 133.5736 101.2270 114.8710 118.3092 121.1759 113.3762 117.9440 123.7639 116.6148 108.2076 112.5030 112.9846 122.6462 119.4203 120.9960 124.6391 121.8098 110.8722 113.5847 114.2462 102.3669 118.3683 110.5967 113.0056 118.4400
113.4300 113.8201 111.9249 113.5049 114.4155 114.5116 114.7908 115.1758 112.8137 115.8096 116.4924 117.1586 106.5919 102.8138 113.6592 110.1483 111.3856 118.4636 119.4699 119.2495 119.4055 118.8799 107.4107 106.8977 115.1673 121.0869 119.4648 117.6127 122.3461 122.8479 124.1909 126.9031 120.1623 101.9913 103.2634 118.5153 121.6823 120.9262 119.9228 118.6400
112.6800 112.9537 113.2531 113.3032 113.4335 113.8373 114.1646 114.5180 115.0628 115.2981 115.4659 116.2652 114.7558 117.3736 125.3695 117.2359 119.5473 118.2139 118.9511 120.6467 108.9908 111.6686 104.2178 110.0106 108.8434 117.6667 121.8727 122.2165 122.6751 122.6675 116.3117 111.5757 114.8382 107.5549 112.4849 117.3880 116.7414 123.6607 121.4187 124.7300
111.8500 112.0480 112.2047 112.4345 112.7587 113.1065 113.5295 113.9427 114.3461 114.9645 114.4467 114.4168 115.8762 116.4317 114.1776 104.7624 117.6614 118.0161 119.1624 123.6038 117.0691 112.0681 104.0004 105.6520 119.6522 119.9428 115.8650 111.3524 123.0784 122.4833 112.3343 107.2537 119.6506 112.0136 115.7916 116.0194 116.6146 135.8383 128.7792 124.7100
110.9300 111.0822 111.2687 111.5423 111.9127 112.3488 112.8186 113.3263 113.8423 114.2890 115.0264 115.5151 115.7553 118.2867 114.3367 118.9262 118.3925 118.1631 116.9911 122.3115 108.1779 113.9512 111.5450 106.4412 113.9721 107.3922 123.5495 112.8110 123.0282 123.7414 111.8678 109.0916 107.7560 113.4560 116.2000 120.8263 128.5529 131.3144 123.8611 124.5300
109.9100 109.9610 110.1954 110.5584 111.0162 111.5378 112.0950 112.6787 113.2632 113.8547 114.3962 114.9447 115.5290 115.8382 116.3886 116.6342 117.1978 118.6040 114.5764 123.6156 120.6107 121.0216 118.9965 111.1693 122.9620 123.0902 121.1518 120.9906 119.2619 126.5935 114.1428 102.2458 113.1051 102.2538 105.3723 103.2844 130.8294 100.0165 114.7574 124.5100
108.7500 108.6933 109.0064 109.4718 110.0383 110.6815 111.3506 112.0243 112.6930 113.3559 114.0001 114.6461 115.1770 115.7470 116.3019 116.7887 117.3481 117.7713 118.0883 117.9653 118.9511 119.8736 121.3681 113.0960 114.6948 112.6110 121.2390 120.5440 110.6976 110.6702 100.3757 101.2584 104.5566 109.1686 113.9706 110.2364 126.9046 112.9381 114.3337 102.4800
107.4100 107.2092 107.6315 108.2477 108.9873 109.7764 110.5773 111.3718 112.1415 112.8699 113.6082 113.8748 114.7361 115.4383 116.0159 116.5722 116.8151 117.3662 117.6197 118.0897 118.6997 118.7626 120.7542 123.4337 100.4925 119.0929 122.1595 122.3686 111.2181 106.4977 97.7228 107.2417 110.8636 126.5316 127.2050 126.0878 123.5728 133.6935 111.0407 110.7300
105.8200 105.4356 106.0403 106.8933 107.8570 108.8429 109.8085 110.7325 111.6115 112.4366 112.8603 117.5396 114.1782 115.2527 115.7954 116.2813 118.3575 118.3752 119.6587 120.6867 118.9415 119.0050 107.0061 114.8483 96.0118 104.0608 115.9313 115.1372 113.4940 116.1838 109.5580 118.4877 123.0599 121.0916 122.9698 123.5634 127.9818 142.0523 128.7795 120.4100
103.8800 103.2247 104.1748 105.4043 106.6648 107.9064 109.0632 110.1377 111.1182 112.0238 112.7234 114.8054 114.3170 114.9755 115.6464 116.8064 105.5840 109.2451 103.3241 103.6917 112.1987 107.9236 109.3715 109.4497 111.5531 116.3734 102.2263 110.1908 113.6770 114.5180 117.1904 115.1717 125.1422 123.1421 119.8063 120.5000 122.1142 121.5580 109.9793 102.4400
97.8300 100.3289 101.9562 103.7669 105.4835 107.0233 108.3897 109.6068 110.6885 111.6621 112.5329 113.2440 114.1206 114.8057 115.4661 116.2529 114.6549 114.5373 106.9143 112.6322 97.9775 107.8360 108.6411 112.2764 111.3787 130.1614 112.1767 112.3400 112.5804 114.4097 114.4819 114.2664 114.0073 125.1549 121.0831 120.5558 119.5687 119.9008 118.0561 118.5600
91.7700 96.1855 99.3927 102.1270 104.3886 106.2588 107.8252 109.1781 110.3615 111.4009 112.3476 113.1998 113.9669 114.6789 115.3554 115.9942 116.7619 117.2104 120.3502 103.2333 112.6746 105.7523 114.4100 113.7107 114.9558 120.8223 111.9292 111.7003 112.3777 111.9487 112.4609 113.7541 126.1363 119.7686 118.8851 116.5506 117.3866 118.5554 119.2246 118.1700
91.7700 90.1478 96.8045 100.7533 103.5730 105.7126 107.4519 108.8915 110.1417 111.2325 112.2043 113.0714 113.8718 114.5960 115.2652 115.9082 116.8846 114.1955 123.8811 110.5482 105.7938 109.1256 105.8759 110.9037 120.6034 107.8815 111.6787 112.6363 112.1016 118.1638 112.1254 111.3207 99.4558 121.1666 117.0019 116.7471 117.5673 115.2775 100.0113 118.1600
89.5400 87.3294 95.3394 100.1328 103.2370 105.5019 107.2968 108.7846 110.0621 111.1635 112.1495 113.0330 113.8352 114.5645 115.2365 115.8606 116.6344 117.0402 108.7833 114.3100 97.4244 103.5146 107.6322 104.6854 116.7187 121.4427 119.8927 114.2026 119.5906 120.0896 100.4651 106.0298 100.3133 107.4769 124.3062 124.3128 123.5869 125.9990 112.7406 112.4500
91.7600 89.3381 96.3796 100.5622 103.4680 105.6470 107.4002 108.8606 110.1143 111.2082 112.1841 113.0629 113.8551 114.5873 115.2617 115.8827 116.6568 116.9740 112.6620 114.6390 98.5849 104.2662 110.4354 123.3931 116.0955 120.5883 120.5515 110.1175 102.9776 116.4677 111.1454 109.7828 101.7649 109.0652 124.1872 123.4971 123.0462 127.1429 121.5908 124.4100
91.7600 94.8956 98.9489 101.8260 104.1964 106.1341 107.7388 109.1087 110.3063 111.3643 112.3118 113.1619 113.9436 114.6647 115.3234 115.9436 116.6476 115.7231 111.6341 116.4005 106.8462 113.0868 121.4347 114.8486 119.7328 120.6963 120.5882 124.8837 120.0597 117.4120 123.6748 119.2827 116.7016 114.8481 121.1705 123.7281 123.4934 126.9154 123.9380 124.4100
97.8200 97.5100 100.5500 102.2900 103.9800 106.6500 107.7400 109.5900 110.3900 111.8000 112.4300 113.0200 114.0900 114.5800 115.4900 115.9100 116.6900 111.7900 101.5900 114.2300 106.8900 118.9900 119.2700 125.7000 120.0700 120.5700 120.8000 125.3400 107.5100 105.7900 120.1600 108.5600 129.8600 124.7900 113.2100 123.4200 123.7600 123.9300 124.2500 124.4100
