121.6900 121.6900 121.6800 121.6600 118.9700 121.8700 121.8500 122.0600 122.0300 122.2200 122.1800 122.3600 122.5200 122.5200 122.6800 122.8200 122.8200 123.1600 123.1100 123.2800 123.4200 123.5900 123.7200 123.8700 124.0400 124.1500 124.4700 124.4300 124.7100 124.8700 124.9700 125.1000 125.3800 125.3800 125.6100 125.7300 125.9900 125.9900 126.2200 126.3300
121.4000 121.5011 121.5457 121.6217 121.6122 121.7285 121.8094 121.7778 121.8554 121.9262 122.0478 122.0030 122.4407 122.2928 122.5760 122.5495 122.7566 122.6830 123.5767 124.1418 123.2515 123.5084 123.6425 123.7477 123.9491 122.8351 132.9485 123.6015 124.5821 124.7966 124.8978 125.0606 125.2170 125.3760 125.5283 125.6313 125.7130 127.2095 127.3636 126.3300
121.1100 121.1760 121.1863 121.1815 121.2777 121.0415 120.8006 121.4820 121.5399 121.6299 121.7009 122.7118 120.6751 122.5654 121.7624 122.5226 122.6954 120.3712 114.1430 121.3440 123.1604 123.2684 123.4509 123.6100 123.9409 123.7001 130.9004 116.4858 125.0488 124.4972 124.7632 124.9201 125.0823 125.2410 125.4017 125.4780 126.4393 120.1536 124.8324 126.1300
120.8000 120.8388 120.8655 120.9075 120.3115 127.9391 120.6771 121.1897 121.3440 121.4184 121.3250 121.4537 107.1777 117.8511 123.9508 121.6093 122.0576 122.0611 120.5910 124.0089 123.1368 123.0847 123.2511 123.4193 123.5017 124.0199 112.8182 117.2428 124.7017 124.3963 124.6083 124.7782 124.9450 125.1137 125.2530 126.1809 118.0268 122.8586 125.0557 125.9700
120.4900 120.4853 120.5110 120.5476 120.1703 120.4850 120.6925 120.8692 119.2309 120.7412 120.7981 120.2543 102.7488 102.1282 116.3466 123.1024 121.8225 122.1993 122.7587 122.4705 122.6931 122.8705 123.0549 123.2238 123.4291 123.7219 124.0851 124.7325 124.1181 124.2847 124.4591 124.6405 124.8106 124.9826 125.1539 125.5177 123.0185 125.4167 129.3434 125.9300
120.1600 120.1199 120.1515 120.1614 120.2999 120.3641 120.3752 120.6027 119.4171 122.5745 121.0554 114.7277 112.6006 108.9168 104.2730 116.8063 120.1781 121.7613 122.0994 122.2791 122.5004 122.6636 122.8514 123.0306 123.2451 123.4107 123.4134 123.4950 124.0053 124.1425 124.3205 124.5067 124.6531 124.8289 125.0398 125.1958 125.5625 125.5289 126.2254 125.7600
119.8200 119.7456 119.7623 119.9436 120.0159 119.9303 120.0280 120.0737 120.2426 120.1727 122.9578 114.6374 120.7839 132.1383 115.5541 120.0864 127.6283 124.4401 121.5833 122.1203 122.2573 122.4608 122.6457 122.8910 122.9837 123.4397 123.2292 123.7997 123.8304 123.9513 124.1815 124.3648 124.5340 124.7366 124.9419 125.1498 125.0789 125.4482 125.5974 125.7200
119.4600 119.3438 119.6198 117.2007 119.7002 119.5625 119.6848 119.7134 119.9019 119.9447 122.4283 120.9531 119.7725 114.8611 118.5821 109.8435 116.3352 121.4864 121.6455 121.8586 122.0973 122.2324 122.4247 122.8563 121.8592 123.5220 114.5034 124.8110 123.0900 123.8907 124.0348 124.3269 124.3609 124.6660 124.7057 124.8726 125.1151 125.3323 125.4579 125.5500
119.0900 118.9361 119.0913 119.0579 119.0761 119.1534 119.0971 120.0617 119.7951 119.7260 119.8284 119.8197 119.9087 117.6902 109.7391 109.4354 117.9699 122.6327 121.2576 121.8743 121.2366 125.1418 121.1676 122.7195 109.0348 122.8918 110.9952 121.5445 119.7107 124.0441 123.9022 124.0859 121.9212 120.0167 124.7170 124.9265 125.1029 125.2103 125.7439 125.5200
118.3000 118.4819 118.4994 118.5291 118.6724 119.1483 119.6403 115.8518 110.6162 119.6891 118.7192 120.8609 121.5804 96.7616 104.5713 116.5782 120.1885 120.9732 121.0263 119.7956 122.3242 116.9223 109.2217 111.3493 106.8868 105.8134 115.0194 113.1063 117.7272 124.2198 123.7639 124.1150 125.2858 125.1523 124.4822 124.6821 124.9963 125.0613 124.2180 125.4800
117.8800 118.0890 118.0939 118.4255 118.6334 114.8314 118.7876 107.4289 107.2812 119.1439 120.2175 110.4011 122.1135 108.1861 104.2819 113.6861 120.6704 121.3932 121.1313 119.1313 108.7546 112.6205 110.3287 103.9555 105.8841 113.0539 118.1293 117.5394 111.8531 124.1526 123.4909 123.8123 123.7367 124.0967 124.4428 125.0780 124.8243 125.5595 116.1664 110.1100
117.4300 117.4049 115.8420 116.6352 118.6392 107.4288 109.8676 119.5709 118.2860 119.7044 100.5875 106.0182 126.8835 121.2939 111.0805 103.3688 110.1880 115.6018 120.7018 120.6258 123.7858 108.0322 106.6368 107.9437 112.4554 115.9921 122.3416 122.9009 121.7059 123.2505 123.4290 123.8103 124.8521 125.2728 124.0879 122.6744 125.6140 126.4967 113.4696 110.7600
116.9600 117.1396 107.2020 118.9391 108.2415 111.2094 124.7026 117.7667 117.6450 116.8424 117.9742 114.8008 122.0957 119.8586 119.4517 119.8004 119.2528 120.0712 120.3619 119.5254 121.7880 114.2092 124.3969 114.6876 119.1399 122.1173 123.5334 123.8345 122.6724 123.7574 122.3970 124.1068 120.6120 119.6991 123.8685 129.0569 115.9053 123.6403 108.0834 110.7600
116.4600 116.3428 109.2188 117.7211 104.9804 113.4918 108.7298 114.3769 117.7531 116.7386 118.1807 118.2380 118.4608 118.5705 118.7809 119.5617 118.8774 119.8505 120.1014 119.2226 120.4501 108.9536 109.7088 105.6534 108.1682 122.9378 122.2517 104.3486 123.4297 118.4616 113.9056 118.3300 122.9701 123.1149 126.1403 125.5515 111.5278 122.5091 101.2185 104.4700
115.9400 116.1944 120.8306 116.0426 113.2668 115.5138 115.8676 117.0157 116.8070 117.0934 113.7838 118.1334 118.1411 118.4950 118.5416 119.0114 119.4520 119.6493 120.4456 120.6928 118.1395 118.2317 116.6016 108.8798 119.5052 121.5947 120.5343 115.0264 122.7529 127.6991 123.0569 123.0570 123.7428 123.8939 121.9780 110.5130 115.8011 111.9829 115.0836 104.9700
115.3700 114.9869 115.2671 115.6290 116.2814 115.1405 111.8168 116.0010 116.5667 117.1815 116.7013 117.6045 117.7494 118.0981 118.4709 118.7445 119.0957 119.1219 121.4592 103.9324 121.2364 120.0779 122.1808 109.3799 102.6595 118.7065 119.2553 122.2572 122.5363 123.4132 122.9869 123.2480 123.5515 124.7183 109.9606 115.5705 115.1826 115.1838 120.4588 115.8700
114.7700 114.7519 114.7413 114.5239 114.2339 113.6077 123.5154 115.7518 116.3587 116.1776 116.6857 117.0666 117.4318 117.7589 118.0781 119.5104 118.5342 119.1402 119.4682 119.8201 120.6870 120.4698 117.7485 112.3089 100.0670 109.9820 116.3658 121.7700 122.4548 122.6909 122.9862 122.7552 123.2615 116.4287 113.8398 112.8644 117.6523 115.4983 118.5931 123.2600
114.1300 113.8479 113.9550 114.2781 114.6874 111.7238 113.7166 115.2822 117.4511 115.8950 117.4386 116.7642 116.8348 117.7537 117.0052 124.0768 118.5949 120.2505 119.2128 119.5671 120.5440 117.9994 108.7659 97.8835 116.3094 122.6934 111.1927 120.3714 122.1163 122.7449 122.8218 122.1877 107.7111 120.7851 111.1602 114.8459 119.9621 123.1715 115.5920 124.7700
112.6800 113.0993 113.2231 113.3432 113.5955 114.4864 114.3066 114.6307 114.9743 115.1871 117.5359 118.4543 116.9085 116.1674 117.8001 117.9549 115.9815 114.4302 118.9921 116.3813 116.0714 106.2303 100.0227 109.7728 114.6529 122.5706 120.3432 122.5993 122.0592 123.1125 123.4056 113.5563 110.1863 107.0107 120.5651 113.1923 129.5804 117.6089 108.5903 124.7400
111.8500 112.2211 112.3364 112.6868 112.7619 114.0211 113.4926 114.0636 114.4607 113.7654 109.4710 116.2435 114.0413 100.3537 117.2635 117.5083 113.3927 100.7897 118.1672 111.7659 109.6477 111.4912 107.5131 107.7721 108.6818 119.1074 121.8067 121.5751 121.9594 122.3562 122.1719 127.7057 112.3994 122.4398 124.3424 123.4334 124.7959 119.2937 113.3014 118.4400
110.9300 111.2525 111.4251 111.7437 115.4107 105.9220 112.9481 113.4043 114.2781 105.2720 102.6226 116.0954 115.8200 110.2837 117.3169 117.4984 119.7374 111.6992 117.0870 126.9479 106.3068 107.9473 100.6473 113.3099 121.6388 115.3930 121.5873 121.6892 121.9413 122.2630 121.7209 122.5104 125.1913 123.7310 121.0376 121.3934 105.7778 101.1854 120.7453 116.1200
109.9100 110.1996 110.3769 110.5626 105.2991 111.2146 112.0385 112.8749 112.9558 108.7740 114.4441 115.2197 114.9244 118.3843 118.7206 115.4992 118.1099 119.5995 114.9291 120.3904 109.3916 107.7193 126.3687 115.2995 120.5788 122.3199 121.1127 121.6024 121.8117 122.3130 127.2819 122.4800 121.8940 122.4253 115.7061 116.8229 109.7733 116.9718 116.4571 102.5000
108.7500 108.8420 109.0738 110.2244 109.4924 110.7193 110.3227 112.1428 112.9657 114.0394 113.5412 115.1899 117.9655 104.6804 103.6745 118.0338 113.0937 118.2567 102.9534 117.4292 120.7292 121.5390 120.3063 107.6668 121.5378 108.8012 121.7700 121.4899 122.1308 121.9729 126.8834 125.2779 125.1947 124.9595 110.5104 99.9801 102.2757 105.8533 113.9177 115.1400
107.4100 107.5677 101.7268 108.4227 107.7335 110.1403 110.7560 111.5210 111.9477 113.6666 111.0221 112.2913 96.8466 100.7972 99.2573 104.3323 116.0623 117.5203 115.5647 118.2423 118.6329 118.3265 118.7939 120.2284 120.4114 119.6618 121.0897 121.4032 121.3950 123.1318 97.4350 101.6069 101.9006 113.0445 109.6304 121.6027 113.3076 123.5963 118.4928 116.0800
105.8200 105.7435 104.8777 103.1608 108.1995 108.9638 109.9451 110.8534 111.6500 115.1451 109.2601 112.0404 101.1975 98.2774 116.7039 110.9033 103.9775 118.7333 118.1444 118.3431 118.7090 119.5148 119.8133 103.3794 122.6129 120.7690 120.7879 121.9232 122.0990 121.4483 124.1917 132.8225 113.9033 113.0951 109.9191 102.4711 103.3849 111.3937 103.9310 102.4500
103.8800 103.6346 104.8213 105.8770 106.7167 108.0816 109.1935 110.1414 111.9374 105.6734 110.8414 113.7571 116.1893 116.4610 99.1048 119.0689 116.2369 117.0061 117.8526 118.4065 120.1060 99.1599 107.8622 105.3141 115.2112 120.7464 122.0680 106.8073 123.3428 120.9408 118.4659 99.7749 100.7081 101.2722 101.2908 102.2165 101.2632 118.7946 116.8633 117.3000
101.3700 100.9191 102.3089 104.0677 105.6964 107.1669 108.5136 109.6706 110.0316 111.0082 112.3233 110.5384 113.9967 113.6049 115.1645 109.9811 112.2869 116.9230 116.1334 127.3013 101.8069 101.0516 107.2201 105.8293 111.9757 112.9640 108.2708 110.0374 113.1544 108.7312 112.5097 98.7953 124.4266 108.7593 100.6646 118.9984 116.8065 116.4142 117.1629 117.4100
97.8300 97.0255 99.8686 102.4114 104.5620 106.3801 107.9141 109.2241 110.5299 111.4923 112.6581 113.6006 114.0564 114.6999 116.2373 116.4011 117.6271 117.0855 117.0999 116.6415 114.8962 108.7091 101.6695 101.9993 117.1870 111.5033 112.5849 111.8247 122.2158 107.1922 120.4741 99.2556 115.7044 99.0331 100.5179 115.4044 100.0730 115.1584 113.8494 117.3900
91.7800 91.1768 97.1851 100.9558 103.6870 105.7931 107.4943 108.9307 109.9647 110.8175 111.9601 112.8850 113.6745 114.5182 115.9096 115.9917 111.7609 117.2718 115.9981 115.6592 113.0116 104.8437 113.8590 100.2918 116.3261 111.3370 111.9211 119.4876 121.2273 109.1510 98.5563 99.7949 103.4947 103.8125 102.1712 101.7106 109.1735 100.9287 104.0704 103.8600
89.9000 87.4589 95.4315 100.1680 103.2505 105.5138 107.3255 108.7852 110.9548 112.9047 111.9244 113.5616 114.9861 115.1540 116.6120 115.2501 106.2750 117.1766 117.9910 118.0792 119.4835 126.0070 117.5450 102.2436 102.0119 105.6341 122.7139 109.1577 115.7382 109.4760 99.5415 100.0997 107.9129 98.5994 99.9122 107.3654 125.4445 99.2421 115.0873 118.7000
91.7600 88.5493 96.0025 100.4122 103.3825 105.5839 107.3479 110.0168 98.3765 101.5129 110.9931 108.9958 111.7738 114.0042 115.7454 115.1709 106.9606 117.1955 117.5542 118.1139 117.9297 119.5418 113.0922 112.2976 112.6637 120.5149 122.7503 121.1172 118.1202 114.1658 105.9203 105.1992 106.0831 108.2669 109.7222 112.4173 118.8443 108.7511 112.8254 116.8400
91.7600 93.9877 98.4019 101.5730 104.0411 106.0273 107.7089 108.7671 103.4984 84.9168 108.2926 107.0516 110.0990 115.7607 116.0183 116.4017 113.4788 116.6538 117.9903 117.4099 118.1950 119.8628 115.7793 130.4984 113.8593 108.1611 108.8782 119.9819 116.3547 113.7668 100.2627 111.0220 114.1356 123.2834 117.2247 127.8787 117.7803 133.1072 121.4053 112.6200
97.8200 98.9779 101.0180 103.1570 105.0638 106.7221 108.1539 109.4176 111.6613 106.1236 112.3205 115.1014 101.2605 107.0194 106.1774 114.3140 105.7204 119.6687 108.3532 120.6060 119.2418 119.6456 110.7953 115.2580 97.0112 99.4348 106.5831 115.9190 109.8296 115.7687 113.0745 110.3790 112.8865 124.0813 122.6516 122.9620 124.3224 139.0234 127.5501 118.4200
101.3600 102.2231 103.3867 104.8063 106.2278 107.5666 108.8119 109.9524 110.8524 112.3062 112.9772 114.0047 112.9049 114.1847 114.4154 117.2628 102.3412 106.4663 104.5483 104.8415 107.0281 107.6772 112.4217 98.0375 106.7120 106.7281 104.1739 99.5448 99.9429 101.9304 101.5580 117.7384 121.3949 123.8876 123.3572 123.1416 124.3171 113.9069 105.0428 102.4200
103.8700 104.6587 105.3813 106.3583 107.4257 108.4993 109.5310 110.5015 111.4222 112.2252 113.0287 113.7536 114.6043 115.0863 115.8012 116.1063 115.8360 113.9769 100.8042 120.9012 107.1286 100.8458 102.3765 100.6886 113.9958 115.5887 113.3013 115.2901 118.0005 110.4610 115.9254 116.3654 117.0042 121.4896 123.3812 119.4335 123.1175 102.8437 105.1386 124.4300
105.8200 106.5771 107.0675 107.7592 108.5721 109.4384 110.2962 111.1372 111.9354 112.7014 113.4121 114.1076 114.7477 115.3690 115.9303 116.5115 117.0459 117.6066 114.6994 120.4631 105.3505 113.5279 109.2957 97.5150 111.9372 113.8229 121.8340 120.9675 118.1102 121.8848 120.1668 117.7868 104.3206 117.7205 123.9189 123.7359 123.9861 123.4496 123.9879 124.4400
107.4000 108.1547 108.5124 109.0224 109.6629 110.3502 111.0617 111.7847 112.4905 113.1791 113.8368 114.4539 115.0484 115.6237 116.1631 116.6964 117.0523 118.9911 118.1436 116.1630 104.9287 100.4070 107.4534 118.5921 107.7587 122.3776 118.8067 120.7107 121.0222 122.7854 122.4097 127.7310 117.0411 123.4637 123.2906 123.5098 122.9802 133.9969 106.6226 108.9000
109.9100 109.5032 109.7657 110.1607 110.6638 111.2280 111.8227 112.4443 113.0582 113.6643 114.2576 114.9996 115.3750 115.9265 116.4235 116.9015 117.6917 114.8880 118.2384 104.9327 102.8786 104.7349 104.4123 105.8740 104.8303 117.5212 106.3539 111.9054 114.6535 117.8158 115.4699 116.7666 103.5411 123.6029 123.3288 123.6957 123.5879 126.0234 114.9862 124.4600
110.9300 110.6666 110.8697 111.1835 111.5833 112.0550 112.5492 113.0887 113.6077 114.1314 114.6804 112.9452 115.9696 116.2183 116.6927 117.1750 118.1455 106.3325 99.4979 122.8325 103.9591 112.8987 101.3872 105.8165 102.7932 121.0152 108.5909 111.9724 110.8241 112.0458 104.2708 103.7853 103.9881 117.6693 121.1875 123.8907 123.6952 125.5547 119.8907 124.6500
110.9300 111.7500 111.7500 111.5100 112.2500 112.7300 113.1400 113.7000 114.0700 114.5000 114.9400 107.6400 115.0000 116.4900 116.8300 117.1800 117.8300 116.5500 113.4300 112.0900 102.7700 103.9900 101.7400 105.0300 107.6200 121.0000 113.7100 111.2900 111.6900 112.5600 107.5800 100.8300 101.0100 123.3600 114.4200 123.7000 124.0300 124.1800 124.4900 124.6500
