118.7000 118.7000 118.4900 118.1200 118.2100 118.2100 117.8600 117.8700 117.8800 117.8600 117.8400 118.2100 118.1600 118.4800 118.4200 118.7000 118.6300 118.9500 119.1700 119.3800 119.6700 119.8500 120.1300 120.0600 120.5400 120.7200 120.9300 121.1600 121.3400 121.5300 121.9300 122.1400 122.2900 122.4700 122.8300 123.0000 123.1800 123.3300 123.6600 123.8200
118.2800 118.2472 118.0939 117.9614 117.8580 117.7390 117.6193 117.5799 117.7410 118.0343 117.6673 117.7126 117.5889 117.9595 118.1721 118.3186 118.5605 118.6613 118.8098 119.1315 119.3432 119.5692 119.7856 120.0490 120.0889 120.8983 115.6292 114.9869 121.6169 121.5105 121.7404 121.9842 122.2139 122.4407 122.6754 122.8530 123.0356 125.0133 125.0919 123.8200
117.8400 117.8051 117.6339 117.4872 117.3741 117.2736 117.6587 116.9442 116.3817 114.5396 116.1818 115.5058 118.4849 117.7827 117.7658 117.8813 118.0949 117.7436 119.6619 118.5824 119.0087 119.2370 119.5017 119.8124 119.9023 122.1178 127.8037 116.3508 121.5219 121.2776 121.5446 121.7969 122.0402 122.2857 122.5353 122.6255 124.1054 115.6932 122.2930 123.5600
117.3500 117.3473 117.1554 116.9997 116.8763 116.7307 113.1543 116.1729 112.6337 112.7374 113.1999 106.5838 108.9556 117.5669 117.0291 117.4574 117.6452 117.5546 118.9439 118.7446 118.6207 118.9171 119.1885 119.4455 119.7740 119.6922 120.4297 120.6221 120.8065 121.1106 121.3509 121.6143 121.8704 122.1140 122.2680 123.6168 111.2623 118.8376 125.3812 123.5600
116.8600 116.8647 116.6567 116.4558 116.3359 116.2542 115.9488 114.6928 112.4450 107.8865 115.1831 115.8625 115.1617 113.8868 116.8857 116.9488 117.1950 117.7066 115.1052 118.0073 118.2789 118.5868 118.8761 119.1721 119.4746 119.8348 120.0380 120.4919 120.5662 120.8852 121.1632 121.4361 121.7002 121.9508 122.2390 122.8994 118.5348 123.4296 129.7889 123.3100
116.3300 116.3567 116.1250 115.9106 115.6866 114.3462 115.1060 115.6527 116.6622 117.7083 105.7284 112.4258 113.9138 114.1665 115.9353 116.5527 116.7416 117.0302 117.3021 117.5710 117.9315 118.2463 118.5594 118.8725 119.1892 119.4923 119.7970 120.1022 120.4074 120.6962 120.9837 121.2592 121.5375 121.8038 122.0925 122.2209 122.8693 122.3739 124.5204 106.9800
115.7500 115.8318 115.5638 115.3215 114.9631 121.6943 118.3711 114.6373 114.9243 114.7082 111.2056 114.1689 115.7847 121.1426 116.0013 116.0439 116.2696 116.5682 116.8984 117.2362 117.5686 117.9132 118.2529 118.5826 118.9123 119.2467 119.5727 119.8851 120.1956 120.5052 120.8013 121.0880 121.3820 121.6574 121.9285 122.2161 122.4090 122.6575 123.1071 123.0400
115.7500 115.2767 114.9760 114.7168 113.7243 117.8044 108.3220 114.2993 114.0608 114.0697 115.0420 115.6225 114.3944 113.7149 114.7415 115.5318 115.7505 116.1135 116.4710 116.8370 117.2043 117.5688 117.9344 118.2904 118.6499 118.9919 119.3409 119.6695 120.0032 120.3204 120.6261 120.9272 121.2270 121.5158 121.7918 122.0616 122.5938 122.7231 123.4283 126.7800
115.1000 114.7026 114.3651 114.0163 113.5726 113.6973 105.9763 115.4224 113.7161 113.4981 113.8321 113.7854 113.9487 114.2596 114.8171 114.7354 115.2596 115.6287 116.0410 116.4336 116.8365 117.2592 117.6475 118.0267 118.3918 118.7547 119.1129 119.4542 119.7442 120.0633 120.4207 120.7730 121.0774 121.3728 121.6641 121.9501 122.2118 122.5505 122.6151 124.0700
114.4500 114.0836 113.7120 113.3101 113.0043 113.1041 101.3169 105.4105 108.6176 112.8055 112.6592 112.5877 112.9909 115.1405 109.7511 114.8832 114.6527 115.1505 115.5658 116.0494 116.3918 116.9260 117.1763 117.5183 118.0482 118.5361 118.8973 119.3370 119.7911 120.4354 120.2211 120.6484 120.9481 121.2478 121.5517 121.8357 122.1272 122.2993 122.4087 122.9200
113.7100 113.4806 112.9121 112.7633 112.3414 111.8932 106.1308 103.7084 105.6737 111.5871 111.0429 115.9586 114.9682 112.2467 103.1179 113.8255 114.0916 115.0560 115.3920 115.5965 116.2261 117.4969 117.5076 117.9634 118.0700 118.2533 118.7198 118.6002 121.7884 115.0672 120.2284 120.5122 120.8039 121.1303 121.4356 121.7358 122.0227 122.9193 124.1504 122.6700
113.6100 112.7372 112.6889 111.3971 103.6915 110.7217 110.6864 111.3616 111.2227 110.4701 110.6326 110.9483 108.8111 108.6204 112.5114 112.4587 113.5429 113.9277 112.5140 115.2602 115.9274 109.8190 115.0601 112.1213 113.4119 118.3562 118.5446 118.7834 121.8232 117.1643 120.0101 120.3918 120.6893 121.0190 121.3179 121.6342 122.0427 119.2108 114.7483 122.6400
112.8700 112.1350 111.4636 106.3744 111.2990 114.6509 108.8974 109.0951 109.0375 109.2595 109.5341 110.2288 108.2809 111.2496 111.8501 111.8671 113.3325 113.5870 113.1623 114.8410 115.5171 113.9693 119.1633 107.1253 114.1129 117.7444 118.6458 115.2624 119.7712 119.8365 119.8840 120.2347 120.5839 120.9120 121.3250 121.7495 121.5491 117.3793 107.1965 112.7600
111.8800 111.4198 111.0093 109.7662 106.2490 106.2001 107.2768 107.8470 107.7501 107.8948 108.3016 109.3941 108.5086 110.4110 111.3016 109.2144 112.4162 113.3181 114.1408 114.5178 115.2858 116.0023 117.2876 115.0614 117.6213 117.6267 118.2044 117.4379 118.9366 119.4126 119.7763 120.1399 120.4881 120.8488 120.6722 120.9395 122.4486 128.0826 109.4413 118.3900
111.0100 110.8910 109.4347 115.9483 107.5704 106.6967 106.8935 106.1803 106.0311 106.3051 106.8772 107.5893 108.6537 109.4992 110.2734 110.5380 111.9073 112.7117 113.4697 114.1766 114.8137 114.7900 116.6215 106.3321 118.3882 117.4863 118.1231 118.5841 118.8747 119.2811 119.6751 120.0457 120.3867 120.6109 124.1119 128.3429 106.0171 114.4178 118.1314 121.2900
110.8000 110.1752 108.3980 106.8944 106.6447 105.8813 104.7352 104.0712 103.9197 104.3376 105.1881 106.2567 107.3963 108.5142 109.5738 110.6213 111.4955 112.3466 113.1419 113.8724 114.5201 115.2892 117.5168 117.2120 112.4364 118.1156 117.8973 118.3133 118.7725 119.1882 119.5809 119.9597 120.4150 121.2473 109.7677 122.3233 113.1704 108.6128 124.2587 120.6000
110.6100 109.5115 108.4963 107.0996 105.5472 104.0557 102.5641 101.4229 101.1417 101.8551 103.2249 104.7587 106.2633 107.6420 108.8976 110.0260 111.0572 111.9826 112.8313 113.6123 114.3324 115.0510 115.5561 117.5707 105.9237 118.4607 117.7485 118.2307 118.6930 119.0979 119.5019 119.9024 120.3731 121.1125 120.2121 121.0448 115.5324 112.6623 123.4800 122.3400
109.6700 109.0268 107.6481 106.1056 104.3250 102.2425 99.8935 97.6468 96.9532 98.5678 100.9578 103.2219 105.1857 106.8686 108.3128 109.5773 110.6903 111.6954 112.5934 113.4139 114.1676 114.8801 115.5935 116.5199 117.2428 117.1221 117.7073 118.1759 118.6283 119.3369 119.4400 119.7044 118.5848 130.5237 118.5702 112.2724 115.8996 121.3987 123.0639 131.2100
109.5400 108.6869 107.1866 105.4404 103.2767 100.4644 96.7124 91.4465 90.1378 93.6783 98.6245 101.8490 104.3040 106.2664 107.8784 109.2471 110.4368 111.4884 112.4229 113.2493 114.0449 114.7482 115.4122 115.9535 116.4580 117.1594 117.6502 118.1479 118.3874 120.5595 119.3326 121.6090 119.6912 114.8039 114.6355 121.7326 113.9576 114.5873 116.3024 130.5900
109.4600 108.3599 106.9029 105.0243 102.6436 99.3136 93.7158 86.7186 85.3379 89.1602 96.8404 100.9576 103.7912 105.9322 107.6384 109.0739 110.2986 111.3712 112.4105 113.3834 113.9886 114.7099 115.3902 116.0173 116.6058 117.1103 117.6294 118.1020 118.4586 118.8329 118.9777 131.9590 127.8619 104.7148 121.9591 106.5506 118.2474 114.3829 113.4674 117.2000
109.4300 108.2144 106.9104 105.0194 102.6246 99.2832 93.5726 86.5588 85.0487 89.0549 96.8213 100.9431 103.7864 105.9252 107.6409 109.0735 110.3030 111.4622 112.2571 112.8949 113.9761 114.7121 115.3725 115.9869 116.5629 117.1111 117.6235 118.1071 118.5558 119.0117 119.3014 124.5846 125.3428 112.3801 121.8078 115.6160 119.5881 118.5951 117.6783 117.2400
109.5300 108.6805 107.1729 105.4044 103.2427 100.4399 96.2863 91.2304 89.8799 93.5053 98.6097 101.8071 104.2749 106.2380 107.8571 109.2368 110.4283 111.3360 112.1084 112.3853 114.0790 114.7678 115.4196 116.0287 116.6067 117.1426 117.6486 118.1234 118.6279 119.0595 119.3982 119.3237 119.2184 121.9082 122.6439 122.6457 116.5769 121.9525 123.0190 122.3100
109.6500 108.9992 107.6625 106.1049 104.2919 102.1680 99.7290 97.3869 96.6675 98.4209 100.8532 103.1738 105.1492 106.8538 108.3291 109.5898 110.7261 111.6988 116.8515 114.5019 114.2506 114.8499 115.5026 116.1064 116.6683 117.2030 117.7004 118.1535 118.7452 118.9232 119.6593 119.6055 120.2841 119.9727 126.2583 112.0241 114.9660 120.2869 121.4062 122.3200
110.5900 109.5432 108.3430 107.0115 105.5485 104.0017 102.4434 101.2879 100.9860 101.7215 103.1450 104.7110 106.2216 107.6037 108.7127 109.9361 111.0050 111.8188 116.9975 114.0905 114.4611 114.9882 115.6281 116.2171 116.7697 117.2876 117.7843 118.1851 118.7349 122.1635 113.6825 121.1873 120.7369 122.4293 131.6211 112.1436 108.8038 117.9732 122.8748 122.3200
110.7700 109.8211 108.8964 107.9684 106.8747 105.6948 104.6871 103.9781 103.8084 104.2381 105.1236 106.2088 107.3540 108.6583 110.5682 110.6541 111.4430 112.3665 113.1617 113.7909 114.5886 115.1901 115.7942 116.3610 116.8912 117.4011 117.8789 118.3175 118.7296 120.5298 108.1897 112.5591 119.6057 109.5108 120.5841 120.5080 108.7973 115.9080 115.9613 122.5300
110.9800 111.0481 109.1031 109.2577 108.0738 107.2269 106.5085 106.0514 105.9467 106.2202 106.8092 107.5900 108.4873 109.1217 110.2429 104.6601 112.5970 112.7056 113.4505 114.1524 114.8041 115.4121 115.9909 116.5312 117.0515 117.5404 118.0072 118.4434 118.8692 119.3001 119.3709 131.8894 113.5349 114.0302 109.7828 122.2431 121.8411 122.2536 122.0600 122.5500
111.8500 112.0955 110.7564 109.8614 109.2298 108.5770 108.0558 107.7379 107.6573 107.8505 108.2646 108.8513 109.5362 110.1965 111.3738 111.6486 112.4126 113.2083 113.8536 114.4697 115.0927 115.6704 116.2163 116.7271 117.2279 117.7008 118.1545 118.4800 119.0046 119.4044 119.9378 115.7559 111.9698 105.6202 117.4599 109.8283 120.6857 121.3723 123.4660 122.5600
112.6400 112.1245 111.4087 110.9232 110.2761 109.7746 109.3854 109.1499 109.0910 109.2325 109.5420 109.9875 110.5311 111.1370 111.7664 112.3652 113.0339 113.7343 114.3887 114.6360 115.4564 115.9466 116.4834 116.9820 117.4307 117.8776 118.3094 118.6965 119.1198 119.2702 120.5249 111.0405 106.9801 109.8933 111.8749 119.2118 114.4436 120.6770 132.3425 114.0200
112.8600 112.7802 112.2432 111.7549 111.2438 110.8471 110.5412 110.3616 110.3204 110.4293 110.6689 111.0196 111.4609 111.9530 112.4873 113.0487 113.5864 114.2213 110.1906 117.0327 115.6474 116.1580 116.5942 117.0854 117.6284 118.0788 118.5164 118.9910 119.0953 121.0842 120.7997 115.6583 121.1228 121.8953 116.0004 119.3014 123.1524 119.8759 121.7353 114.1500
113.6000 113.7039 112.9496 112.5329 112.1456 111.8177 111.5740 111.4325 111.3990 111.4805 111.6800 111.9141 112.3118 112.7181 113.1851 113.6592 114.1835 114.7042 116.5272 118.6725 115.9324 117.1485 118.0525 118.6642 117.8491 118.2956 118.6756 118.8118 117.9612 125.2926 116.8538 114.1975 115.4736 116.1116 119.4948 112.6012 123.4241 111.5357 118.0694 122.8500
117.7600 114.3094 113.7050 113.3009 112.9497 112.6833 112.5018 112.3854 112.3537 112.4244 112.5853 112.7763 113.1020 113.4531 113.8445 114.3365 114.6885 114.9706 115.1904 115.8566 116.1291 117.8052 115.3728 110.9952 118.0222 118.5191 118.8552 121.1667 124.7412 124.0464 112.7425 105.0611 106.5811 108.1940 107.7079 118.4313 121.6054 115.7951 123.3945 122.8800
114.4600 113.8827 114.3526 114.0003 113.7632 113.5465 113.3296 113.2449 113.2210 113.2829 113.4394 113.3222 113.8500 114.1514 114.4764 114.8410 115.2195 115.6234 116.0409 116.3850 117.1379 113.3051 115.9119 104.6518 123.4630 118.5524 119.2160 120.0350 121.8107 114.8817 111.0999 106.9118 109.6831 113.0767 128.4274 122.4688 121.8671 121.2522 116.5795 114.6200
115.2000 115.2629 115.1207 114.2302 114.2524 114.1521 114.0892 114.0220 114.0041 114.0512 114.1617 114.3297 114.5274 114.7876 115.0835 115.4117 115.7201 116.0939 116.3680 117.2429 117.3678 115.7977 120.0292 99.9232 107.6731 118.8873 119.7961 124.3438 108.7316 110.1623 108.7316 108.8462 119.6132 120.1958 121.4956 121.4332 124.7611 122.6445 122.0049 120.3800
116.2500 115.8115 115.6097 115.8180 119.5720 114.7644 114.8033 114.7421 114.7300 114.7669 114.8522 114.9929 115.1780 115.3992 115.6573 115.9397 116.2804 116.3997 117.9337 115.6583 115.3161 117.0288 124.9245 112.0952 107.5314 116.7772 111.9629 120.7865 115.0871 118.3762 107.2678 111.6126 122.3920 121.8027 121.9039 121.9969 126.9594 136.4484 123.2906 109.4900
116.2500 116.3319 116.1800 115.4079 115.5221 115.6055 115.4403 115.4071 115.3868 115.4234 115.4995 115.6260 115.7852 115.9744 116.2028 116.4466 116.7550 115.1167 117.3358 117.4170 118.6555 120.6827 113.0176 111.6566 106.4285 110.7370 110.5777 120.8860 120.5034 119.4587 121.7512 120.6160 121.1693 121.8472 122.1167 122.6577 115.2184 107.3835 112.9221 107.9800
116.8000 116.8354 116.6160 116.5354 116.3165 116.1473 116.0747 116.0189 116.0116 116.0397 116.1050 116.2073 116.3463 116.5224 116.7255 116.9763 117.1608 117.4099 117.6747 118.1858 111.6556 117.2244 103.0138 109.0815 114.4518 116.3132 120.2930 118.4184 120.6786 121.0220 120.9030 118.8395 116.4486 121.9472 122.2182 122.4212 123.1968 122.3298 120.0408 123.2400
117.3000 117.3261 117.1405 116.9548 116.8177 116.7175 116.6367 116.5956 116.5809 116.6134 116.6732 116.7653 116.8850 117.0464 117.2117 117.4042 117.5385 118.0088 118.4653 115.9444 115.6781 115.8616 122.4557 107.8524 120.8202 121.2444 120.0661 120.5328 120.8139 121.0180 121.9372 127.3620 122.7001 122.0154 122.3938 122.5971 122.7517 123.2465 123.4119 123.4600
117.7800 117.7880 117.6116 117.4657 117.3429 117.2401 117.1754 117.1309 117.1246 117.1484 117.2003 117.2832 117.3903 117.5245 117.7246 117.8236 118.2191 111.4177 116.3894 109.6212 123.4074 119.2093 119.8420 118.9626 120.6862 120.1989 120.9563 120.9747 121.0525 120.9327 119.3320 112.8281 115.5064 122.6385 122.4601 122.7346 123.1315 122.0684 123.5329 123.5000
118.2200 118.2297 118.0767 117.9405 117.8154 117.7424 117.6783 117.6448 117.6325 117.6536 117.6971 117.7755 117.8796 118.0242 117.9621 118.5980 118.6957 125.0294 118.6864 109.5247 119.1793 119.5580 119.9059 119.8958 120.1389 120.4454 122.0218 121.0428 121.2287 122.5887 117.6520 101.0575 108.8876 123.4179 122.5319 122.9007 123.0400 123.0552 123.5894 123.7100
118.6600 118.3800 118.4600 118.1000 118.2000 118.2000 117.8400 117.8700 117.8800 117.8600 117.8300 118.1900 118.1500 118.4600 118.3900 124.5000 124.5000 106.3500 102.3800 107.1100 119.5800 119.7800 120.0500 120.2700 120.4100 120.6500 120.9000 121.0700 121.4600 121.6900 111.0800 108.4100 122.4000 122.5800 122.7600 122.9300 123.2700 123.4300 123.5900 123.7500
