128.4800 119.8900 120.3200 116.5900 119.5100 119.5100 114.1800 110.3100 108.8800 109.1700 109.1700 118.7000 118.7000 118.7000 119.0300 119.0300 118.9600 119.2600 119.2100 119.4600 119.4200 119.7000 119.9200 120.1100 120.1100 120.5600 120.5600 120.7200 120.9700 121.1200 121.5700 121.5700 121.9100 122.1200 122.2600 122.4400 122.8100 122.8100 123.1300 123.1300
126.3900 123.2362 118.1532 119.5620 106.0102 115.0804 109.5006 110.4238 109.6449 105.5699 118.4232 118.4966 118.6191 118.5841 118.6406 118.5687 119.4549 118.5204 119.0668 119.1418 119.2765 119.4454 119.6197 119.8046 119.9867 120.2567 124.7767 118.1041 120.8758 120.9883 121.2696 121.4913 121.7106 121.9296 122.1463 122.3648 122.5828 122.7937 123.0043 123.0800
119.4200 116.3073 116.0699 118.5585 112.0865 111.6159 113.5250 107.4596 111.4379 109.0265 105.5069 118.8866 118.1452 118.1092 118.1579 118.6975 114.8275 116.1013 118.6511 118.7447 118.8932 119.0750 119.2687 119.4682 119.6926 119.8300 120.8525 121.7476 120.9661 120.7859 121.0343 121.2590 121.4914 121.7227 121.9502 122.1788 122.4066 122.6493 122.8925 123.0800
119.0200 112.0879 109.9989 118.4881 109.0810 114.1095 110.1277 108.3217 102.8345 114.6732 106.5353 119.1735 117.6840 117.6570 117.7139 117.8456 116.3253 118.6089 118.1123 118.3336 118.4946 118.6902 118.9048 119.1187 119.3348 119.5575 120.3516 120.1227 120.2994 120.5375 120.7848 121.0300 121.2781 121.5197 121.7545 121.9980 122.2170 122.4827 122.5396 122.7800
118.5900 110.2695 113.4226 118.1491 102.7446 114.7858 112.7326 103.2495 107.8833 104.6326 112.3967 117.9458 117.1310 117.0417 117.2023 117.2623 117.5656 117.4842 117.7073 117.8878 118.0853 118.2959 118.5175 118.7594 119.0033 119.2665 119.4093 119.7066 120.0197 120.2811 120.5457 120.7949 121.0586 121.3084 121.5592 121.8147 122.0705 122.0640 125.2765 122.7200
118.5900 118.9344 118.2108 110.4692 112.8787 109.6881 103.3349 102.7952 109.3250 106.6291 111.5163 117.0922 116.7229 117.5520 116.6643 116.7780 116.8841 117.0660 117.2305 117.4334 117.6533 117.8885 118.1348 118.3956 118.6581 118.9248 119.1971 119.4689 119.7548 120.0218 120.3013 120.5747 120.8405 121.1108 121.3668 121.6347 121.8771 122.1083 122.8704 122.4800
118.0900 115.0558 104.5720 122.3850 117.1510 101.9139 109.9514 113.6830 113.6641 112.9036 111.7762 116.0604 116.1891 116.0637 116.1331 116.2107 116.3697 116.5384 116.7443 116.9699 117.2118 117.4614 117.7402 118.0182 118.3067 118.5965 118.8934 119.1853 119.4777 119.7623 120.0595 120.3459 120.6248 120.9056 121.1805 121.4530 121.7108 121.9796 122.2167 122.4200
117.6500 116.1510 114.1353 110.2617 110.3781 106.7094 101.0443 114.7100 114.7898 118.6838 114.0282 115.7622 115.3961 115.4247 115.5111 115.6376 115.8004 115.9955 116.2015 116.4679 116.7491 117.0302 117.3258 117.6383 117.9501 118.2570 118.5729 118.9052 119.1728 119.4953 119.8195 120.1226 120.4157 120.7137 120.9954 121.2774 121.5579 121.8207 122.0931 122.1800
117.1300 120.2017 117.3069 96.5118 106.0516 99.9370 103.1640 118.7652 113.9803 114.8946 114.0614 114.8799 114.7323 114.7623 114.8679 115.0094 115.1919 115.4092 115.9033 116.1064 116.2313 116.5923 116.9110 117.2408 117.5885 117.9236 118.2809 118.6600 119.2274 119.2431 119.6079 119.8996 120.2132 120.5206 120.8211 121.1169 121.3981 121.6912 121.9073 122.1300
117.0700 113.3345 113.8761 108.6251 104.2830 109.4775 101.6844 109.3245 113.9255 114.3373 114.1728 113.9697 114.0097 114.0555 114.1706 114.3180 114.5880 114.7917 114.8568 112.9425 115.8815 116.1235 116.4407 116.8510 117.2177 117.5915 117.7980 118.3601 114.0627 119.4783 119.3487 119.6851 120.0225 120.3317 120.6440 120.9531 121.2468 121.4136 121.8419 122.0700
116.5700 114.8192 113.1448 110.2427 105.7065 111.4424 108.7370 114.0543 113.8970 113.5661 113.6805 114.2268 113.2537 113.2678 113.3995 113.8869 113.7321 114.1410 114.6987 115.0369 115.2947 115.8299 116.3938 116.3665 116.8532 117.2787 117.6331 121.0098 111.5278 119.4951 119.0750 119.4871 119.8283 120.1551 120.4911 120.8002 121.1168 122.2067 123.0717 110.4000
115.9300 116.0773 117.2532 114.6004 115.1063 110.1069 104.6943 116.2069 112.0649 112.6445 112.4721 112.2829 112.3669 112.3583 112.5576 112.6465 113.2697 113.5056 113.8765 114.3002 114.6782 112.5552 115.1958 116.0694 116.4992 116.9138 117.6102 119.3677 119.9880 118.4494 118.8843 119.2859 119.6417 119.9913 120.3139 120.6640 121.0756 117.9933 112.8650 121.7400
115.9300 115.9237 105.6138 120.1202 117.2087 108.2140 110.8263 112.1827 112.0655 111.8447 111.5546 111.4448 111.4156 111.4501 111.6355 111.5738 112.3479 112.7522 113.2129 113.7397 114.2325 114.5911 114.5843 115.6866 116.1535 116.5718 116.8745 116.1861 117.2036 118.4349 118.7943 119.1019 119.4724 119.8288 120.2266 120.6670 121.8329 118.5524 107.0747 114.0600
115.2500 116.8999 105.2104 116.2676 112.0922 114.6973 110.4167 111.6851 111.2039 110.8037 110.5215 110.3434 110.3170 110.3925 110.6779 111.0780 111.4843 112.0002 112.5261 113.0905 113.5060 113.5831 114.8204 115.0986 115.8014 116.2676 116.6727 116.9262 117.7393 117.4989 117.9782 118.9882 119.3191 119.6808 119.8451 119.8269 112.1655 129.5708 112.4463 114.0600
114.6700 108.6303 105.9921 111.0831 118.9912 113.8970 110.6329 110.8768 110.2214 109.7215 109.3501 109.1274 109.0967 109.2613 109.5777 110.0335 110.5798 111.1861 111.8173 112.4522 113.1322 113.6419 115.7751 115.9583 115.4011 115.9884 116.5985 117.0573 117.3626 122.1068 118.8452 118.9644 119.1088 119.4823 121.7933 129.6084 118.1816 109.6307 122.3377 121.4100
114.5300 113.9535 114.0342 115.9246 112.6182 111.2444 110.4568 109.8540 109.1461 108.5088 108.0038 107.7123 107.6626 107.8746 108.3084 108.9082 109.5872 110.3349 111.0863 111.8199 112.5534 113.7719 113.3252 114.3848 115.1263 115.7191 116.2597 116.7576 117.2956 118.2566 118.1015 118.6262 119.0319 119.5105 121.7601 121.3548 120.5980 119.5736 121.2353 121.3800
114.4200 114.7284 104.9723 111.9838 111.1185 110.7569 109.7611 108.8716 107.9734 107.1321 106.4449 106.0202 105.9565 106.2571 106.8682 107.6595 108.5473 109.4512 110.3508 111.2121 112.0405 112.7992 113.6466 113.9951 114.8566 115.4674 116.0378 116.5715 117.1371 117.6106 118.0449 118.4901 118.8753 119.6084 119.8404 119.4650 120.5146 120.9417 121.1605 121.3500
104.0600 99.9246 116.8518 111.4599 111.0149 109.9872 108.9681 107.8576 106.7030 105.5844 104.5802 103.9285 103.8259 104.2954 105.1962 106.3015 107.4441 108.5746 109.6415 110.6366 111.5573 112.4373 113.2608 114.0046 114.6061 115.2435 115.8509 116.4099 116.9378 117.5707 117.9391 118.1747 119.1017 118.9208 119.1130 114.2066 119.3263 120.0237 117.5672 121.3200
105.1000 103.8560 113.6802 108.5117 110.5409 109.3205 108.1964 106.8523 105.3837 103.8214 102.2939 101.2006 101.0163 101.8214 103.2650 104.8330 106.3418 107.7283 108.9690 110.0899 111.1163 112.0481 112.8775 113.6583 114.3933 115.0653 115.6800 116.2924 117.0109 117.5521 117.6186 121.4182 118.7750 104.6222 119.6746 108.3106 110.2941 115.6733 113.5218 121.3000
123.9500 111.6821 112.2343 111.6257 110.2153 108.8756 107.5144 105.9334 104.0866 101.9176 99.5367 97.2289 96.7407 98.6902 101.0530 103.3599 105.3149 106.9862 108.4307 109.7609 110.7894 111.7704 112.6772 113.4838 114.2302 114.9152 115.5597 116.1702 116.6689 117.4253 117.6120 128.1660 117.0727 113.3233 120.4294 112.7898 122.0914 121.1984 121.6767 121.2800
113.5700 103.3429 112.5937 110.8453 109.6997 108.5051 107.0089 105.2114 102.9947 100.0871 96.0543 90.8545 90.0597 93.9076 98.9185 102.0511 104.4769 106.3810 107.9675 108.9816 110.5750 111.5640 112.5035 113.3475 114.1126 114.8259 115.4773 116.0867 116.6689 117.2354 117.1929 117.1714 119.6763 119.5081 119.9484 120.4611 119.8652 120.4497 120.8152 121.2700
113.5100 114.2784 112.0853 110.8358 109.8680 108.3022 106.7369 104.8138 102.3469 98.9039 92.7130 86.0693 85.2129 89.7431 97.3326 101.2548 104.0047 106.2067 107.7413 110.5136 110.4460 111.4562 112.4235 113.2825 114.0607 114.7744 115.4349 116.0440 116.6759 117.3728 117.9608 118.2776 118.3670 118.9359 119.5552 120.2339 120.0453 120.3820 120.9691 121.0300
113.5100 112.4202 111.7912 110.7986 109.7375 108.3152 106.7443 104.8244 102.3664 98.9395 92.9115 86.3724 85.3040 89.8179 97.3693 101.2905 103.9937 106.1618 109.8866 110.8751 110.5444 111.4563 112.4225 113.2808 114.0643 114.7723 115.4385 116.0145 116.7069 116.5956 117.4161 118.0828 118.6826 118.1706 123.4009 112.9949 121.3695 121.7151 120.8885 121.2600
120.3100 112.2901 112.0273 110.9355 109.7760 108.5266 107.0312 105.2463 103.0574 100.1848 96.2951 91.1575 90.2526 94.2097 99.0237 102.1242 104.5200 106.4655 108.0930 109.8358 110.5839 111.5691 112.5125 113.3557 114.1210 114.8270 115.4809 116.0181 116.6178 123.5430 119.0704 118.3611 118.4614 120.3560 130.3264 103.5266 120.7782 110.1253 121.6891 121.2600
120.5600 112.8477 112.1985 111.1602 110.1046 108.9151 107.5535 105.9870 104.1693 102.0419 99.8518 97.4968 97.0279 98.8757 101.2082 103.4570 105.3737 107.0120 108.4482 109.6548 110.8223 111.7828 112.6818 113.4882 114.2369 114.9240 115.5646 116.1458 116.6834 118.8271 105.3893 119.5341 119.1083 118.9521 120.3921 118.3662 119.7252 119.3775 121.1116 121.2700
113.7900 113.2220 112.3700 111.4888 110.5095 109.4282 108.2355 106.9153 105.4696 103.9420 102.4419 101.3614 101.1733 101.9797 103.3991 104.9332 106.4138 107.7783 109.0244 110.1314 111.1470 112.0712 112.9140 113.6869 114.4076 115.0696 115.6940 116.2747 116.8220 117.3351 117.5503 129.4918 111.1777 111.0029 104.5094 121.5564 120.2991 120.5778 121.0802 121.2800
113.7500 113.5102 112.7144 111.8857 111.0019 110.0418 109.0204 107.9207 106.7885 105.6823 104.6964 104.0535 103.9507 104.4183 105.3004 106.3859 107.5214 108.6296 109.6827 110.6682 111.5850 112.4235 113.2092 113.9382 114.6267 115.2567 115.8592 116.4186 116.9531 117.4261 117.4681 120.8837 106.8196 104.1171 111.9311 112.4003 116.9396 110.6466 120.2799 121.2900
114.3500 113.7917 113.1010 112.3444 111.5454 110.7089 109.8331 108.9295 108.0516 107.2126 106.5362 106.1179 106.0440 106.3531 106.9519 107.7351 108.6169 109.5158 110.4174 111.2689 112.0681 112.8297 113.5543 114.2323 114.8813 115.4829 116.0509 116.5922 117.1468 117.5578 119.4106 108.8806 112.5092 110.3101 118.5297 120.7468 121.0450 121.8145 121.6996 121.3100
114.4600 114.2337 113.5174 112.8401 112.1272 111.3970 110.6527 109.9175 109.2061 108.5749 108.0829 107.8013 107.7501 107.9552 108.3797 108.9739 109.6590 110.3945 111.1276 111.7546 112.5964 113.3122 113.9696 114.5889 115.1650 115.7163 116.2692 116.7206 117.1358 117.8302 118.1629 127.0748 120.7837 118.9207 121.7990 120.5290 120.2697 120.4412 119.7603 121.3300
112.9300 114.5449 113.9423 113.3293 112.7226 112.0898 111.4534 110.8421 110.2788 109.7906 109.4171 109.1597 109.1411 109.3194 109.6350 110.0960 110.6275 111.6095 112.8809 112.5198 113.1468 113.6503 114.1957 114.9046 115.4158 116.0482 116.5133 117.1318 117.0642 120.9545 113.0348 107.8382 111.6814 106.2977 114.6011 117.9287 120.5955 121.0955 116.7355 121.6100
112.9300 114.9289 114.5907 114.0134 113.2526 112.7735 112.2159 111.7131 111.2660 110.8633 110.5733 110.6028 110.3797 110.5079 110.7476 111.1110 111.5294 111.8706 108.7286 113.3695 113.3238 115.6220 115.8254 115.2288 115.6514 116.2404 116.8189 116.3783 120.7199 119.5352 105.3800 106.2624 111.4197 115.0392 113.3067 115.4427 120.9081 120.7624 121.5832 121.6400
115.8500 115.2896 114.6360 112.4952 114.4697 113.3951 112.9338 112.5378 112.1505 111.7944 111.2607 109.5725 111.4255 111.5540 111.7454 112.0267 112.3927 113.3022 113.2663 113.7035 114.7405 109.4667 116.8378 105.2480 119.3477 116.7967 117.1787 117.4090 123.9677 112.1730 105.0804 108.3615 106.5562 113.5869 121.8999 121.1249 120.7297 122.4943 121.0990 121.6800
115.8500 116.0648 116.1950 112.0222 113.3921 114.0582 113.6742 113.2960 112.9845 112.6553 112.1951 112.3545 112.3810 112.4806 112.6349 112.8755 113.1800 113.4749 113.9092 114.3486 114.7278 112.5267 113.6401 101.5640 105.3756 116.8995 117.0758 119.0316 107.7931 111.7061 102.5771 115.9173 116.8757 116.4178 120.4155 120.3460 121.2719 121.8195 121.0314 110.1100
116.5000 117.1700 102.6594 111.9749 116.7422 114.7088 114.3085 114.0104 113.7457 113.4759 113.3666 113.2619 113.2593 113.3250 113.4544 113.6517 113.9011 114.2528 114.5304 114.8768 115.4958 116.1923 122.9715 111.2211 106.9191 118.1793 117.2704 118.1606 115.9602 120.0560 102.8926 120.8254 119.3898 120.2236 120.5440 120.8205 122.3664 136.5625 123.3036 108.5900
116.9800 116.6451 115.2816 113.7451 115.1049 115.2183 114.9685 114.6799 114.4514 114.2723 114.1338 114.0572 114.0424 114.0963 114.2121 114.3758 114.5957 115.1973 115.1886 115.1801 118.1042 106.1385 112.8492 110.0890 113.6674 130.9339 116.7785 118.4739 118.7972 118.8218 119.1305 119.4142 120.0257 120.3318 120.6770 120.9570 119.4666 126.2019 108.0088 113.8800
117.1300 117.0108 116.5811 116.5727 116.2843 115.8129 115.5410 115.3060 115.1038 114.9457 114.8269 114.7685 114.7564 114.8029 114.8926 115.0389 115.2257 115.4350 116.0253 116.8782 108.9022 109.3634 110.9808 105.0178 108.4566 119.1683 118.0739 118.6015 119.0008 119.1720 119.5282 120.0911 120.9939 120.4573 120.8194 121.1752 120.3579 120.9146 121.6360 122.0500
117.5800 117.5114 117.0286 116.8433 116.5930 116.3384 116.1023 115.8940 115.7197 115.5831 115.4854 115.4293 115.4206 115.4729 115.5915 115.6892 115.8446 116.0609 115.5214 112.1822 114.3321 117.6180 119.5403 107.1002 108.6433 119.4669 118.5718 118.9173 119.2450 119.5625 117.0558 119.9817 120.6023 120.7586 121.0037 121.3084 121.8173 121.9276 121.9644 122.2900
118.0400 117.8571 117.6370 117.1373 117.0781 116.8487 116.6424 116.4490 116.2968 116.1757 116.0966 116.0424 116.0355 116.0193 115.9807 116.2151 116.2673 116.5770 117.5763 115.9366 115.8921 117.3913 116.7903 118.0229 118.9850 118.4793 119.0301 119.2061 119.4719 119.8622 119.4467 119.3617 120.7597 120.8768 121.2006 121.4349 121.7298 120.9159 122.3369 122.3400
118.4900 118.2521 117.4895 118.5377 117.7398 117.3070 117.1260 116.9821 116.8412 116.7367 116.6601 116.6183 116.6342 116.7650 117.0175 117.3588 111.9452 117.9769 118.8863 110.5393 117.2951 118.0084 118.1649 118.4917 118.6676 118.9253 119.6591 119.5326 119.7425 120.7211 124.1626 122.6698 116.2148 121.1629 121.4294 121.6393 121.9252 121.6331 122.4647 122.5800
118.5500 118.5500 118.0300 112.0900 117.8100 117.8100 117.5300 117.2100 117.2700 116.8900 116.9200 116.9600 116.9600 116.9500 116.9000 99.6000 100.3900 119.8200 114.5900 117.8400 118.1000 118.3200 118.3200 118.5500 119.1000 119.0500 119.5900 119.7700 120.0000 120.2300 109.5300 106.7800 121.0900 121.3000 121.5000 121.7000 122.0800 122.2600 122.4500 122.6300
