110.9100 111.2900 116.6700 116.6600 113.9600 110.1000 108.5200 109.6100 107.7400 103.5000 103.1200 118.6900 118.7000 118.7000 118.6900 119.0400 119.0200 118.9800 119.2800 119.2300 119.4900 119.4300 119.6600 119.8700 120.1500 120.0800 120.3300 120.5100 120.7600 120.9200 121.1500 121.3200 121.7400 121.7400 122.0800 122.2700 122.4700 122.6200 122.7900 122.9600
110.9100 111.7846 116.9225 118.8549 116.2953 103.0247 111.2968 112.1897 112.6456 109.7212 119.2177 119.6956 118.6034 118.6145 118.5843 118.6805 118.2295 118.7061 118.9139 119.0102 119.1349 119.2879 119.4489 119.6293 119.8342 120.7829 118.4135 115.2768 120.6682 120.7671 121.0561 121.2697 121.4917 121.7129 121.9350 122.1562 122.3214 122.4953 122.8027 122.9000
112.9200 111.2441 115.8722 118.8362 108.4739 101.1296 105.6124 98.1942 108.5869 102.2584 117.6690 111.1974 118.7018 117.8348 118.1701 117.4489 123.9157 114.8312 118.5089 118.6106 118.7393 118.9058 119.0776 119.2730 119.4593 119.6936 118.9367 121.9893 121.0318 120.5694 120.8168 121.0297 121.2657 121.4976 121.7263 121.9819 122.1816 122.8843 122.9016 122.9000
120.5100 117.2475 119.5223 107.8861 112.4726 110.0119 98.0201 106.1803 106.7469 120.1496 101.5496 106.1155 117.3256 117.5757 117.6586 117.3102 117.8280 117.5021 118.0230 118.1707 118.3163 118.5026 118.6978 118.9044 119.1473 119.3051 119.8638 119.8125 120.0832 120.2921 120.5439 120.7909 121.0350 121.2805 121.5238 121.7180 122.4122 117.4922 122.9717 122.6000
109.3900 106.4884 115.9793 105.3594 100.6641 121.2925 96.0050 114.9467 97.0255 100.0156 111.7737 119.2571 117.6872 117.0410 117.1660 117.2319 117.2932 117.4036 117.5592 117.7091 117.8885 118.0886 118.3040 118.5315 118.7612 119.0280 119.1950 119.4914 119.7722 120.0399 120.2851 120.5439 120.8021 121.0667 121.3129 121.5773 121.9288 120.8787 116.0554 109.4300
109.3900 109.1330 118.4617 106.8188 107.6431 110.9429 102.5877 116.5563 98.1831 123.1011 115.8543 116.7305 118.2594 117.2682 116.5953 116.6706 116.7790 116.9068 117.0536 117.2368 117.4385 117.6567 117.8970 118.1411 118.4033 118.6623 118.9317 119.2150 119.4835 119.7580 120.0316 120.3073 120.5817 120.8457 121.1170 121.3727 121.6357 121.9638 122.1508 122.2900
110.1800 102.1169 108.5886 108.2714 98.5475 108.3285 109.5370 100.3918 105.0247 101.6880 104.6768 116.3955 116.3919 116.0213 116.0472 116.1136 116.2249 116.3730 116.5434 116.7499 116.9655 117.2121 117.4717 117.7395 118.0229 118.3124 118.6025 118.9029 119.1935 119.4851 119.7770 120.0691 120.3536 120.6304 120.9127 121.1825 121.4596 121.6788 122.0864 122.0400
109.6700 107.0595 91.7243 120.5699 119.8680 102.4971 109.7111 113.5838 117.3625 117.1155 116.3637 116.0637 115.4050 115.3882 115.4277 115.5133 115.6427 115.8070 115.9940 116.2046 116.4928 116.7552 117.0341 117.3351 117.6395 117.9545 118.2467 118.5913 118.8777 119.2209 119.5224 119.8288 120.1316 120.4244 120.7207 121.0067 121.2803 121.5735 121.8676 121.9900
114.0400 114.2762 100.8593 102.9963 104.1851 108.0466 113.4441 117.7104 115.3063 115.0209 112.4020 114.7774 114.7505 114.7197 114.7739 114.8736 115.0134 115.2083 115.4124 115.8485 115.9231 116.2827 116.5852 116.9192 117.2573 117.5992 117.9725 118.6574 118.7774 118.8814 119.2699 119.5898 119.9184 120.2210 120.5256 120.8278 121.1062 121.4163 121.5469 121.9300
117.2900 112.9306 112.3896 99.0690 99.2319 98.0248 106.3455 110.2563 114.2278 114.4432 114.3713 114.0129 114.0198 113.9942 114.0565 114.1477 114.3232 114.5458 114.7642 113.4344 115.6061 115.7647 116.0399 116.5165 116.8511 117.2256 117.6106 115.1968 118.0148 119.6342 118.9571 119.3613 119.6993 120.0267 120.3398 120.6559 120.9640 120.9804 123.3997 121.6700
116.8700 115.0350 105.8181 117.1574 98.1921 103.0404 101.7653 113.7064 114.1883 113.6794 114.7564 115.3047 113.2557 113.2083 113.3272 113.4447 113.6382 113.8757 114.4325 113.0090 114.3683 114.9022 116.3665 115.8530 116.4840 117.0174 115.4973 118.1296 116.9076 117.0363 118.7196 119.2072 119.4969 119.8304 120.1674 120.4851 120.8644 121.4644 117.3594 113.0400
116.7900 112.5441 110.8768 112.5393 101.3556 99.6327 105.5357 112.2921 113.1781 113.0530 112.6162 112.4083 112.3996 112.3036 112.1153 110.7223 112.8421 113.1113 113.4784 113.4904 119.6770 111.7260 113.5154 115.7229 116.0727 116.7703 115.5268 122.3260 118.9193 117.2500 118.4306 118.7176 119.3144 119.6670 119.9647 120.3129 120.6851 120.6301 103.1235 113.0400
116.1700 110.5235 113.1505 111.4068 102.6406 114.5458 115.1131 114.2432 112.3800 112.0925 111.7961 111.5927 111.4644 111.3707 111.6469 111.7700 111.9924 112.3545 112.7687 113.3550 113.6195 115.7266 111.8782 115.0674 115.5145 116.1239 116.5178 116.1628 117.5182 117.9203 118.3192 119.2439 119.0206 119.5170 120.0347 120.1590 119.8278 125.4894 106.2540 106.9600
115.6600 108.7718 106.7507 111.2144 113.0114 117.6446 112.4161 111.7181 111.8204 111.1773 110.7940 110.5003 110.3359 110.2936 110.4005 110.6845 111.0628 111.5027 111.9992 112.5804 112.8382 113.7753 115.0194 115.1400 115.3287 115.8319 116.3167 116.8951 117.2785 117.4876 119.0323 106.8072 119.9482 119.2932 119.1619 121.2720 117.4759 112.2371 119.1947 106.0500
115.5300 110.9974 109.6193 104.5493 114.0569 111.9162 112.1634 111.4829 110.7473 110.2042 109.7116 109.3437 109.1290 109.1000 109.2648 109.5835 110.0383 110.5873 111.2039 111.8204 112.5573 112.6549 114.9058 102.4647 116.2657 115.3069 115.9984 116.5051 116.9931 117.4056 118.0308 116.2149 118.6850 119.4275 120.3432 117.7702 120.0206 103.1000 106.2940 106.5800
114.9900 118.2292 113.9476 113.8773 112.6653 112.0637 111.3125 110.5763 109.8303 109.1213 108.4899 107.9964 107.7049 107.6605 107.8838 108.3233 108.9212 109.6162 110.3505 111.1077 111.8335 112.5581 113.6227 117.2289 114.7122 115.2805 115.7088 116.2778 116.7875 117.2887 117.8766 118.3709 118.6338 119.1675 119.6221 119.0481 121.4643 108.4591 120.8023 121.1600
114.8700 100.3205 115.1660 112.6663 112.3150 111.5227 110.6357 109.7617 108.8513 107.9431 107.1103 106.4357 106.0113 105.9544 106.2745 106.8807 107.6796 108.5653 109.4828 110.3718 111.2336 112.0818 112.7814 113.5061 114.0346 114.8686 115.4834 116.0522 116.5887 117.1101 117.6078 118.0723 118.5581 119.2017 119.3423 119.4084 120.7332 120.8013 120.8680 120.9000
117.6900 107.4261 115.6684 112.3572 112.0383 110.9203 109.9816 108.9382 107.8271 106.6866 105.5426 104.5685 103.9206 103.8229 104.3205 105.2217 106.3191 107.4726 108.6018 109.6651 110.6568 111.5701 112.4733 113.3055 114.0023 114.6177 115.2589 115.8645 116.4209 116.9316 117.4426 117.6672 117.4065 117.9481 121.7564 110.1130 120.1562 119.1443 118.3445 116.9900
103.3000 107.9467 115.9541 111.7550 110.0407 110.4147 109.3885 108.1551 106.8217 105.3456 103.7876 102.2562 101.1853 101.0169 101.8571 103.3059 104.8713 106.3861 107.7599 109.0109 110.1354 111.1480 112.0594 112.8959 113.6792 114.4104 115.0804 115.6962 116.2960 116.7208 117.4779 120.2034 114.2581 103.6824 109.6566 110.0603 111.0499 113.2835 115.4943 116.6400
112.5700 110.4756 112.4971 112.0180 111.4187 109.9846 108.8527 107.4819 105.8926 104.0398 101.8481 99.4823 97.1908 96.7397 98.7288 101.1116 103.4079 105.3579 107.0195 108.4459 109.6972 110.8046 111.7973 112.6978 113.5015 114.2473 114.9312 115.5748 116.1770 116.7416 117.8024 124.5603 121.3114 108.0923 121.0600 121.3056 120.2373 122.2840 121.4176 120.8300
100.3100 112.8463 113.0670 111.9705 110.9598 109.7179 108.4818 106.9706 105.1651 102.9406 100.0031 95.9477 90.7421 90.0151 94.0804 99.0108 102.1155 104.5284 106.4356 108.0934 109.3841 110.5607 111.5941 112.5250 113.3666 114.1303 114.8424 115.4918 116.0947 116.6622 116.8230 116.1175 118.4201 119.7078 118.5935 119.5526 119.7280 119.9342 120.4463 120.8100
113.0800 113.3959 112.2717 111.5705 109.1455 109.5233 108.2236 106.6964 104.7627 102.2778 98.7971 92.4210 86.0378 85.1570 89.8811 97.4546 101.3388 104.1118 105.4034 107.9128 109.2114 110.4319 111.5003 112.4454 113.3016 114.0787 114.7906 115.4513 116.0658 116.6711 117.3997 118.0095 118.1185 118.3655 119.1574 119.4849 119.7981 120.3517 120.6071 120.8000
113.0700 115.1159 113.5168 112.4001 107.8707 108.7892 108.2532 106.7152 104.7732 102.2963 98.8473 92.8236 86.3786 85.3653 90.0468 97.4638 101.3643 104.2468 104.3876 108.0021 109.2136 110.4340 111.5026 112.4459 113.3000 114.0820 114.7875 115.4542 116.0844 116.5576 117.0037 117.6244 118.1527 117.1355 118.4714 119.3945 120.1206 120.2683 120.6141 120.8000
99.9800 98.2237 112.7567 106.6588 110.1944 109.8295 108.4787 106.9897 105.1991 102.9850 100.1527 95.6031 91.0680 90.3003 94.4278 99.0802 102.1882 104.5734 106.2040 108.1124 109.3894 110.5701 111.6075 112.5344 113.3748 114.1384 114.8411 115.4919 116.1442 116.6348 117.6737 117.7518 117.8201 123.4443 120.1822 108.3010 116.0023 118.4602 120.3397 120.8000
99.9300 95.8122 112.1806 111.8134 111.1511 110.0828 108.8824 107.5185 105.9469 104.1196 102.0080 99.6120 97.4778 97.0635 98.9093 101.2707 103.4988 105.4133 107.0831 108.4977 109.7233 110.8279 111.8073 112.7030 113.5065 114.2549 114.9378 115.5771 116.2514 117.1346 108.2980 117.9522 117.2764 119.3297 113.3536 118.1679 119.7088 119.2524 120.5810 120.8100
111.6300 112.5403 113.3015 112.3327 111.4520 110.4812 109.3820 108.2059 106.8834 105.4318 103.8825 102.3600 101.3390 101.1807 102.0160 103.4316 104.9700 106.4518 107.8076 109.0517 110.1583 111.1700 112.0912 112.9330 113.7044 114.4252 115.0846 115.7089 116.2853 116.7705 118.2848 123.1630 113.3995 115.1147 101.4897 119.3192 119.5061 120.2243 120.2856 120.8200
111.7300 114.2703 113.3926 112.6926 111.9196 110.5148 110.0382 108.9976 107.8899 106.7651 105.6457 104.6931 104.0439 103.9514 104.4371 105.3204 106.4115 107.5416 108.6538 109.7045 110.6941 111.6047 112.4427 113.2262 113.9554 114.6393 115.2760 115.8703 116.4439 117.1857 117.1038 123.2928 108.5513 104.4799 111.0584 113.7322 108.2962 112.0357 117.9744 111.0700
114.8100 114.4642 113.8152 112.9746 112.3615 107.8026 111.0594 109.7868 108.9139 108.0299 107.1990 106.5230 106.1135 106.0479 106.3658 106.9661 107.7670 108.6215 109.5422 110.4353 111.2742 112.0847 112.8517 113.5787 114.2532 114.8975 115.5004 116.0548 116.4219 116.9598 118.2961 116.9651 106.9069 115.7434 105.1179 121.8033 110.3623 116.7058 116.5123 114.6300
115.4600 114.7472 114.1736 113.5093 112.9668 112.3228 111.4029 110.6420 109.8877 109.1981 108.5654 108.0847 107.7858 107.7465 107.9608 108.3943 108.9695 109.7259 110.3818 110.4841 111.9066 112.6055 113.2978 113.9436 114.5728 115.1772 115.7422 116.3476 117.0969 119.0637 119.2252 117.5231 118.9588 116.3567 122.3149 120.7856 111.2820 119.9641 121.5175 121.1100
115.4600 115.2119 114.5000 113.9226 113.2382 112.6909 112.0301 111.4442 110.8286 110.2656 109.7670 109.3890 109.1789 109.1619 109.3227 109.6462 110.1061 110.4209 114.6810 112.4515 112.5756 113.0998 113.6936 114.3972 115.0043 115.4966 116.0718 116.5008 115.8812 123.6038 112.7183 106.8996 112.2590 111.3142 113.8998 119.7776 121.8223 113.8306 120.9195 121.1400
98.3500 116.2187 115.0169 114.4185 113.8711 113.3419 112.7583 112.2042 111.6997 111.1995 110.8287 110.6560 110.4067 110.3862 110.5013 110.7546 111.1039 111.4848 110.0776 112.0497 112.9877 114.0337 114.3690 114.8517 114.9439 115.8389 116.1060 116.8917 114.2928 126.8913 102.9939 102.6618 113.6020 108.1366 113.0341 119.9208 120.2366 116.9652 121.7976 121.1700
98.3500 115.7373 115.2966 109.6034 114.7901 113.7840 113.3930 113.0055 112.5434 112.0171 111.5742 110.4095 111.4772 111.4594 111.5460 111.7428 112.0288 112.4656 112.8035 113.2857 113.8816 113.1200 109.9314 116.2346 116.1396 116.1504 117.6294 118.3288 124.0725 119.2815 99.6228 104.4474 107.1668 115.9999 121.1721 120.6945 120.5891 122.8903 122.6169 121.4700
116.7000 116.4599 116.6312 114.0159 114.9313 114.4947 114.0470 113.6513 113.1783 113.7586 109.5084 112.8532 112.4143 112.4108 112.4819 112.6380 112.9015 113.1529 113.5431 113.9117 114.2952 113.7034 107.4598 95.2318 112.0641 116.7190 116.7469 107.8018 112.8137 104.6945 104.0192 111.3876 116.7826 119.6483 119.6230 120.2726 120.3973 125.0737 116.9183 107.4000
116.7600 117.7730 103.6035 112.2026 115.7678 115.0818 114.6646 114.3144 113.9560 113.6497 108.1780 113.9891 113.2819 113.2630 113.3236 113.4611 113.6466 114.3723 114.1704 114.4854 115.7868 114.2305 118.9217 101.0770 116.9098 116.3485 117.8617 118.0395 116.4838 103.5125 113.5055 118.1665 119.6492 119.9659 120.1627 120.5544 120.6611 130.0295 121.3924 112.0800
117.3100 116.7719 116.1807 114.3175 115.8088 115.6069 115.2340 114.9403 114.6128 114.6141 114.8003 114.0846 114.0549 114.0412 114.0924 114.2024 114.3823 114.8035 114.8670 115.5464 108.8190 103.1112 114.4499 103.3233 115.0134 105.3906 118.2251 117.6069 118.7835 118.0427 118.9257 119.6035 119.6260 120.0306 120.3876 120.4792 120.6357 118.8658 113.9272 106.0600
117.4300 117.3295 116.9623 117.5601 116.3950 116.1292 115.8001 115.5378 115.3170 115.0759 114.8664 114.8380 114.7654 114.7653 114.8021 114.9190 115.0598 115.2296 115.4555 115.6398 108.9322 100.0327 103.9234 102.7889 105.2985 118.9272 118.0936 118.2985 118.6356 118.8604 119.4737 114.8930 112.6387 120.9427 120.4580 120.7604 122.3548 109.8022 122.9244 121.8600
117.8700 117.8121 117.4563 117.1614 116.8749 116.5846 116.3327 116.1009 115.8899 115.7246 115.5866 115.4818 115.4332 115.4241 115.4798 115.5061 115.6000 115.8459 115.9114 116.3752 111.6235 117.7782 118.1909 100.9950 106.8740 119.3022 117.9678 118.6964 118.9238 119.1929 119.2573 118.9314 120.5209 120.4337 120.7559 121.0768 121.3204 122.2208 122.2291 121.9100
118.3100 118.1300 117.8305 117.5802 117.3064 117.0714 116.8405 116.6332 116.4519 116.2923 116.1723 116.0911 116.0473 116.0265 116.0073 115.9039 116.4474 115.9535 116.5749 122.1635 118.3319 117.1820 117.7990 119.2896 118.1782 118.1669 118.5674 118.8536 119.2453 119.4403 121.2343 124.3575 119.7756 120.6446 120.9286 121.1749 121.8179 121.2613 122.0098 122.1600
118.7600 118.4956 118.3972 117.9052 117.8775 117.5346 117.3220 117.1411 116.9757 116.8408 116.7368 116.6640 116.6205 116.6839 116.9128 117.4164 116.9161 111.8132 119.7863 105.9163 113.5910 117.7274 118.0004 118.0029 118.3156 118.6365 118.6426 119.2323 119.4766 120.4262 118.7592 111.8594 114.7511 121.5957 121.1217 121.3753 121.7044 119.1541 122.4225 122.4500
118.8100 118.8100 118.2400 113.6000 118.0100 117.7700 117.4900 117.5700 117.2400 117.3000 116.8700 116.9400 116.9500 116.9600 116.9400 116.9100 98.0600 118.4100 118.1500 118.1500 117.7900 118.0300 118.0300 118.2900 118.5800 119.1000 119.0500 119.2900 119.7700 120.0000 108.0000 108.2800 120.9200 120.9200 121.3000 121.5000 121.6900 122.0800 122.2700 122.4500
