107.1400 113.4200 112.9400 107.7700 104.0700 105.9600 106.2700 106.2700 106.1100 112.6400 105.3500 116.9000 116.9300 116.9600 116.9600 116.9500 116.9000 117.2900 117.2400 117.5700 117.5700 117.8800 118.1400 118.3900 118.3900 118.6100 118.9200 119.1100 119.4100 119.6000 120.1200 120.1200 120.5200 120.7500 120.9800 121.1600 121.5700 121.7600 121.9600 122.1700
107.1400 106.1330 107.9549 106.7318 107.5214 109.7706 112.2588 106.5506 96.9941 101.0091 118.8556 116.6323 116.9020 116.6868 116.6480 116.6381 116.8908 116.5479 117.0367 117.1167 117.2903 117.4934 117.7038 117.9383 118.1804 120.2659 120.9724 115.0100 119.2728 119.4763 119.7988 120.0692 120.3393 120.6114 120.8876 120.9597 121.3783 121.7879 113.7145 122.1500
110.8900 107.6972 105.2113 105.6068 108.9691 109.3376 112.5838 106.5199 97.5633 107.9715 99.2817 117.2145 115.8871 116.0699 116.0633 116.0705 115.7706 113.5696 116.5465 116.6072 116.7988 117.0231 117.2606 117.5114 117.8452 118.3041 119.1591 120.2304 119.3688 119.2079 119.5160 119.8081 120.0945 120.3767 120.6713 121.1447 123.4131 123.3409 104.8996 121.8300
96.2000 119.5899 106.9369 108.5422 104.0192 105.0066 98.3992 108.7887 105.7871 118.2119 102.6539 111.7639 115.5644 115.4661 115.4516 115.4742 115.8327 115.9001 115.8346 116.0861 116.2843 116.5350 116.8002 117.0843 117.3993 117.6650 118.1019 118.2600 118.6004 118.9421 119.2461 119.5570 119.8570 120.1776 120.2922 121.0924 106.2797 114.0814 105.4407 121.7700
109.4700 98.7254 104.9402 106.9970 102.6506 102.3939 98.7984 116.0752 100.1980 110.0121 110.1445 116.3722 114.8322 114.8043 114.7905 114.8270 114.8786 115.0445 115.2742 115.4912 115.7484 116.0279 116.3288 116.6409 116.9627 117.3225 117.6108 117.9814 118.3035 118.6445 118.9790 119.2994 119.6246 119.9381 120.2253 120.6144 117.0527 120.7871 116.5815 117.1800
110.3800 107.4465 118.8292 104.0409 104.4149 102.4414 98.7827 97.1647 95.5274 111.1605 114.1440 113.4731 114.2505 114.0589 114.0796 114.1374 114.2588 114.4170 114.6307 114.8929 115.1760 115.4962 115.8334 116.1850 116.5487 116.9094 117.2800 117.6412 117.9997 118.3642 118.7133 119.0585 119.3949 119.7271 120.0536 120.4692 121.3678 121.1223 120.9432 116.8800
105.4100 104.7520 110.3093 104.1844 105.1751 102.2778 103.9273 105.1745 99.2050 110.2291 115.0492 113.3625 113.6620 113.2666 113.2981 113.3631 113.5017 113.6981 113.9527 114.2508 114.5852 114.9418 115.3218 115.7138 116.1103 116.5135 116.9124 117.3089 117.6983 118.0806 118.4531 118.8155 119.1769 119.5241 119.8631 120.1989 120.5040 120.7786 121.2401 121.4000
102.8300 106.3197 108.3204 100.7608 129.3243 100.9425 103.4567 108.5862 100.4292 115.6379 111.2001 112.7377 112.5552 112.4395 112.4510 112.5255 112.6908 112.9253 113.2228 113.5730 113.9639 114.3721 114.7994 115.2391 115.6786 116.1137 116.5519 116.9750 117.3962 117.8003 118.1993 118.5820 118.9578 119.3259 119.6784 120.0199 120.3502 120.6766 120.9140 121.1300
112.2000 98.1725 118.7040 105.1630 103.6277 96.9221 110.7221 114.7393 111.0735 113.2085 110.5165 112.0026 111.6499 111.5210 111.5005 111.5950 111.7978 112.0838 112.4472 112.8108 113.3028 113.7446 114.2619 114.7664 115.2426 115.7270 116.1963 116.6900 117.0370 117.4668 117.9528 118.3622 118.7551 119.1369 119.5038 119.8669 120.2053 120.6097 121.2386 124.3900
105.1100 106.1592 107.5868 105.8048 114.2133 105.4549 109.6488 103.5000 112.7451 111.3122 111.3299 110.9527 110.6133 110.4498 110.4364 110.5934 110.8011 111.1585 111.6049 112.0891 113.1730 113.2158 113.4182 114.1630 114.8138 115.3422 115.8217 116.3519 117.2568 117.9888 117.6334 118.1521 118.5664 118.9619 119.3403 119.7093 120.0503 120.4247 120.4650 121.0300
104.7000 107.4425 115.7018 107.8564 101.3933 101.6152 96.8421 107.2839 111.9184 110.8913 110.2795 109.7982 109.4541 109.2909 109.2355 109.1961 109.7171 110.1541 110.6907 111.2790 111.1673 108.2251 114.4766 114.2153 114.3166 115.0027 115.6228 115.8545 118.3105 115.0869 117.4722 118.0029 118.3844 118.8038 119.1966 119.5898 119.9864 120.2630 121.4634 120.9900
104.6900 104.2282 107.0961 105.3900 102.3415 106.0676 108.2513 111.4886 110.6207 109.8973 109.2199 108.6136 108.1213 107.9104 107.8363 109.5805 108.4667 109.0466 109.7670 110.3766 112.9600 102.9051 108.9581 107.6121 114.3373 114.5809 115.3038 116.2493 116.1915 115.6661 117.1851 117.8066 118.2268 118.6513 119.0536 119.3736 119.7698 120.9158 112.8983 103.5800
104.6900 103.8402 98.9513 101.0985 108.4784 120.3729 111.2144 110.2100 109.8115 108.9235 108.0412 107.2348 106.5820 106.2261 106.3362 106.6945 107.0296 107.8232 108.6756 109.5305 111.5378 109.6720 110.1104 108.1257 113.5143 114.3786 114.7803 117.8761 116.1668 116.9804 117.1702 117.6152 118.0833 118.5264 118.9554 119.6843 120.1146 122.2606 104.5541 103.5100
98.2800 106.2259 90.7405 104.3549 116.9377 110.7519 110.6379 109.9117 108.8672 107.9110 106.7752 105.6815 104.7490 104.1321 104.0375 104.5399 105.4198 106.4953 107.6061 108.6753 109.8037 106.1907 112.9088 113.4476 113.3018 114.1004 114.6856 115.9958 115.8658 116.3230 116.9806 117.4791 117.9559 118.3763 118.7895 119.2257 121.2885 124.9387 105.3791 102.2600
115.1300 106.1702 95.8392 110.5626 107.6844 96.4320 112.1269 109.3465 108.1909 106.8822 105.4387 103.9502 102.4672 101.4604 101.3368 102.1527 103.5481 105.0520 106.5164 107.8875 109.1886 108.8184 112.3863 100.4248 114.3991 113.6736 114.3338 114.9701 115.7217 116.3228 116.8567 117.3684 117.8536 118.6651 117.8227 127.9550 101.7797 100.2889 98.4192 129.0200
115.0700 111.6899 97.4195 103.3880 100.3091 111.8981 115.9745 108.7692 107.4567 105.9419 104.1181 101.9925 99.7257 97.6496 97.3334 99.1681 101.3962 103.5974 105.4852 107.1282 108.4950 109.7459 112.7094 111.2999 112.7135 113.6529 114.3233 114.9695 115.6028 116.1989 116.7544 117.2430 117.7855 119.8214 102.8154 112.8999 106.1583 106.5352 115.7619 114.0000
115.0300 107.5855 95.0544 114.3817 112.1908 111.0883 109.8708 108.5269 106.9478 105.1758 102.9642 100.0736 96.1777 91.2539 90.6142 94.7041 99.2203 102.2981 104.6478 106.5396 108.0955 109.4668 110.4113 112.7551 101.9644 114.1401 114.2239 114.8523 115.5099 116.1109 116.6824 117.2576 117.5346 123.2948 105.1366 100.6089 102.1539 109.9369 115.4808 132.4400
116.7700 120.0454 109.4331 113.9548 111.5739 110.7205 109.7063 108.3351 106.6557 104.7310 102.2474 98.7748 92.4930 86.2249 85.5625 90.3038 97.6481 101.4553 104.1415 106.2048 107.8629 109.2739 110.4353 112.1087 113.2725 113.2822 114.0944 114.8079 115.5175 116.1307 116.8356 118.1195 117.7413 123.2024 102.4816 102.5159 103.2499 122.6335 111.5636 120.5600
116.7200 114.5669 110.1546 112.1504 111.4412 110.6415 109.5618 108.2117 106.6490 104.6998 102.1962 98.6810 92.2865 85.8056 84.9295 89.9793 97.5494 101.3996 104.1113 106.1860 107.8565 109.2369 110.4378 111.3800 112.2623 113.3267 114.0896 114.7967 115.2981 115.5267 115.6599 111.0612 115.0108 117.7460 104.6594 108.5755 105.1674 118.3459 111.7114 120.5600
112.0100 102.1971 114.1960 108.1600 107.9590 110.6803 109.7866 108.4412 106.9131 105.0918 102.8416 99.8654 95.7334 90.5188 89.7598 94.0367 98.9841 102.1433 104.5544 106.4717 108.0621 109.4111 110.5894 111.6483 112.5960 113.3954 114.1446 114.8213 115.5788 114.3441 121.2324 109.1546 103.5501 104.2018 113.6133 114.3475 112.3531 108.7525 108.9557 110.9400
112.0100 102.2561 103.2312 99.4944 112.1339 110.9037 110.0547 108.8001 107.4214 105.8216 103.9507 101.7357 99.3440 96.8549 96.5165 98.6013 101.0825 103.4447 105.4055 107.0336 108.4604 109.7152 110.8215 111.7996 112.6878 113.5086 114.2598 114.9613 115.5704 115.7169 124.3015 120.0514 112.9611 100.1742 111.1544 102.4234 113.6509 113.6524 109.2298 109.6300
102.4100 109.8363 117.7398 104.2591 110.3583 111.5565 110.4138 109.3088 108.1025 106.7528 105.2580 103.6798 102.1440 101.0242 100.8623 101.8197 103.2073 104.7897 106.2580 107.7663 109.0166 110.1435 111.1594 112.0829 112.9262 113.7020 114.4198 115.0841 115.6959 116.4905 115.9775 116.5530 117.8476 113.3229 111.1877 114.8691 110.5206 118.9230 108.0231 120.5900
116.6200 105.0709 114.8742 114.3756 110.0794 113.2125 110.7754 109.9324 108.8835 107.7592 106.6002 105.4636 104.4495 103.7994 103.7149 104.1140 105.2411 106.4570 109.0903 108.5515 109.6632 110.6579 111.5781 112.4237 113.2148 113.9487 114.6270 115.2643 115.9265 116.2151 116.2753 117.1599 117.9471 117.6486 120.5186 122.1271 100.9927 116.8226 117.2946 120.6100
112.7300 109.3941 114.6458 113.8871 112.8668 112.9128 111.6051 110.5635 109.7138 108.7927 107.8873 107.0393 106.3335 105.9238 105.8731 106.1951 107.0041 106.3581 109.6031 109.3998 110.3909 111.2325 112.0548 112.8271 113.5537 114.2421 114.8846 115.4578 116.0501 116.4778 118.4625 119.0151 117.9818 121.9331 124.9791 116.1729 108.7876 121.1483 121.5311 120.6300
117.2400 100.4072 118.6232 113.8172 113.4393 111.5280 110.9924 111.3612 110.5337 109.7786 109.0671 108.4252 107.9200 107.6294 107.5979 107.7984 107.7019 105.8640 116.4127 109.6951 111.1204 111.8437 112.5739 113.2682 113.9288 114.5641 115.1618 115.7371 116.1096 117.9566 103.3780 101.0627 117.7779 114.6693 106.1209 113.0915 111.8489 107.1272 114.9652 120.6600
115.8900 113.9899 115.0529 114.5340 113.8639 113.3030 112.6581 111.9713 111.3443 110.7252 110.1552 109.6482 109.2751 109.0635 109.0184 109.1623 109.5781 110.3830 109.6765 111.6279 111.7446 112.4754 113.1052 113.7263 114.3302 114.9239 115.4682 116.0256 116.4784 116.9341 116.5034 114.5646 105.2573 113.5723 107.1266 122.1375 105.5782 108.3706 117.2546 116.5200
114.0300 115.9414 115.3837 114.8653 114.3088 113.8105 113.2303 112.6565 112.1254 111.6114 111.1455 110.7457 110.4597 110.2899 110.2697 110.2281 110.6577 110.9554 111.6258 111.9724 112.5506 113.0836 113.6476 114.2005 114.7548 115.2811 115.9166 116.1138 116.7854 117.1022 118.3358 104.2181 110.9500 103.0845 109.1331 116.4477 120.5485 120.6865 120.8506 120.9600
116.4900 116.2717 115.7390 115.9773 114.8988 114.2477 113.8272 113.3370 112.8765 112.4340 112.0438 111.7419 111.4873 111.3568 111.3537 111.4862 111.6594 111.9709 112.3443 112.7512 113.2156 113.7015 114.1962 114.6907 115.1994 115.6559 115.8354 116.9018 117.0849 117.5355 119.7006 125.9362 103.5212 101.5433 103.5565 118.3011 121.2296 120.8759 121.1820 121.0000
117.0800 116.5860 116.0906 115.5002 108.9468 115.5678 114.4574 114.0181 113.5588 113.2026 112.8928 112.5460 112.4675 112.3446 112.3214 112.3497 112.5950 112.8295 113.0221 113.5259 113.8793 114.2966 114.7320 115.1765 115.6167 116.1100 116.4393 116.1030 117.4024 117.3462 118.1796 101.4828 112.4268 101.5313 108.0525 106.8586 116.3321 117.5214 117.3362 121.3100
110.0000 117.1349 116.3841 116.9039 100.3971 115.6659 114.6792 114.5741 114.3035 113.8420 113.6166 114.0272 113.2005 113.2121 113.1820 113.2023 113.2282 112.9869 114.2210 113.9284 114.5068 114.8749 115.2522 115.6668 116.0546 116.4457 116.6383 118.2273 115.0882 116.0878 113.9295 109.4286 109.1885 115.4187 111.3160 108.1690 115.1386 109.5392 109.5093 121.3100
110.0000 117.2811 117.0790 117.4265 116.1189 116.0202 115.4210 115.1886 114.8880 114.5631 113.7388 110.7198 113.9821 114.0084 113.9749 113.9137 114.4747 105.9306 113.5640 114.8699 115.0888 115.3768 116.0788 116.1776 116.4992 116.8757 117.0634 117.4688 111.4724 110.2871 110.6293 105.3521 106.0158 106.6435 114.2444 117.4608 116.2254 111.0590 111.5570 111.0600
118.0900 117.5860 117.2129 114.4268 117.1215 116.3065 115.9724 115.7167 115.5337 115.0305 112.5832 113.9750 114.5935 114.7431 114.6903 114.7838 114.6484 116.0238 112.9104 117.9251 115.5152 116.2423 112.7961 115.5189 116.6891 117.2796 117.6381 120.0761 104.8284 116.0859 129.9671 102.4911 111.1156 104.5170 122.1340 120.7423 117.9236 111.9743 110.3354 111.6700
118.0900 118.5639 118.1794 116.5204 114.5325 117.7934 116.4776 116.2902 115.7992 116.3210 116.4646 116.6700 115.4710 115.3525 115.3580 115.3698 115.5475 117.8992 96.2983 105.6638 116.4380 117.5429 106.0285 101.3246 115.4619 118.3085 115.1062 107.3725 96.4823 103.4890 100.6532 106.4332 120.5605 117.1447 120.0055 120.5910 121.0414 119.3610 116.8667 113.7700
118.5900 119.7606 102.4568 112.7308 115.0265 117.1706 117.0042 116.7758 116.5482 116.2446 95.8044 117.4454 116.0280 115.9757 115.9759 115.9645 116.0459 117.8512 97.2238 91.7202 117.5656 115.3915 107.7917 106.7569 114.5997 117.9450 118.4688 114.0385 97.7903 102.1714 107.6842 110.8661 119.2241 110.0856 122.2882 119.7895 125.4793 127.0972 134.0307 103.7300
119.0000 119.2694 118.6417 118.7645 118.1781 117.7200 117.4922 117.3087 117.0015 118.8932 116.9988 116.6617 116.6867 116.5535 116.5692 116.5713 116.6016 121.0146 95.0264 93.9899 111.2521 108.8639 107.7854 98.4394 114.6206 119.0269 119.4396 103.8539 118.3261 99.7776 104.8980 119.3126 110.6315 106.2556 112.3160 116.3122 105.1421 108.5102 107.7690 106.6400
98.6300 103.4037 106.7284 122.1489 117.9750 118.1825 117.9210 117.5345 117.6645 116.9693 117.1844 117.2420 117.1222 117.1023 117.0565 116.9744 117.2453 118.3887 109.0884 110.2821 101.0858 101.0908 105.3186 99.5844 112.9128 118.8282 119.0292 118.7225 120.7228 119.0702 122.7045 96.7424 112.6270 118.1596 106.1660 121.9314 119.3549 107.9953 108.2078 103.7000
98.6300 100.9333 102.4085 122.1597 118.3966 118.4749 118.3721 119.7983 117.5868 117.9975 117.7872 117.7244 117.6770 117.6400 117.6566 118.3486 117.6837 117.6985 117.7985 111.9591 105.5828 102.9194 98.9610 103.0836 115.4739 119.0478 119.4169 119.5584 119.6653 120.2511 107.8932 102.5406 106.4662 122.3368 122.0289 121.9999 116.0088 124.0838 108.4037 110.5700
103.3300 105.5318 110.1131 103.6520 120.7398 118.8670 118.6832 118.0149 123.1309 117.7962 118.3972 118.1638 118.0935 118.0335 118.2367 112.0730 118.1409 117.9954 120.1978 115.2707 109.5150 110.0078 100.8526 102.6493 116.3064 119.2787 119.6799 119.8850 120.1847 120.0306 119.8152 99.2523 105.6324 121.9363 121.2449 121.6704 120.7363 108.5839 121.9627 122.6600
103.2200 111.7338 122.8955 103.2544 121.8248 119.3595 118.8234 119.7206 118.4647 119.4026 117.0123 116.8354 118.9379 118.7114 118.5973 117.3679 122.6434 117.5171 110.7573 104.1195 106.5402 102.7907 117.1740 100.4528 119.0429 119.6214 120.0265 120.2053 120.3936 120.3805 127.5429 107.2424 110.3431 122.7531 121.9194 121.4171 123.2601 115.1512 123.2849 122.6600
103.2200 120.0200 120.1100 108.9100 119.6300 119.6300 118.0500 119.1700 119.2300 118.9400 106.2300 97.0200 118.6800 118.7000 118.7000 118.7000 115.6600 115.6600 101.1000 103.0600 100.6000 119.4100 119.4100 105.7500 119.8400 120.1100 120.2900 120.4700 120.6900 120.9100 122.5000 103.8000 112.5400 121.6400 121.8600 122.0200 122.2000 122.5500 122.7200 122.8900
