115.5200 115.1000 114.2000 113.7200 113.2100 112.6800 112.1200 110.8900 111.0400 113.4500 109.7000 109.7000 108.7200 108.7300 109.7200 109.7200 109.5600 111.0800 111.0800 112.2500 112.2500 92.3500 113.7400 114.2600 114.6700 115.5300 115.9300 96.2700 96.6000 102.0400 100.9200 102.7500 118.6500 119.2100 119.4800 120.0000 120.2500 120.4900 120.9600 121.1900
115.5200 114.8660 114.2574 113.6243 112.9324 111.7938 112.2248 111.0401 110.5341 109.5110 108.7189 108.4978 108.2230 108.1773 108.4005 108.4902 109.3564 109.9423 114.8587 102.0136 111.9879 90.6415 113.4366 114.0259 114.4674 114.2286 105.8719 98.6170 96.5472 109.7098 111.7669 111.3244 119.2816 119.0410 119.4327 119.8073 120.6157 112.3108 106.8694 121.1900
114.8700 114.5302 113.8864 113.1809 112.5802 112.5395 106.2589 103.0013 108.9238 108.3390 107.6226 106.9974 106.6304 106.5837 106.8504 107.5160 109.2026 99.6736 103.5394 96.3983 97.8734 104.3261 114.6556 113.5346 115.5649 100.4866 97.2830 98.8213 109.0090 117.1670 118.0094 118.6786 118.4917 118.9684 119.3376 119.5859 120.9552 103.6165 110.1825 121.1500
114.7700 114.2736 113.5836 112.8046 111.7700 105.3797 95.5682 100.5722 109.8866 106.9060 106.1168 105.2466 104.7031 104.6202 105.0375 105.7656 104.6927 105.2884 107.5377 110.8316 104.8715 111.4869 112.3635 113.6556 110.5611 106.3543 127.4513 104.8861 119.2142 116.7577 117.2112 119.1396 118.3230 118.8506 119.2938 119.6721 121.5122 121.7892 106.0391 103.2800
114.2100 113.8445 112.9588 112.4163 111.4169 111.2644 94.2865 103.6664 111.1922 105.4944 104.4080 103.1075 102.1954 102.0608 102.7790 103.9776 105.6884 107.5469 102.9370 106.8362 110.6690 111.3142 112.1457 113.0390 112.8736 115.1689 120.6453 114.5516 112.0465 116.6880 117.4870 118.1059 118.3355 118.7465 118.9750 119.5126 122.3023 112.7694 100.8490 101.8600
114.1400 114.3225 113.9010 112.0378 111.3612 111.8720 103.6196 107.5453 106.8722 104.3620 102.5261 100.4780 98.8539 98.5414 99.9070 101.8927 103.9356 105.7117 106.1692 109.0288 109.8660 110.9231 111.8790 112.8572 113.8576 115.5879 106.0910 99.2846 117.4898 116.7630 117.2308 117.7475 118.2256 118.8035 120.8976 120.4619 116.7512 103.4998 106.8272 113.9200
114.0800 114.6717 98.7203 110.3799 109.0577 108.7958 115.3925 106.6645 105.3774 103.2946 100.5910 97.2475 92.9723 92.2879 95.8912 99.6706 102.5366 104.7667 106.6432 108.1184 109.4731 110.6293 111.6566 112.6038 113.0514 112.4623 109.6307 115.2901 116.1317 116.6874 117.2247 117.7279 118.1864 118.6811 119.2956 119.3743 119.4284 119.7614 119.3491 101.8900
114.0500 109.2349 107.1814 97.4448 98.0286 122.1674 103.8369 105.7315 104.8052 102.4407 99.0936 93.4020 87.2507 86.4855 90.9461 97.8796 101.5281 104.1839 106.2234 107.8770 109.2603 110.4629 111.5280 112.4742 112.9542 113.6109 110.7531 115.4064 116.1952 116.6404 117.1797 117.6892 118.1648 118.6695 119.2593 117.4532 119.9337 112.9289 119.8319 112.8800
114.0400 104.4185 108.2441 98.4006 99.5259 110.6322 109.4792 105.3672 104.5711 102.2346 98.6743 92.0630 85.5083 84.4208 89.4245 97.3443 101.2571 104.0221 106.1128 107.7999 109.2120 110.4148 111.5196 112.7573 112.9221 112.7600 106.8697 115.6290 116.0844 116.6295 117.1724 117.6774 118.0048 118.6145 119.0955 118.0940 121.7448 113.7533 120.1370 112.8700
102.5300 111.4825 104.6566 102.2969 98.5647 112.6729 110.5078 107.0815 105.0050 102.6854 99.5690 94.7593 89.1361 88.3482 92.5831 98.4842 101.8381 104.3518 106.3397 107.9481 109.3290 110.5212 111.5932 112.6255 114.0677 113.8532 100.1029 115.0664 115.8018 116.6751 117.1975 117.6835 118.0630 118.4459 119.0466 119.5604 119.5969 120.5558 120.3921 119.5700
103.6700 111.2572 105.0737 95.7717 103.9374 112.5116 113.7216 107.8119 105.6742 103.7003 101.3764 98.2658 95.3664 94.8575 97.5868 100.4814 103.0313 105.0975 106.8375 108.3229 109.6155 110.6023 111.8811 112.6270 113.3926 114.2043 116.2640 116.4315 116.2178 116.6902 117.2311 117.7371 118.2229 118.6953 119.0813 119.4948 119.9336 120.1920 120.5860 120.8000
103.2100 104.4470 97.2611 103.1728 100.0635 106.0513 115.1532 108.5288 106.5776 104.9530 103.2122 101.5014 100.2334 99.9926 101.0357 102.7067 104.4570 106.0787 107.5418 108.8560 109.5732 112.9096 111.1555 112.8463 113.6643 114.3945 114.6988 114.8369 115.1595 116.8857 117.4005 117.8496 118.2717 118.7052 119.1478 119.5309 119.9351 120.2983 120.3584 120.8100
101.9600 107.0032 103.6041 100.8175 99.7793 103.2283 104.2338 111.8177 107.0952 106.5337 105.0742 103.9596 103.1899 103.0811 103.6632 104.7119 105.9306 107.1696 108.3768 109.2255 111.9717 116.6341 113.9675 113.1973 113.8264 114.6064 115.2691 115.0165 124.5367 116.2889 117.0956 117.7549 118.3569 118.7989 119.1836 119.6105 119.8161 120.0892 123.5456 126.4500
103.1400 105.8096 108.4104 107.3339 108.1146 102.5605 90.4075 106.6288 108.5970 107.7083 106.6718 105.9279 105.4527 105.3806 105.7461 106.4204 107.3125 108.2588 109.2391 110.1372 111.6499 112.7055 113.8832 113.4509 114.1210 114.7463 117.1077 115.5918 120.3834 116.4866 118.2586 118.4723 118.5110 118.8829 119.3473 119.8041 119.0537 122.3603 112.7115 121.0900
102.3300 105.1717 98.4368 94.4597 102.2609 97.5647 109.5469 109.8659 109.6154 108.8156 108.1160 107.5514 107.2479 107.1967 107.4378 107.9424 108.5068 109.3222 110.1097 110.8928 111.6634 112.0863 112.8665 113.8833 114.4955 115.1682 115.5979 118.8033 116.5104 117.2163 109.0307 116.4508 118.1537 119.2814 119.5174 118.9194 123.6541 119.0365 107.6180 106.8800
106.1000 106.1839 101.8566 105.5463 100.3895 108.8502 115.7080 110.3707 110.6306 110.3853 109.4199 109.0642 108.7406 108.6976 108.8767 109.2414 109.7770 109.8442 110.8909 111.6299 112.3074 112.9446 113.6787 114.2801 114.7741 115.3611 115.8623 116.6522 116.9404 117.3461 117.9138 118.1969 118.4994 119.1777 119.5429 124.0896 118.8747 110.7193 109.7111 105.7100
101.2000 103.8848 108.0550 101.0324 99.4488 93.9583 109.3753 113.9088 111.7211 110.6531 108.5110 110.6701 110.0142 109.9694 110.1102 110.3989 110.7956 109.1539 111.8623 112.3389 112.9197 113.5923 113.0715 114.3367 114.9749 115.6577 116.2463 116.7200 117.1874 117.6627 118.0334 118.5190 118.7340 118.8243 117.6553 127.3398 102.0762 107.1781 121.5166 121.1800
105.1900 104.4289 102.1076 97.8876 91.9510 98.4033 94.7681 105.4030 111.8957 113.0424 112.0684 112.2593 111.1705 111.0776 111.1976 111.4302 111.6710 112.0945 112.6029 113.0232 113.5316 114.0580 114.7017 113.9712 108.8469 116.4673 116.5357 116.9693 117.4271 117.8203 118.2810 118.8554 120.3585 109.9174 102.1140 125.9764 124.1799 105.9761 104.4395 105.3000
105.8400 104.3241 97.8398 94.7119 100.3320 93.7577 99.1102 119.8758 112.8954 113.6540 93.2168 114.5655 112.1226 112.0664 112.1691 112.3482 112.6019 112.9197 113.2817 113.7179 114.1332 114.6185 114.1836 113.7887 117.1407 116.3465 116.8724 117.2713 117.7095 118.1836 118.6631 118.7288 122.3563 110.2904 113.4336 119.6223 102.1338 117.2292 106.4586 112.3300
107.6600 105.9037 96.5106 95.5046 103.2233 118.5412 117.5952 115.3504 112.4887 115.2290 94.0181 114.5007 113.0820 112.9462 113.0430 113.1870 113.3988 113.6666 113.9888 114.3456 114.7344 114.9043 117.1167 103.9417 116.7443 116.7714 117.1740 117.5698 117.9560 118.1162 116.4106 125.0112 112.8210 122.6170 110.2231 115.8638 106.2016 120.0153 115.3272 110.2100
103.9400 100.4618 98.6718 108.3144 104.1757 119.8034 114.5869 114.1850 114.4421 115.8993 114.7136 113.8747 113.6368 113.7647 113.8356 113.9578 114.1408 114.3398 114.6354 114.9486 115.3130 115.0654 105.7239 105.1724 117.7167 116.9746 117.5012 117.8809 118.1986 120.2018 126.0165 128.9726 99.5447 108.2099 121.7192 104.8187 109.9843 103.7408 108.3672 110.4900
103.9400 104.3494 100.3870 106.8706 111.8657 114.9182 117.0590 115.2767 112.7233 112.6637 114.5466 114.6307 114.4247 114.5476 114.5627 114.6699 114.7876 115.0124 115.2702 115.5273 115.7371 117.1259 103.5655 118.4109 116.8934 117.5347 117.8193 118.1718 118.6108 115.7139 107.4564 114.4058 109.4726 109.7552 109.6352 117.9891 116.1951 110.2068 111.1361 110.4900
102.1900 101.1811 100.1140 98.2259 95.2972 97.1309 116.6382 115.7919 115.7021 115.6254 115.2652 115.2843 115.2270 115.2025 115.2439 115.3279 115.6255 115.6173 115.6689 116.0816 116.3299 117.6603 116.9160 117.4541 117.5095 117.8403 118.1768 118.5502 118.5392 117.5251 96.5570 99.9699 112.7236 104.0280 106.4791 117.4490 115.0214 102.3693 109.9374 110.5500
96.3400 102.6347 107.9663 104.4071 112.0390 114.9122 116.9509 116.4041 116.2007 116.0490 115.9895 115.8821 115.8237 115.8575 115.8728 115.9933 115.5358 116.6077 117.7140 116.5710 116.8664 117.0567 117.3047 117.6411 117.9264 118.2041 118.5125 118.8211 118.8091 121.0360 116.8427 117.8534 121.1512 101.0343 104.0438 115.6112 110.0201 110.8770 112.0644 122.1600
104.9300 105.7008 118.0099 119.8917 117.8588 117.3344 117.1261 116.9796 116.8107 116.6663 116.5313 116.4674 116.4517 116.4841 116.5133 115.2102 118.6173 120.8341 118.7900 116.9678 117.3075 117.5396 117.7800 118.0287 118.2907 118.5658 118.8372 119.1551 119.3525 119.4942 110.2731 119.0865 110.8149 106.3183 111.2712 108.7830 110.7244 110.6343 112.4255 111.6000
104.9300 107.8261 120.5674 117.9176 118.0395 117.8368 117.6575 117.4475 117.3076 117.1612 117.1360 117.0754 117.0490 117.0025 117.0415 107.2416 99.6448 105.0093 117.3329 117.7369 117.7678 117.9645 118.1895 118.4088 118.6916 118.8996 119.1457 119.4850 119.7070 120.1962 120.1819 109.8085 118.9849 107.7988 106.3102 108.6323 111.9073 108.8585 114.8076 122.4600
103.3800 102.7094 117.4867 118.8165 118.4398 118.2513 118.0720 117.9215 117.7907 117.7871 117.5600 115.9646 117.1573 117.3862 117.4835 114.2606 112.1466 118.6021 118.2421 118.0396 118.1922 118.3871 118.5817 118.8456 118.9931 119.4752 119.5065 119.2340 119.9665 119.7748 118.0798 109.9819 105.3455 103.9811 105.1306 102.9789 110.5755 110.2320 120.1153 122.5100
119.5800 114.3457 118.9972 119.0890 118.8451 118.6670 118.5105 118.3721 118.2284 118.1874 119.0484 101.7185 119.8668 117.4120 118.0260 118.2517 118.9155 117.8100 118.1655 118.5031 118.6141 118.7875 118.9690 119.1731 119.2447 119.2784 116.2945 123.7693 120.1473 120.4309 108.6995 104.5070 107.9198 125.0208 123.6792 114.5248 110.9276 116.5241 113.6669 113.3500
120.0300 119.7302 119.5457 119.3613 119.2403 119.0687 118.6427 118.7085 118.6908 118.5870 118.9645 120.4134 118.2583 118.4825 118.4521 118.4568 118.4440 118.7627 118.8062 118.8701 119.0196 119.1755 119.3497 119.5174 119.6996 115.3953 117.7879 121.5785 120.2355 120.5363 122.8005 99.6776 103.9414 113.7398 111.8965 119.7613 117.0608 117.9773 107.2011 113.2100
120.0300 120.1161 119.8726 119.7666 119.5979 119.4422 119.3864 119.2288 119.0651 119.0430 119.2316 118.3621 118.7768 118.8649 118.8923 118.8904 119.0426 118.5980 119.2035 119.2759 119.4086 119.5537 119.7044 119.8759 120.1597 120.8758 120.9382 119.1517 114.6298 121.4811 117.8973 116.2223 101.0606 101.2896 109.4621 114.8511 120.3064 98.1009 110.6100 114.0200
120.6700 120.4310 120.2586 120.1013 119.9446 119.8453 119.2872 119.6189 119.9421 113.4307 119.9872 119.8957 119.4108 119.3329 119.3237 119.2935 119.4343 118.7626 119.4023 119.7550 119.8120 119.9086 120.1125 120.2082 120.3289 120.8012 119.1588 133.6740 121.7313 112.4659 115.7094 99.7253 105.7439 105.7494 110.4897 117.8592 120.2732 113.9901 118.2086 116.4800
120.9800 120.7333 120.6222 120.3218 120.0542 120.0536 122.1851 120.0579 120.3237 120.5612 117.1597 113.1840 118.9383 119.6221 119.7023 119.7498 119.8957 122.3924 120.8713 119.9427 120.0957 120.6790 119.6183 122.7978 120.7363 120.8877 121.2417 134.9069 107.5667 101.8468 111.8979 103.9486 106.2658 118.5947 109.8923 120.5188 116.1941 123.8111 125.8760 123.3700
121.0100 121.0652 120.6978 121.4968 120.8077 122.1239 105.3208 120.5971 119.6198 114.1426 118.1490 120.7246 122.0887 120.6282 120.1387 120.1554 120.1895 109.9636 105.3639 121.5971 120.9155 123.0754 111.7621 130.1954 113.0695 121.5912 116.7351 119.4069 104.5814 106.6202 100.5342 110.5579 123.7185 123.3656 122.5121 124.9868 123.9442 123.3424 121.8164 116.6500
121.3300 121.2854 122.0532 116.9513 113.7408 120.6122 119.6929 120.9262 114.7684 120.0080 97.7066 97.8086 106.5568 115.6491 120.2835 120.6697 120.2974 122.0520 103.4221 118.0917 106.4155 121.7944 101.1244 104.3260 101.5004 123.8542 107.5203 104.2346 104.9403 102.3717 104.1831 106.1680 121.9449 122.6713 122.2059 124.0199 116.0803 116.0525 112.0825 113.4400
121.6400 121.5967 121.4043 108.0066 116.4932 103.9788 121.4230 120.7639 121.5996 121.8840 117.9076 113.1845 120.4678 114.3418 120.9641 120.6192 121.2170 109.4046 103.4675 97.7546 104.0776 119.3385 110.2053 109.7085 118.9722 119.6774 107.2375 102.2970 99.3893 118.3774 106.9362 103.9670 115.4989 122.3367 132.5318 129.1877 111.2696 100.4462 104.3136 113.7000
121.9300 122.2083 112.3409 96.2968 123.2178 119.8591 121.7115 121.3962 121.1932 120.5361 115.4817 116.6540 120.5280 121.5504 121.4430 121.0940 120.9594 122.8700 102.9085 103.7679 105.1000 106.3581 105.9045 100.1863 120.6091 122.3239 125.9599 100.4809 119.4312 128.7081 109.7625 108.6359 111.7953 115.7518 123.7976 124.5318 119.9771 115.1453 101.4196 124.1100
122.2200 124.5171 97.7636 101.5327 118.5328 118.9626 121.4523 121.5886 121.6400 121.3330 122.2546 121.6875 121.6299 121.3997 121.4033 121.7537 121.3922 122.6063 103.7970 107.0621 101.9236 99.9031 103.0199 108.4821 123.7740 121.9835 124.1221 118.1936 124.0163 124.3381 113.7412 112.8307 110.7410 124.4685 124.2519 125.6410 120.8814 120.6372 108.0699 102.1700
100.8900 107.9593 101.1417 101.5421 104.3427 119.8258 121.8685 121.9728 123.9897 121.5844 121.5917 121.6888 121.5278 121.8098 121.9194 118.4108 122.5951 124.5231 103.6187 115.6396 103.9242 106.5404 102.0643 104.0126 124.2115 122.5614 122.5787 123.4925 123.6505 120.7067 114.4036 111.2184 119.3593 123.8927 123.6833 122.8093 123.9810 111.0542 125.6950 107.3100
122.7600 103.5189 102.9651 105.2176 119.0508 122.3009 121.8845 122.0354 122.0485 122.1348 122.1438 123.2327 122.3273 122.0960 122.0483 121.0032 122.7825 113.4716 108.9280 107.6045 110.7377 106.7947 121.6095 106.2668 123.7817 122.7115 122.8990 122.9568 123.1651 107.9824 118.7079 101.8061 111.5790 122.4300 123.8794 124.0415 123.7768 125.5060 124.7320 124.5700
123.0200 104.3300 109.4200 104.0700 122.5200 122.5600 122.3600 122.3900 122.4100 122.4300 122.2100 129.9700 122.2300 122.2300 122.2300 122.2200 120.4600 120.4600 106.7200 104.2900 122.5600 102.9300 122.7000 103.0600 122.8300 122.9800 122.9800 123.1200 123.3100 123.4400 101.5500 117.2700 110.0400 110.0400 124.1100 124.1100 124.2400 124.5300 124.6400 124.6400
