105.8600 110.6700 105.7800 105.5700 106.3100 106.1500 100.5000 99.7800 116.3900 116.3900 114.9200 115.6800 115.7500 115.2900 115.3400 115.3700 115.3700 115.3600 115.2800 115.7400 115.6600 116.0300 116.0300 116.3600 116.6500 117.0500 117.2900 117.6600 117.8800 118.1900 118.5200 118.7300 119.2600 119.5500 119.7600 120.0000 120.4700 120.7000 120.9200 121.1500
105.8600 106.1612 106.8420 105.5360 101.3509 106.0099 100.5413 96.8827 101.6408 116.1972 115.1380 115.4155 115.1648 115.0176 114.9079 114.9783 115.2511 115.2014 115.0083 115.1347 115.3229 115.5439 115.7962 116.0878 116.4469 117.6103 115.9898 117.3476 117.6831 118.0186 118.3531 118.6831 119.0094 119.3353 119.6710 119.7652 120.1877 120.4889 112.4969 121.0700
104.4400 104.9400 106.1807 104.6152 102.0580 103.5935 107.0262 102.8939 100.4408 112.4602 115.2991 114.6933 114.5082 114.3351 114.2807 111.6207 109.1739 113.2929 114.3279 114.4760 114.6950 114.9486 115.2362 115.5776 115.8672 117.0382 116.8551 116.9697 117.3168 117.6795 118.0382 118.3991 118.7476 119.0923 119.4639 120.0229 121.8303 124.4701 105.1347 121.0700
104.4400 107.1606 105.9235 110.0597 100.6940 105.6883 100.5788 105.2291 97.5221 110.0604 114.4696 114.0830 113.8014 113.5917 113.4406 113.6362 113.6175 113.4177 113.5631 113.7653 114.0212 114.3158 114.6504 115.0069 115.3999 115.6451 116.1388 116.5610 116.9617 117.3535 117.7369 118.1149 118.4926 118.8659 118.9544 119.9645 104.8391 102.6969 104.2155 120.7200
95.6900 110.6889 103.2417 108.0546 104.3124 97.1983 92.2188 108.1154 105.5632 111.8423 112.9739 113.4637 113.0433 112.7967 112.6187 112.4460 112.4210 112.5930 112.7548 112.9987 113.2958 113.6447 114.0253 114.4354 114.8656 115.2973 115.7374 116.1690 116.5933 117.0177 117.4321 117.8377 118.2369 118.6248 118.9437 119.3206 114.5776 116.5189 106.9863 120.6700
106.3400 106.9620 112.2905 102.5784 103.9510 106.9694 101.6097 98.8385 99.2917 109.2905 113.3691 112.6608 112.2224 111.9157 111.7042 111.5980 111.6024 111.6763 111.8745 112.1654 112.5234 112.9295 113.3737 113.8441 114.3243 114.8123 115.2988 115.7728 116.2481 116.7022 117.1470 117.5773 117.9981 118.3933 118.7916 119.4693 120.2860 120.4567 118.4801 120.3800
105.7300 106.5410 99.7016 103.0814 101.5850 103.1016 106.9540 101.9593 98.8047 103.9882 110.9691 112.0520 111.3375 110.9495 110.6874 110.5297 110.5175 110.6514 110.8950 111.2558 111.6904 112.1836 112.6987 113.2438 113.7888 114.3342 114.8659 115.3898 115.8991 116.3896 116.8663 117.3164 117.7635 118.1887 118.6223 118.9116 119.2821 119.7779 120.1542 120.3200
105.8300 108.2796 112.6653 102.8250 98.8643 103.5148 107.3551 109.0696 106.1071 110.3212 105.1715 111.3523 110.3482 109.8765 109.5330 109.3402 109.3237 109.4948 109.8099 110.2557 110.7925 111.3849 112.0026 112.6253 113.2455 113.8587 114.4485 115.0190 115.5639 116.0945 116.6005 117.0841 117.5515 117.9770 118.3245 120.7530 117.8557 119.8479 119.8361 122.9000
106.6700 110.7093 105.8013 112.6246 99.2262 100.4698 106.1145 109.3150 110.9691 111.8653 110.8819 109.8917 109.2864 108.6788 108.2168 107.9577 107.9375 108.1644 108.5873 109.1622 109.8319 110.5480 111.2778 112.0070 112.7154 113.3895 114.0400 114.6538 115.2274 115.8073 116.3544 116.8594 117.3523 117.8036 118.2794 118.6644 119.1216 119.4628 119.7896 119.5200
120.6100 111.0526 105.7615 119.0859 97.3083 107.5516 115.1523 110.3508 111.7915 110.6368 109.7932 108.9469 108.1001 107.3068 106.6810 106.3132 106.2838 106.6053 107.1990 107.9625 108.8159 109.6934 110.5571 111.3978 112.1975 112.9485 113.6604 114.3737 115.1286 115.6400 116.1273 116.6593 117.1751 117.6469 118.1300 118.5793 118.9766 119.3678 119.8129 119.9400
126.8900 105.5520 106.3140 114.1257 101.2923 120.6308 114.8437 110.7514 111.0842 110.0166 109.0099 107.9379 106.8252 105.7569 104.8585 104.2877 104.2549 104.7295 105.5864 106.6396 107.7480 108.8271 109.8590 110.8223 111.7144 112.5410 113.3293 114.0184 114.2110 115.4317 115.9005 116.4856 117.0178 117.5154 117.9815 118.4301 118.8504 119.2788 119.4736 119.9100
99.4000 96.2938 102.0125 100.8800 100.3015 112.5306 117.2248 112.8043 110.4711 109.3728 108.1963 106.8927 105.4747 103.9989 102.6085 101.6653 101.5807 102.4023 103.7719 105.2287 106.6728 107.9937 109.1970 110.2937 111.2856 112.1742 113.0783 114.2440 122.0167 114.9686 115.7262 116.3502 116.8902 117.3915 117.8962 118.3531 118.8863 119.1441 120.7216 119.8500
99.3500 106.3937 104.8742 99.4497 106.8738 103.9069 112.0950 110.4373 110.0813 108.8357 107.4789 105.9225 104.1247 102.0460 99.8550 97.9195 97.7655 99.5452 101.6582 103.7999 105.6489 107.2419 108.6340 109.8524 110.9171 111.9166 113.7525 114.1487 116.1051 115.0326 115.6203 116.2341 116.7894 117.3094 117.7603 118.2518 118.2484 120.6284 111.9714 102.9500
106.5300 109.0698 108.4797 98.9657 115.6899 111.2085 111.9806 110.9400 109.7750 108.4301 106.9243 105.1311 102.9267 100.0559 96.2080 91.6047 91.1991 95.3698 99.5426 102.5080 104.7975 106.6566 108.1965 109.5171 110.6635 111.6989 113.9173 112.9921 114.0185 114.8746 115.5499 116.1578 116.7087 117.2598 117.9550 118.4742 120.0865 121.2681 110.8564 105.8900
99.6700 99.3560 97.2796 105.5031 108.0232 118.6363 111.7342 110.7697 109.5445 108.1926 106.5979 104.6414 102.1406 98.6710 92.2221 86.6864 85.9333 90.9631 97.9753 101.6458 104.2778 106.3063 107.9547 109.3350 110.5190 111.5853 112.4218 113.4428 114.1627 114.8499 115.4979 116.1039 116.7015 117.3634 116.2996 117.2650 106.1391 104.8062 108.5616 107.1900
99.6600 97.8728 94.9051 109.7552 106.0558 120.8585 111.4097 110.4595 109.5316 108.1642 106.5498 104.5835 102.0324 98.4280 91.6787 85.2859 84.7981 90.2523 97.7136 101.5319 104.2123 106.2578 107.9167 109.3139 110.5080 111.5607 112.5142 113.3603 114.1256 114.8363 115.4977 116.0806 116.6577 117.9345 117.1882 116.1179 103.8155 103.6740 106.8658 107.5400
103.0800 102.0381 100.7758 100.8122 102.8750 101.1773 121.2815 109.7983 109.7365 108.3539 106.8022 104.9524 102.6522 99.5786 95.0407 89.9332 89.4003 93.9378 99.0290 102.2116 104.6128 106.5301 108.1133 109.4528 110.6213 111.6543 112.5796 113.4108 114.1760 114.8742 115.5336 116.1146 116.6017 119.3029 99.7806 108.1780 102.5324 108.6309 111.0159 119.7800
99.3200 102.9286 102.0446 107.2711 94.6113 113.5805 111.6224 111.0832 109.9225 108.7179 107.3224 105.6757 103.7526 101.4949 98.8960 96.4193 96.0361 98.4863 101.0376 103.4179 105.3795 107.0569 108.4915 109.7399 110.8520 111.8383 112.7270 113.5371 114.3281 115.0287 115.6242 116.2302 117.3757 118.9814 106.7929 108.1668 118.1873 108.5943 118.8646 117.2800
106.4600 121.1918 111.8747 114.9986 113.0466 112.9592 112.3632 111.3315 110.3328 109.1825 107.9300 106.6053 105.0925 103.4493 101.8559 100.7470 100.6534 101.6046 103.1964 104.8179 106.3687 107.7697 109.0274 110.1611 111.1802 112.0985 112.9528 113.7083 114.4641 114.5830 115.8139 116.0066 118.9719 113.3664 118.2622 104.8456 116.3540 113.9868 109.6926 117.6700
117.7700 109.5084 115.5577 112.9476 110.7622 113.0842 112.5746 111.7263 110.8234 109.6107 108.5505 107.6439 106.4470 105.2840 104.2623 103.5987 103.5430 104.1182 105.0920 106.2542 107.4426 108.5896 109.6697 110.6669 111.5899 112.4412 113.2300 113.9489 114.8342 113.4730 114.7021 118.7354 110.1386 103.6862 119.3436 109.8331 93.2181 121.5543 123.9133 119.8500
112.7100 102.8734 121.2285 106.5884 115.7146 114.2259 112.9019 112.1890 111.3643 110.5485 109.7065 108.6605 107.7513 106.8767 106.1824 105.7686 105.7373 106.0930 106.7585 107.5975 108.5197 109.4475 110.3537 111.2358 112.0554 112.8339 113.5592 114.2497 114.8887 115.6275 116.1745 117.1865 99.8598 109.7528 120.1625 120.8817 116.8898 108.0645 120.0605 119.8700
102.3000 98.2557 102.1631 105.1296 99.5870 113.0267 113.3403 112.7230 111.9551 111.2016 110.4349 109.6571 108.9460 108.2966 107.7948 107.5133 107.4874 107.7330 108.2064 108.8391 109.5404 110.3111 111.0797 111.8325 112.5638 113.2695 113.9332 114.5630 115.2280 115.6853 117.7781 116.3249 108.3221 104.6766 110.7642 112.0595 116.9194 106.8671 114.9158 109.8100
107.5600 98.5706 108.1275 115.4881 106.4791 108.9101 114.2982 113.2112 112.5504 111.9132 111.2497 110.6399 110.0398 109.5432 109.1669 108.9149 108.9295 109.1174 109.4715 109.9580 110.5279 111.1524 111.8007 112.4557 113.0941 113.7230 114.3372 114.8997 115.4583 115.8725 116.5366 117.3584 117.9835 105.5315 101.7633 106.1667 117.7508 115.2112 110.7778 108.9700
100.9500 109.0161 118.5310 116.4053 116.6317 113.5477 114.2748 113.7264 113.1599 112.5946 112.0659 111.5058 111.0833 110.6638 110.3777 110.5613 110.2918 110.3272 110.6178 110.9754 111.4361 111.9570 112.5003 113.0684 113.6375 114.1935 114.7459 115.3238 115.3324 121.2860 116.3176 116.8001 117.3949 120.8002 121.1285 109.0623 117.5313 111.6403 107.3453 109.1400
117.0500 113.6943 107.9554 116.8629 115.7785 115.3701 114.7926 114.2520 113.8155 113.1375 112.6784 112.3885 111.7413 111.5387 111.1364 108.6948 110.3689 111.4455 111.6031 111.9078 112.2839 112.7203 113.1967 113.6819 114.1717 114.6773 115.1791 115.6464 116.0494 118.5069 109.6372 117.1961 119.4675 122.8773 112.2015 113.9147 102.5434 108.4956 114.9801 109.7800
117.6400 108.1083 116.5344 116.3002 116.1286 115.6862 115.2317 114.7900 114.3413 113.5511 114.4312 112.5014 114.4505 112.5904 115.7632 110.4601 110.7688 112.3934 112.5125 112.7656 113.0789 113.4400 113.8415 114.2701 114.7160 115.1623 115.6061 116.0377 116.6191 116.5797 119.3258 110.1701 112.7752 109.0815 113.7766 104.1922 120.9241 119.3736 120.6259 120.6000
114.8500 104.2576 119.5109 116.5131 116.5361 116.1067 115.6966 115.2990 114.9230 114.5310 114.4998 98.9883 112.8918 112.9908 114.0888 113.2492 113.3473 113.2633 113.3361 113.5467 113.8102 114.1254 114.4778 114.8436 115.2353 115.6402 116.1154 116.5355 116.9342 115.7705 125.4406 110.9292 112.9235 108.7000 109.0104 119.5579 111.7032 120.3703 120.4027 120.6600
118.1500 118.2122 117.7511 117.2613 116.8953 116.5318 116.1650 115.8047 115.5015 115.1673 115.0965 115.7200 114.9476 114.0156 113.9144 113.9008 113.8988 113.9692 114.1023 114.2699 114.5049 114.7680 115.0713 115.3953 115.7480 116.0673 116.5125 117.1520 117.2407 117.7744 116.9717 105.5737 105.2683 99.7289 122.1016 121.0338 120.6106 120.0092 120.5138 120.7200
107.3000 118.2211 117.5170 117.6660 117.2890 116.9766 116.6197 116.2388 115.7519 115.8111 115.3630 115.0694 114.9310 114.8360 114.7130 114.6437 114.5846 114.6628 114.7730 114.9544 115.1383 115.3787 115.6426 115.9292 116.2428 116.5586 116.8966 117.4004 117.4757 117.3211 121.6331 106.7149 111.5288 106.2278 113.9616 118.3169 121.3090 121.4267 121.8260 121.0000
118.6500 119.3186 118.2410 117.9998 117.6631 117.3241 116.9310 117.4840 117.4661 115.8702 116.1646 116.1481 115.4682 115.4813 115.3678 115.3004 115.3624 115.1281 115.5412 115.4860 115.7630 115.9463 116.1849 116.4352 116.7142 117.0165 117.3574 117.1144 120.1148 119.7763 120.5284 104.9802 97.7759 105.3125 111.0844 105.3296 118.3821 119.1464 123.5430 121.3300
109.9900 118.7318 118.6270 118.3503 118.1134 117.7743 118.7655 117.2308 105.9158 117.5731 115.3621 112.8592 116.1334 116.0805 115.9871 115.9031 115.9517 111.3141 115.2732 116.1835 116.3000 116.4912 116.7006 116.9398 117.2136 117.4400 117.6688 118.0437 124.1993 114.3651 109.2804 103.4727 103.0624 103.0312 114.8585 111.9626 112.0597 111.5868 121.0191 121.3300
119.4900 119.1565 118.7458 118.6455 118.2961 117.6592 117.4353 119.0389 110.3587 118.8239 113.7524 116.8986 116.7430 116.6511 116.5615 116.5296 116.5840 118.3079 118.1525 116.6201 116.9850 116.9049 117.1066 117.2947 117.5865 117.9678 118.4613 118.6652 116.8864 106.0030 103.7276 102.9219 109.2583 115.5765 116.6578 112.6084 108.1502 111.6906 114.7010 112.6400
119.8400 119.5349 118.8848 120.7668 120.8801 118.4209 118.2851 118.2784 118.8390 110.9212 118.1697 118.9045 117.3610 117.1694 117.0976 117.0759 116.9084 110.9290 104.8488 119.4546 116.0488 117.9849 119.0369 118.1648 119.8126 119.2863 111.8381 108.4125 108.1367 99.9268 112.7538 106.4704 120.4961 121.0185 120.4779 122.7605 119.3358 117.3985 111.2777 114.7600
119.8700 120.3413 118.2621 102.4940 121.3447 117.7300 118.8943 118.4653 119.0620 104.7556 99.0370 118.7218 117.7620 117.6553 117.6064 117.6658 118.0927 120.4251 92.8487 120.6771 114.9395 114.9170 118.7015 124.3614 118.5307 112.7550 111.8353 100.5333 102.8447 103.6928 113.3689 105.4153 118.4996 120.3775 120.3555 120.9184 118.5530 126.2498 100.2966 117.1400
120.2800 118.0359 122.2005 116.2376 122.6303 119.5628 119.0969 118.8926 118.4718 121.1798 118.5592 118.3603 118.2791 118.1257 118.0878 117.9878 117.1210 105.9358 95.4543 121.3267 114.3035 119.0960 120.7320 107.2283 118.8852 120.2839 115.4529 99.4251 115.8044 120.6608 117.3804 111.8430 109.6007 122.6010 121.0629 111.0429 110.0026 113.6584 110.1721 114.9200
120.6200 99.9167 110.1138 105.8415 120.5053 120.8885 120.3626 119.2792 119.2038 118.4585 118.8026 118.7779 118.6522 118.5859 118.5694 118.1191 119.1173 110.0760 115.6224 112.0525 101.2673 101.0268 105.9434 106.6501 120.1596 118.8188 122.7180 120.1248 120.0370 120.2701 120.4052 118.8680 107.9288 111.3581 121.8536 121.3921 121.4555 122.9072 108.3821 102.7400
101.4000 103.5504 97.1703 122.2100 112.7088 117.5616 103.9760 120.2477 119.5253 119.4626 119.2724 119.1655 119.0757 119.0423 118.9075 119.4655 118.9180 122.2905 105.5585 108.5387 100.1143 101.1572 100.0372 107.2194 120.4517 119.9145 119.4134 120.1174 120.1219 121.0360 99.4912 104.6847 114.5595 118.7947 121.3887 121.6698 121.8204 109.8324 105.3317 106.2700
104.9800 103.8758 122.7379 123.1893 118.1350 124.3041 120.3122 120.8599 119.8823 119.6830 119.7085 119.5749 119.5772 119.1535 119.3069 113.3036 119.1004 121.7964 99.4587 114.0696 103.8789 102.6831 112.3673 120.2752 120.5570 120.1960 120.2545 120.4397 120.6658 120.6657 106.7320 92.3650 118.1641 118.0466 122.5049 121.8091 122.4628 113.7397 126.1866 122.6400
103.1100 119.5728 123.7681 120.8513 121.5746 99.0448 120.2445 120.4062 120.2984 120.7273 119.4429 118.9961 119.8366 119.7009 119.5164 120.9630 123.2291 120.8057 105.6860 101.8587 103.5941 102.5452 114.9833 119.8280 120.1298 120.5114 120.5894 120.7649 120.7874 121.4569 116.6552 115.4481 122.5166 119.4338 121.6629 122.1613 123.0368 122.6993 122.5165 122.9500
121.6100 121.6100 121.2200 121.0300 121.0600 120.8900 114.0000 114.0000 120.4900 120.2600 107.5100 116.5500 120.0800 120.1300 120.1400 124.1100 129.3300 129.3300 104.1100 99.6400 104.3500 120.3400 120.3000 120.5300 120.4700 120.6800 120.8700 121.0500 121.0500 121.2200 117.1300 108.7500 111.0000 121.9500 122.1400 122.2800 122.4500 122.6500 122.7900 122.9500
