111.2800 110.1500 106.4900 106.3600 104.8800 102.9700 103.8400 96.5100 114.1200 118.9300 107.3300 112.7400 112.2400 112.2400 111.6300 111.7300 110.9200 110.9400 111.7800 111.7000 111.5800 112.1800 112.6600 113.2800 113.6600 114.1900 114.5700 115.0000 115.8400 116.1800 116.5500 116.9000 117.5700 117.8900 118.2000 118.8000 119.0700 119.3400 119.8600 120.1100
111.2800 109.1245 104.9347 105.5238 99.5212 105.6904 102.4201 101.4066 108.3657 106.7567 109.4659 112.6792 111.8234 111.4371 111.1657 110.2072 105.4494 107.0861 110.8730 111.0691 111.3756 111.8116 112.2872 112.8153 113.5112 112.7276 108.8223 114.4042 115.4649 115.9702 116.5143 117.0443 117.3557 117.7946 118.2338 118.6153 119.6564 110.1971 108.6308 120.1100
117.3900 110.0195 113.0544 109.9871 98.4275 97.5968 96.9456 99.2949 100.8175 114.5955 112.0296 111.5825 111.0048 110.4618 110.2739 104.9254 99.7500 105.5206 109.6841 109.9990 110.4022 110.9227 111.4944 112.0978 112.6097 112.2394 109.6341 111.0557 115.2979 115.6283 116.1457 116.3410 117.1596 117.5553 118.0060 118.3300 118.5681 113.8404 105.5446 119.7500
108.9600 106.5078 115.6016 116.7651 109.2240 103.1292 92.4046 91.7762 108.8915 111.9430 111.3431 110.7560 110.0564 109.4350 108.7736 108.7374 109.6628 108.6073 108.3707 108.7546 109.3210 109.9687 110.6770 111.3905 112.0828 113.4144 112.0560 112.3066 114.7622 115.4050 115.3868 122.2883 116.3727 117.3775 117.9079 118.2202 122.1240 110.6389 101.6944 102.4900
108.9600 104.3542 114.8932 114.7109 106.3350 98.4676 106.4265 112.3056 100.5842 113.9782 110.6115 109.9183 109.0593 108.2222 107.4959 106.8150 106.2449 106.4233 106.8070 107.3979 108.1393 108.9653 109.8241 110.6592 111.4871 112.2173 113.1506 113.9486 114.3704 115.0711 115.5753 117.9137 116.7013 117.2423 117.2931 118.9240 105.8462 97.7254 97.3247 105.6800
102.8600 102.8414 111.3842 104.8774 114.6945 100.9689 96.7086 102.2042 107.4000 110.4571 109.9544 109.1029 108.0227 106.9588 105.9286 105.0976 104.6135 104.5439 105.0009 105.8335 106.8439 107.9042 108.9553 109.9669 110.9122 111.8066 112.6160 113.3550 114.0967 114.7504 115.2349 115.7745 116.5319 116.4914 122.8199 117.4799 116.2966 117.1013 117.2296 122.7600
108.7800 105.3286 103.0570 97.8158 100.0349 108.5853 106.9090 100.9750 111.8056 110.4755 109.4160 108.2630 106.9866 105.6111 104.1926 102.8869 102.0109 101.9556 102.7420 104.0316 105.4452 106.8313 108.1184 109.2933 110.4554 110.6767 112.3433 113.0725 113.8311 114.5369 115.1926 115.8133 116.3704 116.8258 117.6179 117.9750 118.4023 118.7402 120.4136 100.3900
107.6500 105.4994 108.5749 104.9202 104.9307 95.3261 110.3849 109.2777 111.2272 112.7703 108.8027 107.4990 105.9990 104.2332 102.2395 100.1608 98.5338 98.3604 99.9625 101.9804 104.0149 105.8043 107.3648 108.7257 109.9405 110.9953 111.9534 112.8271 113.6271 114.3580 115.0412 115.6736 116.2495 116.8210 117.3281 117.7170 119.9837 118.6925 119.8062 119.3000
102.9800 108.5292 105.0164 103.4427 105.4030 101.7808 112.0375 104.4989 111.3302 109.5702 108.4783 106.9299 105.1631 102.9895 100.2221 96.6320 92.3962 92.1147 96.0414 99.8613 102.7049 104.9343 106.7522 108.2765 109.5819 110.7140 111.7426 112.6517 113.4752 114.2321 114.9259 115.5690 116.1677 116.7321 117.2442 117.7664 118.1538 118.6770 119.2860 119.2800
105.1300 101.2508 106.9945 100.6753 100.1361 105.3564 117.9061 111.4425 111.1794 109.5709 108.2005 106.5732 104.6322 102.1338 98.6791 92.3841 86.9440 86.5751 91.5660 98.1844 101.7871 104.3697 106.3756 108.0056 109.3793 110.5664 111.6139 112.5262 113.3663 114.1636 114.8650 115.5180 116.1295 116.7030 117.2302 117.7480 118.2348 118.6724 119.1740 119.2700
101.2800 100.1244 97.9872 101.3160 102.0781 106.0008 116.7396 109.7084 110.6683 109.4647 108.1133 106.5020 104.5111 101.9308 98.2970 91.4753 85.1690 84.7094 90.2248 97.7877 101.5710 104.2495 106.2941 107.9478 109.3378 110.5375 111.5707 112.6428 113.5714 114.1352 114.8467 115.5082 116.1172 116.6799 117.2200 117.7172 118.2113 118.7107 119.0885 119.2600
101.2800 101.4333 104.0860 110.3591 101.6944 103.5114 117.1071 111.9503 110.7568 109.6024 108.2730 106.7192 104.8373 102.4678 99.2858 94.5457 89.1988 88.8840 93.5222 98.9040 102.1528 104.5958 106.5238 108.1062 109.4572 110.6468 111.6767 111.9859 112.1393 114.2421 114.8928 115.5378 116.1446 116.7120 117.2495 117.7530 118.2131 118.4903 118.8318 119.2600
111.3500 107.6415 103.7466 106.8718 99.3208 108.7196 114.8187 112.8875 110.9219 109.8693 108.6230 107.1935 105.5236 103.5533 101.1696 98.5979 95.5480 95.3329 98.0772 100.8422 103.2978 105.3214 107.0178 108.4640 109.7225 110.9240 111.8085 111.5257 123.4547 113.6365 114.9678 115.6183 116.2074 116.7710 117.2974 117.7976 117.9251 118.9331 120.4984 119.5500
104.7300 102.5378 104.2491 98.3815 111.0118 108.5569 109.7370 112.3499 111.2666 110.2421 109.1233 107.8622 106.4492 104.8727 103.1768 101.5015 100.3048 100.2195 101.2997 102.9753 104.6862 106.2784 107.7127 108.9843 110.1081 111.1434 113.2869 113.0016 118.1154 114.0785 115.1156 115.7287 116.3119 116.8547 117.3879 118.0261 117.8770 118.4916 108.1826 104.1700
96.8800 108.2335 107.4893 98.7482 105.9649 113.8601 112.3412 112.6135 111.6562 110.7350 109.7291 108.6393 107.4773 106.2637 105.0465 103.9630 103.2767 103.2395 103.8630 104.8995 106.1081 107.3381 108.5121 109.6070 110.6173 111.5578 113.5778 113.2750 113.5317 114.4328 115.2605 115.8819 116.4308 117.0734 117.4837 117.9564 117.6254 117.6249 104.3711 103.2300
101.6300 101.2024 105.2071 100.7752 110.6311 113.6364 115.4998 112.4721 112.0605 111.2978 110.3951 109.4701 108.5160 107.5778 106.6771 105.9508 105.5275 105.4997 105.8880 106.5819 107.4652 108.4119 109.3653 110.2906 111.1840 111.9940 112.6504 113.5229 114.2605 114.8858 115.4870 116.0523 116.5742 117.2993 117.3711 118.9106 118.5857 121.5477 105.6108 103.7300
105.1500 103.6824 104.0882 102.1657 102.6124 91.3238 116.6667 112.6984 112.6916 111.8573 111.0930 110.3112 109.5335 108.7831 108.1240 107.6008 107.3086 107.2909 107.5595 108.0489 108.7034 109.4514 110.2297 111.0136 111.7726 112.5185 113.2273 113.8949 114.5382 115.1523 115.7215 116.2831 116.6402 117.4521 117.7122 117.4817 115.4767 102.6944 108.9930 119.6500
104.7100 105.6651 107.3284 102.1812 93.7650 101.0197 115.5603 110.3627 113.4483 112.3515 111.8230 111.1363 110.5002 109.9041 109.3893 108.9994 108.7851 108.7762 108.9641 109.3349 109.8691 110.4189 111.0637 111.7445 112.3919 113.0474 113.6859 114.3043 114.8839 115.4510 116.0643 116.4819 117.9349 118.5541 110.6761 100.9608 120.7311 103.1394 114.9433 104.4100
108.2600 106.8349 101.3487 96.3411 94.4235 99.6149 95.1014 103.0292 114.9462 113.0751 112.5183 111.9307 111.3981 110.9079 110.5165 110.2216 110.0577 110.0455 110.1890 110.4937 110.7009 111.4066 111.9568 112.3958 113.0009 113.5877 114.1570 114.7071 115.2527 115.6278 116.4234 116.7049 126.7987 103.4030 100.5858 104.4659 103.3931 109.3760 114.3637 114.4400
96.8700 112.0795 103.3138 112.6381 116.9469 117.8148 116.5285 115.3483 114.0602 113.6650 113.1598 112.7011 112.2549 111.9243 111.5009 111.2892 111.1575 111.1583 111.2669 111.4985 111.9482 111.1058 111.1610 113.1135 113.6265 114.1260 114.6354 115.1223 115.6976 116.3188 115.8028 123.7088 114.4534 102.7129 107.4024 100.1278 105.9780 109.5311 125.6894 111.0300
105.5300 104.7305 101.6942 114.7289 104.3540 116.5121 114.9037 115.1630 114.4848 114.3052 113.8214 113.3795 112.7209 111.7066 112.4327 112.2511 112.1441 112.1368 112.2260 112.4221 112.7182 110.9420 112.6339 113.9552 114.1977 114.6608 115.1133 115.5887 115.7820 116.4355 108.9175 128.5000 104.0602 114.0377 122.9912 108.8632 112.3738 108.6527 116.6718 110.1300
105.5300 101.3015 99.1832 119.7885 113.1106 115.4178 116.1293 115.7037 115.2126 114.8306 114.4444 114.0877 113.8041 113.4252 113.2483 113.1159 113.0154 113.0196 113.0939 113.2695 113.3277 113.9179 114.2151 114.2888 114.8007 115.1836 115.5640 115.9940 116.7776 114.3878 130.1417 109.7658 116.0913 118.1720 107.9116 118.5314 94.5324 106.2265 112.3228 109.9400
99.3900 99.5047 105.1711 115.2053 97.2496 108.7265 116.6853 116.0583 115.7344 115.3826 115.0501 114.7204 114.4310 114.2102 114.0292 113.9059 113.8746 113.8377 113.8848 114.0078 114.2131 114.3991 114.6766 115.0287 115.3329 115.6958 116.0787 116.2825 117.7179 98.7862 104.8212 100.1100 111.5934 104.7931 96.0781 112.2417 128.0751 110.6469 111.5027 120.5100
97.8800 110.6166 117.1098 97.9313 118.2064 115.9260 117.0506 116.5437 116.2369 115.9063 115.6131 115.3418 115.1098 114.8869 114.7252 114.5548 114.3847 114.4870 114.6060 114.7151 114.8655 115.0777 115.3148 115.5771 115.8688 116.1861 116.5113 116.8879 116.7849 117.5131 99.8191 116.9448 120.7071 97.8924 97.5508 107.5075 115.9353 118.9522 109.3935 120.8000
101.8700 114.4324 108.7132 116.4614 119.2296 117.4013 117.2959 116.9782 116.6890 116.4324 116.1771 115.7376 115.6340 115.5466 115.4185 114.5786 115.7712 115.1249 115.2862 115.3763 115.5071 115.6780 115.8835 116.1300 116.3758 116.6638 116.9618 117.2602 117.9460 114.9848 105.5822 118.1137 110.6382 106.3205 115.5177 114.3626 104.7754 110.0476 110.5623 120.8600
103.4100 116.5555 115.8570 119.1380 118.2539 117.8855 117.7127 117.4286 117.1531 116.9300 116.5204 117.5953 116.7662 115.7125 115.8328 99.2261 115.0581 115.5698 115.9084 115.9860 116.1003 116.2487 116.4409 116.6314 116.8983 117.1395 117.4076 117.6979 117.9091 118.4145 119.1444 114.9147 99.1592 103.2850 105.8185 106.7475 107.3676 114.2875 121.4894 121.1500
119.6900 120.3625 120.8988 118.7473 118.7236 118.3671 118.0925 117.8536 117.6065 117.4051 117.7914 105.9687 116.2862 116.4086 115.4191 110.7073 116.5219 116.5169 116.4773 116.5522 116.6553 116.7945 116.9586 117.1681 117.3123 117.4575 117.9259 117.9885 118.3930 118.9229 119.8846 104.2657 107.1016 109.9814 102.0300 104.7317 110.6256 109.1497 113.1385 121.2200
119.7700 119.8502 119.3287 118.8660 118.9826 118.7381 118.3267 118.1987 117.9794 117.8353 118.4348 113.3766 118.9876 116.7864 117.5213 117.2794 117.0307 116.9783 117.0238 117.0870 117.1767 117.3033 117.4425 117.6251 117.7139 118.5361 112.7998 118.7758 118.6935 119.1017 119.8502 113.4257 110.6081 122.8844 109.2784 112.0198 107.2199 118.4301 118.7697 121.5000
115.8800 119.1201 119.8655 119.5904 119.3377 119.1202 118.5554 118.5315 118.5043 118.3732 117.8405 118.5118 117.6250 117.6832 117.4915 117.5383 117.5764 117.5753 117.5442 117.5987 117.6722 117.7868 117.9196 118.0697 118.1354 115.7566 109.2312 119.5029 118.0859 119.1502 117.2992 105.8778 107.7175 111.9589 123.8096 124.0093 113.5955 115.7856 118.5429 115.8600
121.6000 120.5430 120.1166 119.8348 119.6358 119.4471 119.2923 118.4765 118.0214 118.1067 118.3209 118.2910 118.1798 118.1627 118.0988 118.0420 117.3215 117.5085 118.0336 118.0718 118.1525 118.2213 118.3449 118.4980 118.7223 119.4058 118.8232 118.9563 118.1347 120.0745 118.1693 101.4282 100.8666 96.9579 113.7023 119.3193 117.5141 95.7434 119.1602 117.6100
123.3000 120.8847 120.5510 120.1772 120.2434 119.8102 119.7419 120.1099 115.6892 116.4167 118.9952 118.7924 118.5884 118.6100 118.5367 118.6070 116.2112 118.7505 118.4782 118.6229 118.5786 118.7964 118.8932 118.8585 119.0762 119.1577 119.1073 119.6919 120.2761 104.7724 109.7716 102.7613 118.6247 113.2012 127.5689 121.0619 122.6604 116.2906 112.2826 116.0600
121.1600 121.1149 120.7193 118.6587 120.1192 120.1311 119.7930 118.7299 96.0976 116.1765 117.7349 113.8025 120.1569 119.1804 118.9841 118.9954 121.0504 121.4235 119.3402 118.9498 119.0696 118.5493 118.7478 119.5621 119.7623 120.5024 120.5334 119.3547 103.7656 105.8473 101.9576 95.6729 114.9416 106.3935 120.0665 121.4703 121.0589 123.8977 116.1973 113.2400
121.1600 121.0284 121.0203 119.3200 120.2194 120.4388 120.0704 121.8705 118.7375 123.4943 109.8016 121.7869 111.2577 119.8409 119.3489 120.3935 103.7751 103.5037 119.3017 119.4403 118.3251 119.6235 127.3035 113.3621 118.4912 110.5509 121.8352 121.0677 108.0286 104.3191 105.0910 102.9300 111.8237 116.5105 123.5791 121.6111 121.9564 122.0288 122.2066 122.5000
121.4800 121.8007 121.0318 117.0321 121.7448 120.7249 120.5917 120.2491 120.8539 101.4879 111.6354 121.2903 115.7186 117.8843 119.7497 119.8400 114.7755 116.5545 118.6507 120.6961 111.3296 113.9912 119.1426 103.1415 120.8798 106.6549 103.4983 107.7537 104.5662 99.7082 99.6724 112.7371 122.9336 121.9652 115.8705 115.6172 123.4293 123.6444 123.5303 122.7400
121.8000 123.2278 116.9368 115.7417 121.7714 121.0531 120.8839 120.8420 121.5419 120.2692 122.4449 119.8369 119.3257 118.9975 119.9750 122.1148 101.2440 100.5004 119.6464 119.7043 113.8163 118.9103 99.9510 113.1622 123.0530 97.4969 100.5452 103.8145 113.4550 106.8250 112.6171 116.4098 122.4024 122.4713 118.9907 115.0968 121.3327 115.9005 115.2611 122.8000
122.0900 122.8093 105.1133 119.8000 121.3172 121.3465 121.2048 121.1333 120.8407 120.7480 120.5292 120.7125 120.7638 120.5511 120.5140 121.0657 119.0765 111.1096 118.5946 112.9544 99.3747 108.0594 103.6454 124.3452 120.6799 113.8714 115.1294 104.0948 114.2809 117.9041 105.8084 108.7430 113.0173 122.0817 118.5634 122.9431 109.9238 121.1513 122.4128 123.0500
102.3000 107.9353 120.6128 123.5692 119.8643 121.0880 121.5145 121.3742 121.3131 121.1795 121.1639 120.9717 120.9545 120.8744 120.9405 119.8959 120.6131 115.9340 98.6563 114.9532 101.9949 99.5425 101.5122 118.3012 121.1859 121.7987 122.7887 120.8171 123.1352 117.5822 102.6419 110.2272 116.3722 122.6512 122.4534 122.5637 124.7350 108.9173 105.3652 116.2600
102.3000 103.6073 110.8036 123.6813 110.3485 124.3197 121.8368 121.6569 121.5953 121.5230 121.2191 121.6627 121.2246 121.0575 120.5820 120.2782 120.5455 119.9493 120.5129 108.2125 103.5392 98.6227 117.3971 122.7786 121.4079 121.4710 121.7440 121.8850 121.4597 123.6826 108.7028 99.9593 117.0655 123.4864 122.5703 122.8548 123.3406 116.6215 118.0900 116.2600
122.9200 99.0799 114.7000 122.0704 122.9952 121.6756 122.4129 122.0364 121.8718 121.4647 121.8847 112.5868 122.0941 121.2536 122.0057 119.5309 111.7143 110.9330 98.6156 112.9381 101.9340 108.0365 123.4082 121.2742 121.8325 121.8906 121.9609 122.0735 122.2238 119.9647 106.8450 101.0466 114.2265 120.3006 123.1212 122.9981 123.1265 123.7209 125.0074 123.5800
122.9200 122.7700 122.8000 113.9400 122.5100 122.2900 118.2400 122.1800 121.9900 118.4800 100.0700 100.1000 121.8800 121.6400 121.6600 106.8400 118.3000 118.3100 100.3100 105.4200 103.3200 121.8700 121.8400 121.8100 122.0200 122.2000 122.2000 122.3300 122.3300 122.4900 108.5200 108.5200 114.6100 122.9200 123.0900 123.2200 123.3900 123.5100 123.6600 123.8000
