124.2800 117.5000 124.6200 124.6200 122.9200 122.9200 116.3100 116.3100 117.9000 116.4900 123.6100 123.6400 123.6600 123.6800 123.6800 123.4600 123.4600 123.6800 123.6700 123.6700 123.6400 123.6300 123.8100 123.7900 123.7600 123.9300 123.9000 124.0600 124.2100 124.1700 124.3100 124.2900 124.4400 124.5600 124.6800 124.8400 124.9500 124.9500 125.0600 125.2100
124.2800 124.3857 121.8472 115.9107 119.4539 117.0036 118.5561 115.3538 118.6119 111.2544 122.4079 123.4652 123.4647 123.4598 123.4427 123.4248 123.3272 122.9864 123.4668 123.4846 123.4884 124.2654 123.7149 123.5995 123.6914 123.7473 123.8120 123.8910 123.9690 124.0540 124.1384 124.2345 124.3283 124.4222 124.5279 124.6382 124.7496 124.8600 124.9786 125.0000
124.0500 123.3422 125.6123 117.7420 118.4002 114.2488 119.9909 111.2907 115.3946 113.2274 110.1301 123.4036 123.3346 123.1783 123.1748 123.1670 122.1508 121.4286 123.2135 123.2395 123.2308 121.9743 122.8145 123.3504 123.4491 123.5093 123.5757 123.6559 123.7382 123.8136 123.9174 124.0139 124.1179 124.2200 124.3269 124.4413 124.5609 124.6804 124.7990 124.9800
119.6300 121.9684 122.3168 117.3186 117.3522 116.3665 114.9873 110.3459 120.9658 110.1729 108.7496 121.5302 122.6904 123.0188 122.9321 122.9236 123.1899 123.0520 122.9450 122.9484 123.0067 123.1702 123.0695 123.1274 123.1894 123.2596 123.3384 123.4309 123.4603 123.6377 123.6843 123.7946 123.9021 124.0158 124.1297 124.2440 124.3663 124.4854 124.6145 124.7900
117.7900 118.3502 123.0947 116.3299 116.2993 115.6559 116.9727 110.5880 115.3436 109.7617 124.9613 120.3435 122.5795 122.6500 122.5325 122.5881 122.5724 122.5541 122.6409 122.6882 122.7104 122.7313 122.8101 122.8632 122.9353 123.0190 123.0714 123.0884 123.5420 123.2040 123.4952 123.5686 123.6859 123.8022 123.9212 124.0453 124.1731 124.2961 124.4264 124.5700
116.4300 115.9500 123.4077 115.6957 114.2280 116.1024 115.9084 111.1700 107.6426 104.8296 120.8164 122.4758 122.5460 122.3176 122.7899 122.5158 122.1926 122.8348 122.3802 122.4185 122.4364 122.4874 122.5385 122.6016 122.6646 122.7559 122.7393 122.7038 120.6206 123.2185 123.2757 123.3445 123.4629 123.5826 123.7085 123.8407 123.9809 124.1003 124.2370 124.3400
120.9300 116.9943 113.9408 119.5436 114.5557 118.9711 110.0834 119.2629 118.5855 116.1502 121.8535 125.9558 125.5722 121.8270 120.8026 119.2804 122.4198 117.5149 122.3336 122.1487 122.1516 122.1920 122.2571 122.3220 122.4144 122.3917 122.7507 120.6826 119.3981 123.0187 123.0231 123.1131 123.2349 123.3573 123.4847 123.7091 123.7125 123.9182 124.0586 124.1100
116.9400 116.5032 111.0512 109.7415 114.6394 117.3138 116.2881 126.5458 117.2200 120.4472 119.7349 121.9373 121.0291 121.3752 122.0869 118.6601 121.8074 111.9564 122.0835 121.8663 121.8459 121.9097 121.9761 122.0312 122.1500 122.5173 121.3815 112.8769 122.4872 122.4396 122.7466 122.8818 123.0149 123.1642 123.2777 123.1859 123.7596 123.6624 123.7684 123.8600
117.5700 116.6528 112.8219 110.7270 117.0519 114.1851 115.2614 127.5182 120.9744 122.2853 120.8771 121.6726 121.6070 122.2684 121.0261 120.2924 121.2536 121.0850 121.3601 121.5376 121.5268 121.6053 121.6340 121.7455 121.8661 123.1025 112.7369 114.7047 123.2132 122.3769 122.4829 122.5699 122.7185 123.0051 122.3760 112.7328 121.0737 122.9580 123.8205 123.8300
119.0400 119.2980 114.6959 102.6013 112.0997 118.3195 114.6892 119.3299 121.2043 121.5138 121.4290 121.8204 122.8611 110.3541 121.8073 120.6060 121.1055 120.9853 121.1972 121.1632 121.5099 121.1320 121.4728 121.4348 121.5226 120.6308 114.0968 123.0536 122.0594 122.1389 122.2387 123.1342 122.9012 122.2062 124.4850 123.0502 118.6949 109.6029 117.1523 123.6100
122.5900 123.6003 115.9372 100.4305 112.4150 116.3718 119.7337 123.3270 120.0769 121.3094 123.5720 120.3473 114.7382 104.7337 121.3262 119.6081 119.6412 112.3989 121.0046 120.4869 122.1854 112.6703 121.8703 121.0830 121.2826 121.2807 123.1029 120.0921 121.1479 121.7544 121.9178 121.2478 117.4369 120.0039 113.8170 123.5983 114.1248 114.2943 121.9952 123.3500
122.5900 115.4733 120.9465 112.4375 105.4899 112.8952 118.4309 123.5231 119.7189 120.8904 121.1945 119.8788 120.0846 119.9196 118.5946 115.5218 113.5634 121.5853 120.4587 119.4044 117.8677 109.4848 119.8482 120.8512 120.8529 120.9857 121.4691 120.0420 122.4613 121.7186 122.4589 121.6617 123.4393 116.6612 113.3338 121.8411 116.7504 124.5039 123.7643 123.3200
117.2200 121.7553 112.7604 109.4286 107.3739 115.7460 126.5218 123.3405 120.1213 120.5188 120.2267 120.9581 118.4895 120.1700 119.9878 120.7023 120.6109 119.9252 120.1163 119.8709 121.8602 108.1481 116.9787 120.2695 120.6203 120.7000 120.8088 121.3544 116.8497 121.4060 110.9420 120.0279 114.9910 119.9584 125.1812 122.1385 123.0485 122.4922 122.9291 123.0900
142.3100 114.4770 106.6769 112.3138 114.7199 117.6942 128.6172 119.3732 120.2380 120.0474 119.9236 119.8577 119.3990 119.9393 119.7481 119.5868 119.5821 119.7037 119.6936 119.7315 120.0843 120.7805 119.8561 120.2624 120.2353 120.3761 120.5460 121.2169 122.5965 111.1381 120.3748 121.2114 121.4848 121.1025 122.8119 121.7692 122.2949 122.5111 122.7015 122.7800
111.6000 116.4228 113.9310 119.0620 104.5678 108.1704 124.1595 119.5010 119.7021 119.6515 119.5555 119.4614 119.4029 119.2861 119.2675 119.2730 119.2644 119.2693 119.3167 119.3847 119.2839 119.7673 118.9842 121.4990 119.8350 120.0411 120.2905 119.3066 121.5357 124.2169 121.7350 120.7870 121.4394 121.5570 121.6057 121.9591 122.1028 122.2906 122.4863 122.5300
114.0600 107.7532 111.6003 114.9162 111.7338 110.1060 117.6834 119.5345 119.3754 119.2741 119.1675 119.0535 118.9727 118.8628 118.8811 118.8648 118.9222 118.9227 118.9071 118.9618 119.0785 119.0957 120.1097 118.3427 119.3808 119.7174 119.7267 120.5931 116.1001 111.6922 121.1114 120.5781 121.0700 121.2090 121.3398 121.7002 121.9225 122.0280 122.2928 122.4600
117.5000 114.2745 113.3433 110.2317 122.0498 110.3947 119.0929 118.9911 119.1640 118.9023 118.7152 118.6411 118.5347 118.9950 118.4460 118.3644 118.0749 118.2655 118.4860 118.5386 118.6195 118.7731 118.7207 119.1550 118.7576 119.4307 119.5105 119.3996 122.6668 120.1342 120.2145 120.5165 120.7786 120.9501 121.1500 121.5800 120.1476 121.8938 122.1098 122.2000
118.1600 107.7690 116.7838 111.3380 115.9889 118.8524 126.2686 120.1153 118.7026 118.2511 118.6542 118.1554 118.0913 118.2562 117.7033 118.0037 119.0250 118.2435 117.9616 118.0751 118.1861 118.2961 118.3843 118.5299 118.8203 118.9593 119.1464 119.3487 119.6797 119.6491 120.0267 120.2478 120.4779 120.8134 117.6356 114.5865 115.2711 122.1839 121.8761 122.1300
117.7000 103.4873 107.7279 117.5586 118.0929 119.0439 118.3448 118.1958 118.3717 117.8000 119.1364 117.7160 117.5247 117.7115 118.1725 115.7595 106.7532 120.3571 117.4480 117.6314 117.7185 117.8045 118.6179 118.6563 118.2679 118.5488 118.8056 119.0298 119.3281 119.6592 119.7317 119.9696 120.6683 121.5401 114.4416 113.7110 120.3440 121.3106 121.7341 121.8700
114.4300 108.1588 104.3955 111.4523 119.5420 118.1029 118.2242 117.5753 116.8262 116.9049 116.8936 120.1770 117.1736 117.0592 116.9089 117.5071 117.1513 114.4905 116.9985 116.9436 117.2476 117.3500 108.6852 117.7381 117.7398 118.2245 118.4006 118.6455 118.8818 119.1643 119.4099 119.5789 119.7698 114.5918 122.5530 121.4649 121.2631 121.2981 121.5094 121.8000
113.9000 110.1402 108.2095 107.2919 113.4815 119.6081 117.8735 117.8894 119.0915 113.4662 116.9290 116.6855 116.3424 116.5170 116.4151 116.2001 116.2886 116.4413 117.1692 117.4082 116.7000 117.5658 115.1223 118.0580 118.0064 117.7475 118.0135 118.2837 118.5515 118.7820 119.0975 119.2974 120.4667 106.9212 120.6305 120.3360 120.7469 121.0450 121.3251 121.4600
109.4400 111.2558 106.8219 106.3591 111.0589 117.9833 116.5946 116.1279 113.3510 112.8121 116.2247 116.2196 116.1051 115.9638 115.8590 116.3631 116.7113 117.2193 104.8956 116.1986 116.1488 115.9557 122.4345 107.8826 117.2837 117.3360 117.6115 117.9007 118.2000 118.6647 118.8985 119.1631 119.8607 116.4928 119.6297 120.2749 120.5895 120.8623 121.1366 121.4600
112.1100 92.8890 106.9546 103.3204 114.0457 117.9943 116.3511 116.8013 116.2757 117.0049 115.5430 115.6475 115.4211 115.3307 115.5537 111.1770 108.5800 108.6604 115.1321 116.1626 115.5319 115.2982 115.0335 116.2435 116.8287 116.9031 117.2033 117.5001 117.9775 118.1602 113.5610 120.4733 119.5065 119.6603 121.2004 120.0133 120.3899 120.6634 120.9590 121.1200
125.2100 125.5654 104.0496 109.9930 111.1020 118.7018 115.9595 116.1765 115.8791 115.4772 115.3237 114.9955 114.8376 114.8100 113.3233 117.4237 113.2768 118.8970 104.0470 115.7060 114.9439 115.5516 114.5714 115.9248 116.1018 116.4409 116.7917 117.1319 117.4464 117.6022 118.0829 112.5644 117.0955 118.6881 119.9159 119.8401 120.1779 120.4855 120.7831 120.8300
124.5200 118.0827 117.4715 117.6285 116.5187 116.7541 115.8560 115.7301 115.2994 114.9985 114.6358 114.4891 113.9250 114.3496 111.4681 115.4806 119.3052 117.1024 114.4540 114.1823 114.3163 114.5560 114.9241 115.2618 115.6175 115.9855 116.3594 116.7075 117.2753 117.4728 117.1716 104.4705 113.9723 120.6297 119.2498 119.6184 119.9841 120.3042 120.6142 120.7700
117.7800 118.2500 116.6880 116.8586 116.4670 115.9566 115.5998 115.1616 114.7669 114.3698 114.0952 112.9651 113.5049 113.1561 113.2704 112.9353 112.1793 113.1238 113.0425 113.3598 113.6245 113.9543 114.3161 114.6957 115.1056 115.5371 115.8839 116.3965 116.7386 117.1404 118.7121 112.2645 104.6822 119.5754 118.8907 119.4610 119.7926 120.1244 120.4577 120.7100
100.6400 118.0134 116.5413 116.5164 116.0324 115.5741 115.1016 114.6553 114.1923 113.7279 113.3384 112.9655 112.5178 112.3515 112.0981 112.0277 112.0801 112.1249 112.3006 112.5568 112.8874 113.2650 113.6843 114.1054 114.5833 114.9385 116.2048 115.8711 116.4505 116.9383 117.1915 117.8818 118.5131 118.7226 118.8950 119.2527 119.6209 119.9800 120.3228 120.4200
97.5000 107.4405 117.1532 116.1391 115.6413 115.1448 114.6349 114.1147 113.6067 113.1017 112.5972 112.1387 111.7522 111.4034 111.1712 111.0269 111.0185 111.1298 111.3551 111.6773 112.0764 112.5285 113.0182 113.5109 114.0417 114.6745 115.6005 114.6881 115.8519 116.2822 116.0136 116.4415 117.5929 118.1845 118.6805 119.0662 119.4359 119.7123 119.9322 120.3600
120.6400 117.1409 116.1465 115.8506 115.2703 114.7282 114.1677 113.5879 113.0023 112.4207 111.8389 111.2971 110.7987 110.3843 110.0793 109.9063 109.8899 110.0437 110.3313 110.7276 111.2091 111.7163 112.3240 112.8991 113.5089 114.0191 114.7068 115.3817 115.0350 115.2293 117.0087 117.5404 117.6766 118.1105 118.5002 118.9088 119.2291 120.5447 120.9820 120.3100
118.9900 115.9669 115.9435 115.4855 114.9168 114.3232 113.7028 113.0621 112.3954 111.7237 111.0503 110.3895 109.7738 109.2437 108.8383 108.6192 108.5983 108.7951 109.1650 109.6748 110.2860 110.9311 112.0845 112.1989 112.9469 113.6020 114.2283 114.7559 115.6212 116.2468 116.3948 116.8737 117.4332 117.8859 118.3213 118.7414 119.6560 112.2493 115.4392 120.2600
116.5300 116.3119 115.7921 115.1941 114.5859 113.9383 113.2621 112.5490 111.8001 111.0210 110.2175 109.4193 108.6511 107.9598 107.4205 107.1092 107.0798 107.3513 107.8539 108.5201 109.2865 110.0510 111.3293 111.6901 112.4336 113.1476 113.8312 114.4861 115.0880 115.6304 116.2452 116.7636 117.2538 117.7264 118.1726 118.5295 119.2697 118.6854 121.3813 110.5400
116.4600 116.1037 115.5213 114.9223 114.2846 113.5880 112.8568 112.0646 111.2256 110.3262 109.3816 108.4047 107.4154 106.4990 105.7397 105.2815 105.2417 105.6380 106.3562 107.2681 108.2374 109.2206 110.1429 111.0879 111.9296 112.7230 113.4696 114.1672 114.8228 115.4448 116.0167 116.5648 117.0845 117.5794 118.0478 118.4566 118.7444 133.5897 121.2043 115.7000
116.4000 115.9374 115.3366 114.6982 114.0161 113.2744 112.4821 111.6267 110.6860 109.6678 108.5557 107.3616 106.0975 104.8288 103.7035 102.9615 102.8955 103.5436 104.6390 105.8884 107.1603 108.3651 109.5044 110.5231 111.4748 112.3468 113.1521 113.8922 114.5907 115.2351 115.8394 116.4152 116.9329 117.4449 117.9363 118.3135 118.0586 126.6239 108.5489 119.8600
116.3500 115.7945 115.1735 114.5095 113.7929 113.0223 112.1764 111.2469 110.2161 109.0787 107.7952 106.3558 104.7337 102.9537 101.1563 99.8581 99.7832 100.8942 102.6551 104.4458 106.1001 107.5694 108.8785 110.0452 111.0799 112.0255 112.8815 113.6734 114.3947 115.0634 115.6921 116.2752 116.8484 117.3814 117.8481 118.2703 118.6330 119.9912 118.3318 119.8400
115.9100 115.6830 115.0514 114.3691 113.6222 112.8184 111.9326 110.9500 109.8515 108.5971 107.1571 105.4620 103.4478 100.9433 98.0580 94.8405 94.3595 97.4538 100.4830 103.0687 105.1559 106.8962 108.3790 109.6508 110.7754 111.7821 112.6805 113.5006 114.2504 114.9360 115.5533 117.0604 116.4633 117.3420 117.7736 118.1759 118.7645 122.3923 120.5791 119.8200
115.8800 115.6166 114.9779 114.2757 113.5216 112.6909 111.7830 110.7634 109.6100 108.2757 106.7138 104.8219 102.4241 99.1803 93.9200 88.3836 87.9246 92.7051 98.5767 101.9700 104.4700 106.4319 108.0410 109.3987 110.5790 111.6196 112.5507 113.3661 114.1623 114.8131 115.2658 121.7248 116.3321 117.3273 117.7318 118.3006 118.4591 122.8004 118.6487 119.8100
115.8700 115.5977 114.9456 114.2419 113.4776 112.7342 111.7288 110.6890 109.5135 108.1498 106.5381 104.5530 101.9930 98.3708 91.3843 85.1204 84.3386 89.9557 97.6178 101.4839 104.1831 106.2365 107.9022 109.3007 110.5073 111.5512 112.3482 113.2149 114.1462 115.2008 116.0132 111.2683 117.1943 116.9848 117.7176 118.3404 118.2792 119.1619 118.0127 110.5200
115.8700 115.6144 114.9658 114.2646 113.5845 111.8578 111.8143 110.7404 109.5713 108.2387 106.6555 104.7363 102.2915 98.9292 92.7220 87.3711 86.8565 91.8743 98.3170 101.8180 104.3753 106.3653 107.9981 109.3674 110.5563 111.5934 112.4875 113.2531 114.2585 113.9005 116.0402 112.1022 114.5962 116.8607 117.7520 118.2134 118.2785 122.0553 119.4910 119.8000
116.3100 115.6716 115.0414 114.2826 113.4844 111.5137 111.9154 110.9174 109.7926 108.5269 107.0531 105.3218 103.2121 100.6681 96.6958 93.2588 92.9009 96.6568 100.0800 102.8320 105.0065 106.7847 108.2952 109.5974 110.7309 111.7429 112.6557 113.5047 114.2813 113.0720 117.2534 112.4478 107.7975 117.9727 117.7158 118.1742 118.9125 115.5755 119.5064 119.8000
116.3100 115.9100 115.0500 114.5800 113.5800 113.0200 111.8100 111.1300 109.6000 108.7200 107.7500 105.4700 103.9900 102.3000 100.6500 97.8500 97.7900 100.4600 100.3400 103.9900 105.4200 106.6500 108.6900 109.5900 111.1300 111.8000 113.0200 113.5700 114.0900 115.0500 120.1500 109.5000 116.6900 117.4100 117.7500 118.3900 118.6900 118.9900 119.5500 119.8100
