105.1900 108.3600 100.8600 104.2600 105.1400 101.1000 102.2500 96.8000 114.3400 111.6500 110.9200 112.9800 113.1200 102.2200 112.6100 111.8500 112.6500 112.6500 112.5100 113.0900 113.0900 113.5700 113.9700 114.3400 114.8200 115.1800 98.4000 95.1900 116.3800 116.6800 117.3600 117.6800 118.3000 118.6200 118.8700 119.1400 119.6700 119.9300 120.4100 120.4100
105.1900 106.8637 108.0011 109.6535 104.6200 106.9027 103.2450 102.5572 99.8730 106.5648 111.9629 112.7971 112.4904 111.4687 111.7809 109.3425 108.0362 111.6196 112.0571 112.2504 112.6125 112.9927 114.4024 113.8556 114.4246 104.2000 99.8326 105.0873 117.0700 116.4738 117.1777 117.6082 118.0144 118.4248 118.8124 119.1412 119.4806 120.7666 120.8591 98.3600
102.5400 101.6356 102.4719 106.4822 100.9938 104.2386 99.9609 106.6996 96.2466 113.2977 112.1533 111.9708 111.3860 111.0978 110.8165 105.7567 99.3935 106.9067 111.1597 111.3572 111.8520 112.2995 105.6045 113.1051 113.8311 105.4397 106.8663 115.9394 115.6591 116.4756 116.8907 117.3434 117.7896 118.2026 118.6222 119.1977 119.7856 115.9735 104.9565 120.3100
105.1500 104.0660 102.2192 102.6524 97.8824 101.0911 99.2106 110.9603 110.7656 111.0803 111.3974 110.9885 110.4454 109.9914 109.6859 110.0994 111.0839 109.9069 109.8878 110.4114 110.7940 111.2674 112.8772 112.9853 113.4418 114.2854 111.8097 110.1215 115.7504 116.1453 116.6168 117.1024 117.5661 118.0324 118.3534 117.9357 127.5943 100.2325 99.8422 101.3800
109.8000 107.8495 106.3051 101.9541 101.3753 98.5368 98.1910 104.6388 110.8651 111.7625 110.5977 110.0490 109.3678 108.7972 108.3427 107.9995 107.7648 108.2581 108.7223 109.2694 109.9430 110.7096 111.5821 112.1038 112.7002 113.3865 113.7775 113.7527 115.2699 115.8552 116.3782 116.8876 117.3606 117.8006 118.7489 119.1629 108.7205 100.4419 98.1068 101.6800
105.5300 107.6344 104.9298 104.5666 98.4355 102.7034 110.3173 91.8469 108.2743 104.9808 110.4163 109.0395 108.2246 107.4531 106.8526 106.5077 106.5174 106.7756 107.3412 108.0864 108.9137 109.7567 110.6325 111.4416 112.3032 112.9407 113.6248 114.6781 114.9971 115.5779 116.1478 116.6742 117.2141 117.7669 114.8944 118.7340 116.0347 117.3334 115.6467 105.3100
109.1200 105.0968 104.3250 104.0736 103.6026 100.2387 110.7271 94.9574 88.4501 110.9319 108.7411 108.0686 106.9427 105.9288 105.0432 104.5079 104.4627 104.9413 105.7530 106.7767 107.8500 108.9120 109.9246 110.8683 111.2494 118.3878 113.1029 114.2366 114.7291 115.3571 115.9556 116.5016 117.0319 117.5243 117.8471 118.2037 118.6517 121.4626 98.8710 99.3900
106.6600 104.3025 107.6081 105.9854 102.7814 101.2348 115.9646 107.8060 98.2633 110.6407 107.1058 106.8609 105.6557 104.1699 102.8530 101.9545 101.8755 102.6663 103.9452 105.3749 106.7719 108.0683 109.2646 110.3176 111.3523 112.3013 112.9374 113.7888 114.5119 115.1736 115.7822 116.3538 116.9172 117.2364 117.3012 127.3151 122.8361 111.7056 120.2883 108.5600
103.2100 105.4036 96.3067 103.2543 101.8571 106.2001 107.2827 108.2163 107.3914 109.0116 108.0439 105.9672 104.2485 102.2377 100.1259 98.3663 98.2658 99.7975 101.8758 103.9356 105.7368 107.3120 108.6753 109.8824 111.0011 111.9248 112.8457 113.6049 114.3408 115.0160 115.6588 116.2071 116.4628 116.9248 117.7692 117.3436 118.8526 119.6294 119.4265 123.2800
99.5800 93.6218 104.4216 103.0004 103.3730 109.9772 115.8322 110.9532 112.3842 108.6316 106.9414 105.1960 103.0165 100.2475 96.6731 92.3822 91.8557 95.8179 99.7476 102.6163 104.8722 106.7034 108.2312 109.5500 110.6908 111.7008 112.6134 113.4506 114.1985 114.9009 115.5632 116.1439 116.7816 117.2718 117.8162 118.3431 118.5395 118.9876 119.3508 119.8200
103.1100 100.1710 102.4102 103.1920 102.0370 111.6774 114.5987 109.3973 109.1643 108.2165 106.6052 104.6827 102.1776 98.7495 92.5719 86.6045 86.1536 91.2862 98.0434 101.6977 104.3026 106.3234 107.9601 109.3492 110.5429 111.5922 112.5253 113.3923 114.2282 114.8404 115.5061 116.1009 116.6607 117.2053 117.6796 118.1690 118.7026 119.3222 119.4421 119.8100
102.0200 104.9942 99.7487 103.2699 99.4553 111.4181 116.6768 104.2841 109.9585 108.2115 106.5362 104.5626 102.0064 98.4156 91.5841 85.3826 84.7862 90.1066 97.6597 101.5036 104.2068 106.2683 107.9067 109.2984 110.5053 111.5686 112.5390 113.0143 113.8121 114.8260 115.4953 116.1046 116.6755 117.2241 117.7415 118.2276 118.5989 118.6098 118.2770 124.2600
105.1900 104.9142 100.1842 100.8568 109.1593 110.0211 115.6056 110.5352 109.5348 108.3165 106.7693 104.9040 102.5468 99.4196 93.9964 89.2360 88.6955 93.5274 98.8425 102.1074 104.5151 106.4203 108.0762 109.4740 110.6156 111.6432 112.6483 113.2901 116.8102 114.8213 115.5051 116.1352 116.6975 117.1895 117.6701 118.2966 118.5117 119.4919 125.3603 119.8100
104.2300 105.0099 98.0906 94.6044 111.6051 111.3471 105.4954 111.3691 109.7150 108.6626 107.2447 105.5915 103.6313 101.3409 98.4991 95.7435 95.4180 98.0793 100.8356 103.2873 105.2793 107.1758 108.5115 109.6029 110.7809 111.7929 112.9339 113.3707 115.9866 114.7956 115.5916 116.1966 116.7412 117.3452 117.9777 118.5102 118.7230 113.5999 109.2107 108.7900
100.8900 99.6143 108.0297 97.6682 113.6273 114.8588 110.3322 111.3217 110.2672 109.1647 107.9117 106.5087 104.9464 103.2353 101.5708 100.4189 100.3234 101.3525 102.9858 104.6519 106.6678 104.0011 109.3220 110.2309 111.1689 112.1283 112.9344 113.7334 114.2554 115.0775 115.7126 116.3033 116.8359 117.5447 117.3372 118.7190 119.5132 115.7558 105.5384 104.7900
100.9100 106.0511 101.5239 100.3349 104.9642 118.5256 117.1079 111.6561 110.7817 109.7689 108.6898 107.5333 106.3146 105.1140 104.0528 103.3587 103.2909 103.8931 104.9183 106.1156 107.3482 108.1893 111.6654 98.6827 112.6022 112.1495 113.1890 113.9345 114.6346 115.2677 115.8684 116.4310 116.8562 117.3895 124.9757 127.1963 108.6456 104.7021 119.7380 103.0500
100.2700 106.2238 105.5342 103.4815 105.5939 123.8436 106.8821 112.6419 111.1329 110.4419 109.5178 108.5692 107.6096 106.7395 106.0063 105.5814 105.5442 105.9135 106.6076 107.4622 108.4535 109.1036 108.9505 99.4880 112.2483 112.8259 113.5334 114.2177 114.8712 115.4740 116.0568 116.6316 116.9849 117.4624 116.9307 113.9145 99.6051 103.6533 102.9322 104.0100
107.1600 105.2549 103.7666 98.7935 88.1348 122.6679 110.3178 113.1840 111.8260 111.1192 110.3565 109.5807 108.8307 108.1630 107.6480 107.3514 107.3287 107.5844 108.0712 108.7326 109.4183 110.0833 111.3349 112.8350 96.0710 115.0225 113.7903 114.5315 115.1472 115.7199 116.2442 116.9142 118.5221 112.3971 99.6375 100.4125 101.2776 99.0641 116.9514 118.2600
108.3800 104.0975 106.5904 95.0971 98.6149 96.7073 92.0389 114.0851 112.4914 111.8943 111.1695 110.5470 109.9474 109.4383 109.0503 108.8237 108.8034 108.9916 109.3545 109.7920 110.5396 110.4537 114.9177 113.5292 113.6337 113.6359 114.3334 114.8692 115.4494 115.9635 116.6005 116.9876 122.3263 105.1649 103.8348 105.3761 104.1841 107.7792 106.8517 107.7600
98.8600 111.1240 103.3596 99.2769 111.3061 115.4804 116.1237 114.8725 113.0472 112.5271 111.9753 111.4367 110.9146 110.5271 110.2090 110.1154 110.1415 110.2029 110.4879 110.8479 111.3610 113.4831 115.4191 111.7759 113.4575 113.9872 114.7079 115.2468 115.7926 116.1975 116.3679 119.1559 113.0137 102.4177 113.0600 102.7707 105.2171 113.6664 107.4667 107.9400
100.5400 105.6830 114.9927 97.8405 104.3795 117.1528 114.0523 114.1484 113.7426 113.2041 112.7461 112.2410 112.0205 111.4547 111.3136 111.5684 111.7344 111.3149 111.5321 111.8421 112.1091 117.0042 101.7211 115.7619 114.2291 114.6718 115.1259 115.6266 116.1113 116.9891 115.3617 120.4472 93.4201 111.0893 122.4646 101.0615 108.4745 101.4398 105.6489 109.5000
100.5400 105.0321 92.9098 109.3704 105.0284 110.3973 116.1448 114.6555 114.2723 113.8175 113.4384 113.0016 111.8024 110.3810 112.2931 112.1182 112.0580 111.9685 112.3408 112.7010 112.9741 114.8943 97.9755 112.5940 114.6116 115.1351 115.5639 116.0310 116.4190 116.8328 109.4608 108.9900 121.6694 118.3415 104.0496 103.0606 110.3058 102.5648 107.8065 108.3700
99.5300 100.2282 115.2800 103.5091 100.0828 105.3955 115.7232 115.0818 114.9092 114.4748 114.1130 113.7418 113.5972 113.4325 113.1069 113.1126 113.1157 114.3076 113.3622 113.8513 113.5982 113.4683 115.3281 115.4567 114.9064 115.5880 115.9973 116.4180 116.6416 118.9557 96.6330 93.6091 99.8682 102.9751 111.5127 118.1353 106.8501 107.3070 108.6292 108.4400
98.4300 97.8946 114.3072 90.9608 113.5074 115.9526 116.6675 115.6038 115.1253 115.0573 114.7716 114.4950 114.2951 114.0497 113.8796 113.4874 113.4856 115.7455 94.6087 114.8430 114.3384 114.7529 114.9038 115.3697 115.7192 116.0522 116.4320 116.7945 117.2133 117.0874 114.1516 123.3791 116.4911 98.7308 105.8670 103.1938 104.7687 108.1431 109.3704 120.9600
102.0100 112.9482 117.5083 114.9725 119.2199 112.1372 109.6485 117.8470 115.7004 115.7509 115.3404 115.0672 114.5453 114.6462 114.7679 115.8722 116.1243 114.6865 115.7343 116.4870 115.0350 115.3055 115.5941 115.8746 116.1923 116.5181 116.8548 117.2036 117.5258 118.4592 109.2102 113.6683 113.9997 107.5474 106.1755 106.1963 108.1772 109.5469 109.2618 108.0900
97.5100 103.8673 121.1608 117.4752 117.6695 118.2131 114.3040 117.6871 116.3698 116.1704 116.8237 115.5645 117.2811 115.2367 112.3039 95.3523 95.7565 117.0494 115.0555 115.2019 115.6966 115.8925 116.1369 116.3763 116.6835 116.9778 117.2696 117.5945 117.7800 119.3084 112.5860 98.3663 108.6342 108.4225 96.4510 103.3144 106.6762 112.1638 113.7084 118.2300
102.0400 115.1279 119.4834 118.3481 118.0276 117.8369 117.3400 117.2229 116.8999 116.7089 116.7490 98.5853 115.8172 115.8642 116.1220 114.5897 113.7813 116.3510 116.0218 116.1628 116.2494 116.4343 116.6475 116.9205 117.1524 117.2406 117.7689 117.9450 118.2266 118.5075 113.5369 116.1956 104.3819 104.9862 104.3934 97.5919 105.9832 113.9501 109.3662 107.9200
119.4200 119.2229 118.1607 118.6889 118.3382 118.0521 115.5378 117.5111 117.3672 117.2212 117.5828 118.5395 117.0375 116.3503 116.2662 116.4212 116.4481 116.3067 116.5416 116.6454 116.8058 116.9622 117.1535 117.3398 117.3139 119.1519 110.8265 117.2906 118.4950 119.5272 109.0526 104.8140 109.9120 117.8149 104.3350 109.3290 110.7648 115.8857 107.7549 108.7500
119.5300 119.8660 119.1991 119.1023 118.7118 119.0128 117.5392 117.5022 117.8034 117.7796 117.2829 117.2092 117.2310 117.1949 117.1459 117.0496 117.1557 117.1799 117.1275 117.1905 117.3114 117.4518 117.6169 117.8118 117.9590 110.7408 106.3556 120.1621 118.7823 120.9326 116.0552 99.4397 109.4167 102.9427 105.7676 120.5813 100.9447 103.5247 106.9357 108.8400
120.9000 119.9214 119.4811 119.3514 119.0899 119.0363 118.7629 118.0774 118.0899 117.0058 117.6464 118.2455 117.6380 117.5942 117.5198 117.4746 117.3190 116.7832 117.5775 117.6872 117.7956 117.9264 118.0834 118.2601 118.3161 118.5830 121.0223 118.9581 119.1187 112.9961 116.8818 109.6837 105.2713 101.0340 109.0528 117.8482 111.0487 108.3701 103.0389 109.6100
115.2700 120.1041 119.8766 119.5971 119.2505 119.2684 119.0388 118.7830 111.3540 111.7369 117.2506 114.9932 118.1272 118.1678 118.1060 117.8292 117.7762 115.8510 118.2324 118.2736 118.2428 118.3560 118.5166 118.5861 118.8586 118.6350 118.7862 119.7490 118.3061 120.5469 110.4448 115.1563 102.0347 107.6057 110.9809 118.9335 120.0490 116.9421 117.7359 121.3800
120.6300 120.3514 121.0898 120.0158 119.8164 119.3858 119.6091 119.3120 118.7677 118.9169 117.1919 118.1821 118.6658 118.3632 118.2120 118.5621 120.8743 120.4179 118.5490 118.7488 118.7294 118.7828 118.9838 120.0025 118.9485 120.9143 119.9205 119.0328 105.1074 103.9583 109.7647 101.1872 98.4804 102.7598 105.1186 117.1605 119.3931 115.0214 117.4846 122.3500
120.9600 120.7519 119.5243 108.8972 117.8044 120.6254 119.2908 119.4187 120.8082 113.1482 111.0108 123.0195 117.6756 119.0620 120.8597 116.5635 106.1980 105.2069 119.7311 116.9969 117.8213 119.0470 118.0589 105.2433 109.1946 113.4881 109.5768 112.3751 99.8978 101.3881 108.8954 104.3982 115.0940 120.9895 116.1017 121.3840 122.4426 112.8417 110.4560 122.3500
120.9600 120.8402 119.1004 104.3764 106.1061 116.9556 120.0444 120.0517 120.1980 106.8105 123.1117 109.2898 113.6355 122.2115 101.1879 108.7500 95.3487 117.5591 99.5146 116.4205 115.1154 116.9712 121.5358 98.4074 108.3767 108.1584 113.6076 112.8227 109.4033 99.8854 98.5037 114.6151 116.6042 121.9724 123.0341 111.4710 109.4963 102.0068 103.6781 122.6600
121.2900 122.5676 120.8309 113.8578 121.6134 120.1233 120.2952 120.4307 120.1920 121.1184 119.4731 121.9972 119.6221 118.8416 117.9462 116.6651 113.6753 102.3227 99.0313 104.9110 116.0598 117.8468 114.7655 96.7789 115.8704 98.0485 98.6844 103.4086 98.9292 100.8812 102.8042 114.4608 104.6651 111.9202 125.1895 104.6934 102.9774 104.9099 100.3657 122.9000
121.6200 109.9512 104.5252 99.4274 124.2964 121.0223 120.9238 120.3451 120.9771 120.1237 120.4719 119.9074 120.2501 120.1585 120.2172 120.4632 120.9808 110.7083 104.2424 101.3993 104.4281 100.6898 110.7081 102.3739 123.2120 112.5123 121.7260 103.2349 117.4147 97.4644 107.3032 106.3602 104.0244 113.2142 122.5657 122.4729 118.5445 98.7302 107.3075 110.2500
121.6200 108.3135 100.6418 113.2216 116.3718 120.7673 114.6003 123.4031 117.5572 121.7414 120.6889 120.6613 120.5742 120.5536 120.5346 120.4117 120.3723 113.9247 103.3518 115.6483 103.2220 102.1846 100.6451 105.6948 122.2002 120.9013 122.0826 118.4362 122.7296 119.7448 122.6690 117.6060 104.6153 123.5404 122.7767 122.5463 104.7844 101.9449 96.2553 101.2100
105.5500 105.4772 105.0455 119.1567 116.1998 120.4557 113.7291 121.2962 106.8746 122.1864 121.1866 120.8905 120.8134 120.6825 120.3396 118.1968 120.7150 113.3969 107.1948 108.9532 103.5722 100.1544 96.3086 123.2252 122.0770 121.4512 121.2155 119.4351 111.1373 119.1474 106.0971 99.9346 105.6745 121.3169 123.8473 123.4021 124.4876 116.2742 118.0224 101.5800
105.6100 105.9565 120.1951 117.5935 123.7114 122.1044 121.9246 122.6819 122.2375 121.7412 120.1682 121.0655 121.5416 121.2290 121.4763 119.9641 118.5830 108.7147 110.7368 112.2131 103.4114 105.7828 113.9070 122.2893 121.1611 121.7056 121.8785 121.9315 123.4695 111.7543 103.3501 101.4327 108.5030 108.7305 122.4596 122.9741 123.3512 123.3122 125.6621 123.7200
105.6100 106.9800 122.3500 100.2000 122.0300 122.0300 121.4800 121.4800 121.7300 121.5200 114.2900 107.3700 121.3400 121.3800 121.3900 102.4000 102.4000 118.0400 109.7800 104.3300 121.5800 121.5800 121.5400 121.7600 121.7100 121.9100 122.0800 122.0400 122.2500 122.4000 100.5400 100.5400 108.9600 111.4100 122.9900 123.1300 123.2900 123.4300 123.5600 123.7200
