115.8800 115.4500 115.0100 114.0400 113.5200 112.3600 111.7100 111.0200 109.4400 108.5200 106.3400 105.0100 101.5000 99.0200 89.6200 89.6200 89.6300 89.6300 99.0200 101.5000 103.4300 106.3500 107.5000 109.4400 110.2600 111.7100 112.3600 101.6700 114.0400 115.0100 115.4500 116.2800 116.6700 117.0400 117.7300 118.0600 118.6800 118.9800 119.5400 119.8100
115.8800 115.5929 114.9519 114.2478 113.4853 112.6490 111.7223 110.6909 109.5154 108.1561 106.5432 104.5703 102.0087 98.4232 91.6568 85.6054 84.9028 90.1915 97.6377 101.4962 104.1918 106.2538 107.9129 109.2957 110.5025 110.9494 107.6671 98.9161 114.5094 114.6680 115.4826 116.1110 116.6731 117.2110 117.7132 118.1877 118.6517 119.1172 119.5377 119.8100
115.8700 115.6152 114.9740 114.2749 113.5137 112.6889 111.7689 110.7458 109.5838 108.2562 106.6837 104.7799 102.3510 99.0702 93.5082 88.0460 87.7146 92.2589 98.4614 101.8901 104.4229 106.4037 108.0218 109.3840 110.6014 112.0852 118.4265 107.6453 114.6714 114.6791 115.5218 116.1277 116.6880 117.2194 117.7303 118.1962 118.6656 118.9432 119.2349 119.8100
115.9100 115.6781 115.0460 114.3577 113.6136 112.8070 111.9232 110.9380 109.8256 108.5677 107.1091 105.4015 103.3467 100.8855 97.7300 94.1852 93.7082 97.1376 100.3145 102.9651 105.0886 106.8549 108.3455 109.6418 110.5688 111.1552 106.9075 115.7574 114.4435 114.8710 115.5476 116.1822 116.7373 117.2684 117.7698 118.2192 118.7011 119.6544 120.9455 119.8100
116.3500 115.7847 115.1599 114.4916 113.7766 112.9974 112.1276 111.1924 110.1912 109.0346 107.7361 106.2687 104.6126 102.7668 100.9104 99.4936 99.4331 100.6409 102.4746 104.3363 106.0176 107.5093 108.8341 110.0266 110.9368 112.1275 110.1541 109.0383 114.6732 115.0556 116.1279 116.3002 116.8413 117.3445 117.8321 118.2708 118.6258 121.2067 107.8816 119.8300
116.3900 115.9255 115.3203 114.6787 113.9959 113.2241 112.5434 111.6990 110.6442 109.6124 108.4936 107.2786 105.9863 104.6780 103.4945 102.7010 102.6312 103.3228 104.4815 105.7697 107.0685 108.3021 109.4275 110.5144 111.8121 106.0344 114.2342 113.3050 114.6916 115.2339 115.8357 116.4239 116.9341 117.4382 117.9256 118.3607 118.6014 120.5194 106.4509 119.8500
116.4500 116.0959 115.5162 114.8976 114.2440 113.8960 109.6599 112.3423 111.1205 110.2782 109.3104 108.3160 107.3134 106.3585 105.5685 105.0812 105.0431 105.4648 106.2104 107.1549 108.1547 109.1500 110.1143 111.0553 111.5490 113.0485 101.9723 113.4306 114.8012 115.4292 115.9996 116.5478 117.0705 117.5696 118.0277 118.4742 118.9034 119.3011 119.1750 119.8700
116.5200 116.2947 115.7529 115.1566 114.5485 113.9349 113.0661 112.5214 111.7534 110.9663 110.1512 109.3370 108.5384 107.8353 107.2765 106.9481 106.9219 107.2040 107.7253 108.4233 109.1998 110.0163 110.8414 111.6025 112.4066 113.0628 114.2459 114.5351 114.4849 115.6960 116.2160 116.7373 117.2363 117.7144 118.1521 118.4992 119.3421 119.3977 119.9436 119.9100
116.9500 116.5277 116.0117 115.4588 115.3893 114.7333 113.3903 112.8375 112.4570 111.6439 110.9688 110.3190 109.6813 109.1288 108.7171 108.4879 108.4643 108.6690 109.0555 109.5817 110.1961 110.8685 111.5538 112.2939 112.3595 113.5997 114.1421 114.7021 115.3814 115.9089 116.4450 116.9456 117.4163 117.8861 118.3396 118.3146 124.1413 118.9984 120.4050 109.2900
117.0400 116.7749 116.2795 115.6241 112.7556 110.9872 110.0533 113.5337 113.0346 112.3354 111.8504 111.2295 110.6993 110.2865 109.9732 109.7924 109.7843 109.9278 110.2229 110.6318 111.1317 111.6862 112.2415 112.8473 111.2501 114.3045 114.6041 115.1666 115.6849 116.1997 116.6996 117.1704 117.6269 118.0673 118.5140 118.5073 123.1707 119.1551 120.1791 124.1600
117.5500 117.0605 116.5089 116.2153 103.9271 111.6034 110.5866 112.1520 113.7109 113.0964 111.8663 111.9948 111.7068 111.3037 111.0696 110.9330 110.9206 111.0400 111.2663 111.5977 112.0000 112.4591 112.9545 113.6921 114.1460 114.4979 115.0229 115.5249 116.0297 116.5023 116.9676 117.4084 117.8511 118.2672 118.6605 119.0882 119.2679 119.8233 120.0072 120.2800
117.5900 117.3095 116.8214 117.6717 109.0349 104.2378 106.0671 119.6265 113.4122 112.0302 114.1588 113.4076 112.4701 112.2425 112.0437 111.9352 111.9324 112.0224 112.2097 112.4788 112.8109 113.1966 113.6252 114.0522 114.5101 114.9825 115.4505 115.9333 116.3784 116.8104 117.2489 117.6795 118.0813 118.4851 118.8650 119.2435 119.6394 119.9695 120.4353 120.6100
118.0600 117.5614 117.1489 116.8155 112.0171 109.7472 108.5255 119.5941 115.2047 114.1229 115.7474 112.8987 113.4003 113.0849 112.9257 112.8426 112.8362 112.9069 113.0624 113.2840 113.5695 113.8931 114.2606 114.6529 115.0624 115.4591 116.0200 116.2751 116.6335 117.1758 117.5565 117.9443 118.3301 118.7063 119.0777 119.4154 119.7967 120.2656 120.4597 120.6600
118.1100 118.0461 117.3638 118.6736 111.2862 113.7063 114.4771 115.7875 114.1671 115.1172 114.4133 114.3812 114.0207 113.8803 113.7325 113.6593 113.6499 113.7166 113.8447 114.0284 114.2661 114.5469 114.8697 115.2114 115.5675 116.0052 115.6594 117.0925 117.2819 117.3708 117.8700 118.2215 118.5829 118.9413 119.2809 119.7754 119.6561 119.5618 123.9528 120.9500
118.5600 118.2155 115.1528 113.8416 112.7997 110.5698 113.7435 116.3031 115.5866 115.4954 115.2335 114.9564 114.7653 114.5829 114.4708 114.4020 114.3992 114.4512 114.5620 114.7157 114.9303 115.1711 115.4466 115.7529 116.0730 116.4049 116.7858 115.5813 110.7955 118.5426 118.0969 118.5103 118.8441 119.1995 119.4944 119.7700 121.9470 122.1297 121.7993 121.0100
118.5900 118.6494 117.0147 109.8835 116.7040 116.2310 117.2734 115.9421 116.2945 116.0344 115.7925 115.5793 115.3925 115.2502 115.1447 115.0891 115.0853 115.1323 115.2217 115.3683 115.5466 115.7536 115.9986 116.2728 116.5550 116.8569 117.1360 117.3248 117.6640 118.0488 118.4964 118.7927 119.1045 119.4335 119.7420 120.1523 120.0297 125.6609 117.1320 113.4300
119.0500 118.8117 118.5218 117.5236 118.1536 118.2949 120.8681 117.1760 116.8228 116.5743 116.3313 116.1530 115.9913 115.8632 115.7773 115.7292 115.7245 115.7689 115.8511 115.9697 116.1257 116.3053 116.5293 116.7622 117.0262 117.2967 117.5775 117.9298 118.1089 118.4531 118.7768 119.0354 119.4527 119.5984 120.0502 120.3814 120.6558 120.8039 121.3548 121.3400
119.1500 119.1199 118.8235 118.5422 118.8366 111.5892 115.4845 115.6724 117.4882 116.9129 116.8645 116.6948 116.5407 116.4350 116.3672 116.3159 116.3115 116.3576 116.4241 116.5329 116.6680 116.8370 117.0272 117.2432 117.4779 117.7148 117.9787 118.2516 118.5250 118.8093 119.1323 119.3208 119.6076 120.2767 118.5009 117.2146 117.8090 121.0499 121.3550 121.4100
119.5100 119.2814 119.1589 118.9223 119.5015 116.3773 115.2585 107.3791 118.2479 117.5125 117.3612 117.1963 117.1559 117.0222 116.9156 116.9214 116.9140 116.9061 116.9723 117.0389 117.1855 117.3369 117.5174 117.6857 117.9114 118.1322 118.3682 118.6121 118.8736 119.1169 119.2363 120.0609 111.7940 115.0744 122.0891 111.6364 113.0800 122.3607 121.4862 121.6800
116.3700 120.1455 119.7473 119.0304 118.4540 119.6382 120.0456 112.6420 119.1565 118.0145 117.7970 117.7409 117.1400 117.2489 117.4367 117.2741 117.3276 117.4489 117.4785 117.5383 117.7474 118.3585 118.3158 118.4351 118.2958 118.5273 118.7560 118.9754 119.2027 119.4889 119.7357 120.3227 107.9741 113.0192 118.0864 116.0934 121.7439 121.1082 121.7668 122.0100
120.2600 121.9153 121.7697 119.3815 116.6362 119.1574 118.6717 119.5000 118.2141 117.9415 118.2776 117.6498 122.3551 117.7618 117.8828 119.3332 120.6991 117.6662 117.9851 118.0048 118.2585 123.2767 122.0527 118.4369 118.7282 118.9174 119.1149 119.3312 119.5568 119.8881 119.6708 119.7976 116.2807 122.3728 122.3206 114.7102 122.6620 121.0779 121.8850 122.0100
120.6200 123.3820 119.8437 107.7741 115.5070 119.5598 119.4047 119.0786 118.6580 118.6943 118.7292 118.2888 119.0881 118.3831 118.3828 118.2786 118.0938 118.2716 118.4340 118.4496 118.8233 118.7545 118.7876 118.9915 119.1048 119.2948 119.4738 119.7059 119.6975 120.6982 121.2687 121.9202 121.0126 121.0140 121.1185 115.5611 117.1595 121.9258 122.1209 122.3300
120.6200 120.2549 120.9070 119.4372 121.3453 120.0605 119.6741 119.4795 119.3989 119.2370 119.1355 119.0830 118.9017 118.8607 118.8171 118.9075 118.9028 118.8731 118.8702 118.9312 118.9708 119.1847 119.3103 119.4609 119.4779 119.6607 119.8176 119.9418 121.3908 108.6477 113.3577 116.1867 121.0347 121.6829 122.4930 121.4030 119.3526 121.5459 122.2491 122.3600
120.9600 122.0379 120.5231 120.3448 120.8262 120.4450 120.0512 119.8933 119.7429 119.6265 119.5147 119.4106 119.3517 119.2738 119.3937 118.6885 119.0746 119.2266 119.2837 119.3270 119.4203 119.4872 119.5872 119.6995 119.8683 120.0048 120.1584 120.3301 120.4508 116.4062 113.4036 121.8035 120.6706 120.3870 115.2535 122.2986 122.3754 122.3638 122.4985 122.6500
109.1100 120.0138 121.0942 120.9036 120.6057 120.4765 120.5333 120.2027 120.1090 119.9914 119.8920 119.8177 119.7257 119.8701 118.9063 123.7630 120.7298 119.5960 119.6815 119.7281 119.7997 119.8832 119.9841 120.0942 120.2092 120.3443 120.4916 120.6582 120.9601 120.2206 121.9151 118.9454 122.4158 112.5449 121.6756 121.9238 122.2683 122.4763 122.6751 122.8900
121.6100 121.8582 121.6353 121.1063 120.9959 120.9196 120.8940 120.5790 120.4500 120.3500 120.2612 120.1837 120.1566 119.5109 125.7401 119.5966 121.1228 119.9064 120.0669 120.1108 120.1676 120.2490 120.3375 120.4339 120.5495 120.6755 120.8108 120.9400 121.2047 121.2632 121.3348 111.8039 135.1400 129.3824 122.2977 122.0196 122.5436 122.6860 122.8750 122.9500
121.6100 122.6156 121.5594 121.4195 121.2903 121.1189 120.9926 120.8994 120.7834 120.6914 120.6128 120.5379 120.4848 120.3678 121.3549 118.5456 119.9876 120.3090 120.4285 120.4712 120.5240 120.5948 120.6794 120.7712 120.8667 120.9989 121.1250 121.2636 121.1398 121.7378 121.6203 118.7575 107.1836 122.8842 108.7574 121.2622 122.7550 122.8918 123.0647 123.1900
121.9700 121.9988 121.7555 121.7123 121.5710 121.4427 121.3238 121.2149 121.1136 121.0290 120.9423 120.8797 120.8230 120.8030 120.7426 120.9179 120.8359 120.7426 120.7770 120.8161 120.8677 120.9323 121.0087 121.1016 121.1871 121.2994 121.2826 121.4908 121.7643 123.7883 114.7564 121.9518 123.9613 108.4324 118.6451 123.4398 122.8935 123.1045 123.2595 123.4800
107.2100 122.5898 122.0323 121.9699 121.8551 121.7315 121.6251 121.5133 121.4315 121.3033 121.2702 121.2267 121.1591 121.1115 121.0933 121.0932 121.1109 121.1269 121.1039 121.1514 121.2005 121.2572 121.3308 121.4205 121.5059 121.5370 125.3317 121.9784 121.7337 122.0074 109.4133 124.2106 122.5957 122.3787 124.8363 122.6687 123.2087 123.2874 123.4633 123.4800
122.7400 122.2618 122.2067 122.2504 122.1270 122.0133 121.9176 121.8174 121.6430 122.1245 121.5720 121.4998 121.4435 121.4431 121.4145 121.4661 121.4054 121.1796 121.4928 121.4555 121.5026 121.5800 121.6714 121.6953 121.8090 121.7849 122.4451 121.7989 121.7145 122.4663 109.3872 111.1895 123.9968 116.7337 120.2414 122.6892 123.2810 123.4982 123.6496 123.7100
122.7400 122.8998 122.6529 122.5013 122.3971 122.2909 122.1991 122.1054 122.0073 122.5697 121.7498 121.9340 121.7889 121.7595 121.7293 121.9481 121.4932 125.5618 121.2164 121.7623 121.8426 121.7989 121.6812 122.1114 121.9393 122.2535 119.3482 122.9842 123.2594 121.4574 108.8120 109.8087 114.9926 115.1764 121.6214 122.9068 123.5110 123.7023 123.8523 123.9900
123.0200 122.9526 122.8749 122.7607 122.6584 122.5601 122.4685 122.3746 122.3329 122.0373 121.9545 120.8154 122.0987 122.0553 122.0385 122.0149 122.0994 121.7763 122.1189 121.9789 122.0680 122.0860 125.8988 121.6613 123.4788 122.4234 121.8385 125.8442 126.0878 116.4315 110.4513 111.0600 120.0127 123.4623 124.1277 123.6278 123.6500 123.9010 124.0222 124.2100
123.2800 123.2360 123.1206 123.0099 122.7959 122.8307 122.7397 122.6527 122.3940 123.5896 118.0307 122.7299 122.3843 122.3434 122.3271 122.3190 122.2904 122.2246 122.4570 122.6315 122.4971 122.4248 124.3941 124.2966 112.7225 123.5551 127.2363 120.1542 110.1919 109.0529 115.5785 114.9846 123.3381 123.6286 123.6022 124.0829 124.6155 123.8674 124.2319 124.2100
123.5200 123.4682 123.3096 123.2595 123.0178 123.0891 123.0005 122.9154 122.7742 122.6414 115.9785 123.4176 122.6569 122.6382 122.6129 122.5978 122.5919 123.8292 122.6774 122.8517 119.4312 126.3882 114.5649 122.1974 116.8769 124.2501 116.5345 106.4709 107.6560 109.0713 115.5874 124.3540 123.7927 123.7286 124.2360 120.5580 121.2983 125.1268 125.2367 124.4600
123.7600 123.7119 123.9775 123.5093 123.2824 123.3280 123.2540 123.1744 123.0495 123.4185 123.6857 122.9256 122.9295 122.9037 122.8882 122.8745 122.8996 123.0519 122.9678 130.6384 121.8399 133.4969 118.0637 124.1791 124.2650 124.9495 114.7652 109.6533 124.1240 110.7839 119.0277 123.5405 123.8551 124.0328 123.9756 125.6691 122.1521 111.8398 121.4356 124.6500
123.9800 123.8376 121.3691 123.8691 123.5765 123.5736 123.5010 123.4272 123.3844 123.2684 123.1772 123.2272 123.1963 123.1662 123.1522 123.1397 123.1385 123.3161 123.1040 117.7916 107.5845 125.2848 124.0752 114.7080 123.8695 122.4729 119.2370 111.0559 124.3633 122.4978 125.0310 117.0666 124.5822 124.1333 124.3529 123.2783 111.8176 115.7028 126.1425 124.8800
124.2200 124.2934 118.9937 124.1058 123.8586 123.8057 123.7333 123.6720 123.6094 123.5675 123.5269 123.4835 123.4477 123.4327 123.4178 123.4470 123.4470 123.4344 123.0560 119.8414 110.5074 107.5710 120.7082 124.2833 124.0634 123.5983 124.4587 123.7248 124.1364 124.7757 123.3612 116.8583 124.0809 124.4291 124.5371 124.9906 123.1877 110.9581 126.5861 125.1200
124.4400 124.1984 124.5419 124.2036 124.1071 124.0389 123.9706 123.9090 123.8630 123.8084 123.7660 123.7329 123.7018 123.6838 123.6645 123.5018 123.5878 123.9732 123.3787 120.9754 109.2010 123.0485 123.1613 123.5952 123.8175 123.9956 123.9581 124.1897 124.0990 123.0295 116.4769 126.2712 126.5020 124.4506 124.7035 124.5279 125.2828 112.7930 121.2728 125.1200
124.6600 124.5984 124.4045 124.3987 124.3312 124.2574 124.1984 124.1421 124.0855 124.0458 124.0060 123.9672 123.9449 123.9264 123.9210 124.0857 124.0563 124.9139 113.7485 113.8978 116.1257 124.2705 123.9561 123.9395 124.1536 124.1750 124.2644 124.2875 124.4508 126.2298 124.0776 106.4189 124.3711 124.7825 124.9041 125.0917 125.4974 125.0075 126.2500 125.3200
124.6600 124.7000 124.5700 124.6100 124.4700 124.4700 124.3500 124.3500 124.2200 124.2400 124.2400 124.0800 124.0900 124.1100 124.1200 107.5500 107.5400 126.7000 113.7000 109.0700 124.0800 124.0600 124.2400 124.2100 124.1900 124.3500 124.3200 124.4600 124.6000 124.5700 115.8500 115.8500 124.8100 124.9300 125.0400 125.1900 125.2900 125.2900 125.3900 125.5200
