104.5000 113.7400 105.7700 105.0300 103.0600 103.0600 101.7100 107.8200 116.9600 111.4400 116.4100 116.4100 116.0700 115.6900 115.7600 115.3000 115.3400 115.3600 115.3700 115.3500 115.2700 115.7300 115.7300 116.0200 116.0200 116.3500 116.6400 117.0300 117.2800 117.6400 117.8800 118.1700 118.5000 118.7300 119.2600 119.5200 119.8000 120.0000 120.4700 120.4700
105.4900 105.9318 106.3797 106.8544 109.8237 108.3949 103.0028 105.8656 106.5835 115.0762 117.5715 115.7597 115.5642 115.3649 115.2034 116.6847 116.0027 114.7706 114.8601 114.8995 114.9087 115.2547 115.5872 115.5137 115.8095 116.1162 116.3045 116.6578 117.0413 117.3608 117.6921 118.0300 118.3674 118.7032 119.0191 119.3718 120.2064 123.2563 108.9653 120.4200
105.4900 106.3210 106.4755 104.7739 112.5445 105.1764 100.1906 104.8802 98.5767 112.9612 115.1913 115.2548 114.9893 114.7355 114.5483 108.5780 102.6014 115.2586 114.1004 114.1798 114.3380 112.0092 113.8958 114.9169 115.2488 115.5367 116.4878 116.2948 116.6104 116.9658 117.3348 117.7029 118.0544 118.4097 118.8168 118.8942 117.9149 106.8613 108.2093 120.3200
109.0600 107.2229 108.5430 107.3595 110.0532 99.3550 105.5157 98.9075 104.4200 116.9156 114.8964 114.8164 114.3472 114.0468 113.7725 113.0497 112.4882 113.7524 113.3619 113.4351 113.5596 113.7987 113.9838 114.3506 114.6653 115.0221 115.4000 115.8049 116.1864 116.5829 116.9796 117.3698 117.7561 118.1416 118.4816 118.7747 119.0400 112.2035 107.2244 120.0200
110.2700 109.8018 105.4512 104.8310 109.3691 94.3968 98.2915 101.0919 93.4348 114.8421 113.6263 114.1510 113.7449 113.3371 113.0446 112.7956 112.5944 112.3269 112.5097 112.6027 112.7159 112.9597 113.3317 113.6603 114.0440 114.4537 114.8878 115.3153 115.7512 116.1875 116.6155 117.0397 117.4572 117.9551 118.2975 118.6360 119.4363 120.7275 115.9592 119.9500
105.6000 106.0309 103.0979 102.4906 110.6904 100.9506 103.4837 103.2461 107.8407 117.9763 114.2759 113.5355 112.8232 112.5690 112.2005 111.9011 111.7291 111.6488 111.5797 111.6882 111.9019 112.1898 112.5384 112.9503 113.3949 113.8663 114.3482 114.8352 115.3229 115.7970 116.2683 116.7254 117.1229 117.6733 117.1111 118.4517 118.7674 119.1018 120.7860 102.7400
101.2300 104.4000 104.7583 103.1799 102.1382 104.5948 110.2404 108.1819 96.5974 94.6831 101.1212 114.5344 112.1990 111.7350 111.3053 110.9402 110.6656 110.5136 110.5293 110.6598 110.9105 111.2723 111.7120 112.2018 112.7280 113.2646 113.8150 114.3624 114.8906 115.4137 115.9206 116.4126 116.8877 117.3216 117.8574 118.1947 118.6864 119.0173 119.6557 119.5700
104.0400 104.5688 100.4691 103.1102 102.3948 103.4034 107.0196 105.5506 95.0478 112.4737 105.5254 112.4738 111.4656 110.8462 110.3144 109.8604 109.5182 109.3386 109.3316 109.4991 109.8322 110.2797 110.8257 111.4156 112.0297 112.6548 113.2745 113.8850 114.4795 115.0454 115.5907 116.1176 116.6266 117.1102 117.6338 117.8159 120.6147 118.7306 119.1929 118.1200
108.3200 106.6547 106.4700 103.2706 101.0449 108.6838 117.8363 117.2770 112.7462 113.4322 111.9447 111.3814 110.6503 109.9192 109.2420 108.6467 108.1998 107.9474 107.9427 108.1730 108.6156 109.1958 109.8639 110.5827 111.3145 112.0371 112.7479 113.4172 114.0543 114.7078 115.2279 115.8440 116.3755 116.8840 117.3736 117.6867 118.0814 118.7263 119.0983 120.2000
108.8400 108.6700 114.8784 107.9672 96.7522 108.4499 115.4359 112.1496 112.9811 112.1980 111.4717 110.6443 109.7987 108.8625 108.0621 107.2421 106.6362 106.3100 106.2902 106.6268 107.2223 108.0004 108.8525 109.7384 110.6030 111.4333 112.2331 113.0314 113.3687 114.5616 114.9636 115.6180 116.1565 116.6897 117.1966 117.6905 118.1612 118.5885 118.9880 119.4100
107.4800 117.0595 104.7439 105.8208 105.0702 102.3365 116.7966 111.5126 112.8663 111.8317 110.9394 109.9874 108.9372 107.9841 107.4245 105.7898 104.9504 104.2394 104.2632 104.7704 105.6398 106.7023 107.7775 108.8667 109.9080 110.8616 111.8022 112.3756 116.3032 107.6114 115.0812 115.3877 115.9518 116.5182 117.0391 117.5256 117.9940 118.3601 118.5304 119.0900
111.1800 100.5375 102.5842 104.8009 106.7938 109.5637 117.9162 109.6408 112.5161 111.3615 110.4090 109.3339 108.1171 105.0017 104.8950 101.1296 102.2159 101.5731 101.6062 102.4572 103.8446 105.2921 106.7830 108.0687 109.2554 110.3511 111.0868 111.4497 116.5516 108.6201 114.6094 115.2239 115.7960 116.3719 116.9067 117.4241 117.9891 118.7906 120.8014 119.0300
108.1100 101.9602 107.0157 97.3250 110.2366 111.5944 110.7663 113.7114 112.1389 111.0578 109.9786 108.7794 107.4675 106.5174 104.0382 99.9145 99.8254 97.8551 97.8128 99.6492 101.7438 104.0453 104.6354 107.4351 108.6691 109.8852 112.3364 111.7227 113.2524 114.5824 114.3608 115.0300 115.6714 116.2526 116.8756 117.3871 117.6599 115.9554 108.4966 102.5900
108.3100 109.6334 108.3468 100.0595 117.8754 111.7637 112.4763 112.7005 111.7667 110.8001 109.6609 108.3614 106.8403 104.7888 102.7289 99.9989 95.9747 91.4717 91.2966 95.6368 99.6970 102.6759 104.4734 106.7605 108.2612 109.5267 111.6939 111.7463 112.5755 113.3331 114.2362 114.9343 115.5745 116.2175 116.3570 117.5787 118.5132 116.1633 103.5195 102.3300
100.3600 99.7983 100.3330 105.7119 110.9098 118.9396 113.4124 112.7217 111.7028 110.6543 109.4820 108.1168 106.5150 104.5637 102.0088 98.4761 91.7866 86.4138 86.1087 91.3054 98.1947 101.7901 104.4325 106.3889 108.0202 109.3922 110.4811 111.6224 112.5781 113.4208 114.1695 114.8855 115.5552 115.5036 121.7073 114.2129 102.2826 103.5492 111.3560 108.2700
100.3600 97.8590 97.4902 110.5223 109.2968 120.9323 113.2572 112.7296 111.6868 110.6366 109.4665 108.0911 106.4664 104.4748 101.8929 98.2472 91.1793 85.2571 84.9389 90.6700 97.9279 101.6833 104.3214 106.3438 107.9880 109.3763 110.5664 111.6222 112.5500 113.3942 114.1684 114.8552 115.5242 115.7049 123.9056 113.5364 99.5636 100.6923 112.1565 107.3200
104.0700 102.9361 102.0208 101.7364 103.8176 109.3141 111.8105 112.9732 111.7588 110.7303 109.6076 108.2690 106.7270 104.8569 102.5181 99.4092 94.9890 89.6832 89.5284 94.3924 99.1827 102.3444 104.7148 106.6122 108.1755 109.5123 110.6736 111.6998 112.6201 113.4487 114.2223 114.8797 115.3071 117.6811 102.9847 104.3300 104.2394 105.6308 113.9949 113.2400
99.8500 103.0471 99.6206 110.5190 116.0705 113.7931 113.7416 112.8104 111.9428 110.9912 109.4166 108.6443 107.2082 105.5706 103.6546 101.3653 98.7592 96.3245 96.1372 98.5990 101.1734 103.5159 105.4676 107.1339 108.5573 109.7960 110.9015 111.8808 112.7982 113.5834 114.3102 114.9542 115.8211 119.3392 100.2997 104.0190 117.0074 112.2043 119.9739 118.7600
115.0500 111.3713 110.1262 116.9650 113.6465 114.4666 113.8090 113.0487 112.1221 111.2064 108.3879 109.3171 108.0782 106.7019 104.9981 103.3105 101.8203 100.7118 100.6732 101.6970 103.2741 104.9010 106.4357 107.8346 109.0824 110.2115 111.2261 112.1317 112.9775 113.7880 114.7937 115.5530 112.7944 119.5796 113.3295 96.3749 111.0692 114.2303 118.4137 116.2100
109.2400 112.3532 116.3933 114.2104 114.8022 114.6475 114.0557 113.3165 112.5250 111.9241 111.0834 109.7297 107.4620 106.4838 106.5284 105.1554 104.2026 103.5838 103.5542 104.1489 105.1453 106.2815 107.5238 108.6496 109.7127 110.7120 111.6338 112.4578 113.2635 113.3379 112.7552 116.1519 102.0054 102.5745 118.8614 104.4936 106.7048 120.6619 119.5654 125.8700
115.0300 104.0381 118.4282 112.3453 117.2612 114.4975 114.3148 113.6469 112.9190 112.1343 111.2834 110.6444 107.2484 106.7074 107.9964 106.8766 106.1561 105.7617 105.7469 106.1141 106.7952 107.6117 108.5781 109.4918 110.4013 111.2713 112.0952 112.8753 113.5569 114.4757 118.9253 108.9415 102.7588 114.0474 118.7840 114.3138 99.4334 111.3816 118.4279 119.3700
98.6600 98.9446 104.8659 92.7621 113.8471 115.2189 114.7092 114.0132 113.3450 112.6412 111.9304 111.2070 110.7340 109.4884 108.9086 108.2707 107.7652 107.4940 107.4898 107.7537 108.2295 108.8803 109.5868 110.3509 111.1181 111.8646 112.5997 113.3036 113.9554 114.5775 118.3390 104.2751 108.8285 90.2183 108.0248 104.3179 101.5423 101.4904 121.3524 119.4100
100.2200 106.1197 102.7892 110.9651 114.9457 114.8647 114.9860 114.4134 113.7888 113.1701 112.5265 111.8542 111.0940 110.5597 110.0158 109.5754 109.2133 108.9731 108.9411 109.1371 109.4904 109.9824 110.5526 111.1818 111.8282 112.4884 113.1286 113.7533 114.3828 114.9853 114.5076 113.6561 114.1195 124.9214 106.6572 107.8284 111.0610 109.4047 110.0425 119.4500
116.8300 116.4858 117.3433 116.6070 116.6550 115.7865 115.3318 114.8142 114.2582 113.7037 113.1320 112.5681 112.0444 111.5575 111.0607 110.3295 110.1787 110.2847 110.1897 110.3360 110.6165 110.9920 111.4625 111.9817 112.5249 113.0932 113.6680 114.2100 114.7631 115.1897 115.7728 116.3945 116.0666 116.0086 101.4919 103.3228 111.4940 109.0976 109.0762 107.9500
102.2200 115.9429 118.3960 116.9071 116.6357 116.3119 115.7257 115.2249 114.7352 114.2328 113.7355 113.2364 112.7297 112.4725 111.3412 114.5530 111.0936 111.4861 111.2711 111.3897 111.6116 111.9263 112.3035 112.7441 113.2104 113.6983 114.1918 114.7365 114.9994 116.7543 117.2671 115.7901 127.9768 126.7062 118.0849 113.1899 107.9605 107.5849 107.6784 111.1500
96.5400 101.1477 111.0819 117.4665 116.9460 116.6043 116.0476 115.6812 115.2136 114.7678 114.3204 113.8938 113.4961 112.9002 113.6416 88.8750 113.6024 112.5000 112.2434 112.3385 112.5212 112.7786 113.0915 113.4632 113.8608 114.2878 114.7311 115.1849 115.5240 116.9067 116.2374 102.5003 105.1248 115.4776 104.0793 119.3449 118.8322 119.8987 108.3474 110.3200
108.9500 116.4783 119.0967 98.9747 118.9205 116.1156 116.5815 116.0951 115.6732 115.2869 114.8866 114.5180 114.1716 113.7405 111.3010 104.6813 113.0558 113.2539 113.0989 113.2000 113.3486 113.5587 113.8211 114.1424 114.5108 114.8398 115.2309 115.7049 116.0532 116.2768 113.2254 116.2175 100.7920 120.3684 116.1107 99.7646 113.5262 118.9753 120.4487 119.9400
108.5300 118.9848 118.7287 118.1510 118.3171 109.3021 117.8999 116.2768 116.1592 115.8578 115.4271 115.1063 114.8048 114.3713 114.9359 114.6484 113.9846 113.9815 113.9224 113.9775 114.1050 114.2798 114.5204 114.7805 115.0973 115.8296 112.6540 115.8257 116.3799 117.5039 106.9855 100.6429 101.1568 120.1820 119.4347 121.5515 122.4639 120.9998 119.1805 120.2500
119.0900 123.9243 119.4895 118.9225 117.4377 117.8506 117.6570 116.8146 116.9202 116.3052 116.0352 115.6585 115.4157 115.2179 114.8291 114.7366 114.6781 114.4735 114.6356 114.6942 114.8049 114.9651 115.1380 115.3818 115.6516 115.8360 116.5647 117.2951 116.8345 118.3957 114.1592 100.6932 99.7642 110.6837 118.2587 119.1069 118.7788 116.0644 116.8637 120.3200
116.3600 103.4744 119.9026 108.7157 114.6353 117.7332 117.6538 117.4515 114.2653 113.4830 116.4822 116.1853 115.9741 115.7464 115.6321 115.4715 115.1878 115.6164 115.3636 115.3812 115.4482 115.5535 115.8419 115.9812 116.1820 116.4091 116.8374 116.6371 117.5119 114.8098 118.7855 102.2319 104.3334 105.2520 120.9294 118.7663 121.6323 112.4099 120.8100 109.5700
119.6200 121.8045 119.2690 121.1234 120.7113 118.3322 118.5709 119.6738 107.5109 117.4530 116.9531 116.7786 116.5087 116.3513 116.1543 116.4392 108.4036 108.1664 116.1470 116.0155 115.9638 116.2665 115.7587 116.3732 117.6091 116.9512 117.1275 117.8548 122.1519 116.9392 111.9006 105.3549 100.8529 107.2501 111.8971 108.3031 113.1439 118.8508 121.8424 120.9800
105.0600 112.7469 119.3446 119.2303 118.7392 118.4771 118.4487 110.4279 111.4934 118.8018 118.4095 116.9609 117.0030 116.7343 116.7546 116.9670 117.6613 117.6060 116.4849 116.8369 117.1831 116.3599 119.9356 119.0858 109.3838 117.8887 118.1501 120.3984 107.1679 104.6397 111.5657 101.8273 104.9225 114.4105 109.4155 117.8427 107.3454 113.2155 120.8596 121.0500
120.2900 116.4264 119.1151 121.6567 116.9479 119.0614 118.8164 120.2875 115.4090 98.2979 117.3587 117.7989 117.6487 118.2266 117.2279 117.0942 117.7630 110.6762 117.0242 117.2148 112.5985 117.2787 123.5563 120.7035 103.6943 116.6842 109.7741 120.1667 103.4276 112.3328 105.5765 100.2863 116.0792 120.2339 120.7469 121.3554 112.3574 111.7066 114.9287 121.3400
120.6600 120.6635 118.5554 104.7472 119.5652 119.2534 118.7917 120.5010 114.2695 113.6847 119.9879 117.9061 110.2800 114.8512 117.9210 112.4499 117.3235 112.0316 118.3592 120.4881 112.2717 120.3180 117.2890 102.6497 114.6463 119.1810 99.5878 107.2934 98.3737 103.0589 104.7738 119.8670 119.2040 119.4674 121.5302 116.7260 120.6555 117.8063 106.0238 110.0000
120.6600 121.3607 119.8312 120.7337 119.9376 119.6609 119.5610 118.8903 119.2803 119.1081 118.2621 119.0047 117.9614 118.0068 118.4394 104.9969 106.3799 101.4598 115.6046 110.5216 106.1402 116.8155 104.1388 105.6794 120.4867 108.6259 102.7962 96.2263 113.7243 115.6086 103.7857 104.4642 120.1927 120.8917 114.4813 103.1580 113.2454 114.1452 100.2090 111.8100
99.0100 118.1082 120.7748 120.4420 120.3045 119.8882 119.8201 119.6737 119.4630 119.2401 119.1628 118.7460 118.8578 118.8398 118.6426 115.0996 109.6521 105.0917 121.8443 112.3919 98.9320 103.3935 110.9906 117.7777 120.0217 118.9290 120.1174 100.8538 122.5929 120.5344 112.6208 108.4668 107.5784 122.1974 120.7683 122.0753 121.1144 107.5842 104.6542 111.7400
101.1000 101.0418 121.4595 121.4280 120.1564 120.3642 119.9271 120.0057 119.7856 119.6516 119.4889 119.3984 119.2562 119.1946 119.0857 118.7498 120.3340 103.3901 102.2808 110.1068 108.2997 96.8439 117.1048 119.0963 119.1168 119.4295 120.9620 108.8820 120.9750 120.3614 104.0651 108.2513 103.5536 121.0926 121.0943 120.7564 122.3946 105.5396 102.3857 106.8500
102.6800 100.4512 124.5462 105.8796 113.5729 121.5150 120.9833 120.2385 120.1580 119.9679 119.9142 119.7615 119.6310 119.5644 119.1859 117.3167 118.9953 120.4196 117.5694 109.7583 102.4930 95.1048 116.4132 119.1430 119.9086 119.8159 120.0714 120.3926 119.8816 120.3329 127.3662 102.5090 111.3537 120.6016 121.3237 121.5571 121.9897 109.5686 117.3636 107.0700
121.6700 121.2532 122.2599 123.9122 125.0396 100.5207 121.1300 120.6131 120.3741 120.9805 118.7581 118.6791 120.0604 119.7620 120.0802 121.7213 112.4236 108.1182 104.7034 106.2070 103.5786 106.9703 115.5606 119.7783 120.1571 120.2162 120.3377 120.4344 120.9345 119.7681 114.0227 104.6816 111.9516 116.5907 121.6495 121.8071 122.5375 122.2098 124.9087 122.6200
121.9700 121.7600 121.6200 121.6200 121.2200 117.2700 118.2800 120.9000 120.7100 120.7100 112.4900 120.2700 120.3100 120.0500 120.0800 106.2500 117.5000 119.8200 100.0700 100.0700 120.1200 120.1000 120.0700 120.3300 120.2900 120.5200 120.4700 120.6700 120.8600 120.8600 99.0400 112.8000 121.4300 121.5800 121.7900 121.9500 122.1100 122.2800 122.4400 122.6200
