116.3400 122.3200 122.3200 114.7000 114.4000 118.9800 117.0100 113.7800 109.7600 112.4600 121.2600 121.2900 121.2900 121.0600 121.0800 121.1000 121.1100 121.1100 121.1000 121.0900 121.0600 108.7500 121.2800 121.2400 121.4600 121.4200 121.6200 121.8100 121.8100 121.9800 122.1400 122.1100 122.3000 122.4500 122.6500 122.7800 122.9700 123.1000 123.2800 123.2500
117.3000 116.0415 118.4788 113.8944 114.2366 117.9490 112.0523 115.7020 111.3061 119.2775 121.5064 121.1374 120.9826 120.9280 120.9119 121.1112 121.0698 120.9376 120.8758 120.9876 121.0290 123.9368 123.2699 120.9293 121.2242 121.2909 121.4040 121.5175 121.6379 121.7701 121.9092 122.0518 122.2021 122.3514 122.5009 122.6687 122.8282 122.9902 123.1535 123.2000
116.3400 115.6123 129.5315 120.6056 115.3150 115.1152 114.2693 110.4826 104.1924 118.3801 121.6322 120.7730 120.6197 120.5883 120.6065 118.3398 118.1711 119.1277 120.5622 120.5162 120.5290 119.8456 120.2287 120.8684 120.8515 120.9856 121.0958 121.2224 121.3505 121.4921 121.6314 121.7830 121.9418 122.1021 122.2731 122.4338 122.6408 122.7818 122.9836 122.9400
114.6500 126.5852 116.3111 119.7928 120.5569 109.9350 110.3580 112.2344 110.9916 121.2433 116.0955 117.5660 120.2998 120.2529 120.1714 120.1931 120.2670 120.2361 120.1504 120.1829 120.2888 120.4074 120.3919 120.4178 120.5564 120.6564 120.7812 120.9101 121.0513 121.1994 121.3542 121.5188 121.6881 121.8510 122.0260 122.1976 122.3870 122.2924 122.6779 122.8700
122.6600 123.0923 117.6180 111.6254 113.4375 111.7434 110.9855 118.6500 111.0424 117.2593 119.3840 119.0163 119.6207 119.8923 119.8157 119.7560 119.6825 119.7051 119.7673 119.8040 119.8307 119.8874 119.9920 120.0972 120.1986 120.3286 120.4562 120.6006 120.7496 120.9045 121.0681 121.2437 121.4201 121.5998 121.7880 121.9764 122.1429 122.6764 125.1361 122.6400
114.3700 115.1417 113.4682 115.5781 115.5686 113.9710 108.9926 108.8365 107.6899 103.6978 119.9503 119.3062 121.8050 119.2127 119.4065 119.3906 119.3803 119.3708 119.3790 119.4093 119.4690 119.5415 119.6295 119.7316 119.8448 119.9829 120.1020 120.2695 120.4359 120.6012 120.7810 120.9617 121.1501 121.3480 121.5418 121.7265 121.9918 121.8829 122.8356 122.3800
113.3600 115.7355 114.9848 119.4592 109.4417 112.2140 109.7157 117.0688 116.7017 106.6296 119.8954 118.3161 123.7774 118.9923 118.9959 118.9698 118.9373 118.9433 118.9652 119.0033 119.0625 119.1356 119.2381 119.3447 119.4767 119.6095 119.8207 119.9344 120.0916 120.3091 120.4753 120.6852 120.8800 121.0841 121.2919 121.5038 121.7034 121.9237 122.1681 122.3000
113.3600 115.7386 116.5428 113.4807 115.8991 118.5604 109.7572 119.3802 119.2739 122.6433 120.0902 118.8232 118.1592 118.5410 118.6354 118.5406 118.5158 118.5061 118.5277 118.5724 118.6369 118.7264 118.8320 118.9505 119.0893 119.2775 118.8747 119.5593 119.8664 119.9677 120.1824 120.3923 120.6084 120.8195 121.0423 121.2618 121.5581 121.6807 121.9375 122.0400
120.5600 114.1343 115.2470 114.3476 115.9326 108.6609 114.8624 116.0592 119.0785 118.5841 118.5752 118.4495 118.4050 118.1692 117.8281 117.7834 118.0169 118.0705 118.0696 118.1151 118.1904 118.2626 118.3947 118.5418 118.6669 118.9208 119.7070 108.2080 120.0007 119.6604 119.8758 120.0957 120.3249 120.5586 120.7907 120.9599 121.2958 120.9525 122.1539 121.9700
114.0700 113.7472 111.2482 112.3730 118.4717 109.8553 107.3809 124.7382 117.7870 118.3033 118.1682 117.8980 117.6771 117.6761 117.7184 116.1751 117.5940 117.5672 117.5917 117.6372 117.6924 117.9344 117.9938 118.1129 118.2735 118.1634 121.1772 125.1577 120.6081 119.3410 119.5613 119.7982 120.0415 120.2895 120.5342 120.8590 121.4293 123.8897 117.3128 121.7000
119.8000 120.5697 107.6023 109.0780 111.7740 111.9404 117.2547 123.7288 117.5572 117.8956 117.5650 117.9419 118.4274 117.1551 117.1801 117.2598 117.0654 117.0483 117.0852 117.1623 117.6369 116.7794 117.5398 117.6613 117.8314 118.0764 120.9480 118.8419 121.0300 118.8425 119.2368 119.5047 119.7534 120.0065 120.2942 120.4753 115.9385 114.5892 110.7151 121.6200
119.8000 113.2028 111.9284 110.5009 111.6177 112.8440 122.2702 119.9137 117.6267 117.4524 117.1216 117.0811 106.2775 117.8641 116.3785 116.5587 116.5014 116.5038 116.5319 116.6723 123.5134 116.0912 117.0586 117.1901 117.3874 117.6304 117.9874 116.4358 118.4023 118.6997 118.9220 119.1053 119.4758 119.7497 120.0902 118.2582 115.4247 120.8020 121.6189 121.2700
117.9600 114.6914 111.7700 112.0384 114.2327 116.8744 124.2614 117.4628 117.1508 116.9473 116.5570 117.5232 123.3704 115.5405 115.9910 115.9770 115.9203 115.9245 115.9605 115.7097 115.5258 116.3328 116.4833 116.7017 116.9140 117.1680 117.4304 117.7612 118.1059 117.8990 119.1431 118.8968 119.1469 119.4457 119.9704 118.5629 120.8382 124.2812 123.2363 121.2700
109.3800 105.2821 97.2778 108.9339 121.5449 111.0439 122.0983 117.0139 116.8033 116.4714 116.2278 117.3399 116.9014 114.7661 115.4231 115.3544 115.2990 115.2974 115.3381 115.4881 115.6720 115.7253 115.9483 116.1171 116.4397 116.7068 117.0041 117.2616 119.3390 117.9219 112.2973 117.3113 119.1300 119.1622 119.4764 119.8297 120.4449 108.9082 119.9041 120.9200
114.6100 107.0707 101.7280 106.2609 122.6945 116.1735 118.4959 116.3354 116.2911 115.9487 115.6569 115.3192 115.2432 114.9673 114.8110 114.6867 114.6279 114.6242 114.6810 114.7645 114.9156 115.2396 115.2117 115.9060 115.8980 116.2345 116.5560 116.8468 117.3666 117.4698 117.9174 115.5189 117.8417 119.0096 119.2851 119.5860 120.0372 121.4801 120.6501 120.6300
105.1300 108.6169 107.2708 106.5364 114.7322 117.1266 116.3900 116.1711 115.7506 115.4344 115.0933 114.8092 114.5041 114.2690 114.0915 113.9692 113.9035 113.8965 113.9582 114.0801 114.2679 114.5223 112.3950 114.9340 115.3765 115.7373 116.0880 116.4689 116.8476 117.1628 117.6643 117.8345 119.1978 118.4738 118.9876 119.3603 119.6832 120.0051 120.3680 120.5600
118.4100 109.6263 112.2130 105.7054 115.5630 116.3931 116.0428 115.6639 115.2776 114.8776 114.5026 114.1533 113.8304 113.5690 113.3400 113.1847 113.1049 113.1013 113.1780 113.3216 113.5311 113.8584 114.1527 114.6242 114.7949 115.2267 115.6344 116.0071 116.4482 116.8644 117.2680 117.4352 118.4653 118.2911 118.5819 119.1854 119.4956 119.8411 120.1687 120.5000
103.6700 109.5388 107.0560 116.8810 109.8386 112.0617 115.9230 115.2003 114.7502 114.3113 113.8789 113.4686 113.1024 112.7822 112.5183 112.3287 112.2289 112.2237 112.3142 112.4912 112.7518 113.0474 113.4165 113.8354 114.2586 114.6997 115.1425 115.6408 114.4636 116.6304 116.9418 117.2939 113.9232 112.9726 118.7319 118.8791 119.2023 119.6711 120.0099 120.1900
124.6400 120.8135 115.5356 114.6031 117.2495 116.6411 114.9026 114.7648 114.2252 113.7260 113.2316 112.7542 112.3200 111.9311 111.6087 111.3875 111.2639 111.2550 111.3636 111.5784 111.8827 112.2766 112.7017 113.1818 113.6667 114.1692 114.6359 115.5292 112.5258 116.1063 116.5751 116.9562 118.1272 118.3621 118.2861 119.1767 119.2790 119.5190 119.8524 120.1400
107.9000 111.6562 115.7841 116.3146 116.1272 115.3468 114.8179 114.2462 113.6993 113.1245 112.5569 112.0004 111.4778 111.0098 110.6101 110.3288 110.1693 110.1561 110.3012 110.5731 110.9569 111.4256 111.9429 112.4945 113.0626 113.6282 114.2104 114.7427 115.5137 116.0021 116.2921 116.7823 117.1800 117.6538 117.7848 120.6743 119.0005 119.4074 119.7042 120.0800
117.3400 110.9339 118.5054 108.2161 115.9811 114.6902 114.4063 113.7906 113.1645 112.5207 111.8598 111.2115 110.5807 109.9989 109.4931 109.1246 108.9229 108.9022 109.0956 109.4462 109.9376 110.5050 111.1415 111.7851 112.4418 113.0894 113.7172 114.3079 114.8529 115.4238 116.0195 116.5791 117.1163 117.8012 118.9645 118.9390 118.5160 119.1872 119.5762 119.7200
102.8900 112.6620 106.8381 107.1211 119.1392 113.9749 114.1283 113.3334 112.6503 111.9158 111.1623 110.3863 109.6222 108.8899 108.2394 107.7449 107.4594 107.4406 107.7012 108.1767 108.8005 109.5292 110.2981 111.0685 111.8276 112.5615 113.2662 113.9354 114.5786 115.1831 115.7367 116.0352 116.4689 116.0421 110.3047 115.1796 118.5302 119.1638 119.4508 119.6800
102.8900 111.8963 118.7649 118.0781 116.1878 114.3488 113.7408 112.9032 112.1517 111.3278 110.4597 109.5466 108.6062 107.6777 106.8207 106.1203 105.7119 105.6883 106.0603 106.7264 107.5782 108.4985 109.4366 110.3558 111.2293 112.0508 112.8370 113.5657 114.2455 114.8944 115.5232 117.1821 118.3858 123.9087 120.9550 111.5472 118.4709 119.0254 119.3386 119.6400
103.4000 103.1869 116.2725 114.8841 114.3626 113.8099 113.3551 112.5466 111.6962 110.7795 109.7868 108.7145 107.5701 106.3702 105.1937 104.1767 103.5235 103.4856 104.0794 105.0599 106.2313 107.4281 108.5804 109.6683 110.6632 111.5866 112.4471 113.2349 113.9620 114.6930 115.3277 109.7475 104.9344 109.8243 118.4907 117.4285 118.8298 118.8791 119.2544 119.6100
122.3400 109.7682 116.4735 115.1990 114.5673 113.8470 113.0492 112.2175 111.3017 110.2909 109.1727 107.9312 106.5345 105.0022 103.3622 101.7306 100.6601 100.5760 101.5763 103.1557 104.8148 106.3702 107.7744 109.0354 110.1617 111.1838 112.1078 112.9564 113.7298 114.5253 115.8561 128.0509 107.5189 105.2284 114.4711 118.3123 118.2966 118.7709 119.1913 119.3100
115.5800 116.2243 115.8013 115.0550 114.3705 113.6378 112.8351 111.9563 110.9846 109.8939 108.6629 107.2442 105.6028 103.6599 101.3248 98.7750 96.1094 95.9925 98.3595 101.0348 103.4083 105.3926 107.0667 108.5105 109.7547 110.8591 111.8484 112.7412 113.5548 114.2746 115.0837 118.1283 112.7425 106.1125 109.5697 118.4660 117.9700 118.7100 119.1380 119.2900
116.6800 116.2841 115.6183 114.9835 114.2756 113.5178 112.6977 111.7810 110.7629 109.6167 108.2988 106.7486 104.8798 102.5556 99.4467 94.7514 89.5795 89.2524 94.0322 99.0201 102.2338 104.6380 106.5511 108.1325 109.4776 110.6393 111.6742 112.5913 113.4315 114.2321 115.1446 115.7173 116.5546 117.2314 117.2201 117.6710 118.2452 118.6706 119.1022 119.2700
115.4200 116.2156 115.5716 114.9361 114.2316 113.4644 112.6266 111.7010 110.6664 109.4964 108.1214 106.5094 104.5265 101.9552 98.3662 91.4486 85.4628 85.1087 90.2797 97.8022 101.6024 104.2604 106.2989 107.9556 109.3411 110.5401 111.5845 112.5464 113.2804 113.8600 115.0360 117.1384 115.9262 116.7273 117.1751 117.7442 118.2089 118.6607 119.0771 119.2600
115.4700 116.2059 115.6039 114.9402 114.2370 113.4814 112.6492 111.7161 110.6843 109.4897 108.1691 106.5608 104.6076 102.0959 98.5682 92.0739 86.5623 86.2502 91.2634 98.1233 101.7420 104.3508 106.3571 107.9919 109.3714 110.5579 111.6044 112.5574 113.3876 116.1798 114.9099 111.9431 115.6219 115.7736 116.9250 117.6803 118.1511 118.6058 119.0611 119.2600
117.3300 116.2244 115.6575 114.9983 114.3062 113.5519 112.7405 111.8497 110.8682 110.0177 108.4085 106.9042 105.1053 102.9067 100.1114 96.1366 91.7257 91.4681 95.6442 99.6902 102.6142 104.8740 106.7019 108.2347 109.5778 110.7097 111.7268 112.6194 113.4688 117.5452 117.0605 106.0887 113.0538 116.6669 113.9613 117.7878 118.4749 118.9829 119.1026 119.2600
118.6400 116.2733 115.7357 115.1023 114.4296 113.6967 112.9067 112.0515 111.2424 110.1225 108.8384 107.4737 105.9224 104.1221 102.0154 99.9496 98.0795 97.9162 99.6610 101.7905 103.9216 105.7268 107.4016 108.7929 109.8393 110.9596 111.9396 112.7695 113.2952 113.5415 114.6601 116.8437 116.8566 116.7134 117.6421 117.8251 117.9712 117.4849 119.2105 119.5600
116.7600 116.4334 115.8536 115.2466 114.6002 113.8964 113.1461 112.3340 111.3714 110.4185 109.3790 108.1991 106.9015 105.5021 104.0477 102.6481 101.7345 101.6756 102.5208 103.8730 105.2046 107.0758 108.0125 108.3959 110.5326 111.3437 112.2212 113.0168 113.7749 113.5075 115.2968 115.6669 116.1807 116.8490 117.3581 118.1030 117.5077 129.1084 121.0956 112.1700
116.8100 116.5704 116.0218 115.4326 114.8134 114.1457 113.4322 112.6732 111.8658 110.9720 110.0171 109.0127 107.9378 106.8275 105.8080 104.9013 104.3507 104.3146 104.8141 105.7122 106.7598 106.0107 111.0612 102.2624 111.3784 111.6337 112.5798 113.3594 114.0751 114.7404 115.3314 115.9670 116.5501 117.0500 117.5302 118.2319 118.5971 136.3723 113.0209 107.2900
117.2200 116.7423 116.2148 115.6552 115.0616 114.4410 113.7697 113.0737 112.3205 111.5423 110.7151 109.7998 108.9881 108.0831 107.3391 106.7225 106.3644 106.3354 106.6657 107.2384 108.1571 108.0863 107.1854 104.7478 112.3519 112.2299 112.9737 113.6989 114.3550 114.9998 115.5922 116.1583 116.6833 117.1902 117.6596 118.1610 119.1174 112.7276 117.7434 115.1500
117.2900 116.9405 116.4343 115.9014 115.3436 114.7657 114.1465 113.5046 112.8348 112.0583 111.8329 110.3651 110.6904 109.2911 108.7062 108.2497 107.9953 107.9879 108.2304 108.6391 109.2560 110.6990 107.7890 108.1052 112.3270 112.7086 113.4262 114.0719 114.6912 115.2817 115.8279 116.3685 116.8732 117.3655 117.8324 118.2722 118.6545 118.9466 119.7494 119.6700
117.3600 117.1566 116.6820 116.1788 115.6587 115.1103 114.5406 113.9578 113.3669 112.7413 111.8011 112.1647 110.8958 110.3689 109.9035 109.5622 109.3736 109.3883 109.4556 109.9209 110.3333 111.5968 109.6847 112.3359 112.6892 113.2840 113.8855 114.4833 115.0329 115.4748 115.8791 116.3301 117.0728 117.5753 118.0056 118.4313 118.8610 119.2366 119.5719 119.9700
117.7700 117.3922 116.9393 116.4660 115.9812 115.4802 114.9615 114.4275 113.8920 113.2975 112.9890 112.1646 111.7289 111.3666 110.9738 110.7087 110.5616 110.5043 110.6324 111.7479 111.2709 111.6364 112.2442 112.5300 113.3121 113.8190 114.3641 114.8961 115.5508 115.7809 117.9312 114.9737 117.8580 117.7751 118.1979 118.6194 118.9668 118.8054 119.7462 120.0200
117.8500 117.6461 117.1983 116.8050 116.3126 115.8543 115.3779 114.9042 114.4147 113.9555 113.4643 113.0400 112.6220 112.2256 111.9403 111.7257 111.6088 111.4927 112.0190 113.2281 112.5419 112.6306 112.9902 113.4187 113.8673 114.3592 114.8474 115.3123 115.8721 116.3072 125.2887 123.3574 116.0307 118.1014 118.4177 118.7997 119.0597 122.2283 119.9379 120.0700
118.3500 117.9030 117.5285 116.9367 116.6779 116.2430 115.8075 115.3745 114.9392 114.5131 114.1046 113.7144 113.3629 113.0623 112.8114 112.6437 112.5408 112.2897 113.1746 106.6813 113.8236 113.3431 113.6723 114.0567 114.4711 114.8874 115.3185 115.7559 116.2917 116.1547 118.2375 112.1672 112.9621 118.4733 118.6513 118.9906 119.4564 118.6645 119.8807 120.4200
118.3500 118.0400 117.7400 116.0600 116.8200 116.4300 116.0700 115.7100 115.3500 114.9400 114.0400 114.2100 113.7800 113.7800 113.2600 113.4000 113.4000 112.6800 113.3800 113.3200 113.2300 113.7300 114.1400 114.5400 114.9800 115.4100 115.7000 116.1300 116.4200 116.7600 117.4300 105.4800 118.0400 118.3300 118.9000 119.1600 119.4300 119.9400 120.1800 120.4200
