114.4300 112.8400 119.3800 119.3900 109.6300 109.6700 105.0500 103.0700 103.5500 99.0600 99.0900 100.7100 115.6600 110.4700 111.7100 110.2600 109.4300 107.5000 106.3400 103.4400 101.5200 99.0500 89.7700 89.7700 89.7800 89.7800 99.0500 101.5200 105.0100 106.3400 108.5200 109.4300 111.0100 111.7100 112.9500 113.5100 114.0400 115.0000 115.4500 115.8700
114.4300 112.2596 115.0265 108.5209 102.5667 107.1244 110.9688 103.5145 108.2652 106.4015 104.6054 106.2736 116.1092 109.5447 111.4900 110.5132 109.3552 107.9812 106.3509 104.3660 101.8150 98.2690 92.1988 87.6298 87.9096 93.8494 99.3095 102.4913 104.8482 106.7342 108.2913 109.6237 110.7752 111.7986 112.7068 113.5370 114.2970 115.0114 115.6582 115.8700
113.1900 115.9287 113.2154 103.1802 108.9899 108.4079 114.4013 116.7764 97.5899 106.2435 110.5338 97.0135 114.9730 110.9156 111.8729 110.7261 109.5824 108.2922 106.7871 105.0120 102.8459 100.2220 96.8624 93.5058 93.9986 97.8788 99.3518 103.3079 105.3786 107.1415 108.5866 109.8462 110.9535 111.9329 112.8218 113.6266 114.3976 115.0245 115.5729 116.3100
112.1000 116.6810 118.1230 111.5941 112.7699 107.7893 102.9988 111.7969 98.7181 99.5395 100.1098 118.6662 113.4597 112.9869 111.9205 111.0575 109.9434 108.7822 107.4529 105.9485 104.2494 102.3888 100.5940 99.2763 99.4324 100.8966 101.6596 104.5931 106.2758 107.7616 109.0469 110.2031 111.2323 112.1686 113.0111 113.7814 114.5650 115.3372 116.5980 116.3400
114.1600 115.1248 117.3591 105.9356 100.6982 98.5779 105.4032 110.0748 101.2206 112.8219 101.2891 120.8850 115.7012 113.7174 112.7472 111.4054 110.4343 109.3933 108.2430 107.0079 105.6939 104.3855 103.2388 102.5524 102.6486 103.4603 104.6700 106.0257 107.2836 108.5028 109.6277 110.6622 111.6016 112.4652 113.2658 113.9774 114.6515 116.9718 107.2706 116.3900
115.7400 115.3790 115.2266 110.7306 110.8077 118.1910 113.9485 114.0678 103.0078 114.6869 106.3990 115.1208 115.8074 103.3218 115.3391 110.9853 111.0425 110.0696 109.1000 108.1005 107.0823 106.1431 105.3901 104.9846 105.0331 105.5334 106.3329 107.3024 108.3203 109.3126 110.2769 111.1879 112.0324 112.8318 113.5915 114.2870 114.6610 116.9093 101.7818 116.4500
125.9500 123.0061 119.2575 119.6633 110.7731 108.3003 107.1331 105.0958 116.5009 117.1290 115.7624 116.2174 101.3119 103.1898 112.6589 112.4373 111.4978 110.8290 109.9655 109.1538 108.3740 107.6767 107.1464 106.8761 106.9106 107.2455 107.8212 108.5341 109.3328 110.1527 110.9695 111.7582 112.5175 113.2286 113.9270 114.5813 115.2625 115.8396 115.5541 116.5200
100.1400 123.0361 114.6439 109.7969 114.4103 96.8783 117.1176 118.3748 117.0381 116.1608 115.8966 114.8295 102.9503 112.3980 103.7735 108.1083 112.6244 111.4802 110.8285 110.1598 109.5432 109.0129 108.6219 108.4237 108.4527 108.6911 109.1161 109.6659 110.3010 110.9770 111.6647 112.3517 113.0195 113.6671 114.3016 115.0517 115.3029 115.7596 116.4952 116.9500
130.5500 125.2135 108.4782 100.6755 110.6051 118.2154 119.8955 116.3252 117.3206 116.7933 116.1448 115.6671 115.5858 115.2821 114.6725 113.6853 112.8201 112.2509 111.6417 111.0909 110.6012 110.1841 109.8980 109.7473 109.7650 109.9506 110.2719 110.7046 111.2096 111.7677 112.3601 112.9603 113.4888 114.0162 114.4647 114.5553 98.9797 114.3826 116.6964 117.0400
128.5500 124.2821 106.4422 108.7514 108.3692 118.2386 124.9727 115.5772 117.5788 116.9170 116.5296 115.9380 115.3984 114.8701 114.3681 113.7373 113.4602 112.9339 112.4242 111.9679 111.5628 111.2344 111.0016 110.8979 110.9081 111.0444 111.3036 111.6473 112.0716 112.5340 113.0329 113.5426 114.0845 114.6703 114.1244 115.8510 115.5809 115.5989 117.6883 118.4100
114.2500 110.2181 110.7824 110.1732 111.5810 113.8570 129.8100 117.9687 117.8880 117.2424 116.7659 116.0664 115.9678 115.4943 114.9809 114.5069 114.0513 113.5952 113.1685 112.7813 112.4449 112.1799 111.9946 111.9007 111.9151 112.0250 112.2292 112.5118 112.8647 113.2621 113.6956 114.1434 114.6067 115.0497 115.7147 115.5826 111.9045 105.6768 114.5281 118.4100
114.2500 116.2940 111.0393 112.2609 114.1787 113.5398 125.5735 114.0497 118.0220 117.4450 117.0885 115.8548 116.3550 115.8671 115.4434 115.0271 114.6184 114.2334 113.8650 113.5414 113.2597 113.0339 112.8824 112.8084 112.8189 112.9183 113.0851 113.3168 113.6098 113.9401 114.3146 114.7165 115.1302 115.5396 115.8704 116.9802 116.8604 112.4104 114.2304 118.0600
117.6200 113.0954 117.7537 111.5133 107.3559 106.7275 118.2280 117.1233 118.1617 117.7951 117.5267 117.1107 116.6782 116.3062 115.9261 115.5492 115.1893 114.8381 114.5268 114.2428 114.0027 113.8184 113.6915 113.6328 113.6418 113.7071 113.8498 114.0463 114.3104 114.5919 114.9188 115.2629 115.6274 116.0066 116.4048 116.7555 117.5638 118.1989 118.6972 118.1200
121.3800 115.5994 116.2038 111.3389 112.3035 107.5419 113.3415 119.1695 118.5613 118.1490 117.7776 117.4284 117.0863 116.7370 116.3872 116.0482 115.7293 115.4228 115.1466 114.9012 114.7004 114.5429 114.4348 114.3818 114.3885 114.4696 114.5734 114.7843 114.9347 115.2043 115.4930 115.7954 116.1159 116.4629 116.8044 117.1496 117.4506 117.8534 118.1770 118.5600
117.7600 115.2424 112.0371 98.8807 106.7886 108.3376 118.4508 118.9009 118.7969 118.4512 118.1226 117.7924 117.4705 117.1516 116.8396 116.5321 116.2454 115.9784 115.7370 115.5236 115.3412 115.2046 115.1155 115.0719 115.0766 115.1775 114.3333 115.3305 115.5632 115.7833 116.0412 116.3137 116.6012 116.9081 117.2422 117.5135 117.8950 118.1959 118.5384 118.6100
113.1900 123.5358 107.7531 107.5481 105.9605 120.5734 121.9416 119.2205 119.0784 118.7648 118.4509 118.1547 117.8561 117.5640 117.2823 117.0039 116.7498 116.5039 116.2938 116.1011 115.9520 115.8304 115.7458 115.7102 115.7211 115.7575 115.8922 116.0688 116.1387 116.3381 116.5514 116.7994 117.0633 117.3511 117.6431 116.4275 118.2205 118.5053 118.8318 119.0400
112.1500 105.9560 119.7316 111.2685 110.5507 117.5716 116.7669 119.5213 119.6154 119.0133 118.8051 118.5012 118.2335 117.9633 117.7070 117.4559 117.2237 117.0100 116.8142 116.6520 116.5123 116.4082 116.3384 116.3074 116.3086 116.3509 116.4177 116.5265 116.6852 116.8588 117.0868 117.2734 117.5550 117.2073 117.1117 118.2471 118.6094 118.8490 119.1274 119.4000
112.2400 111.2028 111.3905 106.3820 106.0856 110.2652 114.9831 125.9539 118.5166 119.4827 119.1210 118.8550 118.5953 118.3665 118.1199 117.8894 117.6771 117.4865 117.3222 117.1752 117.0489 116.9577 116.8925 116.8675 116.8655 116.9005 116.9722 117.0749 117.2001 117.3522 117.4379 117.6058 117.8736 119.5646 118.9897 118.9761 118.8501 119.3646 118.6266 119.4800
113.1000 109.2001 110.1471 103.7363 121.8508 114.4784 111.6901 117.7849 120.0201 119.7004 119.4181 119.1526 118.9916 118.7022 118.5014 118.3498 118.1812 117.9549 117.7925 117.6560 117.5540 117.4698 117.4105 117.3922 117.3890 117.4284 117.4838 117.5655 117.6900 117.8316 117.9075 118.8158 114.3208 116.9252 106.1570 116.6048 119.1275 119.3866 117.8657 119.8500
114.7200 103.9993 120.5929 112.6790 119.6599 121.3226 122.2639 120.9933 120.1644 120.0537 122.0751 119.5513 117.6622 118.7980 118.7316 118.8556 118.2975 118.4015 118.2420 118.1283 118.0306 117.9547 117.9058 117.8815 117.8883 117.9100 117.9805 118.0606 118.1597 118.2636 118.4474 118.3741 111.5896 120.1747 117.9961 110.5251 120.4341 119.6931 120.0560 120.2600
116.0900 106.6856 106.5850 117.5588 122.7158 121.0574 120.7431 120.7067 120.5039 120.0103 120.1410 119.7134 119.1524 118.3434 119.2663 121.7891 119.3199 118.7952 118.6803 118.5722 118.4856 118.4156 118.3761 118.3529 118.3500 118.3785 118.4519 118.4660 118.5296 118.7541 118.6761 119.0188 108.0680 116.0601 119.2874 112.8232 111.2799 120.2356 120.3709 120.6100
115.9400 107.6360 105.7922 120.4768 123.5867 111.7531 121.4577 120.8141 119.8037 120.6172 120.4013 120.2226 120.3670 120.1191 119.6426 119.3885 119.1974 119.2843 119.0944 118.9959 118.9151 118.8520 118.8106 118.7954 118.8002 118.8230 118.8911 119.0654 120.3425 119.1651 119.1970 119.5055 119.2219 119.9272 120.2412 121.0579 117.6254 121.0092 120.5644 120.9100
100.6600 109.8909 118.6281 123.3876 108.8997 117.5173 121.6159 121.2250 121.2128 120.8593 120.6875 120.5586 120.2382 120.1288 119.9917 119.8828 119.7175 119.5821 119.4958 119.3948 119.3262 119.2732 119.2358 119.2173 119.2216 119.2458 119.2900 119.3643 117.1596 115.4524 121.3932 119.6539 119.6680 120.1034 120.2238 120.4573 121.0648 120.5731 120.9307 120.9500
100.6600 107.8786 123.4848 122.0604 118.2296 119.1275 122.2429 121.3829 121.3256 121.1426 121.0689 120.7403 120.6866 120.3723 120.3402 119.8956 120.1821 119.9712 119.8691 119.7877 119.7217 119.6668 119.6353 119.6233 119.6207 119.6391 119.7020 119.8291 118.0004 111.7667 112.0744 120.1293 120.1018 120.4616 115.8642 120.7547 120.7874 121.0338 121.1783 121.3200
122.9700 119.4753 122.7626 122.8007 122.2491 122.3272 121.8998 121.7046 121.5823 121.2938 121.1337 121.0250 120.7253 121.6142 120.7444 122.5479 120.2871 120.3272 120.2326 120.1596 120.1021 120.0507 120.0228 120.0108 120.0077 120.0324 120.0593 120.1033 120.3439 120.1430 119.7897 120.3900 121.7991 119.6254 120.9818 121.1912 121.1343 121.2859 121.4560 121.6200
123.2200 123.5473 122.8186 122.7372 122.5585 122.3281 122.1926 122.0161 121.8509 121.6069 123.2919 121.1132 121.2022 121.0093 106.8757 117.0882 120.7876 120.6796 120.5874 120.5128 120.4599 120.4170 120.3893 120.3800 120.3718 120.3818 120.4151 120.4858 120.4994 120.4632 117.5042 127.5662 124.4068 107.2863 121.4136 121.1435 121.4598 121.5671 121.7297 121.8800
123.2800 123.2907 123.0411 122.9872 122.7518 122.5741 122.4212 122.2542 122.0592 121.9902 121.7685 107.4602 122.0068 122.2931 120.9264 119.8161 121.1870 120.9973 120.9193 120.8575 120.8072 120.7693 120.7470 120.7283 120.7445 120.7677 120.7625 120.6344 120.9351 120.9146 122.2818 113.6656 107.8988 120.9119 114.2514 122.0121 121.7127 121.8465 121.9727 122.2200
122.7600 123.2438 123.2477 123.1246 122.9618 122.8084 122.6583 122.5083 122.3416 122.2347 122.4023 122.4673 120.4779 121.4787 121.6453 121.4716 121.3822 121.3359 121.2503 121.1885 121.1426 121.1059 121.0780 121.0687 121.1007 121.1204 121.0447 123.0706 120.9272 121.2872 121.4273 107.1968 116.2763 122.7532 117.5252 122.4330 122.0552 122.0902 122.3162 122.2200
118.8100 123.4208 123.5075 123.3360 123.1809 123.0327 122.8788 122.7409 122.5976 122.5024 122.3389 122.0516 122.3179 121.9182 121.8984 122.2620 121.7384 121.7199 121.5660 121.5186 121.4631 121.4272 121.4080 121.3878 121.4592 121.6682 121.8234 126.1259 122.1895 121.0693 122.0711 121.5934 122.0675 122.1525 122.1741 121.8904 121.9088 122.3534 121.4409 122.5000
123.9900 123.9239 123.6336 123.5424 123.3896 123.2518 123.1073 122.9807 122.8409 122.7204 122.5854 122.4941 122.2905 122.2427 121.8779 115.5199 121.4831 121.4524 121.9074 121.8302 121.7696 121.7389 121.7626 121.7394 121.6803 121.8031 120.3645 121.4743 123.9322 104.8893 122.2540 122.0028 123.0897 124.1743 122.0122 122.5062 121.3279 128.3491 124.5113 122.7700
124.2300 124.0127 123.9523 123.8175 123.6288 123.4652 123.3214 123.2128 123.1258 122.8502 122.7511 122.6076 122.6900 122.5195 122.2782 120.2758 133.4248 118.9708 122.2381 122.1365 122.0626 122.0651 121.7100 121.8769 122.4429 121.9506 121.1579 121.0846 123.9020 107.5833 118.7717 122.1920 118.0147 107.4216 122.3340 122.6603 120.5011 120.9715 121.8833 123.0400
124.2300 124.0101 124.0033 123.3539 123.6869 123.6674 123.5563 123.4318 123.1205 123.5918 122.9838 120.9143 122.8783 122.6048 122.7186 121.7188 122.6135 122.1605 122.4131 122.3948 122.4566 122.7300 125.1177 122.9693 119.0682 122.5633 123.9241 127.8741 125.8936 109.3188 111.5532 121.6268 122.2088 123.8477 123.5439 122.6501 123.2450 123.2800 123.2546 123.2900
124.4600 125.0259 124.2472 126.1008 125.5646 123.9159 123.7640 123.6476 123.4808 123.4748 112.1358 123.8595 123.0606 123.1114 122.9819 123.0206 122.8473 122.2174 123.2579 122.7492 122.9766 124.8755 126.4237 117.2219 124.1755 126.0927 113.2248 118.7107 124.7548 113.2013 111.3552 122.2704 122.8032 122.7655 122.8424 123.3104 123.2286 123.2781 123.4499 123.5400
124.6900 125.4792 111.6702 119.9750 124.5662 124.0201 123.9804 123.8790 123.7090 124.8107 122.1251 123.5169 123.4357 123.2895 123.2043 123.3512 122.8666 130.0067 116.4866 121.1642 124.4219 125.3965 115.2386 104.3178 112.9067 124.8567 116.3012 109.5556 112.2228 124.4834 121.1298 123.3297 123.2459 123.1708 123.4039 122.9969 123.2871 123.5799 123.7208 123.7800
124.9000 123.5282 124.9275 126.3962 125.6084 124.2713 124.1984 124.1061 123.9831 123.6870 123.7880 123.7135 123.6190 123.5464 123.4718 123.6141 118.0528 123.4484 111.3041 126.4623 131.6638 130.7670 106.3766 110.5211 118.6800 103.9364 110.5429 108.2686 117.7629 122.3624 109.3501 124.8886 123.1343 123.6117 124.6065 124.9441 128.0361 123.7582 123.9225 124.0100
125.1100 125.2562 101.4135 124.1816 124.5084 124.5183 124.4036 124.2879 124.2088 124.1268 124.0285 123.9322 123.8593 123.7802 123.7112 124.0522 124.1133 123.5449 125.9122 108.8518 107.6073 124.5246 120.5250 122.6707 124.7782 121.2418 122.3273 124.6372 115.0411 124.2387 118.4693 121.0078 125.7582 123.3008 124.2229 124.9659 114.8796 123.8020 123.9868 124.2100
125.1100 111.6956 113.8811 125.0717 124.8015 124.6949 124.6063 124.5097 124.4087 124.3240 124.2380 124.1652 124.0878 124.0099 123.9659 123.8208 123.7831 124.5921 115.5400 112.0866 123.2247 123.3542 124.0648 123.6729 123.5531 123.7959 123.6901 123.2721 124.1319 123.6810 121.0182 120.8330 124.4210 123.9632 123.7153 124.2118 108.7168 120.7048 124.0868 124.4500
107.4400 110.7297 122.7903 125.2470 125.0757 124.8949 124.8067 124.7044 124.6265 124.5346 124.4391 124.3673 124.2804 124.2589 124.1218 124.1459 123.8568 125.0803 117.0994 109.7245 122.0222 123.5592 123.9440 123.9032 123.9001 123.9084 123.9666 124.1082 123.9318 124.0429 118.9756 121.5444 124.3602 124.1903 124.1262 125.1953 120.5977 119.6388 124.2480 124.6700
125.5200 124.6963 125.4949 125.3073 125.1767 125.0862 124.9973 124.9044 124.8229 124.7055 124.7436 124.6113 124.6406 124.2330 124.6914 124.6425 124.5675 113.6522 104.6462 108.6862 122.1657 123.8810 124.1723 124.1449 124.1430 124.1433 124.1445 124.1324 124.2421 124.3103 121.4401 117.3238 125.0577 124.3921 124.5577 124.2805 120.6976 118.7259 124.9336 124.8700
125.5200 125.4200 125.4800 125.4800 125.3800 125.2300 125.1200 125.0100 124.8900 124.9300 122.0700 122.0700 124.6700 124.7000 124.5500 110.9100 124.4200 112.5000 112.5000 109.2900 124.3100 124.3200 124.3300 124.3400 124.3400 124.3300 124.3200 124.3100 124.3000 124.4600 124.4600 117.4800 124.5700 124.5400 124.6900 124.6600 124.7900 124.7900 124.9200 124.8700
