132.0500 132.6300 127.5900 135.8300 135.9100 135.8900 135.7200 135.7200 133.8500 133.5300 134.0300 127.3700 127.3300 126.7300 111.6500 115.1700 123.8200 125.1900 106.3900 122.6200 122.7300 122.5500 112.3800 128.4200 128.4300 125.3200 120.2800 119.4400 114.5100 116.3200 119.5300 119.5500 111.1000 113.0000 110.8300 128.4900 128.4700 128.5700 128.5700 128.5400 128.6400 121.9800 128.7200 128.7000 128.7900 128.7900 128.8600 128.8600 128.9500 129.0300 129.0000 129.0800 129.0800 129.1600 129.2400 129.3100 129.3100 129.3800 129.4800 129.5500 129.6100 129.6100 129.7600 129.7600
132.0900 133.9181 132.9844 129.4010 135.8421 136.7795 126.3481 132.0136 133.9166 134.2620 135.0083 119.6941 122.8797 126.8669 115.7594 118.8158 124.7400 124.3633 112.8179 121.0647 113.5536 122.1962 113.9856 128.5934 120.0201 126.3788 124.6578 111.1666 118.0846 104.1974 114.6176 111.7911 119.1693 127.5587 113.6948 129.5644 129.8158 107.5377 131.4712 128.2577 127.7500 125.7220 129.3296 128.5342 128.6715 128.7087 128.7501 128.7956 128.8485 128.6335 129.8302 125.3034 127.6312 128.8025 129.2080 129.2210 129.2816 129.3613 129.3578 129.4677 132.4090 129.6198 129.8025 129.7400
106.8500 129.5708 123.7602 124.7931 127.1648 128.1620 126.3172 131.2074 133.8178 129.1203 133.4309 117.1457 125.9667 126.5831 132.2688 125.7093 124.2749 124.3569 114.4628 121.2966 103.8355 123.2364 107.1691 116.2495 110.6210 132.1478 133.7256 105.6407 106.0272 111.2565 106.7365 116.7994 115.4782 131.1236 140.4810 111.6197 132.5902 113.0426 132.9041 128.5348 127.9921 128.7610 128.3513 128.5050 128.5250 128.5752 128.6185 128.6621 128.7502 128.7551 125.7407 108.7697 126.3902 128.9034 129.0630 129.0923 129.0783 129.1341 129.4029 129.2153 129.1932 129.2165 129.9727 129.5200
131.3500 133.6107 135.3844 107.8544 124.7632 125.7439 126.6566 125.5061 129.1556 124.3194 129.1886 131.5991 120.1553 128.7310 111.3681 125.3664 123.9883 125.2267 120.3621 121.9082 103.8995 109.5601 115.2710 125.5874 110.8780 121.1298 125.5810 115.2124 112.9440 107.1452 106.5234 105.1849 118.7233 127.9402 127.9403 127.6839 131.1795 123.8298 128.7826 127.8813 125.3130 128.2207 128.3380 128.3504 128.4006 128.4440 128.4998 128.5020 128.4469 129.7054 123.1721 113.7053 126.4301 129.1516 128.8281 128.9161 129.1164 129.1981 129.0477 129.9999 128.3564 130.9747 129.7865 112.4100
130.9700 130.6642 117.1279 109.0044 109.2388 124.6753 127.1165 125.9968 124.8172 125.3092 124.1690 127.2764 108.7406 131.0075 115.5147 119.9449 123.7399 123.2340 122.3860 120.6648 102.7776 121.1402 121.6394 107.3639 133.8104 116.9195 117.6861 107.4976 112.6806 110.5146 107.5704 103.9298 125.8631 127.7889 127.8502 127.8765 127.9877 128.4165 128.0007 128.2995 128.2965 128.1367 128.1716 128.2182 128.2575 128.3066 128.3509 128.2805 128.6562 128.9815 111.0763 121.5624 129.6022 128.5061 128.3833 126.1151 120.4434 129.5009 128.0403 127.7211 113.0543 123.6941 127.2250 129.3600
129.5500 131.5192 129.6311 126.3883 106.6120 110.0651 126.4851 125.4584 125.4192 124.8593 124.5297 126.0332 108.1710 127.9879 126.0015 110.2209 123.1079 122.3750 119.5704 121.1545 102.2273 120.4245 125.3727 131.7347 121.0102 114.7722 115.4564 111.9550 108.0010 116.1260 112.4180 115.1532 128.9229 127.7850 127.5380 127.8302 127.7880 127.7814 127.8886 127.8583 127.9128 127.9944 128.0322 128.0785 128.1218 128.1681 128.2181 128.2145 124.4444 115.9859 106.6981 116.0159 128.7697 128.6786 128.7087 120.3216 119.0627 128.3742 125.0809 132.0679 137.3162 121.1589 129.4709 129.2500
129.0800 130.8113 112.3210 128.4172 124.8770 108.1201 127.7605 125.1664 125.4353 124.6257 124.1962 124.2686 119.9633 125.1492 126.9211 110.2519 122.1567 121.0016 119.4638 120.1331 113.6668 122.2718 120.5314 113.1854 115.3537 125.5918 113.4998 114.3967 110.6182 109.6466 111.4042 116.5440 128.1532 127.6805 126.3634 127.8023 127.6348 127.7054 127.7264 127.7793 127.8068 127.8488 127.8888 127.9305 127.9809 128.0209 128.0848 127.9096 124.9740 113.0270 111.2707 129.2605 128.3003 128.4374 129.0151 114.3574 131.1783 127.3368 125.3907 128.6860 127.9836 129.2682 129.3291 129.1200
129.5000 129.6268 117.9366 121.9258 125.4023 126.9010 122.4110 125.7300 125.8361 124.8054 123.8369 119.4764 125.1086 109.2244 124.7296 107.2175 122.0795 119.8903 120.5158 121.1464 115.4466 124.9566 110.7585 115.8237 122.2230 112.9820 111.3929 119.9331 110.9800 127.7705 121.2359 128.8967 127.2341 127.4129 127.6197 127.4747 127.5165 127.5396 127.5757 127.6146 127.6538 127.6969 127.7352 127.7820 127.8342 127.8817 127.8586 128.0191 126.9919 112.2187 114.1390 127.8120 128.3697 129.2715 129.3372 124.6220 129.5803 128.7351 128.9637 128.6912 128.8576 128.8946 129.0145 128.9900
131.2100 130.0733 126.1248 124.6397 124.1080 125.1654 116.6345 125.7055 125.6955 124.8685 123.5331 118.8697 113.3045 109.0619 125.3710 125.3036 119.7250 119.4593 111.6735 123.4906 121.8145 125.1012 108.2430 124.6357 122.0503 121.9839 108.1465 123.4407 125.9926 120.0331 116.5541 126.6947 126.8647 127.1196 127.2818 127.3226 127.3518 127.3845 127.4248 127.4585 127.5036 127.5439 127.5872 127.6382 127.6894 127.7381 127.8371 128.5065 117.8865 123.5190 129.2372 129.4152 127.0226 125.4139 115.1852 127.0657 128.7663 128.2428 128.5787 128.6544 128.7270 128.8086 128.7769 128.9600
105.8700 128.5039 127.2188 123.6339 123.7978 124.0495 118.8163 116.7148 125.6724 125.2542 123.2543 121.8883 111.1795 107.5118 123.2990 110.6416 114.4104 118.8620 110.8778 128.0020 128.1269 135.5248 104.9013 125.0317 117.0860 117.9663 107.5812 129.4468 120.6064 131.3007 129.5856 127.0425 127.0690 127.1287 127.1799 127.2047 127.1947 127.2256 127.2674 127.3029 127.3469 127.3885 127.4397 127.4844 127.5388 127.5861 127.7132 128.6065 121.9438 127.0470 125.1662 121.9620 130.2650 109.0720 124.3790 127.0521 125.3064 128.4229 128.4636 128.5308 128.6137 128.6438 129.3949 128.8500
105.8700 112.3316 127.3977 126.0300 123.5319 125.2076 116.6675 116.1801 127.2603 125.6450 123.5675 120.5884 113.8724 119.7047 118.5269 108.5758 115.3133 119.5361 115.9571 120.9407 129.3646 121.4210 106.8988 113.0883 126.4527 118.0564 127.6113 126.6066 126.2396 126.2754 126.5414 126.8778 126.9423 126.8995 126.7913 126.8417 127.0312 127.0687 127.1074 127.1457 127.1874 127.2357 127.2883 127.3356 127.3851 127.4597 127.4405 127.3472 128.4909 127.6438 128.4068 121.6861 127.0962 108.5959 125.3414 121.0798 121.5136 128.3644 128.3745 128.4021 128.4842 128.3646 128.4920 128.7200
105.7200 127.6734 114.7180 127.1151 114.7132 124.6121 104.7680 102.1043 122.8131 127.0292 126.0886 113.5357 107.7196 119.5297 118.6602 117.8148 109.9369 130.0016 123.9456 121.8234 115.4268 118.6165 118.5845 125.4713 126.6532 128.9446 126.6797 126.6930 126.7154 126.7813 126.7712 126.7472 126.6407 126.9570 127.2042 126.8389 126.8792 126.9018 126.9378 126.9885 127.0402 127.0753 127.1280 127.1752 127.2328 127.2795 127.3616 127.4459 127.3382 127.3556 127.6141 125.5240 135.2933 130.9864 121.2979 113.5857 122.5710 127.9554 128.1846 128.2891 128.3929 128.6257 126.3752 128.5500
130.0200 134.3956 111.0489 119.3895 122.1802 123.3371 116.2150 99.5786 117.8155 126.8143 125.7301 107.3759 123.9510 108.7664 104.9298 123.9382 102.2941 128.9847 116.5399 110.5729 117.3160 119.1822 118.6589 126.9487 126.4067 126.2371 126.3137 126.5316 126.5249 126.5233 126.5214 126.5787 126.6824 121.2905 121.9490 126.7108 126.7053 126.7329 126.7938 126.7946 126.8365 126.9114 126.9666 127.0221 127.0809 127.1426 127.1972 127.2595 127.3410 127.4398 127.4408 127.9879 116.8512 128.7428 124.5651 115.7155 123.2054 128.0270 128.0630 128.1583 128.2067 128.2311 128.8520 128.5500
105.4200 111.0735 122.3109 118.1801 119.3626 118.5723 123.9117 110.7304 104.1741 126.4970 123.3138 126.6390 125.2109 112.5776 109.9498 122.6658 104.2902 120.3861 121.8387 105.7513 120.2832 114.8252 118.5623 127.2762 126.4590 126.3866 126.3945 126.3357 126.3753 126.1490 126.3668 126.4254 126.2925 130.4487 129.5733 126.3580 126.5412 126.5634 126.4925 126.7065 126.6754 126.7517 126.8065 126.8652 126.9213 126.9830 127.0485 127.1096 127.1793 127.2567 127.3105 127.2879 128.4634 127.8831 130.0155 125.4952 128.5389 127.9628 127.9598 128.0344 128.0820 128.1767 119.9458 114.5200
105.2600 111.7847 129.6579 116.3288 124.1666 120.5085 122.5178 111.2041 117.3096 120.5762 122.1531 122.8909 121.7577 118.7773 107.1440 123.9742 107.6586 119.6164 112.4752 107.5646 112.9515 115.9046 114.8651 121.4774 126.2525 126.0696 126.0826 126.0226 125.8598 124.5833 126.1995 126.1448 126.1426 125.1258 125.6343 126.3264 126.3391 126.3986 124.6135 126.4082 126.5583 126.5843 126.6363 126.7044 126.7545 126.8241 126.8859 126.9572 127.0296 127.1013 127.1809 127.2491 127.3033 127.2180 127.4006 127.6643 127.4406 127.6420 127.8229 127.9139 127.9747 128.2828 126.4633 128.2400
105.0800 119.5559 130.1701 122.6386 117.5424 109.6837 122.0099 123.7208 115.0424 123.0546 125.0388 122.7185 105.6063 112.2875 121.0875 124.7656 123.0679 118.0945 116.9411 109.6601 110.0693 122.1374 115.9032 115.9552 126.7108 126.0434 126.2045 126.1488 126.1747 126.1213 125.8842 126.2183 126.0933 126.1721 126.1470 126.1243 126.1701 126.2411 126.6435 126.3209 126.2538 126.4285 126.4919 126.5315 126.5964 126.6589 126.7279 126.8006 126.8758 126.9605 127.0290 127.1070 127.1938 127.2604 127.3778 127.4134 127.5257 127.6436 127.7011 127.7908 127.9226 127.9539 128.1966 128.1100
121.6100 129.0106 125.3216 117.9805 110.9552 119.0234 121.8932 122.1582 112.9073 123.9468 124.3316 120.8475 103.7132 106.3379 124.1540 109.1555 118.5214 104.7780 121.0631 106.7926 118.5981 114.3731 121.4114 120.7428 122.5453 124.2808 124.2083 124.6633 125.4379 125.9646 121.5273 123.6714 126.3760 126.3014 125.8932 125.9422 125.9492 125.8286 123.2249 126.1347 126.6908 126.2013 126.2892 126.3622 126.4291 126.5043 126.5639 126.6400 126.7232 126.8167 126.6862 126.9385 127.0580 127.1332 127.2166 127.3029 127.3911 127.4792 127.5697 127.6693 127.7488 127.8640 127.9032 127.9800
126.7600 126.5725 119.4870 121.6666 112.4141 119.7156 106.9564 119.4912 123.4063 121.8242 125.9046 120.2135 120.5090 108.9279 125.6165 109.2400 129.8662 104.4620 126.5178 118.6779 113.2042 108.3957 119.4195 123.4415 119.3683 123.3831 124.4202 125.5696 126.3237 126.3618 121.5088 126.6719 120.5940 125.6476 125.6299 125.7587 125.7875 125.3857 120.9062 125.6330 120.4062 126.0683 126.2079 126.2116 126.2453 126.3101 126.5208 126.3823 126.4756 126.7259 126.9574 127.9946 126.9154 126.9864 127.0794 127.1623 127.2576 127.3496 127.4420 127.5396 127.6339 127.7313 127.8301 127.8100
120.5400 126.0776 120.3538 121.5417 116.0482 108.7978 118.3676 116.9416 121.6632 123.6344 121.4632 120.8100 120.1209 102.4238 104.8162 101.7494 120.5546 106.4702 122.5121 117.3174 122.1376 117.1471 120.7742 126.9277 128.3715 123.9277 123.8346 106.2927 109.4117 113.8286 121.2768 122.3331 125.2274 126.6237 125.6337 125.5318 126.1018 119.3070 125.0413 112.5184 126.7600 126.0360 125.7858 125.9359 126.2113 126.3842 125.8462 126.2467 126.3392 126.6084 126.3114 126.7888 126.6939 126.8456 126.9321 127.0254 127.1203 127.2179 127.3177 127.4097 127.4770 127.6163 127.6216 127.7900
120.3200 119.9472 119.2616 122.0495 118.4477 107.9124 119.4530 108.9696 123.4415 117.2222 107.4731 109.5894 120.4855 103.1162 103.4227 103.5774 117.2151 117.9195 115.1982 113.8916 128.7286 127.9725 132.8043 124.7476 124.8401 125.7602 121.2491 105.1231 102.5059 113.0299 121.4503 122.9681 119.3718 120.4282 125.8065 124.7724 122.7877 118.4156 113.9400 113.1225 114.6013 126.1990 126.2812 126.6002 124.3341 125.5999 127.3700 115.9969 118.1066 127.2277 127.1986 126.2598 126.6127 126.6972 126.7923 126.8838 126.9842 127.0865 127.1813 127.2880 127.3615 127.6834 127.6372 127.6600
120.3100 105.0008 104.9170 109.1432 122.1439 117.2457 113.7969 123.3036 115.0855 112.8408 116.5768 103.3847 120.0871 102.4160 103.3151 103.3128 101.7532 110.2469 114.2784 108.5041 127.2333 124.3236 124.2454 125.2994 126.9811 108.7370 105.4490 118.9906 100.6420 110.2239 117.4598 120.7824 117.3818 120.1131 124.9383 119.9651 119.7189 119.7412 116.5416 103.8321 122.0105 114.0489 120.6458 122.3131 116.3387 118.8571 122.4743 119.6544 117.5533 112.2464 125.6972 126.3838 126.4738 126.5464 126.6480 126.7492 126.8453 126.9475 127.0532 127.1631 127.2551 127.1556 126.5831 130.4500
120.2300 118.5004 118.1547 112.9626 122.3453 115.3109 111.9179 112.4074 109.5710 118.0984 105.3389 104.4734 102.7609 102.4839 103.1121 103.2581 100.7750 117.1181 109.7060 111.5888 126.7921 124.9101 124.7952 127.7349 106.8837 126.5961 101.6637 116.4469 121.7602 122.2889 110.1443 121.1966 119.0832 106.8296 129.6121 120.4060 121.2407 119.6194 118.9216 116.8827 124.1728 123.6492 123.0821 117.8103 121.2599 115.8612 111.7681 111.7758 112.4042 108.9523 126.5995 125.8993 126.3030 126.4160 126.4898 126.6002 126.7005 126.8079 126.9180 127.0224 127.1142 127.0631 125.1061 127.4700
120.7600 122.5211 109.2218 109.3649 120.9239 121.3898 119.2507 116.9415 107.4634 109.1065 103.4954 113.9105 103.1388 102.9599 102.9219 103.0245 102.0800 109.4842 117.3786 119.1958 125.5938 124.5474 130.4909 107.3754 104.1733 103.4942 102.0733 115.1834 102.1184 112.3047 118.5831 120.0537 118.8350 110.1663 127.3247 120.7998 118.8481 120.1522 121.2178 115.2327 112.1373 128.2165 122.9783 116.0774 120.8139 115.9625 110.6433 109.8356 105.8174 127.5700 126.1464 125.9431 126.1752 126.2225 126.3575 126.4980 126.5753 126.6793 126.7871 126.8906 126.9961 127.2045 127.2410 127.2800
103.8500 111.0675 119.8149 116.8469 119.6827 121.8279 118.7850 109.5254 111.0726 108.7099 101.3947 102.4381 102.2219 103.0626 102.6872 102.1202 104.6950 103.7653 111.3406 124.9751 124.6823 124.4681 126.8599 117.6449 116.5673 109.9699 102.9457 114.9536 104.5520 107.1029 119.6297 107.5505 110.3439 102.5444 118.8659 125.1814 119.4946 125.3380 120.9817 126.3642 118.9821 119.1971 117.0440 114.9472 115.5446 117.3270 116.3165 112.3855 117.3611 126.0745 125.2111 125.6533 127.1540 126.0348 126.0835 126.3019 126.2385 126.5208 126.6437 126.7632 126.8791 126.9510 127.0895 127.1300
103.6600 108.1606 122.1645 121.5489 112.2414 118.3490 117.0725 109.0396 119.8742 105.7626 117.0165 121.9764 104.2394 100.6802 102.2263 101.9706 119.7685 110.3549 109.9501 124.0337 123.8024 124.1691 125.5695 108.7817 111.9888 124.1698 103.2025 119.5193 103.1426 121.2115 123.5027 121.5870 120.8112 101.7091 120.1637 125.5920 120.2464 125.0315 116.3045 123.2838 108.8284 110.0637 113.6556 116.3854 109.2676 125.4963 125.9505 124.2475 124.5230 125.4937 127.2250 126.1729 114.5733 126.2573 126.1134 127.9878 127.9455 126.3287 126.5892 126.6467 126.7420 126.8667 126.9862 127.1300
117.4300 119.9745 120.3562 120.7302 108.7394 112.1324 112.7423 109.7604 105.4398 104.9818 120.9140 101.6069 104.4053 115.5488 106.9713 111.2652 109.8887 107.1214 116.1878 124.1088 124.1387 124.0566 124.3572 119.1089 127.0332 122.8137 111.1447 110.8165 119.8578 119.2965 116.8941 121.4926 124.5080 112.1151 126.4045 120.7079 123.0720 124.2515 114.3056 125.2823 120.4988 112.1920 122.8269 131.1761 123.6139 126.6483 123.8015 124.3676 125.7201 120.3841 114.2464 126.2447 126.3346 125.7945 125.6742 127.7012 128.0142 121.8150 126.6915 126.4586 126.6260 126.7454 126.8600 126.9400
117.4300 117.8252 117.9805 118.4901 117.7516 113.9834 113.4707 102.6286 121.6879 119.7484 112.7008 115.7702 117.3644 111.3285 100.8603 112.6985 100.9947 114.5153 113.9327 125.5848 123.7449 119.5434 123.0700 107.9589 123.4250 125.1263 114.1760 117.3796 115.8097 101.5818 125.0891 122.8171 123.8650 121.2019 117.6859 115.9266 127.2273 123.8963 123.0193 121.9762 118.5977 115.6314 118.1688 121.5502 124.9662 125.9694 114.2514 124.1007 124.9661 125.0113 127.6351 127.1814 125.3529 125.4553 125.7128 126.8374 114.2278 122.2422 126.2676 126.3595 126.5114 126.6083 126.7413 126.7900
116.9200 117.6034 115.5324 122.8066 118.3057 113.2169 112.4644 107.1033 105.8379 108.3997 107.2250 111.6234 102.2428 107.9642 104.2261 108.1550 101.7730 116.4543 104.5926 111.6114 125.4053 123.4500 122.9455 104.2966 126.4828 117.6130 109.2050 116.0496 113.8050 122.4168 123.6297 121.7320 121.0036 124.4653 113.8563 114.8558 105.9813 124.0249 123.8451 123.9912 123.8493 125.8241 124.3208 124.2631 123.9333 124.8496 115.1570 115.9321 124.8310 125.0012 125.1702 125.1904 125.3340 125.4734 125.6107 125.8433 125.5349 127.0534 126.7657 126.1566 126.4022 126.4777 126.6101 126.7400
116.6300 108.9430 111.4399 117.7729 114.9014 116.0017 112.3590 120.9738 102.4402 110.2187 109.2483 109.8487 114.0034 116.9018 100.5477 110.2434 113.0212 101.0423 116.4563 107.4283 116.7288 120.3108 118.0357 116.4044 122.2373 123.2415 105.6245 121.0986 124.0395 120.6517 111.0832 115.8951 124.0236 123.5109 118.9346 119.4588 111.0778 125.4948 123.7750 123.8835 125.5313 123.4529 124.0839 124.1304 125.1960 120.8063 123.1608 122.7178 125.5444 124.5913 124.9503 125.0928 125.1927 125.3121 125.4574 125.5831 125.5134 125.9028 125.9591 126.0724 126.2511 126.6664 126.8402 126.5800
124.8200 117.4299 116.7917 119.4322 114.4212 115.0879 116.5723 109.6332 120.3117 106.0493 109.0885 107.3835 102.6016 99.8845 101.0250 114.8532 108.2396 108.6572 126.7694 120.8159 125.4379 109.8355 109.6218 114.1000 124.9125 123.0943 119.5832 120.1776 108.3031 114.1459 115.5315 118.3124 123.3297 119.1049 117.0129 105.9916 116.0225 122.6127 123.6026 123.4562 125.3767 123.9659 123.7924 123.9899 120.8782 121.7762 117.1969 120.1261 121.2749 125.0823 124.7172 124.8996 125.0209 125.1608 125.2889 125.4458 125.5858 125.7511 125.8317 126.0109 125.9360 126.5760 121.0265 126.4000
124.7900 125.6447 124.0369 117.5018 113.5864 114.9254 118.5855 110.1308 114.4400 102.3141 110.5998 111.2485 107.1603 105.5191 101.3977 111.5259 107.5251 110.4691 115.0716 122.4542 113.8803 114.4126 106.2006 99.5936 115.9237 113.6263 123.8152 112.9008 98.2986 108.2548 108.5468 116.2353 119.1627 119.0852 105.8816 109.6667 117.5504 123.4948 123.0894 123.2457 123.2057 123.4557 123.8251 118.7868 111.3128 116.2750 124.6587 128.2326 124.7698 124.4335 124.5939 124.7222 124.8651 124.9967 125.1388 125.2730 125.4142 125.5561 125.6829 125.9118 125.6874 126.3674 109.6986 126.3800
124.5900 124.6499 115.8429 118.5997 113.4411 115.6157 127.1633 116.4530 108.4843 103.0180 105.5392 108.7945 104.7558 111.3681 103.5810 103.6534 108.5346 103.3575 114.3443 123.3179 102.9460 106.4881 107.3881 109.4529 126.2032 110.5720 113.6815 122.8899 111.7927 107.4630 118.1473 110.9806 108.8387 115.4394 102.0416 107.6555 114.8555 120.3474 123.7865 123.0111 122.9952 123.4808 124.9076 111.4588 103.7373 117.4148 123.2315 123.8027 123.9157 124.2680 124.4126 124.5579 124.6933 124.8377 124.9794 125.1323 125.2702 125.4162 125.5648 125.6620 126.1207 124.9968 127.1575 126.1700
124.3600 122.8728 115.7598 113.9977 113.9470 123.1554 116.4426 109.2632 109.3089 103.8425 103.9699 108.0490 102.4060 102.5401 110.2015 99.5767 111.3062 105.4706 108.1114 118.9259 111.3843 102.3713 115.3084 101.5212 128.4607 121.2702 122.3958 123.2792 109.9496 124.1701 116.0941 116.4364 136.1027 116.0071 113.0563 114.4478 111.5616 115.3747 122.8550 122.7532 122.1007 121.6140 112.3347 113.9441 121.1477 120.8207 123.6814 123.9456 123.9503 124.1379 124.2374 124.3594 124.4830 124.6838 124.8208 124.9818 125.1268 125.2775 125.4029 125.5135 126.0279 120.0510 123.9458 126.1700
124.3200 119.4997 112.6288 115.4569 115.2248 121.6033 114.1004 110.5899 108.7856 112.1284 104.4220 103.1375 104.7737 104.0150 99.4176 106.2748 111.6223 117.1549 109.2049 120.4485 117.6153 113.6613 109.8990 122.6891 122.5078 121.6609 120.9132 122.3936 121.8579 115.6179 121.5252 120.0527 110.0977 111.2975 112.8410 110.5668 111.6495 122.9128 122.3683 122.5603 124.5601 107.9384 110.3617 123.2458 123.3810 123.8323 123.7590 123.4542 123.6806 123.9105 124.0101 124.2888 124.6228 124.4405 124.6834 124.8122 124.9949 125.1489 125.2888 125.5420 125.5849 125.0963 126.0547 125.9600
124.1200 125.2998 112.0026 115.4735 116.8223 117.1873 112.7673 111.7502 100.8927 106.2620 107.1340 99.8641 106.6596 109.9725 112.4428 107.3127 116.8935 106.3551 105.5043 122.3753 121.0678 123.3368 119.4467 120.9634 121.0833 119.3015 114.5963 116.6530 108.3456 101.0588 113.5061 120.0390 125.3610 120.6207 123.1598 116.7573 134.5634 125.7929 122.1098 122.2314 123.9425 109.8873 124.7796 119.2615 123.9450 122.0463 119.5113 123.9139 123.9916 123.6920 124.0827 122.5325 123.5732 124.3923 124.7765 124.8048 124.8143 124.8941 125.1702 125.3206 125.3627 126.0295 125.5379 125.9600
119.4800 123.7852 113.9178 125.1319 113.9753 114.1663 112.9191 110.1673 113.9400 116.0147 118.8598 100.2750 105.7160 117.3833 114.5825 101.4733 116.8668 105.3495 121.1229 122.0428 121.0186 120.8839 122.5048 108.7115 108.9913 114.3305 108.5963 107.1589 101.9230 104.4182 112.2343 121.8522 106.5621 114.6078 116.1989 114.0228 126.4695 119.6333 122.1321 121.8926 122.5327 118.4652 120.9516 111.3452 124.1781 123.2299 122.6218 121.1400 122.1271 123.4160 123.7902 123.7045 123.6351 124.2134 123.7230 121.6901 124.6656 124.8353 125.0214 125.1808 125.3533 125.4831 125.6700 125.7500
119.7200 116.3081 109.1939 114.9608 116.7919 115.6241 110.5184 105.2702 113.9030 108.5245 113.2554 102.5304 107.8981 115.1128 110.1301 109.3697 112.1844 119.7338 122.3537 121.0598 120.4524 120.2601 121.4540 106.7010 121.1352 113.6275 108.5361 104.8608 118.4694 116.6963 119.8400 120.5417 123.1382 105.4251 110.1710 116.5234 120.6274 121.7240 121.6309 121.7669 122.0305 121.8063 121.6023 123.4469 112.9918 114.3745 122.4145 123.2131 123.4290 123.0007 127.0348 123.0641 124.0487 124.3009 125.2056 117.7368 116.4757 125.4821 124.7982 125.0543 125.2190 125.4030 125.4745 125.5800
123.4000 122.4483 109.9284 107.1714 111.4850 115.8003 112.2236 113.4360 114.3640 105.7048 101.9314 106.7133 106.6183 109.7428 100.1870 96.5471 114.8573 120.7121 120.6813 120.5650 120.2335 121.3680 112.7612 114.6549 122.0114 109.0686 107.3417 114.6252 115.5947 121.4276 120.3068 119.9151 121.1755 116.8418 108.6371 107.8852 122.1728 121.1678 122.0135 114.4869 122.3133 121.5471 123.8802 133.0023 109.9124 122.3561 114.7317 117.3755 124.3424 127.8050 124.8175 123.1088 123.7220 124.2409 114.5803 117.7993 124.9033 124.6278 124.7484 124.9192 125.1177 125.1830 125.3313 125.5300
123.3300 124.2823 108.1729 107.0687 104.2248 109.1520 113.5617 113.7900 116.7579 113.1972 107.3006 104.2446 109.1748 122.8710 122.4934 103.5613 113.4385 120.3701 120.5041 120.2621 120.0147 120.4147 101.9311 116.6302 119.5842 119.0514 103.6045 103.7113 122.0632 119.9544 120.1312 120.2886 127.1595 113.7790 118.3968 115.0740 121.3809 123.5317 126.8012 117.8148 121.6623 121.4451 121.0560 122.3416 122.1117 116.9519 118.2668 120.3236 111.4840 122.2324 121.9938 123.1871 122.1729 111.4293 121.3973 124.1828 124.1846 124.4056 124.6239 124.7867 124.9459 125.8871 117.3088 125.4900
123.0600 117.4129 107.5978 109.3668 108.6206 101.7867 115.5935 114.4486 106.0415 106.9834 105.2649 100.0361 112.0208 112.2959 120.8243 114.0541 120.1593 120.1745 120.0704 119.9137 119.7971 119.7498 120.3807 120.6194 119.3654 119.7553 116.4747 110.8042 109.6039 121.1914 119.7205 120.5045 123.2173 114.6711 111.1180 122.0739 119.6401 120.4985 121.6302 121.2678 120.4060 121.4382 121.4534 121.8383 122.3525 117.6363 120.1520 119.0525 117.0058 121.1069 112.3767 116.9886 116.5028 118.5002 124.2337 123.8530 124.1396 124.3064 124.4916 124.6138 125.3801 120.5767 116.3048 125.3200
123.0300 123.0506 112.4044 107.6057 103.6453 106.1451 95.8875 115.8418 112.6549 110.0827 114.8437 110.9096 105.9671 114.7183 121.4481 120.2122 119.8335 119.7531 119.6942 119.5454 119.4816 119.3090 119.5840 118.4981 119.2067 119.3359 119.9987 111.5009 103.6399 113.2752 119.3872 119.1857 119.1582 119.0876 118.3150 119.8670 120.1237 120.2324 120.3955 120.8065 120.8398 122.1469 121.3100 119.5516 119.1562 115.8609 113.3977 116.0015 112.6510 113.7862 111.0375 111.8774 115.4210 123.0550 123.8129 123.7809 123.9725 124.1677 124.3498 124.5622 124.9384 120.9779 125.1587 125.2700
122.7700 119.1527 123.8190 110.3095 107.4078 109.8154 106.3741 99.6250 98.8224 99.3578 104.6117 110.0677 106.4295 121.4468 119.5455 119.8426 119.6209 119.4533 119.2844 119.1586 119.1534 118.8486 113.6933 120.1777 118.0662 118.8638 118.9979 110.0320 97.7745 116.8404 118.7885 119.2066 119.0057 120.4860 120.1088 119.4909 119.7192 119.8947 120.0886 120.2852 114.0944 111.7923 123.3293 118.3900 113.0683 111.6441 114.0729 118.6266 119.2395 116.4846 110.8250 103.9806 113.6700 123.1761 123.3908 123.6513 123.8308 124.0368 124.2278 124.4390 124.5368 125.9749 126.1991 125.1000
122.7300 121.1710 113.6999 111.8021 114.7362 107.2125 105.7601 101.3480 100.1062 103.1454 110.9508 115.9928 128.4882 120.4139 119.7356 119.4396 119.1740 119.0835 118.8881 118.7590 118.8085 118.1461 110.7070 94.2271 120.1196 117.6597 118.4806 103.8584 116.4138 120.8982 118.9846 118.2481 118.8170 117.3979 117.9439 118.9344 120.2325 120.0754 119.8656 119.9194 119.7556 107.9439 124.7664 116.3348 120.6303 112.3013 112.1232 123.8155 125.2089 118.8224 105.7214 101.9245 119.2667 124.0779 122.9401 123.3909 123.7255 123.9072 124.1198 124.3743 124.3940 122.9842 122.7743 125.0200
122.4700 114.8168 117.2811 110.9031 113.4327 112.6311 97.3734 103.5975 101.4922 103.3835 104.1558 100.1828 116.7292 119.4444 119.2796 118.9375 119.1197 118.6203 118.5527 118.3490 118.3207 117.8188 109.5507 114.2303 118.8323 106.9435 101.6876 113.8901 103.4841 112.8243 114.6789 117.6146 118.1738 118.7543 118.5151 120.2347 111.5704 119.7627 118.3051 115.9630 110.0787 105.4920 108.7387 112.3088 123.6431 119.2683 122.7676 121.2770 124.9965 109.7734 100.4038 100.8208 116.1852 118.9944 125.1959 123.1604 123.4633 123.8083 123.9205 124.0769 124.7690 121.5951 124.1639 125.0200
110.8400 112.1365 121.7806 106.9095 107.9046 105.1661 109.0510 102.0301 102.1112 108.7990 108.6972 111.7659 119.1663 118.9632 118.9358 118.6674 119.7063 104.6465 118.7832 117.8980 117.8266 117.2696 118.2223 101.4107 118.4127 113.6115 111.8854 112.8511 116.2939 109.2236 118.4176 120.1338 117.3421 118.1026 117.3961 115.8403 106.1120 118.5382 122.9055 106.0893 105.2626 105.8073 108.8132 115.6514 123.9956 120.0001 121.3575 121.5425 117.3019 113.5336 102.2834 103.3070 122.1432 120.4235 123.0443 120.6690 123.5179 123.6866 124.0546 125.5293 122.5177 119.9896 111.5424 115.5400
111.6400 110.1936 113.7470 105.1188 105.3755 110.5033 124.1276 108.9196 98.8479 103.3331 109.6886 119.4480 119.0296 118.8819 118.5812 118.2288 118.6295 109.5490 119.3607 117.4539 117.2554 117.2477 116.8806 117.1480 117.7553 116.9846 117.6712 117.2483 111.3627 118.9830 116.6776 117.6895 117.5065 120.8978 110.2641 105.1211 117.5615 102.6000 107.3628 111.8283 103.0452 96.2560 112.8314 101.4235 106.7780 123.1381 115.8964 113.0363 112.7719 107.4002 97.6839 97.7633 123.1777 123.2732 115.0073 120.9253 123.3683 123.5250 123.0529 121.4022 111.1926 113.1228 116.1026 119.6600
110.5900 108.8565 108.5119 109.5391 109.0657 103.8095 106.8954 110.4194 103.9158 106.1659 99.4691 118.1434 118.9403 118.4603 118.1926 117.8835 119.3816 111.6230 116.7272 116.9815 116.7862 116.5889 116.4904 116.2709 116.0464 116.1145 115.9872 116.6169 116.6563 116.2350 116.7551 115.8152 115.2359 121.9685 117.1916 109.6762 99.2491 118.7802 123.4180 103.8596 104.8939 110.6821 107.3938 113.6353 111.5950 114.5558 113.3056 121.4983 116.4583 101.2380 101.6197 120.8345 123.8490 122.2158 119.7543 122.9951 123.2279 123.2462 122.2427 107.5567 106.1753 112.9108 114.0034 115.7000
113.5600 109.3146 109.1553 109.2912 104.3116 109.5506 100.8888 99.6730 106.1849 103.8300 115.3767 105.8942 119.6707 118.0472 117.7389 117.9100 117.0153 101.9064 114.0298 116.4517 116.2528 116.0730 115.9001 115.8050 115.7460 115.6746 115.6733 115.5865 115.6780 115.8804 116.1073 114.8161 101.7805 117.1555 108.1253 105.2565 117.8842 117.1332 119.4995 113.5118 110.7120 120.2454 118.8239 111.7554 98.8414 113.5599 116.6822 120.6062 117.6625 103.1203 108.8202 114.9533 105.9939 119.6124 122.4850 122.8851 123.0909 123.5516 128.1137 138.2869 108.7685 109.7944 123.4138 113.9300
121.7300 108.9610 109.2644 107.9456 105.7057 103.9483 110.4141 98.9897 99.1492 102.2787 103.9447 117.6497 117.7634 118.1730 114.4018 114.7981 116.8875 116.9376 116.0305 115.9877 115.7317 115.4906 115.3091 115.1565 115.0520 114.9973 114.9940 115.0648 115.1501 115.3594 115.0772 118.3159 112.2427 116.5775 118.2884 107.3549 105.7372 118.2763 120.7546 107.8491 102.1132 118.1503 117.2931 95.0967 95.7397 111.7764 120.7011 120.2714 121.1863 123.9648 122.8652 121.7633 121.9698 122.5198 122.4355 122.6668 123.1323 122.6687 129.4156 126.5486 109.0697 113.9632 123.7357 102.5200
109.8900 108.8959 110.9911 103.7905 107.1471 99.3931 101.6397 102.9203 100.6535 102.4590 119.4913 121.7780 119.0969 117.2666 116.9441 117.4756 116.3539 116.0253 115.7644 115.3161 115.1697 114.8785 114.6683 114.4991 114.3832 114.3226 114.3108 114.3579 114.4514 114.9569 114.2113 117.9594 114.8972 117.0258 115.4687 110.0396 113.8775 117.6212 117.2293 118.1973 117.1741 114.3531 100.2508 96.7563 97.1904 114.4813 120.4219 120.3804 120.8033 117.9479 121.0455 121.3371 121.7062 121.9536 122.4220 122.6301 122.9954 123.4458 123.4434 111.0377 120.7924 117.7624 137.4724 137.6100
121.4200 108.7491 109.6341 107.4431 101.2313 103.3669 104.6744 103.5133 104.9545 104.3833 116.1549 115.3330 116.8527 117.6635 116.5852 113.2518 116.3039 115.4547 114.4643 115.5024 114.4440 114.2286 113.9855 113.7908 113.6478 113.5686 113.5590 113.6197 113.7547 114.0201 111.2706 114.5773 114.8040 114.5297 115.3323 101.2489 116.7338 116.3621 117.1538 118.5461 105.5882 105.9595 106.5057 96.3001 100.7273 119.6333 119.7233 120.2219 120.4971 120.9909 121.2939 121.4600 121.7227 122.5819 122.1502 122.4717 120.9054 128.4613 124.0079 124.7207 118.5271 116.9288 132.9642 120.7200
121.3600 108.1602 109.5469 113.2886 98.1535 102.5318 100.7162 106.1219 114.2766 117.9691 115.3103 110.9260 117.5089 116.6808 115.9604 116.0142 115.4214 116.1729 104.0043 112.6367 113.8135 113.5452 113.2505 112.9739 112.8452 112.7570 112.7447 112.8130 112.9565 113.2127 113.7625 113.7925 114.1205 115.2624 115.7521 108.6970 112.5636 117.5281 116.0781 113.2527 107.9225 104.0987 103.8213 97.5914 122.6711 120.8268 117.3927 120.0288 120.3107 120.5522 120.8943 121.3480 121.5908 126.5298 121.5491 119.0613 113.3230 123.1631 123.9414 123.4297 123.9905 127.1628 108.4386 120.2400
109.9900 107.2262 108.0438 105.8763 108.2019 100.5810 101.3074 115.4514 115.5304 119.0301 117.6757 118.3752 116.4363 116.5392 115.9095 115.4368 115.0099 114.5955 113.8609 115.3006 112.8578 112.8073 112.4139 112.5770 111.6808 111.8936 111.8419 111.9219 112.1199 112.3760 112.6657 113.0910 113.4896 114.0132 114.5429 107.5514 96.6099 107.6919 111.7964 105.2134 113.6963 109.7275 103.7464 105.5467 114.5868 110.4284 116.4034 119.7682 120.2137 120.5309 120.8557 121.3349 120.8630 127.0250 121.2360 123.1743 115.5792 123.1021 117.4338 123.8077 123.2935 125.0555 115.9866 114.9300
102.9000 102.3594 101.7066 100.0847 119.0782 104.7300 101.5132 110.9753 101.7888 107.3483 115.4456 116.6125 116.6436 116.0283 115.5385 115.0278 114.5402 114.0609 112.4829 112.2590 112.4913 111.9863 111.5619 111.2287 106.2583 111.3091 110.8447 110.9332 111.1679 111.4896 111.8997 112.3493 112.8729 113.2968 115.3497 102.3620 100.5804 116.9984 103.5146 108.2461 114.6257 123.2916 105.1785 99.6127 106.3801 112.9955 120.9181 119.6336 120.0580 120.3850 120.7199 121.0293 120.9846 120.8672 121.8430 123.0195 123.5773 123.6282 114.9963 123.8703 123.5224 124.2084 119.6382 115.5600
102.9000 101.1339 101.8950 104.3935 118.4715 101.7670 100.5880 108.5151 103.7152 109.5754 116.8702 118.7234 115.9539 115.5780 115.0915 114.6298 114.0419 113.6166 111.6974 112.3525 111.7127 111.1474 110.5283 110.5647 109.3475 109.9079 109.7019 109.8275 110.1219 110.5275 111.0224 111.5611 112.1078 112.2181 104.6034 98.2100 97.2091 100.4053 101.7842 114.0326 114.8545 117.4581 106.7695 111.2907 112.0664 120.0728 118.9667 119.5759 119.9178 120.2623 120.6099 120.9194 121.2848 121.6466 121.8417 121.9660 122.2287 123.1260 123.8786 122.7123 123.2900 119.4400 106.7348 109.5000
105.7000 103.5181 101.1926 108.1024 121.0233 112.0349 114.0114 99.1612 96.7504 102.4196 103.8401 102.5547 116.5128 115.4237 114.8470 114.2131 113.5971 112.9252 112.3151 111.7002 110.8802 110.2444 109.6175 109.0041 108.6823 108.3492 108.3814 108.5670 108.9484 109.4682 110.0818 110.7039 111.6548 112.3953 120.8233 99.1659 97.1320 111.3611 112.4131 116.1305 116.6466 118.9209 118.5078 119.7668 118.6750 118.2564 119.0452 119.4241 119.7953 120.1554 120.4986 120.8283 121.1416 121.4528 121.7774 122.0817 122.2977 122.3425 123.0115 124.5050 124.0808 109.2048 110.0940 123.1900
100.8800 109.3187 98.5217 113.3536 120.4284 119.9848 119.7430 114.6825 112.4365 109.4580 91.7585 95.9309 114.3461 108.9462 114.5681 113.7757 113.1626 112.4427 111.6685 110.8741 110.0852 109.2577 108.4664 107.7660 107.1945 106.8751 106.8313 107.0990 107.6021 108.2974 109.0712 109.8774 110.7086 111.3915 102.2454 110.1228 111.2081 105.5879 114.6294 115.6649 116.7506 114.1023 113.6190 117.0292 117.5646 118.6360 118.9217 119.3051 119.6842 120.0575 120.4097 120.7522 121.0828 121.3981 121.6820 122.0652 122.6907 122.8724 119.4452 111.6546 123.8683 121.0648 102.8730 101.9800
104.6000 97.5217 107.8989 118.0699 119.1126 118.7450 118.1392 118.4337 118.0997 108.3849 112.0910 100.9702 120.8694 101.3072 115.5873 113.3584 112.7732 111.9737 111.1034 110.2039 109.2488 108.2458 107.2360 106.2824 105.4896 105.0007 104.9391 105.3459 106.0831 107.0135 108.0172 109.0137 110.0328 110.2498 109.8530 113.1666 113.6561 112.2384 117.5436 100.6902 112.5216 107.5933 104.8980 114.3472 117.6063 118.3112 118.7998 119.2026 119.5999 119.9705 120.3357 120.6804 121.0071 121.3307 121.8225 121.2933 121.4551 116.9959 117.6519 113.5874 123.2038 125.5866 107.8021 110.3000
120.6100 119.9441 119.1135 119.7393 119.2113 118.8271 118.3886 117.9161 117.3550 117.0271 116.0929 114.8929 115.6826 114.3034 114.1578 113.1945 112.4125 111.5067 110.5942 109.5525 108.4271 107.2202 105.9232 104.6124 103.4233 102.6170 102.5286 103.1957 104.3084 105.6193 106.9281 108.1260 108.9430 116.2135 112.6003 112.3872 112.8406 113.7362 115.9524 101.6412 103.6139 106.4891 106.2527 110.1408 118.1555 118.5084 118.6908 119.1217 119.5232 119.8979 120.2679 120.6167 120.9575 121.2825 121.6455 121.7384 121.6348 122.5396 122.3715 123.3263 123.2610 123.8587 121.0740 134.4700
112.9200 110.4786 120.7701 119.5572 119.1648 118.7362 118.3014 117.8330 117.3666 116.6985 116.1985 115.6618 115.1004 114.5157 113.9809 113.2707 110.8643 111.3911 110.0871 108.9773 107.6845 106.2177 104.5682 102.7328 100.8469 99.4778 99.2442 100.4648 102.2896 104.1582 105.8549 107.3257 108.8438 109.9377 110.4367 111.8955 113.3713 106.6562 111.5664 99.4433 115.9720 124.9997 102.4293 106.5031 102.7042 119.3011 118.4973 119.0467 119.4449 119.8509 120.2245 120.5692 120.9136 121.2413 121.5788 121.8317 122.1381 122.2849 122.6599 122.8326 123.2470 127.0028 136.3260 116.8700
122.0900 120.9881 120.2238 119.5527 119.0987 118.6825 118.2409 117.7794 117.2829 116.8076 116.2442 115.6260 114.9064 114.3838 110.4059 112.3934 94.7129 116.6691 110.2124 108.5262 107.0559 105.3554 103.3014 100.7556 97.6502 94.0940 93.6433 96.8265 100.0867 102.7516 104.9163 106.6940 108.0848 109.6072 108.0003 111.7682 112.7108 113.4496 113.9916 113.5606 105.5795 111.2792 118.3402 114.3871 116.9781 118.0654 118.7644 119.0894 119.6056 119.7418 120.1881 120.5508 120.8774 121.2130 121.5297 121.8496 122.1726 122.4595 122.7331 122.9734 123.7317 123.7201 126.2445 133.2900
98.7600 120.9022 119.5684 119.4699 119.0769 118.6507 118.2054 117.7400 117.2392 116.6966 116.1372 115.5155 114.8330 115.8495 93.0392 97.6909 114.9351 106.0127 108.5815 108.0843 106.6651 104.7502 102.3422 99.0688 93.5899 88.0500 87.4084 91.9492 98.1411 101.6763 104.2422 106.2403 107.8382 109.4857 110.7125 111.4760 112.3040 114.4232 98.6671 109.2310 113.1823 110.3864 114.2582 113.8264 115.6169 115.6709 118.9179 118.7158 117.9768 120.7255 120.0183 120.5187 120.8596 121.1932 121.5132 121.8122 122.1094 122.4023 122.6708 122.7988 128.1127 122.5638 115.9569 110.2100
124.2500 118.2679 120.0741 119.4859 119.0687 118.6388 118.1938 117.7264 117.2224 116.7003 116.1342 115.5394 114.8874 114.0859 115.6287 114.7931 111.4608 109.0230 110.0263 108.0772 106.5007 104.5437 101.9881 98.4253 91.5902 85.3581 84.7460 89.6504 97.3655 101.2823 104.0137 106.0846 107.7577 109.1252 110.2939 111.4343 112.4272 113.7195 116.8546 111.6863 95.0786 101.8165 113.1928 100.7658 112.1533 107.6082 119.5603 119.0648 115.4001 122.8728 119.8616 120.5503 120.8559 121.1870 121.5072 121.8213 122.1117 122.4136 122.7516 121.1871 117.5191 103.9498 104.0609 105.1300
123.2900 117.3600 119.8000 119.5300 118.9700 118.6700 118.0500 117.7200 117.3800 116.6600 116.2700 115.4400 115.0000 114.0300 113.5100 112.3500 111.7000 107.4000 109.4300 108.5100 106.3400 105.0000 101.5000 99.0400 89.7300 89.7300 89.7600 89.7600 99.0400 101.5000 103.4300 106.3300 107.4900 109.4300 110.2500 111.7000 112.3500 113.5000 114.0300 117.3300 97.8200 104.6000 116.6600 104.1700 112.5800 108.0300 118.6700 118.9700 119.2500 119.8000 120.0600 120.5500 120.7900 121.2500 121.4700 121.9000 122.1000 122.5000 122.6900 122.8800 118.5300 106.8100 107.9700 105.1300
