126.8100 126.8100 126.7300 126.6000 126.5000 126.4100 127.2200 127.2200 124.5200 124.1600 124.1600 121.5900 125.8700 120.4400 130.1300 103.6400 121.1100 121.1100 103.5600 103.5700 103.9000 120.9900 109.4700 125.4600 126.0800 114.1000 113.0400 112.0700 111.8400 111.1500 113.6200 111.0400 125.4600 125.4600 116.1500 125.4200 125.5700 125.5500 125.5300 125.6700 125.6400 125.7700 125.8900 125.8600 125.9800 125.9800 126.0900 126.2000 126.1700 126.3000 126.4000 126.4900 126.4900 108.8800 108.8800 126.8000 126.9300 127.0100 127.1000 127.2100 118.4400 127.3900 127.5100 127.4800
126.8000 126.6615 126.5909 126.4895 126.3955 125.9938 122.3631 122.1756 125.0518 125.3646 124.5442 122.8563 121.8212 119.2358 119.5865 109.9744 117.5985 121.4384 109.8723 103.3760 113.4753 119.7578 125.4505 123.6625 122.9316 117.0781 114.5555 105.1760 117.4578 106.3650 109.5986 108.9233 103.4811 109.5734 108.3252 115.3766 127.5335 109.5706 121.5996 125.6705 120.4912 123.4813 128.1067 125.4701 125.8252 125.8950 125.9644 126.0435 126.1221 126.1910 126.2654 126.9803 130.5386 121.5860 126.2361 127.6089 126.8494 127.1448 127.0818 127.5306 128.0235 127.4684 127.4971 127.4400
126.6400 126.4608 126.0060 126.2854 126.0110 126.3646 121.9428 121.9177 122.0420 120.7277 119.8996 121.0432 119.5985 119.5201 118.7569 125.3596 118.6367 116.9604 108.2009 103.2687 103.2135 105.3522 112.0890 111.7590 113.2779 124.1096 106.3881 100.9675 106.1438 106.7755 107.8661 107.7603 102.3482 126.1124 123.3262 117.8635 128.8564 104.0280 123.4889 125.3021 124.0252 125.8494 125.1703 125.6106 125.6219 125.7124 125.7923 125.8719 125.9485 126.0844 126.1119 125.3744 113.8765 119.2666 127.1410 125.5969 126.6449 126.6895 126.9038 127.1204 128.2683 127.1588 127.4226 127.4400
126.4600 131.3771 124.5910 126.1920 125.9355 126.6682 121.6130 124.7380 121.2920 120.2171 120.3907 119.9403 119.4728 119.9404 118.8358 125.3122 117.4974 116.3090 118.0923 103.0308 103.3292 102.5141 124.9258 130.9796 116.1252 114.8710 110.4919 112.2703 112.0545 110.5494 106.3749 107.4747 106.6109 126.6232 124.3679 125.0104 122.5845 120.1057 126.1927 125.0434 123.7262 125.3672 125.3852 125.3750 125.4606 125.5358 125.6093 125.7315 125.7742 125.9914 127.0246 126.6706 107.0798 127.7785 126.8974 126.0468 127.5275 126.6634 126.5607 126.8765 126.3009 126.7272 126.7531 127.3000
126.2600 128.6540 116.9836 121.5668 126.6003 121.4905 125.0635 123.1767 119.6492 120.6556 119.1888 119.2556 118.7620 118.2078 122.2673 116.6311 125.3036 115.9853 111.3430 103.7930 114.4150 103.4120 118.5175 124.7806 110.8960 114.9841 108.7472 109.5770 110.5663 105.1610 114.8608 105.9433 126.3752 124.2090 124.4637 124.4605 124.9047 124.6817 122.9624 124.9510 125.0937 125.0354 125.1357 125.1864 125.2747 125.3459 125.4317 125.4970 125.6627 127.6477 119.5725 104.7106 123.8140 126.8366 126.1990 126.3840 113.1888 127.5103 127.5520 126.7544 127.5106 129.9650 127.1739 106.4100
126.0900 125.5165 124.3320 121.2072 122.5173 108.3370 125.9031 125.7745 120.0208 119.7720 118.5632 118.5773 118.4140 118.2873 124.2474 117.7014 123.6076 113.3786 114.9103 118.5075 100.5630 102.2537 117.8525 119.0359 114.8701 110.5866 107.6693 104.6052 104.3921 111.4951 103.1417 111.1860 124.3750 124.4154 124.9162 125.4972 124.3747 124.2644 124.1545 124.7356 124.7685 124.8537 124.9207 124.9945 125.0813 125.1640 125.2449 125.3473 125.3613 115.4313 102.1573 104.8396 113.8315 127.5620 125.8039 129.4338 124.2543 118.0522 119.1394 127.2090 120.5038 111.2649 121.5744 126.9500
125.9000 126.6648 124.7305 126.0410 122.1686 123.1570 125.7564 125.4515 120.3689 119.8411 118.2618 117.9786 118.0811 118.0412 126.5351 117.2549 118.4618 116.9979 113.3674 116.6264 108.0123 130.1712 116.3687 114.2695 110.6124 108.6356 110.6859 104.7295 104.3607 113.2333 120.8926 124.1016 124.5730 125.0816 113.0508 124.4627 124.1968 124.4288 124.4581 124.5003 124.5846 124.6404 124.7183 124.7980 124.8801 124.9721 125.0596 125.2380 126.1640 116.3910 103.4727 105.7656 120.1331 126.8288 126.5110 117.4805 116.0113 114.8794 123.9788 122.3369 124.4911 127.9143 127.2923 126.7700
125.9000 125.7780 110.2542 120.6904 121.1886 124.2562 125.8396 125.0526 122.0287 119.5690 118.9194 118.9611 118.0444 118.4787 103.1701 121.7780 123.6456 124.9346 113.6374 118.2531 110.5157 101.4939 106.3344 123.3557 116.9685 110.9949 104.9373 104.4082 102.6051 116.9865 106.4291 120.9851 122.3401 124.4109 124.1553 124.1719 124.0878 124.1557 124.2240 124.2890 124.3624 124.4364 124.5143 124.6044 124.6867 124.7755 124.8536 124.9715 124.6496 113.7674 108.8389 125.6650 125.4862 125.7666 125.5999 125.8876 126.9411 125.9259 126.3643 126.6127 126.3319 126.7849 126.6029 126.7500
125.6900 125.8320 108.8468 118.4109 120.4524 120.3993 122.2259 124.9286 126.3180 120.1168 119.3397 122.2610 122.0868 120.0833 121.0189 117.6359 118.3377 119.0059 124.0718 121.6809 121.9572 115.0456 109.9454 125.9208 120.5091 102.3693 107.4872 109.3942 110.2518 106.7305 120.1239 122.9666 123.7694 123.5582 123.6566 123.8263 123.8746 123.9419 124.0046 124.0661 124.1452 124.2187 124.3028 124.3946 124.4822 124.5826 124.6883 124.6277 126.9161 123.6850 126.5066 125.5900 125.2748 126.3232 121.2468 112.8678 125.6769 125.4802 126.1716 126.1471 126.1171 127.0659 118.9161 126.5900
125.5000 124.9287 126.5538 121.6217 120.1719 119.9512 121.7039 124.7503 128.7563 124.6225 119.7237 124.0423 125.4953 119.7332 124.0267 104.1475 120.4713 118.2559 119.2511 114.2045 124.0643 117.8867 101.0257 124.4292 110.2519 124.5314 110.2117 124.0810 123.5507 125.4895 123.2619 123.4781 123.4362 123.5375 123.5778 123.5759 123.6393 123.7025 123.7688 123.8435 123.9230 124.0043 124.0891 124.1857 124.2773 124.3841 124.4905 124.4088 121.5729 118.9460 125.5734 125.0396 124.9971 123.7626 119.3636 119.2272 119.8228 125.9204 125.9141 126.0286 125.9421 126.0599 125.8019 126.5500
125.2900 125.1418 124.8990 125.6501 115.5890 120.9232 115.4026 124.0554 124.0991 121.8695 132.8734 133.3296 131.4695 123.2830 126.3698 127.2047 125.0819 121.5653 116.9811 117.7505 118.9121 113.9739 104.4728 121.4330 122.3805 122.2670 124.0773 123.6784 116.1062 122.8590 123.1978 123.1830 123.2037 123.2428 123.2099 123.3552 123.4136 123.4648 123.5391 123.6121 123.6950 123.7807 123.8706 123.9701 124.0717 124.1724 124.2887 124.2418 125.7591 124.7104 124.8224 124.8439 125.2082 122.6708 119.7686 117.8083 121.9246 125.6989 125.6265 125.9299 125.7103 132.3597 122.1538 126.4000
125.2700 125.2736 124.2441 118.9054 110.8856 113.5813 118.0407 118.9168 124.2330 124.0496 119.0152 127.7887 127.3012 118.1684 128.9815 115.6708 116.3058 111.0486 111.3555 114.3368 117.9039 118.5351 108.0487 121.7688 122.6173 122.9765 122.6099 122.9357 123.9921 122.9651 122.8961 122.9065 122.9757 122.9885 123.4991 123.0436 123.1485 123.2175 123.2940 123.3718 123.4611 123.5500 123.6562 123.7549 123.8557 123.9648 124.0868 124.1938 124.1040 124.3792 124.4258 124.6274 125.0933 123.2610 125.0598 127.2193 119.5730 126.0057 125.6108 125.7609 125.4144 128.4300 130.0881 117.6500
125.0800 124.9028 122.0441 124.0125 111.0115 102.1663 106.1703 117.3392 120.8513 127.7066 113.7184 123.2263 116.1389 113.5785 121.5634 115.0428 116.6639 114.0460 107.9715 112.8109 112.9157 111.8245 115.2645 123.0208 122.6583 122.6348 122.6467 122.5793 122.3736 122.4628 122.5926 122.6955 122.5028 121.6829 119.1904 122.7874 122.9004 122.9696 123.0451 123.1318 123.2250 123.3182 123.4262 123.5307 123.6395 123.7562 123.8730 124.0035 124.1199 124.2837 124.3660 125.1354 116.5048 121.5146 113.7413 119.8019 124.9774 125.2115 125.4458 125.5626 125.9483 126.7619 122.1122 120.3700
124.8500 125.2082 125.3253 123.0511 120.9468 116.7613 99.0214 100.1197 118.6888 121.8086 121.6377 105.6514 120.9882 117.1157 117.3376 113.1619 103.0087 114.1785 113.9102 116.7708 128.6739 112.3158 121.8660 122.4842 122.2714 122.3467 122.3134 122.3061 122.6374 122.8574 122.3625 122.3557 122.4549 122.6076 126.2068 122.3791 122.6473 122.7130 122.7938 122.8841 122.9807 123.0836 123.1900 123.2979 123.4242 123.5366 123.6619 123.7872 123.9168 124.0414 124.1971 124.1529 128.7571 125.5692 124.6666 128.4781 125.1558 125.2358 125.3083 125.4939 125.2593 126.1441 110.3081 111.2700
126.4100 124.7557 124.3979 124.3374 119.2981 119.3374 111.6976 120.1647 116.7525 123.4366 120.7615 116.9194 119.3764 117.6459 116.5019 114.2894 114.9650 111.5724 98.1572 109.3407 116.0870 104.3061 106.2659 118.4857 122.0471 122.0967 122.0142 122.4017 118.1424 118.7676 122.1460 122.0860 122.1020 122.7572 121.1771 122.5600 122.3175 122.4477 122.5317 122.6289 122.7212 122.8348 122.9556 123.0697 123.1938 123.3227 123.4479 123.5837 123.7201 123.8319 124.0931 124.0839 126.3896 124.6548 123.7643 125.5043 124.8470 125.0113 125.1761 125.3195 125.4220 125.8177 124.1577 125.7900
126.4100 124.3793 124.3256 124.2882 123.9410 125.0902 115.7392 112.9872 121.7900 121.2584 123.3640 117.3691 106.6150 113.6165 114.5934 113.2366 110.8374 109.4894 108.7572 114.0518 110.7296 116.6424 120.9092 122.9931 121.6249 121.7691 121.7252 121.7514 121.1882 121.6164 121.7375 121.7918 121.9406 121.6963 122.0183 121.8932 122.0991 122.1691 122.2630 122.3616 122.5055 122.5907 122.7027 122.8333 122.9623 123.0925 123.2370 123.3730 123.5747 123.6437 123.9358 123.5481 124.1949 124.0998 124.4595 124.5283 124.6717 124.8722 125.0217 125.1671 125.3349 125.4466 125.7926 125.7500
124.3700 124.1970 124.0575 123.8677 123.7145 125.3149 123.7202 109.4288 111.1873 121.7803 125.4052 117.2101 114.5357 112.1532 113.1340 113.0832 106.4000 118.8610 115.6601 120.4963 121.3749 107.9511 119.9818 115.3582 122.2471 121.3763 121.4195 121.3821 121.4129 121.4071 121.4245 121.4556 121.4356 121.5537 121.6059 121.7290 121.7905 121.8884 121.9852 122.1076 122.0793 122.3299 122.4726 122.5922 122.7309 122.8697 123.0196 123.1543 123.4039 122.9111 125.9534 122.9470 124.2031 124.0448 124.2504 124.4081 124.5659 124.7204 124.8770 125.0370 125.1947 125.3470 125.4670 125.5700
124.1400 124.0922 124.0277 124.2035 123.7687 125.6051 131.7760 114.9454 121.4327 122.5998 125.6690 114.7389 116.7767 112.1011 114.9866 112.8514 116.4746 103.1464 111.4474 109.5709 109.7047 106.3781 112.1130 114.4355 122.7049 120.8716 121.0935 121.1069 121.1021 121.0530 121.1435 121.1674 121.2220 121.2728 121.3364 121.4063 121.5083 121.5954 121.6807 121.7411 122.1696 121.9317 122.1308 122.3521 122.4883 122.6372 122.7949 122.9503 123.1024 123.1467 123.7765 111.3369 124.2506 123.8127 124.1161 124.2341 124.4123 124.5708 124.7381 124.8949 125.0642 125.2175 125.3829 125.5200
124.1100 123.9466 122.2332 117.8428 123.3561 123.5681 118.2516 117.6631 122.2417 122.7615 116.1601 115.4619 115.3745 110.6861 126.4338 115.2649 122.7871 117.7405 99.5007 112.8869 120.3663 120.0482 109.3278 123.2988 122.6171 120.6392 120.1670 120.5618 120.6783 121.7554 120.7733 120.8322 120.8643 120.9305 121.0117 121.0977 121.1894 121.3188 121.4058 121.6008 111.5370 122.2019 122.0017 122.0942 122.2504 122.4092 122.5451 122.7467 122.8429 122.7936 123.3399 123.9810 122.1386 124.3087 123.8449 124.0906 124.2520 124.4185 124.5891 124.7590 124.9214 125.0980 125.2623 125.3500
123.8900 123.7079 123.6505 123.9020 115.1073 115.1837 122.1364 118.3240 117.3181 114.6551 113.7796 117.2942 113.6730 116.2213 108.1321 124.7170 112.6395 107.7880 105.3754 121.7113 122.0708 122.8326 116.1645 121.0795 120.2714 120.3347 120.1279 116.2334 121.1103 119.3597 120.5110 120.4924 120.5361 120.6093 120.6729 120.7589 120.9102 120.9401 121.1652 121.5681 121.8459 121.3703 121.6858 121.8499 122.0069 122.1964 122.3237 122.7557 123.3714 124.2480 123.1575 121.7781 116.2670 123.4573 123.7053 123.9425 124.0915 124.2700 124.4493 124.6226 124.7843 124.9586 125.1021 125.3000
120.4200 117.8635 123.2773 123.5126 118.9026 112.2924 123.5202 117.9399 115.8844 113.4994 113.7305 113.3582 113.0178 107.6104 114.6327 109.1648 106.2990 114.8465 106.8669 115.4948 120.3880 120.1764 120.2412 119.7491 120.2541 118.3463 119.9687 119.9301 118.1882 115.1352 120.0605 120.2227 120.1757 120.1767 120.3919 120.5095 120.5183 121.2517 120.2763 117.0252 120.7961 121.4641 121.3955 121.5841 121.7467 121.8962 121.9798 122.3002 116.3528 119.2422 121.9683 117.7353 117.3364 123.9427 123.4719 123.7582 123.9401 124.1248 124.3036 124.4829 124.6643 124.8412 125.4893 125.1200
120.4200 102.4382 123.2892 123.2999 123.3152 123.2538 116.8039 121.4123 108.1972 116.3202 114.5244 117.2018 114.9918 116.0327 119.7407 110.5838 107.7343 112.0771 109.0928 108.8648 120.8833 120.0870 120.2133 122.1513 121.1978 105.8612 120.0949 118.8227 121.9234 120.9218 119.7705 119.7474 119.7894 120.4506 119.8512 119.9233 120.2905 120.8956 117.3520 120.8876 109.6765 121.0534 121.1122 121.3148 121.4303 121.7946 122.2817 117.6597 109.1153 111.1867 114.6545 120.0916 120.6143 123.6610 123.4434 123.5963 123.7687 123.9549 124.1559 124.3517 124.5182 124.5817 125.8102 125.3300
120.6000 123.3956 116.6735 120.0887 122.5761 121.7369 117.2536 115.0521 117.1848 113.0998 112.2968 133.9722 116.8184 107.3912 125.2470 103.0271 108.7989 111.2644 107.1632 117.8065 120.0542 119.6527 120.4744 107.5206 104.8253 107.2286 120.0083 113.0923 110.4471 116.4290 119.3547 119.2167 119.6204 114.8820 119.9680 119.8642 119.8819 120.0023 118.2425 121.3040 119.5579 121.2414 120.9118 121.0112 119.4673 123.6059 119.4646 121.9799 110.4248 118.7427 120.4481 118.6717 124.0253 122.5726 123.2609 123.4373 123.6767 123.8864 124.0158 124.2151 124.4434 124.7257 123.8920 124.8500
120.6000 112.5203 112.7463 113.4860 116.1975 123.0775 122.1027 120.4505 118.1599 110.0122 109.3569 118.2069 115.8047 106.6393 119.5730 100.5788 110.5777 113.2833 120.1719 123.9520 118.4738 119.2611 119.3941 120.9042 121.6587 120.5238 117.9510 109.3879 104.2616 121.1291 118.7513 118.0320 121.9136 103.0853 115.1479 119.3699 119.5931 119.6826 119.8915 119.2476 120.6345 121.1030 120.4000 120.3880 120.2906 108.6378 106.0161 118.2894 107.5064 114.6825 121.3856 117.5959 122.9678 122.8827 123.0631 123.3382 122.8415 123.0485 123.9448 124.0570 124.2365 126.0863 127.2427 124.8500
113.9300 108.8700 113.5682 111.8991 111.5016 121.9652 122.6660 116.6299 111.9980 115.2631 110.7483 111.1366 116.4171 119.4920 106.5353 98.4269 120.2575 113.6785 114.7067 119.8453 118.8323 118.9038 118.7216 118.9664 115.3748 117.9967 119.4276 106.2532 99.6677 120.0297 118.4757 118.2928 118.8402 118.1775 121.4340 118.5023 119.1882 119.3001 119.5136 119.9230 120.6850 111.7979 121.1694 121.9310 118.5960 105.3056 119.0647 122.4228 117.0740 122.6381 123.6827 122.3204 122.4453 122.7230 122.9018 123.0241 126.4346 125.0328 123.7535 123.9028 124.1735 125.3261 125.0976 124.6200
119.6700 116.4274 112.4094 112.2230 108.3546 114.4601 118.1236 103.8130 100.5288 106.6177 111.1724 109.9352 121.7786 112.8983 113.4895 99.4937 118.6886 119.5370 118.2763 118.8419 118.5737 118.4881 118.2299 118.1560 118.4195 118.2239 115.3306 112.6798 116.4187 118.0376 118.0022 118.0711 118.1228 113.3519 113.7111 120.2644 118.5403 118.9310 119.0803 119.5171 112.1684 105.7225 107.6176 115.9532 121.0259 119.3292 123.8437 121.2688 121.4459 122.4670 123.4936 121.8213 122.3249 122.5366 122.7446 123.0033 123.8011 123.6090 123.6674 123.8190 124.0452 123.9330 124.0498 124.5700
122.7500 119.1321 121.2157 110.2893 110.6224 111.0888 114.0258 108.5469 114.8291 110.3953 112.9731 108.7045 98.3952 114.6339 111.9382 111.3747 103.9358 118.9502 118.6436 118.2294 118.2645 118.0843 119.3990 117.6451 117.5392 117.3885 117.5959 116.3529 117.5116 117.5299 117.5216 117.6270 117.7079 118.3293 118.2234 120.4362 118.1374 118.5519 118.7653 118.8295 121.5734 107.4900 119.7444 120.2860 120.1833 120.4878 120.6101 120.9010 121.1697 121.4172 121.9267 121.9137 122.1404 122.3669 122.6045 122.8533 123.0775 123.1507 123.4731 123.7088 123.9173 124.1492 124.3638 124.3900
122.7000 121.7873 124.2433 112.4022 112.0877 111.9838 115.6920 111.2716 110.5812 101.3240 104.4511 109.2400 111.5672 113.0749 106.8246 107.5831 103.8483 116.6149 117.5988 118.0995 117.6423 117.3616 117.7434 117.3987 117.2493 117.2383 116.9208 117.0179 116.9637 116.9572 117.0274 117.1389 117.2524 117.6350 115.1222 117.5934 117.9485 118.1357 118.4344 118.6259 118.8118 104.3284 120.7734 119.5564 119.9271 120.0269 120.4970 120.6318 121.0319 121.2070 121.4428 121.6699 121.9708 122.2547 122.4263 122.6683 122.8966 123.2026 123.3797 123.5815 123.7925 124.0122 124.2180 124.3400
122.4400 114.1584 121.9773 109.9742 111.7002 110.2493 111.3090 110.1639 108.9891 109.3840 109.3144 102.4791 119.0850 107.0682 104.7747 115.7641 112.1159 107.4687 111.0458 117.7199 117.1660 118.9126 115.2961 117.2359 116.8209 114.0601 116.6433 116.2986 116.2741 116.4180 116.4870 116.5717 116.7249 117.0332 117.1511 117.2709 117.4990 117.7491 118.0196 118.2315 119.0147 118.1911 119.9443 119.8202 117.5709 120.7200 120.5344 119.7044 120.9020 120.9054 121.3390 120.9520 121.8100 122.0000 122.2367 122.4481 122.7863 123.0114 123.2404 123.4624 123.6978 123.8856 124.3107 124.3100
122.4000 122.7648 123.5115 112.8349 111.5724 112.5481 110.5541 109.8181 110.0471 108.6927 109.4580 115.6538 108.7754 97.4032 105.0564 120.0886 112.4509 112.3344 125.8537 116.9049 116.8009 116.5822 103.3304 116.9713 116.0544 115.8893 115.9696 116.1380 116.6468 115.9305 115.9453 116.0779 116.2136 116.1306 116.5847 116.8050 117.0654 117.2976 117.6355 116.0805 117.8414 118.4609 118.3912 119.4795 106.3527 120.4457 120.5282 112.2861 121.7470 120.8565 121.4028 113.0580 122.0746 118.7537 121.0510 122.3904 122.6803 122.8829 123.1194 123.3486 123.5685 123.8188 120.9663 124.1100
122.1600 122.0537 121.3969 121.8403 113.3391 113.3666 113.5553 108.8108 109.9653 110.5536 112.0199 103.2615 94.8019 100.3463 103.5609 119.4224 117.5262 117.2606 115.9301 116.6873 115.8548 116.5614 108.7333 115.8574 115.6323 115.3633 115.7856 112.4788 110.2154 115.8223 115.2298 115.2186 115.2528 115.8459 115.8487 116.3177 116.5833 116.8960 117.1894 117.7975 117.7739 118.1498 118.4869 119.5209 119.0628 119.5877 119.7796 117.0580 119.8453 120.0641 115.3018 114.5819 121.8280 122.2430 122.5295 122.2408 122.5140 122.7664 123.0043 123.2545 123.1675 124.8686 111.6379 124.0800
122.1000 121.8972 122.4156 117.3585 112.1703 110.9689 118.4723 113.0810 107.2195 103.4313 103.6808 100.4171 100.4776 108.2287 107.3199 109.6803 117.3650 116.7337 116.6964 116.1758 115.6428 115.8998 115.8784 115.0517 112.9384 115.1980 114.7054 112.2229 108.0720 116.6351 114.5121 116.0371 115.0697 108.3018 118.0912 115.8550 116.1373 116.4275 116.7809 117.0773 117.4817 117.7468 118.1270 118.2687 118.7699 119.2612 119.9710 110.5759 109.4917 123.9513 112.7583 116.3887 121.8167 121.4576 121.7587 122.1467 122.3932 122.6435 122.8969 123.1299 123.3741 124.2961 125.5306 124.0400
122.0600 121.9036 121.5371 109.9719 115.5614 109.8510 120.0934 118.0209 108.2103 108.3165 99.8474 103.5129 108.8182 108.8868 107.3048 104.2035 111.7175 115.9900 116.0286 115.6924 115.3378 114.9703 114.6786 113.1309 114.8480 114.0172 113.9022 113.9157 113.4354 116.8130 99.8101 113.3564 112.5378 114.9798 114.0602 115.2608 115.5526 115.9547 116.3518 116.7333 117.0504 117.4294 118.1869 118.2253 118.4334 118.4640 114.6905 113.0359 108.0350 116.9297 118.0463 121.4873 121.1204 121.4695 121.7425 122.0097 122.2727 122.5414 122.7924 123.0325 123.3121 123.4322 123.5429 124.0100
121.7600 114.9964 123.7402 111.5910 110.1731 109.9480 116.7261 112.6770 112.7043 107.4201 103.5230 106.5739 110.3782 104.3531 101.3241 97.2838 105.4540 117.1544 115.4130 115.1671 114.7669 114.4077 114.0277 113.8019 112.8409 113.2702 113.0552 112.9987 113.0490 113.5618 107.9852 109.4796 112.7164 114.1929 115.8461 121.8102 114.7201 115.5315 115.9148 116.2665 117.3505 115.8361 117.3818 117.8589 118.6776 119.5546 105.9176 111.1006 115.3026 119.6125 120.2332 120.5591 121.0016 121.3116 121.6037 121.8900 122.1616 122.4358 122.6950 122.9512 123.2047 123.4780 123.7035 123.7800
121.7200 118.4800 112.8650 111.5242 109.7899 108.5328 117.0751 111.7988 109.8934 126.3516 100.8651 102.5184 100.4944 101.6574 99.6999 101.1545 98.4632 117.9657 115.9847 114.6585 114.2109 113.7616 113.3450 112.9587 112.7307 112.4284 112.2891 112.0782 112.2378 105.9644 96.5109 113.8920 112.9103 113.2696 112.4386 116.4466 114.3903 115.0911 115.4720 115.9469 116.4879 111.4687 116.7812 117.6671 116.6492 110.0288 107.5308 108.9881 121.3395 120.1107 120.2288 120.6027 120.8900 121.1949 121.4856 121.7822 122.0608 122.3411 122.6049 122.8658 123.1139 123.3548 123.5961 123.7600
115.5200 113.8119 109.0292 108.6142 108.6660 108.1522 109.1947 107.5923 106.2699 113.0170 111.4530 103.1813 116.7474 111.5491 97.1015 94.2639 98.4952 101.9085 114.3102 113.9061 113.6626 113.1187 112.7745 112.1836 111.7441 111.4689 110.3381 111.6606 111.0040 117.4120 113.7394 111.6056 112.0218 112.5345 113.1930 113.2429 113.8474 114.5514 115.0437 115.5601 116.0298 116.4256 118.6129 118.7076 109.6889 102.3511 107.8806 116.1998 119.1748 119.6680 120.1001 120.4280 120.7558 121.0759 121.3816 121.6823 121.9638 122.2455 122.5155 122.7834 123.0425 123.2959 123.5377 123.7300
110.1300 109.3737 109.1006 106.1435 108.2868 109.8722 109.9903 106.2470 104.6035 104.0625 114.2649 123.2588 116.8432 114.9140 115.2588 102.2686 114.0470 116.8504 113.9606 113.6385 113.0180 112.5370 111.2037 111.3567 110.9345 110.7184 109.3848 110.2477 110.2243 110.7203 110.1470 110.8002 111.2971 111.7934 112.3597 112.9242 113.5251 114.0606 114.6256 115.1566 115.6675 116.3434 115.5657 121.7874 109.6427 103.3676 119.4157 119.5007 119.5304 119.5288 119.9827 120.3072 120.6422 120.9720 121.2824 121.5864 121.8817 122.1651 122.4389 122.7095 122.9717 123.2265 123.4682 123.7100
114.7900 112.1383 108.4544 106.5896 108.1850 109.5202 107.7317 108.1876 106.4333 103.9907 111.6148 122.9533 114.7213 117.2433 116.0928 115.2653 107.1565 110.6839 113.5354 113.1447 112.5342 110.4544 120.9556 110.3760 109.7929 109.3433 109.0866 108.8008 108.7485 109.0190 109.3192 109.7797 110.3629 110.9612 111.6656 112.3087 112.9567 113.6064 114.2402 114.8345 115.3751 115.8847 116.0047 121.1502 117.2516 112.6416 109.1545 109.8531 114.7948 119.5414 119.8876 120.1944 120.5388 120.8748 121.1886 121.5019 121.7966 122.0927 122.3689 122.6401 122.9128 123.1726 123.4414 123.5100
110.3100 112.1536 107.5027 108.1667 108.3690 109.2347 109.5929 108.5881 108.0861 101.5703 107.1730 116.1240 116.8013 116.3775 115.7466 115.1416 114.2398 113.6936 113.2514 112.5579 111.8241 110.6733 111.1755 109.7127 108.7243 108.1127 107.5809 107.2975 107.2699 107.5147 108.0014 108.6567 109.3089 110.3201 111.1039 111.6326 112.4319 113.1329 113.9809 114.6627 115.1088 115.3345 116.5706 105.5871 102.2588 118.1741 118.8926 119.1777 119.3578 119.3132 119.7216 120.0980 120.4443 120.7832 121.1111 121.4272 121.7354 122.0229 122.3106 122.5869 122.8516 123.1132 123.4136 123.4900
109.4900 109.9146 107.0981 108.2214 107.4031 107.8566 110.1203 101.6106 98.9406 105.7079 103.9480 107.8428 117.1101 115.2399 115.4227 114.9311 114.3181 113.6336 112.8373 112.0500 111.2256 110.3752 109.5469 108.6471 107.5215 106.6683 105.9608 105.5324 105.4958 105.8686 106.5364 107.4147 108.2015 109.0950 109.1878 111.0635 111.9521 112.6083 116.2902 116.1548 114.7006 115.1532 118.1155 104.1665 102.8732 116.5937 117.5980 118.2260 118.7342 119.2563 119.6195 120.0143 120.3888 120.7127 121.0342 121.3524 121.6642 121.9714 122.2592 122.5368 122.8246 123.1827 122.1641 123.4800
108.6900 111.6858 109.1615 109.9699 108.5340 105.2672 108.8304 108.6861 107.4508 104.7857 102.7524 107.1665 119.4062 98.6049 116.3415 114.7073 113.9339 113.2243 112.4463 111.6015 110.6849 109.6892 108.5801 107.4341 106.2444 105.0463 103.9918 103.3146 103.2498 103.8390 104.8528 106.0638 107.3238 106.6661 102.5748 110.4924 111.5281 112.2547 112.6695 113.6419 114.6705 116.6602 118.6448 117.6028 117.7734 117.8372 117.7861 118.3701 118.7718 119.2395 119.6668 119.8291 120.1146 120.6572 121.0316 121.3400 121.6413 121.9264 122.2261 122.4824 122.5306 127.0177 116.4230 108.3700
121.2900 119.7124 109.5537 110.5800 109.2394 110.5924 106.0394 105.5872 105.0136 103.8483 106.7597 98.8265 120.9702 104.6884 115.2975 114.6372 113.7281 112.9737 112.1369 111.2150 110.2099 109.0868 107.8398 106.4369 104.8739 103.2094 101.5393 100.4238 100.3593 101.2923 102.9170 104.6156 106.0287 108.2267 114.4139 109.1849 110.9810 111.9733 112.9376 113.1153 118.1140 109.5343 109.5521 116.7915 116.4588 115.4180 117.7614 118.1581 118.6785 118.5055 118.6209 120.8417 121.2599 120.4026 120.6777 121.1000 121.4749 121.8936 122.1150 122.4066 122.6548 121.9714 123.4493 123.4500
121.2800 116.1766 111.0736 107.7766 108.4827 107.8276 107.8030 103.3772 104.0352 105.4952 113.5471 123.3989 117.7083 115.8080 114.6210 114.3958 113.5644 112.7616 111.8799 110.9116 109.8148 108.5843 107.1705 105.5117 103.5540 101.1814 98.5357 95.6879 95.3777 98.0775 100.7580 103.1935 105.2355 105.9377 118.1135 111.2534 111.1221 111.8663 112.8557 113.0131 118.6214 105.8400 100.8798 116.9989 116.6996 117.3393 117.6930 118.1730 118.4304 123.5658 123.6698 113.8554 116.2506 121.7746 122.0671 121.9143 121.7878 121.7133 122.6472 122.7041 122.8767 113.8364 123.3099 123.4400
121.2700 106.3372 116.3203 109.6443 110.2464 111.7295 108.9045 107.5102 101.9470 106.2602 120.8118 116.0079 115.7800 115.4062 114.7970 114.2391 113.4534 112.6194 111.7098 110.6995 109.5439 108.2248 106.6646 104.8031 102.4736 99.3521 94.4103 89.3778 88.9402 93.2603 98.7917 102.0085 104.4251 106.4195 107.2948 114.9322 104.3999 112.6699 112.5552 112.4635 113.6899 117.3369 110.9526 116.2745 116.5706 117.1076 117.6477 118.2018 118.2295 129.5927 123.3156 108.5192 112.3217 113.3644 115.8702 116.2127 121.9397 123.1810 118.1617 122.6102 123.0043 123.7176 123.1347 123.4200
108.7400 108.6306 115.4562 108.6053 111.9559 106.9876 119.3210 105.0667 99.3285 101.2036 109.6584 109.6229 116.5730 115.5130 114.8793 114.1640 113.4018 112.5633 111.6339 110.6031 109.4222 108.0565 106.5455 104.5151 101.9059 98.3138 91.4231 85.2646 84.8825 89.9826 97.5668 101.3981 104.0942 106.2156 106.6839 114.1810 99.4677 112.4215 112.4793 113.3488 113.9693 114.8418 116.0019 116.0102 116.5893 117.1342 117.6333 118.1018 118.6330 127.9958 123.6063 112.7347 105.8725 103.6168 110.4662 109.7019 122.1022 116.3807 113.6309 122.7950 122.4153 114.6608 122.4756 123.4200
107.1400 110.0938 116.1369 108.3015 109.9749 105.6436 113.5024 104.3249 99.6019 98.8196 107.7546 110.3986 116.8063 115.4300 114.8589 114.1734 113.4091 112.5803 111.6630 110.6259 109.4676 108.1285 106.1182 104.2264 102.1174 98.6379 92.4934 86.5620 86.0637 91.1149 97.9098 101.5663 104.1735 106.1877 107.8468 110.0183 107.4973 112.0126 112.4454 113.2593 114.0824 114.8014 115.3596 116.0475 116.6217 117.1218 117.6344 118.0820 118.8634 121.4648 121.0536 118.3562 116.7138 117.6806 119.0808 118.6793 121.6114 121.0831 120.1564 123.4749 122.6584 120.3302 123.0134 123.4200
107.7100 112.6379 111.0965 108.2534 108.6149 106.7894 107.2232 111.9688 97.9099 105.2426 121.8744 114.8150 116.0859 115.5928 114.9367 114.2465 113.4905 112.6771 111.7744 110.7810 109.6180 108.2429 110.1848 105.0555 103.0132 100.1022 96.1278 91.9352 91.5549 95.6033 99.5961 102.5935 104.8765 106.6030 108.1276 109.3491 110.8973 111.7560 112.5375 113.3528 114.1207 114.8046 115.5017 116.0195 116.5047 117.1940 117.6702 118.1579 118.6170 118.4815 119.8193 119.6255 120.5454 120.9875 121.1451 121.8074 121.7420 121.8832 122.6404 122.6408 122.8304 123.3326 123.3718 123.4200
107.1600 110.8806 109.8047 108.4305 108.8831 107.7898 104.1945 103.0761 101.9219 103.4656 119.1519 116.5995 116.2259 115.6638 115.0271 114.3526 113.6350 112.8522 111.9878 111.0349 109.9806 108.7773 108.1161 106.1103 104.1464 102.1110 100.0693 98.1442 97.9900 99.6748 101.5935 104.3341 102.4730 107.4257 108.5687 109.7913 110.8512 111.8269 112.7215 113.5166 114.2491 114.9337 115.5150 116.3525 117.2667 117.0853 117.7274 118.2255 118.4570 119.8978 121.4151 120.8239 120.0443 120.5399 120.5400 121.4977 121.5557 122.0147 122.1689 122.1373 122.5433 122.7855 123.0932 123.4300
107.9800 115.7881 108.9378 108.9486 108.6257 111.9290 114.7062 101.5260 101.9178 102.4620 121.2792 116.4158 116.3598 115.7930 115.1998 114.5365 113.8414 113.0645 112.2511 111.3758 110.3266 110.2733 99.6978 107.6654 105.4559 104.0414 102.6972 101.7733 101.6761 102.4309 104.0348 102.9137 105.8159 108.2008 109.2060 110.2299 111.2312 112.1352 112.9016 113.6880 114.4224 115.0743 115.8744 122.6568 106.9976 118.4304 117.8215 118.4175 118.3815 118.8609 119.3472 105.1475 121.4915 120.6724 120.9647 121.2877 121.5743 122.0374 125.7516 124.3227 122.7427 123.0489 123.3257 123.4300
107.0400 111.4573 109.5986 109.5366 109.2616 108.5873 105.7668 102.4824 101.9227 113.0071 116.6757 117.3698 116.4467 115.9653 115.3330 114.9076 114.0857 112.9088 112.6176 111.8066 110.9509 110.0229 108.7062 108.2962 106.7195 105.8259 104.9133 104.2928 104.3320 105.1586 105.1921 106.7876 108.0414 108.6141 109.8704 110.7701 111.6543 112.5482 113.2285 115.7672 114.5094 114.8169 114.4666 125.7742 120.5854 115.6983 117.7064 118.3827 118.7982 118.8800 119.6749 119.8913 120.4778 120.7179 121.0018 121.3057 121.4138 121.9121 130.1566 113.7978 111.3770 108.7297 109.1228 123.4400
108.8400 111.2656 108.8001 109.4740 109.2349 109.9138 103.9309 100.2594 104.8929 112.0854 118.2304 117.6807 116.6001 116.1184 115.7246 110.6929 114.2001 110.1140 112.9573 112.2861 111.4931 110.6830 109.7324 108.8479 107.8712 107.3289 106.6587 106.7123 106.1916 106.8861 102.3162 106.4529 108.7758 109.6847 110.5225 111.3702 112.1428 112.8918 113.5101 114.2921 114.9431 113.5352 116.6060 116.5018 102.0340 118.2142 117.6878 118.4863 118.8714 120.1321 119.6188 119.9565 120.2924 120.7642 121.0670 121.4068 122.9449 120.3661 121.5212 123.0471 125.0087 114.7002 112.8576 107.4100
121.3400 123.1832 111.4717 108.4375 107.0297 102.1201 108.8661 101.6556 99.9636 111.6488 118.3415 112.6623 116.7616 115.8791 115.5074 101.2469 116.0629 114.6000 116.0074 113.2349 111.9791 111.3745 110.6635 109.9325 109.3689 108.5859 108.0249 104.6605 108.4845 108.8488 109.3301 108.8621 109.8896 110.5335 111.2473 111.9313 112.6744 113.4887 114.0354 115.0964 115.5986 115.1452 124.1831 117.7548 107.0929 119.4843 117.9621 118.5957 119.0202 119.2899 119.7011 120.1633 121.0623 120.8668 121.1559 121.4635 125.2687 131.1394 117.5587 122.4183 122.2583 127.5192 123.4596 109.0200
121.6100 121.5499 120.0183 108.2921 107.4232 113.5405 105.6506 101.2049 105.7426 102.0178 113.7668 111.5532 117.3892 116.6495 117.6103 117.5288 114.8690 114.1532 109.1092 112.5007 112.2908 112.1681 111.4733 110.8992 110.3337 109.3880 107.7518 96.9358 105.8701 106.8711 109.8116 110.3886 110.7532 111.3716 111.9362 112.7790 113.9364 113.1096 114.7483 112.1509 111.8611 117.6698 119.4576 102.3244 119.3191 117.9657 118.3842 118.7437 119.1517 119.5463 119.8984 120.2547 120.9867 121.2036 121.2410 121.6381 122.6053 116.6555 123.7714 122.3524 123.0847 123.0648 104.6355 109.0200
121.6100 114.0313 113.9069 106.3526 108.5209 104.2274 103.2323 107.3236 105.6886 109.9215 119.6425 119.2741 117.3614 116.8910 116.2138 115.7143 115.4173 115.0266 114.9722 116.5838 113.2948 112.8138 112.0758 111.6277 111.3718 110.6428 108.7841 106.6587 106.7106 101.6597 111.3260 111.1913 111.6608 112.1187 112.7213 111.3548 110.9483 115.2854 114.9346 100.1115 109.4299 99.4734 111.1279 123.6478 118.0582 118.1325 118.5469 118.9213 119.3019 119.6661 120.0190 120.3572 120.5851 120.9217 121.3393 121.6854 122.3873 116.1596 122.4291 122.3666 123.0063 123.2429 120.1227 116.2300
121.6500 107.3830 113.3340 110.2133 104.0592 105.9008 106.1732 119.6354 115.7564 118.9556 106.0055 119.4371 117.5161 117.1607 116.7662 116.3441 115.8565 115.1377 114.5900 113.8187 113.8412 113.3876 112.9333 112.6108 111.7989 111.1258 111.8732 111.6143 111.5111 103.9733 112.0603 112.1872 112.4689 112.9662 113.1898 114.9493 103.3432 112.1505 115.2379 110.5444 115.6896 101.6926 109.9644 106.4946 118.7217 118.2759 118.7191 119.1034 119.4637 119.8165 120.1620 120.4887 120.8436 121.1179 121.4321 121.7085 121.9236 123.3795 123.2616 122.7792 123.1702 123.0217 123.6259 108.2500
110.9500 111.2340 103.1999 109.3930 113.5902 118.2085 115.0323 120.2784 115.5390 117.9714 111.6785 118.8447 117.9181 117.4432 116.9507 116.6038 116.1802 115.7965 115.3762 114.8704 114.4847 113.9825 113.6754 113.3614 112.7345 114.3170 112.4998 112.5759 112.5649 111.8902 112.6986 113.0058 113.2720 113.4225 114.3662 114.7367 111.9030 111.5190 116.9719 117.0026 115.5388 99.9569 118.1087 111.5306 119.1038 118.5490 118.9211 119.2938 119.6391 119.9741 120.3085 120.6290 120.9362 121.2450 121.5391 121.8256 122.1411 122.2523 122.4933 122.9371 122.9870 122.8580 126.1108 128.1600
112.7100 113.9864 100.7932 108.0943 123.9440 118.5467 120.3703 117.2754 112.6372 120.2260 119.6533 117.3334 118.6965 119.6476 117.8417 116.9155 116.5885 116.1800 115.7521 115.3408 115.0329 114.6071 114.7268 113.6956 113.7158 113.3319 111.4315 108.1884 113.2021 113.4958 113.4885 113.7504 113.9638 114.5073 115.0252 103.0210 115.8477 99.1727 116.3392 116.4579 118.5382 112.6762 117.5030 117.9622 118.4532 118.8056 119.1355 119.4857 119.8159 120.1445 120.4692 120.7775 121.0841 121.3772 121.6427 121.9311 122.2239 122.5523 122.7777 121.9951 123.1368 125.7276 126.8390 129.8500
103.6600 100.2284 99.3836 110.7094 121.2903 120.5621 120.1478 119.2214 118.9177 119.2004 119.1208 119.6372 122.8686 99.5082 115.6825 117.4016 116.9575 116.5946 116.2395 115.9581 115.4104 115.9749 112.0130 115.8084 114.3800 115.3147 103.2920 112.1676 114.1024 114.1971 114.2820 114.4380 114.6580 114.8396 114.9887 112.1092 117.2175 115.7250 117.1545 116.6707 117.4691 114.2581 103.5979 120.1504 118.3801 119.0257 119.3636 119.6921 120.0097 120.3264 120.6323 120.9310 121.2260 121.5211 121.7721 122.0470 122.3778 122.3185 123.6654 118.7342 134.5341 103.3688 103.7092 107.1000
122.0700 120.9784 120.8891 121.3789 121.0690 120.9113 120.5259 120.5386 119.8428 119.6401 119.9959 109.6470 94.9739 115.7722 117.9526 117.5311 117.3568 117.0490 116.6794 116.4900 115.9463 111.4410 97.7134 104.1589 101.2387 117.1863 107.9594 115.5032 114.7993 114.8503 114.9448 115.0902 115.2323 115.3873 115.8470 116.0801 116.1781 116.6950 116.8334 117.7769 113.6691 120.2348 106.2354 108.1264 119.0929 119.1964 119.5936 119.9063 120.2123 120.5124 120.8029 121.0955 121.3791 121.6543 122.0223 121.6396 122.3569 123.5604 122.8089 122.9198 124.3571 119.1605 103.6144 108.5500
122.3100 121.9781 122.0939 121.5819 121.3350 121.0331 120.7595 120.4571 120.1740 119.9657 119.0162 119.7491 117.4925 112.4052 113.6888 118.6566 117.7001 117.6047 116.9151 116.8008 116.9669 114.2016 98.6951 103.6630 116.9747 115.7904 103.0685 116.5976 115.4568 115.4772 115.5870 115.6705 116.1768 116.2175 116.2581 116.6053 116.3083 116.6694 117.9317 118.0079 118.0795 113.3712 108.8925 120.1390 119.1287 119.5132 119.8208 120.1268 120.4192 120.7017 120.9865 121.2666 121.5322 121.7689 122.3938 122.8493 121.6679 117.5622 122.7496 123.4797 123.5944 124.5264 122.8860 120.8800
122.3600 122.1908 122.0040 121.8076 121.4903 121.1942 120.9187 120.5930 120.4039 119.9927 119.9544 113.0235 94.0829 115.3772 118.8342 119.0605 118.6684 116.7275 117.5180 117.3491 117.1540 106.7708 92.7869 112.2925 116.2936 117.1868 117.4285 116.0118 116.1003 116.0896 116.1695 116.2465 116.2410 114.1970 116.7827 117.0478 117.6803 119.8823 100.3748 117.8945 118.3449 120.2656 105.4239 108.7365 120.3678 119.7180 120.0760 120.3472 120.6268 120.9014 121.1663 121.4347 121.6964 121.9616 122.2014 121.9607 122.3142 124.5621 122.9625 123.3443 122.6437 134.0726 129.8276 126.1900
122.6000 122.4785 122.1418 121.9103 121.5792 121.3559 117.7056 121.4609 120.6013 122.9211 118.1121 102.0676 96.5120 120.6995 109.2718 118.0555 105.5139 104.9693 117.3675 117.6751 118.1799 116.3582 109.1564 112.4530 116.4506 116.6335 116.4724 116.6404 116.6224 116.6587 116.7274 116.7441 117.2952 116.9103 117.4647 117.5189 117.2727 118.5101 108.8007 117.2984 118.7181 119.1610 122.0400 105.2375 120.0279 119.7657 120.3472 120.5643 120.8309 121.1022 121.3607 121.6150 121.8633 122.1162 122.3323 122.7125 122.9886 123.0733 123.3175 123.3662 122.2043 135.5877 122.8476 110.8600
122.6500 121.7246 122.3503 122.1087 121.6588 122.6176 106.9235 122.4613 119.9575 113.4610 95.3921 99.5930 110.7612 121.5623 110.7000 100.8739 114.0432 112.4891 118.8818 118.2095 117.6571 116.2651 107.5830 118.2206 116.9850 117.3592 117.2382 117.1672 117.1691 117.1957 117.2509 117.3455 117.3934 117.6140 117.6985 117.9315 118.2111 117.2507 116.7539 119.7313 118.8138 119.3335 120.2144 119.6790 120.3296 120.2915 120.5430 120.7976 121.0439 121.3022 121.5477 121.7949 122.0355 122.2755 122.5138 122.7309 122.9582 123.2203 122.9478 125.4030 121.1744 111.8330 110.6049 102.9500
117.0100 117.0100 122.3500 122.1800 121.9800 121.7900 121.3900 121.2200 120.9900 98.7800 98.5700 120.3900 119.9000 119.6700 119.4400 119.2000 119.2500 118.7200 108.2400 118.5300 118.2800 118.2800 118.0000 117.6900 117.7400 117.7900 117.4000 117.4300 117.4300 117.4200 117.7800 117.7800 117.6800 117.9900 117.9900 118.2700 118.5100 118.7300 118.7300 118.9600 119.2300 119.4400 119.6700 119.9000 120.1000 120.3400 120.7700 120.9600 121.1800 121.3900 121.5800 121.9700 122.1500 122.3400 122.5200 122.8700 123.0500 123.2100 123.5400 130.2900 126.4300 108.0400 102.3200 102.9500
