97.3600 97.5300 97.8600 97.3600 100.4900 102.2900 104.0000 106.6800 107.7700 109.6400 110.4200 111.1600 112.4600 113.0500 114.1200 107.7100 113.7800 115.9300 116.3300 109.5800 113.3500 96.1000 98.8200 119.0100 119.2900 119.5700 120.0900 120.3400 120.8200 121.0600 121.5000 121.7100 122.1300 122.3300 122.4100 122.9000 123.0800 123.4400 123.0500 123.9500 124.1100 126.8800 131.0800 119.5300 125.0300 125.1700 125.4500 104.5600 125.8600 125.9900 126.2500 115.1500 107.5900 105.7300 104.8600 109.9600 105.2100 112.7500 121.4000 106.5900 108.4300 143.9000 120.7800 120.0400
96.6700 94.3099 92.4679 94.6610 98.8719 101.7313 104.1257 106.0520 107.6618 109.0256 110.2235 111.2827 112.2231 113.0565 114.2224 111.7510 115.1662 115.8873 117.0552 111.8042 116.6594 95.0719 112.4433 119.5238 121.5721 120.3891 119.9286 119.9742 119.1299 121.0772 121.4804 121.7903 122.6519 122.0640 122.4185 122.8968 123.1496 123.4035 123.5620 123.9422 123.0407 119.7281 126.1522 122.4830 125.1369 125.5791 126.9611 119.9193 122.8875 115.2846 129.1638 121.1124 116.4983 112.4869 109.5924 111.0609 114.3546 117.9703 121.1338 116.7288 105.5136 118.9413 118.4570 137.1900
96.2800 89.3356 87.0865 89.3893 96.2758 100.4635 103.3861 105.5595 107.3180 108.7786 110.0277 111.1241 112.0973 112.9722 113.9853 114.8824 115.1727 115.7865 116.7662 113.5181 105.0464 94.6226 109.3258 106.5066 107.9162 120.7571 119.9181 118.7468 120.5026 121.0721 121.4106 121.7881 122.7172 122.3583 122.6042 122.8148 123.0917 123.3920 123.6026 124.0492 121.5936 125.4007 124.5483 125.1260 124.2462 121.0601 115.5589 125.8381 114.6056 106.9951 122.5016 121.6903 126.7681 110.1554 117.2647 114.3884 120.2045 115.3908 115.4789 116.9517 109.5864 121.9543 122.8421 125.4800
89.5700 87.4375 84.9195 87.4352 95.2815 100.0444 103.1545 105.4158 107.2122 108.6999 109.9761 111.0798 112.0660 112.9510 113.7348 114.4388 115.1645 115.7709 115.8476 114.7288 100.4940 94.5982 98.7113 96.2752 100.6695 121.1001 119.8891 120.4955 120.7611 121.0523 121.5440 121.8520 121.8325 122.2664 122.6016 123.1355 123.2984 123.3938 123.7079 124.0419 122.0187 124.5250 124.5686 125.0521 126.6678 125.2365 107.9023 116.6923 107.5928 113.0835 116.5875 116.0596 111.5830 122.2784 113.7019 108.6488 113.2824 111.8300 113.9060 114.1568 114.1150 121.9528 125.5793 123.1300
96.1000 89.9859 87.6258 90.2431 96.7606 100.6506 103.4906 105.6276 107.3585 108.8079 110.0566 111.1457 112.1165 112.9932 113.7892 114.5254 115.1889 115.8123 116.2686 118.5200 94.1482 100.3094 100.0397 99.3741 100.0167 121.1506 119.9010 120.3423 120.7218 121.1247 120.8975 120.9840 122.1490 122.3921 122.6047 121.8941 122.5201 123.4061 123.6466 122.6819 131.2077 123.8975 124.4237 131.0332 113.2516 114.2916 109.7885 111.0489 122.8995 110.8705 123.8352 104.1976 104.3673 107.4336 105.0773 105.1231 105.1907 106.1757 107.0331 107.5334 113.1696 112.2786 112.5340 112.0400
97.1600 95.7524 93.7488 95.9455 99.3102 102.0355 104.3031 106.1683 107.7374 109.0936 110.2761 111.3242 112.2596 113.1080 113.8799 114.5925 115.2465 115.8712 117.1663 109.6710 105.3718 102.5447 95.9812 93.5896 118.6185 119.9997 120.0178 120.4066 120.7813 121.2608 120.4137 129.9901 121.2395 122.1665 121.5375 128.4215 129.7393 123.3204 123.8341 125.1326 126.0074 124.7003 124.5398 133.2256 116.9441 113.7077 113.3069 115.0678 113.8953 115.3614 117.9452 117.5817 117.4433 118.0014 110.6818 107.7862 113.3404 106.5680 105.6409 105.5092 107.6946 122.9410 122.2893 123.5400
100.6900 100.1136 99.4384 100.2236 101.8074 103.6831 105.3877 106.9282 108.2992 109.5146 110.6104 111.5774 112.4747 113.2820 114.0411 114.7265 115.3740 115.9743 116.3384 117.0001 114.1740 97.9700 101.4201 119.2071 117.8547 114.7150 120.0103 120.5197 120.7988 121.1119 121.5235 122.4143 121.6696 122.3468 122.0829 133.4006 122.2595 123.4425 124.6056 110.7314 111.2664 113.8792 116.5804 119.4976 106.6030 116.4654 103.4759 114.4113 114.4331 104.8395 108.3924 113.6198 110.8351 117.2265 112.3158 112.7952 118.2538 106.7295 105.7174 107.4304 122.8325 123.0738 123.6901 124.0400
103.4500 103.0272 102.7599 103.0865 104.0752 105.2934 106.5809 107.8171 108.9768 110.0450 111.0297 111.9172 112.7039 113.5558 114.2446 114.9000 115.5242 116.1053 116.6795 117.3248 117.6382 116.3676 111.2562 116.4595 117.6093 119.9366 120.0809 120.5150 120.8381 121.1600 121.5385 123.0985 106.9399 121.5924 112.6279 106.4709 123.4157 123.2213 124.3941 131.4034 111.5086 113.5422 105.9465 118.5333 122.3959 119.1127 123.2762 124.3274 123.8283 123.6431 125.0801 125.3450 126.9506 114.3442 109.4120 115.3711 112.0332 105.1935 109.0744 121.3169 121.4004 122.3490 122.4171 122.6400
105.4700 105.3441 104.1989 105.2626 105.9113 106.7973 107.7649 108.7531 109.7244 110.6478 111.5294 112.5800 112.5196 113.6344 114.4590 115.1234 115.7146 116.2807 116.8351 115.8479 115.4970 117.4017 95.4242 118.1541 109.4500 117.4360 119.6196 120.6426 121.0233 121.2205 121.5238 121.7008 123.5108 122.5663 123.8444 112.1414 104.1462 113.6539 123.5666 121.4658 127.1386 121.3599 107.8830 108.2376 104.7261 118.0099 114.7088 115.2269 115.1147 115.7553 115.5960 116.3057 115.9938 103.0533 105.9780 105.4140 104.7874 105.5990 115.1091 130.2632 124.7388 129.5161 127.7254 112.8900
107.2000 107.0632 106.5379 106.9891 107.5141 108.1544 108.8629 109.6824 110.4916 111.2891 112.0105 112.4174 112.6950 115.1482 114.8151 115.3694 115.9338 116.5076 117.0591 111.7904 108.5327 117.5077 104.2579 104.1832 122.0135 121.2419 120.0795 120.6663 119.5859 121.3303 121.6598 122.1989 121.6810 115.6508 108.0246 112.1566 110.9583 122.6202 120.9655 112.6605 107.6716 99.7432 101.6401 102.7170 107.5536 122.1178 117.0783 111.2042 116.2213 116.4858 116.3811 112.5152 105.2539 104.8820 105.0947 115.5031 104.3661 104.9542 115.8855 123.4685 123.8746 124.8584 121.2630 106.2900
108.5900 108.5763 108.5067 108.5965 108.8831 109.3646 109.9427 110.5870 111.2515 111.9519 112.6056 113.9079 112.1809 120.9951 114.8887 115.6611 116.1783 116.6868 116.9797 119.1708 114.4266 119.6865 113.7608 119.0703 119.2738 119.7678 120.3413 120.7360 119.1709 121.1169 121.3431 121.1019 122.9641 126.6447 127.9200 116.2325 125.2601 121.9320 125.1010 104.5570 104.8186 103.5085 102.6469 102.6363 102.2945 102.6351 104.8119 107.5323 111.1150 110.1650 108.5757 112.3736 104.3448 105.2990 106.4716 112.6110 104.5077 106.7678 113.5379 120.2697 125.6611 125.5678 117.5592 111.1000
109.7800 109.8413 109.7640 109.8517 110.0959 110.4610 110.9137 111.4413 112.0088 112.5877 113.1623 112.9452 110.2537 116.8792 115.1703 115.9881 116.4430 116.8700 117.5221 115.3669 121.1837 118.6281 113.7760 114.6245 120.1212 120.2560 120.5140 120.8296 121.4947 121.7292 122.7236 124.7550 127.4855 134.0911 115.8051 116.8463 117.0564 114.8761 120.4318 104.8023 105.1170 102.7227 103.7709 105.4919 106.6645 103.9471 103.5179 102.8076 105.9406 112.0098 110.5477 106.6965 104.6167 103.8863 105.2342 104.5046 105.2702 104.9771 105.3611 106.2727 115.6967 116.3307 102.9026 109.0900
110.8300 110.9569 110.8999 110.9691 111.1550 111.4450 111.8174 112.2525 112.7303 113.2237 113.7754 114.2946 113.6136 113.8139 115.6512 116.2478 116.7256 117.3052 116.7259 117.3211 121.1822 120.5878 107.5739 111.1426 121.0802 120.2599 120.5911 120.9084 121.2056 121.8219 120.8554 113.1509 138.0245 128.7477 115.1136 113.4479 110.2364 115.5338 109.9470 120.0655 99.1437 108.4212 112.1935 110.2551 109.2284 107.6016 106.5504 112.3546 108.7580 107.3938 109.1014 103.3278 104.0111 113.2468 103.8658 104.1192 105.5153 106.9614 121.8093 104.7404 104.6270 102.4076 108.9648 106.4100
111.7600 111.9476 111.9028 111.9530 112.1060 112.3447 112.6503 113.0132 113.4255 113.8537 114.3290 114.7816 116.5855 116.4920 116.1203 116.5868 117.0494 117.2842 116.8672 111.9354 118.7086 112.2165 109.8542 116.6143 120.4139 120.4483 120.7205 121.1089 121.2513 120.3478 124.5071 123.7424 114.5178 116.1136 110.1421 114.8763 110.8420 117.6034 120.1307 100.9244 115.7828 117.0266 119.4000 104.3453 118.1861 116.3801 115.9505 117.5176 112.2832 111.5361 110.6654 109.8958 104.1534 108.9352 108.2585 116.9324 104.6409 104.2162 113.3365 105.9300 108.1486 120.6501 109.5944 110.4600
112.6100 112.8445 112.8035 112.8453 112.9687 113.1623 113.4211 113.7308 114.0807 114.4646 114.8506 115.1349 115.7066 116.0756 116.5133 116.9146 117.4062 117.7081 117.9707 115.1127 118.9911 121.4368 117.8603 120.1636 120.1997 120.5870 120.8856 120.6878 121.0559 127.1501 133.4022 119.2613 122.3167 120.6445 107.6307 113.0619 111.7940 116.5308 106.1858 110.8756 106.2269 106.2911 120.2422 117.8193 119.9977 120.1655 120.5585 118.6261 118.3514 122.7634 115.7835 113.0116 112.4172 102.1284 112.9177 106.8037 104.3718 113.4267 124.9986 109.5746 109.2651 108.1747 108.2769 109.8200
113.3700 113.6509 113.6159 113.6444 113.7570 113.9156 114.1355 114.3999 114.7029 115.0330 115.3852 115.7550 116.1320 116.5170 116.8857 117.2878 117.3453 118.8530 120.2561 119.7305 118.8916 119.3269 119.8318 120.0118 120.4321 120.7563 121.0004 121.4339 121.8064 119.4592 110.6139 106.8834 112.5851 112.8177 109.3045 112.0629 115.3980 115.8250 101.0577 99.4429 115.1097 111.7353 103.8715 107.0769 123.4092 118.3973 119.0821 121.1918 122.0951 124.3402 113.0289 123.2723 128.0113 117.6946 118.8960 117.6528 113.1998 113.9180 125.7520 130.2748 130.0170 113.5218 105.6027 106.4400
114.7300 114.3819 114.3840 114.4344 114.4730 114.6195 114.8060 115.0340 115.2992 115.5864 115.8980 116.2290 116.5702 116.9161 117.2562 117.6356 118.0650 115.6355 99.7551 115.6290 118.7103 119.7470 119.9395 120.2854 120.5541 120.8829 121.1770 121.5162 121.0771 122.1600 109.1462 109.6811 116.5575 114.0163 113.0690 111.7860 113.8152 113.1165 101.5712 101.2280 119.5718 116.2807 116.0820 114.0180 119.8909 118.9660 122.4466 124.6428 119.2446 105.3073 104.8843 105.3044 106.3698 112.1453 105.6962 106.4711 103.6500 132.5927 120.6373 117.8392 131.3509 133.7588 106.4682 106.4500
115.3300 115.0848 114.9623 114.8004 115.1756 115.2626 115.4348 115.6249 115.8559 116.1158 116.3941 116.6933 116.9985 117.3100 117.6464 117.9191 118.1347 119.5363 111.4905 114.3698 111.9702 120.2304 120.1845 120.4271 120.8904 120.9131 121.1561 121.7227 121.4399 121.5952 119.5675 128.4551 105.1459 108.5586 109.6028 115.8250 120.6497 100.5386 101.2772 111.8814 101.0704 117.9244 118.2690 117.8747 118.6534 119.6829 121.1807 121.8009 119.8130 121.3964 103.7329 103.6464 128.3194 106.7381 119.0810 104.2067 105.2397 118.3277 130.5304 132.0723 132.1156 131.6936 117.5444 118.0600
115.9000 115.5771 115.1149 118.0049 115.4588 115.9305 116.0142 116.1991 116.4247 116.5762 116.8556 117.1546 117.4302 117.7138 117.9523 118.4109 116.8409 119.0678 119.0523 120.7779 120.8204 119.9276 120.4419 120.5702 120.7362 119.8231 113.4341 113.8004 105.2732 118.4287 108.6938 113.9941 106.5903 106.6423 106.0784 114.7746 121.5301 106.1240 101.7415 102.0680 101.3874 109.9483 101.0897 101.7392 120.8148 122.5607 107.9210 124.0533 123.0978 116.0137 100.7023 104.5814 104.1863 104.8073 105.2246 105.4154 109.0448 116.6169 124.6470 119.1258 120.8670 121.1316 130.4944 133.5300
116.4300 116.9268 117.4915 118.4411 116.1788 116.4900 116.5713 116.7223 116.8157 117.5450 117.4965 117.4757 117.7417 118.1348 118.4052 118.7085 111.4856 113.7147 120.6943 120.3729 119.8058 120.2922 120.5896 120.7744 121.9456 105.5683 99.0205 101.5693 100.3817 98.7900 99.6425 100.1619 100.0342 101.2781 111.0673 116.7227 109.2673 112.8774 102.6821 105.4511 105.1987 105.2402 106.3956 105.0644 117.3530 123.1886 122.5182 124.4824 104.4730 102.1548 123.4060 103.5591 104.9750 105.4866 105.9342 104.8509 133.7304 129.5454 134.5524 130.8475 127.7154 115.7493 121.0325 120.8100
116.9300 110.9943 116.2796 99.6927 118.8310 116.8496 117.0845 117.2411 117.4895 112.8657 117.0851 118.6674 118.7078 120.9820 119.3885 113.2489 114.4090 102.4960 95.2740 117.2411 120.3678 120.6254 120.7960 121.1544 121.1959 121.2344 102.3407 102.5180 99.7196 103.3665 108.0051 109.1948 103.6490 102.7357 101.2847 103.3463 111.8864 115.9574 102.9160 115.7285 113.7962 117.1205 116.5526 114.0637 105.9390 103.1402 114.7432 120.2167 117.1756 107.1487 104.1430 108.3850 107.6594 105.0136 105.1202 109.2668 117.5275 106.3660 125.4959 129.0930 130.7672 136.9333 136.4923 124.7200
117.4000 113.9733 115.4065 117.3744 117.8275 117.3686 117.5704 117.7043 117.8786 117.3850 114.5633 112.0127 102.5855 115.8612 110.6517 123.4119 121.5579 117.5088 97.4170 117.6699 120.2495 120.8373 121.1403 121.0680 121.1378 122.5397 103.9296 102.8029 103.0112 106.0054 116.1529 95.5723 101.2901 110.2052 108.0135 100.7051 104.0493 112.8785 104.7584 120.4766 111.0050 111.9260 113.7340 118.4696 119.6960 115.8672 108.7562 103.9479 108.7147 103.5827 124.0064 114.5546 117.2350 104.9222 105.4249 108.9199 124.0519 122.7612 128.2297 122.3591 119.8663 129.2141 127.4546 123.5300
117.8500 106.6371 101.2302 94.6969 119.3751 117.5722 118.0245 118.2129 118.7005 118.1120 104.4445 96.3847 104.8688 98.1322 97.7367 119.0995 115.0108 121.3111 106.8704 121.7352 120.4498 121.0381 121.2034 122.2519 121.8149 123.9464 111.5176 100.5231 102.4057 100.9911 102.9602 105.6050 103.4299 109.6413 105.8026 111.0297 104.3448 100.9552 102.5507 108.1999 113.2127 112.6202 113.2442 112.9008 113.8600 119.8764 120.8069 117.3604 111.7067 103.4831 109.0134 103.4904 108.0558 104.3393 105.4625 104.7323 102.1423 99.6244 121.0013 126.6285 137.8222 131.1272 130.8715 120.7100
118.2800 101.9893 96.7708 94.7413 120.8062 118.0233 118.4763 118.6051 114.2838 119.7395 117.6798 107.8810 103.4468 110.9530 114.1621 121.0011 119.8196 120.3438 114.3785 119.9172 120.6931 121.1746 121.3878 124.7708 116.0730 121.7644 114.0122 108.1946 100.1196 102.6245 107.6043 105.0267 104.1923 106.0714 102.0966 101.2443 101.5907 107.8334 102.1155 108.4317 101.7181 106.9811 111.8663 113.7530 113.2454 113.1164 114.0159 120.9652 121.5402 116.9007 113.7896 121.9000 121.4352 113.6516 104.5164 106.6106 103.9445 121.1692 125.7147 125.6957 112.9816 127.7320 122.0648 136.1100
110.8300 97.5152 102.5340 98.2213 121.0165 118.3720 118.9342 119.0010 118.3328 119.3594 119.7710 96.2605 98.5562 102.8856 116.1718 121.6758 121.2216 120.2846 121.4963 121.0353 121.1773 122.6706 121.7429 113.3754 113.8829 111.1843 104.7605 109.3342 107.3231 104.6650 104.2612 106.9809 110.7261 116.3448 115.9455 101.7615 103.2123 103.3617 110.3220 117.9447 112.9359 112.5562 104.3865 108.9850 119.4314 115.4572 114.0108 112.5559 115.3456 122.5371 121.9514 122.9244 125.3433 128.5127 122.5121 112.5329 119.1819 110.0867 128.9214 127.0012 123.9755 131.0477 126.6838 127.5500
116.6200 98.9404 102.5496 104.0205 115.5480 118.5612 119.2543 117.0641 120.4585 119.6925 120.1755 104.2261 101.6381 108.1811 106.8299 113.1535 118.1790 121.9369 121.1634 121.2517 121.5533 121.4598 121.9608 119.5682 117.3824 104.2410 104.6717 103.9660 107.2741 106.5427 105.1430 110.1622 105.5681 101.5802 104.5871 102.2662 103.0618 107.2395 107.8936 107.2085 119.0663 120.2026 116.7334 108.2433 106.5092 109.6089 120.0080 117.4502 115.7980 113.6210 111.1660 122.9204 121.9189 123.4711 125.4625 121.3979 127.2282 117.6710 116.9156 119.3079 122.6154 129.9211 126.5569 137.3900
101.1100 101.1442 98.4685 101.1651 104.1383 117.4676 119.8627 116.9219 110.7452 114.5341 124.0273 116.9816 101.5706 102.7307 98.5250 100.7570 105.6348 118.6430 121.4080 121.5743 121.8707 121.5269 122.1151 122.6324 109.7376 102.3874 105.9467 103.9083 106.2296 104.3910 109.2027 109.3850 110.9111 107.9637 101.3343 102.6644 107.5449 115.7679 104.0535 106.4085 115.8915 103.7033 103.8528 118.8550 118.9014 110.0874 107.2494 112.1870 115.5145 117.7923 111.2311 111.3092 111.6530 124.2518 123.2420 123.6196 124.8460 124.5889 130.8884 121.4684 117.8295 121.2460 126.7097 125.8500
120.1400 100.6600 97.7594 110.4613 104.7274 122.8023 113.4868 109.1554 105.7346 108.2184 106.8091 118.7727 107.0242 101.2736 105.5592 111.8068 121.8849 121.9642 121.4500 121.8380 122.1236 121.4828 123.3844 122.7172 114.4815 113.4678 116.7101 116.5113 111.9343 112.0575 114.6631 111.1373 112.5031 112.6186 106.8015 102.7468 105.3292 118.6424 118.2817 106.7246 110.1940 107.4370 110.9012 112.2020 119.7362 118.4725 120.0419 110.6809 107.1771 114.0131 104.2153 105.3301 108.0792 108.3947 116.3305 124.7337 124.3255 124.6676 125.6349 126.2502 133.8698 135.9502 126.9544 127.5300
120.4700 104.3695 103.3607 119.2015 106.2194 115.7666 100.9700 111.8261 98.8579 98.9655 120.1839 114.0319 121.1093 121.3935 118.0388 114.0123 122.2310 121.7351 121.8793 122.0445 122.3183 123.4288 128.9989 125.7818 115.6929 111.4526 110.6653 106.6691 119.8679 115.2927 115.9932 110.0936 112.1234 112.4834 112.5194 101.7170 104.1875 116.6462 118.0930 118.2184 119.5768 108.9472 119.3481 122.6985 109.6773 115.6163 113.0972 111.2582 105.5767 105.6676 106.0547 112.5985 107.2578 124.9261 117.8337 112.6881 114.0538 125.0803 125.1918 126.1694 125.9974 126.4695 129.8374 133.8200
120.7900 117.6414 102.2962 120.2474 106.2757 118.7502 124.5691 109.5990 101.4271 115.1152 120.6404 121.3433 121.4973 121.1058 121.9505 121.4988 121.7755 122.0068 122.1392 122.3124 119.8120 118.0340 112.7802 109.9230 106.8358 126.1078 103.9380 113.0230 110.0702 118.1154 123.1986 115.8325 112.4847 112.2415 112.7403 104.8138 103.5157 103.5167 115.2175 116.7274 119.4835 119.9552 119.9876 118.0490 118.7279 109.9252 110.9587 103.9081 105.2100 106.4581 115.8292 106.3945 106.7101 121.3935 121.2396 124.7408 119.9918 114.4194 110.8501 123.6379 127.0128 127.2593 127.3186 127.7400
121.1000 121.2614 110.8756 118.8054 106.8293 121.7653 119.1395 106.1159 99.2708 106.6643 108.0095 123.4221 119.0908 123.5568 123.5632 122.8098 121.8821 122.2466 122.4187 122.4292 124.4603 110.6528 111.9291 115.3661 103.3950 116.8156 104.5014 107.7844 117.1963 121.1216 118.3955 115.6112 116.3170 112.7516 102.7666 113.0393 111.1022 109.7883 105.0225 117.7921 116.2489 120.1614 120.9630 116.0870 113.9962 107.7810 103.2005 104.9078 105.2194 104.0481 104.2258 105.5358 106.3441 104.5654 107.3721 120.5847 121.9606 126.4295 112.3045 119.8651 122.1803 127.5357 126.9234 127.9000
121.3900 121.5529 121.3222 121.0397 122.0876 105.9087 111.8328 97.9672 100.1551 125.7529 107.5155 123.5887 107.7122 116.1936 106.1039 122.6850 122.3549 122.4889 122.6526 122.4382 122.5798 122.4394 112.2884 113.9539 105.5200 114.4450 119.0874 119.0538 110.1024 109.9770 109.3570 112.0672 112.7328 115.0338 107.3088 101.3953 114.9556 116.9784 109.9107 123.7366 114.0901 119.0179 120.3411 117.3355 111.1729 105.5459 111.1318 105.6439 105.0256 105.4647 105.8121 105.7665 105.8675 106.1289 106.8213 106.6285 107.3568 118.3498 124.8929 128.2404 118.5311 121.8668 115.5628 121.1100
121.6800 121.6025 121.2984 123.2697 109.1035 123.6921 100.2613 100.8214 100.7214 116.0860 107.5665 115.7999 124.3941 90.7656 124.3674 124.1791 122.5355 122.7574 122.8662 123.3763 121.3642 123.2097 120.1020 101.4259 108.8076 113.9215 106.8319 116.6905 105.8894 109.6823 112.5279 105.7100 105.5591 103.9255 104.4336 107.2247 113.6679 111.6886 115.0042 117.0128 122.5174 121.6879 117.6999 103.4187 101.1330 105.4984 114.2959 105.3817 106.8977 105.5779 105.5385 105.5625 105.7702 105.8543 105.8829 106.8212 108.4781 115.2674 111.1914 119.3795 128.3981 113.5623 120.4580 121.1100
121.9600 121.9400 121.6891 122.9693 107.8674 111.8706 99.5015 102.3730 103.8546 104.7212 104.9668 101.4329 117.1651 121.2511 123.8427 122.6092 122.7279 123.4271 123.0441 122.8302 128.6735 122.4338 124.4435 113.6067 106.8860 118.4096 119.4898 116.6666 115.5257 121.8557 112.8332 108.3504 102.5786 102.2845 107.1365 120.0913 112.6172 104.8916 115.8365 116.5193 116.1096 110.8048 106.8987 105.7636 119.4163 116.6830 102.6035 105.3163 106.5866 105.7768 105.7598 106.0216 106.6557 105.9355 106.1959 106.2756 106.6755 114.7465 107.8719 109.8512 116.8444 106.8778 126.3364 127.1100
122.2300 122.1640 118.6793 118.6574 115.4741 109.0292 105.3636 100.4472 105.0023 104.3614 106.8912 116.0883 123.2873 122.2206 122.8658 123.0622 123.7209 119.0664 123.6208 123.4976 128.4300 110.6460 110.4287 123.3705 113.1536 112.6660 114.1328 115.5502 121.3262 122.3244 107.2945 113.5236 111.3943 116.0193 106.0163 105.4080 120.2069 116.1119 117.6445 117.3333 118.3830 119.3695 103.0948 101.3801 105.6113 111.9857 104.7656 105.4527 105.2163 105.5382 105.7515 105.8241 106.4091 106.8714 107.2956 106.3580 106.0453 105.1250 107.1055 108.6709 121.8671 107.2934 114.2589 110.8300
122.4900 122.0728 113.9585 97.5265 113.0176 101.0034 107.1741 100.3348 105.9461 115.8385 123.6573 124.2879 122.7333 122.9425 123.2057 123.2244 123.4610 120.3112 124.0576 123.7506 124.1686 124.0259 121.0658 126.0458 129.4578 120.6481 118.0122 115.0033 118.4498 109.3650 115.6560 105.1701 116.3337 106.1436 101.1865 113.9503 117.5188 118.5951 119.0271 117.5873 118.0658 116.9211 116.1411 118.4002 113.6033 104.2503 106.4015 105.3107 105.5983 105.7045 105.8263 105.9941 106.0200 106.3329 107.7019 108.4230 109.2869 117.9527 107.6245 107.2869 110.4566 128.2256 109.4917 112.5000
122.7400 114.4756 97.7271 110.3770 110.4256 100.1816 110.3924 107.0299 107.2293 120.2164 122.7501 122.6976 123.2974 123.3322 123.3531 123.4946 123.5484 123.9334 123.8182 123.8592 123.7538 123.9813 126.1081 109.6199 122.2890 114.1569 103.7580 107.1003 115.2745 114.7463 103.9663 110.6806 113.2214 114.6635 113.8254 117.2423 116.8975 118.0234 118.5814 120.0634 118.0169 119.5621 106.2152 118.7317 106.6603 108.4157 106.0219 105.5624 105.6195 105.7857 106.0043 106.0505 106.5522 107.1340 107.1065 108.1948 108.9553 110.7969 113.8846 109.1987 127.0879 108.7334 123.5095 129.2800
105.3700 115.4650 101.0732 107.0542 108.5327 103.8588 102.9076 109.8809 102.1337 119.5124 123.4990 123.5765 123.4308 123.5156 123.6783 123.6952 123.7860 123.9421 123.9665 124.1006 128.1046 124.7791 124.7565 122.4487 125.8306 122.3740 120.7320 102.6114 119.0208 117.8855 122.7148 117.1187 113.4243 115.4974 116.4650 117.0650 117.9551 118.7775 118.4019 121.9751 122.5518 120.7411 113.6157 111.0568 106.2782 105.7307 105.4244 105.9167 105.9360 105.8595 106.1037 106.4762 106.8693 107.0164 109.0361 108.1615 108.7219 109.2910 110.8856 110.7743 115.6846 114.5818 112.5031 129.2500
103.3000 108.9652 103.0703 100.5017 99.9549 102.2618 107.2349 107.6713 108.6497 115.1038 124.1264 123.4785 123.7223 123.7757 123.7903 124.0871 124.4198 124.0120 124.2326 124.2427 115.0411 121.5314 125.1368 119.1575 117.8369 121.8745 104.4210 111.4985 120.2797 114.2117 122.0142 121.7262 115.4527 111.4121 116.3134 119.0202 105.2861 118.6611 117.6993 120.0667 121.3263 124.4620 112.9290 105.0797 105.1828 107.1424 105.5289 105.7685 106.6437 106.7941 106.1825 106.2327 106.9325 107.6638 108.8062 110.5693 109.3730 109.5606 110.1097 111.3310 111.3994 112.9594 125.0644 130.3800
104.4000 99.5669 100.8907 101.7923 101.7231 103.3313 102.8170 107.3452 107.4429 107.4166 122.6305 123.6437 123.9620 123.9977 124.1274 123.5525 127.3336 124.3410 124.4104 124.5435 121.5339 124.4744 125.5109 125.2656 125.3749 125.7420 124.6569 105.0927 125.7143 119.9282 117.8346 124.1748 101.5367 103.7104 106.0361 120.0262 118.4167 118.7785 122.3286 109.8822 121.1144 123.0917 114.9141 104.6536 104.9016 116.6421 104.5868 105.9291 106.4592 106.5055 106.9400 107.0847 107.1288 107.8403 108.3967 109.4450 111.4765 110.4922 110.6427 110.5933 111.7023 111.0085 110.7391 116.1400
105.5100 111.6216 109.0980 101.8999 101.6723 104.3181 109.9083 108.4590 107.9552 106.7928 123.3584 124.0417 124.1530 124.2418 124.2187 124.3779 124.4170 124.6228 124.6206 124.6400 126.1153 123.4271 125.6477 124.8635 125.4019 116.0125 112.5956 126.3703 126.5980 124.6969 121.9820 124.2224 110.7578 110.1626 103.2170 114.6831 119.1389 117.2506 107.1402 116.7647 121.7834 117.9914 121.8704 107.7875 106.0903 105.6266 107.4739 105.9064 105.9874 106.8107 109.8573 108.0348 108.2496 108.3882 108.2511 115.6579 110.0016 112.5416 111.2612 116.7236 111.5651 113.6490 107.5383 113.8200
124.1200 119.8756 114.4239 105.6560 102.5666 106.1585 105.5273 105.4063 111.3982 120.7606 124.8983 124.2071 124.3917 124.4428 124.5068 124.5679 124.6643 124.7175 124.8797 124.6295 120.4865 113.0895 126.1079 125.5317 126.0244 117.9775 124.1546 122.2908 121.9998 125.6941 116.0551 120.0710 123.0822 115.2361 99.7458 100.0332 113.2056 120.5726 121.6046 122.6682 111.9419 106.5621 117.9825 114.4735 105.0037 106.9901 110.1349 106.0553 106.1408 106.4637 111.1738 105.5622 108.2806 109.5678 109.1585 120.9460 109.4636 107.7424 109.4684 127.0660 112.2972 113.5869 109.6609 113.4700
110.7300 113.2559 105.5749 107.1708 102.9843 105.7877 107.2430 109.0793 110.8085 117.3214 124.1332 124.5918 124.5958 124.6602 124.7027 124.7827 124.8447 124.9455 125.0685 126.1620 120.0225 116.5656 116.3182 125.8755 127.2531 108.9806 126.6851 115.8475 125.3368 108.7538 115.4170 119.7534 125.6677 125.5423 108.1069 111.4472 113.1739 120.9819 121.3689 124.3369 108.5916 120.5399 102.9357 113.7309 105.8347 104.7921 104.0792 106.0006 106.8248 106.5117 105.7685 106.7249 107.1284 109.4720 109.3551 107.9533 110.0154 129.4222 116.9343 112.1342 114.1295 112.2766 110.7174 113.4500
111.1600 112.9985 110.5646 107.0843 103.1780 106.7881 111.9880 110.6922 110.0465 117.7437 124.8653 124.8602 124.8047 124.8644 124.9807 125.0269 125.1184 125.0761 125.2117 125.9027 118.6984 114.4525 115.2928 117.8912 127.4485 129.3802 126.0031 114.2538 126.2048 127.9765 124.8468 107.2641 128.1361 110.4126 104.7373 107.6171 106.2584 110.9781 109.5854 110.9371 107.6833 107.0968 109.9829 104.1485 104.1601 103.7296 118.5650 112.4405 104.0319 106.7925 106.5555 106.8414 105.1263 120.2513 111.7996 111.3823 111.3639 110.1003 116.1230 111.8083 112.2581 109.9799 111.2683 107.9200
114.2400 106.1100 106.3941 107.0101 106.2997 115.1684 115.0041 111.1637 109.7996 116.7477 125.1431 125.0296 125.0060 125.0900 124.8611 124.9541 124.9700 125.5860 126.2395 125.9539 125.3105 113.4159 110.6781 112.4244 120.4726 121.8897 117.4084 113.3042 121.6985 127.5070 118.4137 112.4750 129.1364 103.0383 108.5897 105.0011 105.5297 106.3972 106.8679 103.2418 104.8017 105.4055 105.9178 105.4828 109.0819 120.5395 126.3003 128.8645 106.2202 106.5509 106.6862 107.3659 107.4100 119.0826 107.3457 112.2446 113.1243 112.0910 111.5575 112.3713 109.3600 106.4847 114.4233 107.9200
102.9400 106.5437 111.8123 107.5246 107.0087 117.9483 112.3038 115.3254 110.2228 123.0524 125.2221 125.2249 125.2298 125.3265 124.8243 126.0811 125.7849 124.2259 120.8160 116.7345 125.4857 115.3652 112.9529 115.0547 108.1395 113.9510 111.9205 100.4554 110.5322 122.1469 116.2788 105.7519 103.8698 109.8319 112.4885 106.2757 105.2311 106.4764 105.6478 105.6897 105.6962 105.9645 106.0901 104.9348 123.5226 110.2700 122.7391 118.9729 108.9227 114.2325 106.6887 107.7242 111.2136 121.2520 116.1533 107.5756 110.2089 113.6656 113.7968 112.7663 113.4940 108.0846 108.6686 108.0500
103.1300 102.2346 105.5251 108.8813 107.2722 118.2729 108.6790 117.8623 118.4307 122.9840 125.2613 125.4379 125.3534 125.4349 126.9251 102.6794 120.7466 120.0459 117.8812 107.1397 127.9163 126.1709 114.7376 120.0661 116.1132 112.1769 126.9581 119.2409 99.6910 103.0931 115.8349 104.0119 111.7519 102.2730 104.9178 105.6787 105.3326 104.9508 109.1078 105.6196 105.3157 105.5248 106.1200 105.9466 108.7229 105.1942 106.9369 106.4151 106.8249 107.0925 104.5650 106.4920 107.7837 121.8961 118.4296 124.4480 118.5752 120.8521 112.9140 114.4764 114.8305 113.1844 113.7539 108.0600
103.3200 103.6380 109.9964 109.6442 107.8515 120.7171 108.7528 121.1217 118.8882 119.6249 125.7561 125.4323 125.7522 125.8713 123.3433 112.6884 129.6042 123.5354 115.0318 113.2050 128.4204 113.3658 109.6327 113.9373 115.2554 121.4237 126.0716 126.0919 128.6802 105.0387 121.3746 105.1085 107.5997 103.9778 105.5299 105.5041 104.8057 115.8532 111.3986 108.9752 111.0229 106.4515 106.0295 105.9164 106.2489 107.3322 103.8463 122.5066 107.7858 106.9181 105.9559 114.8281 107.5554 108.7024 110.2929 114.3751 122.9537 122.7497 129.5423 114.1010 113.0167 115.2333 115.4740 115.3300
103.5000 102.4830 109.4499 110.1360 108.5783 123.7190 110.3356 121.8505 119.5999 125.9379 125.3245 125.6931 125.7945 125.9056 132.8839 125.3647 127.1728 104.9732 109.4716 106.5605 120.7720 124.9785 114.7396 117.9478 123.9119 124.5536 127.5995 127.0809 123.4346 101.1256 106.8307 109.3273 115.3526 103.9964 105.4729 105.6811 104.0498 111.6357 125.3663 116.2022 110.3554 111.6585 111.0722 116.2126 106.9615 106.8237 109.6726 128.3929 116.5050 105.9810 107.3797 107.2767 106.9300 110.5635 107.6338 123.9424 125.3334 126.8149 115.0905 128.3973 115.2508 115.9964 115.8781 115.9000
103.8600 107.8717 110.5599 110.6485 108.9809 123.2461 108.7516 123.2901 119.6801 126.8268 126.1489 125.9510 125.9477 127.5784 125.5913 108.1684 121.2622 121.4710 122.0567 111.2501 116.2123 123.7915 120.8070 113.7231 115.3380 113.0985 128.9156 117.8774 127.3741 115.8553 116.0353 111.4307 114.7132 105.3405 106.0270 105.6453 105.6881 131.3928 104.0458 123.3605 111.1726 122.5184 104.4142 109.8362 104.1606 119.6612 127.5407 125.0853 127.6651 111.4059 119.6204 120.7336 108.1202 127.8964 109.8789 120.0572 129.6602 128.6961 126.4202 123.1947 129.4990 119.1416 117.7555 116.8200
104.0300 105.8111 110.4636 111.1022 110.4221 124.2380 126.4325 119.2536 121.1255 124.4875 120.8398 126.6252 126.1691 124.8026 109.8083 116.1203 120.0490 115.7979 104.7908 115.1695 115.8208 128.6149 126.6625 115.1231 115.4136 116.4326 120.3254 121.5198 125.5258 136.3701 109.2149 108.8021 105.7378 103.3915 126.7263 109.1387 106.0850 106.4155 100.9730 122.9551 124.7983 113.5136 107.9066 105.9194 105.3334 118.1708 130.9778 114.9275 125.1678 112.6863 128.4952 128.4493 130.1413 130.3339 133.0003 130.9263 123.1189 127.8805 128.5236 129.7466 127.8488 128.9636 123.2696 116.8500
123.7200 110.1616 112.1796 111.9505 111.9806 112.1486 112.3987 114.0510 120.6860 124.2627 121.3673 126.8856 126.2682 126.2225 123.8036 113.7883 121.9290 125.1866 108.9072 119.7299 123.0171 116.7135 111.8139 109.0930 116.4019 108.8548 117.0647 106.4228 105.2906 123.6620 121.9038 104.7199 104.7822 117.0298 115.6925 102.3757 105.1535 122.8111 107.9164 112.1175 123.9695 111.9830 107.2634 106.0802 107.2213 105.2747 122.2062 128.6239 130.3946 127.4705 128.8159 129.4520 129.3192 129.7849 132.6932 128.1260 112.0030 129.7540 128.6754 129.2515 128.8635 128.0905 124.8563 132.3000
124.8300 119.3221 112.4889 112.8719 112.6585 110.8323 129.9036 125.3608 122.0977 124.7356 126.7550 126.5019 126.4931 126.3805 127.7511 123.1330 109.2703 114.0433 113.4508 108.6995 121.4606 122.9230 114.5021 111.4993 117.4954 114.1080 109.0296 118.5436 113.4526 109.3297 117.4290 107.8517 106.6562 105.7193 113.8249 110.6569 115.4552 104.5717 105.2737 104.1894 106.0609 118.8247 111.6329 104.3617 121.7030 115.9916 112.4246 115.9587 128.7116 129.1809 127.2361 129.7155 129.8531 130.0926 130.1162 112.9883 109.2092 118.5787 131.9287 128.8499 129.6465 129.3410 126.2488 127.2200
126.4600 114.8762 113.8253 113.5372 113.1685 111.9409 128.1255 125.9653 124.8949 125.9870 126.5726 126.6113 126.6914 126.5670 127.8088 116.9383 121.1207 126.9441 115.0397 107.6643 111.2518 107.8999 104.6896 103.4473 114.1225 118.9543 117.0759 113.1009 106.8549 101.9436 123.0994 116.5204 104.9441 106.3759 122.0472 104.7263 109.9887 110.1394 113.4653 105.6953 107.0124 108.8699 111.0584 106.7714 123.1000 113.2751 120.6181 123.6364 129.0758 129.2283 127.2101 129.3490 129.8770 130.4266 130.6968 132.8224 118.9425 119.3482 122.6067 132.0884 130.4494 130.6301 128.3919 108.5700
126.8900 115.0990 114.0171 114.0255 113.5620 113.3610 123.6574 126.6770 126.9674 126.8662 126.7924 126.8653 126.8494 126.7741 128.5769 110.6613 118.8225 127.1368 118.5983 109.7142 110.3739 118.7979 104.5331 105.2517 106.4400 111.7694 117.7433 107.2045 105.6319 105.9080 112.5024 116.9430 108.9412 109.5905 108.4255 114.0444 106.8406 106.8353 112.2576 106.5157 106.5528 111.4767 111.6842 110.9518 109.0904 119.1766 124.5770 128.0616 129.0311 129.5648 129.7940 129.0425 130.3213 130.6612 130.7674 130.8650 132.6658 132.3478 117.4814 131.8617 132.2260 116.4089 123.9377 130.0100
128.1900 114.6442 115.1270 113.3969 115.5493 116.8260 123.4318 127.1346 126.9158 126.9525 127.0288 127.0219 127.0337 126.8138 127.5399 115.6125 115.8195 127.2693 114.9670 107.9064 107.6340 116.8342 117.8122 106.7947 112.5246 109.8888 105.5715 106.3564 105.9751 105.2756 104.3954 119.8292 123.1852 104.9304 109.0387 106.2522 105.7655 106.3364 105.3871 111.9746 107.0288 106.8775 108.0173 108.6522 129.2737 124.0363 126.5295 117.5919 123.1859 129.4044 130.2500 130.4126 130.7823 130.5476 130.4718 131.5973 131.1933 131.4913 138.6740 141.2705 132.8866 111.4084 105.7616 108.7800
106.7700 114.9340 116.0697 108.9984 117.7300 125.5926 123.9558 127.3226 127.1080 127.0766 126.9318 127.0796 127.2074 128.0873 127.8045 124.8628 117.3256 126.0070 114.8171 116.1278 114.4843 118.4044 117.0859 120.6832 111.6256 125.9673 105.1678 105.9568 105.8241 111.5417 107.8524 108.5263 118.0809 109.7974 109.7506 108.5448 107.6657 105.5648 118.6789 113.2677 113.2454 106.0935 107.9773 110.3778 114.2128 127.5567 114.6008 128.0042 124.5099 125.7599 127.3318 130.5364 132.2147 112.2955 126.6472 130.8591 130.9709 130.7104 142.7698 144.8466 146.2359 135.8698 127.0876 108.8100
107.5200 115.8087 114.0453 114.6733 116.4233 126.4539 123.9112 127.5199 127.2683 127.2050 128.3377 127.8486 127.5466 127.3987 119.7072 116.7379 117.8141 116.1135 118.7788 119.5669 117.1127 118.2538 117.2552 109.9132 106.3492 109.1147 112.7269 106.1920 106.3996 105.9501 106.2762 103.6721 117.8468 122.7896 106.4013 104.0175 109.5932 106.4141 112.3494 114.3629 106.8994 107.4499 111.4461 112.0453 109.3174 122.9736 130.2805 118.6702 125.2378 113.9537 125.4594 129.9188 130.1505 131.0864 129.7950 130.8014 132.3044 131.7886 129.4069 112.1911 105.6830 133.5188 114.6102 133.5100
108.5200 112.1300 118.6019 107.9813 117.2017 127.7332 126.4834 127.5072 127.4336 127.3296 126.4914 119.1564 125.6980 134.3328 127.7151 128.4630 122.4680 112.9702 110.0184 114.6759 113.6789 116.0478 113.6697 120.1590 105.1738 109.3056 106.7617 105.7658 105.1283 106.5696 124.9879 106.2097 122.9022 114.6527 113.1972 113.5970 124.6399 110.0902 106.9819 110.1343 109.1929 108.1531 106.9201 108.3761 111.5144 120.1255 130.4979 119.3126 127.7380 120.4354 124.9059 127.0510 129.5406 130.7236 137.3440 130.8661 132.1734 131.7529 134.8941 132.9753 106.8503 109.1867 105.8448 108.9300
127.6000 118.0307 127.3492 118.6177 130.1150 127.8611 127.6237 127.5764 127.5890 127.4291 128.3819 127.9954 110.1349 132.4917 128.0773 127.8283 120.3452 120.0783 113.2280 103.6859 108.4108 107.2398 105.1256 104.4172 109.3910 104.9526 106.0316 105.4171 114.7944 100.8893 125.0588 110.1348 125.2049 117.8708 121.9706 105.6375 110.9908 112.7693 107.3481 107.2914 111.8823 113.5232 107.3465 107.3552 114.2303 113.0126 131.9359 138.9477 128.1212 121.2401 126.8193 122.2931 128.3899 130.0196 131.6142 130.9342 132.9818 132.5573 133.6048 135.1496 131.1430 136.7463 108.5582 109.0300
127.7400 129.0392 127.8787 127.0580 127.9639 127.4891 127.7931 127.7785 127.7281 127.7454 127.6909 129.1117 118.2824 122.8239 123.4996 127.6659 118.3789 122.7342 111.4097 112.1404 123.1205 106.9094 106.5827 105.3077 128.3431 107.5452 107.0523 105.3077 119.7466 129.5066 126.8717 129.0957 114.4926 107.2284 121.1235 122.6123 106.0134 108.0857 108.7663 107.4887 113.6880 112.3159 107.3878 107.6211 110.8767 110.5966 122.2262 128.5557 128.2530 131.3898 133.3659 121.6674 129.7616 129.9246 132.8425 118.3467 127.1210 133.8714 134.2202 134.1530 136.2821 116.2346 109.1476 109.8500
127.8900 127.6454 127.8250 127.8795 127.8887 128.0045 127.8837 127.8353 127.9950 127.8922 127.9479 127.9267 129.0593 129.8365 126.1415 130.1470 107.2534 114.9960 115.6735 123.3212 115.1662 115.4466 105.1507 106.3453 118.3833 114.8676 105.0310 107.0561 126.2971 127.6245 121.8074 122.8674 116.7596 108.9907 115.9976 120.1537 108.1432 123.9405 112.2931 109.1449 106.9106 112.1416 110.6070 106.9524 107.7706 113.0066 115.5027 122.4925 102.3909 125.7732 130.0625 130.0406 126.7253 127.7697 130.6339 133.2228 134.1922 133.8012 134.0612 134.9116 132.3279 130.6684 109.0620 109.1500
128.0200 128.0169 128.0023 127.9866 127.9242 128.3869 129.3645 135.5236 127.8846 128.0362 128.0815 128.0766 127.5766 121.7624 111.1176 116.4494 116.0116 105.8046 103.8452 125.6286 117.5043 123.8501 104.4694 106.6762 106.5951 124.1470 107.5681 106.3964 105.9302 133.3813 127.8292 130.8566 125.3131 108.2334 105.8015 121.9450 128.6924 111.4423 105.4559 113.4639 107.7541 108.9505 112.1186 108.1842 114.3435 116.1897 117.1931 126.6561 135.2903 140.4062 133.7555 132.2671 131.5254 126.9565 125.9073 131.3026 133.7991 134.3556 136.3993 127.9590 113.1334 106.4173 111.3647 109.2500
128.0200 128.0200 128.0300 128.0200 128.0200 128.1500 128.1500 128.1400 128.1300 128.1200 128.2300 128.2300 128.2000 128.3100 116.2900 106.2800 106.3800 106.3600 106.4600 123.8900 111.1500 124.5000 106.5900 106.5900 106.6700 128.8800 106.8300 106.8200 106.9100 113.9500 113.9500 129.3400 111.9900 107.9100 111.2400 111.2100 121.4400 126.4900 110.1000 113.9500 114.4000 107.7700 114.8400 107.8400 107.9200 115.8100 116.6300 137.1900 139.9200 138.4300 138.7600 130.9000 139.1900 129.7800 116.3400 108.6700 134.3600 134.4500 134.4900 109.0100 109.0800 109.1400 109.2100 109.2700
