122.2600 122.0800 122.1200 121.7300 121.7600 121.6000 121.4300 121.4300 121.2400 121.0500 121.0500 120.8300 120.6000 120.6500 120.6800 127.8100 120.4600 120.4700 120.4900 120.4900 120.4800 120.4600 120.4400 120.3900 120.6500 120.6500 120.8400 120.8400 121.0600 121.0000 121.1900 121.3700 121.6100 106.6800 106.6800 121.9200 122.1300 122.2700 122.4700 122.6000 122.7900 122.9300 123.2800 123.2800 123.5700 123.7300 123.9000 124.0200 124.1700 124.4600 124.6200 124.7400 124.8700 125.0100 125.2800 125.4200 125.5400 125.7900 118.3200 110.1800 104.2800 126.4000 126.5200 126.6300
122.2600 122.0475 121.8731 121.7060 121.5471 121.3845 121.2262 121.0822 120.9400 120.8110 120.6793 120.5730 120.4579 120.4957 119.4938 121.2389 120.2681 120.1784 119.9356 119.9789 120.2082 120.0598 119.9548 120.6114 119.7161 121.1416 120.5136 120.0929 105.8426 119.9678 120.0281 116.1994 105.5459 112.4090 106.0968 116.2838 107.1594 121.0148 122.1387 120.7045 118.9935 122.8375 122.5240 122.8752 123.4169 123.6834 123.1870 122.5934 124.3408 124.3146 124.6082 120.5678 124.0706 125.1612 125.2166 125.1401 124.6156 125.7512 111.8715 104.7588 105.6251 122.3402 127.9321 126.5900
121.9600 121.8066 121.6245 121.4495 121.2721 121.1020 120.9327 120.7778 120.6282 120.4851 120.3494 120.2333 120.1288 119.9567 120.3150 118.0661 119.7876 119.8335 117.9180 115.5724 120.0669 120.0629 120.4820 120.4957 110.7306 120.4107 120.5061 119.1237 110.5722 122.0440 123.4388 112.2484 99.6815 108.3364 111.7114 108.8448 111.1821 123.7138 121.8920 122.6239 119.1790 122.5664 123.1154 125.4117 124.6111 123.3460 123.0957 122.3953 124.0139 124.2198 124.2754 121.2499 123.4668 124.8728 124.8672 126.1530 128.1546 112.7971 116.7866 109.8605 114.5604 117.6839 117.8784 126.5900
121.6300 121.5630 121.3959 121.1919 120.9978 120.8170 120.6378 120.4746 120.3097 120.1567 120.0088 119.8827 119.7610 119.6643 119.5192 119.8298 119.4565 119.3938 119.5349 119.9573 120.3536 108.2834 117.8652 123.2818 122.1433 119.5037 120.1217 112.9665 122.2729 114.2173 115.9959 100.7888 104.8605 113.7976 116.1176 114.6996 106.1980 122.1113 121.7791 122.3635 118.0064 122.9485 121.3156 108.5107 122.8962 123.1933 123.7911 123.7499 123.7624 123.9753 124.1179 125.2880 125.0910 124.6114 125.6423 117.1452 116.0994 110.9373 118.3943 115.7478 114.2588 114.1218 110.3585 126.4100
121.3500 121.3322 121.0531 120.8387 120.7217 120.5212 120.3286 120.1524 119.9796 119.8231 119.6639 119.5115 119.3866 119.2765 119.1874 119.0476 119.0324 118.9884 118.9209 118.8198 120.0898 110.9312 108.4505 117.3542 120.1018 119.2193 119.4147 117.0030 120.5437 119.2548 121.9497 109.0663 107.9284 121.3279 118.1819 108.9752 108.5479 120.7787 121.6260 121.7137 120.9824 122.2495 122.3572 122.9423 123.0858 123.1374 123.2514 123.4866 123.7540 123.9999 124.1271 124.1002 124.5359 124.8311 127.2281 107.7612 106.7641 118.0546 111.9687 118.1926 114.8897 116.1678 124.5189 126.3800
121.2600 121.0511 121.1852 121.9827 120.4012 120.2263 120.0213 119.8276 119.6428 119.3150 119.2700 119.1361 118.9983 118.8715 118.7667 118.6789 118.6011 118.5541 118.5351 118.5590 118.7162 119.2198 118.8597 119.0080 118.9248 118.9090 119.0655 119.4170 119.2999 119.5823 117.7957 105.1207 115.7105 120.8402 122.1046 120.3018 122.2304 121.2403 121.8672 121.5362 121.9432 122.0935 122.3198 122.5255 122.5421 122.9626 123.1490 123.2825 123.9225 118.8715 124.5345 124.4581 125.3313 113.0428 111.3826 108.3337 110.6000 112.3299 117.0927 125.3817 122.8681 125.3596 126.3013 126.2300
120.9600 120.8817 120.4833 119.7692 120.0738 119.9350 119.7017 119.4898 119.2905 119.0795 118.9357 118.7437 118.5907 118.4553 118.3383 118.2325 118.1570 118.1110 118.0769 118.0674 118.2119 114.8946 117.9520 118.7308 117.5844 118.7162 118.7202 118.7352 118.9171 119.1654 120.3550 98.4787 111.7876 108.2019 100.2644 114.3038 121.5738 120.8888 121.1350 116.9939 122.0372 121.7539 122.1271 122.3428 122.6831 122.7955 123.0015 123.2050 123.4459 123.4169 123.6181 121.0348 111.6234 107.6214 111.0226 110.6349 114.0737 116.5350 108.9720 125.2250 125.5056 126.0175 126.1298 128.1700
120.6000 120.3576 122.0778 121.1138 119.7769 119.6066 119.3790 119.1483 118.9376 118.7250 118.5256 118.3387 118.1676 118.0159 117.8873 117.7772 117.6881 117.6307 117.6060 117.6078 117.4570 123.0055 108.3430 118.5576 114.8819 116.9860 118.1417 118.5030 120.8343 112.9853 119.1113 119.3140 119.3770 99.3071 109.4704 121.6211 120.4347 120.7104 121.1758 120.9685 121.5538 120.2595 122.1156 121.6821 126.5129 122.5914 122.9303 123.0665 123.2498 123.0821 125.1996 104.8341 109.4485 109.1402 111.2628 116.9700 110.7900 113.4992 125.8620 125.8369 125.6745 125.8569 125.9461 126.1700
120.5700 120.3419 120.3208 119.5684 119.6187 119.2886 119.0370 118.7985 118.5565 118.3404 118.1213 117.9178 117.7296 117.5616 117.4132 117.2934 117.1989 117.1307 117.0965 117.0836 116.5952 117.4432 117.4208 117.4378 117.8738 117.6739 117.7411 119.0004 108.4666 97.2567 110.8152 114.9767 118.5468 118.2767 109.8400 120.6363 119.9476 120.4592 120.7633 121.4527 122.5851 119.5176 121.9211 121.9533 122.1025 122.1892 122.6952 122.9217 123.3049 124.3242 123.2227 106.7152 110.0704 111.9169 105.8529 105.8178 114.2205 118.1078 125.0051 125.3354 125.5795 125.6858 124.2715 121.3000
120.2200 120.0948 119.7938 119.5523 119.2513 118.9484 118.7998 118.5062 118.2111 117.9362 117.6925 117.4734 117.2651 117.0786 116.9161 116.7766 116.6739 116.6006 116.5562 116.5510 116.5744 116.5679 116.6708 116.8685 116.9685 117.1634 117.3305 118.3382 124.1293 107.1336 109.7286 119.4137 111.8969 117.5373 120.5649 120.0132 119.9545 120.6793 121.5982 117.1968 116.4500 111.3495 122.2746 121.6835 122.1419 122.3712 122.5397 122.7621 123.2289 114.7349 120.9321 116.5940 123.3113 127.1568 115.3934 110.6039 124.5979 125.4057 125.0230 125.3470 125.5602 125.7499 124.8365 109.6500
120.1600 119.8156 119.5329 119.2329 118.9592 118.6202 118.3629 117.0488 117.7942 117.4909 117.2663 117.0152 116.7868 116.5752 116.3938 116.2394 116.1158 116.0346 115.9780 115.9771 115.9906 116.1542 116.1838 116.2745 116.4922 116.6854 116.9152 117.5300 112.9895 118.6718 119.9276 118.3676 119.0880 118.3498 118.8246 119.2271 119.5008 120.4572 115.2041 101.3774 109.6590 122.8952 121.3644 121.6369 121.8772 122.1375 122.3975 122.5101 124.0118 113.2026 118.2228 111.4617 124.1454 115.3353 120.0473 111.2938 121.7498 124.9012 124.7509 125.2302 125.3774 127.2017 125.3979 125.9600
119.8100 119.5720 119.2725 118.9576 118.6418 118.4426 116.6975 116.9077 117.5574 117.0923 116.8127 116.5356 116.2797 116.0464 115.8384 115.6617 115.5289 115.4266 115.3690 115.3555 115.3952 115.4257 117.2026 116.6678 115.9615 116.1667 116.4005 116.6941 117.5272 117.0087 116.6562 117.0725 118.0887 118.4741 118.8191 119.2033 119.5563 113.3302 112.8703 102.1916 121.8804 120.2576 121.1486 121.4785 121.7503 122.0092 122.2565 122.5257 122.9606 123.3880 124.3387 124.3800 126.1998 113.9039 105.1062 110.3527 116.3497 126.6564 124.9388 125.1467 125.3736 125.3972 127.0767 110.6700
119.7400 119.3302 119.0018 118.6778 118.3416 117.9820 117.8399 117.5852 116.8878 116.6700 116.3408 116.0370 115.7505 115.4876 115.2470 115.0455 114.8883 114.7723 114.7120 114.6951 114.7380 114.8407 113.7714 114.5285 115.4238 115.6247 115.9198 116.1862 116.5238 116.8421 117.0662 123.4012 118.6724 117.9504 118.5298 118.8082 119.2604 116.2413 118.5800 99.6105 121.2189 120.6290 121.0810 121.3190 121.5955 121.8644 122.1284 122.3913 122.5211 122.6239 123.1204 123.9034 119.7176 121.1762 119.5238 107.4213 107.0122 124.1652 124.8138 125.0824 125.2992 125.5360 130.9392 130.7900
119.3100 119.0113 118.7579 118.3980 118.0423 117.6869 117.3068 116.9155 116.5924 116.2154 115.8652 115.5248 115.1958 114.8911 114.6243 114.3902 114.2038 114.0717 113.9982 113.9854 114.0336 114.1513 114.4333 114.5620 114.7869 115.0616 115.3782 115.7186 116.0556 116.6090 115.7916 99.9599 117.9688 117.5153 118.2646 118.5884 119.1000 115.7724 104.9635 105.0670 120.2521 120.5058 120.8603 121.1647 121.4511 121.7304 122.0004 122.2822 122.6313 122.6952 122.5946 114.9060 121.1571 128.5536 116.0350 116.1390 117.7460 123.6212 124.7001 125.0586 125.2446 124.7670 134.3155 134.9300
118.9600 118.5363 118.4917 118.1183 117.7380 117.3520 116.9513 116.5570 116.1565 115.7680 115.3648 114.9815 114.6166 114.2725 113.9566 113.6884 113.4688 113.3144 113.2207 113.2110 113.2677 113.3841 113.5635 113.8306 114.1378 114.4594 114.8136 115.1862 115.6400 115.2116 119.7425 104.0481 117.3164 117.4984 117.9970 117.8910 118.4818 116.5568 120.3908 120.6261 120.2651 120.4237 120.7163 121.0153 121.3136 121.6057 121.8809 122.1208 122.4943 122.1674 122.8234 123.4331 126.8539 122.9302 112.7929 109.8927 115.9253 125.1108 124.7552 124.9420 125.2456 126.7533 117.6814 113.7500
124.5100 118.6156 118.3047 117.8508 117.4493 117.0337 116.6306 116.1855 115.7222 115.2841 114.8674 114.4327 114.0027 113.6142 113.2523 112.9308 112.6656 112.4796 112.3711 112.3503 112.4225 112.5715 112.8214 113.1072 113.4628 113.8135 114.3115 114.6730 115.1270 115.5207 115.4749 112.7241 116.2997 117.2302 117.7411 118.5469 119.9246 118.7669 119.2503 110.5624 120.4375 120.2830 120.5489 120.8824 121.1859 121.4806 121.7834 122.3250 120.8924 132.8603 110.6732 110.9015 113.6385 132.2213 118.7693 121.6231 124.5137 124.2582 124.7181 124.9261 125.0761 125.5716 130.5418 113.9400
118.5100 118.3248 118.0322 117.5952 117.1658 116.6953 116.2947 115.7959 115.0826 114.9844 114.3242 113.8510 113.3782 112.9141 112.4889 112.1067 111.7910 111.5638 111.4265 111.4037 111.4861 111.6907 111.8861 112.2990 112.7745 113.0166 113.6671 114.0935 114.6160 115.0954 115.4959 116.7316 116.4673 116.9768 117.4064 117.8377 118.1622 118.5726 119.0861 119.0901 119.6708 120.0992 120.4277 120.7549 121.0640 121.3707 121.6417 122.0748 118.9738 111.7583 105.1149 120.2497 122.3474 125.3441 120.9376 115.3892 122.9838 123.8954 124.7200 124.8750 125.0653 125.2472 126.7278 125.5400
118.4300 118.1591 117.7854 117.3474 116.9018 116.4406 115.5541 119.4169 111.0005 114.6043 113.7494 113.2805 112.7165 112.1820 111.6758 111.2103 110.8203 110.5358 110.3665 110.3368 110.4436 110.6652 111.5227 111.3185 110.7033 112.2656 112.9079 113.6756 114.0799 114.6752 115.2005 115.7139 116.2403 116.6894 117.1536 117.5961 118.0269 118.4417 118.9203 119.3174 119.6275 119.9396 120.2999 120.6352 120.9484 121.2320 122.4273 121.8805 122.1425 122.7158 122.5669 128.2807 122.5631 108.9455 122.4474 120.1528 122.2683 124.2436 124.6423 124.8245 125.0163 125.2666 125.4722 125.5300
118.3600 118.0198 117.5756 117.1238 116.6351 116.1292 115.6751 115.0287 114.1916 114.1486 113.2875 112.6711 112.0428 111.4149 110.8012 110.2437 109.7575 109.3857 109.1663 109.1221 109.1921 109.0943 107.0529 110.5991 106.6818 103.8471 111.4881 111.5279 113.7502 114.2524 114.8169 115.3765 115.9006 116.4227 116.9163 117.3908 117.7300 118.4965 116.9951 119.2715 119.4081 119.8225 120.1818 120.5212 120.8535 121.1794 121.4808 121.7816 122.4398 122.0370 122.4437 122.9955 123.3986 119.4166 121.7910 123.8014 124.1213 124.3448 124.5638 124.7794 124.9867 125.1754 125.3778 125.5100
118.3000 117.8548 117.3856 116.9025 116.3994 115.8745 115.3150 114.7280 114.0920 113.4142 112.8065 112.0766 111.3600 110.6182 109.8826 109.1745 108.5570 108.0648 107.7727 107.7099 107.8813 108.5247 115.0104 113.8117 110.2788 112.0284 112.2216 112.6945 113.1452 113.8419 114.4670 115.0599 115.6365 116.1804 116.6884 117.1649 118.4271 119.5114 104.5550 120.3780 119.1480 119.7030 120.0839 120.4238 120.7622 121.1172 121.4001 122.4111 125.1673 121.9789 122.6527 125.7846 118.3730 113.6000 124.4073 123.8523 124.0759 124.2966 124.5230 124.7390 124.9546 125.1718 125.3760 125.5000
117.9300 117.6822 117.2258 116.7167 116.1872 115.6279 115.0383 114.4083 113.7544 113.0531 112.2954 111.5083 110.6702 109.8019 108.9129 108.0253 107.2064 106.5264 106.1068 106.0291 106.2149 107.0131 106.7163 108.1843 109.2408 110.1475 110.9710 111.9296 112.7202 113.4509 114.1338 114.7756 115.3740 115.9552 116.4903 116.6518 120.8791 117.7640 119.2049 118.6900 119.2465 119.6153 119.9812 120.3396 120.6900 121.0311 121.3358 121.4348 121.5905 122.2247 122.5244 123.1731 125.1168 124.4734 123.4342 123.7897 124.0247 124.2671 124.4881 124.7108 124.9258 125.1272 125.3392 125.4800
117.8700 117.6992 117.0423 116.5548 116.0007 115.4196 114.7963 114.1357 113.4276 112.6667 111.8428 110.9654 110.0144 108.9881 107.9023 106.7841 105.6773 104.7117 104.0665 103.9417 104.3464 105.2282 106.4737 107.4233 108.6612 109.6059 110.5816 111.4770 112.3191 113.0997 113.8292 114.5132 115.1570 115.7484 116.3202 116.8903 117.1597 117.7452 118.1135 118.7036 119.1616 119.5626 119.9019 120.2711 120.6092 120.9497 121.2861 121.6390 121.9555 122.1716 122.6037 122.6163 122.7715 123.0937 123.5911 123.8044 124.0267 124.2440 124.4558 124.6780 124.8929 125.1382 125.4984 129.5500
117.7900 116.6201 117.1751 116.3836 115.8488 115.2417 114.6014 113.8953 113.1508 112.3333 111.4499 110.4750 109.4051 108.2196 106.9093 105.4710 103.9589 102.4863 101.4159 101.1862 101.9376 103.2773 104.8022 106.2733 107.6038 108.8689 110.0211 111.0329 111.9547 112.8068 113.5871 114.2974 114.9635 115.6179 116.0583 116.6524 117.2840 117.7670 118.2257 118.7215 118.7337 119.2196 119.8436 120.2100 120.5644 120.8967 121.2252 121.5366 121.8367 122.2195 122.4251 122.5586 122.6950 123.1663 123.3142 123.5703 123.9317 124.2038 124.4679 124.6740 124.8736 125.1010 125.1328 125.4600
117.7600 122.9169 114.3601 116.5034 115.7161 115.1059 114.4302 113.7078 112.9239 112.0620 111.1165 110.0675 108.8811 107.5429 105.9911 104.1895 102.0984 99.8292 97.6379 97.0961 98.7737 101.0695 103.3067 105.2058 107.2797 108.5651 109.5650 110.6721 111.6713 112.5631 113.3794 114.1329 114.8206 115.0132 116.9155 116.9726 117.1746 117.6197 118.1772 117.9623 121.6429 119.1241 119.8345 120.1661 120.5207 120.8641 121.1992 121.5125 121.8372 121.6936 122.5492 123.6487 124.2702 123.6132 124.4689 124.4921 123.8152 124.2122 124.3010 124.6877 124.8583 125.0816 125.3269 125.4500
117.7400 121.5919 115.8579 116.0333 115.5212 114.9937 114.3227 113.5810 112.7701 111.8859 110.8978 109.7774 108.4994 107.0235 105.2553 103.0993 100.2917 96.5280 91.4466 90.3703 94.0831 98.8637 101.9600 104.4900 103.6309 108.0570 109.1647 110.4176 111.4628 112.3974 113.2394 113.9764 114.6040 118.7326 105.8130 117.6910 117.0821 117.6931 117.6893 124.1192 120.0227 119.2927 119.7621 120.1335 120.4906 120.8416 121.1655 121.5418 121.4360 126.1303 116.3495 115.1943 113.1800 123.2090 113.9175 118.5720 124.7232 121.9259 124.5920 124.7337 124.8455 125.0629 125.2683 125.4500
117.7300 116.6650 116.5459 116.2733 115.4244 114.9609 114.2691 113.5090 112.6896 111.7824 110.7328 109.5980 108.2924 106.7291 104.8324 102.4114 99.0377 93.2142 86.4841 85.2132 89.5005 97.1049 101.0702 103.9641 105.0418 107.6938 109.0521 110.2775 111.3524 112.2999 113.1631 113.9373 114.4864 115.9182 114.3404 116.6463 117.0522 117.6277 118.3448 118.8713 118.7726 119.3416 119.7349 120.1096 120.4808 120.8223 121.1909 121.4214 122.6565 128.4963 112.7368 114.7229 109.2066 114.7167 121.5225 113.9561 115.6542 112.8327 124.5213 124.7004 124.8460 125.0502 125.2551 125.4400
117.7300 117.3310 116.7511 116.2041 115.6045 114.9507 114.2611 113.5072 112.6878 111.7495 110.8239 109.6482 108.2851 106.7110 104.8067 102.3722 98.9573 93.0060 86.3854 85.0818 89.1878 96.9982 101.0023 103.8058 105.9721 107.6292 109.0540 110.2747 111.3449 112.2983 113.1581 113.9454 114.6891 114.8866 115.7210 116.4087 117.1209 117.5479 117.9829 118.3163 118.9522 119.3478 119.7393 120.1139 120.5026 120.8452 120.8527 121.2218 121.7628 129.0522 110.6464 115.9510 105.3887 120.1323 123.4097 123.1001 123.2250 123.8036 124.5726 124.6834 124.8522 125.2536 125.4322 125.4400
117.7400 117.3006 116.7815 116.2305 115.6314 115.0016 114.3118 113.5662 112.6934 112.1756 108.0008 109.9833 108.4721 106.9692 105.1876 102.9618 100.1193 95.3978 90.7141 89.7133 93.2937 98.5734 101.8107 104.2694 106.2323 107.8410 109.2108 110.3971 111.4467 112.3729 113.2265 113.9935 114.6978 115.3932 115.9415 119.5388 116.6808 117.7156 118.0678 118.5242 118.9546 119.3618 119.7486 120.1120 120.5420 120.9810 119.4173 128.8599 108.2486 114.0396 109.7172 115.2792 114.9902 113.0952 124.1702 123.2830 124.4312 121.0738 124.4072 124.6973 124.8418 125.0631 125.2825 125.4400
117.7500 117.3583 116.8429 116.2981 115.7152 115.0919 114.4155 113.6875 112.8899 112.1483 111.2098 110.0075 108.8312 107.4697 105.8910 104.0357 101.8688 99.4314 96.9613 96.3006 98.3154 100.7737 103.1433 105.1154 106.8054 108.2535 109.5213 110.6304 111.6322 112.5397 113.3599 114.1110 114.7680 115.5529 118.4062 108.4155 118.0453 117.3492 118.1126 118.5654 118.9927 119.3750 119.7322 120.0972 120.4337 121.3433 116.1463 121.3628 110.1373 110.0517 123.3028 111.8553 120.7540 121.8105 123.5382 123.7479 123.9837 124.0607 124.4157 123.3345 124.9215 125.1006 125.2941 125.4400
117.7800 117.4423 116.9350 116.3967 115.8341 115.2201 114.5702 113.8726 113.1164 112.2791 111.3783 110.4293 109.3323 108.1235 106.7879 105.3134 103.7539 102.1719 101.0101 100.7466 101.5631 103.0122 104.6268 106.1580 107.5577 108.8243 109.9814 111.0730 111.9932 112.7733 113.5520 114.2732 114.9590 115.5927 114.8129 127.0724 108.1028 118.3563 118.2325 118.6119 119.0377 119.4120 120.1755 120.6699 121.7256 122.2069 106.6672 119.5200 103.8774 110.8054 122.9401 113.1360 115.5764 120.6912 123.3147 123.7725 123.9998 123.4263 128.3163 114.3934 124.5105 124.6926 125.0655 125.4500
117.8100 117.5430 117.0592 116.5342 115.9842 115.3909 114.7709 114.1023 113.3966 112.6266 111.8037 110.8993 109.9306 108.8935 107.7822 106.6088 105.4638 104.4330 103.7519 103.6108 104.0800 105.0005 106.1127 107.2849 108.4094 109.4839 110.4462 111.2064 111.8208 113.0906 113.7930 114.4915 115.1080 115.1671 116.3369 116.1174 117.2119 117.7701 118.3094 118.7096 119.3558 119.3810 117.1373 118.7996 115.2166 128.0422 109.3355 110.2086 107.3971 122.2653 111.8550 115.5760 120.0426 117.3687 127.9347 123.5406 123.9772 124.3275 124.1211 125.3896 125.4868 124.9884 126.8408 125.4500
117.8500 117.6770 117.1998 116.6969 116.1662 115.6042 115.0068 114.3841 113.7153 112.9935 112.2418 111.4378 110.5929 109.7049 108.7846 107.8745 107.0154 106.3096 105.8523 105.7701 106.0724 106.6791 107.4949 108.3893 109.3094 110.1956 111.1592 113.9898 116.5588 113.1013 114.0702 114.7743 115.5168 115.6509 120.3725 115.8387 117.3634 117.8735 118.3877 118.8061 119.4059 119.4343 119.5995 121.9981 110.0402 109.7842 123.6174 115.8094 118.0771 122.7594 116.6133 124.2338 123.0563 123.7513 123.6530 123.8209 124.0140 124.2460 124.5369 124.5258 124.5641 124.4256 129.5503 125.4600
118.2700 117.8286 117.3647 116.8800 116.3689 115.8452 115.2770 114.6894 114.0685 113.4153 112.7315 112.0189 111.2759 110.5114 109.7568 109.0386 108.3875 107.8691 107.5577 107.5037 107.7071 108.1463 108.7414 109.4373 110.1851 110.9465 111.7386 110.3033 118.1892 113.2718 114.7914 114.9588 115.7207 115.1818 124.7045 111.5810 117.7129 118.1591 118.5134 118.9097 119.3129 120.1172 112.6502 120.1919 125.5878 108.9249 117.5305 115.9224 118.9702 119.0279 119.8845 123.6131 124.0039 123.4563 123.5165 123.7843 124.0565 124.3010 124.5194 124.7804 124.7235 127.9447 124.5841 125.4700
118.2700 117.9979 117.5579 117.0922 116.6103 116.1078 115.5787 115.0253 114.4494 113.8600 113.2378 112.6031 111.9642 111.3157 110.6993 110.1107 109.6033 109.2160 108.9848 108.9455 109.0942 109.4206 109.8731 110.4332 111.0415 111.6841 112.3333 113.1331 113.4112 114.0831 112.9607 116.0416 115.6450 116.4815 116.5487 117.8664 117.6387 118.2539 118.6606 119.0498 119.4749 119.7834 116.0372 113.3254 117.3870 116.9206 115.4095 105.7071 111.9915 114.3260 117.5713 119.8751 118.1769 122.0877 123.8477 124.2435 124.1027 124.3434 124.5598 124.7604 124.9310 126.9364 125.3209 125.4900
118.3300 118.1860 117.7679 117.3223 116.8621 116.3873 115.8996 115.3785 114.8592 114.3167 113.7592 113.1946 112.6335 112.0930 111.5733 111.0863 110.6926 110.3851 110.2175 110.1812 110.2946 110.5473 110.9051 111.3447 111.8566 112.3905 112.9523 113.3780 114.5420 114.3916 120.4760 107.8366 116.7258 116.7028 117.1379 117.4943 117.9555 118.4155 118.8251 119.1949 119.3864 121.8441 120.8572 122.1961 121.5647 122.0755 124.3868 111.1941 109.8520 117.2449 119.4739 116.6921 115.6599 121.1035 123.3341 119.9837 124.1968 124.3457 124.6036 124.8194 125.0273 124.9334 125.2232 125.6300
118.7600 118.3861 117.9869 117.5619 117.1352 116.6848 116.2303 115.7513 115.2646 114.7799 114.2813 113.7862 113.2968 112.8283 112.3887 111.9938 111.6712 111.4253 111.2900 111.2628 111.3583 111.5531 111.8502 112.2073 112.6210 113.0267 113.5964 114.0282 114.2473 113.3474 115.0488 113.1756 116.6451 116.9624 117.3647 117.8106 118.2250 118.6039 118.9897 119.3741 119.7172 121.0793 120.9823 121.0967 121.0440 119.1571 125.7345 105.6675 123.0418 110.5187 124.7769 121.0626 121.8910 123.8888 121.5417 117.9892 124.3414 124.3809 124.6554 124.8617 125.0641 125.3135 125.5018 125.6500
118.8400 118.6077 118.2156 117.8181 117.4187 116.9929 116.5740 116.1336 115.6902 115.2463 114.8013 114.3583 113.9307 113.5217 113.1527 112.8223 112.5540 112.3608 112.2529 112.2305 112.2987 112.4700 112.6410 112.9985 113.2732 115.1181 114.3302 114.8688 115.0614 115.0434 109.0938 117.7512 116.5951 117.2416 117.6433 118.0423 118.4334 118.8205 119.1903 119.5269 119.8628 121.2696 110.6030 113.0637 122.1378 126.5717 127.2168 119.1289 109.7185 114.4870 123.1315 123.6062 123.5282 123.5164 123.7612 123.4776 124.3362 124.4703 124.6985 124.9135 125.1158 125.3120 125.5113 125.6600
119.1900 118.8282 118.4650 118.0845 117.7059 117.3175 116.9206 116.5205 116.1100 115.7091 115.3029 114.9212 114.5690 114.1957 113.8616 113.5991 113.3648 113.2069 113.1153 113.0939 113.1540 113.2967 113.7715 113.7517 114.2512 114.5428 117.2051 116.1258 115.7545 115.6457 116.6485 116.8022 117.1575 117.5170 117.9227 118.3024 118.6673 119.0068 119.3455 119.6962 120.0665 120.3575 113.0047 119.0063 109.2957 110.3304 109.7990 110.7011 111.6730 122.5383 122.9345 123.1813 123.4036 123.6613 123.8966 124.1094 124.3193 124.5543 124.7607 124.9700 125.1699 125.3677 125.5665 125.6800
119.2800 119.0635 118.7105 118.3794 117.9907 117.6391 117.2744 116.9051 116.5271 116.1599 115.8204 115.4445 115.1114 114.7992 114.5630 114.2933 114.1127 113.9710 113.8997 113.8804 113.9267 114.0432 114.5006 109.5624 114.5950 114.9066 115.2042 115.9771 116.1128 116.3113 116.7609 117.1336 117.4793 117.8422 118.2081 118.5651 118.9226 119.2297 119.2340 120.0212 120.1883 120.2367 125.5485 104.9892 115.4814 109.5847 118.8235 117.5368 122.6989 122.6184 123.0044 123.2688 123.5097 123.7362 123.9662 124.1988 124.4072 124.6162 124.8287 125.0278 125.2284 125.4346 125.6337 125.7000
119.3600 119.3016 118.9759 118.6327 118.3727 117.9916 117.6311 117.2807 116.9434 116.6126 116.2631 116.2931 116.1973 115.4452 115.0571 114.9633 114.8001 114.6869 114.6164 114.6073 114.6539 114.7419 114.8754 115.2462 115.6262 115.4792 115.8295 116.1954 116.4730 116.7892 117.1028 117.4717 117.8097 118.1556 118.4922 118.8243 119.1576 119.5138 120.8569 119.7098 120.4989 120.8971 120.0697 124.1520 115.1991 106.9817 113.4632 118.8592 122.8446 122.8869 123.1864 123.3087 123.5953 123.8180 124.0462 124.2602 124.4808 124.6853 124.8920 125.0912 125.2824 125.3571 125.4835 125.7200
119.7100 119.5457 119.2196 119.1229 118.9384 117.9009 117.9526 117.6698 117.3516 117.0489 116.6789 116.7576 111.1864 116.3703 115.7501 115.5821 115.4456 115.3375 115.2837 115.2709 115.2965 115.5413 115.6625 115.6218 115.8135 116.1086 116.3525 116.6105 116.9372 117.1895 117.6375 117.7799 118.1355 118.4599 118.7955 119.1145 119.4098 119.7081 119.8748 120.1225 120.3022 121.0232 122.9356 113.8314 105.6971 113.1095 120.7765 109.3913 122.7682 123.7943 123.2308 123.9539 123.8171 123.9351 124.1389 124.3463 124.5514 124.7596 124.9527 125.1411 125.3481 126.2804 127.3273 125.8700
120.1200 119.8028 119.4306 119.6441 110.3427 117.2743 118.2962 118.0324 117.7540 117.4663 117.0240 117.5355 112.2630 117.2023 116.2783 116.1606 116.0351 115.9470 115.9001 115.8941 116.0026 115.0473 115.0615 116.3270 116.4505 116.6104 116.8564 117.0897 117.3410 118.2918 114.7201 118.1629 118.4841 118.7977 119.0772 119.3130 119.6330 119.9523 120.8154 120.8161 122.5261 121.8131 117.8053 115.1396 110.6598 119.3487 112.3030 114.5259 120.9727 122.1595 118.4667 120.9641 123.1029 123.8993 124.2032 124.4121 124.6336 124.8380 125.0296 125.2841 125.5735 124.7554 119.2334 125.8900
120.1200 120.0336 119.7890 119.4052 120.2124 119.9467 118.6662 118.4303 118.1463 118.2000 117.5147 117.5576 117.7387 116.9713 116.8462 116.7100 116.6112 116.5693 116.4874 116.4739 116.6693 117.5912 127.6993 115.9177 116.3497 117.2617 117.3116 117.5336 117.6943 118.0519 119.0644 119.0199 118.7487 118.9975 119.2271 120.3555 120.9225 120.1549 118.6829 121.9965 124.7287 120.3978 106.4353 105.4278 117.3483 113.8109 114.0045 125.3419 112.6574 114.2809 116.0857 114.3683 126.5294 124.4599 124.4322 124.6491 124.7200 124.9261 125.1058 124.9078 124.4545 127.1924 130.3112 126.0700
120.4300 120.2970 120.0366 119.7204 119.5070 119.0953 118.9448 118.7671 118.4415 118.4354 114.2569 117.9227 117.5963 117.5034 117.3451 117.2249 117.0748 116.7078 116.8787 117.0149 117.3984 114.9633 125.7630 122.3231 118.1068 117.5467 117.8415 117.9713 118.1900 118.4706 118.5207 118.8350 119.1819 120.0992 120.9493 110.1309 120.5541 120.9034 122.4705 124.8786 118.5962 110.0829 109.9013 111.6270 121.6240 110.3677 118.6670 123.6309 122.4740 118.3759 113.7604 114.5717 113.7950 123.8273 123.7685 124.0519 124.8210 125.0058 125.2903 125.3000 130.3002 123.4869 128.5044 126.0900
120.8300 120.5426 120.2939 120.0677 119.8333 119.5922 119.3573 119.1180 118.7418 118.8656 118.2338 118.1531 118.1172 117.9564 117.8464 117.6887 118.1329 119.8008 118.1538 117.5147 117.5588 117.7884 116.7683 117.4955 109.2760 119.3054 118.1740 118.3876 118.6227 118.5493 118.6432 120.6323 118.9721 118.8713 109.5025 105.7371 111.1919 119.2961 122.0666 110.4896 110.1036 104.0343 110.7500 109.0484 118.1251 116.5563 123.4036 122.4998 122.9110 122.9203 134.1953 120.5067 124.4001 124.4196 126.9962 125.9513 125.0583 125.0617 125.2976 125.1474 122.7360 110.1829 125.5889 116.8000
120.8600 120.7952 120.5605 120.3318 120.1015 119.8839 119.6557 119.4246 119.1905 119.0272 118.9751 118.6721 118.5722 118.3931 118.2807 118.6087 112.5574 106.1464 118.4403 117.9914 118.0578 118.0698 112.0336 115.6426 112.3759 119.1162 118.6492 118.7267 119.1676 119.9612 120.0356 119.7799 100.3920 127.8205 121.2892 105.6669 108.5859 120.7840 114.9244 118.6047 117.6681 115.0625 107.9360 115.0329 124.6879 114.0608 123.2504 124.3557 122.9661 130.6528 126.5272 116.4028 125.5185 123.8462 125.1407 125.2753 124.6075 125.1905 125.3600 125.7047 127.1227 122.0565 126.8206 126.1500
121.2100 121.0434 120.8248 120.6105 120.3951 120.1884 119.9884 119.7667 119.6107 119.5934 118.8837 119.0978 118.8476 118.8367 118.7732 118.6951 115.1487 111.0675 118.2249 118.4604 118.4768 118.4037 118.7317 118.8875 119.4803 118.8218 119.0050 119.4928 118.2647 120.9749 120.5788 120.2254 119.7169 99.8262 118.2538 103.1656 109.7483 117.5260 121.3748 121.2668 123.2695 107.5427 118.6679 123.0982 112.7018 123.3088 115.4101 114.7243 113.7888 116.7364 121.7007 110.2766 118.7996 125.5883 121.1995 125.5932 124.9553 125.2790 125.4248 125.8347 125.1917 126.1027 126.4451 126.3000
121.5000 121.2911 121.0843 120.8800 120.6872 120.4864 120.2691 120.0892 119.9054 119.4188 122.8434 118.1473 119.9351 119.2337 119.2023 119.8864 106.9914 122.1781 119.6339 118.9068 118.9066 118.9642 118.9678 118.9597 119.0303 119.3221 119.4183 119.4855 115.5135 119.9798 119.8166 116.7703 112.7115 100.5726 105.5309 101.7519 101.9933 117.5923 122.9224 121.7732 122.4156 120.1588 122.8061 111.6745 113.2583 123.4488 120.4429 123.7042 124.6785 107.5006 110.4280 107.3898 113.2212 115.4552 125.5558 125.1156 125.2064 125.4081 125.6331 125.8552 125.8980 126.0874 126.1740 126.3200
121.5400 121.5403 121.3426 121.1503 120.9660 120.7662 120.7262 120.4386 120.2368 108.1120 103.3781 107.3608 119.9828 119.6842 119.3031 120.6091 107.9001 100.4196 121.0217 119.2990 119.3145 119.3533 119.4241 119.5151 119.5938 119.6496 119.7866 119.8488 119.9880 120.3203 119.9996 119.4463 106.0779 123.0884 104.8249 104.6485 110.8972 121.4465 122.7637 121.9452 121.8685 122.3990 122.6338 107.7334 117.5119 123.8601 123.4635 123.6195 124.9747 118.7564 110.3183 118.9519 120.0386 118.5190 124.9740 124.9759 125.3177 125.4882 126.2108 125.6343 125.9870 126.1366 126.3307 126.4700
121.8600 121.7803 121.5948 121.4132 121.2442 121.1715 121.1399 120.7713 120.8049 123.8297 104.7126 123.3454 120.5860 119.9937 119.9263 114.6745 110.9375 117.2686 119.8375 119.6794 119.7145 119.7568 119.7816 119.8512 119.9261 120.0316 120.1434 120.1583 120.4460 121.0861 120.9207 126.6156 121.6323 123.2438 121.5698 110.8503 115.3751 121.5174 122.0195 122.2823 122.4565 122.3684 125.9853 116.0025 134.2073 122.3440 124.0995 123.6465 124.6368 109.5198 126.1196 124.6108 124.7869 124.9020 125.2769 125.2249 125.4117 125.4755 124.8250 125.7451 126.5595 126.6517 126.3887 126.5100
122.1300 122.0191 121.8501 121.6769 121.5340 121.3943 121.0190 121.6422 118.5579 102.1875 117.6509 109.5868 115.8430 120.2086 120.0398 121.9774 120.4565 120.2398 120.1227 120.1856 120.1125 120.1271 120.3066 120.2551 120.3390 120.3646 120.4533 121.5209 117.5018 117.4561 120.6132 116.3675 112.8228 121.5648 121.6594 123.0393 121.6911 122.3046 122.3126 122.4810 122.6442 122.7446 126.3486 114.5366 110.5941 122.4560 123.7044 123.9442 123.8689 124.6167 124.3499 124.5736 124.8367 124.9418 125.1852 125.3082 125.5953 125.6821 125.9394 126.1020 125.5407 124.7318 126.8262 126.5300
122.4500 122.2571 122.0965 121.9158 121.7680 121.6280 122.2246 114.9649 120.9791 106.8090 109.0280 108.0564 122.3949 120.5520 121.9704 111.8176 120.7056 120.4804 120.3741 120.2080 120.4179 120.6024 119.5320 120.5909 120.5583 120.8157 120.7086 122.1687 105.9000 103.1089 110.5953 107.2149 121.7567 121.8987 121.8280 121.7850 122.0060 122.3783 122.5196 122.7051 122.5700 123.9824 116.1144 112.9850 111.4609 125.0217 123.6948 124.1210 124.3642 124.4365 124.4961 124.8172 124.9735 125.1557 125.3201 125.4857 125.2637 127.7204 127.0600 125.7470 125.2699 119.5272 127.0931 126.6800
122.4700 122.4928 122.3333 122.1878 122.0293 121.9556 122.1780 114.5953 121.3731 115.7896 106.5637 110.3929 121.3865 121.0289 120.8301 113.6643 121.3257 120.8652 120.2653 119.3259 118.6313 119.9237 125.4333 121.3805 121.1399 119.3008 121.0858 119.5118 119.0777 105.6630 104.7542 123.1756 122.1198 121.7231 121.9655 123.1850 123.0075 121.0099 123.5013 124.6977 123.0527 121.1363 123.5628 108.2415 126.7089 124.4666 124.1248 124.2389 124.4170 124.5982 124.7697 124.9144 125.0889 125.2461 125.4329 125.4966 124.2409 114.4554 122.5276 126.2588 125.7828 130.2515 126.9655 120.4000
122.9700 122.7226 122.5711 122.4295 122.2816 122.2180 121.9412 122.4971 121.4314 118.9094 118.8409 123.5109 121.2549 121.2904 121.5747 121.9619 121.2556 121.5021 111.1641 104.0409 115.1515 112.0177 105.6193 124.9763 116.9626 113.3898 118.2215 122.0982 108.4049 111.3417 112.6884 123.9650 121.9195 122.2550 122.2767 114.2271 124.4022 119.6594 124.5427 111.6574 125.5338 123.4173 119.5864 115.8526 112.8034 124.0841 124.2531 124.4251 124.5729 124.7378 124.9007 125.0552 125.2174 125.3762 125.5402 125.4742 126.4863 121.9255 112.1435 126.9852 126.4355 126.0961 127.3847 120.4000
123.0000 122.9519 122.8135 122.6758 122.5347 122.4088 122.3395 121.9216 122.1309 122.2064 122.1353 121.5662 121.8001 121.7022 121.5383 121.4341 121.5540 121.4601 122.1045 118.4922 121.2529 123.9953 102.2522 117.7072 120.4390 93.8107 123.9807 105.0864 102.0252 104.4373 102.3214 113.4481 122.5226 122.3663 123.3954 120.0756 121.6923 109.9109 121.1048 109.1731 109.8389 115.6161 125.0598 127.1605 119.6266 124.9629 124.3006 124.5758 124.7209 124.8787 125.0441 125.1915 125.3497 125.5082 125.6570 125.8313 125.8984 126.7703 120.2658 126.7156 126.4544 127.4763 128.7973 126.9200
123.2600 123.1795 123.0416 122.9121 122.7826 122.6635 122.5324 122.4731 122.3112 122.2631 122.1171 122.1561 121.6240 121.6250 121.8750 121.8342 121.8804 122.0293 107.5523 98.5873 109.0080 122.1904 115.8841 117.9314 121.9586 121.1234 124.4616 116.3444 102.9616 102.9794 111.7272 123.5747 122.7654 122.4325 122.7139 119.0130 115.4228 124.0292 114.2668 117.9203 107.4051 110.0672 109.1251 124.4834 124.2818 124.3910 124.5754 124.7175 124.8734 125.0256 125.1799 125.3263 125.4839 125.6342 125.7807 125.9334 126.1051 125.9553 126.7032 126.5127 126.7350 126.8422 127.8665 111.4200
123.2900 123.4008 123.2647 123.1442 123.0209 122.9082 122.8035 122.6939 122.6063 122.5132 122.4483 122.1678 124.4563 123.5488 122.1236 122.1095 122.1640 122.4599 112.2773 108.0571 122.9141 122.5545 114.5020 122.1799 122.8706 111.3524 121.7954 105.5282 118.3131 116.5647 108.4931 115.5730 122.8395 123.6652 121.9185 125.7023 117.6840 118.4756 123.5433 125.8710 125.5298 113.5962 119.2521 125.2408 124.3701 124.5700 124.7307 124.8807 125.0279 125.1739 125.3204 125.4628 125.6144 125.7606 125.9088 126.0437 126.2087 126.3391 126.2629 126.5029 126.6427 126.2759 126.5751 118.0300
123.5800 123.6118 123.4876 123.3723 123.2610 123.1446 123.0465 122.9496 122.8614 122.7589 122.7024 125.1290 101.6480 122.8922 122.3555 122.4143 122.4395 122.4387 123.6957 123.9983 142.7429 123.8712 104.4450 121.1823 122.1532 110.1385 111.7621 104.2217 100.5677 106.3056 111.8336 121.5422 123.3754 123.5162 114.0716 123.2795 123.6006 122.4064 124.2996 123.3116 124.6652 117.4138 120.7577 124.6059 124.8932 124.7331 124.9000 125.0370 125.1785 125.3186 125.4569 125.6021 125.7491 125.8840 126.0276 126.1755 126.2630 126.7199 126.4103 136.7984 125.5242 129.7620 118.7223 114.2900
123.9900 123.8229 123.7073 123.5978 123.4909 123.3834 123.2861 123.1959 123.1116 123.0083 122.9743 124.5988 120.1564 123.6292 122.6952 122.6573 122.6167 122.5242 122.1365 122.5302 127.7823 113.2416 115.1616 117.7222 121.0894 114.1343 108.6840 104.2434 107.3225 119.3031 124.4503 123.5596 123.4992 123.4775 123.6451 123.9888 123.5609 124.0989 124.3691 124.0862 122.9885 112.5171 105.5303 117.9592 125.3214 124.7507 125.0906 125.1866 125.3312 125.4671 125.6076 125.7424 125.8801 126.0114 126.1480 126.2890 126.4194 126.6519 125.8946 129.2278 108.4454 129.6035 123.3913 129.4900
123.9900 124.0295 123.9237 123.8119 123.7133 123.6117 123.5200 123.4383 123.3553 123.2687 123.1908 122.9384 123.2290 123.0462 122.1569 122.9769 122.9388 123.2390 122.8525 122.7348 115.1413 103.8597 108.8723 99.9951 106.0188 105.2597 102.2432 106.6779 107.6738 125.2454 122.9516 123.2607 123.7839 119.5041 123.8113 123.8860 124.3553 122.6349 116.6099 124.8941 125.1988 124.0240 103.6017 118.0710 124.8211 125.0312 125.1971 125.3409 125.4752 125.6073 125.7426 125.8779 126.0116 126.1461 126.2771 126.4129 126.5526 126.6482 126.8287 127.0027 127.0606 128.1484 112.2773 116.9800
124.2200 124.2407 124.1344 124.0344 123.9403 123.8461 123.7545 123.6711 123.5978 123.5143 123.4716 123.4492 123.3730 123.7523 115.8141 124.8882 122.7365 122.1903 123.6673 123.0356 124.9687 104.6850 110.4823 107.6941 113.5085 101.2048 117.8332 110.4729 105.8182 124.3374 123.7427 123.6558 123.7364 121.8231 124.7110 123.3599 124.1843 118.9655 125.1732 124.7912 124.9546 109.5271 114.8518 114.1140 122.9180 125.5235 125.3537 125.4973 125.6292 125.7567 125.8878 126.0139 126.1489 126.2720 126.4050 126.5299 126.6631 126.7947 126.9115 127.0684 127.1384 127.4059 121.7241 115.2800
124.4500 124.4251 124.3305 124.2455 124.1491 124.0658 123.9760 123.9018 123.8319 123.7629 123.6949 123.6069 123.6690 124.2308 117.0343 118.0304 126.4813 128.2007 109.1621 123.3583 111.1633 121.5187 120.9529 114.9628 111.3131 102.6979 111.5587 114.2592 123.8377 125.1807 123.8351 123.8741 124.4614 121.0877 119.6445 124.6361 124.7831 124.8620 124.7822 124.7294 125.6311 125.3919 118.2848 122.3424 126.6616 125.3776 125.5231 125.6543 125.7784 125.9034 126.0221 126.1534 126.2763 126.3991 126.5321 126.6552 126.7797 126.9080 126.9545 127.6934 127.8970 127.9242 120.0002 114.4000
124.6500 124.6519 124.5022 124.4583 124.3638 124.2811 124.1937 124.1202 124.0562 123.9899 123.9240 123.8998 123.7155 122.8282 99.7956 111.3517 109.2619 109.2050 125.4249 123.7424 114.1083 120.4961 120.9099 113.2190 101.2065 104.9439 103.8603 111.0948 110.6630 123.8050 124.1186 124.2061 123.8854 128.6747 121.0898 124.6711 124.5808 124.7827 126.1176 124.8545 125.2124 124.6631 121.5455 116.6881 123.6398 125.6562 125.6780 125.8049 125.9256 126.0467 126.1656 126.2883 126.4089 126.5304 126.6551 126.7763 126.8875 127.0323 127.4872 126.5029 119.7719 118.4376 115.5233 117.2500
124.8500 124.7200 124.6000 124.6000 124.5200 124.5200 124.3900 124.2400 124.2500 124.1300 124.1300 124.0000 124.0200 105.6300 101.8600 123.8700 107.4400 105.5000 117.0100 123.9100 123.9100 107.4700 123.8900 112.0000 103.7800 124.0300 111.6000 113.8300 118.5100 124.1100 124.2600 124.4000 124.3700 124.4900 124.4900 124.6100 124.7300 124.8500 124.9900 124.9900 125.0900 125.2100 125.3400 109.5500 112.5400 125.6700 125.7900 125.8900 126.0000 126.1100 126.2200 126.3300 126.4400 126.5500 126.7600 126.8700 126.9700 127.0700 127.1800 109.7900 129.7300 114.7100 116.7100 117.2500
