121.0300 121.0300 112.3700 120.3700 120.1700 119.9400 119.7000 119.5300 119.2300 119.0400 118.7200 118.4800 118.2100 118.2400 123.7500 118.0000 117.7100 117.7600 117.3800 117.4000 117.4200 117.4300 117.4200 117.3700 117.7500 117.7000 118.0200 118.0200 118.2300 118.2300 118.4800 118.8100 119.0200 99.2200 99.8500 119.7100 119.9600 105.9900 106.7000 120.6200 120.8600 108.2600 111.1700 121.6500 121.8700 122.0300 122.4000 122.5800 122.7600 123.1200 123.2800 123.4400 123.6000 123.9200 124.0800 124.2300 114.0400 118.7800 119.4200 107.5100 110.1400 106.4100 125.6400 125.7700
120.9500 121.2357 120.9113 120.4054 120.0899 119.8316 119.5770 119.3201 119.0713 118.8301 118.5908 118.3707 118.1477 117.4638 119.8499 115.8632 117.5951 117.3994 114.7735 117.5108 116.9225 116.8661 116.9753 117.3805 116.0587 118.2484 117.3955 118.4110 98.2809 111.3457 119.1915 119.2103 110.5487 102.0861 97.6624 110.4836 112.9168 107.0853 105.6998 110.8290 115.5561 107.1219 110.9499 121.6040 121.4095 121.2642 111.8480 120.6717 123.3552 122.8928 123.1716 123.6367 124.6490 110.9963 105.3040 109.7531 105.5288 112.8621 110.9849 104.3094 106.1983 120.3437 125.4477 125.7700
120.9500 120.4565 120.2629 120.0306 119.8285 119.5387 119.2800 119.0000 118.7302 118.4765 118.2134 117.9686 117.7280 117.5223 117.2742 117.0376 117.0782 117.0088 114.3520 116.1491 116.9320 117.6088 116.9309 118.2763 106.3160 117.7561 116.6761 118.4472 102.2719 106.9454 114.8719 100.2740 100.2989 110.0264 111.8771 103.5572 106.5996 108.8047 104.3995 118.3474 107.0840 107.8783 116.0059 122.1622 121.5041 123.7726 118.7764 115.9537 122.4833 122.8920 122.9745 121.6867 120.2979 113.9279 127.9790 100.7230 106.5809 107.1945 112.6279 105.2603 105.2850 125.1986 125.8216 125.5900
120.5700 120.4298 120.1328 119.7952 119.5494 119.3029 119.0126 118.6776 118.3840 118.0889 117.8307 117.5414 117.3000 117.0490 116.8311 116.6358 116.4076 116.2839 116.3629 116.4767 112.0734 106.8828 116.7800 120.9965 121.3533 116.0699 117.1591 110.1380 117.2807 98.2568 116.8000 95.3788 94.1751 108.9287 115.8900 107.9787 110.2133 109.6942 99.7942 108.5003 103.4375 118.9614 122.5761 120.4445 107.7922 121.0853 122.0923 118.9221 122.6595 122.7153 122.7744 122.7856 123.6628 123.4559 120.8074 115.7674 107.4947 101.1269 103.8840 103.6947 108.7204 113.7928 127.2545 116.5700
120.2600 120.1692 119.9642 119.5897 119.7052 118.7328 118.6394 118.3661 118.0278 117.8531 117.5064 117.1406 116.8524 116.5770 116.3261 116.0936 115.8953 115.7167 115.5937 115.3782 113.2664 109.4652 115.4258 113.4769 113.1347 115.8865 114.9627 110.2481 116.1592 117.7965 117.8632 112.6150 100.0606 109.3480 104.8025 110.2847 100.2399 104.7233 118.6153 109.9324 115.9917 121.6255 110.9612 106.4838 101.7340 114.6254 112.8623 105.6387 123.2493 122.9765 122.9031 123.2657 123.5959 123.7255 124.7998 105.5230 109.9381 109.3450 103.7968 110.0316 109.7655 110.1437 112.2392 110.8400
120.1800 119.9663 119.3710 120.2637 112.0291 118.7328 119.2588 117.9447 117.8327 116.2166 116.5329 116.7356 116.3768 116.0817 115.7945 115.5346 115.3043 115.1035 114.9861 114.7977 114.7629 114.7448 115.3028 115.3275 115.4209 115.1665 115.5808 116.0045 116.9900 106.0430 110.1750 106.4843 96.0513 102.1815 101.7239 99.1409 115.3804 120.3761 119.9729 120.7526 123.8684 100.9860 114.2986 118.9854 121.8364 101.8107 123.9350 120.9559 123.4637 114.6637 122.2082 122.7771 123.4891 116.3043 119.7550 104.7764 114.1088 103.6316 106.3796 108.8789 112.1420 110.9470 116.4636 115.9600
119.8600 119.8176 119.4157 125.8880 117.1283 118.2763 118.1158 117.6928 117.3474 116.5724 116.7020 116.2195 115.9024 115.5734 115.2467 114.9260 114.6927 114.4491 114.3170 114.1959 109.2895 101.5510 115.1709 114.1807 113.4625 114.6866 114.7905 115.1829 114.3248 116.3708 112.7554 94.4526 105.0518 112.2035 103.3062 97.6910 103.0093 120.0283 119.2981 115.3494 102.7580 104.6987 121.6835 120.2010 105.0715 120.7957 117.5654 97.7297 104.8834 103.0310 124.3074 122.6904 124.1628 108.2195 102.1691 110.9260 106.0649 104.0379 115.5600 110.7668 113.8159 115.5167 115.0756 115.9300
119.7800 119.5644 119.1813 118.9181 118.3539 118.1252 117.7832 117.3752 116.9734 116.5930 116.1881 115.8005 115.4131 115.0229 114.6699 114.4670 114.0237 113.7521 113.5466 113.3789 114.0967 114.6929 113.1605 113.4526 111.5995 113.0618 114.1817 114.3125 117.1222 104.7505 102.6786 91.9005 96.9929 97.7759 104.3287 96.7272 105.1436 115.4646 118.3187 113.2409 121.8554 102.2368 105.4727 122.2105 114.6647 123.5818 102.8382 123.2027 112.4630 120.7500 121.8906 121.8079 100.1149 101.1664 104.1830 108.8328 110.4098 110.7077 113.5790 115.2268 115.4499 126.4612 121.4992 122.9600
119.7100 119.3678 119.0595 118.7308 118.2701 117.8630 117.4692 117.0507 116.6389 116.2051 115.7712 115.3376 114.9021 114.4602 114.2361 111.2278 113.5633 112.9982 112.7605 112.5478 111.1831 108.6615 112.8501 112.6825 113.1137 113.2158 113.4756 113.9809 101.6848 91.2516 92.0575 95.7853 114.7729 115.0896 104.3263 103.0673 118.9468 118.1474 118.9795 119.0747 115.8635 113.2441 121.4508 121.6840 113.9592 119.7129 115.4312 106.5180 108.9421 123.3695 120.0414 100.5592 102.6253 108.1150 115.4969 114.6605 112.3176 111.8764 112.4703 126.1216 125.4099 124.5951 123.2757 104.3800
119.3800 119.1888 118.7940 118.4046 118.0143 117.6046 117.1784 116.7425 116.2895 115.8284 115.3480 114.8675 114.3830 113.8520 113.5024 112.6502 112.7683 112.1889 111.8778 111.6581 111.6772 111.9533 111.5708 111.7772 112.0167 112.4035 112.8553 113.2463 103.7461 116.9619 107.0148 118.4469 116.4930 106.3930 108.3904 118.9006 116.7040 114.5169 116.2114 118.2613 117.7534 117.0117 114.9221 114.5771 104.6103 105.1607 111.7228 118.5004 122.7653 117.0625 116.6742 114.6984 106.7236 108.8175 106.2029 112.5407 119.5588 110.5871 125.0241 123.9242 124.4706 120.7007 125.2019 103.2800
119.3100 119.0155 118.6258 118.2257 117.8055 117.3658 116.9090 116.4396 115.9540 115.4536 114.9353 114.3976 113.8601 113.2941 112.7639 112.2242 111.6887 111.2973 110.9161 110.6370 110.4536 110.3851 110.5741 110.8076 111.1628 111.5776 111.9705 113.1481 111.4529 110.7157 114.6044 114.5219 115.4166 104.5204 118.5818 115.8849 115.5674 112.3933 114.2389 108.1890 96.9149 98.7066 99.1204 103.5931 107.1615 104.8164 122.5772 121.4655 121.5377 124.5314 116.5974 118.9428 99.8888 111.2181 107.8674 102.6909 110.1528 117.1227 123.2276 124.2648 124.4223 124.5916 125.7075 127.5200
119.2500 118.8417 118.4517 118.0278 117.5811 117.1269 116.6475 116.1502 115.6318 115.0917 114.5259 113.9399 113.3410 112.7597 112.1434 111.4654 110.8932 110.3309 109.8559 109.4984 109.2956 109.2692 109.7589 109.9019 110.1433 110.6555 111.2974 111.6283 113.1335 113.2750 110.4796 113.5941 116.9996 99.1309 114.3789 115.9876 118.1538 119.0970 119.2971 102.0406 100.0952 100.6323 101.4065 102.9993 107.5059 110.0210 122.2393 121.1286 120.5457 130.4610 116.5111 105.0364 104.6381 107.9448 109.3563 107.2512 107.2718 126.0832 123.7529 124.3472 124.4389 124.6804 124.8600 125.1000
118.8600 118.8279 118.2805 117.8547 117.3924 116.9136 116.4094 115.8821 115.3249 114.7479 114.1307 113.4990 112.7598 112.1381 110.1310 110.9462 109.9212 109.2695 108.6634 108.2012 107.9145 107.8635 108.0393 108.4606 109.0535 109.6969 110.4000 111.1575 111.7931 112.5833 109.7631 113.6375 110.9738 111.3411 110.3148 117.3763 116.5026 115.1379 107.4566 108.7649 102.3290 106.1098 114.5707 104.9757 108.9570 105.6812 121.2035 120.9507 121.3368 118.1070 123.0576 114.9255 110.2457 107.7689 105.6339 106.6149 106.9814 124.1655 123.6012 124.3393 124.5914 124.7975 122.0209 125.9200
118.8200 117.4948 118.2363 117.6929 117.2206 116.7179 116.1955 115.6313 115.0465 114.4259 113.7665 113.0669 112.3176 111.5075 108.7903 109.9443 108.9724 108.1202 107.3281 106.6865 106.2822 106.2262 106.5066 107.0645 107.8110 108.6558 109.5348 110.3964 111.2639 112.1750 113.0780 114.1554 98.6752 107.3307 97.8363 106.7066 116.9809 115.0311 108.6443 116.6343 98.9816 100.7840 110.7634 102.9897 109.7155 113.9061 121.1785 121.0876 121.2517 123.4484 111.7366 124.6362 106.8423 106.1362 98.5621 100.2301 98.4395 121.9658 123.5599 124.3086 124.5582 124.3902 126.6075 128.5600
118.7800 118.0047 118.0493 117.5532 117.0731 116.5528 116.0061 115.4197 114.8031 114.1476 113.4365 112.6774 111.8680 111.0400 110.2099 109.0151 107.9841 106.8757 105.8074 104.8913 104.2827 104.1823 104.6119 105.4377 106.4717 107.5648 108.6406 109.6871 110.5345 111.6985 108.9900 113.5731 94.9004 95.1063 106.4470 114.1563 115.6709 117.6243 114.0850 104.4250 105.5779 97.1928 101.3619 110.4041 117.5094 119.7383 120.4741 120.7578 122.9440 107.4142 103.9445 120.0420 106.8547 118.9589 111.4209 104.8501 102.2778 125.0697 125.0627 124.2144 124.4531 126.3009 112.4855 107.3400
118.7400 118.4387 117.9661 117.4464 116.9400 116.3929 115.8275 115.2564 114.6031 113.8978 113.1507 112.3394 111.4582 110.4619 109.4008 108.2415 106.9674 105.5621 104.1184 102.6935 101.6870 101.5137 102.2411 103.5618 105.0174 106.4511 107.7886 109.0035 110.0932 110.9993 111.8495 117.1991 96.9588 96.9088 117.0458 115.8188 116.2467 116.3821 99.7677 100.7602 117.7567 115.7848 116.7644 118.5227 120.2106 120.2677 120.7034 121.0636 118.6113 125.7585 101.5484 123.7506 103.8212 127.9170 105.9526 110.8546 116.1598 119.9771 116.1903 125.5186 124.1778 124.1317 125.5539 121.1800
118.7200 118.3015 117.8397 117.3651 116.8353 116.3179 115.7230 115.0602 114.3915 113.7030 112.9190 112.0605 111.1201 110.0733 108.8959 107.5548 106.0283 104.2594 102.2199 100.0431 98.1031 97.6653 99.2906 101.3939 103.5264 105.3944 107.0081 108.4040 109.6487 111.0712 108.5971 111.6786 103.9257 113.6482 114.7324 115.4462 117.0915 107.7415 102.0041 111.5815 118.7648 118.5625 119.1761 119.3566 119.7716 120.2064 120.1744 120.2299 129.1921 104.5205 107.7209 104.1582 110.6494 111.7283 109.6955 109.1779 114.8436 118.3930 111.9243 119.1031 124.9084 125.6789 119.4720 112.0600
118.7000 118.2592 117.7943 117.3063 116.7595 116.1410 115.7486 114.9571 114.3941 113.5686 112.7545 111.8625 110.8759 109.7584 108.4828 107.0137 105.2540 103.1065 100.3398 96.7562 91.9133 91.1344 94.6759 99.1642 102.1589 104.4987 106.3912 107.9588 109.3120 110.5141 111.3159 112.4244 113.7918 114.0155 114.7485 115.3817 115.7180 120.5679 102.5153 111.1205 117.7926 118.8955 118.9429 119.3723 119.7363 119.6889 126.5823 120.7048 109.9391 101.1723 107.0072 112.4583 109.3073 110.4371 114.1311 111.5989 119.2391 112.1708 124.6828 124.8127 113.5920 120.0578 118.2037 125.0200
118.3800 118.2309 117.7688 117.2735 116.6885 115.7384 122.7099 114.4645 111.8758 113.4800 112.6931 111.7507 110.7376 109.5823 108.2548 106.6867 104.7830 102.3550 98.9851 93.0851 86.8922 85.7024 90.0900 97.3715 101.2191 103.9377 106.0200 107.7143 109.1084 110.3181 111.2940 112.2093 113.0706 113.9896 114.7042 115.3552 115.8429 116.1226 104.6082 121.3942 99.6669 120.2284 118.8658 119.3445 119.7391 120.0426 120.3464 121.0088 122.2925 123.0088 123.9439 104.5710 114.7049 105.6897 121.4974 114.5974 113.4078 124.9789 123.7595 124.4735 125.0102 125.0111 125.0481 125.0200
118.3700 118.2291 117.7593 117.2704 116.6981 115.6575 121.6551 114.3130 114.1261 113.4386 112.6680 111.7422 110.7172 109.5616 108.2204 106.6419 104.7099 102.2390 98.7578 92.4507 85.5845 84.4528 89.2019 97.0898 101.0848 103.9744 105.9780 107.6291 109.0865 110.3021 111.3922 112.3672 113.1996 113.9586 114.6911 114.9210 115.6077 116.7833 105.0015 120.3800 103.8965 120.8822 118.8277 119.3293 119.7107 120.1254 120.5478 120.2395 122.4720 118.0366 123.2144 107.1703 113.8560 104.1790 119.5047 110.2959 125.1462 122.3889 124.0826 124.1520 124.2038 124.5028 124.8424 125.0200
118.6800 118.2576 117.7798 117.2901 116.7364 116.1381 115.1549 115.0239 114.2618 113.5417 112.7162 111.8160 110.8182 109.6905 108.3941 106.8805 105.0629 102.8076 99.8066 95.5280 89.8810 89.0647 93.0340 98.4690 101.7390 103.3490 105.6700 108.0573 109.2367 110.4112 111.4561 112.3811 113.2491 114.0194 114.7280 116.0664 117.7388 117.8391 105.0646 118.5281 119.3606 119.1468 118.9516 119.3607 119.7923 120.2728 120.3915 120.7278 124.5799 108.0830 124.0795 119.7742 120.1539 107.4061 111.6019 113.2077 124.1634 121.1933 123.9291 124.0857 124.4612 124.4984 124.4641 125.0200
118.6900 118.2614 117.8174 117.3449 116.8091 116.2958 115.7643 115.0442 114.3856 113.6506 112.8630 111.9902 111.0301 109.9589 108.7466 107.3575 105.7439 103.8479 101.5706 98.9890 96.2677 95.6181 97.9410 100.4972 104.0094 106.0026 109.9093 109.4281 109.5438 110.6072 111.6397 112.5339 113.3020 114.0721 114.7866 114.4030 113.9217 116.2799 109.4615 113.0388 117.9182 118.4776 119.0106 119.4037 119.7104 121.0026 120.4851 120.8386 120.8316 122.7406 122.5365 123.9021 124.3348 125.6816 112.7349 125.1647 124.0930 123.8894 124.2476 124.1639 124.4318 124.5129 127.4331 125.0200
118.7100 118.4763 117.9157 117.3987 116.8814 116.3533 115.7868 115.1911 114.5341 113.8336 113.0666 112.2396 111.3362 110.3465 109.2360 108.0148 106.6448 105.1297 103.4959 101.9438 100.6465 100.4377 101.3197 102.8187 104.0349 104.5138 106.5364 99.7141 111.2023 111.1954 111.9468 112.8023 113.7395 114.5198 114.7769 115.6217 106.0101 115.9052 112.1917 118.7007 118.1773 118.6701 119.0595 119.4460 119.8484 120.1195 120.5506 120.8995 121.3016 121.4374 121.6096 121.7159 122.1169 122.1225 123.8976 123.0710 123.3447 123.6996 123.8979 124.2035 124.4344 124.6073 128.1064 130.5600
118.7600 118.0867 118.1779 117.6251 117.1721 116.5391 115.9367 115.3424 114.7256 114.0609 113.3339 112.5561 111.7237 110.8195 109.8356 108.7780 107.6350 106.4394 105.2533 104.2071 103.3876 103.2735 104.2144 104.3872 107.5503 120.4362 116.9016 93.7826 99.0952 110.7823 112.0915 113.0636 113.4693 112.8276 114.7046 116.4406 117.4355 117.6929 117.7154 117.7254 118.1027 118.7250 119.1191 119.5191 119.9023 120.2824 120.6271 120.9162 121.2859 121.6807 121.1085 123.9937 122.3027 122.7753 122.5345 123.0431 123.4934 123.6282 124.0277 124.2426 124.4634 124.7078 124.4849 125.0300
128.1200 120.0067 116.6011 117.4198 116.6683 116.7487 116.1871 115.6487 114.9992 114.3338 113.6517 112.9350 112.1737 111.3577 110.4898 109.5837 108.6513 107.7173 106.8979 106.0456 105.9954 105.9498 105.8215 108.6627 103.3136 107.1608 92.5595 90.7446 98.9868 113.7828 112.7068 113.3373 116.5371 122.8519 118.3400 103.4523 117.0264 116.5115 117.1056 117.3898 120.4013 118.6451 119.2431 119.6033 119.9719 120.3261 120.6610 120.9691 121.3779 121.7700 123.5892 127.2146 123.4225 123.1214 124.3525 124.0387 123.7897 124.5415 123.9985 124.2539 124.4876 124.6951 124.9874 125.0400
118.8400 118.6985 117.9504 119.4966 119.7618 116.9047 116.0851 115.6081 115.2978 114.6294 114.0057 113.3494 112.6514 111.9307 111.1826 110.4078 109.6341 108.8827 108.2365 107.7909 104.3828 99.9735 109.1146 105.5265 86.6806 99.9961 109.1549 111.1998 110.2640 111.2028 112.8669 113.8092 114.0262 112.8746 112.5300 113.3760 116.6206 117.1789 118.2917 120.4449 119.9123 118.7712 119.3373 119.6976 120.0715 120.4180 120.8075 121.2405 120.3177 129.5981 110.9945 122.1822 112.3986 123.0949 109.2464 116.2386 123.0217 116.7545 124.5194 124.3363 124.5067 124.7738 124.9726 125.0500
119.1700 118.8021 118.4854 118.4769 117.5749 117.1449 116.8325 119.4078 115.3321 114.9583 114.3979 113.7886 113.1614 112.5220 111.8653 111.2069 110.5848 109.9773 109.4712 109.0806 108.9450 109.0420 109.1926 109.7497 99.9863 105.5737 109.3571 110.0186 109.4177 113.2779 113.6508 114.1267 115.1873 110.7569 114.9363 116.4107 117.1293 117.3864 117.4519 119.5277 107.4862 119.8874 119.4614 119.7919 120.1346 120.5093 120.6942 120.8559 123.4054 130.8302 107.4649 107.0174 106.5324 108.0281 121.7691 119.4377 123.8715 123.2707 124.1871 124.3441 124.5433 124.7304 124.6891 125.0600
119.2300 118.9667 118.5848 118.1159 117.7202 117.3191 116.7282 116.3625 115.8874 115.3228 114.8002 114.2423 113.6894 113.1124 112.5358 112.0280 111.4117 110.8729 110.4227 109.9808 109.9210 109.9209 110.0446 110.7063 111.0537 114.8555 111.2906 112.3627 113.1020 112.2918 109.9504 114.9665 115.0971 115.8517 123.9717 105.8221 118.1018 117.0851 118.0613 118.5275 118.3092 119.2285 119.6167 119.9033 120.2789 120.3913 122.4289 124.5374 123.9005 105.1265 108.3594 107.3358 113.4598 111.3719 124.8665 123.7923 113.9709 119.4692 124.2234 124.4435 124.6043 124.8210 125.0176 125.2200
119.2900 119.1274 118.7427 118.3478 117.9462 117.5218 117.0891 116.6262 116.1767 115.7358 115.1992 114.7153 114.2107 113.6880 113.2467 112.3693 112.2846 113.1219 111.1553 112.8043 111.3194 111.2570 111.3275 110.5984 110.1463 112.1743 112.5892 112.9552 113.5453 113.9003 114.7801 114.9918 115.5964 115.4114 115.9761 102.2871 111.1840 118.0973 118.2399 118.4845 118.9238 119.2852 119.7274 120.0646 119.9795 122.0405 120.5486 121.2808 105.4707 106.7364 104.8223 124.0451 119.1273 123.2172 123.8716 123.5547 124.0009 124.8417 124.6362 124.7279 124.6765 125.0115 124.9846 125.2300
119.6100 119.3095 118.9439 118.5725 118.1852 117.7746 117.3740 116.9414 116.5549 116.0429 115.6615 115.1701 114.7277 114.4671 113.8721 113.0020 113.3726 99.7084 102.8098 104.8548 113.3950 111.6621 112.2013 112.3374 112.7726 112.9541 113.3181 113.6971 114.1168 114.5632 115.0209 115.4516 115.9026 116.2245 118.5968 117.2555 102.7751 119.0300 118.1738 118.8417 119.2065 119.5421 119.9236 120.4432 120.4592 135.3602 110.3218 117.4500 120.8006 107.4622 104.4625 107.6838 137.3687 121.8469 121.7998 122.8476 123.3324 127.9223 130.2325 121.4572 124.9375 122.5878 125.7106 125.2500
119.6900 119.4986 119.1560 118.7922 118.4190 118.0581 117.6679 117.2272 116.9834 112.9620 116.1069 115.6579 113.8377 115.6113 116.9207 114.0244 115.0363 106.7479 107.7488 92.5457 114.6450 116.4165 112.8146 113.2651 113.3496 113.6395 113.9413 114.3939 114.5798 115.0934 115.4864 115.9122 116.4083 116.6541 116.0923 97.3081 110.1288 118.9079 118.7107 118.9978 119.3605 119.6890 119.7124 119.1415 130.6158 116.7012 102.7452 107.5843 108.3871 111.9703 108.7355 107.8412 108.8177 111.1377 112.5273 116.1622 122.9833 124.6949 116.8741 115.4730 126.3212 114.8919 123.2698 125.2700
120.0700 119.7027 119.3699 119.0273 118.6755 118.3037 117.9403 117.6478 117.2348 117.0802 112.0816 117.7895 113.3420 115.9130 116.8298 114.4310 114.3291 114.9244 114.7323 109.2866 116.0670 117.6409 113.8108 113.9352 114.4193 114.5575 114.7277 114.1048 116.2554 115.3731 116.0003 116.3145 116.0659 117.4932 110.5576 100.8493 119.3667 118.2659 119.0012 119.2365 119.5809 119.9922 120.8810 123.5016 119.3401 106.2370 112.1256 108.6799 108.8928 113.8280 114.3192 113.3913 119.2964 112.5498 111.7683 119.9521 122.6018 127.8365 122.3269 127.1181 121.5569 127.3024 118.2162 125.4400
120.0700 119.9067 119.5838 119.2622 118.9269 118.7239 117.9558 117.9246 117.4449 118.0427 109.2136 115.9892 116.3093 109.7247 112.8646 115.2049 115.4443 114.1389 114.5227 114.9920 115.0850 114.1528 114.3917 114.6191 112.6079 112.1640 115.3184 115.1163 123.2073 116.5040 116.3521 116.9185 116.3071 118.3061 103.1968 110.3703 119.8464 118.7663 119.1214 119.4744 119.7904 119.9585 116.9900 125.6250 105.4553 108.5813 125.6484 114.7403 113.6877 107.9522 112.4873 112.8283 112.4831 117.1032 128.0854 123.1245 123.8320 124.5353 124.7495 125.1993 115.9055 114.9170 126.0063 125.4400
120.4500 120.1190 119.8321 119.5195 119.1974 118.9451 117.2364 118.1199 117.9121 117.4317 117.3075 117.7760 116.6213 114.8697 117.1874 115.2160 111.5876 117.4199 115.7171 115.6800 103.1789 112.8977 115.6783 115.1192 115.4261 115.0127 115.8863 115.6020 116.2789 116.6320 109.4971 116.9292 99.7872 118.2798 102.7642 119.7938 118.1771 119.1680 119.3748 119.6978 120.0275 120.3649 123.7471 109.3529 109.9240 120.8027 120.0520 111.8038 118.2813 104.9407 102.8442 111.7515 111.9036 119.0763 104.6908 115.9801 121.5061 120.0775 120.0701 124.6029 121.6984 125.0669 123.9183 125.4900
120.4500 120.3434 119.9296 119.6641 119.5075 119.1416 119.0323 118.7468 118.2780 118.0130 117.6186 117.3541 117.1312 117.1107 116.4751 111.6520 115.0495 100.7519 115.7216 116.0732 93.7970 94.1800 117.8846 115.6994 115.9896 116.2250 116.2743 116.5470 116.7898 117.2460 119.3154 118.3974 119.0788 117.9419 99.3788 119.6451 118.9186 119.3472 119.6489 119.9433 120.2262 120.2108 121.0571 114.9456 120.2027 111.4038 120.3909 117.6637 109.8457 113.1164 110.9957 115.7874 119.7546 121.9220 118.1472 122.3171 124.8486 116.3261 115.1048 118.8050 125.5382 121.3152 127.3606 125.5100
120.8300 120.5513 120.5702 120.8048 119.6386 119.4528 119.1650 118.8958 118.6105 118.3610 118.1106 117.8397 117.5841 117.4001 116.6410 116.9308 129.1347 113.6263 116.9391 116.6983 115.4862 114.7692 116.8420 116.4080 116.5966 116.7420 116.8945 117.1785 117.0438 121.7216 112.8605 117.4764 118.3755 118.7535 116.8408 119.0061 119.2363 119.6294 119.9071 120.1833 120.4522 120.7608 125.4143 123.7572 121.8429 107.7058 112.4178 103.0995 110.2698 114.4851 110.8562 122.0578 125.0247 124.0816 123.6902 121.8091 124.6869 123.9253 122.9611 117.6692 117.3668 123.2784 125.3597 125.6700
120.8700 120.7988 120.5082 120.6362 119.9858 119.7390 119.4799 119.2161 118.9650 118.7106 118.4700 118.2359 118.0158 117.8080 117.6551 116.7501 116.8058 117.1583 117.0506 116.7920 116.8864 116.9207 116.8067 117.0094 117.1184 117.2533 117.4455 116.5080 117.0728 116.3350 106.5446 118.9973 118.4968 118.7866 119.3894 119.2893 119.6678 119.9051 120.1578 120.4179 120.6049 121.4916 108.8519 119.4453 121.5323 124.5075 109.7020 107.5728 111.3626 105.7001 113.1323 117.6224 116.6267 123.7202 123.5597 121.3473 124.5308 124.7209 124.7371 124.7326 124.1587 125.8948 125.9978 125.7000
121.2000 121.0069 120.7496 120.4979 120.2662 120.0209 119.7618 119.5293 119.2968 119.0714 118.8464 118.6393 118.4229 118.2338 118.0095 117.9988 117.8737 117.6457 117.6206 117.5990 117.5314 117.5437 117.5788 117.5722 117.6231 117.7475 118.2789 118.5366 117.6150 119.5132 105.0231 119.8652 118.9251 119.2392 119.4403 119.6821 119.9334 120.1646 120.3996 120.6735 120.9961 121.0410 119.7982 103.8966 117.8672 118.9816 105.9273 103.9000 116.2251 110.6690 120.8016 107.2899 122.7274 127.7220 123.7194 124.1852 124.4864 124.7064 124.8950 125.0948 125.6084 125.6069 130.8129 125.7200
121.2800 121.2233 120.9916 120.7862 120.4902 120.3032 120.0812 119.8429 119.6299 119.4136 119.1975 119.0126 118.6865 118.6884 118.4662 118.3425 118.2002 118.1283 118.0322 117.9647 117.9472 117.9334 117.9581 118.0173 118.0829 118.2446 117.9343 124.0971 119.2408 118.8550 119.1507 119.1188 119.2961 119.5528 119.7603 119.9808 120.2408 120.4064 120.5564 120.3100 121.1310 121.1435 122.3346 108.4047 106.1261 107.2581 111.3113 109.5603 100.3632 117.2352 126.7749 115.0849 114.5780 121.2633 124.3680 124.4603 124.6046 124.8101 124.9999 125.1975 125.3680 125.2766 125.9894 125.8800
121.5600 121.4539 121.2369 121.0239 121.0701 120.6062 120.3839 120.1429 119.9471 119.7358 119.5710 119.2868 120.0688 118.7245 119.2717 118.8295 118.6617 118.5669 118.5016 118.5011 118.4705 118.4298 118.4410 118.4779 118.5503 118.5743 118.8340 118.3579 118.6319 119.2583 119.3269 119.4600 119.6821 119.8592 120.0777 120.2770 120.4788 120.8617 117.0844 118.7074 121.3985 121.9551 115.4960 113.6318 123.7952 115.3731 108.7514 111.2634 111.7953 122.1600 122.6496 116.8194 114.6516 114.6684 123.3879 124.3543 124.6727 124.9104 125.0941 125.2726 125.3983 125.7746 125.5834 125.9100
121.8400 121.6805 121.4713 121.1818 121.7558 123.3086 120.5656 120.4697 120.2224 120.0721 119.8141 119.6147 120.0033 113.0459 120.3746 119.2132 119.0690 118.9918 118.9441 118.5955 118.6533 118.8156 118.8854 118.9384 118.9633 119.0485 119.1131 119.2357 119.4435 119.4021 119.6382 119.8900 120.0320 120.1177 120.3831 120.6192 120.7706 121.7483 112.5746 117.4338 121.8436 118.9769 122.5623 113.2625 103.1948 108.7721 106.9732 121.0463 116.3435 114.1369 116.1492 122.5787 114.3179 114.4981 112.1370 125.6419 125.0424 125.0047 125.1955 125.3821 125.3953 125.4465 109.3735 109.6500
121.9200 121.9085 121.6856 121.6569 120.0388 118.9263 120.9158 120.5965 120.2347 120.4517 120.2163 121.3969 107.9498 102.4979 119.8850 119.5810 119.4691 119.4066 119.2324 121.0365 120.0260 119.4189 119.2965 119.1841 119.3846 119.4382 119.5341 119.6438 119.6719 119.7422 120.2002 120.1827 120.0262 120.7684 120.2407 120.8055 121.0529 121.1719 122.5928 122.8211 117.4378 108.8853 121.4207 122.3326 108.0375 111.3841 115.7780 113.6788 115.1266 110.5656 115.7144 111.5999 115.9956 120.9524 119.2988 121.8921 122.5056 124.9157 125.2464 125.4893 125.4450 126.8526 125.1800 126.1000
122.1900 122.1205 121.9494 121.6823 121.9105 121.4534 121.2490 121.7265 122.1619 117.0035 120.3845 122.5628 99.9195 123.4661 119.7971 119.9138 119.8337 119.6856 121.6364 103.6421 124.2592 119.8245 118.5836 120.3450 119.7475 119.8144 119.8984 119.9962 120.3075 117.7365 120.3433 120.3040 120.8116 117.9462 124.4256 121.0813 121.2956 121.5071 121.4398 122.8414 119.9289 112.5914 113.6677 116.3885 105.0502 110.8106 113.7222 107.8457 120.7552 108.3953 127.5288 120.5432 122.4269 121.7934 125.5506 118.4419 117.8523 124.4910 125.5641 125.2028 124.6449 124.7898 106.4000 126.1300
122.5200 122.3542 122.1680 121.9991 121.7525 121.6228 121.2982 120.9413 118.6279 112.9392 130.7790 107.0570 108.3601 121.9033 120.2612 120.2701 120.3741 119.9511 122.9702 97.5209 106.5770 119.5001 119.5144 110.9573 121.0461 120.0692 120.2353 120.3850 120.3828 121.6624 120.7015 122.7258 120.8645 118.4268 119.1750 121.5916 121.2926 121.4933 121.7448 125.4135 115.7943 109.8907 104.7518 103.8843 105.1040 115.4206 119.9881 117.4821 113.1587 113.9318 127.2216 124.6682 120.6033 124.7343 124.6507 125.9715 124.4392 125.9360 122.8867 125.5462 129.9336 119.2704 117.4119 126.3200
122.7700 122.5700 122.4019 122.2297 122.0589 121.9531 121.7868 121.2598 121.6591 120.4057 123.2401 87.3600 122.7550 120.0499 120.7594 120.7206 119.3358 121.6050 107.9355 117.2421 118.8614 122.0138 123.2891 113.0115 120.5638 120.3450 120.6960 120.6311 120.8380 121.9373 99.9618 116.4601 120.5311 120.8138 105.8645 126.0854 120.8866 122.0059 123.5050 112.5384 101.6394 110.5720 106.5041 99.7238 110.0551 124.5965 123.9261 124.2589 112.7501 115.1915 118.8734 120.3006 122.2990 124.9279 124.8259 124.8315 125.2205 125.6530 122.9137 127.1513 111.5280 114.0615 125.1603 115.2900
123.0000 122.7882 122.6249 122.4642 122.3086 122.1332 122.0068 121.8568 121.6433 121.6774 121.6497 111.4431 121.3895 121.1617 121.6302 121.2707 116.8920 105.7059 114.0850 121.0006 120.6472 121.4473 97.8070 99.0491 103.3551 121.8461 120.9389 120.9840 120.7566 124.2202 100.4367 108.5127 118.2003 114.5522 108.7412 105.1161 116.1733 122.3495 121.3695 104.6380 108.9902 116.0081 114.4370 104.4804 119.6245 123.7086 123.2319 125.0942 122.7651 100.9105 103.4140 118.2347 124.9780 124.8921 125.1753 125.1707 125.4653 125.2559 128.1228 111.0277 120.6761 106.3755 119.2028 127.8000
123.0500 123.0094 122.8521 122.6934 122.5491 122.3962 122.2558 122.0992 122.0215 122.2721 108.2168 118.5008 121.9929 121.4570 121.4039 100.9173 108.3765 111.8266 118.7360 121.2215 121.0676 121.1842 122.9514 101.7736 125.5854 121.6766 121.2509 121.3197 121.0372 120.0784 104.6696 101.3131 111.1820 108.8735 117.3176 107.3810 123.2573 117.8388 115.1695 104.2239 112.7325 109.9598 120.3201 106.1091 117.8682 123.9076 125.8658 112.1387 112.5864 116.8964 109.2067 117.0357 125.3612 124.7229 121.4403 126.4467 125.4985 125.6162 125.6855 124.7544 127.7813 127.2412 127.1309 126.5500
123.3200 123.2196 123.0681 122.9247 122.8155 122.6495 122.5108 122.3603 122.0506 122.9500 115.8007 108.1590 122.7469 121.7143 122.6611 124.0775 110.7476 120.5325 118.6288 121.3772 121.5058 121.5025 122.4763 106.8764 122.5045 120.9096 121.5684 121.4910 121.8225 122.6841 121.7444 106.0385 107.6907 110.6996 111.6879 99.5033 108.2744 114.0468 119.9378 122.6015 115.8576 108.7518 121.9257 109.3022 111.5202 112.2316 116.6627 126.7420 111.0531 123.9225 108.3063 125.5183 115.7321 126.4683 125.1868 125.5615 125.6511 125.8221 125.9429 126.1674 126.0955 126.2399 126.7165 126.6900
123.5700 123.4284 123.2868 123.1465 123.0329 122.8360 122.7471 122.4523 123.0855 111.1649 105.1304 114.3411 122.7410 122.5567 121.7254 119.3815 95.9478 120.9132 115.3594 121.8892 121.6505 121.7471 121.8175 123.2032 123.0935 121.7039 121.9692 122.6738 121.9153 122.1220 103.6116 119.4898 109.7382 111.5808 101.7842 107.4715 109.7212 123.0755 123.1248 123.6634 123.3530 123.1170 125.6359 111.5311 112.2556 121.6598 124.4249 124.6878 122.7736 118.1275 106.1220 109.5825 113.7663 119.1665 125.9140 125.5321 125.7944 125.9213 126.0834 126.1967 126.3466 126.5145 126.6604 126.7300
123.8100 123.6387 123.5007 123.3660 123.2246 123.0282 122.9335 122.4571 121.8707 103.7774 103.1160 99.5960 111.5783 120.4589 115.6358 115.3396 97.2523 121.4689 121.7963 121.7626 123.0088 121.8950 121.5894 121.4762 121.9244 122.1085 122.2334 116.1164 122.6847 122.5058 123.0393 113.7623 105.4830 110.2461 101.5960 104.2708 108.3250 123.2723 123.3204 123.4995 122.8925 126.9846 108.4968 102.0795 112.2687 112.7175 122.4907 123.9090 125.1708 108.8215 119.3441 125.2676 108.6238 122.1158 125.8400 125.7882 125.8916 126.0517 126.1837 126.3248 126.4786 126.6305 126.7106 126.8800
123.8100 123.8383 123.7074 123.5767 123.5764 123.1561 123.6856 118.5527 119.9918 99.6273 103.9676 101.0858 113.0914 110.6185 108.6662 108.7825 124.4903 103.1864 124.2310 122.6393 123.3530 122.6707 123.6012 125.8601 120.6636 122.6939 122.5711 124.2059 119.2479 120.7192 119.9922 104.3193 109.0266 107.6938 116.6577 105.6210 120.2989 123.2359 123.6614 123.5977 123.7943 116.7738 109.6176 100.8983 117.9880 124.8434 125.5848 124.1027 126.9829 125.2698 125.4379 125.3145 126.8767 127.6392 125.4479 126.1640 126.1676 126.1742 126.3050 126.4265 126.5756 126.9766 127.3964 126.9200
124.0600 124.0402 123.9273 123.8033 123.1574 124.0209 108.3143 117.4696 105.5017 101.9089 106.6074 97.9679 122.0550 124.9926 109.4310 108.0115 124.4903 121.0865 121.9230 122.0544 122.0392 122.0614 117.6886 106.3542 109.9076 123.0619 124.0299 115.9730 103.5926 106.1188 123.6015 113.2088 107.5005 122.4502 115.5139 105.8023 113.5977 122.8028 123.5683 124.5775 123.7442 124.3937 114.6871 107.1611 127.6879 124.1569 124.6397 124.9545 124.9847 125.0127 125.0762 124.9936 125.3151 125.6071 126.0034 122.6480 126.7484 126.1458 126.0332 126.6331 126.5948 127.8738 122.2118 127.0700
124.2800 124.2351 124.1217 123.9938 123.7326 132.4124 112.2464 119.1153 104.2648 107.1745 100.5244 116.6242 123.4456 124.4357 109.6093 108.6304 123.3056 123.0295 123.6449 123.9483 124.1453 124.2796 115.3069 119.1005 122.4472 107.1228 120.6308 112.0353 105.7691 108.1816 122.6143 122.7547 124.0833 109.6953 112.5790 124.4234 120.3394 129.4788 125.6942 117.9119 125.7293 123.5809 118.6629 103.0811 125.9645 124.8429 124.9224 125.0389 125.2558 125.3771 125.5357 125.6208 125.7794 125.8662 126.4937 124.7828 122.9465 128.2025 126.6526 126.6846 126.7399 126.3611 120.2487 127.2500
124.5400 124.4309 124.3265 124.2168 123.8712 124.0434 125.2997 118.2828 111.9681 125.1459 106.7596 118.4527 123.4501 124.4636 110.6918 108.7008 124.3256 123.4942 116.7772 123.2980 108.7596 120.7415 108.7612 123.0853 99.2148 113.6742 123.2437 108.0505 100.9311 107.2263 122.1536 123.8097 124.4865 113.0964 118.7377 110.1573 110.1907 114.4122 116.1442 103.8058 110.1456 116.6015 113.7623 103.4917 127.1183 124.8908 125.1007 125.2338 125.3600 125.4732 125.5970 125.7472 125.8612 125.9987 126.0782 126.7408 119.9013 109.9462 127.1530 126.7596 126.9496 126.8449 125.7021 127.2500
124.5400 124.6265 124.5307 124.3900 124.3631 124.1717 123.0771 112.4090 124.1259 119.7992 120.3381 117.6073 124.3341 118.3850 105.8012 113.8486 124.0130 124.1175 111.2372 124.2120 121.5823 124.0413 97.3357 121.9622 98.9412 99.9264 117.7070 112.9194 101.9983 108.3581 100.8570 124.2394 123.7280 124.9823 115.8368 102.0208 112.3510 109.5776 103.8071 110.2715 107.3948 124.3097 110.6327 106.3743 118.2723 124.9170 125.3292 125.3941 125.5203 125.6369 125.7638 125.8922 126.0229 126.1404 126.3254 126.3713 126.7666 127.8642 127.0819 126.9189 126.6449 135.6993 130.9501 127.4300
124.9400 124.8197 124.7116 124.6392 124.5066 124.3838 124.7830 118.7620 110.4348 111.7635 112.5161 125.0062 123.5863 125.4189 110.1611 122.7878 123.3875 122.3769 105.6344 102.1795 125.2636 124.7202 97.0629 121.2101 105.8984 112.0347 109.7239 106.1999 106.1587 104.5867 106.1189 125.9075 123.9960 124.7060 117.3555 103.3201 104.4109 106.0079 103.6183 125.6076 111.1523 104.1351 103.0792 129.2065 118.1678 126.1308 125.3315 125.5733 125.6784 125.7928 125.9136 126.0334 126.1540 126.2750 126.3992 126.5405 126.0911 126.4784 126.9473 126.9366 126.6870 130.1410 108.7445 113.4500
125.1300 125.0059 124.9116 124.8108 124.7360 124.8264 124.5853 125.8905 124.4386 116.7063 108.8783 125.2360 125.2783 126.8845 123.4457 124.6024 124.6983 124.4710 110.2545 123.4745 122.6019 125.2563 108.9759 125.1617 123.5741 119.7960 103.7835 105.3389 110.3210 106.9223 108.0517 124.9814 124.2990 124.8052 117.6988 119.8813 115.5678 114.1204 114.0765 124.8993 127.0813 110.6681 116.9740 125.0940 125.4820 125.6450 125.6657 125.7032 125.8336 125.9430 126.0678 126.1757 126.2915 126.4090 126.5357 126.6634 126.7696 126.8853 126.8557 127.8100 126.9978 127.3614 124.8329 107.0900
125.3500 125.1946 125.0959 125.0255 125.0555 121.2528 124.6909 124.3666 124.5594 109.3949 107.3746 128.2473 103.9834 114.3276 113.2001 123.3506 115.3443 124.3432 111.6882 122.7233 122.8513 125.2472 99.2699 119.4438 124.0918 106.5556 104.9661 105.3461 110.4724 109.8189 109.2968 119.6641 125.0513 125.6257 115.6179 121.6975 109.9920 113.2930 126.4758 125.3849 116.0482 115.1939 127.0796 127.2393 124.5294 125.5138 125.7644 125.8844 125.9897 126.0907 126.2060 126.3216 126.4364 126.5513 126.6745 126.7701 126.9133 126.8484 127.3807 127.0098 118.3423 125.2679 129.0778 127.6300
125.3500 125.3785 125.2811 125.2003 125.3982 124.5181 125.1666 124.8481 124.5825 106.8656 108.9736 120.4813 124.0761 115.5264 122.2167 123.0071 121.5954 125.1947 108.7751 103.1305 120.0541 123.7211 104.9151 117.1489 116.4296 109.4942 103.8642 102.8040 110.7765 108.1033 114.8480 118.2168 125.3466 126.2415 111.7154 126.2580 124.7591 118.9350 124.9788 119.2908 122.9393 110.2105 107.9616 113.1855 126.9220 125.8393 125.9799 126.0396 126.1354 126.2449 126.3578 126.4616 126.5755 126.6756 126.8249 126.8803 126.9939 127.5590 123.4880 125.9757 127.8079 112.3381 111.4634 117.2200
125.5500 125.5524 125.4614 125.4067 125.2630 125.2875 125.1768 124.5273 123.6195 113.3474 110.4641 103.0880 114.1861 116.3410 122.1985 124.7146 124.3258 122.6242 108.7828 106.4140 114.6317 100.8626 107.7139 101.2120 102.9654 106.7713 108.1509 102.4513 111.2207 106.8489 119.4658 127.3845 124.4652 119.1445 127.0914 125.0615 126.4198 122.9632 113.4881 112.3577 115.8813 103.2443 106.2941 109.3620 125.3578 126.3534 125.9870 126.2044 126.2870 126.3914 126.5008 126.6052 126.7094 126.8241 126.6805 127.2136 127.1714 127.2640 127.2350 127.6533 127.7115 127.2474 108.8562 107.6900
125.7400 125.7336 125.6479 125.5611 125.4966 125.4076 125.3460 124.9912 116.0028 114.9075 124.1131 115.2632 124.0730 115.8835 121.8859 124.0684 125.5424 124.1637 119.9373 111.3246 113.2571 102.9202 110.5135 103.2509 102.8489 106.6574 108.9754 104.9324 110.8147 126.8569 112.8831 124.3011 126.0016 123.3819 125.3442 125.2878 125.4645 109.4563 121.2211 125.7390 128.8241 107.1549 109.5617 116.1305 117.1693 126.7587 126.0647 126.3550 126.4354 126.5418 126.6369 126.7520 126.8129 127.3029 125.5165 124.3474 127.3114 127.3315 127.4756 127.6635 128.1221 125.4180 116.7374 121.8700
125.9200 125.8689 125.8207 125.7499 125.6666 125.6026 125.5323 125.6801 125.5051 119.4135 124.9334 125.4481 124.3771 118.2290 129.2753 98.4504 115.4482 121.0921 113.7084 128.1290 117.4719 106.3688 109.8858 103.8810 102.9898 107.6287 110.1157 107.4483 122.2539 115.6398 124.4529 125.6905 125.2443 125.8392 125.3914 125.4061 125.8449 126.1405 115.3664 125.8835 118.5921 105.2629 109.3948 123.3755 124.7073 127.1199 126.4404 126.4790 126.5884 126.6859 126.7820 126.8799 126.9816 127.0599 127.1870 127.9801 127.3616 127.5323 127.4906 128.1020 125.8812 121.8209 112.0814 109.9000
126.0900 126.2353 125.9612 125.9280 125.8528 125.7866 125.7252 125.4683 125.5467 126.0521 125.4654 122.8233 103.7841 118.5799 108.7883 110.0004 112.6758 111.1218 117.1471 123.2033 101.2024 105.5799 108.9676 107.0570 104.7940 105.2366 110.2870 108.2199 115.1735 118.4261 123.3093 126.0525 125.5912 125.4931 125.6768 125.7399 125.6552 125.5345 116.2239 120.9759 120.5066 126.3405 103.1341 124.1593 126.0084 126.2005 126.5749 126.6387 126.7364 126.8340 126.9297 127.0214 127.1215 127.2239 127.1117 127.1573 127.5276 127.5525 128.2514 123.8168 115.8549 126.2025 115.7066 117.9700
121.9000 126.1500 126.0500 126.0900 125.9800 125.9800 125.8700 125.7500 125.7800 125.6400 125.6700 119.2700 125.5600 106.8900 103.6700 119.1900 103.4700 103.4700 125.3100 125.3100 103.3200 105.7000 108.4400 108.6100 105.1000 105.5500 110.8000 111.0500 110.5600 112.7600 110.1000 125.6700 126.0600 125.7700 125.7500 125.8600 125.8600 125.9800 126.0800 117.7600 126.1900 126.2900 111.2300 111.2300 126.4700 126.5600 126.6800 126.7600 126.8600 126.9600 127.0500 127.1500 127.2600 127.2400 125.8300 127.5200 127.6200 127.7300 127.8000 120.8500 124.8400 109.5800 115.6800 117.9700
