126.2400 126.2400 126.1400 126.0300 125.9300 125.9300 125.8100 125.6900 125.6900 125.6000 125.6000 125.4900 125.4900 125.3700 121.1200 125.6300 125.2500 125.2700 125.2800 103.1100 119.3500 119.8600 119.3400 125.1300 125.1300 125.1200 125.1100 122.5800 111.5800 114.7200 110.4200 112.2600 110.4500 104.6200 110.8700 125.4500 125.5800 125.5600 125.7100 125.7900 125.7900 125.9100 126.0100 126.0100 126.1200 126.2100 126.3500 126.4400 126.4200 126.6600 126.6300 126.7500 126.8400 126.9500 127.0400 115.0200 113.0600 127.3400 127.4600 127.5300 127.7500 127.7500 127.9100 127.9100
126.2200 126.0973 125.9777 125.8898 125.8281 125.7471 125.6655 125.5956 125.5285 125.4619 125.4023 125.3485 125.2900 125.2464 125.1885 125.6544 125.1290 125.8743 112.0778 102.6025 115.4134 119.3038 121.3454 125.5259 126.4313 125.4281 122.7373 105.9331 103.4467 112.5454 107.7194 111.3335 121.8363 96.1945 110.3650 120.6420 126.0944 126.1195 125.7319 125.4884 110.8336 125.0108 125.8821 125.9392 126.0451 126.1104 126.2063 126.3001 126.3909 126.4926 126.5690 126.6520 127.4833 130.3993 120.4696 118.5242 128.3524 123.9548 123.9915 128.2246 128.7951 127.6704 127.8536 127.9100
126.0500 125.8879 125.9035 125.7205 125.5788 125.5130 125.4749 125.4041 125.3378 125.2711 125.2081 125.1466 125.0951 125.0412 124.9876 124.9049 124.7000 123.9502 107.8110 112.5310 109.7968 120.4203 115.9255 123.3363 113.7323 127.9851 107.8438 104.6446 103.2383 107.5853 103.7559 102.8156 105.4692 114.2663 125.7222 110.0591 129.1453 121.4459 123.8337 125.4534 121.1129 126.1074 125.6553 125.7742 125.8186 125.9569 126.0455 126.1438 126.2370 126.4505 126.4215 125.6240 126.5031 118.3292 111.7234 111.7116 124.6764 127.5816 122.5255 127.4627 127.4993 127.5841 127.6914 127.7400
125.8700 128.2816 125.4641 125.7769 125.5204 125.7061 124.9975 125.2455 125.1390 125.0738 125.0026 124.9417 124.8866 124.8312 124.7901 124.7490 124.7349 124.7471 124.8471 126.5986 97.2684 124.8966 120.2349 127.1138 124.2115 110.3304 127.3635 106.1447 111.3491 107.5263 104.8666 106.1708 104.8236 126.4946 127.4024 126.5824 121.9654 116.5878 125.5627 125.4289 124.8494 125.1204 125.7644 125.4983 125.7079 125.7924 125.8818 125.9734 126.0614 126.1656 125.7412 129.0440 129.3817 112.8039 123.9226 125.0184 124.6016 128.0880 127.3271 127.2727 127.4117 127.3567 127.5867 127.6000
125.6800 126.7142 124.7298 121.6734 123.5126 122.3839 126.3687 124.8692 124.9407 124.8700 124.8022 124.7369 124.6807 124.6332 124.5578 124.5148 124.4624 124.4573 124.8142 122.1848 99.5977 125.4848 117.8126 120.5028 119.9186 117.5615 114.7908 110.7915 109.7709 107.6445 111.8354 109.1493 102.4425 126.5763 124.1848 124.7599 124.3635 126.0410 124.9606 124.9013 126.0328 125.1880 124.5260 124.5041 125.5166 125.6241 125.7154 125.8167 125.9398 126.0602 127.1556 119.3674 108.9059 109.7809 126.7367 127.1823 125.9503 122.1363 127.3346 126.7546 127.9012 127.4012 127.4763 127.5500
125.4800 124.6770 126.4315 124.6783 124.5405 120.0154 124.2942 124.7545 124.7453 124.6686 124.5945 124.5219 124.4587 124.3814 124.4492 124.3695 124.2451 124.2062 124.1931 124.5640 110.1445 124.2410 124.5264 124.0761 124.8112 114.6364 116.5983 105.2864 107.0589 118.3346 106.7189 112.7218 104.1819 126.6876 124.1268 124.5255 124.6933 124.5648 124.7634 124.9512 124.8766 125.0334 125.2459 125.2877 125.3266 125.4487 125.5476 125.6589 125.6939 126.2427 119.2969 107.5115 107.5899 118.0285 127.0701 127.1269 120.6134 123.9050 122.1011 127.1010 115.2524 126.2657 127.2916 127.4200
125.2700 125.4884 113.0515 117.2910 124.6636 124.9657 125.4474 124.5100 124.5403 124.4546 124.3953 124.3257 124.2115 124.2649 123.4950 123.5653 124.0722 123.8854 124.5493 124.5746 112.7721 113.3863 120.1192 121.1857 123.1362 125.4728 117.6256 105.9227 105.3302 106.0089 119.9953 114.9289 102.5490 126.9104 124.1991 124.3461 124.4386 124.5324 124.5943 124.6841 124.7773 124.8684 124.9608 125.0601 125.1683 125.2700 125.3729 125.5648 125.4611 127.0781 113.8404 105.1107 108.8222 124.3163 127.3435 123.0851 119.9102 116.0927 126.3235 126.9809 126.7902 127.7700 127.2433 127.2400
125.0800 125.0098 122.7282 124.0001 124.5151 124.6031 124.4543 124.4229 124.3257 124.2526 124.1381 124.0606 124.2992 123.9062 126.0254 129.1879 123.1763 123.9385 125.2851 115.6041 115.6256 120.3476 110.8437 121.7589 118.4829 110.3666 109.5302 108.1649 113.9065 115.8157 109.6513 114.9931 117.1919 124.2171 124.0959 124.1041 124.2777 124.2377 124.4061 124.4879 124.5803 124.6724 124.7793 124.8797 124.9836 125.0912 125.2144 125.3295 125.6779 126.2167 108.4620 126.2970 126.3727 127.4028 126.7481 116.0211 128.6642 125.6678 127.0448 126.6009 126.8252 126.9816 124.7810 127.2200
124.8700 124.6801 125.1588 124.4652 124.4311 124.4789 124.3283 124.1971 124.1150 124.0481 123.9872 124.1352 121.4716 124.0308 124.8189 124.7712 123.7325 123.1933 118.0011 120.6772 118.1209 113.5759 114.8424 118.4921 125.2500 111.9830 103.5419 114.3381 122.2573 120.4757 119.4809 116.0372 126.5113 124.6090 123.5652 123.9429 123.7150 124.4648 124.1169 124.1527 124.3419 124.4881 124.5804 124.6918 124.8087 124.9189 125.0434 125.1930 125.9366 120.4415 118.1893 126.9724 125.8775 124.8559 119.3921 113.8354 127.8636 126.0698 126.4908 126.6701 126.7688 127.5857 118.8380 110.9800
124.6500 124.8190 124.5228 124.4041 124.6222 123.8263 124.0287 124.0522 123.8684 123.8132 123.7620 122.1393 115.0318 124.1978 123.2540 119.6882 125.4320 123.8644 130.8920 116.4229 123.1436 117.0100 112.6494 103.6014 124.3594 126.8692 107.1754 125.0669 122.0287 122.1205 123.6656 123.7447 123.4813 123.3360 123.6902 123.7051 126.0132 121.9571 124.4264 125.1420 124.0987 124.2676 124.3924 124.4986 124.6197 124.7348 124.8233 125.0918 121.2612 118.1784 124.8650 125.4720 125.6029 126.5477 118.0360 118.1826 125.0323 126.3556 126.4168 126.4724 126.7048 126.7489 127.6581 127.0300
124.6300 123.7219 124.3283 124.2382 119.4478 121.2034 123.2962 122.3013 123.6974 123.6534 123.5622 121.4058 119.5113 123.9892 119.9564 118.9662 124.8355 119.3762 110.6693 115.9364 124.2614 112.4724 111.8760 106.5011 123.3957 122.9066 123.9022 122.8460 122.6813 123.1275 123.0858 123.1182 123.2318 123.3217 123.3533 123.3877 123.1583 126.9959 118.5550 118.8848 123.8263 124.0576 124.1923 124.3040 124.4312 124.5514 124.7248 124.6490 125.8838 125.4020 125.4087 125.3723 125.3397 123.9013 117.0328 117.9722 120.9910 126.4643 126.2584 126.4506 126.3216 127.8116 115.0426 110.0400
113.3200 123.4336 124.4575 124.0290 125.7188 117.1016 124.0923 123.3754 123.3603 120.0169 122.9295 122.2908 119.8600 112.3566 122.8029 114.9568 114.4515 114.7831 115.5372 119.0990 133.6904 117.3134 117.4863 121.0787 122.9701 122.4686 122.4482 122.7102 122.7515 122.7668 122.8245 122.8921 122.9596 123.0441 123.1176 123.1611 123.9864 123.2127 123.3350 125.0096 123.5487 123.8786 123.9873 124.1131 124.2392 124.3736 124.4921 124.6513 124.6071 124.8499 125.0466 125.0867 130.3217 125.2394 127.0099 128.9165 126.7440 125.9316 126.1474 126.3046 125.9687 129.3763 128.2757 110.0400
124.1900 125.0703 121.7314 123.8366 123.4832 123.0295 121.5157 118.9857 125.2225 120.5762 122.5722 123.1583 122.2654 122.5547 115.4704 116.1122 116.3738 114.8766 113.8469 114.1306 113.3293 128.1977 109.4271 125.1945 122.5369 122.4129 122.4107 122.4042 122.4215 122.3999 122.5520 122.6316 122.7060 122.7706 122.8926 122.9109 123.0653 123.1914 123.3334 123.1331 123.5471 123.6537 123.7870 123.9131 124.0470 124.1784 124.3157 124.4620 124.5938 124.7642 124.9128 124.9381 122.0813 119.6011 123.7825 119.6350 124.8561 125.7790 126.0341 126.1390 126.4207 126.3307 124.2933 110.9000
108.5700 124.8311 123.9173 123.5435 123.3618 124.1425 107.9730 105.4377 122.5007 119.6993 118.1798 123.0826 122.2813 119.2841 118.1699 121.1846 113.7754 115.2253 113.0031 112.9405 110.4739 123.4134 110.2202 122.8011 121.3797 121.8507 122.0821 122.1084 122.2724 122.7188 122.3262 122.3703 122.4182 122.4117 122.4546 122.7284 122.8313 122.9543 123.0385 123.1810 123.3325 123.4413 123.5758 123.7115 123.8538 123.9920 124.1381 124.2756 124.4182 124.5651 124.7131 124.7432 125.2742 123.0560 122.3576 126.2346 125.0872 125.7730 125.8988 126.0415 126.2774 126.0884 125.7433 110.9000
124.5900 124.9422 123.2200 123.4590 123.2360 122.3633 120.0521 116.7735 124.1331 121.6362 116.4817 122.6371 122.5199 121.8603 122.6289 120.8946 116.2208 114.2098 111.2770 102.4833 117.5002 106.8688 106.7852 120.5821 123.0343 122.2492 121.8017 122.0278 118.4758 119.1375 122.0433 122.1027 122.1320 120.7043 121.2199 122.4673 122.5915 122.7079 122.8267 122.9562 123.0865 123.2321 123.3712 123.5136 123.6593 123.7999 123.9522 124.1061 124.2527 124.4185 124.5377 124.7382 124.9216 125.0559 124.5074 125.5805 125.5809 125.6254 125.7720 125.9562 125.4744 129.9816 115.1231 126.4500
124.5900 123.4553 123.3331 123.1949 123.1191 122.8913 123.8001 115.5327 121.6719 122.7319 122.1808 122.6672 122.3246 118.3580 119.1787 120.9201 119.2816 123.1391 114.5406 98.7568 106.1221 108.7651 118.7931 103.3565 106.8805 122.6071 121.4522 121.6951 121.6911 121.4851 121.6818 121.8196 121.8287 122.1131 122.1854 122.1245 122.3390 122.4562 122.5857 122.7245 122.8629 123.0069 123.1567 123.3057 123.4562 123.6114 123.7647 123.9219 124.0745 124.2508 124.2546 124.4536 124.5427 124.9058 125.0338 125.1984 125.3271 125.4889 125.6548 125.7807 125.8667 127.0460 123.8565 126.3000
123.4200 123.2618 123.1617 122.9806 122.8638 122.6969 122.3725 122.0719 121.6661 122.2023 121.1424 114.8318 120.8749 114.0700 119.7643 121.8051 120.2846 111.0265 119.7982 99.1270 116.8902 103.1213 115.9576 121.4500 121.2832 121.1194 121.1743 121.0830 121.1736 121.3425 121.4166 121.5054 121.6121 121.6914 121.8158 121.9504 122.0678 122.2034 122.3402 122.4812 122.6369 122.7852 122.9417 123.0916 123.2502 123.4174 123.5772 123.7385 123.9033 124.0440 124.6393 124.2072 124.7740 124.7037 124.8850 125.0479 125.2053 125.3672 125.5273 125.6829 125.8649 125.9548 126.2414 126.2500
123.1800 123.1299 122.9261 122.7888 122.6072 122.3780 122.0226 122.6495 121.1457 121.8668 121.8276 119.5564 117.6052 119.2354 114.1738 120.1914 116.9968 114.9670 125.2771 107.2600 123.4734 107.8466 122.3678 120.1831 121.6730 120.6481 120.8340 121.0145 121.1211 120.9406 121.1019 121.1884 121.2948 121.4127 121.5168 121.6692 121.8070 121.9348 122.0865 122.2371 122.4123 122.5604 122.7239 122.8869 123.0558 123.2214 123.3930 123.5460 123.7633 123.6971 125.2735 111.6342 125.0820 124.3862 124.7681 124.9108 125.0779 125.2398 125.4042 125.5707 125.7322 125.8882 126.0450 126.0900
122.9600 122.8858 122.7564 122.3416 123.5519 120.4782 122.3369 121.7132 121.6825 121.5912 121.6031 110.9505 116.3347 126.9561 126.1412 114.5575 125.8782 112.8361 115.6509 109.9367 127.1417 120.2405 120.3897 121.7149 128.1529 120.4233 120.5684 118.6140 120.2390 120.5816 120.7791 120.8799 120.9909 121.1041 121.3154 121.3367 121.5016 121.7146 121.7792 122.1279 122.4697 122.2550 122.5386 122.6700 122.8492 123.0265 123.2062 123.3765 123.5622 123.7399 123.7648 124.3166 125.2481 124.5109 124.5950 124.7789 124.9507 125.1225 125.2908 125.4562 125.6177 125.7829 125.9464 126.0500
122.8800 122.6968 122.3964 122.3666 121.2582 113.4132 122.8048 121.5650 121.4442 121.7001 114.5642 122.0135 122.5914 116.8740 116.1749 122.5242 123.2003 113.3680 112.0082 107.7705 120.4308 126.8587 122.9404 120.1843 119.4816 120.0711 120.1591 116.3909 120.7993 120.1414 120.4478 120.5516 120.6684 120.8694 120.1727 120.9475 121.5919 121.3279 121.5415 122.3403 122.1658 121.5754 122.2528 122.4482 122.6436 122.8311 123.0011 123.2009 123.2370 123.4676 123.7829 125.9936 123.7806 125.6473 124.3588 124.6590 124.8268 124.9965 125.1698 125.3408 125.5083 125.6794 125.8251 126.0100
122.6200 114.0494 122.7365 122.1197 121.5130 129.4081 121.5127 121.4163 120.9592 122.5688 116.0175 113.2888 115.5729 112.9169 111.0326 112.4314 102.6965 110.8391 108.0412 111.2641 120.8203 119.3027 116.0940 120.0408 119.9736 119.8290 119.4264 121.1735 119.8725 119.9903 120.0770 120.2336 120.3426 120.4497 121.0005 108.1529 121.2330 121.5208 121.3986 120.0326 105.3024 122.6325 122.0922 122.2638 122.3686 122.6186 122.8178 123.0792 123.3356 124.0813 122.3614 126.5454 117.8741 122.7111 124.5092 124.5194 124.7018 124.8812 125.0547 125.2310 125.3973 125.5623 125.8916 125.8600
122.3100 113.2316 123.4987 121.4554 121.1647 121.5175 120.8685 118.8468 116.7969 114.3822 116.2766 113.4858 108.1404 120.2881 123.9631 109.0387 95.5386 108.4090 115.4749 108.3275 120.6511 119.3070 119.4358 118.3101 118.6367 119.9476 103.9324 121.6106 119.3286 119.6627 119.8084 119.7541 119.9834 120.8452 121.0488 119.5476 121.2616 121.0313 108.4998 123.9785 115.7628 121.4462 121.5102 122.3516 122.3356 122.3070 122.7617 122.7714 122.3129 111.3898 109.9250 114.3359 111.1467 120.0752 124.3325 124.3981 124.5719 124.7646 124.9420 125.1203 125.2972 125.5194 125.9413 126.9200
122.3100 122.5602 121.2851 120.8728 121.5548 121.3309 121.4206 121.6171 110.4093 111.9767 118.0493 108.2138 100.0992 111.4072 118.0089 111.6125 96.4843 101.2857 111.6509 106.7860 120.8593 118.7589 121.3538 126.3431 118.4854 116.3724 107.3820 120.5578 119.6743 118.8359 119.1778 119.6116 120.5182 114.5989 120.3122 116.7027 122.8364 120.8988 117.7835 132.0657 125.7511 121.0305 121.8043 122.6075 116.0095 122.7791 121.7813 124.0898 113.7902 117.6891 113.0082 112.5605 119.5139 123.5326 124.0758 124.3016 124.4527 124.6341 124.8210 125.0151 125.2110 124.9239 125.5098 125.6100
121.9800 121.8719 120.9850 121.3455 121.1580 120.8200 120.6564 119.8807 111.3805 110.9094 110.9287 114.2187 100.3470 110.2184 95.4356 108.3055 97.6607 98.6553 121.1725 126.3735 122.6574 118.3610 118.7405 121.0859 120.4292 120.4587 119.0294 113.4449 118.2245 122.8887 119.8212 118.1445 120.7737 113.7108 118.5650 117.8782 118.3190 119.9194 119.2518 118.1968 120.3718 121.6857 116.8436 118.5016 117.0131 124.5794 123.3505 118.8216 116.9196 115.5136 113.8289 120.9136 124.3935 124.0655 123.9305 124.1307 124.3298 124.5377 124.7528 124.8976 125.0607 127.4849 125.9488 125.5800
121.9800 121.6968 121.3957 121.7165 122.2559 120.7536 120.5168 121.7193 119.8994 114.2378 119.3288 118.5506 101.1946 101.8559 113.7316 104.0151 108.3554 101.0020 116.1155 117.0943 116.9706 117.8708 117.9007 117.7486 118.8006 116.7254 118.1895 117.7326 118.5382 118.8086 118.3946 118.5107 119.3290 118.0130 117.9020 111.8619 111.9069 120.9854 117.9499 120.7526 121.6116 118.1778 106.5578 118.3422 121.6085 113.5631 115.9925 120.6737 109.4232 112.7150 112.7504 124.7071 118.0330 124.0490 123.7868 124.0053 124.3595 124.4219 124.6573 124.7827 124.9998 126.3502 125.3203 125.5800
121.6300 121.4856 121.1903 120.7294 118.4807 120.3295 120.6877 116.2388 101.7116 110.4274 116.3462 112.9243 102.9381 93.8378 124.2364 117.5467 111.2416 109.8207 116.9936 117.8758 117.8785 117.5407 117.4593 117.4839 117.7214 117.5395 117.4987 117.7715 117.7800 118.0820 118.2237 118.4387 118.3415 123.4553 118.7337 121.1111 118.1508 119.9676 119.8066 120.1563 120.9088 108.0600 119.4941 119.5195 121.4721 118.8897 125.3195 122.2678 117.3150 135.3661 114.6817 115.6616 123.5795 123.5686 123.6641 123.9856 124.2427 126.9219 124.3222 124.6953 124.8449 126.4563 125.2552 125.3800
121.3600 121.2687 121.0221 120.7964 120.5594 120.5868 116.8666 117.6281 116.4735 116.1320 114.4104 113.0637 106.7728 99.8542 104.7921 111.8852 107.2095 112.8795 118.6258 117.0514 116.9924 116.9709 116.9451 116.9562 116.9875 117.0108 117.1179 117.2357 117.5028 114.2946 117.8126 117.9024 118.0633 118.2677 120.8975 126.9123 119.6751 119.2937 119.6431 119.5740 118.7026 113.6798 116.6836 119.3542 121.2899 121.7709 121.5083 121.9337 121.7496 114.9314 121.1515 122.2423 123.0211 123.3448 123.5704 123.8048 123.9771 124.1537 124.4451 124.6199 124.8001 124.7942 125.2122 125.3400
121.2800 121.0778 120.8058 120.5356 120.2610 119.9940 119.6395 119.7136 117.6447 111.5695 114.8813 116.4777 113.0874 103.6830 94.6367 114.4839 101.7373 106.1858 116.7037 116.4506 116.5507 116.4401 116.3970 116.3958 116.4333 116.4930 116.7369 116.7511 116.8427 117.1547 117.2394 117.4974 117.8390 117.9066 118.4214 118.4671 118.8642 119.0805 119.2893 119.7697 119.6404 120.5100 120.4325 120.6466 121.0971 121.1563 120.8393 112.2245 123.1723 122.1070 122.4744 122.7889 122.9811 123.2103 123.4539 123.6666 123.8928 123.9488 124.2577 124.5567 124.7186 124.9249 125.0757 125.1700
121.0000 120.8827 120.5994 120.3186 120.0379 119.5764 120.1821 110.6000 108.9699 117.3560 116.6481 105.7888 107.7095 103.4980 95.9973 120.5978 117.1235 120.3789 116.1531 117.8574 115.6636 115.8771 115.8334 115.8093 115.8017 116.0497 114.9396 116.1972 116.5116 116.2198 117.0462 116.9818 117.3157 117.5896 117.9564 118.0926 118.5135 118.7567 119.0471 119.0578 119.6094 119.9307 120.1950 120.4886 120.7542 119.3039 122.3399 121.9477 121.6485 122.1248 121.7350 122.8871 122.7830 123.1087 123.3256 123.5187 123.7613 125.8638 125.0280 124.4980 124.6101 124.8453 125.4823 125.1400
120.9300 120.6894 120.4004 120.1053 119.8108 119.6078 119.4766 114.2532 114.7430 108.6565 107.3516 101.2102 106.3030 99.0358 96.4374 102.5683 113.8099 115.5917 115.1638 117.5943 115.2240 115.2081 115.0869 115.1987 115.3348 115.0576 114.7859 115.6380 115.2509 119.0825 114.7652 116.6163 116.8303 117.1625 117.4617 117.7787 118.1146 118.4447 118.8096 118.1266 117.7485 119.8652 119.9600 120.2636 120.7049 120.9946 121.0351 122.2280 122.8129 122.2446 115.2191 121.6113 122.3877 123.2173 123.3118 123.6414 123.6932 123.7672 124.1670 124.3402 124.5676 124.7072 123.0014 125.1100
120.6400 120.5078 120.1941 119.8627 119.3618 119.9978 114.9926 109.5027 114.8737 107.4502 106.2421 98.5536 111.0399 101.0983 113.1041 110.4922 109.4474 115.7133 115.5902 114.5825 114.5304 114.9046 113.4373 114.6357 111.6882 112.5692 115.8818 118.7552 116.6634 112.6450 113.8587 116.6959 116.4665 116.8380 117.1072 117.4835 117.7988 118.1428 118.3791 119.0256 119.3999 119.8331 120.9248 120.1046 120.3847 120.7993 120.8424 125.4158 118.5240 122.6120 122.3166 123.3234 123.1543 120.8813 123.2554 122.6900 123.5796 123.8505 124.0323 124.2476 124.4746 125.6775 114.1448 125.0900
120.5700 120.3255 120.0222 119.6479 120.0677 114.7554 108.3193 105.7775 136.6671 112.7016 109.4798 111.4841 100.0888 97.3692 111.9818 113.5161 116.6074 111.1212 108.3087 114.0955 106.9344 111.7403 113.8952 113.5547 118.8696 104.6449 113.8276 114.1619 115.2348 115.6176 115.6088 114.5903 115.9828 116.0668 116.0176 117.1152 117.3620 117.8205 118.1928 118.5366 118.8723 119.0870 118.9456 119.8508 120.2274 120.2881 120.5979 121.4259 107.0146 118.3394 118.9382 118.7166 121.9923 113.9279 121.3108 122.5471 123.4120 123.7536 123.9712 124.1785 124.4470 124.6459 125.3940 124.8900
120.5000 120.1529 119.7569 119.4684 118.3893 117.3117 110.3470 117.5424 121.4917 108.3559 125.5374 105.6673 106.5703 106.8556 107.1914 99.7180 105.8839 103.6267 112.1689 114.1495 118.1323 113.6415 112.8879 113.0326 114.6809 113.1982 113.7760 113.4258 113.9062 114.4828 114.7706 115.0377 115.4819 115.9635 118.2549 118.4160 117.2890 117.5037 117.9043 118.2785 118.6944 118.6999 119.1407 119.7316 120.1765 120.7248 122.2455 122.8274 116.3572 114.5544 119.9645 119.4231 115.4863 114.8525 123.5896 123.3338 123.4357 123.6545 123.8864 124.1180 124.3539 124.4459 124.6802 124.8700
120.1400 120.0319 119.7625 119.7397 116.1744 111.3583 110.1394 106.2422 113.8656 110.9405 109.5940 104.5020 95.4873 105.9390 96.7744 99.9227 100.6759 108.2989 115.0043 112.3175 112.4112 111.9287 112.0252 111.9955 112.0057 112.2983 112.5792 112.9085 113.3594 112.3814 113.8730 114.5236 115.1942 113.5115 105.3010 107.8280 117.0149 117.2233 117.6233 118.0274 118.2902 120.7306 119.4036 119.7371 119.4084 121.3599 111.6515 119.1119 112.2468 119.5880 121.0095 121.0597 120.9840 121.7206 122.7237 123.0476 123.3428 123.5945 123.8196 124.0551 124.2796 124.5270 124.7376 124.8400
120.0900 119.6328 120.7375 112.5437 116.2146 108.9046 111.8540 110.0514 112.9308 107.0072 103.9604 103.8943 107.8413 108.7209 114.6647 97.7811 114.4509 98.6465 109.5419 112.0962 111.5258 111.3640 111.1769 111.1552 111.2539 111.4460 111.7585 112.0903 112.5115 113.0177 113.7987 113.9907 114.4597 114.2013 109.5850 110.8806 115.2798 116.9708 117.3528 117.7780 118.2173 120.7903 119.5119 119.9594 121.3359 114.4200 113.8972 111.0750 111.2633 124.1841 119.2813 121.9313 122.1509 122.6780 122.7907 123.0377 123.2697 123.5193 123.7576 123.9902 124.2143 124.4343 124.6483 124.8200
120.0900 121.1497 112.5933 108.1574 110.2784 111.4394 111.1954 115.0335 104.5874 105.8773 104.4649 103.3842 111.1211 119.1477 113.7053 109.7749 113.0904 109.7603 108.5821 110.8341 110.5170 110.2046 110.0437 110.0208 110.1468 110.4201 110.7685 111.3519 111.7839 112.2823 112.8945 113.4273 114.0586 114.9364 114.8851 116.5367 115.6171 116.6462 117.0950 117.5439 118.1126 118.3518 127.4536 114.8564 115.0641 106.9739 109.1344 114.8495 108.7494 122.9935 118.9243 121.9747 122.1630 122.3913 122.6916 122.9551 123.2104 123.4568 123.6958 123.9357 124.1609 124.3883 124.6079 124.8000
119.7300 111.5360 107.9385 104.5711 106.4128 112.0288 108.2697 107.2727 103.4982 104.5641 101.9021 109.2712 119.9724 112.7738 113.4622 112.4433 111.7402 111.7606 110.4454 109.9468 109.4171 109.0316 108.7993 108.7654 108.9315 109.2848 109.8857 108.2384 111.0230 111.7871 112.1813 112.9600 113.2647 115.2745 115.5416 114.7728 116.1594 116.4436 116.8695 117.3538 117.8388 118.3926 119.4456 123.7633 111.6084 113.4254 108.1357 114.7302 120.0767 121.1221 121.3046 121.7565 122.0775 122.3549 122.6219 122.8902 123.1460 123.4017 123.6425 123.8852 124.1132 124.3444 124.5636 124.6400
119.6900 119.5767 109.0484 109.0948 107.4507 109.4099 108.5189 106.6981 106.1607 102.2857 112.5900 114.5559 113.5541 113.3763 112.6337 111.8789 111.1068 110.3534 109.5561 108.8368 108.1658 107.6474 107.3314 107.2959 107.5249 107.9777 108.6345 109.5894 109.1105 108.6553 111.8812 112.1606 113.5754 106.4006 118.4237 102.0783 117.6098 115.9793 116.6463 117.1585 117.6326 118.0898 118.4743 119.9084 125.2275 111.2558 116.3285 108.2342 121.5973 120.9983 121.3901 121.7173 122.0040 122.2904 122.5681 122.8380 123.0955 123.3532 123.5959 123.8401 124.0774 124.2949 124.5425 124.6200
119.6500 118.2792 103.6700 106.7438 109.2251 110.8074 96.3723 108.7707 107.2169 102.5149 107.4498 113.1915 113.9552 112.8591 112.1106 111.3126 110.4346 109.5306 108.5796 107.6418 106.7537 106.0259 105.5882 105.5208 105.8476 106.5075 107.3415 108.1592 109.4522 110.0849 110.9835 114.9958 101.8282 113.8625 111.8459 113.2676 115.1339 116.0049 116.4643 116.9873 117.4728 117.8961 117.5501 123.9623 111.2869 118.8319 124.2339 118.1085 121.0670 120.8913 121.3467 121.6554 121.9397 122.2369 122.5167 122.7917 123.0497 123.3105 123.5658 123.7992 124.0320 124.2715 124.5719 124.6100
119.6100 116.9297 106.1641 108.5024 105.6540 107.7963 109.0921 97.0093 97.4004 101.2125 101.9937 111.2866 121.0019 112.0028 111.7960 110.7637 109.7781 108.7107 107.5617 106.3535 105.1507 104.0957 103.3864 103.2791 103.8166 104.7928 105.9736 107.1902 108.3348 109.3495 110.8526 109.4864 111.6393 109.0045 114.8781 112.5821 115.3908 115.7666 116.3105 116.8389 117.4230 118.9847 116.2078 112.0192 103.7602 106.2821 111.3254 119.1073 131.8353 119.6893 121.3003 121.6261 121.9203 122.1992 122.4738 122.7506 123.0166 123.2799 123.5264 123.7719 124.0503 124.4622 122.2651 124.6000
119.5800 115.7364 110.0634 108.8681 105.4380 105.2735 108.0439 107.7849 106.3006 103.8424 99.7084 108.3883 111.6366 111.6184 111.1823 110.2944 109.1819 107.9418 106.5627 105.0193 103.3663 101.6825 100.5062 100.2997 101.2373 102.8204 104.4933 106.0890 107.5062 108.8312 110.5260 110.9598 111.9944 114.0750 121.9920 102.6793 115.5368 115.5619 116.1729 116.7122 115.7628 129.0326 105.6003 104.7086 108.3597 110.6558 122.4930 119.4228 119.6070 121.0970 121.3570 121.3948 121.6635 122.1483 122.4375 122.7082 122.9795 123.2394 123.5033 123.7242 123.3679 129.2710 114.2752 109.2800
119.2900 116.7901 109.4672 108.9259 108.8330 106.4363 102.9023 102.9113 102.4862 101.1119 106.2912 103.9602 116.6657 106.1301 110.8080 110.0168 108.6823 107.2876 105.6588 103.7310 101.4129 98.7699 95.9854 95.4602 97.9041 100.5994 103.0402 105.0821 106.7954 108.2930 109.3850 110.6979 111.1144 116.9729 113.4719 114.9045 115.4555 115.7070 116.0810 116.4114 119.0870 112.2677 113.6520 108.2185 115.7803 107.2902 126.3989 119.6636 120.7676 120.2040 120.5424 122.7062 122.7113 122.1096 122.4766 122.7235 122.9807 123.2555 123.5359 123.6705 125.5322 122.6821 121.7045 124.5800
119.2700 115.9503 108.9699 114.0770 107.1701 106.7387 98.4137 98.4175 98.6438 101.3325 114.2589 116.4268 114.6933 112.5571 110.4887 109.6748 108.3449 106.8121 104.9748 102.6880 99.6427 95.0775 89.6030 88.8509 92.9465 98.5270 101.8106 104.2958 106.2689 107.8849 109.2826 110.4791 111.0945 111.7572 114.4425 117.7543 107.0772 115.1023 116.1232 116.2965 118.4574 108.5827 101.5079 104.7558 111.4062 117.1229 118.9502 120.1944 120.2454 126.2104 123.0233 115.6636 120.4147 122.0603 122.2608 122.4568 122.8623 123.0488 123.2640 123.5545 126.4823 116.2843 113.7005 124.5700
119.2600 111.0965 106.6886 105.2402 104.7192 105.2477 104.5253 102.2872 102.6557 108.3396 117.8029 112.0182 112.3240 111.4814 110.5253 109.5283 108.1826 106.5853 104.6453 102.1418 98.6225 92.1147 85.6179 84.8627 89.4176 97.1677 101.1523 103.9213 106.0299 107.7205 109.1129 110.3230 111.5132 112.8868 117.7499 123.9606 100.1555 115.2195 116.0276 116.3622 116.9801 120.2849 92.1934 107.4481 120.2730 119.7297 119.9213 120.2759 119.6995 135.5875 122.9134 107.5971 116.5812 123.0283 123.2579 123.5998 123.2650 124.2609 124.1678 123.5963 124.0513 125.2094 126.3150 124.5600
108.6900 108.4610 107.2314 111.4760 114.5438 107.6439 113.8924 107.9218 99.2151 103.2670 117.5780 111.7487 113.7276 111.7605 110.7108 109.5512 108.2202 106.6457 104.7345 102.2873 98.9279 93.0920 86.8897 86.0723 90.3881 97.5354 101.3336 103.9935 105.9691 107.6686 109.1601 110.3651 111.3157 111.7450 114.1126 120.7756 101.3033 114.9348 115.7381 116.5738 117.0424 117.5923 109.9478 112.6866 118.9645 119.2287 119.7475 120.1556 121.0715 133.4650 124.8267 111.8887 117.4561 112.6794 121.3538 114.6871 119.9857 116.0473 118.9402 123.2095 122.7789 118.4409 124.1685 121.8200
110.1300 108.6717 107.0143 113.6006 117.4313 107.8393 109.1545 119.3342 97.0586 105.4797 110.0910 109.4619 113.2333 111.7984 110.8436 109.7373 108.4646 106.9864 105.2258 103.0732 100.4571 96.6825 92.1642 91.2968 95.1406 99.3400 102.2859 104.5641 106.6417 108.3288 109.3359 110.5150 111.5912 112.7190 112.1068 114.8045 113.6223 114.1236 115.9649 116.6200 117.1282 117.6742 119.1929 120.1751 119.0332 119.4847 119.7875 120.1862 120.6191 127.9249 116.3450 121.3493 118.6886 118.5581 122.5482 119.7646 122.7985 120.2771 120.9531 125.4905 123.6519 121.7478 124.3503 124.5700
107.9600 107.4601 108.4603 108.9986 108.5568 107.9012 103.0518 106.5704 96.9849 102.8819 118.8543 112.5420 112.8762 112.0676 111.1071 110.0521 108.8793 107.5399 106.0119 104.2625 102.2494 100.0438 98.2028 97.8527 99.3900 101.5313 103.6600 105.5248 104.7993 105.6622 109.9412 110.9810 111.7730 113.1602 104.4747 114.7064 114.8066 115.7621 116.0636 116.6694 117.1937 117.6758 118.0513 118.3701 118.8899 119.3698 119.8126 120.1613 120.5914 121.0987 120.7440 121.6262 122.0940 122.0701 122.2537 123.0618 123.2105 123.4870 123.9700 124.2229 124.0349 124.5230 124.5736 124.5700
119.5700 108.5516 107.7321 109.6991 112.1456 110.6865 104.4720 102.0028 98.8789 103.2897 120.6114 112.5021 113.1482 112.3474 111.4512 110.4804 109.4213 108.2505 106.9734 105.5751 104.1058 102.7588 101.7677 101.6138 102.3689 103.6702 105.1401 106.4586 108.0195 108.7084 109.9080 111.6577 109.8052 115.3751 112.9911 114.4601 114.9753 115.5995 116.2075 116.7601 117.2835 117.7635 118.1932 118.2689 119.3561 119.6594 119.8932 120.1862 120.5754 123.8974 121.8109 121.6632 121.8734 122.1417 122.1753 122.6887 122.9636 123.2404 123.3599 123.5405 123.8054 124.1996 124.4922 124.5700
119.6000 107.6821 107.7884 106.9425 110.9129 109.5923 105.6627 101.6968 97.6827 101.2481 113.8906 114.0478 113.4347 112.6723 111.8638 110.9912 110.0514 109.0477 107.9843 106.8995 105.8542 104.9328 104.3485 104.2567 104.7059 105.5237 106.5504 107.6845 108.1949 115.4142 117.5038 99.6242 112.0311 113.4747 114.1005 114.5856 115.2280 115.7955 116.3793 116.9195 117.4022 117.8971 117.9085 122.9908 115.8157 117.9147 119.6280 120.2640 120.2838 127.2606 108.6119 119.1590 121.2472 121.9746 122.5202 122.7670 123.0163 123.2187 125.1495 128.0214 123.6068 124.3013 123.7820 124.5800
119.6300 109.7114 108.5761 106.7779 110.7611 107.2950 103.8252 104.3966 116.5526 104.6794 122.8805 114.3012 113.6619 113.0866 112.3225 111.5435 110.7236 109.8687 108.9953 108.1419 107.3590 106.7161 106.3092 106.2735 106.5688 107.1373 107.8896 108.7414 109.6672 109.4913 105.5068 98.1016 98.6360 115.0628 113.8879 114.8709 115.4714 115.9913 116.3669 116.5220 117.5351 118.0184 119.0915 123.0009 112.3416 120.1530 119.7891 120.3625 120.3288 125.0557 108.8955 123.7141 122.2794 122.1597 122.5504 122.7998 122.9271 123.3713 127.3108 132.2028 108.4774 114.0590 107.9842 108.1400
107.8300 109.9428 106.6197 113.1346 116.6765 109.9408 109.1999 102.2517 102.4438 108.6438 113.9427 114.7784 114.1308 113.4962 112.8248 112.2469 111.4109 110.6902 109.9791 109.2991 108.6991 108.2963 108.0971 107.9222 108.1205 108.5294 109.0913 109.7251 111.0357 102.4118 106.7914 99.9642 104.2321 111.2488 114.5767 115.1741 115.6465 116.1908 116.4212 117.1584 117.5975 118.3767 120.3550 121.2541 106.7473 120.8548 119.8748 120.4522 120.5939 123.3343 121.3649 121.8069 121.9147 122.2749 122.5843 122.8803 124.0464 120.5943 123.4195 123.2058 120.3561 115.5109 129.4156 117.3100
120.0100 121.8494 110.4730 110.3422 109.9705 106.6366 110.8562 109.9261 118.5922 107.0169 116.7374 114.7267 114.6064 113.9498 113.3084 113.2660 112.0474 111.4978 111.0152 110.3568 109.8496 109.2302 108.6672 109.2778 109.4401 109.7593 110.2226 110.1820 112.2712 112.7618 99.3605 105.6027 109.2404 114.4198 114.8930 115.4980 116.1419 117.3818 117.1283 117.5072 115.5759 114.0002 115.7891 117.5891 106.6719 121.4308 120.2063 120.5275 120.9050 121.0211 121.3079 121.7272 123.1937 122.3488 122.6421 122.7377 127.2692 119.3910 123.1428 123.6739 124.6677 126.5462 130.8858 121.5300
120.0100 119.3858 121.0299 113.8292 106.7715 108.6843 113.6445 110.4522 117.4289 117.3142 120.7029 114.8166 114.9461 114.4118 113.8474 113.3393 112.7731 112.2697 111.7772 111.2323 110.7552 111.7899 112.7768 110.5849 110.6234 110.8363 111.1969 111.3079 115.5388 103.2380 105.8641 105.5130 98.5813 113.7916 115.1391 115.5324 116.6544 112.6648 118.0027 122.9234 105.6287 101.4846 115.3908 117.7452 109.6464 120.6172 120.4125 120.6389 120.9885 121.3264 121.6373 121.8990 123.2047 122.4891 122.7550 123.0242 125.5394 125.2854 124.7151 123.8044 124.0424 124.7003 103.9457 119.0700
120.0700 119.9133 119.2503 124.1482 114.7350 120.8689 120.5163 114.1010 114.9007 114.9504 115.6465 116.1120 115.3422 114.8889 114.4035 113.9219 113.4463 112.9971 112.5916 112.2075 104.6222 96.6423 101.1294 111.5569 111.6719 111.8578 112.1536 112.4298 111.1760 98.9334 100.6728 109.2038 108.5531 116.3495 115.4335 117.4829 114.9774 111.2500 118.3897 113.8345 108.8169 112.7800 113.4832 112.2320 110.0931 119.0444 120.6057 120.7894 121.0998 121.3923 121.6857 121.9724 121.9976 122.3579 122.7958 123.0417 124.2899 123.4451 123.7089 123.9689 124.3465 125.0986 118.7846 121.6800
120.4100 120.0622 119.8803 119.0618 118.8077 116.3051 117.3865 96.6192 119.2132 117.4450 116.6445 116.2197 115.7674 115.3136 114.9007 114.4457 114.0573 113.6836 113.3520 113.0690 113.9396 112.4453 111.6000 113.0008 112.5594 112.6189 112.8057 113.7439 113.6506 104.7364 113.6316 116.1245 115.6245 115.4876 116.9100 110.9793 110.3227 101.9342 111.7619 110.5722 113.8343 109.9526 109.1976 115.3390 108.4283 119.5972 120.6412 120.9289 121.2166 121.5202 121.8068 122.0898 122.4012 122.6553 122.8812 123.1310 123.1328 123.3955 123.9186 124.1024 124.5159 123.9848 121.9769 109.9100
120.4800 120.2376 119.9103 119.1912 119.3748 118.3438 120.2532 115.4328 119.6739 117.3825 116.9817 116.6580 116.2042 115.8017 115.6271 115.0510 114.6730 114.3405 114.0652 113.7412 113.1776 113.2926 113.3885 113.2854 113.3882 113.4979 115.3412 119.2154 101.7752 116.4407 115.6474 115.1834 115.6660 115.8636 117.0359 103.8130 106.6737 112.8412 100.1614 120.8099 117.3484 116.0228 106.5658 121.3492 116.2960 120.1310 120.7192 121.0644 121.3473 121.6376 121.9176 122.1942 122.4518 122.7102 122.9635 123.2097 123.5022 123.7397 123.9129 124.0463 123.9978 125.7288 126.5711 125.0000
120.5400 120.4713 119.2174 132.2664 113.5264 119.0501 118.6019 118.4237 117.8341 117.6888 117.4625 117.0090 115.5753 115.3471 112.4542 115.3852 115.2488 114.9652 114.6904 114.4794 114.3837 114.2098 114.0770 114.1137 114.0042 114.4359 111.7071 101.5605 100.2969 115.5574 115.3331 115.8229 116.1397 116.9546 113.1621 114.0978 104.7310 113.2853 115.9239 118.5795 119.1984 117.3475 111.3749 120.8781 121.0251 120.7513 120.9105 121.1989 121.4824 121.7693 122.0361 122.3057 122.5676 122.8172 123.0540 123.3161 123.5715 123.8042 124.0361 124.0168 124.9970 126.1782 129.4395 133.2600
120.8300 120.6993 118.7694 103.8083 115.3963 119.0148 119.1657 118.6996 118.3700 118.0311 117.7566 117.2598 118.5428 130.8669 113.7623 116.3888 115.7961 115.5412 115.3384 115.1191 114.8831 114.8846 114.5920 115.1024 116.3080 114.8719 116.3391 105.4616 117.4630 117.1633 115.9239 116.2885 116.6262 116.9784 116.3296 117.3885 118.0788 115.7642 119.1776 119.7122 119.4107 113.6680 117.8604 121.2526 120.3105 120.7566 121.0680 121.3505 121.6345 121.9035 122.1601 122.4201 122.6766 122.9282 123.1617 123.3204 123.4934 123.6796 124.2755 123.5920 119.0417 106.6047 112.3015 111.4700
120.9000 122.8904 101.9806 120.2273 119.7930 119.5956 119.2931 118.9761 118.6685 118.4571 117.1129 126.0798 123.9300 121.6673 117.8269 116.5277 116.2447 116.1539 115.8859 115.6773 113.0032 113.7913 116.3743 119.6681 107.7793 122.7235 115.9103 103.9421 101.0788 115.8663 116.5339 116.7088 117.1037 117.2235 117.4352 117.9196 118.5111 119.1900 110.1185 117.1768 119.4478 116.2306 104.6224 117.4108 120.7249 120.8077 121.2593 121.5127 121.7791 122.0378 122.3014 122.5469 122.7894 123.0342 123.3135 123.3221 123.4727 124.4808 124.1418 124.3246 124.4527 123.1308 103.3822 107.3000
121.1800 120.9615 119.9626 121.1304 120.0300 119.8577 119.5545 119.2626 118.9846 118.6070 118.8255 117.0493 118.6001 110.3201 114.8589 116.9178 117.1263 116.3557 116.5850 115.8475 96.1922 114.3283 110.3177 113.1337 108.1863 99.9254 117.8833 113.1458 115.3439 117.7641 116.9533 117.2254 117.5428 116.7757 117.9805 118.3324 118.5701 118.6112 120.7703 121.1300 119.3138 119.4531 112.0107 108.6490 114.7565 120.6915 121.4790 121.6722 121.9357 122.1892 122.4385 122.6771 122.9189 123.1322 123.4705 124.0473 115.4764 121.7288 123.8847 124.5738 124.6068 125.2504 125.1434 118.7400
121.2500 121.0174 120.7671 120.5704 120.3971 120.0736 119.8269 119.5509 119.2816 119.0204 118.7405 118.5340 117.0675 121.9214 116.1901 117.5229 114.9442 118.4960 116.8279 117.1267 110.9753 116.4386 105.1408 107.3065 112.5120 108.5162 116.4041 117.0359 117.3228 116.8633 117.4938 117.6706 118.1799 115.5921 118.2290 118.7063 118.9313 119.3254 107.7810 118.1761 119.7711 121.2690 113.1737 111.5222 108.9877 113.1539 122.4584 121.8173 122.0870 122.3412 122.5755 122.8113 123.0451 123.2756 123.5005 123.5103 125.0027 125.1957 124.2516 124.5430 124.9115 126.1848 131.8542 128.7900
121.5200 121.3319 121.1354 120.8879 120.5987 120.3409 120.0863 119.8382 119.5816 119.2755 119.0948 119.1030 111.9824 110.7952 113.8113 120.0725 116.0518 112.7512 119.3814 117.1039 117.7685 118.0244 118.4922 118.5261 113.1112 95.6689 117.9644 117.0977 117.5338 117.7963 117.8910 118.0099 118.4220 119.7155 108.8680 118.9493 119.1914 121.2120 112.1949 117.1704 120.4134 120.2954 121.1476 122.1519 121.0593 122.3697 121.6653 122.0346 122.2501 122.4931 122.7255 122.9542 123.1727 123.4023 123.6018 123.8665 123.8988 124.1042 124.4481 124.1765 126.2864 123.3916 128.5039 113.7700
128.0900 120.8398 121.3116 121.0541 120.8376 120.5969 120.3544 120.1148 119.8760 119.6659 119.9277 116.5265 100.5928 108.6622 119.2690 113.0312 106.9620 119.0506 117.9995 117.9611 117.6266 117.3748 117.3803 116.8845 111.4446 113.0821 118.3885 117.8628 118.0316 118.1594 118.3271 118.5073 118.6708 118.5026 120.2882 120.8622 119.4391 119.6672 119.8448 121.4798 120.1899 120.7708 121.0395 120.7049 121.3020 121.6772 121.9049 122.1906 122.4202 122.6484 122.8718 123.0934 123.3124 123.5261 123.7434 123.9610 124.2057 124.4389 124.6709 124.5059 127.7978 112.7629 129.2725 126.2000
122.3700 118.1900 121.4800 121.2800 121.0800 120.8900 120.4600 120.2600 120.0200 119.8400 119.5700 97.3700 97.3700 118.8700 118.8700 118.6300 118.3700 118.4400 118.1400 118.1800 118.2200 117.8500 117.8700 117.8700 100.5700 117.8400 118.2100 118.1700 118.4100 118.4100 118.6800 118.9200 118.9200 119.1300 119.3400 119.6200 119.7900 120.0500 120.2300 120.4500 120.7000 120.8700 121.0600 121.4700 121.6700 121.8600 122.0400 122.2300 122.5900 122.7600 122.9300 123.1000 123.4400 123.6000 123.7600 124.0700 124.2200 124.3700 124.6600 125.4900 131.0800 108.8600 117.3200 103.4900
