127.2600 127.1300 127.1700 127.0400 126.9500 126.8500 126.7500 126.7800 126.6500 126.6800 126.5600 126.5900 122.8000 126.3500 123.1500 129.3200 126.2600 126.2700 120.9500 106.2000 126.7800 128.5600 118.3500 126.1900 126.0300 125.0100 128.7000 104.0300 122.3600 119.0400 114.5100 114.5300 104.1500 107.1600 119.9300 126.2600 126.3900 126.3700 126.3500 126.4700 126.4500 126.5600 126.6700 126.6500 126.7500 126.7500 126.8500 126.9500 127.0400 127.0400 127.1300 127.2600 127.3400 127.4200 127.4200 127.5100 127.6200 127.7000 127.8100 127.8800 127.8400 128.0600 128.1600 128.1400
127.0900 127.1060 126.9824 126.9267 126.8619 126.7790 126.7145 126.6514 126.5886 126.5288 126.4552 126.0048 122.8433 123.0467 122.5588 126.9637 125.9840 126.3935 110.1853 104.4961 109.7970 124.9531 126.2539 124.7057 124.3388 120.3551 124.7700 103.1277 115.3678 100.3024 121.5840 117.3295 106.7160 124.6812 114.7837 126.5569 127.7708 119.6124 120.8502 127.1230 123.5777 125.4882 126.5201 126.5658 126.6220 126.6935 126.7654 126.8347 126.9088 126.9560 127.1374 127.1309 128.3041 114.1471 127.0075 127.2988 127.5511 127.7142 127.6017 129.4903 130.1900 127.8958 128.2815 128.1000
126.9300 126.8372 126.8965 126.8376 126.6965 126.6560 126.5442 126.4841 126.4181 126.3514 126.3049 126.4172 122.6892 122.2961 124.6313 126.1548 125.9669 125.2917 111.6846 113.4813 108.9463 144.8058 122.5767 117.8008 123.4831 115.7383 115.0128 107.7776 104.8831 111.1575 105.1015 117.0789 106.8256 135.8473 128.7000 117.0374 128.0358 116.2622 118.7959 126.4079 126.5397 126.2752 126.2472 126.4109 126.4658 126.5300 126.6026 126.6627 126.7512 126.8092 126.4966 127.2279 117.3434 128.2617 128.3912 127.3249 127.3707 127.4797 127.7723 126.8600 131.0342 127.8709 127.9287 128.1000
126.7600 126.8129 126.2269 126.6315 126.6343 126.1410 126.3644 126.3172 126.2488 126.1680 126.0932 126.7342 125.8262 122.2892 125.5625 125.7373 125.8162 125.9471 122.4438 127.9745 101.2994 110.1116 120.0058 130.2234 110.3804 118.7680 116.7940 115.1353 117.4944 105.2666 103.5994 102.8451 113.9064 122.0400 125.5392 123.1226 128.9607 124.0421 126.4374 125.7023 124.0853 126.2273 126.1501 126.2276 126.2930 126.3664 126.4442 126.5089 126.6364 126.1043 127.6757 131.2942 107.7249 127.3155 127.0487 127.1001 128.1166 127.3517 127.3246 127.5811 127.9963 128.0375 127.5177 127.9700
126.7600 126.6109 120.5413 113.8041 125.8156 128.7371 124.6936 126.1922 126.0702 126.0011 125.9354 126.3644 125.5984 121.9948 122.1780 125.7943 125.6453 125.8832 120.5790 125.6152 101.5152 123.1267 120.0824 122.9691 124.4429 114.8306 114.7548 115.4364 118.1151 110.3178 103.7110 101.9321 124.8329 126.4942 125.6197 125.6461 125.4668 125.7497 125.6153 125.9078 126.0624 125.8933 126.0191 126.0543 126.1289 126.1959 126.2716 126.3525 126.1364 127.7637 124.9105 118.9041 124.7441 127.6738 127.0557 127.0956 115.2418 128.8914 128.5267 127.8407 128.6414 118.9404 128.4463 110.7800
126.5900 126.5576 125.2481 125.8430 122.6861 129.2440 125.3767 126.1358 125.9074 125.8209 125.7198 125.6742 134.0504 121.7207 121.9124 125.9628 125.3862 125.4682 124.0116 129.8038 97.6660 119.6587 124.3557 126.0453 123.8141 118.4848 120.2061 113.2223 106.1930 116.0212 105.3286 113.1662 111.3481 125.1561 125.3621 125.4106 125.4946 125.5003 125.5805 125.5948 125.6494 125.7484 125.8102 125.8791 125.9558 126.0321 126.1083 126.2354 127.1365 113.7271 111.4938 112.3069 115.3368 127.9207 126.4949 129.6859 124.3016 120.3861 118.6454 126.6813 125.2133 126.4999 128.3135 127.6500
126.3900 126.4070 119.8884 126.3552 125.5295 112.9213 125.9875 125.9683 125.7289 125.6406 125.8126 124.4674 125.3025 115.3914 124.8840 124.8538 124.9312 125.1636 124.6610 134.7812 115.5854 113.9395 116.9569 122.4942 120.4833 112.5168 112.3122 110.8019 109.9125 109.3869 113.5393 105.7362 117.7742 125.8647 125.0787 125.2054 125.2523 125.3130 125.3624 125.4277 125.4917 125.5606 125.6239 125.7035 125.7762 125.8558 125.9485 126.0542 127.1503 124.5534 111.8819 126.3244 126.3287 126.6808 127.0849 122.1491 123.5011 134.0568 128.2199 127.8793 127.6396 127.2649 127.5056 127.4800
126.2300 125.6997 127.4533 117.7281 127.7367 125.9074 125.6828 125.5384 125.5228 125.5361 124.8439 127.3627 127.8653 141.4512 132.5499 124.0916 125.1321 125.0721 125.9805 123.3857 118.0111 108.6544 127.7437 124.0249 120.3807 109.7102 109.2414 120.5192 109.2309 127.5969 121.1789 125.8082 125.3482 124.7764 124.9733 125.0109 125.0598 125.1090 125.1740 125.2318 125.2982 125.3730 125.4415 125.5200 125.5945 125.7230 125.7180 125.8657 125.6346 123.7387 117.6729 127.5927 126.2979 126.4320 126.4152 127.3099 126.5543 126.2442 126.8659 126.9906 127.1877 127.6009 127.1918 127.4600
126.0400 126.0299 125.5342 122.5289 127.0757 125.1877 125.5770 125.3946 125.3870 125.5545 125.0317 129.6209 120.8684 123.5348 138.5082 121.2850 128.1123 124.9468 120.4202 118.1147 119.2646 114.7973 113.7708 123.9663 119.6078 107.7487 105.4926 119.0730 126.5449 120.4095 118.1229 124.5951 124.7820 124.7375 124.7579 124.7982 124.8521 124.9140 124.9762 125.0420 125.1041 125.1796 125.2539 125.3354 125.4151 125.5107 125.9014 126.5494 126.0263 120.1592 122.1618 127.0112 126.1050 126.5145 122.8707 126.0524 126.5559 126.6647 126.8685 126.9324 126.7708 127.7870 119.9632 127.3200
125.8500 126.0358 125.4514 125.5949 113.8927 125.4773 125.2355 125.0634 124.9809 125.3281 125.2160 132.0644 104.1083 122.3448 127.2978 127.6102 134.3234 124.3789 119.3173 115.8394 123.2150 117.7678 106.9045 122.1615 126.7985 114.1280 110.0258 124.9215 131.2312 124.9559 125.7050 124.3042 124.4729 124.4988 124.5358 124.5876 124.6400 124.6984 124.7665 124.8328 124.9075 124.9853 125.0619 125.1502 125.2307 125.3177 125.5116 126.8389 125.4693 125.8563 126.0766 125.9178 125.4316 126.7564 121.6594 116.0112 128.3475 126.3782 126.7525 126.8459 126.7404 127.4849 123.9691 127.1400
125.8300 124.7457 125.6117 127.2142 119.3381 128.0109 121.0275 125.1742 124.9964 133.9231 125.9041 138.6272 134.7242 121.5076 109.2948 123.9643 128.7939 118.9166 119.6244 120.0942 115.8111 113.2481 107.5455 122.3755 124.3171 118.7828 125.8400 123.6321 124.1776 123.9863 123.9592 124.2018 124.2305 124.2719 124.3189 124.3700 124.4349 124.4937 124.5577 124.6320 124.7050 124.7845 124.8690 124.9559 125.0387 125.1869 125.2030 125.2535 125.5370 125.4619 125.6164 125.8446 126.0604 125.0227 113.6954 126.1974 121.9584 126.1768 126.4178 126.6518 126.6973 126.5318 114.0719 127.1300
113.5200 125.4710 125.3985 123.4041 123.0847 111.5430 98.0998 119.2295 124.7642 124.2320 122.8640 126.4234 106.9517 126.2943 116.6123 119.8524 118.3772 118.5718 122.7059 117.7486 114.1880 131.8499 119.7664 124.5601 123.5307 130.2099 123.0838 124.0808 123.9144 123.9166 123.9714 123.9621 124.0044 124.0426 124.1170 124.1508 124.2059 124.2789 124.3428 124.4241 124.4981 124.5805 124.6704 124.7660 124.8597 124.9434 125.0636 125.1728 125.2590 125.3681 125.3679 125.3489 126.1271 120.0247 115.8289 126.7641 120.9541 126.9778 126.4249 126.5234 126.6860 127.1290 124.5504 110.6900
125.4600 125.3502 125.4645 123.1859 123.0477 126.8163 102.9964 112.1352 106.0771 125.7005 127.7286 131.1636 122.1943 129.3084 123.9399 117.1762 118.4762 115.3447 114.4478 115.3542 115.3872 118.3586 117.1517 124.0106 123.6724 122.9754 123.1870 123.6353 123.6680 123.6819 123.6681 123.7279 123.7741 123.7747 123.8017 123.9195 123.9828 124.0551 124.1272 124.2077 124.2903 124.3757 124.4694 124.5611 124.6602 124.7702 124.8632 124.9736 125.0891 125.2333 125.3209 126.6991 113.8566 123.7928 116.3379 119.7270 125.4553 126.0912 126.2197 126.3673 126.5686 126.7981 126.5743 110.6900
111.9000 122.0909 125.0058 124.5693 124.1720 124.1773 104.4638 112.3634 103.5188 126.3219 120.3722 122.8447 124.4882 122.6585 120.6611 114.1068 119.7510 116.3704 131.9079 112.5652 116.1448 125.2857 123.4308 124.2457 123.4792 123.4981 123.4906 123.3926 123.0982 123.1134 123.4503 123.4908 123.5075 124.0766 124.2475 123.6870 123.7537 123.8315 123.9088 123.9914 124.0790 124.1640 124.2657 124.3673 124.4693 124.5709 124.6842 124.7915 124.9101 125.0311 125.0486 125.5144 123.2961 126.5519 123.9644 128.4614 126.3035 126.0975 126.1330 126.2743 126.2880 126.4754 116.3391 112.0900
127.0700 124.0879 125.0616 123.2548 124.4073 125.4808 123.3063 127.2530 114.3716 113.5501 124.3747 119.4927 121.4726 121.9748 123.1940 113.6258 121.6007 114.6047 121.8969 106.5510 111.3629 112.9592 109.8150 117.8916 123.5388 123.0698 123.0778 123.1659 121.6208 121.6130 123.2293 123.2422 123.2835 122.6278 122.5553 123.4722 123.5181 123.5901 123.6765 123.7686 123.8552 123.9516 124.0513 124.1568 124.2623 124.3761 124.4888 124.6088 124.7266 124.8534 125.0277 125.0318 125.7272 125.6026 124.0579 126.1732 125.6998 125.8473 126.0011 126.1289 126.2569 126.6227 125.4926 126.5800
124.8200 124.6473 124.8289 125.7235 123.7165 123.4267 123.0383 105.8796 123.9301 125.9766 123.9162 117.1816 118.2750 117.6081 122.6612 114.9443 116.5870 118.2566 120.5092 108.9562 110.4818 108.6194 123.6459 109.5012 122.9707 122.6598 122.8552 122.9230 123.2182 123.0255 122.9318 122.9733 123.0246 123.0435 123.1610 123.1441 123.2879 123.3583 123.4425 123.5329 123.6328 123.7360 123.8349 123.9460 124.0637 124.1824 124.3043 124.4158 124.5450 124.6919 124.9756 124.6196 125.1186 125.1462 125.3648 125.4864 125.5457 125.7273 125.8589 125.9957 126.1425 126.2233 126.6403 126.4200
124.8200 124.6396 124.3971 124.3681 123.3391 123.6496 124.7371 124.9865 121.3246 118.4247 111.1372 123.6175 117.0663 116.3960 115.8744 116.2300 115.0059 116.7113 110.9540 111.2583 115.1423 114.2818 119.2394 123.3931 123.2665 122.4902 122.5718 122.4796 122.3647 122.5860 122.6713 122.7017 122.7240 122.7953 122.8611 122.9553 123.0300 123.1187 123.2035 123.2993 123.4080 123.5130 123.6232 123.7327 123.8528 123.9721 124.1022 124.2213 124.4032 124.1917 125.9197 124.5916 124.9165 125.0379 125.1634 125.3063 125.4461 125.5867 125.7237 125.8649 126.0049 126.1345 126.2694 126.3700
124.5900 124.5071 124.3375 124.2701 123.9090 123.1332 123.4290 125.6664 119.4261 126.1671 123.5903 120.1483 125.2367 115.5018 121.5395 122.5777 119.3660 117.5529 113.2792 107.9880 110.9843 105.3233 122.8552 127.0326 123.3325 122.2239 122.2757 122.7382 122.9617 122.0737 122.3420 122.4441 122.4867 122.5482 122.6150 122.6867 122.7759 122.8574 122.9587 123.1094 123.1660 123.2859 123.4043 123.5237 123.6440 123.7781 123.8930 124.0372 124.1601 124.3147 124.4559 124.5815 124.7286 124.8759 125.0219 125.1600 125.3012 125.4424 125.5905 125.7328 125.8763 126.0168 126.1522 126.2100
124.3700 124.2811 124.1803 123.8389 124.8005 117.0621 125.1911 125.9050 125.5947 124.7361 123.2323 110.3303 121.7033 116.7075 119.1079 115.3920 117.3773 119.4008 117.0990 112.0620 124.9211 122.5798 119.8180 123.3410 122.8788 122.1091 122.2163 116.3368 121.4727 122.7698 122.2061 122.1457 122.2013 122.2618 122.3427 122.4248 122.5131 122.6328 122.7170 122.5513 123.0062 123.0452 123.1762 123.3053 123.4310 123.5708 123.6968 124.3077 123.9744 124.0639 124.2126 124.5504 124.4874 124.7502 124.8544 125.0115 125.1585 125.3088 125.4518 125.5961 125.7493 125.8975 126.0429 126.1600
124.1100 124.3004 123.9870 123.9191 125.7792 105.9282 122.3062 127.3160 127.6342 123.4630 118.2580 112.3822 114.9564 115.4384 101.8833 109.2224 119.0728 114.3217 117.8930 112.2248 122.3417 125.5198 121.9180 121.8594 121.5758 121.6684 121.7441 120.3327 122.2699 113.1225 122.0256 121.8951 121.9096 122.0039 122.0485 122.1326 122.2689 122.3510 122.2737 124.1985 122.3748 122.8167 122.9502 123.0759 123.2156 123.4026 123.4886 123.4183 119.6589 124.9860 124.6593 120.0200 125.0819 124.4366 124.7267 124.8582 125.0085 125.1613 125.3201 125.4658 125.6209 125.7672 125.8879 126.0000
124.1100 123.4516 123.8078 123.6306 123.3146 120.0724 125.4873 125.8333 126.9363 116.1063 119.9639 108.3372 111.1132 116.3061 124.4216 100.6971 112.1762 115.4759 121.2144 113.5498 122.6836 121.4640 119.2945 121.2112 121.4774 120.9128 121.0512 119.4701 120.7613 120.5851 121.3215 121.6248 121.6342 121.5253 121.8403 121.9136 122.0353 122.2223 121.7965 117.4499 124.9211 122.6440 122.7295 122.8623 123.0169 123.1384 123.0003 124.1750 121.3926 121.3237 121.1875 123.8526 123.5133 124.3965 124.5737 124.7033 124.8606 125.0272 125.1824 125.3336 125.4915 125.6483 125.9214 125.9600
123.8700 122.2390 124.8211 112.3027 122.4537 123.0612 122.9619 122.0409 116.8427 115.7549 116.8800 116.3961 104.0532 118.7192 111.9661 98.4096 105.2673 112.1828 120.5531 116.6159 121.8010 121.1916 121.2567 121.6309 120.6962 109.0632 106.4915 122.1675 121.1432 121.4793 121.2857 121.2492 121.1647 122.5303 121.2596 121.5196 121.6284 122.0762 114.1919 118.9711 117.0701 122.3093 122.3932 122.6441 122.5715 122.8010 123.8038 119.3598 119.8154 117.4386 116.0767 121.8325 119.7727 124.3202 124.3732 124.5582 124.7270 124.8830 125.0629 125.2004 125.3641 125.5140 125.9548 125.7400
123.8300 123.7675 124.8584 128.4916 123.9366 122.9395 122.9064 123.9461 115.3092 117.3198 116.5503 111.5494 97.3154 108.2947 117.4914 104.8589 105.6093 113.6155 123.4798 111.1527 121.8199 120.8175 125.7453 118.5093 107.6769 109.0371 110.5402 120.5277 119.7652 112.3564 121.0602 120.8133 122.1839 114.9074 123.1145 117.2795 122.1009 121.9240 122.1352 124.8921 120.4845 122.4141 122.1819 123.1869 121.0044 125.3169 108.4387 121.2525 114.3212 119.0930 119.4311 124.2008 124.5351 124.0949 124.2461 124.4052 124.6047 124.7043 124.8607 125.0739 125.2380 125.4103 125.5104 125.7400
123.6100 121.9613 118.9816 117.9759 122.9387 122.6082 123.0018 117.3161 113.7876 116.1197 114.5862 116.3652 106.3424 108.0755 116.6360 106.7271 102.1843 108.7922 123.6075 119.5252 121.8717 120.5241 121.7138 123.0890 123.6430 121.7606 121.6783 118.9611 113.5522 121.4014 120.4224 120.3038 125.0335 116.0729 118.2450 110.5804 121.1867 121.1730 121.1316 121.7487 121.9137 122.3429 121.9278 115.7903 121.2092 109.5629 108.1199 125.1934 120.4934 123.1989 124.0370 123.3595 123.6771 123.8400 124.0787 124.2520 124.3464 125.1409 124.7029 124.9812 125.1112 125.2929 125.4547 125.5300
111.9700 121.4187 120.0556 122.4944 120.0604 122.8587 121.1827 120.7165 116.7497 116.5191 109.2394 118.6207 99.8656 103.8178 100.9928 109.1796 118.5727 111.1430 127.0431 121.0979 119.7995 120.1519 120.0773 120.0668 118.1625 119.6326 119.6927 120.5808 120.4876 119.9930 120.1648 119.7231 121.0777 125.6906 123.7986 121.3491 120.7869 120.9476 121.0966 121.2394 124.0303 115.1778 122.8568 119.9178 118.5994 122.0333 118.5256 122.5024 122.9288 123.3985 123.1972 123.1381 123.4385 123.7763 123.9319 124.0004 123.9404 117.4608 125.2754 124.8004 124.9910 125.1699 125.3414 125.5300
123.1000 123.4026 122.6337 123.0552 121.6350 122.2194 121.2089 101.1049 103.1566 124.8090 118.4092 113.6632 102.7866 107.1528 110.4698 119.1923 117.6120 120.4062 120.5550 119.6287 120.0051 119.8310 119.7396 119.7102 119.9491 119.8093 119.6811 119.5283 119.6084 119.7497 119.7926 120.0398 119.8061 115.8821 118.3633 121.1307 120.2455 120.6090 120.7703 120.9730 120.0948 122.6887 116.7266 120.1984 125.7959 122.3556 122.0914 122.7719 122.6239 122.8172 123.1813 123.3670 123.4714 123.5856 123.7785 123.8233 126.2403 122.8867 124.6011 124.7005 124.8777 125.0519 125.2318 125.3100
123.0300 122.9457 122.5919 122.5217 122.0925 122.9623 103.0379 113.6285 120.8058 121.2710 117.7366 111.4996 116.6907 102.6380 98.3046 114.7150 109.3039 105.6279 110.8042 119.6755 119.5219 119.4160 119.3448 119.2841 119.1865 119.1680 119.2138 119.2689 119.2960 119.3343 119.4014 119.4572 119.5927 120.4373 120.9036 123.0310 120.2288 120.3052 120.5096 120.6429 119.9860 122.2475 121.7345 118.0083 121.1039 121.5067 122.0835 122.1758 122.4345 122.5135 124.0517 112.3017 123.3506 123.2481 123.6438 123.8115 124.0634 124.3462 124.3336 124.5772 124.7576 124.9360 125.1156 125.2700
122.7700 122.6622 122.4803 122.3788 122.7051 118.8714 115.6065 104.1133 102.9551 100.7056 109.5464 110.9890 113.8049 105.4949 102.6511 102.4938 113.1513 118.1215 121.2833 119.2926 119.1863 119.0340 118.9463 118.9110 118.8697 118.8916 118.8539 118.8341 118.8676 118.9292 119.0044 119.1284 119.2137 119.0509 120.9485 118.4815 119.8766 119.9825 120.1459 120.3957 120.5448 120.7460 120.9311 121.0446 121.4331 121.6107 121.8331 121.9334 122.2603 122.4265 122.6824 122.7548 123.0174 123.2563 123.4671 123.6818 123.8078 124.6673 124.2142 124.4706 124.6423 124.8321 125.0258 125.0900
122.7200 122.5161 122.3658 118.0210 119.5357 121.8239 121.9009 108.6210 104.0515 113.5551 113.0738 110.5729 114.2289 106.5386 98.9902 103.1329 115.1560 121.5714 112.1306 118.7892 118.7828 118.5767 118.4771 118.3043 118.3422 117.9424 117.8687 118.5116 118.4226 118.4700 118.5800 118.6801 118.8160 119.0590 118.7600 119.3843 119.5236 119.6432 119.8165 120.1877 120.1893 120.4732 120.6812 120.9189 121.1525 121.3596 121.6135 121.8778 122.2517 122.7472 121.6718 122.8123 122.9259 123.1154 123.3257 123.5303 123.7343 123.9512 124.1301 124.3350 124.5474 124.7298 124.9975 125.0500
122.4700 122.3638 122.0244 121.4204 110.8659 112.8855 110.5730 116.6963 112.4428 113.9163 113.7967 109.4165 122.9784 120.8080 102.0262 111.1062 115.7511 118.7479 118.8345 118.5360 118.1762 118.2383 117.9660 118.6207 118.4338 117.8642 117.8962 117.5360 118.3524 118.4397 118.1416 118.2417 118.4700 118.5737 118.9238 118.8156 119.1147 119.2721 119.6539 117.1162 119.4469 120.3429 120.4147 120.6617 120.8899 121.1301 121.4048 119.4712 116.8738 120.1265 115.1511 123.0867 122.6190 122.9665 123.1808 123.3888 123.6032 123.8194 124.0154 124.2122 124.3796 124.7492 122.0654 124.8400
122.4200 122.1612 121.8804 121.6291 114.9136 114.5438 119.3603 120.2414 116.8516 101.4823 124.0189 104.2655 113.1856 93.6673 98.9394 108.6302 116.6468 115.1023 118.1892 117.9174 118.4865 117.8808 116.0636 116.8300 112.3577 117.8164 117.1840 122.8497 110.6953 119.1723 117.6818 117.8647 117.9637 118.2618 115.0395 118.4549 118.7356 118.9648 119.1764 119.7660 119.5844 119.8933 120.1535 120.3969 120.6841 120.6985 120.7742 121.9000 114.7185 126.4246 122.2608 122.4105 122.5986 122.8062 123.0349 123.2591 123.4716 123.6819 123.9006 124.1305 124.0093 124.7761 115.5999 124.8400
122.1500 121.9884 121.7850 122.6635 114.6398 110.7272 120.1719 113.4171 112.0950 114.0273 116.0417 99.1573 98.5744 104.1918 106.5699 108.0728 113.9414 108.1307 118.4799 117.4214 110.9863 116.0299 117.1237 118.5277 125.3588 116.2741 116.7939 117.2683 115.8932 115.4953 117.2559 117.0085 117.4873 118.1489 115.5227 118.6816 118.2416 118.6002 118.8371 119.1014 119.3174 119.6168 119.9006 120.1560 120.3427 121.1000 121.5056 120.3290 119.2476 121.1970 121.7989 122.0874 122.4276 122.6671 122.8943 123.1184 123.3450 123.5657 123.7882 123.9921 124.1879 125.2290 125.9281 124.8000
122.1000 121.8158 121.5347 119.6851 106.1508 104.1540 104.0379 111.9803 114.7582 114.2950 117.7881 96.9785 112.2810 101.8472 104.9457 121.8237 112.9143 117.3798 116.8528 117.1279 108.8560 115.1109 116.3618 116.5691 116.2608 116.0216 116.3777 116.3364 116.4084 116.3333 116.1913 117.1232 117.1394 116.9464 114.7042 118.1870 117.9935 118.1842 118.5054 118.7969 119.0690 119.3541 119.5720 119.8436 120.9837 114.3589 114.8626 122.7067 121.8024 121.5477 121.8255 122.0451 122.2718 122.5173 122.7582 122.9922 123.2211 123.4535 123.6736 123.8850 124.1213 124.2238 124.3951 124.5900
121.7900 121.5806 121.7173 116.9662 113.4818 108.7558 105.6430 104.4658 105.2367 120.5987 118.9502 108.7633 103.6279 105.7951 109.1323 117.1582 99.4184 104.1325 112.4512 116.6636 115.4249 116.1070 115.7557 115.9138 115.9193 115.8605 115.7567 115.8025 115.8720 115.9293 106.4097 105.5524 117.4813 124.0440 112.4604 125.2133 116.8188 117.8481 118.1378 118.4169 118.6757 118.7664 119.7211 119.1245 120.2120 113.1722 109.6524 114.0449 121.1015 121.2170 121.5938 121.8716 122.1226 122.3823 122.6228 122.8650 123.1045 123.3371 123.5641 123.7896 124.0241 124.2630 124.4624 124.5500
121.7300 121.8848 118.1555 106.2517 108.0673 108.2156 106.3141 105.0896 104.8187 109.8312 109.2889 113.8683 116.4610 103.3324 99.7083 101.6106 111.5555 110.6160 116.6162 116.1215 115.7810 115.5518 115.2762 115.3088 115.1709 115.1329 115.1122 115.2415 114.9438 117.0872 115.8553 115.4229 116.4366 116.1365 112.8864 121.9556 116.9465 117.5992 117.7920 117.9605 119.4073 110.9153 114.6634 120.8670 120.2786 122.2843 111.2545 112.6007 121.1774 121.1026 121.4671 121.7187 121.9853 122.2433 122.4944 122.7501 122.9932 123.2299 123.4682 123.6931 123.9112 124.1227 124.3433 124.5100
121.4700 122.7030 112.0408 107.6524 116.1165 100.2274 105.4851 106.0888 100.9544 99.6522 103.4858 111.3467 115.3375 114.9199 117.1932 116.5569 110.1523 102.4919 115.8290 115.4708 115.2964 115.0316 114.9897 114.5957 114.5428 114.4797 114.4082 116.8504 105.0185 114.9647 105.9520 115.7714 115.4623 115.8767 115.9855 116.3695 116.4054 117.0967 117.4056 117.7492 118.3185 113.7617 113.0057 113.2039 106.9460 113.1349 114.0141 122.3515 116.8655 121.2939 121.2891 121.5682 121.8462 122.1130 122.3710 122.6328 122.8796 123.1279 123.3660 123.5989 123.8256 124.0530 124.2717 124.3300
121.4100 113.5311 110.9935 120.8221 131.7134 113.4688 107.2362 106.6104 106.3502 101.5005 101.5247 106.2016 116.0207 116.5219 116.4644 116.6131 115.8488 112.8537 116.0091 114.9561 114.6511 114.3686 113.6218 114.6057 113.5613 113.7617 113.9731 111.8547 122.3228 116.8777 114.9189 114.6616 114.9075 115.1740 115.5997 115.9307 116.3368 116.7108 117.0737 117.4825 117.7386 118.4159 115.0720 123.6972 119.7578 110.3913 113.6064 120.5326 120.6687 120.8515 121.1516 121.4309 121.7152 121.9882 122.2612 122.5234 122.7766 123.0279 123.2713 123.5073 123.7451 123.9699 124.1877 124.3000
121.1400 116.6203 111.6166 118.2747 114.9317 121.5635 113.6808 109.0855 104.6553 102.7952 99.3227 111.0057 107.9708 116.9555 116.2258 115.9296 115.9273 115.4667 114.6355 114.3931 114.0062 113.6823 114.9170 121.0154 113.0773 113.0037 112.9548 112.5905 111.8769 110.6765 113.6087 114.0466 113.2736 114.5252 115.0707 115.4639 115.8777 116.2290 116.7027 117.1300 117.5058 117.5336 118.6045 119.4967 112.7098 107.5594 115.8270 120.1804 120.3263 120.6848 121.0006 121.2998 121.5921 121.8742 122.1475 122.4226 122.6805 122.9326 123.1844 123.4289 123.6671 123.8851 124.1251 124.2700
121.0900 108.3686 99.6337 121.9589 122.0625 112.9934 104.4342 97.4398 104.8248 103.5547 101.1034 103.1549 110.9365 118.1440 115.8202 115.5218 115.0667 114.6663 114.1851 113.7493 113.3349 112.9845 112.6108 111.7415 111.6183 112.0868 112.0533 112.2337 112.6974 112.4710 112.8777 113.1501 115.9619 116.2968 114.2388 115.0265 115.4508 115.8507 116.0007 117.0879 116.9761 117.7443 101.9660 105.6484 117.1342 119.2708 119.7442 119.8916 120.2227 120.5503 120.8765 121.1893 121.4751 121.7648 122.0427 122.3247 122.5941 122.8533 123.1052 123.3527 123.5924 123.8562 124.0003 124.2500
121.0400 121.6740 107.0128 102.6387 98.3688 115.3753 105.7989 101.5282 108.7811 105.5811 105.0662 105.1605 115.8221 109.6747 115.6381 115.1138 115.2068 114.1151 113.6026 113.0844 112.6538 112.1599 111.6184 111.5852 111.3575 111.0865 111.0440 111.0989 111.2619 111.6664 112.0761 112.7355 110.5904 113.0410 114.0072 114.4859 114.9904 115.9762 109.7380 115.4420 116.7711 117.5648 118.8837 118.3305 118.9055 118.8825 119.2991 119.7314 120.0697 120.3461 120.6123 120.9262 121.3009 121.6624 121.9492 122.2261 122.4703 122.7569 123.0317 123.2864 123.5234 123.6758 125.1229 124.2200
121.0000 118.0205 109.5302 120.7397 101.5010 101.2275 104.8888 123.8128 106.7895 102.0106 98.5352 129.4960 120.5532 109.4159 115.6278 113.7813 113.6594 113.4206 113.0292 112.4156 112.2440 106.6759 111.1926 110.4165 110.0963 109.9578 109.9417 110.0901 110.3709 110.7361 111.2134 111.7207 112.4497 113.5301 113.4196 114.0915 114.6774 115.0460 116.1432 116.5943 117.0654 113.1928 117.5659 119.4139 118.3890 119.8772 119.3331 119.6242 119.9603 120.8202 121.7484 121.6455 121.5130 121.4011 121.8671 122.1623 122.5878 122.6748 122.9691 123.1971 123.6880 124.1110 122.7624 111.8300
120.7300 115.0473 111.3125 119.3300 114.5968 112.9650 112.0471 101.5982 101.1713 104.9761 111.5093 110.5032 117.9993 116.2565 114.3379 115.2679 114.0944 113.0675 112.4152 111.6834 111.6231 109.1548 110.3123 109.2836 108.9211 108.6843 108.6687 108.8477 109.2010 109.6966 110.2896 110.9241 111.5864 112.2790 110.5920 113.2620 114.1052 114.7080 115.1977 115.8541 116.2541 122.5109 117.2486 117.7906 118.2558 118.5723 119.0236 119.4543 119.8113 118.2837 115.2439 116.6817 121.1818 121.9670 121.7357 121.9629 120.0217 122.6540 122.9070 123.1562 123.4953 123.0778 124.1821 124.0200
120.6900 112.6460 110.3011 114.9018 120.2535 111.4027 108.2202 113.5107 115.0786 104.1589 117.5322 116.4057 113.6458 115.4760 114.5504 113.9191 113.1130 112.5042 111.8016 111.0446 110.2623 109.4227 108.6520 108.0501 107.5121 107.2048 107.1768 107.4180 107.9083 108.5549 109.2906 110.0748 110.7830 111.8328 112.1961 116.0122 113.5757 114.4666 115.0233 115.9150 116.5308 123.0712 116.9965 117.6015 118.1187 118.5603 118.9553 119.3903 119.8301 120.6318 107.9278 105.3503 116.4202 121.0656 121.4547 121.4351 121.2639 122.5286 122.8574 123.1131 123.3981 123.6626 123.7726 124.0000
120.6300 111.1971 109.2081 117.3471 126.7172 112.6666 94.1988 119.4278 103.4954 109.7407 123.6791 118.4102 115.3966 114.9503 114.2627 113.5524 112.8604 112.0713 111.2271 110.3520 109.4202 108.4471 107.4758 106.5677 105.8571 105.4304 105.3726 105.7357 106.3978 107.2768 108.1798 109.2150 110.1566 110.8906 111.2101 115.6740 113.1404 114.1111 114.7489 115.4013 114.8981 115.6217 117.0402 117.4949 117.9511 118.3857 118.8092 119.3808 120.1981 138.1724 120.2437 114.9921 107.4431 122.0910 121.5569 122.1360 122.4361 122.5355 122.7895 123.0506 123.2884 123.5805 123.8423 123.9700
120.6100 110.0045 109.0636 116.5004 113.8385 106.6692 98.4743 97.5247 101.4123 104.9075 108.9665 116.8747 115.0180 114.5935 113.9862 113.2467 112.4543 111.6036 110.6854 109.6801 108.6050 107.4116 106.4700 105.2317 103.9015 103.1761 103.0966 103.6976 104.7377 106.0992 107.1700 108.2788 109.4215 110.7305 111.7876 112.0009 113.0862 113.8055 114.5114 115.1535 115.8864 116.2905 116.8447 117.3524 117.8605 118.3218 118.7399 119.1956 119.9591 124.6542 121.2756 118.2598 120.6697 121.1732 122.1644 122.8123 122.2221 122.4608 122.7591 123.1308 123.3261 123.5414 123.7515 123.9600
120.5900 109.6039 108.7190 125.2504 108.4935 109.7623 111.1353 109.6569 102.2037 103.3670 119.2691 119.4075 115.0695 114.3744 113.7618 112.9825 112.1447 111.2235 110.2107 109.0877 107.8017 106.7985 101.3811 103.1304 101.3973 100.2531 100.0518 101.0368 102.8341 100.1481 106.1450 107.5923 108.7245 109.5260 107.3097 112.0461 112.8451 113.5790 114.3085 114.9612 115.5850 116.1859 116.7290 117.2966 117.6181 118.0470 118.6194 119.0681 119.2663 120.0388 116.6229 121.3536 120.8618 121.5213 120.7195 122.5141 122.2001 122.4449 122.7238 123.0853 123.1846 123.5368 123.8070 123.9500
120.5700 118.7023 121.2455 121.2057 110.0319 110.9151 108.9831 105.8765 101.7232 103.2052 120.1358 119.6999 115.0548 114.2736 113.5801 112.7793 111.9000 110.9200 109.8321 108.5904 107.1822 105.5706 102.3313 101.1392 98.4598 95.4566 95.1040 97.7466 100.6300 103.0082 105.1778 106.6815 105.9069 109.3896 110.4440 111.6483 112.5803 113.4052 114.1547 114.8603 115.4949 116.0812 116.6882 117.0387 118.3587 118.8029 118.4945 119.0240 119.7375 119.1115 126.8759 119.8288 120.6825 121.1974 121.4278 121.8464 122.1423 122.4156 122.7294 122.9081 123.2874 123.0997 123.6349 123.9400
120.5600 113.1162 124.9757 118.4921 107.9955 109.3071 103.6390 104.3961 100.5617 102.1013 119.2583 114.7679 114.8836 114.2028 113.4681 112.6418 111.7306 110.7165 109.5712 108.2624 106.7096 104.8401 102.5815 99.3779 94.4984 89.0172 88.3655 92.9544 98.5284 101.8797 104.3302 106.2681 107.8534 109.3587 110.4925 111.5256 112.4467 113.2800 114.0748 114.7405 115.4039 116.0599 116.2654 122.1011 109.3186 118.7400 118.2626 118.9759 119.0817 123.6777 120.3884 121.2036 121.2049 121.1630 121.5144 121.8341 122.1205 122.6571 122.2685 123.8607 121.9889 123.7862 123.7908 123.9300
120.5600 120.1041 119.7946 118.5810 108.4089 107.7759 104.0343 100.2654 107.4691 122.4696 114.8835 115.5901 114.8581 114.1762 113.4231 112.5903 111.6606 110.6316 109.4660 108.1078 106.5055 104.5347 101.9964 98.4086 91.6503 85.0506 84.3754 89.6205 97.3844 101.2807 103.9999 106.0799 107.7597 109.1739 110.3850 111.4410 112.3840 113.3221 113.9363 116.3307 115.3299 116.0066 117.3845 123.8159 114.9204 118.0131 118.5839 118.9750 118.5409 124.7582 106.6955 104.7485 122.1096 121.0032 121.5043 121.8173 122.1190 122.6735 122.2057 122.6426 108.9049 109.1174 121.4482 123.9300
120.5600 120.2065 119.7272 118.5191 108.2914 107.7461 104.4025 100.6864 107.2329 122.0086 115.0527 115.4884 114.9167 114.1865 113.4406 112.6104 111.6952 110.6672 109.5041 108.1680 106.5913 104.6639 102.2083 98.8220 92.6681 87.0928 86.4131 90.9757 97.9243 101.5238 104.0866 106.6950 107.8565 109.2116 110.4141 111.4655 112.4050 113.3164 113.9589 116.4807 115.2978 116.0007 117.9434 122.8141 106.4553 118.4046 118.4154 118.9852 118.9530 124.1328 119.9665 121.5181 120.8517 121.1353 121.4938 121.8563 122.0951 121.8964 130.4173 125.4315 108.1266 117.4558 120.3756 123.9300
120.5600 120.2727 119.9791 115.4067 107.8748 108.9443 109.9643 108.1106 104.5608 108.4360 117.0172 116.7943 114.9543 114.2636 113.5225 112.7138 111.8130 110.8253 109.7009 108.4263 106.9475 105.1945 103.0483 100.3619 96.6431 92.3976 91.8758 95.8161 99.6350 102.5170 104.2268 111.5797 107.5147 109.4602 110.5912 111.6134 112.5403 113.3496 114.1155 114.7949 115.5091 114.0159 119.1183 119.8927 105.1448 119.3147 118.2972 119.0061 119.0953 123.2520 119.3689 120.2262 120.7189 121.2381 121.5256 121.8881 122.4478 122.5423 122.0898 122.1315 125.6073 114.1350 120.8614 110.2300
120.5700 120.2702 120.1338 116.9622 111.0937 110.2968 114.1358 104.8590 113.2562 105.6821 119.8103 117.3589 115.1319 114.3696 113.6744 112.8863 112.0280 111.0794 110.0329 108.8592 107.5306 106.0119 104.2551 102.3033 100.2222 98.4770 98.2216 99.7653 101.8133 103.6440 105.7190 106.9573 108.4473 109.7677 110.8383 111.7878 112.4854 113.4180 114.2079 114.9976 115.7744 109.3083 108.9501 112.5754 109.3611 119.2569 118.4238 119.0410 119.4770 119.5183 120.0895 120.6714 120.9871 121.1533 121.3767 122.0442 123.9181 124.8488 122.9154 123.0599 122.8671 124.8322 120.1597 107.9800
120.5800 120.3157 120.0911 117.7610 110.1391 108.9806 114.4596 104.1200 103.7172 117.3009 114.7306 115.5843 115.1991 114.5711 113.8746 113.1214 112.3176 111.4357 110.4746 109.4175 108.2541 106.9927 105.6231 104.1955 102.8740 101.9611 101.8536 102.6215 103.9074 105.0468 106.7552 108.0377 109.2122 110.2274 111.3063 112.1161 114.4942 113.8908 114.4365 115.0777 116.2080 110.7730 109.5101 110.0112 118.5191 118.3115 118.6977 119.1029 119.5019 119.9564 120.2769 120.5719 120.9721 121.2704 122.5325 121.9084 123.9023 125.2908 122.8027 122.8923 123.3647 124.9996 115.7650 110.7100
120.6000 120.5631 120.0530 113.3642 106.8875 110.3136 114.7851 124.3222 115.9703 118.6274 116.6816 116.0527 115.4025 114.7830 114.1208 113.4177 112.6698 111.8553 110.9883 110.0543 109.0621 108.0202 106.9411 105.9235 105.0408 104.5046 104.4355 104.8910 105.6898 106.7067 107.7562 108.8085 109.8250 110.7824 111.3141 111.6361 114.4344 110.4322 114.5848 115.2071 116.6669 108.8366 119.0890 121.1563 118.5782 118.0817 118.7805 119.1909 119.5791 119.9475 120.3126 120.6594 121.0328 121.8247 112.2743 122.6074 122.3876 122.7301 122.9375 123.0394 123.4111 123.0780 129.3856 134.3500
120.6200 119.9537 122.2649 105.7431 105.1121 121.3407 116.6776 117.6349 113.6222 116.0220 116.4137 116.2019 115.6252 115.0374 114.4171 113.7617 113.0637 112.3242 111.5529 110.7358 109.8909 109.0413 108.2093 107.4260 106.8183 106.4468 106.4134 106.7147 107.2700 108.0193 108.8435 109.7018 110.5441 111.4025 112.1517 117.0426 115.7546 112.5845 114.6316 115.7833 112.8821 112.2425 115.9516 116.8619 117.9359 118.4600 118.8820 119.2859 119.6722 120.0384 120.3982 120.7350 121.1043 121.3797 118.3265 121.5644 122.1375 122.5220 122.8862 123.0505 123.3312 122.6900 130.1524 130.8400
120.9100 121.9479 105.7433 123.2543 113.6139 119.4705 118.3766 114.5392 111.6537 117.2047 116.7668 116.4077 115.8768 115.3247 114.7396 114.1365 113.4948 112.8307 112.1457 111.4362 110.7162 110.0195 109.3261 108.7834 108.3324 108.0918 108.0471 108.2430 108.6575 109.2122 109.8597 110.5623 111.2654 111.9499 113.2454 105.3369 115.0514 115.0617 115.4877 115.8760 114.3077 118.5857 122.5931 117.3732 118.2655 118.6148 119.0062 119.4003 119.7756 120.1303 120.4836 120.8185 121.1304 121.4827 122.4488 122.8133 122.2337 122.6065 122.9418 123.2303 123.3525 124.3956 120.6168 109.8400
120.9500 110.8491 103.1476 111.4643 127.7600 118.7707 119.0661 118.8728 118.4873 117.6384 117.1232 116.6395 116.1307 115.6211 115.0840 114.5264 113.9458 113.3515 112.7473 112.1329 111.5437 110.9010 110.4314 109.8593 109.5765 109.2729 109.4015 109.5499 109.8624 110.2909 110.8156 111.3803 111.9908 112.5969 113.1495 113.3337 114.1858 114.6831 115.4895 115.9534 116.8764 117.0734 117.1698 117.7852 118.4277 118.7444 119.1488 119.5267 119.8937 120.2357 120.5812 120.9062 121.2253 121.5340 121.7168 122.0324 122.4541 122.6261 123.0088 123.1189 122.8129 121.8607 112.1161 125.8000
105.1200 102.7195 121.4044 117.7581 120.4337 119.4359 119.0000 118.5299 118.1160 117.7222 117.3507 116.9123 116.5379 116.0010 115.4585 114.9487 114.4128 113.8862 113.3381 112.8182 111.8738 111.8551 110.9748 112.2474 110.9676 111.0850 110.5922 110.6911 110.9366 111.2748 111.7000 112.1886 112.6981 113.2206 113.7455 114.5291 114.8851 115.3285 115.8575 116.1796 116.5760 120.2423 110.1430 119.2870 118.0129 118.9359 119.3019 119.6677 120.0163 120.3613 120.6889 121.0108 121.3189 121.6201 121.9759 121.9792 122.2680 122.7054 122.8831 127.9115 123.5168 118.5225 105.8082 111.6700
121.0300 119.6089 119.1222 120.5339 119.7522 119.5386 119.1858 118.8109 118.4233 118.0338 117.6665 117.3065 115.3393 115.6790 115.8431 115.3513 114.8972 114.3965 113.9402 113.4637 112.7726 113.8529 112.9778 108.1940 99.2749 112.5935 111.6353 111.7011 111.9036 112.1806 112.5282 112.8478 113.4500 113.8616 114.1830 114.8102 115.3922 115.3868 116.0097 117.0020 114.4736 123.3057 108.1524 112.6880 119.1247 119.1709 119.4449 119.8208 120.1619 120.4937 120.8150 121.1208 121.4225 121.7043 122.1312 122.5281 123.8536 122.8202 123.1692 123.3049 123.9905 111.9984 119.4561 108.4500
121.2900 120.6644 120.7173 120.3818 120.0588 119.7123 119.3668 119.0108 118.6397 118.2421 117.8462 118.7840 104.1136 115.8627 115.9696 115.6712 115.3709 114.9647 114.3452 114.1093 113.5368 112.5523 101.8388 104.1058 114.5964 112.2642 112.5413 112.6136 112.7772 113.0052 113.2950 113.6151 113.6277 111.1019 114.6994 115.2440 115.6079 117.8439 120.8256 116.7242 117.4983 113.6653 106.2837 113.3136 120.0464 119.0548 119.6403 119.9761 120.3066 120.6331 120.9383 121.2487 121.5416 121.8114 122.1285 123.2441 110.1406 106.1231 123.2098 123.4361 123.6491 124.1086 130.4104 135.0500
109.9000 104.0146 122.9295 120.2784 120.2175 119.9091 119.5599 119.2250 118.8726 118.3279 117.6929 114.4790 103.4506 112.1888 117.0615 116.8264 116.8042 115.3343 115.0400 114.7107 114.1855 115.1387 114.2176 114.4429 113.2067 113.4146 113.3742 113.4421 113.5740 113.7634 114.0105 114.2446 115.2003 111.5978 116.0842 115.3671 116.3528 114.6877 119.6339 116.9306 117.5392 118.8417 119.2816 119.0987 119.0650 119.5070 119.8171 120.1491 120.4679 120.7778 121.0828 121.3717 121.6586 121.9386 122.2157 122.4160 123.8589 124.4661 123.5994 123.3299 123.8056 123.7443 120.5043 111.0800
121.3900 121.7017 120.7324 120.7620 120.3947 120.0884 119.7639 119.4302 119.1886 115.8495 112.6008 94.3619 115.3322 117.9967 110.1528 117.8339 125.4538 115.6538 115.4267 115.2827 115.0217 114.5228 114.5137 114.2290 114.2595 114.1459 114.1416 114.1927 114.3038 114.4718 114.6766 114.9465 115.2336 116.8926 103.3804 116.7791 116.6335 117.2329 112.1589 117.6836 118.0338 118.2776 118.6460 118.9501 119.3734 119.6999 120.0141 120.3299 120.6326 120.9305 121.2248 121.5073 121.7916 122.0562 122.3198 122.5887 122.5762 122.6546 123.1725 122.8665 124.6348 125.9781 138.1535 114.1900
121.6500 124.3623 120.9385 120.9010 120.5871 120.2857 119.9677 119.6801 120.3704 108.1341 112.7686 122.8406 120.3199 118.2154 115.2915 111.7588 102.6097 116.4054 116.3298 115.8437 115.5725 115.4023 115.1631 115.0255 114.8961 114.8478 114.8401 114.8889 114.9806 115.1230 115.3097 115.5181 115.7907 115.6080 116.5520 118.6802 117.0215 116.1448 116.5143 112.8142 118.2714 118.5840 118.9999 119.2981 119.5939 119.9050 120.2155 120.5167 120.8076 121.0951 121.3827 121.6523 121.9190 122.1867 122.4495 122.7083 123.0692 123.3855 123.7000 123.4556 127.6880 115.9403 131.7534 136.0800
124.9000 135.2300 121.2900 121.0800 120.6500 120.4200 120.1900 119.9700 119.4600 119.2100 96.9500 118.7200 118.1300 117.8500 117.5600 117.2500 117.2500 116.6300 116.3000 115.9900 115.9900 115.6300 115.7200 115.2800 115.3200 115.3700 115.3700 115.3300 115.2800 115.7300 115.6600 116.0100 116.0100 116.3200 116.6300 116.9800 117.2500 117.5400 117.8400 105.7100 118.7200 118.6700 119.2000 119.4400 119.7000 119.9400 120.4100 120.6400 120.8600 121.0800 121.5000 121.7000 122.0900 122.2800 122.4700 122.8400 123.0100 123.1900 123.5300 123.6900 129.1000 107.2100 120.3800 108.9800
