119.0800 104.1900 104.2700 119.0800 119.4200 119.4000 119.3700 119.3300 119.6100 119.5600 119.8100 120.0400 120.0000 120.2500 120.4400 121.0400 120.8700 121.1700 121.2700 121.2300 107.8100 107.8100 121.9900 122.1900 122.3900 122.5300 122.7000 123.0700 123.2000 123.3600 123.5200 123.8600 123.8600 124.1400 110.9100 124.4300 124.7200 124.8700 125.0000 125.2700 125.4000 125.5300 125.7900 125.9200 126.0400 126.2900 126.4000 126.5200 126.7600 126.8700 126.9800 133.3600 126.1400 120.4600 105.6400 105.7400 106.2400 114.4900 116.0600 108.2400 118.7700 128.6300 128.7200 128.8200
119.0800 109.4000 107.3892 118.1415 118.8657 119.1231 119.1967 119.2417 119.3196 119.4493 119.5773 119.7253 119.8831 120.0566 120.2061 120.4241 117.4472 120.9693 120.4356 117.4664 113.0824 108.2355 123.7052 121.1487 121.9568 122.2364 121.3385 123.7314 122.8418 123.2682 123.4411 123.7032 123.7939 125.3245 120.9947 128.5769 127.9005 126.6735 126.1916 124.7526 127.4246 126.1034 125.7985 125.6931 125.3546 125.7041 121.7694 119.7209 115.6327 127.9091 127.3927 131.1877 122.8423 112.9494 105.0995 112.2455 105.3242 113.1788 110.7666 105.6291 110.9382 115.9122 129.1878 128.8000
118.6900 120.3542 122.1684 120.1557 117.3710 118.7054 118.5167 118.7646 118.9284 119.0591 119.2061 119.3615 119.5366 119.7139 119.8860 120.3274 118.8367 120.2109 120.8663 125.2116 112.4997 100.6948 114.8738 123.8405 122.4825 123.1030 123.7881 112.8854 124.0968 123.0419 123.3571 123.4211 124.4694 112.9001 126.5749 109.1266 110.5808 111.8464 118.4426 125.5235 126.6832 124.9828 125.3534 125.7922 127.5492 128.3558 116.2191 118.8377 108.2532 127.8231 123.3146 122.5175 110.2892 110.9891 112.1471 109.4913 104.9873 108.4399 110.0606 105.8111 104.4339 125.9608 128.1404 128.8000
118.2800 119.0082 122.1966 112.7533 111.0354 118.2171 118.8534 118.3499 118.5116 118.6576 118.8203 118.9956 119.1783 119.3672 119.6088 119.7428 120.0133 120.4172 119.8960 120.4993 111.7194 112.6593 110.1781 109.8034 114.7048 120.1269 117.5279 112.7370 123.1973 122.9393 123.0172 122.7304 125.9792 108.0514 115.7319 114.8930 114.7320 96.8118 122.4773 123.9860 130.1483 125.0026 126.1754 124.2725 107.8107 116.8422 110.6443 114.5504 120.0767 121.3815 117.9855 115.6122 119.6605 122.9264 104.6150 109.2424 108.9289 104.4771 105.5695 107.7629 107.1870 128.8268 127.8370 128.6700
117.8500 117.4514 118.6263 97.2573 107.9236 106.4068 117.8368 117.9208 118.0805 118.2414 118.4193 118.5995 118.8067 119.0183 119.2397 119.4656 119.7018 119.9436 120.4650 117.8300 101.0781 109.4479 105.5929 108.9022 118.5180 121.1704 122.0975 123.0815 122.4460 122.7952 123.8210 113.2696 120.5311 120.2855 122.2551 120.7387 107.4627 121.9156 125.4526 125.2133 127.9074 126.7562 112.2004 120.0783 105.3428 110.6509 108.6097 109.8782 116.2591 118.8808 120.6512 121.3190 124.5198 123.9347 122.3731 109.1382 117.9910 105.3477 106.0694 108.0734 109.6371 125.1256 129.3678 128.6500
116.9300 117.4128 119.5061 104.8381 111.7888 114.8171 117.1936 117.4908 117.6316 117.8107 117.9874 118.2055 118.4154 118.6548 118.8918 119.1439 119.3924 119.6567 119.8515 117.8428 112.1638 117.7193 100.3747 117.9706 121.1425 121.9618 122.1089 122.1280 122.3524 123.2383 116.2992 117.7134 117.3576 124.3082 125.5355 116.4850 114.6339 124.3521 125.4601 115.9916 114.0077 115.0614 105.3425 105.5032 103.9456 107.9927 115.6617 117.0712 118.7879 114.9790 112.5686 115.9286 121.0869 113.7741 117.1222 110.9750 119.4394 108.2577 110.1130 111.9890 113.7129 115.6572 119.5528 117.8000
116.4300 117.1979 106.8504 119.3922 113.6755 115.9486 116.7433 117.0141 117.1598 117.3507 117.5777 117.6193 118.0205 118.2812 118.5386 118.8121 119.0719 119.4005 119.2700 121.0099 112.0631 105.9209 120.3193 121.3372 121.1019 121.5208 121.7601 121.9923 122.2745 122.5056 122.5281 119.1116 121.2870 124.0674 104.9741 123.9943 124.2825 124.0454 124.2180 111.1927 121.9466 103.1243 103.0075 104.2729 106.4325 116.8835 116.8852 107.7971 104.4655 102.7353 121.6330 125.7346 128.1518 115.2997 112.4564 110.9100 117.5080 106.1331 117.2211 113.6868 111.5562 119.3222 118.2301 117.6900
115.9000 116.3847 100.1309 108.2279 109.3013 118.9787 116.2984 116.4717 116.6617 116.8826 117.1670 117.1434 121.5705 117.4724 118.2736 118.4657 118.7661 119.0276 119.4219 119.4123 119.8836 120.9467 113.8343 118.8556 120.9650 121.3783 121.5709 121.8447 122.0945 122.3797 122.5943 123.0124 121.9398 122.4268 106.7534 105.1583 105.2941 114.3090 124.7256 112.8852 117.7838 104.2241 104.8958 116.1039 105.7989 108.4940 104.6413 103.0347 121.8750 127.1276 126.1158 126.6754 102.1402 104.9690 109.7260 113.4334 119.8955 115.1250 115.7897 117.1427 114.9025 126.8325 125.8043 122.8300
115.3400 115.3834 115.1111 110.4418 110.6870 114.1677 115.8398 115.9150 116.1446 116.3941 116.6141 116.5685 118.1230 116.9095 117.8644 118.1204 118.4416 118.7703 119.0593 119.4033 119.6820 119.7416 128.7585 119.7347 120.9919 121.1285 121.4100 121.6870 121.9746 121.4492 121.9208 120.3942 103.6376 104.6934 121.3035 101.9545 99.6598 125.3929 105.7779 108.5270 110.0675 108.2999 104.1752 122.6356 116.2480 124.8267 115.0822 110.1110 127.9316 126.2649 118.8709 111.7178 106.7481 107.9651 107.6322 118.4431 115.6173 117.0614 114.4976 127.1891 128.5099 127.8989 116.8645 110.3400
114.7300 114.8448 115.1518 103.5102 103.0008 115.5682 115.0446 115.3343 115.5913 115.8665 116.2181 116.0170 116.5067 117.1063 117.4492 117.7943 118.1218 118.4749 118.6454 120.3982 119.4192 119.5645 120.1279 121.9083 120.6231 120.9464 121.2488 121.4926 122.3667 116.9000 120.9197 104.1679 124.1087 122.0557 103.6171 106.0645 105.5969 120.0622 103.3656 115.2225 102.3634 107.3926 102.6157 122.1473 108.9511 121.5783 107.1083 113.8637 126.9973 125.8729 124.5082 114.7946 111.8618 115.3334 115.1606 112.3352 108.2210 106.2455 129.0037 127.6432 128.4406 120.6670 124.5481 106.4800
114.0800 114.5833 104.3553 114.3718 106.3282 115.2854 114.5679 114.7411 115.0062 115.3312 115.6606 115.9971 116.5358 116.6718 117.0786 117.4441 117.8075 118.1643 118.5291 118.8474 119.0944 119.6983 119.8950 125.3425 120.2659 120.7897 121.0992 121.3987 121.6225 121.6752 122.2199 125.5287 116.8746 116.0737 103.5687 118.1947 116.1784 118.2232 111.3884 118.4046 110.8041 104.2570 104.5082 105.9207 109.7317 109.4967 111.1382 113.1705 121.9176 116.3191 124.2440 107.2379 104.3964 104.6103 106.1928 107.4345 108.7571 111.6024 128.6296 127.8924 128.3060 124.8478 126.8519 111.8500
113.3800 113.1115 117.6705 100.4249 103.8214 114.4578 113.8193 114.0869 114.4029 114.7732 115.0689 115.5030 115.8158 116.3195 116.7008 117.1049 117.5004 117.8021 118.2155 118.6214 119.0202 119.4529 119.1052 120.7792 120.2061 120.6441 120.9740 121.0288 121.4099 121.7749 121.3167 118.1585 121.5608 108.8511 100.4610 113.7030 111.8036 126.1334 110.4311 116.0810 107.2997 102.4453 103.1323 109.8162 109.2105 114.9335 111.8654 117.0186 119.0435 116.2842 106.5106 102.9340 103.6293 107.7112 104.3435 106.8259 108.1367 118.3355 128.4011 127.8045 127.9307 128.3510 129.0260 128.0700
112.6100 112.4661 112.7732 111.0248 110.2627 110.6963 113.0228 113.3899 113.7679 114.1555 114.5758 115.0316 116.0691 115.7101 116.3400 116.7761 117.1448 117.8392 118.0784 118.3776 118.7657 119.1259 119.8171 119.8784 120.1798 120.4772 120.7828 122.4339 122.5020 121.6507 120.6394 118.6267 118.9828 122.8021 112.8925 125.4232 125.7041 120.0159 116.7811 108.7208 103.1129 105.5322 108.7581 106.1252 108.9347 114.9431 115.9033 121.8997 126.4632 115.1186 119.4028 111.9747 112.0155 113.3148 105.1189 105.2286 104.9649 115.2121 127.0877 127.7168 128.0783 128.0192 126.5007 141.2200
111.7700 111.5399 112.4065 100.0005 113.0231 111.6328 112.3007 112.6546 113.1023 113.5607 114.4924 109.9099 114.0103 115.5755 115.9959 116.3789 117.3579 113.3902 118.1549 118.0870 118.5368 118.8556 119.2371 119.6675 119.9985 120.4240 120.7938 114.0122 120.3929 120.6002 123.6915 125.6832 115.9956 113.8539 116.8199 124.9987 107.4269 117.8203 116.9759 113.8027 101.1470 106.2040 114.3916 109.6433 110.8083 111.2745 127.3785 126.3051 122.8492 126.6174 109.1827 122.0267 111.9091 115.3008 106.1783 105.7427 105.6716 107.2150 124.9036 127.1945 127.9971 128.5617 127.1978 141.2200
110.8400 110.4641 111.0717 111.7117 110.4578 111.0596 111.3938 111.8743 112.3727 113.0240 113.2834 113.2896 111.8422 115.1541 115.5617 116.0842 116.7085 115.6724 117.3896 117.9459 118.3426 118.7501 119.1513 119.5077 119.8659 120.2505 120.7859 117.6559 121.4917 121.4242 113.3899 107.4048 104.8960 102.8635 103.0411 117.2625 99.6127 122.4102 112.8877 105.5515 108.1374 110.8174 108.2898 106.5507 124.0169 122.9818 125.4496 125.8271 126.6965 114.3592 115.1243 120.4480 105.8613 116.9790 107.0138 103.2548 105.3580 110.2132 122.5019 129.1450 128.4030 126.8418 127.7757 113.1100
109.8000 109.2659 109.0144 109.0781 109.5824 109.9343 110.4586 111.0316 111.6471 112.2774 112.5489 113.6737 114.3826 115.0670 115.1407 115.8161 116.3806 117.3687 119.7533 117.6331 117.4718 118.6590 118.9879 119.3687 119.7260 120.1176 120.1821 120.5557 120.6775 122.2479 105.5503 115.2197 111.5084 98.7288 119.3356 123.4587 116.0503 120.0090 111.9341 117.5362 100.9441 123.4700 122.0598 120.8797 125.9033 125.6678 125.5382 125.6482 126.0043 123.4554 115.5916 110.0528 109.6178 107.5906 119.8641 125.1951 115.3131 126.2387 116.3719 115.8386 130.1954 130.1649 126.2509 115.1300
108.6000 107.8828 107.7984 107.9268 108.2548 108.7932 109.4399 110.1467 110.8897 111.6004 112.3552 113.0494 112.7536 108.4756 115.3719 115.5132 116.1970 116.1258 118.6942 122.1573 117.9307 118.7617 118.8109 119.2346 119.6687 119.8984 120.5831 121.4835 121.4386 121.4513 122.5324 137.7229 105.0647 110.6953 123.5262 123.3721 122.8135 120.2991 106.3824 107.3660 111.9591 124.5528 124.8259 124.8886 124.9222 125.2740 125.5178 126.0713 126.1422 124.7045 109.6462 109.4869 117.9476 121.4231 108.4685 120.5483 114.5022 119.7870 116.7541 114.5039 118.9307 127.7390 125.3129 110.5200
107.2200 106.2631 106.0895 106.2767 106.7868 107.5143 108.3496 109.2344 110.1029 110.9828 111.8485 111.1473 122.4172 113.5192 114.8957 115.2237 115.8484 116.1574 116.9590 117.8854 117.6861 118.2722 118.7353 119.1331 118.9432 123.7403 103.1346 102.9917 121.3934 121.1288 121.5475 122.2498 122.3795 122.9644 122.8399 123.3542 120.6996 134.5174 103.4180 101.8039 99.8962 122.3470 113.6847 122.3227 125.0320 125.5158 122.3978 126.9565 114.8218 109.3025 111.6376 117.3346 105.8893 104.2505 104.8108 104.9668 103.8891 122.7359 124.2000 123.7953 124.1660 126.2696 106.5439 125.6600
105.5600 104.2823 104.0180 104.3100 105.0691 106.0794 107.1830 108.2819 109.3471 110.3449 111.2297 112.1847 112.8616 113.5539 114.3441 115.0108 115.6091 116.1570 116.7493 117.2445 117.7842 118.1822 118.6152 119.0063 119.1190 121.3121 105.2728 115.7357 101.5382 117.2176 120.5118 120.1950 121.3594 120.4882 120.9796 120.4774 110.8134 101.7490 101.3814 102.7652 106.9970 115.2447 115.6904 113.6077 124.5437 123.3479 124.9843 124.0468 119.7889 120.5369 107.8787 105.0764 105.8163 104.6092 105.2209 104.8956 127.0951 103.7182 114.9132 118.6719 123.5544 125.6296 126.4640 125.3500
103.3000 101.7295 101.2876 101.7925 103.0260 104.4998 105.9834 107.3664 108.6296 109.7696 110.7947 111.8098 112.7201 113.4565 114.1323 114.8094 115.4402 116.0341 116.5793 117.0928 117.6159 118.0755 118.5377 118.9088 119.1404 123.1691 106.2044 98.5977 105.1999 99.7899 104.8301 104.6308 111.0600 106.8624 108.1692 108.3010 109.8062 112.0633 99.2968 111.4272 112.9398 112.4294 119.6933 118.1197 119.3673 119.3203 117.6271 115.2855 112.7680 109.0590 123.0731 114.9324 109.2105 107.5813 104.5348 107.4530 117.3868 108.0102 107.9604 122.3234 124.4047 124.7727 125.7927 125.0700
100.6500 98.3690 97.2387 98.3776 100.5991 102.8435 104.8233 106.5263 107.9979 109.2808 110.4241 111.4234 112.3188 113.1848 113.9494 114.6564 115.3073 115.9214 116.4869 117.0258 117.5266 118.0060 118.4577 118.8969 119.4514 117.1796 123.9998 106.1999 105.7313 104.8293 108.1887 108.0418 107.3243 112.9266 111.0938 113.2323 104.9855 115.0689 104.5874 113.6386 113.4819 112.7192 117.5130 116.5913 119.4422 117.0583 121.3024 122.9874 124.5240 122.6648 122.5825 118.0652 115.4069 124.8569 118.9966 125.3825 124.5709 127.6597 128.1879 126.2859 126.4740 127.4711 122.7667 127.2500
96.6700 92.6128 90.4553 93.0307 98.0307 101.2738 103.8392 105.8666 107.5272 108.9296 110.1489 111.2244 112.1787 113.0332 113.8239 114.5445 115.2083 115.8391 116.4145 116.9617 117.4704 117.9586 118.3969 118.8299 118.6370 118.5187 114.9781 103.3810 103.9993 105.0879 112.1086 111.8381 107.0689 107.1345 109.8224 106.8734 109.9704 114.7927 110.9235 115.3943 115.2965 114.4958 113.9438 114.4747 115.1611 118.9119 123.0235 123.0964 123.9908 124.0363 125.3868 125.8696 125.9452 126.1447 126.0416 124.9301 125.3163 125.4640 125.0379 125.8825 126.0907 126.4088 118.9131 127.2500
95.9400 88.3686 86.2020 88.1454 95.6519 100.2028 103.2386 105.4675 107.2474 108.7058 109.9842 111.0907 112.0768 112.9563 113.7666 114.4983 115.1707 115.7901 116.3766 116.9238 117.4379 117.9286 118.3539 119.2834 116.7783 109.3143 103.2113 103.8153 104.2573 108.9067 110.4117 111.1637 107.8398 105.8354 106.6195 100.0931 96.8233 105.0026 97.7708 108.5572 116.8137 113.2596 113.9944 114.5124 116.0190 116.2113 122.5808 123.1062 124.1903 124.7753 117.5492 124.8730 122.4865 125.0931 124.9024 125.7326 126.1497 126.2308 126.2499 126.3257 126.5196 126.7551 127.6602 114.8400
89.5000 87.8865 85.6138 87.7071 95.4096 100.0945 103.1723 105.4105 107.2271 108.7538 110.0177 111.0915 112.0647 112.9386 113.6958 114.3939 115.1406 115.7811 116.3741 116.9131 117.4395 117.9707 118.5482 114.9060 115.8512 103.7876 103.8154 104.8414 103.9486 107.3844 104.5489 107.0521 106.8087 102.0044 105.2125 102.3471 112.0997 109.1644 109.7988 103.0464 108.6344 115.7004 116.2029 116.3881 115.3790 115.6677 122.1854 123.2345 124.2855 123.9429 124.2092 118.7347 117.0831 126.0550 127.4070 125.7030 125.7692 126.0426 126.3407 126.6018 126.9155 127.0544 127.3217 127.5700
89.9700 91.4336 89.3475 91.6690 97.4009 100.9859 103.6722 105.8585 107.5479 108.6770 109.9071 111.1438 112.1411 113.0168 113.9944 114.8708 115.2787 115.8285 116.4017 116.9397 117.4580 117.8151 118.2103 119.0852 111.8305 101.1639 106.1004 102.9491 114.0816 112.5614 115.8021 106.5929 114.0464 98.3681 108.0670 101.0728 109.7812 120.7303 122.3404 121.5040 118.6944 105.3878 104.1329 103.4521 120.3265 120.1596 122.5734 123.4663 122.7565 124.3275 121.3816 124.0020 126.3082 125.8469 106.7527 125.2076 126.7996 126.6697 126.3885 126.5009 126.6971 127.0558 127.3207 127.5900
100.6900 97.2487 95.8640 97.4598 100.1584 102.4937 104.5394 106.5304 106.5087 109.9659 111.1877 111.5294 112.3154 113.1727 113.5327 113.5431 114.9384 115.8718 116.4751 116.9965 117.4467 118.3485 118.8836 120.3282 113.4949 104.8433 103.5325 100.6632 105.2525 110.6974 120.7837 119.0049 117.5500 113.1295 101.3899 101.6816 102.7857 124.0608 116.0919 120.1991 118.5614 111.8143 113.2715 120.9106 124.1555 124.7950 124.6869 124.7993 123.4100 127.9856 110.9195 118.4692 125.7594 113.7928 113.3281 119.9257 117.9194 121.6255 127.7655 127.5332 127.7074 127.9396 128.0617 128.2800
100.6900 101.0934 100.5506 101.1311 102.5355 104.1556 105.7249 106.9923 108.6628 100.1881 101.3134 110.5281 112.4806 113.5313 113.7908 126.1039 117.5901 116.2069 116.5264 117.0906 117.3641 118.5778 111.6004 121.7026 95.9961 117.4059 103.5672 102.9251 100.1613 114.5858 105.3871 112.5481 110.9173 101.7266 112.5656 99.7085 102.2696 105.2319 101.3112 116.9078 104.4547 117.9369 106.3532 113.7863 125.7822 125.5997 126.7799 126.1339 133.0919 128.0664 114.9428 121.1283 111.4286 111.1408 113.5456 113.0410 116.6270 122.9064 127.8142 127.6993 127.9110 127.2101 128.2843 128.2800
103.4600 103.7754 103.4722 103.8082 104.6433 105.7424 106.9765 107.9622 109.0528 98.8322 99.5855 108.7526 112.9214 113.5943 114.2753 115.1342 115.6925 116.2284 116.6797 117.1977 117.7152 118.2032 116.6908 119.7056 97.5364 99.3658 99.3780 100.9440 108.0429 105.2361 105.9710 112.4449 110.5891 113.0215 102.7913 109.0890 107.3488 111.8345 105.6543 106.4191 113.7011 114.6804 115.9702 122.0307 121.4342 124.7318 104.9460 105.3887 103.8079 109.4607 119.2128 113.9785 113.2312 116.0385 115.9034 127.9121 101.6388 122.3912 127.7203 127.7885 128.1710 127.7875 128.0332 128.2800
105.5300 105.8577 105.6708 105.8773 106.4233 107.2302 108.0479 108.9097 110.5132 111.1288 111.5504 112.8875 113.2304 113.9117 114.5999 115.3183 115.9008 116.3592 116.8513 117.3416 117.8124 118.2025 119.1121 116.2531 107.8824 99.2945 99.3036 100.4343 106.3952 104.2817 104.5377 115.0599 109.4883 107.9437 111.2642 105.4601 99.6552 111.7432 111.7023 113.6504 119.9855 114.6733 116.2404 124.3373 120.6001 120.1611 120.1283 108.0232 104.2872 104.4296 103.5108 104.1835 104.0474 104.2179 104.4853 104.2069 107.3163 105.3789 128.7073 116.1515 120.0769 121.6776 128.4571 120.8700
107.2000 107.5462 107.4152 107.5607 107.9507 108.5094 109.3716 109.5533 105.3055 111.4866 112.0116 112.8448 113.3553 114.2283 114.8236 115.4132 115.9628 116.5225 117.0273 117.5041 117.9589 118.4516 118.5449 116.3056 101.6340 123.1238 109.5131 102.5127 106.4662 104.2920 108.8265 108.0195 109.1895 108.1579 110.3822 110.3087 102.3899 104.6617 112.4240 112.1152 117.7216 118.7108 118.4583 118.0517 117.0965 110.4701 118.2345 101.5411 103.2981 104.1168 104.4709 104.6093 104.7868 105.0341 105.3165 105.5342 119.6003 107.2533 115.0645 104.6586 104.2529 123.2068 124.5204 127.9300
108.5900 108.9686 108.8749 108.9923 109.2684 109.6936 110.2819 106.0518 101.2455 112.4075 112.6181 113.5241 117.3281 114.4963 115.1880 115.7407 116.2587 116.7612 117.2250 117.6717 118.1434 118.5988 119.2488 123.4229 121.8482 121.5482 116.8714 122.3661 118.5761 123.2626 113.4588 104.9729 110.2012 106.4659 109.3420 104.5920 103.1894 112.1997 112.0893 112.8498 117.2982 116.9855 118.7071 116.4900 109.5703 111.5263 101.6705 103.5051 103.3730 104.2128 104.2780 104.4731 104.6125 104.7488 104.8903 105.2035 104.4985 104.1005 104.5726 110.2153 108.9308 107.8948 109.9161 110.1900
109.7800 110.1917 110.1236 110.1883 110.3973 110.7800 111.4992 101.0164 98.0105 111.6721 113.2934 113.5885 113.2202 114.6722 115.5810 116.0262 116.5187 116.9948 117.4567 117.8380 118.6397 118.5062 119.0421 110.4715 121.8279 112.2859 122.4658 121.5406 112.9797 115.3458 112.5258 114.1437 109.4980 99.7732 99.1453 98.7340 112.3321 109.2316 110.6441 117.1842 117.0754 109.9056 116.0267 103.2300 109.1442 102.9654 103.1889 104.3979 110.3187 103.9153 104.2525 104.3267 104.6144 104.9688 105.1159 104.4005 103.4322 112.0784 114.2333 129.6833 106.2715 107.3151 109.0392 110.1900
111.7600 111.2665 111.2212 111.2601 111.5788 110.9560 112.3349 110.3791 115.6909 112.4521 113.5446 113.3600 114.3722 115.4153 115.8825 116.3561 116.8142 117.2499 117.6979 118.0201 116.7591 124.8369 120.8339 114.1743 112.0847 99.1730 119.4700 121.6646 110.2987 125.6367 123.1642 118.7618 111.1702 103.1789 106.3029 108.5026 109.8356 103.6258 106.8039 112.9429 114.6508 119.7582 108.1429 102.6636 100.8984 103.2820 103.9844 104.1277 112.2715 104.7630 105.3272 105.3244 105.6516 104.5035 105.0118 104.5249 115.7260 119.5307 116.4526 127.1333 108.4111 110.1767 116.0863 108.4000
112.6100 112.2190 112.1312 112.2163 112.1649 114.8875 114.9188 107.0065 113.3772 100.0908 115.6388 115.0431 115.6349 115.7815 116.2524 116.6853 117.1149 117.5271 117.9525 118.4413 117.7612 120.8540 111.4350 117.4357 107.6950 108.6435 116.4706 121.1524 122.2036 121.4295 121.2672 102.1842 126.3152 106.3050 104.9659 100.4781 114.4306 105.7613 110.5722 112.3846 116.4841 120.8455 107.4663 114.3057 113.6234 109.0412 102.7259 102.7185 102.2120 103.7017 105.6629 106.1370 106.4613 106.9742 106.6146 106.7545 118.0177 116.9785 117.8980 128.3744 119.4522 106.1464 129.2341 127.4900
113.3700 113.1445 113.3885 113.3669 112.1349 121.3217 114.2977 114.1466 113.6356 110.1059 115.1739 115.3390 115.7809 116.2198 116.6167 117.0198 117.4252 117.8097 118.1935 118.5601 119.1974 118.6475 113.5249 121.7035 122.3891 116.8963 121.7173 121.0345 120.7923 119.2595 126.2023 120.0128 109.5460 105.0902 100.9300 105.4503 103.8431 114.5767 120.8682 115.8446 124.2499 114.7387 117.3180 121.8867 121.6876 122.8721 108.3165 112.8985 110.4842 104.5594 105.0973 105.1039 104.3217 106.0216 107.6785 108.3390 108.2962 108.1530 116.5926 115.3338 117.3562 110.1654 117.7514 127.3500
114.0800 113.7730 113.7471 109.4984 115.3627 108.3967 115.5812 114.5345 114.9130 115.4525 115.5474 115.8950 116.2540 116.6291 117.0065 117.3969 117.7364 118.0963 118.4551 118.8585 118.9151 119.4047 120.2742 119.7811 120.5685 121.3347 120.7302 122.0313 124.1175 113.5980 122.8483 99.6550 100.6015 100.7388 102.4676 109.3768 104.1180 106.9328 126.7523 122.1532 125.0453 124.0387 102.5989 127.5862 126.9348 115.4319 116.3466 106.9201 106.7085 103.8720 103.9490 117.2392 112.7390 115.2524 106.9098 108.0383 107.2862 108.9037 109.5587 110.0461 110.4217 111.6856 112.7008 113.1800
114.7300 114.6534 116.4690 114.9221 104.1469 95.9762 106.5148 115.6742 115.4572 115.7325 116.0273 116.3681 116.6872 117.0285 117.3874 117.6551 117.9151 118.4634 118.6626 119.1116 119.8428 119.4956 120.3893 120.2944 120.5028 121.1738 116.2256 116.6956 104.2261 101.2586 109.2622 124.4037 98.8889 100.2272 122.0838 104.0889 110.6107 108.5172 116.9329 124.8736 124.3537 125.5085 112.7348 108.1340 108.7384 103.5093 103.6793 103.5004 104.1067 104.5620 104.8770 104.6271 116.5736 115.0804 123.0963 106.4861 123.7704 119.1024 108.9862 110.0797 110.9038 111.7510 112.2596 112.4000
94.2100 116.8698 96.9858 101.6003 114.3077 102.3930 101.6910 117.2510 116.0381 116.2666 116.5444 116.8211 117.1199 117.4588 117.4961 118.6679 118.7534 118.8112 118.9907 118.9726 121.0138 99.9916 122.8108 119.7042 121.1032 121.1784 122.5719 106.8377 101.6172 108.2577 122.8231 122.7551 123.1519 111.3301 106.9232 107.6577 107.2179 119.0429 111.5008 116.1596 125.4966 124.9366 121.8798 121.6609 109.9036 124.8872 113.6345 110.5806 103.4059 104.0400 104.4927 104.7333 105.4732 103.8118 127.0906 124.5621 125.6727 125.9634 125.7021 126.6198 128.2999 110.7161 112.1239 112.7900
115.9000 116.7680 103.5589 99.2654 103.7718 100.3801 116.2369 116.7255 116.5603 116.7666 117.0104 117.2682 117.5359 117.8359 118.5561 113.9796 106.2944 116.9782 119.4389 119.5341 118.4241 120.0115 120.6231 121.1317 119.3971 123.0221 107.7327 123.1031 122.5092 122.1956 122.3036 123.2904 121.5031 106.5125 107.6784 101.9006 107.7245 109.7645 124.6313 113.4440 111.4641 126.1008 115.0510 125.9683 124.2821 113.2065 111.5432 116.8394 114.1207 123.4041 117.7054 104.2683 106.1591 105.1801 103.0796 122.6217 124.2011 125.5795 126.0728 128.5518 106.9638 114.7412 129.3413 127.8500
116.4300 117.2801 101.5849 98.6380 98.4011 100.9216 117.0395 116.5819 117.0486 117.2294 117.4626 117.6978 117.9387 118.1994 118.4666 118.1202 119.6327 119.6875 119.4266 119.6046 122.6165 115.2163 121.0841 121.0976 121.3450 119.4570 122.9914 124.0272 122.2999 122.3179 122.3293 123.7659 103.4399 112.8312 109.6777 98.5237 111.4190 119.7619 109.3323 112.6390 111.4671 118.7021 113.2650 115.2891 105.5389 102.9704 111.8546 112.2907 113.3327 120.5883 114.3823 115.6734 115.9014 107.9369 108.1769 106.3369 107.0437 104.5205 110.2131 123.7128 125.2073 125.7294 125.5918 127.8700
116.9300 117.3304 118.1907 107.2082 102.9753 103.0369 118.8105 116.9941 117.5341 117.7037 117.9035 118.1147 118.3361 118.5739 118.8555 119.2094 119.1267 119.5291 119.8640 120.0411 119.9678 121.8583 117.1083 118.5779 123.6942 111.9427 104.3185 116.8562 119.1582 123.7517 123.0143 121.6602 116.9001 112.4433 98.7536 103.2163 112.7630 117.5532 107.9532 106.6679 115.7492 110.3606 113.0880 104.4968 103.6971 105.8088 104.0833 103.8023 113.4190 118.6715 122.7328 118.5883 116.4505 117.1579 119.4396 122.3154 127.5225 109.2437 109.8858 111.3346 112.0526 105.8088 108.5350 128.1500
117.4000 117.4256 117.2446 117.3305 103.2518 104.2899 97.3059 119.1510 117.9908 118.1461 118.3194 118.5162 118.7199 118.9333 119.1684 119.3872 119.6236 119.8758 120.0729 120.4045 121.6518 114.2130 100.9039 111.0108 102.7669 115.6330 122.2593 107.1936 103.4358 117.4037 122.2246 122.8509 121.7556 118.9263 108.8240 112.0613 129.6147 109.5933 119.4591 126.1688 124.2132 112.8383 110.3070 103.9844 103.7993 107.5230 106.1855 103.4306 103.6732 103.8886 114.7490 114.8665 112.5972 116.9980 119.8956 122.6159 118.5048 119.6267 119.5874 131.4558 127.9218 118.7212 112.1917 106.7200
117.8500 117.9865 118.1502 113.3642 103.2305 113.3684 118.3983 119.6204 118.4244 118.5566 118.7317 118.9021 119.0956 119.2929 119.5020 119.7162 119.9294 120.1833 120.2756 121.6285 121.4104 95.0517 102.3419 123.4656 114.1884 94.6558 125.1621 122.0403 100.7678 114.1555 116.9613 124.5045 106.9496 113.2230 122.9420 111.5213 106.1222 116.6661 125.5917 110.9318 107.9345 109.7978 103.1606 103.2686 103.8783 103.5097 104.2907 104.1130 110.8590 107.3869 105.3247 103.9812 105.0646 111.2489 111.6458 118.6916 120.3077 117.7213 124.4536 127.7693 121.8332 123.5154 124.1261 106.7200
118.2800 118.6312 118.3115 119.6201 114.8099 116.0174 118.2644 118.4368 118.8518 118.9684 119.1199 119.2801 119.4514 119.6420 119.8254 120.0093 120.3331 120.4485 120.8841 105.8677 120.8022 114.7557 123.1126 115.0967 102.6477 117.8502 105.5588 106.7515 101.3998 126.0291 111.1395 118.0131 117.8090 116.3442 113.4992 106.1069 110.7071 116.4308 127.6033 107.6476 114.0436 101.3810 102.8907 105.0163 103.9190 102.5999 102.8166 109.0509 127.1002 110.0307 110.3673 108.7415 108.5033 115.3203 117.4411 118.9027 111.9681 122.3331 123.8587 111.2521 113.5901 112.8020 120.8449 130.1100
97.0700 118.7887 119.1685 118.7945 119.5808 119.3248 119.0210 119.2196 119.2362 119.3528 119.4950 119.6438 119.8026 119.9588 120.1873 120.3881 120.1846 121.8719 113.3924 104.0410 123.4267 112.8338 108.0508 109.9020 104.0338 115.3968 105.3772 109.1724 108.8950 109.3948 107.2469 106.9354 116.7108 117.8655 120.1385 119.1133 105.9445 107.7199 109.1833 111.6467 108.2620 103.2836 103.8155 104.9879 104.9331 105.7976 113.4146 118.6260 101.1518 114.6858 107.4892 106.5070 106.5083 121.9939 116.5380 110.1609 120.3965 114.1522 111.2457 107.3030 120.4006 103.9562 112.9213 127.8500
97.4500 106.5192 119.4568 119.2778 119.2398 119.3501 119.4699 119.5191 119.6226 119.7303 119.8569 119.9960 120.1181 120.3448 120.3106 120.6619 120.8178 120.3338 102.9613 103.4330 125.3594 119.9456 122.6415 106.7198 101.8350 107.3885 98.8662 106.0558 103.1281 106.2304 102.0991 110.2404 106.9229 101.7288 106.4523 114.9796 107.3436 109.6920 111.1175 111.4467 107.6658 102.8416 103.9462 103.2165 110.7425 106.6205 111.1441 123.1240 116.0475 110.4412 111.4589 104.7007 118.9557 123.5686 112.9045 110.8193 115.3266 109.6066 120.6659 110.3691 127.3357 115.7806 123.6105 129.9600
97.8000 99.3218 121.2239 119.5279 119.7199 119.7712 119.8153 119.9056 119.9891 120.0907 120.2089 120.3337 120.4988 120.3422 121.2828 121.7582 120.9294 119.3079 120.1896 102.5484 122.2926 104.8765 107.6439 116.7238 124.3068 119.8624 120.0319 122.6335 109.3367 105.5658 107.7528 104.1002 102.5650 105.2625 110.8660 102.7574 103.2096 104.8261 105.3436 111.4359 111.6893 108.5486 117.4496 102.8746 106.1349 104.1452 107.8670 110.0372 106.7294 106.2708 111.8587 104.6800 101.6255 120.0727 114.2488 111.2852 118.8211 123.5996 112.8617 114.3395 117.9665 126.1693 124.8228 112.7300
99.1900 101.2457 121.6911 119.8647 120.0743 120.1492 120.1996 120.2680 120.3420 120.4402 120.5450 120.6583 120.8311 121.2142 120.7384 107.0285 121.2497 121.6065 121.8189 121.1115 109.2316 99.0002 118.4118 123.7506 123.5690 121.8850 123.2776 123.5429 124.2900 112.4086 112.1708 109.1202 112.2808 103.1732 104.7824 102.5812 102.4805 102.4626 108.4850 108.2611 110.2476 111.1126 117.4954 106.2641 103.7697 104.5757 104.4167 111.9908 112.5421 106.4924 109.8029 108.5838 106.4023 105.8027 104.9180 120.0307 123.7705 123.6797 124.0055 125.1721 117.5128 115.0313 124.5310 126.5100
98.9500 99.8170 122.5061 120.2523 120.4288 120.5028 120.5526 120.6085 120.6838 120.7752 120.8736 121.0002 120.9158 121.4062 117.6210 119.7115 123.0883 120.6540 117.2428 127.5648 109.9599 102.0271 103.2424 101.9925 117.1691 123.8055 123.3134 123.5132 121.8432 112.8550 111.4472 105.8747 101.7628 107.9747 107.1301 106.8147 105.6676 115.6130 109.6448 110.7893 109.6458 114.8748 112.7959 114.7712 112.1826 116.0644 120.7538 121.1502 112.4450 112.1512 113.2567 110.3643 111.3704 107.4251 107.5788 106.3462 117.2808 129.0761 111.2587 120.3186 125.5235 126.1483 125.6564 126.6900
120.7900 100.0955 122.5557 120.5832 120.7772 120.8478 120.8908 120.9484 121.0174 121.0971 121.1860 121.3196 121.3780 119.0002 119.9011 104.7727 99.3668 124.5184 117.1675 124.7262 115.7055 106.3698 108.5194 108.3786 122.3184 122.3253 124.0381 124.6743 119.5903 109.6019 103.2152 106.2788 102.9289 109.8939 109.3783 110.2789 112.0708 112.3469 115.9930 104.5444 109.1851 109.8985 112.0852 114.4879 112.0462 116.9948 116.4257 119.1669 121.8511 108.5530 109.7486 116.3409 111.3253 121.7151 124.5863 126.8248 128.7672 126.6928 109.2606 127.8699 123.4670 118.1702 123.9974 126.0700
105.8400 120.7499 120.8175 121.1056 121.1249 121.1764 121.2181 121.2676 121.3369 121.4102 121.4976 121.6245 121.6995 118.7371 119.7485 108.3480 108.2866 120.4901 100.4531 122.4425 125.6297 123.7454 122.8783 109.7283 104.6330 120.8608 123.8329 115.2048 121.5070 117.1548 104.8088 110.9147 101.2167 113.1786 111.8475 110.8396 109.9863 116.8135 113.4046 116.0410 117.4528 106.6198 114.7983 114.8192 102.0538 110.5831 115.4499 117.0109 118.7764 108.7341 115.7596 124.4902 124.3286 128.5234 127.7042 127.5808 123.4812 128.5771 129.9370 129.3331 119.6745 141.5791 107.9619 126.2400
121.3900 121.2051 121.4822 121.4521 121.4591 121.4962 121.5336 121.5766 121.6401 121.7098 121.7957 121.9291 121.7403 122.0355 122.5446 117.5213 99.5586 120.4617 126.3858 124.6987 113.9627 123.5804 111.8280 116.6153 113.4707 103.0630 124.7249 124.6539 112.3372 112.4369 110.8763 103.4425 101.4065 110.3504 115.4084 113.9800 113.3934 126.2466 114.8679 114.5643 117.3650 112.0249 107.6672 102.8570 105.9309 118.7871 114.5706 115.4088 116.1192 117.9921 125.4161 128.4805 128.1624 126.7722 128.0536 126.7533 112.4435 120.2630 128.6720 127.9049 130.8679 112.2643 109.1510 114.3600
121.6800 121.8224 121.7455 121.7483 121.7724 121.8003 121.8397 121.8874 121.9378 122.0019 122.0795 122.1649 122.2565 122.3405 122.4281 123.7206 110.7418 101.0298 115.2670 111.4488 97.7623 115.8575 99.3685 104.7009 115.8812 109.3081 114.4688 110.7669 121.1478 112.3132 104.1275 104.0392 104.3180 105.0412 110.7125 116.1357 109.2824 112.7478 108.0987 109.8616 111.3005 113.9422 108.6091 104.3304 111.0547 120.1732 116.0961 115.2872 117.4037 117.0620 123.5567 122.4964 120.3241 121.9318 129.0255 127.2853 126.4279 109.9426 120.3569 129.5734 128.8515 128.5438 124.4381 107.1900
121.9600 122.0399 122.0562 122.0595 122.0701 122.0995 122.1330 122.1754 122.2252 122.2926 122.3593 122.4369 122.5233 122.6272 122.7278 122.4915 125.3666 120.5768 118.9653 126.6308 120.0059 106.6677 102.2331 107.7406 99.8704 107.0079 118.8677 110.1870 110.8814 104.0901 104.0921 108.1393 107.0313 105.1051 107.1920 102.7035 105.0482 112.2129 102.7858 102.2441 108.2375 109.1650 112.5196 104.2130 107.2975 113.5073 115.1803 115.0860 116.3996 117.7765 118.0734 124.7973 120.3530 124.7606 124.4867 126.6028 124.7572 118.1789 115.5270 129.4553 128.6888 130.9517 115.9948 113.2200
122.2300 122.3499 122.3365 122.3460 122.3576 122.3855 122.4143 122.4594 122.5069 122.5646 122.6343 122.7019 122.7810 122.8591 122.9876 123.1491 122.4633 123.6842 125.6456 111.1613 115.9317 115.1752 101.7276 106.2665 101.2365 102.3475 112.9531 112.9622 114.3777 114.5293 105.8088 107.8112 108.1474 106.8284 108.4683 106.1487 106.2916 103.3887 103.4430 113.2140 101.4379 103.2843 107.2292 104.4991 102.5435 117.3667 118.7086 118.2424 122.1372 125.9657 121.0935 120.5537 119.8334 123.9432 121.8573 121.4712 123.7020 131.1542 129.6258 129.0391 129.4049 126.1376 121.3198 110.9700
122.7400 122.6227 122.6244 122.6261 122.6441 122.6601 122.6964 122.7355 122.7776 122.8351 122.8772 122.9676 123.0816 123.1129 123.2375 123.3131 123.4068 123.7543 117.0885 108.9420 105.0454 123.2467 103.4216 104.9512 116.9915 109.5032 106.2214 106.9582 115.7795 102.1965 106.0593 108.4242 110.9071 109.2017 114.8753 109.9251 110.1419 105.7451 110.9346 120.8180 116.4601 114.6600 102.1798 114.6923 115.5884 118.3091 122.0501 122.1511 127.7811 121.8672 116.4220 121.0717 121.6138 120.0466 121.3707 125.4120 125.6174 128.7605 128.5296 128.7319 128.8810 127.3050 128.5370 117.7200
122.9900 122.8992 122.8961 122.9014 122.9121 122.9322 122.9665 123.0005 123.0441 123.0907 123.1857 123.2085 122.9590 123.3945 123.4164 123.5402 123.4859 121.0607 109.1825 114.6367 122.3993 124.4521 106.8993 117.0024 117.6465 113.8933 108.2008 107.0970 103.5847 103.2737 113.3386 106.9139 110.1149 112.5998 108.2486 105.7182 105.1681 110.9578 112.0371 115.7130 119.3934 116.2869 104.2189 104.7487 107.6031 118.3518 110.2856 123.1206 125.5412 126.4544 126.5006 128.5020 124.4033 123.6589 122.9235 122.2134 126.5514 129.1751 129.4316 130.2334 129.3208 131.8605 111.5064 110.8800
123.2200 123.1649 123.1587 123.1667 123.1738 123.1933 123.2256 123.2577 123.2949 123.3435 123.3913 123.3548 126.4513 119.9560 124.0085 123.7766 123.4695 126.1336 120.5759 101.5611 113.0082 113.7228 117.3116 102.8761 108.5340 114.6794 108.9028 111.9867 107.7955 104.2803 116.3551 118.4684 115.8694 108.5556 110.8019 114.5581 109.7464 111.1035 111.8298 111.9230 112.7336 109.2575 103.3212 123.5486 115.9237 106.0636 114.4142 120.0877 127.7968 126.0696 124.2702 123.9545 128.9501 127.1921 128.3328 127.7999 121.5290 127.0107 129.4861 114.5245 122.2101 122.0777 120.9927 109.6400
123.4600 123.4198 123.4129 123.4208 123.4288 123.4556 123.4732 123.5125 123.5498 123.5874 123.6657 123.9775 111.6381 104.2044 121.8924 123.9468 124.1185 124.7926 114.2901 102.3208 102.5624 117.9141 114.4909 107.7155 105.4552 105.3123 103.8574 103.4802 108.9845 117.6992 116.5289 119.4348 125.9871 117.2378 111.9887 110.8532 112.4590 110.8172 107.2232 112.9549 113.4439 105.9113 104.2306 112.9627 127.6421 119.5352 121.1988 120.4290 123.3612 128.2726 123.9005 124.9605 129.2734 129.6566 128.7517 127.2755 126.2131 129.4219 122.0014 125.7826 119.0636 107.6477 111.6679 112.2400
123.6800 123.6710 123.6655 123.6728 123.6780 123.6943 123.7201 123.7500 123.7881 123.8351 123.8601 125.0606 117.7859 124.6321 125.9389 123.7424 124.4749 124.5054 112.2065 114.9815 101.1454 105.5662 105.5604 104.4054 105.1422 106.8280 108.1559 104.0113 111.0049 111.8537 119.7886 120.2631 121.1500 119.7749 115.7682 116.6056 113.9830 113.4952 108.4340 107.1712 114.3356 107.5738 105.3114 105.4622 127.1785 126.1839 122.5275 128.0585 123.3153 123.2287 124.9964 127.9944 128.5557 129.6337 128.4836 128.9516 126.0935 123.1158 130.3323 128.3092 131.0835 114.5794 107.9041 111.5000
123.9000 123.9128 123.9077 123.9140 123.9180 123.9414 123.9633 123.9919 124.0240 124.0589 124.1448 124.0597 124.9423 124.1218 125.4742 118.8830 127.3507 127.4122 116.6300 124.9377 112.0845 107.6256 103.0627 102.6559 103.4328 108.5550 110.6525 103.2026 103.7025 107.7674 119.3235 120.1475 119.8001 119.3552 102.7635 113.3765 116.7818 115.3890 108.5598 111.1478 114.0500 113.9036 107.8109 104.7074 105.6543 125.2447 126.6341 128.2958 125.1579 126.7401 126.5953 127.4344 129.3022 129.7908 129.1309 130.7541 131.8198 105.9211 131.1565 129.2524 129.6104 125.1081 120.3269 120.0000
124.1200 124.1427 124.1503 124.1452 124.1580 124.1728 124.1781 124.2175 124.2597 124.2953 124.3332 124.3799 124.3454 124.5463 126.6370 106.0276 108.3394 115.0028 115.5208 125.0489 111.5754 106.0229 112.0553 103.5370 103.8649 106.2794 111.9934 108.6031 103.6041 106.0692 119.5256 120.0312 120.5397 123.4219 110.8316 105.8866 117.5224 119.8499 108.7454 110.0592 115.7284 115.6943 115.0273 116.7436 109.5253 113.6148 125.0845 126.3789 128.4868 128.2350 127.5966 127.5515 128.3592 128.5827 129.9312 129.0882 129.9863 118.4104 127.1302 123.1841 128.3396 116.9958 119.9154 107.7600
124.3300 124.3725 124.3781 124.3751 124.3860 124.3988 124.5138 124.5570 124.4761 124.5172 124.5624 124.5972 124.6659 124.5348 125.3109 106.5152 110.4056 104.6203 105.8291 125.0288 119.9640 106.4296 108.1577 107.4636 102.2880 105.3329 108.2733 112.5001 108.3320 105.1964 110.1811 120.9014 121.3004 122.4100 121.9339 123.4792 118.4883 119.7980 119.4085 117.7769 112.0201 116.0000 118.3599 115.8822 116.9690 117.9974 123.8812 125.9040 127.6863 128.7746 128.1760 128.8348 128.0907 128.9019 129.0244 131.1645 130.8319 131.1893 134.4050 112.6334 115.9696 112.6671 109.4569 107.8900
124.5400 124.5400 124.5400 124.5400 124.5300 124.5200 124.5100 125.0000 124.6700 124.6500 124.7900 124.7900 124.7600 124.9000 124.8700 125.0100 103.6800 103.1000 109.8800 109.8800 117.8700 107.3000 109.3700 119.4800 104.2200 104.2200 106.8900 110.5700 108.3200 109.3800 106.2000 121.7500 121.3600 121.7800 122.8300 123.2700 123.2800 105.0200 120.4800 105.3400 116.2700 116.6500 120.3600 115.5600 116.4400 117.3000 124.4500 128.0600 124.9000 128.7700 129.0500 128.6300 128.7200 128.2100 128.8500 129.0700 129.1500 131.8900 129.4000 107.4800 110.8600 114.7900 107.8100 107.8900
