121.7500 121.5500 121.3800 120.9100 120.6800 120.4600 120.0000 119.7500 119.5000 119.2500 118.7200 118.5200 118.1700 117.8600 109.8400 120.4000 117.0600 116.6400 116.3700 116.3700 116.0400 115.6600 115.7400 115.2900 115.3300 115.3700 115.3700 115.3300 115.2900 115.7500 115.6700 116.0500 115.9700 116.3900 116.6800 116.9600 117.3200 117.5800 117.8900 118.2200 118.4600 118.7300 119.3000 119.3000 119.7600 120.0000 120.2400 120.7100 120.9200 121.1300 121.3400 121.7600 121.9500 104.5500 122.5300 102.8900 106.1500 126.2100 114.3900 111.4200 111.2500 114.6400 124.3700 124.5200
121.7500 122.4269 123.6032 120.6102 120.5312 120.2801 119.9693 119.6520 119.3327 119.0157 118.6885 118.3430 118.0296 117.5867 117.0016 118.6641 116.4645 116.3875 116.0899 115.8101 115.5476 115.3788 115.1396 115.0869 114.8469 114.8917 115.0954 108.1897 114.9418 117.4053 116.0661 115.1342 117.4215 117.8990 107.0210 118.0025 117.2130 117.2962 117.6712 117.5430 112.3318 118.3784 118.9392 118.8647 119.2487 119.6840 120.9805 109.4259 122.0551 120.9368 121.2979 118.1805 113.4316 104.4870 118.5317 117.1368 103.6220 112.3460 109.2389 107.8061 108.1037 123.1392 124.0290 124.5200
121.4300 120.7780 120.4459 120.9259 120.4036 120.0740 119.7467 119.4251 119.0928 118.7561 118.4044 118.0445 117.7001 118.4005 116.0560 116.6685 116.2572 115.9038 115.5779 115.2539 114.9975 114.4088 114.5208 113.7689 114.2830 114.1122 114.1005 106.5860 106.9985 108.9571 107.5881 108.5203 96.8660 107.1362 108.0896 114.7322 116.3080 116.9591 117.1204 117.7843 114.6464 119.0044 118.6215 120.0497 119.8460 120.6874 121.4592 111.5266 121.3326 121.1295 121.4817 118.1385 125.9024 111.8507 115.5460 115.4866 103.1016 103.6089 101.2138 102.8141 109.0241 123.9494 124.0799 124.3100
121.3800 121.2601 120.9581 120.4160 120.1499 119.9496 119.5444 119.2091 118.8577 118.5009 118.1261 117.7395 117.3594 117.7143 116.9583 116.2388 115.7802 115.4065 115.0397 114.6800 114.3894 114.2154 117.7061 119.8552 112.6061 113.5294 113.6530 115.7857 112.1595 105.0382 106.8348 97.0614 113.5267 111.1168 112.4840 117.3887 116.8337 116.4551 116.8031 117.3796 114.4894 118.1273 119.8376 108.6283 107.9301 110.5632 120.5451 120.8522 120.2786 120.8369 116.8603 122.2278 122.6104 123.0344 122.1279 114.7983 104.2283 115.1386 122.7123 117.7614 122.1554 123.5423 123.8996 124.2800
121.1100 120.9657 120.7063 120.7681 120.2102 119.0650 119.3541 119.0016 118.6140 118.2345 117.8514 117.4553 117.0364 116.3854 115.8864 115.7949 115.3295 114.8970 114.4762 114.0644 113.6869 113.1015 112.5437 113.9388 112.3964 112.5978 112.4850 109.3940 113.5162 111.2893 111.7539 101.7720 111.6774 114.7277 114.3017 115.5387 115.8406 116.0860 116.5184 116.9829 116.7524 117.9088 117.5193 101.2252 107.7338 101.1613 120.8980 119.7887 120.2823 120.4176 119.9845 121.2121 121.4088 121.7542 121.5153 127.6212 117.1090 112.3518 120.4618 109.7007 115.1306 125.2965 124.3838 124.2600
121.0600 120.8666 120.3477 121.0921 109.8489 124.5958 119.1795 118.7941 118.4571 118.0379 117.5769 117.1727 116.7269 116.2845 115.8311 115.3355 114.8651 114.3798 113.9000 113.4382 112.9843 112.5882 112.2716 111.8182 111.7351 111.6310 111.7010 111.8057 111.5399 111.1373 108.0068 112.4223 112.2436 113.7472 114.7438 114.9711 115.2072 115.7332 116.1048 116.9116 117.1147 117.2720 117.7719 116.4139 118.2626 117.0566 119.3804 119.8120 120.0613 121.6575 121.2638 121.1753 121.3770 121.4003 122.2780 117.4908 117.0522 110.8112 101.7647 108.6428 122.1571 114.0121 121.4785 124.2300
121.0200 120.7823 119.9446 124.7939 118.3264 119.8496 119.0358 118.5721 118.2914 116.6836 117.4577 116.9007 116.4324 115.9534 115.4282 114.9133 114.3864 113.8525 113.3114 112.7704 112.2501 111.7600 111.3078 110.9690 110.6760 110.5270 110.4641 110.5824 110.8265 111.6922 111.8820 112.2421 112.6940 113.5639 108.5513 108.6428 115.1495 115.3095 116.1066 112.8079 117.7746 117.5834 117.7991 118.1998 118.4727 119.0280 119.1717 119.0830 121.8211 107.4469 122.0826 120.9598 121.2578 123.6288 105.2181 110.2407 113.7685 99.9059 100.4228 117.8426 108.5958 124.0870 124.0300 124.0500
120.9800 120.5337 121.4596 119.8376 119.5555 119.2179 118.8801 118.4264 118.0234 117.5370 117.1289 116.6261 116.2740 115.6443 115.0876 114.4565 113.9411 113.3258 112.7084 112.0889 111.4767 110.8919 110.3575 109.8998 109.5595 109.3637 109.3671 109.3796 110.4157 108.1815 111.2303 111.2888 111.7939 114.5098 102.2310 113.5197 114.1828 114.9806 115.5200 116.3344 106.4168 120.7677 116.5677 118.2446 118.3622 118.4141 121.3763 100.7183 122.3714 120.2091 120.4698 120.4125 119.4860 104.0425 106.4875 100.0548 111.6376 113.3357 120.5759 107.5573 108.9400 108.9672 112.5652 113.7200
120.7100 120.5658 120.1436 119.8364 119.5027 119.0912 118.6891 118.2700 117.8210 117.3562 116.8479 116.3446 114.2646 115.1583 114.5336 114.4980 113.4747 112.8012 112.0999 111.3985 110.6726 109.9652 109.2898 108.7007 108.2570 107.9854 107.9280 108.5474 100.8240 107.2994 108.2052 110.5325 111.1744 115.6051 108.3767 114.1451 113.9116 114.6204 115.2873 115.5631 117.0822 116.3966 117.1947 117.5060 120.9547 118.5489 119.7359 120.1441 119.4907 120.1855 120.9179 116.7876 104.1132 106.2734 123.9908 123.9907 113.5831 110.8336 113.1888 109.3156 109.7433 111.7535 113.4705 118.9900
120.6700 120.4643 120.1269 119.7458 119.3507 118.9626 118.5564 118.1253 117.6748 117.2014 116.5129 116.7156 104.7948 112.8437 115.3333 115.9173 112.8431 112.2820 111.6069 110.8101 109.8365 108.9900 108.0787 107.3682 106.7460 106.3746 106.2903 107.4379 99.5998 108.3834 103.1168 110.7137 97.3839 97.6090 112.8479 112.8807 113.5786 114.1059 114.2055 118.2584 114.4905 116.7142 117.1225 117.5945 117.8627 118.4887 118.7753 119.1626 119.9493 114.4701 124.5214 104.0302 106.9656 108.5733 110.5686 113.0992 111.7503 115.6177 124.5751 124.6384 124.6430 124.7535 126.6395 111.8400
120.6400 120.3991 120.0356 119.6656 119.2811 118.8765 118.4501 117.9985 117.5312 117.0378 116.5478 115.9519 116.1174 115.1850 113.4539 112.2695 112.6654 111.7733 111.1192 109.3831 108.9767 108.2051 107.1156 105.8098 104.9491 104.3905 104.2937 105.2483 104.5698 107.7830 107.5808 109.9648 115.7723 101.3421 112.6877 112.3438 113.2680 113.7652 117.4688 115.8298 113.7106 116.8623 116.7587 117.8244 117.9427 118.3963 118.8360 119.0701 119.6551 113.8289 122.2171 112.3496 107.8020 109.1873 111.3501 113.7899 118.4626 122.1337 122.2462 122.6212 122.8799 123.9863 125.4768 109.2000
120.6200 120.3010 119.9720 119.5935 119.2024 118.7842 118.3531 117.8975 117.4172 116.9113 116.3750 115.7878 115.2362 114.3199 114.0575 113.4532 112.2987 111.3750 109.1894 107.5094 108.2829 105.9880 105.4029 104.0811 102.7431 101.8203 101.6996 102.4225 103.7536 105.1403 106.5705 107.6822 108.7163 110.2717 111.1083 112.1274 112.9888 113.8155 116.5789 108.4649 109.5799 111.6009 117.1024 112.9041 117.9568 118.2567 118.6614 119.0727 120.0570 121.6033 118.9629 110.8856 100.8484 114.8652 110.2885 113.8967 120.4333 123.2429 122.8738 123.0995 123.3715 123.2471 126.4348 126.7100
120.5800 120.4573 119.9291 119.5348 119.1385 118.7179 118.2767 117.8202 117.3311 116.8143 116.2690 115.6898 115.0582 114.4056 113.6074 112.7897 112.0032 111.0607 109.2377 108.6065 107.4348 104.9529 103.9272 102.1882 100.0683 98.2487 98.0180 99.6261 101.6843 103.7788 105.5913 107.2972 108.6601 109.8372 110.8538 111.8097 112.7644 112.6409 116.1229 96.8815 97.1573 105.9653 116.6498 115.5709 117.7086 118.1952 118.6262 119.0296 119.2597 118.7821 121.2443 111.9161 115.3722 110.9683 119.6437 114.8250 111.3896 123.8161 122.6501 122.9436 123.2166 123.0337 126.0217 127.1700
120.5700 118.8231 119.8950 119.5132 119.0989 118.6716 118.2286 117.7653 117.2664 116.7394 116.1886 115.5870 114.9510 114.2586 113.5185 112.7150 111.8144 110.8220 109.8223 108.6263 106.8567 105.4175 102.9686 100.1785 96.6039 92.0963 91.5599 95.4107 99.5272 102.4302 104.7051 106.5335 108.0733 109.3953 110.5628 111.5954 112.5749 113.8614 119.0676 113.7979 108.0447 114.1326 117.1089 117.3662 117.6684 118.1191 118.5721 119.0086 119.5323 120.0086 120.7118 122.3011 117.6859 118.1283 110.2439 113.4301 119.7634 122.8257 122.7377 122.9697 123.1928 123.2062 128.5396 135.9400
120.5600 119.8379 120.0097 119.4806 119.0737 118.6452 118.2008 117.7274 117.2325 116.7043 116.1407 115.5351 114.8942 114.1921 113.4375 112.6052 111.6905 110.6610 109.4671 108.1176 106.5642 104.6036 102.1538 98.7595 92.5869 86.7457 86.1187 90.8574 97.8171 101.4786 104.1150 106.1629 107.8335 109.2169 110.4182 111.3960 112.3960 114.1317 112.0959 106.3341 114.8557 115.7393 116.5726 117.1146 117.6146 118.0947 118.5477 118.9792 119.3416 119.5418 119.7824 120.2788 120.8643 122.4903 111.2463 123.2871 109.4957 123.9770 122.6258 122.9158 123.3123 123.5685 117.3905 126.5200
120.5600 120.2695 119.8581 119.4809 119.0657 118.6435 118.1939 117.7223 117.2216 116.6885 116.1311 115.5271 114.8764 114.1809 113.4200 112.5865 111.6674 110.6360 109.4778 108.1242 106.5094 104.5398 102.0080 98.4374 91.7612 85.4182 85.0369 89.6636 97.4235 101.3384 104.1076 106.1665 107.7620 109.1778 110.3939 111.3715 112.1729 115.0786 112.0041 104.8221 113.5866 115.5770 116.5555 117.0375 117.6153 118.0950 118.5469 118.9696 119.3363 120.2962 120.8449 121.2068 122.1433 121.5250 119.8045 124.6489 103.8112 124.3622 122.6424 122.8938 123.2950 125.4074 111.7720 109.1000
120.5600 120.2459 119.8791 119.4888 119.0831 118.6547 118.2121 117.7465 117.2530 116.7213 116.1634 115.5582 114.9218 114.2234 113.4734 112.6447 111.7434 110.7103 109.5611 108.2489 106.7386 104.8759 102.5327 99.4716 93.9888 89.5028 88.9301 93.3007 98.6119 101.8928 104.2053 106.1533 107.9865 109.3017 110.4829 111.5064 112.3717 114.5902 100.1162 108.3681 114.8126 115.8976 116.5047 118.1780 117.5583 118.1016 118.5621 118.9981 119.3645 119.9553 105.0914 121.2077 108.1888 110.0383 122.6356 111.2605 121.7985 122.5386 122.6777 122.9535 123.2168 123.0735 131.1523 112.6700
120.5700 120.2743 119.8970 119.5201 119.1152 118.7002 118.2519 117.7908 117.3134 116.7835 116.2314 115.6374 114.9985 114.3255 113.5896 112.7898 111.9121 110.9874 109.7193 108.6097 107.2150 105.5656 103.6099 101.2954 98.5883 95.7002 95.3805 98.0085 100.7139 102.7590 110.0656 111.4908 107.9486 109.5883 110.7083 111.7002 112.6008 113.3576 114.0843 114.9322 115.4916 116.0377 116.6645 117.2103 117.6707 118.1569 118.5587 119.0342 119.3933 119.7747 117.5958 103.6261 122.2786 122.3005 115.5830 114.9380 122.8562 122.2059 122.7099 122.9702 123.2432 123.6435 123.0260 132.0100
120.5800 120.3137 119.9485 119.5631 119.1712 118.7487 118.3199 117.8416 116.9722 116.9264 116.3226 115.7451 115.1342 114.4717 113.7621 113.0012 112.0451 111.1606 107.3278 109.3494 107.8874 106.4744 104.9249 103.3055 101.5702 100.4141 100.2356 101.2507 102.8637 104.5591 105.9937 107.3742 108.8371 109.9769 111.0270 111.9622 112.8116 113.6052 114.2377 114.8864 115.5793 116.2033 116.7454 117.2637 117.7577 118.2806 117.7232 119.1228 119.0885 118.6103 104.6915 121.6654 119.4756 116.7024 117.8811 117.0172 123.1950 122.2056 122.7282 123.0022 123.2612 123.4838 123.9118 123.9400
120.6000 120.3690 120.0061 119.6354 119.2366 118.8231 118.3548 118.5135 113.3187 117.4105 116.4470 115.8858 115.3041 114.6665 113.9932 113.2637 112.4162 111.8461 111.4542 108.8505 108.6786 107.4619 106.2789 105.0712 103.9984 103.2979 103.2224 103.8072 104.8182 106.0342 107.3617 108.4886 109.5233 110.4984 111.4382 112.3099 113.1022 113.8258 114.5604 115.2255 115.7918 116.3287 116.8660 117.3684 117.8407 118.2962 118.8237 119.3199 120.5711 118.9174 110.1292 111.5772 118.7842 112.1954 116.4446 135.5007 121.0790 122.6377 122.7613 123.0294 123.2821 123.5455 123.7478 123.9500
120.6200 120.4346 120.0792 119.7094 119.3260 118.9173 118.5067 118.2235 117.9883 117.0760 116.6145 116.0749 115.5083 114.9060 114.2662 113.5463 113.0868 114.4828 114.6955 105.7511 109.7602 108.4801 107.6002 106.6863 105.9644 105.5205 105.4655 105.8276 106.5092 107.3819 108.3114 109.2336 110.1786 111.0637 111.9127 112.6048 113.3865 114.1169 114.7520 115.3601 115.9454 116.4893 117.0124 117.4990 117.9649 118.4117 118.8152 119.2008 123.9271 119.6506 121.3384 124.2696 116.9603 107.8592 121.7100 120.2715 121.3678 122.5375 122.8086 123.0659 123.3167 123.5700 123.8079 123.9500
120.6500 120.5177 120.1651 119.8071 119.4306 119.0329 118.6410 118.1771 117.7099 117.2984 116.8003 116.2889 115.7452 115.1703 114.5826 113.9649 113.1811 106.8840 110.1375 108.8625 110.2057 109.2637 108.7860 108.0960 107.5758 107.2821 107.2518 107.4943 107.9810 108.6199 109.3478 110.1275 110.9079 111.6708 112.3854 113.7508 113.8463 114.4403 115.0353 115.6202 116.1678 116.6858 117.1802 117.6508 118.1045 118.5301 118.9497 119.3290 119.1648 119.8225 120.1212 120.1222 120.3352 118.2177 123.7843 122.1654 122.5181 122.5714 122.8523 123.1102 123.3633 123.6096 123.9616 123.9700
120.9400 120.6053 120.2568 119.9060 119.5477 119.1606 118.7704 118.3632 117.9327 117.4772 117.0089 116.5114 116.0053 115.4728 114.9408 114.0059 112.6701 105.2208 114.3888 111.1418 111.7392 110.2927 109.9026 109.3941 109.0253 108.7550 108.7309 108.9099 109.2679 109.7548 110.3442 110.9721 111.6320 112.2839 112.9238 114.3909 114.2290 114.8146 115.3531 115.8846 116.3982 116.8968 117.3750 117.8244 118.2609 118.6778 119.0797 119.4666 119.9117 120.2384 120.5797 121.0498 121.3558 118.3098 119.6286 121.7283 122.3512 122.6232 122.9060 123.1639 123.4115 123.6640 123.9326 124.5700
120.9800 120.6992 120.4105 120.0314 119.6805 119.3045 118.9196 118.5230 118.1216 117.6913 117.2362 116.7708 116.2854 115.8026 115.1868 114.4519 105.7951 105.2133 116.0107 106.0705 111.4966 111.4030 110.9024 110.4366 110.1885 110.0096 109.9945 110.1294 110.4048 110.7857 111.2494 111.8239 112.3457 112.8141 113.5979 113.9331 114.5382 115.1545 115.6581 116.1911 116.7105 117.1518 117.5835 118.0137 118.4364 118.8360 119.2253 119.5787 119.9240 120.2717 120.6748 121.0339 121.2454 122.4654 123.1726 122.1764 122.4415 122.7159 122.9655 123.2194 123.4698 123.7122 123.9335 124.1700
121.0200 120.8756 120.0129 120.2143 119.8104 119.4603 119.0952 118.7095 118.3026 117.9001 117.4161 117.0625 116.5912 116.1129 115.5540 115.6836 110.3602 105.9858 111.4574 102.9681 110.2659 112.2615 113.9065 112.6929 111.2575 111.1068 111.0965 111.2103 111.4209 111.7324 112.1166 112.6171 111.4273 113.0053 114.0339 114.5343 115.0609 115.4814 116.3676 116.5097 116.8484 117.3648 117.8005 118.2237 118.6233 119.0043 119.3874 119.7576 120.1381 120.4508 120.7879 120.6531 121.3771 121.4428 121.6989 122.1997 122.5027 122.7736 123.0370 123.2860 123.5312 123.7697 123.9984 124.1900
121.0700 120.9583 120.4773 120.3191 120.0271 119.6219 119.2687 118.9221 118.4582 118.4294 118.0632 117.3123 116.8983 116.4874 115.7432 109.0136 112.4512 107.0471 112.4474 117.1482 114.2250 113.0339 112.4812 112.3354 112.2514 112.0945 112.0805 112.1667 112.3431 112.5920 112.9172 113.3396 112.8143 114.9530 114.4978 115.0224 115.4725 115.9618 114.7173 116.7272 117.9338 117.5345 118.0726 118.4377 118.8215 119.1978 119.5357 119.8560 119.7429 120.7976 124.0803 123.4931 121.5847 121.7448 122.0949 122.3436 122.5999 122.8529 123.1097 123.3541 123.5961 123.8273 124.0631 124.2100
121.3300 121.0819 120.7863 120.4671 120.0767 119.8090 119.4600 119.0699 119.4871 111.6271 118.3389 117.3746 117.2642 116.7216 116.3455 108.1164 113.8681 108.9589 118.8885 113.8666 113.9603 113.7174 113.4679 113.2111 113.0234 112.9643 112.9600 113.0315 113.1783 113.3836 113.6624 113.9747 114.3409 114.6846 115.1286 115.4883 115.9008 116.3730 116.1191 116.2108 109.4416 118.5991 118.2903 118.6546 119.0342 119.3666 119.7191 120.0541 122.3334 121.9467 108.3472 122.1598 121.3697 121.8992 122.1542 122.4263 122.6858 122.9383 123.1899 123.4288 123.6686 123.9009 124.1312 124.2400
121.3800 121.2197 120.9224 120.6193 120.3034 119.9889 119.6531 119.3512 119.0104 117.3884 116.9878 118.0160 117.5460 117.1645 116.7453 113.8920 117.3435 124.6819 121.9035 115.1655 114.7273 114.3972 114.2346 113.9845 113.9539 113.7549 113.7574 113.8174 113.9383 114.1185 114.3497 114.6135 114.9243 115.2571 115.6017 115.9738 116.3313 116.7416 117.0198 117.7259 117.6642 118.1344 118.5783 118.9135 119.2498 119.6442 119.6027 120.2672 121.1059 115.6034 108.6672 112.4966 122.4378 122.0312 122.2533 122.5279 122.7855 123.0393 123.2773 123.5092 123.7582 123.9798 124.1974 124.2600
121.4300 121.3608 121.0801 120.7895 120.4873 120.1798 119.8691 119.5618 119.1329 119.0350 118.4869 118.2090 117.8916 117.4087 117.8037 116.5058 116.9603 115.5821 118.0198 115.5236 115.3425 114.9382 114.8390 115.1973 114.6663 114.4792 114.4938 114.5424 114.6442 114.7968 114.9899 115.2351 115.4800 115.7957 116.1032 116.4311 116.7611 117.1083 117.4351 117.8391 118.0971 118.4667 118.8193 119.1243 119.5664 119.9797 120.7945 125.2804 118.7138 120.8651 119.3106 119.5722 121.3069 122.1316 122.3987 122.6379 122.8836 123.1259 123.3671 123.7866 123.8425 124.0603 124.2844 124.4400
121.6900 121.5169 121.2401 120.9619 120.6754 120.3784 120.0821 119.7807 119.5045 118.6825 118.8373 118.4546 118.2568 117.8100 117.4545 117.2488 117.4236 108.2971 113.8243 116.3565 115.8343 115.6767 119.7202 116.6389 115.3685 115.1264 115.1583 115.2084 115.2970 115.4309 115.6075 115.7900 116.0718 116.2882 116.4884 116.8766 117.1859 117.4970 117.8066 118.1360 118.4562 118.7882 119.1322 119.2700 119.2582 114.3813 119.5609 106.8627 104.9261 112.2744 120.0362 121.5378 113.1362 122.7316 122.5325 122.7446 123.0029 123.1056 124.6645 121.3769 123.8488 124.0497 124.2997 124.4700
121.7500 121.6771 121.4079 121.1136 120.8543 120.5868 120.3023 120.0022 119.9264 117.1944 118.7899 118.5604 118.5944 119.0023 118.2832 117.7799 115.8471 101.7050 112.0092 117.1765 116.3630 116.2641 115.6665 115.9121 115.8545 115.8323 115.7985 115.8521 115.8974 116.0206 116.1704 116.3301 116.5725 116.9341 117.2988 117.4152 117.5815 117.8725 118.1689 118.4627 118.7667 119.0478 119.2044 119.7276 116.7349 107.0846 106.8592 110.5558 112.2707 121.5061 107.2724 121.1600 123.0113 122.5267 122.6660 122.8782 123.1401 122.7630 128.8715 115.0945 124.7416 124.5941 124.8113 124.5000
122.0100 121.8370 121.5863 121.3214 121.1058 120.7796 120.5192 120.2635 119.8814 120.1799 120.3823 118.2446 118.0650 120.3696 120.0225 117.9061 117.4368 117.0098 118.8505 116.9148 116.9579 116.7776 116.6614 116.4553 116.5127 116.2646 116.3760 116.3446 116.7540 116.5380 116.7197 116.8517 117.0904 119.7870 119.8760 117.7455 117.9713 118.2528 118.5230 118.7960 119.0727 119.3317 119.9901 121.4102 111.4431 114.7522 113.4062 104.7797 120.3295 119.8129 117.6197 112.0294 120.9759 118.7831 122.9518 122.9946 123.2135 123.5259 123.3432 124.0771 124.4181 117.8471 125.7301 124.6800
122.3100 122.0051 121.7451 121.6958 119.4156 121.1878 120.7017 120.4818 120.2167 120.0877 115.8925 118.3718 118.5150 103.6815 119.2761 118.5541 118.1471 118.1436 117.5724 117.6042 116.8301 117.0878 117.1391 116.8946 120.7151 116.5961 116.9294 116.7196 118.9226 116.9727 117.2258 117.3538 117.6732 118.4322 118.6853 118.3092 118.3631 118.6131 118.8684 119.1337 119.3620 119.6847 116.4762 120.7192 115.5160 120.6077 122.0576 118.2232 112.7176 121.8837 121.0992 119.2006 119.8390 114.8251 123.5136 123.0809 123.3564 123.5869 123.8184 123.8772 124.4057 116.8291 124.4117 124.7100
122.3100 122.1888 121.9059 121.8506 119.1548 121.2908 120.9746 120.7271 120.4940 120.1915 120.7061 120.4190 120.9889 111.7151 118.9134 118.6941 118.6048 118.4091 118.2079 118.0205 116.6712 117.7100 117.6338 117.2158 117.2087 117.4667 117.4439 117.4802 117.3164 117.4801 117.7115 117.8373 117.9702 118.1530 118.1827 118.5671 118.7524 118.9762 119.2528 119.4470 119.6044 120.1945 124.1677 123.4416 121.3432 121.2192 120.9628 122.2329 109.5959 117.5693 114.7324 118.7576 122.7604 119.9919 123.1612 123.2878 123.4775 123.6853 123.8960 124.1267 124.2071 125.7035 125.4848 124.9200
122.6200 122.3426 122.2170 122.0030 121.6478 121.4900 121.1931 120.9617 120.7245 120.4816 120.2574 119.8340 119.7082 119.6306 121.0834 119.2043 118.9779 118.7826 118.6136 118.4151 118.4039 118.1879 118.1082 118.0937 118.0160 117.9273 117.9523 118.0292 118.0651 118.0978 118.1696 118.2832 118.4205 118.5701 118.7739 118.9185 119.1176 119.3221 119.5417 119.7580 120.0204 120.9010 113.4115 108.4378 121.0639 121.4349 122.8052 122.3328 115.3106 120.4603 119.1226 119.9717 123.1737 123.0880 123.0891 123.4296 123.6178 123.8235 124.0251 124.2191 124.4220 124.5181 124.7099 124.9600
122.6800 122.6281 121.1643 120.3689 121.8537 121.6403 121.4311 121.2021 120.9778 120.7643 120.5526 120.3450 120.1010 119.9338 119.8821 119.4339 119.3420 119.1668 119.0185 118.8777 118.7207 118.6304 118.5396 118.4549 118.4099 118.3948 118.3776 117.8751 118.2198 118.5255 118.6070 118.7115 118.8379 118.9777 119.1274 119.3031 119.4772 119.6688 119.8660 120.0659 120.2727 120.4505 104.8187 120.1167 122.7123 123.0635 113.7560 114.9881 122.2745 123.0284 122.4348 122.9599 122.8580 123.1287 123.3356 123.5391 123.7440 123.9485 124.1433 124.3473 124.5415 124.7612 124.9443 125.0000
122.9200 122.9329 121.9647 122.4360 122.0880 121.8611 121.6551 121.4426 121.2294 121.0197 120.8117 120.6103 120.4304 120.2150 120.0176 119.8695 119.6992 119.5280 119.3951 119.2539 119.1441 119.0432 118.9611 118.9054 118.8610 118.8195 118.3846 121.5060 120.9424 118.7383 119.0373 119.1205 119.2303 119.3648 119.5035 119.6575 119.8192 120.0016 120.1814 120.3733 120.5635 120.7491 121.1150 121.7491 111.3227 116.7185 121.3913 121.3055 122.0953 122.4589 122.6442 122.8141 123.0759 123.2765 123.4811 123.6807 123.8841 124.0788 124.2734 124.4664 124.6508 124.8337 125.0216 125.1700
118.7400 121.3349 122.8321 122.5659 122.2753 122.0810 121.8761 121.6823 121.4647 121.2731 121.0893 120.8990 120.7067 120.5217 120.3615 120.1895 120.0449 119.9316 119.8965 119.6374 119.5336 119.4416 119.3686 119.3085 119.2633 119.3410 120.5887 120.8732 121.0870 119.2862 119.4271 119.5082 119.6145 119.7309 119.8641 120.0080 120.1600 120.3150 120.5022 120.6490 120.9421 120.8442 121.7178 121.2508 118.8639 106.5002 111.6141 120.8041 122.5128 122.6480 122.8299 123.0390 123.2367 123.4338 123.6308 123.8235 124.0199 124.2113 124.3929 124.5835 124.7651 124.9482 125.1305 125.2100
123.2100 122.8436 122.8528 122.6793 122.4826 122.2914 122.0736 121.9118 121.6838 121.5688 121.3382 121.1654 121.0063 120.8381 120.6702 120.5235 120.3790 120.2328 120.1163 120.0068 119.9039 119.8256 119.7536 119.7043 119.6426 119.6561 119.9749 123.7712 119.3051 119.7301 119.8050 119.8880 119.9815 120.0844 120.2114 120.3448 120.4792 120.6533 120.7144 120.9881 121.0594 121.5426 123.1354 109.5561 122.0806 107.5442 103.8166 116.7480 123.6898 122.7024 123.0297 123.2181 123.4075 123.5917 123.7821 123.9694 124.1574 124.3415 124.5290 124.7099 124.8866 125.0608 125.2334 125.3900
123.2800 123.2652 123.0386 122.8826 122.6793 122.4881 122.3432 123.0975 122.0677 121.7915 121.6152 121.3255 121.2695 121.0429 120.9736 120.8174 120.6972 120.5795 120.4598 120.3566 120.2686 120.1912 120.1256 120.0739 120.0359 120.1429 120.0127 119.4543 120.0944 120.1040 120.1634 120.2518 120.3374 120.4359 120.5534 120.6741 120.8097 120.8515 121.5493 121.3328 121.3109 123.2948 108.0719 127.7889 122.9045 112.6396 103.3552 124.7452 121.9896 122.9847 123.2322 123.3935 123.5754 123.7590 123.9392 124.1189 124.2973 124.4753 124.6602 124.8288 125.0100 125.1777 125.3540 125.4300
123.5100 123.4189 123.2428 123.0703 123.0271 122.7217 122.4810 122.5834 121.9590 122.0997 121.8946 119.9740 121.4599 122.1779 121.0652 121.1280 121.0151 120.9022 120.7882 120.6949 120.6165 120.5492 120.4838 120.4362 120.4122 120.3813 120.3993 120.4802 120.4524 120.3937 120.5636 120.5859 120.6746 120.7656 120.8733 120.9911 121.1100 121.2726 121.2347 121.5478 121.4111 122.5073 113.4606 111.4347 124.1510 122.4177 112.7284 119.7400 114.7038 121.3916 122.8007 123.5598 123.7099 123.9176 124.0938 124.2676 124.4378 124.6291 124.7861 124.9708 125.1130 125.2301 125.3902 125.6000
123.7200 123.6064 123.4329 123.2374 123.3170 123.4017 122.6918 122.8672 122.5880 122.4734 121.9934 123.5740 106.7202 121.4534 121.4707 121.4278 121.3224 121.2110 121.1151 121.0196 120.9477 120.8479 120.8396 120.8112 120.7437 120.7469 120.7395 120.7302 120.7783 121.9031 120.7099 121.0361 121.0040 121.0923 121.1891 121.2866 121.4165 121.5179 121.6770 121.8720 120.2718 120.8183 115.4687 106.1087 112.2543 123.8918 124.3547 121.0394 122.0186 105.8773 122.7610 123.9537 124.1928 124.0748 124.2424 124.4201 124.5793 124.7237 124.8912 125.0559 125.2017 125.6669 125.4893 125.6400
124.0000 123.7863 123.6146 123.4831 123.2170 123.1193 122.9112 122.7966 119.1380 124.2852 118.3381 118.7037 120.4975 124.0885 121.8420 121.7276 121.6183 121.5109 121.4231 121.3465 121.2256 121.4940 120.8040 120.7223 121.0738 121.0833 121.0795 121.0744 121.0862 122.1567 121.7183 121.2885 121.2622 121.4082 121.4536 121.6372 121.6783 121.8452 121.9406 121.6901 121.7986 126.4088 119.3738 111.6869 111.2128 115.6041 123.0893 123.6149 123.1474 110.1473 122.3203 120.1760 124.0579 124.1989 124.4120 124.5666 124.7450 124.8841 125.4940 125.3926 125.8294 119.8902 127.1549 125.8500
124.0200 123.9637 123.8049 123.6428 123.5100 123.3514 123.1559 123.7894 117.0419 124.8945 118.6611 113.1358 119.3569 122.3818 122.0936 121.9836 121.9279 121.8388 121.7266 121.6421 121.5814 121.5917 121.7987 121.6518 121.3773 121.4067 121.3980 121.4299 121.4866 122.5438 121.2516 121.6120 122.0112 121.6205 122.4236 121.6943 122.1757 122.1736 122.1721 123.8801 123.2546 119.3633 111.5669 107.4102 116.8277 118.9686 123.2187 123.2087 123.6270 123.3682 120.0677 119.2766 124.5643 124.3593 124.5457 124.6986 124.8641 125.2166 122.5065 126.8044 125.8482 115.3683 125.3196 125.8500
124.2700 124.1414 123.9906 123.8404 123.6908 123.5416 123.4151 123.3069 123.4838 125.8432 117.4406 124.4736 122.6689 122.2206 122.4060 122.3145 121.8873 121.7886 122.0198 121.9461 121.5311 123.0146 112.4776 122.1686 121.6902 121.7150 121.7163 121.7407 122.1016 113.0753 121.6903 121.3383 119.1968 122.1052 123.3834 122.1450 114.3336 122.1497 122.7982 112.9350 109.4957 108.7403 116.4942 106.7092 117.9489 122.2569 123.7224 123.6305 123.9938 121.6011 134.5749 123.6472 124.5962 124.6141 124.8362 124.8467 125.0212 125.2082 124.8883 127.1291 126.3694 118.5294 125.6996 114.8200
124.4800 124.3140 124.1743 124.0342 123.8900 123.7417 123.6176 123.2972 123.4231 116.5611 111.8577 123.0168 122.8635 122.7542 122.6275 121.7788 121.8825 123.7010 122.2102 122.2302 121.9902 121.9376 119.8561 122.8238 122.0464 122.0408 122.0274 122.0533 121.3607 119.2631 125.6623 122.7544 129.9916 121.4235 123.3034 123.9501 114.8084 123.8973 122.0026 115.2722 114.3308 108.7399 109.6610 121.6487 124.0111 124.0047 123.0435 121.8037 119.7153 124.2825 124.2635 124.2905 124.5925 124.5127 124.7818 124.4311 125.1938 125.3247 125.3622 115.1492 127.7208 113.6473 125.0283 126.2200
124.5000 124.4890 124.3523 124.2200 124.0858 123.9435 123.8190 123.4721 123.5424 115.8436 123.7282 123.1847 122.6908 123.0250 122.9078 123.5706 108.3123 121.5244 122.4430 122.5019 122.4453 122.1479 120.3273 116.9192 122.2667 122.3556 122.3096 122.2135 122.5442 121.0698 104.6356 125.8846 121.7082 108.9323 127.8954 113.7355 123.8817 122.1593 111.8317 113.8471 107.2988 112.7683 103.9729 122.7283 123.8918 123.7770 125.9435 118.4846 133.3992 127.7047 123.4038 126.3532 124.6787 124.8436 129.1296 125.8263 125.3611 125.4873 125.3207 129.5278 127.4684 118.8290 127.9857 126.2600
124.7400 124.6687 124.5320 124.4015 124.2774 124.1322 124.0122 122.8776 123.9397 115.2502 122.1839 117.8447 124.3146 123.0137 123.2651 123.1807 122.6415 123.9476 122.5130 122.7898 122.8232 122.5757 117.7333 122.5594 122.3093 122.6026 122.5915 122.5792 122.6041 122.9467 122.3194 120.5912 108.4430 109.5959 127.2535 122.4351 123.5287 123.1437 121.8615 113.8795 123.9524 123.1282 123.1654 115.3085 119.2968 125.2755 123.9889 124.1585 115.3636 125.5187 115.6748 125.8601 124.7206 126.4322 115.7556 122.5376 125.6496 125.6127 125.4708 126.5031 120.0491 127.2040 126.5646 126.4200
124.9400 124.8436 124.7124 124.5893 124.4655 124.3389 123.9621 124.2172 114.8377 102.1037 104.5822 102.9038 120.3993 124.0815 122.4946 126.1940 123.4229 122.9836 123.1272 123.0353 123.0249 122.8472 123.4383 122.7750 122.8984 122.8685 122.8769 122.8636 122.8531 123.7428 122.1937 117.4631 105.1241 107.6555 121.6812 122.9532 123.3754 123.3540 123.5933 124.6200 123.5431 123.5458 117.1752 116.2823 120.0848 124.3580 124.2827 124.8427 122.5535 113.1811 109.7571 116.9734 125.3753 125.2555 124.8011 126.2427 125.2775 125.7816 125.9045 125.8753 126.0185 126.2234 126.4591 126.4600
125.1200 125.0158 124.8842 124.7664 124.6542 124.6100 124.7460 123.8420 115.3842 120.8275 106.9660 118.0101 124.9229 124.4885 105.6754 110.2032 123.4317 123.4527 123.3381 123.2712 123.2506 123.2576 123.1435 123.1597 123.1358 123.1435 123.1314 122.9363 123.1146 125.6889 110.2423 118.2338 106.1581 120.8693 118.7993 123.1009 123.5936 123.6030 123.6955 123.6405 123.8689 123.5368 119.5628 108.4826 125.3473 124.3471 124.4438 124.2468 124.4260 111.1736 109.2094 123.0194 125.5229 125.3681 125.4064 125.5537 125.7635 125.8570 126.0760 126.1093 126.2816 126.4103 126.5248 126.6200
125.1600 125.1842 125.0697 124.8957 124.7444 122.0465 121.9316 117.5893 118.2828 112.9741 109.2411 108.1290 123.0583 125.0505 111.5714 123.7577 124.1599 123.5963 123.6074 123.6154 123.5687 123.4327 123.4178 123.4257 123.3759 123.3674 123.2915 124.1867 123.6471 127.6837 115.1421 106.0111 105.7734 123.6248 119.9225 123.5255 123.7935 123.8517 123.9185 124.0086 124.0426 124.8705 119.7161 117.3972 118.1838 122.4998 124.7183 124.5455 125.7950 125.5117 125.6410 125.0398 125.4208 125.5115 125.6325 125.7369 126.2755 126.0825 126.1378 126.2652 126.3917 126.5242 126.6590 126.6700
125.3700 125.3477 125.2354 125.1798 126.1097 108.6876 100.4160 99.8040 118.5651 109.5755 102.3466 113.3689 125.1869 124.5915 109.0888 124.5600 123.6068 123.9622 124.1441 123.6579 123.9386 123.8515 123.9170 123.6650 123.7451 123.6342 124.0718 121.2718 113.4793 128.6370 119.5157 105.3492 122.5886 124.6997 124.0080 123.8808 124.1450 123.8880 124.1649 124.2924 124.1795 124.6174 108.9495 111.8884 116.7816 123.2383 125.0081 124.9954 124.8985 125.1605 124.9411 125.3452 125.5976 125.6599 126.4905 123.8746 124.7220 126.1860 126.1032 126.4116 126.5305 126.6632 126.7157 126.8200
125.5700 125.5140 125.4575 124.8094 126.1680 116.7112 104.8317 111.6348 112.5746 117.4235 101.4945 117.0707 124.5640 125.1359 124.9887 124.4158 124.0579 123.9671 129.9731 122.5303 124.5096 122.5357 120.9175 124.0840 123.8083 123.5312 122.5056 116.3111 107.9720 114.4550 123.7040 115.4668 124.5956 123.9352 124.1472 123.9706 124.3804 125.1258 125.5738 124.2658 124.1695 125.1299 119.4105 106.5482 126.4468 125.3117 124.8747 125.2026 125.2825 125.4285 125.5600 125.6217 125.7151 125.8001 125.6559 123.3677 128.6378 127.1240 126.4818 126.5634 126.6352 126.7772 127.0036 126.9700
125.7600 125.6818 125.5792 125.3195 125.4105 124.3221 125.3695 116.7151 123.1783 112.9669 120.4610 123.8817 124.6524 124.5386 124.3831 124.4350 124.3807 124.2724 123.0338 124.3787 123.1179 109.2861 114.1985 123.8945 123.7271 124.6524 124.8681 110.4625 104.3761 118.4456 124.8950 125.2110 124.3015 124.4474 124.1846 125.8470 126.3043 125.9705 128.7769 125.5339 123.9899 129.8227 115.4165 109.8037 125.0722 124.7880 125.3062 125.3415 125.4444 125.5461 125.6454 125.7606 125.8655 125.9916 126.4384 126.4863 121.8561 122.4769 126.5227 126.5515 126.8752 126.7775 127.1674 116.3000
125.9600 125.8494 125.7173 125.7211 125.6490 125.8718 125.6120 118.6982 119.9199 116.9230 126.5457 124.5667 124.9166 124.7982 124.7222 124.6887 124.6480 124.6281 123.8988 124.2674 123.2514 117.8777 122.9484 105.8082 109.2361 119.7898 124.5174 114.0051 107.7949 118.8273 124.3726 124.3166 124.4642 124.4709 124.2691 121.2151 125.8550 125.7221 126.5071 127.4882 124.7440 127.2548 127.4861 125.9051 126.1420 125.2687 125.4113 125.5268 125.6189 125.7226 125.8223 125.9263 126.0332 126.1447 126.2669 126.7976 120.5748 126.6169 126.6907 126.8629 126.6026 127.7965 126.3392 115.3900
126.1400 126.0115 125.9041 125.8079 124.1161 123.7258 125.9815 124.2577 114.1407 114.3880 123.2739 125.1657 124.8873 125.0161 125.0999 124.8287 124.8466 124.8764 113.1875 123.8423 124.3388 126.6996 129.5673 112.1047 121.7226 119.9545 122.9373 106.8356 112.1660 115.0533 124.8413 124.7896 124.6641 124.5639 125.0931 123.2712 117.7488 112.2063 114.1344 124.2785 124.9657 118.1610 115.9308 125.9309 125.2201 125.5684 125.6003 125.6938 125.7850 125.8803 125.9820 126.0833 126.1818 126.2869 126.4021 126.5207 126.7726 127.2381 126.6788 126.8976 127.0330 128.7122 116.6964 127.3500
126.3000 126.1660 126.0844 125.9199 125.4544 127.5705 124.2072 126.1475 125.8073 126.1828 125.7477 124.6858 126.4312 124.6715 124.3444 125.3019 125.0108 124.9855 115.7234 125.5198 125.7283 112.7257 113.9593 126.6503 125.2597 125.4188 113.1946 115.3585 113.1557 118.7346 125.0858 124.9056 124.8946 124.6279 127.0518 111.2125 125.9128 111.4936 119.1919 125.7550 126.0990 120.1293 115.0237 125.7905 125.6658 125.6718 125.7843 125.8609 125.9552 126.0512 126.1455 126.2383 126.3373 126.4397 126.5338 126.6495 126.7557 126.6778 127.0630 127.2764 127.1134 126.8722 126.0697 112.0300
126.3300 126.3159 126.2412 126.1242 125.6309 133.7618 124.7767 125.9560 125.7318 125.7646 124.9266 127.2079 117.3035 131.3060 132.1817 125.4994 125.2280 125.1888 126.1924 125.1812 126.7164 107.4855 127.2298 119.2851 125.6025 123.9643 106.4691 110.3013 116.4390 124.9265 125.0624 125.1333 125.0826 124.9106 126.8989 112.3707 125.6985 126.2961 123.7902 125.2483 124.4942 129.1201 126.0945 125.8398 125.8285 125.8662 125.9538 126.0354 126.1234 126.2067 126.3047 126.3948 126.4895 126.5849 126.6782 126.7850 126.8623 127.4622 124.6888 122.4836 127.2311 126.3736 129.1695 112.4400
126.5000 126.4764 126.3945 126.3458 126.2239 126.1786 126.5188 125.8691 125.9062 125.9250 126.0392 110.3031 106.6867 129.2416 126.1923 125.7351 125.2520 125.4008 125.3248 124.5808 128.9365 120.9707 126.6934 105.9617 121.0609 111.8774 105.5142 112.0582 117.2634 123.7569 125.2664 125.2883 125.2976 125.3485 125.2592 126.7028 125.9602 125.6080 123.4957 126.4388 118.5237 127.3932 125.4286 126.0324 125.9952 126.0316 126.1164 126.2065 126.2855 126.3710 126.4611 126.5494 126.6414 126.7339 126.8214 126.9187 127.0190 127.1098 126.9105 127.2444 127.1506 128.7363 131.8631 127.6500
126.6800 126.6327 126.5544 126.4410 126.3739 126.3284 126.1616 126.1631 126.0765 126.0855 126.0121 125.7423 127.7580 126.0420 122.5227 126.1069 125.6960 125.5080 125.1866 126.9435 119.7819 114.3135 113.3830 101.0505 112.4163 116.4176 107.3528 109.7603 112.1110 126.7959 125.4534 125.4659 125.5124 125.5381 125.6017 125.3195 125.6489 126.2657 114.7172 123.7127 123.1188 115.6296 114.2788 126.2561 126.1571 126.2028 126.2864 126.3620 126.4476 126.5270 126.6123 126.6958 126.7922 126.8793 126.9692 127.0650 127.1542 127.2617 127.3363 127.4183 127.4994 127.5966 109.6709 123.5500
126.8300 126.7831 126.6957 126.6304 126.5389 126.4660 126.4047 126.3186 126.2538 126.2568 125.8667 126.0402 125.1621 126.3852 116.9851 125.5955 125.4909 126.5178 125.7845 123.8604 115.8149 111.6284 122.4640 121.6336 108.9533 113.6746 107.0490 108.7070 123.0988 125.6677 125.6602 125.6719 125.7048 125.7412 125.7643 125.7420 126.8372 122.3001 130.3403 128.0875 115.1334 116.7903 127.1762 126.7050 126.3246 126.3808 126.4548 126.5272 126.6104 126.6845 126.7680 126.8547 126.9394 127.0268 127.1100 127.2010 127.2955 127.3811 127.4820 127.5147 127.9147 122.7512 115.3332 121.7900
127.0200 126.9311 126.8540 126.7764 126.7016 126.6292 126.5589 126.4888 126.4192 126.3445 126.3542 125.9625 127.5610 119.3067 123.5246 124.4666 127.8952 119.7139 118.0901 127.6449 109.4312 126.0721 122.6454 113.8142 109.5566 121.5597 116.8675 116.7851 126.7290 125.6365 125.8520 125.8648 125.8973 125.9274 125.9526 125.8218 128.0615 114.3921 118.1096 124.5846 118.1294 125.7681 125.6134 126.2294 126.5192 126.5396 126.6162 126.6886 126.7591 126.8376 126.9158 127.0017 127.0783 127.1634 127.2534 127.3389 127.4286 127.5205 127.5573 127.8666 128.0634 129.9286 123.1652 122.6500
127.1800 127.0846 127.0018 126.9305 126.8601 126.7888 126.7217 126.6520 126.5877 126.5282 126.4928 126.3590 124.9538 102.2950 114.1760 106.3182 119.6185 107.0419 127.7933 125.2653 116.3456 126.1160 122.6980 109.3941 113.2698 119.7444 124.4334 115.9406 116.3667 126.8085 126.0633 126.0532 126.0843 126.1170 126.1211 126.1993 126.0930 127.6746 126.5101 127.9065 116.6826 126.4665 125.8760 126.6821 126.6117 126.7048 126.7750 126.8474 126.9141 126.9941 127.0700 127.1492 127.2270 127.3044 127.3907 127.4742 127.5672 127.6794 127.6532 127.4687 126.9701 128.9416 113.1747 119.9200
127.1800 127.2200 127.1000 127.0100 126.9200 126.9200 126.8300 126.7300 126.6300 126.6700 126.6700 126.5600 126.4400 126.4700 107.4200 126.3700 107.9800 104.2600 126.2800 126.1400 126.1600 126.1700 126.1800 108.1400 108.1400 112.0800 126.0300 117.2300 117.5400 126.4100 126.1700 126.1600 126.1400 126.2800 126.2600 126.2400 126.3700 126.3600 126.4700 126.4500 126.5600 134.7000 126.6400 126.6400 126.7400 126.8400 126.9300 126.9300 127.0200 127.1100 127.2000 127.3100 127.2900 127.3900 127.4700 127.5700 127.6500 127.7500 127.8300 130.8200 116.5000 130.0100 118.2100 118.2100
