119.4800 119.2000 120.6800 118.3400 118.0300 117.3700 117.0300 116.6800 115.9200 115.5200 115.1000 114.9500 96.1800 98.5500 99.1300 113.0800 110.8300 110.2200 110.2200 109.5700 109.7300 108.7300 108.7500 108.6200 109.6900 109.5200 110.2200 111.0300 111.5200 112.1900 112.6900 113.7300 114.2100 114.6900 115.8800 115.9300 116.3100 117.0400 121.2900 117.7100 118.3400 118.6400 120.8900 119.4800 119.7500 115.0700 113.5400 114.0300 121.1900 121.4100 110.0500 114.6200 100.4300 100.6200 100.8100 101.1700 101.3500 110.9800 115.8800 102.1800 113.7800 102.4900 114.7700 106.8500
119.4800 118.7342 123.9963 119.2464 117.8951 117.4417 116.9639 116.4282 115.9183 115.0172 116.7278 105.9087 109.6297 106.6278 108.8553 106.9974 110.4468 110.1424 109.4407 108.8617 108.4189 108.1519 108.1066 108.2985 108.6869 109.2291 109.8693 110.5611 111.0525 111.7280 112.5013 113.5026 109.0233 116.1096 114.0786 108.3615 116.4577 116.2434 119.4940 116.8504 117.0841 115.1409 113.6223 121.0100 115.6864 118.6448 110.2836 114.0895 107.7966 107.1220 103.9670 111.8578 108.3298 100.7837 99.8798 100.3367 110.8163 105.1121 106.1599 107.8476 105.9062 104.9705 111.7862 113.4700
119.4300 118.5696 120.7001 111.8561 117.6984 117.2111 116.7009 116.2672 115.7532 114.8614 113.7875 90.2174 115.4166 114.8031 115.3513 111.6861 110.2316 109.0879 108.3109 107.5507 106.9436 106.5774 106.5118 106.8141 107.3857 108.0648 108.8393 109.7848 110.6117 113.0506 113.3046 114.0425 91.6398 97.9407 116.2141 96.9335 118.7719 119.2843 105.1030 120.5861 113.7064 112.8692 109.6183 119.9663 110.2365 111.5097 100.6058 101.6510 97.8632 104.1914 101.1236 107.2365 104.9922 107.9263 100.9284 101.0014 107.6195 103.5327 102.5741 104.1092 104.8311 106.0121 115.8291 117.3600
119.0700 118.7312 118.8980 111.6382 118.9233 117.3952 116.6775 115.9449 115.2201 114.6634 114.5185 107.5682 111.6174 110.8834 110.5007 110.0223 109.0980 108.1304 107.0643 106.0593 105.1993 104.6491 104.5422 104.9510 104.3259 106.7447 107.7634 108.7329 110.9212 96.5288 113.7288 110.5186 105.5678 105.3755 117.1567 109.6525 107.8547 104.7076 95.5174 111.4672 105.1228 105.7372 111.0816 111.6587 105.2662 98.3096 97.1420 99.1136 100.4556 106.0247 107.9324 104.6855 98.4596 105.1924 100.3391 100.4685 99.1111 110.4634 101.3744 105.9626 106.3173 116.9681 117.6509 117.6400
119.0400 118.6427 114.9246 118.7659 109.2221 116.8561 116.1492 116.2388 116.7277 114.8509 115.3873 100.0914 117.1493 95.9497 112.2342 109.2926 108.3651 107.1093 105.7549 104.3615 103.0738 102.1472 101.9928 102.8605 103.7083 105.2858 106.6613 107.9791 109.2322 104.4960 111.6509 115.0580 114.4340 115.7247 114.3732 113.0463 116.2003 106.8173 114.0418 111.8949 111.7005 111.7573 102.9751 113.2296 107.0955 100.1938 98.1528 101.4215 101.2821 106.3117 109.4006 104.9471 109.7559 104.4803 101.0381 102.2962 109.7916 112.0899 100.7527 102.1020 103.6134 109.1523 117.7431 117.3100
119.0100 118.6409 119.5014 106.8701 103.7346 116.3383 117.4940 116.6617 102.6340 110.1358 113.2449 106.4518 112.5674 91.5513 111.7360 108.8241 107.6055 106.1491 104.4270 102.4972 100.4521 98.8465 98.4728 99.8118 101.8315 103.7999 105.5839 107.1826 108.5335 110.0348 110.8374 112.0709 109.3123 104.3503 115.1407 119.0064 106.5880 118.1329 109.4914 108.5952 96.3907 98.2703 95.3993 108.3680 98.7457 97.3245 102.6978 104.4105 105.8082 105.1496 116.8091 103.0135 100.6546 107.0542 99.8557 104.5450 116.6184 115.1597 100.9911 101.7349 111.3534 115.9392 117.1431 117.2700
118.9900 118.7542 112.4612 112.0171 114.2456 101.4047 106.3935 116.2507 114.0070 96.5938 114.3315 104.5365 100.1057 102.9209 111.9138 108.5976 107.0237 105.3330 103.2312 100.5711 97.2672 93.0407 92.2025 95.7317 99.5438 102.4104 104.6651 106.5005 108.0256 109.3522 110.5768 110.7383 110.7374 103.0071 92.3793 108.3448 111.4879 116.2314 108.2809 114.2917 106.2908 97.9401 97.0324 99.5338 102.6040 104.0256 104.6715 107.7833 108.3292 108.9897 109.5746 109.2950 110.1514 110.6184 111.8693 108.7817 119.8294 100.3402 100.8945 115.4312 115.1595 115.7899 116.4184 116.5400
118.9800 118.6794 118.6227 117.9123 117.3002 116.7164 116.7479 106.1070 103.9173 112.5200 97.4729 97.9983 101.6150 95.7748 93.3053 109.0919 106.5299 104.7808 102.3917 99.0703 93.3640 87.4135 86.5662 90.7479 97.6897 101.3801 104.0475 106.0923 107.7446 109.1418 110.3703 111.1350 112.6036 114.3398 115.5687 96.9893 96.0024 97.8928 108.8015 107.5692 117.7479 103.2702 101.5930 99.4485 102.1899 103.6070 105.3994 108.2792 108.5039 108.9952 108.7636 109.0557 109.9433 108.8609 112.3801 103.2653 104.1672 101.5130 100.7351 114.9984 114.8929 115.6880 116.2518 116.5400
118.9800 118.6628 118.1332 117.6033 117.2816 116.6575 115.9641 116.9329 103.5923 111.7641 113.4855 101.6367 96.2944 93.3323 94.2002 111.2963 106.7314 104.6309 102.1562 98.6314 92.0922 85.2669 84.4998 89.1283 97.0961 101.0889 103.8884 105.9742 107.8172 109.1200 110.3267 111.3370 112.3621 110.3118 112.0176 97.2323 99.7016 100.8567 110.4592 109.0596 115.2197 102.8503 101.1563 99.2514 103.5368 104.0126 104.4481 108.1186 107.9972 107.6862 108.7627 111.0386 108.5158 107.9574 112.1451 100.5375 101.9274 102.2767 109.7767 113.9553 115.1517 116.1171 116.3282 116.5300
118.9800 118.6820 118.2652 117.8051 117.2841 116.7529 115.8382 117.5724 95.1168 115.5566 113.4994 97.1860 97.9485 96.3120 98.1620 114.8341 107.0220 104.9772 102.6177 99.4904 94.6892 88.9916 88.2764 92.2707 98.2833 101.6600 104.2192 106.2038 106.5073 109.1445 110.3837 111.4162 111.8568 109.4320 98.6047 91.3869 107.5940 112.3774 115.9706 114.0646 106.9835 100.0645 99.0360 97.6146 104.6810 106.2433 106.1501 105.7471 108.6724 110.3626 109.4771 112.8204 99.6965 99.6441 99.8666 112.6058 106.4374 108.3436 105.8715 104.3283 114.5543 113.8492 116.5285 116.1000
118.9900 118.7108 118.2616 117.7969 117.3243 116.7496 116.0366 118.7537 97.3245 115.9709 111.2123 96.9574 96.4476 99.0622 102.4507 107.8526 107.1744 105.5580 103.5968 101.1609 98.5586 95.1312 94.5550 97.3082 100.2852 102.8536 104.9733 106.6735 106.7736 108.8786 110.7769 111.3363 112.2572 111.5431 118.4443 92.1686 91.3981 102.1063 109.2479 105.7882 104.3637 100.1241 101.1997 100.8635 102.9078 104.1324 106.1951 108.0765 111.7557 114.5983 113.2600 110.3829 100.9324 104.6859 107.9126 112.8578 108.4222 108.3140 107.2472 107.5394 109.5486 106.3100 112.3153 102.8700
119.0000 118.7928 118.3578 117.8822 117.4021 116.8449 116.3507 117.7672 102.7956 110.6632 106.1707 99.7057 96.7956 116.8177 112.2076 110.9976 107.7534 106.4440 104.8955 102.9409 101.3243 100.1007 99.8097 100.8500 102.5355 104.3000 105.9427 107.3982 109.2146 109.7079 109.6791 111.9438 113.3449 117.3851 94.5759 95.9528 95.7241 105.5432 120.3387 101.8139 100.6237 100.4637 103.1245 106.0911 106.3197 107.2150 108.7890 109.7402 113.4696 109.0808 109.6751 106.5203 102.3006 102.8783 106.3612 107.4948 107.9161 107.5948 106.1714 106.1202 105.0695 106.4593 112.3012 102.8700
119.0200 118.7790 118.3643 117.9783 117.4981 116.9641 116.5332 116.6363 109.0609 101.4963 117.2860 99.5602 97.4001 102.2649 100.9704 110.3998 108.1425 107.4295 105.6564 104.1866 104.1194 103.0515 102.9538 103.5026 104.5578 105.7656 107.0438 108.1381 108.3632 111.8308 121.3733 113.5967 119.5516 112.8824 96.0371 95.6451 95.3030 98.9276 104.8731 108.7800 98.2169 103.1370 105.6984 105.1935 107.0696 107.7983 107.4952 113.7464 111.2977 108.3375 109.3799 97.3981 98.6723 111.3873 99.1366 101.9554 105.5689 113.7627 115.3872 115.5549 116.3647 116.9902 112.0617 102.8900
119.3600 119.4737 118.5868 118.0988 117.6164 117.1288 116.6688 116.0647 117.4403 105.7427 116.2902 96.2462 93.1216 97.8076 96.7641 110.7126 109.2554 108.3116 105.9513 102.5103 105.4252 105.1491 105.1074 105.6101 106.2835 107.2087 107.9863 110.0734 111.9376 117.9894 100.9172 112.5606 121.8809 109.6368 102.7790 100.7163 102.8246 109.4047 106.6737 104.9111 102.4413 103.4623 106.7918 102.6069 108.8281 110.8777 111.5179 113.3623 109.6877 108.4564 109.7782 106.2771 100.8395 104.3013 105.0465 116.9787 103.8704 110.2010 123.3197 123.1293 123.5155 125.9311 112.1601 110.0500
119.4000 112.6045 119.3157 118.1990 117.7590 117.2926 116.8063 116.2914 115.6908 111.4562 100.3323 108.8722 108.0539 111.0594 109.1208 111.5226 110.1923 109.7953 105.0517 104.8935 109.4592 107.4897 106.9571 107.3264 107.7998 108.3300 109.7770 106.9266 100.1502 120.5473 96.5137 113.1283 103.3099 99.8386 101.9899 101.9771 103.2439 112.1673 112.7527 108.4019 106.5094 106.0533 105.2696 105.5698 106.6714 107.9886 109.1868 111.9576 114.8201 116.2362 119.2282 117.0566 112.9264 106.8477 106.7790 104.8832 101.1217 111.6855 122.8301 121.8128 122.1913 125.8496 112.5267 115.4000
119.4400 117.3384 118.7728 118.3710 117.9317 117.4842 117.0143 116.5612 115.9603 115.4570 110.9449 115.3090 114.4171 113.3198 112.5621 112.2018 109.9825 98.2877 103.4109 104.5714 98.7457 105.9272 108.1979 108.9318 109.1026 109.4496 108.9915 108.8775 125.3712 104.4251 106.2485 108.0469 102.9974 114.2606 98.1992 116.4661 102.1709 116.1321 102.6119 108.2290 98.8733 99.9916 102.9521 105.1815 105.9986 106.7055 107.7750 108.4368 109.9603 111.1539 109.8321 116.6121 115.6550 121.7697 115.5090 115.7546 110.4235 112.7582 118.4462 122.7475 124.2376 117.1448 103.4537 102.9200
119.4900 119.4604 118.9178 118.5259 118.1182 117.6839 117.2320 116.7635 116.2628 115.7853 115.6088 114.6421 114.0986 113.5244 113.0006 112.4913 102.6645 93.0378 94.5007 100.3255 102.7748 110.2906 110.1334 108.7554 110.8137 110.5053 110.4194 109.0833 107.4611 90.9847 101.0196 100.8238 102.2743 96.0982 99.6586 99.3799 103.6427 114.4666 96.0182 98.0130 108.1087 109.3513 108.0452 113.0295 110.2072 112.3183 107.3277 108.3938 109.9801 102.4168 100.3096 100.8760 100.8571 105.8761 101.5781 102.7049 99.3395 123.2649 123.1882 122.0649 123.8830 111.2919 112.0139 102.9300
119.8100 119.4595 119.1013 118.7074 118.3091 117.9071 117.4794 116.9854 116.6016 116.1192 115.6246 115.1549 114.6406 114.1005 113.7024 113.0885 116.2046 113.6843 96.6382 97.3333 99.3264 111.3140 111.5897 105.8461 111.2214 111.1900 109.0787 103.1181 93.8000 106.3607 115.9175 103.8270 103.8620 99.0786 97.8104 109.5738 110.6850 108.4227 97.0477 96.8993 100.4635 107.5831 105.9874 105.2393 111.6073 112.1952 112.5851 114.1675 110.5444 108.4365 99.3631 100.5446 101.9454 102.2273 118.3851 99.2173 101.5242 107.1083 106.5129 124.4557 123.2688 124.4134 127.0019 126.1700
119.8600 119.6303 119.2758 118.9132 118.5387 118.1106 117.8954 116.1943 116.9684 116.4189 116.0291 115.5697 115.1463 114.6882 113.8880 113.3379 114.2909 110.1178 98.3238 109.4447 109.3460 112.0815 112.0422 112.5390 112.7310 113.2611 114.8246 111.9804 98.2098 114.3201 106.3976 102.9074 104.2211 103.0477 105.3023 100.5215 98.3872 99.3893 97.4798 97.4033 100.2664 101.7640 103.8437 102.9132 109.3556 109.3795 109.5550 110.0075 114.1906 114.0268 98.1462 100.0227 100.3696 100.8227 101.0467 100.9352 103.1861 104.6934 112.7721 109.4392 109.4686 110.4380 118.8889 125.3300
119.9200 119.8016 119.4676 119.1047 118.7155 118.3733 117.9686 117.4641 116.2539 116.8119 116.3940 116.2848 112.3364 121.1730 113.5551 115.7536 115.8121 99.9982 106.8658 113.8937 113.1397 112.9033 112.8730 112.8559 111.8140 106.2317 97.2083 111.3339 106.1678 111.6342 103.2256 101.9481 102.6053 105.9346 106.8351 105.5016 102.4293 97.7243 98.5776 100.7696 101.9289 104.1060 104.8100 104.1901 106.8907 99.5395 109.3538 111.0843 102.6552 111.8618 103.6733 104.3103 100.0879 101.1118 101.5463 101.5712 109.7384 101.5612 111.9896 108.9891 113.7880 104.8720 108.4904 109.8100
120.2300 119.9867 119.6614 119.3272 118.9609 121.8453 118.7908 117.1614 117.8461 117.3044 116.5904 117.7614 104.6487 115.8114 95.7642 109.9210 115.6998 102.6064 109.8864 113.7301 113.8066 113.6861 113.6875 113.7377 113.5386 117.3849 108.3299 103.2755 101.7465 102.4979 100.1558 101.6000 101.5124 102.4059 107.7302 109.3826 113.4083 102.0803 97.1084 101.8149 102.9454 101.9119 106.9941 108.1534 110.2279 104.3927 110.0339 108.6482 120.1778 100.0418 110.8650 119.3032 104.9586 101.1900 101.4611 105.8978 122.4718 108.2427 119.2648 111.6344 110.4799 104.9432 110.1221 113.7300
120.3000 120.1792 119.8675 119.5738 118.8398 109.1805 118.6350 117.8724 117.9003 117.4421 117.2234 116.6486 116.8323 109.2925 99.5919 113.5575 112.4890 99.7496 107.8563 114.6811 114.5589 114.4158 114.3608 114.4614 114.9438 109.2159 99.3094 94.8842 102.9641 101.6165 99.8076 106.2447 101.8347 106.4677 106.2708 108.6503 103.9491 111.5669 95.1313 105.9092 103.8079 106.0570 107.1751 105.3871 107.2236 104.1386 107.1525 107.9761 114.8135 99.3149 103.6978 119.3003 115.3301 100.3572 100.8452 117.2744 124.9874 124.9338 125.6317 114.9936 118.8773 114.2489 115.8855 115.9700
120.6900 120.3811 120.0775 119.8048 119.7091 119.8157 119.9462 118.5178 118.1827 117.9052 117.5432 117.0619 116.9660 107.2450 112.3632 112.9267 101.4062 101.0210 114.6872 115.2811 115.2116 115.1370 115.1930 115.4433 116.5591 100.5648 91.6004 104.7558 94.3870 106.1763 105.6507 95.6860 104.2252 104.5600 107.8049 110.9813 99.4625 106.1123 101.8020 111.0488 105.1755 99.8225 103.8355 105.3604 108.4188 106.3206 105.4221 110.3239 107.1371 109.8829 106.3259 112.6231 104.5231 101.5184 99.9236 107.5059 112.7650 104.1364 126.2011 125.9461 126.5284 126.0357 122.2067 120.2300
120.6900 120.5824 120.2971 120.0255 119.4768 119.1273 118.4266 118.8770 118.5196 118.2220 117.9817 117.5928 119.6996 115.8900 115.1117 116.2617 113.2954 116.6317 115.8307 115.8874 115.7282 115.6146 115.3654 115.4520 115.7502 103.8855 98.7560 101.0824 95.7275 104.1300 105.4550 106.7743 103.7129 106.1905 108.8373 109.4463 107.4075 105.1692 102.3860 110.2004 112.3625 107.8146 98.8971 102.9008 107.4049 105.7577 105.8134 111.1701 107.1235 114.6798 112.7413 111.9766 107.7079 109.8103 101.6393 116.3983 115.7065 98.1729 127.7139 126.7607 127.9165 127.0124 127.8801 126.3400
121.0400 120.7852 120.5215 120.2218 119.9878 119.7029 119.4028 119.1370 118.7142 118.4295 117.9599 117.9850 117.5905 117.6367 117.2192 117.3567 115.4933 116.6018 117.0606 116.4164 116.7341 115.9618 118.0279 114.5701 120.4846 101.3494 99.5406 95.6792 100.1561 101.1330 108.5733 108.4296 105.4312 107.9739 108.4055 108.5609 108.5401 109.8147 110.2541 110.1471 109.2357 112.9549 109.8466 106.6232 103.4539 107.9056 103.1437 114.3880 110.2436 110.1083 121.3451 110.4834 114.8028 115.1513 113.0879 120.9348 122.2813 134.9621 129.4729 127.9207 127.9310 128.1008 128.9334 128.7600
121.0500 120.9935 120.7177 120.6702 120.4023 119.9173 119.6713 119.3949 119.6658 119.2649 119.5891 119.6506 117.9132 117.9408 117.3210 116.9396 100.9093 106.0191 116.8496 117.0546 113.9477 100.9292 99.5573 102.4153 104.7421 106.0792 97.3775 107.3301 101.9356 112.7966 104.0961 110.8269 109.6138 105.5190 107.0078 96.8161 109.5474 108.9867 111.1889 112.3077 109.8394 111.3120 113.1322 112.4321 103.3469 108.9623 102.7632 106.2963 115.1942 109.1036 122.1884 114.2194 123.7447 116.5194 118.8530 117.4472 119.0471 120.7571 118.8265 127.1787 127.1006 128.7088 129.8780 129.9400
121.4000 121.2129 120.9695 120.3728 117.3961 120.5822 119.8065 121.5942 115.0185 107.6133 116.0717 119.5282 118.5054 118.3306 119.8121 115.6025 102.2344 119.2779 117.2163 117.4782 117.8338 96.9504 95.9031 116.4148 99.3633 114.1900 96.1803 114.6854 118.9072 120.9793 114.4554 107.2095 109.3023 107.9727 110.8982 110.2499 108.8090 109.8044 112.1532 111.1376 113.6574 109.8473 112.8166 113.4479 114.0590 106.4697 105.4039 101.6581 109.9947 114.7746 123.7628 101.6440 113.7067 124.2882 115.3333 117.4660 119.2516 119.3896 114.6454 117.2417 119.3203 124.9415 128.9335 129.2500
121.4700 121.4273 121.1327 121.2157 120.3772 120.6288 119.9436 123.9151 102.7769 118.2589 117.6573 119.1943 118.9379 118.5916 118.8582 118.6562 119.2424 117.7537 118.2443 117.9023 119.8648 102.7108 98.4796 112.3658 96.2433 116.0896 117.7611 116.0171 118.4639 107.7925 113.5583 109.6394 109.9405 110.6208 107.1876 108.9081 106.7505 109.4974 110.3142 110.4635 111.5130 112.3753 113.5563 113.7997 114.2628 114.9546 114.5489 109.7104 111.5185 105.3159 107.1799 108.2899 114.3707 110.2599 115.0143 124.0970 119.6253 118.3584 128.1400 115.1368 118.0993 120.0879 125.5825 130.0300
121.7500 121.6390 121.4229 121.2070 120.9514 120.7659 120.5034 120.3503 118.0784 120.7669 119.2953 119.4966 119.2966 119.1829 118.8794 118.7383 118.4985 118.6887 117.0838 119.1932 120.5332 103.9269 103.4880 98.6678 100.6686 98.0902 100.7499 119.9979 118.3874 111.7944 107.8491 108.9979 110.3955 111.2176 110.3050 111.9484 112.2274 110.8624 109.4465 111.6229 112.2827 107.6129 114.1982 115.2325 115.2727 115.5728 114.3498 116.1791 113.3187 107.2947 99.8904 114.5780 116.7000 116.1742 115.4686 111.6122 124.4242 119.1979 127.9390 127.3996 129.6724 119.2434 118.9008 120.5400
122.0100 121.8507 121.6409 121.4282 121.2223 121.0041 120.8283 120.4718 121.3293 120.8094 119.9489 119.9028 119.6989 119.4630 119.3821 119.2904 118.8536 119.1873 121.0560 108.9599 122.1438 100.2482 103.7020 116.0270 102.1347 102.3400 120.4838 119.7098 119.2289 120.2351 119.2605 114.2927 110.8322 111.7216 111.4156 113.3298 112.9891 111.6545 103.8227 112.5366 112.6626 112.4726 113.8870 114.8156 114.5864 111.6511 113.5118 97.0977 113.3135 116.3640 115.8656 107.5425 111.0487 115.1131 118.9491 116.4729 117.6290 124.3985 127.5453 121.3295 130.2190 130.7032 120.9215 121.4900
122.0900 122.0660 121.8611 121.6743 121.4772 121.2795 121.0334 120.9597 119.7579 128.7799 119.8929 120.6170 119.7944 119.8829 119.7357 119.6222 119.4475 116.8708 98.3766 100.5815 111.7853 104.0050 101.5315 98.0463 113.9460 105.5826 101.8365 118.2296 119.4699 120.1389 119.7231 121.2647 111.8884 111.7453 113.1675 113.3356 112.5969 112.8010 114.6473 112.1991 112.4717 113.2364 114.0100 109.9431 104.4859 97.0392 113.5161 105.6630 98.8667 107.8805 113.7411 117.9271 108.4898 107.2370 116.3423 121.6882 117.2536 119.8030 121.5944 121.3397 130.0402 130.1613 124.2189 130.8200
122.3600 122.2845 122.0909 121.8870 121.6614 121.4329 121.3504 121.3380 115.9276 132.5064 121.7604 125.3153 118.1619 121.3156 119.9665 120.0049 119.8100 120.8495 109.6118 95.4017 105.9887 102.8854 102.5914 97.6007 112.6455 105.8493 122.9454 108.5061 107.0466 116.1847 120.2023 119.9395 121.4025 111.3943 109.1274 101.6245 113.4917 113.0920 113.2142 113.2080 113.3359 115.1053 115.0188 117.4875 100.4864 109.5693 109.4764 103.6208 102.4862 101.6004 102.6981 112.3543 121.5064 119.5425 112.6175 121.0493 122.3132 121.2362 119.9912 114.6070 131.6519 117.5655 127.0659 131.1200
122.6800 122.4896 122.2669 122.2919 122.4421 121.8989 121.6372 121.7375 117.9775 125.9154 109.5437 110.8219 108.3603 120.4704 120.3501 120.2552 119.9576 120.5527 119.8504 118.6170 95.7338 102.8908 103.3037 98.0754 110.1855 109.0885 120.0121 107.1060 116.4571 115.5902 118.2727 131.4093 104.0016 104.4990 98.3692 101.3653 114.1321 114.3440 114.0952 114.2750 107.1616 115.4537 109.8601 106.5549 98.8334 102.0375 116.5356 100.9145 101.8035 101.8948 103.9332 103.2560 110.9166 123.4462 118.2647 119.4252 120.0225 119.4363 123.7381 120.8385 108.2110 105.6877 127.2624 131.4400
122.9300 122.5706 122.5234 123.0126 120.1145 120.6786 121.8218 123.3915 120.2735 107.0586 99.7781 111.4358 121.2145 121.6025 120.1977 120.7092 122.5280 113.4698 108.3748 101.2258 101.7273 106.1496 104.8718 104.4421 100.0650 106.7578 106.7239 119.9144 121.5634 113.0951 104.5210 101.5696 103.5403 101.4241 102.8031 112.1066 115.5739 114.4439 114.5943 115.7112 114.9877 111.4555 114.2869 112.2607 117.7606 116.8868 103.4273 108.5316 101.1070 100.9193 116.4838 101.4311 101.2478 108.2731 119.5829 120.1533 118.6962 119.8313 121.9214 122.9495 125.6912 110.1190 118.1831 131.4400
122.9300 122.8936 123.1483 123.5780 114.7869 122.8195 122.1993 122.5020 111.1949 108.1963 107.8923 122.0798 121.1595 121.2829 120.5743 115.8592 109.8078 104.1929 111.1065 99.3243 102.2414 105.3614 105.7165 104.5489 105.2661 107.2017 107.8189 122.0223 120.7190 123.4308 104.8478 98.4301 103.5430 109.1499 113.0081 108.2512 114.9840 115.1429 114.1776 113.9488 113.4619 94.7996 99.3745 110.5604 119.9788 106.3537 114.3936 104.3317 101.8996 101.5325 114.9398 112.6042 118.1749 99.9416 118.1953 117.9226 119.7921 120.9014 121.6058 121.3826 122.1319 118.1117 124.6255 122.0700
123.2000 123.3231 119.3280 119.7572 123.8314 122.5061 122.0476 122.4983 122.0693 121.4587 123.8231 121.7001 121.4871 121.5628 121.2433 117.4253 100.3515 115.8889 106.0214 121.3842 98.3460 105.2962 105.6734 104.4417 122.8275 111.0192 108.8861 122.3281 121.1369 119.5023 120.8958 107.6318 107.2254 108.4761 101.9136 108.6242 116.7799 116.4195 116.7944 115.9119 123.4805 102.4614 103.0270 117.4881 113.3267 105.7683 112.2942 100.9604 102.3035 102.0144 101.7100 111.1161 124.9098 116.5642 117.5999 104.9782 123.9191 120.6269 122.5098 122.7464 122.7969 123.4091 125.9167 126.4800
123.4600 122.4051 123.9541 128.4487 122.3082 122.7140 122.6536 122.4540 122.4039 122.1662 121.7334 121.9986 121.9157 121.8136 121.6332 122.5206 120.7480 121.2999 113.3605 106.5995 123.7349 113.6053 114.0993 106.9005 122.7024 111.9509 108.1596 118.3972 120.9911 121.8345 114.4775 124.3197 125.0485 118.0834 121.2578 117.8736 116.4635 116.9225 116.8168 115.4821 116.0161 115.9463 101.7829 113.1632 111.5281 115.0058 100.1944 101.7761 102.2567 102.2776 100.5677 101.2739 107.6509 121.9618 124.7723 120.4472 123.5505 123.9562 122.6646 122.2614 121.0815 123.4470 124.1002 123.2300
123.6800 104.9467 107.8604 121.8560 123.4020 122.9122 122.8691 123.0895 122.4742 122.4779 122.4150 122.2623 122.1569 122.0785 121.9593 121.6831 121.5907 120.1155 115.0676 111.2530 122.4661 115.0070 114.6129 109.4349 108.7353 108.9795 112.2460 113.3961 118.4837 115.9624 103.9642 121.8597 121.4302 122.7187 114.6010 113.8800 117.9565 117.8582 118.1879 118.6946 117.6093 119.2181 122.5667 111.8742 118.4052 118.8792 102.4556 114.7464 116.2359 117.8280 114.3041 105.7013 102.6255 102.7824 117.7037 122.7690 123.9519 124.3413 124.5255 124.5832 123.7923 121.1639 124.9852 124.5300
123.7100 122.6719 124.5628 123.2382 123.4532 123.2252 122.7973 122.0462 123.9510 122.5396 122.6325 122.5307 122.4336 122.3608 122.2809 122.2848 122.0870 122.4848 123.3255 122.5929 108.6853 114.5449 114.2700 115.1170 110.9152 112.3770 109.7063 131.6396 119.0053 108.5450 124.4305 123.3377 122.5157 122.5686 113.9885 112.8271 117.9024 118.4178 118.2918 119.1752 117.6642 119.6875 118.7960 108.9911 97.8459 102.6072 102.3777 100.5271 113.7944 115.7606 118.4894 122.2758 119.7721 118.8310 121.6828 120.7396 124.2561 124.4984 125.0042 125.3927 125.3813 124.5656 123.8242 122.7100
123.9700 123.8598 124.0425 123.4281 123.6526 123.3223 124.8042 109.7974 122.8344 122.6236 122.8877 122.7755 122.7305 122.4841 122.5469 122.5053 122.4397 122.3071 121.7392 122.3161 111.9343 115.3052 115.5223 112.8829 106.7439 115.5382 110.7534 117.9326 125.5305 118.4732 122.3551 122.6848 122.6714 119.1348 110.4749 116.1029 119.2501 119.6297 111.5286 118.0873 118.7614 115.0997 107.4004 110.7349 106.5697 105.1590 102.3253 102.3679 106.8128 120.0681 118.1549 116.6870 123.3192 122.1776 119.4723 119.1258 122.9851 124.6920 125.0423 125.2881 125.6521 126.3273 125.6221 124.1400
124.1900 124.2260 123.8865 123.7323 123.2028 128.3748 122.1963 112.4885 123.0430 122.6919 123.1415 123.0657 122.8225 123.9023 122.8636 122.7453 122.6877 122.6667 122.7311 122.5020 117.6069 116.8681 116.7145 116.5267 126.1920 115.3714 111.2330 116.9408 122.5218 122.9038 122.8361 120.9451 121.8692 122.5968 123.6118 116.1788 124.1282 114.5064 108.0822 113.2929 122.1185 117.0994 117.7099 99.9839 118.8053 100.1945 103.4091 103.3324 101.5600 115.7220 110.4480 111.3967 117.3533 125.2419 120.4728 118.4252 122.6805 124.3032 124.5929 126.5280 125.9781 126.3402 126.7755 126.9600
124.3900 124.3095 124.3013 125.4691 120.8523 106.1689 127.6420 120.7732 124.0098 123.4425 123.4968 123.1659 123.5522 114.5683 123.1241 123.0079 122.9690 122.9252 123.0668 124.5770 121.2159 116.6471 117.0248 116.3696 123.7122 114.5805 111.9929 110.8941 122.9476 122.8838 122.7801 123.3266 123.5071 116.7817 106.0101 123.8465 123.2304 119.7153 121.9500 124.4315 121.4396 102.6694 113.8244 100.7424 109.5392 114.1917 103.6120 104.1974 104.5049 109.7911 101.4748 106.2176 113.9324 120.3307 124.3770 118.3049 121.2422 123.0792 120.4688 124.1094 126.6412 127.2671 126.6382 127.1900
124.6500 124.5190 124.1688 122.5145 113.2456 120.9009 124.0162 120.1070 123.8644 124.2491 122.7336 124.6052 105.1581 123.4670 123.1386 123.2654 123.2344 123.1030 124.5360 109.4216 124.7924 116.7091 117.6404 118.1688 124.2711 114.1611 124.2487 117.1787 123.5365 119.5867 123.2337 123.2531 123.4024 124.9628 123.0034 124.7582 124.4124 121.7406 121.7998 117.4200 113.1331 104.0448 102.0920 102.0058 107.4273 117.7943 104.8843 107.1405 100.6469 103.4932 103.3052 108.3813 118.8175 125.0775 125.1585 127.5846 124.6307 119.7699 119.8939 118.9249 127.7541 117.7218 131.8489 128.0500
124.6600 124.7450 124.4743 127.0297 116.3409 125.5121 124.3410 124.4354 123.8053 124.0186 116.9482 125.4673 102.9413 124.8572 123.3745 123.5045 123.2024 123.0891 125.6554 104.6202 108.8513 117.4553 117.7934 110.4897 124.0764 122.9663 124.0074 116.8287 123.4845 124.0104 115.8323 125.1750 124.4073 124.1283 109.6669 122.1060 121.2196 125.4867 122.1583 112.9431 105.8652 110.8939 102.8346 103.0093 101.4281 113.7637 137.3641 114.2992 119.2273 105.7464 104.8897 104.3677 123.2185 126.1719 125.3673 126.8322 127.7609 117.1359 117.9779 119.5581 125.4630 112.4830 115.8332 127.9100
124.9200 124.8922 124.8099 124.4528 125.4213 124.2559 124.3566 124.3076 124.1865 124.4430 124.4000 125.1037 124.3660 124.0909 123.7048 123.6413 125.9385 123.4151 101.7586 120.2003 117.3802 120.5437 122.4954 116.7437 126.0199 123.9012 122.8670 117.9549 124.6016 123.3184 106.8712 126.7253 118.6172 126.3005 105.6874 114.1453 112.9943 114.2635 119.3994 120.9943 102.4795 102.2542 102.7488 100.4650 110.1403 117.0055 119.2424 122.9814 124.9607 103.7613 104.8275 106.0490 107.5684 123.9148 125.1528 125.6479 126.7069 126.7602 124.8906 124.7338 108.8843 105.8917 117.0263 105.3700
125.2800 125.0658 124.9862 124.8860 124.8053 124.6843 124.6197 124.4797 124.4811 124.3957 124.9528 123.9078 123.5521 124.0627 124.0392 124.2247 125.5165 118.2376 117.3693 124.4118 123.3414 106.2621 103.6102 103.9527 102.9393 119.3423 111.6035 113.4738 117.5795 116.5718 101.2845 112.1493 121.0264 125.4871 113.9743 101.7620 102.2994 100.5398 103.2741 102.5653 102.5196 103.1829 103.1149 110.7000 125.1191 119.5675 122.0849 127.6545 122.9847 112.2860 101.7255 106.8307 111.5582 127.4070 125.4831 125.9828 127.3880 128.1351 126.9901 125.9339 124.7351 106.3117 129.5114 105.5100
125.2800 125.2624 125.1614 125.0660 124.9703 124.8864 124.8042 124.7181 124.5841 125.7725 121.2469 109.8156 124.8441 124.4262 124.5259 124.8887 110.4185 117.9188 107.6078 124.0685 119.6692 116.7071 119.8639 102.2375 123.8592 117.6922 117.4875 115.5579 115.4579 119.4902 105.1724 108.9515 114.9387 108.8675 117.7236 101.1474 109.2446 101.6541 104.9590 104.0289 101.7077 102.5223 103.6235 97.6582 107.5329 124.4860 101.5506 104.8115 113.3877 119.2360 109.2486 107.8311 126.0657 124.7278 117.7273 124.3685 127.1208 127.0775 130.2302 120.8264 128.5232 119.5464 131.1956 129.1300
125.4800 125.4413 125.3478 125.2571 125.1596 125.0844 124.9884 124.9803 124.7495 123.6193 108.2186 112.4038 124.4104 124.9983 122.1602 121.9066 111.0690 113.5924 110.9341 124.1754 119.0355 120.7149 122.4839 104.8609 117.6380 124.9663 125.4538 125.9467 124.5305 116.4264 104.8920 105.7789 104.3387 108.5120 109.5057 102.2253 111.4848 110.5500 101.2873 103.3784 115.9666 105.0733 103.3154 104.3260 101.7797 107.8750 118.5241 116.1434 122.5756 103.2434 121.1896 124.6863 123.7897 126.0570 118.8899 126.7114 127.1075 127.4657 128.2342 128.9242 130.1093 127.4989 128.3369 124.1900
125.6700 125.6155 125.5292 125.4302 125.3898 125.2499 125.2821 125.1307 125.3116 118.5323 118.5064 107.4219 122.4237 110.3327 108.9428 103.6213 104.4849 110.5502 111.0343 125.0342 120.2476 114.9277 116.8894 123.6463 116.3586 125.4812 124.4813 124.5834 124.8025 117.1398 107.2528 111.8523 105.2659 105.0407 104.0841 102.5875 118.1818 128.1239 116.4916 105.8862 116.2332 112.7636 104.9969 104.2936 102.5632 120.6074 127.1391 112.0043 122.6937 106.5154 107.6961 116.4806 114.9409 118.4195 126.4436 127.4450 127.8855 128.2415 128.1011 129.9311 129.5742 128.5114 123.5110 120.6900
125.8500 125.7878 125.6950 125.7542 125.3887 125.5482 124.8103 124.9641 125.6282 115.9810 103.8827 109.7680 105.3057 103.7826 119.8696 105.6423 108.1268 115.2571 115.8193 119.1459 117.8247 115.2193 116.2244 122.3006 115.8477 125.8076 124.8641 124.1800 125.2449 124.3736 111.1474 117.3998 103.0247 103.2410 103.2492 105.8504 121.5559 124.7027 125.6674 122.9585 117.6674 132.1674 106.8803 105.1101 111.3804 126.5072 125.6242 120.7327 105.9671 103.1917 105.6560 112.2135 126.8447 121.7619 118.8697 129.5529 128.4895 129.0794 128.4194 128.9725 126.8825 130.0221 127.5980 120.4400
126.0500 125.9607 125.8666 125.7797 127.6650 124.1845 129.3010 125.1123 125.6522 100.6373 111.2261 107.3439 110.5307 127.1290 112.2873 112.3930 107.8823 104.0869 123.8523 109.3134 118.7372 115.9075 116.4967 117.2434 117.3910 125.7519 125.0706 124.5873 128.8248 125.7096 105.3606 106.0415 112.2997 103.2598 104.3301 108.7154 127.3246 125.1411 130.9564 125.4230 128.8191 102.4773 113.5823 104.3522 102.9867 118.6907 126.3691 128.7355 123.2292 124.9114 129.3777 128.0308 127.3243 128.6051 125.5592 128.5893 128.7108 129.1126 129.3118 129.8218 128.5421 129.6118 132.6229 131.8300
126.2300 126.1315 126.0449 126.0003 125.8641 107.7530 109.3137 113.6025 115.2746 101.8390 107.3203 101.7864 108.3651 117.2149 114.8946 111.9968 108.0208 117.7472 120.8481 128.4809 113.6905 113.4577 111.5512 112.1440 113.5685 126.6317 126.2678 115.1343 110.9588 111.1340 103.8729 105.4060 112.7471 125.0664 106.5353 109.4204 126.3089 126.0293 125.5099 125.8904 127.3226 111.7021 103.9352 105.5350 103.0638 119.6306 126.4479 127.1898 127.1609 126.4957 127.2176 127.4926 127.7309 128.4170 126.5069 122.9605 126.1665 130.0282 129.8604 130.1419 130.2957 129.0078 128.3888 132.2100
126.4100 126.2907 126.2071 126.1563 126.4721 129.4874 102.7015 105.5732 111.6369 113.6739 116.5668 103.6911 122.3305 114.2667 113.3281 115.0369 112.5343 120.8567 116.0937 116.4219 110.6113 106.9560 108.8415 102.7206 107.4347 119.1333 123.4369 109.6495 110.9518 108.4626 112.5850 112.1203 110.4752 110.8052 110.4920 115.9282 130.5806 123.9176 125.9142 127.1447 127.4184 111.5032 104.4140 102.1813 109.9397 117.7903 126.4240 126.4473 127.7955 127.2623 127.5648 127.8593 128.1538 128.5581 128.8491 126.8022 116.6931 129.1837 129.8046 130.4540 130.6295 131.2699 132.6919 131.6700
126.5800 126.4583 126.3727 126.3923 126.0424 127.4115 121.7298 127.3517 126.9730 110.9121 118.5339 107.5989 121.3984 124.5925 113.2383 115.7674 125.3347 122.0967 114.6620 114.2507 107.9460 109.4341 107.9624 115.6585 111.1818 121.0064 123.3059 103.4611 119.8795 103.7826 113.6105 113.5533 109.4998 118.7136 126.2706 104.9621 115.7875 116.8465 104.8476 121.2535 118.7204 110.5483 103.7049 105.1353 121.2463 106.5765 127.7756 127.4390 128.0378 127.6481 128.0068 127.8247 128.5234 128.7308 129.3772 127.9489 107.0698 127.5324 130.8021 130.6471 131.0291 131.0652 130.0915 106.3400
126.7400 126.6167 126.5575 126.4621 126.3808 126.2876 126.7371 126.6311 121.9862 119.5163 119.3294 108.8991 122.8417 124.1604 116.3463 112.4778 122.7144 122.6877 110.5734 118.8343 105.8511 104.9513 103.4843 108.7659 102.9197 104.1687 112.2854 108.5376 109.1769 107.6291 114.6711 113.9733 113.8428 127.7038 118.1523 109.0744 110.1759 116.9356 114.4210 128.6316 112.8863 109.6511 103.6371 116.0719 105.1000 121.4573 128.1994 127.6482 129.1700 128.7277 128.2858 128.5119 128.7810 129.0699 129.3100 129.8261 133.9692 125.8606 126.6059 131.6136 131.3618 131.5098 128.3016 131.8700
126.7500 126.7779 126.7180 126.6055 126.6157 126.5130 126.5569 127.3501 115.0484 115.5967 110.8999 116.4099 122.4254 120.2001 115.8897 114.6086 122.0716 124.5286 112.9864 105.4802 111.4592 104.5649 102.5087 104.7966 105.6319 111.8187 113.0345 105.8516 112.2701 109.6549 124.9870 114.1363 111.6383 118.0203 117.9459 116.6809 107.3165 105.6359 101.4786 124.2256 109.4960 105.9631 104.3090 127.3082 125.4272 127.1545 129.2099 128.3682 129.2035 129.7144 128.5933 128.9181 129.2259 129.4106 129.7636 129.9070 131.1591 130.7845 126.5876 129.8598 131.5980 131.3467 134.6245 131.9300
126.9200 126.9404 126.8632 126.8503 126.5489 126.8673 125.3756 127.8313 116.4673 127.7203 123.4581 117.1747 121.0173 123.1678 116.1314 116.3052 116.5566 125.9093 109.7736 103.9490 121.1061 118.7819 109.2580 119.8692 121.2635 121.1775 103.5259 115.2576 115.5839 113.9864 114.3833 114.3095 114.9586 112.3177 119.1715 103.5161 109.7517 104.2570 106.1890 126.5128 121.1871 107.1763 120.5570 120.8331 127.2628 128.7053 113.7982 129.0077 128.3828 130.4372 129.5584 129.1210 129.4267 128.8444 129.9937 129.8324 130.8891 138.0929 135.3050 127.7889 132.5968 132.5339 128.5189 106.6400
127.0800 127.0901 127.0211 126.9521 127.0465 133.3774 128.5931 127.1178 122.0585 122.7686 120.4637 120.0484 111.3639 119.6038 119.0556 118.4060 120.7932 125.4167 115.1594 104.2876 122.9352 107.2218 104.2209 109.0666 102.9128 117.9012 103.5071 108.5909 113.1144 115.3200 103.1962 124.3017 117.0581 115.0777 112.4297 109.2768 109.3178 106.9352 116.7970 128.4793 117.4249 123.3331 125.4016 128.6208 126.8837 127.8543 122.0142 130.6542 129.4831 129.8246 131.2650 129.1919 129.8153 129.9482 130.3268 130.5142 131.1419 136.7178 141.0769 127.7215 129.9412 131.4477 130.9796 106.7600
127.2400 127.2430 127.1785 127.1385 126.9977 112.0930 126.2895 119.9277 122.2134 110.0843 113.3072 116.4577 116.0727 116.1631 118.6459 125.8513 116.4090 128.5893 108.6770 104.2201 108.8914 105.3068 107.8700 115.7946 108.7816 121.4597 103.4642 105.0925 113.7450 120.9687 110.4612 128.2314 127.5668 111.5312 123.8661 130.6417 117.1514 118.1036 123.9611 115.8642 116.4142 105.2811 100.1833 124.1451 126.8205 128.6685 130.1606 129.0198 129.6602 131.2461 131.2483 131.9293 130.2530 130.3679 131.4724 130.9200 131.1055 128.6361 121.9571 123.0629 120.1284 128.3702 113.0786 108.5300
127.4000 127.3938 127.3304 127.2672 127.6855 127.5262 128.1300 127.5087 119.5928 119.2070 119.0199 128.4296 125.1444 121.9793 125.3605 121.2198 125.4967 123.9381 102.8390 105.4904 108.5060 104.6044 104.4637 103.9071 103.1936 109.9225 103.5253 103.8803 117.5017 119.4770 125.7109 127.2047 127.1489 116.8168 116.2323 126.4730 128.0218 118.9998 109.4686 103.0390 106.0896 105.1229 104.7126 118.6537 123.4122 128.3718 128.9503 129.5850 131.2609 130.2615 108.4825 136.4338 130.4578 130.6164 131.3896 131.3324 131.5626 131.2666 132.3652 136.7775 141.4053 137.0702 116.6828 112.4000
127.5500 127.5377 127.4766 127.4970 127.2694 127.1781 127.0001 127.6902 119.2342 116.2032 109.9815 127.9631 125.9280 120.3708 110.3048 123.1615 125.0049 127.5534 103.8376 102.5116 109.0630 105.0307 105.4205 105.0560 104.3039 117.0693 103.5347 109.3491 111.6768 121.5481 126.6837 127.0184 126.9445 117.5904 118.3775 128.4922 120.9635 115.7676 120.4935 107.5789 111.9685 104.0905 108.4280 106.8083 110.0735 123.8736 130.7728 134.3417 131.1726 131.6331 123.6773 125.6732 133.3531 130.8769 131.2759 131.5960 131.8104 131.9735 132.5948 139.1025 137.8436 104.7656 107.2180 107.0500
127.7000 127.6839 127.6287 127.5578 127.5504 127.4857 127.5327 124.8058 121.3595 120.7142 105.4123 127.7321 127.1295 128.2395 118.1639 102.8001 113.9533 119.9311 106.2161 115.7141 110.0791 105.5344 106.0376 104.9368 105.0763 115.6184 104.4567 109.6193 123.1289 121.8553 128.4209 126.8769 127.5196 121.6321 118.6414 125.6498 128.5321 122.3850 118.6565 120.0928 111.1678 105.5458 130.3213 130.9241 125.2104 123.2798 130.2483 112.0197 111.4415 130.5597 134.8550 133.7036 132.8068 132.4788 131.9798 131.8143 132.0303 132.1091 131.6945 132.1917 140.9146 112.2349 106.7741 107.2100
127.8500 127.8293 127.7757 127.7280 127.6744 127.6313 127.6822 127.5394 127.0182 124.0383 123.1772 130.1127 107.2485 110.3991 105.2905 108.5407 109.7627 106.5500 117.2989 125.9466 103.5113 105.3394 106.2850 105.2961 104.4031 112.3167 104.3748 112.3592 112.8253 123.3969 118.2812 128.9574 127.2278 125.7153 119.5347 119.3240 128.2457 124.3478 113.8121 128.8010 113.5079 104.4153 113.3110 122.7821 128.9387 126.9239 128.4611 134.5779 106.2161 134.3670 132.6628 132.8450 133.1113 133.2075 130.7673 134.9557 132.6315 132.3680 133.5128 126.8515 108.3370 106.5201 107.5204 107.3300
128.0000 128.0000 127.9100 127.8200 127.7200 127.7500 127.6500 127.6700 127.6700 124.2400 124.2400 127.4900 125.2800 105.3800 105.4000 105.4100 105.4200 105.2900 127.3000 122.7500 105.3100 106.1900 106.1900 105.3100 105.3100 115.7800 106.7300 116.0900 118.0500 118.1500 112.0800 127.5000 127.8500 127.4700 114.5600 114.5200 127.6700 119.6700 121.1900 127.7200 116.3900 116.3700 127.9100 127.9900 119.2400 119.2400 128.1600 132.6100 132.5100 132.5100 132.3900 132.7700 133.1500 133.0500 106.7200 112.4500 132.1500 132.2400 132.3200 132.4000 107.8600 111.4400 107.3400 107.3300
