127.6200 126.3100 127.5500 127.4600 127.3700 127.3700 127.2800 127.1800 127.0700 127.0800 123.5800 124.0500 123.6100 122.5300 119.5700 121.4400 126.7000 120.7400 120.6400 104.7700 122.5400 120.2200 126.4900 126.5100 129.4200 116.6500 119.6100 116.8500 112.4100 115.0300 111.8600 111.8500 115.7100 126.5000 109.0000 126.6300 126.6000 126.5900 126.7100 126.7000 126.8200 126.8000 126.9100 126.8900 127.0000 127.0000 127.1000 127.0700 127.1700 127.2600 127.2500 127.3600 127.4500 127.5300 127.5300 127.7300 127.7300 127.8100 127.8900 128.0000 128.0700 128.1800 128.2400 128.2400
127.6200 127.6145 126.5758 127.0882 127.3625 127.1334 127.2337 125.9758 126.9717 124.6559 122.8068 123.1748 122.8438 122.7635 122.0178 113.6189 125.8012 119.2851 121.8612 104.0453 114.0843 119.8608 126.1091 127.9115 125.9237 121.6544 113.5339 102.0299 115.6134 102.2859 112.1606 110.1179 106.8234 117.1680 115.5591 126.9958 130.8465 91.5023 133.7374 125.9991 124.5532 125.2182 129.3900 126.4208 126.8419 126.8816 126.9467 127.0073 127.0757 127.1703 127.1355 128.1610 117.0359 128.6609 127.5616 127.6155 127.6639 127.7836 127.7594 127.9947 131.6862 128.3063 128.1493 128.2400
127.4700 127.5693 128.3300 127.2495 127.3660 125.3644 125.5795 125.7614 127.0066 127.3805 122.8715 122.4404 122.0793 121.8462 120.9665 125.8128 125.3517 118.1713 119.2626 103.0135 113.1272 121.0503 115.0106 114.9520 122.1316 132.6298 102.7906 104.8845 104.3691 110.5423 105.9942 111.1412 101.1517 128.2770 133.8996 112.6008 117.0117 113.0627 130.8218 126.8264 124.7775 126.9353 126.3000 126.6572 126.6412 126.7313 126.7905 126.8530 126.9017 127.1122 127.0714 127.6877 122.4454 127.3416 127.2981 127.3786 127.5009 127.3499 127.8618 127.6651 128.1827 127.5471 128.0232 128.0600
127.3100 124.0916 125.6995 126.0649 126.8543 124.2009 124.6518 127.2217 126.7291 125.0634 121.5568 121.6535 121.3830 121.2859 119.9345 124.9575 124.1835 118.6664 115.9572 118.4538 103.1116 112.0851 124.5762 127.2348 115.6793 120.4647 113.9662 108.7469 111.7062 106.9042 105.8940 106.4773 105.5332 131.0545 125.5940 127.1944 128.4068 123.9395 126.2679 125.8763 124.0013 126.4721 126.4450 126.4366 126.5039 126.5597 126.6248 126.6880 126.7962 126.4943 126.6005 114.2209 122.3478 127.1577 127.3654 127.6354 127.8912 127.9817 127.2173 127.9709 127.4254 129.4589 127.5137 127.9300
127.1300 125.8097 122.3182 119.7505 129.9119 127.5492 124.5158 123.7662 126.4141 126.5549 124.0079 122.1503 121.1124 120.5930 120.3785 126.0572 125.0922 125.7075 116.2879 120.4344 109.8903 116.6394 118.3642 127.2079 114.1019 116.0821 107.7285 103.7369 110.2927 108.8664 108.4269 105.9536 123.4652 126.3295 126.5409 126.0333 126.6544 125.9764 126.0804 126.1914 126.3194 126.1407 126.2310 126.2760 126.3278 126.3982 126.4548 126.5300 126.8724 122.7587 106.2818 110.5391 129.1266 126.5777 127.0434 126.6934 108.8136 127.3428 127.5695 130.5789 117.0699 124.7562 122.3162 116.1200
126.9800 126.7389 119.7336 123.8488 119.5269 110.3362 122.7862 124.1709 126.3102 124.9809 126.9163 120.8649 120.6772 120.1427 119.7558 120.8681 120.4640 125.0429 116.0744 119.9619 108.4139 134.9607 117.2335 127.1167 114.0915 114.7138 109.0655 106.1232 106.0006 116.4435 109.6927 114.0470 126.9650 126.5796 117.8207 125.5380 125.6177 125.7870 125.8405 125.8579 125.9008 125.9880 126.0331 126.0954 126.1622 126.2260 126.2880 126.6417 125.8400 121.0279 108.9103 110.4999 124.1353 126.8518 127.3706 133.5849 108.8127 119.0981 114.2426 127.3379 125.2168 126.0542 116.1305 127.6300
126.8100 127.0959 122.9434 127.1866 125.7340 122.7729 124.5776 123.8267 122.5119 121.6634 125.6337 123.1984 121.3311 120.4951 120.0406 119.3551 119.1520 126.2578 118.3773 121.0885 118.8836 108.4995 117.2091 124.5465 114.0876 122.1642 108.5270 118.2764 109.1004 107.4337 113.6234 118.4418 125.6642 125.6976 118.9923 126.8268 125.2768 125.6047 125.6456 125.7013 125.7484 125.7976 125.8542 125.9149 125.9862 126.0538 126.1203 126.1678 127.9994 130.6805 113.8962 126.6042 126.4886 126.7220 127.0221 123.4271 120.2728 127.3214 128.1332 128.2721 125.5628 121.3716 127.9656 127.6000
125.2900 126.0737 117.8695 102.0097 123.3115 113.1239 129.5175 123.1698 122.7318 121.2674 126.0067 127.1491 128.2873 119.2350 121.0946 119.1896 124.1194 125.4257 125.2329 125.7328 114.2281 112.9798 117.3527 120.0002 119.8990 116.0646 108.7875 117.2179 111.7635 120.9574 114.9634 128.0457 124.3957 125.2377 126.1324 125.2085 125.3838 125.4014 125.4583 125.5006 125.5606 125.6158 125.6732 125.7359 125.8004 125.8923 125.9625 126.0192 124.4948 123.5695 108.5231 128.6778 126.3846 126.3248 125.8328 120.5034 124.2237 126.8457 126.9161 126.8956 127.6919 127.0777 127.7684 127.4600
125.3000 125.4058 127.6513 119.3709 125.3699 115.9609 126.9103 126.2890 122.3358 121.3581 126.0116 122.7439 131.5309 123.5355 122.5643 121.5025 124.2095 127.6231 124.7244 129.5827 117.3192 114.3056 97.3668 135.6871 121.9021 107.3526 108.5972 124.2432 121.5125 117.9276 120.5634 123.5977 124.9238 124.8965 125.0254 125.1277 125.1675 125.2054 125.2570 125.3051 125.3677 125.4248 125.4846 125.5547 125.6241 125.7059 125.7074 125.9445 126.2476 126.8893 120.9245 127.7862 126.1669 128.7397 113.9327 114.8405 126.2212 127.1193 126.9131 126.9433 127.1814 126.0311 127.2069 127.3000
124.4000 125.3815 123.4623 124.0700 118.1155 126.0203 121.3486 125.3888 122.8672 121.6414 120.9093 126.2714 131.5315 129.9070 124.8091 126.9670 117.5032 132.2368 121.6061 120.1998 119.7113 115.8209 112.4215 120.6631 121.7680 103.3382 121.7361 131.7346 135.9542 125.4923 126.8814 125.0076 124.7568 124.8736 124.9082 124.9704 124.9709 125.0057 125.0594 125.1098 125.1688 125.2323 125.3013 125.3650 125.4409 125.5351 126.0320 127.0194 125.7344 125.6603 126.6646 112.7067 126.4496 121.7205 108.4383 125.9671 124.9762 126.6938 126.7220 126.8358 126.9640 126.9712 127.5910 127.2700
124.5700 124.6819 124.9813 124.2058 109.1125 117.0640 104.3871 127.4234 125.5261 124.4666 121.8116 112.5890 122.3500 128.6797 137.6412 128.9966 131.6065 122.0621 114.9436 116.4414 120.1348 116.6018 102.7327 123.1593 118.2860 125.4775 124.9930 124.0857 124.9751 124.4500 124.3184 124.5262 124.6484 124.6252 124.6716 124.5329 124.7543 124.7976 124.8521 124.9037 124.9664 125.0330 125.1047 125.1758 125.2556 125.3832 125.3131 125.4307 125.5886 125.5558 126.2284 125.2974 127.8844 123.4969 119.5697 123.7151 118.5098 126.3872 126.5373 126.7013 126.7869 128.8054 128.2187 127.1300
126.0900 124.0813 125.4061 126.1102 119.2651 98.6378 102.0768 125.0862 124.3649 129.6357 123.5425 125.8827 113.0064 119.5819 125.9099 131.3379 124.6259 111.9888 115.1921 116.1614 114.0773 107.8140 120.7606 121.8190 125.0878 124.3827 124.3396 124.4035 124.3930 124.3195 124.3706 124.4073 124.1418 124.3153 123.5818 124.4279 124.5589 124.5884 124.6404 124.6987 124.7614 124.8328 124.9051 124.9854 125.0625 125.1364 125.2621 125.3313 125.4137 125.5296 125.5719 125.3237 131.2363 120.9376 125.7870 131.2606 120.5737 126.7462 126.4998 126.5981 126.4412 128.4128 130.0795 115.4800
126.0600 122.9623 124.1694 125.2793 121.5290 110.1902 105.9659 131.5259 116.7141 135.1194 126.3860 126.4067 118.5119 121.5843 122.7649 122.6217 122.7210 111.6714 115.2898 116.3864 113.9716 106.9218 118.2576 124.7886 123.9910 124.1347 124.1258 124.0706 124.0144 124.1238 124.1137 124.1395 124.2967 119.0852 122.6995 124.1499 124.3426 124.3688 124.4206 124.4835 124.5551 124.6238 124.7050 124.7827 124.8716 124.9586 125.0439 125.1367 125.2305 125.3425 125.4588 124.5829 131.8941 128.8726 125.6821 119.3984 126.4022 126.1540 126.3218 126.4277 126.6927 128.1585 123.4881 108.0600
125.8900 109.6583 128.7895 125.3830 125.9657 122.2275 105.1533 108.8113 99.3241 134.4934 134.2675 128.4780 130.7474 102.7960 116.4399 121.9190 117.5171 118.3660 114.6377 115.8683 114.2996 126.0541 124.2770 123.9293 124.0198 123.8657 123.8695 123.8027 124.4181 123.4762 123.8987 123.9236 123.8560 126.9173 124.2740 124.1069 124.0767 124.1511 124.2055 124.2695 124.3440 124.4167 124.5008 124.5773 124.6725 124.7603 124.8542 124.9567 125.0556 125.1548 125.2496 125.1790 125.5088 124.6248 126.3164 129.6877 125.8045 125.8840 126.1946 126.2970 126.2561 126.6295 119.6592 109.6100
116.2100 112.4912 125.0320 124.1657 128.4539 118.7711 110.1283 101.6524 137.8825 120.7316 126.3488 128.6103 123.9155 126.0879 116.9129 116.9188 115.2963 117.6569 107.7199 113.6639 119.5421 110.2298 106.6487 123.5131 123.2883 123.7016 123.6294 123.5225 125.2268 122.8211 123.6435 123.6814 123.6294 122.3129 123.5359 123.7444 123.8712 123.9185 123.9848 124.0469 124.1251 124.1978 124.2810 124.3773 124.4640 124.5637 124.6587 124.7604 124.8717 124.9775 125.0782 125.2080 125.3466 125.4299 125.6684 125.2645 125.5297 125.9088 126.0360 126.1545 126.2610 126.5644 127.4101 126.5700
132.5300 127.7939 125.6362 123.1042 120.8980 118.9856 121.9862 93.9624 117.9015 131.2570 122.5602 122.4746 123.9907 126.2605 115.1412 118.8735 118.0528 112.8342 114.1793 107.3420 112.1599 107.8894 121.9193 114.9635 124.0561 123.3019 123.4075 123.3049 123.2360 123.4362 123.4023 123.4098 123.4557 123.6809 123.5086 123.5687 123.6212 123.6808 123.7589 123.8190 123.8724 123.9900 124.0770 124.1650 124.2571 124.3617 124.4667 124.5663 124.6809 124.7903 124.9055 125.0294 125.1299 125.2762 125.3575 125.5155 125.6400 125.7585 125.8837 126.0096 126.1377 126.2451 126.2821 126.4100
125.2900 125.0102 125.3227 125.2846 122.5766 117.1126 120.5681 117.7064 117.0243 127.3244 119.3162 123.8388 123.8598 120.0705 115.8649 115.6041 116.3997 126.2394 115.1742 110.5477 112.0160 105.5736 124.4900 123.2161 123.4583 123.0383 122.9646 123.0938 123.1728 123.0305 123.1146 123.1692 123.1839 123.1907 123.2686 123.3164 123.3741 123.4429 123.4886 123.6250 123.8792 123.7181 123.8516 123.9513 124.0509 124.1553 124.2632 124.3705 124.4909 124.6087 124.7306 124.8498 124.9685 125.0957 125.2302 125.3505 125.4798 125.6115 125.7369 125.8629 125.9988 126.1283 126.2534 126.3600
125.0700 125.2042 123.8763 119.5502 122.9228 117.5387 118.2803 117.3530 114.2206 116.7960 118.4454 121.7403 119.4420 120.5461 116.0421 114.3099 114.5273 131.9165 105.7663 109.0350 106.9907 112.2129 124.5082 108.8764 123.9011 122.5152 123.3869 122.9768 122.5764 123.3353 122.8440 122.9178 122.9233 122.9672 123.0061 123.0617 123.1318 123.1922 123.2686 123.2082 121.4475 123.6007 123.6367 123.7247 123.8330 123.9573 124.0587 124.1790 124.2802 124.4301 124.5417 124.6719 124.7988 124.9307 125.0584 125.1891 125.3275 125.4595 125.5931 125.7261 125.8603 125.9995 126.1322 126.2000
125.0500 124.8639 124.6933 118.3687 118.1024 117.4341 117.0875 117.1138 126.2752 119.8516 122.1177 110.0150 117.6110 117.5052 106.0671 120.3552 116.3996 122.2327 108.4784 117.6876 117.6129 127.9180 123.5061 128.9074 125.1309 122.4140 120.2281 119.9424 122.8750 117.1939 122.8050 122.6598 122.6537 122.7104 122.7782 122.8054 122.9017 122.9966 122.4699 123.7436 124.8059 123.2892 123.4142 123.5102 123.6188 123.7208 123.9896 123.9823 124.2556 124.1518 124.3688 124.5016 124.6236 124.7634 124.8992 125.0339 125.1677 125.3104 125.4473 125.5890 125.7249 125.8698 126.0348 126.1500
124.8500 124.5906 125.5024 118.6235 117.3458 116.8798 116.9203 116.5487 119.1702 122.2331 102.5565 117.4198 117.6722 116.9194 102.1236 114.6526 117.3229 120.3380 114.2152 117.2742 111.5331 124.2162 120.3125 121.8788 121.4502 122.0807 122.9492 118.7510 120.2127 113.2711 122.5473 122.3899 122.3297 122.4116 122.3725 122.5233 122.6796 122.8922 119.6438 104.1896 117.4587 123.1660 123.1860 123.2702 123.3424 123.5202 123.6391 121.0218 124.2101 124.0783 124.1621 124.2782 124.4538 124.5878 124.7274 124.8782 125.0128 125.1534 125.3039 125.4516 125.5870 125.6773 125.4279 125.9800
124.6000 121.7661 122.3695 116.3117 119.3989 116.5366 116.3922 116.0267 115.7519 117.5454 125.2731 108.8222 107.1786 121.0840 115.1534 102.8671 115.8838 116.5452 112.6874 125.3812 122.2100 122.6104 121.7628 123.0522 122.0619 122.3197 121.4584 120.8580 121.3174 121.5540 121.8839 122.0375 122.5557 121.7336 122.6315 122.3235 122.3742 123.0575 113.5836 111.3577 122.3170 122.7756 123.2450 122.8628 123.8531 123.3278 124.0014 110.0811 114.9864 121.8929 124.3036 124.0362 124.2663 124.4028 124.5666 124.7144 124.8649 125.0135 125.1586 125.2196 125.4477 125.5524 127.0743 130.6800
124.6000 117.1921 124.6658 118.9816 121.4994 115.6639 115.4702 116.1989 116.9222 120.8089 118.0220 106.9998 120.7178 105.8741 120.5004 99.1829 108.9841 118.8879 116.8657 117.8682 121.7134 121.9728 122.6045 115.9823 124.6858 117.9729 121.7334 121.3512 121.7906 121.9016 121.7672 121.5315 122.1764 108.6320 123.2198 121.8845 122.0216 121.0205 114.1162 128.1957 123.4612 122.5102 122.7250 115.8287 120.4458 123.0105 118.6788 115.1858 107.7503 110.2391 114.6005 125.5559 124.0848 124.2722 124.3927 124.5418 124.7048 124.8432 125.0395 125.1190 125.5144 126.0648 127.5810 131.0700
124.3800 117.1074 127.1029 126.5234 122.3867 117.6249 115.9786 116.1596 118.3576 121.3059 119.4810 106.6038 112.8178 109.9964 119.9115 99.0252 105.8934 115.0734 118.1420 126.2446 120.9766 121.7767 126.6405 106.7212 116.1387 103.1226 129.5416 111.6884 107.5004 114.8656 121.5329 121.1693 124.9709 111.5846 122.9902 121.6938 121.7897 122.2723 122.3612 118.7779 120.5719 123.0667 123.7337 121.9207 117.3539 122.9860 114.1379 125.2824 118.4043 120.9610 116.1577 123.3979 123.8020 124.0438 124.2230 124.3858 124.6454 124.8232 124.7936 125.4898 116.8731 125.9532 124.9832 125.5500
102.1400 110.5473 106.6125 124.6900 125.5927 119.1816 119.9295 114.4151 117.5661 121.0153 101.0835 124.7171 102.4428 118.0257 111.6560 112.4065 99.2933 111.3312 117.7717 127.4907 120.1225 121.3794 124.5524 118.7981 123.0314 120.0419 123.0753 114.6949 110.7873 125.2685 121.0571 119.0284 125.5733 105.8160 117.2006 121.3656 121.4641 121.5088 120.1192 121.6119 124.4733 115.0211 118.9003 112.0939 122.5583 122.2902 111.8835 122.6270 122.9340 124.2479 123.4210 124.6952 124.0431 123.8681 124.0715 124.2720 124.1921 124.1898 124.7565 125.2739 121.2853 122.1974 122.3433 125.5500
102.1400 115.0211 116.8800 107.4552 121.5882 124.2862 117.0848 117.0722 119.4771 116.5467 119.2966 118.6517 100.5830 110.8970 111.3819 101.8719 110.8675 107.9252 126.2713 124.1452 120.1080 121.1040 120.7940 120.8096 120.8637 120.5395 119.3892 121.7434 107.4194 121.6160 120.7866 120.6005 120.5233 113.2530 118.2672 120.3522 121.2954 121.2743 121.3105 121.5875 119.2274 118.9438 109.9736 119.6693 119.4984 122.3309 122.5942 123.5044 122.8661 122.3424 123.7422 123.4043 119.1213 123.8513 123.9312 123.5131 130.5668 124.1650 124.7038 124.5902 125.2517 124.6330 125.4927 125.3200
101.8600 115.1705 124.0658 112.7206 108.5770 122.0685 121.9698 110.5210 117.8278 103.4238 117.0381 111.8834 106.0451 99.1308 116.6492 98.0668 111.8732 110.2584 124.4459 120.3512 120.8851 120.6765 120.5937 120.5981 120.1706 120.3409 120.2374 116.5466 121.7513 120.3813 120.3697 120.4612 120.7252 116.7929 115.9087 124.0734 120.7621 120.9911 121.0530 121.4697 126.0829 110.7327 115.6982 116.0542 120.9444 122.1007 122.3045 122.4319 122.6759 121.5262 116.7783 120.0783 124.0524 123.5927 123.7115 123.7165 125.8812 124.1761 124.4760 124.6084 124.7150 125.2349 124.9180 125.1400
123.6500 123.0093 120.7365 124.1882 122.1891 125.8926 117.5667 105.6090 117.5656 118.0395 116.7356 111.9063 116.1350 94.4163 105.4232 107.7303 108.7586 103.2625 112.2575 120.5716 120.4655 120.3474 120.2332 120.1470 120.1147 120.0091 119.8677 121.3845 119.8781 120.0976 120.0605 120.1083 120.0577 120.5620 120.4476 123.6898 119.9434 120.5989 120.7649 120.0577 122.2957 105.6395 116.4198 121.0630 121.8720 121.8279 122.1478 122.1687 123.5087 117.5014 115.1560 111.8624 122.7720 123.3654 123.5608 123.7217 124.0822 124.1694 124.2495 124.4851 124.6452 124.8086 125.0034 125.1000
123.5800 123.5818 122.4375 114.3343 115.0689 112.5319 115.1684 102.3415 116.4465 102.4540 113.3736 111.6671 112.8607 110.4817 106.4832 110.0379 113.4761 105.6145 119.5630 120.3562 119.9228 119.8261 119.9441 119.8338 119.7592 119.8659 119.5860 119.7401 119.2381 119.4376 119.6515 119.7100 119.7428 120.0818 118.2349 119.9523 119.9715 120.3442 120.3813 120.8605 120.3767 109.3196 119.9817 121.2760 121.3576 121.6712 121.9949 121.7969 122.9339 115.3966 122.5936 123.7166 122.8134 123.2301 123.4030 123.5437 123.2187 121.2493 124.4064 124.3364 124.5134 124.7183 124.8667 125.0500
123.3400 115.6610 121.3966 115.0032 120.9969 117.2047 111.9869 115.3704 112.8288 114.7379 111.7567 112.9167 111.7138 100.3386 102.0433 107.5054 126.1610 117.8652 120.0924 119.7238 119.7137 120.4154 117.9884 119.5808 119.4824 117.8086 119.5526 119.8630 120.7708 119.6870 119.2970 119.3391 119.4130 119.6256 119.5366 117.2290 114.5594 119.9958 120.1131 120.7595 122.1425 120.6807 121.6466 121.0295 121.2177 121.4176 121.4640 120.0369 122.2284 122.1560 122.2705 122.6513 122.8617 123.0339 123.2303 123.4068 123.7683 123.7805 123.9807 124.2158 124.3838 124.5693 124.9813 124.8700
123.3000 115.5047 113.1661 111.4838 123.0507 112.0605 113.1433 118.2591 112.5897 108.6099 106.8385 98.8837 101.7775 105.4343 110.0881 112.2008 111.1579 119.7832 120.5484 119.6842 119.1452 119.8968 103.8563 118.5612 119.0017 118.0714 118.9438 112.1823 108.6216 119.8908 118.6605 118.7352 118.9645 118.8977 119.0504 119.2614 119.7500 119.4779 119.7432 119.3633 122.1287 121.4767 120.3848 120.7726 120.8957 121.1625 121.3438 109.7886 113.4574 122.3436 122.3064 122.4379 122.6592 122.8435 123.0605 123.2746 123.4593 123.6548 123.8808 124.0705 124.2753 124.3635 124.1960 124.8200
123.0600 117.4472 115.9207 111.6770 111.0095 111.2682 113.0723 112.8950 112.7116 115.7700 107.6226 103.8318 97.3215 100.9096 108.1382 110.5225 121.7939 119.2679 119.3092 118.6104 119.5264 118.9083 119.7776 112.8780 117.4433 118.5762 119.6914 116.4483 111.4033 119.8902 119.2071 119.7196 118.6479 119.2498 118.5725 119.8918 118.8956 119.3147 119.4171 119.9877 120.0799 119.9435 120.2589 120.3345 120.5801 121.8817 120.7878 124.5379 121.7771 121.8565 122.0574 122.2346 122.4716 122.6918 122.9066 123.1210 123.3280 123.5375 123.7377 123.9328 124.1738 124.4610 119.3030 109.3700
123.0100 116.2641 117.7805 112.1932 113.0209 107.2858 109.8629 117.9633 115.4155 118.5918 105.1482 108.2328 104.7381 103.7208 110.8904 106.3390 115.6709 118.9955 119.3732 120.1217 112.1121 117.7108 117.5977 123.3886 106.8322 118.6581 117.8518 118.7851 118.7009 116.0768 110.4375 114.2173 109.1695 114.1851 95.6466 117.7751 118.5603 118.8976 119.0929 119.2763 119.5293 119.7587 119.9545 120.1399 120.3995 115.8687 121.6307 120.5658 120.2310 121.7915 121.8197 122.0664 122.2902 122.5169 122.7377 122.9629 123.1769 123.3912 123.6035 123.8136 124.0540 124.1580 125.2728 124.5900
122.7200 121.0835 115.0985 111.1771 108.2904 107.2505 106.6975 109.4465 113.1509 121.6321 114.2423 106.9055 117.5651 93.7666 104.8764 104.3200 116.2801 109.5005 119.0186 116.1213 103.9825 116.5991 117.7828 117.4866 118.3971 118.0421 117.4585 117.2480 117.3180 119.1835 103.8283 117.2142 117.5782 119.1716 116.7845 119.8715 118.0727 118.5149 118.7334 118.9539 119.1860 119.3586 120.4375 119.8667 117.6576 109.3628 121.4353 121.6831 120.8706 121.3754 121.6398 121.8811 122.1149 122.3540 122.5857 122.8122 123.0402 123.2539 123.4767 123.6899 123.8951 124.0629 124.1059 124.5500
122.7200 119.5476 110.1148 110.3611 107.6808 106.3924 106.6335 107.2927 107.2585 125.6757 111.0998 110.7898 106.3683 102.2297 103.0837 106.8244 110.8143 108.8064 118.9516 118.4906 117.8181 117.7313 116.9584 117.2825 116.9753 117.0200 116.9232 117.1096 117.7263 110.9080 102.6223 118.1124 116.9586 111.5480 120.6896 113.4301 118.0264 118.1110 118.3363 118.5957 118.1154 118.9782 120.3392 117.3838 120.9912 117.9189 120.2660 118.0886 121.1387 121.2303 121.4458 121.6986 121.9426 122.1857 122.4293 122.6637 122.8921 123.1246 123.3501 123.5686 123.7841 124.0218 124.2330 124.3200
122.4300 122.4204 121.1867 113.2810 108.1401 108.9608 107.9965 108.0994 105.7423 107.3089 121.3206 103.8749 108.6041 99.9728 101.0438 96.4353 104.8921 106.9668 117.7628 117.2822 117.1621 117.0028 116.9393 116.6849 116.5729 116.5551 117.3566 114.2113 111.2724 97.4022 108.2238 117.6886 116.3938 116.7963 120.3159 121.4240 117.0178 117.6984 117.9639 118.2745 118.6351 124.2762 107.4755 120.8265 120.3789 114.4411 118.8855 118.6162 120.7667 120.9822 121.2555 121.5195 121.7747 122.0266 122.2755 122.5247 122.7631 122.9984 123.2246 123.4528 123.6739 123.8950 124.1028 124.2900
112.4600 116.0136 111.1408 113.2592 105.5741 104.9106 107.4170 108.6598 107.4810 104.2365 106.5700 111.3238 119.4966 112.9206 104.2639 108.8443 104.4409 108.0233 112.6024 117.9776 116.9357 116.5816 116.3283 116.1975 115.9356 116.3521 115.4328 115.2257 106.2420 110.6259 104.2876 116.9807 116.1219 116.0313 116.8039 115.9336 117.0640 117.2817 117.5341 117.9486 117.1088 121.9881 122.6954 112.9094 119.2397 120.0526 119.9335 120.2111 120.5005 120.7975 121.0709 121.3406 121.6135 121.8719 122.1297 122.3805 122.6292 122.8711 123.1122 123.3438 123.5687 123.7926 124.0052 124.0900
118.8200 119.3831 113.1141 111.6171 110.6312 112.5848 106.5943 107.9242 107.0891 102.7695 103.2627 104.5884 117.2153 120.2876 119.0859 116.4985 104.3075 118.6351 119.1501 115.9481 116.4705 115.9677 115.8239 115.2776 115.5925 115.4846 112.2835 113.9710 117.3206 116.9906 115.4391 115.4904 115.5007 115.7397 116.1697 116.3825 116.5804 116.8581 117.1698 117.4487 117.8158 117.8551 115.4779 112.7130 112.8520 113.2171 120.2063 119.9598 120.3009 120.6028 120.8918 121.1719 121.4526 121.7236 121.9910 122.2442 122.5033 122.7476 122.9940 123.2308 123.4623 123.7198 123.9507 124.0600
122.0800 122.4376 120.0514 102.3669 112.3682 111.4837 116.2849 108.1302 106.8169 104.8620 104.1147 102.6865 113.6977 118.8041 117.6705 117.5963 116.6077 116.7134 116.4780 116.0418 115.7882 116.8304 116.8101 111.8846 114.7132 114.5882 114.7695 114.8182 113.8684 114.0909 114.5319 114.6847 115.2602 107.7629 116.7429 115.5097 116.0758 116.3357 116.7673 116.9347 117.4208 117.7467 118.7653 111.0898 107.5397 118.9706 120.0148 119.7553 120.1102 120.4052 120.7038 121.0094 121.2915 121.5716 121.8507 122.1217 122.3786 122.6394 122.8868 123.1301 123.3727 123.5397 123.8096 124.0200
122.0300 110.6358 103.7253 103.1249 106.2121 101.6094 101.7630 103.7904 101.0216 104.9167 102.4501 106.8506 97.5760 117.9749 117.8676 117.1329 116.8236 116.3561 116.0044 115.6888 115.0575 113.1829 112.8869 114.3482 114.2904 113.8953 113.7365 113.6237 113.8368 113.8361 113.9046 113.2605 118.4932 114.5919 115.0001 115.3396 115.5641 116.0231 117.1831 115.9722 117.1891 117.4042 117.7193 118.3551 119.2973 118.6994 119.2013 119.5791 119.9009 120.2449 120.5105 120.7967 121.1479 121.4430 121.7253 121.9996 122.2620 122.5264 122.7853 123.0292 123.2876 123.5448 122.8365 123.8300
121.7800 120.6864 114.4753 113.2558 104.4032 106.8572 105.0045 101.6910 104.0909 109.4560 102.7206 102.8671 111.3291 95.0581 113.8608 117.7615 116.2273 116.0030 115.5119 115.1881 114.2960 116.9068 114.6085 113.6202 113.3200 113.1532 112.9959 112.9181 112.8745 112.9743 113.1029 112.0381 113.8304 113.9443 113.7193 114.8018 114.8987 116.0231 118.0145 109.2511 116.3058 117.1409 116.8691 115.2811 118.5003 119.3934 118.9570 119.4174 119.7912 120.4797 121.0269 121.0457 121.1056 121.2142 121.5383 121.8477 122.1413 122.4196 122.6903 122.9454 122.9025 124.4187 114.1418 123.8000
121.7400 107.7921 110.4470 110.5355 117.9865 115.9522 109.2771 106.5499 103.7004 100.7982 102.9357 106.3192 107.8118 120.0273 112.8818 108.7777 116.3833 115.5351 115.0563 114.6425 114.1391 113.7371 113.3088 112.9188 112.5995 112.3106 112.1146 112.0150 112.0185 112.1110 112.2182 112.6921 112.7923 108.9730 113.7740 113.9218 114.6130 114.7533 115.8385 116.9511 115.8203 116.3507 117.5813 117.9838 117.8502 117.9795 118.7067 119.2499 118.8863 117.4838 116.2378 117.4230 120.5954 121.9179 121.7996 122.0197 122.0004 122.3238 122.6021 122.8229 122.7458 128.0973 114.7082 123.7700
121.7000 111.7675 112.5781 110.5932 113.0910 112.6239 113.4037 112.9729 106.2621 103.4629 107.2741 119.2841 126.0792 116.4756 117.9647 116.9530 115.4533 115.1057 114.5865 114.0712 113.5591 113.0989 112.5951 112.1497 111.7227 111.4038 111.1815 111.0309 111.0177 111.1313 111.3674 111.6711 111.9578 110.9313 112.2048 113.3589 114.0041 114.5401 114.9571 115.5228 116.7129 118.9442 116.8185 117.3319 117.8431 118.3203 118.7331 118.7698 124.5431 115.0404 106.9539 105.6767 117.0232 116.3931 121.2268 120.7114 121.9327 122.2633 122.5162 122.7412 123.0628 123.4677 124.4619 123.7400
115.9500 122.2705 111.7285 110.0632 110.3441 120.7729 114.8204 111.2748 108.1051 104.6084 116.6318 115.2528 117.5767 116.7374 116.1267 115.6340 115.2193 114.6746 114.1230 113.5493 112.9626 112.4026 111.5289 111.2335 110.6969 110.3354 109.9810 109.9114 109.9101 110.0668 110.3282 110.7415 111.1729 111.5879 114.0798 112.9366 113.4649 114.0291 114.5767 115.1654 116.2244 120.0391 116.5759 117.0983 117.5632 117.9678 118.4408 118.0592 124.2110 129.9032 120.5573 112.6020 110.9566 108.8633 119.8338 121.0994 121.7567 122.1654 122.4320 122.7532 123.0469 123.2157 123.3257 123.7200
118.9000 114.0451 109.8451 112.2878 109.1552 110.7165 103.6941 109.4832 107.2528 106.0959 108.9819 114.2449 117.3595 116.5915 115.9562 115.4754 114.8860 114.2638 113.6586 113.0081 112.4293 111.6538 113.1685 110.7918 110.2105 109.4379 109.3022 108.6670 108.7263 108.7770 109.1716 109.6883 110.2408 110.8919 111.5485 112.2407 112.9150 113.5530 114.1649 114.8719 114.7006 114.9385 116.4529 116.8958 117.3574 117.8303 118.2508 118.5928 117.6731 126.1301 124.3019 113.9069 115.5674 120.7422 121.2526 121.5688 121.8190 122.0799 122.3843 122.2754 122.7042 123.1729 123.4370 123.5000
116.4200 109.1591 111.2345 110.6699 111.3571 109.7301 107.2627 99.4982 104.4533 102.4781 112.8514 122.8816 116.6496 116.1935 115.7084 115.1305 114.5275 113.8855 113.2129 112.4970 111.8006 111.0279 113.1404 104.3260 108.1066 107.8658 102.8073 104.5149 105.4926 107.6234 107.8684 108.5340 109.2837 110.0991 111.1290 111.5934 112.3869 113.0975 113.7822 114.4083 115.0497 115.7272 116.1401 116.6688 117.1805 117.6665 118.1036 118.5810 118.4306 122.8290 125.2969 108.8687 121.8485 120.7178 121.0846 121.2676 121.7345 122.0217 122.1346 125.3056 122.5127 123.1226 123.3451 123.4800
121.3200 110.8816 111.7378 110.3822 120.9242 114.0229 110.4169 106.8746 100.2071 97.0686 133.1397 120.1282 116.3068 116.0592 115.4669 114.8552 114.2076 113.5267 112.7979 112.0224 111.1561 109.9647 110.0467 107.2753 108.1026 106.9026 105.3470 103.1851 101.0147 106.2310 106.3727 107.2854 108.3534 107.8456 109.7109 111.0167 111.8898 112.6717 113.4076 114.0948 114.7459 115.3665 115.9465 116.6027 116.9890 117.4658 117.9901 118.3736 118.7646 118.7948 120.1358 119.9441 120.0011 120.4738 119.9765 121.3887 121.7133 121.9580 122.1835 123.8468 122.8427 123.1274 123.3840 123.4700
121.3000 110.5474 109.9324 111.9892 120.9105 110.1393 106.1801 104.1951 104.5897 103.8817 123.0907 115.0677 116.3762 115.8856 115.2580 114.6531 113.9852 113.2097 112.4220 111.5736 110.6350 109.7293 108.8630 107.5477 106.1974 104.8355 103.7676 103.4288 103.4740 103.6046 104.7056 105.9201 107.1088 108.2438 109.4075 110.4682 111.4264 112.2833 113.0969 113.8392 114.5248 115.1740 115.7910 115.8420 117.2331 117.7267 117.8717 118.2602 118.9196 119.5992 120.5883 119.9826 120.2965 120.3196 121.1207 121.2654 121.6109 121.9304 121.9793 122.1557 122.5827 122.7450 123.1227 123.4500
121.2800 108.8772 115.0816 117.1911 112.6000 109.5820 102.3194 122.1030 100.4174 102.2229 125.0081 115.6638 116.2419 115.7371 115.1038 114.2856 113.5607 112.9627 112.1102 111.1827 110.1643 109.0286 107.4696 106.3057 104.7589 103.0214 101.3105 100.0145 99.9330 101.0446 102.7291 104.4750 106.0824 107.5683 108.8678 109.9856 111.0191 111.9560 112.7832 113.5823 114.3403 114.9338 115.4462 120.1986 105.1671 119.1670 117.6648 118.3257 117.6482 128.6794 118.4864 119.8367 120.2414 120.6153 120.9079 121.2710 121.6196 121.5579 126.9028 124.5119 123.6122 123.7080 123.4010 123.4400
121.2700 114.5386 109.6319 108.4686 105.7957 105.2072 101.6934 100.2884 109.6812 119.7729 119.0594 116.6048 116.0755 115.6378 115.0192 113.7944 117.4667 112.3720 111.8742 110.8867 109.7831 108.5429 107.1247 105.4427 103.4459 101.0095 98.2160 95.2830 94.8155 97.6835 100.5573 103.0827 105.1353 106.8557 108.3216 109.5925 110.7016 111.7218 112.8885 113.7641 114.1826 114.9225 116.5441 116.7810 103.1140 118.2625 117.5919 118.2191 118.0180 122.0797 119.1388 119.8213 120.2002 120.5556 120.9038 121.2316 121.6246 121.2654 130.5306 118.8622 113.7190 113.4699 122.8352 123.4300
121.2600 113.1857 117.9085 108.3747 107.8611 106.9510 105.0530 102.0213 101.2623 105.3281 95.2785 100.5188 117.4887 115.4166 114.8821 114.1611 113.0531 111.1659 111.6873 110.7013 109.5255 108.2046 106.6527 104.7681 102.3940 99.2088 94.1696 88.8997 88.5279 92.9220 98.5734 101.9397 104.4117 106.3594 107.9665 109.3239 110.5034 111.5467 112.4525 113.2948 114.0855 113.2945 113.7083 115.7718 111.0938 117.2035 117.6280 118.1724 118.1707 121.5580 119.1478 119.8034 120.1950 120.5453 120.8604 121.2257 121.5465 121.8348 121.7162 120.9874 122.2606 124.9855 114.0635 110.3000
121.0300 122.3032 110.1375 110.4724 109.5016 110.9114 102.0696 111.4049 104.8243 106.3613 119.4947 118.1524 116.4472 115.5155 114.8506 114.1608 113.4651 112.6195 111.6074 110.6084 109.4243 108.0620 106.4524 104.4649 101.9007 98.2899 91.3151 85.2626 84.5340 89.9616 97.5287 101.3858 104.0880 106.1476 107.8146 109.2042 110.4075 111.4706 112.4195 113.3580 114.1191 107.3887 108.0454 106.8007 103.5386 117.6834 117.5580 118.0995 118.4504 118.7865 119.3932 119.7810 119.9787 120.4327 120.8544 121.4052 123.2523 124.2518 121.5010 117.9525 113.8970 119.3360 122.8294 104.0700
121.2500 121.9052 112.4317 111.2811 113.1312 110.9667 105.2523 109.6982 105.9989 109.5460 116.9513 116.2288 116.0046 115.5179 114.8783 114.1705 113.3958 112.5581 111.6644 110.6356 109.4744 108.1263 106.5450 104.6058 102.1327 98.7224 92.2750 87.1980 86.7987 91.4203 98.1083 101.6475 104.2386 106.2418 107.8778 109.2854 110.4835 111.5189 112.4384 113.3077 113.9209 112.0511 105.1894 109.1543 107.4116 117.7369 117.5176 118.1044 118.5754 119.0422 119.4076 119.7471 121.8719 120.4780 120.8101 121.0611 125.0670 123.9858 122.1505 122.8823 123.5787 122.8608 118.1675 105.4800
121.2600 121.1318 119.6800 114.2216 113.3574 107.9698 104.3983 101.9758 105.5931 119.2218 117.5553 116.7799 116.1775 115.5796 114.9347 114.2553 113.5167 112.6948 111.7897 110.8000 109.6749 108.3987 106.9183 105.1528 103.0000 100.3502 96.3601 92.6237 92.1921 96.1190 99.7872 102.6088 104.8254 106.6384 108.2011 109.4518 110.3796 111.4911 112.5519 113.3338 114.3685 114.9600 106.8611 107.1102 117.1798 117.2733 117.6627 118.1381 118.5888 119.0029 119.4048 119.8549 121.0993 121.0801 121.3745 121.2321 122.5224 122.7105 122.2654 122.2545 122.4594 124.7933 109.7854 113.4200
121.2600 120.4593 106.5973 108.9510 104.9084 101.5392 98.0717 110.9427 113.1440 118.5383 118.5337 116.6309 116.2492 115.6765 115.0519 114.3814 113.6489 112.8671 112.0080 111.0604 110.0095 108.8340 107.5046 105.9889 104.2546 102.2622 100.2243 98.5408 98.4414 99.9667 101.9277 103.9467 105.7104 107.2561 108.6652 109.9357 112.6182 112.6029 112.7257 113.5351 112.8335 113.7220 120.2338 117.0013 116.7254 117.0096 117.7341 118.1930 118.6408 119.0598 119.4687 119.8323 120.1636 120.4357 117.0042 121.4033 121.7801 122.6470 122.2325 122.4284 122.9452 122.9370 120.0913 132.2700
121.2900 109.6594 109.8607 108.1153 109.7669 111.2060 111.3295 110.5515 109.4166 113.1667 117.0572 116.4538 116.3808 115.7790 115.1807 114.5425 113.8610 113.1142 112.3002 111.4131 110.4470 109.4088 108.2522 106.9391 105.5929 104.2215 102.8968 102.0309 101.9575 102.7182 103.9879 105.3704 106.7570 108.0377 108.9035 112.9859 103.0505 108.7548 113.0623 113.7796 113.4619 115.9416 121.9257 115.6606 116.6662 117.3580 117.8188 118.2719 118.7112 119.1247 119.5206 119.9006 120.2998 120.6668 120.1718 120.8463 121.5115 121.8045 122.2478 122.4311 122.3187 121.2812 129.1304 126.9900
110.4700 99.7977 114.7875 104.1083 122.0200 121.4406 116.0947 111.8889 115.0201 109.9663 117.9673 117.0703 116.5283 116.1262 115.4920 114.7716 114.1189 113.4067 112.6543 111.8511 111.0085 109.8924 108.9851 108.1945 107.0541 105.9503 105.0860 104.5491 104.5131 104.9650 105.7730 106.7805 107.8261 108.9093 109.9270 112.2698 101.9031 108.2819 113.2031 114.0193 114.8360 116.3211 120.4685 116.2721 117.0170 117.4551 117.9135 118.3681 118.7991 119.2090 119.5985 119.9717 120.3203 120.6791 121.1041 121.6286 121.5984 121.9619 122.2595 122.4916 121.4107 136.3062 116.8540 109.3500
113.1000 100.9994 111.7528 114.6483 124.3785 119.3219 119.6214 120.1764 119.1416 118.7851 117.4894 116.7462 116.4982 115.2777 114.7902 115.1849 114.3996 113.7507 113.0482 112.3447 111.4695 110.8137 110.2412 108.7187 108.3775 107.4738 106.8543 106.5011 106.4722 106.7774 107.3395 108.0820 108.9111 109.6401 111.0435 110.4287 111.5559 113.3105 113.5072 114.2947 114.4306 115.5554 117.7123 116.4490 117.1233 117.5764 118.0513 118.4820 118.9015 119.3003 119.6848 120.0490 120.4071 120.7494 121.0340 121.3787 121.7791 122.0238 122.2628 122.6319 122.4232 124.7964 105.1001 109.1900
113.0700 118.6662 99.4888 112.3845 120.5303 119.8941 119.4423 118.9968 118.5517 118.2639 118.0997 118.6365 117.2575 119.5287 117.3466 115.5617 114.6604 114.1309 113.5007 112.6742 113.5669 99.1531 114.7624 113.6242 109.4045 108.8011 108.3494 108.1021 108.0800 108.2923 108.7044 109.2587 109.9068 110.6052 111.9706 111.8001 112.9270 113.3155 113.9352 114.7422 114.1332 125.5206 104.6883 117.6681 117.0916 117.7870 118.1960 118.6175 119.0282 119.4108 119.7901 120.1489 120.4895 120.8309 121.1697 121.2037 121.3784 121.9498 122.3140 122.0247 122.2533 123.4437 117.1302 108.4000
121.3800 122.3218 116.7175 120.9622 120.1950 119.9596 119.6012 119.2475 118.9432 117.7452 117.7026 94.5617 114.7817 108.8007 116.9369 115.5616 115.0781 114.5263 113.9483 113.3434 112.7870 104.0580 105.3545 111.0482 110.3421 109.9783 109.6394 109.4497 109.4376 109.5945 109.9052 110.3375 110.8635 111.4205 112.0215 112.6319 113.2493 113.9063 114.3245 115.0717 115.5132 115.7814 122.5710 101.3466 119.6872 117.7561 118.3550 118.7766 119.1656 119.5407 119.9043 120.2576 120.5933 120.9280 121.3509 120.9551 125.6827 122.1505 122.4070 122.7999 122.6296 117.6913 107.3641 121.7300
121.6300 120.9384 121.1433 120.6926 120.4437 120.0887 119.7516 119.3042 119.1323 119.8587 103.2335 96.2635 119.5073 115.1954 116.4983 115.9309 115.4821 114.9241 114.4288 113.8466 113.6685 110.9083 107.8024 111.4873 111.3646 111.0305 110.7657 110.6210 110.6124 110.7295 110.9770 111.3264 111.6939 112.2669 112.7166 113.2293 113.7022 114.7195 110.3125 115.7075 116.0375 112.3318 111.2362 107.3572 115.4905 118.0175 118.5848 118.9359 119.3111 119.6782 120.0394 120.3770 120.7071 121.0141 121.4181 121.6377 114.1613 119.2092 122.0420 122.8118 123.0283 122.9154 128.5202 132.0600
119.3600 110.5745 122.6664 120.7445 120.5616 120.2277 120.1789 119.6268 115.7305 116.7151 98.5876 100.2210 116.0613 124.1247 113.5236 116.6425 115.8890 115.4793 114.8157 114.4205 113.8671 113.6793 112.9902 112.7201 112.2476 111.9788 111.7709 111.6512 111.6442 111.7373 111.9348 112.2175 112.6144 114.3622 112.2711 113.8854 114.3235 114.9826 115.4756 114.2328 116.2046 116.8772 117.1920 118.9853 118.4081 118.2861 118.7369 119.1132 119.4767 119.8365 120.1747 120.5062 120.8262 121.1430 121.4297 121.7073 123.4896 123.1026 122.3963 122.8854 123.6025 120.2696 138.5996 114.8100
121.7100 122.0513 121.1917 121.0279 120.6588 120.4080 115.9256 121.4065 94.4081 97.3497 118.9488 119.7185 121.6403 113.8141 99.4607 117.0707 116.0028 114.3941 114.7611 114.9396 114.5323 114.1147 113.7004 113.3722 113.0796 112.8414 112.6673 112.5800 112.5758 112.6480 112.8021 113.0459 113.2725 113.7393 107.3548 114.7275 114.8473 115.0203 114.6337 109.8614 117.2700 116.7994 117.3325 117.7285 118.0864 118.5715 118.9456 119.3016 119.6530 119.9962 120.3211 120.6457 120.9574 121.2560 121.5500 121.8445 121.7943 122.1377 122.6222 122.7114 122.6151 120.9716 105.4199 111.4800
121.9500 120.7926 121.5688 121.1405 120.5631 122.7204 105.3914 124.1437 104.9734 123.4734 119.6150 117.3611 100.2306 96.9587 110.3683 110.2716 115.5017 116.4625 114.9095 115.4636 115.0948 114.6994 114.3805 114.0923 113.8362 113.6285 113.4885 113.3902 113.3927 113.4708 113.5959 113.7947 114.0381 114.4996 115.0399 115.0272 115.3518 115.8936 117.5833 117.3141 116.8392 117.3525 117.7580 118.1380 118.4936 118.8115 119.1590 119.5000 119.8397 120.1629 120.4822 120.7900 121.0943 121.3836 121.6751 121.9570 122.2661 122.5523 122.6691 123.8613 123.6671 107.8071 110.9533 112.2900
124.2500 119.1300 121.6000 121.1700 120.9500 120.7300 120.2700 120.0300 119.7800 119.3000 119.0200 118.7300 118.4500 117.8700 117.6000 117.2500 116.9300 116.9700 109.2300 115.9100 115.1200 115.1200 114.7900 114.4000 114.5100 114.0100 114.0700 114.7900 114.7700 114.1100 114.0000 114.4900 114.4200 114.8100 115.2600 115.1800 115.5600 115.9000 116.2400 116.9200 116.9200 117.5600 117.8600 118.1600 118.7200 119.0000 119.2600 119.5200 120.0200 120.2600 120.4900 120.9400 121.1600 121.3700 121.7800 121.9900 122.3800 122.5600 122.7500 127.3100 129.0100 110.7300 114.2700 116.7100
