117.2400 117.2400 116.6200 116.6200 115.7900 114.9900 114.6700 114.6700 113.6200 113.2700 112.6400 112.1200 112.1200 111.6900 111.6900 106.7500 110.9300 111.7400 111.7400 107.3300 112.2600 112.7600 113.1800 113.7600 114.1200 114.5900 115.0700 115.4100 115.8100 116.5500 116.9200 117.2800 117.8900 118.2000 111.2300 119.0700 119.3400 119.6000 123.5200 120.3600 120.5900 121.3300 121.2700 121.7000 121.9000 122.1000 122.4900 122.6800 123.0500 123.2200 123.5700 123.3200 134.2700 102.2200 120.5500 108.9100 109.9100 112.9500 116.7200 103.4000 118.5900 107.2800 116.0000 123.9500
117.1400 114.9380 113.1790 115.9502 115.4889 115.0276 114.4963 113.9750 113.4318 112.8966 112.3790 111.8907 111.4523 110.9960 111.2253 107.8721 110.6152 110.7020 110.7357 112.2387 111.5318 111.9408 112.5843 113.1396 113.6859 114.2269 114.7577 115.2727 115.7775 116.2755 116.5132 117.7413 107.2425 120.1054 115.6072 115.6986 118.9772 119.6194 120.6106 120.2788 117.7705 120.8356 120.8852 121.1813 121.3779 122.4681 119.8148 127.2022 116.6281 115.4383 124.5159 123.9521 130.9203 118.3755 122.1912 107.6746 116.2913 108.9407 114.0435 109.7847 107.7612 109.1543 111.3021 123.9500
117.0400 116.6153 116.9631 115.8410 115.1891 114.6164 114.0475 113.4510 112.8446 112.2346 111.6203 111.0439 110.5018 110.0477 109.6491 109.7079 109.4579 109.5505 109.9580 110.1013 110.7190 111.8108 112.5048 112.4626 113.1831 113.7318 114.3226 114.8912 115.4402 115.9623 116.2947 117.5389 110.5204 115.6077 111.1768 119.2892 120.7531 121.1417 123.2665 121.0044 119.5400 121.3089 122.6875 123.5175 122.4179 126.4164 115.1264 113.3249 117.0296 116.5822 118.3702 121.5051 113.9872 114.0619 108.5813 105.0652 113.5118 101.5176 108.6395 108.1825 106.1717 106.8325 115.8681 119.2800
117.0400 116.5032 115.9132 115.3751 114.7761 114.1584 113.6061 112.9312 112.2503 111.5495 110.8350 110.1359 109.4633 108.8713 108.4212 108.0867 108.0588 108.2409 108.6040 109.1547 109.6291 106.2150 105.5158 112.1968 112.5515 113.2511 113.9069 114.5211 115.1124 115.6711 116.2095 117.2488 118.1181 116.8101 117.3903 119.8644 101.9518 110.8825 101.6555 122.0438 115.3241 121.2394 111.6435 117.0898 115.6692 106.7031 105.2761 101.9934 106.3616 117.8272 115.2468 114.4280 97.3773 105.5520 111.9217 100.3391 102.2229 110.7897 101.9062 103.7578 106.3125 113.7087 120.8063 120.6200
116.5200 116.2647 115.7182 115.0498 114.8822 114.2103 113.1683 112.4480 111.6799 110.8655 110.0320 109.1734 108.3443 107.5682 106.9397 106.5445 106.4568 106.6983 107.2242 107.9358 108.7930 105.1009 107.9961 111.3398 112.0632 112.8021 113.5133 114.1859 114.8147 115.4176 116.0250 116.2792 117.5505 118.2804 117.9633 119.6085 117.4682 114.2085 114.0218 120.2176 118.6837 120.6150 113.8522 115.2639 116.5087 102.4218 98.9812 102.5131 109.8824 106.6866 111.4527 109.6174 111.9249 100.0276 110.2790 109.3443 114.3117 103.9692 103.3537 103.5596 106.3832 120.1191 119.8622 120.0300
116.4500 116.0602 115.5882 114.8793 112.5871 111.9620 112.7555 112.0204 111.1208 110.2040 109.2195 108.1911 107.1281 106.0970 105.1968 104.6071 104.4777 104.8493 105.5976 106.5792 107.6418 109.2371 109.8120 110.6332 111.5495 112.3769 113.1500 113.8780 114.5453 115.1595 115.6663 118.0748 101.1607 120.0418 118.0551 119.6144 120.5954 119.6553 119.9236 120.1292 109.9957 122.8932 99.4349 103.6038 101.0503 104.0585 107.5915 107.4751 108.4174 111.3853 111.3168 111.4833 109.3795 113.6662 100.5987 116.6914 122.8271 106.7137 103.8939 102.5653 120.6422 119.0194 119.4820 119.9600
116.3900 115.8864 115.5037 113.0048 114.2329 112.9954 112.3804 111.5860 110.6277 109.5843 108.4424 107.1972 105.8384 104.4412 103.1056 102.1233 101.8978 102.5351 103.7266 105.1151 106.5187 107.8043 108.9739 110.0904 111.0937 112.0038 112.8405 113.6015 114.3244 114.9749 115.5912 116.5417 115.5567 109.9737 113.5085 96.5096 121.7724 119.2295 116.8541 120.7164 99.3328 100.4296 99.8327 101.8370 104.2860 107.4634 109.0739 114.0102 114.7939 116.2882 112.0832 112.0955 113.6076 115.5223 115.4259 119.1314 115.1671 102.3733 102.2145 116.5116 119.6743 119.9697 120.6720 121.0900
116.3500 115.8078 114.8234 114.5205 113.7616 112.9905 112.1405 111.2283 110.2008 109.0444 107.7458 106.2555 104.5585 102.6225 100.5541 98.8082 98.2943 99.5539 101.5409 103.5846 105.4062 106.9978 108.3919 109.6272 110.7119 111.6922 112.5755 113.3978 114.1842 114.8717 115.4673 116.1000 116.2351 117.6589 110.1012 101.4001 96.1796 118.0116 119.1577 127.9504 116.6663 109.5979 101.4802 103.9164 105.1858 107.3905 113.6068 107.9550 107.0153 114.7313 114.5409 114.3091 115.4895 110.5074 109.0325 102.0966 102.2869 103.4903 106.2139 117.6052 118.2449 119.1360 113.4673 118.3500
115.9100 115.6768 115.0770 114.3758 113.6441 112.8538 111.9544 110.9741 109.8776 108.6278 107.1815 105.4847 103.4064 100.7830 97.5569 93.1714 91.8988 95.1753 99.2193 102.1304 104.4571 106.3434 107.9039 109.0954 110.4187 111.4630 112.4003 113.1926 113.2945 114.8043 115.2579 115.8304 118.5419 94.8562 95.9864 119.7527 119.8734 117.1407 115.1682 119.9561 99.5181 106.3123 98.5554 99.1524 115.9837 105.2864 101.6706 111.2390 109.7632 109.0901 112.8099 115.7131 99.4928 101.2161 109.2849 108.8166 109.3368 109.5274 106.1764 118.6062 121.8315 123.6472 117.2871 103.9900
115.8900 115.6298 114.9886 114.3049 113.5545 112.7319 111.8292 110.8230 109.6865 108.3749 106.8405 104.9773 102.6168 99.3754 94.1147 87.6121 86.1275 90.0657 97.1900 101.0697 103.8271 105.8871 107.4798 108.6878 110.2464 111.3093 112.3038 114.3052 101.1141 115.9818 115.1172 115.8782 117.9855 120.7794 114.7595 113.1815 103.1894 114.0846 96.9635 113.6920 103.6537 102.1910 102.8067 103.4612 105.0049 107.3121 109.7573 111.1424 116.0982 116.6017 117.7526 103.3534 102.6217 104.4129 112.7980 110.8006 110.1919 109.8708 109.4862 106.9124 106.4757 109.3687 117.8530 103.9800
115.8700 115.6139 114.9805 114.2865 113.5343 112.7132 111.8081 110.7887 109.6429 108.3142 106.7518 104.8575 102.4182 99.0024 92.9743 86.0020 84.3588 88.4828 96.5635 100.8000 103.6519 105.9542 107.6331 109.0088 110.2118 111.2866 112.3177 113.3166 110.3774 114.8987 115.1054 115.8617 115.7977 119.3952 100.4039 93.9379 97.4032 105.5088 104.7136 101.4862 105.3667 101.0146 104.8491 108.5816 110.0210 109.8056 109.8608 110.0422 114.6871 114.1680 118.7088 108.3131 106.0411 109.5411 112.9703 111.5743 110.6916 109.5177 108.8972 108.7297 109.2524 108.5679 115.5990 103.9800
115.8800 115.6588 115.0274 114.3287 113.5821 112.7709 111.8745 110.8734 109.7444 108.4560 106.9463 105.1391 102.8822 99.8513 94.9582 89.5849 88.2409 91.8369 98.0200 101.4290 103.9917 106.0491 107.2288 109.4228 110.3267 111.3659 112.2953 113.1193 114.1686 115.0716 116.0088 116.1763 118.3059 119.4177 102.2569 99.5913 100.5149 109.7880 120.9674 101.0334 104.7836 102.1883 103.6648 103.6697 108.0172 108.8903 111.0639 111.7882 114.1064 108.4931 109.8179 105.0992 103.0718 105.7872 107.2243 107.7379 107.2876 113.8378 114.0711 113.1499 113.5489 114.3212 117.7847 103.9800
116.3200 115.6287 115.0583 114.4230 113.6857 112.8964 112.0289 111.0672 109.9946 108.7771 107.3901 105.7634 103.8433 101.5085 98.7166 95.5484 94.6530 97.1939 99.5869 102.6891 104.8094 106.8174 103.6231 108.3984 110.5863 111.5355 112.4731 113.4971 114.3466 115.0150 110.8235 117.2015 105.9092 112.2280 100.3057 101.2223 103.6998 103.4544 106.0371 109.4846 111.1141 109.8581 106.8281 107.1876 109.7506 110.4774 111.8497 112.3579 113.2639 109.3313 112.3624 98.8657 100.5041 111.3162 99.0330 100.7117 106.9476 109.1750 115.6899 122.6534 123.3758 121.5074 110.6044 103.9800
116.3600 116.3845 115.3827 114.5747 113.8525 113.0948 112.2634 111.3567 110.3569 109.2490 108.0134 106.6174 105.0614 103.3382 101.6001 100.2517 99.8886 100.7720 102.3958 104.2037 105.8524 107.2910 107.7659 108.3967 110.8904 111.8036 112.7973 112.1930 112.7548 114.8701 114.2490 104.6363 100.7396 107.4631 101.9914 101.0094 98.7889 113.8692 107.6204 103.2250 104.4393 103.9351 110.4822 109.7584 110.2155 111.6122 112.0370 112.4716 112.7058 112.9970 115.4182 111.2222 101.1042 109.0778 110.3464 115.5259 100.8213 113.0406 115.7177 119.4871 121.6089 121.7489 110.0997 117.7400
116.4100 111.1643 115.7610 114.7034 114.0698 113.3537 112.5736 111.7331 110.8173 109.8282 108.7511 107.5862 106.3614 105.1288 103.9999 103.1716 102.9820 103.5090 104.5044 105.7086 106.9576 108.1634 109.5104 110.7045 111.2949 112.0982 113.3383 114.4944 120.8193 124.4986 102.1920 105.4227 102.8112 107.9504 101.7546 104.8467 103.9785 111.8837 112.0020 108.3396 99.1166 99.3675 105.3917 107.1206 107.6853 108.5734 113.4669 111.9995 119.2129 111.8291 110.7936 113.9202 116.4980 104.6951 114.6978 105.8938 104.8664 116.2776 119.7510 120.0416 120.1787 119.8956 116.7105 119.8900
116.4700 114.9172 115.5977 114.9809 114.3381 113.6589 112.9367 112.1669 111.3407 110.4671 109.5434 108.5820 107.6099 106.7001 105.9234 105.4087 105.2926 105.6122 106.2644 107.1404 108.0838 109.0441 109.9636 110.8567 111.7504 112.5333 113.3343 114.2782 113.6485 113.0306 92.9238 97.6202 96.8173 102.8847 104.7914 103.6080 105.2817 116.0407 105.7060 102.6295 98.3091 109.6968 108.1592 108.1469 108.6914 109.0876 110.6505 111.2517 113.2556 112.4725 114.4837 109.6138 116.7757 117.8377 117.0758 117.0082 105.5090 111.6633 112.2522 118.2755 119.5723 119.4955 114.5045 104.0000
116.5400 116.4473 115.7946 115.2386 114.6385 114.0111 113.3363 112.6441 111.9069 111.1402 110.3541 109.5666 108.8016 108.1029 107.5411 107.1950 107.1189 107.3311 107.7908 108.4197 109.1591 109.9445 110.7288 111.5144 112.2763 113.0019 113.6619 114.4415 115.1539 109.2478 114.8509 94.6092 97.7661 101.0091 104.0688 99.8220 116.1246 113.6925 103.4152 101.5271 98.9438 112.2816 110.4922 111.8928 110.9270 112.7140 113.9046 111.4484 111.8275 114.3093 101.1696 101.2067 101.8404 102.0615 102.0826 103.0594 102.0336 118.5337 112.8872 126.7607 125.4347 126.9166 115.8590 119.2100
116.9800 116.5718 116.0644 115.5262 114.9645 114.3837 113.7731 113.1457 112.4933 111.8209 111.1572 110.5011 109.8833 109.3511 108.9218 108.6687 108.6136 108.7673 109.1127 109.5952 110.1702 110.8123 111.4749 112.1468 112.7881 113.5427 114.0442 114.6250 115.7437 115.2140 120.8114 109.0185 104.5053 99.4128 99.1695 102.6780 110.6112 105.2324 101.4216 102.1743 103.4645 106.9910 103.1722 107.8998 113.1808 113.8766 112.2882 112.7294 111.6857 107.6031 100.8016 100.8209 115.4005 104.8469 119.7054 112.2605 103.2031 117.7331 117.3002 119.9873 125.6265 125.6862 115.7056 121.2200
117.0600 116.8190 116.3407 115.8387 115.3160 114.7845 114.2193 113.7568 113.1830 112.4723 111.9223 111.3838 110.8904 110.4548 110.1700 109.8738 109.9197 110.0122 110.2762 110.6524 111.1120 111.6436 112.1964 112.7828 113.3994 112.8969 113.2172 112.3771 115.5432 101.3078 113.9162 112.6291 101.2315 94.6727 104.7087 103.7924 103.5642 105.4674 104.1509 101.8556 103.0947 104.7875 106.7669 108.7233 112.7996 114.1951 107.2265 114.2304 112.6627 114.3075 99.7113 101.8335 101.3992 101.7656 101.6391 101.7671 104.8217 108.1189 124.3465 117.7462 118.2251 118.9628 120.8337 127.5100
117.1600 117.0865 116.6347 116.1661 115.6879 115.1968 114.6291 114.5514 112.9223 113.2040 112.5094 112.2154 111.8066 111.5187 110.7559 112.0467 110.8917 111.1037 111.3095 111.6161 111.9942 112.4306 112.9013 113.3173 115.1388 105.4638 114.7415 99.3069 104.7420 93.8031 91.0468 102.6785 98.2404 99.1289 101.9663 101.4419 108.6252 109.1181 103.2572 102.6914 103.2865 107.5630 108.2429 108.7375 110.4511 109.0597 113.2661 110.6953 102.1010 104.2218 104.2211 100.9523 101.6829 102.5564 103.4436 102.3873 117.3177 106.4187 112.0504 110.6234 118.5700 120.1351 122.9646 126.3900
117.6100 117.3651 116.9394 116.5044 116.0561 115.6162 115.1738 114.4325 111.0055 114.5304 113.4026 113.0499 112.5223 112.3386 113.9166 118.2035 111.2459 112.0742 112.2444 112.4940 112.8078 113.1653 113.5682 114.0426 114.4478 114.4611 120.6289 100.4689 98.6977 105.4139 111.7053 109.8444 107.7532 98.8828 97.2462 104.0356 100.3260 105.1009 110.4301 109.8250 108.9846 115.5103 114.9079 114.7101 113.3303 111.1769 110.9798 111.8623 115.0461 101.9918 116.9150 105.1155 109.4840 102.5256 105.3506 105.0101 104.8722 104.5036 104.7166 115.9981 121.1822 121.8883 116.2389 117.2600
118.0900 117.6524 117.2558 116.8481 116.4416 116.0298 115.5876 115.5303 114.6164 115.1049 114.0580 113.7636 113.4362 110.8254 109.7466 111.7679 113.0454 112.9478 113.0900 113.2897 113.5441 113.8979 114.1975 114.5810 115.2793 113.8928 105.2840 96.6106 104.0063 95.8870 116.8900 117.9002 113.4953 112.0574 105.9170 105.7637 109.6175 106.7951 100.3757 106.0948 110.0616 110.6773 113.4320 113.5268 117.5475 118.9023 117.1114 111.8208 108.7339 103.7822 113.7215 107.4950 114.0852 100.6380 103.4058 104.4894 106.4481 107.2117 105.7567 113.2904 115.0254 119.6375 118.5883 121.9700
118.1200 117.9496 117.5737 117.1974 116.8216 116.4458 116.0819 115.6687 115.2531 115.2738 114.7372 114.3906 114.1728 112.7679 110.0701 114.1176 113.6092 113.7393 113.8603 114.0405 114.2977 114.3333 114.9908 115.3305 115.3967 104.8421 115.8013 113.2649 121.6788 119.4663 118.8651 117.9886 122.8594 113.1936 109.4530 98.4859 103.8834 98.5503 105.2613 105.3267 107.9500 107.3974 112.4011 113.3758 113.7476 115.6173 117.4114 117.6323 116.6478 114.5343 115.7431 115.5098 104.7734 105.4378 104.7471 101.6162 103.1278 101.9804 116.3719 118.4449 106.7967 115.6477 112.5416 118.4600
118.6100 118.2468 117.9018 117.5493 117.2124 116.8632 116.5117 116.1862 115.8596 115.5523 115.2682 115.0583 114.6485 114.6021 114.8521 114.3370 114.4541 114.4818 114.5690 114.7116 114.9048 115.5690 113.7244 114.7327 118.9097 113.5483 113.4243 100.6704 117.3438 117.9646 118.1637 118.7408 118.6319 108.7429 109.5085 105.3242 98.9682 103.2888 104.9395 109.1362 107.5277 108.4799 109.4823 112.9804 115.6267 119.2034 114.2572 114.5796 118.9269 119.3739 120.3702 120.4687 120.1925 117.3673 118.5644 108.3499 108.3741 109.0288 125.1324 123.5677 121.7035 121.7971 124.1317 119.0000
118.6100 118.5483 118.2302 117.9059 117.5643 117.2621 116.9241 116.8789 116.3204 116.1174 115.8615 115.6363 115.4668 115.3070 115.1259 115.3820 115.1442 115.1524 115.2296 115.3657 116.2726 111.6216 113.4445 114.7058 108.1283 104.3870 99.6850 108.2641 104.0354 117.2614 118.3873 113.8647 119.4026 111.3529 103.1593 101.6329 110.0287 117.7751 118.1618 106.3684 108.8488 109.5008 108.5656 108.2070 116.7397 113.0991 116.2230 116.1665 115.0231 115.1060 120.3947 120.3840 121.3606 120.2001 121.6987 120.3779 120.0225 120.3740 114.6390 121.6404 124.6240 125.4568 124.9214 126.6000
119.0700 118.8494 118.5495 118.2443 117.9182 117.8402 117.4127 117.2956 116.9674 116.6183 116.3315 116.2075 116.0296 115.8590 116.0715 113.7130 115.7616 115.7902 115.8416 115.9499 117.0791 108.9380 113.5615 98.7702 102.6613 97.8275 96.8336 99.9351 95.0236 117.4245 118.5926 117.8512 119.9285 104.3555 114.8117 110.4287 103.2515 122.1084 110.8707 123.4793 112.2606 111.0976 111.1081 107.9957 109.9837 109.6771 114.3759 116.5547 116.6476 117.2150 118.3054 113.9296 109.8956 121.4736 121.1002 122.0370 122.4925 123.2310 119.9615 121.3745 122.2225 123.3795 123.8267 123.9400
119.4300 119.1540 118.8695 118.6252 118.3318 116.3813 117.1005 114.4758 117.0432 115.7722 116.9453 116.7346 116.5844 116.4594 116.4154 116.1252 116.4382 116.3692 116.4157 116.5526 116.6522 117.2666 118.1607 116.6462 94.2964 97.0823 96.7396 93.8601 107.6898 120.6315 118.5791 119.0993 120.0325 113.1982 99.8847 117.1808 108.5797 121.4237 119.6628 114.7704 113.0907 113.1459 101.9451 111.7504 110.7011 109.9821 115.4620 115.7802 113.2186 106.9541 118.0866 117.9474 112.3339 114.7898 123.3569 120.9671 121.9661 122.4520 121.6884 121.7674 121.8851 122.4567 121.0391 123.9700
119.4800 119.4537 119.1968 118.9363 118.6858 118.6007 118.3615 121.1527 117.7781 116.7395 117.4508 117.2467 117.1079 117.0043 116.9308 116.9105 116.8889 116.9085 116.9526 117.0364 117.2273 117.1139 117.3982 117.6258 97.4297 99.7370 119.7508 116.8746 102.4922 101.3762 115.1292 119.9526 118.6382 131.4351 113.5406 103.8561 121.7578 120.2923 121.8813 121.4035 122.0739 114.1978 116.3435 110.6210 116.6917 115.8609 116.3011 116.1909 115.9637 115.3192 101.0670 100.5523 120.2479 120.1683 117.0152 118.1845 123.6621 122.2868 121.8450 122.1404 122.8619 123.7389 123.8477 124.2900
119.8900 119.7496 119.5068 119.2731 119.0371 118.7672 117.9844 120.2296 117.6105 118.1273 117.8211 117.7353 117.5961 117.4988 117.4462 117.4129 117.4081 117.4326 117.4332 117.7716 117.9343 118.1440 100.3461 122.8594 113.6906 100.2428 107.8149 101.5820 96.3216 114.2635 105.8696 116.4816 121.9882 120.5150 116.5576 105.3274 113.2984 120.8143 121.5682 121.8377 121.7497 123.0656 123.0170 122.5357 123.8010 118.3800 116.1291 109.0647 118.0779 105.9601 110.6767 103.6966 111.2203 115.3909 119.9137 121.4975 117.0373 116.4515 121.8121 122.3451 123.1880 123.6220 123.5008 124.0600
120.2200 120.0441 119.8185 119.5943 119.3828 119.1399 119.0591 118.5849 118.5987 118.4595 118.3454 118.1415 118.1133 118.0872 117.9653 117.9033 117.8929 117.9104 117.9467 117.5991 115.0372 118.7497 113.5254 104.0817 96.9779 97.2483 104.7093 115.5736 119.1054 122.6227 111.6926 109.3439 120.1243 120.3428 122.6662 117.1116 109.0888 114.5940 122.5614 122.0168 122.2681 122.4756 122.6024 122.8372 125.0243 134.8633 117.6053 100.3129 101.8285 99.2694 117.2321 114.2923 104.5279 119.5243 124.6293 121.0397 120.6776 118.8886 116.3381 110.3673 120.7357 122.6054 124.3538 124.1000
120.3200 120.3346 120.1289 119.9176 119.6824 119.5214 119.3174 119.1767 119.0054 118.8667 118.5787 119.0049 118.4127 118.0464 118.2447 118.3636 118.3891 118.3944 118.4668 118.5961 102.7616 120.4394 111.7851 93.9268 122.2319 105.3893 103.9641 107.6456 115.3805 120.1678 121.3861 108.5464 107.7010 121.6089 123.8946 105.0298 123.4532 122.1406 121.8905 122.2128 122.4471 122.6919 123.0785 122.9156 125.0381 104.2901 108.7471 101.2312 105.2094 102.4558 101.9260 100.9053 120.2581 116.5014 97.6640 122.3918 116.2156 119.7370 120.7204 106.9641 118.9243 113.4889 124.3117 124.4300
120.6400 120.6233 120.4097 120.1827 120.1371 119.9032 119.7001 119.5338 119.3854 120.3926 119.7799 116.3133 120.4290 121.1175 119.2514 118.8102 118.5816 118.6243 118.8198 118.7941 108.1597 108.1859 96.8101 109.3576 102.3034 99.1491 102.8957 100.8369 104.7347 104.3947 115.9873 117.6057 107.0977 118.5190 109.5681 107.4990 120.9441 122.8149 123.7401 122.3952 122.6715 122.6855 123.1384 121.9590 123.1710 118.4002 113.9196 107.0484 113.7125 106.0457 101.9742 103.6758 101.9795 115.4383 119.8368 126.7535 108.9270 125.4972 123.1598 124.5222 124.9695 105.2681 110.0927 115.1700
120.9700 120.9029 120.7073 120.5180 120.0607 120.1110 120.0013 119.8546 119.6858 119.5769 122.5651 107.5671 121.6543 107.3321 120.0394 119.2171 120.2522 120.4742 120.2949 120.1038 110.2039 95.1623 100.0218 117.7922 104.0976 116.7818 101.1448 102.1801 111.3842 105.1254 105.4487 107.8295 107.6422 111.7170 110.2579 106.3282 114.4834 112.4729 121.6770 122.4869 122.7751 123.3258 122.5804 123.6242 102.7369 98.9703 126.1574 105.7650 109.6496 112.8093 110.4591 99.5925 101.8377 100.5634 99.6258 116.9691 125.1946 124.1793 123.6778 121.7673 126.0356 107.9033 113.6675 124.7200
121.3000 121.1831 121.1414 120.8420 120.4214 120.8972 120.5298 120.5998 121.6345 118.5771 119.6425 115.0013 120.5569 118.6922 119.6125 119.6183 120.0867 108.6371 121.4677 107.2322 109.2759 108.0634 104.6297 109.2451 116.3961 96.8085 111.0015 105.0589 102.9957 118.3373 108.2615 101.9113 99.4557 100.1438 99.1835 101.8543 113.5111 115.7232 123.2005 122.8376 122.9221 124.3194 113.0196 115.0589 113.4852 111.0457 112.8219 107.5985 109.1492 112.1107 125.7019 116.0807 118.7749 102.8029 111.2415 102.6773 111.1099 118.2356 124.4809 124.4130 126.0203 120.2762 125.8884 127.0500
121.6300 121.4353 121.3285 121.3864 120.0916 119.8479 120.6977 120.4599 120.5617 119.2863 120.7656 120.4648 119.9822 120.1090 120.0478 119.7281 120.6941 109.4284 120.4502 119.6094 110.2753 97.3600 102.9146 117.0768 118.4730 102.1989 118.4505 113.5763 109.0062 105.5806 105.4800 100.7062 102.9822 107.0193 100.0939 107.5539 120.8984 123.6136 123.0103 123.0109 123.0731 123.9086 102.6948 106.6124 106.7979 121.5855 110.9949 105.1065 111.8193 104.7580 125.5759 116.8281 119.8828 111.2340 123.4232 122.5662 109.5302 106.5870 116.1003 128.1243 124.5028 122.9362 126.4327 125.8300
121.6300 121.8826 119.2894 119.4565 121.8530 121.1707 120.9763 120.9126 120.7891 120.7839 120.5311 120.5233 120.5094 120.4201 120.3733 120.3998 120.3239 121.9874 120.8156 120.4385 121.4550 116.2828 101.0793 119.3163 121.0086 122.4436 104.9936 115.9881 123.0512 109.9254 107.7387 111.2053 118.7634 107.5743 102.4166 106.6594 109.9960 120.5861 122.9842 123.1693 123.2683 123.4716 122.0167 121.8453 105.5760 109.6129 110.6215 103.7546 119.1687 119.8401 113.5023 113.5032 112.1113 112.6760 110.6633 110.7780 124.5929 119.3222 102.6631 111.5654 114.2130 127.7467 125.1013 125.8100
122.0000 122.0289 122.1072 118.7288 121.8282 121.3839 121.3178 121.2045 121.0965 120.9952 120.9463 120.8592 120.8015 120.7646 120.7337 120.7132 120.7134 120.5462 121.0480 119.9800 120.7509 121.7131 121.3490 109.9383 122.1383 117.5685 100.7017 109.4224 110.5359 110.0265 106.8978 116.3667 125.1671 109.6288 120.0536 111.7031 108.5357 118.1175 123.0737 123.4734 123.2632 124.4890 105.9149 126.6553 106.0809 109.8839 110.1094 108.6903 108.7989 115.5038 115.0818 117.8114 112.6776 114.5945 115.6365 117.2558 121.4164 129.3232 127.2025 117.5321 113.9758 108.8255 130.3191 125.5500
122.4900 113.1792 118.1778 120.0700 116.6406 122.2210 121.6207 121.5026 121.4200 121.3310 121.2542 121.1899 121.1454 121.1036 121.0753 121.0615 121.0404 121.0230 122.2610 111.8706 121.7937 121.1402 121.9718 121.4696 119.0505 119.6375 108.4656 109.8893 112.2636 111.5531 102.7203 115.3626 123.1186 123.6133 121.9341 109.9378 111.8651 123.8696 122.9625 123.6974 123.5601 123.9922 124.6673 112.0481 112.9469 102.4124 102.8810 116.2449 116.3185 115.0035 112.8992 116.1371 115.4246 113.8921 116.6857 117.4259 115.9513 114.8116 121.1234 129.9594 128.4590 108.4380 111.2636 128.8600
122.4900 119.8451 121.9415 121.8620 118.4032 122.6225 121.9214 121.7973 121.7137 121.6305 121.5720 121.5086 121.4620 121.4227 121.3923 121.3805 121.3733 121.3926 121.3117 122.2423 122.1653 121.4835 121.8711 112.1942 125.2658 118.5025 107.1800 122.1456 116.8826 111.1810 112.0946 110.9046 114.5786 122.9243 112.0888 110.0082 116.9168 121.9837 124.0723 123.2839 123.8787 123.4230 118.3146 120.4357 120.4956 125.8559 104.3409 104.2172 115.9470 111.3490 112.4084 112.0727 115.1505 114.4381 117.4093 117.1823 115.9936 116.2435 115.6703 126.0726 128.0222 128.3598 128.6465 128.2600
122.7700 123.0505 122.6233 122.4147 122.5137 122.0320 122.1690 121.9987 122.0103 121.9285 121.8686 121.8121 121.7706 121.7292 121.7091 121.6978 121.6897 121.6884 121.9473 122.1350 121.6193 121.8289 120.5593 120.9623 123.6087 125.6018 110.9526 111.7531 124.0794 114.3899 113.0248 112.2881 114.4272 120.5687 113.2025 117.2361 124.8862 120.5802 107.3553 114.1250 124.9656 125.1522 115.5330 109.1988 105.3753 121.9624 104.5541 106.8914 110.3075 112.0324 112.6735 114.7138 113.3925 119.4554 120.7882 122.8382 118.0711 117.4199 116.2732 120.3679 125.1680 110.0706 127.7388 129.2000
123.0200 122.9366 122.8491 122.5280 122.6784 124.3026 121.6567 123.2451 122.2899 122.2080 122.1636 122.1050 122.0704 122.0311 122.0141 121.9945 121.9968 121.9771 122.0606 117.8687 122.5314 122.1111 122.0357 121.3457 121.6852 126.0233 111.5308 123.0161 123.3613 122.3881 121.9052 113.9775 113.5999 120.0950 122.7887 120.5105 124.8301 123.4556 107.2304 117.6558 125.8060 123.9762 122.7321 109.2603 104.0650 107.8190 111.4836 112.4137 108.0214 110.6417 115.9635 117.2058 114.8316 117.5242 125.0290 126.0543 125.7370 119.9032 119.4992 119.8809 123.5360 112.8668 102.3237 129.4600
123.2500 123.2088 123.1171 122.8953 118.9951 113.2135 110.0658 123.4000 122.5675 122.4855 122.4382 122.3943 122.3553 122.3200 122.3069 122.2878 122.2601 122.3145 122.4989 118.6053 122.9976 122.3485 122.3458 122.5033 122.5022 122.8891 125.7514 114.8249 123.1290 123.1191 111.1162 114.2161 116.2669 115.1320 117.3578 123.8430 123.8724 124.0380 123.8679 126.7184 117.7414 120.4214 122.6833 106.3328 105.9935 104.2810 109.5443 120.5366 114.9164 104.0866 106.8810 118.0178 117.8600 119.0337 128.3285 125.1518 123.2905 126.6836 127.4806 127.4686 126.9334 128.2682 131.3507 126.7900
123.5300 123.4367 123.3510 123.2121 123.5769 120.6469 124.1718 122.8306 122.8603 122.7602 122.7138 122.6746 122.6295 122.6031 122.5866 122.5683 122.6484 122.6250 121.9196 122.4263 113.3118 123.3434 123.1104 123.1552 122.7246 122.9992 122.6459 123.2344 122.0380 110.0019 119.3494 119.1877 111.3839 114.8907 117.2360 124.2565 124.0985 124.2391 118.9586 124.5673 113.8631 105.3180 113.2848 108.0047 114.1367 109.8273 120.8512 115.5686 114.6318 108.4659 105.1408 112.9166 116.0770 112.0894 119.8082 115.1771 115.5540 124.0235 127.5814 128.1855 127.7786 126.2863 115.5833 126.7900
123.7700 123.6697 123.5935 123.4548 123.2696 123.5173 123.0570 123.1668 123.0755 123.0370 122.9778 122.9432 122.9008 122.8782 122.8548 122.8473 122.4851 122.4979 123.9919 124.3426 95.6590 121.7448 122.6209 114.3791 123.8396 123.3871 123.0517 123.4089 123.3244 124.8927 124.6041 108.0117 120.0154 116.3730 114.9557 120.0849 124.3522 124.0426 122.2587 112.7095 114.3401 121.3656 106.2116 103.4317 106.5595 115.7037 109.0527 114.9794 121.3734 116.7242 114.7095 107.7600 110.2349 119.1227 121.7350 115.5163 118.7111 130.6275 117.9602 111.9370 119.0058 117.0753 119.4881 105.8400
124.0000 123.8852 123.7809 123.7218 123.6541 123.5228 123.4963 123.3965 123.3458 123.2888 123.2446 123.2017 123.1622 123.1470 123.1411 123.0018 123.9223 124.6995 125.0886 103.7866 114.7379 115.1076 124.2070 130.8079 118.0914 121.0966 124.7030 123.6083 123.0931 124.2875 103.3216 108.9095 120.8265 113.7347 109.4143 107.7571 102.2070 116.3356 124.7620 110.1698 102.5990 103.3368 116.5209 102.0400 125.6919 129.3230 124.1581 127.5305 126.5187 108.7802 114.7591 116.0446 107.3389 118.4596 123.6964 120.6637 122.9518 120.5668 111.8549 121.3365 104.5953 110.7897 128.5008 105.8400
124.2200 124.1023 124.0194 123.9328 123.8463 123.7769 123.7069 123.6418 123.5848 123.5319 123.4532 123.4345 123.4267 123.4239 122.9615 122.5561 121.1620 108.4168 119.2847 121.2789 126.3792 110.6299 124.6992 104.8562 105.8320 123.4873 118.6264 113.1508 125.4449 122.8496 102.1759 110.4188 111.8732 114.7860 102.7794 105.0901 102.2996 106.6810 111.4396 101.7725 103.8439 103.7331 111.8483 102.3190 123.7327 125.2631 125.9563 127.2229 111.2265 136.9803 112.6991 120.1777 124.8025 126.4230 126.2956 124.0494 124.3795 122.2592 125.8386 107.8417 126.4121 107.4164 108.9355 111.8400
124.4300 124.3229 124.2339 124.1598 124.0825 124.0085 123.9393 123.8851 123.8178 123.7906 123.9422 123.7374 123.6460 123.6638 123.5926 120.1990 119.5081 119.9417 120.3458 123.7621 123.6883 126.0739 126.7374 105.9333 113.9421 118.1602 119.2043 110.5531 123.6971 99.7180 121.2480 103.0377 112.1719 102.7531 102.4991 101.7894 112.8474 100.6011 101.6260 99.5513 103.1783 101.1165 111.1932 112.0662 105.5214 115.3372 130.0078 119.4338 106.0082 111.3427 104.2664 120.5002 127.7000 119.2250 107.6975 125.8456 122.3542 122.4821 127.0440 114.7534 128.2977 119.8064 125.6394 106.0400
124.6600 124.5333 124.4501 124.3676 124.2966 124.2285 124.1767 124.0784 124.1055 124.3122 121.6419 125.1910 123.8578 123.9168 123.7300 123.8924 126.9818 107.6203 126.6081 123.8250 124.1624 115.3276 124.2959 108.4639 126.5954 124.3099 125.1362 125.2799 124.3746 125.2049 126.1106 106.5655 106.2661 103.8550 104.2718 102.8896 107.6999 115.8728 120.6329 113.8864 118.3884 114.5442 106.3446 115.3387 118.2059 105.8020 127.4481 126.2112 121.5515 105.5943 103.7400 111.9984 126.1074 125.6254 114.3597 110.5535 126.0846 121.5351 122.6263 117.3667 113.5267 129.5435 128.4629 128.1700
124.8700 124.7359 124.6584 124.5868 124.5111 124.4515 124.3795 124.4300 124.0517 127.1951 105.6804 124.6859 124.0001 123.9678 124.4929 125.2099 126.8714 104.4410 114.5079 124.7373 125.0332 118.8278 124.8746 121.3121 126.6633 123.9321 124.2549 124.3353 124.7167 124.0642 104.1788 123.0439 111.4791 106.3672 103.0876 103.7388 108.4544 121.2795 120.8189 125.6173 125.6810 127.0197 104.7793 111.4359 112.8881 105.4375 125.9261 125.9434 104.2977 110.8749 103.7310 107.3102 114.7932 126.1036 128.3801 127.4087 127.4958 126.3980 123.6434 123.1546 124.2150 124.7576 128.4971 128.2000
125.0700 124.9323 124.8613 124.7889 124.7235 124.6635 124.6212 124.6472 124.7078 111.7537 118.5636 123.7332 125.5954 117.8532 112.0291 102.4601 106.4099 107.6220 104.9018 122.6761 120.5433 124.6157 125.9616 110.9926 124.0391 124.5650 124.5565 126.9546 124.5243 127.2853 123.2729 115.3003 105.3502 109.2706 105.9757 103.0008 116.2238 119.5943 121.0490 125.5748 124.3984 120.6570 108.3133 109.8721 111.0505 114.2144 123.9957 128.6431 127.5881 108.1053 116.6423 106.3092 107.4915 129.5579 126.8469 127.4665 126.9485 127.5534 127.3260 122.6180 122.9631 122.8735 128.3196 128.3300
125.2700 125.1276 125.0597 124.9946 124.9276 124.8804 124.6603 124.9415 125.0923 110.7717 124.8213 122.9344 120.5686 107.6812 111.5898 108.3612 119.7524 105.8369 119.1937 126.7470 117.8530 125.8540 124.4294 128.0434 125.7851 124.8110 124.4625 124.8119 124.9730 118.0294 116.8648 101.2467 105.5306 108.2601 108.0197 103.0984 103.6350 120.3950 121.0412 124.3751 126.5456 111.5003 105.7193 106.9168 99.9723 114.3729 112.6330 126.8811 127.6120 128.1380 127.4055 129.9991 119.1420 127.4942 127.7767 129.1394 127.6272 128.5174 128.2514 128.5423 128.3110 122.8849 123.7652 124.7200
125.2700 125.3245 125.2601 125.1717 125.1682 124.8438 126.0391 124.3505 125.2204 113.6744 101.8695 119.1958 126.9422 119.8116 114.9564 105.1646 108.7545 117.2233 114.6237 121.8929 118.3344 112.4620 119.1048 114.1893 113.3825 124.4880 126.8391 122.3487 112.2989 122.4312 120.0780 110.3878 105.8938 120.5807 108.5444 102.6344 115.6815 120.1614 121.0982 123.8836 125.7352 124.1906 104.2770 104.5742 105.0043 128.4391 115.2147 128.1233 126.7967 126.8725 126.5989 127.1018 127.1522 127.6414 127.9475 119.4807 128.3624 127.7695 127.9248 128.0994 128.0043 129.2815 123.9198 124.2000
125.4700 125.5125 125.4543 125.3776 125.0921 127.3908 115.1231 125.6694 125.1799 127.4633 122.0223 125.7938 126.7000 109.8159 128.5826 116.2761 124.7954 109.7057 118.3342 125.6100 113.8991 112.5063 132.1803 117.3505 115.3139 110.4511 120.5490 102.4992 108.7443 113.1516 109.6588 127.0889 105.3174 106.6821 113.0975 111.0372 122.7069 124.8600 122.6931 116.1330 124.9548 119.5853 103.5781 104.6388 111.2695 121.5978 123.4850 117.5254 128.2579 127.2229 127.4570 127.3848 127.4884 127.4708 127.5468 126.9212 118.5169 128.3108 128.6232 127.8420 128.3480 128.5843 126.0779 123.9400
125.8300 125.7013 125.6389 125.5760 125.4423 125.6938 116.2226 126.9332 125.2123 125.0829 125.3041 126.2212 113.8878 121.3032 122.4257 125.9501 126.3692 121.5473 113.5358 116.3659 108.5404 111.8418 103.5575 122.9520 120.5902 111.3451 129.5237 112.3494 104.9692 107.7459 105.7936 107.3936 98.5183 119.9923 113.4689 109.2423 108.4298 108.6132 106.1124 104.3406 123.2600 105.6381 103.8247 105.3578 112.9242 124.3042 129.7587 117.1128 127.3097 127.1116 127.3973 127.4841 127.5971 127.7060 127.9758 126.8126 112.5410 109.1197 134.0038 128.3029 128.5305 128.2078 128.6897 108.4000
126.0100 125.8875 125.8867 125.7466 125.4481 125.7945 126.4042 125.4498 125.5937 125.5422 125.4903 125.6666 121.1510 126.8394 117.0989 125.3575 117.3880 122.2699 119.4544 106.7143 120.5450 115.4674 101.8759 108.0955 117.2867 101.4292 117.9260 105.2089 105.1813 111.8251 104.9114 115.9246 126.5466 128.0127 114.7215 104.9812 108.5171 110.2025 109.2883 113.2797 106.6595 112.5568 106.5634 106.2085 107.0874 123.7011 128.2778 127.2659 127.9678 127.4262 127.5272 127.6179 127.7210 127.8134 127.8770 128.0503 133.3899 117.5436 119.9912 128.0437 128.5706 128.6159 129.2566 108.4000
126.0200 126.0798 125.8821 125.6660 125.8746 125.8679 125.7981 125.8203 125.7216 125.6909 125.7042 125.6000 126.0281 126.0765 127.6321 123.4435 106.5680 121.1778 116.4741 103.6575 108.6154 125.8666 109.9309 116.3590 129.1170 105.8601 105.7511 105.3870 106.2991 105.7661 103.3849 115.2604 126.3588 124.9059 115.1098 104.9867 106.3025 105.2253 105.1412 121.7077 105.4953 105.5047 110.8854 129.6108 121.5263 125.2732 126.8911 127.3115 127.4530 127.5749 127.6407 127.7380 127.8443 127.9408 128.0254 127.5581 128.6684 128.2691 128.7454 128.6549 128.4322 129.1169 114.3756 128.9300
126.2000 126.2094 121.4356 123.6486 126.1046 125.9805 125.6622 125.8280 125.9239 125.9214 125.7739 125.9276 125.4508 123.9257 114.3249 123.9211 120.5530 122.3705 117.2864 105.9166 127.8869 126.2591 108.2032 108.4888 128.6869 114.1853 107.0956 107.4535 107.6161 108.8192 106.8858 120.3547 127.0611 127.1965 114.7441 107.8843 105.1234 109.4335 114.3787 106.2655 113.8581 107.1699 117.5577 126.9572 127.4350 127.7213 127.4195 127.5194 127.5806 127.6932 127.7652 127.8613 127.9512 128.0515 128.1503 128.3369 128.3102 128.4664 128.2016 128.5699 128.4539 130.6431 112.8835 106.9600
126.3700 126.3090 126.7814 126.5479 126.1157 126.2415 127.6783 126.0067 126.1050 126.1265 126.0722 118.5954 123.3468 124.0132 121.2916 123.4054 114.4653 116.5144 114.7316 106.3711 126.7034 125.5924 106.2538 119.0643 125.1873 112.1132 109.7956 104.4275 109.7473 108.9818 114.4057 106.5074 126.9255 128.4729 108.9365 116.9276 110.6685 115.8801 124.8245 122.3312 105.5181 109.1825 124.8008 128.5161 127.3065 127.6988 127.5345 127.6337 127.7208 127.7503 127.8887 128.0409 128.0810 128.1703 128.2512 128.3524 128.4649 128.4443 130.1092 131.9743 121.8473 129.0707 121.9668 122.4100
126.5400 126.6070 126.4403 126.5070 127.3543 109.8073 126.2981 126.1572 126.2871 126.3793 126.0097 120.8394 104.5017 116.9566 127.1365 125.2789 125.5834 112.3983 115.0322 107.6798 110.5030 112.1000 107.3085 106.7660 114.5690 110.9888 105.2513 104.0695 108.5549 105.8325 109.2383 112.1893 126.4947 126.0761 112.3186 126.0826 119.3854 114.2990 120.9127 112.0172 112.6335 105.2045 103.2406 123.8521 124.3073 127.7159 127.6254 127.7548 127.8632 127.9310 128.4458 128.0800 128.1311 128.2871 128.3743 128.4520 128.5250 128.8636 125.7690 124.5588 127.9819 113.9032 109.3100 110.1500
126.7100 126.7415 126.7047 126.6754 127.3581 127.1671 126.7202 126.4301 126.4542 126.5511 126.2911 116.6130 119.0559 120.9895 127.2617 126.3920 118.5039 126.6624 118.9054 108.3144 109.6568 105.7670 106.2842 104.1637 109.2257 105.9389 115.3118 104.7817 108.1075 108.2474 125.1707 128.3252 127.1835 125.5429 128.4241 127.1476 127.6534 113.6000 115.3064 123.0449 106.4165 105.4953 105.0991 108.9799 128.3354 127.4323 127.8484 127.9329 127.7897 129.1116 113.0485 122.0684 128.2836 128.4125 128.3791 128.7260 128.7792 128.7330 128.7302 128.7942 129.3909 129.9446 126.0662 123.5900
126.8700 126.9146 126.8617 126.8397 126.6393 126.5952 126.7453 126.7402 126.6489 126.6602 126.6570 122.1691 114.9806 112.4266 134.6650 115.8986 116.0178 116.3020 115.1752 113.4461 114.8454 103.8793 106.5506 113.8351 113.4148 104.1766 115.5538 107.5432 115.0296 121.4016 126.2935 126.1587 127.9752 117.9809 126.9760 127.0292 127.5145 108.7327 114.9929 117.2288 110.5849 105.6970 107.6594 106.0580 117.3339 128.0114 127.8742 128.4369 130.4065 127.9963 128.8693 128.7027 128.2487 128.7734 127.3875 126.4319 128.8684 128.8120 129.0318 128.9873 129.3845 115.3390 119.0071 116.3700
127.0300 127.0732 127.0298 126.9719 126.9779 126.9589 126.7912 126.4613 126.8128 126.8645 126.5770 127.3970 114.9152 114.3914 112.6151 104.0689 104.8072 117.8655 111.2136 127.2955 119.5932 105.5950 105.5519 115.1362 105.9429 103.9744 116.8742 111.3548 116.1096 124.3779 127.4037 127.0910 128.2552 118.1644 127.7473 126.9203 127.6063 128.2122 109.8764 119.5211 117.5610 106.0482 106.3751 106.5246 120.6749 128.9917 127.7968 127.0730 123.3629 128.6070 128.3658 128.3934 128.5829 128.6103 128.6477 129.2064 128.8554 128.9695 128.8944 129.5225 128.5433 128.5816 111.3862 112.2100
127.3400 127.2363 127.1909 127.1517 127.1023 126.9718 133.3268 126.3811 126.9880 127.0239 126.8620 122.1141 115.0446 109.9338 115.1219 103.3938 113.9492 104.0943 110.6790 127.1884 114.6069 114.3884 104.1046 115.3550 109.1713 107.2932 106.6593 106.8138 108.8310 114.4790 113.5106 122.4243 125.9439 116.8606 120.9909 127.5180 127.3415 127.1603 115.4413 118.9948 113.3574 114.4662 106.1023 105.9638 129.2914 128.1298 127.0361 128.1393 127.3162 128.4877 128.5335 128.5904 128.6119 128.9250 128.6340 128.8769 129.1232 129.1303 129.4991 125.2842 115.1663 118.7711 110.9736 110.7000
127.3400 127.3600 127.2500 127.2700 127.1600 127.1800 127.2000 127.0700 127.0900 127.1100 127.1100 116.5000 108.4200 105.0000 108.1000 105.0100 105.0100 105.0100 118.1900 126.9900 126.9900 120.7400 121.3200 120.8500 117.1000 105.4200 105.1900 116.6300 118.5600 119.2000 127.3500 127.3500 119.7900 116.0300 127.5300 127.6200 127.6200 127.7100 122.7000 117.5900 122.5800 114.2500 107.9000 107.9000 126.9000 128.0800 125.8300 128.3600 128.4500 128.5200 128.6200 128.6800 128.7800 128.8400 113.1400 124.8700 129.0800 129.1600 129.2300 116.8100 124.4600 124.2800 109.7700 108.5600
