124.2200 124.2200 124.0900 123.9400 123.9900 123.8400 123.6700 123.7100 123.7100 123.5600 123.5800 123.3900 123.4100 123.4300 126.2300 126.2300 123.2300 123.2300 123.2300 123.4400 123.4400 123.4200 123.4000 123.5700 123.5700 123.5500 123.6900 123.6900 123.8500 123.8100 123.9600 110.1800 112.9500 124.2400 107.4900 124.4800 124.4800 124.6000 124.7600 124.8600 124.9700 125.1200 125.2200 125.3600 125.4700 125.5900 125.7300 125.8300 125.9500 126.0800 126.1700 126.4200 126.4200 126.6200 126.7300 126.8500 126.9400 127.0500 118.2200 118.6800 115.2200 118.4000 127.7600 127.7600
124.2000 124.0242 123.9610 123.8462 123.7578 123.6664 123.5922 123.5246 123.4566 123.3975 123.3388 123.2954 123.2546 123.2389 123.0702 123.8259 123.0118 123.0165 124.3119 111.0444 124.7242 123.3795 124.3946 123.6513 123.8938 124.3542 123.7508 122.0239 108.5120 112.3186 123.3925 119.3866 108.1211 106.4299 106.5424 105.7841 114.1095 123.3416 124.6854 124.4432 113.4348 123.9693 124.8981 125.2299 125.3645 125.5373 125.5364 123.7954 126.0886 125.9909 126.1425 126.2378 126.3706 126.4816 126.2914 127.2715 123.3058 105.3998 113.2398 110.0556 119.4425 125.4534 127.7079 127.7200
123.9900 123.8169 123.5339 123.6343 123.5218 123.4433 123.3543 123.2793 123.2067 123.1464 123.0836 123.0421 122.9931 122.9579 122.9571 122.8821 122.9087 123.0499 119.7710 120.2106 123.3872 119.5935 116.0467 124.0266 110.2965 123.6924 123.3447 118.3313 121.4256 104.3416 118.3308 105.8301 105.7052 103.7120 113.9141 109.3799 122.9461 124.4063 123.9939 124.0885 118.4318 125.4565 125.0674 125.0846 125.2186 125.2761 125.3066 124.1285 125.7230 125.8310 125.9822 126.1629 126.3516 126.9944 128.6623 120.5471 116.5030 116.3293 114.2963 117.9514 122.0760 128.3173 127.5685 127.7200
123.7600 126.5021 123.6399 123.3164 123.2622 123.1966 123.1205 123.0170 122.9559 122.8848 122.8285 122.7741 122.7341 122.6918 122.6643 122.6505 122.6404 122.6524 123.1357 123.4676 123.2456 116.0544 113.6310 129.9343 128.3373 122.6067 123.1404 123.7470 123.4356 116.8571 109.6169 103.4521 112.3178 107.8726 115.5919 105.8579 116.1375 122.6835 123.1887 124.3536 125.4358 124.6788 124.6484 124.9060 125.0452 125.0081 125.5295 126.2917 125.4755 125.7813 125.9469 125.7033 125.6818 126.1072 112.2990 109.4797 117.9165 117.9912 109.0373 111.8239 121.3762 127.3537 127.5182 127.5500
123.5200 123.8681 122.6641 124.0251 122.9426 123.0553 122.8565 122.7660 122.6953 122.6209 122.5622 122.5013 122.4564 122.4172 122.3880 122.3607 122.3498 122.3246 122.1693 123.9293 116.6615 113.5474 113.3014 120.7417 121.6623 122.7453 122.4948 119.9913 122.7575 125.5173 110.3344 113.0439 106.1014 115.4567 126.4126 114.1206 124.7015 123.7527 124.6843 124.1846 124.3544 124.4417 124.6112 124.7526 124.8375 125.1676 123.5120 118.8308 126.0805 125.5111 125.7452 125.1801 127.2575 127.2332 116.9222 113.9353 108.5771 111.9669 114.8687 115.0115 126.9404 127.0948 127.4357 127.4100
123.2700 122.8888 123.2953 124.4708 123.9125 124.0424 122.6249 122.5085 122.4229 122.3444 122.2852 122.2200 122.1764 122.1256 122.0939 122.0716 122.0661 122.0732 121.9960 122.0226 118.4894 107.6604 114.0864 123.4073 122.4492 122.3865 122.5050 123.1362 122.8254 116.5493 103.3749 116.0596 101.0766 120.3198 121.8956 124.4238 123.7120 123.6853 123.9366 124.8460 124.0516 124.2986 124.4229 124.5739 124.7554 124.7205 125.0680 123.9228 125.3207 125.4148 125.5281 129.4052 109.1156 112.1992 112.3792 112.7492 109.5263 115.1348 115.4930 111.4247 128.5152 127.0524 127.2843 127.3800
123.0000 122.9665 118.8622 119.1485 122.4268 122.3588 122.3947 122.2386 122.1487 122.0650 121.9978 121.9342 121.8767 121.8316 121.8018 121.7749 121.7632 121.7599 121.8114 121.7504 123.4217 113.7171 114.9327 122.3114 122.1469 122.0734 122.6671 119.9042 103.5567 106.0138 106.8567 103.1211 115.4738 100.1998 103.7311 121.6539 123.2774 124.2359 121.3583 124.9338 123.8526 124.0632 124.3219 124.4242 124.5206 124.7450 124.7928 125.0609 125.1105 125.2427 126.5283 108.2867 111.4463 116.6264 108.7367 114.7367 123.9276 108.4708 119.0783 127.1493 126.9448 127.1076 127.2401 127.3400
122.7500 122.6822 121.5284 122.9195 122.3238 122.1702 122.0575 121.9574 121.8633 121.7816 121.7011 121.6382 121.5764 121.5256 121.4941 121.4675 121.4492 121.4441 121.4640 121.4335 121.1962 128.1114 117.2452 121.8076 122.5141 121.7746 121.9547 117.5410 106.4430 114.6461 133.0629 122.2015 117.6311 106.3242 120.6124 123.9158 123.1708 123.2344 123.3717 123.8421 123.7944 122.9674 123.9733 124.2710 123.6530 124.6057 124.6946 124.8953 124.6239 125.9031 110.7236 113.9093 104.0723 123.3703 125.9589 106.0090 124.8620 118.1461 127.6744 126.2418 126.8724 126.8808 127.3091 127.2100
122.4700 122.3779 122.3803 122.0859 121.9273 121.9766 121.7436 121.6539 121.5760 121.4738 121.3964 121.3229 121.2622 121.2107 121.1687 121.1470 121.1296 121.1275 121.1434 121.1844 120.3771 121.7836 126.8047 120.8008 121.4019 121.5010 121.5019 122.4407 109.1753 107.7543 99.7752 124.2652 115.6003 115.9682 123.0901 122.4440 122.9487 123.6931 122.9394 121.5681 123.6861 123.7800 123.9668 124.0906 124.2270 124.4123 124.5606 124.7355 125.3063 125.5024 121.7331 111.7480 127.7094 121.6014 123.0020 110.6794 116.6595 120.2354 126.9895 126.6514 126.8167 125.2874 128.4169 131.5700
122.1900 122.3273 122.0178 121.9007 121.8042 121.2971 121.6820 121.6177 121.2845 121.1625 121.0906 121.0068 120.9404 120.8826 120.8459 120.8184 120.7957 120.7885 120.8092 120.8126 120.7974 121.7921 120.9915 120.9918 121.0024 121.4219 121.3949 122.0800 115.5160 128.4562 122.3915 123.2604 120.7221 122.1550 122.5729 122.7416 122.7955 125.3284 111.7279 112.2443 124.3763 123.4199 123.7521 123.8899 124.0665 124.2453 124.4300 124.4174 124.5957 119.5817 125.7306 120.5609 125.0502 127.5352 113.2153 109.4427 121.1306 126.4942 126.2951 126.5351 126.6233 126.3810 126.8421 127.0300
122.1500 120.9879 121.7457 121.6219 121.5036 121.3353 119.4077 118.9581 120.7965 120.9277 120.7524 120.6814 120.5936 120.5451 120.4856 120.4761 120.4473 120.4499 120.3966 120.5290 118.7110 120.5848 120.4636 122.0186 121.0588 118.8189 120.8263 121.9675 119.9113 121.2900 121.4561 121.7338 121.9772 121.9750 122.1830 122.3723 122.0213 124.8715 109.5927 114.3348 122.7537 123.4505 123.5559 123.7348 123.9125 124.0814 124.3229 124.3816 124.3008 117.5795 127.2254 114.3668 126.5365 121.7310 117.3520 109.7348 106.5766 126.4158 126.1891 126.4038 126.6204 126.9197 127.6007 126.9900
110.0200 121.3832 121.7170 121.3282 121.1992 121.1722 120.2035 117.4751 121.4689 120.2886 120.4317 120.3305 120.2534 120.1923 120.1196 119.8263 120.0505 120.0730 120.0690 120.1407 120.1142 120.2162 121.6816 121.7268 120.5318 119.0149 121.0788 120.6967 121.2373 121.1078 121.2644 121.4844 121.5692 121.7657 121.9389 122.1049 122.3527 122.7805 113.2399 124.0901 122.8821 123.2079 123.3727 123.5699 123.7508 123.9338 124.1071 124.2524 125.0653 125.0286 124.4016 125.2607 127.5284 107.7876 109.7149 115.2116 110.4270 126.6762 126.1183 126.3166 126.4450 126.1787 128.7220 130.3000
121.5800 121.4297 121.1138 121.0772 120.8788 120.5008 120.9560 110.2397 118.7844 120.2327 120.0754 119.9753 119.8929 119.8340 119.6913 119.5410 118.5248 119.7128 119.7275 119.7263 119.7811 119.8813 120.2529 120.1226 119.8583 120.5595 120.3337 120.5070 120.6044 120.8235 120.9834 121.1462 121.3250 121.5074 121.6865 121.8868 122.1170 122.5870 123.3462 122.6942 122.5297 123.0574 123.2065 123.4028 123.5890 123.7807 123.9584 124.1609 124.2719 124.3476 125.6868 126.1977 110.0925 107.3114 103.5812 120.6586 116.3711 126.4901 126.0191 126.2238 126.4207 126.1326 132.3892 113.3300
106.1200 119.3569 120.9897 120.7701 120.5861 120.5375 120.5124 115.0386 121.5315 119.8268 119.7099 119.6048 119.5130 119.4380 119.3799 119.2706 119.0341 119.1133 119.2508 119.3567 119.3985 119.3691 120.4053 120.3674 121.2297 119.3449 120.0223 120.2326 120.3582 120.4439 120.7013 120.8745 121.0605 121.2464 121.4415 121.6415 121.7262 123.0204 119.9375 121.4279 122.7490 122.8083 123.0411 123.2357 123.4254 123.6247 123.8189 123.9988 124.2007 124.9785 116.1089 124.7775 124.4686 121.9337 121.8351 126.6699 124.3087 125.9209 125.9678 126.1376 126.3074 126.5708 121.5477 128.6400
127.6300 121.8624 120.5292 120.5130 120.2831 120.1381 122.4835 108.3679 118.7632 117.5015 119.3013 119.2247 119.1166 119.0349 118.9653 118.8234 120.6197 120.4061 118.7382 118.9814 118.6475 119.7302 113.1724 108.5182 114.5152 121.6699 119.5986 119.8917 120.0071 120.2893 120.0876 120.5761 120.7861 120.9799 121.1953 121.4077 121.5837 121.8485 128.7001 122.8990 122.5173 122.6508 122.8611 123.0683 123.2701 123.4707 123.6696 123.9043 123.8092 125.1787 110.5213 126.6571 124.8702 125.2104 125.0508 122.3994 125.6773 125.6573 125.8909 126.0484 126.3823 126.0929 123.7172 114.1200
120.6300 120.2313 120.4896 120.1703 119.9842 119.8544 120.1647 113.6299 120.3405 118.6302 119.0045 118.8149 118.7036 118.6125 118.5324 118.4927 118.8453 119.8614 118.5503 118.1457 116.0832 119.0081 114.0954 111.0151 106.9953 112.8111 119.3123 119.3474 119.7309 119.9255 119.8975 120.5578 120.4678 120.7195 120.9333 121.1852 121.3645 121.5584 121.9278 121.7776 122.2337 122.4797 122.6876 122.8982 123.1174 123.3205 123.5293 123.7422 123.9629 122.2956 112.0756 124.0054 124.6758 124.7835 124.9846 124.6995 125.5102 125.6479 125.8009 125.9745 126.1062 127.9444 126.5081 126.8000
120.5200 120.2508 120.1144 119.8762 119.6730 119.4535 119.1552 118.7148 119.9522 118.9309 118.5097 118.3997 118.2727 118.1748 118.0963 118.0320 117.9730 117.7551 118.1015 118.7882 115.5884 117.0223 119.1742 118.2539 115.7795 116.2170 119.5580 119.3130 119.2219 119.8422 119.2803 120.1319 120.1925 120.4560 120.6756 120.9388 120.9211 121.3897 121.4718 121.9111 122.0560 122.2985 122.5177 122.7406 122.9569 123.1722 123.3890 123.6074 123.7688 123.7923 128.7289 125.6368 124.6367 124.7188 125.4493 121.4001 125.7544 125.5133 125.7181 125.8926 126.0674 126.3451 126.3497 126.5600
120.2000 120.0782 119.7987 119.5825 119.3244 119.1048 118.9066 118.7437 116.9790 118.2663 118.1215 117.9589 117.8212 117.7118 117.6231 117.5646 117.5269 117.5377 117.5959 117.2166 119.7210 118.1626 118.4387 103.3800 104.7433 99.3986 109.5442 118.7736 119.3575 119.1092 119.4540 119.6774 119.9348 120.1812 120.4210 120.6059 121.3314 119.5938 121.9647 121.6432 121.8825 122.1197 122.3528 122.5761 122.8100 123.0361 123.2487 123.4689 123.6868 123.8212 123.8643 119.4084 124.7584 124.7270 124.9761 125.0542 125.2531 125.4645 125.6342 125.8121 125.9998 126.1672 126.3631 126.4100
119.8100 119.7692 119.5280 119.2360 119.0158 118.7470 118.4559 118.1865 118.0362 117.9270 117.6539 117.4973 117.3419 117.2194 117.1227 117.0540 117.0165 116.9999 117.1520 116.8329 118.8472 116.9350 114.4286 112.2227 120.3310 125.6334 120.1846 114.4006 118.3345 118.8806 119.1248 119.3890 119.6447 119.8682 120.1803 120.2524 122.0397 121.7380 121.1021 121.5166 121.6899 121.9435 122.1883 122.4230 122.6588 122.8925 123.1141 123.3395 123.5657 123.7543 124.3823 124.5112 125.0793 123.2776 124.7959 124.9911 125.1810 125.3756 125.5597 125.7382 125.9143 126.0969 126.2897 126.3800
119.7700 119.4944 119.2027 118.9576 118.2075 120.0092 118.2220 117.9079 117.6395 117.4071 117.2103 117.0132 116.8431 116.7099 116.5972 116.5113 116.4708 116.4543 116.6130 116.7888 120.6213 116.5393 118.7744 117.7883 116.3856 118.0375 115.3901 110.7150 115.0009 119.0528 118.7618 119.0820 119.2551 119.6331 120.3023 120.4861 120.5172 120.7721 120.4795 121.1628 121.4817 121.7286 122.0345 122.2461 122.4881 122.7512 122.9855 123.2139 123.4381 123.6708 123.9372 123.6058 128.3711 118.3344 124.8736 124.9687 125.1075 125.2981 125.4846 125.6671 125.8518 126.0202 126.1174 126.3600
119.3900 119.2054 118.8838 118.6893 118.3185 125.0834 117.2678 117.5016 117.2068 116.9539 116.7200 116.5053 116.3210 116.1515 116.0259 115.9472 115.8702 115.8730 116.0461 115.2633 115.8749 116.1564 115.4220 116.1958 117.0546 116.5166 110.8654 110.9043 118.3323 118.2402 118.4585 118.7708 119.1752 120.0180 115.1212 121.6337 115.1047 121.5628 121.7521 121.5063 121.2566 121.8333 121.9064 122.1408 122.5892 122.6133 122.8571 123.0951 123.3268 123.6089 123.7746 124.3524 124.3635 126.0606 124.8440 124.7565 124.9696 125.2005 125.4163 125.6033 125.7864 125.9901 126.4309 126.3300
119.3100 118.9268 118.8149 117.7882 117.5267 117.4136 117.3364 117.0982 116.7425 116.4705 116.2084 115.9628 115.7549 115.6000 115.4967 115.3419 115.5287 115.4528 114.3930 125.3178 116.8379 115.6273 116.0809 116.4078 115.8563 117.9404 104.5515 118.6468 117.5315 117.8274 118.1438 118.3553 118.6287 111.9199 113.8907 119.9579 110.2363 113.2811 115.4588 118.5610 116.6898 122.3495 121.3784 122.0653 122.4497 122.4868 122.7326 122.9834 123.2875 123.3780 123.3618 124.8782 125.2119 120.2486 124.5625 124.5578 125.1105 125.0194 125.3532 125.5333 125.6976 125.8923 128.0223 133.1400
118.8500 118.6164 117.7111 116.7175 117.7146 117.3175 117.0105 116.5939 116.2900 115.9689 115.6645 115.4130 115.1690 114.9142 114.6381 114.7954 113.0258 113.1241 113.5642 105.0059 116.3267 115.0917 114.6487 117.4749 109.5044 107.8763 110.1684 116.4779 116.6572 117.5067 117.8066 117.9986 119.3261 109.6937 119.5703 117.5958 120.2394 114.3961 114.3628 122.4330 116.0331 120.7966 121.4321 121.8314 122.0129 122.3604 122.6302 122.8308 123.1081 123.9888 125.8024 115.1326 118.1904 118.7603 122.8832 124.9321 121.9120 125.3358 125.2872 125.4744 125.6525 125.8990 125.7972 126.1400
118.8500 119.8632 117.9094 117.5560 117.2613 116.9086 116.5230 116.1642 115.7903 115.4451 115.2390 114.8174 114.4772 114.2685 114.8770 113.1230 111.1098 107.3232 113.7544 115.3173 114.1392 119.0529 114.2696 116.2644 117.9557 116.2726 115.7280 116.4469 117.8438 117.0103 117.5222 118.1869 119.7924 112.4062 110.4674 120.0666 119.3826 120.3001 121.1395 123.7536 120.2690 120.4546 121.3039 121.7244 121.9929 122.2447 122.4928 123.0211 122.9898 123.8566 112.4505 118.0031 116.8776 117.4427 118.3756 123.8511 118.8280 123.0994 125.1687 125.4069 125.6149 125.8317 126.1203 126.1200
118.3700 113.5232 117.7041 117.6847 116.7446 116.4905 116.1130 115.7011 115.3088 114.9534 114.0194 114.6219 113.8584 112.3487 113.9158 105.8473 105.5125 105.9720 112.9423 113.1922 113.1444 113.6654 113.8191 113.7992 112.2289 111.2705 115.4973 115.0369 115.6652 116.7640 117.1626 117.8041 118.2200 115.8582 110.2774 111.7385 118.7689 119.5001 119.9961 117.2726 120.6624 121.2610 121.3564 121.5765 121.8564 122.1303 122.4039 122.8493 123.4830 125.7324 108.9322 113.8884 111.3587 112.7287 117.9814 124.6464 116.0168 110.5500 125.5780 125.4093 125.5305 125.7465 125.7771 126.1000
117.9800 118.3836 117.6244 116.3846 115.6037 116.2688 115.6814 115.3226 114.6650 114.5611 112.5687 113.6907 113.1695 113.4597 105.4696 113.2529 115.3369 105.5770 112.0604 112.4412 112.7477 112.8476 114.3640 114.2504 113.4783 115.0218 114.6799 121.1696 115.4895 116.4103 116.7536 117.1537 117.7404 117.0326 117.8556 120.1795 119.3645 119.4552 119.8710 119.8648 120.5574 120.5315 120.9113 121.4922 121.7431 122.0152 122.3146 122.2946 115.9219 126.5942 111.7283 116.1308 116.0592 121.0923 124.2770 124.9793 122.1269 133.8688 124.2562 125.3213 125.6336 125.5934 128.9579 125.9600
117.8900 117.5415 117.1025 116.6466 115.8852 115.7222 115.4130 113.7022 117.0127 116.3416 111.4399 112.6698 112.3201 112.2764 105.3819 111.9223 110.5863 112.4418 111.3512 111.5280 111.8256 112.1070 114.0348 112.8530 113.7094 114.0227 114.5172 114.9009 115.4090 115.9450 116.4776 116.9229 117.4140 117.3905 118.1018 118.3572 118.7510 119.3363 119.7721 120.0760 120.3504 122.9633 121.4633 121.4522 121.6251 121.9429 122.8246 129.4108 106.0752 109.9909 108.3447 107.2579 114.9729 123.6615 123.4600 124.3427 125.0391 125.3205 125.1424 125.0808 125.4132 125.7055 125.9202 125.9400
117.4800 117.3309 116.8683 116.3811 115.9463 115.3836 114.8583 114.1588 114.8819 113.0842 112.4235 112.2504 111.5822 111.1135 110.6785 116.8779 110.1034 110.0273 110.2753 110.5155 110.9074 111.3063 111.8077 112.3320 112.9287 113.4730 114.0381 114.5393 115.2097 115.6420 116.1499 116.6367 117.0998 117.5416 118.6289 125.0032 112.1675 119.7612 119.5742 119.9042 120.2938 120.7382 120.8595 121.2343 121.6539 121.7642 121.6979 123.9934 109.4938 119.2688 115.3393 119.2078 116.0052 124.6137 123.9195 124.3484 124.5912 124.7894 125.1462 125.4866 125.7024 125.5654 125.8196 125.9200
117.3900 117.1025 116.6132 116.1177 115.5837 115.0434 114.4377 113.9932 113.1644 112.7283 111.9405 111.3097 110.6579 110.1369 109.6799 108.3904 108.6376 108.9262 109.0726 109.3866 109.8333 110.3923 110.9915 111.6436 112.2811 112.9256 113.5639 114.1655 114.7530 115.3257 115.8532 116.3660 116.8546 117.3439 117.6828 118.0851 122.2560 118.5842 119.4576 119.7907 120.1703 120.4981 120.8657 121.3178 119.8538 123.3803 111.9118 112.7458 123.0607 116.7427 117.0231 114.8998 120.7748 122.5523 119.8372 124.3756 124.6585 124.9230 128.6866 110.1843 126.4672 125.3112 125.6870 125.9100
117.3100 116.8961 116.3809 115.8532 115.2910 114.6951 114.0771 113.4104 112.7289 112.0002 111.2745 110.5179 109.7764 108.8261 107.9483 107.9913 107.5873 107.4712 107.6704 108.0973 108.6946 109.3849 110.1383 110.9008 111.6536 112.3849 113.0882 113.7510 114.4027 114.9998 115.5727 116.1108 116.6032 117.1007 118.0030 118.2039 118.2232 118.9653 119.2959 119.7008 120.1129 120.9019 120.5187 119.4632 104.2210 116.7183 115.8135 109.8347 120.3293 123.7695 115.8453 115.5623 117.1868 116.8169 120.5416 124.3850 124.5754 124.3524 124.8059 125.8571 125.2426 125.6040 126.3252 125.9000
116.8900 116.7049 116.1762 115.6117 115.0205 114.3948 113.7268 113.0223 112.2555 111.4514 110.5967 109.7103 108.7623 108.1459 106.8960 106.2684 105.8357 105.7419 106.0263 106.6340 107.4202 108.3289 109.2470 110.1540 111.0308 111.8608 112.6406 113.3839 113.9207 114.7205 115.3437 116.0186 116.6741 119.4716 117.1575 118.1464 118.7026 118.7402 119.1839 119.6411 120.6708 120.6328 120.1190 119.7567 115.3710 113.9115 110.3884 119.2775 118.0908 121.0751 116.7727 117.1656 124.7041 124.7865 124.3740 124.2596 124.4825 124.7574 124.8408 124.9202 125.3356 125.0662 130.1758 125.8900
116.8300 116.5436 115.9956 115.4077 114.7840 114.1188 113.4048 112.6397 111.8114 110.9132 109.9489 108.9032 107.7944 106.6133 105.4572 104.3981 103.7259 103.5654 104.0140 104.9266 106.0383 107.2083 108.3516 109.4316 110.4403 111.3752 112.2242 113.0683 113.4179 114.4864 114.9874 114.9291 115.3624 112.6285 101.3143 114.1468 118.6148 118.9133 119.1109 119.5419 119.7022 119.8924 123.3723 130.8275 120.0286 113.7783 123.5734 122.8347 126.3452 123.2156 125.3179 123.9358 123.3075 123.5096 123.9103 124.2240 124.4504 124.6738 124.9343 125.1503 125.3264 125.4314 126.4138 125.8800
116.7700 116.4166 115.8404 115.2413 114.5875 113.8940 113.1406 112.3190 111.4215 110.4399 109.3559 108.1478 106.8029 105.3156 103.7311 102.1543 100.9766 100.6912 101.4656 102.9296 104.5337 106.0789 107.4933 108.7640 109.9130 110.9442 111.8852 112.7486 113.5727 114.2638 113.6989 120.7843 103.1553 110.3638 111.3364 110.0012 113.2216 119.2416 119.0160 119.4549 119.8715 120.1094 119.5400 119.4674 122.3644 122.3480 123.7917 122.0948 115.8636 115.1340 116.0345 124.0335 123.5610 123.7566 123.9850 124.2015 124.4341 124.6460 124.8493 125.0567 125.3016 126.6753 126.0041 125.8700
116.7000 116.3107 115.7277 115.1076 114.4367 113.7111 112.9262 112.0681 111.1153 110.0530 108.8555 107.5008 105.9104 104.0650 101.8685 99.4444 96.9286 96.1691 98.1795 100.6335 103.0145 105.0327 106.7305 108.1985 109.4723 110.5966 111.5986 112.4975 113.3402 114.0090 116.3357 114.8375 98.4233 114.4826 111.9094 110.7157 112.0272 118.3922 118.9548 119.3865 119.7359 120.1399 120.9163 121.9084 120.9507 121.6910 125.9671 119.5384 121.5701 110.4321 111.0889 124.3377 123.4877 123.6829 123.9468 124.1806 124.4136 124.6336 124.8575 125.0558 125.3237 125.3823 126.4377 125.8500
116.6700 116.2439 115.6495 115.0201 114.3281 113.5897 112.7820 111.8844 110.8941 109.7750 108.5019 107.0091 105.2288 103.0292 100.1229 96.0876 90.5866 89.5513 92.9582 98.4555 101.6766 104.1796 106.1586 107.7868 109.1591 110.3568 111.4110 112.3508 113.2058 114.1957 117.5553 113.1587 114.2563 109.3212 115.7362 112.6974 118.9639 119.2861 119.0559 119.3673 119.8106 120.9555 116.0127 120.5038 120.6168 121.0045 130.0415 117.3343 109.0001 112.2681 117.3535 122.2878 123.4132 123.7301 123.9366 124.1727 124.3981 124.6260 124.8434 125.0508 125.2841 125.5896 125.7834 125.8500
116.6600 116.2151 115.6148 114.9732 114.2849 113.5326 112.7100 111.8043 110.7872 109.6461 108.3163 106.7549 104.8632 102.4324 99.0334 93.0987 86.1108 84.7530 88.9526 96.7931 100.9046 103.7371 105.8562 107.5732 109.0022 110.2400 111.3069 112.2538 113.1164 113.8862 116.7211 116.7782 116.3779 117.4447 117.2162 115.0273 118.4446 111.0841 119.2383 119.3593 119.8179 122.7696 114.5700 122.3347 122.6810 122.5370 125.6436 116.3984 110.4797 113.5178 122.8967 120.0388 123.0387 123.5872 123.9548 124.1624 124.3946 124.6228 124.8402 125.0492 125.2426 125.4038 125.5475 125.8500
116.6600 116.2189 115.6191 114.9757 114.2879 113.5365 112.7154 111.8123 110.7997 109.6380 108.3408 106.7895 104.8880 102.4881 99.1541 93.5200 86.7364 85.3720 89.3650 96.9466 100.9097 103.7087 105.8986 107.5930 109.0150 110.2463 111.3618 112.3499 113.1295 113.9386 114.5122 114.9711 115.8379 116.3145 116.7704 116.5565 118.1361 116.9709 119.1876 119.3876 119.7683 120.5493 113.9087 114.7647 105.1965 108.7266 110.1452 121.4912 112.2386 114.2907 113.3156 121.4071 124.1168 124.1800 123.8341 124.1715 124.3947 124.6228 124.8450 125.0461 125.2100 125.5021 125.7774 125.8500
116.6700 116.2558 115.6635 115.0299 114.3458 113.6121 112.7979 111.9057 110.9298 109.8575 108.5232 107.0509 105.3487 103.1566 100.4471 96.3751 91.5275 90.4784 93.9844 98.6461 101.9366 104.5821 106.2221 107.8348 109.2001 110.3824 111.5727 111.1730 113.3501 113.9801 114.6732 115.2928 115.8151 117.0814 117.6813 117.3987 118.0129 118.6626 119.0038 119.4107 119.6544 119.8746 123.9843 125.9492 119.2958 109.0909 109.8508 110.2278 120.9440 116.1252 135.5981 115.2329 113.9021 114.6277 124.3582 124.5855 124.4251 124.6356 124.8538 125.1238 125.1666 124.6294 124.2223 125.8500
116.7000 116.3247 115.7438 115.1233 114.4611 113.7354 112.9649 112.1018 111.1748 110.2310 109.1226 107.9494 105.8294 104.2991 102.2164 100.1075 97.7960 97.1434 98.7798 101.3085 100.1634 103.6342 106.7455 108.3242 109.5454 110.6476 111.6329 112.5465 113.3885 114.1102 114.7469 115.4507 115.8856 118.2879 103.9414 106.1458 118.9037 118.0689 119.0098 122.1123 120.6708 120.3632 120.1621 124.2295 122.3863 107.9833 109.8207 122.5776 114.6812 113.1295 124.8351 122.9377 123.8821 118.4755 118.9924 125.9935 124.4387 124.7609 124.8617 125.3197 122.2488 125.8669 125.5413 125.8500
116.7300 116.4351 115.8673 115.2642 114.6255 113.9380 113.2331 112.6535 111.4437 108.4798 103.2021 109.1774 106.6648 105.6969 103.9975 102.5793 101.4703 101.2176 101.9377 103.2941 104.7723 104.0115 107.7834 108.8731 110.0069 111.0167 111.9401 112.7817 113.5536 114.2588 114.7823 115.6201 107.6019 117.0352 118.0623 117.2691 119.0570 118.5259 119.5024 119.2454 119.6371 120.3612 120.3043 124.0005 106.1281 120.6341 102.4376 122.6067 122.3905 123.5770 123.8517 123.2993 123.2783 123.9553 124.4815 124.1440 124.2725 124.6961 124.8648 125.0529 125.5422 125.6738 126.0876 125.8500
116.7700 116.5719 116.0282 115.4483 114.8325 114.1384 113.2216 110.6784 108.8139 94.3176 110.0689 100.5259 108.7388 106.7717 105.8090 104.7659 104.1082 103.9672 104.3880 105.2328 106.2634 107.5132 108.4618 109.5016 110.4521 111.4566 112.3016 113.0886 113.8322 114.3959 115.1993 115.9537 117.9015 112.1605 104.7954 102.5638 119.5711 118.6986 119.5408 121.4316 119.8205 122.7158 117.6106 118.4225 122.4748 107.6764 106.8587 122.5658 119.7639 121.1686 120.9047 121.8338 123.5652 123.7234 123.8838 124.2164 124.4957 124.6942 124.8993 125.1588 125.2272 126.6113 122.8183 125.8600
117.1900 116.7418 116.2087 115.6518 115.1131 114.4129 111.9659 101.5780 111.5272 112.7317 112.1635 110.2179 108.9552 107.9702 107.2537 106.5780 106.1379 106.0470 106.3197 106.8949 107.6641 108.5255 109.4258 110.5366 111.3937 111.9653 112.7088 113.4359 114.1334 114.6275 115.0496 114.7547 116.5227 118.4781 104.8933 100.5725 120.9224 118.5405 119.6379 120.6807 120.4959 122.0416 104.8494 112.9563 120.2946 113.9573 114.7781 120.2546 108.7684 114.3020 114.5698 115.5636 124.0606 123.7916 124.0214 124.2503 124.4744 124.7035 124.9357 124.9073 125.2000 127.8931 119.3758 110.8600
117.2500 116.9329 116.4259 115.9027 115.3545 114.7219 112.6659 105.4427 103.9701 112.1656 111.1288 110.5484 109.9356 109.2187 108.5991 108.1009 107.8003 107.7779 107.9227 108.3293 108.8958 109.5767 110.2878 105.6745 111.6288 112.3443 113.1710 113.8282 114.4545 115.0682 115.7910 116.0826 116.3044 115.0172 101.4497 98.5568 108.5653 119.2508 118.7462 113.1776 116.9164 106.2638 106.5851 108.3654 110.0468 113.7806 120.9095 113.5404 123.6637 114.6678 116.3674 116.7898 124.2522 123.7615 124.2170 124.4183 124.5131 124.7416 125.0009 125.1987 127.9865 118.3027 126.8397 125.8700
117.3100 117.1395 116.6609 116.1594 115.6477 115.1818 111.3830 111.0489 108.7776 113.2934 111.9857 111.4473 110.8463 110.2779 109.7853 109.4052 109.1469 108.7621 109.2692 109.5806 110.0238 110.5558 111.1116 113.2872 112.9050 112.9940 113.6522 114.2385 114.8266 115.3308 115.8038 116.4450 116.7469 117.1178 117.7575 110.4460 93.0256 120.5158 121.7241 108.5121 110.4704 96.0691 106.2911 104.2462 101.5080 113.2039 115.9926 122.9016 131.1102 122.1738 111.9229 106.3984 119.3259 124.0931 123.3745 123.6817 124.5650 124.7652 124.9579 125.0460 130.3051 112.2169 127.7254 125.8800
117.8000 117.3712 116.9185 116.4522 115.9654 115.3905 115.5774 115.5099 113.8234 113.2474 112.7083 112.2104 111.7143 111.2475 110.8563 110.5733 110.7973 112.7079 110.4465 110.6941 111.0410 111.4685 111.9993 112.5013 113.0419 113.5731 114.1253 114.6669 115.2042 115.7584 115.9905 116.9461 117.5787 117.4772 121.6537 122.5630 101.1932 108.6960 108.1056 104.5986 109.0912 101.8810 97.6461 96.1981 112.1518 117.6603 122.8113 122.4975 123.7987 134.0789 122.1515 109.2189 109.6628 124.3650 124.7933 128.3658 124.4000 124.8139 125.1622 125.1789 126.2087 108.0499 121.4374 125.9000
117.8900 117.6166 117.1910 116.7472 116.2861 115.8183 115.2918 114.7843 114.3541 113.8876 113.4693 112.9834 112.4970 112.1356 111.8658 111.7457 106.7320 98.7945 112.0518 111.6655 111.9600 112.3146 112.7198 113.1756 113.6533 114.1261 114.6187 115.1269 115.4085 116.3952 113.8873 115.5691 119.0839 107.3597 120.3079 126.5192 105.5043 104.4442 108.5423 124.3321 108.5972 103.4402 103.2126 102.2897 123.9321 123.5266 123.7050 122.5611 124.1470 116.0472 124.5596 117.8399 112.2055 124.4111 120.0672 129.4589 125.3765 124.6336 124.7971 125.9448 125.7365 121.8007 121.9029 126.0500
118.2800 117.8717 117.4709 117.0580 116.6354 116.2123 115.7956 115.3504 114.9314 114.3257 113.9623 113.5729 113.3487 112.9291 112.7353 112.7098 104.2506 104.7239 112.8232 112.5931 112.8060 113.1072 113.4504 113.8294 114.2447 114.6738 115.1117 115.5525 115.9838 116.5161 114.7246 116.7815 115.2877 98.8272 105.3171 105.2032 103.7898 102.7263 107.2806 113.0640 123.8770 117.0755 105.1778 104.3994 107.8607 116.5906 107.3434 120.0118 122.7045 110.6013 100.0850 112.9859 114.1139 116.1756 106.0238 116.9648 117.5301 125.8098 126.0015 128.4942 126.6278 126.5369 126.6157 126.0600
118.3800 118.1397 117.7622 117.3758 116.9835 116.5742 116.1935 115.6201 115.3291 115.7011 114.1980 116.0066 113.6991 113.7638 113.5098 113.3604 115.9810 117.3890 113.4032 113.4048 113.5781 113.8451 114.1290 114.4675 114.8192 115.1990 115.5781 115.9775 116.4311 116.7638 117.1061 117.2936 125.8975 116.8546 114.6017 106.1897 105.1647 120.7811 119.2033 114.9540 109.4902 116.0638 121.3847 110.3158 104.3008 104.0977 109.8880 122.3310 123.2820 119.5503 118.1481 123.4731 123.7318 121.7417 112.6245 124.1887 123.5378 125.5398 115.1951 118.7568 117.8281 123.7732 125.9101 126.0700
118.7500 118.4195 118.0576 117.6916 117.3402 116.9654 116.5816 116.4697 116.0683 99.0154 95.6798 111.4567 115.3268 114.5459 114.2847 114.8289 102.3763 93.4828 115.6232 114.1012 114.2999 114.5271 114.7759 115.0663 115.3784 115.7135 116.0482 116.4504 116.6758 117.5449 116.7344 114.5389 112.1463 108.7235 120.7764 106.8025 120.6205 119.8199 120.2284 120.5664 120.6203 121.8539 109.4840 106.0766 113.2080 122.7291 122.4857 122.7083 124.0530 111.6240 115.8244 104.5576 125.1046 123.8470 124.4708 124.6821 124.8030 125.0492 130.7704 126.1553 126.1229 125.8202 126.0582 126.0900
118.8500 118.6948 118.3605 118.0210 117.6641 117.4869 116.9663 116.8137 116.5226 107.6348 115.1303 100.2871 116.8350 114.9611 114.9454 114.9847 113.2897 113.3515 115.0222 114.8379 114.9633 115.1594 115.3739 115.5883 115.9381 116.1708 116.5633 116.7883 117.3174 116.8121 104.1841 105.3114 113.2064 119.9470 119.4238 119.2551 120.0413 120.1488 120.3974 120.0320 121.0435 122.2781 109.4210 101.0685 102.1354 121.6881 122.4553 122.8321 122.7989 126.0468 123.7391 125.2082 125.0508 124.1468 124.4175 124.6684 125.0952 124.6968 129.4749 133.6744 126.4175 125.2123 124.3320 126.1100
119.2100 118.9758 118.6580 118.3761 117.9146 117.9656 114.9699 118.7603 107.2633 107.4037 104.0036 91.1872 112.4739 115.6529 115.5760 115.3286 115.3997 115.3910 115.3472 115.5299 115.5902 115.7949 116.0250 116.3642 116.3317 116.8670 116.8429 116.9474 115.7604 101.0493 103.4066 103.0923 95.5081 112.9189 118.9192 119.6329 119.9562 120.4537 120.2723 125.3437 120.9907 119.3497 125.8170 123.4776 101.1797 127.2985 121.9539 123.0643 123.4132 123.7666 123.5473 123.6566 123.9865 124.3742 124.5976 124.7656 121.8575 125.5868 124.9471 125.3289 119.2708 112.5408 116.5435 126.2500
119.3200 119.2582 118.9570 118.6790 118.2787 119.4595 102.5332 111.6415 106.6893 105.9345 103.4190 103.0613 117.7560 115.9927 116.1719 116.1059 116.0463 116.0010 115.9040 115.8419 116.1853 116.3342 116.3034 115.5157 117.2584 116.8239 121.1535 119.6697 103.0526 105.2939 107.1719 110.5201 101.7226 118.1021 119.9045 120.0931 120.2374 120.5541 120.7529 121.5213 122.6035 119.5468 122.6138 111.0002 111.3002 124.0249 122.7516 123.0767 123.0823 123.4545 123.8576 124.0989 124.3025 124.3607 124.4550 124.5949 119.1433 120.6986 125.4180 125.7394 126.3282 125.6364 110.7390 111.1400
119.6600 119.5399 119.2671 118.9949 118.6958 118.4778 108.5226 114.6340 118.6758 113.4633 99.2252 111.7233 116.8337 116.9357 116.6564 116.5898 116.5392 116.5268 117.1615 118.4469 115.9443 115.9746 121.1473 119.3682 117.2412 120.4404 111.5009 107.9063 116.8931 110.1441 104.9788 102.6425 100.8100 99.6238 113.1068 119.8246 121.1203 120.4151 121.0610 118.3882 114.2218 113.0271 116.9967 105.7820 120.8088 122.4923 123.1836 123.2111 123.5527 123.7438 123.9070 124.0827 124.3801 124.4533 125.2870 124.6090 130.6083 111.1987 117.8483 126.2119 125.4260 131.8902 117.8674 111.6700
120.1000 119.8244 119.5685 119.2907 119.0134 119.2378 118.0840 117.8706 118.0734 119.3598 115.2100 118.5722 117.4476 117.3145 117.2120 117.1431 117.1058 117.0746 117.2858 108.8996 112.3836 109.6648 102.7496 106.9570 119.1022 118.3605 117.9795 112.0171 102.4326 104.3438 109.7948 108.4788 102.0823 112.1694 119.3442 112.5967 126.3499 109.7101 116.2409 114.3338 103.0153 122.2554 119.4112 105.0305 114.8020 122.7805 123.2438 123.3482 123.5680 123.7915 124.0132 124.2046 124.4159 125.2023 114.1554 125.8265 124.4969 123.7705 115.1397 126.3289 125.9381 125.7927 116.6138 134.7100
120.4200 120.1033 119.8646 119.6310 119.5667 118.2275 118.8330 118.7085 118.5651 118.2215 118.4247 117.9210 117.9352 117.8101 117.6838 117.6312 117.5925 117.5518 117.3538 113.7443 118.6463 119.6032 109.1130 91.8477 121.5178 114.9774 127.2651 103.5751 103.1193 103.4784 110.4596 98.1636 102.8595 118.0175 117.6523 106.5849 110.9899 107.1084 110.9553 123.3896 105.0806 107.9446 111.1321 118.4937 109.8165 123.5753 123.0479 123.5244 123.7038 123.9142 124.1174 124.3094 124.5435 124.8622 116.6130 125.0682 124.9953 125.6100 127.5034 126.2130 126.0928 126.0461 123.0098 113.1600
120.4700 120.3797 120.1571 119.9415 119.2584 117.6564 119.3683 119.0845 118.9282 118.7762 118.5889 118.5163 118.1228 118.0937 118.1971 118.1196 118.0681 118.0170 120.8810 117.4435 103.5531 118.5201 120.4700 108.3498 120.3469 113.9011 125.0244 120.7576 104.7709 99.2279 119.1093 108.9832 109.7010 119.1808 115.6653 111.4248 103.9884 105.7097 104.5884 121.9057 116.8533 109.3132 109.2676 116.3163 122.7709 123.4396 123.1765 123.6459 123.8198 124.0373 124.2349 124.4291 124.6263 124.7465 126.2531 126.0300 125.4420 125.5591 125.5237 125.7993 126.0255 125.7666 127.3234 126.5100
120.8300 120.6571 120.4467 120.2037 120.2986 120.3454 119.2024 119.5380 119.3092 119.1296 119.0904 118.7292 120.2352 119.7136 118.5263 118.5610 118.5285 118.5143 118.8740 119.1964 118.4331 119.9200 119.4366 120.0028 119.6938 117.5339 116.4541 105.8525 104.8770 103.7299 121.5740 106.4887 121.1248 121.8903 105.8553 114.3891 101.4578 107.2235 115.2256 122.5399 123.0464 117.5459 108.6315 121.6297 123.6432 117.1931 124.9102 123.6152 123.9574 124.1576 124.3528 124.5422 124.7354 124.9206 125.1050 125.2413 125.4701 125.6475 125.8884 125.7552 126.7083 127.4153 127.9446 125.4600
121.1300 120.9344 120.7289 120.6037 120.0436 123.1933 120.2812 119.8407 119.6754 119.5167 119.3736 121.2170 105.3578 117.1846 119.0018 119.0184 118.9762 118.9771 118.9805 118.9348 118.6490 118.3072 109.8803 120.4296 112.6437 135.6771 114.7505 99.0241 100.5206 108.3574 120.0915 121.4101 121.0737 122.0702 112.3224 106.8291 108.4278 109.4992 112.3803 123.3204 123.6140 123.8620 105.6968 124.3179 123.6675 114.6340 122.8607 123.7196 124.1377 124.2761 124.4763 124.6611 124.8465 125.0337 125.2010 125.4018 125.5654 125.7191 126.0181 125.8385 123.2987 124.8527 110.3191 112.0400
121.1700 121.1989 121.0077 120.8410 120.5345 120.4491 120.0730 120.2171 120.0252 119.8818 119.7826 120.3890 113.3853 119.0077 119.4438 119.3434 119.3114 119.2817 119.4444 119.4079 118.8033 108.4611 116.8234 121.2651 104.0336 112.2789 99.0387 107.2643 115.0500 112.3342 120.7050 120.8872 120.5862 121.5344 121.5640 120.5475 123.4927 122.2764 112.8422 110.0289 123.0578 117.9827 109.6485 121.6251 123.5680 123.2702 124.0569 123.9628 124.2288 124.4142 124.5921 124.7749 124.9567 125.1390 125.3095 125.4802 125.6589 125.8319 125.9915 125.9281 127.3647 115.6551 109.2152 118.6400
121.4900 121.4634 121.2845 121.1098 120.9568 120.8063 120.6716 120.5006 120.3688 120.2345 120.1242 119.8995 121.3659 119.8495 119.5653 119.9353 119.8451 120.1160 119.7992 119.8462 114.3797 109.5298 109.2171 110.7356 117.4074 103.6416 107.3108 102.9575 122.3522 121.0815 120.8640 120.8577 123.4251 134.0217 121.3894 121.6232 123.4435 115.2392 104.8198 117.1719 118.6597 112.5437 112.3188 106.4721 115.4815 123.6866 123.9516 124.1859 124.3538 124.5421 124.7216 124.8976 125.0709 125.2433 125.4134 125.5830 125.7560 125.9165 126.0770 126.2761 126.3569 128.1964 113.9952 109.4500
121.8000 121.7215 121.5596 121.3974 121.2392 121.0848 120.9402 120.8137 120.6951 120.5774 120.5009 120.4432 120.1704 120.7337 113.8079 121.2958 119.6720 119.5831 119.3619 120.3003 118.0291 99.7715 101.5163 109.9098 115.6603 115.3913 98.1429 106.1957 120.3343 121.0259 121.3511 121.5092 120.4332 130.4475 121.9356 122.1020 121.3235 104.5487 106.7563 109.1277 124.5651 120.4204 115.6372 112.4321 122.9568 123.9441 124.3257 124.3117 124.4978 124.6718 124.8445 125.0188 125.1861 125.3567 125.5204 125.6916 125.8592 126.0135 126.1764 126.4309 127.1789 125.2623 123.1422 129.7200
122.0600 121.9749 121.8203 121.6659 121.5232 121.3865 121.2483 121.1295 121.0155 120.9110 120.8078 120.6901 120.7563 121.2398 115.4945 117.2215 127.2526 129.2628 114.6929 119.3329 120.2019 119.2873 96.5020 118.1087 120.7819 111.8484 106.2917 115.4682 121.6523 121.4538 121.5846 121.6943 122.1025 122.0158 110.4990 109.0014 123.3719 124.3038 107.1422 109.3784 115.2875 119.1542 124.2291 121.2402 111.0232 122.5120 124.0756 124.4704 124.6301 124.8041 124.9708 125.1436 125.3072 125.4751 125.6320 125.7981 125.9589 126.1192 126.2093 126.4144 123.9380 127.9986 120.7305 112.4900
122.3900 122.2244 122.0776 121.9384 121.7982 121.6701 121.5435 121.4284 121.3171 121.2229 121.1363 121.0314 121.1015 121.9046 103.6760 107.0297 107.2744 99.9550 111.4801 122.1401 120.5572 121.4830 99.9511 117.6390 121.5901 118.9623 120.5031 105.0488 119.2300 121.8347 121.9176 121.9465 122.1698 122.7089 123.7402 125.4256 123.6528 119.8072 113.9047 110.8024 110.4838 118.9195 123.8115 118.1308 125.9237 125.7924 124.8027 124.6858 124.7874 124.9386 125.1009 125.2613 125.4255 125.5878 125.7440 125.9089 126.0651 126.2282 126.3131 126.1259 121.8756 124.3014 121.2506 129.7600
122.3900 122.2500 122.2500 122.0900 121.9300 121.9500 121.7900 121.6100 121.6100 121.4600 121.4600 121.2800 121.2800 121.0600 99.0800 121.0900 99.1100 99.1100 101.0600 121.0800 121.0700 121.2900 121.2900 121.2600 121.4400 121.4400 121.6300 106.6600 109.8200 121.9300 122.0900 122.2800 122.2800 122.4200 122.5800 122.7400 122.8900 123.0600 123.2300 115.0500 115.0500 115.1500 123.8000 124.0900 124.2300 111.8700 124.5100 124.6500 124.9200 125.0500 125.1800 125.3100 125.4400 125.6900 125.8100 125.9300 126.1800 126.2900 126.4100 126.5300 138.2100 104.8700 104.9700 120.0900
