123.2100 118.2000 119.1700 122.6800 122.5100 116.9400 116.8300 116.1700 121.8600 121.6200 121.4800 121.2400 121.0600 120.8900 120.8900 105.7400 120.4700 120.5300 110.6400 110.5500 120.0700 109.9600 120.1200 120.1500 120.1500 110.4400 120.1500 108.1100 101.8800 103.8400 107.3500 107.4200 107.2200 104.1300 103.3700 120.9100 120.9100 121.0900 121.2700 121.2700 121.6600 121.6200 122.0200 122.0200 122.1600 122.5600 122.5100 122.8600 123.0600 123.1800 123.3400 123.5100 123.6500 123.9600 124.1100 124.2600 124.4000 124.6800 108.3900 109.5100 115.4900 116.5100 114.3000 125.6200
123.1700 118.7576 118.8376 119.6719 117.6154 116.0672 116.1265 113.2867 122.3148 114.0725 119.2935 121.9349 120.6636 120.7662 124.0340 115.0853 121.3491 120.5021 110.9534 107.0630 118.2580 119.1695 119.8683 119.1686 118.7780 110.9801 109.3807 102.3900 101.6947 106.2531 110.1233 102.4436 106.7926 105.0667 106.4691 104.3378 122.4263 121.9292 121.6870 120.9884 118.1762 121.8645 112.6940 122.0776 121.6261 122.2074 118.2589 116.6189 122.6267 122.9809 123.3195 123.1614 122.7200 106.5508 123.3850 126.1474 126.1474 111.9775 107.0341 113.3741 116.9494 117.2055 113.9155 125.6200
122.9200 123.0116 118.1994 117.4684 116.5896 117.0718 116.7940 117.0027 118.4227 111.8996 116.7882 117.1004 121.3229 120.2475 120.2028 120.6418 119.9434 120.2181 112.4632 129.2781 115.7152 109.1781 120.7695 113.6623 118.2325 112.8873 105.7132 102.5633 101.4210 114.6699 103.8192 102.4529 101.4746 115.6676 117.3842 105.8909 112.0659 116.5599 114.7910 121.5937 123.2708 123.4753 121.1200 121.8720 121.9067 122.3375 122.7650 122.0739 122.6812 122.9247 123.1058 123.1907 125.1078 129.6915 123.1881 122.2258 118.1207 110.8281 111.1058 114.0485 116.3157 115.3102 115.5192 125.4100
122.6300 120.4557 119.0008 119.5559 118.0181 117.9301 117.4916 115.2376 115.7496 114.3074 111.5714 111.7546 119.3249 119.6895 119.9670 119.7289 119.7360 119.7724 118.5642 103.3269 114.0986 114.7478 122.8330 126.7045 116.7599 105.1857 108.7298 115.7167 114.9955 101.8729 103.4392 104.5462 105.4279 107.4526 115.1480 117.7442 114.5577 114.3225 122.4335 120.3620 106.2517 99.9448 122.2592 122.6812 122.5327 121.7649 125.0954 123.3745 122.3311 122.7659 122.8934 123.2033 122.8673 123.5064 124.5534 116.0432 111.7922 110.2466 113.1082 113.5834 112.2772 115.6496 128.2307 125.3700
122.3800 119.6009 119.1222 119.5806 119.7071 118.9964 117.7925 115.1586 115.5840 115.4879 113.5268 109.9973 116.8783 120.3226 119.6447 119.4516 119.3133 119.0548 118.9896 119.3299 110.4584 121.1079 117.4196 114.5295 115.2981 105.3392 105.2103 107.3564 100.2339 107.5830 100.5647 103.0757 103.6664 115.1500 116.6232 112.4154 120.2979 123.4645 120.0284 120.0787 122.9259 122.6817 116.7643 110.4804 121.8121 121.1605 119.7370 103.9359 124.0809 122.3368 122.7536 122.8921 123.5870 125.7159 108.5552 105.7167 109.4522 110.0626 114.4385 110.9051 104.2895 123.3610 124.3674 125.2000
122.3100 121.9266 121.6502 120.1576 116.5984 114.3178 118.1558 116.8497 116.2284 117.8815 115.0926 110.6388 111.7588 119.9312 119.2396 119.1178 118.9271 118.7689 118.4537 118.5115 116.5836 105.9877 119.5370 118.8755 115.0624 102.9038 99.9857 95.7736 96.3911 100.0014 111.8735 111.7214 96.0134 111.2025 120.3318 119.2808 119.3296 119.3198 122.1637 100.1246 115.7569 120.7017 120.9536 120.1360 120.9439 121.3875 121.6267 120.2425 122.1272 122.3684 122.4943 123.0051 125.9656 102.0756 103.9627 112.1859 120.7169 111.7501 111.1243 103.8251 125.9314 124.7895 125.2019 125.1600
122.0600 122.3958 121.6782 120.6747 120.1044 112.3599 113.9838 118.6194 112.9277 109.0835 113.6856 111.8317 111.9545 109.2714 117.9960 118.8094 118.4012 118.4265 118.1126 117.9827 120.7374 105.4858 119.7023 114.3387 115.2798 101.4965 100.1382 95.8357 96.9225 99.3179 104.2387 95.7045 104.8015 98.8800 121.1525 118.8378 119.0721 119.3179 119.8102 119.4611 120.0621 120.1135 120.3498 120.9756 120.5731 121.4543 121.3995 121.7859 121.9162 122.0921 122.3730 122.3320 99.4605 104.1604 112.2416 110.4292 118.8035 105.0768 106.7123 121.4266 124.5915 124.9389 121.6839 119.2100
121.9900 121.8116 111.7919 122.4234 121.7897 113.2038 111.1403 110.7404 109.6203 108.9063 108.8777 107.4743 110.7245 112.3804 105.4904 115.8426 118.4977 117.8186 117.6920 117.4542 118.6782 105.5507 118.6688 115.6889 114.1171 105.7891 98.5483 97.7392 95.2060 111.0025 115.0785 102.5688 119.1851 99.2532 119.4587 118.3143 118.6880 119.1585 119.0908 120.1146 119.0266 111.2249 112.0937 121.3785 117.8920 121.1278 121.2189 121.5292 121.8569 122.1662 114.3661 98.9554 107.1030 105.7655 107.8114 101.4353 103.0767 120.9595 124.6765 124.3362 124.3684 124.6210 123.5233 117.1800
121.7300 121.3970 121.5852 120.9657 120.0711 111.5431 111.9880 109.1513 109.9709 108.2885 107.5087 108.7772 110.1419 113.8711 112.0385 122.1607 116.8468 117.5244 117.2774 117.0005 117.6192 106.3607 114.2169 116.5139 111.5167 95.9825 93.9883 96.7268 98.7707 110.1657 102.5294 120.2432 117.5045 118.4823 117.8576 118.0165 118.4665 118.4968 119.4893 117.3202 106.6998 119.9739 119.6045 120.2086 120.5707 120.8641 121.0449 121.3153 121.5496 121.5223 106.5310 111.8411 110.4737 103.5029 120.1603 106.9071 114.6014 114.4836 124.3779 124.1095 124.3723 124.1045 123.8941 107.7800
121.6500 121.4855 121.2145 120.8573 121.0589 121.2177 119.9545 110.1132 110.8202 108.1945 107.0399 111.0153 110.8024 110.9274 103.8916 108.7494 116.6693 116.8297 116.9537 117.0471 115.6069 117.7748 104.1861 116.4712 116.0667 118.5530 91.7969 117.4444 110.9983 118.7898 112.8059 117.7219 116.2135 117.1262 117.5319 117.7020 117.9885 117.7380 119.4853 96.8392 120.4000 120.0313 119.4708 120.0847 120.2687 120.5634 120.8558 121.1512 121.3554 119.6476 122.3419 118.0755 115.0221 110.5766 115.0797 99.5411 107.8619 120.8065 123.9278 124.0993 124.1998 122.5397 119.8253 102.9900
121.6000 121.3014 121.0218 120.7372 120.3891 120.2520 114.8540 113.7173 108.8159 111.9116 109.4394 111.9167 111.1044 111.0787 107.0621 104.2187 114.3169 117.4509 112.1361 118.0899 115.4403 116.7661 102.8762 114.5628 113.8110 111.5355 115.0255 115.7037 111.0893 116.3565 116.3206 116.1679 116.5835 116.6441 116.9963 117.2853 117.6018 118.7237 114.0477 100.6193 120.9562 118.9564 119.5142 119.7617 120.0857 120.3722 120.6607 120.9216 121.7257 117.1982 116.5376 109.7862 127.5100 103.4192 102.3530 104.0969 103.2545 116.8167 123.6126 124.0077 124.0864 124.7467 125.9510 124.7000
121.2600 121.0659 120.8561 120.5462 120.1597 119.8129 119.7318 118.1952 111.9449 115.5596 109.4600 112.5460 109.0523 107.5665 104.9547 101.4300 102.3389 114.7388 104.6178 102.5274 115.1340 114.7933 117.9941 114.5745 114.7954 114.7542 114.7067 115.1906 115.3241 115.1962 115.4261 115.6500 115.9435 116.2431 116.5770 116.8874 117.3053 115.9893 113.8617 105.2363 117.4694 118.8045 119.2414 119.5367 119.8611 120.1640 120.4652 120.7705 120.8684 121.6106 111.9765 125.1742 112.5244 105.2705 107.0146 103.1888 109.4857 127.0255 123.3162 123.8526 124.0741 124.0768 121.9727 129.5800
121.2600 121.2509 120.6969 120.3307 120.3699 119.7401 119.8897 119.6895 115.8912 105.9686 104.6999 109.6363 104.6242 102.5647 105.0182 104.1563 103.4040 111.3398 101.8404 107.9104 116.7924 113.9547 119.7878 113.5360 113.8943 113.9855 114.0831 114.0201 114.7144 114.4139 114.7252 115.1375 115.4109 115.7492 116.1028 116.4252 116.9255 116.8450 118.0381 120.4907 119.3069 118.6157 118.9785 119.3107 119.6460 119.9670 120.2834 120.6343 121.0161 121.3294 122.8168 124.1139 100.9226 109.5216 108.8761 111.0365 106.1697 118.0441 123.6208 123.8556 123.9786 124.3519 125.5620 125.3400
115.6100 120.4367 120.4727 120.6555 114.4497 119.8057 119.1410 118.7785 115.5558 104.7982 108.0768 105.8624 102.4915 102.6383 105.8889 102.9531 101.5278 102.7084 104.1434 96.2129 101.3098 113.2288 113.6901 113.2500 113.2580 113.2216 113.2307 114.0664 110.0595 114.8642 114.3341 114.4941 114.8647 115.2425 115.6241 116.1018 116.4215 118.7929 100.5031 116.4403 117.8394 118.3869 118.7326 119.0905 119.4367 119.7773 120.1163 120.1811 120.6411 111.9183 113.8827 122.4863 112.8703 114.4239 96.1302 109.1279 106.1687 115.8051 123.6696 123.7264 123.9157 123.8311 125.7688 125.3400
120.8800 120.4004 120.3304 120.1552 117.7747 119.2641 119.7621 119.0257 117.8276 119.2093 104.3320 105.9611 105.8691 104.0903 105.7691 107.0304 102.2790 107.5812 98.1926 97.3755 93.2978 111.9518 112.3764 112.5224 112.3387 112.3590 112.4324 112.6396 106.4527 103.0523 113.4183 113.7637 114.3045 114.7193 115.1554 115.6260 115.8913 116.3189 116.7959 120.0179 117.6812 118.1011 118.5035 118.8788 119.2381 119.5995 119.9300 120.2077 120.6649 119.2357 99.5351 120.5322 107.7353 116.9213 116.8379 116.4351 124.3184 122.4092 123.3646 123.6146 123.7668 125.7618 125.3039 115.3000
125.8500 120.3991 120.2158 119.8344 119.4480 119.1446 116.9561 115.1974 118.8153 118.0615 109.6345 104.0435 105.6412 105.1075 102.3326 102.0828 102.1717 99.7340 102.0026 96.0255 108.1401 116.3570 111.7277 111.5965 111.4313 111.4144 111.4929 111.7288 113.2216 112.6107 113.1733 113.1952 113.7020 114.1825 114.6752 115.1642 115.6446 116.1240 116.2976 117.1171 117.4646 117.8701 118.2757 118.6743 119.0532 119.4195 119.8219 119.9340 120.3753 109.8943 102.9189 108.9854 117.4501 122.0958 124.7809 115.0446 117.0072 123.4201 123.3567 123.5469 123.8159 122.6664 125.9382 117.4400
120.5500 120.3339 120.0750 119.7502 119.2545 118.8775 120.2801 106.3375 109.0015 117.7360 116.5005 103.8186 105.6789 108.0230 107.4802 105.6427 102.7746 95.3285 101.9825 101.5032 113.2347 111.3049 110.5916 110.5823 110.3703 110.3539 110.4934 110.7176 110.8112 111.3722 111.9956 112.6354 113.0790 113.6410 114.1875 114.7267 115.2550 115.7981 116.2413 116.7197 117.2005 117.6480 118.0671 118.4769 118.8838 119.2480 119.4578 121.6735 101.3391 107.7939 106.0656 121.5246 123.8582 104.9647 116.2391 114.7405 123.8004 122.7789 123.2178 123.4915 123.7290 123.7661 123.9815 132.9700
120.5000 120.2766 119.9391 119.6394 119.2813 114.6773 121.9025 100.5103 113.2361 117.1163 114.5645 108.3483 112.2370 101.7591 109.8665 101.6746 98.0762 99.4285 100.7351 94.3687 109.2451 109.9886 109.8105 109.3351 109.1958 109.1346 109.3003 109.6254 110.1200 110.6151 111.2144 111.8283 112.4533 113.0940 113.7112 114.3039 114.8837 115.4318 115.9686 116.4778 116.9585 117.4253 117.8771 118.2992 118.7049 119.1616 118.8505 120.2422 120.2994 121.3322 119.6146 122.9384 113.5284 106.4515 119.4209 113.9103 123.3330 122.7195 123.1779 123.4288 123.6625 123.9281 123.9235 124.3400
120.4600 120.2020 119.8387 119.4618 119.0851 118.6731 117.4365 106.5400 117.3180 117.4066 107.8012 103.0931 108.8533 104.3552 100.0774 99.8104 99.9887 98.5508 102.1347 104.4303 97.4061 108.5774 104.1881 108.4174 107.7707 107.7363 107.9622 108.3865 108.9619 109.6491 110.3729 111.1093 111.8414 112.5544 113.2437 113.8994 114.5265 115.1162 115.6885 116.2259 116.7355 117.2246 117.6984 118.1426 118.5696 118.9226 119.3672 119.6911 120.0457 120.6967 121.6419 114.2905 125.1168 102.6165 123.9812 122.1046 122.5553 122.8737 123.1157 123.3727 123.6211 123.8662 124.1909 124.3200
120.4300 120.1101 119.7425 119.3602 118.9575 118.5170 118.8065 109.1675 117.1631 110.0476 108.1323 103.6890 109.9420 102.5422 101.0916 105.1061 99.9737 103.6876 107.7353 105.8788 108.6413 111.1088 108.1735 106.5883 106.1407 106.0507 106.3750 106.9752 107.7495 108.6106 109.4990 110.3759 111.2322 112.0373 112.8017 113.5155 114.1963 114.8353 115.4364 116.0021 116.5415 117.0539 117.5359 117.9940 118.4334 119.4451 119.1840 119.6952 122.3142 120.7631 120.7797 124.8469 128.3319 108.1171 118.6801 122.0994 122.4412 122.8039 123.0737 123.3283 123.5847 123.8330 123.7949 124.1500
120.4000 120.0312 119.6555 119.2705 118.8590 118.4464 117.8400 118.3541 117.9523 112.8669 102.2948 104.3097 106.5126 102.7961 102.5369 100.3854 97.1512 101.0033 113.8974 106.9932 106.0499 104.4965 101.6673 104.9156 104.0653 103.9800 104.4727 105.3338 106.4063 107.5337 108.6286 109.6696 110.6511 111.5680 112.4026 113.1753 113.9050 114.5788 115.2097 115.8081 116.3563 116.8804 117.3948 117.8809 118.0549 121.0513 118.9338 119.6467 119.7715 120.2453 120.5255 121.9176 123.6483 123.9602 107.2692 123.7114 122.4238 122.7489 123.0394 123.2880 123.5442 123.6459 126.2118 124.1400
120.1200 119.9904 119.6024 119.1811 118.7842 118.3648 117.9789 117.3150 116.8375 116.7468 115.1543 109.4547 106.2891 108.2458 103.8530 101.2673 97.2040 106.4891 116.0832 109.3866 107.1411 105.3750 104.4028 102.3335 101.3856 101.2524 102.0647 103.4608 104.9698 106.4334 107.7877 109.0105 110.1167 111.1081 111.9885 112.8917 113.6467 114.3579 115.0229 115.6231 116.3187 116.8159 117.2732 117.7667 118.1348 118.4008 119.1078 119.5259 119.9560 120.2713 120.7173 120.8648 120.9309 121.8617 123.5334 122.0674 122.4833 122.7435 123.0041 123.2663 123.6028 123.7578 127.6153 128.1200
120.0800 119.7548 119.4153 119.2139 118.7258 118.2075 117.5969 117.1136 116.4959 116.0236 115.1157 115.3144 106.0072 108.6734 100.4372 100.6002 96.8848 112.2320 112.4879 107.3232 105.7510 103.9663 101.8373 99.7160 97.5843 97.2445 99.1466 101.2982 103.5119 105.4036 107.0335 108.4457 109.6874 110.8459 111.9434 112.6457 113.4540 114.1907 114.8851 115.6413 115.4184 116.5717 117.1696 117.6902 118.1839 118.6512 119.0291 119.3975 119.7593 120.1036 120.3077 120.4054 121.1814 121.4943 121.4106 122.0372 122.3367 122.7004 122.9832 123.2429 123.5210 123.5178 124.2900 124.1100
129.6600 120.3475 120.7103 118.6760 118.6352 118.4247 118.4603 118.1956 118.0922 117.2741 116.7851 112.4073 113.9629 101.4960 100.3636 101.3834 104.8225 109.0810 110.4599 105.0655 105.1082 102.8967 99.9902 96.0686 91.2506 90.6416 94.5802 99.1999 102.2133 104.5564 106.4459 108.0125 109.3618 110.8091 111.5824 112.4823 113.2975 114.0672 114.8151 114.7129 122.3457 116.0983 117.1204 117.6419 118.1061 118.5595 118.9896 119.4914 119.9055 120.2435 121.6040 123.2750 121.4956 121.3332 122.7821 122.2093 122.7339 122.6259 122.9882 123.2030 123.4864 123.3391 123.9170 124.1000
120.0600 122.9015 112.2625 124.6483 118.7559 118.7663 113.2658 110.4699 108.8890 107.3295 107.7431 107.9860 103.6089 102.4381 104.8382 95.7158 110.6937 107.4063 105.7078 106.7112 104.6354 102.1387 98.6633 92.2911 86.2701 85.5790 90.2656 97.5883 101.3657 104.0521 106.1151 107.7792 109.1686 110.3137 111.4207 112.3703 113.2123 114.0790 115.6235 116.1220 117.0903 116.5371 117.0957 117.6082 118.0967 118.5588 118.9501 117.5786 119.0613 117.7165 109.0778 108.0191 119.7135 122.3673 111.3806 122.9706 116.9604 122.7997 123.0258 123.2058 123.3115 128.6355 123.4643 124.1000
120.0600 121.8926 107.0041 128.0314 118.6791 118.6181 110.9453 107.7757 103.8612 101.3991 103.6078 104.1501 103.0273 101.1108 103.8641 95.1394 111.2165 106.4203 104.3644 106.7592 104.6266 102.0666 98.5564 92.3552 86.0735 85.1923 89.8449 97.4341 101.2946 104.0134 106.0878 107.7643 109.1824 110.4819 111.4818 112.4071 113.2239 114.0115 117.1873 116.0310 115.7280 116.5748 117.1030 117.6058 118.0802 118.5145 118.9977 119.4203 118.8364 121.3545 106.3773 107.2314 107.3227 125.0029 107.0471 116.0777 110.7940 122.7544 122.8338 123.1859 123.3331 123.9714 123.7383 124.0900
120.0700 120.3770 119.7584 118.9107 118.5982 118.9618 112.7253 105.1885 111.6990 108.1538 106.1893 106.0841 102.6838 106.9821 102.5222 97.7016 116.6984 110.7182 108.0311 106.8116 104.9811 102.7101 99.7461 95.5274 90.2501 89.5395 93.8885 98.8497 102.0447 104.4587 106.3828 107.9588 109.3358 109.3736 111.2048 112.4322 113.1981 114.0608 114.7854 115.6482 116.0970 116.6023 117.1295 117.6350 118.0849 119.0392 119.2219 119.3614 120.0936 120.2901 111.9220 105.0993 109.3056 117.2158 121.1064 121.5846 115.6719 122.4766 122.7450 123.2688 123.0113 128.8504 123.3241 124.0900
120.0800 120.0113 119.5113 119.1879 118.9040 113.7717 103.3521 104.3841 105.2369 105.0381 102.5100 102.8485 102.4695 102.8527 93.7150 106.5934 104.5554 119.6326 108.7897 107.6774 105.7006 103.8277 101.6191 99.0532 96.7310 96.3153 98.4700 100.9691 103.2979 105.2672 106.9362 108.3687 109.6214 110.7431 111.6233 113.4907 114.3273 114.2344 114.8601 115.4961 116.1095 116.6551 117.1864 117.6729 118.1323 118.8364 119.5522 125.5403 103.2588 106.8371 107.4776 107.9620 122.8849 111.4951 113.1502 122.9963 122.4803 122.7323 122.8760 123.2123 123.4820 123.7016 123.8007 124.1000
120.0900 119.9454 119.5938 120.0236 109.2399 109.4161 105.4447 105.4142 106.9099 108.6592 101.3308 100.5018 99.5106 102.5367 103.2699 103.0836 102.9342 119.3320 108.1471 107.8768 106.6830 105.1290 103.5537 101.9951 100.8709 100.7317 101.6515 103.1489 104.7551 106.2759 107.6643 108.9242 110.0241 111.1943 112.4060 116.2269 113.4852 114.3354 114.9914 115.6203 116.2057 116.7575 117.2864 117.7613 118.1404 118.5366 114.9296 110.2470 106.3223 105.9053 103.2360 115.4808 111.6344 118.4847 110.1886 121.2521 118.3598 122.7347 123.5259 122.1850 123.4510 123.7675 123.9883 124.1000
120.3600 120.0120 119.6697 119.4109 119.6389 119.7148 109.0262 104.6456 105.0684 105.7292 107.0647 100.2298 101.6048 103.1199 101.7831 100.2575 94.1414 91.8621 113.5046 113.2891 107.1684 106.4546 105.3300 104.3381 103.6731 103.5865 104.1270 105.0565 106.1871 107.3665 108.5026 109.5690 110.5778 111.5021 111.9540 112.9360 110.8917 114.7210 115.1875 115.7886 116.2857 116.7985 117.2526 117.9050 118.4833 121.9114 112.4282 106.1693 105.8284 104.5116 122.5474 119.7664 113.5590 110.3965 113.0292 118.6456 120.3977 123.0562 127.4029 108.5560 115.7476 123.8935 124.6293 124.1100
120.3800 120.0905 119.7446 119.3193 118.5077 116.9018 105.0898 105.7558 106.6036 105.0147 107.5436 102.6252 104.2094 101.5365 93.9508 94.6033 115.7292 112.3013 110.0006 109.0795 108.8322 107.7741 106.9275 106.2241 105.8055 105.7539 106.0895 106.7236 107.5486 108.4505 109.3701 110.2787 111.1251 112.0523 113.2831 112.9864 106.6236 115.0341 115.4586 115.9631 116.8759 117.1656 118.1129 118.4943 115.3522 115.3796 106.9988 102.3460 105.5043 104.1228 109.6027 108.7776 114.2512 110.2365 112.9288 113.3771 122.8785 121.8426 118.8187 119.5434 124.9910 124.0239 120.1713 124.2900
120.4100 120.1818 119.8108 119.4641 120.3124 108.0670 104.2511 104.0024 105.0248 107.1820 98.7421 103.7229 98.0527 103.8555 102.4196 117.6336 108.4209 111.5220 111.0351 110.4013 109.7974 108.9641 108.3190 107.8183 107.5169 107.4806 107.7138 108.1713 108.7882 109.4783 110.2376 111.0048 111.7345 112.3082 106.4406 114.5770 115.1227 114.8868 115.6606 116.2109 117.0836 117.6624 114.6371 115.6678 112.7129 109.3971 117.8624 101.7734 112.0523 112.6292 115.8645 110.5235 121.0575 110.4002 113.5353 123.9522 120.6262 122.4926 120.1193 124.2547 123.4290 123.6332 118.9165 124.2900
120.4400 120.2843 119.9594 119.5948 116.2823 105.9738 105.0904 104.2842 106.0451 106.6452 94.4888 102.2977 103.1480 102.8073 104.4698 136.8683 113.1334 113.6292 111.7331 110.9392 110.7568 110.0609 109.5397 109.1717 108.9513 108.9294 109.1033 109.4392 109.9185 110.4641 111.0894 111.7246 112.3778 112.7160 104.8678 113.6039 114.5204 115.3588 115.9242 116.4393 116.7757 116.8876 125.3888 124.5199 111.0701 104.6299 120.5646 113.1361 119.7925 110.6538 119.5368 110.8637 116.7018 112.2710 122.9469 120.5924 122.6894 123.0963 123.6518 123.5281 123.6498 126.5720 125.0053 124.3000
120.7600 120.3879 119.9997 119.8155 113.1264 104.3496 105.5119 104.5930 107.3758 109.8788 103.5365 100.6068 104.6574 99.3427 107.2167 113.7759 115.5672 106.2659 113.3771 111.4794 111.5392 111.0338 110.6422 110.3541 110.1858 110.1657 110.2898 110.5625 110.8951 111.4799 111.8366 112.3561 112.9883 113.6355 115.0561 115.2955 115.2240 115.7281 116.2123 116.7027 117.2085 117.4626 121.0122 111.4944 109.5401 99.1599 104.8635 105.6581 102.9887 102.3921 118.6015 109.3026 109.8078 114.8472 122.6611 122.9344 122.6546 122.9399 123.1382 123.4378 123.7257 124.6853 124.2295 124.3300
120.8000 120.5355 120.4315 120.6357 110.1022 109.3059 104.2340 104.0844 108.4591 109.9049 108.4271 98.6951 97.0262 97.5786 117.6635 112.7215 98.4908 94.9709 114.0410 112.7642 112.3872 111.9480 111.6273 111.4016 111.2676 111.2653 111.3803 111.6037 111.8187 111.9763 110.3319 113.0829 113.6055 114.1316 114.3817 114.9704 115.6019 116.0555 116.5224 116.9680 117.4580 117.8046 117.8224 112.7229 119.8246 109.0595 111.4771 105.4349 116.8516 127.6629 104.4924 117.8775 117.9827 119.4027 121.9683 122.1319 122.6929 123.0455 123.3055 123.5412 123.7697 123.8301 124.1118 124.3500
120.8500 120.4811 120.0273 115.0994 110.6574 110.2333 116.0478 115.8676 104.9978 107.1270 108.2546 100.0440 108.4887 110.6170 115.2673 115.4829 108.7694 110.0845 117.5956 113.4970 113.1310 112.7827 112.5226 112.3354 112.2254 112.2288 112.2256 112.4999 112.8918 109.8492 113.2689 113.8611 114.1890 114.6350 115.0848 115.5373 115.9775 116.4126 116.8468 117.2620 117.6200 117.8208 123.4531 120.0710 120.1140 116.7432 108.7437 107.6501 114.4849 118.1401 106.8511 113.0620 124.3081 122.0966 123.1505 123.3845 123.1126 123.1171 123.3652 123.6048 123.8422 124.1148 124.2905 124.3700
121.1200 120.6045 121.3953 110.8096 119.4681 118.3371 119.8719 109.9757 115.9168 104.1110 103.4216 107.3140 108.7783 117.1401 116.9449 115.8441 115.9244 116.5238 114.8142 114.1444 113.8182 113.5616 113.3367 113.1807 113.0910 113.1223 113.3459 112.7223 114.6161 112.4022 114.0562 114.3549 114.7782 115.1616 115.5587 115.9568 116.3734 116.7721 117.1609 117.6681 117.5769 118.6845 106.3814 108.4727 121.6338 126.0493 112.8270 119.5377 100.1568 106.2099 111.5393 112.7770 111.0053 124.3345 108.0845 115.8346 122.1846 123.2032 123.4434 123.6782 123.9008 124.1252 124.3455 124.5500
121.1800 120.9372 120.9649 119.5629 120.2636 116.3480 115.2037 110.2851 107.1451 109.1509 118.9891 117.7561 117.1041 116.0869 116.6715 116.0375 115.7032 115.4399 115.1001 114.7771 114.4991 114.2757 114.0889 113.9480 113.8790 113.9068 114.3387 105.2323 111.3196 101.1936 114.9522 115.0539 115.3213 115.6745 116.0266 116.3994 116.7644 117.1470 117.5289 117.8634 118.1703 118.6685 117.6581 118.7306 116.7199 116.1223 105.4835 106.2961 117.6998 120.8568 118.8288 110.1936 120.8558 122.4637 122.1763 121.0213 122.0880 123.2920 123.5571 123.7643 123.9988 124.2229 124.4378 124.5700
121.2300 121.1459 120.7927 120.9172 113.7604 107.3172 120.8884 114.0566 115.4515 118.3403 118.1152 118.1194 117.6001 115.8449 117.8117 116.3101 116.2893 115.9676 115.5947 115.3906 115.1511 114.9415 114.7757 114.6710 114.5973 114.6062 114.6306 114.9615 116.6170 114.3274 115.6695 115.6187 115.8631 116.1740 116.4906 116.8188 117.1658 117.4677 117.9694 118.0198 118.6063 119.0119 116.5172 107.4872 102.6237 106.4337 106.2815 111.2512 104.5042 113.0487 122.2184 121.9884 122.9292 117.8971 123.0229 123.5734 123.2522 123.3402 123.6224 123.8796 124.1076 124.4345 124.6387 124.6000
121.5000 121.2512 120.3622 117.8765 108.7675 108.9428 109.5785 99.4470 107.0733 109.2410 120.6939 116.5530 111.6317 116.7995 117.9600 116.9701 116.7429 116.4473 116.3018 115.8944 115.7367 115.5605 115.4259 115.3255 115.2627 115.2652 115.3121 115.3398 115.1462 115.6707 115.7536 116.1698 116.3763 116.6506 116.9372 117.2341 117.5632 117.9593 117.2621 121.3802 118.7985 119.4760 113.2601 109.4692 104.0229 107.7767 110.8153 122.9476 114.1937 120.1241 121.3649 122.5990 120.8206 122.7118 123.0427 122.8633 123.1797 122.1856 123.7665 124.0213 122.8929 123.8587 120.9565 124.6300
121.5600 121.4084 121.3731 122.3583 113.1185 117.0610 119.3581 115.9796 123.1395 115.2327 115.9882 119.6480 116.2165 118.7785 117.7361 117.4074 117.1737 116.9048 117.4385 116.5522 116.3313 116.1051 115.9781 115.9199 115.9025 115.8898 115.9194 115.9839 116.1206 116.2669 116.4576 116.6217 116.8672 117.1116 117.3733 117.6388 117.8795 118.6093 111.1285 117.9105 118.4461 119.2971 119.8865 106.4622 107.7658 105.0716 130.0403 116.4897 122.9000 116.1327 119.5380 121.9850 112.6835 123.1573 122.8067 123.0860 124.1201 116.3029 124.5405 124.5136 117.6290 123.9993 104.2860 124.8000
121.6200 121.5980 121.2834 120.8993 117.4797 107.4054 111.9858 115.5103 115.8735 123.0827 97.5118 104.0734 120.8535 118.5264 118.2078 117.8555 117.6053 117.3944 117.1104 117.0474 116.7576 117.0208 116.8496 116.6513 116.4536 116.4707 116.4959 116.5294 116.8090 116.6438 116.9923 117.1184 117.3302 117.5578 117.7965 118.0053 118.3035 118.8576 118.7619 119.8819 114.5192 116.5683 120.3324 107.1516 103.4626 103.3996 119.0228 110.5459 120.0189 111.6208 121.4226 120.0388 119.7936 124.1680 123.2081 123.2481 123.3710 124.0680 124.1341 124.3174 124.8754 124.7707 118.0499 124.8300
121.8900 121.8029 121.5659 121.2842 122.2159 121.4843 120.8967 112.8720 123.6760 104.6328 108.3450 103.2292 121.9909 117.6829 118.8094 118.2747 118.0905 117.8669 117.6452 117.2197 117.7129 110.8885 116.7943 115.6299 116.8476 117.0392 117.0372 117.1038 116.9987 114.2392 117.1802 117.6142 117.8018 117.9999 118.2378 118.7854 118.5954 118.8947 119.0680 119.4185 116.3400 112.4484 116.6331 107.0167 106.0069 108.8694 107.9579 107.1807 111.0884 108.8826 115.3824 124.0713 123.2185 118.1410 123.1790 123.3774 123.5918 123.7199 123.8329 122.4327 123.0457 127.3722 121.3656 125.0400
122.2100 121.9708 121.7368 121.5024 120.8624 122.6547 109.0893 100.7551 104.2641 105.0071 104.7970 93.1439 121.5034 119.5121 119.0055 118.4761 118.1506 118.1616 118.2585 118.1067 104.9771 113.5460 114.0889 116.4848 117.8445 117.5664 117.5414 117.5957 117.6007 119.1835 118.9687 117.9987 118.1591 118.4936 116.9744 118.8992 119.0259 119.1973 119.3552 119.2319 112.2145 112.2816 112.6191 102.4014 108.5110 121.8163 119.8943 117.4103 109.9498 112.5923 111.7816 119.2646 122.6616 123.6664 123.2988 123.5170 123.7028 124.0496 123.9525 128.9203 127.0802 117.8130 128.1368 125.0400
122.2100 122.1552 121.9264 121.5805 121.3218 121.4477 103.2036 110.0627 106.8435 104.8592 102.2846 114.0413 119.5065 118.4880 119.8379 119.9492 120.4769 118.8491 118.2542 118.1900 118.5944 118.1505 113.5167 107.0453 117.4006 117.9829 118.0207 118.0781 118.1571 113.3063 104.5675 119.7843 118.8583 120.4502 108.7844 106.0666 113.3817 119.2468 119.0800 120.2464 113.6867 103.8530 112.5659 115.0323 112.6805 117.7369 121.4492 123.1963 117.2257 111.6553 110.7036 119.0016 124.7677 122.6757 123.3851 123.6314 123.8282 124.0943 124.1753 127.2344 122.4488 105.2721 121.3141 125.0700
122.5200 122.3224 122.1479 122.0265 122.4921 122.8179 110.9941 109.7306 107.1480 102.1630 97.5866 113.0624 105.6349 120.9277 118.8748 103.8687 102.2320 119.1611 118.9247 118.8266 106.5189 116.0094 112.8986 100.2777 119.4514 118.1719 118.4762 118.5396 118.7545 115.0186 94.1789 105.2229 112.3106 114.2140 118.1957 106.5783 105.2558 121.5905 118.7766 109.5729 98.5773 101.5979 109.5299 104.4871 124.3174 122.1702 122.3784 118.4565 125.3535 122.1050 120.6179 117.5663 112.4920 124.7952 123.6779 123.6805 123.9754 123.9682 126.1256 113.4791 126.9207 121.0951 123.2176 109.9200
122.7600 122.5395 122.2329 122.6765 114.2213 111.9043 112.6946 108.6736 102.1829 100.4089 100.2279 104.1138 106.5706 120.8344 105.9770 113.5993 112.7376 120.2727 119.3133 119.2894 120.3232 118.4908 111.8617 114.4873 118.4240 119.0664 118.9384 118.9223 118.9614 119.5409 99.0894 99.2334 101.6273 114.8790 111.6664 103.0168 121.4480 105.4549 106.1761 106.3407 99.3513 104.0485 105.5502 109.3757 107.9731 122.9045 122.1755 115.9724 107.6621 116.0519 112.4592 111.7379 111.8247 113.7862 124.7563 123.8326 124.0886 124.2937 124.5318 122.0736 124.9766 125.5297 125.1168 125.3200
122.8300 122.6877 122.1365 123.7253 108.2264 112.4827 109.3716 108.6641 111.3396 114.7419 112.5072 95.0464 121.8274 121.1485 101.8508 122.0029 120.4660 119.7650 119.5848 119.5672 119.4355 119.2129 117.0782 119.0170 119.1597 119.3977 119.2602 119.2704 119.4010 120.8743 118.5244 101.9159 103.2343 106.7475 108.2439 120.6981 116.9632 114.9865 122.1477 111.9833 119.4118 123.1489 113.0442 108.7739 109.8162 109.5055 121.1832 122.9916 113.6080 121.8748 114.7273 101.5124 113.2183 112.6110 114.4346 121.4521 124.2281 124.4565 124.5759 124.9304 124.9761 125.1165 125.3363 125.4800
123.0700 122.8190 121.8516 113.9701 111.3005 108.5033 109.8060 110.9624 106.3119 105.6934 106.9391 100.3866 120.4456 100.4025 101.0013 123.0961 116.3127 120.2487 119.9555 119.9741 120.1004 119.7144 119.9021 119.6821 119.7258 119.7278 119.8395 119.7675 119.8942 120.1365 103.7298 118.6778 101.5692 101.3039 99.2861 105.5173 115.2921 121.2865 121.1881 121.2582 121.3291 122.4151 119.4081 110.9963 111.0072 113.5647 122.7592 123.6137 123.1498 108.0285 107.7879 111.6905 117.3707 111.7120 123.8656 124.5449 124.3720 124.4543 124.6276 125.1390 125.0359 125.2681 125.3994 125.5200
123.1000 123.6093 119.2837 111.1238 109.5557 110.0736 111.1059 107.2609 107.1305 101.1202 98.2807 101.6369 114.1070 105.4383 104.1473 117.1755 118.4630 121.3620 120.3372 120.3283 118.6166 120.2193 120.2218 120.1246 120.0478 120.1613 120.4528 113.2365 119.6611 121.2728 120.7712 113.0122 109.1273 101.5006 104.4762 100.6829 125.2046 120.6708 121.3445 121.4564 121.5975 122.3266 102.4503 100.3109 112.9333 116.3427 122.2148 122.6674 125.8352 128.7812 124.0636 118.7209 109.2883 126.9571 123.8827 124.3033 124.4939 124.9444 120.4474 123.4361 125.0964 125.3204 125.4783 125.5600
123.3700 122.7988 122.3534 110.6849 109.7723 111.2186 111.7515 108.8656 107.2943 108.0599 100.8724 100.2782 110.1360 104.4425 105.2322 101.3319 123.6197 120.8489 120.7077 120.7427 120.3640 121.2674 119.8921 117.5128 121.6624 120.3697 120.5175 119.4037 122.7223 123.1495 100.9592 99.9427 103.9726 122.3143 122.5487 104.2407 113.2769 121.4926 121.5768 121.7199 121.9409 121.4866 127.2225 102.8862 103.5762 122.3087 122.9160 123.0791 122.7817 122.8745 123.1682 124.1924 124.2181 123.9884 124.5453 125.0135 124.2420 124.7995 125.4294 125.7482 125.2610 125.9086 125.7873 125.7300
123.5900 124.2710 110.3092 109.0967 111.0621 109.5325 105.6681 110.1412 107.7887 107.3482 105.8762 104.4334 117.4411 109.6827 110.7329 106.9805 122.4732 121.1472 121.1106 120.5458 121.4348 116.5986 116.3015 104.3040 122.6946 120.4748 120.9449 106.7455 119.5961 122.5307 99.0460 102.1433 104.1722 121.2312 122.8035 107.2469 123.8831 121.6386 121.4477 121.7987 121.9542 122.6600 111.5463 99.9352 114.6034 124.3778 122.7810 123.3187 123.4651 123.6051 123.8880 123.8373 123.8940 124.0989 124.6450 119.9458 126.5125 125.6451 125.0135 125.1302 125.7207 121.1831 121.7233 125.9400
123.6600 116.8534 112.6192 113.8287 110.1871 109.4096 109.9127 110.4025 106.7694 104.1690 107.2814 105.8678 104.2142 102.1340 115.5775 122.1128 121.5049 122.0747 117.6442 114.9175 121.6591 118.7657 114.9156 121.5722 119.7916 121.3250 120.9285 101.8115 106.7817 108.7447 120.7814 116.0351 106.8032 109.5978 125.2064 100.7989 116.4828 121.7901 124.7452 124.3194 122.7981 121.1913 116.9203 124.8906 123.5022 122.6447 123.3958 123.4370 123.6071 123.7413 123.9333 124.0849 124.3041 124.4842 124.7586 125.4767 115.6321 119.2198 125.4301 125.3478 126.1300 116.4483 113.5748 125.9400
113.1000 113.6436 114.4762 115.8668 110.3587 110.9004 110.8889 110.2827 107.8235 114.6950 106.1873 106.4342 106.8831 112.9957 118.4850 123.0986 121.7099 120.6998 98.3182 121.2893 108.0137 111.1931 108.5182 102.3738 104.6371 120.0609 121.8268 110.0476 105.2835 102.8646 120.3901 113.9576 106.0407 108.0835 116.1902 111.6080 107.2604 120.5019 109.7552 113.8444 124.9817 112.8656 112.2795 118.3466 123.0272 123.3254 123.4613 123.6447 123.7996 123.9521 124.1133 124.2648 124.4234 124.5955 124.3783 124.9973 115.6151 120.2389 118.5100 126.2888 125.6916 126.2697 130.8309 106.5700
114.4400 113.9710 120.1411 113.3822 110.7040 111.5365 106.6995 108.8161 108.8175 108.0476 108.8079 115.1434 123.1949 124.7279 106.7156 121.4057 122.0788 123.2790 108.3683 122.7044 122.6818 101.4966 108.4828 104.8280 104.4096 100.3901 115.3381 108.0154 104.0548 102.3702 120.8192 121.0329 121.8519 123.6741 122.7766 117.5747 105.7823 122.5670 113.2170 123.5112 117.2205 110.5017 107.2230 123.5041 123.5825 123.5478 123.6790 123.8315 123.9828 124.1251 124.2798 124.4343 124.5802 124.7413 124.9017 124.6663 127.1959 125.6503 114.8805 126.3567 125.7232 125.9325 125.4849 126.1700
115.9900 115.8195 116.4265 116.4465 111.8056 117.7489 110.1981 111.1324 110.1539 108.1136 110.1819 112.4864 120.8158 123.4392 118.3307 124.6718 121.9216 120.1880 95.2681 121.1424 124.1349 99.3521 123.4661 110.0375 118.9145 115.9466 118.2740 103.0970 106.4043 103.3021 120.7304 121.9532 122.2963 122.0327 120.9815 121.3278 108.2079 100.9890 115.0466 116.5114 103.5526 116.2867 111.7053 123.8965 123.5193 123.7598 123.8795 124.0197 124.1659 124.3116 124.4537 124.5948 124.7474 124.8901 125.0323 125.2279 125.2900 126.4545 126.2508 125.8041 125.7021 126.4825 112.3318 126.3400
116.3700 115.5212 116.3527 114.2572 112.7427 114.7617 123.9612 114.8964 105.7095 112.7218 107.7639 107.0322 121.2558 122.5483 123.2505 122.2845 123.1459 123.6899 117.5314 123.1972 122.3663 123.0656 107.6820 119.2709 117.3438 126.1538 102.0937 113.5145 107.5077 114.9512 123.6981 122.1133 122.6656 123.5971 110.5786 106.3445 120.6716 104.4840 118.4033 124.5340 120.0381 113.3588 122.3808 123.6209 123.6865 123.9416 124.0717 124.2085 124.3524 124.4855 124.6245 124.7653 124.9018 125.0447 125.1796 125.3194 125.5472 125.2142 126.8959 126.0353 125.6954 125.8339 121.5455 108.1600
116.4000 121.0725 112.1967 113.1803 109.0668 117.8148 109.8321 108.6624 110.2032 116.3357 112.4005 105.7143 120.7875 120.4025 123.4860 123.4008 119.0348 122.0535 122.8190 123.0312 122.4963 102.5934 126.7030 108.8120 116.3131 113.3017 102.8056 106.8292 106.4995 108.1791 121.0798 122.6794 122.9282 124.3364 112.7266 119.5951 109.3199 120.8938 118.9081 122.9359 112.8988 117.2810 108.8103 124.6353 124.3058 124.1252 124.2722 124.3991 124.5261 124.6642 124.7959 124.9254 125.0657 125.1910 125.3427 125.4559 125.5852 126.2462 119.1114 122.1870 123.6384 125.6546 129.5876 132.6100
124.8200 126.3219 117.4845 117.3397 122.0251 124.7643 119.7102 108.5829 111.2263 114.9205 109.4597 107.6715 120.3833 101.9254 117.3229 123.5682 120.7751 124.3652 122.7825 122.0839 122.1099 102.9849 108.3901 108.6803 104.0960 106.1508 102.9134 108.3558 109.5255 109.6816 122.8323 122.7836 123.2128 124.4258 107.4981 124.1523 122.6896 123.9088 122.5380 124.4315 119.8222 105.5896 100.5989 121.6959 124.0423 124.3017 124.4565 124.5851 124.7100 124.8376 124.9653 125.0979 125.2113 125.4269 125.1991 126.0284 125.5645 125.8743 125.8598 121.9695 111.5696 119.4104 104.8137 106.0500
125.0100 124.6926 125.3051 124.1742 124.3049 123.3962 125.3332 117.5822 115.7393 118.6820 109.5367 101.7902 123.8545 117.2127 123.6485 122.9875 123.5381 120.4752 112.6548 124.9940 106.8559 103.4925 106.9401 101.5952 101.0855 107.3403 104.4578 108.3496 109.0843 110.9870 122.3821 123.2511 123.4720 123.3348 124.7281 124.6442 123.5295 122.6848 107.8562 122.0891 107.7478 102.2984 101.5983 119.0110 124.6695 124.4914 124.6516 124.7667 124.8872 125.0037 125.1280 125.2583 125.3794 125.4031 125.7703 119.2220 122.5692 126.3422 125.8838 127.0765 126.8457 124.2563 110.4591 119.3700
125.2400 125.0736 124.9245 124.9376 124.7214 124.7399 124.5731 120.4205 116.6404 112.6074 115.9262 114.5704 124.0096 124.1475 119.9244 124.6028 123.6691 124.8251 123.5475 121.7611 111.7395 108.0490 120.1378 106.4181 102.9882 122.0336 105.0145 112.5794 107.3442 115.2847 124.0050 123.6588 123.5926 123.7104 123.5411 123.5928 123.6813 120.9712 115.9679 125.5760 110.4630 103.0125 109.8671 126.7918 124.5123 124.7213 124.8311 124.9420 125.0579 125.1763 125.2973 125.4180 125.5987 125.4779 127.3197 105.9382 127.7264 125.8570 126.3559 126.3035 127.3271 119.4526 123.8851 107.9000
125.2400 125.2633 125.1693 125.0355 124.9059 124.9105 123.1787 125.0404 119.5267 118.6526 124.3675 117.4492 123.1721 108.4403 103.7193 120.3566 110.2202 120.8657 117.1151 125.6497 103.6018 106.7583 120.1392 103.5201 102.9911 111.3371 107.2276 109.9022 107.1108 115.8649 124.6141 123.8684 123.8658 123.8956 123.9588 124.0383 124.3556 124.1424 110.9177 122.8367 115.4805 101.8299 113.1501 125.6444 124.6645 124.8431 125.0121 125.1220 125.2315 125.3503 125.4619 125.5769 125.7095 125.6006 126.0177 125.8676 124.8168 127.7064 126.9304 127.1280 126.6624 119.1771 111.3893 113.7600
125.4500 125.5606 125.3804 125.2091 125.1242 125.4578 121.7880 121.4765 123.3040 125.0107 124.6500 125.2814 106.9909 103.3395 106.4772 115.2257 104.4184 113.5653 131.7254 123.6309 105.0177 112.2114 120.1284 106.6835 103.4970 112.2086 107.9589 112.2873 110.4899 116.5008 115.8915 125.3389 123.9610 124.1389 124.1871 124.2442 124.2834 124.9737 121.8166 125.0866 120.3805 101.5959 109.5970 122.0748 125.8774 125.1008 125.1797 125.3003 125.4072 125.5190 125.6263 125.7399 125.8353 126.0355 125.7123 126.5725 126.4262 115.5806 126.2569 127.0591 115.8326 117.7909 115.8710 118.1600
131.2300 125.5100 125.5100 125.2600 125.3100 125.1600 125.0500 124.9500 124.8200 124.8300 124.7100 124.5800 124.5800 103.2400 103.2400 102.3300 102.4500 119.7300 124.2500 124.2500 124.0800 124.1000 124.1100 105.5800 107.6300 124.1300 109.4600 112.7800 117.8300 108.9700 124.2500 124.2500 124.2100 124.3700 124.3400 124.4900 124.4600 124.5900 124.5900 124.7300 124.8500 124.8200 124.9600 110.3900 125.1800 125.1800 125.2800 125.4000 125.5100 125.6200 125.7400 125.8500 125.9600 126.0900 125.2200 126.2800 126.3900 126.4900 126.6100 126.7100 109.4400 110.4400 113.0200 113.0200
