127.9600 127.9600 131.1500 127.7800 127.6800 127.6900 127.6700 127.5000 126.7600 127.0400 127.2400 127.0500 127.3200 127.3400 127.3500 126.9600 127.2500 124.2500 105.1300 105.1400 121.2700 121.5400 122.2900 127.1600 127.1600 117.4400 119.3800 126.2400 105.1400 105.1300 113.2000 113.1900 115.0300 111.5300 111.2000 127.3300 127.4400 127.4200 127.4000 127.5100 127.6200 127.5900 127.6900 127.6700 127.7900 127.7600 127.8500 127.9400 128.0200 128.0200 128.1100 128.1900 128.3000 113.8900 113.8900 128.4500 128.5200 128.6200 128.6900 128.7900 128.8600 128.9500 129.0100 129.0100
127.8100 127.5475 128.0340 127.2073 127.5991 127.4133 128.2008 127.1457 126.7283 127.3118 126.8682 126.1842 126.9599 127.2070 127.1274 125.9769 125.9679 127.0611 113.2686 103.1519 113.9318 120.7301 124.4167 126.7922 128.0116 126.8250 126.0515 121.9488 103.4837 111.3302 116.0332 117.9037 112.6215 126.2802 107.9046 128.0175 129.2975 111.5919 125.6390 127.5667 128.5935 128.4278 127.5696 127.6005 127.6605 127.7169 127.7727 127.8341 127.8997 128.0208 127.9071 127.6561 114.0907 125.1937 128.8363 128.4912 128.4713 128.5321 128.5839 128.6234 131.2540 129.1772 128.9500 129.0100
127.6700 125.6668 128.4098 130.9856 129.8283 129.5117 129.5244 126.8673 126.7276 127.2021 126.9688 126.4341 126.7258 127.0803 126.9006 125.7796 125.6580 120.9509 101.9737 113.0949 106.9670 121.6925 113.7674 118.1857 119.1490 120.6524 124.7728 101.6895 109.3265 107.8063 104.5746 107.5149 102.9859 127.5471 131.1637 117.9876 130.1737 107.0484 126.3464 127.3620 126.9025 127.2018 127.5124 127.4491 127.5134 127.5697 127.6353 127.6900 127.7596 127.8180 128.2614 129.0255 115.6223 131.0158 128.2850 128.2928 128.3243 128.3066 128.5997 128.5892 128.8580 128.3915 128.7399 128.8500
127.5100 114.6869 119.3512 112.7701 131.1172 130.0047 129.8289 127.6972 126.6122 127.0756 127.1322 126.5592 127.1899 126.8984 126.7447 125.4559 125.5437 121.3451 114.5371 123.1833 113.7617 123.2445 117.0467 107.3141 125.6742 112.2640 118.3543 114.5128 114.8016 107.9228 105.2124 108.6204 97.3568 124.1714 126.0530 124.1572 128.1946 122.5178 128.0456 126.9219 126.3548 127.2338 127.2407 127.3108 127.3669 127.4255 127.4856 127.5613 127.6471 127.2239 129.6085 121.7473 124.2691 128.0089 127.7320 128.3965 128.4857 128.7899 128.1195 128.5785 128.3282 129.8215 128.9262 128.7300
127.3600 127.6003 120.7521 109.8216 130.6278 129.1142 127.5898 128.9963 126.3098 126.9839 127.0171 127.4621 124.5464 127.1081 126.4461 125.5695 119.1826 126.0582 121.8162 118.7420 103.4555 123.4233 115.9853 104.4058 126.6840 119.1216 116.5943 110.5442 112.3448 108.1232 106.5823 103.5038 123.9274 125.1868 127.2315 126.8518 126.8774 126.7249 126.8776 126.9808 127.0461 127.0356 127.0926 127.1503 127.2145 127.2805 127.3420 127.4291 127.3743 129.0708 123.9807 108.3291 132.5544 127.0600 127.7957 128.1011 116.1842 127.6773 128.7360 130.0235 122.2782 127.7116 118.8477 111.3700
127.2000 127.3110 125.8523 126.7780 107.5179 114.9178 125.4007 126.6463 126.7675 127.3567 126.2115 127.0404 124.0627 126.5529 127.0476 125.6907 118.5861 126.6907 123.9051 121.9299 114.3268 123.2263 116.4258 124.9404 128.2917 118.1167 115.2828 115.8940 107.1340 116.3005 110.1410 112.9299 111.5548 126.4606 126.5331 126.5554 126.6121 126.6746 126.7258 126.7557 126.8091 126.8809 126.9351 126.9957 127.0567 127.1275 127.1857 127.2895 127.7033 118.3940 106.8518 107.2636 122.5167 127.7138 128.4110 127.9288 119.5440 122.2662 115.7155 128.1472 125.8629 127.9670 110.4657 128.4500
127.0400 127.1619 128.8693 123.1359 108.1276 109.0462 122.7709 127.3627 128.2922 127.6359 127.1496 126.9777 127.2309 123.3096 123.8926 123.5091 121.6760 126.8887 127.7690 121.4871 109.5076 129.1642 120.6930 130.2666 126.1242 122.7431 112.9192 106.4530 126.8601 112.9544 119.2644 111.2352 122.9273 126.7304 126.3009 126.4057 126.4577 126.5013 126.5423 126.6030 126.6594 126.7150 126.7782 126.8409 126.9045 126.9756 127.0803 127.1347 128.7265 121.2062 114.0013 129.1935 127.3393 127.2852 128.4434 122.5067 119.7144 129.9541 127.7192 126.6739 128.7590 130.5010 128.4133 128.4300
127.0400 126.8402 130.4613 126.9184 124.3943 122.7762 125.0876 123.2058 125.0259 127.6288 126.5207 127.5567 124.7858 122.0287 123.0231 129.5549 120.5139 123.7707 122.4588 117.8099 117.1214 126.4827 121.2562 118.3640 109.5667 113.5162 117.9606 111.7034 113.3501 115.3614 116.6838 126.9284 126.2117 126.0394 126.1996 126.2286 126.2743 126.3282 126.3785 126.4310 126.4901 126.5473 126.6115 126.6831 126.7326 127.0212 126.6456 126.7500 127.3633 119.1631 129.1575 127.2273 127.3768 127.2490 125.8398 121.0064 123.1112 128.2819 127.8269 127.9855 127.9866 128.2065 128.1631 128.3000
126.7400 126.4878 129.1930 126.7766 120.4271 119.7629 123.6234 123.3867 122.2788 125.2771 127.7194 117.5442 111.7071 123.6000 122.5347 112.4893 123.7491 118.7187 121.6389 130.4819 121.7316 116.8607 114.8712 118.2182 128.6069 113.6817 114.6822 112.1425 126.5088 126.2616 117.3745 124.1899 125.1686 125.9126 126.0180 126.0512 126.0997 126.1444 126.2053 126.2609 126.3178 126.3784 126.4459 126.5177 126.5679 126.7676 128.3344 129.7143 126.8779 127.4468 128.9035 126.5669 127.4853 129.7685 116.0118 115.6863 127.6983 128.0236 127.7464 127.8683 127.8934 128.9437 128.2641 128.1400
126.4300 126.5709 128.2016 128.9954 122.7689 108.3408 118.4250 114.8962 122.3090 123.6479 122.5009 108.4748 106.5194 123.3838 123.2237 122.8950 123.4609 120.0144 123.9112 125.6852 126.4842 121.8197 112.5268 116.9846 126.1218 113.2251 118.3064 126.5535 122.5725 126.7087 126.3442 125.9760 125.7523 125.7756 125.8288 125.8643 125.9131 125.9697 126.0227 126.0812 126.1469 126.2139 126.2815 126.3512 126.4140 126.4629 127.3838 126.3374 126.5778 126.9119 126.4657 127.0879 127.1540 122.6381 110.3537 121.6748 127.2414 127.4084 127.6422 127.7604 127.3604 127.9303 128.2653 128.1300
104.5300 127.3505 125.5830 129.3024 123.1476 122.6132 116.9996 115.7068 121.9581 121.7681 121.0563 117.3510 120.9064 122.0759 124.8499 124.7259 130.2869 126.9836 112.1040 118.1469 125.3387 116.3007 111.6066 109.0481 116.0461 130.3930 121.0092 125.7803 125.8412 125.4099 125.3925 125.4709 125.5478 125.5930 125.6265 125.6782 125.7382 125.7854 125.8446 125.9116 125.9679 126.0418 126.1083 126.1830 126.2440 126.3866 126.3876 126.2194 126.5699 126.7197 126.7967 126.8542 127.2701 123.5239 118.9501 126.8847 127.3532 127.4062 127.5365 127.6112 127.4979 132.3807 126.7343 127.9900
126.3600 118.2204 127.2043 127.5584 121.7170 122.8132 105.8307 112.6921 121.2494 121.5224 120.3862 111.1135 108.0329 121.4273 127.1936 122.6656 122.1071 127.0708 123.1672 109.8194 119.1068 115.7648 113.7603 120.3277 123.8766 125.1826 125.6718 125.1762 125.0936 125.2426 125.2889 125.3204 125.3499 125.4100 125.4815 125.4858 125.5403 125.6031 125.6592 125.7235 125.7912 125.8662 125.9348 126.0121 126.0937 126.1660 126.2732 126.3712 126.4229 126.5145 126.6149 126.5564 133.4706 119.8863 125.1748 137.1073 126.6164 127.2927 127.4136 127.5961 127.1945 133.6220 128.8499 116.9500
123.9200 115.9616 124.5632 121.7865 125.6924 108.6187 117.5204 100.6310 122.8443 120.8957 121.4506 116.1426 118.5645 120.4007 103.5457 130.1189 117.6596 118.9573 118.6363 111.7852 114.0842 135.5520 109.8903 124.0690 125.1840 125.0043 124.9407 124.9915 125.3674 125.0397 125.0804 125.0904 125.1875 125.0893 124.9934 125.3111 125.3451 125.4105 125.4760 125.5458 125.6074 125.6874 125.7630 125.8433 125.9201 126.0089 126.0880 126.1826 126.2785 126.3716 126.4947 125.6840 132.8454 127.4694 127.3556 121.9189 126.8707 127.1945 127.2670 127.3694 127.3742 127.5689 123.0086 127.8200
103.9800 104.2364 127.2251 127.0071 120.7197 115.7561 124.2395 107.3792 112.5093 121.5477 119.3145 108.5223 120.6311 117.3369 135.4060 129.9552 121.3898 116.6874 116.4795 109.3549 113.3375 123.5533 140.3262 124.5273 124.4508 124.7642 124.7791 125.0409 122.4166 125.8418 124.8573 124.8816 124.9325 126.6552 127.1605 125.1252 125.1451 125.2187 125.2847 125.3499 125.4224 125.5035 125.5814 125.6644 125.7549 125.8391 125.9319 126.0248 126.1119 126.2132 126.2779 126.0073 131.1943 125.4259 128.6044 132.8771 126.7235 127.0449 127.1413 127.2522 127.2390 127.3917 117.9850 127.6400
103.8000 115.6346 126.0627 126.4200 123.7940 121.0501 120.5810 109.9710 114.3096 121.2596 121.0770 113.8362 118.8436 110.4811 103.2497 133.5605 126.6847 124.5313 117.9521 107.0836 118.1307 111.1362 113.3135 122.2589 124.1593 124.7097 124.5610 124.6082 123.0716 125.5803 124.6350 124.6688 124.7793 123.8816 123.6221 125.0010 124.9362 125.0178 125.0857 125.1641 125.2399 125.3198 125.4033 125.4896 125.5762 125.6660 125.7606 125.8553 125.9598 126.0608 126.1645 126.2642 126.3955 126.6437 127.1480 125.7260 126.3402 126.9053 127.0133 127.1358 127.1908 127.6636 128.9825 127.5000
121.7700 121.5293 122.5798 124.4210 124.0649 120.3528 120.2063 123.0977 112.5010 118.5481 120.0264 120.7143 102.9643 118.5126 117.5037 135.9255 124.2043 118.0928 117.6613 106.6342 110.9477 113.1601 111.6601 115.9340 117.0819 124.8816 124.3740 124.4576 124.5274 124.3746 124.4362 124.4676 124.5680 124.5180 124.6976 124.5946 124.7665 124.8151 124.8961 124.9580 125.0433 125.1282 125.2170 125.3064 125.3980 125.4949 125.5948 125.6887 125.7929 125.9005 126.0019 126.1143 126.2134 126.3463 126.2861 126.5716 126.6894 126.7713 126.8931 126.9946 127.1004 127.2675 127.2327 127.3300
121.7700 121.2779 125.2327 124.7289 121.1163 116.0045 119.6253 120.2854 110.4440 123.4254 119.6792 120.9997 102.1814 100.4049 114.7981 127.1713 122.7008 116.9964 119.0080 119.6824 113.7636 108.5265 120.8605 124.8359 123.2771 124.1552 124.1215 124.0200 123.9420 124.0665 124.1494 124.2640 124.2420 124.3107 124.3792 124.4788 124.5209 124.6139 124.6471 124.7773 124.8504 124.9390 125.0336 125.1195 125.2267 125.3195 125.4196 125.5235 125.6340 125.7348 125.8530 125.9542 126.0694 126.1786 126.2956 126.4209 126.5260 126.6410 126.7587 126.8720 126.9911 127.1099 127.2202 127.3100
125.3800 125.1655 123.1078 125.2211 123.2605 116.6107 119.9138 120.1755 121.8335 123.2040 118.5171 119.0769 120.0172 107.6648 117.2911 117.6629 117.1460 117.4636 115.5817 122.5441 105.2579 107.8220 112.0493 125.2627 116.0661 124.5868 123.8891 124.1031 124.5207 123.9534 124.3310 123.9595 124.0895 124.1335 124.1849 124.2338 124.4978 124.3661 124.7037 124.6455 124.6457 124.7401 124.8397 124.9520 125.0079 125.1343 125.2371 125.3544 125.4379 125.5864 125.6863 125.8039 125.9198 126.0367 126.1513 126.2769 126.3949 126.5118 126.6265 126.7489 126.8730 126.9898 127.1072 127.1600
125.2000 125.2503 122.3462 122.1461 119.4071 109.7171 119.9311 107.8218 118.3986 122.2843 120.0219 120.8047 122.5676 99.4163 102.2497 101.8776 115.9334 128.8958 122.2495 115.6725 118.8191 118.5321 120.4350 124.0850 126.0912 123.7987 124.0172 115.4911 123.6276 121.0965 122.6202 123.6786 123.8602 123.9059 124.0208 123.9416 124.0193 121.4074 123.7613 123.7118 124.5367 124.5437 124.6697 124.4878 124.7538 124.9801 125.1578 125.1818 125.5994 125.3162 125.5403 125.6620 125.7695 125.8874 126.0128 126.1351 126.2529 126.3829 126.5049 126.6254 126.7465 126.8713 126.9908 127.1200
125.0000 124.9527 123.7797 124.5319 122.6696 105.4923 113.4359 115.3417 120.0932 118.3708 104.9873 125.5436 119.8965 108.7301 100.9783 105.7860 121.9181 107.4501 117.9623 112.8156 127.1353 125.6184 126.0088 123.1415 122.9661 123.4008 123.3629 123.7015 123.4233 119.5903 123.7674 123.6281 123.5857 123.6208 123.3183 123.9918 124.0991 123.8122 124.6610 128.3366 123.6482 124.2113 124.4904 124.7250 125.1294 124.5337 124.8500 121.3734 125.4650 125.3552 125.3509 125.4468 125.6135 125.7404 125.8682 125.9921 126.1193 126.2477 126.3746 126.5076 126.6199 126.7170 126.9659 126.9700
124.7800 118.0686 124.4211 118.1653 120.9735 119.8203 115.9103 117.4093 118.3686 122.0884 100.6218 129.6229 102.2229 112.7273 101.1593 100.5162 113.2614 108.5252 114.8003 116.8153 123.6722 122.8871 120.1454 122.9527 122.9356 122.6725 122.4222 119.0926 123.1864 123.5006 123.6484 122.3558 123.2918 124.2629 124.0969 117.1706 112.8517 124.0463 119.8529 115.3720 128.3259 124.1776 124.4244 124.2119 119.4731 124.0902 125.4597 121.1910 111.3530 121.9043 125.7103 125.2769 125.4844 125.5779 125.7210 125.8512 125.9857 126.1159 126.2588 126.3887 126.4531 126.6289 125.7194 126.9200
124.7500 106.7488 118.4076 103.2447 125.3388 117.5813 116.5303 118.4558 113.5582 119.2754 102.4690 128.0638 105.7806 101.0011 101.2407 100.6232 110.7854 109.5232 122.6970 115.3353 123.7456 122.9308 122.8108 123.5965 124.0943 125.2907 113.8836 124.7755 123.4336 122.6209 122.2541 117.7220 125.0069 118.0998 126.8569 131.6903 126.3127 130.2620 116.2602 121.0819 115.9905 123.8494 124.4961 123.5517 120.0283 124.4880 124.2781 118.4187 113.0630 111.0706 119.0842 125.6814 125.2665 125.4554 125.5751 125.7123 125.8489 125.9844 126.1078 126.2310 126.5879 126.4753 124.3059 127.6800
124.5500 116.3987 125.0020 117.1112 115.1339 116.0019 114.4993 108.6275 101.5819 115.0144 122.3243 102.5136 115.3231 101.2323 100.9965 101.1332 100.1689 105.2472 113.5551 112.3388 124.1326 122.4839 126.7345 123.8943 108.5892 115.4720 104.5031 122.0840 119.3773 120.2278 124.4618 122.1098 122.5718 110.1412 119.7722 126.6098 115.4770 122.4727 119.1180 124.5254 119.8104 124.2333 124.3430 115.0214 113.1186 112.7716 116.1099 122.5935 118.9732 121.6167 120.9523 125.0616 125.1460 125.2940 125.4291 125.5678 125.7042 125.8405 125.9893 126.7082 120.3457 127.1712 127.1265 126.5900
124.3300 102.9193 113.5192 121.0664 121.2013 114.4773 112.2982 112.4001 108.5391 98.9296 107.2072 99.2510 100.2684 100.0035 100.7251 99.8457 105.0165 103.6568 123.7480 126.8448 125.5930 122.2694 122.8684 124.8676 121.1623 121.6107 119.6643 111.9510 117.7020 113.8020 119.6328 120.2979 126.6373 102.6607 109.2056 102.1149 125.1709 124.2761 120.2911 124.2934 122.0706 119.1226 125.5577 119.6589 124.0510 105.4459 120.5397 122.0033 124.3066 125.6874 124.7038 125.0090 125.1641 125.1200 125.2865 125.4325 125.5730 125.7316 125.8288 126.3538 125.2611 122.9393 124.6779 126.5700
112.9600 122.8866 117.9183 111.1579 117.4837 120.5527 113.9967 106.0068 107.9851 100.3417 114.9756 115.5295 100.2185 100.2172 100.8518 103.1395 125.2421 107.5770 115.8152 121.2050 121.4266 121.9311 122.0173 121.9352 121.3932 120.7892 121.4131 119.1613 121.4896 121.5808 122.7089 121.2521 124.2254 100.6885 121.3530 116.6399 119.3589 122.3328 123.1021 123.5674 120.2092 113.1443 110.7565 117.1937 119.7192 119.3432 124.1448 124.5305 124.2807 123.7777 124.2809 124.7262 123.2604 125.1424 125.1215 125.2990 125.2240 125.3976 125.7739 125.8327 126.3866 124.8231 126.2095 126.3700
116.5000 123.8122 123.3654 115.3212 110.6642 114.2639 107.3739 102.5978 107.0073 105.5117 107.0221 114.4963 102.2749 118.0406 91.8651 104.5271 115.4640 106.8218 116.1770 122.0689 122.0042 121.7264 121.6834 121.6746 121.6829 121.7542 121.9425 116.4288 122.3307 121.4657 122.2934 121.7476 121.9342 106.8207 101.7205 118.5540 121.4011 122.6610 122.6280 121.6647 113.7510 118.7145 114.7558 116.4113 123.6695 124.0850 123.8113 123.9396 123.7819 127.0120 122.0791 122.0204 125.0988 124.8551 124.9806 125.1310 126.0293 126.5785 125.5143 125.7390 125.8929 126.3963 126.6475 126.2200
123.6400 123.8669 124.1147 122.5641 114.9182 118.6737 106.9851 100.9547 120.9687 120.3760 114.4208 109.3721 116.5571 99.4200 102.7243 98.6082 97.9970 111.5360 118.6045 121.4305 121.4523 121.4076 121.3756 121.3205 121.2928 121.3675 121.4284 122.1009 121.5840 112.5119 121.7600 121.5188 121.9279 121.6589 114.4719 114.4749 123.4615 122.1523 122.3867 122.6535 131.3801 107.7618 117.2519 123.7780 123.5074 123.3515 123.5114 123.7364 123.6323 124.7725 118.0047 112.5080 124.6294 124.5991 124.8729 125.0000 125.3574 125.2637 125.4827 125.6308 125.7844 125.9178 126.1034 126.1700
123.5700 123.3552 123.2714 123.0277 121.3258 118.7562 107.8669 106.2200 110.4960 104.7073 103.3474 106.6127 114.5023 99.7579 104.9899 102.9053 102.5867 109.4909 118.6937 120.9510 121.1113 121.0766 121.0889 121.0969 121.0664 121.0785 121.0738 121.0386 121.2759 121.3360 121.3341 121.5265 121.4502 118.5332 111.3802 114.1506 119.1402 121.9024 122.1946 122.2781 122.9330 108.7174 120.4777 122.9541 122.9590 123.2302 123.4039 123.6332 123.1648 119.2325 124.1343 124.3229 124.2179 124.5524 124.7057 124.9129 124.3694 123.6203 125.4879 125.5138 125.6658 125.8244 125.9838 126.1300
123.3300 127.6632 125.0417 123.1167 123.6786 118.5831 108.9078 105.7322 107.4916 106.5161 107.9576 104.3442 111.7166 97.4299 99.2767 109.1654 108.5381 110.4167 117.7547 122.3489 120.4810 120.7470 119.8662 120.4407 120.6102 120.5438 120.7830 120.8369 120.6228 121.2374 120.8875 120.9663 121.2770 119.3800 109.8608 121.0324 118.9461 121.8930 121.9024 121.9511 122.2045 122.6835 122.5093 122.7118 122.9695 123.0294 123.4580 120.8693 116.7183 121.2656 124.9395 123.5947 124.2477 124.3866 124.5583 124.7119 124.9885 125.3776 125.2104 125.3990 125.5572 125.7142 125.8714 125.9700
123.1100 122.9288 122.8493 119.2716 119.2795 116.0049 100.6379 107.1687 107.0685 107.2235 107.1417 104.8386 100.7630 102.6680 106.0497 115.8651 111.0270 104.7035 115.8067 121.2144 120.0857 121.0592 109.6974 122.3481 121.1026 120.9033 120.9406 120.0192 121.3326 116.3222 120.6093 120.7648 112.5062 114.3601 116.0317 121.8016 122.0644 121.4084 121.6701 121.8190 121.3045 122.9224 122.0891 122.4815 122.3628 122.3851 124.4540 113.1899 119.7627 122.9961 132.6906 123.6558 124.2438 124.2158 124.4198 124.5870 124.7484 124.9203 125.1014 125.2699 125.4378 125.6049 125.7636 125.9300
123.0400 122.8499 122.6795 121.9071 118.1238 112.1838 100.4041 106.6598 107.7260 107.6681 108.4354 114.5665 99.0097 101.3751 97.1849 116.5706 116.7205 113.8768 114.3748 120.0073 118.8591 121.4511 113.8212 114.2607 114.4913 117.6734 119.6758 126.2482 108.7874 116.8516 119.7963 122.2400 125.6066 111.9915 110.3046 98.2326 120.7430 121.1481 121.3044 121.7948 120.0813 120.5638 122.0732 122.2649 122.2644 125.2309 119.5893 122.7673 120.7619 122.4930 119.2933 123.7562 123.8915 124.0913 124.2737 124.4496 124.6353 124.8185 124.9801 125.1542 125.3266 125.5053 125.6682 125.7600
122.7700 123.1374 123.7416 122.3854 121.2683 113.9685 114.1107 112.5903 106.4451 106.8534 107.9230 107.2695 103.8295 110.2318 96.9011 104.6993 110.7472 102.8991 115.2272 119.6954 109.8010 113.8705 120.4149 119.4656 117.5693 122.8399 119.4480 119.9883 121.0115 120.5252 108.2436 109.3368 113.2264 115.2686 106.3236 121.8976 120.3410 120.4764 121.7489 121.2489 121.7014 121.8651 121.6825 121.9722 120.8910 112.9718 123.2560 123.0475 112.4795 122.4911 124.4016 123.5448 123.7636 123.9395 124.1265 124.3228 124.4989 124.6789 124.8642 125.0315 125.2215 125.3267 125.5350 125.7200
122.7200 118.9888 118.3320 122.3509 113.3058 113.0430 113.8299 104.7564 96.7655 110.0521 108.2466 105.5611 101.2435 96.6872 100.6089 97.1676 120.8042 101.2936 101.5144 119.9908 117.9047 116.4396 118.9678 119.5944 122.3005 119.9569 119.3974 119.1335 119.2780 120.5069 123.5768 106.5071 110.8989 96.6507 112.1220 122.2160 118.6975 110.6931 120.7797 120.5433 120.9673 120.7426 123.5895 121.7179 121.5531 110.5347 112.3929 126.7752 118.6665 123.3773 123.1278 123.3489 123.6035 123.7966 123.9887 124.1866 124.3718 124.5552 124.7401 124.9272 125.0573 125.8714 125.3373 125.5100
122.4700 123.6765 111.8830 121.3597 114.4121 114.0955 111.4229 124.7193 123.7671 106.9518 105.1353 104.9553 102.5551 101.6624 107.6029 97.6673 108.8825 101.9354 99.5402 118.5979 118.3791 119.3334 119.0581 118.7377 118.5619 118.8220 118.8249 118.8278 119.0485 113.4694 100.6415 104.7736 104.6176 126.7842 89.9007 113.7600 110.8254 120.5107 121.9546 120.7195 126.5980 113.8615 115.8769 108.7418 123.3548 117.4560 115.2392 121.3270 122.6337 123.0490 123.0341 123.2583 123.4553 123.6515 123.8522 124.0467 124.2432 124.4355 124.6320 124.8155 124.9272 125.7248 125.3453 125.4800
122.1500 122.1066 111.5990 111.4236 112.2355 102.7418 110.9752 110.4973 113.3274 104.2423 100.2627 102.0658 103.9413 105.8107 99.7718 110.1155 117.0370 117.8259 125.6790 118.3190 118.0485 118.3971 118.3311 118.3334 118.3498 118.3489 118.3822 118.7868 118.4313 112.9383 106.2818 106.0134 116.3051 119.7002 106.5820 107.1246 115.5915 119.6111 120.2250 120.0381 122.1312 107.6406 113.0480 116.4520 122.0574 123.5065 113.1949 121.7696 122.3434 122.6352 122.8787 123.0869 123.2995 123.5114 123.7168 123.9228 124.1179 124.3154 124.5141 124.7019 124.8906 125.0433 125.2612 125.4800
122.1500 118.0956 114.5035 114.0679 110.7856 105.8278 110.9097 108.6117 125.8792 113.7028 102.4592 103.8355 106.6519 118.3955 105.7947 120.5322 118.8665 118.3114 117.9154 118.3710 117.8959 117.8887 117.8550 117.8276 117.8705 117.8316 117.8754 116.4595 118.3257 111.0721 120.2401 99.7977 117.2836 118.9678 119.6987 117.4158 120.3322 119.7992 119.8991 120.2189 120.9920 119.0288 123.1652 114.0222 108.8409 124.9340 115.7805 122.2760 122.1836 122.5069 122.7227 122.9342 123.1587 123.3754 123.5888 123.7996 123.9925 124.2008 124.3997 124.6005 124.7980 124.9849 125.1736 125.2700
114.6100 111.6447 113.8246 109.4460 108.4564 116.5883 112.0702 101.4738 109.7851 111.6177 114.3275 106.2366 109.8897 110.1899 117.6445 104.9438 123.0948 117.9379 117.8825 117.6778 117.5821 117.1647 116.9482 117.5868 117.4253 117.3835 117.1150 114.8144 128.9230 122.2104 118.4194 117.3914 118.3125 120.1344 104.7706 110.1910 119.7012 119.2756 119.6312 119.8975 120.0872 120.5598 116.8443 115.5023 117.2351 110.0946 121.1948 121.9705 122.0923 122.3300 122.5564 122.7867 123.0199 123.2378 123.4508 123.6701 123.9050 124.0933 124.3034 124.4964 124.6923 124.8888 125.0775 125.2400
121.5500 116.8561 111.7143 111.8326 110.5449 111.0927 114.4307 105.7109 104.3195 105.8348 105.3442 101.5413 109.7319 116.2900 120.7913 100.8517 117.8296 117.6019 117.3222 117.1705 117.4866 117.4371 111.3298 112.8908 117.3490 116.8748 117.0500 116.5414 116.0601 118.6034 117.3526 117.4493 116.8126 112.8508 115.7116 119.2043 119.0540 119.0090 119.3366 119.5962 119.8392 120.3187 117.4032 112.9125 113.9468 121.0480 121.2269 121.7232 121.9071 122.1592 122.4033 122.6331 122.8684 123.1104 123.3233 123.5523 123.7237 123.9811 124.1594 124.4192 124.5883 124.8114 125.0016 125.0600
121.4800 121.9858 111.4542 111.4810 111.2589 114.2546 103.0132 113.2418 106.0361 103.2562 105.9285 105.9512 114.5902 119.9589 107.0432 104.1818 119.3918 117.0557 116.8549 116.6860 116.2834 116.9202 107.5980 117.4257 116.1018 116.3542 116.4042 116.7269 116.7868 116.8932 118.2552 117.2965 117.2722 104.3046 119.5454 108.9439 118.7105 118.8645 118.7390 119.5867 119.5949 119.7366 120.3855 120.6038 120.9441 121.4122 121.1724 121.4864 121.7719 121.9307 122.2788 122.4319 122.7239 122.9596 123.2714 123.5154 123.6520 123.2119 124.2510 124.3028 124.5213 124.7583 124.6703 125.0300
121.4100 118.0584 111.1414 111.8733 109.9000 113.3130 119.7412 113.3992 111.3857 98.4037 103.6210 106.6335 100.3574 107.6696 111.4018 104.6905 116.4607 116.5338 116.3168 116.1422 115.9898 115.8121 116.2937 115.7996 115.6595 115.7431 115.8258 115.9145 116.0762 116.2164 116.4734 109.3875 118.8695 117.4218 107.7281 114.3949 119.4231 119.6798 117.3157 115.8109 119.0283 119.6265 119.0912 118.5859 120.5541 120.7055 121.0322 121.3198 121.6429 122.4003 120.5303 122.9363 123.0247 122.7238 122.9598 123.1518 124.7621 116.2523 125.1816 124.0848 124.2900 127.9384 119.0617 125.0000
121.1300 118.6811 110.7165 111.3994 122.4095 100.2967 111.8303 108.2843 104.2131 105.7030 97.9726 106.3519 114.2923 117.7248 116.4978 116.4164 116.2183 116.0644 115.7808 115.5729 115.3806 115.2618 114.9946 115.0093 115.0937 115.1123 115.2149 115.3248 115.5547 115.7337 115.9165 117.0108 116.2656 118.4890 103.5120 116.2358 117.5265 117.8229 118.5713 119.8200 118.2098 118.7590 119.8585 120.1129 120.2727 120.5942 120.8682 121.0414 120.8578 119.8227 107.0918 121.0824 120.3733 120.2927 113.4915 123.2330 123.3740 124.0160 123.7886 124.1064 124.4409 125.0583 115.8108 124.9700
121.0700 120.1226 108.9590 113.9006 109.7966 103.2655 99.7204 107.1733 110.2070 99.7653 104.8570 108.2616 116.1629 116.7505 116.2988 116.0931 115.7500 115.4670 115.2207 114.9648 114.7601 114.5794 114.5545 114.5912 114.4608 114.4793 114.5132 114.7232 114.6872 115.5458 115.8564 115.9173 115.9487 117.2947 105.8116 114.2325 117.5517 117.8350 117.8033 118.1544 115.7050 122.0602 119.5118 119.7102 120.0619 120.3726 120.7176 121.1681 121.6471 115.0639 112.9802 111.2386 110.7676 112.6871 115.9539 123.6794 123.3346 123.5008 123.8137 124.0302 124.3301 124.2689 124.8914 124.7900
120.7200 121.4259 113.8969 120.0583 122.4567 113.6970 94.5824 94.7518 106.9955 100.9573 105.8139 110.3623 117.3372 116.3893 115.9994 115.6363 115.2716 114.9253 114.6045 114.3174 114.0735 113.8745 113.5563 112.9328 113.3039 113.5977 114.1495 113.0377 113.2709 118.4876 99.9600 115.6917 115.5392 115.3181 112.6848 111.3935 117.3865 117.3984 117.6878 118.4640 114.5011 122.4097 119.1007 119.5411 119.9416 120.2064 120.4881 121.2812 123.1506 129.1445 127.1655 111.3153 117.1455 124.1401 123.3337 122.8615 123.2928 123.5218 123.7292 123.9785 124.1930 124.9580 124.9431 124.7700
120.6700 120.3776 116.4678 119.8472 112.6745 108.3043 98.4006 114.5226 102.1047 104.0792 99.5457 109.7624 116.2604 115.9230 115.5243 115.1171 114.7088 114.3295 113.9604 113.6306 113.3438 113.1152 112.6650 116.8170 116.2939 112.8499 111.0180 113.1680 97.1007 98.8074 106.9573 113.7526 114.3463 115.4140 118.7018 117.5067 116.7260 117.0619 117.4192 118.2830 118.0802 117.7488 119.0934 119.2898 119.5501 120.0375 120.3820 120.5408 120.3722 123.5112 120.6668 109.3340 122.7406 121.9348 122.6014 122.8282 123.2091 123.3974 123.6393 123.7991 124.3440 116.9035 122.5946 124.7200
120.6700 122.1018 111.6945 115.6885 108.8449 111.4515 113.2752 118.1936 104.4940 108.9234 111.1195 119.3710 116.5098 115.6892 115.0528 114.6049 114.1533 113.7103 113.2829 112.8932 112.5643 112.2635 112.0869 112.1465 112.1498 112.0155 107.9925 106.9962 114.9127 115.2962 105.4225 115.1339 119.5270 114.5779 114.6293 115.0211 116.2054 116.7485 117.2550 117.6715 117.8771 119.5610 118.5046 120.8694 120.3660 119.8089 120.2025 120.5562 121.0138 122.2266 117.1610 120.3616 121.8993 122.5045 123.0250 124.1589 123.0849 123.3163 123.6156 123.7474 124.4279 119.8549 124.1412 124.7200
120.3200 114.0481 105.4698 107.2824 115.4851 105.7975 107.8228 95.8201 103.6370 102.3307 109.3987 119.0635 115.1472 115.1448 114.5763 114.0676 113.5269 113.0589 112.5647 112.1042 111.6978 111.3591 111.0992 110.9755 110.9499 111.2220 112.0176 110.8553 111.6761 106.0636 100.7676 112.8815 115.6847 114.9664 115.5726 115.1463 116.8501 116.2501 116.9618 116.5220 118.5809 104.9918 119.2968 108.4892 119.2325 120.0312 119.9769 120.3796 120.5156 121.1022 107.1123 117.0519 121.4293 122.4448 120.0292 124.0961 122.9488 123.2658 123.2839 123.7430 117.8268 125.1637 124.2073 124.5200
120.2800 108.9239 110.7113 102.8176 104.6830 103.4331 112.7198 103.9617 103.8100 107.3240 119.6382 115.3425 115.2658 114.7211 114.2420 113.5824 112.9640 112.3936 111.8124 111.2642 110.7665 110.3424 110.0345 109.8473 109.8207 109.9342 110.0608 110.7645 110.9900 111.5040 112.5861 114.3210 100.9275 114.4490 111.4417 112.4314 115.7204 116.1665 115.6598 127.1274 116.9755 115.1196 118.2929 120.4258 115.4101 120.6026 119.9743 120.2990 120.6278 122.7032 107.5078 122.9981 122.7532 122.9615 121.7019 122.7350 122.9597 123.1932 123.3981 123.1062 121.7440 123.0866 124.7350 124.5000
120.2300 107.7804 112.8966 113.5975 117.2437 107.4400 98.4878 98.4725 101.8913 115.5331 118.0650 115.7696 114.7994 114.4733 113.5352 112.1929 112.4657 111.6731 111.0212 110.3647 109.7474 109.2141 108.8028 108.5739 108.5413 108.7242 109.1146 109.6185 110.1744 110.8104 112.5537 112.6101 116.2783 113.1294 113.7667 114.6374 115.2281 115.8102 116.1577 118.1885 117.2415 117.9720 118.0832 119.8762 113.4827 109.7634 120.5886 119.7191 120.1333 108.8665 112.0791 110.0385 110.8612 123.3122 122.0652 122.6105 122.8469 123.2687 124.2442 125.0713 122.2538 106.8462 125.0202 124.4800
119.9400 120.2741 113.0374 121.3655 111.4808 109.2339 119.5170 103.1771 102.0332 99.7190 119.0115 114.8357 114.5193 113.1407 121.0264 114.7146 111.9476 110.9344 110.2108 109.3960 108.6371 107.9366 107.3913 107.0711 107.0223 107.2695 107.7546 108.4089 109.2015 109.9119 110.8831 111.2751 112.0706 113.0580 113.7143 114.3442 114.9748 115.5685 116.0324 117.6002 117.0693 117.6371 119.3553 106.1405 101.7169 115.6204 119.6361 120.1988 120.1585 120.7259 118.1648 121.6489 121.3663 121.9826 122.3047 122.5625 122.9373 122.5771 133.1071 118.2664 114.4267 108.6201 123.7658 124.4600
119.9000 119.2404 117.6378 107.5398 105.4148 105.1093 108.7331 99.5957 106.9938 108.1953 116.7808 114.7483 114.2073 113.6468 112.2862 111.3818 111.2839 110.3081 109.3748 108.3987 107.4226 106.4906 105.7247 105.2587 105.1903 105.5502 106.2453 107.1502 108.1045 109.1053 110.0344 110.9826 111.8340 112.6432 113.3442 114.0427 114.7165 115.3409 115.8811 116.4439 116.1033 110.8706 114.7751 110.2776 101.4206 115.0148 119.6884 120.0611 119.5523 123.5671 120.9193 121.1490 121.6045 121.8381 122.2325 122.5117 122.6369 123.3172 122.3873 123.6463 124.4195 127.3980 109.4880 109.3900
119.8700 119.3628 116.4204 103.3976 103.6319 103.4300 97.7247 104.0566 99.9064 124.5184 115.5999 114.9030 113.8885 113.2321 112.5388 111.6705 110.6612 109.6686 108.5645 107.3765 106.1228 104.8617 103.7184 102.9566 102.8458 103.4448 104.5059 105.7438 107.0156 108.2255 109.3457 110.3733 111.3150 112.2006 113.0273 113.8478 114.2547 114.8642 114.8140 117.4241 103.5385 119.1968 113.6921 110.6107 104.8911 120.6585 119.4341 119.9112 120.1148 120.3335 120.9557 121.3731 121.6901 123.0744 122.1676 122.7259 122.9606 119.5987 123.5839 122.9352 123.5172 121.6125 125.8331 121.9000
119.8500 119.8856 120.6074 111.0684 107.5057 106.2057 105.8278 100.7427 99.3432 106.9208 111.0827 114.6594 113.7202 112.9772 112.1179 111.1882 110.1854 109.0752 107.8045 106.3782 104.7773 103.0269 101.2438 99.9680 99.7094 100.7897 102.4938 104.2795 105.9337 107.4077 108.7241 109.8892 110.9434 111.8940 112.7234 113.2867 116.3249 116.0118 116.8978 118.1579 118.1189 119.1384 107.6771 111.2692 118.6653 118.7776 119.4772 119.8362 120.2438 120.6306 120.8746 121.2721 123.3802 122.6257 122.2145 123.5108 123.1757 127.0625 123.8403 123.9686 124.1683 126.7825 114.1780 110.2800
119.8300 118.0952 119.2407 103.6044 108.2053 106.8342 103.0997 110.4659 108.0753 115.8177 115.9923 114.7937 113.5958 112.7868 111.9184 110.9433 109.8425 108.5983 107.1744 105.5074 103.5133 101.0586 98.2188 94.8462 94.3722 97.2001 100.2655 102.8502 104.9620 106.7171 108.2086 109.4961 110.6265 111.6211 112.6425 113.9733 115.6513 106.6917 109.7670 110.3307 117.4072 108.0361 112.0950 122.4914 118.2383 119.0374 119.4154 119.8009 120.1669 120.5160 120.8668 121.2938 121.2850 121.7575 122.1683 117.4017 122.5117 113.8472 119.4785 123.6681 123.5528 124.3624 123.0079 134.1200
119.8100 119.0820 113.3958 111.2268 103.8473 115.4582 108.0333 109.9332 114.5258 115.8957 114.6329 114.1413 113.4712 112.6558 111.7507 110.7389 109.5937 108.2771 106.7354 104.8729 102.5136 99.3470 94.3703 88.7713 87.9473 92.3398 98.2935 101.6944 104.2380 106.2292 107.8552 109.2338 110.4294 111.4426 112.1715 118.3515 109.4104 108.6353 106.2948 112.3140 115.3447 108.0764 108.7981 117.7871 118.3777 118.9681 119.3891 119.7718 120.1473 120.5099 120.8509 121.2262 121.6011 121.8812 121.8115 120.3014 123.1736 120.0855 116.6902 124.1437 123.8097 123.7898 124.1080 113.1000
119.8000 120.8824 120.7354 118.1271 108.6076 117.3461 119.4106 99.6655 109.5981 116.0022 114.9823 114.2413 113.5217 112.6552 111.6905 110.6676 109.4969 108.1515 106.5589 104.6010 102.0729 98.5246 91.9557 85.1853 84.6669 89.2910 97.2028 101.1727 103.9369 106.0346 107.7109 109.1261 110.3418 111.3850 112.4595 112.5837 119.3737 123.0228 118.0049 116.6290 112.4701 127.7302 113.1701 118.4710 118.2407 118.9626 119.3737 119.7640 120.1386 120.5016 120.8423 121.1737 121.4796 121.7790 122.1533 122.2784 122.6671 123.2394 123.8788 123.3891 123.6770 123.8991 125.0917 132.2200
103.9300 111.1310 109.7501 128.6523 112.9220 117.4417 117.7974 111.0783 116.9541 115.5707 114.9118 114.0983 113.1369 112.4945 111.7424 110.7273 109.5588 108.2287 106.6620 104.7625 102.3370 99.0124 93.4559 87.7168 86.7558 91.1674 97.8183 101.4907 104.1234 106.1531 107.8040 109.1846 110.3801 111.6290 112.2907 114.0966 116.2706 108.5276 100.6166 116.8588 115.6211 117.2483 118.4225 119.1336 118.3562 118.9649 119.3799 119.7702 120.1451 120.5091 120.8469 121.1830 121.5041 121.8207 122.0823 122.2927 122.7298 122.7997 123.1466 123.4792 123.6837 125.9825 114.6836 117.3700
109.5500 100.0318 98.8671 113.4417 110.8780 118.4319 117.7400 117.4220 116.0791 115.5383 115.0391 114.8828 114.4527 112.8016 111.8333 110.8983 109.7545 108.5038 107.0409 105.3126 103.2190 100.5980 96.9352 92.9943 92.4942 96.0591 99.7102 102.5289 104.7517 106.5675 108.1028 109.4143 110.5144 111.8687 113.1743 122.7905 102.5627 103.6469 111.5276 115.9395 116.6414 120.9413 107.2267 107.8165 119.0659 119.0320 119.3929 119.7949 120.1691 120.5223 120.8659 121.2006 121.5170 121.8307 122.1386 122.4189 122.5922 122.8205 123.2282 123.5739 123.4447 119.4621 112.9622 119.5500
108.9600 117.8426 116.3714 116.5730 118.0548 117.7923 117.2994 116.8009 116.4390 115.9773 114.5693 109.5444 107.0899 110.3466 112.7507 111.1547 110.0974 108.9468 107.6336 106.1395 104.4440 102.5128 100.5072 98.9474 98.6043 99.9978 101.9273 103.9102 105.6733 107.2162 108.5763 109.7831 110.7562 111.7690 121.1972 116.6028 113.2576 112.7466 115.9492 116.7938 116.6124 115.1879 127.2140 115.1533 118.8560 119.0646 119.4348 119.8317 120.2039 120.5535 120.8980 121.2297 121.5454 121.8616 122.1861 121.9018 122.5634 123.6468 123.2596 123.4148 123.6655 125.4225 107.3160 108.7800
97.8900 110.9341 118.7823 119.0305 118.3887 117.9527 117.4780 117.0011 115.9877 112.9861 115.0776 97.3455 115.7200 101.1702 113.4610 111.3529 110.5382 109.5001 108.3692 107.1183 105.7857 104.4174 103.1207 102.2306 102.1108 102.8121 104.0140 105.3865 106.7377 108.0152 109.1823 110.2418 111.2413 112.3961 112.7209 113.4718 114.8909 114.4198 117.0761 112.1114 116.5915 117.4749 118.1788 118.1455 118.7450 119.1247 119.4969 119.8859 120.2441 120.6042 120.9348 121.2671 121.5781 121.8983 122.3691 120.9843 128.4156 114.7855 123.1153 123.7237 123.6427 117.1057 118.9844 120.6100
119.8600 119.2394 119.3246 118.9363 118.4813 117.9981 117.6267 116.1395 118.2288 92.7188 95.5542 95.3822 116.7082 113.1697 112.7008 111.9353 111.0913 110.1253 109.1581 108.1097 107.0756 106.0814 105.2534 104.7042 104.6295 105.0446 105.8301 106.8007 107.8382 108.8706 109.8670 110.8007 111.6636 112.6637 113.1586 120.9094 114.1995 114.7094 118.5177 116.8562 117.6578 106.6907 108.0113 119.1769 118.7996 119.1851 119.5801 119.9518 120.3178 120.6626 120.9905 121.3204 121.6281 121.9229 122.2051 122.5918 122.9925 122.8589 123.1492 123.6406 123.9030 124.4148 125.4261 127.1600
107.4000 114.8180 119.4045 119.0372 118.5698 118.2030 116.6282 99.6038 92.9977 96.8324 99.3633 117.3912 114.3552 114.3427 112.9734 112.4929 111.3227 112.0871 109.2558 109.4793 108.2763 107.5893 106.9875 106.6195 106.5735 106.8500 107.3895 108.1058 108.9122 109.7466 110.5851 111.3976 112.1751 112.9149 113.3626 114.1789 114.9617 111.6821 107.9942 119.4309 117.1626 118.2897 119.1539 118.7732 118.9111 119.2757 119.6679 120.0336 120.3878 120.7301 121.0569 121.3779 121.6862 121.9785 122.2715 122.5337 122.7812 122.9585 123.2233 123.3961 122.4726 125.8504 128.5924 115.3400
122.0800 120.7394 119.4980 119.1428 118.2773 118.7114 106.8541 108.1945 114.4693 118.9498 116.6256 114.7496 114.7087 114.1713 113.7946 111.1123 112.5365 122.2067 110.3956 111.6401 109.4648 108.9072 108.4535 108.1976 108.1640 108.3604 108.7507 109.2882 109.9258 110.6075 111.3187 112.0138 112.7013 113.3609 114.1371 114.7663 115.2255 116.6235 113.5510 115.3702 115.1526 113.8875 118.3785 117.1726 118.9970 119.4128 119.7731 120.1314 120.4771 120.8131 121.1370 121.4500 121.7535 122.0410 122.3230 122.6003 122.8754 123.1699 123.4115 123.9865 139.3224 121.4993 127.9106 135.1000
120.2200 119.6668 119.6440 119.2483 118.8034 119.8294 119.6708 117.2365 115.6468 115.8066 115.9624 115.7609 115.1803 114.5169 114.8109 105.0863 112.2355 120.6352 106.4581 110.9789 110.4490 110.0715 109.7229 109.5301 109.4969 109.6473 109.9484 110.3714 110.8820 111.4453 112.0408 112.6405 113.2458 113.8365 114.3982 114.9383 115.5120 115.8099 118.2335 117.9257 104.9909 110.7983 118.3522 110.2930 119.6411 119.5341 119.8779 120.2377 120.5805 120.9098 121.2231 121.5266 121.8235 122.1168 122.3927 122.6554 122.9294 123.1796 123.4630 123.8894 112.8102 108.2289 107.2037 108.7100
118.1600 120.0100 119.7600 119.2300 118.9500 118.6700 118.0700 117.7600 117.4300 116.7500 116.4200 116.0200 115.2100 114.7900 114.3500 113.9500 113.4100 113.8900 106.2300 111.2600 111.2600 110.6600 110.7900 109.9000 109.9100 109.8700 110.7200 111.3700 111.2600 111.8900 112.3700 112.9000 113.4000 113.8800 114.7800 115.2000 115.6100 116.3800 116.7400 117.0900 100.7500 118.0500 118.3700 118.9500 119.2200 119.4900 120.0100 120.2600 120.7300 120.9600 121.1800 121.6100 121.8200 122.2200 122.4200 122.8000 122.9800 123.1600 123.5100 123.6700 132.2800 122.4900 108.0200 116.3700
