118.7100 118.4100 118.1400 117.4300 116.7100 116.3300 115.5100 115.0700 114.6000 113.6000 113.0500 111.8300 111.1500 109.6200 110.4000 105.2700 105.4300 103.9900 100.1700 100.1700 97.8400 97.8100 100.5900 100.5900 102.2900 105.4400 106.7100 107.8300 109.6200 110.4200 111.8300 112.4600 113.6000 114.1200 113.4000 120.2200 115.9300 116.7100 117.4700 103.3400 118.1000 115.6200 119.9800 106.4800 125.6300 112.4100 120.5900 102.3200 121.2800 121.5000 123.8900 119.6800 124.4100 107.0500 106.5200 110.6100 110.7700 114.9800 114.5800 102.2700 113.0900 102.5800 129.8000 120.2900
118.7100 118.7544 118.2708 117.7327 117.9082 117.6228 117.2363 116.5336 115.7220 114.9841 113.0144 124.8136 110.7572 109.9063 109.2593 105.4020 105.0062 103.3687 100.7465 97.4904 93.4722 92.6753 95.9765 99.6552 102.4596 104.7028 106.5316 108.0579 109.3824 110.5318 111.4974 112.6023 107.7933 113.5141 113.0282 117.3092 115.8775 116.5806 118.0384 112.0790 117.5145 115.4150 118.9700 116.9540 122.2568 116.0232 123.3405 123.7145 114.2902 112.7111 121.4440 113.8414 116.7913 109.4278 103.9497 106.4941 108.5527 111.7914 111.4449 105.7473 104.9817 112.2293 117.0668 120.2900
118.3800 119.0693 111.1359 115.8733 113.4123 108.7077 108.4407 107.8320 106.1912 108.4198 106.4895 109.2701 107.0548 108.0352 108.4700 106.8257 105.0474 102.4288 99.2183 93.8009 87.9662 87.0301 90.9951 97.7417 101.3895 104.0416 106.0839 107.7467 109.1476 110.3492 111.2904 111.9244 110.1600 114.0381 114.6963 115.1033 115.9547 116.5631 117.0669 118.2146 118.7191 118.6132 118.9994 119.2362 118.6892 122.7750 112.8592 113.4319 105.2390 104.1465 113.4439 107.9817 113.3363 101.3100 101.3329 102.2266 106.2619 104.1913 105.8442 106.2928 113.2600 108.6347 112.1408 119.4500
118.3800 119.2520 108.4596 113.3464 111.6677 99.9292 100.2734 99.4620 95.9992 102.2894 96.9775 90.5465 103.8616 107.1044 108.6522 106.4878 104.6229 102.1847 98.6765 92.1707 85.4023 84.4514 88.9973 96.9844 101.0301 103.8436 105.9537 107.6529 109.0832 110.3017 111.5520 112.7947 113.8955 114.0152 114.6356 115.3906 116.0580 116.6218 117.1279 116.9716 117.0154 118.6240 121.2233 119.9794 121.4829 124.3319 102.5151 105.4975 103.9440 103.9920 110.7907 125.7982 99.8236 111.6686 100.0697 101.7361 102.2363 101.0423 101.8530 101.9065 108.3177 114.4146 121.1694 119.2500
118.6900 118.9543 109.0860 105.8547 116.1787 113.0755 112.4552 112.2524 110.9682 111.5146 110.5482 108.7212 110.8060 107.3735 108.5275 106.7273 104.9366 102.5917 99.4262 94.4914 88.7002 87.8731 91.7677 98.0094 101.5499 104.1308 106.1431 107.7842 109.1878 110.4068 110.6248 111.0380 113.2044 113.9600 114.9233 115.2453 115.4277 116.3088 116.7761 117.9748 123.9801 121.7713 100.4693 121.3071 104.3522 104.9814 99.6998 103.0459 111.2088 102.0976 116.8039 104.4720 100.0251 101.7855 100.4502 100.6138 102.4084 103.2693 102.4117 105.9518 106.1308 106.9443 108.5650 107.6800
118.7000 118.4404 116.5721 116.6075 117.2835 117.6955 116.4144 115.4222 114.7271 114.0602 113.4099 109.5749 112.0706 110.1365 108.7240 107.2023 105.5445 103.5555 101.0940 98.2355 94.8055 93.9939 96.9903 100.0855 102.7216 104.8475 106.6431 108.1308 109.4427 110.8317 110.0837 125.7958 112.2730 114.0682 114.7389 112.8528 121.2888 117.3885 119.2081 110.7938 105.4495 113.1664 112.9189 122.3647 107.5411 103.0435 102.1655 105.1759 103.2977 104.8387 107.1053 106.6699 106.8043 107.5589 104.5341 108.4273 114.6049 105.2164 102.2025 103.0920 104.3003 113.2155 113.0865 114.3500
118.7200 118.3659 117.9173 117.8977 113.7890 103.8127 119.1036 114.9193 114.4335 113.7124 112.9144 114.2319 96.2032 112.3758 108.7374 107.8289 106.4099 104.8078 102.9824 101.1876 99.7804 99.5450 100.6136 102.3442 104.1453 105.8107 107.2803 108.6600 109.8314 110.8767 111.8662 113.2130 113.3295 114.2786 113.3993 126.8084 114.9122 117.4078 102.3822 99.8937 98.0090 98.6319 97.7614 98.1962 99.1659 99.5919 102.7858 102.9132 104.2165 107.5068 109.1003 110.0435 109.9197 110.4319 110.6113 113.9641 120.1763 107.3779 102.0885 104.8607 106.9091 115.2345 113.9473 114.3500
118.7400 118.3396 120.0153 99.8342 118.8206 120.4468 115.2715 115.3970 114.6738 114.1112 112.9889 108.6871 90.2443 109.9344 109.3062 108.6380 107.3711 106.1216 104.8578 103.6755 102.8576 102.7126 103.3105 104.3523 105.6078 106.0522 108.1861 109.2970 110.3218 111.2908 112.2129 113.0822 113.7998 115.2999 115.0139 110.3160 93.6355 117.4590 114.2772 117.9031 97.9899 97.0733 97.7431 99.0208 100.9562 101.4672 99.0562 102.8273 104.4231 106.2993 105.7347 106.7566 107.5936 108.7042 106.0532 115.0963 111.3828 101.2836 104.5087 113.5152 114.1017 114.6815 115.3567 115.6400
118.7700 118.5423 118.5319 117.9971 116.8461 116.5099 116.1433 115.4952 114.7421 114.0374 115.5471 95.9291 105.0276 94.9793 104.9993 109.2828 108.5083 107.4189 106.4480 105.6748 105.1745 105.0895 105.4499 106.1550 107.4606 103.6688 109.5993 109.9271 110.8978 111.7382 112.5429 113.0605 114.9096 112.6939 113.6638 91.4569 115.0772 118.0407 119.2248 108.7124 118.4994 103.8722 108.9841 99.5308 103.7883 104.4590 106.1986 107.5285 105.3233 105.1679 105.8551 108.0588 106.5825 105.9952 105.9211 101.4118 100.8934 101.5826 112.4977 111.5392 112.1380 112.8321 112.6408 115.2300
118.8100 118.6727 118.1232 117.6450 117.3962 116.8673 116.2923 115.7201 116.8986 114.7550 108.8963 100.8255 98.1694 101.8934 99.0460 102.2130 107.9058 108.6708 107.9603 107.3434 107.0109 106.9442 107.1826 107.6771 108.3511 109.0174 109.7860 110.7322 111.5000 112.2607 112.9940 112.2757 118.8528 104.7261 105.1515 97.3720 96.6845 112.7454 113.4377 118.5692 111.6690 106.5206 102.2820 99.4448 107.0469 106.2618 103.8525 107.1719 106.5150 106.2565 109.4567 112.7055 101.1857 100.0223 107.7105 115.0328 101.4840 102.4412 106.4858 111.1344 111.8945 112.3103 113.6735 103.0400
119.1900 118.7848 118.4023 117.9724 117.4572 116.9745 116.5589 115.4983 115.6109 116.2536 103.9723 102.9240 99.3349 96.4968 97.7795 93.7181 100.1320 111.9295 108.9759 108.8482 108.4509 108.4671 108.6435 109.0376 109.5158 110.1137 110.7741 111.4458 112.1220 112.7312 113.4706 114.0894 112.2043 107.0378 101.8157 93.9214 95.4296 93.6182 103.9376 118.3090 103.1092 102.4885 103.7375 105.6068 109.4485 109.3612 106.8792 109.5450 108.2376 103.6200 114.8873 107.1420 99.6898 101.6449 109.6748 109.5209 105.9559 105.4059 111.4419 112.6677 113.4100 113.2800 114.0084 114.7400
119.1900 118.9185 118.5072 118.0976 117.6788 117.2248 116.7761 117.0242 102.1231 110.9953 106.4058 99.6096 95.3471 95.3955 93.0165 95.1643 109.7289 100.2034 112.2560 108.9976 110.0244 109.7863 109.9011 110.1776 110.5704 111.0516 111.5997 112.1738 112.7649 113.5515 113.7622 115.0419 116.4522 122.4999 115.3090 98.0787 98.4689 103.8034 119.2716 110.4002 109.0815 98.4081 101.7561 103.6275 107.1001 108.2993 114.8135 119.0334 116.4584 107.4218 109.2973 106.0703 101.8964 104.4050 107.7158 105.6060 107.1254 106.2671 109.4483 110.7576 110.3341 114.5834 108.7010 109.8600
119.2500 119.0924 118.7012 118.3107 117.8896 117.4594 117.1021 116.3128 115.9272 102.6884 100.7172 111.9158 102.0695 99.4548 101.4279 90.9420 106.6113 102.8951 112.0153 107.4983 111.5435 110.8648 111.0121 111.2401 111.5453 111.9325 112.3850 112.9018 113.4645 113.1718 108.9858 117.7591 110.8366 111.9885 106.1496 97.6925 98.5934 105.1675 118.3293 102.0908 98.3602 100.3617 102.3474 103.9170 104.9715 107.1954 105.4634 112.9957 111.3338 111.8965 102.9012 100.3193 100.8585 115.6223 104.8626 105.5022 108.3353 107.7794 106.6248 105.8066 110.7611 110.5706 110.1799 103.2400
119.6300 119.2655 118.8937 118.5195 118.1240 117.7247 117.2939 116.6100 117.5259 107.9235 103.0044 108.8341 105.3547 97.0018 109.2350 110.5292 100.9433 106.8543 111.0381 105.5008 112.0796 111.7071 111.9118 112.0444 112.4083 112.7277 113.1215 113.5671 115.3014 118.1957 113.4633 104.9585 110.5986 99.6742 105.2591 97.6266 94.2784 99.9709 102.1458 103.9364 101.2960 101.4659 103.1873 105.9036 107.0045 106.4779 107.4868 106.9349 107.4286 109.8110 106.6047 108.3390 98.6770 105.8321 109.8529 113.0057 105.5577 105.5993 104.7065 104.9695 109.6532 107.4730 108.7468 109.5600
119.7000 119.4487 119.0996 118.7382 118.3614 117.9859 117.5727 117.2790 116.6261 115.5681 107.7461 101.4221 104.8518 98.5342 98.5880 96.9482 97.2177 95.4273 114.9720 98.5086 112.2129 104.3322 113.7100 113.8052 113.2571 113.8980 113.8427 113.0477 113.4200 91.4397 112.0848 114.4036 109.9909 107.8708 97.3293 99.8710 111.9067 112.8268 110.6665 101.5269 107.5806 99.0321 104.6271 106.1456 107.4523 107.4212 107.4220 107.5279 107.8287 108.8154 109.9871 111.2096 109.6513 102.5393 102.6587 115.7506 104.5636 106.3242 114.6706 115.7128 114.3564 105.3868 113.9853 115.2000
119.7700 119.6494 119.3129 118.9742 118.6196 118.2528 117.8924 117.5234 117.0727 117.1977 100.5359 102.4650 104.5409 100.4392 101.0527 94.4263 109.7878 104.6367 116.6366 107.4356 99.2493 91.5090 115.8529 105.4047 114.8863 110.4909 115.2100 116.4547 107.9937 105.0582 96.5792 112.9611 101.0853 110.3291 104.2769 101.9052 109.8866 106.4038 104.5816 102.0406 100.4385 102.2721 108.5603 103.3127 107.3401 107.2367 107.0696 108.3037 108.9492 109.3444 110.1245 110.9089 111.7115 112.2384 111.4316 117.1808 105.6147 115.4847 118.3274 118.5180 119.7879 117.3227 109.1453 103.2900
120.0900 119.8524 119.5293 119.2076 118.8758 118.5292 118.1858 117.8589 117.3319 117.8281 106.1638 102.4431 105.9812 104.2261 99.6816 105.4528 98.5412 114.3921 115.4796 96.4513 97.3275 89.7218 116.9534 107.6601 115.3790 114.4498 115.6314 111.7895 97.2316 94.7601 94.0913 95.6376 101.2517 99.7810 104.6650 105.2929 110.1096 103.4404 100.0009 101.7473 100.9045 107.9603 111.4969 107.8976 114.2303 106.9517 107.6357 108.0220 109.0994 108.4364 100.9562 100.1524 108.3405 114.5974 101.1112 102.6691 105.9005 115.3680 115.3113 115.7082 118.6149 116.7646 115.2977 103.4500
120.1700 120.0476 119.7568 119.4541 119.1342 118.8151 118.4968 118.1527 117.9033 117.4573 117.0245 102.6624 101.5778 102.1125 100.1137 111.8474 114.7141 116.2022 116.9983 97.8590 95.6608 102.1878 115.9849 115.8320 97.6652 116.9434 115.0901 98.5647 100.1580 105.3140 104.5731 96.7992 101.3781 99.9235 117.2283 96.4258 110.8509 99.3246 99.7622 97.4289 102.9119 102.9237 104.4806 103.8830 110.4225 109.6249 114.0131 108.8771 109.6447 100.4032 100.9101 100.2150 112.2709 106.7647 101.3827 101.5011 107.9639 112.9877 115.1755 115.9305 116.7321 112.2473 109.4861 103.4700
120.4800 120.3060 120.0079 119.7221 119.3901 119.1056 118.7975 118.3945 118.2505 117.6221 118.2477 115.0433 101.8062 102.1732 114.7199 118.3616 115.9279 116.0200 111.8690 110.0422 114.5745 117.7999 116.3515 115.7610 117.4367 99.9124 116.0160 105.1729 99.2041 107.5814 108.2769 101.3650 103.4471 109.9715 105.7105 104.7889 104.8954 97.2683 98.4647 99.1893 102.0093 104.4278 106.0911 106.7625 109.9016 110.8377 111.2531 110.8853 110.3663 106.5060 101.1547 101.0818 100.9936 101.3352 101.9331 101.6952 103.0624 103.8699 114.8880 114.4891 116.3256 114.8706 117.8849 117.9100
120.5600 117.3238 120.2408 119.8615 119.6738 119.3390 119.1463 118.8252 120.4520 117.3778 118.7832 113.2320 108.4434 106.3840 114.9605 113.1732 116.9896 116.6117 116.1775 117.2569 116.2459 116.3844 116.5370 116.3483 117.0698 112.0232 101.3574 101.6597 99.7237 111.1971 103.5781 102.3155 102.2192 108.8037 104.9143 107.6689 103.2392 97.6526 98.3602 100.8827 102.5916 107.8894 109.5436 107.8259 106.1778 107.9927 113.1531 109.6361 114.1415 101.3989 113.0960 98.7519 101.4048 101.8825 102.1186 102.1434 113.6022 109.1889 113.5284 112.9014 119.0901 104.2740 117.6430 117.6000
120.8600 109.9231 121.1644 119.9915 119.9417 119.6913 119.9134 116.7681 125.3861 119.5503 118.7971 108.1659 107.3555 109.0530 119.6990 109.8058 117.3289 116.9924 116.9771 116.8103 116.7912 116.9161 111.7974 117.3349 117.4526 100.7546 97.9291 103.5075 99.8345 102.6538 102.7922 100.6002 107.4427 109.8708 101.0625 108.9737 99.8087 97.8469 98.9494 100.9706 101.2811 100.1516 107.0618 115.6194 111.5025 113.6966 112.5581 100.6236 114.9763 100.2574 112.3289 107.8299 101.1720 101.6508 102.0030 103.9946 109.3528 114.3411 113.6761 114.4618 114.8320 116.2185 116.0226 116.1800
121.2300 121.1302 120.6127 120.3848 120.2253 119.8233 119.2395 99.8114 118.8800 119.8272 113.6589 106.1161 105.9703 95.3573 108.1215 101.2572 118.7057 117.3610 117.4811 117.3755 117.2329 117.3784 116.6860 117.6987 117.9612 120.3139 96.8717 101.9675 102.5002 102.9166 104.5035 97.5040 103.4128 106.7783 114.7483 101.8747 103.3766 102.3959 98.1080 101.0332 105.2123 111.0951 104.5202 107.6390 116.7376 116.9422 112.7014 100.8326 109.0394 100.9542 99.2116 112.8491 121.8332 101.2905 102.0533 100.9582 110.3241 101.6281 112.2646 115.5488 115.8905 116.2120 117.1644 115.7400
121.5100 121.0966 120.9944 120.7077 120.4554 120.2544 120.0889 120.8922 119.4432 115.6152 108.2269 109.0574 108.2069 101.5755 115.1887 110.8002 113.9621 117.9517 117.3069 117.5307 117.7035 117.9266 117.8211 117.7809 118.3416 102.5691 95.6684 100.3726 103.4089 105.7675 106.1327 103.9197 105.3910 105.5915 110.5021 101.6834 99.9870 101.6737 98.2346 100.7011 109.6915 113.1836 107.7283 104.8408 108.1191 113.7992 119.1483 110.1056 106.6686 100.1862 100.5263 99.0837 95.9292 101.6649 102.4603 102.7730 102.2968 102.4930 115.4176 114.8142 115.8014 117.0818 117.2137 122.1700
121.5100 121.3950 121.1847 120.9433 120.7241 120.5589 120.0449 120.0303 119.8622 119.5747 119.4372 121.0356 104.2453 101.0613 115.9590 115.1452 112.7361 118.7584 108.5164 118.8550 117.8820 118.4089 120.3142 118.5861 116.8107 102.9993 98.3682 100.4786 103.2321 104.7528 106.3651 106.1408 106.1713 107.8510 103.7768 102.8878 102.9533 98.1366 106.8131 100.5774 120.6673 114.2434 115.0261 112.4336 101.2279 99.2191 119.7862 120.6508 114.5065 112.8833 104.8611 103.6979 101.8920 102.8999 103.0025 104.1676 103.7689 103.4710 115.5316 115.6103 114.1581 115.7415 115.9888 116.8400
121.8600 121.6245 121.4202 121.1991 120.9959 120.7753 120.6382 120.4184 120.1765 119.7321 120.2454 119.7235 122.5951 119.5231 119.7507 119.3289 119.4231 118.9861 119.8425 118.6285 118.5823 119.0790 121.5728 113.4051 110.0346 99.8245 98.6058 101.6147 109.1952 105.6143 105.5947 105.8353 109.3126 107.0198 107.8923 104.2488 118.6173 105.6806 116.6180 100.3646 107.3267 115.2478 115.8117 119.7469 115.1783 107.3786 106.4699 105.6525 118.6515 120.0191 118.1225 106.1348 107.8684 104.9384 102.2484 104.9772 103.9446 101.5152 104.9339 106.0917 114.1042 114.5479 115.6743 115.7000
121.8900 121.8465 121.6460 121.4529 121.2423 121.0591 120.7371 120.7067 120.3017 120.6875 108.4958 120.0716 119.3266 113.6683 119.5447 119.5518 119.6666 119.2713 119.0542 119.2274 118.5922 119.8989 98.3725 111.9916 101.7294 99.3001 102.4397 110.5999 112.5840 99.4203 106.3525 106.5121 110.6564 97.2112 108.9677 106.0805 112.9457 113.3485 114.5128 115.4562 113.8825 109.8320 116.2200 116.2158 118.3924 119.9466 112.6477 112.3449 108.8537 123.4750 120.1483 121.4606 105.9713 107.7005 103.9041 102.6184 102.9963 121.1319 116.6917 115.8612 119.1494 119.2928 114.7605 115.8300
122.2100 122.0785 121.8848 121.7280 121.4950 121.3515 121.3205 122.7416 122.8768 112.9160 121.3692 120.7043 120.7154 120.4240 121.2832 122.0459 120.0431 119.7058 119.6575 119.5650 118.4008 119.2812 94.1956 117.4255 98.1931 99.0315 99.9260 102.4365 105.2477 116.2260 107.1579 107.4750 105.9685 105.2911 108.1222 106.9428 106.1478 111.8237 117.9105 101.3141 103.3187 100.4374 104.3984 118.4249 115.7486 116.8766 119.8009 110.9846 108.2251 111.2094 112.0605 123.3796 119.7315 113.4925 110.4099 110.2612 105.5755 105.1040 123.7610 116.7250 118.8799 118.7223 118.0006 127.9700
122.4600 122.3005 122.1151 121.9010 121.3315 121.5894 121.3929 121.2169 112.8672 98.8429 118.1952 120.5210 120.4336 121.2694 110.5706 120.3618 120.0394 120.0570 120.1911 120.1250 119.4479 121.2344 92.7655 117.6831 98.0844 98.2760 115.1487 117.2182 109.2390 108.0683 107.9797 107.5422 108.2963 114.8289 108.0260 108.2292 108.2295 104.2669 118.7260 103.8416 110.3041 120.0091 107.3305 108.3140 116.7606 115.6331 117.5116 119.2849 108.2447 102.9937 123.3854 124.3317 122.9783 121.9853 123.0718 116.8057 109.1533 109.3918 119.1163 124.6208 124.3970 109.9611 116.1644 116.1800
122.4900 122.5170 122.3262 122.4102 122.1602 121.8267 121.6146 121.8450 107.7663 120.5091 122.1728 120.6019 120.9440 121.1875 121.0639 120.7093 120.4476 120.4622 118.5414 120.3445 120.0870 121.9285 103.9079 118.8551 100.2871 98.9446 108.9408 124.1472 106.0945 119.3364 109.3375 107.8907 114.7383 115.1159 108.3281 102.8597 110.5813 106.1538 107.4235 116.5241 116.6747 117.0149 117.7163 111.2486 114.6455 116.9920 115.7902 121.5748 124.5593 109.9438 100.5267 120.6658 123.6465 125.2234 122.1484 123.3520 124.6909 115.9388 123.9549 123.9779 124.7479 127.4604 118.6401 117.7900
122.7900 122.6756 122.8060 119.0093 120.4635 122.7276 121.7850 121.9667 122.3138 121.8029 121.0205 121.3624 121.3097 120.9280 120.8836 120.8796 120.8430 120.7048 121.8471 115.9646 119.6608 115.7558 100.7039 105.0369 102.6184 102.4173 106.6948 118.5674 116.4901 123.2330 108.6725 108.7370 115.8590 115.8206 109.7033 111.1633 109.5819 109.7900 105.5439 112.6560 116.4206 117.4469 117.1043 114.0542 105.0175 114.5670 111.1144 94.6263 123.8607 127.2752 116.5785 113.9994 107.0183 125.6399 126.7944 124.0961 123.0280 124.3844 120.5951 108.8124 111.3542 123.9479 124.2495 126.6200
123.0500 122.9682 122.7855 123.0234 124.4625 123.0358 122.2410 122.0908 121.9171 121.8054 121.5629 121.8651 120.5373 121.7968 121.2471 121.2144 121.1893 121.5968 108.6378 108.5408 101.9763 118.8436 100.1295 102.2970 122.6175 107.3928 103.3829 113.5512 122.4464 120.3324 120.5249 108.2768 115.9608 115.6324 115.2343 99.6915 109.6855 110.7870 108.6900 105.3909 117.5498 117.5868 118.1235 118.7408 102.3423 113.3094 111.7390 98.8732 110.4692 122.1399 122.7127 123.4487 115.1132 111.5083 122.6597 127.7418 123.7020 121.1700 125.6744 128.3912 119.6925 111.6963 109.0337 126.9800
123.3100 123.1662 123.0166 122.8725 122.9237 122.4772 122.3764 121.9545 122.2647 121.6132 123.0690 123.5356 116.8839 122.6125 121.5092 121.5168 121.5271 121.4433 123.4594 98.9186 98.7726 102.9278 106.1041 104.2770 105.5530 103.9474 119.9510 120.2836 116.7171 114.6964 121.3638 107.4336 116.8900 115.3795 107.1644 99.5279 112.0117 111.2468 111.4872 112.1789 116.6009 118.1852 118.8464 123.2638 99.8657 100.3429 106.3374 101.8716 99.2203 104.8061 133.3843 132.4148 120.3079 117.5849 118.4476 121.3118 128.2679 129.2723 124.4419 126.7056 119.0852 127.6316 104.9379 111.6300
123.5700 123.3803 123.2164 123.0728 123.5176 122.9607 122.8864 122.6412 122.4075 117.2626 119.6304 111.1496 115.2232 122.7588 121.7989 121.8454 121.7123 121.4055 121.5899 121.7914 98.4632 101.7215 112.4166 108.5346 99.6026 111.1692 110.2049 118.8895 112.4610 115.3323 116.4266 110.9375 112.2056 112.1318 101.4817 121.4749 119.0631 104.6947 111.1311 109.6736 112.5573 116.0329 116.1757 117.9372 113.5031 113.0805 123.5224 102.0302 112.2332 109.2949 97.1190 133.5875 130.4934 125.0267 115.6631 116.9197 113.5169 117.6785 129.4355 124.0947 115.9798 131.7616 122.7448 111.6300
123.7900 123.6336 123.5567 123.3869 119.7297 121.0552 121.1844 121.2658 117.3114 116.4678 111.5385 118.6756 123.7078 122.3221 122.2193 122.0133 122.7640 123.0331 118.0136 104.5526 99.0348 110.3323 107.4963 113.4222 100.7081 105.8778 108.1285 124.7221 118.7780 112.2305 102.8034 104.2426 112.6006 113.4254 106.6400 114.4360 106.8119 105.6682 113.1280 110.0935 109.9622 111.3567 115.1954 111.4150 123.3931 105.5920 104.9949 108.4749 107.7548 115.4477 110.6877 107.4881 127.3464 131.3785 125.7574 121.1988 116.3408 118.1557 121.1962 130.7222 127.0910 109.6122 126.8066 127.5800
123.8100 123.7231 123.9190 124.2969 123.1365 122.2239 123.5636 123.0522 109.3974 106.1581 111.1681 107.7010 123.0488 122.6404 122.2933 123.6183 111.9909 121.8587 124.6022 106.5569 101.2494 100.5710 112.7302 109.6732 113.4256 108.8919 109.1292 123.4930 123.0482 118.9384 113.1958 101.0008 112.4934 113.2353 113.8336 121.7187 121.9416 105.9213 112.1138 112.5286 108.1294 103.6214 101.8038 106.7842 120.5912 118.7373 106.0091 134.0328 106.8197 114.1407 122.1146 115.5159 124.3938 130.4873 132.6029 131.1045 121.6743 118.9488 118.1124 120.3667 130.8131 122.8496 128.3274 127.6800
124.0500 124.2316 120.0347 116.9786 124.3783 123.5065 123.2240 124.2040 122.0991 124.2873 125.9965 122.9176 122.8186 122.8889 122.7335 118.9548 98.1580 122.7383 122.7202 120.6497 105.1221 114.0540 112.7812 110.3840 121.7984 117.5782 108.5222 119.7994 122.5671 115.2195 112.0795 103.6041 113.4646 113.4291 115.8886 120.5830 118.9262 111.5677 117.0285 112.5146 110.3585 106.2969 103.0222 107.9400 121.9533 121.7376 117.0770 105.5184 101.5200 109.1221 118.4001 123.9780 123.8729 124.3247 126.5912 133.0051 127.1038 123.8689 121.5266 124.3289 116.2186 130.7359 131.1780 128.0100
120.1000 124.5016 117.0189 121.3521 124.0977 123.7320 123.6568 123.4822 123.4627 123.1245 122.7001 123.1801 123.1640 123.0492 122.9228 123.7109 121.9783 123.1444 121.8836 103.0664 113.6850 125.3476 110.0061 112.1735 109.6270 115.7797 115.2838 113.3234 130.6513 109.5336 122.4454 114.2326 116.1040 115.2436 118.4637 122.4457 120.6314 122.6019 112.4771 116.0345 111.1674 109.1629 104.3031 115.7959 119.2970 120.3118 122.8879 119.2095 103.3202 103.0992 109.0218 116.0675 121.2467 124.5767 124.1379 133.5461 131.5591 129.4022 122.0782 119.8651 116.5366 126.3127 128.7164 132.6400
120.1000 125.0300 108.3299 112.6277 112.0109 123.9862 123.8719 123.7740 123.7185 123.6371 123.5990 123.4453 123.3611 123.3197 123.1033 122.8975 123.1647 123.2499 118.6736 114.9063 112.8930 119.2847 111.1369 113.2504 113.9541 120.3781 110.5946 101.6726 117.4564 111.3811 121.9506 122.6128 123.1054 118.7621 114.5255 122.2339 121.1163 122.6247 114.3277 121.3569 114.3026 114.1960 102.6661 115.3472 117.1549 116.4056 99.0207 119.9564 124.9019 123.7189 103.1901 116.1187 116.8781 124.5424 125.0445 125.2856 129.3086 131.8849 132.1836 123.9518 121.4915 122.1204 127.4065 117.7700
124.5700 125.9855 106.1347 112.3719 121.7517 125.1339 123.9909 124.0186 123.6154 123.7693 123.7436 123.6731 123.6473 123.5071 123.6077 123.5651 123.4438 123.4752 124.2956 124.4538 108.7982 110.9364 112.3007 114.5941 105.3037 118.4795 112.0109 114.7654 122.5499 109.0002 124.1041 124.0097 124.4749 116.1016 115.3582 119.0258 122.2927 122.4803 118.5353 111.0676 117.7597 115.5182 110.9374 106.1912 99.8568 106.4474 99.6641 106.3217 129.1429 124.8396 127.2784 132.2110 118.0948 117.4425 125.6460 125.7610 125.8678 129.7585 134.2563 134.4539 126.5688 122.8742 125.0728 127.9800
124.9400 124.7490 126.6145 125.3258 125.6148 123.8326 124.8505 123.3160 125.4554 124.0128 123.9612 123.9428 123.6972 124.2850 123.6093 123.6907 123.6733 123.6398 122.9627 123.4359 109.0278 119.6736 114.8777 114.7056 114.8456 120.9322 113.0524 117.3707 123.1829 110.4123 124.1193 122.2479 118.2590 117.6758 116.2912 117.7730 122.8790 124.7746 107.7492 106.5299 112.0437 113.0186 113.6483 101.7686 103.9430 103.0419 107.4323 127.2542 126.8597 125.1788 126.4950 131.1049 129.6842 122.3666 122.0953 126.6039 126.5738 126.5999 135.1161 134.6862 137.7909 129.3205 124.0424 122.0500
124.9400 124.9231 124.5903 124.8898 125.0458 125.7425 124.4858 112.1885 122.9614 124.1398 124.2650 123.8063 125.3096 119.7245 124.5178 123.9922 123.8891 123.8434 125.2164 123.4503 120.0956 124.9369 115.1756 115.4890 118.3750 120.2082 119.1995 117.9221 124.0501 124.9557 124.2384 118.8304 115.9925 117.4523 118.1216 116.5154 120.8697 121.1683 106.4297 118.5560 115.8835 115.8277 102.9168 103.0645 115.3885 104.6277 104.7210 120.0452 122.5466 124.9693 125.1003 122.1527 131.9849 132.0761 115.7710 117.7807 124.3351 126.8711 125.9858 132.6532 135.7745 133.7718 130.7739 128.3200
125.1500 125.1614 125.1189 124.8948 119.7436 114.6861 112.9432 117.9047 125.1283 124.2899 124.1726 124.0139 125.1935 114.2743 125.2360 124.1804 124.1323 124.1021 124.1688 125.4106 125.3445 117.2079 116.0542 115.8960 117.8203 120.8828 119.2291 118.5631 124.4756 124.2603 124.2762 123.8687 123.5189 113.5422 113.3625 117.3498 121.6058 123.2905 120.3982 127.2703 117.1713 103.1264 111.2387 102.2750 108.6104 119.7593 105.0730 105.0868 104.9296 123.9375 127.1853 99.4478 124.6987 134.2452 130.8291 116.2151 118.2914 129.0295 127.2617 128.0152 132.3422 137.8656 137.7953 128.7500
125.3400 125.3246 125.2520 124.9549 125.7247 122.6137 124.3573 122.4967 124.8495 124.7008 126.7369 126.9832 111.0081 125.2604 124.3109 124.4307 124.3405 124.3829 126.4158 106.1564 128.5311 116.5133 116.6284 117.1388 117.2667 122.4968 118.3762 119.4220 124.1470 124.5007 124.5129 124.6175 124.9012 119.3670 117.4851 121.7413 119.3467 124.0048 125.2120 110.0247 110.8860 115.7299 102.4510 103.3987 109.2621 107.7899 100.6084 104.2141 101.2327 106.7184 117.6067 120.8303 128.8951 128.3687 132.3126 130.3259 120.7461 123.2472 128.5286 128.6716 129.3977 135.9015 138.7088 136.6900
125.5500 125.5140 125.4528 125.3492 125.1784 125.0072 125.1361 125.2176 124.8631 121.4087 107.5890 125.7640 119.5786 124.2940 124.7264 124.6180 124.6025 123.4794 127.1506 103.4273 108.4260 116.7457 118.1239 110.5424 118.5437 123.7139 124.2474 122.7116 118.4279 127.8809 124.6281 124.9717 124.7189 125.2796 104.5020 118.7529 112.2031 125.0532 126.5970 114.7341 108.5135 113.0200 103.7120 103.9433 102.0566 113.4668 105.6897 109.6990 113.2918 104.1673 128.3685 128.8546 127.8555 128.1679 126.7042 134.0998 128.9537 117.3913 122.1760 126.3794 130.8541 115.7513 132.0939 137.7500
125.7400 125.6917 125.5970 125.5319 125.4385 125.4402 125.2881 125.2114 125.2807 126.5757 118.1377 126.4821 125.2795 124.8747 124.8760 124.8354 125.0413 131.3166 112.4500 126.6446 115.8554 117.9621 116.8592 113.9523 115.4088 116.9144 116.0029 119.0155 116.0345 128.5026 111.0227 126.3935 124.8325 124.6421 113.4020 112.3275 108.5276 121.1181 122.7102 117.7790 101.5767 103.5928 103.5591 103.4783 109.7519 111.0954 111.9802 118.6446 129.2659 98.9861 101.6798 129.8946 127.1696 128.5150 128.7949 130.2134 134.4607 129.9302 121.2706 129.7375 111.8623 102.9370 123.5103 105.9700
125.9300 125.8668 125.7852 125.7084 125.6396 125.5397 125.4953 125.4419 125.2695 125.0790 126.1027 125.1224 125.1405 125.0608 125.3001 126.2173 125.8818 124.4767 120.3505 124.0761 125.6272 119.9255 103.8886 102.1912 106.3487 111.0270 120.4071 121.7824 122.2606 113.4314 107.6406 120.0540 112.8246 121.0498 116.1862 103.9117 106.2276 103.7512 102.8873 102.2951 103.8704 103.9906 104.0578 110.0877 118.6418 111.2356 114.5098 113.3887 116.1128 113.0572 103.7317 141.3225 127.8530 128.8795 129.1330 129.1814 132.2284 137.4821 125.9724 107.6028 114.8023 128.4391 119.9181 106.1100
126.1100 126.0345 125.9593 125.8876 125.8124 125.7583 125.6757 125.5598 125.6081 125.5601 125.2592 125.2296 125.2942 125.3961 125.6763 126.4471 109.3101 120.7537 101.9333 125.5806 124.4618 126.7982 120.9015 104.7596 118.9065 120.7250 117.7867 113.0483 122.1471 122.0142 109.2727 104.3993 113.5011 113.8539 113.9043 103.0277 109.3938 104.2507 104.0578 102.8502 106.4861 102.3135 104.7238 106.7143 125.4615 109.8437 112.5704 106.5733 117.1489 118.2749 101.5935 125.8490 129.0778 129.4665 130.5721 130.0220 130.2657 133.7592 137.3521 119.9074 123.1222 130.2781 131.5798 106.1200
126.2800 126.2029 126.1384 126.0603 126.0070 125.8469 125.8985 126.0699 125.6407 125.7657 124.4854 126.2361 125.4791 124.4865 123.3634 125.7217 121.1463 120.7251 111.6189 125.0068 125.2250 120.7728 118.5062 113.6531 112.1062 121.6529 125.2730 126.5333 123.9710 113.0119 106.9125 106.6530 105.1039 102.6491 108.3341 104.5100 113.6248 119.0453 116.2771 105.2924 132.8660 105.6982 103.9443 103.5780 121.3086 124.3419 104.0848 111.7402 117.3063 103.0118 112.2368 127.9004 128.7031 130.4649 119.7838 129.0441 131.0723 129.6294 136.1360 139.4793 122.7018 124.5356 128.5264 131.0000
126.4700 126.3729 126.3009 126.2417 126.1679 126.1332 125.4470 123.5447 126.0196 117.6195 109.1069 120.1167 123.1462 133.3152 105.5246 118.1146 112.6105 109.1139 112.6223 126.3655 124.0847 119.3041 115.8049 122.6123 113.7380 122.9765 125.3696 125.1021 124.8023 110.1334 109.2864 107.3673 103.3390 105.1836 104.7868 102.7917 111.8925 126.1826 123.4515 107.6898 130.3216 127.0010 109.4792 105.9267 107.8286 129.1005 115.7904 113.9707 122.4302 106.9932 109.8590 129.0552 111.1545 129.7265 129.2430 130.8899 130.5262 130.8467 134.0319 136.6383 137.7712 124.6730 120.0994 131.4300
126.6400 126.5419 126.4717 126.3656 126.4054 126.0800 125.9321 125.8489 125.8762 118.8064 103.8459 115.0762 112.7122 113.6493 118.8922 106.4769 109.2250 107.9699 116.9904 118.3887 119.2277 127.1203 114.4310 117.2947 114.8885 113.6787 125.6926 126.5234 128.1786 127.5031 114.6027 116.5820 105.2746 104.9434 104.0263 109.0317 123.2346 127.2516 122.8415 123.9962 128.7178 129.1433 109.8500 103.1221 105.9955 125.0204 125.2416 115.6208 104.9860 111.0705 105.0303 114.9542 126.6979 127.5972 130.0291 130.5653 131.0961 131.2669 131.3316 132.6910 136.4324 135.4651 123.6071 120.1700
126.8100 126.6988 126.6276 126.6429 126.1533 127.8055 126.4353 123.7156 127.5286 103.6182 125.6980 109.4929 109.5866 125.4578 111.5427 111.3944 109.8606 109.5219 121.3796 123.8543 117.5444 128.1671 115.3329 117.2822 113.9762 114.6941 127.1109 128.2826 109.7704 114.6334 109.1206 107.1047 102.8757 102.5359 107.6279 109.8420 120.8397 121.9796 123.8494 123.0693 125.9441 131.1030 110.3488 104.4550 117.0885 119.8653 125.6823 117.6094 120.3383 124.2548 117.1720 122.7190 120.6613 123.8134 130.6049 131.2392 131.3900 131.6244 131.9006 131.3555 132.7374 136.1414 132.5549 123.9500
126.9700 126.8570 126.7937 126.7175 127.8468 121.3743 105.9989 112.3008 125.7603 101.4353 105.9252 102.6313 123.8464 114.4005 117.2122 114.7661 108.3641 126.6176 113.6616 118.0548 115.1828 118.0399 105.9100 105.8161 106.6725 116.8309 124.6319 118.9355 105.2928 112.8865 102.8389 107.1687 116.0568 124.4939 110.7617 109.0980 123.2521 126.1455 121.2393 124.7685 124.9528 129.7799 102.3456 105.6548 112.9517 123.4247 121.7597 123.5753 118.9884 119.9264 123.0018 121.8009 122.7904 124.5753 127.3917 131.3127 131.5224 131.9343 132.4524 132.6920 132.0734 134.0031 138.6105 132.3900
127.1300 127.0202 126.9508 126.9117 127.2046 115.7575 104.7290 118.9518 126.0828 129.4243 119.6705 103.1968 106.9439 114.1007 112.0589 113.8833 110.2101 126.0262 116.2410 117.2854 114.9493 116.7445 113.0909 104.5599 117.7776 121.6074 118.7101 110.7264 103.8025 103.7409 108.1087 112.6557 113.1034 116.6353 112.5376 102.1094 118.1274 129.2586 122.7647 130.5985 123.4003 135.8204 103.4511 106.2488 90.4616 123.2443 116.5069 129.9719 122.3197 123.1955 123.9349 122.8140 122.0446 124.1389 126.9752 128.7183 133.9521 130.9459 132.5458 132.6943 133.0857 132.7108 134.5996 137.2600
127.2900 127.1743 127.1056 127.0619 126.8826 129.6472 126.7697 125.2203 126.3751 114.2140 127.6383 117.9825 113.3933 125.2619 111.4764 113.4378 123.6002 118.8148 109.7904 119.2686 102.0801 109.0769 103.2999 116.7395 102.2967 108.1697 119.1541 102.2940 109.5270 103.8404 123.6311 113.2352 113.8867 113.5081 121.1484 113.3898 111.0916 105.9993 111.6988 122.5353 128.5604 108.4253 102.0015 100.6324 120.5307 134.5906 120.8413 123.1712 130.3160 121.5278 123.9444 123.1459 123.2211 123.8680 123.3817 121.5917 112.0426 133.8908 132.9056 132.9799 133.2390 133.3207 135.1358 133.3900
127.4300 127.3218 127.2559 127.1933 127.2109 126.5459 126.9903 126.8336 127.0893 125.1670 123.3604 104.9592 126.8332 123.4796 114.0165 113.5560 121.3809 118.5341 110.0425 120.1824 114.7438 118.3721 103.3106 105.3390 107.3548 104.9068 109.4999 101.5574 117.4723 101.3166 109.8833 115.7300 114.2904 128.9374 112.3865 115.4860 107.6237 113.9580 108.1688 112.8726 116.8752 112.9987 118.7206 130.8253 120.5808 132.3300 131.2212 124.5988 131.8333 126.1306 124.6765 124.7088 124.7530 124.4126 123.2841 127.4408 115.9912 132.3318 133.0429 133.1633 133.5345 133.4942 132.3676 107.0100
127.4500 127.4066 127.4378 127.5678 127.2826 127.4414 127.2655 126.8742 127.0418 126.0516 127.8348 111.2097 121.5420 125.6894 117.9367 115.1379 113.8702 124.8540 109.9136 105.3773 109.1950 128.2045 103.8120 110.7012 111.3737 112.7687 108.4179 102.0033 125.1872 102.0106 117.4523 115.2868 119.2654 114.8035 115.6087 109.9768 109.5306 105.9915 102.1985 123.4150 116.7863 103.4556 113.5216 132.5036 132.3739 131.9723 131.7740 127.4763 125.6948 130.2427 123.4652 124.7653 124.7420 124.8678 124.5962 124.0139 127.4461 128.4372 133.7741 133.4787 133.7473 133.3685 134.8888 134.5400
127.6000 127.5973 125.2673 127.4182 127.4894 127.0740 127.2889 127.4810 127.2844 127.6585 121.2560 115.9839 117.9440 121.2071 116.1691 116.3848 116.6289 116.6046 110.9899 126.2677 116.8715 126.3039 103.6565 117.8854 115.3379 108.7138 106.4839 107.4670 112.4985 103.4040 109.9552 116.1529 125.2153 126.1738 115.2529 107.2860 109.5282 105.4482 113.5625 124.2514 125.6573 111.7705 102.3361 131.6175 131.8797 132.4153 132.2622 132.0788 124.6221 129.5750 125.5134 124.8520 125.1026 124.7029 125.5696 125.0977 127.0843 129.8750 133.8541 134.1252 135.6156 134.2320 134.7320 134.7400
127.7500 127.7575 127.7905 127.6485 127.2528 130.5237 127.6365 127.4872 127.4545 127.5741 110.2611 121.9619 113.7963 120.1811 118.8582 117.5600 115.2272 118.0922 111.7741 117.9464 116.9065 117.5607 106.3246 110.7057 106.6470 105.3733 105.5548 104.2649 117.7437 105.4753 103.8004 126.4164 125.4089 117.9677 107.3294 112.7365 108.4529 112.6036 118.0677 128.5918 131.6138 103.5076 114.8151 132.9118 132.1407 132.6071 132.7694 132.6897 128.8378 126.2302 126.8633 124.1694 125.7727 125.5247 125.6565 125.3937 124.7665 131.3916 113.7698 109.5315 130.3128 133.8077 136.0584 107.2800
127.9000 127.9121 127.8258 127.8133 127.5938 130.5814 127.0029 127.8116 127.5275 128.5030 127.9022 110.0989 112.3080 113.6450 121.9087 118.3434 117.2433 124.4796 115.1400 103.8808 108.3663 107.0948 105.5424 111.8719 107.6588 109.1792 105.4183 104.3093 118.3324 113.3926 122.1203 123.2793 126.5096 125.0504 122.8343 125.4222 115.2341 128.6806 116.3650 120.3613 111.9204 106.3552 111.0462 132.9599 132.0874 133.0484 132.5868 132.9379 132.2051 125.1086 129.9199 130.3474 126.0047 125.8427 132.3749 128.2882 126.0188 128.1220 125.3751 126.7099 135.1862 136.3623 124.9318 114.4700
128.0400 128.0605 128.0152 127.9643 127.9591 127.4859 127.9488 127.5269 128.2880 129.9500 120.8299 120.0174 123.2449 122.5156 125.7302 119.7233 121.2046 125.7839 115.6564 103.8294 104.4942 105.2739 105.4794 104.7685 104.7785 106.6319 105.3894 106.0213 104.9522 110.4391 104.6772 125.7796 128.4696 116.5287 125.7388 128.0947 126.9996 108.4595 110.3476 106.6020 108.9397 107.9494 104.8913 106.9769 134.4407 132.6032 132.9655 133.0289 133.1351 129.7575 126.0578 134.2863 125.9236 125.8399 128.2209 124.9989 126.9010 129.0824 133.9480 131.0201 136.2624 126.2080 106.7194 107.5300
128.1800 128.1992 128.1449 128.0965 128.0348 128.0934 127.9405 127.8031 126.2412 118.1586 122.5222 122.5779 125.2802 109.9801 108.8328 120.4221 126.1020 128.0812 123.8185 120.3690 115.4164 105.8343 106.0405 105.7911 105.6937 107.2227 105.5689 106.3009 106.2851 124.0043 128.9230 128.9172 127.9831 118.9319 120.9089 128.2773 122.5125 117.8631 115.0604 106.2402 106.5215 104.5430 105.9829 103.6875 137.6679 133.5136 133.3375 133.0611 133.4919 133.5792 126.7064 131.5023 126.7163 126.9968 124.6592 115.3736 127.9060 126.6672 126.7581 134.5125 129.7291 106.4004 110.1535 114.2900
128.3200 128.3291 128.2838 128.2456 128.2197 128.0242 128.5058 127.9682 128.5868 123.6140 122.0568 118.9954 125.9796 125.1012 115.8618 103.6148 113.2801 117.5118 115.1765 123.8336 109.1774 107.1056 106.0686 105.7838 105.6584 108.0551 108.5983 107.1931 106.3070 110.0191 124.4051 125.1648 127.9271 125.8981 118.4531 128.6326 127.5096 127.2163 115.4871 106.4659 106.5726 108.8059 130.1906 123.7808 130.1066 133.8614 133.9980 133.8863 134.2025 134.1859 126.7128 126.3311 131.5088 135.7517 134.1756 127.2697 127.1004 127.4669 126.6929 127.5707 137.0344 110.4110 107.8591 107.8000
128.4500 128.4683 128.4241 128.3792 128.3444 128.3387 129.1845 127.9380 128.4949 125.2074 121.3786 121.4862 106.8805 127.1626 104.5006 109.7697 108.7351 105.9272 114.7079 119.6766 113.6231 105.6382 106.1997 106.0107 105.8525 108.3082 108.4961 108.6529 107.5743 122.2774 112.5606 127.6149 128.1503 127.5975 126.4449 128.4373 129.1046 119.8495 114.8702 106.9622 107.2122 105.1633 115.3096 128.5808 129.3554 135.5598 133.7458 134.0968 134.4490 134.9556 132.4057 128.2299 128.4787 133.6264 124.4806 128.2602 128.9516 126.7265 128.3923 120.6145 106.3566 106.9012 108.5020 107.8000
128.5900 128.5900 128.5300 128.5300 128.4300 128.4600 128.3600 128.3800 128.2800 124.1200 124.0300 128.2200 126.6000 106.1100 106.1200 106.1300 106.1400 106.1500 108.1200 120.9400 120.9500 106.0300 106.0500 106.1600 106.1600 109.6900 110.0200 109.3400 106.8600 106.2300 114.5500 125.6100 124.4200 124.4200 129.9600 124.4500 128.3600 120.4500 119.4200 128.0500 106.5100 106.5900 127.9700 127.9700 128.1900 134.1100 133.5700 133.9900 134.2700 134.4600 134.4600 134.0700 127.8800 134.3200 111.9200 134.8000 107.4900 127.4900 127.4100 127.1300 110.3300 107.7700 111.6200 107.9100
