114.7300 114.7600 114.7800 114.7500 114.7200 114.6700 115.1400 115.0500 115.4400 115.7800 116.2300 116.5000 116.5000 116.8000 117.5000 118.4700 118.0400 118.3500 118.6600 118.8900 111.9500 119.6700 120.1800 120.1800 120.6200 120.8500 121.2800 121.4900 121.7000 122.0900 122.2900 122.6800 122.8400 123.0200 107.0200 123.5400 123.7000 124.0300 126.5800 124.3400 124.6400 124.7900 125.2400 125.2200 125.3500 125.6300 132.1000 126.0200 126.1400 126.3900 126.5100 126.4300 114.0100 111.2700 113.8400 109.1400 124.1600 117.6100 124.2100 105.9700 120.1500 111.6800 128.3700 128.4700
114.0800 114.1522 114.1116 114.1563 114.2551 114.3897 114.5796 114.8211 115.0889 115.3957 115.7237 116.0594 116.4104 116.7686 117.0871 117.6456 117.6043 117.7205 117.9646 117.4339 105.3314 109.3942 119.0706 119.6139 120.5298 120.8219 121.1161 121.4058 121.6869 121.9575 122.2192 122.5225 123.1815 122.7981 119.8632 124.3260 122.9361 122.8825 124.8553 124.3174 122.0015 121.0185 125.2351 125.1392 125.0689 125.4357 124.7408 122.3551 112.6887 115.6165 127.0267 127.9196 123.1377 117.1988 110.6591 115.7064 123.1005 110.8872 119.0895 109.3560 110.3895 114.4755 129.2345 128.4600
113.3800 113.4870 113.3895 113.4213 113.4782 113.6738 113.9002 114.1762 114.4910 114.8351 115.2016 115.5817 115.9735 116.3601 116.7626 117.1467 117.4710 117.8068 118.6075 123.8826 117.3767 103.4396 113.6905 120.7681 120.3745 120.6717 120.9690 121.2709 121.5523 121.8420 122.1077 122.4058 123.4369 124.5045 107.6749 124.2868 125.6084 127.2618 124.8295 124.3960 121.7066 122.7591 124.8916 125.2275 126.7701 126.4480 128.1716 110.5924 114.0128 121.7419 126.6117 128.0117 120.0295 121.6522 102.0463 114.4142 111.0712 104.2238 111.8319 107.9910 108.8116 114.2649 123.6153 122.2900
112.6100 114.2468 111.7188 112.2751 112.6582 112.8949 113.1623 113.4926 113.8515 114.2471 114.6661 115.0888 115.5235 115.9566 116.3825 116.8010 117.2807 117.6131 118.4748 121.1375 117.8115 107.6465 105.6260 114.1049 120.4445 120.5251 120.8196 121.1316 121.4295 121.7242 122.0088 122.0280 122.3440 123.4575 119.4945 124.3695 105.6808 105.2240 125.6166 124.4715 120.7146 125.3661 125.5113 123.9459 113.1387 106.6005 113.1131 109.4536 119.1091 128.4948 122.0193 113.8247 106.0126 120.5754 116.7259 103.0052 103.1703 110.9834 105.4021 107.2514 110.5288 121.2718 121.5087 122.3500
111.7700 111.6639 108.2328 111.4583 111.7503 112.0457 112.3718 112.7565 113.1804 113.6400 114.1126 114.5920 115.0679 115.5481 116.0157 116.4735 116.9223 117.3606 117.3127 122.1295 117.5760 123.4932 105.9088 119.0611 119.6760 120.3930 120.6963 121.0099 121.3208 121.6154 121.9064 121.9981 122.4882 123.0023 123.1411 113.3902 117.6920 117.9294 124.0425 124.2368 123.0746 124.4384 119.6944 124.5188 111.1756 103.2411 105.3092 108.0397 111.4831 117.6727 117.7811 105.7631 113.6872 118.3225 119.4087 115.5744 116.5706 116.9203 104.6631 105.4026 105.7912 116.5729 120.8457 123.2600
110.8400 110.5985 110.8658 110.6035 110.8137 111.1204 111.5169 111.9781 112.4769 113.0072 113.5490 114.0905 114.6181 115.1442 115.6518 116.1486 116.6286 117.0756 117.5341 118.9116 117.6554 125.3114 108.8532 120.5325 119.9746 120.2128 120.5711 120.8928 121.2070 121.5140 121.8063 122.1035 122.4066 122.4097 123.6095 122.3172 124.6461 123.9541 123.7849 123.9938 125.8022 127.2340 111.3298 107.4624 104.6680 108.0907 107.9128 109.3587 115.7425 109.3438 123.0598 113.5948 105.2171 120.0118 113.8528 115.3983 119.5378 118.8404 104.7201 106.0348 111.2181 118.0042 126.0747 123.3100
109.8000 109.4322 109.2829 109.4410 109.6955 110.0946 110.5941 111.1519 111.7446 112.3638 112.9786 113.5860 114.1812 114.7545 115.3039 115.8353 116.3450 116.8327 117.3097 117.7304 119.3277 107.8601 114.3260 119.7147 119.7551 120.1116 120.4614 120.7895 121.1084 121.4193 121.7295 121.9877 122.0390 125.1968 101.6809 113.0162 122.4803 122.7695 124.6926 121.0275 112.1952 103.7256 102.3959 107.7534 109.7954 108.6909 107.4971 110.6433 110.9886 105.6985 112.3487 110.5157 111.0638 113.4289 106.4654 115.9835 122.7863 104.8467 106.0245 105.4285 122.6958 122.0979 125.8593 123.3900
108.6000 108.0815 107.9787 108.1040 108.4482 108.9607 109.5857 110.2729 110.9860 111.7079 112.4133 113.0906 113.7289 114.3851 114.9765 115.5494 116.0853 116.6081 117.0806 117.6609 118.3487 112.0237 109.5227 119.9441 119.5558 119.9993 120.3548 120.6937 121.0215 121.3414 121.6404 121.9404 122.3039 123.0058 122.1487 97.8532 120.3913 123.0787 125.0272 116.2685 121.5241 111.2358 105.0120 102.7138 105.1092 109.5459 108.8589 111.1835 111.9413 111.5635 116.1953 116.9913 117.7792 107.1002 107.4255 104.8331 105.1937 105.9129 117.2118 125.5019 125.7181 122.2376 121.8131 119.4600
107.2200 106.4985 106.3366 106.5207 107.0021 107.6915 108.5021 109.3589 110.2172 111.0616 111.8539 112.6295 113.4359 114.0298 114.6849 115.2758 115.8466 116.3941 116.9183 117.2059 120.0097 118.3636 118.7933 119.0200 119.5728 119.9057 120.2658 120.6170 120.9457 121.2715 121.5913 121.8402 121.4174 122.6557 107.3039 127.2979 123.6213 123.6959 120.4492 123.4509 100.0731 106.0883 102.3768 104.0046 116.6813 108.8407 104.5313 110.4018 115.3970 118.7360 113.1191 112.5299 103.3963 103.5842 114.9629 106.6783 109.4454 110.4841 108.1069 119.3359 117.6127 110.2363 116.3830 106.3000
105.5000 104.5786 104.3262 104.6127 105.3201 106.2864 107.3521 108.4178 109.4511 110.4297 111.3251 112.1702 113.8801 113.8386 114.4284 115.0355 115.6422 116.2089 116.7367 117.2387 117.4167 118.0112 118.7919 118.1281 119.4590 119.8202 120.1909 120.5458 120.8834 121.1953 121.4617 122.0992 113.7172 115.8715 118.4580 117.8755 104.8070 121.6527 108.6584 113.5734 102.5933 102.1943 104.5605 110.8817 105.8685 114.3741 115.4097 114.8666 119.8420 117.1242 121.2143 105.6419 106.4136 108.2087 118.8530 110.8786 113.3280 111.2687 110.3560 115.8072 115.1184 116.6052 117.7439 106.2900
103.5000 102.1332 101.6984 102.1735 103.3249 104.7336 106.1498 107.4898 108.7303 109.8467 110.8632 111.8172 112.5748 113.3853 114.1627 114.8363 115.4610 116.0666 116.6179 117.0174 119.1577 118.2069 116.8775 121.4394 119.4305 119.7604 120.1282 120.4782 120.8164 121.1613 121.7793 123.0992 123.3002 124.1602 104.5426 101.6356 103.9417 114.7740 115.8391 107.2008 105.2766 106.9495 108.5352 109.9296 111.2017 113.5247 112.9132 112.6310 122.3564 117.6606 118.9996 109.5084 108.5695 112.6651 110.1910 111.3268 113.4901 115.7064 118.4471 120.1210 119.8056 115.5805 121.1731 106.2900
100.7700 98.8508 97.9478 99.0219 100.9516 103.0842 104.9889 106.6398 108.0832 109.3513 110.4707 111.4919 112.4162 113.2296 113.9753 114.6742 115.3255 115.8922 116.5300 117.0383 118.8610 118.3456 114.0819 122.0003 119.2330 119.7032 120.0801 120.4752 120.8688 121.1698 118.9787 117.1415 117.1227 111.5163 103.1601 102.9653 100.6896 103.7690 111.2688 105.7554 110.9049 114.4008 114.1368 113.2571 114.0047 114.0993 112.1168 111.8416 112.3264 110.8962 108.2081 103.2710 103.2206 108.5382 102.9904 104.3056 105.1552 117.4101 124.1598 124.8351 124.8907 119.8029 122.7541 126.7700
96.6800 93.5783 91.3380 93.8014 98.4809 101.4945 103.9695 105.9449 107.5817 108.9745 110.1827 111.2403 112.1862 113.0533 113.8367 114.5566 115.2322 116.0611 116.6088 116.7189 117.2191 118.4700 116.1139 118.7259 119.2899 119.6646 120.0590 120.2168 120.4648 121.4540 115.7031 118.4725 102.2807 114.3108 102.7107 109.7144 108.6375 108.0250 114.6680 103.8003 105.4600 106.9834 107.7675 111.2221 111.4457 110.3929 110.2618 110.0670 115.6521 111.5797 108.9255 107.2718 103.4305 119.3396 103.8036 104.4423 104.8678 115.3385 118.7850 121.9668 123.1520 122.9221 109.5888 107.2900
96.1800 88.7303 86.8300 88.7734 95.9330 100.3284 103.3022 105.5088 107.2814 108.7529 110.0128 111.1077 112.0856 112.9701 113.7642 114.5122 115.2687 113.7418 116.6138 116.9210 117.4412 118.1559 118.7050 118.8753 119.2420 119.6488 119.9259 121.1212 121.3564 120.7482 115.9768 121.3610 104.5047 110.2773 106.7227 126.4107 111.3817 111.0534 111.1515 108.3565 102.3368 108.2272 104.3864 106.6431 107.0653 114.1958 112.4617 113.3667 113.5798 114.2909 115.8566 115.1985 106.1797 108.6015 107.7453 115.6880 103.7931 118.4479 119.3894 122.3917 122.9835 125.4461 106.5252 107.2800
89.7400 87.6379 85.1890 87.5103 95.3329 100.0689 103.1626 105.4224 107.2199 108.7051 109.9754 111.0788 112.0632 112.9477 113.7451 114.4821 115.5250 111.9378 116.7784 116.8547 117.4272 117.9141 118.3311 118.8158 119.2446 119.7004 119.8818 115.7588 117.8061 110.0588 100.0117 105.7040 102.0991 108.7176 105.4111 101.3187 101.3011 115.1708 104.8041 105.2335 100.9708 111.6564 104.7537 105.8981 115.1455 115.2984 113.0965 113.7695 116.3373 118.7823 107.1059 117.8897 117.9888 104.1195 111.6810 108.4202 104.4035 118.0561 119.8017 120.6678 121.3202 125.1159 111.7190 116.0900
96.2300 90.6221 88.2981 90.9622 97.1632 100.8425 103.5895 105.6953 107.4073 108.8469 110.0826 111.1690 112.1291 113.0020 113.7933 114.5276 115.1883 115.5755 116.4641 116.9089 117.4622 117.9453 118.4113 118.8367 119.2395 119.6848 120.1060 120.3309 119.1003 120.9830 101.8935 99.9564 102.8115 105.4614 116.1835 121.4513 118.7805 133.2956 110.0360 107.6510 110.8355 105.7464 106.9310 110.6819 108.6944 118.7238 123.8394 125.1175 114.7689 107.7804 106.7150 125.5156 108.1364 105.1279 107.5768 112.1018 104.9622 108.3057 124.6522 127.0561 127.5252 121.9716 106.3649 106.2700
100.6900 96.6118 94.9624 96.7894 99.7080 102.2932 104.4615 106.2764 107.8211 109.1490 110.3120 111.3520 112.2886 113.1331 113.9035 114.6129 115.2775 115.9121 116.4816 116.9906 117.5031 117.9904 118.4409 118.8555 119.3009 119.6215 119.8585 120.3223 120.9413 121.6389 116.8255 119.9727 103.5724 104.5505 125.8994 103.7733 122.5926 107.2945 105.0538 104.7694 104.6960 108.9352 105.5567 110.5469 114.5574 120.4042 126.0551 121.2126 112.0383 114.5980 104.2155 104.9476 104.2770 104.6503 104.4317 105.5176 113.5354 108.5144 111.1023 127.1319 127.6908 114.4894 115.8132 106.2700
100.6900 100.6526 100.0823 100.7405 102.2135 103.9402 105.5786 107.0650 108.3975 109.5901 110.6621 111.6357 112.5186 113.3244 114.0618 114.7562 115.3882 115.9892 116.5538 117.0852 117.5791 118.0543 118.5027 118.9100 119.2415 120.4375 120.0104 119.9555 120.8904 121.6075 117.2881 121.3830 102.2368 111.4526 112.3540 107.1832 112.7921 118.2078 102.8607 111.9130 117.4348 111.4914 111.0537 115.1304 114.9235 114.6519 114.7232 116.5692 115.3532 103.0980 104.0020 104.2684 104.8992 105.2736 119.4484 105.4415 104.2240 120.6538 122.2541 121.7288 122.2407 122.4653 123.9554 111.3300
103.4600 103.4519 103.0801 103.4864 104.4001 105.5412 106.7786 107.9666 109.0921 110.1422 111.1057 111.9971 112.8088 113.5731 114.2866 114.9335 115.5543 116.1293 116.6726 117.1867 117.6739 118.1436 118.5947 118.9487 118.6849 130.6494 106.7812 103.8255 119.5642 120.1982 121.5888 122.1414 123.1547 123.0655 125.4931 105.5058 109.8171 114.9456 99.7698 113.1962 109.8927 116.3802 118.1483 112.2405 124.9638 117.7246 113.6170 121.1976 105.9488 106.8183 102.4826 114.5368 103.7121 106.1343 106.3220 106.4340 105.0585 119.5835 118.3556 119.7789 120.5566 121.3565 123.6162 123.1900
105.5300 105.6081 105.5805 105.6546 106.2146 107.0248 107.9483 108.9022 109.8430 110.7498 111.5808 112.3812 113.1620 113.8511 114.4527 115.1597 115.7475 116.3007 116.8249 117.3258 117.7947 118.2449 118.6652 119.0891 120.0605 116.4168 130.4049 105.9105 103.3146 107.1571 120.6236 121.6364 121.6966 121.9408 122.0614 124.6854 120.7366 109.4439 118.6177 116.7658 102.3846 114.8250 115.0697 118.9386 116.1911 115.6134 122.7456 119.2867 125.7007 121.5645 109.8518 104.2827 104.9696 105.9653 106.1696 106.2543 111.2376 106.1294 110.5735 111.3968 112.0150 111.3205 122.4439 123.4000
107.1700 107.3643 105.2067 106.9797 107.7415 108.3541 109.0658 109.8283 110.6164 111.3638 112.3626 113.0775 113.5086 114.9321 115.5881 115.3904 115.9659 116.5046 116.9991 117.4887 117.9395 118.3777 118.8118 119.2329 119.6658 120.0755 119.0136 111.8510 106.7221 103.2395 117.0479 122.0675 122.5761 123.5666 123.8698 117.9525 109.3331 109.1350 112.7277 104.6059 106.1363 124.2203 116.2761 126.8155 126.9479 120.7127 126.6003 123.7832 125.5711 118.0148 123.9196 126.9131 122.8001 105.8195 108.8053 106.5490 121.7742 103.2461 117.6462 127.9234 127.4433 127.2459 126.1182 111.4300
108.5400 108.3847 109.0991 108.7774 109.0774 109.5582 110.1006 110.7344 111.4151 112.0772 111.7659 113.0071 113.8193 113.6697 112.5723 115.6849 116.2326 116.7126 117.2019 117.6657 118.1055 118.5107 118.8838 119.1428 119.6386 118.5090 122.1258 123.7550 106.9927 105.1674 119.1415 122.0024 119.4716 117.8568 118.2105 113.3323 128.6533 115.7090 102.1962 102.7202 103.6582 118.2339 125.2251 121.8860 123.7638 115.0280 126.5063 121.9774 119.5423 124.1549 126.9126 123.5175 121.1781 113.9763 120.2561 119.9241 127.1489 110.1747 121.4566 123.5516 125.6056 125.4235 117.1553 125.9500
109.7800 98.3779 111.3247 109.8903 110.2543 110.6291 111.0650 111.5726 112.1593 112.8783 112.8800 113.5691 114.4289 114.1661 111.1266 116.0343 116.5068 116.9620 117.4220 117.8611 118.2908 118.7175 119.0607 120.5224 120.2155 115.8030 123.7123 100.8928 104.3992 104.3129 104.4811 110.7550 113.8736 109.5250 109.1597 102.3412 112.2941 102.2419 106.4333 111.4214 114.2777 126.6942 124.5081 123.9181 117.8137 127.1712 126.4622 126.3752 125.1057 126.3283 117.6375 122.1805 109.7431 117.9373 124.3141 125.5321 127.9172 122.4819 129.0112 127.7984 124.3983 128.5490 121.4301 133.1700
110.8300 112.2506 111.0122 111.1119 111.3131 111.6028 111.9651 112.3488 112.8519 113.3232 113.7758 114.5200 114.8406 116.1085 116.8003 116.2506 116.7725 117.2128 117.6561 118.0752 118.4557 119.0172 118.7460 114.6035 121.1237 113.9068 110.2810 104.0332 104.4485 105.6289 104.5058 108.8838 109.7834 105.4297 116.1193 110.0420 106.6365 111.1268 108.8518 120.5755 109.5336 124.0456 124.3695 125.0260 123.2404 122.7501 125.6033 125.7212 125.2426 125.5258 125.7145 115.7408 128.1093 128.4374 127.4520 127.1545 126.9924 126.2699 127.4955 127.7204 128.2557 127.9671 128.9084 128.4100
116.0800 112.6971 112.2033 112.1053 112.2495 112.4846 112.7287 113.3073 113.7565 113.8701 114.4296 114.8356 115.3147 115.6585 116.1869 116.6564 117.0122 117.3969 117.9269 118.2959 118.6544 119.1237 121.5522 122.1971 112.5929 105.8099 99.6072 99.9877 106.9724 105.2483 105.2951 116.6579 111.8271 116.3881 105.3125 111.8257 114.8748 113.8704 122.2299 114.9575 103.2895 125.1806 125.7699 125.4509 123.8306 123.1297 125.6186 125.9574 125.8709 126.3204 128.2370 121.5469 122.9062 128.3241 126.5310 128.2849 128.0624 127.7938 127.7853 127.9084 127.9340 128.1380 128.1741 128.4200
113.3700 112.9953 113.1056 112.9568 113.1201 113.2152 113.7096 112.0048 113.7032 114.9182 114.9960 114.8714 115.7989 116.1689 116.5429 117.2396 114.8555 119.0184 117.9899 118.5390 118.8951 119.2357 119.9151 121.3847 116.0495 101.7516 110.9344 100.1563 103.7633 109.5706 109.6850 107.3904 108.8872 112.2637 100.8826 104.7234 101.6852 113.9011 117.8143 109.3205 124.6152 105.4461 111.2563 118.0059 126.4889 126.5861 126.1353 126.1200 125.9938 119.4558 137.2166 117.5917 111.6090 112.0746 121.4983 115.4085 113.5360 126.7422 127.2840 127.9118 128.0437 128.1530 128.3700 128.4300
114.0800 113.8198 113.7337 113.7825 113.8892 113.9717 114.4783 115.4081 115.1881 115.1945 112.0097 115.9205 116.1864 116.5739 116.9344 117.3644 117.4603 118.1237 118.4140 118.7744 119.1292 119.4466 119.7503 119.9864 121.0199 120.1414 110.3586 102.6306 108.3533 116.4581 108.2174 106.3124 107.6730 101.3018 106.6580 117.5957 116.1293 113.7841 113.3220 117.0003 103.2115 117.1486 117.6454 117.3270 117.0721 117.0351 117.4229 126.1393 126.3631 131.1027 117.2332 110.2436 123.0323 110.7640 125.3401 125.6899 115.8279 127.9158 127.3143 127.9296 127.9523 129.3438 128.2187 128.4400
114.7300 114.4937 114.4769 114.5169 114.6413 114.3057 116.8438 116.2696 106.6803 118.9935 115.3354 116.4710 116.6064 116.9749 117.3201 117.6702 118.0194 118.3361 118.7064 119.0312 119.3519 119.9969 116.2942 119.8480 114.0218 114.0742 121.5692 117.8842 109.7296 110.2671 111.6583 109.9868 108.9716 107.7896 115.1645 99.2411 108.4920 112.9811 114.6901 114.5624 113.9964 117.2489 115.6663 122.3696 123.4591 126.3685 112.1453 111.1794 113.5220 106.1689 107.6000 112.9227 110.0994 111.1966 126.9881 118.3564 119.5482 121.7034 128.1779 127.9373 128.1187 128.2057 128.3633 128.4500
115.3300 115.1792 115.1474 115.1913 115.3727 113.9305 112.6815 108.8505 102.5600 115.8260 116.5872 116.7904 117.0614 117.3681 117.6957 118.0052 118.3414 118.6496 118.9687 119.2792 119.6473 119.6214 121.5629 121.1756 105.9321 98.4168 104.1173 104.3887 122.0641 117.6576 107.3443 109.0724 110.8773 103.1584 111.5108 103.9928 101.5000 116.6726 114.2036 113.6604 118.1052 114.2803 120.3052 122.9001 124.4785 124.0154 119.1785 108.0404 103.3996 105.2985 104.7776 103.3630 130.9517 113.5890 123.0599 117.7755 116.3440 120.3546 128.0589 128.0647 128.3902 128.4554 128.5118 128.4600
115.9000 115.7987 115.7801 115.8246 116.1582 113.2107 116.5445 111.3986 101.5169 116.6250 116.9165 117.1881 117.5414 117.7455 118.0792 118.3261 118.6549 118.9493 119.2508 119.5465 119.8607 119.8263 122.7984 105.8410 105.9740 96.6942 101.8405 113.8606 124.3153 123.4672 122.1403 120.3446 113.1720 113.5497 113.4312 104.4171 111.4703 119.1184 113.5115 112.9196 117.3008 121.3993 120.4743 119.5592 119.6587 109.0186 107.4023 110.0574 105.7499 112.8197 112.7054 104.7865 103.2802 103.0500 127.9587 125.6118 124.3927 125.1366 134.9583 116.8635 126.7589 126.5286 127.5546 128.5700
116.4300 116.3845 116.3695 116.3903 116.4300 117.0137 117.2246 112.2019 102.1614 118.9611 117.4696 117.6926 117.5704 118.7025 118.3059 118.8115 118.9655 119.2436 119.5254 119.8126 119.9928 120.2318 119.3506 102.3094 113.6482 123.2683 112.9143 113.6267 118.1650 118.9208 122.8537 124.9974 122.7801 115.3265 118.4627 111.4332 107.6884 122.4770 112.8275 118.8318 114.7188 119.2481 123.2936 123.0778 107.8513 112.2416 102.6424 103.8456 105.0907 115.2078 111.7977 108.4953 109.4285 106.1877 102.1430 101.8528 103.9378 102.7416 119.9401 100.9403 118.2925 119.6252 114.7812 128.5800
116.9300 116.9333 116.9204 116.9296 116.9407 116.5913 114.8330 119.9310 102.7600 118.9555 117.6869 118.6285 116.4875 107.4074 118.9195 119.0889 119.2669 119.5393 119.8171 119.9756 120.7451 120.5757 124.4266 109.9984 101.2108 97.4966 121.0898 100.2954 108.6265 108.9352 119.4134 113.6039 113.5678 109.6161 108.2881 102.7264 111.9635 112.2611 110.2306 122.8962 123.9779 123.1093 117.6888 113.0520 103.4983 117.3927 110.1397 104.6220 103.5494 103.3633 103.7167 110.7321 112.8131 110.5001 112.9440 112.6675 105.9579 108.9277 114.8481 113.8228 107.1888 125.3338 104.7653 106.5900
117.4000 117.4460 117.4337 117.4599 117.4188 118.7543 118.6080 118.6089 116.6400 117.5237 118.4910 120.4844 119.1220 118.6631 119.7927 119.3289 119.5892 119.8362 120.0796 120.2904 119.2839 119.7927 120.6707 123.6109 105.0987 112.5084 114.2551 110.2643 106.0037 107.0489 108.5230 115.2739 102.8883 110.4706 101.9152 103.5746 115.6427 113.9924 116.0808 114.1367 120.9003 125.9435 112.7407 120.2655 103.0393 108.7012 130.9729 110.7708 113.2307 104.5891 104.9923 103.9728 103.4393 103.9892 115.3575 113.3886 106.3995 113.8623 128.3565 132.1228 116.3195 101.2074 104.4837 108.4900
117.8500 117.9429 117.9540 117.8754 118.2022 117.6769 96.9042 109.6794 118.0476 103.6178 119.6522 118.8149 118.8340 119.0005 119.3021 119.6976 119.8922 120.1265 120.3815 120.8699 118.7290 124.0582 121.8016 121.2469 113.7104 123.4808 117.4613 124.7423 117.9176 117.2978 105.0851 115.0544 106.4736 108.8771 101.5697 102.8022 103.8140 109.3596 121.6237 123.3309 117.5349 123.3362 112.0812 114.3676 101.5614 105.4627 112.3596 101.3148 108.5790 104.4108 105.0305 105.0777 105.2824 105.5663 104.8995 105.5730 109.4623 127.3735 109.2503 123.9028 130.2993 108.5256 121.7728 130.3500
118.2800 118.4206 117.7348 119.0449 119.5195 110.5922 95.0467 103.9805 103.9657 111.2150 118.8292 119.2933 119.4284 119.6035 119.8108 119.9836 120.1977 120.4112 120.6360 120.5317 121.6581 115.3343 120.9473 121.5843 122.2221 121.6511 123.7726 122.6167 122.8581 124.4608 114.5092 107.2702 114.4003 114.1068 102.6396 105.5312 104.6553 110.8374 125.5200 120.1118 125.6487 124.8294 118.5257 119.5511 117.7101 109.8858 111.9003 123.4409 104.7112 102.2597 104.2172 105.4774 105.4710 105.3000 105.6729 104.3394 125.8472 106.3018 102.6774 124.0463 111.2116 110.0200 125.5871 122.6200
118.6900 119.4989 107.2999 113.3965 121.1453 104.0481 115.7297 108.6529 103.6033 121.8103 119.4051 119.6187 119.7502 119.9286 120.1111 120.3024 120.4887 120.6907 120.9328 121.0866 122.0290 122.3651 121.5947 122.0343 122.0007 122.6506 122.7284 123.0026 123.8875 117.3034 116.4019 108.0407 103.5163 112.3144 115.4394 111.8196 112.4428 106.7353 121.4281 123.0134 124.1035 121.7551 128.9075 126.3764 124.7866 123.9535 112.5400 104.4555 105.5473 120.4913 105.9936 104.7563 104.3601 105.6863 106.0311 104.7597 129.9704 121.2451 123.1792 123.9675 102.5284 123.9116 120.0035 110.6900
100.3100 118.7240 110.3263 110.6083 116.2154 106.4550 106.5976 121.0670 119.2422 120.4646 119.8206 119.9611 120.1002 120.2538 120.4248 120.5991 120.7837 120.9750 121.1647 121.3397 121.4738 121.7643 121.9092 121.9814 122.9972 118.3162 122.9042 105.9813 124.0931 123.7652 109.3662 122.5256 117.0491 104.2500 111.7753 112.9070 115.5604 114.9428 121.6041 123.3613 125.8681 117.3520 105.0255 108.2694 134.5490 128.8844 106.2080 104.7881 104.2361 106.0800 106.4964 126.4943 109.6569 106.5156 105.0908 104.3265 111.8602 130.8346 110.2338 129.2151 125.3013 128.8565 128.3554 127.9200
97.9700 116.8430 111.4413 108.1674 117.6670 105.1750 114.4941 117.8527 119.9860 119.9284 120.1614 120.2734 120.4331 120.5777 120.7336 120.8992 121.0681 121.2416 121.4212 121.6123 121.7980 122.0110 122.1683 122.5431 123.0141 123.6232 113.9889 107.6381 121.4085 123.6134 122.8075 124.1318 126.2724 102.2397 116.9232 106.8116 118.8801 119.2713 119.7591 123.9709 125.3686 127.1601 109.1279 103.6050 104.7354 120.4811 110.3732 114.3805 102.5116 127.8854 116.2412 106.1720 107.6607 118.6744 117.3612 109.5272 122.8578 128.2964 127.0106 128.3764 125.9767 106.3343 127.3079 127.9200
120.1400 118.7421 99.0584 97.2340 108.1210 102.1813 111.2512 121.0388 120.2911 120.4002 120.4970 120.6213 120.7519 120.8899 121.0370 121.1867 121.3447 121.5090 121.7494 121.7760 122.1063 121.9205 123.3222 118.4256 114.2075 123.0588 105.9889 125.3060 123.5744 123.5759 123.8254 124.0210 124.6524 128.2093 110.4197 104.7379 108.8899 119.3588 124.9559 119.0193 122.9193 125.7636 126.6560 123.7944 113.5033 103.1774 121.4379 118.9497 111.7569 103.9773 104.6378 127.5675 117.8579 108.0281 109.5101 120.4591 120.7491 115.4280 129.1602 128.4743 117.2390 126.8057 128.1140 129.4100
120.4700 120.4649 112.6510 98.5420 101.9629 104.0853 122.0060 120.8560 120.6480 120.7363 120.8308 120.9395 121.0601 121.1918 121.3285 121.4662 121.6183 121.7831 121.8348 122.4794 120.5607 122.7467 114.6464 123.1339 122.9053 124.1854 122.8979 123.5622 123.6109 123.7719 124.3148 124.7715 125.1950 122.5069 112.7870 107.8633 120.8752 106.2948 119.9358 114.9099 119.9064 121.2104 111.3012 113.7691 109.1726 107.4383 111.1262 103.6870 112.1891 112.6527 127.4049 104.2476 125.0777 125.9795 117.5139 108.9843 110.0409 119.7156 119.9281 117.3644 131.6297 110.5303 118.5444 110.5500
120.7900 122.0569 105.9991 100.2747 108.2040 102.9231 122.1155 120.5733 120.9835 121.0458 121.1449 121.2490 121.3642 121.4833 121.6066 121.7472 121.8828 122.0423 122.1732 122.1640 123.9870 121.5130 123.5728 125.2299 122.9249 123.2535 123.3863 123.5898 123.8941 123.9619 123.0363 123.6615 124.2272 129.1701 121.0862 111.5176 125.3339 117.9481 112.5254 108.5401 120.7118 117.4868 116.3342 110.2775 103.0649 108.5915 117.1279 110.4343 106.5385 106.6419 111.7739 118.8607 127.1867 104.8305 126.6813 132.3849 122.5253 112.7926 117.4753 118.3479 119.8988 114.4316 109.4756 129.8300
121.1000 120.9261 120.3840 116.4950 106.6665 106.6013 112.9032 122.1837 121.2704 121.3621 121.4572 121.5499 121.6570 121.7683 121.8927 122.0059 122.1689 122.2556 122.4915 122.6040 125.3659 101.9376 104.9561 122.9151 123.3326 124.0436 123.7400 123.9060 123.9961 124.7829 124.2027 123.3155 124.4738 121.7306 109.4296 121.3809 126.2062 122.5423 121.5041 128.4599 117.7048 106.2645 108.9424 110.6771 106.1008 111.1238 112.2064 114.0979 120.3232 108.7928 104.2838 106.3936 123.5607 127.1399 118.7773 122.7847 119.8270 129.4151 131.3209 116.5334 123.5080 119.5133 119.1034 113.9100
121.3900 121.9452 111.6217 114.3947 119.7309 127.6882 109.0031 121.7865 121.6147 121.6631 121.7516 121.8403 121.9411 122.0479 122.1551 122.3017 122.3088 122.5374 123.0154 122.4338 124.7087 114.8191 120.1846 124.5570 119.1395 123.6906 123.7425 123.6483 123.9669 123.9572 114.4211 125.4118 124.5507 127.9359 120.3282 117.8024 123.3137 120.0599 124.8140 114.0279 110.0862 105.1492 103.7309 104.0196 103.0249 108.2895 101.9993 104.4815 111.5182 122.6843 117.6742 116.5609 102.0476 105.8425 124.8653 117.1323 111.1820 125.9701 128.1530 131.0189 119.3977 114.3561 108.1712 114.0200
121.6800 122.0498 122.6274 113.5542 115.4326 121.4863 123.2966 122.1045 121.9148 121.9625 122.0398 122.1274 122.2164 122.3149 122.4332 122.5241 122.7671 123.0113 120.5671 123.2503 116.3362 108.4754 106.5636 115.0561 124.6111 125.1066 124.1325 125.2045 126.3868 126.7602 125.4499 124.5782 124.6399 125.1516 111.4988 101.8113 104.7123 126.6412 128.3191 122.9463 107.1213 103.5224 109.5122 103.6490 104.4373 112.3429 114.5489 113.5194 116.7503 106.7637 113.3339 120.5189 113.3270 104.6219 120.2612 125.9690 125.4041 132.0025 125.7114 125.0633 129.8973 116.4754 126.6271 114.0200
121.9600 121.7108 121.4484 123.8867 111.7311 123.2757 122.0255 122.0981 122.2118 122.2511 122.3272 122.4047 122.4792 122.5776 122.7044 122.8424 122.7577 120.2442 119.1088 124.5725 125.5124 118.2257 115.9278 96.8687 106.5613 112.0914 121.9395 113.5868 107.1177 124.8780 125.4761 125.4250 124.9414 124.6149 111.5921 117.2775 105.7239 115.3721 115.0757 112.5231 102.7235 104.4773 106.0283 111.6922 105.1496 113.4803 126.4689 126.9017 126.0611 112.0675 113.4310 111.2789 112.6506 114.9138 109.0046 120.3015 115.1058 129.8297 109.2315 121.8860 115.5161 101.9148 117.2640 130.4200
106.9300 117.0511 122.8430 123.6547 111.6835 123.4794 122.4513 122.3917 122.4600 122.5311 122.5769 122.6527 122.7550 122.8290 122.8158 122.9654 122.9106 124.2524 110.0188 116.3551 123.2796 111.6771 120.0801 111.0893 107.5219 102.0363 106.0511 117.2173 114.6313 110.6245 115.6592 126.2964 111.4789 111.3880 111.8106 109.1399 105.8122 102.8416 112.3291 112.0781 102.9472 103.9048 104.4669 108.6850 109.7105 103.4131 108.5507 128.4314 118.4100 115.0368 108.0848 104.8570 102.0669 127.9269 126.1982 121.9831 105.3224 124.3447 129.5236 114.3630 133.2419 108.1112 118.8205 107.3400
100.4900 108.3766 117.3470 118.2869 116.2895 123.5604 122.6654 122.6932 122.7452 122.7749 122.9571 123.0483 122.9794 122.9255 125.1035 123.8253 122.3312 121.1275 100.0019 101.6107 127.3692 124.1162 125.1753 103.9599 126.6838 114.6430 122.9843 118.4328 124.9335 104.6343 108.6812 109.2042 103.4626 106.9856 112.7168 107.5019 105.5819 114.1118 114.7708 108.9143 116.5333 113.7068 104.2657 105.5226 106.1136 125.2129 110.5828 104.5123 107.0214 106.9712 110.2011 104.6393 124.6076 123.9131 115.0253 110.2435 119.2222 121.3527 109.6986 109.3807 128.4752 128.9864 129.2186 123.3100
104.7900 116.6218 110.4630 112.6120 121.6976 123.2380 122.9606 122.9583 123.0067 123.0306 122.9697 122.6050 123.2634 123.2960 122.4179 125.6926 123.5696 124.7940 114.1954 104.3343 125.3184 124.0666 124.1269 123.4792 125.5987 115.1948 123.4216 124.2318 126.4099 123.4692 124.3245 124.5959 102.6311 107.8564 103.6124 105.3395 105.0709 113.0730 110.8615 112.7314 114.5566 115.7089 115.5918 105.7055 111.6724 105.8060 125.4939 109.6518 105.5647 105.7582 106.0555 105.8123 108.0837 127.4056 105.3291 105.3980 124.4531 119.6246 124.8688 110.9284 122.4221 119.4574 131.5142 129.4700
103.1200 107.8082 124.3947 120.1777 121.4481 123.1503 123.1981 123.2179 123.2708 123.2528 123.5633 122.9614 123.5588 122.7582 129.1548 123.7121 124.8636 124.3648 115.7260 126.3128 124.7959 124.3585 124.5419 124.7588 124.9477 123.9599 125.4875 125.8479 127.3308 123.8610 113.6773 106.7025 115.6032 104.0357 105.7997 104.7468 109.6482 112.3837 114.7631 114.5719 113.7536 129.7366 116.7855 105.4110 104.9186 120.0288 113.8456 119.1727 115.4120 113.1236 106.1109 106.3591 106.5524 104.1710 120.3884 127.8336 129.5748 128.5509 129.5988 130.0622 130.4034 130.3205 129.2145 129.4900
123.4600 104.1735 125.1600 123.4458 123.6307 123.4739 123.4425 123.4778 123.5179 123.5538 123.5885 123.7357 123.6892 125.6778 113.6244 104.3928 122.4148 115.4595 125.9458 124.3205 104.9618 122.3362 124.4031 124.8990 124.8442 125.0024 125.3068 121.0088 121.1295 122.0402 106.0616 116.1741 110.0939 109.1476 110.7401 109.1638 107.7716 127.1899 108.1672 115.6446 114.3467 114.2037 104.4660 109.1670 107.0565 116.4021 128.0290 120.8252 126.5750 108.3979 110.8720 109.3118 121.1690 110.3046 128.5312 126.3879 128.5477 128.8658 122.4345 124.6388 126.7127 127.5175 128.6607 129.5200
110.0900 118.5107 124.0269 123.4801 123.5949 123.6628 123.6926 123.7225 123.7573 123.8011 123.8379 123.8658 124.0551 124.6303 120.5506 102.6963 118.1680 109.7444 104.7620 124.2071 107.0842 125.9967 124.4443 123.6844 125.9208 122.8573 125.8958 123.2650 114.9416 119.0819 118.3376 105.9195 109.1028 120.5702 122.7102 119.8468 118.7711 128.1125 119.3744 116.1724 115.1310 118.6319 109.1197 105.3580 106.0628 121.8464 126.1511 124.9052 122.3016 111.8143 129.9096 128.1150 126.7456 129.3151 129.4258 128.8787 129.1140 129.3888 128.0937 130.2050 129.3793 128.7275 129.7731 127.8400
123.9100 124.3456 123.8496 123.8459 123.8881 123.9117 123.9257 123.9594 123.9918 124.0325 124.1683 124.1918 124.2108 123.9235 125.2365 102.4621 119.1017 124.7228 125.8229 126.1187 121.5930 104.5855 111.3685 117.3752 125.8276 112.0318 125.3101 104.5860 102.5165 113.2616 109.9487 107.6855 121.3173 126.8635 123.6125 116.7321 122.3632 128.5175 127.6128 124.7724 117.1107 118.4065 109.7308 105.2396 103.5877 126.0255 123.1028 128.4590 129.5463 124.4439 127.4651 128.0240 128.4270 128.4215 128.5920 127.9569 128.8984 123.5513 129.0431 129.3325 129.2863 130.1988 131.5939 107.7600
124.1200 124.0838 124.1118 124.1180 124.1273 124.1399 124.1639 124.1910 124.2290 124.2582 124.2364 123.3626 124.4538 124.3174 125.2549 122.0521 103.2938 123.5505 124.8402 107.4607 121.9588 109.1841 108.9130 117.4154 125.0169 122.0612 123.8193 100.9145 119.9854 105.4245 103.3220 105.8125 108.7749 104.4964 108.4323 114.1166 118.5200 120.9264 127.2447 122.2501 110.6600 112.2844 107.4877 104.4762 119.3435 124.3721 125.3309 122.0152 127.7865 128.2314 128.5487 128.5125 128.5882 128.7345 129.0143 128.2300 121.6112 109.5220 135.2615 129.1722 129.4496 130.0358 130.8270 107.7600
124.3300 124.3517 124.3492 124.3446 124.3579 124.3683 124.3907 124.4167 124.4561 124.4742 124.5951 124.5364 124.6434 124.7663 124.4001 125.4015 124.9136 126.0533 126.8911 117.0074 119.8893 103.5331 104.2647 100.2033 106.1097 118.3422 121.6839 101.5498 114.7377 103.4138 105.0492 107.1888 105.4873 119.6501 123.4746 114.2701 103.9363 109.4933 112.2720 116.5015 107.4206 112.6029 111.3624 105.7080 110.0273 121.3035 127.7726 126.4348 128.4952 128.3465 128.3779 128.5536 128.6707 128.7774 128.8694 129.0801 122.7966 115.6177 120.2639 129.1047 129.6524 129.3859 130.0530 107.8800
124.5400 124.5738 124.5666 124.5712 124.5850 124.5939 124.6140 124.6436 124.6705 124.7063 124.7435 124.7862 124.8023 124.9044 124.9750 124.9410 125.0488 125.5717 124.5028 119.9906 125.5926 111.3188 104.8930 108.8970 110.8799 114.0691 123.5521 112.6156 104.9737 105.3110 103.5329 106.9466 108.6528 117.6848 116.5580 114.7990 111.6780 105.8242 102.1277 129.9994 106.6109 106.8410 114.0346 110.2458 110.8206 119.3113 120.7537 129.6539 128.3312 128.4905 128.5450 128.6552 128.7579 128.8748 128.9956 129.0829 130.4114 131.5662 130.3702 129.7916 129.7942 129.0342 131.4231 107.9100
124.7400 124.7711 124.7816 124.7897 124.8019 124.8123 124.8314 124.8530 124.8853 124.9184 124.9442 125.0337 125.2097 125.0615 124.8950 125.2467 125.3317 125.5118 111.9671 114.4379 111.8117 128.6790 103.9646 115.9708 120.9309 113.4242 117.9513 107.4518 111.7228 109.0264 109.5014 106.4603 109.7393 109.3718 107.8249 112.8089 108.5489 104.4901 119.8585 117.6406 116.6646 111.1440 106.1589 110.3158 115.5277 118.8393 118.9199 121.8179 128.5389 128.2911 128.6455 128.7416 128.8471 128.9520 129.0555 129.1288 129.0437 129.5375 128.9533 129.2219 129.7129 130.0352 121.5755 107.9100
124.9400 125.1948 125.0097 125.0099 125.0117 125.0255 125.0415 125.0673 125.0897 125.1257 125.1794 124.9758 124.6853 125.7692 127.0740 125.3192 125.3548 125.8116 125.0629 113.3298 127.5229 126.6409 107.6145 110.4947 115.7958 118.5419 103.5202 109.5544 111.0592 108.1772 109.1922 103.9518 106.6454 108.2420 108.8570 105.9421 115.8188 104.6444 113.5397 130.8933 111.8960 107.8111 109.5081 117.4921 119.4520 119.1748 119.3067 118.5784 127.9695 128.6984 128.7696 128.8312 128.9295 129.0422 129.1413 129.2356 129.4397 129.1885 130.0298 130.8833 129.3500 129.2804 126.3202 108.0400
125.1300 124.5433 125.1562 125.2199 125.2242 125.2325 125.2479 125.2726 125.2948 125.3243 125.3670 126.0934 129.2304 124.8345 107.7660 126.7694 126.6472 123.7536 122.6293 102.2215 129.7432 124.6981 123.5204 107.3990 116.4416 116.2084 115.2018 106.2678 103.9970 104.7059 110.6370 113.9725 123.4299 108.8937 112.7568 111.7259 112.3518 108.4188 118.8437 126.1946 125.5853 114.6707 112.2394 110.8705 124.2002 122.0375 118.8732 118.6413 123.1458 128.9076 128.7303 128.9280 129.0349 129.1198 129.2487 129.2855 129.3453 130.3944 122.8116 127.9222 113.4279 132.5092 120.6181 113.0300
125.5000 125.4548 125.3218 125.4310 125.4223 125.4365 125.4534 125.4720 125.4965 125.5178 125.5718 125.9471 106.8772 131.7222 118.9657 126.7371 126.7284 117.3383 105.2065 105.3198 110.3576 123.8782 119.1342 104.4176 103.7663 101.0709 109.0022 104.1502 105.2595 105.6258 106.4951 119.1095 132.0033 113.6670 111.7118 109.1695 110.0867 112.1207 106.7611 115.7082 119.3650 115.2966 105.6459 113.9499 113.2920 130.7730 121.4059 119.9629 119.6563 129.2904 129.0082 129.1753 129.0884 129.2123 129.2781 129.5011 129.1606 129.5311 128.6723 125.4891 117.5118 107.8428 116.7369 120.6600
125.6800 125.5766 125.6164 125.6193 125.6264 125.6434 125.6540 125.6731 125.6896 125.7078 125.7812 126.0478 123.8484 126.6883 124.9683 122.6645 125.9639 127.1878 111.6921 109.3756 104.2413 103.5554 117.6754 105.7549 109.4126 120.5652 104.0372 104.5592 110.3999 119.5698 120.5045 125.2407 124.5979 112.0798 114.6429 110.4303 113.5688 110.2349 108.7435 114.6219 121.2138 120.4231 110.2812 105.3886 114.3345 111.7013 130.1534 124.1292 119.3010 121.0454 121.2866 129.3717 129.0615 129.3236 129.3764 129.2400 126.1306 130.4101 129.8425 129.6404 130.3589 122.4548 107.5010 108.3500
125.8600 125.8167 125.8080 125.8119 125.8177 125.8056 125.8720 125.8472 125.8928 125.9107 125.9366 125.9905 126.1560 125.4664 127.2734 121.1234 128.8269 125.8256 113.1731 122.3204 123.4340 105.5631 104.0330 105.1718 111.3816 118.6584 103.7183 105.0867 114.0601 129.2144 126.9677 124.8790 128.4039 117.7123 103.6978 111.7982 117.9301 112.0352 108.0275 112.2299 126.6222 117.1017 110.7455 107.6098 113.1579 114.9144 125.4771 128.5682 124.3192 123.1705 126.8874 126.9433 129.2446 129.3614 130.5823 114.5003 125.0188 128.6430 130.0518 129.5985 130.6433 126.6069 123.9124 116.5900
126.0300 125.9994 125.9972 126.0014 126.0136 125.9863 125.6736 125.9664 126.0223 126.1153 126.1331 126.1621 126.1607 126.1287 128.4978 105.4177 110.4066 108.8726 122.5740 128.8161 107.6765 111.5029 105.2630 104.8709 106.8787 110.7873 116.7456 107.9512 114.1064 126.8173 127.4013 127.2732 127.1998 130.7264 109.7370 108.2086 118.6726 118.4943 110.7111 112.1410 112.4648 119.3888 121.3002 110.6770 120.2528 112.3637 118.9082 125.9493 126.7988 127.4012 127.3846 128.0797 129.5242 129.4820 129.2134 131.7887 131.4936 117.4756 127.4665 131.8031 127.7695 127.9777 120.3333 116.0900
126.2000 126.1865 126.1829 126.1877 126.2070 126.0977 126.0587 124.0475 126.3124 126.2854 126.3125 126.3469 126.3734 126.1942 127.3635 105.6972 120.3814 107.7706 104.1551 123.0975 121.3031 110.3362 105.6062 107.1187 105.6290 111.7792 110.2360 104.4779 105.4945 117.2065 126.9974 127.4613 128.3476 129.1199 109.1650 119.2608 117.6671 117.0645 112.0392 113.8393 114.4183 117.0564 124.1808 122.8953 106.1716 130.5835 132.7704 129.2398 123.3959 129.9753 129.5217 129.4325 129.4379 129.5886 129.6343 129.5129 129.6934 132.0824 121.6087 124.8197 121.3151 116.6809 116.4491 116.0900
126.3700 126.3700 126.3700 126.3700 126.3600 126.3500 126.3500 126.3400 126.3200 126.4600 126.4400 126.4300 126.5600 126.5400 126.5200 126.6300 107.9400 109.5600 104.8300 126.8100 119.2600 119.2600 116.7500 127.0900 109.3800 109.3800 112.4300 107.0900 108.8700 112.2400 127.6200 127.7200 127.7200 127.9000 127.8800 127.9700 128.0700 113.7800 119.5500 119.6600 116.0800 116.0500 121.7300 122.0900 122.0900 128.9000 129.0000 129.0600 129.1400 129.2300 129.3100 129.3800 129.5400 129.6200 129.7000 129.7700 129.8500 130.0000 130.0800 116.8600 113.5700 108.3000 116.0600 116.0600
