121.7000 121.7000 121.5600 121.1000 120.9600 120.9600 120.5500 120.5500 120.0800 120.1100 119.9100 119.6900 119.6900 119.4600 121.8300 122.1500 118.9600 119.0000 119.0300 118.6900 118.7000 118.7000 118.7000 119.0300 119.0300 119.0000 119.2500 119.2500 119.4500 119.4500 119.6800 119.9000 119.9000 120.3600 120.3600 104.9800 120.7200 120.9400 121.1200 121.3200 121.5500 121.7100 122.1000 122.3000 122.4400 122.6200 122.7900 122.9800 123.2900 123.4500 123.6100 123.7700 110.4200 124.2300 124.3800 124.6700 124.8100 124.9500 109.9800 116.7800 109.5700 125.7500 125.8800 126.0000
121.6700 121.5183 121.2991 121.0858 120.8712 120.6531 120.4474 120.2406 120.0396 119.8442 119.6420 119.4671 119.4934 117.4634 127.4318 116.0996 118.7647 118.7097 118.2712 118.7161 118.9769 119.3005 118.8150 118.5266 118.8670 119.1805 118.6693 119.6130 101.7790 114.5663 119.9880 113.6035 105.6213 112.8756 106.0185 117.3180 122.3268 122.9784 120.7666 120.2689 119.8664 121.6042 121.8833 122.0980 122.3053 122.5237 122.7323 122.9475 123.1564 123.3991 123.4562 124.5100 110.9875 124.5818 126.2382 113.3779 106.2256 115.3153 107.8380 113.7256 107.0457 125.2925 125.3960 126.0000
121.6200 121.2964 121.0656 120.8352 120.6031 120.3743 120.1479 119.9346 119.7091 119.5021 119.3060 119.1166 118.9483 118.8870 117.9256 118.4360 118.5395 118.3678 115.9991 117.8918 115.8362 114.2385 118.4135 119.0724 111.5159 118.4697 118.9250 114.1896 108.0786 113.8430 118.7448 102.4486 100.6302 112.8725 106.0211 118.7246 105.8581 116.9392 121.3132 120.9832 120.2073 121.2526 121.6857 121.8819 122.1166 122.3422 122.5644 122.7905 123.0086 123.2346 123.3189 123.6351 119.8317 124.1876 120.0755 103.1039 125.4929 118.6395 102.8212 112.6389 114.0876 127.5655 126.3670 125.8200
121.3300 121.0628 120.8277 120.5876 120.3247 120.1328 119.8826 119.6348 119.3937 119.1625 118.9539 118.7323 118.5417 118.3473 118.2978 118.0449 117.8660 117.7809 117.9226 117.8547 114.8560 109.8717 118.8307 120.1282 119.6508 117.7381 118.2721 113.9787 125.3278 119.4117 109.1661 99.5831 96.0852 110.2223 114.2367 111.8057 103.0531 104.9206 120.5932 120.6226 117.6395 121.6050 121.4960 121.7521 121.9324 122.1704 122.3972 122.6287 122.8504 123.0714 123.3032 123.7803 124.2176 123.9417 121.0662 120.7340 127.1707 112.6583 113.3316 118.3893 114.4512 116.5136 116.3432 112.3000
120.9700 120.8501 120.5681 120.3132 120.0848 119.6419 119.6253 119.2065 119.0628 118.8018 118.5393 118.3724 118.1355 117.9363 117.7367 117.5847 117.4503 117.3227 117.2094 117.0721 116.8041 115.5530 116.9515 116.8621 117.0198 117.4248 117.1952 116.1853 117.7699 117.5086 118.6924 111.6945 98.2864 120.6776 117.4003 108.9492 106.3941 122.2982 119.8631 120.5239 119.3398 121.0814 121.1251 120.9571 121.8042 121.9919 122.2363 122.4689 122.7037 122.9311 123.1863 123.3212 123.6129 123.6298 125.6967 114.1637 112.0398 117.9572 121.2052 118.2836 115.4691 111.2436 110.6746 112.8200
120.6700 120.6043 120.4225 120.2304 119.6920 119.5977 122.0438 118.7347 118.7980 118.3498 118.3332 117.9372 117.7176 117.4965 117.2775 117.0997 116.9412 116.8059 116.7040 116.6460 116.6229 116.7792 116.6732 116.7407 116.8918 116.8417 117.0789 117.4046 117.4002 118.3410 111.7765 110.8734 119.0048 118.4344 122.1578 118.1926 120.6978 119.6182 120.3561 120.5288 120.5141 120.7766 121.0440 121.3029 121.5616 121.8583 122.0554 122.3117 122.5612 122.7763 123.0156 123.3060 123.2397 124.3409 117.2198 109.7166 113.1910 101.4443 115.8000 114.7548 115.2453 110.0211 125.6415 125.5900
120.5900 120.3840 119.8877 117.8149 119.7738 119.2471 119.2050 118.6389 118.3779 117.9696 117.8028 117.5425 117.2816 117.0220 116.8637 116.6097 116.4183 116.2684 116.1444 116.0606 116.0127 115.9809 116.0099 116.2791 115.3924 116.5397 116.5151 116.7368 117.0971 117.3600 119.1589 101.8963 102.9419 100.2672 99.8820 113.7091 119.7452 119.5514 118.0388 113.6430 120.9170 120.5328 120.7935 120.8983 121.6017 121.6537 121.8710 122.1739 122.4136 122.6979 122.7849 123.4978 124.2969 110.5910 108.4689 102.3498 111.8418 119.9238 119.9847 110.7695 126.6994 124.4564 125.5430 126.0100
120.2800 120.1656 119.9864 119.5716 119.2835 118.9536 118.6605 118.3492 118.0321 117.7112 117.4500 117.1046 116.8234 116.6434 116.0042 115.9689 115.8374 115.6794 115.5551 115.4567 115.4050 115.3953 115.4263 115.4495 112.3347 114.6680 116.0109 116.3393 117.2023 102.5593 115.2276 119.1386 116.4928 98.2116 104.9596 119.5539 118.7716 119.1441 119.8012 120.7641 119.9586 121.0238 121.5781 120.7187 129.3837 120.8706 121.7935 122.0355 122.2574 122.5363 123.7276 107.0501 110.7260 108.8140 115.7148 115.4039 115.9712 115.4101 115.7748 125.4511 124.8046 125.1418 125.3494 125.5300
120.2000 119.9700 119.6402 119.3219 118.9939 118.6784 118.3522 118.0080 117.6797 117.3406 117.0036 116.6803 116.3606 116.0783 116.3047 118.9378 115.1686 115.0724 114.9262 114.8127 114.7496 114.7365 114.7787 115.0267 115.4416 115.1480 115.2897 115.8640 110.0044 94.5372 102.0503 116.8229 116.7669 118.0063 113.5921 118.8337 118.4152 118.8940 118.6618 119.9375 119.6599 120.4393 116.3648 120.7011 120.6635 121.4147 121.5965 121.8849 122.1888 121.7994 130.7679 113.7245 107.6549 109.4421 109.7874 117.8885 104.0087 116.5785 125.0283 124.3046 124.9537 125.1323 126.0432 126.8600
119.8700 119.7530 119.4334 119.0984 118.7483 118.3920 118.0822 117.6718 117.3189 116.9616 116.5957 116.2346 115.8769 115.5531 115.0163 115.1606 114.3483 114.4289 114.2438 114.1157 114.0379 114.0280 114.0887 114.1913 114.2878 114.7934 114.9486 115.4986 108.9247 109.2500 111.6502 117.5524 113.8822 117.5051 117.6871 117.9657 118.3047 118.8258 116.7547 116.4824 116.1766 116.6081 109.6234 121.2897 120.7822 121.1996 121.4687 121.7725 122.1005 118.2293 122.1185 110.9343 103.9590 106.3329 111.0114 108.0316 112.0079 125.0054 124.3552 124.7170 124.8221 124.8891 126.4226 126.8800
119.7800 119.5539 119.2052 118.8561 118.4920 118.1351 117.4466 117.3804 116.9679 116.5737 116.1782 115.7754 115.3904 114.9916 114.6590 114.2258 114.0414 113.7057 113.5096 113.3510 113.2575 113.2723 113.2840 113.3903 113.9034 110.7600 114.1051 115.2856 111.5064 115.7339 115.7879 116.1737 113.2678 116.5031 117.1579 117.5812 117.9418 118.6452 112.9248 117.4171 102.9727 106.7719 121.4164 120.3649 120.7321 121.0257 121.3243 121.5493 122.8263 115.1525 120.3397 118.1767 110.3100 107.6446 116.1937 108.6374 106.9825 124.5334 124.1718 124.5522 124.8468 124.4958 126.7150 125.3200
119.7300 119.3644 119.0015 118.6303 118.2452 117.8897 116.8055 116.9797 116.6142 116.1869 115.7516 115.3171 114.8815 114.5284 114.0522 113.9286 113.2578 112.9662 112.7102 112.5279 112.4098 112.4039 114.1685 113.6356 113.0502 112.2113 113.3294 113.8157 114.6023 114.5814 115.1641 115.4017 115.9089 118.9188 117.7307 117.1885 117.7869 119.1356 110.8793 118.4598 121.2866 120.9739 119.6455 120.2020 120.5911 120.9043 121.2053 121.5454 121.5781 129.1441 121.5746 112.1767 121.9355 117.2653 116.1915 111.4691 120.6561 125.0804 124.1955 124.5419 124.7078 124.8689 126.3192 131.5500
119.3200 119.1655 118.7936 118.4203 118.0132 117.5886 117.2429 116.7275 116.2698 115.8045 115.3294 114.8467 114.3305 113.9890 110.6073 112.9822 112.5065 112.1453 111.8392 111.6065 111.4757 111.4776 111.4285 111.7005 112.0556 112.4356 112.7761 113.2544 113.6959 113.9285 114.4915 114.3663 114.9760 105.0645 115.2193 116.8337 117.5168 118.5808 119.2651 103.5979 115.0429 118.4123 119.8213 120.1143 120.4415 120.7625 121.0805 121.4509 121.8542 122.7642 123.9795 125.1498 123.8611 114.4711 121.0160 109.0281 108.5569 121.3079 124.3323 124.5128 124.6577 124.6923 126.1540 128.7500
119.2600 118.7177 118.6430 118.2152 117.7874 117.3514 116.8926 116.4237 115.9393 115.4337 114.9087 114.3780 113.8526 113.2944 111.7768 112.3691 111.6496 111.2585 110.8720 110.5909 110.4293 110.4344 110.5521 110.7632 111.1067 111.5160 112.0224 112.5499 113.0817 113.5231 112.9108 114.3719 107.1575 107.2376 115.1105 116.8044 117.7468 116.7377 109.3259 105.1356 120.3483 119.3532 119.6263 120.0166 120.3400 120.6375 120.9737 121.3027 121.4092 121.7151 119.1268 118.1373 121.5089 116.4054 110.1402 109.7243 111.2865 111.8394 124.9246 124.4383 124.5666 124.8823 126.6493 128.7500
119.2600 118.6072 118.4577 118.0173 117.5736 117.1172 116.6425 116.1386 115.6103 115.0715 114.5073 113.9205 113.3135 112.6398 112.2468 111.4258 110.8442 110.2856 109.8085 109.4445 109.2341 109.1956 109.3451 109.6529 110.0971 110.6220 111.2180 111.8158 112.5979 113.4175 113.7974 105.1749 113.0084 116.8961 116.4105 116.4369 115.8452 115.9617 104.7855 116.7456 118.7264 119.0184 119.5199 119.5747 120.0607 120.5321 120.8638 121.1663 121.5964 120.7904 121.9174 121.8996 122.0184 123.5445 119.6049 117.3205 119.8976 122.0328 124.1778 124.3740 124.6142 124.4319 129.4773 122.0900
118.8700 118.7271 118.2863 117.8437 117.3855 116.9043 116.4008 115.8763 115.3167 114.7337 114.1195 113.4742 112.8007 112.0977 111.3737 110.6417 109.9178 109.2204 108.6177 108.1384 107.8508 107.8033 108.0105 108.4125 108.9849 109.6505 110.3662 111.1148 111.7811 112.2368 113.8899 112.2736 114.5172 115.0224 115.5823 116.2971 117.4395 117.5027 116.7838 118.2395 118.6050 118.9889 118.8728 124.1659 119.5672 120.4561 120.8137 121.2431 121.2094 126.9844 110.3804 116.4889 123.7312 120.9362 116.0720 114.3736 119.7750 124.1448 124.1374 124.3091 124.5871 125.2080 135.8091 122.9200
118.8300 118.5761 118.1398 117.6895 117.2143 116.7136 116.1916 115.6162 115.0445 114.4212 113.7490 113.0498 112.3077 111.5189 110.6859 109.8177 108.9396 108.0702 107.2623 106.6124 106.2005 106.1392 106.4266 106.9992 107.7536 108.6065 109.4909 110.3636 111.1863 112.3214 109.7305 113.7169 114.0512 114.8206 115.4114 115.9947 116.3993 117.1242 117.5976 117.9075 118.4197 118.8393 119.1796 119.9826 120.0055 120.4122 120.5705 120.3967 126.1369 105.5627 106.4445 114.7922 118.6945 119.0931 112.8648 116.7711 124.4687 123.7285 124.0208 124.2763 124.5205 124.8038 125.4112 129.9900
118.7800 118.4709 118.0230 117.5590 117.0608 116.5414 115.9847 115.4471 114.7795 114.1148 113.4262 112.6628 111.8479 110.9677 110.0197 109.0047 107.9353 106.8288 105.7487 104.7957 104.1823 104.0786 104.5258 105.3650 106.4101 107.5136 108.6113 109.6454 110.6396 111.5333 112.2335 113.2138 113.8832 114.5525 115.1827 115.7665 116.4288 117.1187 116.9545 117.8533 118.3287 118.7276 119.1433 119.5453 119.9512 119.4881 127.4355 121.3292 108.8795 118.7622 116.3894 129.5929 106.5016 108.5204 125.9365 113.4915 124.5691 123.7091 124.0001 124.2457 124.4810 124.7313 124.9399 125.0500
118.7500 118.3785 117.9188 117.4435 116.9388 116.4012 115.7973 115.4720 111.9220 114.1585 113.1362 112.3226 111.4400 110.4719 109.4030 108.2233 106.9190 105.5078 104.0219 102.5911 101.5587 101.3766 102.1425 103.4498 104.9527 106.4021 107.7492 108.9764 110.0902 111.0653 111.9725 112.8084 113.6170 114.3295 115.0100 115.6978 114.6519 127.1747 113.1153 118.1223 118.2623 118.6341 119.0591 119.4741 119.8455 119.9745 120.3356 121.3229 121.4500 121.4602 121.5772 121.5536 125.2816 108.4090 123.6022 123.6368 123.4355 123.7477 123.9895 124.2198 124.4433 124.6557 124.8955 125.0400
118.7200 118.3080 117.8453 117.3556 116.8424 116.3002 115.7196 115.0714 114.5158 113.7311 112.9182 112.0536 111.1106 110.0542 108.8800 107.5319 105.9930 104.2080 102.1373 99.9040 97.8811 97.4208 99.0877 101.2784 103.4515 105.3436 106.9776 108.3909 109.6320 110.7305 111.7205 112.6077 113.4098 114.1600 114.8506 115.2885 117.8966 116.1069 114.0873 117.9816 118.1331 118.5753 119.0170 119.4184 119.7982 120.2322 120.5756 120.1898 127.6151 120.8221 122.1646 122.7299 119.5164 109.6392 119.7472 123.1835 123.5146 123.7217 123.9673 124.1995 124.4351 124.6499 124.8717 125.0300
118.7000 118.2642 117.7868 117.3007 116.7703 116.2186 115.6259 114.9982 114.2758 113.5497 112.7524 111.8578 110.8691 109.7531 108.4777 106.9968 105.2356 103.0735 100.2606 96.5837 91.6974 90.7543 94.5646 99.0578 102.0926 104.4681 106.3707 107.9456 109.2919 110.4632 111.4949 112.4279 113.2652 114.0330 114.9468 115.0644 121.4622 117.5853 106.5124 118.1140 118.1330 118.5272 118.9700 119.3821 119.7621 120.1313 120.4628 120.8003 120.7302 121.6035 121.6324 125.1894 126.0645 124.3699 123.3822 123.2494 123.4625 123.7126 123.9553 124.1851 124.4169 124.6577 124.7545 125.0200
118.3800 118.2218 117.7688 117.2747 116.7372 116.1817 115.5793 114.9383 114.2516 113.4982 112.6649 111.7514 110.7344 109.5812 108.2515 106.6890 104.7795 102.3379 98.9554 93.0283 86.4757 85.4559 89.9265 97.2725 101.1968 103.9310 106.0127 107.6961 109.1058 110.3203 111.3828 112.3313 113.1868 113.9675 114.7578 114.7019 115.0997 117.4649 118.2722 117.5716 118.0455 118.5158 118.9440 119.3591 119.7537 120.1341 120.4824 120.8600 121.2406 121.4574 121.6676 121.3960 121.8330 122.2829 122.8390 123.1862 123.4542 123.7085 123.9492 124.1804 124.4123 124.6914 124.6456 125.0200
118.6800 118.2914 117.7226 117.1859 116.7251 116.1741 115.5751 114.9315 114.2373 113.4849 112.6588 111.7460 110.7193 109.5648 108.2318 106.6534 104.7245 102.2556 98.8075 92.5730 85.7959 84.6668 89.2898 97.0723 101.0898 103.8678 105.9741 107.6660 109.0836 110.3081 111.3695 112.3269 113.2052 114.0194 114.6816 115.4118 116.1194 116.4924 116.7785 117.6525 118.1180 118.5087 118.9400 119.3595 119.7468 120.1229 120.4899 120.8225 121.1637 121.5329 121.8936 122.3258 122.5864 122.8246 122.9892 123.2125 123.4549 123.7049 123.9441 124.1751 124.4093 124.6441 124.6612 124.7900
118.6900 117.9152 118.0616 117.5774 116.7474 116.2033 115.6124 114.9802 114.2866 113.5313 112.7194 111.8271 110.8229 109.6988 108.4093 106.8970 105.0853 102.8426 99.8804 95.1161 90.2609 89.2163 93.2456 98.5741 101.8339 104.3008 106.2609 107.8651 109.2366 110.4197 111.4618 112.3978 113.2924 113.6253 114.7412 115.3554 115.9377 116.6284 117.2542 117.3912 117.7552 118.5352 118.9625 119.3711 119.7647 120.1400 120.5017 120.8476 121.1979 121.4091 121.5171 121.7431 122.0760 122.3581 122.7605 123.2091 123.4576 123.7141 123.9484 124.1875 124.4106 124.6315 124.8827 125.0100
118.7000 121.2707 115.0158 117.4362 116.7327 116.2750 115.6902 115.0647 114.3981 113.6949 112.8933 112.0022 111.0438 109.9708 108.7641 107.3899 105.7849 103.9134 101.6905 99.2254 96.5101 95.8637 98.1554 100.7274 103.1179 105.1171 106.8121 108.2669 109.5342 110.6541 111.6498 112.5558 113.3451 113.9077 114.8742 115.5082 116.0659 116.7080 116.9371 117.4100 120.7175 118.4574 118.9854 119.4056 119.7957 120.1672 120.5151 120.9639 120.8336 121.4892 122.7949 123.1029 123.3903 123.4900 123.7806 123.2072 123.4854 123.7260 123.9701 124.2033 124.4328 124.6537 124.8596 125.0200
118.7200 118.8128 116.7736 117.5100 117.0067 116.3748 115.8032 115.1892 114.5397 113.7438 113.0790 112.2175 111.3592 110.3654 109.2647 108.0425 106.6890 105.1693 103.5272 102.0000 100.7741 100.5769 101.4370 102.9576 104.5897 106.1427 107.5557 108.8231 109.9647 110.9947 111.9294 112.7848 113.5285 114.3838 114.8159 115.4656 116.0558 116.6488 121.5220 118.0411 119.2219 118.5451 119.0462 119.4627 119.8393 120.1836 120.5911 121.0093 119.9820 122.8715 110.4772 115.4150 109.8821 119.3526 113.9349 123.1881 123.3917 123.7478 123.9724 124.1956 124.4318 124.6429 124.8932 125.0200
118.7500 118.3847 118.1019 117.5173 117.0320 116.5100 115.9573 115.4165 114.6263 116.0372 113.2017 112.5424 111.7630 110.8453 109.8691 108.8151 107.6878 106.5085 105.3323 104.2830 103.5909 103.4640 103.9519 104.8945 106.0685 107.2503 108.3988 109.4841 110.4823 111.4158 112.2673 113.0893 113.9678 111.6352 116.5220 115.6052 116.4279 116.8934 117.4260 118.0248 118.2514 118.6731 119.1255 119.5202 119.9024 120.2371 120.6507 120.8561 126.1231 122.4326 107.1374 114.6300 120.0749 122.2432 121.8311 123.1550 123.4993 123.7652 124.0284 124.2678 124.4381 125.2550 124.8327 125.0300
118.7900 118.5514 118.1037 117.6616 117.1702 116.6709 116.1369 115.5983 114.7956 114.6957 110.5845 113.1968 112.1913 111.3743 110.5239 109.6205 108.7006 107.7744 106.9068 106.1878 105.7360 105.6556 105.9605 106.8781 106.3041 108.3358 109.2776 110.1909 111.0625 111.8887 112.6699 113.4122 114.0277 114.8614 116.2806 107.0088 116.7786 116.7018 117.5072 117.9316 118.4097 118.8100 119.2142 119.6061 119.9956 120.2739 120.0504 128.7741 113.3167 118.1787 121.6818 116.3444 121.1585 122.4976 123.0849 123.3068 123.5471 123.7950 123.9861 124.3199 124.4469 124.7025 124.9258 125.0400
118.8300 118.6739 118.2438 117.8053 117.3377 116.8525 116.3482 115.8108 115.2121 114.8273 113.9631 113.3290 112.6853 111.9551 111.2102 110.4400 109.6810 108.9401 108.2922 107.7743 107.4613 107.4073 107.6115 108.1579 106.7683 109.5417 110.1572 110.9228 111.6818 112.4057 113.1106 113.7886 114.4215 114.7352 120.8271 116.8951 117.4954 117.0442 117.6240 118.0805 118.5205 118.9505 119.3219 119.6878 120.1506 120.6251 120.4485 120.0037 117.0270 106.2804 107.5358 108.7086 122.5310 120.6101 123.1877 123.3660 123.5661 123.7622 124.5854 123.1073 124.4348 124.9041 124.9358 125.0400
119.1600 118.8139 118.4040 117.9778 117.5338 117.0672 116.5773 116.0700 115.5475 114.9849 114.4251 113.8059 113.1797 112.5555 111.9060 111.2245 110.7049 110.0437 109.5264 109.1337 108.9037 108.8613 109.0200 109.3870 109.8688 110.3439 111.0125 111.6519 112.3039 112.9512 113.5785 114.1829 114.7646 115.1672 114.9551 116.1601 114.4079 117.5177 117.8168 118.2379 118.5420 118.8476 119.4574 119.8253 119.9759 118.4449 116.1271 103.4950 109.2292 108.6397 124.5529 121.5736 123.2368 118.0218 123.4346 123.6629 123.9108 123.5947 128.8739 110.6532 119.2608 123.5051 124.4993 125.0600
119.2100 118.9719 118.5687 118.1640 117.7351 117.2986 116.8309 116.3556 115.8595 115.3503 114.8139 114.3046 112.6825 113.1539 112.5282 111.7671 111.6886 110.9295 110.6249 110.3177 110.1403 110.1183 110.2297 110.4920 110.8625 111.3286 111.8260 112.3781 112.9394 113.5012 114.0669 114.6052 115.2698 117.0924 116.4299 118.1908 106.8996 118.7090 117.8886 118.4643 118.8110 121.0540 119.6708 119.5845 120.5509 119.5343 115.8220 104.6654 115.1748 109.3912 114.1251 112.3826 119.5611 114.8997 122.8318 123.2913 121.9922 123.9670 123.6245 125.0373 125.0031 123.4788 121.0748 125.2100
119.2700 119.1415 118.7634 118.3628 117.9530 117.5363 117.1045 116.6595 116.1914 115.7210 115.2036 115.0026 111.6410 113.7186 113.3779 109.2060 110.8337 111.9495 111.6026 111.3613 111.2268 111.2036 111.2992 111.5029 111.7988 112.1753 112.5930 113.0849 113.4550 114.0437 114.5255 115.0311 115.5291 114.4819 121.8202 115.8829 117.8433 117.9043 118.2372 118.6773 118.5643 123.8758 118.3222 120.4953 121.0009 106.2471 121.3700 111.7974 111.4850 113.0673 115.9272 115.1742 118.6314 114.0673 119.4035 124.2721 117.8562 124.4793 124.3141 124.2383 124.3450 124.4936 129.1027 125.2300
119.6000 119.3118 118.9563 118.5782 118.1950 117.7984 117.3834 116.9671 116.5380 116.0964 115.6571 115.1706 114.8324 114.7670 113.8149 110.9080 112.7864 112.7782 112.5015 112.3020 112.1911 112.1788 112.2502 112.4129 112.6557 112.9738 113.3947 111.0281 114.0750 114.5536 115.3108 116.0091 116.0457 116.7498 119.0305 114.8417 117.4183 118.0860 118.4491 118.8003 119.2399 119.3727 122.8998 119.1784 112.0625 111.7288 123.9767 121.8162 124.6964 112.2243 124.9709 117.9154 121.1041 119.0688 124.2541 123.4884 124.2414 124.0417 124.2887 124.5461 124.5086 127.9340 124.0575 125.2400
119.6600 119.5145 119.1648 118.8019 118.4332 118.0650 117.6799 117.2859 116.8888 116.4835 116.0732 115.6613 115.2391 115.9609 114.7263 114.1588 113.8519 113.5566 113.3344 113.1541 113.0594 113.0472 113.1123 113.2490 113.4533 113.6999 113.9403 114.6509 114.7912 115.3143 112.1148 115.6438 116.3222 117.1330 114.5375 118.1753 117.8634 118.3185 118.6594 119.0363 119.3711 119.6867 123.7541 109.7515 120.8635 111.0668 113.5270 121.5241 111.3551 114.1426 120.5529 122.7285 123.1852 123.7822 123.2881 123.6315 123.8137 124.1302 124.3488 124.5270 124.7086 126.9775 125.2384 125.2600
120.0500 119.7111 119.3785 119.0388 118.6925 118.3359 117.9747 117.6105 117.2392 116.8661 116.4887 116.1381 115.7240 115.0673 115.0099 114.8011 114.4760 113.9655 114.0628 113.9259 113.8447 113.8386 113.8954 114.0021 114.1759 114.3947 114.6868 114.8346 115.6362 114.9762 116.6058 116.4505 116.6000 117.0586 117.4698 117.8713 118.1951 118.5528 118.9103 119.2458 119.5952 119.8718 120.2991 113.7914 117.6850 119.8198 106.0304 127.5294 124.3959 114.8054 121.3580 123.0049 122.9200 123.2176 123.5189 123.7639 123.9907 124.1973 124.4074 124.6254 124.8252 124.6362 124.9412 125.4400
120.1300 119.9200 119.5984 119.2789 118.9511 118.6135 118.2716 117.9364 117.5965 117.2503 116.9090 116.5712 116.2673 115.9386 115.6653 115.3393 118.9238 114.8891 114.7761 114.6363 114.5759 114.5643 114.6094 114.7055 114.8599 115.0516 115.2424 115.6558 115.3963 110.5463 117.3151 116.8744 117.1652 117.4562 117.7789 118.1207 118.4935 118.8264 119.1544 119.4699 119.8176 120.1518 120.1282 121.2964 120.2118 121.0814 113.0434 108.6754 111.8170 115.0259 115.4365 120.4567 123.0895 123.3962 123.5876 123.8183 124.0472 124.2615 124.4751 124.6891 124.8912 125.1847 125.3863 125.4600
120.4400 120.1331 119.8268 119.5194 119.2127 118.8964 118.5750 118.2589 117.9388 117.6282 117.3153 117.0071 116.7150 116.4420 116.1786 115.8046 115.7212 115.5864 115.3823 115.3008 115.2437 115.2325 115.2745 115.3588 115.4477 115.6871 115.9175 115.0045 116.4784 116.8028 117.0811 117.1570 117.5228 117.8260 118.1366 118.4583 118.7725 119.0992 119.4079 119.7122 119.9218 121.6174 106.9102 122.8480 127.6701 131.4379 121.4171 112.1921 116.7389 117.8642 113.9248 114.4990 123.9861 123.5215 123.6410 123.9345 124.1343 124.3454 124.5573 124.7653 124.9935 124.9081 125.0310 125.4800
120.5100 120.3483 120.0627 119.7706 119.4796 119.1830 118.8882 118.5897 118.2896 118.0039 117.7215 117.4435 117.1692 116.9175 116.6698 116.4885 116.3022 116.1297 115.9954 115.9190 115.8619 115.8538 115.8925 115.9627 116.0332 116.9241 116.5366 114.7358 116.9581 117.3841 117.2453 117.6274 117.8883 118.1805 118.4751 118.7739 119.0723 119.3563 119.6707 119.9296 120.2813 120.8749 118.4236 111.9777 107.6624 109.4573 109.9065 122.0030 122.5762 123.3627 116.3296 116.3562 124.7329 115.8965 124.6540 123.9122 124.2154 124.4302 124.6337 124.8235 125.1804 125.3611 128.9400 125.5000
120.8100 120.5610 120.3002 120.0069 119.7701 119.4503 119.1884 118.9121 118.6363 118.3702 118.1028 117.8341 117.6104 117.3737 117.1770 116.9830 116.8135 116.6778 116.5633 116.4911 116.4445 116.4378 116.4697 116.5245 116.6272 116.7546 116.8221 117.3357 117.3242 117.3940 117.7949 117.9946 118.2616 118.5459 118.8088 119.0825 119.3738 119.6046 119.8516 120.2410 120.5508 119.9639 127.1767 120.5122 109.2821 119.3899 118.1090 109.6117 118.7018 122.7919 123.1847 123.2067 123.4034 123.6871 124.0234 124.1129 124.3147 124.5254 124.7200 124.9172 125.1063 125.2737 125.8341 125.6600
120.8900 120.7856 120.5340 120.2743 119.7725 119.7850 119.4086 119.2525 118.9740 118.7241 118.5788 118.3762 118.1503 117.8852 117.6141 117.4560 117.3167 117.1913 117.0908 117.0297 116.9905 116.9864 117.0103 117.0660 117.1500 117.2655 117.4294 117.5297 117.7512 117.9102 118.1602 118.4173 118.6367 118.8839 119.1328 119.3897 119.6353 120.1051 118.1001 119.8680 120.6994 121.3189 118.4008 110.0096 109.9005 122.3390 122.4936 122.1908 123.1144 122.7053 121.3597 123.3127 123.5638 123.7532 123.9519 124.2215 124.4084 124.6139 124.8179 125.0033 125.1257 125.9230 123.8958 125.6900
121.1800 121.0161 120.7489 120.9770 118.8903 116.4862 120.0388 119.4925 119.3277 119.0894 118.8545 118.9626 113.7787 118.8261 117.7862 117.9172 117.7967 117.6800 117.5948 117.5331 117.5036 117.4866 117.5276 117.5817 117.6481 117.7521 117.8676 118.0287 118.1981 118.8418 117.4740 119.1174 118.9966 119.2248 119.4601 119.6965 119.9381 120.1879 120.4697 120.8150 120.9534 120.4445 120.7474 115.7537 106.3467 109.4176 119.2536 122.6522 123.0299 124.9906 114.6179 124.7764 123.6088 123.8977 124.1180 124.3150 124.5144 124.7107 124.9009 125.0866 124.9113 125.4544 114.1501 125.7200
121.2600 121.2453 120.9162 121.0075 110.3283 115.9446 119.9839 119.8657 119.6255 118.8251 118.6935 119.8938 98.8134 120.1515 118.3936 118.3651 118.2479 118.1510 118.0740 118.0215 117.9937 117.9895 118.0160 117.9769 118.1158 118.2046 118.3242 118.4484 118.5377 119.2747 115.2884 119.2304 119.3434 119.5559 119.7752 119.9953 120.2154 120.4453 120.6783 120.9193 121.0416 121.2409 116.1211 125.6039 106.3141 114.9835 115.4845 117.1057 121.6084 116.1082 124.6353 123.4351 123.8481 124.0154 124.2226 124.4237 124.6136 124.8138 125.0109 125.2515 125.4543 125.9992 120.2513 125.8800
121.5600 121.4619 121.2625 120.9826 121.9383 120.3734 120.4586 120.1231 119.9566 117.7976 121.7772 121.1882 114.5793 117.9712 119.0090 118.7928 118.6869 118.5854 118.4951 118.4599 118.4617 118.4206 119.2139 118.8939 118.5176 118.6492 118.7416 118.8737 119.1032 115.4684 118.2690 119.5765 119.6660 119.8604 120.1688 119.9351 120.5361 120.6896 120.9777 121.1895 121.4190 123.5910 114.9579 119.3252 109.0193 113.9491 128.8195 112.7059 124.9327 106.5882 124.9126 123.1984 123.8935 124.1523 124.3322 124.5252 124.7236 124.9130 125.0925 125.1154 124.7964 127.0884 118.6906 125.9100
121.9000 121.6901 121.4790 121.2249 121.0710 120.7409 120.6599 120.4184 120.3617 120.2360 117.4490 104.2842 116.4656 119.2671 119.3366 119.2005 119.0588 118.9632 119.0258 118.9216 118.8701 118.7718 118.9882 115.0778 119.4661 118.9746 119.1575 119.2438 119.2645 120.4996 119.7160 121.2991 119.9806 120.3250 119.8813 125.2675 120.3935 121.3396 120.8376 122.7130 125.9869 110.9015 109.0970 112.0007 117.0580 116.8577 125.9856 122.2446 125.5716 115.8910 130.4877 124.0787 124.3728 124.2984 124.4774 124.6732 124.8389 125.0118 125.1676 126.5235 129.2524 122.1479 125.5020 126.0900
122.1600 121.9186 121.7120 121.5346 121.3293 121.1363 120.9444 120.7819 120.6172 121.5025 120.0815 119.6426 120.3994 119.5010 119.7411 119.5608 119.7787 120.0852 119.1024 119.3087 119.2898 119.2219 120.0046 118.9443 119.5317 119.4133 119.5455 119.7124 119.8751 119.5593 115.2341 112.0105 120.0313 119.5352 111.7455 112.3716 114.8333 120.9072 123.7550 117.3470 103.7041 121.6668 110.5739 107.1660 122.4829 123.3692 122.3908 123.1558 122.0187 119.4969 120.6487 117.6605 124.1596 124.2718 124.4884 124.7090 124.7821 125.1379 125.2961 125.4289 124.4187 117.2964 124.8359 110.5100
122.1900 122.1378 121.9473 121.7607 121.5717 121.3966 121.2077 120.9951 120.7934 120.2909 104.9228 119.6344 120.2029 120.2226 120.0366 120.3174 116.2294 115.4358 120.2745 119.7150 119.7060 119.7122 112.4801 117.9223 119.4045 119.8820 119.9044 120.0454 119.9266 120.9823 121.2261 106.2029 120.2251 115.9168 111.7472 103.0425 104.3595 120.9145 141.7402 111.8585 104.2897 114.6335 110.2308 108.6627 123.1886 123.0549 123.0358 123.7992 119.6349 129.2468 112.6793 117.0872 123.4117 124.8925 124.8410 124.7033 125.2992 125.2573 125.4114 125.5589 124.8047 123.6352 124.0693 113.8200
122.5000 122.3627 122.1808 121.9995 121.8282 121.6528 121.4925 121.3482 121.7205 117.9195 120.2243 122.1434 120.1686 120.5148 120.4446 120.3112 111.6078 105.4370 121.6764 120.0424 120.0898 119.9650 119.9640 119.1223 119.9794 120.2505 120.2673 120.4351 121.5428 128.2057 121.2387 101.2246 105.8891 112.2529 112.2628 120.3432 120.4105 116.3708 119.4085 110.0093 119.9843 111.1783 122.2855 117.3555 117.0267 120.1580 124.9024 113.8751 112.3903 120.8363 115.8229 122.6632 124.3571 123.9312 125.7153 113.5568 125.8490 125.0691 125.4567 126.4574 126.1097 126.5592 126.6431 126.3100
122.7400 122.5780 122.4137 122.2355 122.0758 121.9106 121.7530 121.6257 121.7541 115.4176 124.2480 116.5031 122.2246 120.7388 120.8375 120.5107 123.5382 122.6475 120.2894 120.4510 120.4353 120.4401 120.4069 120.4615 120.3743 120.5850 120.6171 120.8499 120.5824 120.3639 120.8567 117.6609 105.0894 104.3999 116.1108 113.0118 121.2854 123.1499 122.1857 122.5409 121.8332 122.4250 124.4969 112.6164 114.7303 113.1159 119.8075 123.3097 124.2665 107.8444 111.7525 113.6631 126.1938 124.3775 126.9872 125.0371 125.5893 125.4356 125.6258 125.8259 125.9200 126.1169 126.2365 126.3500
122.7700 122.8018 122.6380 122.4730 122.3181 122.1646 122.0118 121.9730 121.5015 118.4361 104.9503 102.9101 116.7152 121.0421 120.9200 122.3553 111.4812 120.7113 120.6657 120.7976 120.7880 120.7752 120.7978 120.8371 120.8894 120.8831 120.9526 121.0566 121.1322 121.2676 121.3613 114.1104 105.1146 103.4312 104.3191 115.8034 117.5909 122.4175 122.1842 122.4907 122.6835 124.0677 111.7200 106.6285 123.4455 124.6195 123.7720 123.8426 125.5129 118.6538 118.4695 115.0294 110.5859 124.7678 125.0432 125.1877 125.3742 125.7428 125.3000 125.9030 126.0670 126.1985 126.3690 126.5000
123.0600 123.0122 122.8552 122.7035 122.5447 122.2953 122.2020 122.1087 122.3594 119.1261 101.2234 120.6017 122.8966 120.9927 122.1797 116.7793 97.5056 121.7251 120.7971 121.1361 121.1338 121.1151 121.1165 121.1397 121.1916 121.2779 121.2821 121.0052 121.4366 121.1613 121.7376 120.7533 120.3682 119.8480 119.2815 116.8409 114.8970 122.9286 122.6561 122.7679 123.0371 123.6704 124.6469 98.4174 110.6613 124.9248 123.5895 124.2164 123.9559 125.2199 125.2416 127.4458 114.1851 124.2380 125.0903 125.4810 125.4974 125.9631 122.6292 126.3948 126.1012 126.3006 126.3912 126.5300
123.3100 123.2283 123.0809 122.9311 122.9517 123.1537 122.7639 122.8038 121.9462 111.4139 121.4300 105.2540 119.7899 121.2606 123.7897 106.8354 120.9983 122.1723 121.3458 121.3718 121.2480 121.3640 121.4307 121.4512 121.5491 121.0984 121.5445 123.9936 122.0711 120.8595 122.8204 121.2864 107.1624 117.7295 119.2004 118.8832 117.7171 122.4947 122.9128 123.0211 123.1620 123.9618 126.3153 114.4423 113.5003 124.6184 124.2881 124.2503 124.1053 124.0689 124.3902 124.6043 124.9670 125.8738 125.1633 125.4605 125.4064 125.6645 126.0706 126.1357 126.2785 126.3762 126.9995 126.6900
123.5200 123.4311 123.2945 123.2065 122.9421 123.7639 116.6509 109.8742 118.8511 108.7320 107.9621 109.6402 123.2418 123.0360 114.4860 102.7336 124.0827 121.7672 121.7579 122.4757 123.3581 122.3970 121.8206 121.8851 121.9393 121.2727 118.8549 117.2179 105.8849 114.7988 128.1385 117.0506 125.0569 121.1878 123.2125 122.2526 123.8743 122.8412 123.0989 123.2565 123.4479 123.3298 111.5176 110.8127 110.8367 123.2812 124.2047 124.4301 124.6725 124.7643 124.9253 124.9389 125.1138 125.2138 125.5965 124.1699 128.7537 126.4999 125.9162 126.1881 126.3667 126.6497 122.5250 126.7200
123.8200 123.6369 123.5050 123.4623 123.0855 123.5068 107.1940 113.7095 110.6037 117.3466 100.9906 115.6735 122.6731 122.6810 116.4350 113.5898 123.1904 122.1797 122.4084 115.7880 113.3914 118.6578 120.1054 121.7122 121.9677 120.6406 120.7694 131.2729 109.9292 104.8898 121.4904 122.9053 122.1745 122.9806 122.4935 123.3483 122.6449 123.3645 123.9027 123.0709 123.3336 126.0377 122.7926 110.5159 123.2035 124.9711 124.4309 124.5726 124.7283 124.8674 125.0032 125.1696 125.3340 125.4231 125.8938 124.9423 127.7734 118.2944 129.5122 126.1431 126.5209 127.2203 117.8028 110.7800
123.8200 123.8498 123.7102 123.5772 123.2946 125.3097 124.0294 121.2134 124.2838 120.2414 120.4265 122.1124 122.7721 122.3839 124.8016 124.2054 122.4782 122.3864 117.6569 108.1403 112.9786 115.8919 105.5730 123.0388 123.8544 122.7073 122.9454 114.0174 103.4811 115.2933 122.2734 122.9186 122.8986 123.0370 122.4154 117.5307 129.7452 123.7672 117.3459 115.1150 124.1482 123.6070 122.6622 112.1489 123.2977 124.0210 124.6180 124.7349 124.8892 125.0348 125.1723 125.3122 125.4520 125.6014 125.7414 125.1397 120.2950 115.4458 121.5586 126.1879 126.7174 126.2760 127.0570 110.7800
124.2500 124.0455 123.9264 123.8030 123.7233 123.5562 123.3250 123.3777 123.0872 122.7218 124.5443 123.7832 122.9285 124.0571 111.8865 122.3375 122.6903 122.8551 117.7768 126.3942 122.8402 124.0461 102.5730 122.2492 101.8827 116.7412 120.4316 107.4304 102.2491 106.1649 107.5366 122.8701 123.1348 123.2914 123.6653 122.7496 115.9966 124.4093 116.4599 116.3027 117.4277 121.4956 118.3976 128.8170 124.4074 124.6970 124.8018 124.9118 125.0479 125.1857 125.3194 125.4640 125.6043 125.7322 125.8550 126.1725 126.4221 128.2434 126.5813 126.6621 126.0342 133.1846 127.6655 127.0900
124.2800 124.2431 124.1317 124.0132 123.9061 123.8095 123.7357 123.5587 123.5172 124.4706 107.6222 123.2884 122.9454 123.4172 121.2935 123.8637 123.0124 123.2685 114.6102 122.0300 122.0378 123.7647 124.1891 120.4522 97.8179 110.8807 116.9754 112.9411 101.8803 104.3329 123.3092 123.8699 123.3265 123.7363 122.8295 124.8742 107.1426 103.7753 116.5855 125.0719 111.0439 106.2585 117.6273 124.9712 124.5173 124.8156 124.9484 125.0794 125.2083 125.3411 125.4697 125.6064 125.7411 125.8773 126.0083 126.1113 126.2941 125.8570 126.3333 126.7152 126.7405 130.3956 119.9740 127.0900
124.5100 124.4448 124.3329 124.2224 124.1187 124.0128 123.9168 123.8236 123.7366 125.0860 120.6470 124.7938 123.6211 124.5128 123.3809 123.0529 123.4347 123.7286 107.5611 123.3334 123.2750 123.1150 112.7758 123.9430 122.7053 126.3539 112.3967 106.7210 111.2534 108.7152 121.2337 120.7832 124.2906 123.6759 124.4088 119.3083 113.9726 112.6657 126.3992 123.5526 126.0497 116.4359 124.3967 124.6169 124.6449 124.9880 125.1131 125.2418 125.3664 125.4936 125.6238 125.7517 125.8809 126.0106 126.1443 126.2811 126.4383 126.5209 126.7193 126.5507 126.7939 127.0927 122.6459 115.3600
124.7200 124.6340 124.5324 124.4289 124.3232 124.2277 124.1407 124.0394 123.9671 123.6956 124.0232 125.1462 106.1392 122.9524 123.0121 123.2610 123.5633 123.4866 122.4167 123.7013 118.7876 126.1679 122.5857 118.9497 123.3331 124.8802 112.1209 103.3488 110.4970 113.8753 111.9164 116.9910 124.1344 124.8862 113.6414 123.0201 120.7221 119.1766 124.4224 125.1325 118.0039 118.0257 108.6473 124.6640 125.4481 125.1462 125.2928 125.4022 125.5223 125.6492 125.7695 125.8977 126.0205 126.1467 126.2760 126.4026 126.5218 126.6550 126.7744 127.7574 126.6506 129.2397 127.4152 127.4100
124.9200 124.8290 124.7230 124.6218 124.5322 124.4339 124.3508 124.2587 124.1828 124.1992 123.7619 125.1450 120.1556 119.7608 120.6037 124.2536 123.7310 123.5987 123.7230 123.4532 118.3318 106.6121 107.0341 119.3874 121.1459 122.3893 104.3960 109.3440 113.8881 114.5347 123.9618 125.4821 124.0154 123.9546 115.7630 124.8458 124.9169 126.4066 124.3235 125.0896 125.0117 103.4940 99.9194 121.9457 125.2231 125.3574 125.4408 125.5650 125.6807 125.8024 125.9165 126.0380 126.1633 126.2853 126.4081 126.5334 126.6408 126.8307 126.5885 128.4633 107.7278 127.3071 113.6241 129.7000
125.1400 125.0132 124.9119 124.8164 124.7277 124.6438 124.5606 124.4782 124.3949 124.3749 124.2330 114.5317 120.8980 125.0694 116.5182 124.5399 123.8116 124.2085 123.5280 123.8213 104.0411 103.7189 107.1558 108.6944 110.9137 112.1157 109.5514 111.2830 109.6674 125.3093 124.2008 123.7941 124.4224 124.4545 125.5115 124.5402 124.6142 124.5210 125.4894 124.8894 117.7114 102.1039 112.1479 124.5920 125.2510 125.4723 125.6135 125.7196 125.8425 125.9519 126.0664 126.1825 126.3003 126.4194 126.5429 126.6560 126.7796 126.8941 126.9964 126.9521 127.0465 129.8852 114.2293 114.5300
125.3500 125.2013 125.1080 125.0123 124.9255 124.8399 124.7614 124.6847 124.6137 124.5833 124.5203 125.1242 124.6622 124.9174 118.0715 125.1445 123.4201 123.0787 124.7741 124.9378 124.8947 107.8564 111.7193 113.1226 104.7088 116.9541 120.9875 109.2231 116.9150 124.4967 124.3476 124.4287 124.4597 122.8826 124.6741 124.7253 124.9735 126.0624 124.9890 125.4773 116.2769 109.0151 120.4714 124.3980 125.6432 125.6366 125.7812 125.8811 125.9893 126.1044 126.2149 126.3302 126.4366 126.5550 126.6730 126.7814 126.9042 127.0089 127.1157 127.3887 127.4393 128.6915 121.8086 122.3200
125.3500 125.3760 125.2852 125.2052 125.1168 125.0407 124.9564 124.8870 124.8142 124.7949 124.6628 124.4518 124.6801 125.9113 106.2464 126.3209 126.6868 129.4127 115.7415 123.8634 108.9576 127.0798 118.0757 118.6446 118.6054 104.2182 124.2252 112.0698 126.0305 124.5646 124.6397 124.6874 124.7213 124.1774 124.9984 124.9373 125.0396 125.7870 115.6228 124.5616 124.9368 121.7154 109.8597 118.3362 126.0725 125.8834 125.9261 126.0379 126.1429 126.2457 126.3581 126.4678 126.5776 126.6912 126.8021 126.9108 127.0280 127.1518 127.1993 127.7512 125.4800 124.5709 116.1043 114.1600
125.5400 125.5572 125.4765 125.3907 125.3103 125.2311 125.1531 125.0872 125.0258 124.9481 124.9073 124.8983 124.6260 125.5384 107.8901 106.3542 119.4921 113.4655 120.0474 124.0662 109.2357 120.0466 125.3603 111.8945 100.9917 101.5316 124.8941 111.1159 124.6002 124.4170 124.8443 124.8914 124.9190 125.0820 125.0432 125.1291 125.2311 125.0998 126.0616 125.8431 125.0188 125.1480 119.0199 124.6389 125.9746 125.8962 126.0935 126.1876 126.2976 126.3955 126.4964 126.6076 126.7211 126.8236 126.9268 127.0407 127.1551 127.2617 127.3368 126.7059 119.3949 126.5562 118.8073 112.8500
125.7300 125.6200 125.6300 125.5300 125.4000 125.4200 125.3000 125.1800 125.2100 125.0700 125.0800 124.9600 124.9900 110.4200 124.8500 124.8700 105.1200 108.7600 124.7300 124.7400 124.7400 107.5400 124.7400 124.7300 107.4000 104.7900 124.8700 124.8700 124.8300 124.9900 124.9600 125.1100 125.0800 125.2100 125.1800 125.3000 125.3000 125.4200 125.5300 125.5300 125.6300 125.7300 110.8000 125.9700 126.0600 126.0600 126.1600 126.2700 126.3600 126.4800 126.5700 126.6900 126.7700 126.8700 126.9700 127.0700 127.2700 127.3700 127.4600 129.1600 122.4600 115.0900 121.3700 112.8500
