126.3900 126.4000 126.3000 126.3000 126.2000 126.0900 125.9700 125.9800 125.8600 125.8900 125.7700 120.8400 125.6700 123.1300 118.9500 114.8300 125.4200 125.4300 103.4600 103.4700 117.8200 118.1200 118.4800 125.3200 125.3200 116.5500 112.9000 105.1900 116.3000 116.3000 111.6900 110.2600 113.2700 125.5500 106.0700 125.6700 125.6500 125.7800 125.7500 125.8700 125.9900 125.9600 122.7600 126.2100 126.3100 126.3100 126.4100 126.5100 126.4900 126.7300 126.6900 126.8100 126.8900 127.0200 109.4800 110.5300 127.2900 127.4100 127.4900 127.5900 124.7600 127.7700 127.8800 127.9600
126.3600 125.6659 122.9023 125.6890 126.1166 125.9810 125.9169 125.8428 125.7737 125.6779 125.7137 124.7110 120.9098 124.9786 119.5650 111.1312 126.4194 127.0297 110.1784 117.4702 103.2693 118.7629 121.4807 128.0866 127.1644 120.2205 115.1410 101.0346 102.5424 103.6008 107.8427 114.5451 107.2705 108.6347 108.9163 124.9731 126.8156 105.4147 126.7948 125.7263 118.7451 125.3707 125.8722 126.1450 126.0886 126.1991 126.2784 126.3682 126.4487 126.5361 126.5329 126.7085 127.0070 126.2927 107.9088 116.4522 128.0166 126.7671 120.4402 127.7532 126.2051 127.9830 127.8203 127.9600
126.1800 126.6649 124.4245 125.2653 126.3906 125.7381 125.7367 125.6621 125.5912 125.5438 125.4188 125.9586 120.5386 119.7927 122.7788 124.6877 125.0763 123.8252 106.2702 103.6645 100.6694 116.5972 110.3280 114.0940 117.3254 120.3069 121.4365 106.9734 106.0435 112.4078 106.6188 105.9575 104.2740 122.7905 136.3821 124.9528 128.2466 108.4716 127.2023 125.6398 125.2055 125.5069 125.8293 125.8606 125.9447 126.0289 126.1151 126.2128 126.3029 126.6290 126.4890 128.0552 124.2518 114.5650 113.1532 121.7122 127.5141 126.9709 125.2471 127.7569 128.1640 127.5964 127.6583 127.8300
125.9900 125.7908 121.2788 121.6310 124.4312 126.0732 125.5039 125.5367 125.4093 125.3226 125.2478 125.3365 119.8203 119.4102 119.1726 123.1822 123.7275 124.3200 115.3689 119.9841 100.5720 117.4093 114.5773 124.6575 123.8532 109.8723 115.7172 112.1281 115.1221 109.6656 106.7199 106.2737 107.2037 126.7795 123.9982 125.1233 123.5542 121.8994 124.7871 125.2726 124.7517 125.6014 125.6237 125.6830 125.7780 125.8638 125.9545 126.0441 126.1215 126.0034 125.7824 129.5104 108.5454 114.1550 126.6068 126.1849 128.5083 127.0111 127.2340 127.1050 126.9959 127.9911 127.2419 127.6400
125.8000 126.0083 113.8019 119.7906 122.4638 121.1303 125.1069 125.3162 125.1935 125.1812 125.0604 125.2064 124.9855 118.7003 118.0181 117.7146 122.5134 124.9065 115.0153 117.3402 98.9092 115.8550 112.9327 121.8266 119.8588 118.0583 113.3076 106.2700 108.6776 112.8724 106.7794 110.2034 109.3101 125.7311 124.7615 124.9023 125.4699 124.9556 125.2090 125.2065 125.3038 125.3379 125.4293 125.5168 125.6014 125.6925 125.7824 125.8867 125.9855 126.0858 128.2156 113.3379 106.9344 128.0825 128.4771 108.5259 123.4609 128.5085 127.4780 128.8954 126.7467 121.0634 121.2195 107.5900
125.8000 125.7529 124.5073 126.3013 123.1407 117.6246 125.6030 125.0789 124.9966 124.5390 124.8892 125.0859 122.4571 118.6910 117.5478 117.0621 117.2345 124.9668 125.6429 119.1130 102.1164 116.3827 120.4047 123.5936 125.2731 115.5228 111.1028 108.3892 105.0343 117.3611 116.1471 112.5191 120.3504 125.4685 124.5384 124.6896 124.7214 124.8631 124.8991 124.9919 125.0760 125.1596 125.2430 125.3306 125.4216 125.5219 125.6210 125.6873 126.2642 124.6660 108.5292 109.0172 111.2377 126.1389 125.8638 126.0851 116.2405 118.1416 120.7595 121.2616 126.2722 123.8648 110.3664 111.3000
125.6100 125.4611 107.9413 119.3562 117.1206 122.3261 124.8332 124.6891 125.1158 122.3144 124.6995 123.7339 120.4742 121.3406 117.7745 116.4696 114.8763 124.7019 122.5736 115.8564 108.6711 121.1279 122.3661 123.6967 119.1405 108.5220 108.1649 105.8316 102.9666 107.4974 102.8312 120.3871 109.4310 125.8910 124.2562 124.4941 124.5849 124.6399 124.7334 124.7923 124.8810 124.9667 125.0518 125.1486 125.2492 125.3411 125.4392 125.6532 124.9238 127.0873 112.2488 101.7414 118.1258 127.4854 125.7370 123.3590 112.4834 109.0803 124.0273 127.3108 127.0961 120.3203 128.3436 127.3100
125.4000 121.6474 127.1982 127.0385 119.9555 121.0791 125.2842 124.7546 124.1208 120.2359 123.9339 120.3617 120.3009 124.9301 118.3384 116.4249 115.2898 124.6933 118.6552 117.9494 110.0803 111.6679 130.7765 105.4670 104.6738 130.1086 110.9365 107.5684 103.5661 116.1622 122.5546 122.3789 124.7980 123.9715 124.2434 124.2823 124.3397 124.3570 124.4415 124.6166 124.6784 124.7708 124.8637 124.9624 125.0634 125.1716 125.2623 125.3755 126.0656 127.5604 111.8702 122.7586 127.0036 125.9764 127.2403 126.0474 127.1985 116.9597 126.6952 126.6377 127.0540 126.4490 127.4380 127.1700
119.3700 118.7538 122.0633 127.1098 119.4561 119.5535 121.2365 124.3788 124.7285 124.0918 124.6074 116.9966 123.2331 129.5675 128.3421 118.6897 115.8238 115.5813 126.6562 123.1388 115.8686 126.1207 99.7588 113.9355 127.2407 109.3210 104.2614 113.3688 121.3089 112.3435 107.4512 124.4171 123.5517 123.8297 123.9991 123.9285 124.2776 124.7330 124.5400 124.3761 124.4695 124.5733 124.6746 124.7729 124.8736 124.9892 125.3040 125.1584 123.4159 119.4238 124.4846 125.3524 125.3226 127.1478 122.9854 123.9826 124.6002 121.1723 127.4235 126.5798 126.9274 124.5527 126.1798 127.1200
118.8400 118.7621 119.1774 123.3029 118.3214 120.3871 121.0029 124.0904 129.1921 123.8194 124.3735 120.0156 100.5883 119.7765 116.1122 117.7858 115.8631 114.5659 120.8514 111.8928 124.5423 111.1040 120.6774 118.1551 124.7460 106.4497 121.9656 124.6431 115.8457 127.7427 121.3715 124.0385 123.6252 123.7039 123.7644 123.8052 124.1469 114.2888 124.2402 124.1591 124.2748 124.3710 124.4721 124.5815 124.6964 124.7397 125.2208 126.3265 122.9907 115.2875 125.8111 125.4398 125.5611 126.3894 114.3392 119.5110 124.9326 126.4163 126.3420 126.5345 126.5888 126.8277 122.5479 126.9800
118.4700 118.6125 118.3542 118.6501 120.9002 120.5322 107.2873 113.4067 130.3725 125.7808 122.3207 125.7565 124.3192 124.9437 125.3290 104.9985 117.4292 118.4507 117.7306 114.4736 117.7518 114.8092 102.0323 109.7899 114.5347 124.4988 122.4549 123.6404 122.5048 122.9105 123.4292 123.3175 123.3952 123.4571 123.5298 123.5795 124.5551 122.6481 124.6451 123.9917 124.0475 124.1710 124.2740 124.3829 124.4923 124.6404 124.7009 124.5810 125.7930 125.1871 125.3361 125.2974 126.0384 127.8906 109.8061 116.1679 123.9397 126.0380 126.2590 126.4205 126.2249 128.0402 112.5305 126.9300
118.4500 118.5556 117.7820 118.1538 120.9355 120.5274 97.7422 117.9262 123.0613 119.0070 127.2195 123.7445 103.2451 123.8151 122.0800 111.2371 128.1642 122.4504 117.2404 114.8351 119.8557 113.0675 114.4492 108.5917 119.9715 120.0870 123.2233 122.7597 122.9534 123.0581 123.0153 123.0884 123.1408 123.2177 123.2988 123.3808 123.3074 123.6248 123.5840 123.5836 123.8909 123.9602 124.0783 124.1939 124.3059 124.4275 124.5529 124.7266 124.6692 124.8862 125.8983 128.7773 123.1322 113.8176 118.9781 124.6747 122.5512 126.0413 126.1674 126.2481 126.5847 126.5535 130.5882 116.6900
124.5600 124.6392 121.1166 118.7950 118.7131 114.8556 107.2158 107.5087 125.1283 117.7862 120.5684 127.0569 127.7644 128.3432 120.2691 118.0107 116.1265 112.7147 105.0703 113.2494 107.2443 111.5395 108.5478 121.6981 123.2187 122.9015 122.5721 122.6855 122.7026 122.6499 122.7363 122.8211 122.8977 122.9485 122.9604 123.1334 123.1485 123.6316 122.5173 123.7018 123.6529 123.7495 123.8633 123.9850 124.1173 124.2423 124.3630 124.4913 124.6238 124.8938 124.1739 130.0199 128.5805 117.7427 124.7571 116.0499 119.2277 126.4170 125.9778 126.1451 126.3579 125.5830 132.9576 116.6900
112.0600 128.1259 118.1077 117.5229 118.6694 121.0437 119.3256 96.2642 107.1321 115.4489 123.0297 119.8552 126.8189 128.6141 117.9559 112.5979 112.0633 116.7891 107.1050 114.1291 108.1276 121.6910 118.0454 124.1575 122.2134 122.0649 122.3421 122.3644 122.1207 122.6499 122.5335 122.5843 122.5760 122.7481 123.2852 122.8526 122.8510 121.3551 115.9717 123.3397 123.4270 123.5280 123.6546 123.7795 123.9138 124.0458 124.1790 124.3231 124.4573 124.6331 124.5781 124.8033 121.7545 124.6451 128.1175 125.6800 122.7467 125.7343 125.8320 126.0143 126.0951 127.3121 115.3886 110.9200
131.6800 128.4053 123.9509 116.7138 116.2263 116.0481 120.9106 117.9642 116.8942 117.1856 122.2693 119.3001 116.9503 121.6936 114.5330 113.1597 113.8027 112.7750 103.1902 107.7992 102.9849 111.5651 110.5490 108.1039 124.4204 122.1278 122.0794 122.1487 119.2033 118.9375 122.3166 122.2958 122.3850 120.6184 120.9546 122.6146 122.5390 123.1073 123.1859 122.9815 123.2035 123.3123 123.4402 123.5750 123.7149 123.8497 123.9889 124.1363 124.2727 124.4258 124.6796 124.6151 125.7263 126.1706 121.5763 124.5993 125.7229 125.6781 125.7559 125.8920 126.0136 126.3206 124.2006 126.3800
123.8500 123.0597 124.3565 119.3173 116.3592 116.7054 114.4183 110.5717 118.2665 117.6906 123.0940 114.2354 114.8343 115.0256 113.8227 114.3895 114.3648 117.1301 105.4268 112.7430 101.5391 129.4954 103.2360 102.4455 107.6790 122.7928 121.7627 121.9032 122.3428 121.9815 121.8860 122.0316 122.0731 122.2412 122.3374 122.2842 122.5043 122.5405 122.6670 122.8346 122.9493 123.0905 123.2264 123.3699 123.5076 123.6550 123.8015 123.9446 124.1468 124.1332 124.6928 124.2557 124.6439 125.6431 125.5537 124.6589 125.3669 125.4208 125.6237 125.7666 125.9251 126.0549 126.5158 126.3400
123.8500 123.6627 123.1898 115.5759 116.3925 116.4843 115.7841 122.3003 123.7522 119.7079 121.6168 114.3170 116.8310 116.9257 113.8252 112.7462 108.6319 116.4769 110.7891 108.3444 110.5826 108.0125 109.3983 122.0188 121.6160 121.5145 121.4363 121.3288 121.2850 121.5338 121.6440 121.7110 121.7480 121.8402 121.9441 122.1004 122.2052 122.3298 122.4550 122.5894 122.7190 122.8603 123.0097 123.1535 123.3051 123.4578 123.6146 123.7482 124.0289 123.5181 130.2963 124.3231 125.1164 118.1130 116.6454 125.8362 125.1352 125.3372 125.4956 125.6499 125.8039 125.9459 126.0712 126.1900
123.5800 123.5579 123.4445 117.1496 115.8239 115.6332 116.1311 114.4309 124.2384 117.8333 118.3905 113.2010 114.4128 115.7919 112.5827 113.5816 119.1900 122.4109 111.9945 97.1665 109.0795 106.0083 112.2611 109.3255 108.3280 121.5541 121.1397 121.5293 121.6953 121.2363 121.3275 121.4002 121.5048 121.6039 121.7121 121.8078 121.9332 122.0655 122.2183 122.3317 122.4833 122.6294 122.7870 122.9347 123.0916 123.2552 123.4107 123.5822 123.7475 123.8578 124.1849 124.3737 124.3168 125.1744 124.6038 124.8086 125.0700 125.2073 125.3734 125.5240 125.6865 125.8409 125.9988 126.1400
123.3300 122.9989 123.9285 118.0995 117.2168 102.8203 116.0896 115.3301 118.8418 121.4553 119.0371 110.0913 114.0732 113.6786 112.7400 111.5553 117.2040 107.9060 113.0502 99.8141 117.6181 120.8745 121.0298 122.7919 124.7794 121.7305 121.0703 116.3949 120.3280 120.9219 120.9970 121.1010 121.1808 121.2873 121.4122 121.5540 121.6683 121.8181 121.8567 122.1128 122.1878 122.4099 122.5609 122.7184 122.8868 123.0549 123.2142 123.3881 123.5621 123.7544 123.5655 123.9108 123.8997 123.8512 124.7248 124.6410 124.9205 125.0855 125.2472 125.4102 125.5663 125.7319 125.8926 125.9800
123.2800 124.0056 120.6718 115.1190 117.2461 112.4744 115.9983 116.0896 115.9409 120.9690 121.7455 112.1463 114.1162 113.7179 110.1086 117.5615 110.1107 114.2608 113.1034 101.6340 122.6524 120.4205 118.0499 120.2443 119.7080 120.4333 120.6688 119.1819 121.0056 120.4379 120.7128 120.7104 120.8803 120.9954 121.1857 121.1333 121.3923 121.4098 121.7464 122.8575 122.4559 122.0712 122.3443 122.5210 122.6730 122.8510 123.0206 123.2184 123.4373 123.8929 124.8802 121.8967 127.0004 122.7670 124.0159 124.6402 124.7834 124.9548 125.1216 125.2862 125.4565 125.6231 125.7663 125.9400
123.0500 122.4008 114.8951 115.9337 115.8078 113.8613 115.9859 116.6893 115.8906 116.8536 114.6664 107.1881 112.8510 128.3070 112.7575 96.7826 97.2140 117.0100 118.2856 105.0120 121.8285 120.0153 120.1858 119.8471 120.0391 120.1735 118.0502 119.9944 120.1447 120.3192 120.2286 121.1187 120.5810 120.8103 119.4689 122.1155 121.3635 122.1240 120.7530 115.4580 114.6928 122.2949 122.1155 122.1686 122.3664 122.6189 122.8305 122.9715 122.5116 115.4386 122.1526 110.5104 118.0200 123.5852 124.6449 124.5390 124.6268 124.8153 124.9966 125.1689 125.3413 125.5150 125.7655 125.7700
122.7700 113.9757 117.4166 109.9554 115.4912 116.4775 114.8914 115.4900 110.4232 114.4498 110.3983 119.1899 106.4175 114.1374 97.6887 107.3113 98.1324 109.0380 106.3087 108.7011 120.7667 119.6342 119.7222 121.4903 120.5131 119.4667 102.5811 121.3576 119.6596 119.6731 120.0414 120.6566 119.4921 120.0305 116.2122 106.1539 110.7127 128.4577 112.9858 115.3248 123.3294 121.5446 121.8575 122.3544 122.5201 122.4893 122.2713 123.2732 116.2603 100.8035 111.5419 117.8612 113.1303 125.2139 124.6809 124.3424 124.5506 124.7939 124.9032 125.0613 125.2314 125.4524 125.8275 126.3600
122.7400 124.7501 123.9818 119.0463 113.7931 115.9069 116.1498 117.8419 109.7492 110.2793 111.6835 118.5114 101.8359 114.1368 118.3199 98.2068 98.6239 100.6185 108.4787 106.0293 120.7499 119.2145 122.4841 110.0521 111.5507 107.3427 111.5228 119.9661 119.9774 120.4905 119.5246 119.9070 120.5070 104.3497 120.5897 121.9454 117.7682 121.0917 119.6464 121.2330 121.4101 121.4535 121.4863 121.8967 118.7511 120.4497 122.5148 120.3647 115.2723 106.6585 106.6121 110.5393 120.3901 122.9293 123.3955 124.2406 124.2565 124.3297 124.7448 124.9387 125.1631 124.6064 124.9403 125.6900
107.9000 111.7938 121.7626 119.4129 123.1717 116.4490 117.0231 112.3264 109.3224 109.9175 109.9467 111.0744 106.9799 107.6099 113.1542 99.1289 99.2270 98.3492 119.4688 115.0766 118.9885 119.0516 120.7761 119.3936 114.1134 120.8681 119.3226 110.4980 118.8562 119.8123 119.6964 118.2625 120.5869 106.2067 116.4930 106.1562 117.9220 120.4651 119.9984 120.0344 121.9512 122.1810 121.9393 121.2886 122.0963 122.3120 121.5409 114.0414 122.2151 119.6875 112.0145 119.9964 121.1819 123.7604 123.9868 123.9378 127.7772 126.5264 124.5866 124.8227 124.7233 128.5213 125.8855 125.4900
109.7200 122.8707 122.8963 119.1027 119.0106 119.2124 113.8875 110.8709 109.0100 111.7741 114.7931 99.7996 111.3862 106.7929 108.1106 103.5771 113.9321 106.9124 121.8867 119.1049 118.3555 118.5016 118.5868 119.2996 119.3451 116.9712 118.6158 118.4797 119.1250 118.4210 118.7952 119.8438 119.7059 113.9512 118.8248 109.4445 120.6574 119.9335 120.4244 120.7997 121.3322 119.3080 112.1526 122.4199 123.1092 108.9194 122.5544 120.4054 123.7106 112.7686 113.4971 123.8165 123.6298 123.5594 123.7461 123.9480 112.0344 123.8404 124.5762 124.6763 124.9335 127.2386 125.1951 125.4900
109.7200 122.1296 121.5399 118.3681 119.9042 121.3089 111.4966 108.8260 99.2804 119.2946 112.6600 112.4464 106.5741 97.6060 101.3607 106.6168 112.4299 100.5414 116.1243 118.1466 118.1228 118.0350 117.9718 117.8182 117.3676 117.9862 118.2999 107.6966 118.3204 118.0971 118.4392 118.5320 118.8642 118.6067 107.4030 122.3771 119.4386 119.9322 119.9665 119.7016 120.6739 117.4651 116.2281 121.1027 121.4735 117.3777 122.0712 123.6649 111.7196 110.6354 125.8267 122.2606 123.1279 123.3922 123.5830 124.0499 128.4289 124.9725 124.5020 124.6081 124.6644 126.5984 125.0537 125.2800
121.8400 121.9383 121.4527 121.2430 121.0735 117.0853 111.4818 106.1157 116.0660 113.6571 110.1380 109.4117 107.1712 104.5547 95.3618 104.4697 108.3927 98.8017 109.1664 117.7329 117.6875 117.5409 117.4933 117.4680 117.4914 117.4987 117.7858 118.4177 117.6728 117.8074 117.9954 118.1941 118.1292 118.9722 118.4674 119.3945 119.4511 119.4120 119.7510 119.5687 126.5450 122.6327 120.5743 120.9159 121.1258 121.3036 122.0802 110.3128 122.5030 121.4775 122.7654 122.8978 123.0566 123.2883 123.5051 123.6585 123.6429 123.7987 124.2539 124.5230 124.6977 125.1182 125.0829 125.2400
121.5700 120.9217 121.7469 121.4731 109.7056 121.2125 110.4875 108.5052 107.9636 113.0445 107.7848 111.2997 107.1448 101.7405 111.4288 98.1889 107.2400 100.9049 109.4831 117.3238 117.2328 117.0446 116.9503 116.9633 116.9439 116.9358 117.1815 117.1176 117.2442 117.3686 117.5367 117.7335 118.0065 118.0321 118.4462 117.3445 118.7813 118.8638 119.3715 119.6146 119.8139 120.2934 120.4181 120.6162 121.0292 121.2008 123.3824 123.2311 121.9439 122.1540 122.3812 122.7188 122.8901 123.1688 123.4891 123.5889 123.4349 128.1539 124.0091 124.5242 124.6058 124.8115 125.0334 125.0700
121.4900 114.2424 121.2647 117.2817 108.6059 117.6138 114.8724 108.4699 106.5867 109.3811 109.0203 105.9614 106.3729 100.2146 105.0670 100.3443 123.3479 115.9297 116.5285 116.7996 116.7107 116.4809 116.4214 116.2614 116.2840 116.7159 113.6213 116.8688 116.6988 116.8318 117.0236 117.1828 117.4847 117.7904 118.1630 115.5304 110.0314 116.2697 119.2943 119.4073 119.1958 119.9312 120.1857 120.5818 116.9742 118.5564 121.0871 120.8512 121.7616 121.9344 121.4091 122.3991 122.5857 122.3263 123.4774 123.4282 123.7488 124.3747 123.9168 124.3048 124.5265 124.7029 125.1384 125.0400
121.4300 121.0550 120.9788 116.7571 120.7357 108.7750 107.6728 106.9887 107.1032 108.9415 105.9476 105.5731 106.9837 105.8424 103.7069 117.2985 112.0044 116.1233 117.1649 116.2298 115.9769 115.9552 116.4637 116.9072 116.3658 116.4458 115.7566 116.3124 116.9690 114.9880 116.6435 116.7405 117.3211 117.2285 117.6548 117.8868 118.8058 118.0684 118.7444 119.4621 115.0231 119.8301 119.8120 121.4731 110.4759 121.8372 121.1653 119.9522 122.3410 122.1395 111.5673 122.3121 123.7750 108.5561 122.5424 121.6929 121.8106 128.0898 123.5883 124.2544 124.4467 124.6101 123.4341 125.0000
121.1300 121.0120 120.7454 120.1137 111.5054 109.1574 108.2440 118.3862 108.1439 105.8657 109.4510 96.8762 103.7604 96.2595 100.7326 108.9149 114.1030 117.1720 115.8129 115.6418 116.1291 115.3452 115.3724 108.7396 110.2818 112.5487 115.1763 116.3151 123.7548 99.0685 115.3812 116.2481 116.0291 112.7715 114.0733 119.3074 116.0659 119.3632 118.7536 118.7721 119.3684 119.7406 119.7332 120.2196 116.3323 121.1310 120.4482 126.5300 118.0248 122.9255 118.5660 120.6051 120.3189 115.1441 123.0886 115.8657 119.6695 123.5410 123.9565 124.1070 124.3842 124.9811 114.1345 124.9800
121.0800 120.8320 120.5634 116.2703 107.2249 108.6738 115.8342 120.4732 114.4211 105.1290 100.9185 110.1192 111.8991 101.9984 108.7418 101.6052 111.7002 114.7116 115.3744 115.0068 105.1199 113.5231 114.5186 109.3832 104.2461 114.1547 114.4461 116.2616 114.5795 107.8589 111.2683 116.0112 116.9025 106.0124 97.4056 110.5002 109.7009 106.9878 118.0048 118.4203 118.7605 118.8231 119.0033 121.2660 108.4686 121.0855 120.5346 120.9953 106.0621 117.8478 112.8643 111.0912 113.1506 117.7981 122.7331 123.6415 124.0249 123.6188 123.8233 124.0429 124.2445 126.2812 125.0925 124.8000
120.7400 121.1548 119.8869 117.0715 108.0931 110.1177 112.0828 113.9561 113.3677 112.7662 105.2817 106.6401 102.7073 100.0571 101.5892 98.0694 99.5304 114.6514 114.5036 114.4135 104.4770 112.0091 113.3953 115.8449 118.2234 114.0292 114.0187 113.8909 114.2892 115.2383 114.8320 110.0931 115.1938 101.6698 102.6065 106.8955 111.4339 106.2208 117.9107 118.1366 118.1035 120.9597 120.8100 119.6071 120.2020 120.6306 116.1439 121.1973 111.1800 119.2814 112.1746 121.4477 114.8459 123.3981 122.8248 122.9925 123.1536 123.4991 123.7441 123.9727 124.0132 127.6857 124.1320 124.7500
120.6800 119.9386 120.2189 119.4977 109.8852 119.8790 115.0413 109.8657 111.4304 107.8971 107.9728 100.7757 100.2221 108.4652 100.2343 102.8535 106.2032 115.6770 113.3968 113.7362 112.8523 113.1919 112.6901 112.7840 112.2766 113.0227 113.1637 113.4503 113.6795 113.9373 114.2832 110.2673 113.4871 111.3045 106.2551 99.7439 106.8751 110.8959 118.4965 117.9295 119.7863 107.1080 111.7820 120.1235 119.1521 120.0514 110.2848 119.3912 110.7278 125.3683 120.0110 123.0568 118.6072 122.5460 122.6536 122.9331 123.2003 123.4284 123.6673 123.8819 124.1013 124.0714 124.6493 124.7200
120.6800 116.5629 112.8399 111.7791 108.6242 108.0876 110.3167 107.8562 113.9350 111.3048 102.7969 101.6930 105.7691 101.7088 92.7827 101.5293 101.3616 92.6713 105.5937 113.0201 112.6764 112.3216 112.0809 112.1545 112.1898 112.1869 112.3223 112.5498 112.9558 113.0781 113.5793 115.7484 113.8756 108.6911 106.1742 96.6303 113.3851 108.5017 117.8518 117.5012 119.1716 126.0563 116.2625 119.9421 120.9412 118.8876 112.3853 110.6766 117.1352 115.5479 118.6735 121.7940 122.2670 122.3303 122.5962 122.8432 123.0954 123.3503 123.5895 123.8244 124.0844 124.3089 124.4806 124.7200
110.4100 112.7097 110.2176 107.4478 106.4655 107.5792 108.2320 106.8656 107.7954 106.2919 107.5232 104.7988 103.8065 114.2980 94.1023 110.9363 90.2865 97.3524 110.8623 112.3424 111.8472 111.5254 111.2902 111.1215 111.0991 111.1810 111.6161 109.8739 111.9733 114.0951 101.5431 109.8987 97.8444 107.6997 114.0243 114.0576 116.5304 113.7187 117.0279 117.4078 117.4937 118.6137 121.4484 115.6470 107.4597 112.2522 110.5739 106.0292 110.5650 119.1061 119.6865 121.9270 121.7993 122.2424 122.4986 122.7681 123.0282 123.2802 123.5189 123.7579 123.9824 124.2154 124.4440 124.5300
107.0900 111.2301 110.5872 106.8282 106.7448 108.5176 109.3399 108.4028 105.7673 102.0512 105.1225 104.9212 112.9058 109.8021 113.0346 114.1359 112.2623 110.7921 112.1246 111.2628 110.9644 110.4947 110.2105 110.0651 110.0223 110.1450 110.0716 107.6589 111.2840 111.7197 113.0930 114.2428 112.4224 99.6774 109.8945 110.1589 115.7328 116.4510 116.6378 117.0640 117.4100 117.7737 120.2174 118.8635 113.8593 107.6860 105.7074 117.8906 119.0078 121.1678 120.7005 117.1192 121.9526 122.1967 122.4187 122.6925 122.9560 123.2113 123.4622 123.7060 123.9386 124.1691 124.3911 124.5100
107.5100 108.5424 108.4554 100.7355 106.0667 109.1734 109.0393 108.2534 105.3801 102.3583 102.8581 113.1133 113.4419 114.1752 113.5903 112.7922 112.9666 111.8201 111.1037 110.5151 109.8941 109.3926 109.0360 108.3291 108.3079 108.9598 109.3155 109.9885 110.1755 105.6825 111.9240 111.1605 114.1930 115.4677 98.0271 106.4097 115.8660 115.7735 116.2182 119.7552 117.6954 117.9360 118.0217 122.2372 121.9312 110.9296 118.5552 112.9216 118.3377 115.1806 121.2316 121.7258 121.7544 122.0732 122.3531 122.6238 122.8955 123.1573 123.4013 123.6446 123.8871 124.1093 124.3456 124.4900
107.3900 110.9050 108.0892 109.0660 106.6290 108.3469 108.8316 108.6573 107.7617 104.3902 102.3232 112.4764 115.6257 114.1379 113.1437 112.6021 111.8563 111.1150 110.3264 109.5452 108.8100 108.1386 107.6142 107.3324 107.3116 107.4912 107.9566 108.5185 109.3322 110.3692 109.2882 100.5098 96.5938 98.8310 117.3238 98.9204 116.1254 115.2746 116.1846 116.6110 117.1233 117.6516 117.8072 112.0970 103.3868 107.3096 109.1840 110.0852 121.7653 120.5909 121.0152 121.3170 121.7355 122.0050 122.2921 122.5705 122.8403 123.0974 123.3549 123.5977 123.8379 124.0961 124.3290 124.4700
119.9100 112.3749 109.2998 109.7390 107.4377 109.5550 110.0460 94.7896 105.1260 102.9466 103.0614 118.4683 117.1003 103.7314 113.2221 112.1807 111.2677 110.4178 109.4953 108.5478 107.6018 106.7198 105.9931 105.5473 105.4784 105.8310 106.4921 107.3556 108.2253 109.2315 109.9212 107.7753 105.1588 112.6890 115.5624 101.7009 114.7642 115.0547 122.1699 116.4959 117.0175 118.6304 102.3525 104.6827 108.9220 106.8443 109.8963 121.5679 120.3182 123.3376 119.4694 121.4117 121.7005 121.9625 122.2399 122.5162 122.7891 123.0505 123.3094 123.5642 123.8506 124.0647 124.1922 124.4600
119.8800 109.7385 110.0714 108.4837 110.0990 105.5649 107.5164 108.9967 103.8355 103.6675 99.3359 120.4947 106.8503 112.2117 111.9848 111.7617 110.7436 109.7555 108.6803 107.5302 106.3126 105.1138 104.0405 103.3342 103.2458 103.7931 104.7945 105.9513 107.1790 108.4354 106.8194 109.7719 111.8422 111.6478 116.5075 113.4576 114.4037 115.0878 115.4901 116.1987 116.2175 122.2924 103.3128 108.4363 118.7325 106.2105 120.7894 117.3075 118.0422 139.1992 115.9110 121.3334 121.4586 121.8215 122.2325 122.5119 122.7831 123.0361 123.3003 123.5186 123.6633 125.8705 118.4432 109.9800
119.8500 121.3035 107.8098 107.6248 109.8723 103.8100 102.9734 104.3723 105.9206 102.7487 103.6772 110.0880 101.8736 114.4286 111.3911 111.2873 110.2856 109.1549 107.9139 106.5216 104.9731 103.3095 101.6355 100.4611 100.2579 101.2131 102.8081 104.4993 106.1048 107.4511 109.3119 110.4687 110.9200 112.3997 112.8377 113.6296 115.2268 116.3153 115.6819 116.1938 118.7797 114.4480 107.9806 105.6542 110.7631 113.7824 120.4340 113.2010 119.0778 122.3807 119.8867 121.3762 122.8818 122.1353 122.0152 122.2355 122.5851 122.9333 123.1451 123.3006 125.2110 123.6888 121.8368 124.4300
119.8300 114.7549 104.9790 108.4001 109.1286 108.5885 108.8967 107.2420 112.1520 104.2048 113.4040 120.5467 112.4362 114.5829 111.7680 110.9446 109.8878 108.6634 107.2599 105.6204 103.6855 101.3480 98.7153 95.8445 95.3767 97.8615 100.5916 103.0582 105.0850 106.7915 108.1848 109.4374 110.6326 111.7510 110.9843 113.8413 106.6409 109.2406 115.6848 115.6696 114.8848 111.2722 111.1551 101.8770 110.5333 115.5953 119.8133 120.6434 120.0906 122.7499 126.4626 117.8726 114.4371 123.4376 122.7818 123.5671 123.2936 122.9319 123.6607 123.9730 129.7063 120.1745 116.0729 124.4200
107.5100 108.2893 105.8849 110.7327 106.8368 107.8141 107.6042 104.6914 101.3271 101.1710 115.4149 112.6921 113.6094 112.6712 111.7596 110.7465 109.6221 108.3161 106.7890 104.9381 102.6335 99.5633 94.8924 89.5297 88.8827 93.0336 98.5644 101.8323 104.3197 106.3055 107.9229 109.2744 110.4117 111.6521 108.9777 115.7747 101.0367 108.6669 115.7042 116.6899 109.3498 119.3135 106.4755 113.7228 112.7815 119.7921 119.2158 119.5865 119.5998 128.5008 129.7140 111.5601 109.9120 116.6383 116.5414 117.9475 117.2651 123.7817 118.6059 118.0518 118.9699 120.0576 122.1667 124.4100
107.5100 110.7872 108.4896 111.1828 104.2739 109.9178 108.2442 103.5392 99.4971 99.7761 98.6960 114.7409 113.7836 112.5321 111.7059 110.6655 109.4994 108.1551 106.5599 104.6066 102.0891 98.5634 92.0385 85.4104 84.9302 89.4619 97.2662 101.2193 103.9807 106.0079 107.7406 109.1487 110.3545 111.7322 109.8806 117.6303 106.9220 108.7241 115.6546 116.3855 117.5108 117.1910 119.5488 118.7414 119.1706 118.9243 119.4105 119.7811 119.0382 126.2716 129.1344 114.9655 111.9612 114.6800 108.3897 113.6004 110.4669 115.4823 112.1544 115.3665 118.1112 120.0911 123.3322 134.5200
107.5100 111.2806 105.0754 110.1894 104.1586 111.6299 101.0964 103.7170 99.7800 98.8919 95.5536 112.1179 113.4935 112.5612 111.7200 110.6931 109.5382 108.2038 106.6214 104.7053 102.2472 98.8619 92.9166 86.7738 85.9571 90.5787 97.6034 101.4120 104.1092 106.4365 107.6873 109.0308 110.2539 111.3675 111.6597 114.3532 112.5545 112.5945 115.5749 115.9602 116.4743 117.0818 117.4195 117.9348 118.4505 118.9349 119.3843 119.7431 120.3814 121.1296 127.0560 117.8407 119.1847 119.2320 120.3732 121.5393 120.8292 120.5713 121.2683 121.5974 124.0441 122.5268 123.6605 124.4100
108.7700 106.4850 107.7907 108.2942 108.8319 108.5035 106.2220 102.6647 97.3362 101.4691 120.0523 112.6173 113.5751 112.7642 111.8317 110.8421 109.7208 108.4476 106.9654 105.2071 103.0610 100.2876 96.7448 92.1020 91.4113 95.2612 99.4075 102.0721 107.4996 102.9118 108.4685 109.8285 111.0673 111.2579 115.1636 113.8975 114.2057 115.2416 115.4644 116.0463 116.6151 117.1209 117.7446 118.0755 118.4524 119.0117 119.4026 119.7884 120.2032 119.9963 121.5663 119.0907 121.8137 122.6935 120.4008 125.1869 122.9513 123.4063 123.5039 123.9054 123.8973 124.2710 124.3054 124.4100
107.4800 110.7144 106.7096 109.7035 109.4213 107.2487 106.8890 108.6119 97.6764 99.3445 123.9205 109.2404 114.0496 112.9385 112.0334 111.0962 110.0437 108.8641 107.5370 106.0066 104.2444 102.1870 100.1283 98.2444 97.9141 99.5115 101.5864 103.7309 105.5763 106.5091 108.3323 108.7561 107.2444 111.7942 113.0335 113.3636 114.1907 114.8393 115.5061 116.1114 116.6748 117.1832 117.8776 119.4646 119.5479 119.0126 119.4453 119.8259 119.9988 120.4268 125.5242 121.6088 121.3654 121.8133 121.8713 122.5981 122.6558 123.0083 123.1743 123.2813 123.5173 123.8130 124.1643 124.4100
107.4500 113.4500 105.0000 106.7546 105.6795 115.0037 100.7073 98.6154 98.4136 111.3416 119.1581 115.0007 113.7610 113.1303 112.3251 111.4354 110.4762 109.4091 108.2470 106.9665 105.5654 104.1516 102.7616 101.7995 101.6607 102.4234 103.7244 105.1385 106.7220 107.0846 110.3865 99.6568 115.6714 111.6489 112.9202 113.6752 114.3834 115.0300 115.6169 116.2643 116.7823 117.2872 117.8019 120.9492 106.1708 120.6219 119.3062 119.9430 118.9714 126.9530 105.0528 104.8816 123.1288 121.7530 122.1569 122.4619 122.7396 123.0165 123.6939 125.2417 123.6949 123.6077 124.4696 124.4200
114.0700 114.3601 107.1223 107.7404 107.3681 109.3634 102.0954 97.8939 97.4252 100.8958 116.0507 114.6992 114.1283 113.4270 112.6666 111.8572 110.9824 110.0462 109.0488 108.0041 106.8755 105.8029 104.9656 104.3761 104.2961 104.7326 105.5787 106.6017 107.1188 108.4407 104.8775 102.1874 94.3908 108.8790 113.2791 113.9420 114.6194 115.2433 114.9969 116.0177 116.7423 117.5053 119.5373 119.8443 99.9062 121.8508 119.4223 119.9725 119.8384 120.7927 114.5571 122.3882 122.1473 121.8657 122.1846 122.5440 122.7840 123.0932 129.2750 120.7525 114.4240 108.0186 121.9768 120.7100
112.7900 109.4894 109.0814 107.4724 106.9664 104.6405 104.4534 101.2807 100.2339 105.0726 116.2386 114.7940 114.4338 113.7637 113.0580 112.3228 111.5437 110.7215 109.8812 108.9332 108.1238 107.4425 106.7283 106.3521 106.3099 106.5950 107.1446 107.9757 108.0357 96.4911 92.8561 104.2925 96.0913 99.7408 115.4181 113.9807 114.8357 115.4008 116.3986 115.3861 118.2051 117.9057 119.8216 120.5780 111.8693 120.2811 119.6724 120.0104 120.3332 121.7044 121.0153 120.7543 121.4394 122.2628 122.2129 122.4188 125.9648 119.1550 122.9763 124.9704 113.8572 127.8377 116.9567 110.3100
120.1800 121.4414 112.5134 106.4587 109.5792 107.0320 110.1398 101.8861 95.9433 100.0114 117.2653 114.9822 114.7943 114.1278 113.4875 112.8214 112.1279 111.4092 110.5546 109.6257 108.3212 108.4825 108.3036 107.9534 107.9440 108.1327 108.5653 108.8100 111.3846 110.3115 94.3619 99.2736 93.3919 109.5645 108.2600 114.8977 116.0642 116.1520 115.8250 117.2050 111.2737 117.3192 120.8867 126.3897 108.0922 118.5199 119.7434 120.1264 120.4714 120.7942 121.0031 121.4936 121.8941 117.8225 122.0326 122.4161 128.3125 110.3297 125.2944 123.3239 124.8667 123.8754 128.2064 119.6800
120.2100 119.6405 121.4502 107.6884 111.2387 98.8593 110.8806 98.6675 97.6506 120.4871 119.1498 115.7320 115.0959 114.5218 113.9394 113.3414 112.7253 112.1044 112.3344 118.1054 111.3907 109.3480 109.7958 109.3286 109.3158 109.4239 109.6661 114.3123 96.1111 96.9346 100.8855 95.0697 93.8326 99.7622 100.6712 115.6073 102.6002 114.3897 118.8093 118.1745 100.5986 104.2513 111.9216 109.6043 116.8010 120.0755 119.9439 120.2160 120.5664 120.8852 121.2257 121.5947 121.6118 120.7264 120.2769 122.2680 122.3369 114.5388 115.2297 124.4080 123.6880 122.4912 103.1590 102.4600
120.2600 120.0854 120.2313 106.8244 106.3063 111.4983 103.1016 96.5657 110.3763 116.4653 115.7171 115.9860 115.4532 114.9299 114.4062 113.8668 113.3258 112.7774 113.0489 111.7907 87.1600 102.4555 111.1260 110.4839 110.5251 110.5939 110.6933 114.0895 94.4836 99.6590 115.1727 96.2382 103.2108 106.5245 113.4481 116.3045 106.7341 101.5209 118.3734 111.1643 98.2307 103.3498 104.8939 105.4434 113.4921 118.8219 119.8574 120.3772 120.6768 120.9908 121.3051 121.5919 121.9447 122.7655 123.7077 123.3060 123.2545 116.6623 111.2167 123.7732 123.8195 124.3826 126.6095 111.4200
120.5900 119.9588 119.6082 116.3117 101.7982 117.8077 113.5961 98.9981 112.8287 116.7259 116.6210 116.3548 115.8400 115.3589 114.8807 114.3931 113.9046 113.4732 112.5319 113.2399 110.9027 112.7902 111.3528 111.6100 111.5892 111.3336 111.7194 114.4851 92.2309 102.9567 112.7654 111.3928 116.0842 115.5190 119.5730 107.4525 108.1384 104.7612 111.5371 114.4548 109.3930 105.1679 114.0265 112.5685 116.9760 108.7000 120.8893 120.4724 120.7901 121.1076 121.4106 121.7072 121.9893 122.0707 123.2150 115.0601 123.7249 123.9236 126.1035 124.6484 124.0093 124.0577 124.8907 133.1800
120.6400 121.8770 121.0479 110.4281 112.1824 119.2778 119.3338 114.6142 111.1166 117.0410 116.9322 116.6183 116.1818 115.6665 115.3363 114.9131 114.4886 114.0517 113.8155 113.1335 113.0595 112.5106 112.6441 112.4953 112.5625 111.9867 111.9466 111.4724 99.3434 114.3139 113.9719 114.2024 114.8300 115.2291 114.1136 98.2071 107.0934 100.9984 105.8078 119.4606 117.3186 119.1780 119.9942 120.5041 118.8255 115.5252 120.5528 120.5872 120.9186 121.2288 121.5209 121.8085 122.0809 122.3894 122.6628 119.4257 123.3948 123.1587 123.0423 123.5716 123.9130 125.9734 126.8118 124.6800
120.6600 111.7914 105.4903 108.4899 115.6529 119.4807 119.3043 118.7834 118.0762 118.3138 117.4051 117.1373 116.6606 116.3285 115.8936 115.4169 115.0775 114.6826 114.3564 113.9817 113.7602 113.7592 113.3563 113.3537 113.4242 112.7578 110.5841 107.6599 95.2836 116.9886 114.4756 114.9662 115.3080 115.8171 116.5424 110.6408 99.2125 104.1923 110.1980 118.1782 118.7123 112.4317 117.4833 119.1198 119.9587 120.1745 120.4945 120.7708 121.0551 121.3579 121.6406 121.9277 122.1955 122.4626 122.6795 123.4724 123.4743 123.5195 123.6476 124.1772 124.4532 126.6561 129.5931 130.6800
107.9900 118.7395 97.4883 105.7237 119.9897 119.2431 119.0821 118.7297 118.3715 118.0003 117.6006 117.3437 110.1194 112.6194 116.2874 115.8306 115.5765 115.2808 114.8477 115.0106 113.0326 113.4932 114.8123 113.9939 114.0806 113.4971 112.3012 101.4195 103.0482 115.2240 115.1537 115.4803 115.7328 116.1794 116.3691 117.4072 115.7084 117.1269 117.9506 119.5511 118.4935 120.8798 116.1985 120.1153 119.8555 120.3098 120.5915 120.9174 121.2089 121.4956 121.7714 122.0458 122.3134 122.5664 122.8540 122.8958 123.2199 123.5107 123.7486 121.4439 139.7029 103.9027 106.5597 102.8800
100.0700 119.7521 98.7842 121.8998 119.6433 119.6878 119.3510 119.0249 118.6935 118.3815 118.0214 116.7981 100.0911 115.6721 117.0777 117.5277 116.1489 115.8224 115.0501 116.1352 109.2680 116.1832 116.9117 113.8459 113.7260 113.9132 112.4745 92.2923 117.0743 115.0001 115.7174 115.8785 116.6899 116.5090 116.8834 117.2874 117.5250 118.4885 110.3343 118.3042 117.8353 114.5918 119.0705 104.0487 120.6190 120.2725 120.7916 121.0765 121.3658 121.6364 121.9058 122.1714 122.4287 122.6789 122.9806 123.2400 122.3323 124.2363 123.9306 124.3637 124.6777 115.8250 105.6901 109.7300
121.3200 122.7415 119.9785 121.3959 120.1570 119.8990 119.5888 119.2859 118.9771 118.6992 118.2271 119.0232 117.9113 110.9325 110.1997 117.5962 116.3898 116.3590 115.9222 114.2991 101.2143 116.2341 112.2808 101.9530 102.1119 113.3999 116.0670 102.8721 110.8399 116.4078 116.2994 116.5298 115.4101 111.1818 117.7373 117.6018 117.9986 118.6187 116.7465 116.7149 119.8727 109.2876 110.1066 104.3891 117.6522 120.5103 120.9808 121.2472 121.5141 121.7901 122.0499 122.3038 122.5595 122.7785 123.0278 124.6911 107.5543 105.1898 124.1030 124.0937 124.1594 126.4031 122.5824 111.2500
121.3900 128.8936 120.3868 120.8854 120.4380 120.1291 119.8403 119.5534 119.2560 118.9812 118.7692 118.0687 116.9511 108.9445 120.3745 118.3224 117.1908 116.7685 116.3392 117.7548 117.0548 115.8835 105.0106 116.3359 112.1850 107.2396 116.0976 109.3514 105.0578 116.6619 116.7742 116.9931 117.3361 112.6943 114.1687 118.2995 118.5004 114.1365 113.5114 120.1917 119.3981 120.8207 107.9262 105.2114 109.1722 118.1485 121.2566 121.4295 121.6830 121.9405 122.1892 122.4441 122.6873 122.9274 123.1766 123.2469 124.7839 125.3429 124.3919 124.2113 124.3122 122.4300 132.0466 126.9300
121.4500 121.4705 120.8623 120.8913 120.6075 120.3591 120.0947 119.8265 119.5500 119.3126 118.9165 115.4957 95.2259 100.3344 117.4916 110.4282 112.4013 118.4478 117.1128 116.6950 116.6997 117.1899 117.8334 113.4353 108.0045 110.6851 116.3075 117.1682 118.3565 117.3210 117.1888 117.4698 117.8628 109.4803 94.7172 117.4582 118.6620 119.5113 107.6136 115.5911 119.6379 120.1815 121.2454 122.1637 121.6602 121.5758 121.2976 121.6137 121.8511 122.1000 122.3449 122.5844 122.8207 123.0508 123.2679 123.4988 123.2267 123.6107 123.8540 124.2783 125.5897 124.7015 130.1091 111.8500
121.7300 121.6958 121.4541 121.1069 120.8611 120.6003 120.3439 120.0912 119.8346 119.4277 119.6331 113.8068 95.0777 104.9630 117.8133 97.3244 97.4588 116.7795 117.5333 117.5479 117.3903 117.1537 117.9122 102.9216 97.7056 108.1957 116.9891 117.2107 120.7540 116.0697 117.8956 117.8913 117.7615 120.0943 118.3984 120.7722 118.6824 118.5139 117.1767 117.0920 120.4818 120.0649 120.2972 120.2185 121.0084 121.1798 121.5333 121.7788 122.0216 122.2615 122.4940 122.7262 122.9578 123.1774 123.4010 123.6473 124.0220 124.0280 124.4258 124.4555 130.2599 112.8047 119.0864 120.1800
121.7900 121.7900 121.4200 121.1900 120.9900 120.7800 120.6000 120.3500 119.9000 119.9500 119.4400 97.2200 97.2200 118.7200 118.7200 118.5000 118.2500 117.9700 117.9700 117.6700 117.7800 117.7800 117.3900 99.4900 99.4800 117.4000 117.3800 117.7500 107.8400 118.0100 117.9300 118.2900 118.4700 118.7700 118.7200 118.9600 119.2000 119.4300 119.7100 119.8700 120.1200 120.3400 120.5600 120.9800 121.1800 121.3900 121.5800 121.9700 122.1600 122.3400 122.5200 122.8700 123.0400 123.2100 123.5400 123.7000 123.8600 124.1700 124.3200 124.4700 131.0100 108.2100 113.9400 127.3800
