123.2000 122.9900 112.1200 122.4700 122.2800 122.1000 120.0200 121.7200 121.3300 110.1600 103.2100 103.6700 113.4500 112.5800 110.1100 110.9900 108.9200 111.6100 112.6500 114.1400 111.1200 108.2300 108.2600 108.2600 103.3000 106.7000 106.7000 110.8300 109.6200 109.6200 104.9500 104.9300 104.5800 105.3600 102.7000 103.1300 118.6900 118.6300 118.9400 119.1700 100.7100 97.8500 102.8100 120.1200 120.0600 120.5300 120.7200 120.9300 121.1500 121.3800 121.5300 121.7300 114.4500 122.2900 122.4700 122.6500 113.9300 102.4300 112.6000 102.2800 112.7400 110.1700 124.2800 124.2800
123.1600 123.1171 118.8610 122.7115 122.0991 122.0360 121.5329 116.6564 121.1314 109.9196 107.3482 106.3370 108.6741 103.8294 111.1356 109.6545 111.6959 111.0300 111.7268 112.4247 111.2177 104.4537 107.0491 109.5087 107.1719 109.0884 107.5447 99.2357 103.9950 102.6890 103.2601 104.6853 103.8570 99.9973 102.6758 115.1230 118.7136 118.9020 106.4588 112.6876 106.8820 114.2652 101.3141 115.7657 120.0462 119.3985 118.1936 113.5555 121.0444 121.3049 121.5067 122.4155 123.5030 122.8299 125.7902 104.8323 109.3946 111.2811 99.0155 105.6752 110.4491 111.3318 125.5190 124.2400
122.8800 122.8254 123.1728 122.4658 121.6608 121.5686 121.6865 109.8635 116.0376 110.4094 109.1330 100.6829 111.6332 100.9015 110.3014 109.9277 112.5970 111.0474 103.0660 104.8365 107.3982 111.5463 106.7387 108.6327 107.2176 103.1497 102.3231 100.1609 100.0242 103.5692 103.2883 101.8110 99.9426 114.8589 112.2725 117.0489 110.8581 117.9640 119.6084 120.9643 116.5294 123.0285 120.0238 120.2725 119.4777 120.6316 119.6246 117.5158 120.7617 121.1193 121.3188 120.1620 121.2659 120.9514 108.9768 100.6017 101.2142 111.3191 106.5045 110.1793 109.4525 111.2635 116.0771 120.9400
122.8800 123.1792 119.1438 106.6409 124.6279 122.1516 121.7048 117.9051 112.8105 108.1361 115.6862 107.1994 96.0753 100.8518 109.7984 109.0588 109.6032 110.5921 108.0643 105.4036 100.1799 112.7468 101.4525 102.8713 107.2754 101.1733 111.3053 107.6498 102.3408 106.8527 101.5451 102.7043 99.3251 113.8765 110.2324 117.3810 115.5580 116.3869 118.5408 117.7677 103.0847 113.2141 118.8794 119.8682 121.7403 110.6281 105.5388 103.3214 123.8588 120.3020 121.0331 120.2793 120.8647 123.2144 110.4935 105.3135 112.2805 108.3391 109.2387 108.1156 113.2180 116.3345 119.3200 120.9400
122.5800 123.5309 110.9203 109.2864 106.0408 122.8119 120.9689 121.6011 120.8725 117.0401 112.1755 103.1420 101.3317 110.4302 99.5305 118.3738 106.3092 106.2609 111.5237 108.6929 105.5585 108.2427 104.8973 107.1026 107.8520 102.6195 98.9977 99.7590 103.4306 101.1153 108.9357 101.7396 99.1668 118.5296 118.1126 112.9670 116.3639 117.2360 117.2773 112.1716 109.1685 119.5576 119.3080 117.9076 103.7770 104.4997 115.0028 94.6794 116.3589 122.1561 121.5690 122.1389 122.7868 113.3068 102.6139 106.9226 109.7627 108.2390 106.9589 119.6356 114.2870 120.7048 114.6187 123.9600
122.5400 122.5373 116.2042 111.6475 94.6680 105.8483 120.6070 120.9370 121.9974 119.5727 116.1361 114.6772 109.8590 109.0337 102.1134 108.0034 107.0291 106.1066 107.7507 109.6309 108.2261 103.9686 104.2020 106.3275 105.3306 101.9774 97.5491 98.5221 109.6954 102.6242 100.7416 107.1948 95.1835 120.1188 115.6247 118.1439 115.6962 116.7200 120.3686 122.8130 114.5925 117.9668 118.3350 102.2307 107.2680 120.4205 120.2334 118.8522 119.5106 106.0278 119.3897 109.7804 100.9527 105.4242 104.2102 106.4645 101.7905 115.0734 112.4404 110.7240 107.4852 112.8479 122.6499 123.9200
122.3000 123.3014 115.8061 116.8400 111.6819 110.5121 111.0526 116.7370 121.2441 115.9542 121.1633 114.4406 104.1655 100.5557 115.8889 105.5596 117.2751 108.4216 104.5456 108.9239 108.7967 106.9502 100.1064 104.6781 105.7476 102.2769 97.4564 97.1589 97.3459 96.6107 95.9154 93.1186 101.3134 120.9965 116.0923 114.9971 119.1862 117.7415 112.4592 108.9899 117.2795 118.7465 109.8340 111.7772 102.0149 118.3531 116.6069 104.4838 107.0006 107.8758 112.6808 113.4481 106.5660 102.9172 104.4989 114.2522 107.8675 103.5295 108.6916 114.5581 123.2723 123.4899 123.7887 123.7200
122.2500 122.8048 110.5855 117.4310 121.4688 118.8422 110.2716 110.1122 109.4189 110.4826 119.6395 103.2990 105.5726 103.7275 102.5854 109.9772 118.0715 114.1429 100.6809 104.8971 109.1490 108.5016 101.6989 102.8633 104.4158 106.3493 98.4775 105.8718 98.7258 96.5361 95.0610 109.7181 116.5779 96.3914 114.5595 115.0443 110.5776 103.2941 118.1140 115.5661 117.8139 115.1155 104.4050 118.0666 115.7237 119.2445 108.1842 105.9628 111.2491 118.4214 115.3333 117.7455 99.5990 104.2403 116.6055 107.2511 108.0436 104.4563 109.9034 123.7609 122.7809 122.7605 128.6034 119.4100
122.2100 121.1800 123.3622 112.7315 122.5446 112.7903 120.8370 108.7672 109.5245 119.0790 115.8736 97.8440 108.3920 103.8182 111.6754 104.8406 111.6573 116.2138 116.0487 101.6797 103.0730 107.9794 103.6324 94.6137 98.1194 117.0074 97.9487 117.6498 105.8420 104.2033 112.1379 119.6063 116.0094 110.5491 114.5784 114.3376 115.6185 115.4562 115.5662 112.8913 113.9496 95.6466 116.7484 118.4614 110.3811 103.1292 105.5146 107.4590 118.5843 118.4893 122.6729 104.1556 115.9272 101.3956 101.6818 102.9326 108.2375 111.6729 123.2531 122.7460 123.3091 119.3949 122.2134 107.0100
121.9700 118.4381 118.1731 119.6795 121.7352 120.6037 120.1755 112.8978 112.4492 114.1304 110.9218 107.8775 105.4947 103.6214 113.3144 113.6882 119.4096 106.3229 104.0566 101.2266 99.5325 102.9335 104.5691 91.7954 105.2414 106.9704 96.3057 112.2782 111.3893 115.1291 112.3864 112.8009 112.4193 113.4925 113.5359 114.2242 111.3928 116.3342 111.4531 93.4261 97.9530 113.1230 105.0416 113.5819 99.6696 107.6543 118.6592 117.1495 120.0031 119.5786 127.0215 108.5038 103.6189 100.1249 113.7909 107.3024 106.1581 118.6308 122.1528 122.7142 122.8175 121.5726 122.2290 122.3500
113.1900 121.4388 112.1872 111.6545 118.3912 109.0575 112.3806 110.3566 113.5117 111.2536 108.9107 106.4851 96.1611 104.5516 107.2304 121.0657 116.5511 118.4158 106.5739 100.6344 98.8960 96.1644 108.8984 94.0742 92.5071 115.3640 107.4234 113.9054 101.3203 107.4753 111.6759 111.9003 112.1554 112.3830 112.8890 113.3670 113.5232 114.9614 102.4203 98.2321 96.6414 102.0968 99.4161 103.0215 104.3128 119.7595 119.0571 110.0353 119.3265 108.4400 111.3641 111.2309 98.6446 102.8652 106.5237 99.3514 100.7050 112.4517 122.6989 122.6428 122.6508 123.0691 116.9721 119.1100
121.8900 122.0586 112.6163 113.0941 113.2338 108.8216 106.4171 109.2781 110.4534 109.2751 105.0487 106.7422 109.6695 107.3371 111.3106 99.8453 107.9868 105.9172 107.0121 100.6877 100.7320 107.7603 106.8796 105.2633 105.7930 111.7139 111.3123 110.5674 111.7937 110.9701 110.5845 110.8116 111.1677 111.6155 112.0875 112.5701 113.1374 109.4142 99.4824 106.0442 100.4240 96.4834 105.0057 117.7372 118.6234 117.5764 118.1519 118.8882 120.1443 109.1382 111.8489 98.7554 118.2947 103.3043 99.5583 103.9480 106.8902 117.0014 122.1152 122.4995 122.5318 122.9409 118.3238 103.8600
121.8200 122.0911 115.3318 112.3072 110.7067 106.8846 107.1409 106.4275 106.2891 106.6902 108.0453 106.0154 104.6420 105.0871 105.6403 108.2879 100.4778 95.3392 98.5919 104.4193 114.9368 112.2679 97.1901 93.5459 115.0480 105.1404 109.4233 109.8388 108.4170 108.9685 109.3905 109.7405 110.1880 110.7234 111.3150 112.1102 112.3371 118.9608 114.7542 99.9306 96.3692 106.9748 118.4362 116.8716 116.6339 117.3988 117.7806 118.1795 119.6006 114.6980 124.5185 101.3187 111.6535 102.7713 102.4478 107.6356 104.4487 115.9355 122.4265 122.3245 122.6595 123.8013 119.3564 124.9300
121.8200 120.4651 119.0254 118.3361 108.9508 110.4811 107.7343 107.0300 106.3971 107.9729 109.4333 108.1418 107.2481 107.3846 101.9405 107.2791 102.2298 101.7163 100.3108 104.2934 101.6181 109.9002 104.0974 95.0651 119.6362 110.0027 109.0195 104.9930 111.5750 108.8827 108.0408 108.5254 109.0934 109.7406 110.5088 110.3082 117.5757 107.9673 103.0617 95.4809 106.9399 115.8483 115.3193 116.1411 116.8182 117.2881 117.7446 117.9934 118.9347 102.9199 102.4436 117.8559 105.6300 100.6917 102.1898 101.7596 100.0076 111.7241 122.6665 122.1156 122.5765 120.7373 122.0742 125.1000
121.5600 119.6948 121.5427 121.4404 118.4602 119.3311 108.0222 106.8379 105.6739 107.5149 107.5519 103.9179 102.2563 104.4064 107.3010 105.5904 98.8576 98.5090 96.7533 98.7185 93.9102 113.4022 110.9423 105.6265 98.4064 109.3780 107.3790 104.8671 98.3252 101.5319 106.7545 107.1346 107.8856 108.7554 109.5859 110.7424 111.9035 102.0346 112.9749 108.6554 114.7996 114.4300 115.4862 116.1020 116.5686 117.0931 117.5892 117.8757 118.7546 113.9408 105.6844 121.5332 106.9312 105.9998 102.8781 106.8565 105.3038 119.1007 122.6394 122.8428 122.2355 119.4671 108.6201 101.7200
121.5300 121.5597 120.9982 120.5663 120.9740 120.8886 117.7875 117.0928 116.9523 114.8035 106.0034 105.7444 104.5519 105.9635 106.1007 102.2575 100.6760 99.7755 99.0636 112.7972 108.8328 108.0133 110.2975 109.6832 106.3729 104.9595 105.4612 105.3849 102.5200 103.9585 104.5795 105.5668 106.5735 107.6581 109.1062 105.2215 108.7969 110.8474 111.8038 114.3961 115.0581 114.5702 115.2694 115.0002 116.4479 116.9484 117.3808 117.8163 115.5756 118.2290 98.3711 101.3835 101.2585 101.9274 108.1668 109.9342 107.3590 106.6059 111.5115 111.9367 124.4047 123.9452 122.8300 107.9600
121.5200 121.3111 121.0181 120.5215 118.3092 107.9330 121.0788 120.1432 119.3933 119.6209 106.8606 105.5821 96.5845 105.0225 95.6131 100.4293 98.0365 101.0944 105.6979 126.3859 111.2907 110.2838 109.3114 108.0679 107.2858 105.5204 103.8429 102.4652 101.7264 101.4695 102.3689 103.6979 105.1582 106.6284 107.8482 109.0287 110.4386 111.4392 112.5623 99.7331 113.1308 113.7593 115.0973 115.6790 116.2568 116.8130 117.5863 117.9392 117.9968 109.0915 97.8793 99.8764 103.3761 105.0309 104.5685 111.4631 106.3763 109.6341 108.2297 107.6135 107.0980 114.4485 125.4564 125.2300
121.5000 121.2867 120.9503 120.6771 121.0334 110.8690 108.9653 105.3989 109.4698 119.7960 108.5828 98.8433 104.6566 101.7253 116.4859 113.7312 99.0571 98.9351 107.0426 115.3753 110.4711 110.0587 108.7334 107.3952 105.8121 104.0091 101.9223 99.7547 97.8628 97.7083 99.4192 101.6091 103.7332 105.5860 107.1699 108.5292 109.7231 111.2501 111.6198 112.3151 113.8473 114.5234 114.8292 115.5534 116.2017 116.6690 113.6734 116.2551 112.4830 95.9490 97.3996 113.4065 101.5151 111.9543 102.8604 105.1972 105.4282 118.5777 121.8989 121.9949 122.9719 122.7815 113.3691 101.6900
121.4900 121.2330 120.8786 120.5617 120.2218 119.8392 119.8783 119.0888 112.9978 119.8413 107.2147 105.7990 104.7425 108.1499 101.5054 100.9231 97.8171 102.5866 115.3767 96.0033 112.7079 109.0962 108.2978 106.8103 105.0036 102.7867 99.9306 96.0562 91.4984 91.2153 95.3283 99.5017 102.4535 104.7312 106.5770 108.1652 109.4127 107.7590 97.7063 114.6147 98.3930 115.3385 114.4660 115.4758 116.1000 116.5826 117.2647 117.6010 118.6676 119.4889 118.1540 98.4983 100.0555 104.3007 103.3167 106.9594 119.1022 116.9527 119.6595 108.8729 125.0448 110.5476 124.3305 123.0800
121.4800 121.5738 121.3852 120.8954 121.1291 114.6434 117.1568 104.0746 107.0471 113.3747 106.6308 105.3578 103.9494 102.5080 104.5426 100.9050 99.3248 103.9432 112.6179 107.6659 112.3588 102.3805 108.8288 106.4369 104.5024 102.0003 98.5145 91.9799 86.5205 86.1310 90.9113 97.8937 101.5925 104.2131 106.2360 107.8745 109.2445 111.8552 100.3301 113.6361 113.7419 113.9059 114.7969 115.4232 116.0388 116.5445 117.0655 117.5574 118.7271 110.3658 119.9347 115.1142 116.5787 95.5536 105.1200 103.1862 118.2480 108.6732 118.1100 109.5918 124.2209 123.5816 123.2516 123.0700
121.4800 118.9020 117.7702 118.1953 117.8690 113.7775 119.1351 107.8714 118.6020 111.2117 104.5237 106.6039 107.9455 104.9703 109.4706 102.3575 100.9190 104.2392 112.7206 104.2878 111.2024 104.6070 108.6472 106.4295 104.4364 101.8777 98.2825 91.3498 85.3524 85.1295 90.1941 97.6927 101.4642 104.1397 106.1914 107.7937 109.6553 111.1339 98.8719 113.1787 112.7995 114.0624 114.7561 115.4179 116.0030 116.8192 117.1410 117.7461 118.3510 115.5209 119.0641 118.2802 116.9467 102.9767 102.3527 109.9331 119.7301 113.8541 113.6570 113.0742 123.5902 122.4418 122.4149 123.0700
110.4200 110.8659 109.7235 108.8491 109.4848 109.1512 109.5264 108.7516 108.2572 108.1160 108.2216 107.6703 107.6746 106.7659 104.2893 103.7284 102.3831 104.4810 115.2405 113.7546 110.7006 110.1549 108.1899 106.6783 104.8173 102.4906 99.4067 94.7292 89.6520 89.4358 93.8155 98.9559 102.1304 104.5458 106.4504 108.0039 110.0362 110.7107 105.3435 113.3514 112.9975 114.1293 114.8132 115.4504 116.0477 116.9748 117.1241 117.6486 118.1288 118.7433 119.3792 120.9825 123.7038 111.9573 110.6757 123.7308 121.4788 122.1702 122.9983 123.9517 122.6938 122.7261 125.0561 123.0700
110.4300 111.6165 109.9397 110.5983 109.4207 109.8209 107.9556 109.5365 109.0153 108.2641 105.7313 107.8363 108.0208 110.1032 103.2481 101.5242 103.3948 110.6927 108.5551 117.4566 110.2736 109.7517 108.6159 107.1831 105.5409 103.6160 101.2567 98.8637 96.0767 95.8992 98.3162 100.9595 103.3187 105.2914 106.9744 108.4184 109.5646 110.7197 112.6888 113.4333 113.4755 114.1582 114.8727 115.5230 116.1244 116.6341 117.1798 117.7111 118.2003 118.6261 118.8959 118.9314 118.9253 120.9039 121.7796 121.6333 121.0334 121.3658 121.6349 121.7309 122.3010 122.7566 123.3390 128.0600
112.8500 110.9657 113.2327 109.2439 107.7768 108.5037 109.0926 108.1266 106.9313 108.0790 102.4999 108.6223 108.8728 105.2219 104.4836 102.9617 102.6401 117.0937 114.0713 114.2151 111.2227 110.2311 109.1030 107.8673 106.4863 104.9476 103.3264 101.6891 100.5999 100.5147 101.4949 103.0918 104.7778 106.3218 107.7082 108.9470 110.0906 111.1189 111.8740 112.2447 113.0348 114.4310 115.1177 115.6728 116.2287 116.7794 117.3017 117.7703 118.1451 118.5275 118.6440 122.4188 119.5205 119.7079 119.9110 120.6662 121.2916 121.6142 121.9348 122.2893 122.5036 122.7344 122.9086 123.2600
107.7300 112.2999 110.2976 115.1290 113.0300 110.5940 111.8194 109.6280 109.3490 108.3090 105.7223 106.2632 107.7028 101.8558 103.4817 103.2490 103.2061 113.4136 111.1197 106.1008 112.4561 110.6919 109.7148 108.6518 107.5073 106.2994 105.1401 104.1185 103.4566 103.4226 103.9998 104.9865 106.1993 106.4158 108.5918 109.5731 110.5779 111.4939 112.5616 113.1838 117.7407 114.2755 114.9134 115.7247 116.3569 116.9065 117.4217 117.9369 118.0987 119.1499 120.6395 120.8941 120.9800 122.1889 122.4865 121.7045 121.3419 121.6581 121.9244 122.2013 122.4976 122.7834 123.0536 123.2700
114.0200 115.7986 99.4110 111.3855 111.8878 113.2592 108.3114 112.3003 109.2820 107.5781 110.1350 107.2268 108.8085 104.6299 104.3280 98.3911 106.6996 111.8101 108.9526 110.7440 112.1659 111.2548 110.3945 109.4871 108.5483 107.6249 106.7580 106.0572 105.6463 105.6226 105.9864 106.6564 107.5111 108.2123 109.3903 110.2794 111.1404 111.9885 112.6329 112.3588 115.9798 114.5857 116.0001 116.2164 116.5632 117.0003 117.4764 118.2613 117.5183 116.0352 120.6393 118.7024 112.5151 108.8596 105.9657 111.2657 121.3885 121.3234 121.9337 122.2739 122.5518 122.7930 123.0852 123.2800
116.2400 116.4381 112.7795 112.2278 108.8288 109.7040 109.2415 109.0597 109.6683 113.1671 109.1582 107.3872 103.3826 105.2013 98.8524 100.3228 107.0449 111.7536 114.0882 113.8495 112.5233 111.8588 111.0964 110.3238 109.5534 108.8361 108.1794 107.6769 107.3876 107.3722 107.6199 108.0283 109.2624 109.2477 110.0986 110.9949 111.7450 112.4404 114.3079 115.3863 99.9270 118.3785 98.8297 117.6830 116.3802 117.1970 117.6672 118.4773 120.0890 119.1941 104.6370 103.9353 102.6849 105.3170 120.2052 119.8301 121.4275 121.6030 122.0288 122.3102 122.5654 123.4242 123.0933 123.3000
111.1700 110.7437 110.0864 107.9212 108.3798 107.7747 110.7675 105.8887 113.1371 112.4760 104.7280 104.7164 105.5338 105.5555 102.0594 101.4133 121.5512 111.7736 112.7635 112.6041 112.9550 112.5003 111.7918 111.1470 110.5151 109.9330 109.4310 109.0599 108.8477 108.8311 109.0184 109.4053 110.0005 106.9280 111.4980 111.6167 112.3705 113.0203 113.6550 114.3321 114.8927 115.4213 115.3802 116.7894 116.8762 117.6739 114.6454 118.2871 117.0143 131.1243 103.3567 106.5874 103.0428 116.5340 119.1437 121.2907 113.9082 122.2269 121.8290 122.3836 122.6581 122.9153 123.1640 123.3200
110.3600 109.7842 108.8504 108.8959 110.3945 110.6056 107.6092 109.2075 105.2012 104.9304 103.8209 102.0564 104.2251 100.9519 102.5329 100.0380 102.0161 92.9385 114.7470 114.2347 113.5520 113.0871 112.4905 111.9455 111.4154 110.9397 110.5414 110.2531 110.0979 110.0818 110.2218 110.5611 110.5432 111.2632 111.8131 112.4353 112.9745 113.5631 114.1399 114.7181 115.1793 115.5603 116.2086 116.7142 117.4198 116.5607 114.9538 113.4908 102.6060 100.7276 103.2188 117.3125 116.8405 110.2218 121.5650 115.1798 120.8777 121.9096 122.5170 122.4885 122.9265 122.9152 123.1555 123.3400
110.4200 109.8303 110.3703 113.8541 112.9577 105.3936 109.0900 113.9516 105.6948 104.8144 105.4796 104.6100 100.1254 103.6465 100.5590 102.9242 93.7511 105.0993 112.8924 114.6910 114.4075 113.6033 113.1256 112.6876 112.2225 111.8704 111.5377 111.3157 111.1945 111.1821 111.2894 111.5104 111.7742 112.2184 112.6368 113.0981 113.5879 114.0866 114.5800 115.0819 115.5742 116.0920 116.5401 116.6756 119.3750 98.8099 117.6239 126.8695 105.0731 100.3175 113.8251 107.7118 115.1170 120.1000 121.3575 122.0481 122.2311 118.8005 129.4257 123.0674 120.7851 123.8507 124.0008 123.5300
122.1300 113.7892 115.9604 107.7207 107.6226 108.4415 108.8427 112.4548 108.2063 105.6797 104.5469 108.2571 102.8770 106.7429 102.5096 94.5304 99.0384 104.6759 105.6029 93.0082 116.9310 114.0707 113.5413 113.2744 113.1355 112.6853 112.4488 112.2371 112.1070 112.1428 112.2416 112.4303 112.6397 112.5107 112.6758 113.7778 114.1904 114.6268 115.0815 115.5183 115.9927 116.4702 117.0234 118.1744 114.5795 110.0488 96.1599 102.5701 104.9988 102.0782 112.1300 107.8236 104.9183 107.7352 112.7393 121.1128 126.2141 112.4250 134.9226 119.2540 114.4775 118.4840 119.6327 123.5500
122.1300 115.6539 114.4494 107.0431 109.7627 108.5245 107.5251 107.6726 105.0918 108.8815 106.1437 104.0939 98.3441 101.2070 106.6506 96.6737 115.2903 116.4088 119.0533 116.4983 114.9595 114.6950 114.4673 114.8903 112.9522 113.7576 113.2703 113.2568 113.2415 113.0272 113.0981 113.2517 113.4811 111.5881 110.8759 114.8064 114.7170 115.1427 115.5564 115.9339 116.9546 116.3466 116.9035 113.6381 114.0359 111.6490 107.6705 102.7262 111.1842 106.8096 103.5638 106.0399 106.9313 109.2766 110.2600 115.4838 107.2756 120.8504 124.0635 123.2913 122.7286 118.6943 115.7856 109.0600
122.1700 114.9330 116.9529 113.7579 121.5853 108.3467 107.3480 108.7776 110.4558 109.6553 103.8950 103.1626 102.1541 104.2356 102.8124 102.9443 112.7887 113.7522 114.6491 115.3289 115.6720 115.3465 114.9728 114.2890 112.1155 114.8200 114.1543 112.1504 113.5720 113.7949 113.8743 114.0001 114.2169 114.5449 104.5522 116.3936 115.1062 115.4647 115.9619 116.6836 112.8491 118.7222 118.7738 109.2023 118.2873 112.3148 123.8126 100.0651 108.0544 104.4440 106.6432 107.3844 109.1190 109.7881 119.8110 118.2831 108.7108 118.3517 116.2044 121.1980 123.7432 122.5047 123.8908 123.8100
122.4500 119.7689 123.7068 118.6707 108.6772 107.8601 104.6255 109.6926 111.8077 99.5628 106.3959 108.7276 108.5681 103.9306 104.4861 103.0226 108.0251 109.9147 114.3564 116.9009 116.2774 115.8913 115.5293 115.6259 113.4583 112.6894 114.7458 113.7602 114.7063 114.4847 114.6045 114.7096 114.7919 116.0184 98.6908 115.4254 115.6668 116.1969 116.4858 117.1012 114.0528 108.0994 107.0918 107.2746 116.9421 114.7289 107.0722 109.1422 102.6970 103.0808 108.5781 107.2900 112.5585 109.0046 123.6514 119.7681 117.7415 121.1184 111.8004 110.7222 118.9337 109.6926 119.3883 123.8400
122.5000 115.1834 116.8895 112.8594 107.9732 109.5027 106.2796 107.7431 110.2826 108.1949 110.4941 105.3309 102.8754 99.7334 105.8476 98.1175 94.5521 109.9644 118.7474 116.9374 116.7803 116.3763 116.1629 115.8471 115.6258 115.5188 115.2550 115.3745 115.2092 115.2301 115.2646 115.3450 115.5436 114.8898 117.7877 118.2727 116.1066 116.6387 116.9219 117.2186 118.5126 120.8742 105.5284 96.7464 117.9241 118.9052 107.6856 114.7198 100.9142 105.5000 107.6157 109.5598 114.2520 108.5251 112.9971 111.4202 124.4055 123.1606 119.1444 119.9218 122.1192 113.4284 123.6475 117.2900
114.4900 112.6710 113.4861 116.5748 111.7468 102.5385 106.6745 107.5058 108.2142 108.3551 105.4596 103.9704 102.4876 99.7788 114.6497 106.0864 109.2034 116.6451 117.4539 116.8654 117.1118 116.8866 116.6493 116.4348 116.4370 115.9495 115.9768 115.8616 115.8096 115.8058 115.8762 115.9683 116.0382 116.2607 116.3452 116.4882 116.8156 117.0926 117.3592 117.6440 117.7654 118.8282 96.3812 112.1176 96.5482 107.7916 103.4193 99.5530 108.3539 108.7831 113.6722 109.9471 111.8183 108.7263 109.4466 110.2586 116.0807 122.8361 123.3730 123.0785 121.1629 123.0807 124.5552 123.9100
116.9700 113.5865 114.8105 110.7105 108.8539 107.4495 109.9368 109.1570 109.6925 107.3468 106.4212 101.1952 100.5323 101.7217 100.2380 121.8739 118.5979 116.6760 119.5238 117.8000 117.5699 117.3453 116.8358 117.5388 115.0617 117.2025 116.7338 116.6176 116.5237 116.5052 116.4615 116.5281 116.6301 116.7490 116.9355 117.1296 117.3118 117.5234 117.7786 118.0154 118.3031 120.3527 102.7587 113.4570 104.9608 107.3239 101.5620 99.6181 105.0035 107.1463 114.1971 118.5574 110.1059 109.0225 120.0254 108.6749 115.7046 113.5213 119.6033 124.0601 124.0244 123.7591 123.9167 124.1000
115.8600 114.6829 109.2477 116.0117 113.3573 110.7547 113.9371 107.7961 108.6352 107.3353 104.1419 109.0657 100.3666 103.2845 116.9052 119.5120 119.0481 116.8653 118.4061 118.2278 117.9908 117.5781 117.6738 120.0420 107.8083 118.3895 114.8995 107.1849 108.4870 113.0781 117.0723 117.0961 117.1475 117.2707 117.4113 117.5721 117.7589 118.0030 118.1743 118.4364 118.6431 119.1316 120.9433 107.9847 106.2711 106.0516 104.6228 111.9411 106.2698 113.7405 113.9694 110.2033 120.3945 112.8253 124.6165 109.8707 123.5647 123.2454 114.1784 114.1275 121.0211 122.3485 124.4862 124.1400
117.1200 116.3772 112.0253 111.2950 111.7640 116.0686 111.4355 110.8533 108.5886 108.1608 109.0107 110.2446 122.1945 117.2237 120.4236 121.1427 116.4945 120.1610 118.6813 118.6270 118.4457 118.2373 109.4339 97.8158 113.5574 117.4370 111.8897 98.7509 96.7798 106.0468 117.9307 117.6379 117.6379 117.7489 117.8766 118.0526 118.2346 118.0894 118.7287 118.7624 119.0680 119.1558 120.3548 116.6396 106.9503 98.5186 100.8835 110.7283 112.5128 109.9597 111.2957 123.5795 123.3245 120.8355 122.2581 122.2914 123.0154 123.0688 123.8584 117.5192 115.8519 114.9945 121.5078 124.3300
117.0500 113.9135 119.5232 118.0140 115.2779 115.2692 109.5384 108.8712 108.3985 109.2002 109.0646 99.7447 122.8832 121.5081 119.9738 120.6460 120.7083 122.5302 118.9717 118.8977 118.7554 118.6431 121.0857 112.6419 120.3120 117.9068 119.3210 120.3227 120.1978 118.7604 117.9538 118.0965 118.1057 118.2018 118.3224 118.4706 118.3438 119.7291 116.8493 119.1758 119.3100 113.4615 105.3093 106.1581 114.0829 122.5391 98.1271 107.5626 106.8233 106.4760 107.0560 119.3045 121.2557 119.5040 121.0832 122.7750 123.0149 122.4527 123.3073 123.7128 121.4743 116.7277 115.0613 124.3700
115.4600 115.0967 116.8815 111.3207 100.4031 110.9576 109.9715 108.8995 109.0684 107.2591 107.3261 105.9369 108.2630 121.5401 119.8296 120.1681 119.6700 120.8479 112.0117 119.6226 119.2758 118.9814 118.4781 119.4910 118.4202 118.5571 118.1366 117.7520 117.8012 118.1778 118.3996 118.5182 118.5587 118.6428 118.7550 118.8768 118.8658 116.7545 105.7017 119.4051 119.9280 120.1890 124.1441 104.6776 106.8522 108.9683 111.5216 105.2023 107.5465 107.0247 108.2773 107.5926 108.3852 110.5447 114.1101 123.5064 123.3760 118.9284 123.8798 124.2081 118.4580 124.1031 95.0680 102.4100
115.1900 115.6968 113.7931 116.6168 111.5198 111.8764 109.5934 109.2324 107.2013 108.9135 96.5006 105.5802 122.8680 117.4730 120.8049 120.3452 120.1489 120.1308 120.4697 119.5008 119.2532 119.3277 119.1977 119.0620 119.0700 118.9875 119.0140 119.0591 119.2496 119.1816 118.8849 118.9192 118.9798 119.0445 119.1327 119.2843 119.4603 119.5201 121.1902 120.0423 121.7123 104.0717 107.8621 100.2282 99.5643 107.0425 107.8378 103.4122 104.0354 106.8091 110.5410 112.0124 110.2000 117.4430 124.9041 122.8572 123.3331 123.6177 123.7838 123.8267 123.9407 125.1338 113.4566 124.6000
116.3100 115.9405 114.9916 112.9624 110.9677 110.6097 107.6644 104.7267 97.8774 112.7905 110.1040 101.0255 110.7236 121.5397 120.8118 120.6493 120.6051 120.4055 119.7658 120.7338 117.9197 119.7817 119.5046 119.6792 119.5115 119.4030 119.3057 119.3932 117.2184 117.2347 119.3771 119.3416 119.3926 119.4969 119.6335 119.4580 119.7912 119.5271 119.8912 119.8068 116.3118 112.3985 100.4073 107.6682 108.6968 111.5764 109.9449 114.1759 110.1424 101.8616 116.7756 116.6501 111.5916 112.7565 122.7022 123.6243 123.4701 123.6206 123.8116 123.9352 124.9734 121.2781 113.0713 124.8300
116.2800 117.3134 114.3533 112.4259 113.5650 117.1651 102.4513 100.1668 101.7050 108.2310 109.9250 100.9054 113.0683 121.5203 121.3062 121.1072 121.0693 120.3545 120.4063 119.2775 98.1349 117.4384 119.7785 119.0110 119.6186 119.7842 119.7511 119.6589 117.4013 119.0607 119.4819 119.6189 119.8284 119.7322 119.7746 120.7899 120.1481 123.2613 119.7797 120.4965 111.0074 111.4186 103.2784 108.3827 109.0434 105.2459 106.1131 122.0210 125.3506 112.4661 105.3690 117.0584 112.7891 112.1367 116.4184 121.3063 123.5631 123.5771 123.9937 124.8411 117.5678 120.7564 113.0057 124.8300
116.2800 118.6808 117.2148 113.6731 113.6802 117.8159 100.9012 106.4051 110.0534 108.1494 103.0644 100.1122 118.8286 120.8993 121.0410 123.1198 121.2418 123.5091 120.4906 121.6252 119.2805 123.6188 112.0989 121.3977 119.6101 120.2640 120.0499 120.8039 122.7868 121.9720 119.6338 120.2134 118.9891 120.3614 122.9098 112.6303 102.3985 107.9338 126.7362 127.5633 102.0829 106.5664 100.2159 101.0148 119.0125 112.1542 120.9799 121.0257 122.3072 118.4637 103.9165 109.3945 114.2712 111.6840 112.8855 116.6263 125.8175 124.5826 123.9348 125.1800 111.8775 125.5176 129.8199 109.9700
119.7100 119.0371 117.7260 115.3118 116.9851 108.8992 103.3421 110.1306 109.7376 105.4162 101.7950 118.8669 118.6297 121.7843 105.9565 119.6327 121.4015 101.9692 114.6330 120.8752 121.6861 102.4710 116.0041 101.7904 119.7187 119.5948 120.2783 109.8495 104.8582 101.7532 122.2625 113.6392 109.1064 116.7293 121.2321 97.4710 113.0672 104.5544 125.1653 101.8277 97.9451 100.5515 102.5929 107.4247 125.6796 123.3580 109.2242 117.4376 116.4047 120.1672 113.1909 106.7491 114.6507 112.2075 113.4473 113.4778 115.6701 124.4689 124.4717 118.6080 120.0291 116.4875 109.9442 107.4200
119.7500 117.4854 118.2855 118.9426 114.9759 109.2630 109.5365 107.9708 108.8313 105.9157 100.2740 100.3889 109.8971 124.4026 101.4147 113.5378 106.8840 112.4770 122.8778 121.3809 122.3887 120.2882 123.7342 120.1843 120.1986 121.6717 105.1474 109.9528 119.6220 120.8082 103.6094 105.0204 117.5577 123.2095 106.8681 99.4981 103.8452 97.3715 102.6506 102.4241 108.7757 103.5349 108.1246 101.9804 108.6120 123.8305 114.9953 111.7769 120.2566 123.1792 122.0570 120.5674 112.3295 111.9320 107.6522 112.4760 113.6717 123.5170 116.9749 124.0301 125.7518 126.7227 121.8650 125.2800
120.3500 119.0897 119.4039 113.2994 114.1664 108.7773 109.0992 109.0970 107.1450 111.2792 107.2223 120.5329 128.3300 116.7765 110.7611 108.0468 121.6412 124.3607 121.3491 121.6499 121.2101 121.5456 121.0049 121.2555 121.2255 122.5708 122.4263 122.6516 102.9596 100.0004 121.6179 97.6081 103.9355 106.0971 103.9985 98.1650 116.0020 111.2705 113.6061 98.8722 109.0279 110.6649 103.9304 106.5734 117.0693 107.6428 105.2675 106.1060 105.9837 104.9014 116.1201 124.6978 123.8146 114.7248 113.6441 113.2179 119.9974 118.9363 123.5083 119.1621 112.8735 125.4682 125.1373 125.3300
120.8500 119.8446 119.3045 113.4919 109.4658 109.6969 103.4961 107.1273 108.2449 102.9764 102.6050 108.5439 97.4877 115.0807 107.5497 124.5354 120.1348 122.9435 121.5389 122.0300 122.6768 121.7384 121.7949 121.6424 121.4188 121.2050 121.1060 122.3647 122.6548 111.6618 116.9514 114.7035 105.4289 97.9650 105.8682 101.7671 121.0820 122.8294 110.5867 115.0824 124.2187 121.0359 100.0660 108.9202 114.6991 122.7521 123.2908 112.7738 109.9600 106.4777 106.9706 118.2683 124.1841 125.0977 117.1872 120.8016 124.6094 124.8442 121.5668 122.2876 126.5840 125.2288 125.3679 125.5100
118.9300 118.5609 113.7903 110.6326 109.7570 110.4937 111.0359 107.7380 106.0944 102.8056 101.2141 102.3917 105.5701 114.7399 108.0141 119.2924 100.7144 122.0290 122.2672 121.8979 112.9130 122.0508 121.8213 121.6646 122.0078 121.8235 121.8824 120.3764 121.5858 113.1999 105.0094 109.9436 104.6421 98.0744 119.1639 111.2051 122.7348 121.7268 122.1153 123.8993 122.8766 122.7088 115.3680 104.0167 118.2946 122.6118 123.4023 124.8148 107.5161 100.6688 104.8035 107.1043 123.1049 124.0377 123.9964 125.8890 124.2302 125.3188 122.9693 121.6826 125.0957 125.2314 125.5447 125.5500
119.8500 116.9556 112.1650 110.6459 110.9637 110.9374 110.1312 102.5077 105.2020 108.1542 108.7527 96.5740 116.6774 102.6047 107.2576 110.7773 119.5125 119.0223 122.8288 123.0936 121.1811 122.3318 123.0431 122.7161 121.9006 122.2106 121.0387 122.3927 120.1169 112.5034 116.7680 113.6655 101.2592 97.4233 116.4727 123.2709 122.4348 122.5677 122.4525 122.2071 122.4289 104.0307 129.0093 98.3096 108.9366 121.1057 123.3389 123.9844 124.6601 119.1887 117.5704 124.6365 124.8824 124.3078 124.4895 124.6297 124.8089 124.8224 125.0273 125.2508 125.4950 125.4782 125.6026 125.7300
125.1000 116.2209 117.4546 111.0903 111.9162 108.9931 107.0804 109.1315 105.7668 104.7401 111.3023 109.0504 115.3688 108.7451 118.8993 104.5095 124.8048 115.8897 132.4853 121.7584 124.2144 118.8660 115.6752 125.2029 121.6737 121.9299 123.8516 113.8446 113.6261 111.3328 96.9588 101.7840 103.9123 123.8718 122.9428 122.1290 122.7384 122.4217 122.7615 122.9107 123.5792 125.2189 114.7801 112.0729 112.8377 118.7463 123.2689 123.8536 123.4040 123.4907 124.0674 124.5191 124.1565 124.3873 125.7171 120.1743 123.7190 125.1239 124.9646 125.2257 125.4436 125.6481 125.5880 125.9400
125.1000 118.9468 117.7440 114.0252 111.0570 109.3459 109.4961 109.6017 113.5247 107.5614 102.9065 114.2750 106.2544 115.0867 123.7777 98.3071 121.4241 124.0633 118.2664 110.6489 114.4354 123.4073 114.1773 114.3655 123.0682 124.0955 105.2248 101.9451 114.5942 107.4966 114.3009 117.8921 107.8198 107.3192 120.8741 122.6760 121.2281 124.4041 122.7682 122.7093 123.9462 124.6523 104.6947 102.3178 107.6802 119.2314 123.5248 123.9898 124.0560 124.0825 124.0914 124.3500 124.5415 124.6821 124.0271 119.3811 121.7121 129.1606 126.3992 125.4785 125.6447 125.5414 126.8572 125.9400
118.2900 118.7746 118.2862 111.1894 111.1652 110.9205 109.7758 116.8790 111.6960 108.6059 117.4486 119.6356 108.7380 123.7730 123.2385 124.5256 122.7369 121.9134 108.0403 125.0555 105.3400 111.9469 104.7608 101.3377 115.6597 117.4363 100.4647 102.8613 103.6056 103.8479 122.1277 110.1312 106.7668 108.7233 119.8909 124.5267 114.2461 116.6681 122.4434 124.6481 119.6439 116.6699 99.2431 115.2379 121.1826 111.8736 123.6701 124.1272 124.2048 124.3243 124.4898 124.5851 124.7121 124.8582 125.2455 125.8771 97.6476 111.1542 124.4117 125.5592 125.7290 125.7805 125.3174 104.1600
118.8600 118.8278 116.1775 116.5902 112.2961 108.5269 108.0604 114.5401 110.1889 110.3245 115.8020 110.7416 118.6255 126.4845 104.4644 124.7734 123.0123 125.1840 119.8229 119.7744 112.8178 106.1391 102.8654 107.9421 99.7849 113.0045 102.2462 103.0405 101.7511 104.3690 123.0920 120.2295 122.7371 120.6279 124.2275 112.4425 121.0334 107.8463 111.9055 123.2484 115.1057 114.7870 113.8935 115.9530 98.9532 121.2027 124.7241 124.2167 124.4246 124.5113 124.6370 124.7582 124.8835 125.0052 124.4492 126.5632 117.2208 108.7587 126.5274 125.5804 126.3461 123.5970 123.2676 126.3200
119.7100 115.2697 112.6430 109.5557 111.2633 110.5212 111.7649 108.9561 109.3326 112.9882 111.2723 115.4959 124.7212 124.8776 116.4905 124.4311 123.8834 119.2484 99.4843 104.6121 111.1893 127.1187 103.6028 114.0440 107.8525 118.5101 100.2649 105.0349 101.7683 104.2133 122.7349 125.0415 107.8661 123.5988 121.2146 106.3608 102.9829 102.7041 104.0940 124.2701 119.6964 103.0046 110.1704 124.4303 118.4383 123.7754 124.4842 124.5332 124.5919 124.7113 124.8181 124.9773 124.8959 125.0651 125.3196 125.6715 125.1964 126.1918 126.1632 125.9330 126.3252 117.1774 121.4598 126.3600
115.4600 115.3946 119.3371 110.4975 110.4842 112.7866 111.7127 107.7952 111.4174 113.4901 111.5173 110.6762 127.9903 113.0023 121.3604 124.2264 124.2842 118.0575 109.9143 126.3970 123.4846 121.3647 102.9896 123.1348 117.9100 101.5501 119.8297 105.6146 102.0763 105.0175 123.4701 123.2427 124.8611 120.8946 110.3972 106.2235 120.2822 100.8271 104.1721 122.5049 124.9195 102.7325 113.0944 124.2010 124.3763 125.8597 122.0623 125.7727 124.7988 124.8891 125.0195 124.9041 126.6655 125.5728 125.3630 125.5497 125.7303 125.4417 126.3897 126.3738 126.4894 127.5287 101.8611 104.5300
115.4500 115.1200 113.9367 110.9643 111.5021 112.0216 109.0155 110.1895 114.2898 114.3157 110.7693 101.1787 113.1578 122.7164 123.6199 125.3119 116.3392 123.7159 112.7500 119.8030 125.9662 112.9383 111.2587 113.4362 127.4706 103.6049 104.3966 108.8348 104.4955 110.5032 116.3625 124.6807 123.3356 124.6138 105.4359 104.6384 127.7574 99.5549 115.6992 125.9130 125.2197 122.2725 126.7737 125.2673 124.4398 124.6651 115.4622 125.3750 124.9820 125.0848 125.0886 125.1777 126.4643 116.1734 126.7235 125.6113 125.8061 126.5956 121.9261 122.9363 126.8868 127.0376 125.1282 104.6800
119.3400 120.1603 113.0477 111.5196 121.3394 120.1888 116.6102 114.7981 115.2476 114.1376 103.1121 108.5242 113.7744 118.2829 124.4034 120.7473 115.4610 124.8012 110.6949 105.8905 123.2151 115.2613 112.4630 105.6287 115.0099 106.4813 105.3841 111.3392 105.3127 108.3698 116.4881 125.0303 124.2597 116.1270 122.0287 124.4839 125.0952 118.6223 109.7418 111.1220 126.8624 105.8102 100.6627 121.8460 123.8052 125.2304 125.4579 125.0921 125.1952 125.0996 126.8792 125.5976 124.4265 125.7302 125.6536 125.9007 125.9920 126.1799 124.6565 127.2252 120.0321 106.7331 119.0599 124.9100
126.2600 126.2588 126.5432 125.4639 125.8859 123.2779 116.1189 116.6313 114.9075 116.6269 103.4916 108.3529 115.5373 118.4188 121.2038 126.8996 125.1968 123.4991 115.1658 104.9315 111.8054 112.3656 101.3791 102.6025 104.9374 105.0971 103.9868 111.9255 108.5609 118.7113 118.0847 125.2616 123.9294 124.2067 121.5901 124.1381 124.1992 123.8952 109.0080 106.2148 109.3963 104.2080 105.7320 105.3374 127.2171 125.5406 125.1736 125.1729 125.2758 126.1830 114.9282 127.5092 125.4186 125.8652 125.9220 126.3825 126.0768 126.2421 126.7100 126.4467 126.9083 124.6167 106.0273 111.3400
126.2900 126.3550 125.9289 126.1548 126.8003 118.7923 120.4062 127.7134 116.0157 112.0973 111.2539 107.8763 120.6672 118.5252 118.3457 123.0502 118.9174 125.8126 108.3930 111.2846 120.0625 113.3388 101.7606 103.6672 101.6467 104.1046 109.0690 109.9179 119.1285 118.5085 124.5697 124.7732 124.6656 124.5338 124.8741 124.7660 124.7842 118.0916 107.4189 107.3725 107.7949 125.0765 108.0053 107.4354 119.2492 120.5444 125.8926 125.3520 125.7770 125.2277 119.7257 109.6550 126.0011 126.0370 124.3428 117.2308 124.6492 126.7160 126.5372 126.6197 128.3651 126.4268 119.9294 121.3800
126.4800 126.4640 126.3853 126.2042 126.6180 110.0292 128.5537 125.1828 112.9615 110.4269 122.6180 117.0500 117.9716 106.1561 104.4105 117.4926 117.5452 118.2243 112.5989 121.5426 106.2401 112.5733 106.1729 104.0920 112.1361 105.2672 116.9459 109.0085 118.7295 120.1898 125.9211 124.6299 124.8201 124.8710 124.8921 124.9530 125.0527 125.3417 116.7189 123.2168 102.6912 102.0414 126.6528 126.6160 122.9897 120.9683 125.9403 123.7653 125.1531 125.2602 126.9087 126.0574 126.5264 126.1270 126.3649 126.6604 127.5413 127.5142 127.6140 112.7891 122.4533 125.1532 121.4746 121.3800
126.6500 126.5953 126.5630 125.8504 127.1441 122.1374 119.2073 119.7289 118.6875 126.3612 127.0868 122.0543 112.7315 107.7414 104.9570 105.3523 104.7234 108.3075 117.5417 127.3715 116.3676 113.5305 111.3853 106.7355 114.1448 106.1352 115.4298 112.4343 119.6527 122.8873 118.4455 125.3795 125.0814 125.0524 125.0901 125.1168 125.2154 125.4462 115.5995 125.6716 103.0434 122.4967 127.0781 125.2461 125.8620 125.4942 125.7269 125.7331 125.6911 125.9959 125.9526 126.2327 126.1037 126.4744 126.0640 127.8073 114.3207 125.0040 129.5195 121.9445 113.2580 117.6324 116.3043 105.7400
126.8000 126.7000 126.6000 126.6200 126.3900 126.4100 121.6800 126.1800 126.0900 125.9800 125.8800 125.8900 113.6200 103.6700 112.8800 103.5800 103.5800 109.6500 112.3700 125.3400 113.3300 113.3300 125.2500 109.2100 115.3000 107.3100 114.6800 108.6000 120.0100 120.0100 108.8000 125.1200 125.1100 125.2800 125.2600 125.2500 125.2300 125.3800 125.3600 109.8400 109.8400 125.5700 125.5700 125.7000 125.6700 125.7800 125.8800 125.8800 125.9900 126.0900 126.2200 126.3100 126.3100 126.3900 126.5000 126.6000 104.7000 126.8100 126.8900 115.8500 122.6600 121.1000 111.3800 111.4000
