107.2200 107.3500 107.4100 107.3100 108.3500 108.3500 109.1300 110.0500 110.5800 111.3200 111.8800 113.0200 113.5500 114.0500 115.0000 110.6500 113.7600 116.5900 116.9500 105.2300 118.2300 105.1600 97.0400 99.0500 119.7000 119.9600 120.2100 120.6900 120.9300 121.3700 121.5900 122.0000 122.2100 122.4000 117.8600 120.2400 123.3200 123.5000 123.8900 124.0000 124.1600 109.1600 128.3800 124.9200 125.0700 129.9800 125.4900 125.7600 125.8900 126.0200 126.2800 129.1500 115.5600 113.1400 113.5600 126.3500 119.2700 112.2500 117.0200 105.7900 118.0200 115.7900 114.7200 124.9600
107.2200 106.6702 106.5157 106.6908 107.1634 107.8349 108.6214 109.4558 110.2999 111.1230 111.9197 112.6675 113.3856 114.0333 115.0711 113.0979 115.5289 116.4277 116.9635 111.8802 112.9838 111.6780 95.0690 111.8851 118.7645 119.8209 120.1842 120.6174 120.9604 121.2693 121.6034 122.0670 117.4613 126.9350 120.4454 122.5737 123.2771 123.4940 123.7516 124.1855 122.1740 118.2539 128.3834 125.2351 124.7850 127.2110 128.1731 126.5150 113.7686 117.5217 129.2279 122.3544 124.4410 112.4103 110.2511 119.1319 117.2945 116.9298 112.2269 113.8245 109.3510 119.2496 122.4354 122.6200
105.5600 104.8002 104.5648 104.8330 105.5126 106.4471 107.4746 108.5189 109.5288 110.4932 111.3934 112.2345 113.0090 113.7487 114.4647 115.3950 115.7327 116.2714 116.7924 112.9554 108.9592 104.3509 100.5338 118.8882 121.7094 120.2930 120.2218 120.5415 120.8915 121.2107 121.5272 122.3930 118.6458 124.3972 123.0040 122.8927 123.2600 123.4974 123.6553 123.9351 122.7578 124.9770 124.2801 124.6306 126.5884 128.2132 123.9680 119.7551 113.2046 118.7345 117.7476 115.8549 117.8935 121.3877 107.1832 107.9711 108.9146 110.4986 109.3286 111.3440 107.3962 112.9437 113.1681 111.7300
103.5000 102.3868 102.0094 102.4596 103.5541 104.9054 106.2836 107.5872 108.8001 109.9085 110.9126 111.8401 112.6837 113.4684 114.1755 114.8207 115.4801 116.0701 116.2994 117.1177 98.6006 99.0396 96.7499 108.1549 105.0139 121.0308 120.0585 120.4904 120.8368 121.1599 121.4802 122.1754 122.3408 122.0831 122.6258 123.1938 122.9592 123.4110 123.6618 123.5627 129.9975 123.6254 124.5418 128.9925 108.6282 105.8216 104.9313 107.4790 118.6317 104.0441 114.6998 105.5812 103.7439 108.7012 104.1185 103.5831 104.1110 105.3999 104.9818 105.0458 108.4746 105.3485 105.7219 109.4100
100.4200 99.3784 98.4274 99.3646 101.2127 103.2641 105.1021 106.7307 108.1458 109.3996 110.5088 111.5138 112.4144 113.2338 114.0008 114.6929 115.3427 115.9648 116.7975 111.8377 112.3499 99.1511 97.8191 105.4547 116.4051 120.1914 120.1101 120.4855 120.7866 121.1118 121.6328 119.9285 122.2496 122.3899 122.6068 121.5317 128.0722 123.1023 123.6548 123.9037 124.8309 125.1909 123.6807 131.6500 112.6693 110.6983 109.0607 109.9618 115.6761 111.5341 115.3168 113.3487 113.4954 115.2548 116.3430 112.5080 113.7798 104.5635 105.7528 105.7961 107.0854 122.3179 125.6083 129.8500
96.6000 94.0153 92.0636 94.4332 98.7214 101.6556 104.0656 106.0103 107.6270 109.0109 110.2041 111.2696 112.2164 113.0702 113.8459 114.5718 115.2331 115.8564 116.4623 116.2560 116.0955 102.0958 99.1137 121.2437 120.0852 110.9884 120.4685 120.4817 120.7461 121.0902 121.4262 121.6335 121.9124 122.2835 122.6091 128.7421 122.8058 123.4979 123.6931 123.7359 124.3185 114.6509 114.8778 114.2647 105.6535 112.0742 106.8097 119.8554 119.1343 104.2260 124.1078 122.9714 116.8631 105.3418 120.7775 103.8941 118.5112 108.5091 105.8813 105.9326 104.7791 118.1657 130.3976 129.8500
90.0500 89.1215 87.0924 89.1572 96.2315 100.4009 103.3584 105.5467 107.2995 108.7694 110.0224 111.1168 112.0984 112.9796 113.7744 114.5043 115.1777 115.8021 116.4193 116.9610 117.5262 118.7991 97.3347 120.9786 119.1170 119.5631 120.0146 120.3898 120.7453 121.0787 121.3873 121.6780 121.0562 122.6259 103.3395 122.5780 122.8429 123.3499 123.4305 123.3377 122.9637 102.6917 112.3213 111.0988 110.9205 111.6949 112.4121 113.3642 113.2183 120.2470 117.0373 118.3334 119.4149 121.2683 117.9761 115.3315 117.4138 105.2650 106.0169 102.7978 131.0796 128.4854 127.0320 127.6100
89.4400 87.5943 85.2060 87.4178 95.2816 100.0479 103.1517 105.4161 107.2152 108.7020 109.9708 111.0856 112.0517 112.9783 113.7585 114.4791 115.1576 115.7833 116.3581 116.9788 117.5716 118.7529 97.1658 121.6102 118.0763 119.5720 120.0302 120.3807 120.7265 121.0725 121.3987 121.6940 121.4719 123.2339 104.7249 121.7664 121.7930 123.3807 122.9876 126.4397 119.6363 105.5641 112.5302 114.8857 110.5533 111.6199 112.7026 115.8731 117.3445 120.2933 117.6436 117.5938 119.8251 121.8080 117.6589 115.6575 116.2284 104.7948 110.3721 131.3630 127.4564 125.7153 127.0096 128.0700
95.8500 90.1445 88.0831 90.4363 96.9609 100.7138 103.5231 105.6590 107.3812 108.8226 110.0566 110.9196 112.4720 112.6761 113.6877 114.5126 115.1887 115.8104 116.3460 117.0327 117.5679 104.9536 99.0561 122.7902 98.5921 122.2639 119.8689 120.4455 120.8821 121.0840 121.4066 121.7162 122.1978 122.3757 115.3530 108.8432 106.7850 120.0658 122.9853 120.8381 132.7890 108.9128 111.7362 122.6595 113.0096 114.6650 112.4300 116.5564 115.0779 115.4559 115.7087 116.8335 117.2018 103.7952 107.5644 104.0350 104.6132 103.7159 127.5412 120.2749 121.7587 123.1479 124.0552 115.2100
97.4900 95.9862 94.2439 96.3363 99.4773 102.1291 104.3558 106.2097 107.7684 109.1167 110.2381 111.2099 111.8624 115.5449 114.3565 114.5977 115.2718 115.8659 116.3713 117.7052 111.2970 107.1646 102.7285 109.2550 121.3651 120.8010 120.0374 120.5120 119.5220 121.1290 121.3813 121.7863 121.8162 106.1131 119.5847 123.1979 121.5427 124.6271 119.3928 124.9842 103.4861 107.0487 107.1226 109.1476 109.1572 111.3727 104.0699 115.0156 117.2362 112.4685 114.7614 113.6422 102.4207 104.5591 112.3962 106.5356 106.5188 107.2496 103.1236 105.2572 112.4685 107.0642 115.4221 106.2800
103.2200 100.3520 99.6844 100.3961 101.9804 103.7717 105.4525 106.9779 108.3362 109.5353 110.5957 112.1843 106.3772 113.4633 110.2308 114.6277 115.3981 115.9769 116.5371 117.1230 118.6191 119.3898 122.2015 121.7190 118.8716 119.5331 120.1178 120.6064 117.6074 121.5209 121.4698 121.6233 121.0102 123.1284 120.3616 122.8260 114.8794 117.9189 101.7197 107.2800 99.7429 100.9847 101.8200 102.4178 103.3221 103.4973 104.5144 108.1319 124.6778 104.7759 118.8630 102.8431 104.7751 106.4581 109.3011 106.8258 106.9535 105.0152 109.8595 110.5639 127.4883 104.0045 117.2941 106.2800
103.2200 103.1914 102.8409 103.2349 104.1919 105.3793 106.6515 107.8732 109.0184 110.0832 111.0346 112.0728 110.8906 115.0845 115.8540 114.8412 115.5449 116.1324 116.6659 116.8498 113.0118 118.2510 112.8079 113.6415 119.3072 119.8456 120.1754 120.5005 121.2927 121.3759 121.2546 120.7347 124.8950 123.0284 109.8262 116.3648 108.5425 108.7624 116.2021 100.5958 108.2124 108.8000 105.1136 102.6584 103.1016 102.2970 112.1646 113.5734 126.1543 108.0956 109.8499 104.9578 104.9127 106.3512 106.8850 106.6842 106.4036 108.1053 108.9914 111.5505 110.9120 107.2383 113.5349 106.2800
105.5300 105.4013 105.1934 105.4267 106.0298 106.8720 107.8313 108.8077 109.7643 110.6865 111.5526 112.3613 113.2486 113.4372 114.1164 115.0328 115.7026 116.2082 116.7255 117.1676 114.2204 118.6862 111.2860 113.9257 118.9000 119.8445 120.1889 120.4756 120.8821 120.8330 122.0870 121.1347 131.9603 113.7592 112.5929 113.7271 108.7696 111.3556 113.9631 103.4404 119.7569 119.1508 121.3091 100.6209 110.9544 111.1039 120.3541 120.8511 120.5000 106.5602 113.1859 101.7370 104.1648 109.3374 105.0464 103.7865 103.9001 119.0438 133.8072 120.3187 120.2480 123.6543 107.3106 106.2900
107.2000 107.1745 107.0286 107.1911 107.6084 108.2184 108.9564 109.7478 110.5384 111.3210 112.0834 112.8048 113.4665 114.2071 114.8518 115.3929 115.8724 116.8301 117.2615 117.5007 118.6744 118.8175 116.9174 120.5060 119.7823 119.9547 120.2376 120.9349 120.6505 120.7631 116.5122 119.3600 114.1823 108.2040 120.4030 107.1558 108.2234 109.2692 115.6022 100.5000 106.6106 120.9421 118.6479 114.8130 118.9311 117.4034 116.8924 121.3560 122.5696 119.8081 121.1933 114.9150 111.2322 104.0205 107.6318 115.9717 106.9729 113.1824 126.4898 129.4779 131.1534 130.4587 117.9705 112.6900
108.5900 108.6475 108.5515 108.6589 108.9673 109.4336 110.0034 110.6342 111.3001 111.9764 112.6425 113.2917 113.9326 114.5185 115.0846 115.6980 116.1919 115.0500 116.3834 117.6581 118.0234 118.4358 119.2635 119.4189 119.6197 120.0675 120.3578 119.3430 119.9352 128.3250 106.3188 112.0620 104.1505 101.6731 107.4164 106.3439 113.4756 116.0990 107.0509 104.5178 101.1108 104.4596 104.3624 104.8441 104.6296 103.6059 119.4340 119.1504 119.1970 119.0692 118.2814 117.5222 116.8443 121.3112 102.8377 116.7589 107.4024 106.8801 122.4043 124.0657 124.0399 124.5234 121.6744 114.6100
109.7800 109.9134 109.8384 109.9263 110.1569 110.5223 110.9723 111.4887 112.0500 112.6260 113.2142 113.7876 114.3630 114.9126 115.4456 115.9712 116.4498 116.3192 116.6867 117.9909 118.4139 118.7042 119.0354 119.4409 119.8314 120.1569 120.4812 120.1086 123.6226 105.5781 123.0378 107.8704 105.6881 108.0168 107.8286 106.2467 110.6367 119.5582 102.2094 103.2225 102.1134 115.9734 113.9081 114.3133 122.2988 120.9994 124.4127 115.9496 121.1447 129.2151 120.3886 123.7702 119.2178 119.4845 119.1229 122.4409 104.5545 118.4836 120.5102 126.4115 126.6580 132.8602 110.7513 106.4000
110.8300 111.0184 110.9437 110.9797 111.2244 111.4979 111.8709 112.2982 112.7702 113.2646 113.7764 114.2903 114.8085 115.3105 115.8081 116.2727 116.7763 118.9618 122.8156 117.2054 117.5276 118.8897 119.2214 119.5706 119.9079 120.2679 120.6894 121.0602 121.8208 118.6978 128.5006 116.2193 109.5231 107.6468 107.7522 120.9673 116.5545 103.3754 102.1499 102.2936 103.4648 116.3601 103.8366 112.5263 126.1047 120.1653 118.9600 119.8115 117.9177 113.2833 103.6804 105.7018 104.9902 104.8576 105.0961 106.0952 106.1260 123.2771 116.2994 122.6275 123.7942 120.7085 117.8286 106.4100
111.7600 112.0161 112.1870 112.5290 112.0927 112.3950 112.6851 113.0612 113.4632 113.8915 114.3394 114.7989 115.2610 115.7147 116.1657 116.6067 117.0885 117.3594 117.6033 114.2027 108.1731 119.2356 119.4518 119.6408 120.1349 120.5542 120.9796 121.1339 121.3631 121.8001 122.2674 123.7651 107.0374 108.2398 106.8143 110.2025 112.3466 101.2181 102.2721 102.1505 101.3581 115.5569 101.3777 111.5122 114.9200 115.4960 115.8290 117.0181 110.0196 117.3611 103.5430 105.0328 122.6039 105.1729 123.7924 108.6417 108.5269 120.0840 117.2993 129.7534 134.1612 130.0866 124.2322 122.3600
112.6100 112.8589 112.7598 108.6599 113.7667 113.0581 113.4702 113.7690 114.1188 114.4907 114.8921 115.2770 115.6270 116.1292 116.4861 116.9957 116.0461 117.8047 118.0588 120.2407 119.6484 119.1045 119.6814 119.8186 118.1964 116.1548 121.2769 120.9545 118.9220 119.4189 122.2453 121.3429 99.5380 101.6318 103.9464 107.6006 114.4743 101.3562 102.0035 102.3713 103.2442 104.4721 104.8165 105.2800 117.2017 120.9133 107.0545 117.9342 114.6319 112.1475 102.9340 103.8275 104.1880 104.3145 104.3831 105.0202 106.8323 118.6080 122.1656 123.1446 122.9813 124.6925 115.8854 122.9900
114.0800 114.1174 115.7215 109.8965 113.5704 113.9227 114.1507 114.4415 114.7389 115.0327 115.5285 115.6298 117.4454 116.5605 117.1148 117.4692 115.3661 112.0654 116.9351 115.0672 118.8720 119.3177 119.7663 120.1584 120.3293 123.8251 95.2788 101.2915 101.6965 97.2606 114.9765 114.8388 98.6354 108.1398 101.4001 101.8394 107.1165 113.6467 103.2095 109.7809 105.8025 106.9551 112.5010 108.7521 111.2498 117.0373 117.5138 119.1962 104.9583 105.2234 107.8474 107.1718 107.3815 105.0860 105.6969 106.0436 121.3208 104.3108 120.0344 113.6891 121.4310 124.9762 127.2408 125.4000
114.7300 110.9551 108.5204 101.5537 116.7248 114.2660 114.8524 115.0722 115.3344 115.4617 116.5244 126.3598 117.5368 116.7137 117.3189 114.1104 118.5502 108.3400 106.7926 114.7445 119.5408 119.7565 119.9546 120.3464 120.7231 120.9145 110.9042 101.8970 102.8192 104.4954 104.5045 108.3292 106.6726 116.3859 111.0823 106.1312 103.8474 109.6524 104.7958 109.6143 116.1112 117.0815 117.2500 116.9487 117.5914 116.6281 118.3796 118.4909 117.5802 107.6251 118.4027 118.7073 121.4303 103.9854 105.2943 105.1386 103.8554 105.2679 106.5257 108.8357 118.3435 123.2074 125.0431 131.0700
115.3300 107.3588 106.0527 109.7409 114.2547 115.2981 115.4384 115.6760 115.9127 116.1553 114.4973 103.3003 105.3824 112.7375 113.3389 119.1294 118.9318 115.0018 107.0552 119.8507 119.0413 119.9130 120.1884 119.8338 120.9280 117.6612 123.6834 100.2928 102.7956 103.5353 112.9029 117.9435 118.4575 107.5789 122.4201 102.7779 108.8359 108.9109 100.8641 105.9095 107.3254 111.5935 112.0943 116.6642 118.4090 116.9969 115.0831 119.9814 114.8298 110.5909 119.6470 117.3566 114.7387 102.2713 104.3198 106.0320 106.9258 106.2016 104.8779 111.9565 120.8526 112.7659 118.3269 122.6600
115.9000 104.1874 100.3856 99.9002 118.8315 115.4576 116.0287 116.2134 116.2873 116.5971 117.5283 117.9505 101.7724 100.7893 97.2632 114.4662 118.3049 117.0434 120.1727 119.5972 119.8951 120.0077 120.5788 121.0584 122.3500 111.5780 120.3092 100.5323 101.5795 101.4162 101.4827 103.6290 106.8407 108.0730 108.4414 98.9587 111.1744 101.1530 102.7849 102.8019 106.8928 109.0862 113.0441 111.7613 113.9348 113.2073 118.2481 119.9722 116.4091 122.2701 121.2657 122.6505 120.0633 113.8018 114.4851 103.1150 104.2035 102.6916 116.4521 116.5310 126.7899 123.6128 109.9463 122.6600
116.4300 96.0470 94.9769 94.1799 100.1972 117.7755 116.7205 116.6647 118.7227 117.1481 117.1914 118.9293 99.1597 101.4172 110.8960 117.6717 119.1274 119.2902 119.3017 119.6506 120.1009 120.3089 120.1127 118.5025 115.7011 112.1387 108.8186 100.1460 100.3314 99.6000 114.6571 119.8537 113.7283 105.1055 112.8033 105.4940 101.4004 101.6428 101.9073 103.9418 101.6729 110.0643 113.4805 110.2282 108.5450 114.7907 113.1782 112.9907 117.1449 122.5653 120.9412 119.8146 123.8085 124.3448 129.0802 119.0362 117.5915 118.5230 126.4057 126.7288 117.8552 126.4227 120.4893 126.8100
110.3300 95.7180 95.3843 95.6864 99.0457 118.8097 116.8890 117.6728 117.3544 117.1027 117.8147 120.6494 104.0871 98.6492 98.8025 119.9283 118.8971 119.4576 119.8147 120.0575 120.2789 120.6686 115.1289 102.6966 106.7925 106.3877 105.3509 107.5434 99.1727 100.8403 99.5664 112.2408 116.3795 113.1957 115.7297 104.1621 102.1367 109.1630 108.2562 109.5616 103.8257 106.0964 112.2730 112.0739 111.9699 115.1591 115.9491 116.1263 110.1995 112.3260 112.5932 122.2756 123.8084 121.8659 115.3960 125.3495 126.0814 119.2629 125.7387 125.2183 122.6594 126.2185 127.2467 126.7900
116.2100 96.5407 95.8363 93.7020 118.9770 118.5441 118.7601 115.5347 118.1950 118.8052 119.7380 105.3329 118.8794 102.2462 106.2649 111.3231 115.3572 119.7505 120.1021 120.2976 120.5547 120.7835 121.2383 118.7557 105.8251 103.0423 103.6493 107.1440 104.5886 100.0193 100.7001 101.5623 104.3502 104.7085 101.5931 101.8330 105.6256 111.8719 111.7349 107.9494 115.9037 102.4613 109.1538 108.3185 114.1818 113.8627 114.7117 118.6169 119.3824 120.3954 119.2731 110.3173 106.3373 112.0232 126.4239 124.6451 121.9279 115.1806 124.8407 125.0226 126.6367 126.8493 127.1758 126.7600
100.7900 98.6015 96.0522 100.4446 101.2030 114.9296 106.8431 117.1242 118.1060 110.0223 120.9101 117.6949 120.3027 115.8005 100.9701 108.8049 105.6583 127.1161 119.8355 120.6139 120.7855 121.0529 122.1976 122.1159 113.5000 100.7740 104.2606 104.9883 109.2645 108.8871 101.9098 100.9914 101.2980 104.3877 106.9449 101.0721 101.6783 110.3411 104.0622 110.4828 105.9176 106.4131 103.0354 106.4670 114.5045 114.4543 115.1726 115.5981 115.1822 107.1244 104.1742 125.9671 112.9421 111.9318 112.7750 114.2139 116.3576 123.6193 124.4789 124.9000 123.1901 123.2618 125.1050 122.5800
96.8600 97.1979 95.2236 115.1071 120.7572 119.7536 117.3295 114.4032 106.6574 103.8693 97.5373 118.7518 118.8767 120.5299 105.2440 113.7134 113.0569 119.6534 120.7568 120.7929 120.9618 122.1270 111.7489 101.3125 113.7780 113.4770 99.4565 103.6211 104.8399 107.0208 112.7588 114.5047 102.7307 105.4785 118.4341 102.3368 110.3129 110.0925 111.2583 112.7424 111.8704 112.9911 114.7048 113.7361 121.1001 122.7792 112.2254 109.9677 114.2332 112.8104 104.4095 105.0300 104.8995 113.5888 125.4073 112.2618 111.1522 113.3233 115.2270 123.5941 125.0807 126.0587 126.0296 130.1100
118.6900 107.0495 107.0426 115.4964 110.1287 108.7514 96.2971 94.4122 107.8566 102.0648 119.7937 120.4831 119.6841 120.2506 119.7248 119.1343 120.5942 120.6523 120.8715 121.0815 121.3881 121.3545 121.1819 110.8000 106.7056 102.9074 104.6116 106.0916 105.0851 107.4291 111.4536 112.0460 113.6662 105.1649 103.8235 106.9171 102.1102 109.7056 109.5082 122.5051 113.6069 113.4041 119.1981 121.5801 118.3236 117.1236 112.4344 110.3790 103.8513 104.3462 104.8767 105.3919 106.7143 104.8294 105.4105 103.5409 123.5892 122.4658 116.4575 116.5224 114.7854 122.9865 125.4981 126.7500
119.0700 121.1288 113.9592 121.5964 101.8996 110.0157 123.4579 95.2718 104.6705 113.9603 119.8724 120.7739 120.2255 120.0332 120.1701 120.6755 120.6112 120.9406 121.1285 121.3281 122.3984 109.7128 111.1762 108.0062 99.7613 108.0425 108.3837 101.8530 105.5918 112.2210 112.2036 113.4693 112.3077 113.9879 109.9410 100.2718 102.5927 103.9448 104.1379 109.1435 115.8750 113.1851 125.7932 119.4614 115.1810 114.7606 108.4650 105.9239 105.2352 104.9306 105.0482 104.5857 113.4155 105.0898 114.0050 107.1477 119.8679 115.5120 122.5426 119.5675 118.0268 118.8210 115.7216 117.0600
119.4500 119.1464 107.8618 115.9143 109.1778 115.0446 116.5557 102.0682 98.3658 109.7856 101.9995 120.1571 119.0306 121.4237 121.9121 120.4913 121.0556 121.2330 121.4097 121.4503 123.9740 102.7849 114.3874 104.6737 103.9591 102.7206 99.7502 101.5598 102.4242 107.7225 114.0144 112.8939 114.1795 113.3885 110.9052 112.3388 108.2819 105.0582 105.1787 108.7593 109.8815 115.0990 119.3513 117.6856 111.6338 104.8661 104.2447 103.8914 104.9690 104.9767 105.0947 105.3770 104.4771 104.3932 111.8655 104.1069 105.3815 104.4724 111.2228 102.4664 123.6320 122.0885 114.2943 117.3200
120.1400 120.6110 121.2278 121.5313 112.8452 99.7304 117.6752 94.8459 102.0615 125.2160 108.5728 120.7071 118.7425 123.8700 121.9615 121.5057 121.2844 121.4952 121.5514 122.1496 121.8113 123.5805 122.5913 96.0945 103.6710 101.5353 104.9673 109.0145 107.9475 103.9385 115.7224 114.5902 114.2382 114.2316 106.2055 101.7224 117.0175 109.0465 110.5028 113.9213 110.0781 107.9935 110.3959 119.8636 109.5353 105.6681 110.6230 104.8300 104.8120 105.0388 105.1613 105.5246 105.4537 105.7055 105.4578 105.7758 106.6122 109.7345 117.7670 114.1846 105.2816 103.9908 105.2994 127.7100
120.4700 120.1642 120.2142 120.0365 121.3341 123.4631 98.0465 100.7692 120.9220 120.9839 107.8858 108.8434 121.5419 100.7744 118.3516 121.5054 121.6084 121.6938 121.9486 120.8967 125.0592 122.8546 123.5937 119.9829 101.9974 105.9311 110.3945 108.4712 115.0755 107.0993 102.9533 108.2262 114.3732 105.5325 106.9409 101.6437 118.2437 116.9909 119.4628 111.6329 112.4173 118.1812 109.9879 113.3433 105.2633 105.4042 113.1189 105.2102 107.2511 105.1016 105.3091 106.2330 105.9802 106.0766 105.7684 106.2355 106.6154 109.7636 112.2727 122.0508 116.4870 111.2731 106.7136 108.8100
120.7900 120.7630 120.4972 120.3628 118.0723 110.0707 100.8340 100.6151 103.0581 108.8275 121.2158 115.7124 122.9645 119.8119 122.6178 121.5553 121.8348 122.0864 122.5206 122.5344 124.9679 122.2690 123.1571 113.4026 102.0027 102.0786 107.5822 109.8877 103.5603 111.1890 111.0439 101.9833 100.0441 101.6372 103.1595 114.8541 108.8255 114.8173 114.6001 117.7361 110.8340 106.2682 106.1763 106.7457 105.5425 103.9127 102.1446 103.0571 105.6015 105.1812 105.3415 105.8557 106.2858 106.9077 106.7782 106.2053 110.0337 106.6361 107.7823 111.0078 112.8144 116.9473 113.2878 121.2500
121.1000 120.8170 120.7114 121.2707 118.2592 113.8220 101.0959 99.1982 107.9673 117.3754 106.7783 121.9833 121.4954 121.7746 121.5650 122.1063 122.1344 122.1164 120.5384 122.4939 120.2682 121.5527 107.7588 123.4932 120.4353 115.2554 102.1075 109.4699 111.3570 111.1229 108.1404 115.5623 102.1593 102.7042 104.6943 105.6159 114.6859 119.6347 117.4759 116.1656 120.2868 119.2630 107.5066 104.3429 104.5189 103.8165 112.3483 115.1783 104.5482 105.1467 105.8197 105.5833 105.5981 106.5652 107.5261 108.0045 109.8981 108.1347 106.9908 108.7339 108.6876 112.1767 120.7769 109.7200
121.3900 122.5413 98.3044 100.3881 121.6914 100.9083 102.4934 103.7064 106.0158 112.5560 122.1821 122.8322 121.9079 122.0342 122.1732 122.2284 122.3512 121.6890 121.8526 123.3308 122.9104 122.6517 114.3548 118.3810 123.3934 125.0932 110.5207 109.6954 110.9445 110.3958 104.8305 107.5347 113.0768 104.4795 115.0118 109.1559 112.7923 118.5968 118.5310 118.4145 116.6221 111.9122 106.2914 115.0216 108.6026 103.3982 114.2095 104.3432 104.8988 105.3781 105.9735 105.8210 107.6530 106.6041 106.8343 107.7010 108.4814 109.2093 109.4323 109.5239 109.8955 110.1950 108.9963 111.6500
121.6800 121.4224 113.4722 105.8806 106.6591 98.4622 103.8194 100.5091 103.9033 116.5616 122.0735 121.9905 122.1832 122.2865 122.3937 122.5208 122.5746 122.8026 123.1619 119.4617 122.5058 123.6000 124.9077 114.6030 112.9093 119.6757 103.8474 107.8787 112.3771 112.3933 103.8112 105.3637 116.3103 114.5021 105.4737 115.9005 114.9031 115.4422 119.3104 118.7170 119.5092 118.9028 107.4237 107.8722 113.4413 114.8493 107.7444 105.8130 105.6166 105.5141 105.6052 106.2267 106.9834 107.4325 109.5159 107.9157 108.4650 109.2301 110.0288 110.7266 111.5159 109.3797 111.3699 111.8500
102.2800 113.9506 97.0772 110.9150 111.6349 104.7238 100.0004 103.2394 105.9608 115.7791 122.5008 122.5012 122.4495 122.5533 122.6574 122.7677 122.8748 123.0144 123.0709 124.6963 119.6971 127.0344 124.6058 117.2402 104.8579 127.9106 120.7790 109.0281 102.5068 109.5990 113.4806 112.7508 114.3604 105.1802 117.4377 110.6152 113.3661 118.2115 118.7593 120.3471 119.1994 120.7602 103.1315 104.6189 105.2204 105.4153 104.9822 105.4997 106.4834 106.4650 106.5694 106.0540 106.5950 107.4378 108.0454 108.9183 110.6224 109.2832 110.0102 110.5314 111.5495 112.2606 114.8729 110.3800
101.9400 113.5521 98.8809 99.8065 99.5275 99.8084 101.5393 105.6353 110.3960 116.8235 122.7072 122.6805 122.7229 122.8102 122.9091 123.0122 123.1144 123.2332 123.2766 124.5900 116.2852 125.0705 123.0716 111.9807 113.4486 123.9983 102.8048 124.3504 127.7814 110.4232 113.1176 114.0742 109.5256 113.9861 101.9498 117.4894 106.3188 112.9473 115.5054 120.1912 120.9693 120.7570 122.4674 106.6457 104.9624 105.0813 105.0444 105.5447 105.7285 107.1555 107.0355 107.1699 106.8374 107.2335 108.3231 108.9918 109.2039 112.0586 110.5329 111.1294 111.2300 111.9112 112.9556 113.4000
100.9900 99.4476 101.2652 100.8594 101.8685 101.2889 102.0556 111.1560 109.5048 117.6586 122.8162 122.8382 122.9787 123.0663 123.1593 123.2533 123.3536 123.4566 123.5723 123.6822 123.9879 123.8752 120.9511 123.9207 125.0268 111.3632 116.5727 111.8982 122.7204 126.5011 114.9173 114.0952 103.3651 101.4270 101.9951 113.0474 120.4476 110.0461 114.4586 106.2469 118.9969 121.6131 105.4119 107.5052 106.5816 112.0865 106.0187 114.9698 103.9024 107.0622 106.9911 108.2817 108.2219 107.7494 107.6654 108.0165 109.8004 110.3977 110.8525 112.9291 112.2318 112.0682 111.5945 113.1000
116.2800 108.3232 106.5583 101.5927 102.0107 104.4784 108.4555 110.3628 107.3190 109.9669 122.4483 122.9896 123.2345 123.3180 123.3960 123.4852 123.5832 123.6833 123.8145 123.9342 123.9195 125.3042 123.6828 124.4173 125.4417 115.7096 114.4091 122.2602 125.0173 125.5267 123.5830 113.1827 117.1429 105.9013 104.1010 107.6683 121.0793 119.2399 110.2618 121.8177 122.0164 114.4114 125.1144 105.7354 105.0149 105.3385 103.3889 116.0292 115.9964 111.2662 105.3883 107.7445 108.4029 109.4808 109.8314 110.6144 111.8476 110.7598 110.7093 114.8009 112.6655 112.1416 107.5047 113.8000
123.2300 125.6334 117.7935 104.1829 102.2615 102.3730 110.2561 106.4880 106.8995 108.2490 123.2432 123.0334 123.5326 123.5418 123.6307 123.7178 123.8025 123.9096 124.0266 124.0973 125.0532 109.9265 116.4305 125.4674 124.3679 125.5543 111.2276 110.0472 126.9494 125.6451 122.1646 119.1870 116.3014 119.4993 109.3652 104.8925 115.0950 119.3479 120.5898 122.1466 116.3163 110.2039 111.7258 105.2891 107.0483 109.2409 107.4481 105.1817 105.1079 115.8223 104.9904 106.4025 104.8492 108.7093 110.2875 110.4922 111.9163 112.6756 111.4988 124.4618 111.9880 113.2128 113.2055 113.8000
106.6600 122.2358 104.7903 106.5530 101.9536 105.6969 104.9273 113.2312 109.0902 110.5036 118.9893 124.3668 123.6372 123.7824 123.8579 123.9431 124.0526 124.0475 124.2380 124.2329 124.0707 117.7580 110.1238 120.8589 124.9325 129.1108 126.4320 123.0028 116.9803 125.8898 124.2725 123.7457 116.7467 118.9270 117.7756 104.9120 106.5757 116.0725 115.7301 107.3976 106.3590 106.2533 104.9698 105.6565 105.3325 112.9275 106.7105 104.7270 106.3279 105.8867 106.0346 105.6969 115.2107 118.3601 115.4421 110.2357 111.2513 111.9754 111.8994 116.3609 114.4032 115.8983 108.8022 114.5500
119.1800 124.2011 112.2480 107.7015 102.4909 105.3183 106.1101 113.5661 110.2864 111.1960 114.1834 123.5201 123.9482 124.0129 124.0823 124.1594 124.3504 124.6996 123.8726 124.3527 114.4137 108.7652 105.0502 108.3898 113.5965 126.3085 125.5429 112.3873 113.1500 125.4824 126.1758 119.5989 115.2668 113.5138 104.4449 104.2084 106.6833 111.0324 108.6528 110.8710 104.3939 108.3944 105.0657 105.3147 105.0506 107.1342 117.0901 117.0827 105.3561 105.5281 106.3133 105.7160 118.1102 129.0474 127.4739 120.4821 111.3137 113.0331 113.0725 111.9155 114.6667 111.5563 116.3605 114.5500
108.8700 110.6655 109.5238 106.6347 106.7368 116.2709 106.4407 110.1780 112.2994 118.0736 123.6737 124.4706 124.1410 124.2314 124.3116 124.3776 124.4370 125.0332 125.1832 125.3147 120.6429 102.5849 111.0699 105.4700 110.1524 121.4777 118.7322 104.9031 118.0484 126.6637 113.0279 128.3666 121.0291 109.9194 111.0250 103.3454 104.3550 107.4518 108.9297 105.9259 104.5481 104.9354 105.3787 105.5604 104.7460 124.4889 119.6493 128.1303 132.0903 105.3510 106.2860 105.9965 121.0571 125.9173 127.8951 129.2235 119.6995 116.0186 111.9581 113.5241 116.6957 105.5453 116.7760 130.2300
102.1200 111.7993 110.7632 107.7643 108.6396 115.3234 116.1023 107.5111 109.6163 126.3689 124.6588 124.2550 124.4088 124.4653 124.5041 124.5918 124.7683 124.0308 125.5555 121.2892 125.5856 112.7727 110.4786 111.7882 106.2177 102.3656 116.0620 116.2811 107.9519 115.1591 115.5866 111.9368 106.7992 115.3016 115.9731 103.2312 104.7883 105.1621 107.8113 104.4654 105.4023 105.3796 105.3292 105.6796 105.5510 109.0782 127.8192 121.3998 111.0053 111.0937 107.5916 107.9181 111.7686 117.9577 128.2384 127.4368 131.7325 129.0827 111.6972 116.1721 114.4326 112.2409 113.0826 107.7800
102.3300 102.7045 109.0327 108.5223 109.2898 117.4595 108.6362 118.6560 122.7032 124.8448 123.7391 124.0328 124.6427 124.5835 124.8052 124.8070 124.3795 126.2701 114.7492 109.8754 126.0732 128.5273 107.8501 116.9059 111.5734 103.9274 120.4656 113.4377 114.0458 104.3114 112.5592 107.5175 104.1612 105.8151 113.2550 106.3635 104.4956 104.9774 105.3252 108.3218 109.4624 104.5900 105.8174 105.6130 105.3496 104.3548 108.6675 104.6511 104.8980 107.5671 106.5197 106.9095 106.4951 130.0459 118.3849 126.9014 126.9170 127.0766 128.0478 122.8964 118.3157 114.0794 116.4176 115.1000
102.5400 102.1573 109.9916 109.1531 115.9316 113.3322 121.8666 117.3408 114.1268 125.5800 125.2908 132.6236 124.4955 124.9848 124.3886 124.9837 126.9049 121.2896 114.1772 112.4051 126.3689 124.5069 106.3679 110.9535 115.0379 105.8560 128.9601 126.0309 121.9604 118.9968 108.0093 110.4924 108.1834 104.0072 107.1380 102.7530 105.3148 105.0122 106.4447 107.3608 111.8512 110.2298 105.1802 105.3865 106.3515 105.7639 106.8268 109.3381 119.7233 105.2010 106.5140 106.7655 107.4226 109.8418 109.1570 111.6452 128.9213 123.3330 126.9458 128.3978 113.6704 122.1715 116.0141 114.1400
102.7400 102.1981 110.3724 109.7498 116.6850 108.0536 121.8002 114.5363 124.8266 125.4661 124.4314 125.3230 124.9189 124.7295 129.0819 124.8172 127.7139 107.9360 111.2169 120.3406 121.8939 126.0294 115.7827 112.6556 124.8072 109.6975 123.8124 128.0543 126.5356 124.6477 104.1953 119.0520 112.5130 104.3556 106.0700 103.9592 107.7083 110.8556 111.5299 123.3736 113.1065 121.7570 113.0304 115.6131 106.1962 108.1747 105.6174 106.4409 107.4954 112.9791 105.9603 106.7595 106.1745 130.1025 122.5709 120.4258 130.6181 130.8150 127.7787 128.7774 130.4982 131.5312 126.5455 117.4500
102.9400 104.0005 111.3154 110.4307 116.5308 108.8204 115.0945 123.7115 125.1957 124.7015 125.1622 125.1718 125.1983 131.2997 120.6553 115.3882 112.6924 117.6258 112.1484 126.4620 111.5840 107.8531 120.7601 112.1880 122.5340 114.8207 114.9817 102.7999 122.7185 128.8042 116.2956 113.5235 115.6935 106.4426 105.6237 105.0790 113.6697 123.9202 105.7484 106.3875 114.4827 118.7103 111.0457 115.4765 107.0890 105.1275 127.8474 116.2441 109.0143 106.3826 109.9519 109.9818 110.4175 122.1110 132.4287 130.4927 129.7246 130.3430 131.2091 128.0450 122.4772 129.0938 132.1219 132.2300
103.3700 109.2956 110.7182 110.8405 117.2170 110.8411 118.7188 124.5082 124.6840 125.4374 125.5005 125.3513 125.6119 125.5047 123.6378 111.4931 118.0530 125.8529 102.9950 127.1547 113.5115 110.6486 132.5174 115.4764 115.6091 113.4296 117.1105 124.2104 109.9735 123.8809 118.3506 102.3173 105.2018 105.6705 107.8214 103.0973 116.1072 120.1792 109.1983 106.9847 120.2726 109.5016 114.3048 105.6382 106.6907 104.6964 124.8301 129.9668 131.2311 108.4164 124.2123 130.9042 127.9088 124.7619 128.0556 130.9402 130.7911 130.5386 130.9393 132.0018 125.9473 124.6415 133.7164 132.1500
105.3200 106.0784 112.8043 111.8100 118.2318 110.6698 115.3362 110.7736 115.8142 125.9465 124.9954 125.7807 125.6189 125.4271 127.1291 107.9043 111.6722 124.3283 113.2527 118.5690 111.9835 112.6865 112.6139 109.4456 117.2966 107.5897 118.8522 115.8468 100.5472 116.6976 104.5099 104.4726 109.6460 120.8273 122.6773 102.9858 114.1047 122.1696 118.5729 114.2035 110.5553 110.0220 103.8939 105.0504 107.3226 110.6248 125.6153 122.3625 128.0885 129.6971 117.1776 120.4798 128.7629 125.8027 130.3096 122.7496 130.9449 131.2179 130.4457 131.3701 132.3416 126.9355 115.1203 131.7800
116.7800 114.5907 113.2772 112.8426 116.0509 111.0235 120.0351 117.3759 127.8450 126.2481 125.7184 132.8216 125.4397 125.6539 125.9150 113.8238 108.8527 111.4790 125.8156 111.8478 114.8158 115.0061 112.1890 114.2184 117.3232 121.9047 100.4036 102.5523 109.4310 106.2670 103.9119 109.9516 103.1619 107.2974 117.1984 117.0056 106.5864 115.2991 123.2419 112.2361 112.1350 107.7748 109.5615 105.0716 121.7161 114.5985 113.8508 120.1872 128.6911 128.4804 127.3876 127.4894 123.2170 129.1450 129.8798 118.1300 125.3009 131.3666 133.1239 131.5094 131.7186 133.0721 132.1390 108.2900
107.0000 112.8112 113.9642 113.8776 113.4534 111.9115 122.8165 114.8770 125.3923 125.5022 125.9064 125.5099 125.7798 125.8778 127.2949 123.9264 119.7831 126.8421 113.2797 107.3356 110.1052 105.4521 105.9302 102.4286 108.1762 118.2873 121.3356 103.9907 103.8370 110.0248 105.7370 114.2588 108.2279 111.8017 108.8844 112.7118 106.6282 111.4450 116.1804 107.1737 106.5640 110.4212 108.1192 109.5179 112.5735 115.9039 122.2222 126.7543 128.5204 128.5122 129.2893 123.7466 121.6352 128.1419 127.3293 132.3839 122.3176 107.6079 123.1078 132.3283 131.8235 131.6560 129.6005 108.2900
122.7400 115.1869 113.8921 114.3162 114.4791 113.0998 126.9991 122.3156 126.0318 126.0523 126.1070 126.2395 126.2071 126.2235 127.3542 108.2265 110.6457 126.3940 125.6925 112.2172 112.7520 103.0010 115.7919 104.5298 107.5342 106.6357 117.1913 103.7318 105.6921 104.7379 105.5140 104.2216 109.0169 116.8808 113.2842 108.6982 106.0702 107.5781 110.3356 106.3101 107.6296 110.3283 111.4593 112.1719 106.4718 127.2515 127.0987 126.0081 128.3667 128.5880 128.9585 126.7959 130.3897 127.6858 119.7506 129.9719 132.8538 131.8336 121.9268 132.1401 133.3383 122.0146 134.5456 133.3100
113.0900 115.0681 115.5126 115.4114 115.7170 114.4636 126.9352 126.0724 126.5231 126.2450 126.2987 126.3192 126.3786 126.1592 126.3380 109.5378 111.9370 125.1030 119.6936 108.0076 98.9805 115.9487 116.5836 120.1976 112.6783 103.6801 116.8994 101.1330 105.1490 105.4850 105.5251 110.5483 112.3224 111.4443 120.1288 107.4091 105.5650 106.5397 105.5710 107.5373 106.2326 106.3307 107.1479 109.9847 110.4580 118.1417 127.2102 126.0699 128.9735 127.4718 129.3147 129.4916 129.6951 128.6825 125.8449 118.9516 130.6416 129.9300 130.0118 131.5527 132.7163 122.6134 109.2037 108.4400
114.0000 115.7893 116.2821 106.6487 116.7082 123.7915 126.7330 126.2948 126.3546 126.4343 126.4750 126.4789 126.5022 127.2292 128.3084 125.9999 123.7335 114.4124 114.2008 119.0510 119.0923 117.2702 103.1287 115.5033 122.7336 113.9498 104.3979 105.5421 105.5093 105.5429 104.5093 105.7757 107.6504 120.0729 111.1871 107.5489 110.1762 104.4465 114.4056 126.8242 115.1569 109.6275 113.5646 117.0906 112.3647 112.6719 129.1210 125.8752 127.3423 126.8060 129.7902 130.1241 130.0877 129.2468 130.0459 125.7577 128.6730 127.3851 129.6708 134.5784 132.0339 135.6054 135.7761 108.5500
114.7500 116.2324 116.1933 117.1617 118.6469 127.2828 126.3436 126.5525 126.6098 126.6174 126.6501 126.8874 126.7574 125.7658 114.9179 114.2586 120.3546 114.1199 107.1535 112.4210 112.1495 111.8666 114.7177 117.8502 107.6356 113.2947 110.0654 105.2202 105.6172 104.4214 122.0091 103.9309 106.3884 109.2440 112.2182 116.6456 121.3815 108.7882 120.4273 123.7725 107.7585 108.1422 113.7774 124.6389 122.0398 113.5311 114.0743 127.8643 129.1126 129.3547 127.2788 127.5144 129.6824 131.0642 129.2775 129.5320 130.5914 131.2626 115.8978 111.4671 111.6196 137.0528 120.2145 112.9800
115.6500 116.1008 116.0576 109.5944 113.7511 127.8755 126.7497 126.7677 126.7708 126.7896 126.8115 127.3936 125.2567 127.6469 125.9879 129.4511 120.0209 109.5028 109.7927 105.0281 116.7670 114.5865 112.6621 105.5875 104.8322 106.7717 104.6450 105.6885 106.1155 103.2603 130.8006 112.4237 118.4948 106.8763 121.5173 119.5439 129.0295 115.4131 106.7631 110.5188 115.8577 107.9465 106.5519 110.2251 124.5288 117.7766 116.4952 128.4512 127.5815 129.5961 130.0318 127.8229 128.7151 128.7446 128.7627 130.9164 129.2077 129.7108 122.1589 117.6664 133.9786 112.0400 109.3705 111.8200
116.6300 112.3260 129.9993 115.5987 129.6905 126.9798 126.9229 126.9083 126.9448 126.9518 127.0067 127.0937 126.9817 130.5365 127.4862 128.0216 118.8983 119.5551 111.9253 104.5457 115.5821 107.6826 104.1194 105.6339 108.8947 119.6505 104.9689 106.1426 104.3706 105.7451 111.7817 129.4819 125.6367 104.8119 118.2010 108.1506 129.9796 121.7888 107.2356 113.8595 104.6203 115.2659 107.3076 106.8703 123.2463 124.1449 123.8468 126.8127 130.5857 127.7803 128.1197 128.1257 130.6415 131.2745 130.4387 123.1204 120.2009 131.3547 133.5645 132.0762 132.5935 119.8405 107.4627 110.7900
127.0100 128.3967 126.8070 127.7892 127.5021 126.8586 127.1978 127.1165 127.1126 127.1297 127.1524 127.2694 127.0513 120.4141 125.2738 138.1246 120.7245 128.9233 110.2144 109.9096 129.5232 103.1540 105.6644 105.1148 118.4236 124.8009 104.5730 106.9565 108.5781 126.7017 126.5879 128.8270 127.9559 112.2249 108.4512 103.6731 122.3668 109.8401 109.8178 118.3003 110.4885 107.4803 106.7360 106.7605 106.1234 116.5441 124.2388 119.3815 128.5278 117.2410 129.7627 128.1355 130.7401 131.5533 132.1538 110.9482 133.9434 131.4205 132.2796 131.0288 133.4331 112.8967 112.1104 111.8500
127.1600 126.9325 127.2599 127.1097 127.0818 127.3258 126.8072 127.0224 127.2706 127.2907 127.3163 127.3611 127.3295 127.6092 132.0276 119.8831 114.2653 111.5217 114.2383 123.3114 119.9871 107.7838 105.3640 105.0329 113.8012 119.6748 103.3364 107.0299 106.8013 130.7365 122.5143 122.3501 123.0042 117.0561 106.2233 115.5750 113.8914 118.1301 105.5943 111.0005 112.1991 108.6909 107.8895 107.5187 107.4034 106.6085 128.8589 127.8831 122.5443 113.2666 127.6482 129.4123 130.1832 130.0490 131.7664 132.0891 132.3481 132.7724 133.6791 136.0474 128.0044 115.1785 108.6520 108.9200
127.4600 127.4397 127.3625 127.3845 127.3556 127.4380 129.7087 131.8968 127.3890 127.4052 127.4986 127.4462 127.0366 116.5612 119.5799 110.3365 120.2939 106.7837 103.3288 124.9609 116.0926 117.8785 104.4727 106.0895 107.7371 105.0514 118.8216 106.1825 102.9682 121.9676 131.3429 124.3634 129.7350 135.6153 111.0695 107.5188 118.6342 121.4750 111.0744 116.3946 115.7063 119.6378 107.6671 107.1036 108.2404 127.2610 135.7725 129.2947 126.1329 122.6142 127.2801 130.2310 131.2510 131.1221 128.0512 131.0504 132.5580 133.4718 132.2052 126.8985 105.1516 107.4628 109.2984 108.9200
127.4600 127.4600 127.4600 127.4600 127.4500 127.4500 127.4400 127.5700 127.5600 127.5600 127.5300 127.6500 127.6400 111.2000 127.7300 116.6300 117.1900 105.8000 105.9000 122.3800 115.2300 115.2300 126.8600 106.0400 106.1200 124.5700 106.2800 106.2800 106.3600 108.5000 131.5300 108.1600 108.1600 130.9400 130.7600 111.1400 110.0800 110.6300 126.9100 107.1500 115.6100 118.3400 128.1000 109.8200 107.5200 118.5200 133.4400 128.0400 134.2700 134.6800 128.3100 130.3900 130.0100 132.0400 108.3200 132.5600 133.0400 133.4300 133.8500 108.6700 108.8100 108.8800 108.9500 109.0200
