124.7200 124.6000 124.6200 124.5000 124.3300 124.2000 124.0700 124.0700 123.9400 123.9800 123.8300 123.6700 123.7000 123.5300 135.7400 126.4800 123.3900 123.4100 109.1300 115.0200 122.8200 120.1000 120.1000 123.2300 123.4400 123.4300 123.4200 123.4000 120.9900 120.9900 114.1800 105.6700 114.3900 112.5900 112.5900 102.2700 124.1100 124.0700 124.2400 124.3700 124.4900 124.4600 116.1600 124.7200 124.8700 124.9700 125.1300 125.2200 125.3700 125.4700 125.6000 125.7400 125.8200 125.9600 126.0600 126.1700 111.7500 114.5000 115.0300 116.0300 107.0000 116.5700 127.0500 127.1500
124.7200 124.5704 124.4845 124.3330 124.2354 124.1221 124.0232 123.9306 123.8395 123.7422 123.6684 123.5943 123.4954 123.2793 124.3509 121.5878 123.2688 123.9658 115.2075 117.8865 115.3990 123.0144 122.9056 123.3699 121.8482 123.4523 123.2981 119.2562 100.3295 109.7168 102.7972 106.4109 114.9967 107.2310 104.6974 122.8770 123.5349 123.9175 124.1346 124.1414 116.4282 123.9611 122.8794 124.8751 124.8294 124.8779 124.5020 123.5260 125.2554 125.3667 125.6207 122.2619 123.8001 125.9378 125.7339 119.1744 118.0500 114.9802 110.8958 115.8310 116.0836 125.1958 127.7947 127.1100
124.5100 124.3778 123.9604 124.0695 124.0209 123.9074 123.8079 123.7035 123.6085 123.5191 123.4272 123.3509 123.2658 123.1910 123.1053 123.2140 123.1653 122.0499 116.8527 123.4669 108.7047 121.4091 120.2389 122.3173 117.9120 123.4165 123.0727 113.7961 104.3531 112.9264 103.5125 102.9021 109.2881 118.7747 121.4974 126.5550 123.2458 123.7670 123.7031 124.4818 123.4559 123.8891 124.4084 124.4521 124.5195 124.6147 124.9821 125.0772 125.0781 125.2305 125.4250 125.6636 126.0316 129.6212 116.9971 112.1668 113.8657 116.2512 115.9656 116.4777 125.8844 126.8461 126.8794 127.1100
124.2800 126.4918 125.0415 124.3230 123.8019 123.7105 123.5829 123.4760 123.3780 123.2847 123.1858 123.1031 123.0240 122.9481 122.8913 122.7902 122.6664 122.7570 123.3069 122.0728 111.0440 115.5776 114.3645 126.4740 122.9508 122.7490 122.8423 116.1286 111.3789 105.0554 104.2120 106.0212 104.1010 115.3219 104.2906 122.6322 123.3294 123.5448 123.6310 122.9978 118.0616 123.9415 124.1536 124.2543 124.3874 124.5203 124.6522 124.7577 124.9127 125.1416 125.2372 125.4129 125.7687 110.6726 109.3017 116.0307 120.6418 127.1779 122.1177 124.9352 126.4998 126.7045 126.9381 126.9200
124.0400 125.7323 118.0567 119.3151 123.5817 123.4179 123.3646 123.2468 123.1456 123.0344 122.9437 122.8520 122.7709 122.6832 122.6148 122.5630 122.4870 122.2531 126.4169 122.7595 108.5914 113.6622 118.6542 123.2581 120.4388 122.4730 121.7322 118.3734 108.5257 103.7961 107.2817 109.3766 107.2096 123.2289 123.2834 125.5723 123.0087 123.3050 123.3548 123.3803 123.5728 123.8965 123.9483 124.0653 124.1985 124.3245 124.4766 124.6184 124.7675 124.8732 124.8678 124.7934 121.8143 112.5330 115.9711 110.4850 111.1962 113.0496 112.7460 121.0924 126.5348 126.5265 126.6366 126.7700
123.8100 123.3489 122.9614 122.9842 123.7380 123.2514 123.1318 123.0117 122.9024 122.7935 122.6929 122.5873 122.4983 122.4302 122.3454 122.2777 122.2147 122.1893 121.6986 121.9315 113.5642 113.3788 114.8962 120.6611 122.0288 122.8961 113.1053 116.6938 101.6400 107.1309 119.3930 112.5085 102.4194 124.6309 122.2577 123.1198 122.9582 123.2435 123.4221 123.6804 123.3118 123.5636 123.7391 123.8767 124.0606 124.2211 124.2703 124.4560 124.5339 124.6957 127.2138 119.7141 106.2835 110.1412 110.8302 127.3466 113.6927 115.1262 107.4790 122.7523 126.4510 126.3071 127.5666 126.7300
123.5600 123.7828 124.2557 125.7597 122.8431 123.0386 122.8908 122.7748 122.6511 122.5388 122.4330 122.3258 122.2402 122.1153 122.0242 121.9448 121.9299 121.8748 121.8729 121.7179 126.4998 114.6605 113.4113 119.8277 121.6140 120.9447 127.7490 105.1480 103.0838 97.4303 122.1532 94.6686 114.0839 123.9589 122.4259 122.6105 122.7653 122.8868 115.0946 120.9560 123.5867 123.3295 123.6157 122.9966 124.5931 123.5128 124.1861 124.2879 124.2323 125.5290 113.8279 104.3578 108.3675 114.8335 115.9836 115.0241 109.4730 119.5864 120.9333 126.6702 126.2338 126.6353 120.6294 108.6200
123.5300 123.6295 112.8051 121.7246 123.3595 122.7856 122.6648 122.5280 122.3977 122.2803 122.1628 122.0469 121.9744 122.1103 121.6610 122.1520 121.5500 121.5806 121.5239 121.5404 123.6929 113.8257 112.4178 120.5478 120.9976 121.0292 112.9297 114.4920 105.2373 123.7280 111.9671 118.6944 122.9784 122.3754 122.1696 122.3449 122.4770 123.0518 122.8210 123.1428 123.1425 123.1873 123.4569 122.8637 124.0505 123.6464 123.9535 124.0975 124.2823 123.5193 112.7079 120.0440 124.5937 125.3230 125.0726 110.9057 120.2696 117.9629 125.5546 125.9201 126.2021 126.0028 126.4804 126.5400
123.3000 122.9956 123.4093 122.9303 122.6744 122.5996 122.4107 122.2675 122.1407 122.0222 121.8890 121.7755 121.6774 122.2728 115.0218 119.5341 121.5882 121.2387 121.0082 121.0706 122.2919 112.1909 111.8693 111.9319 122.0179 120.8362 110.4382 120.1787 127.3446 117.5635 114.7450 110.2464 123.5151 121.9378 121.9658 122.0840 122.2204 122.1615 122.4802 122.6445 122.6907 122.9634 123.1082 123.3217 123.4807 123.5746 123.7567 123.9329 124.0716 123.9073 112.6996 108.0975 125.1433 123.4169 128.3840 116.5502 126.3569 126.2967 125.9897 125.8510 125.9388 125.4345 112.8316 112.2600
123.0300 122.9284 122.8184 122.6308 122.5019 122.2671 122.2258 122.0806 121.8624 121.7373 121.6050 121.4828 121.3639 121.3638 115.5869 113.6000 121.4868 120.9994 121.6761 121.3269 121.8748 110.7598 110.5965 109.0922 122.0714 122.7864 121.9364 121.0697 122.2029 124.1393 121.1146 122.5434 121.2067 121.6358 121.6828 121.8211 121.9736 123.6375 122.1475 122.2527 122.6172 122.7433 122.9089 123.0756 123.2332 123.4102 123.5811 123.7410 123.9500 122.2588 125.0649 125.9761 124.0388 120.0901 110.2060 106.4941 123.2052 125.0693 125.5014 125.7539 125.5809 127.6874 114.7215 126.3500
122.9900 122.7607 122.5738 122.4432 122.2192 122.0886 121.5991 119.8160 121.6146 121.4610 121.3288 121.1908 121.0691 120.6979 122.0912 114.4028 121.3171 121.2342 117.0760 113.9326 121.6722 114.1674 114.2605 106.9413 121.1113 119.8599 120.2423 121.2392 117.4496 121.1283 120.8747 120.8232 121.2158 121.2803 121.4043 121.5641 121.6906 115.3745 116.5998 122.3886 122.4901 122.5262 122.6972 122.8713 123.0436 123.2201 123.3954 123.5758 123.8445 123.7567 124.7927 123.9155 124.9812 115.3406 124.1540 111.1917 112.0238 126.1782 125.3380 125.6119 125.7719 125.4399 111.1673 130.2100
122.7500 122.5532 122.2828 122.1781 122.0883 122.0293 121.9098 121.2612 121.3444 121.2431 121.0181 120.8871 120.7446 120.6739 121.5540 113.7782 110.6353 118.1129 114.7148 119.9362 120.3769 122.0478 114.9352 124.4317 118.6937 119.8755 120.3214 120.1471 120.8189 120.4412 120.6144 120.7064 120.8195 120.9727 121.1306 121.2672 121.2277 122.4857 126.1587 122.5839 122.1638 122.2942 122.4776 122.6615 122.8483 123.0284 123.2148 123.3906 123.5183 123.6633 123.7086 124.7697 120.1474 117.5109 116.6422 112.1860 121.0964 125.3495 125.3855 125.5210 125.6937 125.7653 139.9219 130.4000
122.4600 123.0028 122.0929 121.8615 121.1272 119.4325 121.9615 121.4779 120.1762 120.9147 120.7478 120.5686 120.4366 120.2691 118.8131 122.0025 115.3358 114.9516 100.2296 116.5445 117.6655 117.1940 108.8893 118.5055 119.2773 119.9540 119.8866 119.9724 119.9108 120.1880 120.2369 120.3780 120.5406 120.6808 120.7972 121.0184 121.4643 120.9828 121.0546 120.4859 121.9577 122.0682 122.2686 122.4602 122.6520 122.8413 123.0344 123.2439 123.4416 123.6554 123.7706 124.0227 120.1675 109.8767 117.3032 120.2784 123.5090 124.9087 125.2658 125.3967 125.6181 124.8500 123.3963 130.4000
106.7400 120.1568 121.9649 121.8311 120.8878 117.8073 120.7687 118.7906 121.6317 120.6520 120.3572 120.2477 120.1028 119.9756 121.8288 120.5948 120.3087 118.4879 119.9852 119.8468 114.0905 105.7992 110.5655 116.4935 120.0324 119.4234 119.5037 119.5037 120.0625 119.2279 119.9241 120.0439 120.1941 120.3199 120.7657 120.6837 120.8724 129.0484 123.5266 121.4954 121.7507 121.8398 122.0510 122.2502 122.4500 122.6470 122.8633 122.7523 123.0347 123.1396 123.6274 123.6100 124.9040 112.9239 127.4687 124.0912 123.6574 124.9816 125.1287 125.3043 125.3616 126.6979 111.6108 113.0600
106.7400 122.2961 121.5193 121.4295 121.2454 121.8033 121.5300 117.7216 118.6978 120.9993 120.1360 119.9161 119.7566 119.6402 119.1678 119.7698 113.5259 111.2040 104.4104 109.0143 100.0222 111.5176 107.0221 121.3106 112.6583 119.2929 119.0977 119.4970 114.6153 118.6993 119.5438 119.6998 119.8755 120.7849 117.1982 120.5144 120.3049 120.7697 122.5978 121.4107 121.4092 121.6236 121.8311 122.0401 122.2509 122.4521 122.6635 123.1096 123.3224 124.7416 124.3656 123.4740 123.7796 120.5199 124.3156 124.0852 125.0425 124.8365 125.0217 125.2054 125.3221 125.4349 124.5507 113.0600
122.0600 122.2079 121.4088 121.2430 120.9835 120.9631 118.5044 114.5259 121.2108 119.4506 119.7702 119.5723 119.4048 119.2832 119.0350 115.5166 110.9041 110.6766 102.2023 109.8722 98.4539 103.7508 108.2484 116.9311 109.1290 119.5412 118.6874 119.1155 118.3971 119.4180 119.1488 119.3438 119.5132 119.6778 120.0975 120.0842 120.3061 120.5084 120.7398 120.8828 121.1757 121.3884 121.6138 121.8349 122.0446 122.3020 122.1019 124.5429 106.6638 122.3121 115.2465 124.0805 123.9416 124.5600 124.1020 124.2332 124.5261 124.7258 124.9138 125.0996 125.2870 125.4813 126.4083 131.3800
121.5400 121.3827 121.2685 121.0012 120.7910 120.5256 119.0248 113.0732 121.9870 119.6144 119.4305 119.2312 119.0251 118.8775 118.2663 117.3732 111.8260 109.2458 107.8830 104.1851 108.7492 102.5842 104.0307 119.8184 118.9392 117.9854 118.2509 118.2775 118.4818 118.5708 118.8031 118.9633 119.1666 119.3534 119.5788 119.8295 120.0081 120.2370 120.4735 120.6938 120.9308 121.1636 121.3967 121.6298 121.8590 122.0733 122.3217 122.7386 121.5455 122.8188 126.0871 123.0541 123.3620 124.6588 109.2879 123.8188 124.4355 124.6271 124.8118 125.0008 125.1809 125.4422 125.5909 125.6900
121.4700 121.2562 121.0141 120.7708 120.5279 120.3061 119.9894 119.9260 118.0125 119.1406 119.0887 118.8631 118.6546 118.4907 118.2708 115.3132 116.0031 108.8684 109.0834 98.9934 113.4445 109.7000 111.0778 115.8134 117.6316 118.7119 117.8101 117.9005 118.0410 118.2145 118.3858 118.5856 118.7925 119.0132 119.2421 119.4756 119.7095 119.9501 120.1972 120.4403 120.6851 120.9299 121.1737 121.4221 121.6582 121.8920 122.1626 122.2749 122.4746 122.7832 123.2215 123.2170 123.4131 124.2101 123.8659 124.1492 124.3231 124.5141 124.7132 124.9081 125.1060 125.2964 125.5076 125.6500
121.1500 121.0494 120.7884 120.5353 120.2795 120.0046 119.7494 119.5507 119.0880 119.1437 118.6815 118.4967 118.2699 118.0499 117.6847 118.5120 120.2755 111.4877 124.5219 104.8108 118.5050 116.4714 119.1648 119.2540 118.3252 117.5230 117.3427 117.4173 117.5861 117.7780 117.9763 118.1877 118.4164 118.6631 118.8965 119.1634 119.4030 119.6673 119.9278 120.1880 120.4460 120.7142 120.9649 121.2115 121.4704 121.7192 121.9625 122.2119 122.4346 122.7232 122.9634 123.1460 123.2118 123.1801 123.6555 123.9689 124.2077 124.4235 124.6176 124.8200 125.0132 125.1985 125.3699 125.4900
121.1000 120.8325 120.5660 120.2950 120.0204 119.7495 119.4673 119.1920 118.9024 118.6230 118.5749 118.0981 117.8585 117.6491 117.4084 117.8207 110.9375 99.6476 112.7198 95.8778 117.9543 116.4269 116.0499 115.9891 116.4033 116.6495 116.7766 116.9336 117.1173 117.3188 117.5445 117.7787 118.0188 118.2880 118.4255 118.8251 118.8848 119.3101 119.6554 119.9232 120.1675 120.4776 120.7414 120.9783 121.2606 121.5382 121.7865 122.0337 122.2835 122.5117 122.8207 123.0945 117.8923 120.9190 123.5685 123.9684 124.1060 124.3240 124.5284 124.7272 124.9306 125.1266 125.3130 125.4600
120.7800 120.6286 120.3681 120.0639 119.7697 119.4809 119.1835 118.8956 118.6233 117.9349 116.8933 117.9010 117.5374 117.1788 116.7644 114.8375 109.5993 104.5264 107.1407 101.3495 117.5562 115.7859 115.9063 115.9928 116.1105 116.1462 116.2484 116.4221 116.6325 116.8548 117.1019 117.3426 117.6631 117.9198 118.2419 119.1498 119.4960 119.3844 119.4783 119.5711 120.5769 120.2558 120.5376 121.0536 121.0343 121.3660 121.6269 121.8845 122.1387 122.4168 122.5107 122.4759 124.2820 125.4000 123.9203 123.7785 124.0217 124.2248 124.4336 124.6452 124.8417 125.0360 125.2330 125.4300
120.7400 120.4001 119.9663 119.8324 119.5150 119.2156 118.9004 118.5854 118.3767 116.4954 117.6836 117.0485 117.0418 116.5626 117.5793 110.5311 110.0158 104.5982 109.4568 101.0695 116.9216 115.1712 115.1816 115.3898 114.9910 115.5737 115.6683 115.9082 116.0830 116.3104 116.6550 117.1097 117.1370 117.4801 117.9354 113.1088 117.4371 112.3125 119.0616 118.8819 116.8534 119.9282 120.2044 121.0321 120.9070 121.1954 121.4548 121.7281 121.9992 122.2506 123.0668 125.0747 122.7873 117.3772 123.8765 123.8417 123.9179 124.1549 124.3707 124.5584 124.7674 124.9711 125.1608 125.1600
120.3600 120.2429 120.0254 120.0877 119.3061 118.9494 118.6122 118.2755 117.9477 117.5709 117.2200 116.7478 116.5240 116.5694 115.6738 106.9735 107.2225 111.4769 113.4925 100.7350 116.3307 114.4712 114.0248 121.2528 114.0501 114.9201 115.1749 115.1065 115.6805 116.0036 116.1557 116.7561 116.7637 118.3137 119.0089 116.1371 116.1492 119.5430 119.1787 119.1369 123.2710 115.7986 120.5345 120.4372 120.7271 121.0163 121.3012 121.5859 121.9876 121.9561 122.2519 112.9904 120.9871 116.2698 120.2167 123.9093 123.7437 123.8481 124.1804 124.4824 124.6909 124.8896 125.0953 125.2100
120.3600 120.0140 118.7349 118.3526 118.9815 118.6898 118.4011 117.9839 117.5980 117.8807 117.4804 116.5565 116.2379 111.6511 117.4700 114.5152 107.1524 110.8208 116.8351 112.3819 114.5644 113.8382 113.5722 113.4055 114.0832 114.2099 114.4292 112.0059 114.7568 112.6873 115.7150 113.7657 117.7253 108.4553 108.0212 109.9088 118.5985 117.9160 118.4499 120.2781 125.1337 117.5172 119.8774 120.1032 120.5470 120.8464 121.1543 121.4067 121.5725 123.0371 111.6951 116.3787 122.3949 124.1410 114.2987 124.1503 123.6017 124.4598 124.0522 124.4438 124.6287 124.8311 125.0355 125.1900
119.9800 119.8557 119.8764 119.4922 118.7988 118.4370 117.9670 117.8347 117.4421 116.8084 107.4580 113.8211 114.0951 110.5210 98.4797 113.3270 113.5588 116.4762 115.3914 113.6711 113.0219 113.0812 113.1603 113.2539 113.2665 113.4838 113.7951 114.0092 115.0938 114.6350 115.1570 115.2967 116.2274 112.2673 118.8036 113.0054 117.7019 118.0388 116.2074 118.5346 118.8404 119.7442 120.9108 121.0520 120.2519 120.6932 121.0674 121.4378 122.0107 127.4433 108.8733 113.7408 117.6150 121.2247 129.3990 120.3271 123.3009 116.8637 124.3069 124.4012 124.5453 124.7625 124.9720 125.1600
119.9200 119.6688 119.2596 118.9133 118.5683 118.2349 117.6866 118.1816 110.5746 117.8178 115.3389 115.2013 109.5847 106.4364 92.0087 109.6739 110.9721 113.9478 112.2698 112.4873 112.4430 112.2415 112.1917 112.2671 112.4582 112.7090 113.0249 110.2368 113.2311 114.0756 114.8475 115.0126 115.7426 115.5760 116.8235 117.3613 117.3359 117.7348 117.7220 121.8587 118.7332 118.9157 114.0672 117.4200 120.0006 120.6585 120.5187 121.5263 115.4233 109.6520 114.7914 107.0899 123.2903 122.7306 123.9312 123.1849 123.1223 123.2553 124.0214 124.2884 124.5069 124.7132 124.9795 125.0000
119.6000 119.5017 119.1402 118.7628 118.3736 117.9281 117.0211 112.9225 104.5665 120.3293 111.1306 116.1018 112.4426 107.5759 114.2783 95.0962 111.4781 112.4876 112.0505 111.6450 111.3701 111.2604 111.2556 111.3422 111.5429 111.8336 112.2639 112.5789 113.4343 110.5544 113.3714 114.6319 115.0825 115.4396 117.4198 106.5403 117.0178 117.1245 117.8910 118.6034 118.3266 122.4078 118.0719 119.8992 120.0037 120.2116 124.4342 115.9909 109.6551 108.7050 110.2321 104.3885 122.5529 122.0076 122.9097 123.2546 123.6961 123.8581 123.9466 124.2275 124.3239 124.6351 124.8644 124.9800
119.5400 119.3471 118.9710 118.5742 118.1570 117.7055 117.6127 116.8269 115.2914 116.4732 115.0298 114.8034 114.9191 107.5821 102.4661 109.1390 110.7957 111.3190 111.0886 110.6573 110.3699 110.1950 110.1622 110.2845 110.5406 110.9218 111.3433 111.8614 112.3697 112.9514 113.5721 114.0540 114.6665 114.9914 115.6671 107.9829 117.3117 117.1249 117.5543 117.9772 118.4167 118.9965 119.2064 119.5678 119.9690 120.3167 120.8675 120.7666 121.0841 130.9924 121.9667 121.6825 122.4276 122.6580 122.9839 123.2202 123.4322 123.7072 124.2701 123.9982 124.6809 124.5377 124.8183 124.9600
119.4800 119.2006 118.8068 118.4033 117.9740 117.5434 117.0434 116.5593 116.2215 115.5416 115.0215 114.3976 113.8971 106.9448 107.1315 106.6902 112.2248 110.4159 110.0900 109.5576 109.1789 108.9568 108.9248 109.0815 109.4157 109.8763 110.4403 111.0645 111.6740 112.3197 112.9913 113.5928 114.2044 114.7434 115.5388 116.1977 112.2568 117.3156 117.3599 117.8051 118.2718 118.6919 119.1157 119.4903 120.0687 120.7747 120.9845 120.1615 120.6436 121.7615 121.7657 111.6712 119.3417 122.1590 123.0045 123.1308 123.5013 123.3401 126.3371 107.3376 124.9429 124.3095 124.7814 124.9400
119.4400 119.0746 118.6727 118.2418 117.8051 117.3336 116.8404 116.2930 115.8143 115.2346 114.6513 113.9840 113.8241 110.6360 102.7386 111.5707 110.3847 109.7535 108.9778 108.3363 107.8281 107.5292 107.4766 107.6998 108.1414 108.7508 109.4362 110.3286 111.0918 111.6908 112.4521 113.1874 113.8377 114.5175 115.3212 115.7478 116.4197 116.6361 117.1817 117.6602 118.1011 118.7613 118.9546 119.0613 117.4314 118.7627 118.4886 107.6706 111.0491 119.1585 115.6582 114.0476 120.0903 116.9461 123.4907 123.0676 123.3737 123.1927 123.8981 125.0437 124.2533 124.5552 124.7545 124.9300
119.1200 118.9659 118.5417 118.1096 117.6542 117.1779 116.6798 116.1577 115.5894 114.9880 114.3369 113.3954 117.2615 115.6867 111.7762 110.8313 109.5967 108.7165 107.8002 106.9516 106.2508 105.8094 105.7476 106.0639 106.6824 107.4881 108.3543 109.0922 109.4639 111.0924 111.9138 112.5525 113.3072 113.6791 111.6373 115.3683 115.9122 116.4773 116.9878 117.5105 118.3259 118.8028 118.5131 123.5803 108.2154 103.9771 109.6431 112.4550 116.4429 113.4410 112.3787 122.6852 122.5005 123.0157 122.7325 123.0583 123.3148 123.5668 123.5764 123.7646 124.2654 124.4813 124.7962 124.9100
119.0800 118.8674 118.4400 117.9933 117.5214 117.0295 116.5054 115.9452 115.3562 114.7325 114.0456 113.4881 113.2014 114.1571 110.4269 109.8019 108.8641 107.6983 106.5347 105.3753 104.3625 103.6860 103.5781 104.0738 105.0043 106.1331 107.3354 107.9132 107.4219 110.5372 111.4449 113.9178 112.8906 112.8035 110.7061 115.1435 115.8233 116.3155 116.8472 117.3769 117.7206 118.3776 118.2497 128.1545 120.2741 112.9270 122.0695 121.9681 126.5735 123.0386 122.2882 121.7076 122.1069 122.3924 122.7643 123.0167 123.2697 123.5433 123.8585 124.0756 124.2414 124.4708 124.6771 124.9000
119.0400 118.7850 118.3587 117.8964 117.4169 116.9109 116.3754 115.8001 115.1998 114.5433 113.8357 113.0968 113.0914 112.0115 110.5971 109.2447 108.0438 106.6974 105.1979 103.6108 102.0286 100.9147 100.7167 101.5480 103.0548 104.6616 106.1542 107.9465 109.2852 110.0124 110.5665 113.6539 112.5186 114.4498 115.1135 114.9832 115.5853 116.1744 116.7258 117.2540 117.7706 118.2528 118.0914 117.6305 119.9647 120.5257 119.9355 120.3336 119.9507 116.3793 121.0560 122.0222 122.1803 122.4540 122.7191 122.9873 123.2523 123.4901 123.7179 123.9740 124.2174 124.4498 124.6674 124.8900
118.9900 118.7266 118.2878 117.8274 117.3432 116.8282 116.2664 115.6681 115.0429 114.3659 113.6135 112.7200 111.4311 110.7746 110.0243 108.7486 107.3795 105.7848 103.9130 101.6898 99.2405 96.7364 96.2345 98.3812 100.8159 103.1822 105.1689 106.8153 108.2508 109.5342 111.3206 112.6043 112.5464 113.1623 113.9541 114.8293 115.4722 116.0663 116.6307 117.1584 117.6786 118.2295 120.1885 119.7115 119.1583 119.9386 120.0700 117.0505 118.7110 115.0037 121.8909 121.5363 122.1523 122.3878 122.6928 122.9605 123.2300 123.4784 123.7275 123.9709 124.1984 124.4307 124.6480 124.7300
118.9800 118.6928 118.2444 117.7663 117.2674 116.7318 116.2020 115.6570 115.0235 114.3465 113.6558 112.4983 114.3914 110.6306 109.7115 108.4089 106.8853 105.0710 102.8399 99.8678 95.6875 90.2956 89.5983 93.4851 98.7140 101.8953 104.3556 106.3038 107.9154 109.2631 111.6083 111.6870 112.4521 113.2960 114.0613 114.7330 115.3851 116.0032 116.5713 117.0976 117.7768 117.5963 118.8994 117.8914 118.7726 119.4735 130.4763 112.5908 107.9459 114.0262 121.1916 123.1981 122.0849 122.4226 122.6929 122.9503 123.2112 123.4673 123.7134 123.9512 124.1920 124.4147 124.6433 124.7200
118.9700 118.6747 118.2285 117.7992 117.3126 116.8138 116.2031 115.4393 114.7079 114.0708 113.1129 112.1917 112.3029 110.6899 109.5236 108.1688 106.6255 104.6917 102.2105 98.7435 92.4661 85.7500 84.9219 89.4841 97.2149 101.1428 103.9017 105.9972 107.6906 109.0683 110.1637 111.3642 112.3306 113.1853 113.9725 114.6861 115.3501 115.9633 116.5298 117.0416 117.7829 117.4778 111.7622 119.0583 119.8415 120.7968 111.7767 117.2024 118.4999 119.4720 122.0281 122.7352 121.8919 122.2312 122.6585 122.9383 123.2086 123.4581 123.7045 123.9484 124.1817 124.4108 124.6380 124.7200
118.9700 118.6695 118.1968 117.6046 117.0773 116.4513 116.0361 115.9757 115.7241 114.8760 114.8747 114.1473 111.7546 110.2875 109.6165 108.1293 106.6639 104.7318 102.2790 98.8589 92.8276 86.3425 85.2625 89.9084 97.3408 101.2170 103.9515 106.0332 107.7083 109.1197 110.3620 111.4187 112.3430 113.1991 113.9822 114.6893 115.3557 115.9652 116.5579 117.1078 117.6240 117.9826 115.3631 117.9743 110.8291 120.0903 112.3727 120.9264 116.1405 122.4695 121.4930 121.9505 122.6352 122.8376 122.6584 122.9479 123.2001 123.4588 123.7042 123.9504 124.1821 124.4155 124.6345 124.7200
118.9800 118.7131 118.4054 118.0913 117.6812 117.8538 115.8919 108.6026 104.4427 107.2667 99.0177 96.8676 113.8310 117.4763 107.1147 108.3151 106.9998 105.1800 102.9931 100.1667 96.3708 91.3206 90.5257 94.4284 99.0124 102.1053 104.4699 106.3805 107.9534 109.2977 110.4718 111.5042 112.4346 113.2753 114.0459 114.7476 115.3993 116.0015 116.6052 117.1176 117.5036 117.9592 122.5924 122.1196 120.1929 108.3045 109.2087 111.2362 117.5244 110.5250 119.7900 117.8607 114.5167 112.9233 122.3199 122.7793 123.2293 123.4667 123.7108 123.9566 124.1868 124.4187 124.6439 124.7200
118.9900 118.5937 115.7992 108.6386 107.1082 104.7605 116.0018 106.3227 98.1973 100.6663 120.5088 117.7388 111.3304 110.8664 110.2535 108.8336 107.4858 105.9331 104.1294 102.0362 99.8388 97.6621 97.2137 98.9308 101.2279 103.4442 105.3363 106.9789 108.3902 109.6254 110.7270 111.7146 112.6094 113.4246 114.1659 114.8531 115.4892 116.0707 116.7015 118.1825 118.5661 118.2270 118.2969 118.8713 116.9167 106.9861 108.3671 115.1590 111.2976 121.8850 120.0317 119.0017 114.6613 118.2765 122.5618 122.6507 123.2473 123.4909 123.7320 123.9661 124.2111 124.4168 124.6256 124.8700
119.0100 119.8345 110.5039 110.2097 104.9414 107.5959 111.7602 106.3240 103.2230 100.9135 109.5328 111.0897 112.7056 111.4542 110.3579 109.3800 108.1768 106.8711 105.4318 103.9513 102.4667 101.4177 101.2429 102.0294 103.3965 104.9161 106.3928 107.7414 108.9673 110.0841 111.1005 111.9996 112.7941 113.5299 114.3255 114.9991 115.6149 116.2033 116.7456 117.1379 117.7362 118.4640 118.2590 119.9924 113.2721 119.5466 102.6221 120.3246 120.9355 121.0640 121.5699 121.8102 122.2827 122.9689 122.9707 122.8661 123.2562 123.5045 123.7444 123.9809 124.2406 124.4862 125.2326 124.8700
119.0400 119.8260 114.4146 113.6956 107.2131 104.4523 119.4408 95.4687 100.5275 115.7867 106.8353 118.5870 111.9177 111.9443 110.9166 109.9864 108.9627 107.8834 106.7670 105.6695 104.7087 104.0768 103.9792 104.4509 105.3092 106.3682 107.4889 108.5890 109.6366 110.6226 111.8237 112.4866 113.1445 114.4458 114.6135 115.1782 115.7777 116.3478 116.8765 117.4188 117.5490 118.9949 115.9248 116.8251 116.8105 117.7148 117.5854 120.1271 121.0250 121.9550 121.9456 121.9161 122.1036 122.3931 122.6905 122.9972 123.2832 123.5330 123.7777 124.0616 124.2478 125.6235 121.5395 124.8800
119.3500 119.9221 110.5866 113.7874 104.6488 103.6025 121.5228 109.6381 100.0787 116.5205 101.8401 116.6983 119.3744 112.0915 111.4381 110.6615 109.7748 108.8867 108.0095 107.2009 106.5316 106.1211 106.0257 106.2899 106.9551 107.7261 108.5795 109.4769 110.3522 111.1814 112.8137 113.0608 114.2297 106.7637 114.7012 115.2286 116.0770 116.4696 117.0242 117.4336 117.7302 126.4526 107.5676 112.8304 117.6383 113.6444 116.8519 113.6953 122.1443 119.3581 124.5493 121.6851 122.2099 122.5958 122.8249 123.0673 123.3189 123.5701 123.8133 123.8528 124.0436 126.1021 119.5942 110.3400
119.3900 119.1532 117.8442 106.6871 108.3694 108.2524 105.9492 100.7142 100.6736 107.0479 109.2291 108.6659 124.0540 112.0810 112.1512 111.3672 110.6157 109.8721 109.1718 108.5548 108.0645 107.7820 107.9238 108.3943 108.3115 108.9370 109.6259 110.3473 111.0867 111.8460 112.3196 112.9868 114.3616 102.9377 119.2167 116.8235 115.3891 116.5919 117.1301 117.5664 120.6517 110.0137 106.3091 106.0581 108.6331 111.8443 110.1640 112.5848 118.7172 115.5219 122.1711 123.1227 122.6001 122.3559 122.8167 123.0971 123.3621 123.6130 123.8847 124.0795 126.7440 117.7644 125.8874 124.9000
119.4300 119.1700 118.0095 113.2596 112.9695 109.3892 94.1653 95.5085 109.5008 105.1027 102.0363 105.3733 112.0586 113.3887 112.5220 112.0225 111.2528 110.7895 110.2386 109.7605 109.3892 109.1867 109.3466 105.6879 110.1736 110.0052 110.5956 111.1925 111.8169 112.4362 113.0849 113.7086 114.3707 115.5277 114.0119 105.3104 113.1624 118.3717 117.7404 116.8547 122.3696 109.4366 105.4149 107.4965 107.7652 116.4529 117.6183 118.7207 117.0514 127.6134 122.0282 116.6473 118.8546 123.7177 123.0541 123.2035 123.4118 123.6607 123.8809 123.9574 128.6911 111.9819 125.4508 124.9100
119.7900 119.3215 119.2559 119.1899 119.0260 108.8148 96.2811 102.5634 100.7504 105.3860 107.3958 117.9225 115.1845 113.7610 112.9651 114.0954 111.8920 111.6602 111.2136 110.8254 110.5394 110.3803 110.4373 109.0263 110.8325 111.0632 111.5039 112.0010 112.5275 113.0929 113.5512 114.4726 114.7506 116.3865 119.0250 119.0416 107.3244 110.0038 117.9347 117.3430 122.4000 102.7787 106.9387 103.6572 115.7154 120.6229 121.2780 121.3882 123.6991 129.3968 131.9382 106.2138 108.1279 119.9342 122.3243 123.0575 123.4821 123.7035 124.0205 124.1449 125.5239 108.3153 127.0135 124.9400
119.8500 119.4207 118.9466 119.0401 119.5760 111.5749 105.1133 106.0330 100.4592 102.3238 112.7445 115.6165 114.6187 114.6742 112.5403 109.8453 113.3294 112.5080 112.1060 111.7926 111.5697 111.4500 111.4233 111.6892 111.6832 111.9533 112.3452 112.7625 113.2112 113.6525 114.1076 113.6824 114.7223 107.4423 122.0618 111.7689 103.2023 108.2944 108.1031 114.8426 121.5766 114.8666 107.8639 116.9521 120.0581 120.7836 120.7012 121.0901 121.1527 133.3720 127.5268 117.2119 111.3332 120.2053 124.6553 123.9980 123.4640 123.7549 124.1013 124.8738 124.8927 120.6371 125.7081 125.1000
119.9100 120.2635 120.3194 116.9030 110.0992 113.3542 117.5460 108.7692 98.0186 100.5980 104.6041 107.9845 115.9836 114.7080 113.6274 116.5956 114.1758 113.1899 112.9279 112.6713 112.4874 112.3778 112.3629 112.4286 112.6032 112.8469 113.1287 113.4850 113.8585 114.2934 114.7187 114.7053 115.6638 115.5718 114.0442 109.0030 121.6445 103.7139 112.1849 111.6474 119.1719 119.9130 119.6959 120.5212 120.5949 120.5516 120.9177 121.1862 121.4726 126.4264 109.3543 108.3645 106.0564 118.7881 106.3124 113.0835 124.3521 123.7154 123.9077 128.8420 124.8531 125.3159 125.2089 125.1100
120.2100 117.7519 108.6744 108.6360 106.5991 107.3866 109.7760 103.2069 101.6484 104.2977 100.8266 111.8670 116.3180 115.3718 116.5559 115.6851 114.0056 114.0213 113.6816 113.4758 113.3198 113.2351 113.2212 113.2790 113.4106 113.6096 113.8527 114.1555 114.5053 114.7330 115.7690 115.8823 105.3646 115.8319 115.4362 107.2883 110.7515 116.2728 103.0830 119.9725 118.8725 119.4070 118.1919 109.0390 119.8358 120.6324 121.0532 121.3245 121.6396 121.8205 121.1930 121.5501 121.4248 122.1746 112.0719 119.8154 123.8630 123.9184 124.1956 124.3938 124.6405 124.8258 124.9831 125.1300
120.2800 120.6421 110.2056 121.4121 107.9126 119.1121 103.7708 102.2574 102.0760 99.6806 108.1165 102.1282 117.1303 115.8266 115.5229 115.1644 114.8890 114.6016 114.3971 114.2103 114.0834 114.0056 113.9997 114.0439 114.1597 114.3170 114.5345 114.8377 115.0468 115.3271 114.5969 113.4750 107.7564 109.0802 117.5768 117.3535 117.7402 119.2969 118.1835 119.1260 119.3299 119.1934 121.8829 107.4216 112.9798 121.0307 121.1762 121.4979 121.6508 121.8362 123.6526 109.8169 124.2087 122.7107 123.3239 123.6693 123.7572 123.9491 124.3611 124.4227 124.6692 124.9593 124.9762 125.1500
120.3500 120.5959 119.6853 118.1236 108.2842 108.8441 107.3292 104.4853 111.3094 99.2426 101.9576 105.8128 118.9768 116.3491 116.0699 115.7531 115.4830 115.2559 115.0489 114.8905 114.7764 114.7182 114.7060 114.7561 114.8514 114.9811 115.0122 115.6754 115.4004 110.9646 117.2484 113.5030 117.3959 116.7335 117.8066 117.6261 118.1109 118.4074 118.9461 119.0639 119.6721 119.3049 127.4139 124.4765 121.2700 120.7478 121.2529 121.7043 122.1060 124.0229 122.2189 122.9921 123.3691 123.1494 123.3569 123.5814 124.1767 123.4733 130.2387 123.5030 123.5618 123.2647 125.4402 125.1800
120.6500 120.3400 116.3432 107.7633 109.7263 108.4310 108.3297 105.2154 103.0281 102.9062 97.8774 101.0070 118.8592 116.6668 116.5401 116.2759 116.0496 115.8336 115.6837 115.5328 115.4333 115.3754 115.3533 115.4094 115.4810 115.6197 115.7226 117.6041 114.3633 114.5431 108.0887 112.9739 117.3344 117.5484 117.9085 118.2422 118.5520 118.7098 120.3674 119.7079 119.7956 119.0428 109.4992 125.6371 102.0427 113.9304 121.7372 121.7803 122.0472 120.5615 122.6792 122.6135 123.0312 123.2758 123.5297 124.0023 119.6438 123.8899 123.8030 124.9653 116.3305 110.6039 119.8111 125.3400
120.7200 121.4889 112.7526 109.5601 108.2435 109.3523 103.1924 103.8398 104.1274 101.8898 100.6750 119.5016 117.6379 117.2332 117.0161 116.7839 116.5664 116.4345 116.1374 116.1416 116.0646 116.0407 116.2993 115.9958 116.1245 116.2620 116.5092 117.5701 105.3750 105.7188 101.0863 114.6299 118.0211 117.9363 118.2823 118.5515 118.9485 119.2081 119.7132 120.0027 119.5329 120.8409 120.8248 110.0486 108.9616 122.0106 121.3097 121.9880 122.1835 122.5573 122.7711 122.9519 123.1653 123.3366 123.6018 124.7430 113.6174 126.8872 125.0926 124.5415 124.6712 130.3871 109.6519 110.1000
121.0200 120.8092 120.8800 117.2174 110.9637 110.6211 101.9741 108.9188 104.1429 105.3747 113.1026 119.7695 118.0712 117.7581 117.4763 117.2664 117.1517 116.8053 117.4003 115.7512 116.6780 112.3882 111.7574 116.6377 116.3810 116.7739 117.6264 105.2662 115.0561 114.4200 98.2806 107.9109 118.5175 118.2386 118.5750 118.8470 119.1081 116.3435 118.3990 117.6473 121.8112 116.5146 114.8262 112.8599 122.3908 121.9611 121.7871 122.0602 122.3105 122.5519 122.7670 123.0194 123.2463 123.4780 123.6901 123.8803 126.5350 121.5084 116.8222 125.0118 124.5189 129.0962 116.0496 110.6700
121.3700 120.5518 120.4269 118.6231 115.9336 107.8303 113.2178 103.5509 109.7741 107.5384 121.1012 117.7823 118.3803 118.1161 117.9149 117.7293 117.5842 117.7566 109.5884 115.2079 116.4466 99.4920 96.6149 113.2096 117.3662 117.6719 117.0990 104.4464 97.9317 103.4683 99.3232 103.4373 118.7676 118.8337 119.1893 119.0767 120.5955 111.1411 112.9331 121.9577 112.1298 110.0596 108.4516 116.7585 119.6423 121.7092 122.0326 122.2167 122.4685 122.7060 122.9349 123.1599 123.3842 123.6019 123.7870 124.0343 124.3460 118.4374 113.8259 125.7196 124.9797 125.9081 116.7795 110.6700
121.4000 122.0738 122.4016 112.0453 113.8473 116.2476 114.0552 107.2607 121.3422 118.9425 118.9165 118.7899 118.7723 118.5191 118.3360 118.1751 117.9988 118.0692 117.7902 118.8580 119.2165 106.4844 106.7597 114.0401 113.7915 113.8111 117.8237 120.0767 103.3347 103.3440 99.6606 102.4170 115.8059 118.8603 118.6332 121.4636 117.5585 112.0459 110.5501 114.4555 103.8204 107.0602 106.2110 124.2104 122.2036 121.9471 122.1702 122.3992 122.6294 122.8455 123.0743 123.2880 123.5093 123.7174 123.9321 124.1500 124.4116 126.0349 126.0559 124.9605 125.3964 124.6683 116.9621 133.8100
121.7300 114.5696 109.6739 108.8965 109.4736 120.8217 122.2939 112.2231 120.1445 119.7358 119.5138 119.2929 119.1008 118.9197 118.7449 118.5792 118.6642 118.3962 103.3522 117.5380 118.5766 121.1344 120.2825 118.6922 118.2351 117.6806 115.1040 115.4950 101.4149 106.2790 106.5728 107.0004 120.1975 119.3495 118.6962 127.8478 109.3847 122.5525 117.3275 121.4948 121.2006 107.8333 108.9586 122.0380 121.5966 122.1369 122.3391 122.5693 122.7828 123.0017 123.2220 123.4305 123.6418 123.8462 124.0504 124.2434 124.4084 124.4652 124.5425 124.7955 125.0752 125.1158 128.9311 125.6400
121.9900 109.1774 108.1473 108.2642 111.5848 115.9168 119.2599 120.8413 119.9175 120.0757 119.8452 119.6678 119.4349 119.3544 119.1630 118.9745 118.9841 119.6478 106.0001 117.8798 118.6150 108.3564 110.6325 119.6813 118.2635 118.0649 116.1247 113.6932 104.4669 102.6967 111.8042 108.2312 120.1315 120.3397 111.7129 110.9667 114.2154 103.8513 120.5603 121.0036 120.4417 106.8068 116.5374 117.8830 122.5128 122.3027 122.5132 122.7330 122.9435 123.1591 123.3639 123.5745 123.7757 123.9731 124.1787 124.3910 124.5809 124.7715 124.9382 125.1513 125.4747 126.5804 109.8968 113.7900
110.6600 114.5360 121.0881 119.7948 119.6561 120.0519 120.1694 120.6530 120.4746 120.3857 120.1402 120.1664 118.5876 119.3143 119.1989 119.1620 119.3173 119.2149 119.5295 119.1131 118.2810 102.9502 107.2070 124.8100 131.3534 116.9691 118.8813 99.4310 112.0524 111.0390 122.1604 113.6992 120.1558 119.5430 120.4011 117.8299 121.7757 118.2915 122.3036 121.3073 120.7799 126.0494 105.7846 122.2867 121.9496 122.5070 122.6990 122.9077 123.1137 123.3118 123.5173 123.7087 123.9123 124.0981 124.3100 124.4420 124.5903 124.8649 125.0267 125.6263 114.6718 126.7609 123.1936 110.9300
122.3300 121.5707 122.0641 121.9723 121.5210 121.5396 121.3314 121.0189 120.8235 120.6405 120.4697 119.0360 128.7555 118.6410 119.4551 120.8974 119.6423 119.5005 119.3704 119.5603 112.4508 102.8878 102.7818 105.4665 110.4534 121.3009 110.6007 101.3936 121.2646 110.8818 118.2038 120.4243 120.2244 120.4290 120.7076 120.7744 121.0222 121.0776 121.2150 121.1127 125.0734 116.6349 101.1033 120.6658 122.6562 122.6468 122.9014 123.0806 123.2771 123.4738 123.6697 123.8568 124.0499 124.2352 124.3588 125.0508 124.7587 125.0627 125.2431 125.0010 123.9828 115.5276 110.2934 121.3600
122.3500 122.4127 122.1147 122.0742 121.7683 121.6689 121.4288 121.2949 121.0991 120.9401 120.7927 119.6575 129.8521 120.6235 109.2042 119.9185 119.8409 119.9932 119.4849 119.3007 98.4480 110.3218 107.5930 99.8543 104.4610 115.8557 108.6699 108.6691 120.4331 120.2389 120.8652 120.3390 120.3129 124.1069 120.2646 121.0073 121.3800 121.7373 123.0996 121.5105 121.8580 122.1164 112.5312 103.8949 118.3030 123.2844 123.0549 123.2471 123.4439 123.6313 123.8210 124.0078 124.1862 124.4248 124.3508 124.4478 115.5446 126.0250 125.2237 125.3879 126.1828 127.0678 107.8411 110.8600
122.6500 122.5317 122.4168 122.2208 122.0324 121.8752 121.6995 121.5513 121.3815 121.2285 121.1029 121.0893 119.7479 121.3670 122.8258 122.5638 120.2640 120.2405 120.6857 121.4360 114.1259 109.1568 112.4444 120.5083 117.0240 105.5364 125.5198 107.6171 120.3315 120.3253 120.5009 120.8448 120.2606 124.9762 121.2266 121.2382 121.4538 115.5265 103.6977 121.4300 122.1542 122.6413 111.2170 124.0775 124.9663 122.7964 123.2921 123.4227 123.6108 123.7889 123.9766 124.1488 124.3285 124.5079 124.6493 125.3863 124.9098 125.0442 125.3379 125.4607 125.9949 124.7100 127.0484 128.2900
122.9000 122.8763 122.6053 122.4542 122.2848 122.1255 121.9622 121.8085 121.6555 121.5233 121.3529 120.9607 122.2451 120.2356 104.5481 123.1477 115.3978 118.3482 113.5890 119.9575 107.1117 121.4056 120.4000 121.9624 104.7755 101.9835 108.7267 103.2839 121.3984 120.3157 121.0106 121.1520 121.0910 109.7723 114.6716 121.5032 121.8051 122.6961 110.9865 121.3442 122.6240 123.0241 123.8140 118.6706 123.1854 123.2558 123.4127 123.6018 123.7806 123.9538 124.1265 124.3053 124.4752 124.6458 124.8408 124.8739 125.0537 125.3636 125.6032 122.7098 121.5753 124.3687 129.3630 116.2900
119.5300 122.9889 122.8339 122.6775 122.5133 122.3673 122.2175 122.0701 121.9294 121.7844 121.6657 121.4250 120.2984 96.3994 100.6098 102.0043 100.9828 104.3403 121.7039 119.8721 110.8141 120.7722 120.7072 122.6542 104.5330 110.0210 119.9976 113.5831 120.1955 121.0097 121.3011 121.3764 121.4265 121.1656 123.7139 121.5841 122.1449 123.0577 114.6362 121.6464 122.4515 122.7909 123.1225 123.0395 123.4327 123.4096 123.6066 123.7784 123.9449 124.1162 124.2814 124.4462 124.6150 124.7852 124.9553 125.1156 125.3066 125.3556 126.9259 113.0547 108.4640 122.7286 121.5328 112.1200
119.5300 123.0500 122.9000 122.7400 122.7400 122.5800 122.4500 122.2400 122.0900 121.9500 121.7600 121.7800 121.5900 99.4100 121.4600 101.7900 99.2700 108.6100 121.0600 121.0800 121.0900 121.1100 121.1100 121.1000 121.0900 103.3100 121.3000 121.3000 121.2300 121.4400 121.4000 121.6400 121.6000 121.7600 121.9300 122.0900 122.2900 122.2600 122.4300 122.5800 122.7500 122.8900 123.0600 123.2000 123.3400 123.5000 123.6500 123.9500 124.0900 124.2300 124.3600 124.5100 124.6500 124.9200 125.0400 125.1800 125.3100 125.5700 125.6900 110.8100 115.4900 119.4700 113.0900 112.1200
