119.99 106.08 117.62 119.22 118.67 118.44 118.09 117.79 117.15 116.82 116.53 116.11 115.75 115.44 115.03 108.99 114.26 113.68 113.81 113.28 113.35 113.4 112.68 113.39 113.33 113.25 113.77 114.22 114.13 114.59 114.97 115.84 115.84 116.12 110.38 101.16 117.48 117.79 118.4 118.71 118.96 119.23 113.35 113.28 120.24 120.71 113.25 121.37 121.59 121.79 122.19 115.06 111.12 100.94 101.12 101.46 101.63 111.94 116.61 102.28 115.09 102.73 118.22 120.29
119.97 114.5585 118.602 118.9504 118.6679 118.2876 117.8808 117.4919 117.0848 116.4641 117.2629 111.6572 115.7786 116.2231 114.8454 111.1816 112.5548 113.3832 113.0874 112.8312 112.6552 112.5526 112.533 112.6005 112.9536 112.9262 113.0313 112.8912 114.7045 123.6825 110.6296 108.5296 98.2521 100.6396 94.8115 102.6689 110.1316 107.333 104.9681 116.3005 113.3829 115.03 111.225 116.1146 120.4434 113.5002 116.8528 116.0125 116.5319 114.4746 114.3288 110.8668 108.2642 106.2054 100.9 103.8372 112.5043 104.6023 111.9762 109.1109 110.8347 104.7741 116.9672 120.29
119.93 120.2721 119.6128 118.8231 118.4395 118.0468 117.6142 117.2026 116.7867 116.181 115.2972 103.8759 116.2351 106.2147 114.5063 113.7872 113.2645 112.5939 112.2719 111.9676 111.7501 111.627 111.5382 112.023 112.9445 106.4775 112.2932 113.1957 113.7819 99.5663 91.435 103.5599 92.2927 106.5803 105.9782 96.9352 100.0632 98.2738 96.5063 116.7171 108.2817 115.9587 117.1331 120.7843 121.5283 114.3525 112.7934 102.032 104.7012 106.8587 110.3668 111.9425 112.502 113.9881 101.5417 104.9036 109.3941 101.3179 105.2654 106.5707 109.4022 113.4289 124.6775 128.91
119.55 119.3392 118.9755 118.6627 118.1922 117.7361 117.4165 116.9249 116.4637 116.0218 115.1105 112.3758 113.1593 95.5822 112.3536 112.7437 112.3097 111.8343 111.3893 111.0201 110.7512 110.5899 110.608 110.0795 109.4845 108.4207 111.6158 112.1462 108.7264 89.8486 95.2111 98.6538 92.5596 97.1609 113.0213 107.0671 103.0624 99.0843 99.2012 112.7494 111.0458 121.0075 109.8601 119.0614 111.0364 104.6779 98.4536 100.9996 106.3333 110.833 110.879 111.9201 112.7452 114.0104 106.4011 100.3205 100.5329 101.6945 101.5662 102.0154 106.2992 119.5401 120.9365 118.69
119.49 119.2664 118.8943 118.2346 117.9292 117.7738 117.1769 116.6454 116.1364 115.5868 115.0253 114.9514 112.8474 97.269 113.3381 111.8956 111.5959 110.9661 110.4246 109.9632 109.6193 109.4315 109.6381 105.6121 106.5296 110.459 111.1507 108.2908 104.08 112.5894 101.5606 91.951 91.1937 112.4473 115.5905 114.664 100.5967 107.1268 114.1856 113.5575 114.3798 120.3619 103.8389 112.8043 107.5611 96.4997 99.4483 108.5134 106.7311 107.7617 109.9848 101.5577 112.3329 112.7662 106.4844 108.3741 114.3227 104.2476 102.0412 102.5799 104.0689 118.8721 122.2992 124.17
119.44 119.1044 118.9047 118.5577 112.725 120.0992 116.3381 116.524 115.9023 115.4077 114.8991 114.1435 113.9581 113.6408 112.338 111.4398 110.7509 110.046 109.3799 108.7923 108.3377 108.0742 108.2114 108.9971 108.4722 109.1564 109.6512 110.8181 113.0857 102.9379 112.1781 98.7641 98.2561 113.4478 112.3005 95.4538 92.0689 119.3971 118.7183 107.9196 111.8424 99.4879 102.5705 107.7285 102.3587 103.5443 105.8916 106.9421 107.4855 105.7135 114.8927 99.4121 105.2447 111.5597 111.5912 114.0873 119.7498 109.9921 102.7917 100.2246 118.8558 122.0063 123.9034 124.38
119.12 118.9129 118.7423 116.0841 117.9331 117.3907 116.5975 116.2272 115.8874 111.9923 114.4923 113.6902 113.0755 112.3427 111.5469 110.7885 109.9285 109.0739 108.2334 107.4678 106.8494 106.4654 106.3174 106.541 107.5695 108.0763 108.8005 109.6882 110.6028 110.8611 113.3476 110.4312 133.5416 117.3866 105.9024 98.8552 118.2708 105.3423 109.537 116.6545 114.5338 97.0237 97.9897 100.4843 104.0124 104.4201 106.1038 108.4082 110.0586 99.3072 109.8973 115.5887 110.6342 118.7344 101.8485 117.5252 120.2441 99.8408 101.9929 108.1818 121.5799 122.5863 123.1838 123.59
119.08 118.8189 119.0665 117.927 117.5262 117.0557 116.5306 116.0124 115.3915 114.9315 114.4294 113.1046 112.4921 111.8151 111.0177 110.0895 109.1178 108.0498 106.9987 105.9608 105.0805 104.5146 104.437 104.8864 105.4023 100.2065 108.0227 108.6567 109.8843 110.8254 111.7431 112.6015 108.7393 138.069 99.2749 103.5284 104.2088 105.8811 105.2014 109.9893 117.8855 107.7889 100.0554 101.6764 104.3339 104.3341 104.0644 105.8424 105.3606 114.1823 114.5479 115.2015 115.8803 109.4692 106.4841 100.6229 101.0664 101.9225 104.9928 121.9738 126.5683 125.6998 122.79 115.11
119.05 118.82 118.3624 117.8924 117.4543 116.9616 116.4093 115.8451 115.2444 114.5036 114.8493 99.6989 97.3339 110.3977 109.8627 109.5216 108.2836 107.0446 105.6982 104.2949 102.9134 101.9833 101.8251 102.5163 103.8882 105.404 106.4215 107.8934 107.6999 109.9609 110.4159 112.1922 98.0335 116.3026 103.3051 98.6498 96.9128 97.774 101.0089 117.7722 100.8262 100.6132 96.6186 110.1428 109.0264 115.9523 98.3946 99.7263 115.7613 114.7795 113.2145 114.4835 97.9262 100.2867 100.9971 112.9619 106.8406 106.8932 106.3983 108.4268 121.4982 104.9288 111.5085 102.89
119.02 118.7497 118.304 117.8575 117.3607 116.8456 116.3049 115.7231 115.0926 114.3748 114.1694 103.0261 93.0041 111.4143 109.4168 107.6412 107.4613 106.1354 104.2617 102.2552 100.354 98.5669 98.18 99.6611 101.5669 103.7044 105.5662 107.5803 100.0687 110.5403 99.0759 111.1398 108.7226 97.0047 118.0206 95.9434 98.5328 101.2004 106.3271 104.7248 100.9224 98.5574 97.9064 109.4296 111.0174 110.7221 113.8394 113.8375 114.5499 115.2209 112.0479 107.8712 101.4168 102.1109 104.5297 111.9338 106.8415 107.1954 106.1442 105.8277 104.9052 107.3311 108.333 113.68
119.0 118.7007 118.2553 117.7867 117.2952 116.7755 116.2215 115.6305 114.9957 114.3111 113.5268 113.4019 111.7202 111.752 107.5702 109.1114 106.8678 105.2815 103.5045 104.285 97.1695 92.5939 91.8165 95.3588 99.4508 102.3129 104.6546 106.4488 108.4601 109.138 111.1395 111.1483 97.9012 117.6159 102.3402 100.2781 100.8943 105.4477 116.5431 105.2989 99.5972 103.169 105.1188 102.6389 109.6707 107.6243 111.9714 112.8617 114.3174 107.2229 111.3858 104.4552 101.9165 105.1443 109.7946 104.328 106.057 107.5693 112.9482 111.9077 112.3254 112.3093 111.8671 109.55
118.98 118.6882 118.2507 117.7588 117.2622 116.7382 116.1731 115.576 114.9314 114.2351 113.4956 112.5137 111.7035 110.6839 109.8257 108.3784 106.6223 104.7674 102.478 90.7766 93.0777 86.872 86.1839 90.6103 97.5409 101.3307 104.0222 105.9841 107.6354 108.9003 110.0108 98.8081 120.2916 113.2794 102.8329 101.2748 101.9396 103.4039 108.7607 107.7769 110.266 110.7282 111.9911 105.6233 112.4044 112.5652 112.937 113.8186 114.9968 108.6776 112.9728 98.2778 99.9551 97.3837 110.4421 100.0665 103.9185 107.3081 123.3897 123.7724 123.3622 124.5838 123.4783 122.59
118.98 118.5598 118.1374 117.7473 117.2531 116.7314 116.1668 115.5642 114.9254 114.2274 113.4308 112.6774 111.7531 110.6834 109.4595 108.1772 106.6141 104.6697 102.1745 99.6755 92.5055 85.4259 84.2725 89.1503 97.0608 101.1096 103.9061 105.9366 107.6255 110.1779 112.5763 116.3465 121.0845 100.7479 102.2559 101.7272 103.1312 105.2814 107.9112 100.027 113.5496 112.2479 112.244 113.234 113.1039 113.6628 113.8699 114.5983 115.7411 106.9641 116.3721 97.0009 99.5314 109.3104 99.4509 100.2589 103.8062 107.0021 122.3967 122.0088 122.8107 123.1498 118.7338 110.97
118.98 119.2604 118.5511 117.762 117.2723 116.7557 116.1924 115.5972 114.953 114.2556 113.6998 112.7971 111.7825 110.7964 109.6596 108.3381 106.8087 104.9775 102.5183 99.3291 95.1313 89.3201 88.4461 92.6654 98.3563 101.7156 104.0994 106.1528 107.5026 109.8456 95.7011 95.6404 108.4256 114.8112 102.9347 101.5927 99.3297 106.9685 116.1991 100.5916 103.9923 102.4164 104.4952 106.8465 109.0149 109.0889 114.198 114.633 115.1763 114.9692 116.5968 109.604 106.2891 100.444 102.7722 114.1292 102.9181 106.8355 122.4536 122.4863 122.8476 123.4802 117.7574 109.8
118.99 114.2924 118.7763 117.7554 117.3235 116.8069 116.2488 115.6657 115.0405 114.4451 112.1802 112.9792 111.924 110.9758 109.8954 108.6783 107.2684 105.6343 103.7007 101.3484 98.4709 95.5086 94.9436 97.5802 100.411 102.8362 105.3652 107.3759 103.4417 116.5703 94.1671 99.2595 100.8197 106.9603 101.9117 103.0535 103.9693 111.8885 106.053 105.8272 97.6908 110.249 102.5899 103.6608 104.9714 106.3001 113.806 114.0033 115.9546 112.2906 113.2725 117.8555 116.5853 114.2564 98.4036 112.7565 103.0642 105.797 121.8518 122.4371 122.9078 123.74 118.7676 112.44
119.01 117.4387 118.3554 117.8884 117.3949 116.889 116.3516 115.761 115.1531 114.5404 113.4023 113.0497 112.1971 111.283 110.2729 109.1607 107.9101 106.5111 104.956 103.264 101.5411 100.3017 100.0437 101.0265 102.6321 104.0494 100.8394 101.5433 102.0184 106.9076 91.4472 92.9832 95.5403 97.7213 105.2059 103.063 106.0455 116.1782 102.1045 101.3232 98.1147 101.6582 102.7232 112.4629 112.2029 113.3525 114.9456 115.4249 117.9095 101.2496 105.9496 117.0125 112.6203 114.686 112.9695 119.6652 100.0425 114.096 119.9291 121.7747 122.4074 121.6806 107.4129 102.88
119.04 118.9729 118.4224 117.9759 117.4959 117.005 116.465 115.9572 115.3657 114.7029 114.0534 113.292 112.5212 111.6693 110.7446 109.7531 108.6674 107.4996 106.2917 105.048 103.9569 103.1983 103.0852 103.6349 104.7356 105.7466 107.7438 109.1495 108.006 113.736 89.9207 89.895 96.4017 95.8086 96.865 102.6866 114.7415 112.1604 97.7359 100.5638 98.8268 112.8357 102.4813 111.0675 113.8259 114.3563 115.2854 116.1308 111.1149 108.5046 99.2703 99.9751 100.4108 101.8124 100.5523 101.8149 102.0615 116.2292 105.5356 125.3008 123.1451 121.5184 113.7951 102.88
119.07 118.937 118.521 118.0887 117.6369 117.1318 116.7747 115.0114 115.6369 114.9064 114.2863 113.582 112.8733 112.0935 111.2992 110.3941 109.4842 108.5293 107.5784 106.6602 105.8655 105.444 105.3705 105.7099 106.2552 108.5661 102.6639 104.6712 109.9151 108.8993 96.4957 121.5111 96.7751 95.4562 102.2179 100.8876 114.6542 101.5046 99.8876 101.3867 102.9564 111.7607 102.0692 109.4714 113.8724 114.6985 114.8508 116.391 112.1054 99.1564 99.6723 99.9772 100.4815 99.5177 119.3465 105.7425 102.6567 112.6876 106.9987 121.8622 121.9782 121.8294 115.5999 118.34
119.39 119.0514 118.6474 118.2219 117.7484 117.5056 116.7035 116.839 115.5667 115.1855 114.5995 113.9789 112.7401 112.6084 111.7902 111.0839 110.3031 109.4264 106.1366 108.3021 107.5249 107.2187 107.1682 107.4039 107.8988 107.8121 102.0947 103.8003 96.5887 111.7301 113.2838 98.7817 102.5531 102.4322 98.6469 103.3182 100.309 100.4151 98.1689 102.1595 103.3486 103.3467 105.5135 110.1696 113.6256 115.3649 105.2932 110.5985 113.2977 112.6441 98.3978 99.8745 99.8729 100.5769 100.2604 100.8372 105.0449 111.3753 119.9036 119.6933 115.324 115.0925 119.147 124.24
119.43 119.1781 118.7815 118.3668 118.0628 114.7168 118.0325 115.4108 114.4661 115.4759 114.9026 114.8356 108.3604 112.5632 109.2673 111.9542 110.9378 111.0696 107.9163 109.1113 108.9315 108.6992 108.6614 108.8338 109.1722 110.123 108.7894 102.7981 92.3064 104.8267 101.3385 103.7193 100.2598 99.6019 103.9891 102.0149 102.6932 107.4283 97.9934 103.2167 107.3141 106.4006 107.2921 107.5301 107.0751 109.3676 114.1052 126.5923 101.3045 101.589 102.312 98.6888 104.4731 101.0023 102.8355 103.3332 117.8494 104.4271 102.765 112.8457 116.7853 112.1142 119.8313 120.01
119.48 119.3216 118.9474 118.2305 118.9365 100.3765 122.2913 118.9446 116.6543 115.7812 115.2925 114.7419 114.1939 115.1548 102.1295 111.5971 111.6498 111.8498 111.0 110.544 110.1624 109.9774 109.9355 110.0796 110.3569 110.8594 111.3231 92.3852 94.9052 91.0041 89.7775 99.0661 100.1949 96.9408 103.7825 108.2931 105.5297 104.8692 107.7258 104.9752 110.0045 109.5022 109.6794 110.2189 109.7403 110.301 109.8214 107.5485 110.7396 110.5802 113.6392 103.5376 120.2632 101.2338 104.4649 104.9124 103.9603 104.4139 106.0593 117.4106 117.1066 119.4299 119.2222 114.8
119.84 119.4811 119.0839 118.6689 120.4289 107.7058 117.924 116.4867 116.5245 116.1397 115.6606 115.1202 114.5295 113.3167 108.9223 114.5911 112.7272 112.2051 111.7718 111.2864 110.9603 111.0363 111.0609 111.0583 111.207 111.9622 109.2683 93.5746 101.1735 104.9091 94.5539 94.9564 99.2584 103.3202 103.3062 104.8798 96.148 111.2149 102.0886 106.8934 111.5781 110.0604 109.6975 111.6945 111.5603 115.8411 112.1084 110.8705 109.0437 100.9113 111.7203 110.4486 111.5153 97.4544 102.3244 103.6919 104.8537 106.6626 105.0087 111.8901 114.914 115.6621 118.3344 114.83
119.84 119.6401 119.2739 118.9763 118.3805 118.5702 117.8664 117.5157 116.9225 116.477 116.0294 115.5793 115.1474 114.7382 114.6909 113.888 113.4828 112.8915 112.7638 113.2696 113.4918 112.0246 111.7374 112.421 113.1154 111.3238 114.1244 101.5738 115.9697 114.2936 115.3541 97.7015 99.5295 102.9708 101.7247 96.6219 96.4993 109.423 110.7088 110.6975 110.3568 111.1867 110.1216 109.6364 111.5187 111.3135 112.2453 112.4277 113.0264 114.0033 109.8112 112.8381 102.5096 105.6844 102.4977 99.765 100.124 101.2865 113.3734 117.1915 121.3971 122.757 108.1914 117.91
120.21 119.8151 119.4737 119.1432 118.6462 118.2095 117.9046 117.6225 117.231 116.8326 116.421 116.0023 115.6006 115.096 114.8217 114.3634 114.0126 113.6873 114.5474 95.9963 113.9998 112.4046 113.7879 114.5335 105.2226 113.9407 115.3758 112.6722 114.4736 114.3546 115.4203 110.703 99.8116 101.4915 104.4379 106.4708 103.4642 102.4671 105.1918 107.3705 110.4962 111.6072 111.1331 110.7716 112.4595 112.7207 112.4757 112.6415 114.4937 115.092 111.6999 116.42 115.1798 115.7609 112.2559 108.4817 108.5638 109.4037 119.669 123.5524 120.7281 122.0083 123.6589 127.6
120.28 119.9982 119.6721 119.3332 119.0067 118.6698 118.2935 117.8963 117.4847 117.1804 116.7303 116.4362 116.0411 115.6829 115.4586 115.4374 114.7108 114.3374 115.8367 113.4658 112.963 103.3162 102.1746 101.3288 107.1838 107.2143 101.9063 115.3287 114.7185 115.7639 113.9543 118.4244 108.2817 103.4018 103.288 98.4983 99.5226 108.9659 107.6322 108.828 110.7781 111.6728 112.5334 112.519 112.8469 112.0603 112.3652 112.8013 113.5599 113.3859 114.9978 116.6364 118.3675 116.188 117.351 117.2269 119.1011 114.8397 114.4374 118.3416 117.402 119.9294 123.9517 121.66
120.3 120.191 119.8784 119.5551 119.2307 118.9032 118.5383 118.437 118.2108 117.4271 117.4402 116.7925 116.5143 116.1132 114.9154 115.6493 114.7242 115.132 114.3185 114.6183 110.6914 96.7001 92.1717 103.4175 99.7911 101.3039 111.1905 116.163 115.4875 115.5586 113.492 123.0062 118.6933 101.0124 99.8347 111.1597 108.4274 105.5102 113.0389 108.4823 111.1589 110.3548 112.3007 113.1141 113.8541 113.5868 113.3175 113.0124 113.6512 114.6175 119.374 114.6344 108.6668 117.6903 118.8686 118.7015 118.6526 108.4646 118.6374 120.3142 121.0348 120.6522 120.8363 121.23
120.65 120.3886 120.0902 119.7873 119.4733 119.1637 119.0181 116.344 117.706 113.5764 116.7853 117.3342 116.9176 116.6638 116.129 119.7377 115.3639 119.1795 115.3873 115.3052 115.3881 96.9013 102.0153 112.7935 109.75170306322121 103.4292 118.6068 115.0491 116.1169 116.3923 116.4317 116.6273 117.0683 116.6559 108.824 108.2443 108.4029 106.0825 107.9475 113.1354 97.1492 113.2795 111.6978 113.2676 115.6065 114.6231 115.1273 115.8986 114.2683 117.8905 116.4382 103.9731 116.5922 117.0204 117.7119 117.3686 119.5523 117.6555 119.9076 120.5105 121.0293 119.8741 120.2915 122.1
120.72 120.5941 120.3084 120.0208 119.7301 119.436 119.1417 118.4771 118.4667 117.9641 117.244 117.684 117.3519 117.123 116.8942 116.1989 116.1982 116.0357 115.8618 115.8281 117.6305 95.0653 92.3525 117.6147 97.6667 111.1893 115.5788 116.1726 116.5795 110.3132 117.781 117.1217 117.3847 117.5054 114.1095 96.7413 103.5715 106.0052 108.0134 110.4396 113.1595 112.3846 112.8993 111.9271 113.6898 116.7996 115.5209 115.4999 116.5497 116.7291 99.6955 99.7433 118.0828 117.2442 117.3431 117.5726 118.7419 119.1659 119.6814 120.5026 120.6204 120.6999 121.2475 121.69
121.01 120.802 120.5297 120.2569 119.9816 119.6993 119.4113 119.146 118.7237 118.8348 117.7737 118.0687 117.8049 117.5399 117.3053 117.12 116.6815 116.8911 117.33 116.7986 118.1664 99.5836 104.3553 116.5464 97.5679 120.9278 118.0211 116.4519 117.0229 117.3163 117.5223 117.6478 118.1691 118.5234 111.7106 104.7028 108.5468 106.3338 107.4766 105.7146 107.3025 116.2614 114.5391 114.1633 114.6463 109.7583 110.5156 114.1343 116.0651 110.1026 102.3862 103.8149 108.8621 116.0216 117.0412 118.3929 117.9 118.3597 120.0159 120.6007 120.8474 121.009 122.2818 122.17
121.09 121.0137 120.7496 120.4888 120.2275 119.9621 119.7022 119.432 119.303 118.9239 118.9288 118.1797 117.9664 117.9868 117.7616 117.5638 117.4763 113.0442 106.1483 114.2675 118.5345 99.1321 99.1455 100.6988 99.5682 120.7542 99.9125 117.2136 117.5115 117.5958 117.8445 118.1672 118.2092 119.1803 116.6493 116.7446 99.3655 107.3687 107.7709 107.4558 106.9292 107.3626 116.8109 117.4133 112.6308 113.3757 110.8142 107.001 97.6483 113.9825 116.7936 107.6026 100.2807 111.1313 115.1532 117.2796 119.3191 119.2076 117.1248 120.1092 120.3935 121.5539 122.009 122.22
121.37 121.2257 120.9798 120.7349 120.4796 120.2395 119.9717 119.7668 119.3399 118.4464 118.2376 118.6718 119.1903 118.2075 118.1954 118.0384 117.7225 117.0196 99.0517 99.4474 111.4477 102.0519 100.6621 99.8938 120.6323 118.9511 98.4341 120.4322 117.9855 118.1365 118.2372 118.5465 118.767 118.9784 101.3303 97.5396 120.438 109.21 108.612 109.4854 109.304 111.847 109.2017 116.3811 100.5519 99.0559 97.361 99.5889 100.4487 99.1005 97.2277 113.4972 119.8724 108.629 103.6502 116.164 118.2995 118.0675 114.9174 117.9814 120.7616 123.3031 121.0276 122.63
121.45 121.4371 121.2078 120.9454 120.7179 120.4476 120.3288 120.1746 120.0075 121.3662 113.8626 113.0239 117.5872 118.8813 118.6145 118.4432 118.1613 118.9826 105.4649 100.6608 109.171 100.4051 100.0918 99.9861 115.833 118.8927 117.8941 119.2288 118.3161 118.0849 119.3473 119.3329 118.5474 118.7153 105.3154 112.2455 121.1012 115.4136 110.9444 111.5007 113.8917 114.324 116.5911 104.702 101.1238 101.8095 107.6917 100.7848 100.536 103.4491 101.0996 104.9895 110.6009 116.6563 116.3781 117.3852 117.552 118.3968 118.7612 122.4802 120.3537 113.6518 117.1187 121.68
121.73 121.6491 121.42 121.286 121.3136 121.055 120.4061 120.5302 121.3628 110.9991 105.071 111.9572 120.545 119.1722 118.845 118.9374 118.6147 118.8262 115.2407 112.088 100.336 101.7429 100.4497 101.5484 100.5554 108.6406 119.3565 120.3648 116.3686 119.332 112.4804 121.3217 100.4185 109.4461 102.8034 102.9223 122.4154 124.7311 122.2948 113.2969 114.0739 114.8993 109.0174 105.868 98.7886 106.9373 122.6964 102.0055 103.659 104.9186 118.9172 100.4631 100.4434 106.1574 115.394 119.057 117.9883 120.2313 115.9279 121.512 121.5875 101.7982 116.7248 121.95
122.07 121.8662 121.6168 122.1446 121.0345 121.4959 119.0804 120.8669 111.7585 99.8216 98.825 107.567 119.8537 119.5236 118.9796 117.1801 117.2407 115.1322 110.1295 108.6875 104.1358 102.1441 103.8199 103.4022 106.5226 103.9122 120.1474 119.2467 119.1021 122.9097 99.4035 93.7441 100.1187 100.202 109.9137 107.4451 120.0918 108.1035 121.5499 118.3482 116.2679 105.3289 100.7025 107.857 119.3789 102.7379 105.9555 101.1881 101.9243 100.7203 98.403 100.9937 100.7842 101.4667 100.6818 109.6367 124.2645 120.9995 120.3721 121.2615 120.1233 103.333 123.6546 121.95
122.32 121.9888 122.0744 122.0905 110.2329 120.9278 121.3966 121.0578 119.4849 113.8901 116.5803 121.7114 120.0369 120.0853 118.7613 115.7859 109.1816 96.3685 102.3403 102.6174 97.6188 102.8369 102.5789 106.9632 121.4356 116.2776 119.7837 119.0605 119.6844 122.4858 100.7576 109.0266 113.7084 104.5151 112.2511 118.4143 125.8913 121.0529 121.3002 121.5813 119.222 103.5909 97.5358 96.5155 115.7036 117.582 100.9242 100.3578 101.2491 101.7044 102.7253 103.0467 112.6273 117.7897 114.1909 103.5218 104.5053 123.5625 119.2832 120.859 121.8905 125.5381 124.2049 122.13
122.36 122.5567 120.1476 119.0512 123.6961 121.6312 121.3234 121.1135 120.9832 120.985 121.2 120.3833 120.3672 120.0527 121.8044 107.0975 115.9535 107.9946 102.2929 115.5671 114.0141 105.2449 105.9986 106.73 120.103 119.6047 120.1625 120.0289 119.5629 117.2843 118.5272 120.6716 121.9512 121.1311 115.2817 99.9112 121.539 121.2957 121.4769 121.6532 122.267 120.6613 100.1956 117.135 108.3789 107.3179 112.8805 101.1038 101.5295 102.3477 102.0854 102.959 108.4403 117.4861 121.4371 118.9791 124.6855 126.655 106.0572 120.7435 119.9785 121.4377 121.419 121.63
122.65 122.2056 119.9221 119.8782 121.9771 121.5981 121.6119 121.4649 121.2936 121.1195 120.9046 120.87 120.6888 120.5521 119.5041 106.707 122.325 122.242 118.8327 120.8156 115.2326 109.1623 109.0676 109.202 121.4455 119.6573 116.1958 109.8853 119.6648 117.9557 114.1095 123.0712 120.2238 120.9358 119.9307 121.3453 121.8292 121.5636 121.7243 121.9338 121.6991 123.522 100.1984 109.8898 108.0501 112.1873 107.4051 100.208 102.3447 102.8054 103.0209 103.0893 103.9986 104.4598 105.9591 112.5329 125.3744 120.9774 122.5476 124.7223 125.2301 120.8656 121.1317 122.9
122.89 104.3453 123.0816 132.1601 122.1736 122.0704 121.8779 121.7067 121.554 121.4112 121.2703 121.1409 121.0029 120.6721 121.3178 121.8972 120.3341 118.386 107.9567 120.4072 116.1023 109.192 109.2143 110.2059 114.9333 110.8513 108.9621 98.446 111.2492 115.5356 102.8428 120.8621 121.1308 121.2422 121.3864 121.3617 121.6802 121.8495 121.9493 122.1429 122.1857 123.1546 122.0601 116.1518 102.1294 101.9934 101.0181 101.6462 102.376 103.1667 103.4648 104.0941 103.9599 111.2455 112.5036 106.9986 122.576 124.3628 127.3446 126.0724 127.1792 119.4769 119.5051 121.92
122.93 120.9835 123.1313 121.8629 122.1424 122.2382 122.2436 121.9841 121.8345 121.6842 121.5604 121.4284 121.3113 121.2603 121.0213 120.8403 120.9517 121.621 121.5569 120.7665 116.6177 109.0964 108.6418 112.1682 96.5681 114.7578 117.8107 120.1523 121.5492 107.4167 123.317 121.8782 121.1842 121.5168 121.651 121.7919 122.026 121.8975 122.1797 122.3774 122.5478 122.1872 123.1047 111.4228 103.1679 103.5466 100.9476 104.8677 103.664 105.5349 103.2938 103.9577 119.2769 105.7078 122.3515 112.3084 118.9912 121.9994 124.053 127.744 128.9413 127.4512 127.6839 127.25
123.21 122.9178 123.1367 122.6662 122.8423 121.437 122.8127 122.0258 122.105 121.9641 121.8255 121.7167 121.6127 121.4287 121.4392 121.3957 121.2487 121.0079 121.1253 121.1115 116.1746 118.4252 118.2564 112.1222 113.783 122.8872 112.0506 120.9043 121.5086 115.2134 121.2366 121.494 121.9584 121.6536 121.9301 122.0891 121.5601 123.0023 122.2251 122.5125 122.5704 123.3424 115.1423 109.4782 124.8553 112.1484 100.5859 106.1148 104.8258 100.1847 104.3281 110.7131 126.4792 109.1005 117.3422 120.7307 121.6439 105.5296 119.2444 123.1418 124.6909 121.6439 124.8118 127.02
123.43 123.3694 123.2353 122.9876 123.1156 107.9764 122.8248 122.3852 122.3496 122.208 122.1578 121.9566 121.9492 122.2747 121.7633 121.6236 121.6046 121.5112 121.0647 121.5731 116.6582 120.5988 118.3726 111.6738 114.2496 121.8166 122.5841 121.7174 121.4991 122.446 121.7745 117.4908 119.824 121.9788 122.1984 122.3271 122.5058 119.3801 99.2274 122.8551 123.0116 122.2745 120.3966 103.2796 102.945 123.3148 105.7569 104.9063 104.4202 103.8638 104.1449 119.4462 103.3392 105.2606 115.2092 124.6463 124.336 110.3214 115.8949 124.9009 122.3225 127.7889 103.6308 130.03
123.73 123.5481 123.3713 123.1268 124.1493 116.5683 122.7999 122.5868 122.645 122.5091 122.3363 122.4966 120.0959 112.0883 122.1092 121.9614 121.8596 121.9107 118.5791 117.17 118.4625 112.0393 112.8687 113.6474 114.1275 122.6528 121.7263 121.8256 122.0045 122.2561 120.9559 122.6762 122.5023 122.2718 122.4694 122.5629 122.8277 123.0291 123.4553 123.9318 119.2702 111.3248 103.396 103.8833 107.3407 100.0808 119.6023 103.5462 102.2154 107.1722 106.6735 105.1189 103.9629 114.1638 125.1825 125.9364 121.1524 121.2921 123.7866 125.4543 123.8936 125.4866 111.3661 130.77
123.73 123.7417 123.6263 123.4912 124.0318 123.321 123.3204 124.0303 122.7294 122.9912 122.1118 123.1348 103.0711 118.7689 123.1213 122.2045 122.1291 122.0878 123.6737 97.54 114.797 115.838 116.5704 121.2178 114.8291 122.8945 122.1273 122.1346 122.3013 119.5674 119.4344 122.0381 122.467 122.5706 122.588 122.7846 122.8233 123.0322 122.7889 122.3456 119.0863 119.9623 102.2155 109.2187 100.6034 105.5575 103.7224 104.9492 97.1287 103.28 108.3303 107.5484 108.0678 131.6395 126.6468 126.9978 130.0668 125.6423 126.8034 122.4096 126.7953 119.9958 113.9078 125.68
124.16 123.9434 123.8224 123.6895 123.5781 123.2677 116.9013 115.4267 123.0255 125.2401 113.4899 125.9984 101.8158 124.1733 122.1583 122.5139 122.428 122.3603 125.2276 110.017 110.0202 113.9534 115.0156 111.569 116.4442 123.0627 122.4615 122.4547 122.3145 122.8043 117.3988 125.295 123.0423 123.2526 123.6296 122.9429 123.7913 123.0303 122.6716 123.1543 115.5501 116.7605 109.0879 106.4338 109.1548 109.2476 114.8423 118.1177 125.1313 101.3792 104.3516 108.5187 106.4503 110.3305 123.9635 126.7654 127.5034 127.1045 124.6145 114.2767 113.9298 104.4173 114.0903 125.68
124.19 124.1392 124.0173 123.8844 123.7832 123.6143 124.2923 122.2653 123.4594 123.8247 104.0743 125.5603 123.1087 123.236 122.6594 122.7867 122.3346 121.4878 102.2459 123.421 111.4251 111.5972 108.9815 109.5426 111.5166 122.7387 122.5288 122.5945 122.6285 124.6292 103.941 113.7268 120.2081 124.0617 108.3569 109.866 129.9677 130.7666 115.8298 115.1855 102.1011 104.9548 112.2243 107.5204 105.6716 116.0105 125.6748 126.4123 128.1133 115.8962 102.1537 108.8572 109.3694 107.2577 114.4386 126.4952 128.9344 128.8171 126.7509 129.3276 100.8837 113.7333 127.6473 104.98
124.44 124.3418 124.2211 124.0965 124.0192 123.8111 123.6289 123.7454 123.3592 123.7773 125.4725 121.6199 121.7671 123.0592 123.1657 123.0043 122.2963 119.3733 106.2284 123.8959 109.5773 103.0361 107.6304 100.1689 106.3539 119.6919 122.5295 122.7138 124.0272 112.7607 100.3857 112.4786 123.3338 125.5648 110.0848 103.1491 107.9066 105.1101 111.4481 104.7381 100.6981 103.3095 109.3702 104.7006 126.6567 120.1349 103.9014 113.727 124.2862 103.2221 99.1459 106.0371 108.2258 120.863 110.72 111.0019 115.148 128.8526 130.2729 109.0788 120.1234 111.9683 124.8437 105.02
124.64 124.5253 124.4159 124.3086 124.1823 124.1097 124.0066 123.8954 123.8325 123.3402 120.5328 120.3126 123.1875 123.5227 123.3763 123.327 112.4333 110.2763 104.6484 122.1073 115.4455 113.5673 119.6216 101.678 115.9751 127.6619 120.8119 112.8012 121.1478 109.3786 105.7449 105.7034 115.2758 110.3899 120.4744 105.272 105.1323 108.7098 111.0158 105.5931 101.458 114.8691 106.0007 105.9644 113.949 112.9186 117.6088 103.7757 124.0417 113.9587 117.1654 124.526 120.3799 111.0449 114.6914 109.6676 121.8552 128.1271 129.7326 119.1053 133.7758 131.1069 123.8253 127.87
124.84 124.7146 124.6148 124.4872 124.404 124.218 124.1985 124.2337 123.7993 120.4483 105.5622 107.3052 124.3273 123.839 122.6767 123.3689 112.7381 122.727 100.7538 123.5551 118.0461 111.6021 112.8753 113.213 116.5512 119.9931 122.8965 124.207 124.1869 116.7214 101.589 104.1981 106.3548 109.6085 109.7067 100.6611 119.0711 122.383 109.6831 100.1766 101.4761 124.1935 104.9066 113.9937 113.9104 110.6995 111.3319 113.1859 111.7554 108.3316 122.3858 126.4647 126.9202 111.6217 112.9511 112.4829 118.0332 130.4692 127.3924 130.3476 102.7089 133.0407 129.6534 130.04
124.86 124.9021 124.8061 124.701 124.6252 125.0172 124.3358 124.1776 125.2466 115.5614 118.0607 108.5406 124.9017 123.8287 102.682 112.9096 99.5717 123.1685 103.5777 123.8796 108.0664 119.4399 120.4346 117.8106 121.73 118.8885 123.7075 123.9967 123.428 126.6152 106.7551 110.7784 103.4748 103.8585 104.1064 108.474 123.8088 124.2577 125.6314 114.2867 123.953 125.1702 109.7203 110.0938 106.7937 116.5422 124.0109 128.3015 114.1891 103.4098 109.4689 119.8785 127.6385 129.3052 114.0501 126.4104 127.5897 128.175 121.6297 121.0377 131.2172 130.2898 129.5947 129.85
125.1 125.0925 124.983 124.8929 124.5407 120.3278 125.4807 124.6496 116.4146 115.7237 102.2316 106.7294 122.6945 100.316 113.495 107.903 107.8056 115.111 104.6143 123.8686 111.4423 113.5435 111.8628 111.917 110.892 119.7473 123.6375 121.0344 124.2075 125.2492 109.6643 116.9716 108.6995 102.4325 105.6875 109.4 126.0407 124.632 123.7577 124.5242 125.2359 126.3646 116.9526 103.9664 111.3979 110.3855 125.5965 126.5838 123.7587 107.1583 108.5828 107.7323 127.8726 125.6191 125.5347 126.0609 125.8428 126.8494 129.6149 131.1122 128.9269 130.1238 130.1352 129.85
125.28 125.2727 125.1622 125.1035 126.7712 108.2039 127.1048 122.9037 114.5985 102.5032 104.35 100.948 123.5023 120.1328 108.6882 121.3825 118.0619 104.4249 118.0961 123.6753 110.554 110.8725 121.7392 111.7101 111.8383 120.469 123.9205 125.7883 124.9989 122.2161 105.2058 105.9236 107.7689 103.7597 106.063 107.2691 126.5516 124.6066 125.022 124.9621 125.8465 113.7859 114.5377 112.9854 115.9591 109.0351 126.1119 124.6081 125.5578 104.3429 116.6726 128.6629 126.8785 126.3812 126.6225 128.922 127.0087 127.0616 127.202 127.9762 128.5915 129.9762 130.9571 130.91
125.47 125.4524 125.3528 125.3319 125.5633 112.5816 103.7853 103.4518 115.0719 101.954 110.3586 102.1811 120.5577 125.466 111.2054 110.174 123.2763 107.7249 111.0078 124.991 112.3998 103.1547 103.8764 104.2145 103.6868 121.4633 125.655 114.7889 106.872 121.6848 101.4689 109.0075 105.8717 129.7241 103.2722 105.0074 120.9377 124.9115 125.6844 125.0783 126.1598 119.1397 103.7661 101.3686 113.9952 122.5126 118.6289 125.7519 127.9845 125.2225 127.5516 126.1636 126.3494 126.3945 126.6071 111.6274 128.3064 127.8845 127.9358 128.2741 128.7404 129.2781 130.5755 131.14
125.65 125.6235 125.5172 125.4497 125.249 126.9731 100.7119 111.1513 112.6307 110.4092 103.8042 110.5967 123.4869 121.5625 108.167 122.8902 112.9484 110.42 115.4955 126.0825 110.7946 113.6055 113.5867 107.2403 112.2648 120.8712 120.7346 105.672 115.0488 104.9277 121.4628 107.5297 108.7578 109.9048 106.5982 109.4693 126.3055 122.1629 121.7313 126.4216 124.5365 119.2897 104.6824 102.8934 126.2313 115.6049 123.3056 125.7022 125.9321 126.1565 126.2197 126.7735 126.8873 126.5882 126.3829 125.81 117.9167 127.2662 128.446 128.3217 128.8495 128.9903 131.6295 130.62
125.86 125.8033 125.7079 125.6479 125.4724 127.5515 124.6781 111.2904 125.627 107.0427 128.8101 118.713 124.2482 120.9232 107.9075 118.4379 125.7405 112.5002 104.6259 121.7163 104.0636 102.9485 101.5727 111.3645 101.2879 106.6132 128.2466 109.0281 103.4583 103.5839 126.0075 107.766 107.576 112.8439 124.6649 108.1668 114.3437 116.5688 114.8077 115.9838 123.1934 117.0912 108.4353 104.9181 114.2926 116.7585 123.35 120.1542 126.404 126.4706 126.7031 123.3927 124.5998 126.9237 127.2023 125.4079 108.0978 113.7185 128.1696 128.4786 128.7444 129.6043 123.5147 130.62
126.05 125.8533 125.835 125.6775 125.6852 125.5682 126.2457 126.6643 119.9113 119.3617 120.9374 103.8509 123.0813 120.3439 115.1626 119.2627 125.2025 112.7242 107.1261 107.7099 108.2992 107.2714 102.3298 104.8377 101.6725 102.0265 118.7968 103.3169 106.4393 106.9418 105.434 111.9979 114.8954 125.0728 126.2895 110.9455 110.8957 114.8651 115.0536 105.8355 113.0045 115.9445 104.4936 116.4169 112.5663 127.0761 127.3234 126.93 126.415 126.6368 126.5203 127.6846 127.5266 126.8092 127.0598 126.6644 130.6625 117.3488 130.8515 128.794 128.8097 129.7449 124.497 129.89
126.23 126.1717 125.7834 126.5258 125.8453 125.95 125.7788 120.9632 115.9481 111.3059 112.3482 121.8309 122.9482 124.1194 120.619 119.9194 124.3859 124.69 108.6419 110.1769 113.6845 112.1248 106.2088 111.8486 110.7675 103.102 122.2137 101.8996 108.7655 107.1157 124.2256 126.1748 116.7333 116.1774 123.7245 115.5721 109.6198 104.5308 99.1783 123.9917 116.0111 115.713 115.9962 117.0798 119.7274 126.7631 126.5106 126.3398 126.649 126.7427 126.8149 126.7 127.0209 126.9068 127.2791 127.0963 128.2264 127.4735 127.7101 127.9598 131.0678 113.6167 134.1476 130.46
126.4 126.2872 119.3852 126.1247 126.0044 126.0201 126.1455 120.0689 116.9969 122.542 108.919 109.854 125.2031 119.3473 119.3992 122.0493 126.3282 114.8952 114.339 108.3899 117.9869 109.3648 103.4032 112.6974 108.3686 106.7643 111.011 110.9743 109.826 106.9251 124.6184 124.4071 117.3595 114.5851 114.8066 101.6947 112.4292 103.521 104.4948 125.2822 116.936 106.5864 124.589 127.495 127.8568 126.365 126.6346 126.6782 126.7744 126.867 126.9583 126.9305 127.6913 117.9736 127.6311 127.4576 127.5436 127.5733 128.0142 129.1069 130.9186 124.5808 109.4484 106.19
126.58 126.2807 126.7061 126.189 127.0892 125.2706 128.2301 126.6366 117.3879 127.9667 105.8921 112.9918 114.3915 118.2797 118.4922 123.1803 122.5802 116.4827 113.3302 103.5859 109.3257 111.5465 106.8493 113.0302 108.0666 106.388 109.4468 103.3281 113.1004 112.195 105.1402 126.4016 126.4941 124.5184 113.7089 108.4488 110.9735 104.7414 116.3551 127.504 116.3523 117.965 115.5499 126.4629 126.5239 126.6864 126.7373 126.8388 126.9251 126.9963 127.1324 127.0542 126.2137 120.8339 128.3638 127.5093 127.6313 128.0401 122.1645 117.8138 107.0826 125.3625 111.6542 106.33
126.75 126.6333 126.4395 126.5804 126.6437 109.9199 125.1349 130.5259 122.2154 114.9118 114.3935 109.8282 108.5004 114.3861 123.5325 124.4604 114.5721 117.7966 112.9792 103.1465 112.1696 102.4211 104.5779 107.7391 104.9932 107.5895 104.5494 103.1285 113.8168 111.3786 112.7508 127.7716 126.0993 112.6174 116.1054 126.5887 127.3884 115.0706 118.7848 114.4638 118.5285 107.1679 106.8185 129.8645 126.8487 126.6546 126.9151 127.0018 127.0597 127.2199 127.1008 127.3457 127.7904 127.5442 127.5591 127.6937 127.7353 128.3001 127.5707 127.0866 120.4725 107.2766 105.0486 112.12
126.75 126.7849 126.7283 126.6568 126.992 127.1344 127.3841 121.0873 122.041 111.775 113.3875 115.4797 117.9664 120.3819 112.7454 126.5627 119.0518 118.8104 114.9599 103.6618 103.7749 105.222 104.7462 103.3552 103.4033 106.6955 106.6148 103.9502 107.5233 112.8908 110.3966 127.2291 125.8797 123.1463 116.477 119.2756 127.337 117.7017 111.9424 104.6909 105.8852 104.8699 106.5441 115.2473 128.4996 126.9835 127.0256 127.0944 127.2385 126.5817 129.3902 127.3725 127.4015 127.5707 127.9413 127.057 127.5356 127.9113 128.0697 128.4042 127.989 132.5573 117.8497 110.6
126.92 126.9416 126.8661 126.8529 126.7054 126.6056 126.5189 127.5055 117.2505 114.5283 114.7786 116.734 115.6976 118.1675 128.8525 116.9083 124.0451 122.8604 118.226 118.9155 113.0025 105.313 106.3694 104.1541 106.0503 106.9253 105.9595 105.1208 103.8866 121.183 116.3893 126.8333 127.1366 116.4461 119.8611 120.1936 127.9305 117.7547 113.9495 109.634 120.8619 104.5284 108.7076 107.5215 128.8766 126.7883 127.2215 127.7612 126.3865 127.6891 123.7969 109.9751 127.7376 127.7884 128.0179 118.401 128.0687 128.1478 128.1743 128.4031 128.5751 124.6993 106.8268 106.62
127.08 127.1017 127.0389 126.9533 126.8469 126.9646 127.5198 127.2303 123.1403 115.5671 122.1666 119.1215 117.9905 112.1786 110.2771 105.013 112.3968 118.1191 117.4914 118.7176 102.6929 106.2818 106.3879 104.6052 104.1315 108.2676 106.351 112.83 111.7386 111.051 126.7193 126.6554 127.5371 115.9679 119.3543 122.3637 127.5851 120.8466 113.7899 114.4692 107.8597 104.0977 124.2475 111.8798 129.6276 127.2381 127.2102 128.3811 122.8706 127.7978 129.1359 128.306 128.2167 127.8024 128.4039 127.6437 128.6767 128.2244 128.2741 128.8979 123.2751 121.5522 115.855 109.16
127.24 127.2501 127.1958 127.111 127.0522 127.8195 117.6568 126.8819 127.7378 126.5082 127.7724 124.7132 106.8149 113.0897 109.6265 105.2071 115.0603 109.5357 118.8703 118.7414 103.6392 105.874 106.5977 105.7708 104.3904 108.0541 111.1107 115.1671 107.4422 113.3003 122.2621 127.08 126.5884 127.6375 126.4952 125.8164 125.057 124.0003 113.3902 121.0225 108.4571 104.467 116.3045 128.2435 127.9248 127.3318 128.0596 121.3942 125.0675 127.5522 127.7333 127.7296 127.8781 128.057 128.1039 129.0327 111.9143 127.1713 128.911 121.2951 114.9481 118.1021 112.2328 107.07
127.39 127.4 127.3 127.21 127.11 127.14 127.03 127.06 126.93 126.97 126.97 128.92 128.92 104.77 104.78 117.93 104.66 104.67 126.68 109.22 104.69 107.23 106.78 120.92 104.69 110.13 110.26 116.31 119.23 119.23 113.01 126.75 131.22 126.85 126.97 126.95 127.06 127.04 120.91 121.47 108.77 105.3 105.3 127.39 127.48 127.48 127.57 127.65 127.75 127.83 127.91 128.01 128.01 128.08 128.17 128.25 128.33 128.42 128.51 116.67 117.78 120.59 107.06 107.07
