118.6300 108.2100 114.4800 117.3700 117.0300 116.6700 115.9200 115.5200 115.1000 114.2000 113.7000 113.2100 112.6800 112.2200 106.8300 106.9500 110.2200 109.5500 109.7100 108.7300 108.7500 108.6400 109.7100 109.5500 110.2400 111.0600 111.5400 112.2300 112.6900 113.7300 114.2400 114.6700 115.1100 115.9300 111.1600 101.3100 117.3800 117.7100 118.3400 118.6400 119.2200 119.9200 128.4300 120.2500 120.4900 120.7300 121.1900 121.4100 121.8300 122.0300 122.4300 122.0600 133.1300 117.3700 101.3500 101.6900 101.8500 113.0500 117.4500 102.9000 118.1000 102.9400 119.1200 121.3800
118.6300 114.4628 116.6497 117.5498 116.9494 116.4556 115.9337 115.3886 114.8066 114.2024 113.5717 112.9073 112.2566 112.8489 113.5438 109.2606 109.6088 108.8180 108.4288 108.1566 108.1088 108.2939 108.6830 109.2231 109.8520 110.5370 111.2447 111.9507 112.6430 113.3096 113.9587 114.5740 115.1472 115.7555 113.3802 112.3733 116.9384 116.8078 117.2727 118.5177 116.6659 118.2960 122.6845 119.6735 120.1750 121.3669 121.4158 125.4638 115.6200 114.3158 116.2126 115.6237 121.8712 114.4742 99.8620 102.2231 113.3388 108.4038 115.4293 101.3413 108.2007 107.6180 116.8706 122.9100
118.5300 118.7807 118.0928 117.2461 116.7709 116.2334 115.6798 115.1048 114.4799 113.8316 113.1404 112.4091 111.6229 110.7538 112.6064 109.0014 108.3707 107.5854 106.9533 106.5794 106.5132 106.7748 107.3063 108.0183 108.8253 109.6617 110.5129 111.3302 112.1096 112.8605 113.5612 114.2304 114.8574 115.4807 116.7787 116.9374 118.6828 119.9237 121.3987 119.4410 117.8462 120.6887 120.7431 121.6050 120.8241 125.9285 113.5236 112.4508 106.9846 115.8007 115.3764 113.5696 108.3774 109.0008 103.1018 102.3092 111.0751 103.6339 111.4205 104.2897 105.6194 110.4982 115.0185 122.9100
118.5300 117.9842 117.5854 117.0756 116.5119 116.0493 115.4608 114.8496 114.1960 113.4953 112.7518 111.9530 111.1013 110.3300 108.8787 108.1554 107.0909 106.0849 105.2165 104.6551 104.5452 104.9452 105.7046 106.6869 107.7381 108.7785 109.7843 110.7256 111.6205 112.4382 113.2023 113.9250 114.5950 115.1833 115.5412 117.6439 99.8450 101.7409 99.4941 120.1399 115.3351 104.3273 112.6729 117.1815 115.0299 105.9754 103.7567 100.4578 103.1523 119.9390 116.8132 116.9883 99.0717 106.8457 102.0997 102.7887 99.6618 106.9408 102.4988 107.8176 104.5504 114.2599 118.1790 120.0900
118.1300 117.8739 117.3422 117.1536 116.8841 115.8311 115.2783 114.6328 113.9405 113.1948 112.4032 111.5337 110.5727 109.5488 108.3968 107.1491 105.7931 104.4075 103.1067 102.1648 101.9987 102.6676 103.8757 105.2477 106.6207 107.9093 109.0948 110.1723 111.1558 112.0651 112.8923 113.6581 114.3620 115.0625 115.2840 116.0783 112.8085 111.7222 112.0758 118.5672 118.6051 117.2085 112.8327 117.4562 114.1599 102.7645 100.4381 104.5899 104.6451 109.8835 109.6747 104.4559 108.8168 106.3959 101.5836 104.3634 112.4320 115.6496 100.2404 102.9150 104.1474 110.5343 120.6385 118.5800
118.1000 117.7581 117.5513 117.7175 111.5723 116.1919 115.1274 114.4541 113.7608 112.9845 112.1164 111.1865 110.1495 108.9890 107.6777 106.1862 104.4777 102.5558 100.5023 98.8807 98.4717 99.7490 101.7365 103.7413 105.5331 107.1097 108.4886 109.6967 110.7810 111.7543 112.6397 113.4454 114.1719 114.7388 116.8206 117.2842 117.4969 117.8132 117.8707 116.9381 95.5977 120.8485 97.4662 102.6633 103.0241 101.0232 107.4420 106.3112 106.9649 107.0680 118.3925 106.9552 100.2962 110.1160 100.2124 104.7873 117.4071 118.3767 101.6330 102.4962 108.7547 116.2519 118.0555 118.5400
118.0800 117.5353 113.5594 114.1998 115.7187 115.7691 115.0171 114.3263 113.6005 112.5270 111.9139 110.9241 109.8120 108.5596 107.1075 105.3870 103.3057 100.6611 97.3818 93.1328 92.2076 95.6019 99.4643 102.3320 104.6040 106.4528 108.0070 109.3370 110.4951 111.5194 112.4463 113.2584 114.1100 116.3044 96.7824 117.8867 116.4992 117.5085 116.2499 132.4151 109.3945 100.3206 99.3209 100.4555 103.9295 105.5478 106.0903 109.1230 109.7528 110.9964 111.2373 110.5638 111.4499 112.2471 114.0446 108.7841 120.0656 101.6448 102.3624 102.0682 119.6324 118.1059 119.1582 119.0600
118.0700 117.6296 119.2567 116.5820 116.1120 115.6085 114.9634 114.2593 113.5130 112.6828 111.7813 110.7674 109.6174 108.3006 106.7421 104.8525 102.4677 99.1760 93.6672 87.5646 86.3719 90.5985 97.5491 101.2872 103.9802 106.0405 107.7115 109.1107 110.3034 111.3695 112.3347 113.1697 114.0352 115.7459 118.8905 102.2158 99.7874 100.1368 118.4429 118.9574 141.1732 108.9258 109.2050 100.2720 102.8526 105.9849 108.1286 108.5674 108.2351 108.0541 111.0088 110.9752 114.2661 105.9423 103.8854 116.2141 100.0344 102.2629 110.8150 118.7086 117.9832 118.3255 117.8355 117.5500
118.0600 117.6993 117.1301 116.6802 116.1351 115.5951 114.9370 114.2419 113.4868 112.6574 111.7483 110.7257 109.5688 108.2308 106.6849 104.8110 102.2094 98.7552 92.2283 85.6228 84.5124 88.9284 96.9477 100.9922 103.8099 105.9315 107.6439 109.0225 110.4543 111.3939 112.3093 113.1723 114.0730 111.9989 114.9100 103.4997 103.0281 102.7309 120.1382 119.2237 133.6578 108.0945 108.7803 99.5598 104.4620 105.9070 107.1665 107.4396 108.8945 113.4782 112.2631 115.1837 113.8040 101.8764 104.7237 102.1321 102.7001 103.1286 118.3838 115.2916 117.3997 118.3928 118.7517 118.1700
118.0600 117.8174 117.3365 116.7793 116.2082 115.6051 114.9707 114.2764 113.5345 112.7133 111.8111 110.8067 109.6715 108.3519 106.5477 104.8697 102.6189 99.6094 94.9289 89.1384 88.1304 92.0597 98.1831 101.5791 104.1471 106.1496 107.8065 109.1213 108.9676 111.1121 112.3309 113.2300 113.4418 112.8143 96.6822 98.8471 119.6424 115.9223 112.3020 114.4318 111.1116 98.8009 97.7381 98.3686 103.1183 109.0360 105.3527 105.9241 106.2663 113.4255 112.9909 113.6288 103.1741 100.6984 101.7702 116.7625 107.6402 109.8731 107.6754 106.1944 119.2900 117.6313 119.5563 117.4600
118.0700 117.8068 117.3224 116.8093 116.2698 115.6789 115.0499 114.3685 113.6414 112.8405 111.9639 110.9988 109.9452 108.7215 103.9539 104.1537 103.5426 101.3873 98.0956 95.1515 94.5418 97.2090 100.2074 102.7904 104.8926 106.6575 108.1716 109.2295 109.7652 107.4203 112.4022 113.2203 114.7272 114.6792 112.2153 111.5185 119.7260 96.2636 111.5315 106.5224 107.8029 102.1179 103.2038 103.6035 105.9913 107.1989 108.8420 110.6966 108.3461 119.1997 114.2735 114.7855 102.6610 105.4234 108.9813 117.6966 112.2615 111.4382 111.6229 112.0438 116.2765 110.0264 111.5311 117.9000
118.0900 117.8907 117.4135 116.9001 116.3594 115.7877 115.1725 114.5112 113.8051 113.0377 112.2054 111.2917 110.3153 109.0319 107.8794 103.1760 105.0786 103.1123 101.4108 100.1370 99.7111 100.7955 102.4799 104.2691 105.8935 107.3657 108.6692 109.8674 111.0908 112.2503 113.5515 115.1779 112.3250 120.4242 98.4648 101.7482 107.6279 101.7687 121.5122 107.7875 102.3614 101.7952 104.2262 107.6117 107.6837 109.8810 108.0773 108.5516 109.3555 113.4374 113.7096 109.5803 104.0135 104.8297 107.2480 110.0113 112.9329 110.0350 113.3427 110.7177 117.9166 112.4159 107.9493 117.5400
118.4600 117.9947 117.5207 117.0115 116.4832 115.9244 115.3376 114.7027 114.0269 113.2970 112.5148 111.6669 110.7420 109.7120 108.7992 105.1935 106.4739 104.9670 103.8400 103.0659 102.8539 103.7134 102.0634 105.7444 107.0064 108.1985 109.3328 110.3455 111.3999 112.4950 115.2066 102.5559 117.1560 122.9445 102.4500 98.7110 99.2717 100.9940 105.7179 112.1088 98.8980 102.2272 107.7161 105.3027 108.0724 109.1439 108.9054 107.9271 109.3115 108.4648 112.3931 96.4388 99.0522 110.2409 100.7464 102.3748 106.0508 109.0776 113.7017 113.1920 118.3440 114.0358 114.3791 103.3200
118.5000 117.9959 117.5887 117.1469 116.6444 116.0998 115.5320 114.9315 114.2961 113.6102 112.8807 112.1074 111.2756 110.2606 111.6067 108.3140 107.8353 106.5929 105.8272 105.3357 105.1872 105.8654 103.7261 107.4237 108.0790 109.0931 109.9018 110.9376 110.4334 114.5914 99.5925 112.9911 119.8041 109.2097 102.0116 97.6978 93.8931 108.7145 114.9272 108.0794 107.8200 106.6229 110.6337 107.0494 109.7873 110.2455 110.9800 111.2211 110.3142 110.0958 110.8515 108.0741 105.9852 102.5946 103.9163 116.4888 105.7439 110.2320 117.5164 118.7386 120.2258 120.6569 113.1356 111.1700
118.5500 118.7614 117.8504 117.3057 116.8262 116.3051 115.7697 115.1966 114.5900 113.9586 113.2872 112.5826 111.8341 111.0178 111.2248 109.6931 108.7615 108.0161 107.4696 107.1282 106.9699 107.2560 108.1137 108.3653 109.2041 109.8365 111.5063 110.9745 113.9517 121.4016 96.1789 113.9012 101.7219 112.1715 104.6577 102.2155 103.0482 119.8350 115.1606 104.0950 103.2077 103.7910 109.4575 110.6323 110.8800 111.2406 112.0321 112.6710 113.1634 112.3550 112.1181 114.0574 114.4309 110.2368 103.4356 107.4812 102.6612 111.1257 116.3956 117.3581 118.2580 119.3432 114.4216 116.3700
118.6000 117.9765 117.9466 117.5009 117.0257 116.5317 116.0235 115.4832 114.9202 114.3340 113.7218 113.0911 112.4227 111.7871 111.0860 110.3682 109.7972 109.2887 108.8885 108.6143 108.6755 108.8476 108.8838 109.7543 110.2873 110.8904 110.8208 103.4013 100.6577 107.1369 108.3809 108.4271 105.1105 104.6328 105.2907 101.2317 104.2128 111.5845 102.4682 113.6951 99.2289 101.2108 104.4884 103.4902 105.1644 110.0382 110.4641 112.9597 113.4317 113.5955 113.0464 115.5140 114.6657 115.4740 113.6568 119.7334 103.7328 111.4193 117.6197 123.2054 118.6469 118.8854 104.3634 103.3400
118.9400 118.5713 118.1281 117.6964 117.2546 116.7824 116.2980 115.7987 115.2709 114.7364 114.1755 113.6062 113.0247 112.4492 111.9168 111.3272 110.8285 110.3989 110.1627 109.8756 103.6003 108.2389 110.1998 110.6279 109.1130 111.4791 112.0759 112.1866 112.9910 107.4593 96.7124 102.7722 103.9562 103.5737 104.1595 106.5322 109.9899 116.2602 98.6659 100.1186 97.9754 110.9203 109.5946 113.5810 102.9400 103.2679 105.8724 105.7895 110.8565 107.4861 101.4306 100.7647 110.7112 100.1010 101.7429 102.0245 109.3011 110.9905 113.4355 119.1865 120.4609 114.5255 116.0150 103.3600
119.0100 118.7188 118.3224 117.9131 117.4882 117.0488 116.6006 116.1303 115.6478 115.1529 114.6475 114.1312 113.6165 113.1152 112.6025 112.1963 111.7452 111.4103 111.1842 110.9367 111.3027 111.4809 111.1654 111.8161 111.8180 112.9353 103.5424 111.0572 96.2651 112.8593 118.5327 111.1470 103.6609 104.5865 104.4011 104.2971 119.1284 99.2758 106.5556 98.0593 99.4903 105.7697 109.5147 109.7655 111.6713 112.9722 109.5366 105.4932 105.0034 102.6650 100.1386 99.8805 113.7768 107.7438 115.1918 117.2637 99.7707 110.6530 111.6188 116.7561 117.7691 109.8548 118.3627 120.7500
119.0700 118.9181 118.5376 118.1513 117.7456 117.3275 116.9089 116.4579 116.0352 115.5642 115.1126 114.6542 114.2232 113.7805 113.6225 112.7343 112.7124 112.3153 112.1401 112.0290 111.9072 111.9002 112.1372 112.5020 112.8348 113.0421 114.4837 105.1636 110.3544 112.8030 111.5937 104.4714 96.2786 106.7793 108.4813 108.4281 107.6966 100.1815 100.5608 103.5778 105.9611 101.8358 104.2580 109.2995 110.2115 111.3261 111.6855 112.1559 114.0203 100.7358 100.8401 100.9581 100.6945 100.9068 100.8334 100.5510 104.1576 105.0516 116.2450 115.0252 113.1134 114.8987 116.9464 119.4000
119.4100 119.1251 118.7598 118.3905 118.0105 117.6166 117.2277 116.8306 116.3820 115.9955 115.5739 115.1630 114.8280 114.3741 112.1096 112.8161 113.1124 113.1554 112.9808 112.8815 112.8802 112.9787 113.1104 113.2728 112.8857 112.7750 110.2082 112.9342 96.7162 114.2383 102.8141 103.6169 103.3889 103.0344 108.1295 109.9515 102.2123 111.1673 99.5335 103.8823 104.8230 104.6658 109.3071 106.7025 111.8452 109.1212 112.3228 107.4428 101.2031 105.8735 104.7761 100.3920 100.6092 101.7235 101.4127 99.8811 115.9795 113.4803 117.9005 117.3807 119.9276 105.5607 116.5389 113.8600
119.4900 119.3368 118.9918 118.6391 118.2804 117.9197 117.5512 116.9382 116.2409 116.4132 116.0534 115.3903 117.7402 116.9319 107.4704 115.1407 114.0926 113.9148 113.7734 113.6891 113.6774 113.7206 113.8515 113.9818 114.3664 114.2709 114.9053 99.7170 100.2388 102.0938 100.6140 100.8252 101.3036 105.2713 105.9470 108.5813 104.8805 101.8575 96.4258 104.6302 103.8482 105.1925 110.0421 113.1980 112.1822 108.3024 112.6571 114.1089 119.7256 95.8680 104.5767 106.3179 107.3365 101.3502 102.0066 110.7801 118.1359 100.9714 118.6406 118.3467 118.7362 119.6316 120.7244 120.7400
119.5700 119.5555 119.2305 118.9011 118.5595 118.2174 117.8616 117.5741 117.2328 116.8321 116.4714 116.2146 114.4833 103.8523 108.7332 115.6708 114.7406 114.6146 114.4987 114.4298 114.4178 114.4683 114.5758 114.6917 114.7803 116.6993 114.2749 96.1703 94.0157 99.4743 95.6048 99.5282 100.8677 105.8883 107.7467 112.5386 107.1900 99.5300 96.9544 103.8987 107.8382 107.4698 109.9830 108.2239 106.6123 113.4090 114.8964 111.7519 114.3242 109.3581 111.9845 105.7832 123.6113 100.1269 101.5015 94.6038 109.5982 110.3650 119.3194 114.5739 117.7443 119.3793 119.3984 120.3200
119.9100 119.7817 119.4717 119.1564 118.8410 118.5191 118.1972 117.8605 117.5608 117.2348 116.9285 117.3516 117.2504 107.6552 112.8694 115.3258 115.4469 115.2682 115.1698 115.1115 115.1183 115.1140 115.2064 115.3008 114.9681 121.9757 114.6773 100.8648 113.2054 122.9243 97.0874 103.3982 103.7321 107.1004 108.8450 107.5202 102.9626 108.1647 95.0965 108.4565 111.7239 110.9978 114.4382 109.0068 114.6748 107.1277 110.3901 109.7980 111.3465 113.6209 111.1901 107.2338 111.2775 101.6573 102.4925 100.9622 99.2264 112.1024 111.0735 117.5912 119.9083 113.5109 120.4556 123.3800
120.3100 120.0157 119.7197 119.4225 119.1220 118.8283 118.5274 118.2434 117.9405 117.6399 117.2344 117.1391 116.6484 116.8728 116.5879 116.0144 116.0402 115.8883 115.7859 115.7393 115.5383 115.7671 115.9201 116.6750 115.0495 118.2955 99.3723 118.1135 118.1148 115.8506 105.1745 103.1873 100.7903 106.6790 107.7325 105.1652 103.7743 110.2848 108.1832 107.9382 115.7393 110.9973 110.9858 111.2144 106.0483 111.9154 106.8164 107.9916 114.7678 108.7063 117.0257 117.1351 111.5490 109.2245 99.5963 111.7367 111.4000 111.9440 98.6577 122.4598 107.0290 119.1701 118.7332 118.4500
120.3100 120.2484 119.9670 119.6924 119.4155 119.1249 118.8191 118.5521 118.2259 118.0217 117.7453 117.5412 117.2700 117.0726 116.8392 116.7283 116.5272 116.4540 116.3734 116.3296 116.1917 117.5324 108.9044 107.3225 108.7249 109.8300 101.9572 112.7776 118.6951 118.1090 120.7577 109.7472 103.9697 107.8972 109.8808 109.0102 110.3293 109.8527 112.2048 109.7301 110.8115 107.7709 109.5635 111.7644 114.2053 112.5828 113.1468 118.3633 114.4543 115.0633 116.6803 113.9775 117.8844 115.5886 115.8518 118.6730 119.0628 120.6350 117.1990 118.8048 114.7204 125.9288 123.8820 123.9900
120.6900 120.4805 120.2201 119.9777 119.6557 119.4154 119.2835 118.8859 119.0016 118.4278 118.1862 117.9397 117.7407 117.5003 117.5353 116.9999 117.2855 116.9881 116.9150 116.8850 117.2931 111.1606 92.7502 91.4599 98.3513 98.2127 92.3348 117.9563 117.5582 117.6682 118.6689 113.0804 106.9467 105.8263 100.5703 109.8345 109.9875 109.7912 110.8425 112.1831 111.1806 108.7739 112.1056 107.9745 108.4833 111.9258 114.8899 116.7068 115.5730 121.8191 116.1573 114.4801 116.3272 118.4788 119.6392 120.5295 120.5674 120.2175 120.7426 120.6372 121.7431 121.4326 122.0142 121.7200
120.9900 120.7239 120.4556 120.4570 119.7282 119.9151 119.6553 117.0823 117.0509 117.1255 118.6375 118.3217 118.1700 117.8406 118.6582 115.0325 117.5264 117.4979 117.4322 117.3973 117.5479 111.0813 98.5651 110.4536 114.3968 90.8915 120.2502 119.3418 118.3133 118.4540 119.1356 122.3612 117.6495 103.0004 104.6633 109.5567 108.9331 109.6156 111.4330 112.8229 100.8325 111.2429 111.9615 110.4007 108.0228 109.3382 111.6193 115.6991 114.4773 118.7426 120.5750 110.6585 123.9939 119.8032 120.4765 120.1676 121.2734 120.8651 112.5894 122.0501 121.6701 120.9784 121.3519 122.5700
121.0700 120.9642 120.6903 120.6482 119.8886 120.0853 119.7793 123.1069 122.7233 119.0039 118.0898 119.0826 118.5934 118.3520 119.2987 118.1236 118.0689 117.9676 117.9252 117.8736 117.2374 119.8010 94.3378 106.0784 103.6895 113.9224 119.2002 118.4439 118.6619 119.1141 119.0147 119.0819 119.8597 110.1145 112.2859 98.8211 107.0161 108.3612 110.0788 111.6486 111.3082 112.7293 112.9463 115.1591 116.1204 114.7391 111.6104 116.3517 115.5978 106.2792 101.4284 104.8595 124.1126 124.8923 122.9089 119.0936 123.3827 121.7497 115.7962 114.1398 119.7954 121.3123 121.8212 122.2100
121.3600 121.1923 120.9748 120.7552 120.5087 120.3732 119.9622 120.3683 120.5467 119.6188 116.7586 119.1729 118.9659 118.8415 118.5648 118.5935 118.5017 118.4135 118.4092 118.6577 117.9632 119.3586 100.0592 112.9525 98.9554 122.5490 98.5089 118.8210 118.9607 118.9056 119.7311 119.6071 119.4714 122.0022 109.8903 108.4365 112.6672 110.6691 110.2287 108.3061 109.0001 115.0542 114.2467 115.6769 115.6385 116.4134 113.2514 107.1530 115.3980 116.8349 100.4899 112.0714 114.1003 121.0492 123.3739 126.6520 121.4407 122.9415 120.0021 122.0449 119.3946 116.9219 122.8149 122.6800
121.4500 121.4362 121.2234 121.0208 120.8087 120.5869 120.4570 120.1902 119.9583 119.9981 119.9940 119.5600 119.3995 119.2880 119.1217 119.0105 118.9132 118.8786 118.8892 115.4284 119.0169 118.2203 100.1569 107.6754 105.4309 122.8923 96.7568 111.9383 119.3728 119.6732 119.7093 120.0143 119.7298 121.7163 116.1211 109.5291 99.3465 109.9875 110.6178 111.0035 109.9714 110.0545 114.3574 115.5179 108.2398 119.1681 99.6922 101.0217 105.7974 118.4944 120.2175 100.2541 108.8292 115.4166 119.5487 120.9640 125.5684 127.5720 118.8720 124.7331 122.3648 120.7658 120.7671 123.1500
121.7300 121.6740 121.4697 121.2737 121.0736 120.8911 120.6969 120.7174 120.4010 117.7792 119.6504 119.9384 119.4507 119.3330 119.5488 119.4183 119.2992 119.1864 120.6859 95.5267 103.2937 116.4671 115.0809 101.7061 101.9236 119.5181 99.7744 111.8410 119.8199 119.8398 120.1729 120.2912 120.4087 119.1665 106.4863 108.2498 112.3643 109.1859 111.4106 111.2141 110.8603 113.4492 115.2604 115.9380 105.4079 111.0365 114.2215 104.2008 101.0987 100.2325 118.5261 117.6712 121.4957 104.2656 116.6381 117.0034 120.8068 122.6341 107.1686 131.9136 127.1025 129.4110 125.3232 121.5300
121.9900 121.9072 121.7131 121.5282 121.3466 121.1649 120.9640 120.8509 120.5835 120.1883 120.5206 121.8456 122.8747 120.8981 119.7825 119.7874 119.6992 119.6587 122.0316 97.0205 97.8521 117.9039 105.5696 102.2800 102.4106 115.6032 119.9105 113.0966 120.1153 119.0856 120.2010 120.7911 121.2019 119.0924 140.3919 111.5237 110.6430 108.7019 110.3788 109.1166 110.8385 115.5923 118.7340 108.4560 106.4634 98.0881 100.1033 100.8286 101.2536 112.9206 98.6350 107.5336 117.0023 126.9618 102.9618 123.0458 122.6400 122.9415 123.3293 127.5323 127.2949 114.2319 117.5935 128.4900
122.3400 122.1332 121.9617 121.7762 121.6065 121.4610 120.8493 121.2210 122.3792 122.1449 118.0630 113.3341 107.2798 119.8281 120.1755 120.2073 120.0029 119.6463 121.3535 110.5218 102.0178 120.2664 96.4022 102.0138 103.4331 111.9822 121.0296 111.2072 120.9981 122.1860 113.3448 117.6382 117.2496 98.1589 108.6782 107.2519 124.3886 110.5275 110.7605 110.3986 110.8911 111.4291 113.5007 107.2004 100.8192 110.8206 121.2340 101.9355 101.1673 109.8524 112.5292 108.7508 101.2900 126.8166 126.3061 123.6881 121.1669 122.3093 123.2831 121.2045 121.4974 112.8234 135.8600 128.4900
122.3400 122.3995 122.2096 121.9517 121.8568 121.7236 121.5588 122.3691 111.6042 118.5626 102.8424 120.1033 117.3501 122.1612 120.4801 120.4550 120.2857 121.3261 116.8940 108.7502 107.6870 113.2827 100.6612 102.7862 100.2382 97.4897 122.0740 119.7875 121.2609 123.6960 96.9508 99.6580 96.7972 115.1948 102.8415 111.9461 121.8692 117.6314 111.6640 111.5819 111.7502 111.8101 103.1909 114.8199 115.9967 114.6346 108.9500 100.5918 103.6450 100.5962 113.0743 103.5100 98.7760 109.0781 118.5589 128.7988 122.7699 120.3702 123.4307 123.2439 124.9087 119.7051 126.4606 125.2300
122.6100 122.5814 122.3482 122.8181 122.0407 121.9485 121.7947 122.3140 116.1084 122.1883 103.2304 122.3537 121.2974 120.8391 120.9786 121.8137 103.0721 121.6392 118.4926 95.8003 99.5430 101.4551 102.5728 119.3364 113.5349 106.3770 122.2053 120.7481 120.9940 122.8920 109.4160 120.6182 119.9242 113.7378 112.3030 122.8781 121.8445 122.6314 114.1902 111.7197 113.1462 107.6063 100.2017 98.0193 121.5140 113.5960 112.8138 101.2663 102.8976 102.6016 101.6561 123.0840 120.5428 105.5004 103.4731 113.4975 130.2507 127.2307 122.8803 125.1900 123.9433 124.7023 122.5111 124.4900
122.8900 122.8033 122.8126 119.6097 120.8252 122.2383 122.0514 121.8470 121.9471 122.8782 121.4193 121.2328 121.4053 121.3058 121.2681 121.7359 122.2389 120.9173 121.8316 117.0398 108.5993 118.9296 99.3374 104.5882 120.2513 111.4645 122.3095 121.4004 122.0137 118.6442 118.8503 121.9753 122.0382 122.1599 106.3326 111.2955 123.0064 122.6455 117.7683 111.7237 113.5948 106.7069 103.0657 113.5738 109.0603 110.5805 108.3090 101.7744 102.3931 102.6522 103.1719 104.3347 123.4443 121.4930 113.1065 96.8692 125.5795 127.4553 128.6963 126.2129 126.3805 125.4324 126.2065 126.4700
123.1600 122.5505 123.0551 118.4167 121.4890 122.5882 122.3542 122.2121 122.1331 121.8607 121.8964 121.7630 121.7067 121.6194 121.5586 121.3420 121.1982 121.4407 121.6506 122.1481 121.3160 120.9260 122.1899 112.0754 107.6922 108.6365 123.5590 113.2434 119.6463 122.2012 118.4572 122.1727 122.1834 121.9133 124.5689 122.5888 122.7564 123.0653 123.4414 121.6803 113.4180 114.6779 101.0172 109.3924 108.2475 108.7373 104.5599 101.8085 101.7606 101.5238 103.1083 102.1164 102.7420 121.0898 126.5186 123.1905 126.1032 127.2256 129.4646 129.0940 126.6659 127.6835 127.8019 125.4400
123.3900 111.3168 122.3587 122.3270 123.2945 122.6447 122.5622 122.4831 122.2434 122.3340 122.1672 122.0765 121.9897 121.9133 121.8514 121.8371 121.8253 121.9529 114.8410 121.5600 121.3630 121.7568 122.2550 111.5752 110.6621 108.4995 120.4070 104.7896 107.3296 115.3365 123.1366 122.4025 122.4575 122.6860 122.3644 122.7756 122.9190 123.0965 123.0438 123.4365 122.5402 118.6805 114.2664 113.6699 113.8923 103.3351 102.1306 102.4374 105.7644 121.2299 103.4896 119.7951 122.1377 106.7259 127.0176 125.6968 125.8832 125.5592 128.7147 129.6592 130.1419 125.5930 113.5963 126.9800
123.6600 122.7087 124.5656 123.3547 123.0011 122.9330 122.8034 123.4829 123.2210 122.2557 122.4326 122.3565 122.2712 122.2364 122.1562 122.0799 122.0747 122.0698 122.2005 121.8982 121.9994 122.0635 123.0939 111.6840 103.2310 110.3209 111.2242 119.5477 123.4801 108.7767 123.0431 122.6741 122.6780 122.7826 122.9023 123.0444 123.1994 123.1567 123.4308 123.5128 124.1281 121.7733 114.7737 110.9527 102.7090 101.7014 102.5147 103.8899 102.3095 126.5755 123.7702 125.7031 125.6541 106.6636 126.9663 125.7716 125.3273 126.1481 126.1189 128.5224 131.5053 132.7987 131.0911 129.9700
123.6600 124.0453 123.6301 123.3894 123.6454 123.5055 123.1393 112.9890 121.9233 122.6271 122.7030 122.6041 122.5940 122.2828 122.3351 122.3743 122.3502 122.2819 122.2347 122.4811 122.2506 122.3125 121.4987 111.7131 118.3822 114.1370 112.7026 123.0848 122.6544 117.8214 122.5240 122.8962 122.9164 123.0504 123.1478 123.2733 123.1261 124.4973 121.2512 124.0747 124.0167 123.8375 107.6553 104.0356 119.1964 100.7971 103.3796 105.9637 101.1061 113.7578 123.5155 125.1592 117.8647 125.0549 125.5282 127.6067 126.4441 125.0900 127.1528 126.9113 130.4970 127.7742 131.9141 131.0400
123.9100 123.8325 123.7947 123.1865 119.0119 119.1937 124.0785 120.9825 124.2265 122.8559 122.9610 122.9065 122.6740 124.1001 123.0980 122.6650 122.6561 122.5584 121.9040 121.8232 122.4927 122.5322 122.4285 118.7678 124.1155 114.4295 113.2432 123.7378 122.7503 123.8605 124.3020 122.3817 123.2400 123.2763 123.3837 123.4979 123.5537 120.3146 111.4627 124.0550 123.4660 121.9477 108.2354 102.6400 113.7692 118.2912 103.0873 105.8733 105.1056 101.4009 108.4991 116.7942 117.1884 125.9073 124.4597 125.0358 129.7061 126.0972 126.9499 126.5534 129.1977 109.9193 135.2091 132.4300
124.3700 124.1073 124.0218 123.8366 115.7194 113.3016 123.0699 123.7338 123.1451 123.2798 123.2311 122.9113 124.1591 107.5663 123.6323 122.9608 122.8962 123.0600 116.9717 124.3612 122.6017 122.9475 122.7427 123.1181 123.6474 114.8234 111.0721 119.6225 122.9760 124.9643 116.4045 123.8823 123.3855 123.5392 123.6059 123.7253 123.8035 124.0853 126.4116 124.0592 121.3888 103.2222 123.3971 102.3339 103.0325 112.6098 117.2052 105.1945 106.3166 110.4677 116.1049 106.0567 114.9179 126.9652 124.9337 123.2955 126.5571 128.9566 128.6062 126.0959 127.4658 129.3273 130.1919 129.3900
124.3700 124.2916 124.2191 124.0333 123.5114 122.4260 124.2772 123.5764 123.6000 123.5766 123.3920 124.1878 105.9982 122.9293 123.1241 123.2753 123.1358 123.1927 124.1727 114.0537 121.7509 122.9968 123.2692 123.9317 123.5777 118.2829 118.7349 122.7687 123.7741 121.8375 122.2313 122.8458 123.7296 123.6259 123.8173 124.1517 124.0363 124.0091 124.0387 124.0215 132.1567 113.2748 105.0146 104.9524 102.5746 115.2554 98.6605 110.8313 103.4293 102.4894 105.2623 104.2922 110.8989 129.1750 127.2485 125.6702 125.5387 127.3297 127.7631 129.2871 129.1610 126.6915 131.1103 129.3900
124.5900 124.4928 124.4239 124.0821 124.2834 124.2467 123.7317 123.9862 123.8374 123.7881 121.2700 124.6132 124.2102 123.6508 123.5193 123.4061 123.3843 123.4161 125.1954 99.1026 99.0154 123.4904 122.4648 114.9718 124.4271 123.4958 124.3610 123.6617 123.3907 112.7548 115.8721 126.1623 123.9731 124.3503 124.6187 122.0656 124.4089 124.5963 125.6257 126.0912 114.5029 111.9295 108.6731 102.6149 101.8729 116.1300 119.2269 122.8984 116.9494 105.5491 108.5303 107.1102 115.1168 130.8395 127.7202 128.4697 125.5412 125.8426 126.5722 125.3428 133.6802 115.2618 107.8182 129.4100
124.8100 124.6862 124.5736 124.5337 124.3749 124.2818 124.2620 124.1316 124.0697 124.1685 124.0465 123.7152 123.6878 123.7790 123.6915 123.7170 123.7091 123.3410 116.3024 115.1648 116.6016 122.6401 124.9996 130.6346 121.0771 124.5227 124.3268 123.3914 124.5214 125.7768 106.6183 111.2619 120.5585 122.0293 117.7776 113.2313 122.7157 123.4286 115.6446 114.2896 104.6843 111.0522 110.3678 103.0183 114.1575 102.0065 126.4686 125.0091 129.1394 103.7279 103.7162 108.2948 107.6037 124.5164 128.7500 128.3266 130.2306 122.9738 125.7729 126.8680 111.1669 105.1608 114.8780 105.5500
125.0000 124.8812 124.7885 124.6848 124.6038 124.5195 124.4437 124.3625 124.2883 124.1901 124.1438 124.1128 124.0757 123.9853 124.0056 123.6114 123.0013 123.8969 121.1759 125.5303 123.8219 124.7210 104.4878 102.6885 103.6196 114.9512 117.0060 111.6442 123.2257 115.9265 102.3992 109.6595 124.8899 122.8991 104.2991 101.2450 104.2191 125.7976 114.5239 109.4078 107.4887 108.3832 116.9128 114.0462 108.2003 121.4232 105.6000 125.8205 124.2401 108.1428 103.6784 110.1492 110.2485 125.7193 114.6986 130.0872 128.3602 129.0867 129.9458 113.8103 117.4284 103.1535 135.8775 105.7000
125.1900 125.0739 124.9779 124.8947 124.8035 124.7245 124.6453 124.5725 124.4996 124.4029 124.2662 124.3595 124.2159 124.2434 124.2347 125.0098 112.3127 107.8470 117.4937 124.5174 124.1418 124.1491 125.3743 106.1665 121.2782 124.3997 118.8188 101.6441 124.0358 125.4472 105.6263 107.1680 112.8898 117.9755 111.5961 102.0541 107.1919 106.0049 107.2461 107.2505 109.1663 103.6684 108.9767 108.6447 115.1803 108.6594 114.4495 111.3845 108.9982 104.4018 111.9184 107.3555 110.9009 111.5835 113.1623 112.5488 129.0592 129.4383 130.0295 116.7160 131.7060 125.4862 132.9729 105.7200
125.2200 125.2596 125.1630 125.0804 125.0005 124.9269 124.8438 124.7662 124.7285 125.0944 125.3718 124.5385 124.8129 124.3028 124.3491 123.9039 125.9005 125.9030 115.8412 109.3341 125.4017 124.3447 125.2733 112.3280 126.2291 124.0202 124.7375 125.7279 125.3538 126.2232 107.1203 103.7958 103.8459 108.8771 115.0961 104.1187 123.4859 121.6090 119.3028 103.1916 110.6999 118.1286 107.3718 122.6433 121.0763 116.6535 111.2052 105.3531 103.7658 104.1014 124.4243 127.8745 113.7581 111.8388 113.3004 130.4492 128.0858 129.2432 129.0618 133.0816 105.6587 129.5949 128.8791 128.1500
125.4200 125.4396 125.3538 125.2676 125.1956 125.1245 125.0861 125.0434 124.8006 121.1250 120.6116 122.1382 122.4567 125.2252 125.4743 127.3674 101.2534 121.9808 123.0675 124.9053 124.6250 124.5452 124.6054 125.7390 125.5099 124.4399 124.6400 124.6807 124.1136 126.2190 102.2847 114.2287 103.1209 104.0293 105.0406 108.2967 126.1019 125.6005 126.6975 114.7882 126.4853 125.6090 109.6245 117.2141 107.4502 122.5509 122.7651 127.7807 110.7792 103.7155 102.7758 121.7463 113.2080 110.8393 111.0677 129.8035 128.6022 128.4114 130.1628 130.2239 131.3068 126.3860 127.4916 128.2400
125.6100 125.6223 125.5261 125.4821 125.4163 125.2152 125.0195 125.3914 125.3446 114.4880 104.2143 127.5235 118.0708 116.5775 109.5729 107.6989 105.7269 101.4842 119.6809 124.5607 123.6153 124.7063 124.4360 124.1523 124.5168 124.8580 124.9032 121.7727 125.9902 126.5907 119.5257 119.2673 110.5886 103.4490 104.3138 106.7034 125.4259 125.9090 125.3929 125.6197 126.0270 126.2553 117.3594 108.2489 112.1150 117.4784 126.3535 129.1416 123.3479 108.2574 106.7301 104.3328 133.1474 133.6689 128.4038 130.2756 129.2083 129.2203 129.2717 130.0924 130.2794 131.1004 130.2904 128.3000
125.8000 125.8008 125.7100 125.6542 125.6000 126.0591 126.3294 124.9625 126.1550 113.8874 109.6857 103.2808 111.0903 117.5134 115.0534 107.8202 115.0743 109.7803 126.6147 124.8358 114.6176 125.0761 126.1124 127.9427 125.4795 125.0520 125.2200 125.1382 123.9150 116.3003 112.1951 105.5833 108.3433 104.0713 104.5308 114.1723 126.9505 124.2030 120.5376 125.8357 126.0060 113.7998 110.4183 103.1514 113.4520 118.3132 126.3580 126.8521 126.1134 106.5456 129.3481 129.6245 128.0343 127.3214 127.6579 128.1650 129.0151 129.8046 129.2684 129.5639 129.5769 130.7753 131.7840 125.3600
125.9800 125.9749 125.8954 125.8370 126.4155 109.7853 124.8495 124.9932 123.5688 99.3983 121.1147 108.7303 130.6259 127.5031 113.6260 112.3938 114.4753 110.9929 125.5610 125.1331 125.6485 124.5288 120.9604 112.5702 113.2241 125.9864 126.1640 119.1817 116.3525 121.4709 101.2888 109.0749 107.9440 123.9830 108.2587 107.2401 119.6020 125.7038 125.9280 125.8259 127.7219 110.7279 102.5724 110.4213 118.5273 123.2779 126.8877 127.3304 126.8981 128.6458 127.3367 127.8171 127.8269 128.3264 127.2023 129.0712 130.8608 130.1746 130.7273 130.3169 130.0709 130.1195 131.2735 132.1400
126.1500 126.1394 126.0783 126.0424 126.8014 124.9547 127.3171 125.0196 126.9990 125.6218 105.1333 106.0910 109.7797 126.6396 127.3724 107.7732 113.9053 108.1548 119.9521 124.0185 126.0904 126.9449 123.2502 111.1843 125.3926 107.9764 122.3322 123.2713 108.7162 108.5490 124.0828 119.5465 109.7917 106.7201 126.2343 111.3768 126.5581 129.9292 125.5853 126.4810 126.9569 126.4703 107.8755 104.5186 124.4137 111.4345 119.3786 124.9500 126.8191 126.9178 126.8312 127.9548 128.7687 128.5426 127.3193 129.0551 123.4984 129.2990 130.3937 130.4449 130.4050 130.4038 133.0945 131.6200
126.3500 126.3379 126.2023 126.1812 125.9531 126.1589 125.7874 125.9605 122.8200 114.2581 118.3536 122.5940 102.9500 126.2490 125.1892 125.8600 123.9922 109.3758 121.7509 116.0852 109.6754 120.7824 115.7295 125.2029 102.7636 117.4246 127.8047 104.6581 107.6419 108.6477 105.8185 110.1488 107.9817 111.6520 125.3047 107.2647 114.3453 118.8720 117.0812 126.1824 130.2880 109.7377 102.4695 103.8512 130.9582 119.5913 120.6006 124.0729 127.4752 127.1891 127.5570 122.0703 126.2311 128.1222 129.4454 127.7324 108.5159 130.7787 130.7625 130.2319 128.6293 131.5903 125.6866 131.6200
126.5200 126.5138 126.6991 126.5691 126.0456 126.2300 126.2024 126.0529 127.3180 128.6352 117.8541 118.4367 120.3158 127.0518 112.0893 122.7679 119.9488 123.8011 113.7698 107.2542 117.9873 122.3088 101.6634 113.6976 103.3563 105.0418 109.3264 119.9985 109.5454 104.0382 102.3472 130.7782 117.8357 123.3857 124.7885 113.3380 111.9061 117.7019 119.2178 121.6318 117.6532 117.2702 106.2240 120.1478 118.0997 126.7499 128.0404 127.7640 127.0501 127.3421 127.2929 128.0910 128.2432 127.7107 129.7427 130.3886 132.6891 130.7666 130.2258 130.8006 130.0133 133.0921 125.6120 131.4200
126.6900 126.6919 122.7688 123.7131 126.4307 126.4671 126.5158 126.2714 125.9902 126.3895 124.6629 123.1429 126.5698 126.7767 117.3769 111.3398 121.1821 126.2147 108.7967 103.9461 107.0703 127.7817 100.6698 112.9266 111.4683 107.6319 120.1429 114.7805 110.5756 105.1773 124.2880 127.2423 116.5521 119.7883 117.4985 114.5661 107.9420 102.7656 101.8269 127.1635 124.3417 110.1854 108.8937 120.8852 123.9439 127.3987 127.0262 127.2610 127.3840 127.4615 127.5494 127.0626 128.0831 127.9116 127.7417 130.0611 129.2999 129.1616 128.3333 128.5327 132.7491 114.9363 134.9881 131.4300
126.8600 126.7979 124.7938 126.3151 126.6014 126.3942 125.7306 126.5252 126.3967 127.6191 115.3042 107.1084 123.9875 125.8479 121.9616 110.3997 122.4586 125.5588 110.7567 103.0353 118.0666 126.2826 111.1576 127.1763 126.0051 118.0263 102.4123 109.0866 106.9968 104.8005 114.3058 126.5352 125.6972 122.1121 115.6581 101.7038 110.4874 109.6617 108.4105 102.9301 116.4309 111.4409 101.3267 127.4669 128.5991 127.0135 127.4155 127.4339 127.5100 127.6008 127.6625 127.9429 128.2391 111.2270 128.7193 128.3511 128.2161 128.1951 128.5237 128.3765 130.3091 124.7014 110.8430 106.8000
127.0200 126.7230 127.0656 126.8538 126.4536 135.0293 127.0683 126.6880 126.6843 126.5484 125.2641 106.7031 125.5583 113.7574 117.5934 118.6567 123.6772 125.9918 108.1629 116.6676 120.9139 127.5833 103.0958 112.6285 124.6937 115.2884 104.4842 104.6481 107.7532 109.8156 116.0062 127.8378 126.6463 123.5955 111.8679 111.3160 117.0861 110.9056 118.8149 128.7192 121.3334 113.0700 115.9240 127.4254 127.0121 127.4175 127.4703 127.5687 127.6422 127.7236 127.8058 127.8093 127.6396 124.3560 129.6864 128.0581 130.1750 128.3369 129.9461 108.2247 118.0063 128.5395 111.7117 106.9300
127.1700 127.1706 127.0318 126.9951 126.5494 126.9700 126.3134 126.9538 126.6320 128.0132 109.2286 105.6239 113.1527 121.1158 128.3793 123.7396 114.0349 126.7062 109.0048 104.4813 107.0776 134.3682 107.4820 119.3555 110.2652 111.2846 103.8385 104.6427 107.9119 113.0628 105.4012 128.2245 126.3199 124.7580 118.4323 123.1363 127.1164 119.9724 116.5151 108.7030 114.1541 118.1096 109.9079 128.3847 128.2478 127.4410 127.6458 127.6973 127.7789 127.9201 127.6235 127.8386 128.3745 128.2470 128.1069 128.4478 128.3656 129.0750 123.2592 124.2998 128.6536 116.3661 106.3783 112.4700
127.3300 127.2631 127.2292 127.1447 127.1834 127.1420 127.0854 126.9846 127.0304 124.1369 113.6204 108.0360 119.6766 118.7358 128.1523 119.8154 115.7881 127.4143 110.2595 106.6256 111.0800 113.3189 112.2260 102.0750 103.9138 103.1436 115.3780 106.9565 109.5312 109.4886 120.6426 128.8819 127.3748 122.2762 118.6252 127.7952 127.0912 122.9754 112.7880 103.1797 107.8383 105.3097 107.7084 113.5692 126.9944 127.7500 127.7505 127.8238 127.9671 127.4865 129.1745 127.0437 128.6498 128.1010 128.6287 128.1918 128.8458 128.7680 128.4672 129.4242 128.4455 131.4761 118.6234 110.9500
127.4900 127.4299 127.3745 127.3245 127.2557 127.2232 127.2034 127.1612 127.1070 128.3796 115.4556 113.5498 118.8197 105.3534 133.1579 115.8736 123.5610 126.0088 111.1419 119.7925 108.8169 107.7735 114.5019 109.7490 104.0753 110.8981 115.1513 105.6680 109.1111 120.9101 127.3700 127.8956 128.9186 111.5365 127.6239 127.7993 128.0984 117.1227 115.8042 107.4798 107.4926 105.9028 113.4947 111.3718 129.4518 127.8032 127.9164 128.1033 127.6484 128.2023 120.4470 111.2483 129.5247 128.4052 127.9991 121.7436 128.7843 128.7248 128.8118 128.7077 129.2737 127.5214 119.2710 107.2100
127.6400 127.5827 127.5213 127.4780 127.4315 127.3949 127.1526 127.2046 127.2330 127.6247 127.0836 122.6948 128.3946 117.4516 116.9467 107.0086 111.5551 128.4864 107.5074 121.7749 120.0506 107.7354 114.9692 109.4270 104.7117 113.4471 116.2324 108.5598 114.0764 119.0609 123.4528 127.2843 128.6813 116.5911 121.6187 127.2341 127.9067 122.6421 105.8125 124.0381 108.5838 110.9759 130.2172 124.4072 128.5928 128.0124 128.1508 121.7051 134.5094 127.4470 128.5045 128.3820 128.2024 128.5786 129.2002 128.7409 129.1024 128.2429 128.9866 128.9474 129.5122 122.0685 112.7438 111.9600
127.7900 127.7282 127.6726 127.6323 127.6039 127.3115 129.7356 127.4492 127.4220 127.2891 127.1823 124.5459 120.0360 113.5008 112.7266 104.5802 116.7837 115.5936 118.7709 128.3662 117.9155 105.5103 113.3925 107.0969 104.8216 104.1524 116.0371 109.4627 115.6956 113.2362 114.3721 127.3137 127.3971 128.7265 127.7401 128.6356 122.6751 129.7075 121.0703 122.7119 108.1760 105.1500 115.4540 126.4207 127.6586 128.1363 128.4374 129.5064 114.0526 128.0457 128.1576 128.5385 128.5950 128.6576 128.7579 130.2206 105.1483 127.7765 128.6959 128.5328 117.9996 120.4263 114.5722 108.3300
127.7900 127.8100 127.7200 127.7400 127.6400 127.6600 127.5600 127.5800 127.5800 127.4900 127.5000 119.1900 105.3900 127.4000 105.4200 105.4200 105.3000 110.6700 127.3100 127.3100 127.3100 108.5000 114.1900 110.0200 105.2900 105.4300 117.3100 110.1100 117.4900 105.5000 120.2400 127.4700 129.7800 127.5600 127.6700 127.6500 127.7500 122.0100 121.3800 115.6900 115.6900 110.6600 106.8500 113.6300 128.1600 128.2400 128.3100 128.3100 128.3800 128.4600 128.5600 128.6200 128.7000 128.7900 128.7900 128.8600 128.9500 129.0100 129.1000 129.1700 107.2500 122.9100 124.5100 108.3300
