123.8900 125.6500 126.2100 110.1000 109.3300 115.3100 119.7900 114.6700 113.7600 113.7600 110.7100 105.0100 105.0100 104.8100 104.8100 113.4900 113.4900 109.5100 109.5300 108.9500 108.6200 108.0800 107.5800 107.5800 114.9900 116.2200 110.2200 110.2200 104.6600 111.3100 116.6300 105.9400 125.3000 103.1600 110.4800 110.4800 120.3000 104.8300 125.0800 120.8300 134.3500 124.9300 127.6600 124.9400 124.9400 124.9300 124.9300 124.9200 125.0800 125.0800 125.0500 125.0400 125.1900 125.1700 125.1500 125.2900 125.2700 125.4000 125.5300 125.4900 113.9700 113.3500 125.7200 125.6800
123.8900 125.8479 123.4831 114.4351 111.0203 114.9076 114.5994 113.6054 114.0555 112.1687 104.4978 104.5692 104.7329 105.6541 110.7407 109.4036 110.7639 108.6931 109.5179 109.0421 108.3909 108.7070 107.2648 106.3150 118.6504 114.6784 102.7012 105.8931 104.4076 111.4784 109.4480 119.7940 109.5891 102.6801 107.3590 111.5800 117.1612 109.3330 119.3644 122.1719 125.7827 125.9325 125.3998 124.6568 124.7960 124.8116 124.8232 124.6521 124.6090 121.0688 125.0832 124.9896 124.9942 125.0435 125.0893 125.1445 125.2364 125.2383 125.4000 124.3110 106.2054 123.5176 125.0663 125.6800
114.2200 124.8179 126.7906 126.4321 117.4006 113.9589 114.6816 114.4211 112.9910 114.1338 114.6678 104.5535 105.5011 107.8179 113.3600 110.1371 117.4613 108.0572 108.6732 108.7949 107.1776 104.6246 107.5183 108.1835 109.6085 116.5867 103.1423 109.5555 112.9630 113.5859 105.5951 122.0615 131.7064 127.2665 105.5732 117.1130 114.7014 127.3024 124.6142 126.3280 124.7517 124.4246 124.5453 124.5396 124.5791 124.5966 124.6185 124.7232 124.1625 116.0543 125.0393 124.7721 124.7808 124.8349 124.8896 124.9649 124.9261 125.1587 124.2763 126.2517 111.2829 122.4530 118.3379 106.8500
114.2200 124.9889 122.2700 120.9228 119.1900 117.3382 114.7763 111.0834 111.3249 111.8204 113.5566 108.5590 106.1540 104.2051 106.6439 111.0584 109.8286 108.7831 107.4068 108.3358 106.4528 104.7911 111.6715 111.1683 104.9389 113.7606 110.2967 104.3910 110.4210 108.6759 107.4287 121.8104 121.6209 121.1370 107.1408 111.3677 123.2148 121.0999 124.0188 126.5829 124.2772 124.4168 124.3823 124.3649 124.3663 124.3190 124.3061 120.8001 124.8593 117.7313 124.6151 124.4855 124.5815 124.6276 124.7090 124.7777 124.9216 124.6426 127.0216 118.5027 102.0283 103.3941 99.9213 111.9600
123.1900 115.8958 120.0549 119.6711 119.0455 122.3804 117.6680 109.4239 109.9502 112.0962 114.2028 108.4792 103.4384 108.1760 105.5622 110.8759 110.3759 111.3814 108.8804 107.4457 107.1696 107.1969 107.9401 106.7185 105.5218 111.1762 102.4291 114.1087 106.3558 104.0040 108.9226 115.7819 125.0369 127.2059 111.1138 118.4266 124.8681 124.3083 124.4365 123.9419 124.0258 124.1525 124.1323 124.1316 124.1378 124.1033 123.8226 123.1171 116.3339 118.0875 124.5848 124.0448 124.3648 124.4236 124.4305 124.4991 110.3300 126.0546 114.4194 102.8677 110.9359 106.6787 119.5394 125.1000
122.8000 121.2898 114.1467 118.8307 118.9686 118.0316 119.4217 113.4892 111.9879 116.0227 108.2966 110.7986 114.6425 107.8476 104.1152 105.7534 110.3189 108.6536 108.7110 106.5807 107.2061 107.4671 105.2566 103.4768 104.9997 108.1026 109.4444 114.8449 109.5531 117.3851 125.6743 123.3549 123.8578 119.1143 102.5621 125.4419 123.9654 125.9940 123.7165 123.9817 123.9475 123.9110 123.8990 123.8878 123.8818 123.9493 124.2179 118.8540 108.5987 114.8238 123.0220 123.7151 124.1572 123.9384 124.8250 122.1963 99.9517 118.2258 115.9177 119.0570 130.5729 123.9649 119.5871 124.8900
122.6200 122.7019 122.9909 115.4248 116.2848 118.2779 117.5492 116.1380 113.6976 112.0613 104.8698 114.9483 104.3430 115.7041 109.3098 105.8268 106.4558 108.8186 108.5427 109.7873 106.8043 107.3458 105.3371 102.9619 103.6514 100.3043 110.5831 114.7243 107.0155 110.8767 122.6989 124.2896 123.9962 116.3272 121.0475 125.2664 123.6854 123.6784 123.6365 123.7177 123.6848 123.6691 123.6806 123.6675 123.6926 123.8399 124.1914 112.4411 111.7071 114.2540 123.4762 123.5817 123.8960 123.8855 124.9729 123.6787 106.9844 125.0848 121.5560 124.8235 125.8440 124.4603 125.5310 124.6800
117.0700 121.2945 106.5448 118.6420 112.6939 114.5525 117.1410 116.3399 117.2974 106.1374 108.6352 109.1348 109.7633 105.3291 108.5595 105.8664 105.2364 105.8026 104.1372 116.0157 107.1835 105.1949 105.5928 102.9417 103.1113 102.2408 103.3980 115.1142 120.4639 114.7741 131.3801 123.0410 124.1428 117.8421 123.9878 123.1044 123.5565 123.5549 123.5233 123.4699 123.4354 123.4176 123.2766 123.2287 122.9226 123.1856 121.3795 123.7595 122.9988 123.4863 123.5132 123.6634 123.6953 123.4369 126.4079 126.0376 124.0361 122.9256 116.3387 124.2987 124.7834 118.6098 124.9003 124.4600
113.8700 114.2130 114.0020 118.4286 117.6096 112.6956 116.7444 115.8038 115.4475 114.9330 104.1231 112.4824 110.2339 105.3681 103.6738 110.8420 107.7193 115.5966 111.8916 106.3025 109.5907 104.6051 105.0567 102.6902 102.3948 102.5281 100.5097 118.0420 133.7712 116.9260 125.6286 120.9984 125.4807 111.0232 123.7791 123.5120 123.3376 123.2903 123.2483 123.2105 123.1859 123.1675 123.6576 124.3763 125.7080 126.1299 104.9861 125.1360 120.9928 123.3193 123.3381 123.3528 123.2852 124.0248 120.8174 105.7740 124.2322 124.2627 124.2837 123.9015 124.8309 120.0353 125.2426 124.4300
116.0900 115.7423 112.8243 117.3014 117.6120 116.4786 113.3218 110.5578 116.8334 115.2970 107.7562 112.5883 109.9233 105.1261 107.8082 111.2547 104.9232 103.3545 101.8615 106.7299 101.9439 109.0387 102.0654 102.3892 102.6187 103.7002 110.1581 111.4075 123.3423 126.1073 123.9564 123.7441 123.2299 124.2928 124.3508 122.4086 123.2641 123.0332 122.9931 122.9523 122.9149 122.9378 124.1159 113.1372 109.0539 116.4105 123.7247 123.0272 122.6006 121.9244 124.8988 125.4128 122.6678 123.2201 109.5949 103.5554 124.0508 123.5081 123.5872 123.8150 123.8388 125.9008 106.8473 124.2400
121.3200 122.5358 117.0246 114.4312 113.5521 116.2629 114.7077 110.0865 116.0907 115.7177 114.3986 117.8953 107.8324 105.3805 102.9861 108.7168 106.6243 105.3281 104.5600 107.9663 106.2595 113.5347 103.2413 101.4781 101.7310 106.1029 111.7437 117.6787 122.4300 123.1493 123.1912 124.8098 122.4707 121.7674 131.8005 123.2068 122.9136 122.8073 122.7229 122.6830 122.6746 122.6262 122.7839 115.6868 115.4270 96.2396 123.9098 122.2670 122.7414 121.9512 109.7056 130.0406 123.6970 121.4462 130.0494 105.3823 124.0097 123.3181 123.4487 123.5609 123.5961 120.8855 107.2222 124.0200
121.3200 121.2952 121.0847 114.5148 112.3050 115.2700 116.2819 115.3599 111.4229 113.2631 116.4725 115.4121 115.7535 105.8921 103.5422 104.3086 106.6691 107.7719 111.9284 102.4464 128.3321 109.1346 110.9978 102.3340 109.4175 106.5910 115.6488 124.8910 122.4210 122.6855 123.1419 124.0098 101.0264 124.2252 121.7101 122.0281 122.5780 122.3613 122.4081 122.4164 122.2496 122.0087 125.2732 110.7944 104.6687 100.2565 122.7582 122.2076 122.4280 121.3388 126.1037 113.9752 118.7329 112.4825 106.5828 124.1315 123.6395 123.1337 123.2089 123.3450 123.6161 115.5832 111.3781 123.7200
113.8600 115.6697 121.7922 117.2986 113.3728 106.2911 111.5371 112.1703 115.4013 112.6017 110.6213 109.9861 118.3405 110.0677 104.3744 103.0699 102.7160 109.0682 108.4490 106.6435 120.8897 119.5888 115.2390 112.0757 110.0720 101.1983 118.1729 124.1118 110.5305 119.3837 122.6622 122.6222 110.3786 117.3354 123.3419 122.3754 122.4538 123.4157 122.4410 122.0362 122.8531 123.4296 113.9431 103.4758 101.0281 105.8947 122.5645 122.0674 122.1258 122.1771 121.7313 117.3193 123.2729 122.5728 112.2453 125.9128 122.0917 122.9061 122.9867 123.0909 123.1147 124.4818 108.1459 123.7200
121.1900 111.3788 116.0830 113.8696 114.6008 110.2075 112.6025 110.1772 111.0995 118.3469 112.4349 110.3972 108.2117 112.2368 115.9478 107.5353 102.8955 103.0381 103.6366 103.4117 101.6940 100.8391 117.7787 124.7012 115.0100 108.6850 120.7309 116.8531 112.2490 117.8957 122.8452 122.9995 120.4147 110.2750 122.9796 122.0919 122.3159 112.1856 116.3464 122.2022 122.6584 110.6718 123.0542 116.9772 115.7499 112.1836 121.6632 121.8762 121.8420 121.9343 121.7884 121.7211 121.7765 122.3297 122.4628 122.4807 122.6515 122.6306 122.7403 122.9674 122.6773 124.0100 114.1919 123.2700
120.6700 119.9115 112.6398 109.0211 113.2983 115.1553 114.2388 112.9701 110.0157 108.1742 118.3609 119.2652 103.4258 114.9354 116.2457 106.8608 106.2011 102.7753 104.0587 106.6343 106.0789 104.4061 110.5602 125.5811 121.0904 116.6349 111.8922 106.4735 101.2439 117.9878 122.4221 122.5529 115.2340 118.9926 122.5230 119.7883 118.3081 105.8299 107.1902 120.6790 121.4024 119.8716 121.5660 121.4431 120.5476 121.5071 121.3093 121.5126 121.5457 121.6089 121.6170 121.7187 121.9286 121.9280 121.9622 122.0916 122.2605 122.3763 122.5045 122.5261 123.6146 123.5520 123.0240 123.0100
108.9500 115.1082 118.4860 107.8963 109.9016 114.6585 113.9215 114.2874 112.4935 108.9789 108.7523 110.8618 102.6314 110.6184 116.1653 113.3564 105.8964 102.3584 102.3488 110.7685 111.2461 118.8129 107.5307 105.8876 124.9068 116.2590 116.0700 110.0471 117.9500 117.9919 117.6251 121.9423 112.5836 123.2581 118.9826 112.4501 115.5043 106.0151 106.3343 121.2890 120.9621 120.9942 121.1008 120.9560 119.9982 119.5410 121.1104 121.1855 121.2019 121.2841 121.3734 121.4469 121.5145 121.6318 121.7510 121.8629 121.9811 122.1167 122.2410 122.8437 119.7666 122.2593 122.7987 122.9500
114.3900 114.1447 114.4308 120.8386 114.8416 104.5434 106.3283 112.8647 111.0937 110.9391 109.0518 110.0603 109.7899 115.2406 105.8583 108.6209 108.4125 101.0444 109.0262 108.8442 109.2652 114.2044 121.8455 122.3142 124.0571 122.8947 123.8333 112.8230 117.9827 114.4737 110.0542 122.8155 122.3785 119.5365 113.4211 109.4841 108.6675 105.8338 105.5000 121.9548 116.0054 121.5355 120.6726 120.7000 120.9075 120.8518 120.8106 120.9038 121.0046 120.9681 121.0416 121.1348 121.2314 121.3393 121.4538 121.5778 121.7149 121.8500 122.0204 121.9927 122.2422 122.2429 122.6740 122.7100
126.0700 125.8792 112.8059 113.7721 112.1960 113.6496 109.1750 112.0235 113.9790 110.6041 112.7510 107.8324 105.9888 110.6191 111.0010 105.6725 101.9537 112.6044 107.1274 104.0715 101.8674 115.7986 123.3525 124.3119 114.3229 111.6487 111.1062 111.3052 110.8826 111.2836 110.6083 113.3355 120.8335 109.9472 108.2031 108.0598 104.8839 106.6791 105.4236 110.2686 104.6310 104.4854 106.4190 121.3181 120.2396 120.7268 120.3834 120.2244 120.1349 120.6195 120.7033 120.8079 120.9173 121.0310 121.1598 121.2858 121.4318 121.5804 121.7256 121.8988 122.0420 122.2240 122.3961 122.4600
120.0800 125.5201 124.9145 113.0300 112.4292 111.7329 112.8680 113.5000 112.3888 109.7797 109.0498 112.3916 108.5506 104.6132 110.7518 111.9835 103.8787 99.8909 113.6398 112.0957 101.9153 104.3613 111.3921 121.1206 111.8170 108.5963 96.3504 106.1500 111.0334 110.5110 109.9045 109.4927 121.3962 113.6664 107.4613 108.0631 106.0738 108.1791 106.2002 107.8293 115.1067 106.1974 108.6637 120.8699 121.2664 116.6152 120.2115 121.3535 121.3033 120.1364 120.4319 120.4922 120.5961 120.7166 120.8526 120.9939 121.1444 121.3067 121.4629 121.6325 121.8069 121.9815 122.1500 122.1600
118.9000 118.8329 112.5941 110.6628 111.7369 111.2979 111.3027 111.4523 111.2569 109.3731 103.6475 111.0755 109.7116 108.9030 104.6061 105.3859 110.2330 101.1982 109.3251 107.9957 107.2584 117.9285 123.0106 122.0913 122.9632 120.0343 98.8949 100.4048 103.5187 109.8702 109.1351 108.4409 108.1311 102.3282 101.6639 107.1062 98.9242 99.8128 108.6633 104.7743 102.3464 100.5429 107.5422 122.1811 104.9453 114.4320 114.8352 96.0450 119.3081 120.2009 119.9012 120.1524 120.2548 120.4023 120.5337 120.6904 120.8536 121.0175 121.1912 121.3664 121.5268 121.6999 121.8792 122.1200
119.3400 117.3730 119.0353 111.5258 111.8668 112.4260 109.2675 109.9034 109.7431 113.5721 106.4995 103.7651 103.3486 107.9101 113.5026 105.3969 101.6143 101.7581 108.4255 114.9678 120.8996 121.7922 122.1960 121.5842 122.2002 108.0197 98.8989 97.8189 100.3680 113.7824 108.7028 108.1600 108.9073 118.0928 102.9072 99.4628 97.3957 98.0627 104.0779 103.3223 105.7406 96.1813 101.8888 112.1402 99.5288 114.3163 102.1097 107.8864 121.0804 114.4019 119.8013 119.8203 119.9066 120.0629 120.2168 120.3832 120.5503 120.7344 120.8976 121.1073 121.2638 121.5052 120.0983 121.8500
112.2300 110.1126 114.5631 117.2076 116.9078 110.5164 110.0276 112.9970 108.5789 114.4402 109.9108 109.8213 102.8270 111.3046 106.7474 112.8573 102.2766 101.8401 113.5541 117.6347 122.5965 121.8859 122.2480 123.8394 115.2560 98.5821 101.5462 103.6818 118.3252 115.5436 108.1009 106.9718 108.0539 107.2776 103.8922 102.4449 106.2709 109.8352 107.2405 103.6862 99.9097 107.2638 99.1545 99.0304 98.4696 110.1479 105.0763 104.5304 116.5866 112.7312 119.6823 119.4582 119.5518 119.7128 119.8826 120.0655 120.2597 120.4291 120.6389 120.9242 121.0592 121.3315 121.8864 121.5300
112.0600 111.5441 109.0873 109.7070 113.9192 109.6496 110.9614 108.3674 108.6221 107.9399 108.4903 108.3453 102.1309 102.5075 101.9908 105.4144 105.6370 102.5339 103.9404 115.8910 124.1118 121.7011 121.8202 112.8265 115.1141 98.2115 102.9146 107.5260 115.2375 121.2694 113.9235 107.0154 108.0985 108.0294 102.1117 100.7703 106.2024 106.9149 103.7577 104.1011 96.6733 109.9236 95.6783 96.0075 94.3020 98.7351 116.1476 116.6437 119.4708 118.6940 118.8459 119.0044 119.1899 119.3636 119.5464 119.6317 119.8775 120.1620 120.3361 120.2720 120.2119 121.0624 121.1595 121.4900
111.8200 109.4940 105.0747 108.6893 108.8882 107.5230 108.0867 108.0741 107.9908 106.3582 107.4462 106.8723 108.4616 108.2117 104.2527 106.4793 105.7481 110.1583 106.1047 122.6104 114.0216 112.1577 110.1775 99.4599 102.1457 101.7581 106.0119 114.1347 105.0286 114.7029 120.1691 106.8316 108.9027 109.5294 98.3586 100.5818 101.6369 98.0201 98.4278 102.0543 95.1741 94.2665 96.8247 111.5403 113.5066 103.5166 116.0762 116.4530 118.1134 118.3178 118.4655 118.6287 118.8068 118.9733 119.9581 119.4357 119.8403 119.7748 120.0557 120.3874 119.8388 120.7713 120.9796 121.1200
103.8900 112.5483 107.2598 110.1468 109.2760 107.6284 107.7207 107.1115 106.8053 105.1661 104.5322 104.5857 107.3489 102.9633 107.0884 99.6517 114.0441 116.3074 117.9283 123.9269 117.5497 123.7777 119.6660 107.9867 99.3004 96.9459 125.0325 119.4928 122.2594 119.1457 120.5932 115.6102 107.4612 109.7260 107.8919 107.7979 98.0267 100.1418 99.6937 100.1537 94.4311 99.1121 103.1800 116.9862 116.4638 118.3822 117.6992 117.8101 117.7731 117.8668 118.1922 118.2420 118.3987 118.5509 118.6305 110.4299 120.3572 119.4728 119.7043 120.0503 120.2690 120.4978 120.7435 120.8400
115.7600 114.4643 113.7803 112.5685 106.8627 107.2597 106.8519 105.1342 112.4802 113.7584 110.1173 105.5237 102.0564 101.2538 100.8544 111.7047 109.3881 111.6648 122.5166 121.1970 123.2203 121.7520 120.9227 102.4522 103.9619 94.7586 105.1727 116.9612 119.7906 119.2517 119.1766 113.4559 102.4561 106.4591 107.7644 106.8696 94.9047 103.6247 106.5895 115.5444 97.5732 113.6673 115.0182 117.2639 117.0584 116.8358 117.0205 117.1595 117.2549 117.3933 116.7185 117.8173 118.0102 118.1346 118.4004 117.6509 119.2319 119.1258 119.7968 119.6533 119.9960 120.2452 120.5096 120.5200
115.7600 115.4830 114.6034 113.9182 113.3318 112.3495 107.2849 106.8858 102.3863 118.7878 106.7435 105.5744 104.2051 100.1050 112.5954 109.7578 114.1769 118.6045 108.1508 122.8548 121.5123 112.2870 125.8461 101.9255 121.0312 104.8491 121.0821 112.7856 117.8935 119.0659 119.0011 118.5813 118.9849 108.7627 99.7518 111.9706 103.7522 95.4043 109.2701 94.4816 101.1846 115.8615 116.4648 116.3845 116.4272 116.4637 116.5354 116.6569 116.7973 114.6854 126.1432 117.2242 117.5452 117.8493 118.0285 118.3807 117.8021 122.2553 117.8219 119.6003 119.7044 119.9934 120.2695 120.4300
111.3800 111.2911 110.2772 114.6383 109.7190 108.1275 105.8483 105.8132 105.4045 105.5343 103.5657 101.9432 101.0711 100.9132 105.5402 101.2609 115.5543 101.5947 108.7671 122.5157 123.5391 106.5361 111.5081 105.3506 106.5735 101.2160 97.5570 120.0233 119.1441 118.6797 118.2804 118.6137 107.6998 94.3769 96.4126 104.1628 98.0306 95.8366 99.7107 95.1987 107.2629 116.4818 115.8994 115.8485 115.8027 115.8723 115.9641 116.0993 116.2891 115.8351 115.1903 117.6666 117.1291 117.4153 117.6263 118.8976 111.2027 119.8956 118.7141 119.1373 119.4766 119.7057 120.0883 120.1100
111.3900 111.1602 110.0673 109.9135 109.1967 110.8183 106.9400 105.9119 105.5075 102.8239 101.8136 101.1011 101.0215 101.7624 101.6205 100.0403 100.3169 105.7174 104.2771 103.4476 101.4248 101.6597 122.9192 117.7167 120.7846 104.6006 117.2336 120.1892 118.6816 118.3907 118.1618 117.3169 119.6687 108.8080 99.0801 98.9212 97.2888 95.7247 111.4572 116.8466 116.6216 115.4905 115.3475 115.2253 115.3393 115.2882 115.3567 115.5082 115.6917 115.8527 116.4740 116.3259 116.6826 116.9745 117.2865 117.5411 117.9690 118.6123 119.2476 118.7961 119.2122 119.5314 119.8624 120.0200
110.3300 109.6815 109.8887 109.6018 109.0503 108.5513 108.6487 106.5991 105.2160 110.4726 101.1589 101.3749 102.7134 99.7939 117.2030 105.4670 109.8574 115.7585 104.9527 102.8747 102.1635 105.1068 100.5835 118.6526 117.2833 110.0135 110.8744 115.6463 116.8488 119.7922 117.7448 117.3386 115.0856 96.5012 98.1805 102.6923 95.3409 96.2780 112.9628 109.4477 106.3582 115.0952 114.6157 114.1349 113.7212 114.4524 114.7062 114.8845 115.0798 115.3178 115.5371 115.8906 116.2121 116.5288 116.8781 117.1977 117.4547 117.8694 118.2375 118.5951 118.8412 119.4197 115.4725 119.6400
112.3600 112.9132 109.9503 108.7925 108.8697 108.9067 108.1556 107.2372 107.3710 105.4835 101.5775 101.7533 106.4317 101.8370 112.9637 105.8619 109.4167 115.8677 113.9926 114.0164 101.8013 111.3528 100.4955 101.7684 101.2142 122.0893 107.2199 105.0077 100.1302 113.7731 113.1525 120.5613 118.1234 101.9431 97.8739 93.5688 96.5112 97.0724 115.6493 115.2723 108.8063 114.1527 111.5261 116.9026 117.8484 113.6682 114.0072 114.2049 114.4416 114.7271 115.0369 115.3645 115.7212 116.0787 116.4407 116.8423 117.2180 117.5978 117.9343 118.3645 118.3864 119.7437 107.7396 119.6100
114.6100 116.5941 114.2644 111.9047 108.7719 108.3789 107.7341 108.4714 107.6255 104.4260 104.4393 104.3903 100.7528 105.3142 99.4471 103.3900 99.9908 108.2762 101.8127 102.3560 109.8646 109.9915 100.9563 95.3300 122.3569 116.2779 104.7900 121.2245 105.1475 97.3217 97.2424 106.4503 90.8596 96.1831 94.0420 102.7717 107.7536 88.9984 102.9302 114.0687 113.3752 114.4243 95.7079 116.3054 114.7888 113.0073 113.2372 113.4849 113.7631 114.0909 114.4382 114.8187 115.2194 115.6235 116.0297 116.4342 116.8487 117.2489 117.6416 118.0135 118.3795 119.4424 120.2321 119.5300
122.6300 113.2868 114.8287 112.0534 109.0438 107.3366 106.9731 106.6737 107.1631 106.8755 105.9210 104.6728 102.1295 105.4509 100.5589 106.4614 104.9171 104.0043 104.3823 114.2471 96.8579 115.8057 111.8489 102.1784 107.9958 94.0368 119.5249 117.6147 119.2402 111.3944 95.3451 93.6673 95.3796 101.2486 104.4407 95.9533 112.2679 98.6515 89.1564 112.7339 112.2557 114.1074 101.6794 113.1653 112.0208 112.2218 112.4330 112.7032 113.0367 113.4140 113.8214 114.2556 114.7010 115.1526 115.6115 116.0545 116.4921 116.9251 117.3543 117.7555 118.2115 118.0805 118.7611 119.1100
112.2100 110.8813 118.1673 110.2761 109.5693 108.2397 107.7461 106.5252 104.8654 102.9859 99.5272 103.0311 104.3245 100.0243 100.0481 96.9576 111.1751 114.3208 114.9768 102.2957 103.9174 106.2121 109.7646 108.6389 108.5018 102.4402 111.5667 119.4075 118.3822 116.4099 106.8039 94.0842 93.7824 102.9021 108.4643 90.3473 105.8769 116.0773 83.3128 111.3709 105.5166 112.0143 111.3263 111.5846 111.1986 111.2921 111.5329 111.8598 112.2576 112.7075 113.1784 113.6771 114.1808 114.6833 115.1878 115.6717 116.1484 116.6223 117.0698 117.5081 117.9592 118.0091 118.7913 119.0400
112.1900 112.3013 109.8955 109.6175 108.0580 108.3309 108.5763 109.3176 107.6159 106.6603 105.0101 101.0928 88.1218 100.6883 102.2405 108.2980 112.6659 110.7869 111.5581 111.9474 112.0165 106.4007 110.8721 110.2023 109.3359 108.3831 104.0698 101.3911 108.2333 110.4414 117.2965 110.9623 99.0649 97.5013 94.7588 111.8975 111.9874 111.8789 101.7327 106.8421 103.5087 110.7894 110.1867 110.0168 110.0642 110.2391 110.5404 110.9471 111.4250 111.9557 112.5115 113.0828 113.6525 114.2174 114.7700 115.3021 115.8181 116.3115 116.8030 117.2681 117.7034 118.1585 118.5381 119.0400
108.9000 109.3165 109.3265 108.3211 108.0699 107.9013 107.9998 108.1539 105.3617 103.5247 102.7781 101.7671 107.8522 100.2037 101.2003 105.4592 112.5751 108.8845 106.5606 105.4831 109.8445 108.5087 105.6914 108.6748 99.1071 98.3869 112.6995 112.2927 104.3437 98.8013 106.0549 111.0217 115.1108 108.2055 85.8377 94.1206 112.0556 112.0704 111.4084 104.1837 110.2304 109.1440 108.9612 108.7831 108.8193 109.0441 109.4359 109.9451 110.5381 111.1751 111.8254 112.4879 113.1313 113.7606 114.3617 114.9513 115.5049 116.0348 116.5467 117.0392 117.4958 117.9470 118.3760 118.6200
112.5100 108.3036 108.6119 108.3243 108.2766 108.2999 107.3098 106.7102 104.7818 101.9385 100.8193 99.5199 114.6100 107.8121 99.1673 98.3580 106.9090 106.5126 102.7284 103.2209 104.3387 119.9981 119.5057 107.4363 100.9285 106.7444 99.9469 120.0535 103.5439 100.2830 96.7005 94.0674 101.9330 116.4255 113.0372 89.6961 111.9998 110.4189 110.2135 106.6664 109.2712 108.0168 107.5613 107.3137 107.3533 107.6612 108.1889 108.8470 109.5869 110.3610 111.1348 111.8932 112.6207 113.3203 113.9823 114.6077 115.2119 115.7748 116.3181 116.8297 117.3157 117.7843 118.2086 118.5700
110.0300 108.9312 108.1399 107.7801 107.8378 107.2236 104.6852 105.6495 103.8371 101.5238 101.5898 115.5989 109.8472 110.5532 108.7767 97.7183 117.4757 107.7067 118.3377 114.6014 102.3401 101.1053 99.2868 97.4700 95.0690 112.5880 103.2214 120.0412 100.2340 116.8669 92.4846 92.1643 97.2231 96.0233 98.9592 112.0132 111.2872 110.4189 109.9193 108.1691 107.2917 106.5332 105.8724 105.5494 105.6068 106.0579 106.7828 107.6557 108.5919 109.5332 110.4427 111.3149 112.1335 112.8971 113.6265 114.2988 114.9425 115.5396 116.1031 116.6446 117.1469 117.6390 118.1073 118.5200
109.4900 108.9853 108.3824 108.1110 107.9604 107.8159 105.7922 105.6455 102.6334 101.6006 109.4491 113.1654 98.4548 109.3898 108.3450 97.1738 118.3329 118.9829 120.5090 114.7217 100.8284 110.1073 99.1665 97.9313 104.2136 99.3887 110.6016 116.0364 115.6393 117.4351 96.5263 96.5653 91.9976 99.5106 99.5046 90.1546 113.7229 103.1309 96.2011 107.7391 105.8458 104.8367 103.8531 103.3188 103.4190 104.1185 105.1818 106.3736 107.5786 108.7171 109.7897 110.7767 111.6882 112.5256 113.3039 114.0295 114.6995 115.3304 115.9243 116.4801 117.0061 117.4966 118.0400 118.1700
107.1800 108.2884 108.6812 108.3616 108.3840 107.7065 107.1435 106.2892 103.3636 101.2734 99.5514 117.1875 106.7038 110.5888 109.9463 112.0667 110.7074 117.9816 104.5065 122.8534 114.2975 114.1389 97.2740 115.5751 97.6618 105.4267 121.7903 117.2209 116.0911 115.2759 110.3427 93.1735 91.2837 112.6717 100.9691 98.9836 118.7733 102.4191 105.8590 106.3749 104.5016 102.8505 101.2819 100.3611 100.5781 101.7388 103.3880 105.0331 106.5740 107.9519 109.1914 110.2933 111.2921 112.2099 113.0332 113.8056 114.5124 115.1634 115.7780 116.3501 116.8930 117.4823 115.7287 118.1300
109.7900 110.1729 108.5805 108.5619 108.2137 108.4056 108.5889 105.0760 104.4757 100.8208 99.3558 115.4801 106.8304 113.9418 116.0466 113.9770 114.7444 111.1626 110.9934 110.3133 105.8437 112.6614 116.0772 106.8077 100.7702 106.0247 109.9945 108.6032 116.7385 115.4021 115.2906 115.7708 110.3773 104.9099 111.6634 111.1789 108.3899 108.3205 106.9218 105.0727 103.0751 100.6311 97.8818 95.5656 96.0592 98.8710 101.4476 103.7544 105.6729 107.2713 108.7031 109.9731 111.0423 111.9696 112.8286 113.6289 114.3578 115.0395 115.6707 116.2343 116.5693 119.9358 98.2707 100.7000
109.6500 111.1567 109.0930 109.1770 109.1470 108.9426 107.9013 104.0706 108.7713 100.8127 106.6331 104.9997 111.2120 109.4720 122.3850 122.3752 122.0293 115.3245 113.3250 111.8456 115.4368 115.0746 113.1680 103.6385 103.1457 105.0349 104.2482 98.3097 111.8372 115.2690 114.7713 113.4719 113.8730 109.8891 111.3574 110.2544 109.3214 107.9201 106.2064 104.3153 101.8240 98.5362 93.0966 88.9261 89.6727 95.0576 99.6495 102.7028 105.0113 106.9924 108.3727 109.2025 110.4601 111.7760 112.6932 113.5067 114.2577 114.9460 115.5969 116.1919 116.2896 117.6917 105.6436 118.0800
121.3300 119.0589 111.8792 109.4772 110.0404 108.5331 103.9291 103.4289 100.8741 101.1670 114.1446 111.9901 108.9774 119.1900 123.1354 121.7088 121.5928 122.1360 122.4467 122.1623 121.3595 123.2254 104.3470 121.2367 120.0237 120.0806 121.4594 120.3582 116.5063 114.8337 114.7603 114.0273 114.3588 99.2056 113.6673 110.2805 109.1193 107.6975 106.0367 103.9175 101.1553 97.1630 89.3325 84.8609 85.7199 92.1922 98.6278 102.1176 104.4792 105.5429 108.0878 111.7744 112.1452 111.7155 112.6301 113.4774 114.2211 114.9167 115.5292 116.2829 117.4617 102.8867 120.1613 118.0600
124.5700 112.4143 111.3722 108.7180 108.3635 106.3870 103.2253 101.6995 101.7874 105.3004 112.3675 109.6275 108.3242 119.2206 121.0483 118.5987 116.8677 117.2019 114.6756 115.0153 112.8270 112.4433 114.0460 112.8254 118.6656 103.6623 103.4716 116.4852 115.3971 117.3709 114.4307 113.9471 114.5412 95.9236 109.1385 110.4043 109.1477 107.7425 106.0815 104.0096 101.3263 97.5255 90.2994 85.9773 86.7653 92.8867 98.9078 102.4203 104.8798 111.6857 103.8783 98.6625 108.8387 111.7081 112.6684 113.3934 114.1996 114.9095 115.5415 116.2118 117.0483 107.4314 117.9278 118.0600
108.1000 107.5170 107.7222 108.1014 106.9312 107.8915 107.7434 104.2412 101.7013 103.6451 105.1765 114.3701 117.3673 113.8138 113.2326 113.4287 112.3938 111.1960 109.6500 107.8623 104.4918 102.0378 99.1065 105.9776 118.1937 108.7015 105.9011 117.3659 115.9977 116.5278 114.7315 114.0034 114.4984 103.8807 110.8363 110.4712 109.3520 108.0061 106.4508 104.5749 102.2502 99.4977 95.1935 91.2136 92.0134 96.6732 100.2173 102.4616 104.7856 103.8494 117.8191 91.6925 106.9721 111.1843 112.7499 113.9097 114.4117 115.0757 115.6897 116.4557 116.8326 115.8480 118.8308 118.0700
108.3800 108.4424 108.4644 108.5924 107.8497 108.1169 105.7820 104.3665 101.7388 100.8073 109.1831 109.3231 115.8729 119.3702 115.8664 119.9704 113.4347 114.9209 118.2141 117.6312 118.1317 116.5128 114.1038 117.6428 118.6119 118.9574 118.4849 116.5769 115.9658 115.3332 114.8770 114.2651 113.9528 114.3134 112.3192 110.9108 109.6922 108.4543 107.0645 105.4619 103.6106 101.5314 99.3283 97.7716 98.1215 100.0292 102.1093 104.9205 103.5963 114.7373 120.3390 89.4022 95.1839 115.4934 114.7540 111.2187 113.9888 114.6651 115.9275 114.4178 117.0201 117.3749 114.1836 97.1700
108.4600 108.6268 108.4703 108.0324 107.9357 107.0956 105.8902 104.3083 101.6687 102.3048 119.6537 113.2302 122.5236 122.9080 122.6772 122.9884 121.3352 119.8556 122.9045 121.9498 106.8075 110.8860 117.9374 120.0634 118.5475 118.3636 117.0522 116.7849 116.2449 115.6744 114.9359 114.2119 113.5478 112.2945 110.6718 111.2356 110.0040 109.0558 107.8403 106.5146 105.0801 103.6202 102.3363 101.5647 101.7337 102.6252 101.4289 92.3763 86.6634 92.7956 93.8847 88.5361 96.0194 92.0985 99.0957 109.7578 116.4348 116.4330 115.8438 116.0464 117.5470 117.4263 117.8986 118.1100
109.1700 109.4456 109.4700 109.2372 109.0282 107.7061 104.4237 102.3706 101.7459 104.0622 120.5930 102.2737 124.3053 110.5584 111.6928 107.3879 107.6142 101.5728 98.7603 124.0536 106.5906 101.9470 109.4822 118.5158 111.7787 115.7453 117.2800 116.9212 116.3588 115.7668 115.5776 115.0825 114.2179 113.7658 112.5009 111.6961 110.6187 109.7438 108.6975 107.6165 106.5373 105.5023 104.6646 104.2235 104.3217 104.8031 106.7177 107.1929 105.4446 108.5813 110.8552 85.5622 93.2885 103.1143 103.7200 94.9638 98.4481 97.4481 115.9607 116.7916 117.5083 117.3719 117.9326 118.4600
107.7900 108.2851 108.1396 107.8508 106.8594 107.4268 108.8728 102.9353 102.1302 100.0917 116.6552 98.7124 103.7781 102.9383 101.2917 100.2179 97.4126 119.4072 105.0354 101.3628 99.1574 98.9631 111.5032 117.6813 120.9543 124.5166 117.6120 116.9675 116.5738 116.2852 110.5357 101.2059 115.9729 112.7892 112.5565 102.2573 112.4342 110.3462 109.5783 108.7175 107.8647 107.1107 106.5378 106.2540 106.3080 106.6818 107.2136 107.6409 110.3361 101.6269 102.4388 97.2859 90.5816 94.3343 91.9406 107.2783 101.5837 113.3901 108.7685 103.5039 101.5192 119.1880 118.1355 118.5000
108.1000 107.7782 107.5066 107.5534 107.1080 106.5814 103.3584 101.6254 101.0844 111.7214 111.9503 104.0252 106.2795 104.5190 115.6743 99.0995 111.7857 98.1187 108.1122 98.5280 102.9356 101.3373 99.3018 98.0325 115.2035 119.0437 117.6365 117.0918 117.0166 116.3240 116.6656 107.2799 114.0836 114.5622 99.8022 110.1782 111.6250 111.2521 110.4160 109.7502 109.0750 108.5112 108.0967 107.8936 107.9361 108.2130 108.6524 109.2682 110.0437 98.6779 113.1703 111.9804 112.9157 115.5816 96.8201 96.2384 95.1615 104.5467 106.7695 103.0442 102.9547 107.6649 105.1847 106.8300
107.7800 108.2711 107.3183 106.6273 105.6202 103.9025 103.7300 101.8336 101.7346 102.5143 105.9401 106.9928 117.6886 100.7575 107.1924 116.4268 107.1860 99.9854 109.7798 103.6176 103.0951 121.4745 98.5617 120.3815 119.0679 118.3550 117.9375 117.7740 114.0526 118.4540 110.7198 115.5394 115.0481 114.4847 113.1017 110.1901 112.4796 111.8647 111.3014 110.6762 110.1772 109.7435 109.4304 109.2764 109.3107 109.5142 109.8606 110.5966 108.7265 112.8682 112.1166 112.5244 113.0905 113.4658 117.1782 102.1478 97.0110 108.1541 98.8809 113.8440 106.8160 100.2368 105.4407 109.0000
112.6300 113.0008 106.6643 107.4973 107.0685 103.7712 111.5855 101.1971 101.9533 111.1414 115.4826 99.8414 107.4058 105.6760 101.0473 106.9008 110.3195 103.4268 102.0096 106.1914 99.0310 97.4675 108.5937 118.6741 118.5121 118.3991 117.9356 121.8402 95.7581 116.1010 105.3343 117.2419 116.4650 115.1939 108.8589 110.8704 113.5404 112.9798 112.0828 111.7019 111.1580 110.8252 110.5870 110.4739 110.4980 110.6549 110.9361 111.0734 112.3217 112.3678 112.7995 113.3617 113.9770 114.3804 114.7451 111.3579 110.5054 95.5753 97.5106 104.8796 101.2972 100.9757 96.7043 107.6300
112.5700 111.9026 106.6721 107.1278 105.9425 106.0428 101.8735 100.7410 99.6897 113.0692 102.3924 110.3276 117.8570 115.8085 114.2521 101.0928 109.6517 106.8004 117.1684 102.1891 103.1326 105.3659 120.3409 120.2925 119.3845 119.0043 118.2279 117.4912 114.0236 111.8675 114.7314 109.6228 102.1354 102.8360 117.0193 110.3039 112.6364 115.1802 112.8209 112.0013 112.1274 111.8213 111.6120 111.5250 111.5385 111.6664 111.8855 112.2244 112.4330 112.9729 113.4156 113.8993 114.3887 114.7981 116.4139 111.8824 112.2261 97.4565 102.3147 113.2010 106.6544 113.5579 94.8417 97.9700
109.7500 107.7631 106.9586 106.3606 105.7536 103.0038 102.8594 109.0841 105.2731 107.3995 113.5391 118.5029 115.3504 114.9374 116.9204 115.1541 124.7143 111.7401 110.0641 100.6257 100.1105 106.2958 114.5076 120.5218 114.6776 117.6689 119.7071 118.6415 109.5995 92.3093 94.9824 105.0808 117.4453 96.3649 116.7465 115.6332 105.7721 113.8422 113.3706 115.7210 112.1941 112.6229 112.5213 112.4617 112.4727 112.5772 112.7534 113.0125 113.3169 113.6790 114.0734 114.4789 114.9058 115.3247 115.6638 117.0050 109.1488 99.2637 95.1039 119.3576 112.8243 106.8031 111.5591 115.6900
111.9000 106.6774 107.8678 103.8129 109.5647 102.7141 103.9376 109.2465 101.8489 108.8608 119.0627 119.0581 117.5873 118.8175 119.0864 118.6383 121.2418 117.2941 110.5258 110.6054 111.8176 99.4384 100.3628 122.5652 137.4443 118.7905 113.2369 106.5015 95.2520 108.3622 107.6972 121.6394 120.6398 90.0360 98.8028 102.5050 88.2663 94.5167 98.0566 110.5389 105.7692 113.4288 113.3403 113.3122 113.3106 113.4088 113.6005 113.7735 114.0205 114.3392 114.6652 115.0625 115.4073 115.8300 116.3421 116.2545 116.6736 109.6139 108.5494 117.3679 118.9268 115.8145 112.3407 115.6900
111.5200 105.1733 106.1639 105.1787 112.5651 106.1728 121.3829 97.3987 113.2944 100.2491 107.0187 121.2346 122.4227 121.9079 119.4837 118.4137 121.4027 120.4029 109.8903 120.9487 121.2932 102.0495 113.4921 118.3666 117.2792 121.8162 102.5419 100.6658 105.3361 109.5635 120.0337 115.7607 104.1217 110.8539 94.4572 91.4333 91.0088 93.0111 115.2732 116.6580 114.2463 114.2328 114.1145 114.0779 114.0952 114.0936 113.9779 114.4232 114.7183 114.9451 115.2515 115.5993 115.6359 115.9446 116.1243 117.0074 118.0838 119.3780 118.0694 119.0767 118.7282 121.7046 105.3777 97.8200
103.6000 103.0370 103.1222 108.5570 108.7356 107.1825 123.6313 104.3302 109.8462 101.8213 100.2926 110.6418 125.5485 120.1694 117.6803 122.1641 123.1312 112.7416 117.2098 109.6608 122.7079 126.7445 132.2320 121.6873 121.7202 104.5666 104.0211 103.7236 114.7517 100.4661 106.7180 109.6763 101.6203 103.5386 97.3831 95.8653 93.9475 115.9255 116.1573 114.8293 115.1093 114.9098 114.8324 114.7802 114.8033 114.8774 117.3102 115.9389 115.2780 115.5508 115.8218 115.8978 117.9634 103.4265 117.3541 117.4445 117.6814 118.0287 117.5465 119.0499 117.5138 119.2786 105.1833 101.8800
103.7600 108.0099 103.9752 104.4413 106.3819 104.8623 106.7378 103.6855 102.0691 102.1434 100.4442 116.6452 101.5056 109.2253 124.6687 116.5100 102.6677 106.7051 124.0082 101.9789 106.0339 101.9944 116.3961 113.5057 107.9235 105.9470 97.7898 104.0589 100.6435 106.7268 114.7358 105.9997 118.0169 119.8082 105.7896 107.5695 100.6054 118.5920 115.8588 115.8460 115.6826 115.5713 115.4126 115.4317 115.4634 115.1974 117.6458 115.7891 115.9498 116.0326 116.3653 116.5090 117.6454 111.0090 120.2939 117.2051 118.1454 118.3315 118.7669 132.1052 121.2196 128.8406 106.1254 102.4100
103.7800 108.8583 110.5650 110.6880 121.8349 119.6407 126.6558 100.3795 104.2175 102.0062 102.0473 100.5242 118.0688 104.5225 122.5179 119.8150 108.4731 106.5723 100.7558 101.9950 101.5151 98.4653 104.8259 108.2096 105.9833 97.4596 98.8284 101.7704 114.6876 110.4231 118.1950 117.9182 119.6238 117.8648 117.4078 117.7870 116.5589 118.5819 116.3855 116.6202 116.2910 116.0555 116.5886 116.0461 116.0562 116.1478 115.9559 116.2821 116.2268 116.9281 116.6249 117.1849 116.7637 117.7109 117.8582 118.2581 118.2481 119.6203 112.1126 118.4980 102.8715 103.2028 105.5602 117.2500
124.0000 122.7459 124.1933 122.8119 122.0046 120.2834 127.1951 104.6044 104.2748 101.9761 101.4117 108.2414 117.1203 111.3877 117.0367 121.7877 122.7519 114.0021 103.7438 106.8642 115.5409 104.0931 98.5981 108.9063 110.7709 108.7671 104.6261 103.5808 119.6546 110.8262 120.5077 118.4211 118.1263 117.8389 117.9111 117.9346 118.2693 103.9688 108.8013 115.8160 116.8324 117.3310 112.8099 117.9627 116.6252 116.6480 116.7241 116.6687 117.8865 111.9363 119.1184 117.6689 117.6175 117.9110 118.2758 118.3892 118.7589 118.9597 119.0798 121.1596 121.5391 110.4802 100.5914 105.6600
112.0000 116.8588 121.3458 121.4360 122.6045 122.3202 127.9874 106.2203 102.3396 104.6556 103.2009 104.0573 119.1176 100.1947 116.1629 106.8125 106.7773 104.2805 111.3391 123.9766 114.8417 113.5150 107.2916 108.1454 110.7192 104.2135 105.5600 103.5260 115.1132 120.2517 119.7457 118.9685 118.9012 118.5159 118.2933 117.6752 112.2041 98.9495 112.0474 115.6726 117.3008 116.6312 114.8928 113.1659 117.1846 117.1662 117.4244 116.9846 114.7477 94.5854 97.6681 120.9026 118.1532 118.3531 119.8789 117.5557 118.7038 119.3289 119.6257 119.3672 119.1508 101.4125 115.7726 116.7800
123.5400 123.4065 125.0077 121.2097 124.8306 120.4915 116.1295 102.0397 103.8930 105.8567 111.7512 106.4718 99.4214 101.4865 102.6081 111.0445 110.3862 110.9821 123.0003 122.2240 115.6628 108.7453 103.7744 109.2324 106.2653 107.4303 100.2611 111.5761 112.8443 115.4182 119.7446 118.9521 119.1861 118.9038 118.6889 118.7488 121.2647 97.7857 106.8277 118.1515 117.9870 117.6280 107.6684 112.2200 118.0103 115.1927 118.2900 108.3037 120.2772 95.2740 97.8157 121.6105 118.3759 118.6140 118.6361 105.2046 112.1090 119.4673 119.6692 120.4767 119.5273 116.7618 104.3924 103.5100
122.2700 126.2735 125.9988 125.7193 125.6495 121.9780 102.8607 107.9154 112.3071 124.1942 124.3533 107.9914 105.0768 104.4910 118.5367 104.7089 96.5690 132.3642 126.3097 118.0378 112.9753 112.8631 115.0500 108.9024 104.9593 115.9365 115.7918 105.8583 111.0542 115.3780 120.4688 119.2618 119.5860 119.2463 119.0690 118.9706 103.4892 106.7089 120.9265 118.0353 118.5558 117.8606 109.8769 111.0097 117.6595 117.7781 118.1477 119.0196 117.3646 121.3102 112.8655 120.7336 118.8712 119.1810 119.2631 111.2412 103.3915 117.3836 121.1668 115.7610 110.0674 117.9612 105.7190 102.6700
128.2400 128.2400 125.7900 125.6600 125.4000 125.2700 103.1300 123.0700 123.8800 117.1100 102.2700 117.9600 114.5100 112.0500 118.0200 101.3400 110.7800 123.5400 122.6600 113.8100 113.5200 112.7900 123.2700 108.2300 104.7900 114.8500 99.0100 113.8000 99.4300 122.6000 120.1500 119.7100 119.7600 119.4800 119.2700 119.0400 119.0400 118.7900 118.8500 118.5600 118.6400 118.6400 118.2800 118.3000 118.3000 118.2700 118.6200 118.6200 118.5300 118.8200 118.7600 119.0800 119.3200 119.5300 119.5300 119.7200 104.6600 103.0700 120.3600 111.1000 116.5800 98.9700 106.9600 102.6700
