121.4700 123.3400 121.6200 119.5800 119.3300 107.6400 107.1900 112.5200 117.5100 110.8400 116.1800 105.0000 114.4200 103.8200 103.7100 120.2600 115.9800 117.5900 117.5900 121.4500 117.2400 117.2400 111.6500 111.6500 103.1400 103.1400 102.2100 106.5600 110.4700 110.7700 110.7700 104.4800 123.5000 101.3300 111.2200 123.2200 123.2200 104.4300 123.1000 123.1000 125.2100 122.9400 125.8100 122.7300 122.7400 122.7500 122.7500 122.7400 122.7300 122.9500 122.9300 122.9100 123.0800 123.0800 123.0500 123.2300 123.2000 123.3600 123.5200 123.4800 109.0300 123.8000 123.9300 123.9300
119.8400 122.2837 122.0549 119.6390 120.5630 113.7996 105.9659 107.2692 108.7859 109.2286 115.8860 103.5179 113.3132 112.1478 114.1187 115.6372 109.3259 104.7609 113.8535 109.6227 106.7466 112.0946 115.2646 115.5795 109.8746 106.9579 102.5657 102.5047 106.8711 110.8958 101.8349 106.3946 109.0987 100.1737 109.6711 112.7010 112.7351 105.5870 125.5859 113.2817 122.5688 122.8209 122.6733 122.5961 122.6047 122.6153 122.6559 122.4430 122.4995 119.6266 122.8741 122.7359 122.8227 122.8913 122.9506 123.0336 123.1205 123.1373 123.1667 119.5512 114.0683 124.3310 123.4485 123.9000
118.6700 120.1480 122.9020 121.8007 119.8662 122.2423 120.9981 112.7399 118.9243 115.1725 106.0931 101.8958 102.8246 112.1929 117.7108 111.5687 114.8991 110.4149 111.7887 115.7280 110.6585 102.0930 112.7839 102.6764 114.4639 104.2599 102.2607 111.8962 114.9235 110.3177 101.5086 111.3386 117.8617 117.8532 100.5273 112.6339 120.7434 121.6569 122.0185 123.1546 122.1322 122.4376 122.4368 122.4032 122.3910 122.3538 122.3344 123.0327 120.1373 123.9816 122.4843 122.5684 122.5703 122.6267 122.6866 122.7696 122.8446 123.1652 122.4680 125.1937 123.7862 125.1209 122.3290 123.4500
117.9800 119.1814 122.4974 123.6349 123.9109 123.2345 121.5448 120.9688 101.7045 108.2007 109.7511 109.4716 103.1959 104.5937 110.9683 112.5812 117.5373 110.4211 107.1782 106.6116 112.2642 114.8340 114.8602 115.2080 111.6705 108.4243 111.7398 108.3627 112.4612 107.0377 105.2719 110.0798 115.1574 119.2092 108.8540 123.2197 119.5369 127.8992 122.0479 121.4419 122.2051 122.1614 122.1129 122.0911 122.0913 121.9487 121.9307 117.5283 112.1229 126.1675 121.9353 122.0260 122.2969 122.3558 122.4671 122.5346 122.3973 121.7248 123.3421 122.2938 109.9633 113.1224 107.6505 104.3100
118.5300 119.4600 121.6618 113.2346 116.8171 117.6986 122.2940 120.4318 124.0876 108.3428 108.0105 115.4453 105.0185 104.5208 103.4585 109.4469 118.2485 115.1917 108.9182 104.9958 113.4968 117.4569 114.5267 115.7437 117.6519 112.9293 111.7557 101.6998 101.6809 112.1092 112.4166 120.5113 115.4186 124.2558 113.6598 112.9790 119.3650 121.3392 121.9008 122.0973 121.9473 121.8635 121.8357 121.8017 121.7774 121.7241 121.0028 119.1965 115.9212 114.6425 121.5307 121.7562 122.0208 122.1039 122.0779 122.6291 122.7502 123.9782 109.2809 118.1537 104.3907 107.6237 113.4490 104.3100
117.2100 117.0685 118.4380 124.7094 107.9512 107.5786 117.5387 121.6125 114.9200 110.4501 113.2854 101.6721 112.2566 101.7123 106.0386 110.3761 110.1002 111.6759 109.8712 109.8393 109.8002 107.2080 111.0703 109.9195 114.0611 109.4401 107.6167 109.5250 116.9155 110.1935 129.3881 117.2316 125.5801 121.2597 120.2848 109.1215 123.0563 122.2990 121.7102 121.6484 121.6133 121.5538 121.4906 121.4435 121.4558 121.6132 121.5058 114.5069 107.4836 103.0002 121.2517 121.2603 121.7331 121.7998 121.8898 126.1151 104.0719 105.0839 106.5168 117.8412 118.5883 115.5527 123.8321 122.9000
118.2800 119.4008 115.8364 115.8223 122.9258 119.9083 119.8882 120.3819 119.6298 112.9057 118.6630 100.9651 103.4177 108.0135 109.3445 107.0465 110.1335 108.9158 109.6412 110.4383 109.4326 106.2450 114.7232 112.0811 106.4729 114.8619 107.4246 103.2378 102.7955 121.3737 125.8893 112.3474 116.9161 103.7070 117.5666 123.0667 121.6378 121.4339 121.4578 121.3835 121.3062 121.2634 121.3009 121.3285 121.1198 121.1171 122.1704 114.1495 109.0400 115.2326 121.3003 121.3035 121.4055 121.4986 121.3008 120.8905 120.6087 118.4908 114.4858 122.3289 118.1437 122.3377 122.7079 122.6700
115.4600 119.6111 104.8366 117.8737 103.7330 121.8789 119.7169 116.9861 114.1941 114.1942 112.8328 115.6856 104.3786 102.2260 104.5381 109.6331 106.8378 108.1009 108.8293 109.9305 111.3583 113.1214 104.1382 109.7345 113.4282 115.7126 122.5066 108.7760 102.1750 116.9931 121.9182 121.9643 123.4649 119.9574 120.4990 120.9714 121.3942 121.2860 121.1333 121.0555 120.9864 120.9048 120.6241 120.3107 120.4232 123.2669 99.6813 121.3604 121.6660 119.4130 120.9599 121.0700 121.0769 121.1921 121.2028 121.3278 121.3060 122.2471 121.7851 121.8186 122.3181 121.6107 122.8256 122.4000
112.2500 116.5819 115.8866 118.1614 117.3191 108.1834 108.0762 119.7731 105.2284 114.1750 112.1553 116.9118 116.2462 107.1678 104.3000 104.1212 107.8297 107.8005 109.5871 108.2057 110.8483 110.2125 111.5288 105.0359 113.9502 117.6428 108.5825 118.9772 119.0846 118.8046 123.4270 121.7753 121.4460 121.6974 120.8349 121.1142 121.0338 120.9101 120.8245 120.7297 120.6454 120.6590 121.2423 121.4498 119.8402 117.0940 116.6355 121.7647 119.6500 120.7421 120.6153 120.6758 120.7799 120.6702 121.3372 121.4318 121.5053 121.2090 121.4778 121.6297 121.5504 117.8019 121.7724 122.1000
123.0200 116.4662 117.3461 109.1950 111.7184 115.9014 117.3435 108.7226 111.9239 112.3638 113.1711 115.3522 102.8919 113.9127 113.7931 110.7304 108.7574 105.4183 101.0806 104.4721 105.9277 108.0078 108.3826 108.4117 107.9489 119.9309 128.6204 123.8009 118.4966 122.0534 121.0488 121.5214 121.4112 121.0350 121.0347 120.8359 120.7104 120.6035 120.4860 120.3880 120.3128 120.1167 121.3233 102.5881 96.1667 113.0860 119.8489 120.2808 119.9887 120.1782 120.2545 120.3667 120.2557 120.3639 121.0502 109.1278 121.5839 121.0533 121.1609 121.3318 122.0447 117.4877 123.1383 122.0500
108.9800 107.8152 116.9685 111.1790 117.1977 112.8030 115.5307 116.9861 109.4200 110.2923 112.0070 118.3079 115.1602 118.9688 111.1240 109.5699 113.5430 111.1186 104.3402 113.7129 106.1791 105.4809 105.2969 110.5375 112.5697 123.4234 116.4993 118.5512 117.6125 121.7517 121.3114 121.2433 120.5083 119.9319 120.4470 120.5274 120.3903 120.2638 120.1416 120.0411 119.9769 119.6180 119.8219 121.0350 96.6934 113.1610 119.4802 119.8079 119.7741 119.8290 119.8968 119.7445 121.0909 118.6406 123.9452 101.5835 121.8092 120.7994 120.8712 121.0591 121.3794 117.5875 116.6465 121.8000
121.9500 113.6279 109.8800 108.3407 114.0172 107.7711 111.7978 105.6902 113.3296 118.0391 110.3603 111.8079 115.3355 111.6450 110.4717 107.9816 110.4174 107.4504 103.0169 103.7557 99.5214 108.3978 106.8119 109.0973 116.9582 111.4042 121.9986 122.3624 121.4649 121.3165 121.0838 121.3761 102.5055 111.1707 119.7539 120.2456 120.0587 119.9147 119.7872 119.6730 119.6370 119.3733 111.9205 96.7536 98.6178 113.6980 119.0458 119.3863 119.3924 119.4391 119.5162 119.4945 119.1836 108.4685 112.4015 120.7040 122.0437 120.4484 120.5974 120.7895 121.3704 120.4631 111.8742 102.2600
120.3700 119.1327 117.1954 114.6969 113.7709 115.4137 113.1095 114.2883 106.4398 106.6547 109.4813 104.8157 105.7366 114.2166 111.3821 114.0570 112.8597 105.0758 103.7349 102.5555 106.6950 113.1734 106.5149 104.4042 123.6088 118.8877 121.9566 121.3051 121.1250 121.0509 121.6611 107.1251 107.3988 108.6552 120.9885 119.7975 119.6965 119.5687 119.4185 119.2948 119.2514 118.9732 112.1352 105.5709 100.1666 121.1706 118.9075 118.9142 118.9810 119.0418 119.1244 119.1261 120.2509 119.7732 109.7741 108.3476 120.3199 120.0922 120.2810 120.3810 120.5845 118.7015 97.1309 121.1200
120.2600 112.4903 114.7042 116.0011 116.5339 113.2172 111.3114 109.1413 112.6546 112.4100 105.0166 109.7249 108.3737 111.2569 108.4956 108.7733 109.3986 110.3127 107.8164 103.3607 122.5163 123.7381 118.2070 104.2593 119.7509 118.3117 122.1896 121.3449 121.0615 120.6192 120.9123 104.3909 107.8249 119.5480 119.5128 119.6060 119.3650 119.0849 119.0344 118.9002 118.8071 118.5908 118.5653 122.2497 107.0502 120.2644 118.5515 118.4909 118.5469 118.6191 118.7170 118.8337 118.7994 118.7792 129.5665 116.4573 120.3148 119.7934 119.9858 120.2181 120.4722 122.5020 103.9839 121.1200
120.2600 116.8694 118.7180 114.5575 114.9105 115.2804 115.5586 114.0055 113.7734 109.0362 112.0390 115.1533 105.7240 104.6045 109.8701 112.6782 105.6327 106.6704 110.0349 102.8301 109.0237 124.1155 123.2954 117.5176 116.2205 121.7445 120.8779 117.2950 120.8618 120.4929 120.0057 120.1222 113.1912 116.1196 119.8266 119.1686 118.9147 119.4964 118.5703 118.4829 118.3547 118.2426 118.1094 117.5593 118.5750 118.7361 118.0333 118.0431 118.1091 118.1776 118.2698 118.3933 118.5883 118.6328 117.9986 119.0973 119.1925 119.4378 119.6655 119.8566 120.4233 115.1007 119.6845 101.1600
117.2400 120.3253 118.3418 113.6639 114.3442 114.8483 114.6488 114.8122 113.1800 111.0953 101.3758 105.5558 109.0231 106.2076 108.6112 107.1620 108.6597 102.0925 106.8747 106.4615 109.3135 113.9775 122.1221 121.6145 120.0113 120.9576 120.7584 119.5297 120.5023 120.2154 120.0000 120.7189 116.7959 119.0320 118.9953 118.8169 119.3400 112.8723 117.9092 118.0990 117.9059 117.7818 117.6734 117.7673 116.9120 117.4363 117.5419 117.5656 117.6325 117.7196 117.8287 117.9677 118.0670 118.3017 118.5613 118.6695 118.8833 119.1078 119.3420 119.5532 119.9027 118.8771 120.6732 120.4200
116.2200 116.5872 120.9026 113.7452 114.0590 115.3344 115.5088 115.1158 111.6536 113.4035 111.2658 109.4273 119.1690 111.8601 109.4215 108.7950 110.3725 102.9134 106.1283 118.3145 114.3288 121.8694 121.5629 121.4845 121.3522 120.9393 120.8409 120.4150 120.1625 119.9442 119.6358 119.3873 119.1830 119.1596 118.6476 118.1670 120.5471 103.9792 119.9639 117.6388 117.4748 117.3040 117.2006 117.1059 117.1127 117.0631 117.0324 117.0613 117.1328 117.2245 117.3466 117.4983 117.6820 117.8508 118.0625 118.2812 118.5103 118.7460 118.9961 119.2620 119.4473 119.7756 120.0507 120.0900
120.7900 120.8404 115.6492 111.0338 115.4049 103.2483 107.7727 116.5506 113.7710 110.7761 113.2064 109.6017 109.9034 109.5346 101.9641 106.4259 104.6242 108.8117 116.7540 100.7531 107.6128 123.9588 121.3709 121.2777 120.6844 122.6830 119.9344 120.1536 119.9922 119.6465 119.3813 119.1057 118.8059 118.5186 118.3451 118.4849 109.2706 98.9995 109.9281 115.9004 117.0644 116.7936 116.5994 116.4518 116.5646 116.4686 116.4886 116.5304 116.6085 116.7146 116.8489 117.0135 117.1973 117.4116 117.6368 117.8805 118.1301 118.3887 118.6595 118.9317 119.2109 119.4765 119.7582 119.9900
118.9300 118.7347 118.2228 113.2520 111.9960 110.4375 110.1445 110.2986 110.6793 109.5715 112.3607 109.3861 103.5488 107.6234 110.0380 108.1096 99.2169 115.1021 114.0419 103.2020 101.5285 121.2329 121.0490 121.2224 120.4054 116.2620 102.5013 122.0071 119.7020 119.2724 119.0832 118.7807 118.4768 118.2337 117.7924 119.0239 106.6827 103.1138 99.9261 116.9453 116.6004 116.3057 116.5078 116.6762 115.7172 115.9305 115.9124 115.9542 116.0353 116.1635 116.3252 116.5060 116.7157 116.9521 117.2015 117.4699 117.7423 118.0283 118.3113 118.6121 118.9004 119.2063 119.4135 119.6600
119.3900 117.8811 111.8212 112.6143 113.8761 112.6548 110.2332 110.2333 109.8810 109.6707 108.3594 109.2207 110.6063 106.8491 103.6839 106.4064 104.6100 106.5121 109.1914 104.4722 125.5255 117.2335 119.4863 120.9008 120.7947 124.1824 97.7237 116.7573 118.5208 119.3713 118.8216 118.5374 118.1942 117.6486 118.2477 118.7483 115.1040 104.3716 99.7171 117.0851 115.6785 115.6473 117.7572 102.3523 116.8541 115.0026 115.2596 115.3464 115.4613 115.5873 115.7601 115.9749 116.2093 116.4651 116.7446 117.0409 117.3379 117.6540 117.9660 118.2847 118.6013 118.9223 119.4273 119.5600
111.3500 103.2899 107.3363 111.2741 110.2248 114.0266 112.2022 113.1457 113.0912 108.6729 108.8702 108.9415 110.6716 110.2139 117.3982 106.3259 104.7090 116.8036 119.5843 119.9155 117.1435 121.2381 121.0355 120.6111 120.7134 118.8993 95.3794 96.3865 99.9280 118.3220 118.6409 118.0175 117.6557 118.2413 115.6462 100.1357 102.7942 99.8252 97.6494 100.6281 115.8949 114.9544 109.3180 95.2832 96.5500 115.9824 114.8223 114.7166 114.7626 114.9557 115.1650 115.4104 115.6754 115.9661 116.2769 116.6052 116.9403 117.2739 117.6131 117.9475 118.2834 118.7509 116.4638 105.6000
119.7300 108.8013 109.5932 109.4379 102.5705 108.1129 108.7439 108.0799 114.8165 112.4729 108.4853 110.1015 109.0788 108.5308 110.0254 109.9132 102.0965 115.0528 118.1999 119.5635 122.1034 123.0822 124.6411 121.5904 117.8315 115.3475 105.2631 107.6185 123.1627 119.5106 118.0029 117.7978 99.0422 121.7967 118.5343 96.2818 103.3699 93.5475 105.8120 99.9024 116.7847 114.3465 107.0556 91.6917 96.7233 115.5348 113.0985 113.3976 114.1826 114.2865 114.5329 114.8134 115.1191 115.4481 115.7888 116.1440 116.5141 116.8743 117.2486 117.6273 117.9539 118.5915 114.7756 105.6000
109.6600 116.0132 118.2970 116.8547 112.7920 106.6384 109.2597 103.3411 107.8136 106.6564 104.9481 111.4119 105.3576 105.2921 105.0063 106.1497 105.5426 112.7834 121.2003 117.1063 121.1068 120.1807 100.2405 109.5610 102.0896 95.0287 100.3758 111.7131 118.8084 117.8090 117.8686 119.4213 98.8365 100.6006 98.5353 91.6353 113.6045 108.1944 102.4129 92.1774 104.7279 114.1053 115.2806 100.1992 100.4846 113.8052 115.7548 115.8301 113.4089 113.5696 113.8661 114.1756 114.5335 114.9129 115.2949 115.7650 116.0920 116.5632 116.9041 117.3088 117.7031 118.0842 118.9111 118.6600
103.8200 110.2077 105.6413 112.5615 113.1667 110.8277 110.6656 111.8259 107.8073 110.2378 100.0304 103.8518 104.1093 101.6246 104.7832 104.4176 115.4295 121.6408 107.6064 119.3271 121.3664 121.5432 126.9182 97.4055 98.2307 95.1668 108.1787 100.0089 117.0859 118.0914 117.5656 117.4994 98.1218 117.7883 101.2227 115.6721 108.5817 111.1634 114.9660 99.7514 99.1691 112.0625 106.6371 92.6419 104.3881 113.4146 117.7849 114.6393 112.5348 112.7975 113.1520 113.5209 113.9268 114.3501 114.7561 115.2460 114.9532 115.4182 116.6211 116.9774 117.4002 117.7792 117.9993 118.6600
103.8000 115.0268 103.5136 114.9453 109.2466 107.4794 106.9976 105.4706 106.8868 110.9407 105.0765 111.8217 103.8117 101.4849 111.8786 114.2970 115.7932 114.8005 115.2363 122.2838 121.0166 120.4179 120.8461 105.0231 99.1038 98.2016 118.8105 107.5070 116.4976 117.3368 117.1307 117.4291 104.1285 101.1360 96.7561 103.5526 120.9931 110.9567 97.6405 91.8405 93.0362 94.6493 110.7775 112.9269 111.7414 111.5056 110.4934 111.3121 111.6811 111.9813 112.3809 112.8125 113.2849 113.7690 114.2740 114.6447 118.3739 118.5313 116.1086 116.6646 117.1259 117.5467 117.9694 118.1900
113.6500 116.2472 115.2105 115.8331 112.9568 112.5738 108.6865 109.9615 110.2029 116.3056 101.0611 99.7012 103.8867 106.7166 101.6389 106.4674 116.5538 116.0891 125.1299 121.5258 120.9805 120.5384 119.9002 116.8529 116.8725 99.2687 115.6622 101.9119 121.0953 117.8478 117.6196 117.8702 119.6295 119.9400 112.9761 111.2766 95.8838 101.7882 107.3290 107.0981 96.9266 105.7122 110.4796 110.2250 109.9031 110.1716 110.3719 110.4129 110.6894 111.0874 111.5732 112.0972 112.6155 113.1858 113.7299 114.3222 115.1245 115.8981 115.9067 116.3602 116.8530 117.3043 117.7445 118.1100
116.8700 112.4975 114.8786 111.6520 113.3992 110.4900 109.5807 102.8277 108.7768 115.0272 109.6444 106.2950 110.4974 106.4647 101.6079 115.3869 108.1198 117.7335 114.8518 121.1858 120.8559 120.3795 121.4370 124.0663 120.4293 119.4868 102.0625 119.8007 103.9760 101.4947 110.3975 98.8127 100.1369 93.9566 98.9843 119.1930 104.0604 100.6817 111.6353 95.0104 104.2278 101.2881 109.8977 109.4555 109.2116 108.9874 108.9808 109.2242 109.6012 110.1239 110.3137 110.8847 111.9927 112.5746 113.2193 113.8626 114.3939 114.8288 115.5699 116.0899 116.5980 117.0756 117.5453 117.7200
116.3000 114.3133 125.3141 110.1183 111.2125 110.4328 110.2985 109.7174 108.9321 109.3136 106.4309 104.0671 104.1255 103.4354 103.0493 107.8265 106.0152 113.4334 118.1879 121.5176 120.8495 121.0424 106.4043 119.1008 119.0150 119.2754 109.4955 114.4304 116.2036 110.4804 112.5325 113.0664 93.2523 95.7505 95.8077 107.8408 113.9512 112.9360 110.9406 109.8919 111.3950 108.1280 109.7804 108.0398 107.7218 107.5177 107.5811 107.8800 108.3862 109.0108 109.7881 110.4523 111.2559 111.9955 112.7047 113.3941 114.0497 114.6749 115.2602 115.8259 116.3587 116.8664 117.3529 117.6500
116.4600 111.3069 115.3601 109.2485 110.1708 110.3487 110.2418 104.4904 109.9360 108.6430 108.3824 106.3468 105.6234 105.5824 99.9134 101.1387 105.8675 106.5997 121.2004 120.6868 120.6777 120.2516 123.3694 99.1888 121.0983 118.5526 118.6612 117.9999 117.4534 117.5398 116.8183 115.5580 117.6002 90.4038 105.1917 93.0139 93.5508 102.5297 110.5475 110.2130 109.4746 108.3504 107.4809 106.7441 106.1077 105.8032 105.8703 106.3000 107.0056 107.8540 108.7511 109.6666 110.5632 111.4153 112.2228 112.9759 113.6864 114.3652 114.9945 115.5898 116.1507 116.6828 117.1860 117.5800
117.4400 110.8587 117.1236 107.7846 108.3132 109.0138 107.7909 111.1463 111.3903 108.8058 106.1707 106.8478 109.1554 112.2988 106.4058 101.1684 101.7343 116.5436 121.2990 115.5497 120.6096 117.6201 113.6834 120.2560 119.7590 114.4717 114.3550 117.6926 117.3706 116.6799 116.2587 115.2125 112.2120 89.6553 91.1814 104.7223 104.9196 105.9290 94.3851 111.1990 108.3554 107.3353 106.1495 105.0329 104.1274 103.6479 103.7668 104.4379 105.4362 106.5839 107.7385 108.8532 109.8966 110.8744 111.7711 112.5969 113.3695 114.0832 114.7523 115.3764 115.9621 116.5097 117.0153 117.5300
117.2600 119.0482 117.0722 107.0301 107.1766 106.3776 105.8155 103.4187 107.1005 107.0016 104.7788 111.6263 109.9428 104.0781 114.8427 107.5633 123.7316 121.9779 120.5402 121.7496 121.5500 111.6807 100.3834 121.7279 118.5213 118.9453 118.5509 117.6888 117.2711 116.7641 116.2479 115.4112 112.2621 96.9160 98.3187 105.0269 111.9870 102.3647 108.7864 108.6986 107.6568 106.1905 104.6771 103.0832 101.6239 100.8041 101.0178 102.1291 103.6854 105.2607 106.7507 108.0844 109.2934 110.3892 111.3741 112.2701 113.0902 113.8524 114.5533 115.1996 115.8183 116.3933 116.3646 115.8400
125.5900 125.9299 125.1355 110.0453 107.8026 107.9547 111.0923 106.2087 104.9427 106.6006 104.7378 102.6833 112.4924 108.7076 104.2370 107.7184 123.4558 120.4179 122.2801 121.5187 111.6149 120.6161 120.3388 119.6350 113.7465 118.8358 117.9762 117.5796 117.1571 116.6151 116.0501 115.4892 114.9581 117.2726 115.1420 113.4416 107.8707 110.7609 109.6923 108.0475 106.8589 105.1708 103.1898 100.8566 98.3614 96.4043 96.9403 99.3691 101.7843 103.9798 105.8331 107.4176 108.7890 109.9869 111.0584 112.0163 112.8831 113.6707 114.3966 115.0703 115.7005 116.2750 116.8596 117.0900
123.1300 117.0822 120.8012 110.1475 108.9235 108.4266 107.9311 106.4397 104.9763 103.3892 106.4755 101.4333 99.7763 100.7277 111.3575 124.7963 117.7435 122.0194 118.8985 113.8724 105.2686 114.1664 119.3616 97.1834 114.1835 119.3649 118.0666 117.6104 117.0983 116.5667 115.9917 115.3422 115.0093 114.5520 112.7086 112.2297 110.9024 110.4442 109.0934 107.8998 106.3028 104.3760 101.8979 98.7315 93.5962 89.7157 90.5212 95.8279 99.9616 102.8912 105.1137 106.9192 108.4199 109.7038 110.8327 111.8325 112.7267 113.5495 114.2900 114.9844 115.6176 116.2172 116.7667 117.0600
122.6300 111.3452 115.1132 108.8100 110.4386 109.9197 109.3073 107.1107 105.9235 104.8521 102.5227 102.9933 106.3368 100.7942 97.7189 108.0618 111.0320 120.9607 115.3839 98.8701 117.5562 119.8312 120.1377 116.8051 119.4880 119.0048 118.1226 117.6086 117.0814 116.5319 115.9496 115.2374 115.2607 105.0857 111.4384 111.8957 111.3887 110.2965 109.1199 107.6786 105.8512 103.6791 101.0600 97.1261 89.3914 85.1228 86.1164 92.5612 98.8142 102.2642 104.7302 106.6571 108.2351 109.5676 110.7229 111.7415 112.6611 113.4870 114.2426 114.9358 115.5829 116.0424 116.7544 117.0300
123.0500 113.9270 110.7901 111.3541 110.9115 110.4128 108.1691 108.8586 108.5505 107.3396 105.1987 102.3621 105.4724 100.3066 100.4371 104.0252 110.8906 120.2728 123.0449 103.2639 102.2851 117.6862 119.8795 120.7318 119.6713 120.9801 117.6939 117.2581 117.0512 116.5254 115.9464 115.2148 115.4945 98.9519 105.2024 113.9538 112.6748 110.2923 109.0708 107.6505 106.5207 104.4679 101.0972 97.2197 89.9543 85.6295 86.4207 92.8632 98.8985 102.3042 104.7540 106.6713 108.2449 109.5772 110.7299 111.7457 112.6599 113.4854 114.2433 114.9335 115.5826 116.1241 116.7418 117.0300
116.9300 116.7291 116.5795 110.7784 111.4513 110.2300 110.7096 109.3121 109.6261 110.3354 110.0540 103.2800 110.8780 102.7211 103.2278 100.9415 118.1892 121.3002 121.7820 115.9289 119.1985 119.2774 119.8288 119.2534 119.0772 118.5055 119.9627 118.7718 117.0458 116.5586 115.9735 115.2753 116.3886 91.5635 101.5945 99.3427 110.6514 110.4628 109.3193 108.2573 101.1911 98.8682 102.2746 98.8817 93.8122 90.3634 91.1981 96.3068 100.1542 103.0043 105.1890 106.9669 108.4533 109.7354 110.8596 111.8477 112.7418 113.5648 114.3043 114.9843 115.6280 116.2231 116.7823 117.0400
116.9300 118.9758 112.3920 112.0608 112.0699 108.2396 108.9928 108.5888 105.7488 104.2823 103.0392 104.2428 108.8302 118.4177 106.1815 120.7450 123.3998 121.5355 121.4167 121.7996 120.7174 120.2941 119.7943 119.3709 119.0509 120.2493 99.9367 119.5041 116.8381 116.6273 116.0700 115.4391 115.0949 110.6072 112.9786 109.6390 111.6747 110.5892 109.4592 108.4003 105.8774 104.7242 103.4029 101.1888 98.7743 96.9926 97.5345 99.6888 102.0147 104.1211 105.9380 107.4876 108.8471 110.0333 111.0894 112.0413 112.9024 113.6899 114.4109 115.0873 115.7119 116.2937 116.8356 117.0700
113.1900 111.7398 110.2280 101.4770 114.6623 113.1699 110.5615 106.1042 105.3323 103.5476 108.7924 105.3502 120.1493 117.1925 124.9175 103.0261 124.2677 120.9803 121.1636 120.8458 120.5485 120.2326 119.8382 119.5576 118.7562 115.4887 114.1951 117.2865 117.4237 116.7335 116.1805 115.6196 115.0696 114.7532 113.7454 112.9718 111.6927 110.9771 110.4631 108.9394 107.8744 106.2655 104.8483 103.3287 101.9100 101.1524 101.3402 102.4254 103.9042 105.4280 106.8627 108.1801 109.3655 110.4397 111.4178 112.3067 113.1278 113.8804 114.5752 115.2245 115.8322 116.3961 116.9252 117.1000
114.4400 112.2560 111.4082 114.2623 114.3755 110.7584 110.8786 107.2456 105.7484 104.8810 109.6270 122.6008 112.9044 123.2873 101.6139 110.6617 131.5273 122.6787 121.3062 120.9563 120.6233 120.1056 120.6437 113.7573 119.8390 117.6093 118.8956 117.7140 117.2871 116.8693 116.3351 115.7736 115.1820 114.5123 113.7572 113.4049 114.0331 89.7576 108.1295 109.6862 108.5368 107.4134 106.3349 105.2317 104.3692 103.9020 104.0154 104.6646 105.6413 106.7359 107.8636 108.9607 109.9774 110.9378 111.8167 112.6432 113.4059 114.1180 114.7768 115.3993 115.9848 116.5421 117.0598 117.4900
112.8400 112.8247 111.3385 110.4970 113.5651 108.0441 108.4551 107.1406 104.5198 103.6959 110.6674 115.2627 109.0110 105.1801 102.5309 103.3427 123.5890 119.3136 121.3977 121.0439 120.7693 120.9799 121.5060 120.0009 114.3332 117.5867 112.7473 116.6109 117.3972 117.0452 116.5065 115.9107 115.2612 115.3127 113.5940 94.3581 92.9654 96.9130 105.4204 110.1702 109.2865 108.5647 107.6889 106.8890 106.2968 105.9977 106.0723 106.4887 107.1713 107.9887 108.8819 109.7661 110.6475 111.4860 112.2765 113.0272 113.7305 114.3990 115.0211 115.6098 116.1754 116.6533 117.1445 117.5300
119.1000 116.0611 107.9638 108.5087 108.2045 108.2252 107.3364 106.0948 104.9802 101.8895 101.8052 116.7121 116.8426 107.5276 104.6228 118.4791 121.1962 122.0051 121.3958 121.0305 120.6788 120.4190 119.7419 119.8073 119.3140 102.5175 121.6534 116.9336 117.8062 117.2080 116.7125 116.6197 116.8019 113.2704 90.2459 113.3409 112.6161 98.1387 114.8478 111.4487 110.2786 109.5612 108.9050 108.3177 107.8933 107.6844 107.7344 108.0318 108.5203 109.1472 109.8554 110.5837 111.3364 112.0607 112.7660 113.4490 114.0973 114.7076 115.2969 115.8516 116.4680 117.0061 118.5872 117.5900
119.1300 116.8308 108.2916 108.3875 107.5822 107.5938 106.8427 103.5371 103.6373 106.1938 102.9731 110.5906 115.0821 118.9485 124.3739 120.8365 120.9106 121.6028 121.3446 121.3528 121.3980 118.2656 120.6721 122.2581 92.9464 103.4551 123.5655 116.2443 118.0762 117.3926 116.9627 115.1549 107.6673 98.6604 97.9188 113.9112 112.6233 113.2300 110.9887 111.3366 111.3426 110.5773 110.0114 109.5729 109.2505 109.1022 109.1430 109.3564 109.7267 110.2202 110.7673 111.3940 112.0277 112.6561 113.2845 113.8915 114.4833 115.0559 115.6168 116.0251 116.5503 117.3392 110.3535 98.6500
115.9100 112.4035 108.5444 108.5659 108.5089 108.7712 110.0836 109.4160 102.8723 105.9972 105.1605 105.8335 120.8200 124.1807 124.6221 123.0189 122.2656 122.1245 123.3338 115.7504 123.4698 111.3337 117.2682 105.8282 107.2877 106.1726 124.2375 119.5999 118.3251 117.6588 117.0150 113.3338 100.8105 114.8457 118.7511 117.0893 113.9753 113.4066 106.4674 112.8077 112.6700 111.4599 111.0334 110.6817 110.4360 110.3154 110.3474 110.5137 110.8025 111.1950 111.6569 112.1786 112.6958 113.2541 113.8018 114.3542 114.8941 115.4048 115.9202 116.4877 116.2806 121.8933 106.7085 98.6500
115.8700 109.3199 109.6702 110.1238 110.2470 109.9195 109.7694 103.9916 101.4362 102.1309 120.6369 108.4545 115.8012 120.7740 123.4171 118.7547 122.2987 120.8659 111.6222 116.4090 112.4968 103.0366 100.0334 106.6842 121.5767 123.1089 112.2186 118.9488 117.5965 118.5667 118.4665 118.1068 119.4793 99.5751 109.3118 105.8300 114.4475 114.1446 114.0760 112.6254 112.8158 112.3087 111.9580 111.6735 111.4799 111.3967 111.4408 111.5497 111.7692 112.0893 112.4736 112.8993 113.3526 113.8405 114.3343 114.8287 115.3027 115.7823 116.2607 117.0473 111.0417 120.2754 116.4392 118.5000
110.6000 110.2561 110.2795 106.7858 107.8015 108.3436 106.1830 102.6476 102.7333 102.4462 117.9167 109.5335 111.4522 122.6926 122.0186 121.2824 122.6180 108.4504 109.6813 122.2792 102.2353 108.4921 110.9160 120.8053 123.5542 106.3548 98.4777 119.2151 121.3902 116.1253 113.5443 117.7368 118.3371 101.6387 101.0321 103.9311 113.9283 114.5269 114.2188 113.8203 113.4476 113.1020 112.8049 112.5653 112.4144 112.3111 112.2010 112.4002 112.6671 112.9011 113.2348 113.5939 114.0185 114.4284 114.8284 115.2818 115.7434 116.1323 116.5339 114.7657 98.7002 103.4840 119.2917 118.5800
119.7100 106.9955 108.1691 105.2949 103.9249 103.3709 103.1837 102.2793 102.4246 102.1507 106.4354 117.0406 116.1222 123.9694 117.8564 113.8072 111.6608 107.5822 109.8011 122.9823 117.0218 121.3460 124.5258 110.4933 112.3517 105.4181 116.7478 118.7944 106.2531 98.9911 117.0439 112.3098 110.0573 97.9785 100.4306 99.2694 117.4977 115.3494 114.8236 114.4705 114.1316 113.8378 113.5894 113.3916 113.2381 112.9940 113.6760 113.6602 113.3597 113.7295 113.9406 114.2599 114.5972 115.0489 115.4283 116.4662 116.0723 116.6306 116.5792 123.5353 114.7919 108.1778 104.9240 99.1800
115.8200 112.7157 102.0129 103.8272 103.8914 104.6254 103.6467 104.7084 102.4473 101.1022 108.9658 112.5523 118.7006 123.9212 118.3562 118.8435 119.7549 123.4056 120.0971 122.2329 122.0882 120.8637 119.7733 113.4574 121.1737 121.9693 121.9460 99.3362 98.9728 117.5249 111.5360 100.9593 105.9817 101.7250 100.2519 100.9498 116.2566 115.4679 115.3105 115.0664 114.7599 114.5207 114.3192 114.0477 114.2462 114.0667 111.7685 107.8942 114.3519 114.3661 114.5976 114.8801 115.1841 115.5223 114.0864 115.2881 116.5963 116.9405 117.7172 112.8181 112.8529 118.9329 119.9452 119.0300
115.7900 121.8723 106.1107 107.5676 108.8517 108.6043 107.0670 105.3606 102.4186 104.9526 117.7872 115.6310 117.0737 116.7073 113.1165 124.1481 123.5169 123.8490 122.7077 121.7137 122.1963 109.6536 121.2758 120.7553 116.8825 119.2326 119.8913 117.6800 115.4625 119.8592 116.1483 98.6214 105.0183 94.1496 94.1258 115.4109 117.1899 116.1528 115.9181 115.6362 115.3691 115.1842 115.3055 115.2655 111.3071 108.3750 114.5724 111.1509 115.4073 115.0205 115.3141 115.4274 115.7666 117.1249 109.5312 116.6967 116.8111 117.4003 117.3316 117.4835 103.7727 120.1892 118.7419 119.0900
110.2500 108.7057 109.6064 109.2630 108.8812 109.2039 106.6874 103.4609 102.8240 102.0699 117.2499 98.6411 115.9888 100.6471 118.3090 121.8949 107.7891 112.6488 123.0401 121.4161 121.9980 122.0212 121.9885 119.3176 120.3586 120.7472 119.8978 119.7001 120.1403 114.1989 107.7737 103.7487 116.9794 117.5694 112.1625 117.3193 116.9806 116.6901 116.4214 116.1694 115.9915 115.7668 117.1045 114.4848 115.6707 114.8695 112.6626 104.2248 106.8393 117.9630 115.5260 116.1296 116.2629 116.7221 115.6530 117.7162 117.2756 117.7547 117.7538 118.9337 118.0656 119.0532 119.2959 119.4700
109.5200 109.5609 109.4057 109.0657 109.3596 108.4026 106.6791 102.9045 102.7186 101.1773 117.6430 107.5723 111.7700 110.2538 106.2487 103.0244 102.1152 119.5593 125.1867 100.8874 118.6211 130.3545 121.9368 121.4058 114.3389 123.4364 119.9482 120.1031 119.7387 120.1329 109.2278 103.6535 119.7904 117.8115 118.4115 117.7873 117.4183 117.1560 116.9101 116.6908 116.5298 116.2599 113.9604 111.8969 115.7609 115.9607 115.9632 118.2598 101.2510 105.8213 116.8299 116.5777 116.7894 117.0080 117.2470 117.4457 117.8071 118.0603 118.3565 118.6683 118.9212 119.1928 119.5483 119.5200
109.9000 109.3028 109.0482 109.2722 108.4968 107.3285 105.6365 102.8946 102.3150 107.1001 111.3400 113.5633 110.5490 122.5688 103.8505 112.1331 116.1157 115.3099 122.2687 103.8056 121.1967 119.0974 110.8965 101.2644 98.8389 122.2419 119.8829 120.3622 118.6816 104.7121 103.2271 113.0659 120.4273 118.3536 118.5093 117.5863 117.6210 117.6106 117.3880 117.2049 117.0240 116.6693 109.2969 111.5924 116.1488 116.6079 116.4705 115.9891 118.9433 115.3906 117.0326 117.0920 117.2482 117.4726 117.6864 117.9038 118.1764 118.4357 118.7083 118.9735 119.2490 119.5277 119.7924 119.9100
108.4900 108.3369 108.3264 108.6038 108.5453 107.1930 109.9980 102.6998 102.4086 102.8634 122.0663 109.4422 123.5619 115.1934 120.6461 109.7257 116.3926 110.3647 101.5537 104.4542 112.2869 103.4312 105.8766 105.3784 105.2699 120.9685 120.9911 116.6834 106.4494 103.9456 117.2602 121.7545 117.6917 118.9831 118.6634 119.1065 118.4655 117.9274 117.7781 117.5346 117.5788 117.0174 114.8742 117.0004 116.8140 117.1092 117.6667 117.1995 116.9148 117.3466 117.2714 117.5624 117.7242 117.8692 118.1435 118.5274 118.7082 118.7389 118.9754 119.2737 119.5468 119.8049 120.0418 120.2300
111.3500 108.8098 108.0863 109.2358 107.6943 105.7930 105.0556 103.1834 105.5069 100.7630 113.0107 103.1581 101.6050 103.3858 117.2567 100.9063 112.3454 105.2741 100.0442 111.0578 108.0638 114.6434 103.0311 120.8711 123.6097 120.1230 121.0074 116.7645 110.6661 121.8753 119.0687 114.1342 114.6003 118.8501 118.0378 114.0737 116.7471 119.4821 118.4723 118.8465 117.7661 117.6826 117.9478 117.5569 117.6628 117.4802 114.2399 115.9494 117.4102 117.9047 117.9117 118.0113 118.1578 118.3496 118.6634 114.5104 118.8881 118.7674 118.4361 119.5645 119.8336 120.1326 120.0225 120.6400
111.3500 110.4546 107.0582 109.9962 107.8928 106.3435 103.8020 101.7231 105.5048 106.6721 108.6655 107.0590 113.1986 105.2759 120.6189 110.4398 122.6592 106.8369 108.5243 111.4439 109.2787 111.0170 109.4543 116.5820 123.4412 121.1488 121.5879 123.2915 113.3546 121.7927 99.9956 104.8761 119.8874 120.6656 121.2668 114.4975 111.5880 119.1086 112.4045 118.3882 118.2504 118.5426 118.2082 118.1405 118.1420 117.6314 118.2213 108.4235 118.2415 118.2886 118.3158 118.4467 118.5878 118.6674 118.7342 118.6405 119.6282 120.0739 114.0518 120.1693 120.0826 120.1934 122.3544 120.6400
111.6200 107.3191 115.5555 107.6020 105.7357 102.7040 103.9115 111.2963 110.7948 110.1559 115.2860 110.1364 121.2556 108.1727 109.7850 112.2137 122.3785 113.1049 120.2513 114.0533 115.0785 104.2691 107.7788 97.7005 118.9199 122.3459 120.7486 109.2400 112.1283 120.9897 121.7215 120.1582 117.4232 119.6464 107.6210 113.8487 110.2404 106.3854 102.3082 117.0954 111.2991 118.9444 118.6633 118.5736 118.5665 118.5622 118.3657 119.8245 118.6387 118.7115 118.7604 118.8664 118.9905 119.1161 120.9673 119.4395 119.5967 119.5578 120.4998 120.2255 120.4691 120.7168 114.9705 99.0300
109.2300 108.4946 113.9886 107.0102 115.5775 110.1906 116.3244 112.0410 111.1114 102.1008 111.5571 122.8986 115.5268 120.0564 109.5066 119.7733 116.7873 116.4923 113.7248 118.7691 121.0004 115.0798 109.9715 122.9739 123.7066 121.0118 122.9365 102.6983 117.8800 120.7458 120.2488 119.9790 114.1974 122.0117 104.8617 99.9911 96.8878 94.9174 109.6813 121.1260 118.9249 119.0936 119.1109 118.9987 118.9647 118.8519 118.7900 118.7855 119.0093 119.1031 119.1666 119.2655 119.3795 119.4734 119.6590 119.6594 120.0721 120.1697 120.1943 120.5166 121.1962 118.7997 121.6732 121.3300
109.4500 108.2969 108.0854 103.4527 112.8054 109.4877 112.0321 107.6324 103.7967 112.5720 104.2988 106.3942 124.3791 124.5139 121.7344 117.6242 114.0825 116.4007 118.6417 124.3096 124.9438 120.7254 115.7052 121.9963 122.1297 122.6040 117.9540 103.3638 113.9481 126.4076 113.1979 119.7867 121.2272 122.1980 101.8723 115.3124 94.6487 121.4948 120.8940 119.1460 119.6707 119.5455 119.4546 119.4148 119.4024 119.2404 120.9884 119.3440 119.4203 119.4805 119.5555 119.6464 119.7498 119.8853 120.0006 120.1625 120.2800 120.5268 120.9518 120.4565 120.6824 113.8346 103.1030 121.3700
111.2200 110.3789 104.8973 108.9189 111.4148 109.3608 106.9102 107.0202 101.9552 123.1497 119.1347 116.3498 105.2451 106.6059 121.0793 117.4917 121.2348 119.0024 121.9850 114.8670 114.1385 111.6171 113.5208 115.5298 124.7775 110.9985 120.9468 107.2662 100.6828 119.1371 109.2277 116.5317 121.4640 113.0868 106.2086 99.7460 99.3254 118.0638 120.1748 120.1492 119.9786 119.9108 119.8806 119.8144 119.7647 119.7052 119.6527 118.5819 119.7689 119.8979 119.9656 120.0208 120.1332 120.2103 120.3299 120.4792 120.6276 120.7598 115.1751 120.2626 121.3955 125.0329 115.4087 99.6900
104.7800 105.3591 119.1963 108.1238 120.9870 106.7702 121.6881 105.0346 120.8595 107.7309 104.0773 103.2273 108.4204 107.3697 124.2926 120.5990 125.2930 108.6259 116.3528 113.2636 114.7017 108.5062 113.0881 123.5690 122.4065 123.1482 104.6195 99.9119 121.0218 122.1754 127.7384 123.0220 119.9886 122.7263 123.7987 121.2102 121.7633 121.7118 119.9655 120.6397 120.3833 120.2952 119.9585 120.0040 120.1443 120.0803 120.1501 120.0499 120.4871 120.2957 120.1516 120.3672 120.4333 120.6250 120.7608 120.7968 120.9305 121.3630 120.9325 122.6884 111.3042 109.6824 123.4486 100.2100
124.5900 124.1296 113.0293 111.7653 122.2976 126.2300 125.3830 116.8681 108.1112 126.9048 100.6915 104.0222 102.8952 111.8692 111.0856 126.1369 124.1816 123.2462 117.3272 110.3072 110.2061 103.3872 111.5384 123.0530 123.2856 119.5220 102.9671 105.4590 124.1862 121.5331 122.0181 121.4664 108.8522 120.9283 120.7471 121.1060 120.6126 121.6912 117.7617 118.6478 120.8239 120.4206 122.3106 121.6103 120.5397 120.0446 120.4655 120.2609 119.3412 118.0592 121.0299 120.4274 120.7691 120.0918 120.8060 121.5793 121.1477 121.3143 121.4919 121.4971 122.3683 119.1379 111.9431 108.4000
123.5300 114.7093 127.9614 124.5525 121.0092 125.5230 122.6346 110.7447 114.8272 132.4283 104.7399 103.3286 105.7990 108.9246 101.5645 124.6608 122.1099 120.8223 119.4104 126.4824 108.2753 111.4621 125.7458 123.6983 125.0916 110.0780 106.3516 121.0920 121.9891 123.7947 121.9268 122.4251 122.0756 121.7464 121.6813 121.5372 117.2799 105.2308 111.3482 119.5512 121.0248 122.3999 105.7484 117.0668 118.4833 109.3977 121.1938 121.0172 120.8143 109.1808 121.1434 115.9465 121.2454 120.6693 137.8009 119.3337 121.5935 121.6754 121.7949 122.4394 118.8141 119.8014 109.0283 113.8800
127.0000 127.9549 125.9485 123.9297 121.8733 124.5820 123.0428 122.5304 126.1343 119.7289 98.8698 106.2353 122.1674 102.6502 102.6659 105.7987 114.9794 117.3411 125.8196 123.8490 124.2615 124.6504 123.5277 121.3061 109.6372 106.0202 100.6934 126.4325 120.6044 119.0281 122.8404 121.9252 122.1082 122.0333 121.8707 121.8469 125.0020 96.4967 114.3434 121.6511 121.4016 120.2283 109.7505 114.9596 120.2908 117.7788 122.6381 119.8588 113.5404 102.1873 120.5924 121.5555 121.6368 121.2793 126.2903 119.1589 122.2783 121.9856 122.1479 121.9222 122.9567 124.6213 120.4256 119.3600
112.2000 125.9508 127.4100 126.9863 126.5254 129.3945 121.7730 120.8441 110.0750 102.6650 109.0521 129.7995 107.0129 102.6738 109.4932 103.5520 98.3163 115.4536 116.6040 124.6639 123.7864 123.8567 124.4095 106.6158 111.7433 126.9455 101.8850 111.6839 117.4044 108.2637 120.3354 122.4880 122.4033 122.2674 122.1717 121.7353 125.2326 103.7681 121.3794 121.5137 121.0190 123.4764 101.4004 122.0813 121.1547 121.9786 121.3540 127.9502 98.3997 123.0665 121.7161 121.3242 121.6841 122.0624 117.6669 115.7540 122.8827 122.0498 123.0164 118.1749 111.6428 112.2370 108.0444 107.4500
127.5900 123.0400 126.9500 126.7300 126.6200 126.5000 120.9600 119.7000 104.0400 103.9200 122.1700 125.5700 127.3000 106.5200 122.8100 121.8900 102.9200 133.2200 124.5400 124.3800 124.2400 124.1300 123.9600 123.8200 114.5100 123.5300 101.4000 120.9700 113.6800 113.6800 122.7800 122.6300 122.4700 122.4900 122.3300 122.1600 122.2100 99.9800 122.0200 121.8100 121.8700 121.8700 121.6600 121.6700 121.6800 121.6900 121.6900 129.8300 99.7300 121.6400 121.8800 121.8500 121.8200 122.0300 121.9900 111.4200 122.3500 122.5100 122.5100 113.0600 113.4800 113.4800 102.7800 102.7900
