119.8100 104.7400 118.2000 116.0800 116.9800 116.6500 116.0200 115.7100 116.4900 114.7600 118.0400 100.2000 113.9900 112.2600 103.8300 115.7300 112.8200 111.1300 112.6200 108.4000 107.8900 115.3900 112.9900 110.2800 109.0100 107.6700 106.6300 106.6300 99.3000 99.3100 98.5900 100.2300 100.2300 98.7900 102.5300 115.8500 97.8500 96.7800 93.9300 115.9000 115.8700 117.7500 117.4900 116.6100 116.9300 116.9300 117.2200 117.4700 117.7400 118.0500 118.3800 118.5800 118.8800 105.6400 119.3700 119.6200 122.2800 106.0900 108.1200 108.1900 108.6100 113.6800 114.3000 121.8200
112.6500 114.1005 119.1993 116.2968 114.6996 116.5243 116.0789 115.5035 115.5141 114.1692 115.6536 100.7154 100.1479 114.1408 110.1167 108.8125 101.0637 107.8572 116.7880 109.2346 108.6687 112.1006 111.2105 107.6022 106.4080 104.5878 107.1486 98.8467 97.9015 104.8277 99.9571 102.5666 102.2314 98.6324 95.2731 106.2937 102.0397 99.3165 97.7713 114.4594 111.3311 115.6414 115.8724 116.1111 116.3290 116.6050 116.7175 113.5426 117.3632 117.6597 118.0297 118.2990 119.5665 120.0372 119.2352 121.1552 112.1434 107.7100 103.3958 108.4675 112.9331 112.5737 115.4146 117.7800
119.7400 120.4918 122.2173 119.9317 116.0337 116.5685 115.9199 116.5511 115.5726 114.6188 114.2611 109.9550 109.6913 120.8604 110.3874 111.4957 104.2427 105.8511 109.8664 107.5086 100.9128 105.7081 106.2908 101.4820 104.1657 105.0644 103.0319 103.0625 108.3149 99.4140 97.4959 109.8040 118.6858 110.4653 105.2857 95.9128 99.8758 119.1223 120.1538 115.3700 113.3275 114.9817 115.2698 115.5413 115.8030 115.9874 116.4280 116.9382 117.1555 117.3363 117.6944 117.6091 118.0794 116.6366 119.9029 108.3894 107.5028 105.1771 105.5952 107.3036 112.5625 112.3038 122.1177 117.7800
119.7400 122.0374 124.8664 121.5610 119.3738 118.3541 116.2651 110.3575 111.7138 115.7157 114.1641 114.3644 113.0273 110.2930 105.9033 103.5569 97.9641 103.5964 103.6000 101.6230 103.6611 105.9779 104.9074 105.4372 100.1926 105.7382 96.8645 104.4996 109.8131 94.1077 108.1477 105.8174 110.1083 114.5946 108.8285 95.1535 117.1077 105.1842 110.2015 113.5663 124.1059 114.2504 114.6470 114.9462 115.2256 115.5670 115.8673 116.2293 116.5077 116.9732 117.2273 117.6911 117.2614 118.4178 110.3446 97.5607 107.6223 108.6974 109.1270 107.9895 113.1931 110.8157 115.6306 107.7400
118.4400 121.8491 123.3145 124.4897 124.3480 119.5345 114.7401 112.3122 111.6041 111.5168 111.1853 103.2129 115.4851 113.3821 110.2520 107.0755 107.4391 97.7144 105.6129 100.1256 107.6442 111.5312 111.9231 108.5301 102.4149 107.3746 103.2089 102.0084 97.5603 98.8039 83.1494 102.9850 114.3553 114.6762 114.3164 104.2965 106.1499 99.8180 108.2826 113.6058 114.3939 113.7024 113.9657 114.3106 114.6713 115.0044 115.3852 115.7599 116.1654 116.5480 116.9129 117.2591 119.6137 120.8103 93.6783 103.6824 107.6145 108.3148 107.2840 107.8063 109.9073 112.3042 105.6204 107.7400
116.8200 116.7546 116.3721 121.4047 115.7585 121.2972 135.0138 116.5535 115.4531 114.0684 107.6185 106.8398 102.6578 112.8890 110.9067 109.6828 108.7178 107.9153 102.9575 100.0331 105.7302 109.0127 110.3370 102.8518 104.2366 102.0189 101.9056 101.8292 96.8756 112.1484 105.7373 112.1449 114.4015 112.0187 94.0330 114.9475 111.8348 113.2491 113.2815 112.6288 112.7332 112.9893 113.3093 113.6608 113.9695 114.4473 114.8784 115.3057 115.7744 115.9280 118.0024 101.2737 97.6079 101.8801 105.5036 109.0198 117.3334 103.7421 108.7871 106.0397 106.7882 103.5704 120.9153 121.1200
113.3600 112.1356 117.7699 117.1141 119.4759 118.9455 113.3300 118.1420 118.1911 117.5228 103.3788 104.5270 109.2288 104.3185 110.8241 108.8452 108.1236 108.3256 108.5664 106.0891 107.4836 98.4733 105.3165 107.5121 102.2258 103.2930 96.1075 112.3817 118.6843 95.2875 107.4717 105.6377 94.5078 101.3812 92.4431 112.8525 111.4636 111.1639 111.4329 111.6330 111.8885 112.1849 112.5412 112.7598 110.9600 114.0397 114.3255 114.8656 114.9806 116.1122 116.4925 109.6512 95.9660 105.2016 105.5136 111.6397 111.2694 107.7660 105.0167 118.9120 119.5971 119.9177 121.0945 127.9400
122.1000 124.4403 116.0276 121.0138 118.3789 113.3716 112.3798 112.8773 113.3371 117.3315 118.0746 116.8044 114.7110 103.2245 97.5169 109.1608 109.8481 107.9843 107.9144 98.9958 107.6072 105.8297 105.4489 101.6439 104.9144 102.9194 97.4955 94.0456 97.6258 116.4461 110.4027 112.8691 109.2811 114.6755 104.2172 111.1612 110.3781 110.6107 110.5604 110.6720 110.9247 111.2900 111.6728 112.4184 112.6018 113.3737 113.8182 114.2989 114.6985 105.9747 103.0672 102.1065 98.6904 104.5172 106.4711 107.5532 106.0983 103.7450 105.4114 121.1139 119.9546 120.4570 119.2409 115.0600
120.3300 120.3662 121.5256 121.3359 121.9510 122.6488 118.0218 117.2945 115.5504 107.0601 104.8030 99.5415 109.9157 108.0082 112.2543 115.7702 109.2698 109.6552 109.9465 110.6826 99.0158 98.0351 107.2420 100.0803 117.0825 113.3199 101.9468 101.6932 96.8983 102.6761 110.7456 92.4715 95.4616 107.2211 109.3060 110.3306 109.3117 109.2964 109.3293 109.5213 109.8589 110.3142 110.8554 111.4010 112.0232 112.6610 113.2894 113.8753 114.8221 116.6490 104.8323 102.9113 99.9227 103.0870 101.3355 103.6770 103.4339 105.1186 119.7989 119.0666 120.0431 120.5630 123.7311 124.9200
119.3700 119.4575 120.4912 120.5607 120.0693 119.7127 120.3271 119.4345 118.6332 117.2086 108.1682 103.5848 102.0691 102.5012 104.4635 109.6767 105.6808 106.5283 108.7528 108.8987 108.3442 109.8984 100.3672 100.4885 105.8529 106.3918 101.8223 119.2611 122.6980 114.8195 111.6638 112.8799 94.4676 111.7362 110.4935 108.1699 108.2204 107.9533 107.9644 108.2117 108.6617 109.2470 109.9194 110.6245 111.3556 112.0631 112.7724 113.3726 114.0237 115.6594 120.2670 106.3070 102.5005 96.6159 108.8953 100.9725 105.8007 109.4350 119.2614 119.5784 119.7923 119.1254 120.2459 124.8500
119.8600 119.2248 120.0579 120.6764 121.3122 121.3683 121.9611 118.6773 112.4708 110.6848 111.5442 112.4672 102.6493 119.0621 115.0045 110.3554 111.0412 110.9428 110.3298 108.6841 104.9090 104.7154 105.8947 108.6857 112.3009 116.3610 118.2971 115.7422 110.5682 111.2729 112.2902 110.9790 106.7484 81.6580 101.9267 107.2148 106.6514 106.3160 106.3378 106.6949 107.3061 108.0712 108.9181 109.7865 110.6400 111.4663 112.2468 112.9846 114.0964 109.7422 105.4394 107.8425 83.4724 96.9873 108.7398 99.2271 105.0340 120.1111 118.8543 119.3503 120.1445 114.5405 115.9159 99.8000
118.8500 119.0705 116.7521 116.7812 118.2037 117.5441 119.8704 121.5073 113.1196 112.7755 111.5604 111.2872 112.1606 110.1320 112.9458 109.3193 104.6045 90.4948 113.7373 106.3513 105.8605 107.4098 105.7080 116.4302 116.7440 115.8227 112.0023 112.9943 112.8998 111.8274 110.7183 107.2227 100.6967 96.6895 104.9510 106.2228 104.7402 104.3132 104.3440 104.8851 105.7575 106.8004 107.8844 108.9517 109.9563 110.9047 111.7774 112.5430 113.3700 111.8426 116.2068 102.6789 132.2173 100.3190 108.7675 101.0235 113.1103 119.3624 118.7528 119.2972 119.6739 120.6614 120.1769 122.8200
119.5800 120.1383 113.8896 114.8911 114.2887 114.3387 113.4085 117.2005 117.5638 113.8239 109.3509 111.6951 114.4940 111.8891 114.1305 112.7059 110.3978 118.7881 106.9671 103.2048 104.7085 105.9201 101.1052 103.4301 121.1715 116.4384 114.0549 113.0544 112.1726 111.0915 110.7879 96.8502 107.0782 98.4266 105.2023 103.2492 102.5713 101.6917 101.7427 102.6358 104.0031 105.4448 106.8484 108.1333 109.3203 110.3864 111.3647 112.1956 113.2772 111.1329 115.8402 117.5707 113.5500 105.5316 97.9208 102.3468 101.5383 115.3866 118.8390 119.2360 119.5199 119.9234 117.0314 117.8600
120.0400 113.2182 113.2091 113.8856 115.1297 114.6951 114.3248 114.6642 113.4588 116.7204 108.3094 107.4388 109.6145 108.7723 108.7232 109.8127 107.1362 104.1838 97.9930 100.8817 114.4173 102.8451 96.3542 113.1726 117.8166 114.3424 113.2917 112.6797 111.7539 110.5128 111.6953 93.7249 105.9092 107.2151 104.2780 101.7522 99.7128 98.0048 98.1329 99.9044 102.0496 104.0750 105.8625 107.4137 108.7648 109.9563 111.0128 111.9268 113.1140 115.6810 111.9401 112.4767 99.5064 100.9883 95.9967 100.5005 102.7812 110.0118 118.9373 119.1573 119.5308 120.0610 121.6331 122.9100
121.6300 116.1694 119.1903 118.7326 114.1124 114.2557 113.7098 113.7045 109.8166 106.2789 105.5791 106.7072 105.4890 106.4044 106.3388 106.9950 105.0138 97.6305 98.8414 110.8922 101.0351 97.1112 92.8753 118.0769 114.2691 113.8621 113.8026 112.6045 111.8938 112.3864 108.2397 87.4281 104.7911 99.0240 102.5116 99.6646 95.6176 91.5902 91.9013 96.3052 100.0363 102.8557 105.0511 106.8143 108.3251 109.6236 110.7350 111.8270 113.4429 98.7563 112.5242 109.6223 96.9035 112.7380 114.4982 96.7759 98.9847 119.8182 118.4074 119.0480 119.5488 119.8675 111.2042 100.1000
120.9600 119.6367 118.5805 120.5948 116.7519 114.6527 114.1152 113.4869 111.9629 109.4241 107.8797 101.6941 103.2417 106.8736 108.2931 108.0969 105.8189 104.2635 105.6138 108.5574 103.4503 99.8315 100.6752 118.9979 98.3356 113.9090 108.5140 112.4163 112.7643 95.0625 97.1629 111.6784 109.7477 101.7306 101.7399 98.0662 91.1002 86.2890 86.7280 92.1869 98.5825 102.0302 104.5107 106.7132 108.0990 109.4474 110.6169 111.6088 112.5409 113.4774 94.7702 98.6430 95.2908 105.6900 102.1044 104.2479 101.8142 119.6327 118.5202 119.0435 119.2884 119.7312 114.8318 107.6700
119.3000 118.5867 117.9419 120.9334 117.5517 114.5507 113.4417 113.4878 112.3937 111.0120 110.6500 101.3851 102.5216 106.5797 108.5703 108.6353 105.9545 106.3291 115.2335 105.6440 103.3901 102.3149 103.1508 122.0695 102.2771 114.0641 108.1123 112.2351 112.6615 92.8175 92.7101 120.0624 111.1038 103.8107 101.4736 97.7021 90.1369 84.7105 85.2826 91.2528 98.2411 101.8599 104.5251 105.6561 108.1126 109.3892 110.6092 111.5799 111.9831 117.4235 93.9594 94.6863 92.0824 102.6155 99.3406 103.1213 102.5109 119.4311 118.5471 119.0604 119.3036 118.7467 117.8768 107.7200
119.3500 118.7908 117.9982 121.7176 117.4678 115.8446 115.6143 112.3741 115.1225 113.1548 115.8686 108.4789 105.7165 109.9996 106.3121 104.1897 101.9593 95.0004 110.0811 108.2083 99.4630 99.8510 94.6319 93.4872 92.4753 93.2706 112.5742 112.5518 111.7166 110.7443 109.6226 107.8489 106.4202 104.5276 102.0637 98.7307 93.0460 89.0615 89.3015 94.5255 99.3057 102.4408 104.7852 106.6487 108.2370 109.5567 110.4564 111.7204 111.8213 115.0987 93.7084 94.5528 117.6610 108.4158 106.1872 107.8042 109.8463 119.1151 118.5447 119.0073 119.5035 119.9774 119.3349 132.0400
115.4100 114.7281 114.1952 115.5715 114.4675 115.8349 115.9582 112.3642 114.7612 112.2096 112.6318 104.6322 113.8381 105.5846 103.9591 102.6510 101.1259 97.1420 106.7623 114.2580 108.9110 97.6841 119.1269 116.8223 116.1423 115.1515 110.6763 112.8724 111.7170 110.7017 109.6414 108.5138 106.9501 105.2409 103.2488 100.8918 98.2028 95.4771 95.8479 98.5359 101.1622 103.5426 105.4886 107.1410 108.5898 110.1155 106.2857 111.2204 98.3600 110.6380 104.3086 112.3314 97.9868 106.3693 103.1473 101.9054 111.2843 111.2425 119.0282 118.9706 119.4402 119.8854 120.3179 120.5700
115.5700 115.1981 114.3943 115.5798 114.8920 115.0939 114.3136 112.8416 110.3480 111.9829 112.2136 106.4009 104.8723 104.8220 104.7637 103.4574 99.4556 104.6129 115.9862 101.3361 119.6699 117.3427 116.0166 115.1073 114.5256 114.2812 113.8771 112.8241 112.1836 111.1046 110.0326 108.8760 107.6241 106.2052 104.6350 103.0369 101.3373 100.3195 100.3817 101.5548 103.2066 104.8685 106.4271 107.8239 109.1465 109.5828 111.7800 109.5908 96.8654 95.7430 94.0783 94.8392 103.3473 101.3517 102.9962 103.5608 117.1334 109.4526 116.1361 110.6012 120.0258 119.8095 120.0449 120.5800
115.5800 115.1275 114.7934 114.6373 116.3594 113.8729 117.5603 110.0645 114.5353 110.3365 108.7147 108.8431 103.8538 102.9376 101.7038 98.3701 106.9631 123.3129 112.9041 117.9432 115.4027 116.2902 116.3336 115.9676 115.3798 114.6096 113.8169 113.2395 110.2068 111.6906 110.5667 109.5358 108.4707 107.4444 106.0934 104.8918 103.8679 103.2713 103.3184 103.9927 105.0429 106.2344 107.4468 108.5786 109.9310 108.1456 113.3459 104.9312 122.4405 105.2433 104.3409 105.2970 113.5823 97.2673 105.4531 108.0898 103.5042 105.0033 106.0144 112.0275 117.8626 121.2544 121.6182 120.6000
116.3100 118.5910 118.7536 117.4169 120.2868 115.0327 122.7180 115.4836 111.3877 112.5591 111.8615 109.0385 111.9673 115.3760 110.2070 101.5926 101.3784 113.4723 114.4217 116.3826 118.1921 117.1737 116.4940 115.9344 115.3594 114.7836 114.0076 113.5916 108.8920 112.2895 111.0911 110.2822 108.1557 108.9132 107.5206 106.5770 105.8781 105.5083 105.5345 105.9535 106.6688 107.5464 108.4970 109.4423 110.3293 111.0064 113.2417 101.0093 113.4553 107.6294 109.6666 106.3074 93.9782 98.7352 101.9867 105.4864 105.0361 106.5856 116.8607 113.7276 114.9309 116.3627 113.4826 120.6200
123.9700 124.7419 124.7698 120.8976 124.0146 123.0231 124.2082 106.4735 111.9893 111.5413 107.0639 106.9716 106.5841 113.2109 110.5714 98.1593 103.1118 114.3574 118.0342 114.8824 116.2313 117.1915 116.7346 116.2098 115.6473 115.1301 114.4790 114.1246 113.6369 112.3921 111.7178 111.0877 108.7261 109.0536 108.6923 108.0206 107.5362 107.2835 107.2979 107.5911 108.1053 108.7573 109.5028 110.2740 111.0468 111.8597 112.4472 113.8312 114.5664 106.6322 99.3978 102.3304 110.1770 93.4063 113.1184 111.8651 104.1339 106.8333 100.5918 110.2693 116.3822 117.4863 111.5055 104.4300
123.9800 124.3160 119.6401 123.7858 122.1593 123.2431 117.2552 109.7634 106.7329 110.6114 109.5294 109.8825 110.4318 108.1913 104.6010 101.7715 103.9836 109.9248 119.1811 115.4311 117.3544 117.4009 116.9269 116.4158 116.0514 113.9021 114.9445 114.1459 113.5471 112.9771 112.3337 111.6379 111.1367 110.3203 109.7977 109.3053 108.9352 108.7559 108.7547 108.9856 109.3602 109.8741 110.4652 111.0962 111.7566 112.4113 112.9605 113.7384 114.1440 115.8236 112.4579 117.1965 113.1503 108.0815 112.8662 118.6001 113.5462 114.3432 115.8086 118.0518 116.4724 119.2359 115.3350 120.9300
110.0600 127.0010 106.0998 126.1003 124.5373 112.7203 109.4294 110.9837 109.9185 110.2442 107.1388 101.4310 103.3966 109.5105 104.8383 105.0480 106.3482 111.8934 120.6616 118.9932 118.2559 117.6128 117.1561 116.6804 116.2568 114.9296 115.2295 114.6502 114.1026 113.5137 112.9466 112.3738 111.8195 111.3058 110.8261 110.4369 110.1554 110.0136 110.1740 110.1429 110.5012 110.8829 111.3580 111.8927 112.4556 113.0149 113.6289 114.1672 114.6928 114.9084 115.9025 116.2731 117.4738 118.4180 114.1483 118.4368 111.4770 119.4360 119.6828 120.1880 120.6771 120.4297 117.7370 120.9700
102.2000 114.0803 103.5339 117.0873 111.0247 120.3864 104.0185 108.7853 107.3120 111.5265 109.4008 102.7154 104.2165 101.4930 99.2825 103.3067 110.0670 112.5757 118.4933 118.2913 118.2456 117.8371 117.4069 116.9695 116.5176 116.0984 115.5439 115.0391 114.5648 114.0583 113.5507 113.0594 112.5786 112.1464 111.7640 111.4447 111.2342 111.1268 109.7255 111.4507 111.3571 111.8193 112.2029 112.6452 113.1232 113.6194 114.1152 114.6421 115.0869 115.4733 116.2373 117.1916 116.8916 117.5008 118.5190 118.2387 117.2621 119.2083 119.2362 119.8110 120.1290 120.1767 121.0791 121.0100
118.2700 116.9942 115.2152 112.1776 111.2765 113.3047 108.8174 114.7101 114.4352 114.3348 112.6226 107.3844 107.6294 103.8010 99.6712 102.9701 110.9255 114.4107 116.8938 118.9879 118.5146 118.0560 117.6644 117.2523 116.8242 116.3473 116.0968 115.6106 114.9629 114.6084 114.1437 113.7230 113.3111 112.9412 112.6215 112.3645 112.1899 112.1968 112.5816 111.6190 112.4978 112.6570 112.9904 113.3627 113.7730 114.2206 114.5651 115.2461 115.6840 116.5087 109.5510 115.4809 117.2326 117.7722 118.0791 118.4847 119.1621 119.5606 119.6167 119.9315 120.4232 121.1836 123.9719 121.0600
113.8300 113.4316 115.3578 113.5728 113.7147 110.9810 109.0232 112.2608 111.3964 112.7766 110.8039 106.4789 112.5970 108.1899 112.8798 104.6886 112.0949 121.5259 110.9304 120.1896 118.5518 118.3171 117.9445 117.5442 117.1597 116.7600 116.0752 113.2205 115.9278 115.0962 114.7251 114.3465 113.9934 113.6749 113.4074 113.1904 113.0449 112.7244 114.2355 113.6979 113.2451 113.4419 113.7133 114.0402 114.3994 114.7529 115.5947 111.4209 116.6255 106.3237 117.4861 117.4797 117.5521 117.9970 118.3655 118.7468 119.1093 119.4525 119.8014 120.1233 120.4531 120.6452 121.2296 121.3200
116.7300 116.0810 115.4925 113.9478 114.3380 114.7175 108.7816 111.8640 108.1394 112.7096 108.1889 106.2158 111.8491 105.2786 106.0605 107.4146 107.7957 124.9007 114.0763 119.0652 118.6687 118.6298 118.2128 117.8525 117.4891 117.0594 116.9807 116.2229 116.0724 115.6193 115.2704 114.9454 114.6393 114.3655 114.1357 113.9577 113.8357 113.8426 113.6880 113.6087 113.9901 114.1699 114.4024 114.6967 114.9756 115.4132 115.3812 115.4301 118.2112 114.8998 118.0085 117.4507 117.8772 118.1510 118.6393 118.9666 119.2899 119.7857 120.1098 120.3126 120.6037 120.9523 121.2271 121.3700
116.7700 115.5420 112.5806 113.1379 114.2124 112.8477 112.1998 109.5609 109.9293 113.6576 109.2766 110.1084 109.1953 104.0120 106.8652 103.3766 99.5284 96.9422 125.9719 120.0964 119.1809 118.8193 118.5764 118.1770 117.8038 117.4677 117.0761 116.7648 116.4118 116.1151 115.8096 115.5209 115.2488 115.0231 114.8183 114.6579 114.5491 114.4926 114.5150 114.6131 114.6754 114.8118 115.0506 115.1878 115.5183 115.9824 116.8896 114.1739 115.9188 116.0764 115.8136 114.6539 118.2326 119.6253 118.9091 119.2238 119.5133 119.1275 119.8306 120.3469 120.7195 121.1993 121.5257 121.4200
114.4300 115.9526 116.8122 113.1390 113.1763 113.0335 111.4470 108.8215 108.5139 110.3138 110.3997 107.3892 109.5990 108.0098 101.3631 101.1710 103.5294 107.0820 116.3903 119.6048 119.4536 119.0243 117.6041 118.7115 118.2615 117.8470 117.5415 117.3401 116.8668 116.5660 116.3177 116.0583 115.8306 115.6226 115.4469 115.3163 115.2242 115.1800 115.1952 115.2420 115.3383 115.5389 115.6434 115.3961 112.5850 115.0860 109.9588 102.7133 109.1677 117.8745 102.4120 103.8740 119.3608 118.7102 119.0022 119.4908 119.9750 115.3263 118.6165 121.1205 121.4594 120.6200 120.4901 121.6800
124.6800 125.2334 122.8964 114.9769 117.2938 111.1534 110.4516 111.2140 109.3826 111.4751 113.9735 110.2996 107.0366 110.8518 102.4269 110.0898 118.2238 122.3908 121.1123 119.8081 120.1880 120.1637 114.9619 119.6454 117.9366 117.5599 117.7922 116.5300 117.3251 117.2671 116.8186 116.5826 116.3744 116.1896 116.0388 115.9228 115.8496 115.8035 115.7637 115.7986 115.9074 115.8824 116.2812 118.6630 113.3007 116.5719 111.8673 111.3880 117.4091 120.2591 117.5699 117.8327 119.0640 119.2017 119.4278 119.7184 119.8486 121.3349 120.9365 120.6497 114.0848 123.5089 122.1027 121.9900
124.6800 124.3858 118.7967 124.0270 119.2977 110.2389 109.8425 107.5716 109.0661 109.3349 112.4369 112.6247 106.6909 105.0520 103.2627 119.4829 124.1259 121.1038 119.4766 120.6876 113.7563 118.7086 119.0890 119.5704 111.3587 119.1132 117.9313 111.8149 117.6001 117.5320 117.2807 117.0741 116.8883 116.7313 116.5997 116.4927 116.4275 116.3894 116.3315 116.4484 115.8494 117.4179 117.1731 104.6234 99.3781 115.5137 118.9244 108.7453 101.2178 120.2319 118.5559 119.3692 119.0302 119.4138 119.6865 119.9638 120.2372 120.5204 120.6000 121.2961 108.0409 112.8345 123.1286 121.9900
124.7200 125.3282 118.4914 113.7716 115.6662 109.8595 110.1719 107.6610 111.6284 110.9254 112.9444 110.9794 108.9756 100.2955 113.5245 124.8871 112.3030 117.2408 119.6225 120.9424 115.6081 118.6276 119.7831 119.7087 116.6377 118.6496 118.5045 120.9487 118.1759 117.9420 117.7404 117.5474 117.3773 117.2380 117.1152 117.0221 117.0126 116.9409 116.8068 117.1748 113.7371 119.5431 103.5210 114.9878 103.5523 117.2659 119.0398 117.4944 109.9721 114.0417 118.7128 119.0709 119.4788 119.6757 119.9564 120.2165 120.5068 120.7503 120.9976 121.6244 126.3645 111.3920 121.4588 122.3000
124.9300 125.3127 111.7493 110.3617 114.3349 112.6308 109.2962 109.2168 110.1709 109.2014 108.4998 106.9761 105.4832 101.7250 121.8569 106.5738 106.2246 117.6064 120.9443 120.3696 121.5022 120.0387 119.7170 119.6877 119.4368 118.9319 119.6112 118.8961 118.4659 118.4001 118.1750 118.0016 117.8494 117.7214 117.6161 117.5283 117.4794 117.4518 117.5123 117.5075 113.5793 102.2566 104.6615 117.8731 118.6287 119.1066 110.7427 119.8918 117.6267 110.9000 117.2267 119.5498 119.8000 119.9753 120.2239 120.4715 120.7157 120.9625 121.1914 121.3124 121.0231 121.3300 121.4079 122.3700
124.9700 116.6310 106.9159 113.8087 115.2225 115.7963 113.8846 114.5013 108.1771 108.5823 106.9365 105.5142 107.1669 99.8080 105.6524 114.3972 119.9344 121.8319 121.3196 120.9320 120.4984 120.3843 120.2243 120.0049 119.7816 119.9334 122.5399 117.7045 119.0596 118.7908 118.5901 118.4325 118.2974 118.1784 118.0885 118.0075 117.9599 117.9328 118.0259 117.9420 108.7231 107.6462 107.0206 119.5225 119.3986 109.0855 94.8803 114.0972 111.1069 112.8265 115.5714 120.0118 120.0476 120.2478 120.4961 120.7255 120.9590 121.1968 121.4228 121.6625 121.9333 122.8373 122.8004 122.6100
115.7100 114.9698 113.7392 116.1815 116.5101 117.0045 111.3952 108.2147 108.8200 108.6018 107.7447 108.0661 102.7567 105.7536 99.2204 125.2824 122.3429 119.8090 121.1004 121.1928 120.9565 120.7241 120.5092 120.3028 119.9880 120.6575 118.7501 115.4376 119.3396 119.1566 118.9855 118.8463 118.7213 118.6144 118.5295 118.4619 118.4220 118.3965 118.4220 118.2004 117.5076 102.2924 103.1145 117.4781 120.6009 103.4323 108.1089 114.1870 119.5134 123.0553 108.3541 119.7677 120.3126 120.5375 120.7576 120.9763 121.1993 121.4135 121.6454 121.8337 122.1171 122.2919 122.4311 122.6700
113.9000 115.5270 115.6031 118.2695 117.9878 116.1049 108.9141 109.3994 109.4008 107.5531 105.5961 106.5519 107.0251 104.6256 122.9003 122.1312 121.9422 121.5847 121.6582 121.3745 121.1981 120.9839 120.7793 120.5945 120.2868 118.8263 111.7584 119.9419 119.5097 119.5222 119.3729 119.2438 119.1309 119.0394 118.9604 118.8935 118.8553 118.8396 119.0318 119.1281 118.2886 120.0632 101.9829 123.0792 119.4829 100.9938 109.7410 121.0148 119.6029 119.9151 118.4812 121.1851 120.5813 120.8167 121.0210 121.2265 121.4342 121.6444 121.8581 122.0975 122.0337 124.0894 122.8966 122.9100
114.0000 114.5250 116.8503 117.2454 108.7637 110.2054 110.6030 113.4735 113.1086 107.7567 108.8892 109.1205 116.6992 123.2709 122.6360 122.4375 122.1896 122.1438 121.8779 121.6294 121.4497 121.2488 121.0541 120.8647 120.8985 122.7588 119.7150 120.5737 120.0253 119.8838 119.7454 119.6248 119.5224 119.4342 119.3617 119.3093 119.2727 119.2431 118.4521 117.9937 118.9215 120.4501 105.9574 116.1528 104.4997 119.8224 104.0783 115.8653 120.2054 120.3535 120.6357 120.6182 120.9123 121.0755 121.2759 121.4760 121.6708 121.8714 122.0776 122.2705 122.4623 122.8281 122.4258 122.9700
115.1200 114.3899 113.9197 111.1619 111.6496 112.4088 115.3336 106.6725 111.0364 110.3626 108.8934 118.7265 117.7532 122.6247 122.5487 123.0013 122.5117 122.1857 122.0689 121.8712 121.6875 121.5120 121.2976 121.0862 120.7943 120.6552 120.5999 120.4897 120.3663 120.2387 120.1026 119.9935 119.8936 119.8158 119.7485 119.7037 119.6788 119.7429 118.8061 129.7623 118.5562 119.8586 116.1031 102.6535 115.5290 109.7534 106.4639 121.3309 120.5997 120.5823 120.8233 121.0652 121.1882 121.3464 121.5335 121.7203 121.9089 122.0983 122.2875 122.4770 122.7682 122.8921 123.0813 123.2000
125.4300 118.8631 112.3111 112.1011 114.7858 113.1090 113.2275 116.4025 108.4129 109.5364 104.0391 102.3084 113.9316 124.4867 123.0091 122.1407 120.6956 122.5315 122.5014 122.0847 121.8109 121.7919 122.0316 121.4275 121.3014 121.1551 121.0648 120.7637 120.6892 120.5501 120.4545 120.3461 120.2616 120.1863 120.1241 120.0742 120.0899 119.4578 119.7322 123.6927 113.4390 117.9686 110.2679 97.7879 123.4307 106.7079 122.0469 119.4348 121.7911 120.7089 121.3332 121.3548 121.3347 121.6164 121.7773 121.9640 122.1401 122.3205 122.5034 122.6888 122.8649 123.0580 123.2495 123.2500
125.6000 124.4878 114.8766 112.6814 112.6474 112.1016 112.8793 108.9253 110.1411 106.3741 102.8464 107.3561 117.5513 123.5961 123.2091 121.4097 108.6168 123.4697 122.2272 121.3923 121.5951 118.1173 122.3268 121.8172 121.6527 121.2123 120.6616 118.5818 120.9563 121.0882 120.7712 120.6663 120.5998 120.5265 120.4780 120.4394 120.4491 120.1855 120.7322 120.2196 111.1644 105.4511 119.0264 107.9287 120.4005 115.8321 120.4344 116.1641 113.0110 118.7261 120.1717 114.3097 121.9343 121.8813 122.0389 122.2014 122.3663 122.5435 122.7378 122.8910 123.0774 123.1740 123.3792 123.4900
125.6400 126.2713 120.8102 113.0146 115.2130 118.0885 108.9475 111.5878 105.5694 108.0817 106.5240 102.2641 109.5879 123.5255 122.8905 124.6583 123.3332 123.3496 122.8616 123.0420 121.1275 111.0852 114.1219 122.0213 121.8083 120.9544 117.4209 104.6436 115.2618 121.3522 121.1310 121.1196 120.9571 120.9057 120.8472 120.7276 120.7262 120.6811 117.7048 120.1778 112.5574 99.0713 111.4710 116.7252 107.4319 101.1466 107.6462 116.8218 111.2994 116.1269 123.0423 121.3325 122.2375 122.0472 122.2824 122.4349 122.5884 122.7606 122.8217 123.1138 123.2671 123.3982 123.5180 123.7800
125.8600 126.7823 120.5183 114.8507 115.3073 112.7622 107.3021 109.9789 106.5835 108.1725 107.6119 101.7162 119.1684 124.1333 123.7235 123.5934 123.8912 122.7497 122.9060 122.1810 111.1102 124.8444 121.1123 122.9002 122.0811 121.7921 112.3533 108.6265 121.3771 121.6834 121.1561 120.8931 121.2342 121.1098 120.9104 121.7340 120.6509 121.0832 118.4205 130.4340 114.3573 103.9503 105.5222 110.4717 104.4501 117.6326 124.6973 121.9756 106.8067 120.0566 122.2899 121.9011 122.1768 122.4120 122.5124 122.6662 122.8256 122.9100 124.2868 122.4104 123.1724 124.2818 116.2011 123.9900
125.8600 125.0992 114.2918 113.6109 114.6545 109.5992 111.7590 111.0929 107.0288 105.6238 103.4372 112.7434 123.1293 123.9973 123.7870 118.9284 119.9960 123.6439 123.0854 123.1220 120.1639 106.3683 116.5857 117.4191 123.4983 123.4914 114.7142 108.5921 122.0966 121.3091 122.6327 122.3569 121.2327 121.4008 118.4139 113.2105 114.9995 121.1770 122.5586 106.0625 103.4284 106.4908 107.1910 108.2149 111.8448 120.9740 121.4255 120.6339 121.1985 112.2813 121.7395 121.9515 122.5658 122.5843 122.7430 122.8884 123.0286 123.2062 123.7439 124.1404 125.9583 111.8751 118.6495 124.0300
115.0200 117.5261 115.1453 113.6052 111.6359 111.8366 111.3350 110.8758 108.7020 106.4943 101.3011 117.4130 126.0154 124.5233 112.0369 123.2626 113.7590 124.2303 123.4441 123.0141 123.7719 103.8336 121.1769 115.9814 122.1528 124.9702 96.7491 100.4085 122.5553 101.1075 100.5531 114.2103 120.0622 120.4642 104.2414 106.3662 118.6757 121.6574 112.1248 103.9401 109.7841 109.1018 106.9876 108.5580 123.2850 122.1272 118.9680 125.7200 122.1691 116.7908 121.3765 123.7738 122.6300 122.9249 123.0571 123.1182 123.3880 123.3799 123.6211 123.8894 122.4795 118.8832 122.7324 107.6700
115.0200 115.5195 114.0047 114.5320 111.9098 114.0254 113.6420 110.2749 107.0852 105.3611 106.3408 102.3994 123.5748 125.5751 120.4882 124.1369 124.0366 123.5054 123.6875 123.4221 123.7410 123.0278 114.7423 119.2726 122.4287 123.0457 106.6713 113.7637 100.3893 110.9340 100.1589 106.7034 117.0910 112.3595 105.7019 102.5701 100.1753 109.5858 106.8672 102.0688 110.8551 109.0643 104.7874 118.5040 122.8091 121.8480 124.2622 122.2713 124.3238 121.9719 114.0067 122.6384 122.9931 122.4235 124.3251 122.3456 123.4758 123.6063 123.9268 118.1034 104.6125 123.0892 122.7101 124.4700
117.8300 114.2914 115.7146 112.9927 112.5661 111.2926 110.4984 108.3736 105.6857 107.2077 107.1836 118.6237 122.8923 110.1689 126.4994 124.5545 123.3805 125.4596 123.2638 123.7588 123.5173 123.4291 123.6913 123.3449 122.6121 123.0433 123.6667 124.6619 122.7346 126.4231 101.2392 101.6733 120.6769 107.6224 102.7091 100.1158 103.8906 106.2002 102.8692 103.8538 126.4328 112.0051 111.9332 110.6263 123.4801 122.4989 115.8331 121.5106 116.2863 116.7535 122.7567 123.6183 123.1649 123.3958 127.1398 123.4663 123.7072 123.8054 123.9179 123.8242 123.4326 124.5311 124.5211 124.5000
116.7600 114.4208 113.2531 112.1926 111.5453 111.6448 113.2426 107.5714 107.3107 103.2067 103.1302 106.1621 106.5062 112.3570 125.3550 124.1286 111.1113 121.7545 124.0923 123.8644 123.8487 123.7103 120.6548 121.8420 123.4289 123.2271 123.0247 122.7889 123.1088 122.2060 115.6968 102.9331 103.5144 110.5073 112.8231 114.8562 123.7183 124.9041 122.1451 114.7145 123.1531 121.6514 109.9808 107.9645 119.0318 124.9195 114.5535 110.6995 113.0154 108.3299 123.3429 123.3667 123.4616 123.7198 123.7008 123.6116 123.9903 124.0017 124.2112 124.0825 124.4468 124.4624 124.6307 124.7300
112.4900 112.7878 111.9492 112.4667 110.1820 110.8851 108.9764 108.4754 106.4204 104.1535 105.6623 109.2348 106.6186 124.1338 126.8516 105.0994 123.2869 124.3588 124.1556 124.0691 124.0185 123.4872 123.3796 123.5693 123.2894 123.3681 123.8034 123.9047 123.4256 110.6555 120.5695 102.5317 124.0113 123.1537 121.6569 123.9482 122.3248 122.3722 111.6535 124.9592 122.7130 123.4122 113.2220 112.5602 116.9334 123.5751 124.1009 124.9406 105.6980 108.4229 122.5187 123.5628 123.6813 123.7516 123.8604 124.0371 124.0829 124.2138 124.3442 124.4560 124.5834 124.7212 124.8390 124.9200
118.7400 118.3297 112.9059 112.8269 111.1292 109.8257 110.7648 109.0313 107.7169 105.5412 103.1597 114.4616 115.3567 126.1774 126.0585 125.1013 124.4090 123.2184 123.8920 124.2360 124.0100 125.1148 117.0935 121.8882 123.0261 125.1553 120.5772 125.7704 114.1746 115.7411 106.7445 101.3739 119.0609 123.2525 123.3030 123.0673 123.3055 123.8089 120.8418 121.5608 122.6478 123.7760 111.2929 111.7600 117.4841 123.8934 123.3142 123.3167 114.8566 107.9727 124.2282 123.4151 123.8960 123.9832 123.9817 124.1363 124.3263 124.4267 124.5326 124.6435 124.7656 124.8830 125.0143 125.1600
113.8700 113.0466 112.9358 111.7685 107.9395 109.7105 110.8686 111.4558 107.6274 105.2279 105.7608 118.4801 126.9371 125.3749 122.2045 122.6312 125.5878 124.5843 119.7970 124.5751 125.7121 125.0409 102.8139 119.7689 125.2413 127.4440 99.7449 116.3683 119.7427 106.7255 107.4670 103.9369 125.7185 119.7089 123.6604 123.4574 123.2875 123.1688 123.5916 123.9617 122.9974 124.2251 110.1647 110.9065 117.0284 123.7198 123.7105 123.3308 125.5732 118.4160 122.8640 124.0285 124.1084 124.1053 125.4898 122.0828 124.3529 124.5800 124.7035 124.8285 124.9473 125.0652 125.1814 125.3500
119.3000 113.1302 112.2805 109.0194 112.0825 110.1107 103.8129 111.8276 105.2634 109.3887 110.9515 124.1559 125.0479 125.0029 126.2479 108.2560 125.1268 126.0777 121.4299 101.6681 122.3630 118.9870 103.3089 123.9767 107.3385 104.4264 107.2716 108.6213 115.0760 110.5008 124.5527 125.2891 116.4074 113.8789 124.2536 123.7569 123.9721 123.7940 123.5736 123.5310 123.6107 123.3492 109.2892 110.8099 124.3178 123.8612 123.8786 124.0745 123.6413 123.9416 124.4118 123.9773 124.3305 124.3803 124.0904 116.7655 125.6104 124.7314 124.9461 125.0117 125.1241 125.2393 125.3353 125.3700
118.2400 118.8941 109.2817 110.2016 114.6737 111.6670 111.1574 109.5189 109.4738 113.2017 119.3271 120.9497 126.5100 125.3667 126.6867 128.4386 125.8965 119.6010 113.1224 125.1616 107.6149 103.3706 112.1502 127.2403 108.7825 120.9584 128.7941 110.3039 101.9171 113.2663 103.0549 114.0069 118.7961 123.8520 123.8194 122.5034 117.7394 123.8350 124.0982 123.9572 124.4018 113.2041 109.7086 120.2464 124.0871 123.9211 124.1221 124.1630 124.2965 124.3085 124.3349 124.5050 124.5301 124.5051 125.2847 124.0897 110.9180 124.9129 125.0979 125.1815 125.3019 125.4570 125.5351 125.5400
111.9500 113.7891 116.6017 110.5682 116.4009 110.8589 110.5736 112.2071 114.8585 108.6877 125.1807 117.3519 125.7273 126.3463 113.7749 118.2080 125.1549 127.8640 115.2258 126.8518 100.6647 110.7664 103.1258 101.5694 99.7311 118.9539 117.6384 102.3734 102.9465 111.8079 114.4575 126.2745 124.8194 124.2327 124.3938 117.6436 123.0154 120.0251 121.4391 120.2004 117.5990 112.7551 102.3310 122.6097 123.9363 124.3207 124.3499 124.3989 124.4469 124.5162 124.5947 124.6564 124.7397 124.7943 124.8252 125.0087 124.5514 125.3439 125.2741 125.4317 125.4287 125.1654 125.4935 125.7800
111.9800 112.7108 116.9707 114.0396 111.2154 113.6115 115.9516 117.3138 119.9572 110.2131 122.8201 126.4148 126.7043 125.9833 123.1690 128.4592 125.2526 122.0722 102.0757 101.8168 119.9103 128.5532 111.7734 111.4181 116.5537 111.0429 102.4603 103.0865 113.7649 125.9653 125.2476 124.3080 124.5109 124.2141 123.1470 111.1886 111.6356 102.0163 115.0724 124.6427 118.6913 112.4121 110.9396 123.5918 124.3742 124.5640 124.5590 124.6208 124.6797 124.7303 124.7916 124.8663 124.9323 124.9724 125.2636 125.2554 125.1457 125.1374 125.4668 125.2818 126.2476 126.1950 125.3416 125.9700
119.2600 113.6356 112.7964 114.1408 110.9270 111.8435 115.1932 114.5547 106.4707 112.9940 115.1466 109.9943 127.9478 124.6614 107.5820 124.5703 125.8471 128.4912 115.3327 123.2269 127.9563 122.9292 117.4070 125.5312 119.7433 103.6781 106.3432 103.4407 121.4537 124.7394 124.5128 124.8126 124.2480 124.0660 106.2767 123.2168 101.8372 105.6208 115.0083 124.6059 125.4934 128.7790 119.2259 124.8662 124.6621 124.7396 124.7804 124.8088 124.8654 124.9671 124.9962 125.0618 125.1300 125.2095 125.2569 125.3723 125.4847 125.4803 125.7323 126.6550 127.2349 110.8330 108.5701 126.1300
113.1400 114.8137 113.4659 112.5818 116.3103 116.6321 119.3275 126.3549 118.8659 119.3566 120.8418 110.0861 117.0062 119.5751 124.9970 126.8998 114.3452 123.1079 103.7662 116.6393 117.4096 115.1545 117.1745 120.5190 106.2956 105.8106 108.7434 104.9901 114.0803 125.8198 125.0739 124.9886 124.7854 119.8382 125.5459 121.1696 105.2811 127.3328 125.6034 124.8776 125.3846 114.2795 126.8333 124.7931 124.9310 124.9662 124.9910 125.1004 125.1552 124.9450 125.2214 125.2775 125.3232 125.3874 125.5065 125.5484 125.6465 125.9016 121.5967 123.8939 119.1093 123.4616 123.3285 126.1600
119.1700 113.4000 112.3407 115.0813 123.3499 121.2494 123.3747 119.5848 117.0472 105.9872 108.9736 116.3880 112.5771 107.3100 123.1874 126.5577 125.9289 118.1547 110.1163 119.9740 105.2190 112.8817 111.6123 107.6672 101.9224 107.6356 110.1969 110.8916 123.9386 111.2183 125.5703 125.1634 125.0139 125.7008 124.5926 126.9951 110.6354 126.0168 120.7879 122.9507 126.3438 122.8252 122.2950 123.5948 124.9319 125.0981 125.1973 125.1729 125.0988 126.6321 125.3464 125.3818 125.5150 125.6313 125.4604 125.7724 125.8557 126.0684 121.3951 125.7382 121.4410 127.5549 122.8285 105.4000
127.6900 128.6792 122.0366 119.1893 127.0921 127.9142 127.0960 116.6581 114.8836 127.5666 115.8927 112.1912 120.9174 104.9516 127.3131 126.2349 125.2305 126.7371 112.1003 106.9638 108.0769 104.2443 104.7009 103.6261 106.0388 110.5556 106.4260 118.5876 127.0840 125.9543 125.2156 125.3984 125.3190 125.2052 125.2704 125.5199 127.1991 126.0666 123.5218 109.5082 127.9138 110.1687 124.7812 123.7765 126.0440 125.6560 125.3362 125.2693 125.7170 114.1086 125.3839 125.4764 125.6977 125.5778 127.1696 125.6488 125.8999 126.0846 124.5303 126.2033 130.3733 122.8606 116.0788 111.2600
127.8200 127.8078 127.7895 127.9523 127.5498 127.4033 127.3791 126.4546 115.7246 114.5018 127.3736 107.0409 123.8189 119.1890 126.8672 127.8813 127.6726 121.7635 110.0950 119.1389 122.5874 107.1280 104.2093 112.4105 105.4354 121.9861 112.0825 119.5588 125.1208 125.4503 125.5380 125.4758 125.4819 125.4584 125.5423 125.4515 120.4323 110.5464 119.6882 103.6153 127.5009 123.8060 126.4830 117.6427 120.3596 121.1436 126.2554 126.4838 125.4797 121.1260 125.3919 125.4256 125.9484 126.8225 117.9089 128.7832 126.0696 126.2637 126.4093 126.3174 127.1724 119.2029 116.2806 116.0500
127.8700 127.8370 127.7733 127.6079 127.5785 127.5188 127.1596 128.3802 115.3454 117.5873 127.4069 110.5596 123.1139 118.1295 116.6766 114.7356 122.2730 103.3505 126.6547 125.9700 114.4226 104.3793 104.7140 103.8182 107.7251 123.0479 112.6148 121.6790 126.4061 126.1609 125.8426 125.6383 125.7038 125.6612 125.6687 125.9896 119.9008 118.7461 110.5125 104.6221 127.6509 125.6173 126.3461 116.0714 115.5739 120.2362 125.9852 115.4396 126.2158 115.8923 103.1814 125.6109 126.0664 125.0170 126.8710 126.7752 126.2226 126.2148 126.8796 127.3338 127.9909 113.7404 120.2269 120.9400
128.0000 128.0055 127.8866 127.7977 127.7141 127.5979 127.4831 128.0936 128.5018 125.9744 123.6550 120.8151 108.1038 108.6917 116.5039 108.6690 110.5631 104.8374 125.1817 123.2540 115.2500 106.1933 110.4297 106.5202 112.6967 124.4243 116.2397 117.2326 125.7674 118.6946 125.5754 125.8033 125.8225 125.8458 125.8510 126.0382 127.2235 127.7696 126.8277 102.8229 128.3728 125.6898 125.8168 127.0945 128.5313 126.0753 126.2894 122.6247 126.5041 123.5381 125.9788 127.7786 126.1560 126.4603 124.2128 110.8786 126.7950 126.5598 126.9154 108.2849 117.0716 115.2481 107.7630 107.2100
128.9500 128.0500 127.9600 127.8800 127.7800 127.7000 127.6000 127.5200 127.4200 127.4200 127.0900 108.8300 108.8300 127.0600 104.9700 104.8500 117.0800 121.1900 121.1900 115.8500 116.0400 105.7400 114.1700 114.1800 126.3000 126.3000 114.7300 126.2000 126.0700 124.8100 124.8100 125.9800 125.9900 126.0000 126.0200 126.0200 125.8600 125.8600 125.8600 103.8600 126.0200 126.0200 126.0100 125.9900 125.9700 126.1200 126.1000 126.0800 126.2100 126.1900 126.3100 126.2800 126.4000 126.3700 121.7100 126.5800 126.5800 126.6800 126.7700 126.7700 114.6300 109.1600 105.5400 107.2100
