122.5500 118.5700 115.6800 120.2900 115.8200 115.3400 120.0500 120.0200 117.8200 117.8500 100.1400 115.8300 118.0300 109.8300 117.3100 115.1600 107.8100 107.9800 102.4600 113.5000 107.6200 110.5800 106.0400 104.5100 103.1900 106.4800 99.4900 93.9500 98.1400 93.1700 101.5500 98.8000 106.0700 91.4800 101.2400 98.7400 112.5600 93.4900 111.8500 111.8400 112.5800 111.7900 113.0600 113.0600 113.5300 113.9300 114.4600 114.7700 115.2500 115.5800 115.9600 116.7200 116.7200 117.3600 117.6800 117.9900 118.5800 97.7400 116.4500 102.4300 103.5100 104.3800 120.6500 120.8800
121.3600 121.4429 120.7355 123.6567 117.4761 113.9240 115.3850 115.8445 116.6586 116.4992 103.4061 106.7279 113.2902 113.0947 112.4149 111.0508 107.3013 106.7518 110.6979 110.0632 107.1363 106.7957 104.3186 103.4685 101.0570 103.1845 98.3776 99.3791 94.9099 94.4008 100.6409 97.9248 97.9846 94.0748 97.2226 93.1048 103.5464 90.2181 107.2265 110.9005 101.6388 110.3522 112.3154 112.6149 113.0342 113.4836 113.3597 107.2859 114.7504 115.2233 115.5412 117.8927 111.3672 117.1521 120.1730 121.0572 104.9696 102.2330 98.4070 101.6769 100.4825 118.6836 120.1990 120.8800
122.0200 121.8385 124.3737 107.2306 123.1901 119.5373 118.7991 118.3840 111.2080 110.3435 99.6507 99.4682 110.4636 114.5911 110.3954 108.1403 106.3722 107.7563 109.0711 104.3444 103.7971 103.5363 105.9641 107.8496 104.4965 100.0149 100.8722 102.0544 97.3969 97.1867 99.7464 104.9971 110.1441 107.7282 99.5221 103.9940 94.7067 106.3975 112.1463 111.5503 109.7900 111.3313 111.2328 111.7969 112.3041 112.7305 113.2750 112.4031 114.6826 116.7017 115.9072 113.7107 112.8709 109.7623 110.5217 89.1542 109.0981 103.9317 108.0823 100.6283 100.7330 120.5481 120.1402 120.5600
121.0300 122.1221 123.8863 115.8733 122.7339 122.6285 121.0544 122.0167 118.0199 99.8651 110.5127 110.7497 104.0316 112.4605 111.0857 107.1237 106.3126 106.8226 111.9506 105.8902 107.0140 99.9690 100.6470 101.7559 101.3409 100.2370 113.2174 110.7602 90.3195 98.4439 95.6369 108.1489 113.8974 86.4339 95.6220 109.7839 109.2432 104.6458 109.5805 108.4715 102.9591 110.1437 110.4367 110.9256 111.5022 112.1194 112.7070 113.6479 113.7250 111.3484 114.6962 114.7001 115.8458 112.0837 114.0457 110.3899 110.7575 97.0279 104.3915 101.7279 117.0801 119.8497 120.1381 120.5000
120.6700 121.7698 125.0791 115.7319 126.2708 124.3716 121.8673 120.9234 119.3802 113.8872 110.5617 103.5410 99.2203 104.6926 110.3317 109.5025 110.2795 109.3917 106.6742 103.4117 105.0742 103.3678 105.2503 110.7078 115.6433 112.2035 111.1364 98.4988 118.2642 113.3170 93.3914 113.9656 110.5898 99.9778 96.1312 91.6584 84.9488 107.0161 108.2815 108.7414 108.9044 108.6847 109.3705 110.0050 110.7000 111.4220 112.0843 112.7643 113.9480 114.5430 114.7092 115.6848 116.2297 116.8645 117.8108 109.4275 114.3509 108.6243 100.7247 100.3619 114.4372 111.9746 120.4424 120.4600
120.4100 120.4803 123.9398 103.4144 110.1177 111.9333 107.7746 123.7513 119.5954 100.9069 115.6320 99.4722 102.7594 101.0700 110.5433 109.1077 107.9290 107.6892 105.0924 107.1583 105.1793 105.9721 105.4026 102.1213 106.3369 96.1068 94.3742 90.6972 93.8251 98.2872 110.8227 109.5629 110.2757 108.6025 85.7519 107.1846 102.3282 106.8391 106.3403 106.3189 106.7230 107.4203 108.1638 108.9762 109.8259 110.6335 111.5752 112.1698 112.3529 109.4442 114.5567 115.0078 115.4429 115.6146 117.0400 109.3248 110.1468 109.4773 103.3222 107.2719 105.7701 106.0272 121.7089 120.4300
118.8600 119.1928 120.0136 123.1258 115.3622 115.3129 119.2721 120.6981 103.9073 112.4948 113.5399 99.7233 98.2927 115.1107 109.3614 107.8023 107.9183 106.3168 106.4149 107.1600 105.4566 105.1498 104.6423 103.7171 103.7096 105.2093 100.3590 107.7226 111.8406 111.0400 112.0324 110.8072 110.9815 100.2821 83.8149 104.6901 106.1627 104.5279 104.3781 104.5436 105.0582 105.8851 106.8920 108.2401 108.7871 110.1200 110.9637 111.7854 112.7285 113.3831 114.0261 114.8193 115.3694 118.5393 98.9178 111.0748 111.7597 103.0203 105.7134 106.9762 112.1124 118.4137 105.0329 112.8000
122.5200 124.9953 121.7698 123.7550 122.5512 121.0457 117.7520 118.1177 118.2935 119.2887 105.4829 99.3771 99.0206 98.3102 105.0807 112.8128 106.7919 105.2722 108.0508 109.6734 108.6931 100.2513 103.8523 100.5050 98.5688 96.5850 121.6617 107.9940 113.4547 112.1713 111.3057 109.7680 111.0984 90.0264 110.5727 99.7116 100.5401 102.8775 101.9534 101.9750 102.8499 104.1975 105.4317 107.4872 105.3600 109.8560 110.3841 111.3977 112.2975 113.0912 114.0161 113.8309 113.7150 93.5055 101.5869 103.6428 100.7535 103.6808 104.1299 102.4641 110.1749 119.5804 106.0724 114.4700
123.3800 123.8699 124.5725 123.5253 122.4588 122.5341 120.1936 120.2055 119.4317 116.0790 107.1800 102.6558 98.9012 100.5520 109.0467 114.2947 106.5244 106.0680 108.4636 107.0582 106.3483 104.8652 106.1215 100.6779 104.2995 100.9169 92.2326 88.9558 104.1364 110.9760 110.9350 110.0033 105.5170 101.8739 105.1318 103.8116 102.5898 99.6447 98.3259 98.5141 100.1491 102.2133 104.1997 105.9849 107.5047 108.7813 110.0038 111.0591 111.9860 112.5775 112.8254 111.0952 100.7861 102.8556 100.0084 110.2881 103.9032 104.5369 109.0542 106.7892 102.3696 104.1933 118.7128 110.1700
121.3500 121.6280 123.3325 123.0652 121.8619 120.8123 120.3500 118.8574 118.8609 117.0720 109.4327 100.1230 99.5309 110.2251 115.5341 109.0202 111.1173 111.3076 109.2675 111.5226 110.8140 106.6065 101.4560 102.4355 119.3268 105.0552 115.4371 95.9451 109.9736 102.5610 111.5973 109.5419 107.6514 107.0141 104.8763 102.6343 99.6609 95.8949 92.0948 92.4644 96.6927 100.2202 102.9779 105.1203 106.8777 108.3843 109.6583 110.8566 111.9587 103.6427 110.9938 94.3788 95.2830 98.2889 109.0311 108.6110 107.9235 105.4310 107.9168 106.3135 105.7535 106.4188 112.9685 99.8600
122.4900 119.6833 120.6728 121.4396 121.4488 120.6122 121.2021 117.7423 113.4141 117.7582 108.1148 102.9093 104.5258 117.5371 110.2801 110.9080 111.0629 109.6917 111.3190 111.7141 106.1295 107.1386 105.0858 106.2264 115.5179 113.7538 113.1840 117.0857 112.7699 111.9534 110.7380 109.3445 106.9374 106.1062 104.1159 101.6175 98.0157 91.2591 86.4326 86.8325 92.4966 98.6780 102.1004 104.5911 106.5321 108.1157 109.4672 110.5990 111.5943 105.5958 113.7249 104.1835 99.9046 107.1988 107.1250 109.6731 106.2780 109.5471 110.4051 110.7598 111.7963 108.2720 113.9175 98.6200
116.9900 114.9848 115.2823 119.8549 117.8916 118.9538 117.9752 115.0190 117.4022 117.1276 114.2140 116.1206 113.0260 108.5001 111.2555 109.0897 111.1599 109.8660 115.2139 112.5604 110.6032 110.4611 108.2947 106.3325 122.0096 118.4626 114.6039 112.7779 112.1381 111.3328 110.3516 109.1904 108.0252 106.2012 104.0665 101.3999 97.5461 90.1045 85.1106 85.2710 91.3765 98.3045 101.8908 104.4641 106.4397 108.0573 109.4213 110.5347 111.8681 112.0660 108.2102 106.4277 97.9546 101.5972 100.1050 106.1559 111.8620 119.1299 119.6719 119.6801 120.4077 120.5246 121.8981 120.0600
114.4600 112.4922 117.3085 119.5256 117.6372 118.8187 117.9377 114.7549 116.9515 118.1081 112.7374 114.5617 113.7041 106.1193 107.3542 109.0245 109.4599 113.5995 114.5691 110.5848 108.7474 108.2555 106.3013 108.9680 119.8743 119.6841 113.9888 113.4651 112.5419 111.5644 110.5644 109.4177 108.1444 106.6718 104.3674 101.9444 98.6891 93.3762 88.5699 88.8726 94.1601 99.2443 102.4099 104.7730 106.6560 108.2128 109.5371 110.6263 111.6973 110.8293 111.2717 99.8084 96.1197 101.2516 101.7475 107.2900 113.1156 117.7194 117.8880 118.3955 118.7740 119.2125 117.6135 106.7700
123.7200 119.1732 125.5078 125.5576 125.5547 117.1811 117.8737 110.2880 110.3704 112.0884 112.7650 113.1317 112.4648 100.9814 107.0675 99.7905 107.5035 118.1174 109.7916 108.9024 106.4769 106.0959 105.5027 113.6477 112.1328 107.0116 114.5837 113.3946 112.5801 111.7674 110.5415 109.3912 107.2374 105.4907 105.8871 103.1016 100.3565 97.4817 95.0157 95.1963 98.3576 101.0597 103.4782 105.4584 107.1241 108.5512 109.7918 110.8835 111.8538 111.8620 114.3947 106.3230 108.6204 96.6527 114.0335 96.2156 106.1934 115.9513 118.4246 118.7409 119.2089 119.3740 119.0655 118.0300
114.4500 121.3146 120.0489 119.0035 121.5437 116.5713 115.8502 113.0099 110.6023 114.0975 115.0009 108.5407 107.9829 101.7846 101.8709 105.6363 101.2228 109.3171 109.9581 104.7750 115.3996 98.3107 99.4379 125.2137 115.6338 115.2928 114.1520 113.6403 112.8709 111.6357 111.9889 110.0356 117.6745 112.1662 101.3661 103.0606 104.6025 101.3099 99.9371 100.1717 101.3577 103.0692 104.7846 106.3708 107.7885 109.0436 110.1763 111.1941 112.1488 112.9534 113.4870 115.4028 116.9565 115.5901 105.7819 102.3334 101.8503 117.4498 118.2764 118.7122 119.1963 119.4091 120.4003 121.6000
117.2500 120.0652 115.6302 111.0732 115.3755 114.0814 114.9308 114.5081 111.0991 111.8533 112.4541 106.3961 105.1541 109.6390 113.6600 109.6071 108.7712 109.9657 99.1777 107.2891 106.9958 104.6398 105.8809 102.4202 107.4514 113.8007 113.9156 113.8379 113.0328 113.8949 96.3607 96.7835 113.1074 111.6558 106.5578 104.9319 104.9842 105.0363 103.1061 103.1359 103.8280 104.9256 106.1569 107.3837 108.5608 109.6493 110.6521 111.5602 112.4977 113.1658 114.0092 114.3916 114.8538 117.3206 115.3276 116.3678 116.5461 118.1628 118.3812 118.7994 119.3209 120.3671 109.4951 134.5500
123.9600 122.2381 122.1320 115.6219 116.1628 116.3863 113.4112 110.2599 113.9472 114.5068 109.0866 110.6681 111.8610 113.3130 112.2149 110.2947 112.3139 107.2286 102.7652 116.9471 108.5739 101.9650 100.2000 117.1704 123.8091 115.8334 114.7625 114.5050 112.9732 111.6866 89.7128 93.7277 87.5105 109.7036 108.3378 107.3214 106.3459 105.6972 105.3549 105.3714 105.8586 106.5696 107.4672 108.4262 109.3844 110.3156 111.2117 111.9945 112.7356 116.3973 101.3530 116.9699 114.3785 119.6146 109.8219 106.4616 107.6094 118.8981 118.4880 118.9221 119.2596 118.3008 132.7812 107.3000
123.0700 122.2890 115.7884 114.7797 114.8394 116.4248 114.8428 115.6553 113.6868 114.9284 108.7574 110.5406 112.3120 113.5718 111.6859 110.4551 108.1096 105.4567 109.2549 103.8651 100.3885 109.3985 116.8656 120.1793 100.1398 104.1579 111.9743 114.6471 114.6255 105.2321 98.5241 99.2165 113.4202 109.1315 109.6006 108.5729 107.9233 107.4239 107.1505 107.2163 107.2846 108.0234 108.6548 109.4457 110.1865 111.0845 111.7758 112.4945 113.3836 113.3450 111.0279 106.9723 116.0558 112.7970 111.3045 106.8259 111.4407 118.5101 118.6723 119.0222 119.4385 119.8455 120.0995 104.4200
120.3200 114.6197 114.1549 115.0211 113.6781 115.4378 113.8265 116.0335 113.9771 113.8898 114.6322 109.1694 110.9925 110.2571 108.5102 108.3822 108.1942 106.4023 108.5730 111.9540 106.2086 120.5623 94.7230 105.1109 100.6533 113.0359 111.5790 113.9621 113.5146 97.0576 105.8548 107.3796 109.5666 111.0860 110.0379 109.6992 109.2053 108.8361 108.6361 108.6781 110.6972 109.3255 109.9162 110.3182 111.0844 111.8485 112.1770 112.8995 113.8031 114.8661 108.0393 101.1196 114.9087 100.9796 117.2566 113.8633 115.5435 118.1751 118.8347 119.1385 119.7124 118.1765 120.3650 120.4500
115.1900 119.8930 116.7276 114.6574 113.9343 115.8013 102.7767 114.8739 111.8296 113.6070 109.1499 106.3477 102.6138 109.0692 111.1579 108.7311 105.0707 97.8823 104.2756 104.4545 101.3386 101.3364 100.4770 97.0045 107.8542 108.4456 113.6367 97.1908 98.6048 107.2273 110.8129 108.3262 112.7790 111.5300 111.2317 110.7436 110.3525 110.0685 109.8888 109.9810 111.1955 111.3024 110.8805 111.3307 111.5425 109.9164 114.0490 114.3442 112.2403 113.1798 115.3062 104.5394 110.5789 106.0954 118.2841 117.8861 118.5127 118.3794 118.8893 119.2254 121.0163 107.3255 121.5825 120.4800
115.0800 114.0775 113.7514 114.4635 116.8706 113.7533 117.2222 111.9331 110.0838 112.2882 109.9970 120.9562 113.6293 109.5973 100.0568 97.9723 97.6645 105.9672 106.5355 104.4145 108.4894 107.3409 121.0486 108.5583 117.0550 114.6372 102.2251 100.0980 105.0837 114.2930 107.3056 114.6253 113.0488 112.4553 112.0985 111.6887 111.3702 111.1529 111.0432 111.0341 111.1424 111.2931 111.8447 112.1448 112.6316 115.1377 113.4222 108.8324 97.3355 109.5313 118.0310 103.0007 104.4908 119.2659 111.8742 118.0144 118.2361 118.7026 119.0597 119.4710 119.6442 120.9144 120.8831 120.7600
115.5600 116.8379 117.8387 115.7179 122.0049 113.3963 117.1815 111.2642 113.5390 115.4322 111.0107 107.6785 116.1562 102.2115 103.5870 99.2497 97.6622 96.0879 115.1737 112.2107 120.8934 119.1216 117.2063 118.4467 117.4240 103.9740 105.2520 110.0678 98.9433 112.2387 110.8405 113.8914 113.3034 113.2698 112.8739 112.5553 112.2913 112.1176 112.0203 112.0369 112.1446 112.3525 112.5792 112.9425 113.6319 113.8196 111.0543 98.8113 102.2118 106.4648 105.0964 92.6344 95.5037 116.9111 109.8242 118.8221 118.4779 118.8795 119.2453 119.6012 119.9589 120.1983 120.4306 120.8000
115.5600 122.6271 125.1602 121.2457 122.7630 122.8961 123.8756 116.5776 112.9588 116.7256 104.9312 114.2311 113.1184 100.4789 98.8297 98.2609 103.5552 105.9149 124.2035 115.0133 119.0230 118.6306 118.2814 117.6642 117.5057 108.1535 117.2665 118.4842 117.3810 116.6363 117.4561 114.9289 114.1615 113.9382 113.6239 113.3505 113.1282 112.9859 112.9251 112.9188 113.0034 113.1615 113.3911 113.6653 113.9716 114.3380 115.3571 100.0054 91.0909 91.6820 93.0151 107.4294 92.7027 99.6266 117.2523 118.2561 118.8059 119.1081 119.4522 119.7855 120.1094 120.4914 120.6918 120.8500
124.5800 124.5690 124.7227 122.9152 123.9886 123.1169 122.3583 114.5550 115.9251 113.5437 109.1212 102.3739 103.9300 99.2865 105.1726 112.0665 108.9323 105.3020 115.3101 110.2538 119.7157 118.9026 118.5080 119.4196 112.5382 124.2269 112.5155 114.9508 116.0123 115.2092 115.4057 115.2652 114.8922 114.5866 114.3139 114.0846 113.8982 113.7710 113.6379 113.7213 113.7968 113.9282 114.1176 114.3544 114.6360 114.9405 115.0757 115.6430 101.0758 98.7177 103.8533 97.9542 109.3107 113.0479 117.0601 118.2922 118.8966 119.2248 119.6075 119.9682 120.2931 120.6000 120.9039 121.1800
124.5900 125.1802 120.6117 124.5227 123.5298 122.7977 120.5135 118.6790 113.7660 114.4093 105.7955 102.7621 102.1973 121.3382 108.7626 107.3558 101.0398 110.2128 122.9576 118.6747 119.3532 119.1488 118.7803 118.7898 110.2988 118.2352 106.4279 114.7617 116.7442 116.4491 116.0883 115.7599 115.4760 115.1981 114.9657 114.7656 114.6141 114.5234 114.8374 114.4587 114.5222 114.6277 114.7915 115.0037 115.2377 115.5462 115.8376 116.0788 118.0308 112.6587 105.2568 111.5404 120.4881 117.8133 117.7025 118.7530 119.6576 119.9370 119.8462 120.1829 120.4737 120.7691 121.0591 121.2300
109.3800 125.5244 123.0224 124.3007 125.9311 124.7909 116.5420 117.8394 118.9777 110.2695 102.4277 112.0440 109.2509 111.5380 117.6075 99.8756 103.8591 112.2622 102.4076 121.0249 119.4873 119.3879 119.1049 118.6813 119.0565 117.9846 115.8319 118.3035 117.3269 116.8010 116.5594 116.2826 116.0159 115.7794 115.5793 115.4062 115.1762 114.9420 112.3941 115.0964 115.1971 115.2846 115.4238 115.6016 115.8188 116.0699 116.3116 116.7209 116.6881 115.6525 108.4873 109.3195 110.3912 117.3928 121.9747 119.2020 119.0199 114.9783 120.2474 120.3506 120.6488 120.9441 121.2282 121.5000
124.8100 124.7367 124.4430 125.1928 117.1743 117.7632 117.7044 116.0711 99.1658 116.9523 112.9679 113.3692 110.4259 108.4890 98.9976 107.0283 100.6775 107.7690 117.0429 121.4153 120.0478 119.6294 119.3546 119.0307 118.7114 118.6067 118.5607 116.1670 117.7185 117.3280 117.0234 116.7710 116.5416 116.3259 116.1497 116.0155 115.6313 118.6846 119.2932 115.8776 115.7831 115.8931 116.0189 116.1772 116.3596 116.5614 116.8640 117.1862 117.2739 118.4115 109.0628 106.9630 115.0859 118.6098 119.6351 119.3137 119.7717 119.3554 120.2915 120.5788 120.8471 121.1259 121.3997 121.5600
124.8400 124.7434 124.6607 120.3085 123.6079 116.3567 110.3515 124.0963 113.7483 116.3182 109.8908 115.7210 117.0137 103.8346 109.8974 108.0515 101.8254 132.7816 118.8854 121.0976 120.1388 119.8943 119.6181 119.3381 119.0764 118.6093 120.6113 120.9834 117.7178 117.5836 117.4806 117.2441 117.0390 116.8461 116.6886 116.5597 116.3430 117.0078 116.6569 116.2570 116.3823 116.4647 116.5710 116.7126 116.9078 117.1180 117.3254 115.5903 117.9867 118.3417 114.3930 116.9460 116.8859 119.3414 119.4020 119.6654 119.9761 120.2587 120.4650 120.7714 121.0430 121.3049 121.5714 121.8200
124.8700 124.7159 125.1041 116.8454 117.9462 116.2116 122.5136 118.3615 115.8936 112.3690 111.8272 110.7655 107.0263 111.0198 105.4100 99.8713 114.3784 109.3816 108.7283 120.7649 120.4730 120.1487 119.8957 119.6366 119.3419 119.2327 118.3867 119.9118 118.4110 118.0873 117.9131 117.7029 117.5164 117.3427 117.1979 117.0856 117.0809 116.9116 116.8788 116.9183 116.9278 117.0019 117.1013 117.2236 117.2098 117.4163 117.5635 117.8998 116.0358 109.8334 119.3119 118.7511 119.3244 119.3584 119.6925 119.9312 120.2058 120.4518 120.7355 120.9872 121.2407 121.4902 121.7244 121.8900
125.0500 124.9049 124.7396 124.8719 124.8650 125.4763 114.2452 114.9586 112.1788 111.6032 110.7133 110.2788 117.9947 104.0371 100.7096 105.3883 105.2884 102.5226 104.0145 116.0636 120.8018 120.3931 120.1796 119.9164 119.6962 119.4321 119.2151 118.9737 118.7253 118.5242 118.3248 118.1370 117.9685 117.8115 117.6875 117.5747 117.4658 117.4281 117.4092 117.4202 117.4454 117.5266 117.6346 117.6781 118.6066 116.6418 119.8067 117.9967 118.6628 118.9576 118.5181 119.3044 119.4329 119.7247 119.9506 120.2366 120.3854 121.0737 121.2683 121.1593 121.4568 121.6520 122.1141 121.9500
125.0800 125.0050 124.7956 124.9103 124.2596 121.7793 117.3886 116.1075 112.8507 112.2826 113.2398 117.0948 104.4384 108.1555 105.1966 104.7154 103.2498 107.4499 101.9781 120.4221 120.9946 120.7063 120.3044 120.1486 119.9608 119.4873 119.4919 119.1359 119.0982 118.9312 118.7262 118.5550 118.3967 118.2609 118.1413 118.0511 117.9855 117.9447 117.9125 117.8907 117.9253 117.9854 117.9770 118.3374 115.4275 106.0552 104.8823 112.8968 118.9553 119.0258 117.4192 119.5483 119.7849 120.0131 120.2407 120.3997 120.9004 114.7958 121.1305 121.3774 121.6569 122.0429 119.6546 122.2100
125.2500 125.0923 124.9934 122.5907 118.7724 114.7095 117.7407 116.7271 112.0492 114.6829 107.2213 104.5551 113.0234 109.0502 105.1129 109.0393 121.6177 124.7493 125.4379 121.4322 120.9932 121.0085 122.5705 121.0417 120.3058 121.1936 119.8780 118.7277 119.3754 119.2979 119.1118 118.9544 118.8189 118.6896 118.5807 118.4975 118.4078 118.3338 118.3499 118.4807 118.4359 118.4677 119.0647 116.2586 120.6897 120.2986 117.1064 120.2648 119.2206 119.6451 119.6838 119.9737 120.0811 120.3046 120.5138 120.6612 121.9438 112.2579 121.8437 121.4990 121.8215 122.1940 117.2854 122.5200
125.2900 125.2333 125.2148 119.4119 114.0064 119.8635 116.0704 110.5913 114.0519 106.5932 108.1186 121.0816 114.4352 102.9652 102.5952 115.8281 119.3968 122.1170 121.4962 121.5088 121.2505 121.1189 120.6704 120.0255 113.7941 126.8349 117.3823 113.6178 119.7600 119.6764 119.4789 119.3439 119.2139 119.1021 118.9944 118.9094 119.1940 118.9192 118.8888 118.4330 118.2191 118.8756 119.9666 107.9526 111.7457 119.7336 118.5546 116.5002 119.7124 119.8314 120.0087 120.1854 120.3998 120.5865 120.7958 120.9694 121.1348 121.4368 121.8486 121.8074 122.0625 122.3293 122.8875 122.7600
125.5000 125.3649 124.9123 125.5671 110.8736 113.6558 115.3205 114.7620 113.2029 110.0770 118.7872 109.3938 114.0500 104.9302 109.8306 116.5890 120.1461 112.4472 122.6343 121.5323 118.3776 121.4121 121.1508 122.6057 111.8735 118.8249 120.8444 120.9096 120.2913 119.9789 119.8473 119.7150 119.5999 119.4937 119.3979 119.3064 120.0223 119.0821 117.4550 119.8852 117.0872 119.2674 119.0236 122.0232 114.3630 119.9685 119.8307 120.1796 119.9417 120.1784 120.3436 120.5118 120.6834 120.8783 121.0670 121.2726 121.4766 121.5831 121.7760 122.0887 122.2659 122.3761 122.6230 122.7600
125.5400 125.2516 125.4099 126.6177 116.3295 121.3091 115.6584 114.1007 106.1091 115.0666 114.3582 112.0586 106.4084 100.0942 120.4981 125.1151 109.6336 108.4348 123.0662 121.9894 122.2732 121.9581 121.4662 121.4303 121.6451 120.9040 120.7803 120.6371 120.3567 120.3768 120.1932 120.0702 119.9671 119.8731 119.7877 119.7091 119.6304 120.0294 111.1927 118.7361 111.3348 119.8763 119.3353 119.4457 120.5704 120.0588 120.5626 120.1260 120.3718 120.5135 120.6466 120.8090 120.9798 121.1567 121.3349 121.5136 121.7043 121.8874 122.0905 122.2736 122.4592 122.6615 122.8616 123.0700
125.7000 125.7105 121.3444 120.1618 117.6625 117.1401 116.3370 118.0855 113.3140 112.1063 112.1580 107.3173 101.7527 103.6627 122.5380 117.0617 119.0778 118.1654 123.2451 122.1149 122.0892 121.8575 121.7632 121.5514 121.3406 121.1251 121.4634 120.7476 120.8157 120.6526 120.5273 120.4181 120.3170 120.2340 120.1575 120.0956 120.0734 120.0798 121.1483 120.3404 125.0512 115.1221 120.7370 120.6082 120.0265 121.0511 114.2410 118.6707 120.6751 120.8131 120.9619 121.1076 121.2650 121.4299 121.5993 121.7663 121.9517 122.1263 122.3047 122.4878 122.6818 122.8931 123.0309 123.1100
125.7500 126.8257 117.9572 117.9992 118.7695 118.8720 119.9686 118.5031 115.7535 118.1654 106.1244 101.3384 102.1047 100.9823 120.2782 121.4680 123.3524 123.2807 119.8748 122.8397 122.2946 122.1730 121.9907 121.8131 121.6544 122.1669 119.9869 121.3661 120.9742 120.9755 120.8549 120.7576 120.6574 120.5765 120.5066 120.4525 120.4081 120.3473 120.1650 120.3130 121.7337 109.7049 121.1723 117.1436 120.7984 119.1912 119.9779 121.3249 120.9865 121.1233 121.2539 121.3973 121.5421 121.6952 121.8525 122.0169 122.1840 122.3566 122.5250 122.6913 122.8722 123.0675 123.0854 123.3600
118.1400 118.4758 117.5691 120.5045 119.6035 118.3711 115.4914 117.1087 119.4428 107.4777 107.4111 120.7233 122.4117 121.9665 123.8277 123.8643 123.1872 122.8575 122.1989 122.8169 122.5169 122.3989 122.2398 122.0498 122.3185 120.2896 105.9748 118.6018 121.4947 121.2961 121.1721 121.0749 120.9887 120.9136 120.8486 120.7960 120.7607 120.7326 120.6486 120.7864 120.7822 120.6820 123.4417 125.0170 123.2869 113.4138 122.8313 120.7561 121.2784 121.4300 121.5424 121.6687 121.8082 121.9548 122.1032 122.2562 122.4229 122.5816 122.7439 122.9553 122.7250 127.1183 123.5693 123.5900
125.9600 126.1649 118.0116 118.4599 118.1670 116.6562 115.8771 114.7526 106.0938 117.0530 112.9210 124.8731 123.8504 124.1688 123.5370 123.5715 123.4317 123.2110 123.2027 122.9501 122.7667 122.6280 122.4833 122.3415 123.0741 110.6069 122.6453 121.1742 121.6680 121.6003 121.4784 121.3862 121.3103 121.2409 121.1815 121.1309 121.0891 121.1046 121.5758 120.9158 121.0683 121.0908 122.5109 124.3191 112.7046 116.5814 110.2082 120.9461 121.5974 121.6939 121.8221 121.9493 122.0775 122.2199 122.3568 122.5020 122.6566 122.7987 122.9684 123.1365 123.1665 123.6101 123.6656 123.6400
125.9900 126.0919 119.5085 117.1031 115.8349 117.6845 112.0082 107.9040 107.1456 118.7267 124.8571 116.5465 123.5216 124.1142 123.7985 123.9891 123.7698 123.4518 123.3045 123.1515 122.9969 122.8505 122.7119 122.6111 123.6223 113.1964 122.0854 122.1144 121.9053 121.8946 121.7899 121.6898 121.6171 121.5481 121.4982 121.4356 121.5323 121.7108 111.6809 122.1129 120.4809 121.5304 116.9443 112.1789 119.5530 119.6961 119.9036 122.5313 121.8815 122.0571 122.0649 122.2200 122.3353 122.4662 122.6002 122.7356 122.8837 123.0275 123.1750 123.3229 123.4416 123.5980 121.2952 123.8700
126.1500 126.1260 118.0458 118.2155 108.1430 117.2826 108.8737 106.2034 110.5262 106.6197 112.3671 106.5721 117.6616 124.4718 124.0366 123.1353 122.7709 123.3718 123.5297 123.3521 123.2249 123.0443 122.9164 122.7957 122.4787 123.3097 122.3257 121.9294 122.1952 122.1093 122.0142 122.0021 121.9101 121.8553 121.8054 121.7938 121.4922 125.4702 111.6676 121.6276 114.0116 119.9434 122.3630 102.2434 123.5311 122.8823 122.0958 121.9443 122.1637 121.8297 122.7416 122.3537 122.6039 122.7144 122.8435 122.9680 123.1089 123.2419 123.3845 123.5355 123.6696 124.1921 118.6715 124.0800
126.1900 125.6437 124.6830 118.0561 111.0660 107.3140 108.3527 108.6308 123.3296 112.9159 105.8931 109.1410 125.5231 124.4226 124.8084 116.6696 110.2685 125.4072 123.7398 123.6114 123.4645 123.3680 123.6486 123.1066 122.9077 122.6675 122.2694 121.3540 122.9015 122.3728 122.4342 122.2864 122.2025 122.1410 122.0773 122.0277 121.8899 121.7708 121.6215 121.9975 117.4438 120.1152 123.6249 108.6200 124.0576 114.3713 123.1231 122.1933 122.4370 125.3922 125.4856 122.6666 122.8460 122.9541 123.0767 123.2041 123.3330 123.4625 123.5789 123.7126 123.8394 124.0009 124.2800 124.1400
126.3600 126.2837 124.8728 113.9446 112.0001 115.2249 110.2812 110.3832 107.5049 108.3894 108.2390 108.4054 126.7070 124.3800 123.8252 128.0087 123.9978 124.2841 123.9069 123.7575 123.6375 123.4458 121.1666 122.6876 123.1462 123.0529 123.0397 122.8914 121.9023 117.2770 122.5935 122.5516 122.4849 122.4518 122.4642 122.4849 122.2261 121.8565 118.3279 123.2476 119.4807 123.6743 122.9214 107.8454 121.9367 104.2248 123.7992 122.2587 122.6817 122.6492 123.0596 123.4543 123.1015 123.1908 123.3070 123.4260 123.5538 123.6948 123.8198 123.8135 123.6897 124.7417 125.4721 124.5600
126.5500 123.9175 123.8883 114.0358 117.4122 113.2035 110.8011 105.6918 110.7332 109.9440 111.1630 100.6946 123.6523 125.1711 125.4578 117.5146 124.5896 123.7611 124.1342 123.9469 123.8756 123.8207 120.8272 121.8059 123.7962 123.0594 122.9699 123.1512 122.7340 123.1928 122.7094 122.8179 122.6901 122.6741 122.5193 122.4873 123.2256 122.7808 126.2978 117.1294 121.9144 111.8951 124.7158 116.6521 119.1497 116.3590 123.1610 122.6823 122.9626 122.8971 122.3054 117.6795 123.2617 123.4437 123.5280 123.6442 123.7198 123.9371 123.6072 124.1392 126.4521 117.4467 122.1236 124.5600
126.7100 125.4235 127.0233 126.4485 121.4334 114.5836 119.9335 114.0151 108.9351 107.4137 105.8662 117.9268 125.8647 125.1647 125.9721 124.2721 124.5298 124.5373 124.4362 124.1785 124.1013 123.8940 124.0877 117.1353 123.3106 123.7433 124.9086 121.8464 125.2959 122.7345 124.3537 123.0144 123.3874 126.2499 125.9394 122.3847 115.9956 122.6993 114.6332 104.5230 105.7825 106.7970 111.0978 110.7672 113.8956 123.9968 123.0069 123.1057 123.2176 123.2186 124.4957 120.7733 123.9778 123.6783 123.7634 123.8451 123.9674 123.9843 127.1949 126.2463 109.2801 112.0766 126.8180 124.8200
126.7500 126.6785 125.9911 124.5003 126.5656 117.0563 121.3297 114.0763 112.3001 106.8888 123.7022 113.8690 123.9759 124.6752 112.1150 103.9526 113.9147 124.5751 124.5015 124.3833 124.2656 124.1852 124.5990 122.2424 124.4878 124.0275 101.6201 96.6146 128.9017 125.0009 113.6367 125.1593 119.6032 124.2664 106.7998 127.9573 115.0921 126.2939 104.8665 107.5746 111.4132 111.1655 107.7016 121.0511 124.9434 123.5467 122.8758 122.8813 123.4239 123.5434 123.4595 124.0339 123.6665 123.8799 123.9428 124.1786 124.1761 124.2658 126.9882 124.4583 118.7636 114.0570 120.2519 109.9400
126.9000 125.9586 126.5705 126.8592 123.2192 115.5781 111.8049 111.7802 108.7395 105.8737 105.7338 107.9099 126.6337 127.7936 120.0937 119.0768 125.2854 125.2968 124.6808 124.5759 124.4677 124.3974 124.1921 124.3717 123.9815 125.2479 119.5202 102.0127 127.8238 123.6726 100.9047 127.4702 121.2886 125.9881 105.1923 105.0553 116.5986 111.4852 108.8743 108.0279 125.7444 112.5905 113.3566 123.9476 122.8842 123.4471 123.7764 123.9427 123.9314 124.5889 123.7813 123.8493 124.0582 124.0869 124.8253 124.1526 124.3728 124.4643 123.9531 123.7854 124.6550 125.7586 120.7836 110.1300
126.9300 126.5573 128.0668 121.0049 115.2414 111.5604 116.0202 112.0693 111.9766 113.1831 110.2039 117.6214 119.9172 103.4070 115.6741 127.2583 124.7707 124.8510 124.8789 124.7654 124.6664 124.5647 124.4783 124.3908 124.2713 123.7793 125.6010 124.2473 124.0667 124.7958 115.3596 113.3717 113.2180 109.5874 111.6069 108.5829 125.5470 119.4387 114.5027 106.5511 124.8400 123.3561 123.6324 126.7975 123.7619 123.9646 124.0386 115.1593 120.3388 126.6295 124.0076 124.1421 124.2119 124.3115 124.5232 124.4560 124.5815 124.6391 127.0426 123.8419 124.9993 124.9468 125.1688 125.2500
127.1000 126.9446 126.4396 113.6700 113.1806 114.4306 115.8502 114.0004 112.5263 106.7454 103.8734 107.1934 107.2319 103.4108 117.3080 128.0104 127.5574 125.3226 125.0032 124.9695 124.8521 124.7634 124.7360 124.5627 124.5303 124.5632 124.0647 124.4286 124.4393 108.7951 117.1768 104.6322 118.4758 120.6118 129.0357 118.8754 124.3737 124.5467 122.1540 121.0392 124.1361 123.8693 123.7613 124.5027 125.5277 124.2123 122.8532 115.5524 108.5618 124.8524 124.2450 124.3495 124.4327 124.8725 124.9454 124.7060 124.8072 124.8145 124.9685 125.4927 125.0873 125.3039 125.3787 125.4600
127.1400 124.6968 127.7313 117.4477 114.0839 119.1790 115.4717 108.5621 108.3016 105.9723 108.3791 104.5566 106.9285 105.4036 122.9049 111.2003 123.9027 125.1051 125.2463 125.0448 125.0340 124.9444 124.5410 124.7817 124.6994 124.5045 124.5988 123.0941 124.7093 125.0720 118.5222 112.0961 124.9456 124.5756 111.9144 126.0046 123.8739 124.0931 124.2870 124.4280 124.0931 124.1914 125.3566 110.4411 124.8554 124.0074 124.7605 113.4616 110.7172 125.1533 124.5045 124.5456 124.6791 124.6791 124.7761 124.9082 124.9647 125.1040 126.2422 125.1519 125.3658 125.4611 125.5535 125.6300
127.2900 119.3288 119.0304 115.7600 114.2037 115.1153 105.2931 111.7091 109.1780 107.5156 104.1836 108.8522 115.0512 127.7483 125.4211 118.0729 126.0443 125.9672 124.9236 125.6245 125.3282 125.0770 126.2719 124.3097 124.7777 124.6194 123.7332 121.2728 124.2688 112.2378 112.2700 108.1232 122.8221 124.9084 125.8961 124.1407 124.3449 124.3254 124.3343 124.3354 124.3357 124.4554 126.0937 108.9288 126.2924 124.1023 124.4429 124.0008 124.9620 122.0939 124.7508 124.7924 124.8468 124.9243 125.0073 125.0803 125.1704 125.0621 125.6635 125.4271 125.5279 125.6327 125.7511 125.8500
127.4300 116.9529 119.6861 114.9131 114.7730 117.1010 108.4939 112.8963 114.4398 110.2777 107.6416 109.6552 119.2678 126.1642 125.8412 126.1933 126.5115 125.8575 115.1553 125.1222 125.3157 114.3712 109.9540 119.4314 124.9804 125.7834 108.1360 122.6420 125.2807 109.9978 106.2618 115.7586 125.0172 124.5738 124.3706 124.6185 124.7654 124.7424 124.5680 124.5484 124.3913 124.3493 124.9942 121.5779 124.8643 124.5173 124.7544 124.5628 124.7290 121.8725 124.9675 124.9896 125.0507 125.1202 125.1938 125.2738 125.3237 125.4621 125.5340 125.6619 125.6903 125.7997 125.9106 125.8500
116.0500 116.2088 124.9781 116.4715 114.2306 117.6513 115.6177 111.8859 111.7983 107.6644 104.8870 126.3771 126.1778 126.2427 126.1003 126.0230 125.7576 124.6582 117.5511 126.5611 109.0563 125.2480 109.7187 129.2868 122.5911 123.8475 98.6714 115.3941 119.2123 118.7336 124.0661 124.8941 124.8291 124.8562 124.8332 124.8203 122.7669 124.2088 124.4779 124.7496 124.9117 127.4620 124.5936 125.0659 124.9955 124.8411 124.9160 124.9904 124.9944 125.4583 125.0478 125.1867 125.2496 125.3176 125.3814 125.4642 125.5444 125.6066 125.7045 125.7776 125.8756 125.9624 126.0718 126.0500
127.7500 116.3098 118.7373 118.6506 114.3766 112.2184 114.4466 111.9229 110.0300 104.6502 114.6701 126.8954 126.4609 126.4092 126.3069 126.2243 126.2312 125.1504 101.3628 122.1362 100.2662 107.4547 115.4199 114.1316 102.1885 118.9549 125.4949 115.9710 105.9950 125.0351 108.9305 126.0274 124.9984 125.0241 125.2108 124.8380 120.1848 128.4630 125.3559 125.1890 123.1766 128.1131 125.2611 125.0916 125.0696 125.1181 125.1395 125.1777 125.2227 125.2189 125.3464 125.3831 125.4367 125.5077 125.5680 125.6476 125.7225 125.7945 125.8749 125.9600 126.0423 126.1335 126.1260 116.5100
127.7800 118.6657 117.4287 119.6222 115.2993 112.1203 112.8600 112.2826 111.2609 110.3640 125.9704 127.7183 126.6589 126.5735 126.4164 126.3831 126.0231 126.9604 128.2109 119.7035 113.3435 104.3231 117.1429 110.9613 109.8720 107.3627 125.2999 111.4464 111.2407 130.7815 124.3613 125.4554 125.2945 125.2908 124.9889 126.5825 115.9246 120.8220 125.8885 125.6560 115.7711 122.0046 121.0904 125.4324 125.3279 125.2910 125.3443 125.3829 125.4176 125.4746 125.5089 125.5657 125.6308 125.6879 125.7553 125.8217 125.8945 125.9674 126.0544 126.1242 126.2121 126.3064 127.1937 116.5100
117.8600 115.3128 117.5273 115.3436 114.0175 112.7227 122.6675 111.5497 115.3123 119.0004 122.1412 127.6368 126.5461 127.4768 126.6423 126.5401 126.6285 126.8293 112.8108 106.9478 125.6210 123.7577 121.8734 106.5198 107.2695 116.8878 128.4591 108.0630 111.8648 125.4238 125.5590 125.5234 125.5525 125.4259 125.7757 127.3273 105.2943 116.0212 125.5138 125.0843 123.8189 123.5490 120.6698 125.7018 125.5244 125.4991 125.5369 125.5722 125.6151 125.6589 125.7099 125.7637 125.8205 125.8754 125.9352 126.0069 126.0689 126.1384 126.2188 126.2911 126.3749 126.4066 126.5056 126.5800
117.2900 115.9185 117.8501 115.3819 112.5298 113.0557 123.5620 115.7047 112.4919 128.4579 127.8645 114.5669 124.6933 126.8557 126.6031 126.4539 126.5592 123.2997 105.7952 127.3429 127.2884 110.0236 116.9516 125.5514 121.3508 107.4702 107.5526 108.1869 125.3030 125.7609 125.7811 125.7512 125.4506 127.0495 109.7605 124.7273 101.6922 126.1795 125.2055 125.7916 125.6209 126.1527 125.1575 125.7194 125.7070 125.6969 125.7297 125.7639 125.8023 125.8496 125.8935 125.9437 125.9969 126.0483 126.1137 126.1826 126.2432 126.3123 126.3831 126.4588 126.5226 126.6487 126.6967 126.7600
117.0200 115.9025 114.7438 113.5359 114.0367 117.4348 117.1873 119.3873 124.7670 127.2023 127.3707 114.4647 119.6654 121.8874 125.3455 126.9168 126.5615 129.0074 114.7238 125.8865 125.5735 103.8238 116.1573 127.1090 105.8481 108.7347 110.7554 118.1590 126.1790 125.8000 125.9516 125.9458 125.9668 118.3618 121.3255 124.5793 114.1758 125.8907 125.1795 125.2180 125.8329 125.7249 125.8456 125.8653 125.8786 125.8869 125.9249 125.9546 125.9943 126.0328 126.0760 126.1247 126.1750 126.2302 126.2912 126.3486 126.4162 126.4753 126.5556 126.6154 126.7303 126.7145 127.0120 126.9300
115.4200 124.5581 117.3685 123.0097 127.2665 127.9777 126.8748 127.4213 127.2373 129.4456 119.5607 125.3458 108.9430 107.1761 127.0427 126.7932 126.8810 127.7551 124.0187 121.1337 119.8470 114.6866 110.7716 118.7464 105.6405 113.3671 119.2678 125.4631 126.1833 126.1644 126.1377 126.1218 126.0102 126.6975 125.9940 126.2949 124.2114 127.2390 125.9979 130.1008 125.6923 126.0263 126.0079 125.9132 126.0690 126.0839 126.1058 126.1394 126.1771 126.2180 126.2529 126.3003 126.3468 126.4011 126.4270 126.5179 126.5830 126.6505 126.6230 126.7910 126.8746 127.0456 123.0318 127.0700
128.3700 128.2366 129.0093 126.4260 127.9734 127.9075 127.7914 127.4886 127.6721 123.1408 109.0547 111.3485 114.6225 127.3953 127.6897 127.1923 126.9705 124.0290 116.1755 104.8744 103.0331 107.1601 104.0459 107.8012 109.8969 113.6898 114.7862 123.7411 126.2748 126.3616 126.3191 126.2881 126.1372 126.0740 126.3103 125.9782 128.8314 109.3901 121.5875 110.6168 127.4669 126.1574 126.4735 127.3347 126.1502 126.2609 126.2909 126.3212 126.3580 126.3950 126.4308 126.4710 126.5967 126.6017 126.8588 126.6829 126.7177 126.7939 126.7250 126.9547 127.7884 125.0431 122.6161 113.5000
128.3900 127.0862 128.3247 128.3223 128.1211 128.1221 127.9745 127.8740 127.8309 128.1583 128.5965 128.9943 129.0436 114.2891 128.0299 127.7523 127.0024 129.1255 127.6428 127.1880 114.1989 103.8749 104.7245 109.2201 114.4422 129.1453 126.2565 126.7846 126.5640 126.5421 126.4655 126.4563 126.4777 126.4485 126.4066 127.0185 115.4143 116.9008 116.2268 104.6814 128.5442 126.2761 126.7622 117.4428 127.7509 126.2813 126.4590 126.5030 126.5292 126.5639 126.6065 126.6506 126.6791 127.1043 123.7844 127.1711 126.7147 126.9805 126.9972 126.9932 128.4615 116.5281 115.6819 113.5000
128.5400 128.1956 128.4926 128.3555 128.2706 128.1877 128.1118 128.0372 127.9948 128.3982 127.8073 128.4341 125.0090 114.9705 117.0972 127.7303 123.9975 118.7776 123.9580 127.4515 126.0978 107.7222 104.4975 109.9569 114.3673 127.7772 121.0187 127.1400 126.8935 126.7000 126.8710 126.5881 126.5859 126.5332 126.5936 126.7187 127.5677 127.1140 115.9682 127.2846 126.5164 126.6270 126.9925 117.4527 126.4745 126.5231 126.6321 126.6773 126.7087 126.7411 126.7800 126.8111 126.9286 126.8082 110.9187 128.5918 126.9300 127.1380 127.1199 127.7973 127.6000 121.5271 109.7395 108.4600
128.6700 128.6205 128.5552 128.4708 128.3935 128.3112 128.2290 128.1596 128.0382 127.9987 127.9599 129.1191 113.5323 115.3599 106.1462 104.7385 109.0673 102.9356 116.6120 127.3793 121.1367 108.6495 106.6078 114.0378 115.7929 128.3565 127.1019 127.6272 125.1835 124.4461 125.9419 126.8565 126.8361 126.8944 126.7950 126.5819 126.6564 127.2294 112.6611 124.8881 125.7627 126.7768 126.7411 127.9904 127.7191 126.7537 126.8065 126.8471 126.8715 126.9056 126.9469 126.9818 126.9895 128.0121 122.6763 128.6535 127.1066 127.2798 127.2741 126.6364 117.8261 118.2076 109.7690 108.3800
128.7200 128.7200 128.6300 128.5600 128.4700 128.4000 128.3000 128.3000 128.1200 128.0500 127.9600 127.9800 105.9000 127.7900 127.7100 105.6300 105.6300 107.1300 127.4500 127.4500 106.7000 106.7000 105.9500 114.5000 127.2100 127.1000 127.1300 127.0100 105.0300 106.7100 126.9200 126.9300 121.3200 126.8100 126.8300 126.8400 126.8500 126.8500 126.8500 112.5000 126.8500 126.8500 126.8400 126.8300 126.8200 126.9500 126.9400 126.9200 127.0300 127.0300 127.0000 127.1300 127.0900 127.2200 127.2000 127.3000 127.2700 127.3700 127.4600 123.5500 123.5500 109.1500 120.9900 120.9900
