127.2100 125.0900 124.4200 122.2800 126.8000 121.9700 121.3200 104.3700 104.2300 126.1100 104.0000 103.9100 120.1200 116.2000 116.2000 117.6700 113.2800 114.0500 118.9700 108.9600 113.0000 113.0000 110.9600 110.5700 108.9000 112.2300 109.7700 109.7700 104.1400 123.7500 123.7500 107.8700 123.4400 123.4700 101.3000 123.3200 106.0600 101.1500 123.1900 123.2000 122.9800 122.9900 118.9500 122.9900 122.9900 123.2000 123.2000 123.1800 123.1500 123.3400 123.3100 123.2900 123.4600 123.4300 123.5900 123.7400 123.7400 123.8800 124.0200 123.9800 112.2600 124.2700 124.3900 124.3900
127.2100 124.7878 123.8432 124.0691 127.3481 121.8933 121.1273 111.1320 106.6850 115.5441 111.1086 109.5017 114.6170 108.8273 112.0878 113.9304 113.3813 114.1685 113.1653 110.5686 115.8364 116.1347 112.6352 110.6648 112.9509 111.5496 109.2294 107.3235 105.8363 101.0525 114.6027 108.1776 113.0425 97.7818 129.5954 100.8051 105.6374 99.3238 116.4199 113.0291 122.0271 123.2122 120.6847 122.9185 122.9304 122.9304 122.9589 123.0583 122.9532 123.0418 123.9787 123.0095 123.2814 123.3481 123.4290 123.5161 123.6164 123.6795 123.7753 124.1494 123.9502 123.7730 124.1063 124.3900
121.9400 122.6434 123.7211 123.4797 122.4424 121.1341 120.7772 121.9069 103.8009 99.3982 112.2739 109.3406 102.3455 109.8053 118.4896 116.1092 114.9832 113.9294 113.0185 114.7934 109.4791 100.4843 110.2716 107.6422 114.8516 106.9371 105.4037 109.3308 116.5335 109.1089 102.1285 120.1616 114.2750 120.7234 115.3402 102.7777 110.9281 111.6528 121.7624 122.2844 123.4438 122.6167 122.8591 122.6532 122.6496 122.6622 122.6924 122.7100 123.0047 111.7626 120.9643 122.7609 123.0448 123.1080 123.1892 123.2887 123.3658 123.4778 123.7415 123.7118 123.1343 124.0620 124.8732 124.1500
121.9400 121.3788 125.3229 109.0211 126.1365 120.8309 119.9971 119.3067 117.4305 113.5762 106.7924 103.2512 105.2433 103.4386 115.1701 119.0116 114.1274 117.4645 116.1269 113.0002 110.4970 103.7613 113.7035 115.0091 111.6863 104.8736 104.5359 103.5078 109.5981 106.7377 100.6582 122.8847 120.3795 113.0869 103.9660 105.8354 125.6781 113.8437 124.6755 114.1980 122.9418 122.2759 122.3073 122.3516 122.3697 122.3900 122.4340 122.1829 122.8373 105.2822 121.2074 122.1245 122.8355 122.8560 122.9343 123.0262 123.1477 123.3044 122.8679 123.5553 121.8940 124.5189 101.9634 101.8900
128.9400 122.7879 124.4992 118.3636 105.4359 119.0168 119.3650 118.3809 118.8713 118.9139 118.4122 102.4008 108.3659 107.5528 110.9478 118.0942 112.2837 118.1560 115.0981 114.0711 115.4390 106.3125 119.2007 111.0641 113.1425 110.3865 101.6322 118.0014 108.3793 99.3082 106.8508 109.3415 124.0107 123.1167 118.9054 122.2948 123.2275 119.6708 122.4330 122.9771 122.7284 122.0686 122.0651 122.0653 122.0787 122.1018 122.1828 121.7171 122.4488 100.7283 121.6973 122.0470 122.5548 122.6171 122.5487 122.9151 122.6135 122.6494 125.7013 124.4950 101.5666 120.8726 100.9099 101.6800
128.8900 119.6710 122.8580 125.6598 106.6954 107.7740 120.9210 118.4023 117.5862 114.2364 119.1117 111.3301 102.6036 105.0017 116.7247 101.6470 108.5632 111.8237 112.1869 110.7137 120.5694 114.3887 109.1124 110.1186 112.9564 108.2717 104.7674 102.9678 106.9982 125.4299 119.7779 120.2846 122.5454 121.4691 122.3091 121.7073 121.6934 122.2217 121.8115 121.6662 121.6300 121.7542 121.7612 121.7669 121.7785 121.8076 121.6332 122.6667 110.8183 100.0085 120.7349 121.6579 122.2494 122.2993 122.7455 123.3294 122.5711 121.3058 109.3835 125.3664 125.0133 116.1437 97.8496 123.4300
126.4600 121.9792 122.0484 123.3094 123.4278 118.8444 119.3472 118.6964 118.2944 119.5398 116.9693 119.5884 101.2934 100.0704 123.2754 123.5424 117.6838 111.2160 114.2244 115.2125 119.2281 113.2652 112.0137 108.2484 107.0530 106.1362 106.4693 108.4494 99.0266 107.5428 98.6706 122.5642 122.0295 116.8846 115.3217 121.7441 121.7744 121.5895 121.5837 121.5558 121.5170 121.4733 121.4511 121.4555 121.4667 121.4489 122.6953 122.6616 113.5910 102.3023 121.9374 121.7727 121.9439 122.0518 121.9865 118.5653 122.2899 120.9249 118.3616 118.5806 121.0669 122.9570 117.3920 123.4300
125.8900 119.2384 120.8879 124.1916 122.7532 123.5596 121.0104 118.6681 118.4619 122.2864 119.8138 125.9663 131.1811 97.6377 102.8728 106.3942 113.0788 110.2702 113.5404 113.3152 113.6520 113.7768 110.2068 107.8287 109.6539 111.8100 102.8611 105.5876 112.5702 122.6665 121.5758 117.3948 121.6709 118.0259 120.4035 121.1311 121.3964 121.3084 121.2423 121.1897 121.1586 121.1391 121.1379 121.1149 121.0591 122.5356 111.8608 106.8875 128.0137 105.7108 121.8044 121.4989 121.6844 121.7469 122.1226 122.0495 122.1033 122.8783 122.6209 123.8381 122.6604 121.8216 123.1565 123.1400
119.3100 119.3882 119.9528 120.1955 122.9908 120.2632 118.5817 117.7062 119.1129 108.0935 123.7494 131.7691 130.8256 108.9104 104.0484 103.9681 125.0041 124.5622 124.0232 107.6834 111.9398 108.2491 110.2655 103.4912 108.7937 114.3669 106.2626 102.6975 120.3447 104.8450 120.9404 117.4068 122.0442 119.9129 119.7880 121.0845 121.1047 120.9778 120.9182 120.8699 120.8355 120.8129 120.7957 120.7931 120.7794 120.4836 117.5832 120.1844 119.8079 121.7435 121.2622 121.3112 121.3758 121.4523 121.6397 121.8218 121.9043 121.8806 122.1431 122.2009 123.0138 122.0735 123.2001 122.9000
119.4400 119.3406 118.8528 119.6604 119.1575 122.3331 112.3817 117.7424 117.4684 115.8592 123.4004 120.7466 116.3066 118.4487 115.0363 110.4474 122.5816 123.4263 109.6248 102.8623 107.6769 111.7039 122.6337 105.3095 118.8481 119.2624 112.2429 115.2442 120.5866 122.1485 121.5841 121.8215 120.9387 121.0333 121.1220 120.7650 120.7307 120.6500 120.5827 120.5252 120.4878 120.4623 120.4549 120.4432 120.4412 120.8131 122.2353 120.7627 120.5992 120.5894 120.8440 120.9699 121.0029 121.3569 121.3397 119.6643 121.6968 121.7885 121.9190 122.1088 122.1835 122.4327 122.8623 122.6200
119.6800 119.3838 119.7213 119.6059 120.8215 122.9162 117.9435 118.8586 112.8051 121.1144 116.3087 132.1724 118.6860 114.6406 114.9621 115.6736 121.3848 121.7626 113.3724 117.0290 108.4125 104.1253 111.0402 106.5589 119.2397 118.8223 111.7733 115.9103 111.7869 121.5384 121.0472 121.1066 120.6616 120.6689 120.5998 120.5004 120.3942 120.2998 120.2328 120.1727 120.1295 120.1005 120.0980 120.0821 120.3993 120.0871 120.0090 120.1785 120.3151 120.4464 120.5176 120.6308 121.5791 121.0987 120.6447 120.7311 121.6791 121.5038 121.6488 121.8225 122.0206 122.4110 116.9837 122.5800
119.6400 119.0158 119.1253 121.6763 122.4878 115.6401 114.7853 117.0596 105.2139 109.6914 109.4684 120.9046 126.8030 117.4386 115.7436 112.2186 108.2693 107.3474 110.8053 101.8665 123.1604 108.2123 119.0852 109.8362 108.7908 109.2477 122.4359 122.3885 121.1938 121.3844 120.8798 120.2419 122.1936 120.8164 120.2802 120.1514 120.0349 119.9407 119.8699 119.7988 119.7602 119.7256 119.5370 119.9521 116.7778 119.9443 119.8709 119.8990 119.9714 120.0647 120.1717 120.2681 120.2811 131.7995 119.2525 115.4977 121.4539 121.2353 121.4060 121.5842 121.8966 122.2113 122.4123 102.6200
118.0700 118.4790 120.4063 119.8524 120.2309 112.6487 116.1420 109.5805 116.3477 113.2912 104.4729 114.5832 126.3708 118.2722 115.4292 116.1695 128.4427 109.6423 112.5908 105.3138 122.5516 120.5726 115.5193 117.9151 114.1228 120.2558 121.3201 120.8283 120.8911 120.5808 120.4790 121.5293 114.7870 108.5028 120.3667 119.8044 119.6761 119.5707 119.4847 119.4123 119.3691 119.3165 119.2441 119.5967 111.1369 120.0951 119.4633 119.4909 119.5983 119.7050 119.8191 120.0097 119.9713 119.7909 112.1084 108.8988 121.3185 120.9281 121.1401 121.2823 121.4979 120.9251 120.0900 106.5100
126.0000 108.6642 118.3354 119.4889 116.9963 118.0755 117.1975 111.3225 113.9038 113.6779 121.6806 103.0913 102.4665 112.8938 115.6225 116.8204 110.3781 110.0427 125.1935 104.3441 119.6534 128.5545 117.3352 104.2695 121.6180 121.0649 120.9208 121.3912 120.9483 120.4350 120.2200 120.5664 108.9767 124.7183 119.7922 119.4162 119.2890 119.1799 119.0857 119.0140 118.9604 118.9140 118.8929 119.7695 119.7485 118.9496 119.0322 119.1097 119.2128 119.3306 119.4613 119.5686 119.8180 119.9640 121.5858 117.4069 120.5035 120.6295 120.8660 121.1188 121.3247 123.7058 114.4471 106.5100
124.7100 120.0377 123.2121 117.7620 119.0676 115.8200 116.0819 117.0298 115.2973 115.1026 110.2728 124.5579 120.2762 102.0336 113.6970 115.3897 110.2618 104.1323 118.1924 111.5342 110.0118 123.3814 122.8070 117.4652 122.1146 120.8685 121.2048 114.5407 119.1368 120.1399 119.8316 119.9489 114.2187 119.0288 118.2968 119.0597 118.8974 118.7780 118.6723 118.5947 118.5235 118.4850 118.4558 118.2616 118.3674 118.5445 118.6076 118.7026 118.8057 118.9312 119.0730 119.2283 119.4059 119.5198 119.9995 119.6141 120.2666 120.3507 120.5856 120.8526 120.5307 124.7825 114.7197 121.6300
125.8100 126.6700 126.9704 124.8782 119.0638 117.1631 115.4824 115.0345 115.3426 115.5570 117.7675 114.8239 119.6617 113.3585 101.5062 106.9894 127.3404 107.7584 107.3896 114.5478 105.9468 119.1050 121.3205 121.2614 120.9799 120.6721 120.4606 118.8376 120.4870 119.7167 119.5773 119.7537 119.4298 118.1694 119.0260 118.5781 118.4812 118.3525 118.2337 118.1429 118.0783 118.0288 118.0118 118.0565 118.0555 118.0978 118.1674 118.2698 118.3834 118.5227 118.6814 118.8546 119.0177 119.2600 119.3619 119.6636 119.8737 120.0910 120.3147 120.5449 120.7280 121.5290 121.6914 121.3500
116.4900 125.3994 123.1913 119.8642 102.8315 102.7933 114.0926 115.5212 114.3785 114.8002 125.5334 117.3740 114.3229 101.5529 114.0668 113.2141 98.8654 99.8930 108.3625 112.6893 116.6775 123.1427 120.7983 121.0265 120.6566 120.4752 120.3614 119.9426 119.7592 119.4628 119.2515 119.0315 118.8001 118.6925 118.3603 118.2373 118.0572 117.8950 117.7740 117.6778 117.6011 117.5533 117.5264 117.5203 117.5625 117.6242 117.7067 117.8099 117.9478 118.0940 118.2643 118.4552 118.6587 118.8599 119.0978 119.3189 119.5548 119.7875 120.0292 120.2684 120.5519 120.7326 120.8972 121.0600
125.7400 126.3263 118.1754 118.9325 118.0486 118.7573 102.2438 102.6107 111.1561 112.7961 121.8512 117.2347 117.8569 115.6751 102.0586 113.9722 124.2868 104.0192 109.4058 129.2231 106.6056 118.8772 120.9607 120.7847 120.4764 120.0866 119.9492 119.7916 119.3713 119.1587 118.9076 118.6627 118.4284 118.1764 117.9841 117.7846 117.6002 117.5433 117.2783 117.1895 117.0985 117.0400 117.0194 117.0167 117.0588 117.1174 117.2158 117.3404 117.4845 117.6502 117.8383 118.0503 118.2611 118.4999 118.7366 118.9797 119.2334 119.4894 119.7475 120.0098 120.2692 120.5276 120.7906 120.9800
125.5800 126.4443 114.7676 118.7586 119.0275 114.1518 115.7825 107.4733 105.2181 124.1849 114.4218 113.9333 114.1839 113.2822 99.4090 97.8992 110.9397 111.1290 104.4228 108.7075 126.7079 108.4283 121.8504 120.3861 120.2188 119.9369 118.1005 120.0538 118.4921 118.9295 118.5480 118.3042 118.0380 117.7933 117.5555 117.2847 117.2488 116.3412 116.9155 116.6312 116.5802 116.4985 116.4728 116.4803 116.5198 116.5925 116.7014 116.8382 116.9979 117.1887 117.3965 117.6167 117.8607 118.1111 118.3734 118.6448 118.9128 119.1897 119.4684 119.7436 120.0150 120.2915 120.5753 120.6800
121.6600 115.0019 115.1482 117.1199 119.4685 114.8962 114.2115 115.0909 114.4809 114.4957 99.6400 108.1712 111.5234 120.7005 116.0078 105.2296 102.4117 99.0542 116.6483 109.0453 114.9337 126.6458 120.6739 120.4194 119.8682 120.3829 112.6658 119.4580 114.8229 118.9323 118.1369 117.9285 117.6385 117.4055 117.0500 116.8069 117.5365 121.5123 114.7256 116.1866 115.9967 115.9345 115.8940 115.9024 115.9474 116.0306 116.1474 116.3045 116.4900 116.7059 116.9345 117.1782 117.4483 117.7240 118.0027 118.2923 118.5866 118.8853 119.1823 119.4761 119.7690 120.0400 120.2103 120.6000
122.6000 115.7123 115.5720 115.4574 117.3598 109.7647 112.8029 113.3165 113.0270 120.7036 110.5006 105.7491 100.8560 112.2400 110.7984 122.2695 115.9075 103.2882 114.1537 118.8409 122.7885 120.8597 118.9370 120.0209 119.7715 119.2561 119.0416 119.1141 118.5021 118.1600 117.8760 117.5408 117.2554 116.8610 116.9063 116.0356 118.7334 103.4736 116.8733 115.4881 115.3973 115.3139 115.2760 115.2866 115.3318 115.4304 115.5748 115.7527 115.9631 116.1863 116.4506 116.7235 117.0201 117.3233 117.6338 117.9450 118.2617 118.5802 118.8961 119.2088 119.5195 119.8530 120.6546 126.0600
115.8000 116.9627 115.5798 117.0677 115.6456 115.6498 114.8923 113.2491 116.3363 116.4772 116.3284 114.8604 106.2873 102.4249 93.6661 105.3910 95.6061 118.8160 126.6071 111.5270 120.7297 120.4919 120.5545 119.3805 121.1688 117.7841 119.0930 118.3754 118.1472 117.8212 117.4923 117.1543 116.8029 116.4978 115.4229 117.6255 114.9272 108.3506 115.4283 114.9020 114.7501 114.6487 114.6057 114.6175 114.6766 114.7933 114.9423 115.1085 115.3581 115.6721 115.9499 116.2541 116.5785 116.9110 117.2533 117.5856 117.9242 118.2641 118.6067 118.9399 119.2692 119.5634 119.8139 126.0600
117.4800 124.2417 117.2968 117.4965 114.7341 116.7620 115.0993 113.6702 118.8420 110.5715 113.2927 113.0336 112.2402 105.0797 119.0026 104.3105 98.6345 116.7790 109.5280 119.2096 120.6285 120.1477 120.2727 113.2968 111.7205 109.6193 113.1009 118.6992 117.8754 117.5070 117.1311 116.7689 116.3897 116.5896 116.9279 111.6411 113.6755 114.3444 112.4318 114.2041 114.0588 113.9953 113.9011 113.9023 113.9710 114.1143 114.3687 114.6270 114.8623 115.0665 115.4222 115.7685 116.1304 116.4952 116.8689 117.2713 117.6257 117.9729 118.3193 118.6827 119.0331 119.3996 119.4906 119.8400
107.1000 126.6196 113.3980 120.2364 120.3421 117.0469 110.5404 111.7646 113.6511 107.5662 113.2217 113.1832 116.3870 115.6594 106.5466 100.6470 112.1200 118.6007 109.7136 119.5568 120.0830 120.0327 120.1105 109.1214 111.8853 100.9831 110.9318 117.7039 117.5194 117.1516 116.7787 116.3634 115.9509 115.5547 115.0631 114.3852 113.7375 114.4584 113.5592 113.5470 113.2860 112.7521 113.0303 113.0704 113.1942 113.3256 113.0288 110.3842 114.1024 114.5088 114.8819 115.2716 115.6684 116.0749 116.4715 116.8859 117.0213 117.4919 118.0858 118.4335 118.7970 119.1426 119.5054 119.7300
106.4600 127.3227 107.6533 129.0919 123.1082 122.1740 120.3363 117.3908 117.1975 117.2863 115.2090 115.2453 102.4042 106.1590 107.5250 110.0018 122.5335 117.7235 121.0805 121.3017 120.1064 119.9269 119.7096 120.0927 120.6204 112.1933 121.5294 116.0068 117.4879 116.7784 116.4161 115.9691 115.5416 115.0176 115.1868 114.2519 113.7638 113.2707 112.9728 112.7090 112.3904 115.1596 112.6862 112.5318 112.6554 112.9241 113.0052 112.5141 113.4945 113.8818 114.3196 114.7581 115.2020 115.6467 116.1068 116.4280 118.6353 117.3878 117.8058 118.1784 118.5643 118.9423 119.3241 119.7300
125.2600 125.1866 124.4738 125.6821 123.5498 124.8240 117.6800 119.0999 102.2711 116.1972 113.5365 112.5518 112.5770 98.2029 97.2814 112.6574 109.2807 114.3316 120.9601 120.2504 120.0831 119.7368 119.3547 118.7567 118.2991 118.1637 118.6693 116.5825 117.1245 116.5213 116.0458 115.5747 115.0907 114.6130 113.5686 109.5979 113.5264 112.7042 112.4092 111.7473 111.1705 114.1772 111.7806 111.3350 111.3975 111.6177 111.9177 112.3472 112.7796 113.2550 113.7412 114.2322 114.7340 115.2325 115.7042 116.1651 117.0451 117.1237 117.5291 117.9441 118.3607 118.7465 119.1291 119.3400
125.1000 125.2252 124.8806 124.6767 123.8756 122.4969 119.6929 102.6660 106.3193 110.0174 109.4863 119.9545 109.5634 111.9824 98.9842 114.1105 112.0263 120.9351 120.2076 120.2803 119.9784 119.5921 119.2424 118.8771 118.4517 117.8763 119.4983 117.1124 116.7264 116.2095 115.7081 115.1894 114.6612 114.0937 113.4961 112.6940 112.4374 111.8792 107.8259 111.0477 110.6144 109.9970 109.8899 110.2116 110.3764 110.6647 111.0657 111.5240 112.0425 112.5878 113.1486 113.7116 114.2620 114.8108 115.3367 115.8682 116.2942 116.8103 117.3061 117.7436 118.1492 118.5619 118.9590 119.2700
125.0800 124.9712 124.6818 124.7285 124.2253 120.6260 116.7043 101.7994 113.1028 117.8644 113.4083 110.1832 103.6901 113.5468 108.2511 112.1633 114.5849 122.8639 117.1011 120.5806 119.7866 119.4769 119.0977 118.6818 118.2660 117.8513 117.4384 116.8778 116.4371 115.9083 115.3765 114.8197 114.2314 113.6090 113.1150 112.3312 111.7373 110.9823 110.4778 109.8671 109.4413 109.1545 108.9877 108.9752 109.1899 109.5595 110.0616 110.6375 111.2619 111.9010 112.5457 113.1845 113.8018 114.4032 114.9780 115.5302 116.0877 116.4007 117.0112 117.5722 117.9542 118.3912 118.8048 118.9400
125.0700 124.9506 124.7802 117.2623 111.2032 119.9422 110.9999 114.6712 114.3573 112.8351 112.9567 109.4095 108.0579 100.8807 106.0788 119.1018 103.1406 121.6135 120.5116 120.2159 119.7135 119.4562 118.9169 118.5368 118.0950 117.7457 117.1982 116.7031 116.1786 115.6375 115.0662 114.4615 113.8338 113.1483 112.4555 110.7320 111.1149 110.0789 109.5076 108.7866 108.1897 107.7259 107.4996 107.5472 107.8362 108.3349 108.9763 109.6972 110.4513 111.2072 111.9515 112.6653 113.3540 114.0147 114.6422 115.2024 115.8382 118.2880 118.6524 117.4028 117.7575 118.2383 118.6608 118.8800
125.0500 124.7194 123.6400 115.4273 116.5554 111.3730 106.4228 106.5058 111.8181 109.6499 109.9890 107.8610 103.9541 116.5369 114.1139 121.9577 121.4550 120.9810 120.3854 120.0296 119.9153 115.8902 118.9467 118.4365 117.8336 118.8402 117.1601 116.4987 115.9628 115.3926 114.7836 114.1378 113.4481 112.7219 111.9972 111.1573 110.2481 108.0466 104.8017 107.7671 106.7095 106.1029 105.7813 105.8377 106.2595 106.9467 107.7903 108.7008 109.6173 110.5101 111.3631 112.1758 112.9354 113.6506 114.3281 114.9521 115.6470 116.1563 116.3969 117.1619 117.6451 118.0950 118.5384 118.8300
125.0400 124.9293 124.7845 124.8503 124.7903 112.7287 116.5997 118.9485 105.2284 109.8484 101.5843 104.5641 105.1589 105.1228 117.8506 115.2829 121.1160 120.5488 120.2372 119.8699 119.8452 108.2303 119.1318 117.5469 117.9022 117.3180 116.8317 116.3388 115.7697 115.1727 114.5320 113.8520 113.1156 112.3246 111.4578 110.5413 109.5424 109.0068 107.6006 106.1607 105.0704 104.1320 103.6197 103.7136 104.3706 105.3635 106.5135 107.6803 108.8005 109.8442 110.8201 111.7220 112.5545 113.3322 114.0490 114.7243 115.3435 115.9837 116.5731 117.0109 117.5064 117.9792 118.4269 118.7900
125.0300 124.9115 124.6268 124.6880 121.9316 118.7331 121.1166 107.1260 109.1433 127.7895 106.7798 105.6495 108.9575 104.8403 105.5112 105.0086 121.8532 120.5765 120.0856 120.4743 119.5121 120.4963 119.8945 117.6071 117.6123 117.1685 116.7599 116.1990 115.6174 114.9881 114.3227 113.6010 112.8281 111.9814 111.0586 110.0292 108.9097 107.6019 106.1998 104.7300 103.1353 101.6445 100.7817 100.9387 102.0219 103.5996 105.1758 106.6647 108.0209 109.2305 110.3350 111.3253 112.2293 113.0532 113.8205 114.5168 115.1775 115.7695 116.3423 116.8962 117.4023 117.8832 118.3407 118.7500
125.0200 124.8069 124.1744 124.1476 119.5983 115.0019 118.8635 107.7226 99.8824 113.6282 108.1465 111.4788 108.7897 105.9779 114.8139 125.7739 126.2198 120.8472 120.0649 118.1880 118.4193 118.5964 118.3318 118.0472 118.5194 116.2906 116.6094 116.1033 115.4918 114.8494 114.1586 113.4119 112.5942 111.7055 110.7121 109.6084 108.3525 106.9221 105.2621 103.2859 100.9346 98.4781 96.3449 96.7913 99.2887 101.6275 103.8730 105.7462 107.3440 108.7273 109.9323 111.0104 111.9703 112.8425 113.6356 114.3591 115.0418 115.6669 116.2553 116.8071 117.3239 117.8120 118.2734 118.7200
125.0100 124.9240 125.4013 126.0107 111.3052 115.1694 118.6471 110.6561 100.7856 98.4593 97.5116 101.3560 106.1536 101.9558 104.4334 108.6919 117.7831 116.0531 120.1097 119.9511 111.5136 119.2896 118.6849 118.1076 117.4848 117.1657 116.5683 116.0234 115.4119 114.7601 114.0496 113.2845 112.4387 111.5136 110.4759 109.2957 107.9469 106.3508 104.4220 101.9938 98.8751 93.7151 89.6837 90.3872 95.5142 99.7963 102.7711 105.0263 106.8436 108.3567 109.6496 110.7817 111.7841 112.6896 113.5086 114.2533 114.9503 115.5858 116.1848 116.7403 117.2683 117.7658 118.2356 118.3800
125.0100 125.5793 115.8809 118.7045 113.9098 111.8758 108.4539 105.9693 110.5926 114.6409 111.8194 101.6946 109.8364 105.1541 104.4118 101.4943 116.2070 112.5348 121.2761 119.6181 120.4352 118.9043 118.5610 118.0716 117.6159 117.1184 116.5624 115.9839 115.3680 114.7098 113.9986 113.2210 112.3656 111.4161 110.3527 109.1494 107.7404 106.0623 103.9824 101.2482 97.3699 89.8035 85.2694 86.0420 92.1286 98.6378 102.1325 104.6298 106.5753 108.1634 109.5122 110.6751 111.7023 112.6181 113.4495 114.2091 114.9030 115.5521 116.1532 116.7094 117.2419 117.7412 118.2122 118.3700
118.9300 118.9531 111.7186 117.6120 117.6998 112.8520 113.3341 113.9408 117.2597 116.2839 120.0079 104.2403 119.0946 102.5522 103.0212 105.3159 123.2890 114.5840 116.5278 119.7010 119.2827 118.9301 118.5515 118.0861 117.6085 116.9511 116.4333 115.9714 115.3683 114.7108 114.0033 113.2215 112.3673 111.4253 110.3603 109.1582 107.7550 106.0884 104.0158 101.3130 97.4188 90.0741 85.7676 86.2470 92.5691 98.7384 102.1926 104.6662 106.6003 108.1838 109.5228 110.6848 111.7075 112.6222 113.4521 114.2122 114.9039 115.5536 116.1562 116.7127 117.2448 117.7434 118.2144 118.3700
125.0100 124.0956 107.7843 109.3977 107.6623 108.2131 108.3781 108.0201 105.7368 104.3808 103.9565 98.7501 116.2673 104.4448 119.0208 120.1141 120.7425 119.0398 120.0557 119.7694 119.4084 118.9892 118.5519 118.0942 117.6102 117.8129 116.9835 115.8692 115.4108 114.7665 114.0617 113.2970 112.4610 111.5324 110.5031 109.3396 107.9946 106.4175 104.5200 102.1640 99.1104 94.5975 90.5969 91.1983 96.1545 100.0489 102.9128 105.1105 106.9031 108.4060 109.6853 110.8104 111.8122 112.7093 113.5276 114.2693 114.9585 115.5968 116.1947 116.7456 117.2762 117.7718 118.2373 118.6800
116.0400 116.3195 115.1320 116.4128 123.2058 110.5604 111.8361 110.0513 110.3318 108.9562 103.8209 114.2049 125.6099 118.0551 123.1713 121.9340 120.7976 120.5776 120.1458 119.8226 119.4331 119.0231 118.5944 118.2169 118.0745 109.1843 119.4849 115.5880 115.5212 114.8785 114.1755 113.4409 112.6280 111.7361 110.7596 109.6580 108.4220 107.0048 105.3768 103.4722 101.3728 99.1235 97.1823 97.5488 99.6445 101.9438 104.0560 105.8709 107.4395 108.7919 109.9890 111.0468 112.0060 112.8662 113.6552 114.3843 115.0529 115.6788 116.2636 116.8175 117.3370 117.8180 118.2823 118.7000
116.0500 114.4016 113.2168 115.8978 116.9913 116.4100 117.9072 112.3944 107.5986 112.9807 107.5052 123.5028 104.6551 124.0938 110.7982 110.1479 126.2993 120.5610 120.1803 119.8669 119.4872 119.0832 118.6624 118.2480 117.7785 117.1243 116.8385 116.1922 115.6392 115.0193 114.3534 113.6409 112.8674 112.0294 111.1135 110.1075 108.9965 107.7630 106.4190 104.9336 103.4401 102.0259 101.2115 101.3654 102.4029 103.8755 105.3776 106.8214 108.1345 109.3262 110.4036 111.3823 112.2726 113.0933 113.8465 114.5433 115.1960 115.8035 116.3749 116.9102 117.4136 117.8984 118.3584 118.7200
109.4700 115.4577 113.1705 111.4963 110.8019 110.2192 108.3911 108.6195 105.9776 104.8878 118.5424 113.5785 117.4659 121.6884 109.9133 100.3096 112.7356 119.9376 120.0496 119.9568 119.5571 119.1152 118.7267 118.3682 117.8559 114.6137 120.6885 116.0187 115.8763 115.1995 114.5670 113.8910 113.1648 112.3805 111.5418 110.6294 109.6559 108.6131 107.5077 106.3924 105.3160 104.4402 103.9517 104.0350 104.6636 105.6055 106.7097 107.8265 108.9214 109.9513 110.8969 111.7878 112.6148 113.3763 114.0878 114.7583 115.3795 115.9668 116.5180 117.0451 117.5371 117.9770 118.4171 118.7500
115.1200 111.4981 110.4478 110.5985 109.9657 109.1814 107.6830 107.3210 107.5146 104.8698 103.7203 126.6618 106.1889 122.0738 122.3503 122.9799 121.7137 120.8195 120.3982 120.0002 119.6047 119.7587 119.0412 118.1662 120.0397 99.3611 118.3720 116.3329 115.9634 115.4217 114.8219 114.1823 113.5052 112.7828 112.0184 111.2303 110.3629 109.4916 108.5958 107.7242 106.9444 106.3406 106.0309 106.0882 106.4889 107.1568 107.9706 108.8627 109.7436 110.6196 111.4496 112.2516 113.0037 113.7064 114.3741 114.9980 115.5938 116.1564 116.6652 117.1525 117.6400 118.0766 118.6703 118.7800
115.1300 111.6362 110.6638 110.3981 110.9226 111.7472 103.6652 105.2580 105.4356 108.3284 99.8022 119.8673 123.0169 121.3435 120.9465 121.0083 120.8772 120.7399 120.4454 120.1120 119.8655 115.5298 119.5276 118.5693 118.9753 119.8143 112.6175 116.7825 116.1656 115.6799 115.1109 114.5123 113.8863 113.2912 112.5584 111.8312 111.0076 110.2977 109.6550 108.9457 108.3679 107.9421 107.7157 107.7510 108.0381 108.5178 109.1401 109.8412 110.5717 111.3123 112.0446 112.7484 113.4265 114.0764 114.6878 115.2819 115.8324 116.3730 116.8819 117.5589 118.1966 118.4631 113.7132 119.1500
125.2100 112.2447 112.6643 110.8943 116.5775 121.5732 113.6875 108.7964 115.2659 104.3354 105.2512 105.8597 128.6182 123.0433 124.6589 119.2094 121.3708 120.8964 120.5376 120.1600 120.8679 112.3417 119.7916 118.6773 118.0648 118.7473 107.8768 117.9762 116.4810 115.9584 115.3463 114.9508 114.2888 113.1786 113.8621 112.5216 112.0500 111.7067 110.5658 110.0088 109.6352 109.2700 109.1238 109.1507 109.3659 109.7259 110.2068 110.7801 111.3796 112.0036 112.6330 113.2635 113.8709 114.4609 115.0260 115.5806 116.1050 116.6068 117.1388 116.3577 115.7279 118.4797 112.6201 119.1500
125.2100 110.0697 115.6473 113.7277 110.5137 113.7823 107.0296 108.6767 108.5971 106.1043 119.3645 119.3655 107.7233 121.6446 108.1495 118.0810 121.2329 121.0026 120.6475 120.3529 120.1549 120.3057 118.9638 119.4271 118.8210 118.2235 118.2448 117.0225 116.0296 116.8267 116.3760 115.1510 114.8389 114.4815 109.0519 112.9993 111.2334 113.1318 111.4776 111.1291 111.1730 110.4430 110.3371 110.3584 110.5236 110.8112 111.1985 111.6331 112.1387 112.6896 113.2385 113.7914 114.3399 114.8684 115.4047 115.9167 116.3934 116.8543 117.3964 118.6972 125.8210 119.2332 120.1005 119.2000
113.3300 111.7643 111.3702 113.1726 111.7302 112.3853 112.0283 108.5993 104.9474 108.5138 124.5186 115.8273 112.0922 121.1563 110.4299 122.4703 121.2624 121.0788 120.7752 120.4603 120.1557 119.8297 122.5092 115.3871 118.9067 118.0490 117.9015 117.3828 119.1626 106.6133 117.6558 115.7452 114.9816 114.4123 103.1431 113.3646 112.2165 112.8473 112.3316 111.9560 111.6686 111.5059 111.4030 111.4209 111.5532 111.7593 112.0638 112.7147 112.9060 113.3577 113.8295 114.3121 114.8114 115.2574 115.7286 116.1756 116.6999 117.1378 117.5692 117.4513 117.1591 113.3712 119.3945 119.2600
112.9300 113.1671 112.5665 111.8153 111.0760 109.1454 107.8259 105.9144 106.1026 109.6902 113.3461 115.3610 125.2732 122.9727 123.1974 121.7313 121.5584 121.2191 120.9064 120.5802 120.3272 120.0434 121.5459 117.7807 118.8678 118.3618 117.9947 118.7966 101.3599 97.4440 105.6536 114.8756 117.2884 110.5097 108.9959 112.8544 113.9919 113.4850 113.1184 112.8320 112.5970 112.4269 112.3510 112.3636 112.4723 112.6585 113.0735 110.6557 112.2894 114.5066 114.4011 114.8521 115.2496 115.9570 116.4335 116.7558 117.0110 117.4196 117.8647 118.0867 118.6476 116.4580 119.5672 119.6500
115.5600 112.9638 110.9982 110.9150 111.4676 110.9438 109.7832 110.5760 101.9780 101.9731 104.3678 114.2678 122.5907 122.0517 121.9091 121.9799 121.6084 121.3634 121.1274 120.7343 120.4371 120.3482 113.9725 119.2889 118.8486 119.0679 118.3460 118.2783 113.5289 112.0110 113.6349 116.1500 115.0732 98.5691 98.5913 107.8814 114.5267 114.1638 113.8533 113.5997 113.4042 113.2731 113.2097 113.2182 113.3054 113.4456 113.3998 113.2008 110.1156 114.6068 115.0253 115.3482 115.7420 115.7557 113.2763 115.7142 117.3648 117.7100 117.9243 121.2427 119.6666 119.3771 119.4414 119.7200
112.9500 113.5917 112.0818 112.5995 115.8364 112.6407 109.8652 108.4873 102.6136 109.6542 125.5400 123.3154 123.0137 122.4365 122.1537 121.5895 121.6772 121.8479 121.1266 120.8823 120.5996 119.9829 117.0464 121.6473 108.0024 119.8692 118.3714 118.3190 118.2279 117.7828 117.5560 116.8090 117.1097 114.7101 108.7690 110.6530 115.5973 114.7967 114.5355 114.3264 114.1510 114.0430 113.9829 113.9982 114.0653 114.1722 114.3139 115.1161 105.3631 116.3391 115.9497 115.9561 116.1908 116.5679 116.7895 117.1992 117.6694 118.0138 118.4017 118.9253 119.0986 119.4040 119.7348 120.0400
112.7800 111.3216 112.9539 112.0333 114.2485 113.3651 111.4088 104.2502 104.7850 126.9019 112.6836 104.0193 124.9035 122.1429 122.2663 124.0105 105.9279 128.6432 121.5988 121.0696 120.6132 123.0931 106.0258 120.6159 118.2194 119.2387 118.9184 118.5549 118.1796 117.8783 117.5771 117.1076 116.9031 116.4059 116.5792 116.6625 115.5131 115.4065 115.1718 114.9874 114.8388 114.7416 114.7031 114.7060 114.7662 114.8780 115.0790 115.9715 109.2295 96.4320 111.9105 116.7925 116.6360 116.9758 117.2922 117.6584 117.9757 118.3214 118.6634 118.9701 119.2941 119.6324 119.9433 120.1100
111.5000 114.6504 110.0601 114.0353 115.4497 111.1936 109.6048 106.5066 104.1880 105.3768 115.9776 116.4818 122.0200 111.2143 124.9237 102.7341 113.1464 121.6750 121.5287 120.4848 120.5258 120.3812 111.9294 121.4240 120.2177 110.4542 120.0487 118.6805 118.6290 118.2217 117.9024 117.2307 117.0576 117.2800 116.6808 116.3842 116.2046 115.9650 115.7660 115.6069 115.4803 115.4042 115.3640 115.3737 115.4206 115.5228 115.6643 115.6433 115.7192 108.0670 117.6349 116.5821 117.1076 117.3830 117.6846 118.0130 118.3097 118.6254 118.9443 119.2315 119.5497 119.8560 120.1580 120.4200
114.3300 114.8675 110.2073 113.7247 113.5297 111.3994 108.7099 105.1415 103.4775 110.1025 109.6475 115.2934 124.5493 124.0270 119.5026 119.0016 122.8196 118.5315 121.2935 121.6200 121.4071 121.2408 117.5829 119.1576 120.0414 119.8501 119.6948 119.2236 118.5686 118.5201 118.3856 117.5832 118.2618 117.3874 117.1789 116.9343 116.7020 116.5225 116.3417 116.1901 116.0770 116.0053 115.9755 115.9850 116.0216 116.1155 116.2513 116.2507 116.1363 111.3420 116.9019 117.3477 117.5040 117.7758 118.0659 118.3083 118.6393 118.9626 119.2167 119.5198 119.8022 120.0891 120.3716 120.5000
109.9700 110.5449 112.5364 111.9968 111.2830 111.0684 109.0063 104.1303 102.8770 102.6802 112.6663 124.1797 122.9241 122.3977 118.5081 103.4416 124.0958 124.8216 112.3377 117.9438 122.2456 122.0896 93.1523 114.2954 120.6552 119.8876 119.6190 118.5464 116.6999 119.2053 118.5098 118.3204 117.9933 117.8680 117.6582 117.4005 117.2050 116.9142 116.7994 116.7411 116.6533 116.5809 116.5485 116.5567 116.6014 116.6714 116.7841 116.8117 117.0926 117.4565 117.2409 117.6905 117.9264 118.1722 118.4318 118.7021 119.4713 119.0307 119.5270 119.7857 120.0490 120.3304 120.5922 120.8000
111.8300 113.9330 111.6327 111.9193 110.0702 111.1445 105.5636 104.3226 102.8621 104.5988 115.4317 124.4247 123.3298 123.5536 113.9111 109.6564 123.0613 123.1853 103.9290 102.5190 110.9740 99.6968 106.9315 120.5553 120.0024 120.3128 119.8727 119.7107 119.8366 119.2545 118.9914 118.8235 118.4767 118.3007 117.5342 118.2888 116.8221 117.9990 117.4008 117.2537 117.1249 117.0993 117.0991 117.0867 117.1303 117.1891 117.2872 117.4085 117.5470 117.7266 117.9414 118.1065 118.3255 118.5924 118.4011 119.2885 116.6584 121.1502 119.6398 120.0598 120.3262 120.5832 120.8165 121.1700
114.5700 114.5659 112.0655 112.0858 110.1073 106.9485 105.2875 103.7292 104.7167 115.3137 105.5556 123.3990 123.3820 123.2974 121.9601 124.1941 122.2297 122.1409 111.9350 120.1156 101.5177 103.7069 121.4784 124.6290 120.9699 120.5854 120.4739 120.8337 112.9612 120.0407 119.1751 119.1714 118.7448 118.6743 119.4803 121.8274 113.4153 117.4603 117.6440 117.7312 117.8817 117.6208 117.6111 117.5932 117.6317 117.6869 117.7749 117.8775 118.0086 118.1567 118.3182 118.5047 118.7129 118.9295 119.4707 114.6335 98.1398 117.8019 120.0716 120.3400 120.5678 120.7026 121.0613 121.1700
114.3900 114.2725 112.6881 111.6056 104.7763 106.7840 105.1974 117.2171 109.8645 116.8805 113.3951 124.0648 123.3145 123.5793 120.4990 122.6452 122.6305 124.5252 116.2507 115.1691 113.7750 112.7708 119.0864 117.8662 108.5732 120.8183 120.1401 119.8511 104.9449 120.5845 119.5615 119.5605 119.2111 120.0366 107.4681 118.1804 115.9701 120.4167 119.0239 118.2545 115.4367 118.4363 118.0913 118.0770 118.1047 118.1565 118.2303 118.3308 118.4466 118.5804 118.7335 118.9098 119.0842 119.2887 119.4829 120.3399 121.9995 120.2909 120.0690 120.5980 120.6112 123.5787 121.0932 121.5300
110.9200 110.2029 111.5602 112.2530 109.3130 109.8302 120.0806 121.0596 110.3361 104.0062 113.6664 128.2117 125.1567 123.1631 123.6212 123.4573 123.0056 116.6950 108.4191 117.0433 121.5302 123.5092 123.9861 120.9073 127.1153 121.9336 121.2997 109.7034 120.8470 119.5729 119.8475 119.7373 119.6351 122.3595 99.7758 106.3693 100.2379 103.2630 119.0765 118.7553 118.7628 118.5006 118.5409 118.5230 118.5558 118.6030 118.6660 118.7560 118.8672 118.9881 119.1303 119.2820 119.4534 119.6343 119.6941 119.9943 120.1350 120.4193 120.6561 120.8079 121.1184 122.5398 121.7953 121.5800
111.6700 111.2958 107.6708 108.5404 120.5021 119.9268 126.5594 106.0882 100.9672 120.1952 106.7542 106.6383 120.8559 125.5354 124.2207 122.7734 123.6167 121.5575 115.9002 122.5905 125.3859 107.1258 118.1252 113.1486 121.5417 120.9966 121.2348 112.8970 108.5002 122.5821 120.3223 120.0963 120.0123 121.4968 103.1287 103.0095 108.3824 119.1061 119.0491 119.0453 118.9681 118.9889 118.9596 118.9655 118.9872 119.0255 119.0892 119.1700 119.2697 119.3836 119.5114 119.6482 119.8033 119.9712 120.1340 120.3424 120.5066 120.7621 120.8792 121.1527 121.3131 121.5794 121.0921 115.4100
104.1300 112.9072 103.3322 105.2191 125.0266 111.2586 127.1623 122.2237 125.6731 115.2426 107.9040 115.7024 107.5801 109.1930 120.6554 124.0078 110.5848 123.9621 127.0007 111.7669 123.7751 103.9616 105.9742 114.3611 122.4130 121.5549 121.2137 122.7529 113.0885 119.0714 120.5224 120.4343 120.3075 120.8515 112.2638 122.0271 120.1136 119.6008 119.5519 119.4784 119.4164 119.3837 119.3708 119.3674 119.3961 119.4333 119.4913 119.5656 119.6514 119.7576 119.8743 120.0063 120.1476 120.3023 120.4616 120.6308 120.7638 120.4699 111.4582 121.8411 121.5583 121.5548 121.9631 104.1000
104.1600 102.9687 110.1792 112.1652 127.0223 122.6748 125.0802 110.0280 110.4579 105.9427 101.8806 107.1111 102.4774 122.5404 123.4922 123.1322 122.4062 109.1539 101.6847 121.1187 99.5400 105.2765 109.6437 124.2865 121.5795 122.1311 123.3174 110.8645 121.6261 120.7942 120.9177 120.7139 120.5828 120.3556 121.3172 119.8683 120.3934 119.5566 118.7378 120.0663 119.7088 119.7887 119.7740 119.7881 119.7809 119.8198 119.8706 119.9400 120.0159 120.1185 120.2229 120.3412 120.4836 120.6216 120.7708 120.9386 121.0371 121.8116 116.4637 120.9131 120.9216 124.9887 106.7693 120.3200
126.3100 126.6508 125.9254 125.9235 125.6635 125.4732 126.6804 114.4347 108.4635 128.4505 113.2194 105.5240 105.4427 130.1156 123.3265 123.7814 123.6617 122.9795 123.9935 115.1973 94.3424 121.3220 107.2430 121.3860 122.1564 122.1395 101.5055 97.9138 121.6926 121.2263 121.1931 121.0225 120.8995 120.7976 120.5087 120.3816 121.3299 103.0982 118.1098 119.5897 119.9813 120.1945 120.6627 117.1057 120.4451 120.1355 120.2302 120.3031 120.3773 120.4606 120.5630 120.6733 120.7996 120.9345 121.0696 121.2250 121.3202 121.8352 121.3341 122.2938 122.5465 117.1415 103.6689 113.7100
120.4700 124.6000 126.0584 125.8299 125.7716 125.6614 125.5505 126.4959 125.4514 124.8633 119.8268 110.6596 111.2154 119.7891 123.6354 125.0974 121.4889 122.8919 123.0393 124.9298 103.9549 123.7249 122.6260 122.2648 122.2491 123.8530 120.9104 113.7169 122.3144 121.6687 121.3912 121.3712 121.1935 121.0703 120.9767 120.6787 122.5049 104.1767 95.9981 119.8242 120.1199 120.5714 121.7530 107.4541 121.9553 120.2417 120.5872 120.6442 120.7142 120.8000 120.8947 120.9947 121.1099 121.2319 121.3701 121.4991 121.6494 121.8257 121.9424 122.0383 122.3205 118.4038 115.5362 104.0700
126.5000 126.8745 126.2229 126.1056 125.8909 125.7416 123.4547 125.3404 125.1591 121.4736 104.8110 108.5999 127.0880 123.8216 112.3249 103.9072 115.0239 116.3238 123.8421 123.4371 123.7070 124.1153 122.9593 122.7160 123.0029 116.4321 121.6144 124.5015 122.2763 121.0442 121.9560 121.5288 121.4886 121.3716 121.2690 121.2223 121.6804 121.2641 104.6475 121.8165 120.7277 120.8776 120.7780 121.7189 121.6809 120.7651 120.9230 120.9881 121.0512 121.1255 121.2080 121.3083 121.4179 121.5269 121.6517 121.7795 121.9208 122.0794 122.1872 122.3854 122.1327 122.6531 104.6023 118.6200
126.5400 125.8784 126.3679 126.1892 125.9019 126.5039 117.5644 126.5775 124.1231 106.3059 121.1233 128.3310 114.8449 105.4446 101.3566 110.1973 106.2443 120.7126 122.9591 123.5219 123.4629 123.1720 123.0910 123.0097 122.8596 120.6009 119.6473 114.8555 101.5351 113.0998 122.1254 121.7476 121.8099 121.6677 121.5839 121.5326 120.9852 118.2117 108.8866 121.3589 121.3130 121.2021 121.2085 120.9532 120.9272 121.1504 121.2554 121.3086 121.3687 121.4406 121.5128 121.6087 121.7036 121.8104 121.9315 122.0577 122.1689 122.2957 122.3516 123.0704 119.8184 109.3140 105.5214 106.8700
136.2900 124.8200 126.3600 126.2300 126.1100 125.9900 125.7500 125.6200 106.8600 110.1200 125.1200 124.9800 124.8700 124.7200 102.5800 124.4500 124.3200 124.8500 123.9100 123.7400 123.5900 123.4600 123.2900 123.1700 122.9900 122.7800 122.6600 124.5500 113.8000 113.7400 122.2300 120.2200 122.0700 121.8900 121.7000 121.7500 121.5400 121.5700 121.6000 121.3600 121.3900 121.4000 121.4000 121.4000 121.3900 121.3700 121.3500 121.5900 121.5600 121.5300 121.7300 121.9300 121.8800 122.0500 122.0500 122.2100 122.3600 122.5200 122.7100 122.7100 103.2800 123.4500 107.1800 107.3200
