114.8400 104.4800 115.7500 116.0200 115.9000 115.5300 115.9300 114.5400 113.9100 113.2300 112.1200 99.1900 98.9400 98.7200 98.5100 111.0900 111.0900 107.2100 116.1700 116.2900 107.4200 108.2900 105.9900 105.9900 105.2900 103.5200 101.5100 106.6400 105.0800 98.7400 95.4100 95.6100 116.9600 116.9600 97.2000 116.9000 117.3000 117.2400 117.5800 117.5000 117.7900 117.7900 118.3900 118.3900 118.6100 118.8500 119.1200 119.4100 119.5900 120.1200 120.1200 120.5200 120.7500 120.9900 121.1600 121.3600 114.9800 121.9700 117.8100 101.5400 111.9600 113.0100 123.0500 123.2200
114.8400 118.4125 116.8432 115.9515 115.5556 115.3875 114.9876 114.6600 113.8550 113.4900 114.0154 116.6752 108.1829 105.4260 108.5367 111.3623 106.6097 108.0523 108.4644 115.2863 107.1947 108.0135 110.4651 106.0542 107.6659 112.5958 100.7115 106.5974 102.2925 101.5830 96.7388 100.3142 98.3893 96.1569 92.0900 116.5203 118.6747 99.4598 109.1827 115.2505 105.2907 117.5152 116.6023 118.2147 118.4264 118.9125 116.5403 116.9339 119.8431 119.7471 120.0353 120.3079 120.7379 121.6285 123.6670 102.5030 119.7781 116.8775 98.3435 109.4283 111.3033 120.1563 124.5531 123.1700
115.5500 116.9010 116.6698 116.6999 115.4875 115.2649 114.9122 114.7929 114.4218 114.1403 108.0977 110.0578 112.3848 109.1587 109.3323 109.1434 107.0452 107.6581 105.5153 112.7067 111.9421 108.1652 110.1327 110.6250 107.0456 103.2842 97.6691 107.1842 109.8800 110.3606 98.2953 95.4424 114.7375 112.5725 108.3665 116.9580 118.7583 96.6050 120.0277 116.2109 117.5327 117.3690 117.4256 117.7999 118.0491 118.3348 118.2096 115.7917 119.2988 119.4837 119.7989 120.0333 120.4644 114.6790 106.9173 115.1735 113.4623 109.2443 108.5940 112.7388 109.6271 116.2268 119.0507 116.6200
123.4100 120.8886 118.6549 115.9933 115.6919 116.0400 115.1077 113.9230 113.8766 114.6807 109.6186 113.9621 109.8491 111.8941 110.2339 107.6082 108.3268 109.2549 111.7111 108.0912 110.4717 104.2139 113.6376 110.2037 103.7935 109.3357 101.7056 108.3240 107.6206 103.9719 101.5400 102.6831 104.7870 105.7824 112.8248 115.2343 113.1496 112.7520 118.2031 98.7436 116.8012 116.7036 118.1826 117.4620 117.6336 117.8139 118.8968 120.4228 118.5296 119.3068 119.5356 119.5511 120.1970 116.4950 114.6988 103.0124 103.6989 107.2554 110.1798 107.0767 109.8115 109.2743 111.0609 116.6200
123.3800 121.3080 120.8062 119.0851 117.9981 115.3958 114.9420 113.4529 113.8040 114.2893 115.4657 104.1952 96.5734 102.7649 114.6242 108.8144 108.7435 107.2695 105.5017 103.2760 108.1493 108.3559 107.7117 103.8305 109.9908 102.0726 95.9857 111.0168 104.0988 99.6544 114.4764 102.2434 115.5239 114.5364 114.5006 114.5474 114.8688 115.9251 117.0264 111.6397 117.5995 116.3941 114.0512 116.2603 117.2805 118.2010 111.2437 110.7977 119.1093 118.9689 119.2564 120.4023 119.7547 122.9446 119.7603 104.3141 110.0445 102.6871 114.2403 115.9170 111.2176 116.5663 120.7781 122.8600
123.1600 124.2376 118.5252 118.2959 109.7341 121.5563 117.6646 115.2000 113.8401 115.1476 113.2872 113.6916 113.5422 99.0271 110.6079 108.3770 107.1223 105.5619 103.9322 107.6191 105.4766 108.9418 107.5556 105.6872 105.7192 104.9017 100.2140 100.1960 97.6199 115.6157 117.4876 108.0618 114.4745 113.9707 115.0667 115.9119 114.3350 114.6696 115.8473 98.5002 116.6182 115.5886 116.2030 116.4939 116.9822 116.7763 118.2178 116.8191 118.2924 118.7473 118.6535 119.0248 97.5811 99.7828 101.6817 104.0646 104.0794 109.3868 111.5601 109.0511 109.6742 123.6649 122.7873 122.8100
123.1300 124.0723 114.0023 118.9570 115.0011 114.8985 112.5461 112.1572 113.5836 113.1583 112.8524 115.3875 110.5307 106.8697 105.2905 108.0047 103.1653 102.8510 103.3875 104.4036 99.1564 106.1156 105.1381 104.7123 102.2098 102.5693 98.0782 104.9654 87.9472 95.7146 112.9696 113.1647 113.4962 114.8121 95.0498 113.8548 113.5909 113.8065 114.4640 114.9747 114.4632 115.4282 115.6982 116.1264 116.5096 116.8912 117.3900 117.6528 118.0567 118.3966 118.6199 121.6706 99.5713 100.4560 103.8141 114.8309 114.6615 102.0595 115.8727 110.9973 122.5198 122.2776 121.4116 121.0200
123.0900 122.8907 122.3397 121.5930 113.5293 114.0372 112.8170 107.0576 108.5012 111.9748 111.3084 98.0742 107.4523 106.5863 106.8575 104.4166 102.4924 101.9125 104.6812 102.4190 107.8204 108.8995 104.3243 106.3327 105.1262 98.3688 103.5455 100.3375 111.8647 117.0107 107.0097 110.9858 112.5271 113.0693 112.8051 112.9911 112.7828 113.4609 112.5614 114.1027 114.4253 114.8224 115.2604 115.6839 116.0101 116.5803 116.9803 117.3906 117.7021 118.8047 113.9754 95.6396 96.3588 105.5424 108.4830 109.7879 109.6618 101.5489 118.8537 121.8233 121.4627 122.9448 113.9369 122.5500
123.0600 123.0262 117.9282 115.6153 115.4187 114.9533 114.0471 113.6077 117.7644 108.7044 115.9395 97.0728 97.9945 98.0926 110.6963 108.5137 104.6675 103.2460 102.3826 102.1558 108.2111 103.0307 102.4203 104.9311 100.5557 116.2237 105.8446 94.5032 118.2482 103.7860 111.5156 112.4150 111.5708 111.3718 111.4070 111.8214 112.1830 112.5907 113.5845 113.1388 113.8720 114.3145 114.7771 115.2728 115.7364 116.2043 116.6544 117.1452 117.4704 117.7658 116.5027 104.4059 98.8895 103.3067 101.3339 103.7245 111.3989 111.3044 122.3962 121.3423 121.8175 121.6473 126.6489 101.1800
123.0300 122.7738 123.0240 121.8021 120.5656 120.9812 113.0186 114.1321 115.8206 115.6012 112.7681 97.8724 96.7801 100.6367 104.3425 107.7037 107.1635 105.2949 106.3370 102.2551 98.2020 101.0316 97.3207 100.2065 105.9417 106.9541 109.0628 116.3457 109.1074 112.1309 111.5031 110.6815 110.4147 110.5395 110.6524 110.8595 111.6064 101.7532 97.3483 107.3070 114.4677 113.6646 114.3177 114.8328 115.3488 115.8569 116.3565 116.7693 117.1328 115.0023 120.2919 102.5719 105.6770 100.1988 105.9014 111.5772 103.2147 119.5519 120.7013 121.3986 121.6071 121.8627 118.7532 127.0100
122.8200 122.7604 122.3912 117.3686 115.2589 112.3056 114.2474 114.7274 114.6800 113.7128 111.4621 101.4866 99.4309 101.7938 105.1609 101.8165 105.8119 102.3696 103.9883 104.6526 101.1826 100.5588 101.0996 96.2099 104.7793 116.1465 102.0189 109.1782 110.6881 110.3014 109.6843 109.5831 109.2997 109.2799 109.4508 109.7687 111.8340 97.6364 112.6971 105.2508 112.2349 113.1830 113.8339 114.4179 114.9840 115.5275 116.0748 116.3956 117.2333 108.7296 124.8937 109.2563 106.7321 109.4719 103.9838 108.2527 101.6870 122.4279 120.8718 121.2197 121.4919 121.4502 119.7056 121.0600
122.8000 122.5884 122.4421 119.6098 122.9529 116.6962 117.4691 113.3176 112.8938 107.6696 109.1330 111.9356 110.8200 105.8736 106.3854 104.7446 105.7768 103.1545 107.5564 101.9216 99.0694 103.0290 109.3054 97.4960 98.6694 116.4725 111.3215 111.4607 109.8461 109.1865 108.6057 108.1278 107.9005 107.9154 108.1473 108.4831 109.1173 111.1573 109.8948 111.4450 112.6226 112.6712 113.3706 114.0223 114.6384 115.2239 115.7717 116.2445 117.3220 117.7581 112.1922 103.9544 114.0680 118.9977 101.3098 111.5078 109.2415 120.6252 120.6951 121.1738 121.4255 121.9875 122.5395 116.2600
122.7500 123.0460 122.3016 122.3978 121.9309 121.6074 121.7858 116.9009 119.2094 114.4995 113.5458 104.5187 108.5268 109.3533 114.9319 105.0208 105.9690 95.9231 101.4485 93.2182 106.0759 99.2304 107.2463 107.1424 102.0346 104.3765 109.8758 109.6138 108.8370 107.9923 107.2156 106.6192 106.2715 106.2698 106.5928 107.2268 107.7659 109.2610 110.3014 110.5925 111.3799 112.1787 112.9122 113.6112 114.2995 114.9354 115.5223 116.1082 116.4412 119.6395 118.4877 120.3574 113.0694 106.9102 109.3174 103.5888 104.2784 120.8270 120.5567 121.1152 121.4218 121.5665 122.5736 126.3000
122.7400 119.3468 122.3735 121.8912 121.5958 121.2729 120.8421 121.0167 120.6993 120.5362 120.7824 124.2475 115.4424 114.4978 117.8258 109.2350 98.5526 93.1947 104.2205 104.5336 109.8633 109.2717 110.6282 118.2455 114.4877 106.2252 110.3355 108.7446 107.8326 106.6964 105.6484 104.7752 104.2611 104.2538 104.7744 105.6261 106.6642 106.8639 106.5909 109.6383 110.8195 111.7072 112.5760 113.3994 114.0629 114.6736 115.3016 115.8897 116.4812 116.6163 116.6353 118.7932 107.1699 115.6259 96.1471 98.3878 103.7042 117.1958 120.6051 121.0772 121.3539 121.4097 125.7897 127.3200
122.7200 120.5020 122.3574 121.9370 121.6311 121.3177 121.0160 120.5945 120.2065 119.7517 118.4290 117.0443 119.5995 118.9753 118.1371 115.9673 112.7163 110.5034 91.3325 109.3937 100.2427 93.7803 107.7805 115.0645 110.7645 111.4888 105.8772 108.3919 106.6540 105.3242 103.8787 102.5026 101.6371 101.6208 102.4866 103.8662 105.2952 107.0027 109.9558 109.2182 110.2907 111.2848 112.1714 112.7952 113.8050 114.4457 115.1220 115.7121 116.2185 116.9489 121.9467 118.1339 115.7724 119.4759 115.3257 110.9976 100.8597 121.4499 120.6023 120.9384 121.3604 122.7123 110.9988 105.1600
122.7100 122.7077 122.3126 121.8940 121.5841 121.2682 120.9152 120.5780 120.2746 119.8849 119.3077 119.2056 113.6678 118.6773 117.6717 121.6348 116.1244 108.7545 100.7616 110.4967 112.1509 110.2144 101.2325 113.7072 110.3664 109.8947 107.8057 107.3660 105.7107 103.9286 101.8409 99.7260 97.9184 97.8944 99.6928 101.8021 103.8949 105.6510 107.2301 108.6503 109.8484 111.0753 111.7845 117.3380 113.3483 114.2618 114.9748 115.5644 118.3448 117.0325 101.0652 119.0852 106.3089 108.2991 122.3310 118.9809 119.6652 119.7665 120.5928 120.9547 121.2010 121.0761 127.4014 109.2500
122.7000 122.4360 122.1503 121.8665 121.5647 121.2511 120.7991 121.2139 120.1328 119.8590 119.5228 119.9632 108.8587 115.0987 117.1811 121.8620 104.3422 99.9789 114.8996 116.6970 114.3693 113.8489 112.8805 111.6938 110.5402 109.5524 108.3236 106.7735 104.9153 102.6846 99.7985 95.8952 91.5392 91.4720 95.8314 99.7501 102.6480 104.8947 106.7149 108.2197 109.5327 110.7059 111.7030 112.6569 113.4444 114.1757 114.8079 115.4644 116.4786 117.1575 97.8828 100.5973 120.8637 107.1740 106.3650 105.7107 120.7437 120.0823 120.5788 120.9359 121.2312 121.4212 122.6119 125.4700
122.7000 122.4447 122.1543 121.8623 121.5527 121.2398 120.8182 121.0827 120.1575 119.8409 119.8150 111.1698 106.3748 108.5437 119.0600 107.7796 102.4881 104.7526 97.8524 123.4427 115.2558 113.2843 112.4587 111.5765 110.5136 109.3606 108.0002 106.3839 104.3979 101.8417 98.2908 91.6534 86.2603 86.2383 91.5003 98.2300 101.7895 104.3572 106.3524 107.9730 109.3434 110.5341 111.5842 112.5270 113.3172 114.0623 115.9156 115.5061 106.7908 116.2952 104.5922 107.3011 105.6817 120.6481 111.3027 108.9643 108.0563 115.1855 120.6304 120.9551 121.2107 121.5362 121.7661 122.1100
122.7000 122.4378 122.1561 121.8527 121.5482 121.2349 120.9664 119.7585 118.2604 119.8504 118.7481 125.1082 101.4331 110.6627 104.8404 112.0350 102.6362 104.7856 108.0812 122.6684 115.1574 113.2202 112.5100 111.5824 110.5198 109.3346 107.9564 106.3218 104.3104 101.6900 97.9998 90.8267 84.9176 84.8472 90.6703 97.9326 101.6420 104.2767 106.2962 107.9335 109.3172 110.4986 111.5371 112.4721 113.3155 114.0828 115.4957 115.3417 109.3141 115.8207 105.1665 108.3230 106.7878 120.9514 112.2402 110.2448 109.5108 115.1828 120.6297 120.9519 121.2167 121.5243 121.8630 122.1100
122.7000 122.4441 122.1614 121.8622 121.5328 121.1372 123.7041 119.8167 119.0161 119.8515 118.6142 118.9184 108.2280 116.1293 112.1698 103.5626 105.1779 119.0957 116.9006 113.9338 114.2050 113.4047 112.5545 111.6371 110.6175 109.4642 108.1333 106.5685 104.6893 102.3204 99.1552 94.2593 89.2612 89.2101 94.0522 99.0975 102.2735 104.6539 106.5435 108.1148 109.4477 110.6061 111.6316 112.5501 113.3828 114.1375 114.7902 115.3542 118.1033 116.8671 117.6088 118.6069 116.9383 116.1904 119.3161 120.2653 120.7569 120.7575 120.5140 120.9407 121.2338 121.5978 121.9203 122.1100
122.7000 122.4692 122.1790 121.8893 121.5635 121.2640 120.7482 120.7529 120.1976 119.7443 121.9929 109.8523 108.5249 107.0049 109.9607 112.7594 106.1851 114.6963 123.8160 112.3999 114.3062 113.5320 112.7028 111.8264 110.8394 109.7384 108.5013 107.0758 105.4158 103.4533 101.0472 98.5807 95.7254 95.8857 98.4556 101.0413 103.4331 105.3856 107.0496 108.4804 109.7255 110.8243 111.8029 112.6958 113.5015 114.2433 114.8916 115.5027 118.7184 116.6988 117.3316 116.6288 120.9606 108.5324 119.3964 119.1605 119.5423 120.0575 120.5623 120.9456 121.2510 121.3824 121.4312 122.1100
122.7100 122.4784 122.1889 121.9063 121.5987 121.3119 121.0009 120.8592 121.3722 118.8634 126.7547 114.6058 109.0744 108.2196 121.7143 111.0880 102.7763 108.5581 118.6952 115.8297 114.4334 113.6933 112.9180 112.0793 111.1601 110.1462 109.0210 107.7646 106.3607 104.8155 103.1461 101.5359 100.4982 100.4379 101.5129 103.1359 104.7935 106.3472 107.7521 108.9995 110.1275 111.1418 112.0636 112.9126 113.6866 114.3953 115.0668 115.6722 115.8792 116.3994 117.3862 118.2997 117.9360 120.2911 119.6153 119.5657 119.9858 120.3205 120.6473 120.9639 121.3055 121.4396 124.4842 122.1200
122.7200 122.5847 122.3084 121.9777 121.6451 121.3567 121.0516 119.0456 115.5483 108.6361 114.5318 120.4490 113.4157 110.7231 121.2431 98.8742 110.8381 111.1605 112.8821 113.4942 114.6631 113.9132 113.1957 112.4067 111.5578 110.6430 109.6389 108.5648 107.4088 106.2066 105.0341 104.0026 103.3681 103.3667 103.9871 105.0110 106.1928 107.3966 108.5412 109.6213 110.6257 111.5436 112.4020 113.1851 113.9221 114.6001 115.2384 115.8273 116.4797 117.0047 117.4296 117.8484 118.3512 118.4094 118.9723 119.5731 119.9409 120.3147 120.6635 121.0138 121.3200 121.5400 125.5281 125.4700
122.7400 122.4581 122.0547 121.8984 121.7407 121.3625 121.0336 117.3736 110.7609 109.1959 108.3528 113.5835 113.0028 106.5413 106.7657 98.0079 100.2955 114.4527 111.6121 122.8402 114.4681 114.1934 113.5287 112.7919 112.0177 111.1930 110.3146 109.4092 108.4608 107.5418 106.6663 105.9723 105.5841 105.5738 105.9637 106.6515 107.4902 108.4432 109.3923 110.3166 111.1817 112.0056 112.7837 113.5073 114.1975 114.8408 115.4476 116.0201 116.5373 117.0994 117.6066 117.9231 118.3166 118.9499 119.3194 119.6751 120.0446 120.4017 120.7428 121.0720 121.3868 121.7244 121.5486 122.1600
128.2600 123.4787 124.1613 122.6235 121.7548 121.4498 121.8656 120.6506 109.8976 109.7562 112.4345 108.7189 111.1992 105.5961 104.7746 99.8112 101.3050 106.6872 115.5542 117.8469 115.0953 114.5069 113.8880 113.2223 112.5210 111.7865 111.0284 110.2486 109.4899 108.7604 108.1026 107.6127 107.3357 107.3367 107.6041 108.0939 108.7598 109.4192 110.2799 110.9679 111.6897 112.5167 113.2059 113.8812 114.5157 115.1162 115.6889 116.2267 116.7219 117.2591 117.4826 118.8201 119.2727 118.9718 119.3698 119.7614 120.1258 120.4808 120.8155 121.1349 121.4663 121.7800 122.1389 122.1800
122.7800 124.3423 107.9675 125.6917 121.2590 121.0031 113.4508 113.9199 112.3280 110.1567 110.5809 111.5638 109.9177 96.9021 113.8471 94.2352 99.0946 113.8606 116.5222 116.1211 115.4790 114.8707 114.2733 113.6743 113.0397 112.3969 111.7393 111.0848 110.4564 109.8726 109.3728 109.0026 108.7977 108.8014 108.9983 109.3670 109.8558 110.5719 110.8321 111.6163 112.5886 113.0242 113.6665 114.2733 114.8585 115.4172 115.9579 116.4590 117.0409 117.0695 121.8625 117.1906 114.8445 119.1696 119.5548 119.8729 120.2289 120.5721 120.9047 121.2115 121.5536 121.7721 122.0636 122.4000
122.9900 123.0095 119.7466 121.2551 117.3150 110.8177 112.6866 110.9967 110.0124 113.2904 109.6427 109.0107 115.5696 107.9709 98.2514 94.8241 116.5489 108.7118 116.4911 116.1982 115.7485 115.2289 114.6940 114.1439 113.5793 113.0085 112.4371 111.8822 111.3572 110.8912 110.4897 110.2067 110.0601 110.0544 110.2041 110.4891 110.8787 111.3073 112.3166 117.7694 112.4910 113.6374 114.1274 114.6814 115.2165 115.7612 116.2095 116.6834 116.7429 117.9346 118.9677 118.0433 118.3704 119.2590 119.6493 119.9933 120.3420 120.6787 120.9908 121.2934 121.6010 123.0163 122.4278 122.4200
123.0100 122.9341 122.3660 122.7346 114.0638 113.0027 112.0890 113.1283 112.7938 107.0883 108.1720 110.8307 111.6894 110.7395 100.7175 100.3768 103.8667 120.5773 119.6341 116.3879 116.0802 115.6094 115.1177 114.6146 114.1127 113.6109 113.1177 112.6416 112.2063 111.8131 111.4987 111.2707 111.1521 111.1500 111.2677 111.4975 111.8103 112.1957 112.5515 113.1151 113.6059 114.0943 114.6096 115.1162 115.5881 116.0908 116.7781 116.9166 116.9134 121.1078 109.5275 105.1260 120.2769 119.1303 119.7981 120.1330 120.4752 120.7880 121.1017 121.4085 121.7198 121.9457 122.2523 122.4500
123.0400 122.8814 122.4005 124.0732 111.8304 118.2193 113.7195 118.3001 109.6285 109.9919 110.7373 107.1111 122.8619 106.4609 104.2998 106.3839 103.9394 115.6471 115.9613 117.1297 116.3638 115.9993 115.5419 115.0959 114.6456 114.1958 113.7629 113.3485 112.9840 112.6665 112.4016 112.2198 112.1312 112.1263 112.2191 112.4065 112.6615 112.9776 113.3394 113.7694 114.1994 114.6298 115.0845 115.5083 116.0768 116.1433 118.0270 107.4372 118.4841 117.3217 105.4045 120.1978 120.9683 119.5775 119.9188 120.2757 120.5851 120.7356 121.2499 121.7004 121.7790 122.0750 122.4030 122.4800
123.0700 122.9462 122.7435 122.8130 122.3817 122.7623 115.0037 118.7632 118.4306 117.6310 115.2815 107.9325 104.3895 119.8169 103.0571 98.7389 103.5427 101.0418 112.6079 115.9477 116.7859 116.3850 115.9708 115.5729 115.1628 114.7745 114.3762 114.0775 113.7310 113.4277 113.2376 113.0835 113.0052 113.0009 113.0814 113.2321 113.4416 113.7138 114.0354 114.3876 114.7635 115.1547 115.5826 115.9090 116.4934 116.5213 116.6252 102.2921 115.4606 116.7381 119.1827 120.9174 101.3485 120.7648 119.9609 120.4422 120.7291 121.6589 120.7141 118.7790 122.0159 122.4938 122.1981 122.5200
123.2800 123.0624 122.8507 122.5110 121.7823 119.3759 112.9183 118.2545 112.7273 108.4377 106.3186 105.5884 109.5029 116.9906 100.5196 105.9287 111.3805 103.5745 112.1074 114.2208 117.5515 116.7391 116.4005 116.0316 115.6311 115.3642 115.0812 114.4335 114.3731 114.2846 113.9892 113.8613 113.7987 113.7961 113.8615 113.9878 114.1724 114.4067 114.6766 114.9773 115.3185 115.6435 115.9111 116.8228 110.6209 109.4395 121.4602 107.4113 108.1630 102.7128 116.9232 119.3605 120.2519 123.0530 120.3262 120.6544 120.7163 125.0626 122.0237 108.7609 122.9099 117.7558 124.4002 122.7400
123.3100 123.1709 122.9396 122.5932 122.3310 110.0923 120.0937 118.3443 117.6464 107.1260 111.5353 111.1651 110.6081 105.5335 102.9945 120.0908 119.1718 118.4985 119.2163 117.9604 117.4160 117.1644 116.8225 116.4880 116.4441 115.8165 115.3631 117.6093 115.0733 114.8987 114.6874 114.5842 114.5271 114.5270 114.5797 114.6888 114.8454 115.0421 115.2811 115.5584 115.8033 116.4995 116.4304 117.3899 104.1463 109.7948 109.1586 116.6257 118.2894 108.7637 106.5601 113.0882 120.5567 119.5826 120.2872 120.7610 121.0653 120.9985 122.1413 124.2071 122.5339 110.4610 123.7678 122.7800
123.3500 123.2733 123.0927 122.5213 122.3709 112.5272 112.5406 113.6299 116.6711 116.9802 111.4260 108.6893 101.4249 104.2595 102.6683 119.4757 117.6361 119.5023 118.1999 118.1676 117.9486 117.5467 117.2480 116.8872 117.9381 116.7180 115.7485 118.5797 115.4629 115.5224 115.3426 115.2452 115.1996 115.1973 115.2483 115.3367 115.4757 115.6446 115.8559 116.0899 116.4186 116.2074 118.7537 117.8355 110.2249 119.5511 118.8230 109.1700 120.6662 120.0312 113.7954 113.4178 118.9417 120.9990 120.5929 120.9410 121.2363 121.5405 121.7392 121.9290 122.0397 120.6692 117.5317 123.0400
123.5900 123.3845 123.0848 123.8241 114.7801 112.1585 113.2972 115.5027 120.6678 108.0951 107.6370 101.4177 106.6679 111.0500 112.7798 120.6630 113.5364 116.4561 119.1891 118.4655 118.2187 117.9138 117.6500 117.1241 117.1978 117.1149 116.6313 116.0222 116.2390 116.0965 115.9529 115.8655 115.8219 115.8284 115.8686 115.9502 116.0643 116.2133 116.3826 116.6494 117.0118 116.5760 120.6625 117.4508 118.0218 118.4601 120.7233 112.0788 108.6564 120.3695 120.6440 118.4271 116.9129 116.6789 120.9534 121.1250 121.3761 121.6650 121.9260 122.1862 123.3697 116.4038 124.0464 123.0400
123.6300 123.4089 123.6772 122.7323 111.9496 111.7547 111.4984 113.0040 114.4084 117.9706 112.4556 111.1527 102.8805 101.8766 118.6789 107.1817 105.5462 111.8148 119.2542 118.7840 118.5742 118.3001 118.0435 117.6776 117.5312 117.3034 117.1233 117.1000 116.8101 116.5317 116.5039 116.4432 116.4078 116.4067 116.4463 116.5134 116.6212 116.7555 116.9053 117.0598 117.1792 120.8913 111.8239 111.6917 118.6581 119.2946 107.6243 115.2419 97.7502 116.2423 112.4126 120.4654 120.3000 119.4273 121.1069 121.3142 121.5584 121.8151 122.0577 122.2989 122.6976 120.6081 123.5102 123.3000
123.8400 123.7155 119.6077 118.9321 115.6269 111.3930 111.4182 111.3500 111.4769 110.1695 107.4576 109.3029 98.4155 115.9879 121.0572 95.4808 119.8110 118.3591 119.7462 119.1462 118.9187 118.6650 118.4246 118.1820 117.9652 117.8657 117.3982 116.4388 116.9258 117.4215 117.0476 116.9845 116.9572 116.9556 116.9877 117.0520 117.1374 117.2599 117.3957 117.5677 120.4593 101.6495 108.6838 121.0287 118.6281 119.3738 110.5716 115.3342 114.8112 123.2560 114.0076 121.0199 121.0607 121.2991 121.1548 121.4891 121.7406 121.9907 122.2269 122.4671 122.7290 123.1860 123.2406 123.3400
123.8900 124.8888 116.3310 119.3962 114.7883 112.6575 111.8431 111.2487 110.6035 109.9546 105.8551 102.8829 98.3168 103.9627 121.8153 116.2805 122.0290 115.1178 117.9720 119.5889 119.2148 119.0247 118.8018 118.5873 118.3605 118.2602 119.1419 128.8084 118.5956 117.8973 117.5457 117.4973 117.4710 117.4698 117.4959 117.5505 117.6323 117.7462 117.8531 118.0767 118.8927 115.0651 109.5177 112.1483 116.5079 117.6210 123.8689 120.9938 119.7639 120.2642 119.6845 120.7199 120.9360 121.1759 121.4479 121.6803 121.9192 122.1618 122.3909 122.6092 122.8851 122.9583 123.1188 123.3800
116.1200 116.0654 118.0695 114.2146 113.3822 112.4831 116.6352 119.2273 108.8083 107.6176 102.1699 120.2750 110.1008 108.7039 123.6351 120.3739 121.1133 120.0112 120.2189 119.8278 119.5762 119.3897 119.1591 118.9711 118.7354 119.1928 113.0082 120.6016 116.9868 118.6604 118.0124 117.9794 117.9503 117.9587 117.9821 118.0270 118.1059 118.2006 118.3096 118.4609 118.6627 120.1320 107.1858 100.4013 127.0046 109.4795 103.5117 120.2268 120.2638 120.5287 120.6946 120.8996 121.1889 121.4143 121.6427 121.8734 122.1066 122.3359 122.5664 122.7886 122.6894 126.5956 123.5484 123.6000
124.1300 124.0421 115.4814 120.0788 120.1458 117.6793 111.6461 118.9166 107.3524 105.2568 109.1651 117.2437 123.5661 120.6742 121.2150 121.0540 120.7078 120.6321 120.3402 119.9943 119.8605 119.7100 119.5117 119.3295 119.1514 118.9794 116.9609 117.2124 118.7308 118.5598 118.4959 118.4352 118.4160 118.4144 118.4360 118.4800 118.5443 118.6398 118.7417 118.8696 119.1312 118.4258 117.8191 106.2478 100.8040 102.8264 100.8502 120.3406 120.3359 120.7685 120.9634 121.1863 121.4095 121.6319 121.8517 122.0692 122.2975 122.5138 122.7273 122.9299 123.1852 123.3342 123.4928 123.6500
124.1700 119.5907 118.0909 117.8785 117.3037 114.5915 114.7982 106.0985 108.6610 111.2656 111.2965 108.3192 116.8755 121.7281 121.0867 121.2244 121.1587 119.8333 120.9950 121.0644 121.1225 120.0434 119.8617 119.6996 119.5138 119.4625 119.1711 119.2288 119.0430 118.9752 118.8996 118.8686 118.8480 118.8456 118.8715 118.9129 118.9739 119.0456 119.1450 119.2785 119.3002 120.8196 120.8226 119.9141 116.6490 101.9953 99.3450 122.9564 120.7404 120.9844 121.2170 121.4211 121.6377 121.8441 122.0611 122.2686 122.4807 122.6905 122.9015 123.0985 123.3334 123.4966 123.7093 123.8600
124.3700 124.9749 115.7378 115.3766 101.8990 112.9117 109.6883 108.4156 110.8281 109.4120 124.0119 106.2143 113.0504 122.7120 121.5628 121.4377 121.7015 121.4331 117.2204 116.4808 120.7957 120.3343 120.1210 120.0208 119.9232 119.7722 119.6799 119.5401 119.3640 119.3649 119.3551 119.2792 119.2662 119.2762 119.2865 119.3118 119.3806 119.4831 119.6052 119.7223 119.3985 122.2124 119.4163 112.6613 117.7499 107.3366 122.1304 121.5904 121.0084 121.2617 121.4708 121.6635 121.8618 122.0658 122.2612 122.4638 122.6640 122.8708 123.0808 123.2662 123.4563 123.6562 123.8949 123.9200
124.4200 119.6033 120.0949 113.7649 113.1297 108.2416 109.5645 117.1186 111.3197 105.4328 97.7831 109.5510 121.4055 122.5114 121.8202 121.7135 121.4965 121.2425 122.0132 120.7155 120.8412 120.4647 120.7374 120.5270 120.0679 120.1253 120.0071 119.8670 120.5238 120.1598 119.6906 119.6570 119.6737 119.6299 119.6412 119.7320 119.7274 119.8394 119.9351 119.4472 120.1093 119.5731 100.6497 107.9561 116.1386 107.0727 117.1912 122.1236 121.9352 121.8485 121.6865 121.8988 122.0862 122.2787 122.4694 122.6670 122.8527 123.0510 123.2023 123.4283 123.6685 123.8461 123.9673 124.1200
124.6100 124.5216 123.7932 116.0973 111.9724 113.2679 113.9968 105.0909 97.8476 106.7819 104.8097 119.9211 115.5210 122.1000 122.1369 121.9555 121.8216 121.6093 121.5943 121.2380 121.1473 121.0583 119.0643 119.6086 120.5775 120.4828 120.2263 121.5151 114.1644 121.6422 120.0385 120.0506 120.0147 120.1219 120.3071 120.0943 120.5820 119.9790 123.2424 123.7180 120.9085 113.5312 114.8442 109.5409 105.7948 105.6498 101.2857 107.3234 121.5730 121.7470 121.9532 122.1372 122.3130 122.4888 122.6757 122.8591 123.0607 123.2073 123.6913 123.9994 123.6809 123.7597 126.3728 124.3700
124.8500 124.4364 125.0824 120.1718 122.0940 119.7740 100.7900 100.7611 108.4914 109.8130 119.0542 111.3472 115.0275 122.4281 122.0186 122.1800 121.8842 121.8717 121.6754 121.5623 121.4346 121.3439 118.3837 119.5970 120.8751 120.8035 120.7029 120.7115 113.6035 121.9909 120.4372 120.4840 120.4952 120.1947 119.7498 120.5935 116.2887 121.4887 120.2565 116.7264 119.6567 104.0282 103.9597 110.3971 106.7882 122.4980 122.2439 121.5347 122.0170 122.0638 122.1872 122.3518 122.5303 122.7156 122.8821 123.0553 123.2245 123.5799 121.4676 123.2473 127.1684 122.5432 112.8725 124.3700
124.8500 124.7807 124.1928 126.3757 119.5229 118.4103 104.9791 110.5138 113.3108 107.1433 99.5252 124.3817 124.1831 122.5443 122.3655 123.7244 122.8453 123.2386 121.9293 121.8307 121.7139 121.3645 121.5875 121.3016 120.9979 121.2472 120.9370 121.0718 124.5248 113.5247 120.9252 120.6198 120.5138 119.7219 130.6526 120.4233 114.8454 119.4812 122.9607 109.0363 93.5920 103.9921 103.8242 123.0589 114.8207 119.2626 121.7293 121.5767 121.9885 122.2793 122.3624 122.5803 122.7636 122.8655 123.0856 123.2120 123.4131 123.6025 123.1201 123.8000 124.4825 117.4633 121.9615 107.0600
125.0900 124.7522 124.8706 119.6618 120.1401 116.7559 108.4133 111.0372 111.5228 105.0637 116.9761 106.9086 117.2735 124.1995 120.3411 107.2029 120.4049 122.3006 122.2324 122.0951 121.9627 121.8948 121.6880 122.6649 121.5501 121.5284 121.9391 107.2653 105.7593 118.4514 121.0369 125.2964 122.8598 121.7878 121.7376 103.8840 108.0008 110.4957 115.3418 99.7594 108.3679 112.5859 103.0872 116.4034 121.1296 121.9092 122.0443 123.6283 123.3078 122.7175 122.9370 122.8209 122.9432 123.1559 123.3340 123.5449 123.6079 123.7355 123.9337 111.1775 127.3378 122.2761 125.1966 107.0800
125.1100 125.6584 120.6830 115.7396 117.9872 117.4080 116.3153 109.9345 108.0672 103.0752 114.3104 110.8295 124.6893 125.1622 108.1189 111.8448 122.7418 122.4841 122.4991 122.3531 122.2347 122.1084 121.9316 121.9342 121.7304 121.7948 122.3873 112.6487 98.6053 122.7601 121.6179 118.6646 116.0924 118.8541 108.9666 105.5152 117.7435 98.8432 119.5132 100.0902 102.0309 114.8824 123.5700 124.7414 121.1273 123.0123 123.4317 122.6719 122.4798 118.9342 123.2200 122.0944 123.2079 122.5644 121.5491 124.1882 123.6633 124.1497 123.4625 131.3217 125.4913 124.5918 126.5913 124.8700
125.3300 125.7611 117.2321 116.4039 111.6951 113.1441 111.9603 109.9417 105.9672 118.1151 112.4909 106.6597 125.8874 108.8225 104.3377 120.1049 123.2911 123.2996 122.6152 122.5971 122.4918 122.3911 122.2814 122.1890 122.1019 122.0338 121.9987 123.0121 119.1053 121.8672 123.1838 111.0259 119.9094 121.5116 113.9466 105.6745 116.2459 118.4763 113.4081 110.9412 118.6833 102.0761 124.2327 113.5835 107.7798 119.2692 120.2511 115.9250 109.7716 108.1694 116.7540 123.3530 123.3878 123.8367 124.5826 123.8041 124.0040 124.1310 123.8901 125.3537 122.0557 125.1539 124.7233 125.0500
125.3700 125.7029 123.1204 114.4519 111.1550 116.9336 111.5428 112.6925 106.0377 104.4482 110.9155 124.9593 121.5972 105.8492 123.8705 130.4999 116.4867 122.6749 122.8279 122.8914 122.7745 122.6064 122.5830 122.4648 122.3809 122.3019 122.0065 122.3060 122.3108 117.8961 116.0183 104.0827 101.7270 106.4571 125.1030 112.4619 124.2729 122.4802 122.7301 124.1276 123.8293 116.3244 120.2770 113.1011 115.1761 122.4286 123.2335 124.7138 116.6470 107.0787 123.4447 123.7146 123.5748 123.7462 123.8900 123.9884 124.1880 124.2979 124.4503 124.4030 124.7280 124.8627 125.0312 125.1100
125.5500 126.0132 114.4839 111.8058 113.6964 119.2495 113.0683 102.8241 108.4246 107.9376 108.1708 106.1723 107.0589 101.2598 122.7313 123.9538 104.9427 124.3084 123.2158 122.9364 122.9352 123.0991 122.4240 122.6657 122.4542 122.3511 122.8038 120.2487 122.3944 115.4835 117.2992 102.4149 108.1179 110.4061 123.7556 123.5239 122.6288 122.3951 122.3785 122.2127 122.3247 123.3708 112.1695 103.6542 125.4610 123.1364 122.8768 123.0307 124.1545 110.3558 105.0735 123.0020 123.8429 123.9304 124.0751 124.2116 124.3499 124.4799 124.6646 124.7610 124.9034 125.0685 125.1969 125.2900
125.7200 117.9874 116.0959 113.2305 114.3252 112.2425 112.3482 110.8228 106.6082 108.4150 104.5206 107.8334 119.8832 119.4921 122.9851 124.3626 124.5384 123.1784 122.8964 124.3193 124.4523 121.1975 122.1351 121.1200 122.3349 123.3095 120.8108 121.4542 122.6896 117.0473 110.2029 104.5828 116.6058 119.3274 122.9086 122.5828 122.6184 122.6828 122.7437 122.8015 122.8333 124.8439 111.9438 110.3683 124.5711 123.0454 123.3831 123.4083 123.3956 119.2395 120.1992 125.5607 123.8212 124.1430 124.2631 124.3927 124.5326 124.6548 124.7965 124.9277 125.0661 125.1971 125.3719 125.3300
115.2500 112.6642 114.5625 112.5020 114.2624 107.8534 106.8458 110.9779 109.0726 107.1873 104.3884 108.1175 121.7544 125.8176 123.9262 122.1264 123.3846 124.0747 113.3088 121.7368 124.5792 112.0601 112.1662 118.1723 122.4377 118.9999 124.8754 98.4670 121.6019 108.0288 99.1513 105.6212 114.3019 113.7870 123.6048 122.8868 122.8145 123.0703 123.0114 123.0647 122.5996 123.5079 117.6290 106.5738 123.9312 123.2286 123.5586 123.6448 123.7708 123.8643 124.8155 123.6748 124.3213 124.2879 124.5337 124.5817 124.6924 124.8349 124.9623 125.0910 125.2179 125.3782 125.1598 125.5300
125.9500 115.5641 118.7661 114.1304 113.2934 114.9234 103.9806 111.5602 109.6235 110.2884 102.5901 116.6239 127.6270 126.4926 124.4242 124.0027 124.1389 123.5043 116.6768 125.9878 117.7325 110.8184 101.8953 122.2754 118.6151 123.5955 101.4541 116.7813 114.1513 113.1248 119.4395 121.0638 122.0381 124.5522 123.5371 123.2120 123.6258 121.6535 123.4449 123.3029 123.2681 126.4127 102.9921 106.0508 124.6482 123.6862 123.7769 123.8990 123.9910 124.0819 124.1104 124.3565 124.3876 124.5359 124.6101 123.2768 125.5077 125.0069 125.2402 125.2422 125.3908 125.3880 126.7959 125.7000
126.1600 117.8969 118.1264 115.5421 112.0493 114.2758 113.5470 112.0398 110.1585 110.6614 103.9454 129.5655 125.4418 124.0972 124.5080 124.5448 123.7138 122.8573 101.7169 122.7363 101.9284 102.9377 105.8549 126.6352 106.1223 122.3555 102.2357 106.2935 105.1853 125.5676 123.5906 115.1607 119.7539 122.7880 123.2640 123.0958 125.1325 112.9472 125.0592 123.4694 122.1093 113.9510 102.7576 116.5003 125.4539 123.8678 124.0147 124.1135 124.1959 124.2912 124.4043 124.4948 124.6039 124.7132 124.7856 126.3501 125.3156 127.6849 125.3336 125.4094 125.5636 125.6299 125.1393 106.5200
126.3300 120.7590 116.3533 114.9506 112.5865 110.8146 108.6011 112.1618 110.5873 110.0792 113.1506 125.3102 125.0487 124.7626 124.7026 124.6226 124.7480 125.4123 122.8566 111.9272 107.5409 107.5834 107.1737 127.4586 104.0070 115.6694 100.6038 103.9032 113.0911 124.6633 123.5864 121.9355 123.6577 123.5918 123.4630 123.5157 125.7041 111.1326 128.7692 125.8015 118.4308 110.6767 108.2860 126.2402 123.6529 124.0456 124.2347 124.3241 124.4056 124.4957 124.5956 124.6912 124.7940 124.9155 125.0662 126.0216 113.1309 124.4841 125.3431 125.5774 125.7291 125.5588 123.4835 126.1000
126.3400 116.8113 114.0546 115.7570 113.7380 113.8917 121.7619 116.3623 116.2587 119.4728 111.2441 124.7196 124.9892 125.0380 124.9211 124.8757 124.5110 120.1380 104.6213 111.3258 113.4538 107.2676 108.5097 106.3206 102.3776 124.0123 103.7657 103.9975 125.4206 123.5141 123.8945 124.0060 123.8711 123.7948 124.0965 121.9621 111.9945 100.1285 115.3245 124.0309 122.5785 105.9832 115.1585 124.6587 124.5110 124.4099 124.4425 124.5321 124.6107 124.6983 124.7970 124.8905 124.9828 125.0901 125.1358 125.1934 126.7430 126.3741 125.3240 125.7524 125.6630 128.2576 126.4042 126.1300
116.0900 116.3785 116.4673 115.1028 116.4825 114.7571 123.5927 122.5481 108.4968 112.2433 119.4412 126.0910 127.2486 125.2227 125.1186 124.8394 124.4676 125.7272 124.6527 127.4082 126.4998 109.3932 126.9079 127.0627 122.5625 103.0568 121.1762 108.5857 124.6110 123.8252 124.1834 124.1463 124.1430 124.1580 124.8106 108.6146 116.4131 104.9336 115.4890 124.3242 125.5558 119.9795 112.0409 124.5928 124.5208 124.5693 124.6628 124.7382 124.8093 124.8974 124.9905 125.0725 125.1724 125.2649 125.3850 125.4525 125.3398 125.7068 125.7574 125.8723 125.8133 126.4124 109.3513 126.3200
116.6500 113.4838 116.6001 110.3304 123.5350 113.4141 117.5923 126.9685 112.7846 116.0963 124.0114 98.6111 123.3533 122.7248 125.3449 125.1241 124.5829 125.7083 124.8393 126.5777 120.1613 108.7843 125.0743 122.6214 116.4154 102.6867 106.6808 115.1769 124.5456 124.0116 124.3752 124.3384 124.4215 125.3997 108.2209 126.7737 118.4410 116.2066 117.2526 124.4053 125.3895 109.9154 126.6290 124.9940 124.7548 124.8003 124.8613 124.9414 125.0142 125.0942 125.1762 125.2618 125.3560 125.4453 125.5684 125.6372 125.7333 125.9045 125.7630 126.3091 126.1394 125.9753 126.7333 119.1800
116.6500 126.2712 125.9034 126.0239 125.7812 125.9175 124.4633 112.4612 112.2657 124.6989 126.0360 116.9811 112.5288 103.7899 126.9857 125.4160 118.2333 124.8581 110.1302 121.7658 102.2841 111.2391 106.5909 109.4169 117.6981 105.3416 110.5315 110.3986 125.1365 124.2781 124.6091 124.5890 124.6338 124.5372 126.0293 125.7597 124.0377 124.7760 117.7755 125.3793 126.1583 124.7252 126.1482 124.6626 124.9433 124.9990 125.0630 125.1372 125.2083 125.2860 125.3633 125.4424 125.5302 125.6303 125.6936 125.7946 125.9103 126.0010 126.0834 126.1248 126.1867 127.4129 114.3281 133.6400
126.9000 126.8010 126.9062 126.4281 126.7051 125.9991 127.3405 123.5873 118.0924 123.8428 103.9078 110.0455 109.3328 124.4907 126.0764 125.7618 125.6668 126.5824 125.1996 114.4709 105.6645 107.8338 104.7208 104.1977 105.5068 109.6440 112.3518 109.3752 124.5752 124.6112 124.8461 124.8186 124.7888 124.8084 124.5552 124.4635 125.5292 124.6660 116.5389 120.8194 127.2379 106.9756 125.7794 124.9318 125.1110 125.1974 125.2585 125.3277 125.3995 125.4706 125.5506 125.6259 125.7008 125.7144 125.7315 126.5481 125.7736 126.2422 126.2251 126.4099 126.1548 128.2836 124.0625 120.9600
127.0600 127.0241 126.8848 126.7744 126.6814 126.6645 126.3860 126.7530 125.9285 127.7358 125.6898 115.7092 127.6585 115.9184 122.9400 126.4327 125.5672 123.9724 116.9030 117.0855 120.0905 102.0773 104.0230 106.2264 106.6935 110.5463 110.7084 120.0465 125.1554 125.1177 124.9262 124.9753 125.0238 125.0175 125.0549 124.9601 126.0319 110.4137 103.0669 106.0762 127.0670 125.5074 127.7302 125.2268 125.3304 125.3993 125.4496 125.5153 125.5855 125.6515 125.7265 125.8080 125.8854 125.8848 123.4557 114.0371 127.3733 126.2258 126.4539 126.4783 126.6920 121.7762 119.3813 112.1800
127.2000 127.1930 126.9987 126.9427 126.8328 126.7360 126.7360 126.3606 126.5365 125.9501 126.6929 130.4216 121.0982 112.5570 116.3081 123.5521 115.9731 114.2886 123.3622 125.6779 112.4743 113.1888 102.3807 105.7016 109.0503 112.3635 111.3442 119.0161 125.2123 125.5493 125.5842 125.1383 125.2256 125.2245 125.2147 125.2208 125.3807 124.7947 118.4392 112.3776 118.2459 125.7888 125.0583 125.4241 125.5283 125.5913 125.6408 125.7032 125.7655 125.8388 125.9091 125.9820 126.0541 126.1371 128.8103 122.6761 127.5459 126.5191 126.3139 127.1495 127.4253 120.4955 110.6991 107.6900
123.2600 127.2559 127.1790 127.0785 126.9884 126.8917 126.8318 126.7270 126.5977 126.6110 126.3731 124.5876 110.7124 114.6752 110.6788 121.7260 105.1629 108.2948 125.3321 124.8765 115.9852 127.5405 101.3185 110.7700 109.4470 111.5141 112.4701 121.2242 125.4868 121.9733 124.2013 125.3035 125.4764 125.4326 125.4325 125.4266 125.5682 125.6631 119.1638 125.3279 112.1950 126.4792 125.7623 125.6808 125.7128 125.7751 125.8315 125.8896 125.9509 126.0134 126.0838 126.1493 126.2244 126.3386 126.0922 127.2667 126.3754 126.6597 126.9441 123.6300 119.7336 116.0122 108.5082 109.3600
123.2600 127.3000 127.3200 127.2000 127.1300 127.0100 126.8000 126.8000 126.7200 126.6400 126.6400 126.5500 126.4200 126.3200 126.2200 105.9800 109.8600 126.0300 123.7900 125.9200 125.9500 125.8300 125.8500 111.0400 111.1700 109.8100 116.4600 128.9800 125.5100 115.1800 125.4900 125.5000 125.5000 125.5000 125.5000 125.4900 125.4900 125.6500 125.6400 125.6100 125.7600 125.7400 125.7200 125.8600 125.8300 125.9600 125.9300 126.0500 126.0200 126.1600 126.2300 126.2300 126.3300 126.4300 126.4300 126.5300 126.6300 126.7300 126.8200 120.0300 125.0300 106.4300 109.3600 109.3600
