126.1500 128.5700 117.5500 117.5500 109.1400 109.1400 131.7300 131.7300 130.5300 129.0800 130.7100 130.1400 121.8500 106.5700 106.5700 115.8300 118.2900 117.3200 120.3600 119.0800 121.4000 121.4000 111.6900 113.7100 114.8000 113.6000 112.1600 113.3700 113.3700 107.8000 107.9600 108.0000 127.6400 105.6600 127.5400 127.5500 127.5600 105.5700 127.4400 127.0200 128.5500 127.4600 127.4600 127.4500 127.4500 127.4500 127.4400 127.4400 127.5700 127.5600 127.5400 127.5300 127.6500 127.6400 127.6200 127.7400 127.7200 127.8100 127.8100 117.9200 117.9200 127.9900 127.9600 127.9400
126.1300 129.2286 130.1969 131.7535 127.2996 111.1577 134.0138 129.8246 131.2116 122.7029 129.1219 125.1540 121.7561 121.4535 110.0805 106.7230 122.2185 118.8189 121.0735 126.5159 118.9605 115.0353 113.2928 117.7092 119.9320 115.1154 111.7976 110.5395 106.5777 108.5910 105.3193 108.8102 109.2414 108.6738 112.5800 126.4622 105.7827 108.0370 119.6096 128.5464 127.6994 127.5242 127.3973 127.3621 127.3730 127.3797 127.3890 127.3854 127.3610 127.4091 127.3765 127.4856 127.5065 127.5308 127.5679 127.5973 127.6216 127.7046 127.8669 127.3761 122.4615 128.1207 127.1563 127.9400
126.4000 126.8286 130.4445 130.7436 133.5646 111.9336 111.8114 117.2494 121.1614 120.6576 124.7699 120.3815 121.3136 117.6444 119.5335 109.7481 121.6123 119.4708 115.0104 114.5881 119.4018 109.3815 113.0997 113.1138 115.5451 114.9296 105.4217 109.8816 108.9024 107.9519 105.9649 115.5220 126.9236 123.8499 108.0960 109.8457 106.5626 125.3992 128.8950 121.4575 127.5606 127.1795 127.1929 127.2089 127.2121 127.2144 127.2453 127.2676 127.9102 127.0920 127.3095 127.4614 127.3471 127.3825 127.4013 127.4598 127.4362 127.3560 128.1898 110.9968 117.5781 127.4351 125.8502 127.7900
118.1300 121.9925 133.1441 123.9747 133.9839 125.0731 115.1454 119.4035 123.3625 122.5216 120.7744 120.2819 120.4110 119.0817 119.3343 118.8682 127.3264 127.0752 113.6550 113.2999 124.4794 117.1626 113.4190 113.0290 117.5977 114.0139 115.2847 109.1126 107.7173 108.2548 112.0176 116.7903 125.0999 114.4567 105.9218 122.7366 122.6823 108.1613 128.3972 122.1752 127.2574 127.0040 127.0433 127.0453 127.0385 127.0797 127.0591 126.1373 121.5117 117.0601 127.1423 127.0402 127.1895 127.2163 127.2798 127.2011 127.9255 128.1092 125.8105 111.9747 117.9182 110.7998 104.8838 127.6300
117.4300 116.2063 125.4764 123.2543 125.0789 122.3436 124.1628 106.8294 118.0584 121.7856 121.6536 120.7403 120.4801 121.1044 121.8646 118.5188 124.9809 127.5315 134.4367 109.2326 116.6494 118.0233 113.0465 111.7850 111.3459 113.2138 106.9850 118.3747 110.5481 106.6805 115.6201 117.3927 127.4390 129.5948 124.7239 121.3392 127.2005 130.3710 128.0637 127.4925 127.1808 126.8518 126.8652 126.8715 126.8756 126.8634 127.1037 122.8059 105.0462 116.9475 127.9572 126.8270 127.0393 127.0740 126.9877 128.1523 121.4892 125.2332 121.5682 117.1556 112.9850 106.0779 119.3266 127.5000
127.9700 121.0335 119.2965 124.3826 124.1960 124.1968 122.7649 116.1963 110.2258 124.1381 121.0974 120.7920 121.8182 121.4325 121.3352 120.4255 122.9888 127.6836 128.7031 115.6380 109.9970 116.8855 116.2576 111.5901 109.1333 113.1509 105.3219 107.8790 114.2119 116.4845 121.9794 118.4185 126.1559 119.4307 125.6923 126.2282 126.6377 129.3405 126.2773 126.6331 126.6666 126.6945 126.6933 126.6942 126.6948 126.7994 126.7208 125.1608 107.3136 107.9816 125.5450 126.5329 126.8853 126.8115 127.3481 124.5751 115.6283 111.6438 120.0840 125.6436 117.2134 122.3596 129.8968 127.3400
127.9700 125.9342 115.4108 126.1882 122.5766 122.5362 122.5296 122.5620 107.1861 109.2292 120.9061 122.6062 122.9463 121.0595 121.2631 120.0699 119.1662 128.2868 127.8902 115.9656 104.1465 120.6891 118.9459 116.3349 109.0148 109.3786 105.6133 106.9841 103.3213 105.5758 112.1889 121.6573 126.4452 125.9151 121.9918 126.4436 126.6360 126.2582 126.4350 126.5586 126.5402 126.5235 126.5189 126.5193 126.5239 126.5469 127.1211 118.0839 107.7896 126.7578 126.6598 126.6326 126.6835 126.6966 126.5972 110.3066 134.2250 119.1203 127.9843 135.2093 118.2902 127.3818 127.2861 127.1900
127.6800 120.1704 110.8996 111.6789 121.4882 121.5072 121.2950 122.3560 120.7282 107.1269 122.2726 120.8307 108.5126 125.1216 110.8429 113.8801 112.2878 118.6483 129.8476 115.3648 107.8209 110.3121 114.2677 112.8101 108.1491 122.9099 106.0270 107.7443 110.6376 114.8041 126.1033 126.9901 126.5218 126.3331 126.9657 126.2859 126.4587 126.4475 126.3994 126.3672 126.3555 126.3489 126.3438 126.3365 126.2588 126.9949 121.3777 123.6524 121.7642 125.5037 126.4621 126.4929 126.5114 126.5276 127.2260 127.9813 126.6057 127.6327 126.1662 126.3868 127.0934 127.0497 127.0445 127.0300
127.6600 113.6620 113.0937 111.3800 111.6325 120.1451 121.3487 120.5038 122.4968 112.9478 112.2483 121.1260 110.1109 113.4208 111.5200 114.6226 116.1541 117.0025 109.9499 116.2024 123.8833 105.8830 119.1231 113.0925 108.3616 122.9996 109.2280 107.5260 127.5974 126.0231 120.6252 125.3743 126.4363 126.3938 126.2443 126.3142 126.2529 126.2046 126.1907 126.1826 126.1741 126.1611 126.1566 126.1491 126.1328 126.4530 125.4679 126.5163 125.1410 126.3819 126.2654 126.3021 126.3372 126.4068 126.0488 126.3345 126.5503 126.4022 126.7920 126.7467 126.6456 126.7865 126.8771 126.8700
127.6600 116.3159 114.7746 112.4978 110.9794 115.4180 119.7294 120.9042 124.0010 123.0552 116.0406 110.7898 121.4477 119.1664 117.4609 112.5515 118.8201 113.9171 117.8051 112.0587 130.7704 128.2264 109.8149 107.5897 107.6353 121.1715 123.3551 122.0736 123.0585 126.4400 126.7902 126.5686 126.1581 126.1410 126.1089 126.0701 126.0400 126.0239 126.0075 125.9969 125.9880 125.9760 125.9643 125.9872 125.8811 126.6875 125.9911 126.0689 124.7091 126.1299 126.0957 126.1156 126.1429 126.2301 126.4116 125.1816 126.5484 126.4320 126.4037 126.5006 126.5770 126.6331 126.6925 126.7000
128.5200 130.9788 115.6582 114.2525 110.7522 110.9298 110.5397 120.5371 123.9289 120.9545 120.9950 106.1395 115.6762 119.0600 118.8158 116.9312 116.2932 116.8749 110.8684 111.7573 128.2769 114.0191 117.6096 116.0870 108.2744 127.1773 126.3853 126.2149 126.9987 126.1322 126.0703 126.0317 125.8604 125.8997 125.9339 125.8942 125.8839 125.8542 125.8240 125.8088 125.7912 125.7867 125.8713 125.5715 125.5387 120.1590 125.7405 125.8629 126.0042 125.8790 125.9009 125.8846 126.2218 125.4268 126.7860 124.2968 126.4028 126.2294 126.2716 126.3359 126.3986 126.4685 126.5360 126.5300
125.6100 128.5789 121.6904 106.2763 108.4851 108.9964 110.8620 117.3427 121.5691 119.5566 119.6209 113.8610 105.4795 123.4636 119.7118 118.8610 118.8135 117.4123 104.3699 107.9993 128.6039 113.1407 124.5104 129.1085 120.9652 119.4217 126.1145 126.1045 125.7730 125.9636 125.8958 125.8074 127.4734 126.2722 125.6994 125.7307 125.6354 125.6363 125.6290 125.6202 125.5938 125.5927 125.6046 125.5995 119.5858 125.0146 125.1321 125.7430 125.6499 125.6814 125.7186 125.7302 125.6654 125.1240 117.5401 121.4430 126.9015 126.0302 126.0895 126.1565 126.2273 126.2966 126.3684 126.5100
125.6100 126.7012 125.1618 114.0553 105.4002 105.7249 107.0812 107.5985 109.7818 120.5265 118.6162 121.4599 107.5507 109.6358 118.4426 119.1488 117.4880 121.8416 108.8437 102.7812 113.4772 116.3815 131.5076 125.3580 126.1109 124.9513 126.2109 125.8660 126.3709 125.6913 125.7581 126.1106 116.4993 120.4620 125.9446 125.5034 125.2667 125.2675 125.1286 125.3826 125.4010 125.3934 125.5451 124.8057 126.5493 117.9088 125.4660 125.4906 125.4556 125.4851 125.5215 125.5457 125.7096 125.7743 128.9098 112.4003 128.2933 125.8390 125.9036 125.9897 126.0526 126.1235 126.2046 126.1800
125.6500 107.9730 124.5387 126.4266 109.0866 104.9881 105.4412 105.6384 111.1720 112.7427 118.7222 117.4584 116.9576 102.6103 127.5970 125.2050 114.0855 117.2537 115.1803 104.9205 107.2236 121.6093 126.2103 125.9808 125.9562 125.8936 125.8428 126.3628 121.8685 126.3316 125.4880 126.7845 118.7594 132.2878 124.8663 125.3836 124.8131 123.7117 119.7451 125.1129 125.2611 125.1867 125.2903 124.7294 118.8634 117.7127 124.9092 125.3052 125.2617 125.2883 125.3184 125.3620 125.3631 124.6978 131.2277 126.4470 125.6691 125.7714 125.7173 125.8120 125.8811 125.9561 126.0348 126.0100
106.0600 110.8180 126.1977 125.6596 116.1800 111.0901 106.9641 108.5719 110.3343 108.5667 116.7756 118.6142 118.7551 121.3831 119.1181 123.2087 110.6422 119.0523 120.7597 117.5282 101.4519 127.8232 124.4242 126.4786 125.8308 125.6709 125.7039 121.3733 119.4425 125.4764 125.3844 125.3292 125.2428 121.8795 125.0297 125.1672 124.5576 123.8669 109.5493 125.3849 124.9252 124.9776 125.0371 124.8782 122.5005 124.6151 124.8400 125.0420 125.0539 125.0791 125.1151 125.1609 125.2067 125.0946 125.8079 124.7183 125.5450 125.4693 125.5544 125.6264 125.7051 125.7782 125.8560 125.8200
123.9700 121.4480 126.9937 125.6922 120.3336 121.6869 103.1843 108.6321 111.2406 107.0329 107.9938 120.2963 117.2114 125.4640 112.2495 107.2346 112.3735 109.4056 106.1129 117.5136 117.0288 112.5869 109.7672 126.6258 125.6264 125.5414 125.4387 125.2631 126.4139 125.2194 125.1263 124.9881 125.3033 124.7247 125.2601 124.8750 124.7839 125.3111 115.7587 125.3751 124.5299 124.7690 124.7762 124.7266 125.0222 124.7510 124.8104 124.8156 124.8353 124.8728 124.9146 124.9547 124.9945 125.0730 125.0563 125.2506 125.2222 125.3050 125.3686 125.4422 125.5194 125.6070 125.6876 125.8200
123.6800 123.2807 125.5808 110.4555 116.1824 120.3801 119.2635 105.6253 116.0054 108.8621 109.0977 114.4580 125.8001 131.6292 128.2383 105.1628 115.8998 105.7441 101.8710 119.1054 110.0996 113.3090 118.6092 125.5726 125.2625 125.0475 125.2458 125.1748 124.8423 125.0102 124.9709 124.8942 124.8198 124.7917 124.6408 124.8193 124.0646 122.1351 118.6554 116.3838 125.3356 124.5055 124.5269 124.5414 124.5320 124.5562 124.5637 124.6067 124.6454 124.6568 124.6973 124.7395 124.7877 124.8361 124.9035 124.9535 125.0350 125.1034 125.1770 125.2591 125.3338 125.4200 125.5127 125.6300
127.7300 127.4118 125.1526 112.3381 112.8389 121.0631 120.9063 114.7482 110.7711 115.2361 108.3095 107.4501 126.4242 129.2453 118.3002 119.7352 105.1370 105.8286 111.3315 112.4952 121.1039 122.4391 126.4225 125.3437 125.5291 126.5510 124.7396 125.5378 125.5150 124.7257 124.7200 124.6777 124.6084 124.5757 124.7111 124.3971 118.7554 124.6222 116.6453 125.0720 124.0909 124.3237 124.2945 124.3021 124.3276 124.3334 124.3713 124.3184 124.3342 124.4363 124.4807 124.5302 124.5750 124.6389 124.7003 124.7648 124.8318 124.9081 124.9814 125.0690 125.1543 125.2382 125.3311 125.4100
127.6000 127.3752 126.3447 116.4448 112.2136 109.1954 120.6909 122.1471 117.8229 107.9943 108.3203 107.2396 106.2003 111.0194 112.2907 113.6431 109.1925 111.0116 110.2299 109.2572 111.7910 111.8593 129.1537 124.9207 120.0158 119.0585 110.3417 125.9377 119.5609 124.9224 124.6100 124.4495 124.4196 124.2746 123.8285 125.0851 112.5455 117.1044 123.0604 121.9629 124.2088 124.1112 124.2599 124.1530 123.8910 124.2182 124.0812 124.4982 124.3396 124.1852 124.2652 124.3074 124.3652 124.4230 124.4883 124.5492 124.6248 124.7093 124.7852 124.8663 124.9546 125.0337 125.1297 125.2300
120.6100 121.1086 123.6897 113.6719 113.0321 111.5219 117.2434 117.7877 117.4230 110.0563 107.8271 105.2446 105.8051 105.6728 119.7783 119.5201 99.7689 108.3580 109.9968 114.9164 124.7976 137.7080 127.4115 123.8393 124.4930 127.2727 107.6067 110.0138 105.6723 125.8756 124.0463 124.2291 124.2208 124.3049 125.9918 124.6983 114.0619 100.1894 113.5280 120.3595 116.5498 124.0918 122.2041 123.4663 124.8962 122.0113 123.4890 119.5625 124.0776 123.9648 124.0287 124.0862 124.1380 124.2026 124.2668 124.3398 124.4190 124.5021 124.5815 124.6800 124.7319 124.9375 125.1376 125.0400
121.8300 118.1578 126.2043 125.5587 117.7346 109.6357 109.0744 109.8907 114.3222 117.5287 116.5827 106.7016 105.4619 103.8624 102.6990 129.5787 106.9227 136.5008 100.5936 115.9442 124.1856 125.0330 123.4446 125.1316 118.7243 118.8902 105.9499 119.8455 112.9313 125.2021 125.4827 123.9171 124.0252 124.7873 114.2787 107.8149 115.7721 97.2477 109.1368 114.6006 114.2026 124.2944 114.2205 118.7887 114.0229 121.4314 122.8688 120.2153 123.1294 123.4537 123.8064 123.8558 123.9104 123.9754 124.0503 124.1294 124.1964 124.2896 124.3906 124.3976 124.5808 124.2468 123.4155 124.8200
121.8300 107.2977 116.8306 119.2215 120.4322 111.1697 121.3819 109.4322 107.5060 118.4623 116.8577 116.0314 103.8464 103.9633 101.0658 109.4209 102.1784 104.0397 106.6125 109.9068 125.5973 124.1068 125.7153 126.3291 125.9221 116.4062 109.4793 123.3111 124.9331 124.7126 110.1917 124.8668 123.5005 123.6968 104.0235 111.3772 112.9545 126.0843 110.9590 102.7653 115.6475 123.8491 111.1886 105.6510 108.3481 120.7056 115.0096 123.6503 127.1610 123.3561 123.5643 123.6082 123.6793 123.7468 123.8262 123.8807 124.0576 124.0022 124.0360 125.1192 124.0738 124.8721 123.0963 124.6100
111.2900 122.3452 120.0661 108.2326 124.6137 115.4376 120.1025 109.0170 108.6725 115.0358 117.5415 120.0642 110.3951 104.1854 105.2975 102.7308 111.7892 117.8209 120.2478 125.6366 125.3209 124.2060 111.7414 114.5898 107.0433 111.0398 106.6860 120.5174 123.6420 125.4075 116.7952 124.8048 125.0420 123.0237 123.7822 124.8543 122.2367 123.9451 101.9516 105.8438 122.6923 114.0495 110.5602 115.3487 114.5619 116.7433 124.2079 123.4997 124.1820 123.1415 123.3154 123.4055 123.4446 123.5076 123.5816 123.7225 123.3592 124.1095 124.6753 122.9392 116.2224 124.3747 124.5740 124.5700
111.2900 110.3946 119.1586 115.8760 122.1826 109.7571 115.5660 111.8536 105.8040 107.1461 107.0307 117.9526 120.2993 102.5195 102.3117 102.0876 102.0185 117.1365 114.8209 123.6200 124.3013 125.2862 123.7631 114.6041 99.8711 117.7955 102.1699 126.5446 123.4421 123.5746 122.5399 123.0512 123.7240 106.0077 106.0643 113.7655 123.0150 123.5947 114.0872 119.9076 113.1788 105.7190 109.0993 110.6962 118.9989 123.5827 119.2758 121.7873 122.8720 122.9884 123.1353 122.9270 123.1392 123.2643 123.2698 123.1299 124.2578 121.9142 116.4924 124.4170 123.9783 124.4698 124.1726 124.1600
119.8100 105.2598 104.3626 112.0293 120.5098 116.9116 120.9842 117.7998 111.2156 106.6617 111.6265 107.4801 118.1359 104.0737 103.1952 111.7591 109.4553 108.2351 127.1532 127.8494 124.0314 123.4285 124.2663 107.6815 121.2531 117.3971 115.8899 113.7105 123.0450 123.5283 122.6281 122.9325 123.2488 124.0748 128.6825 103.5664 123.8776 122.1408 106.7312 113.8697 108.3055 104.3268 105.9856 115.3430 124.1775 122.9683 123.1648 122.7025 122.6898 122.8137 121.8703 123.9599 122.8877 122.9465 124.7804 125.9350 113.0383 123.4242 121.2715 123.3825 123.7712 123.8199 124.0080 123.9200
117.8600 116.3671 118.1132 111.9326 115.8571 118.4868 114.1677 105.4737 104.1394 105.1126 111.7089 105.8074 110.1456 102.8013 102.8198 112.6306 116.5495 108.8571 117.3766 123.9716 124.2819 123.8058 125.3782 124.0513 121.8423 101.3107 120.0931 114.8582 123.3432 123.0495 123.0044 122.5050 123.3588 121.1171 123.6767 105.2617 124.8684 110.2673 111.1504 114.7877 104.3338 126.9942 124.8589 123.6189 122.1146 122.2112 122.2227 122.3508 122.4131 122.8886 109.9431 123.6487 122.6137 122.6084 123.0312 122.7543 123.4341 118.6187 123.1244 123.4704 123.5143 123.6660 123.7812 123.8700
117.8200 118.4766 115.9010 114.6640 112.7993 112.4415 115.3422 111.4808 114.7420 110.5081 107.7463 102.5985 104.1333 104.1749 103.6686 109.1572 105.1736 108.3089 124.3220 124.1822 123.9817 123.5976 123.3119 103.8993 122.1521 122.4153 120.7372 114.4833 122.7151 122.7892 122.6568 122.5910 122.5291 124.6777 101.5572 120.9411 124.5865 112.1285 119.9585 117.8724 102.2408 120.8655 121.6417 121.9338 122.0007 122.0184 122.0471 122.0766 122.1185 122.9959 123.1983 122.2976 122.3925 122.4992 122.6254 122.9169 121.6546 122.8293 123.4149 123.1547 123.3078 123.4431 123.5817 123.6500
117.6000 117.6836 116.8954 117.2404 117.2131 114.4325 110.1914 117.6230 108.0389 111.7135 114.6158 104.7964 102.9547 102.8760 104.0148 102.7851 102.4091 108.5304 109.7106 120.6959 124.5791 124.1154 127.6612 99.5878 123.8080 122.3031 124.8180 124.6644 122.5874 122.5623 122.4158 122.3247 122.3012 123.5617 103.4412 99.1805 117.2028 122.7288 122.4687 121.4491 110.7945 122.1422 121.7030 121.7128 121.6817 121.6988 121.7307 121.7721 121.8431 121.7434 121.8217 122.0610 122.1431 122.2306 122.3464 122.6039 120.2690 122.8939 122.8124 122.9671 123.0905 123.2305 123.3699 123.4300
116.4200 117.2388 115.6927 114.4082 120.9994 116.6178 116.1196 110.8893 116.4056 109.3521 109.7483 114.4570 109.7326 101.5270 104.1987 105.2059 106.8225 108.7652 112.7793 108.4624 109.3091 117.3599 124.1681 121.6836 125.0372 118.4928 123.4709 122.0944 122.4743 122.3142 122.1763 121.9846 121.8708 122.5285 112.5364 114.3494 119.1789 119.8370 116.5286 123.9336 120.8444 121.3458 121.3372 121.3405 121.3735 121.3877 121.4274 121.4680 121.5218 121.6323 121.6646 121.7307 121.8249 121.9823 122.0734 122.1585 122.4322 122.3994 122.6051 122.7219 122.8661 123.0102 123.1593 123.1700
111.7000 110.4424 114.3496 112.3379 111.9178 114.8936 116.9029 119.0598 112.2187 112.4416 113.2556 108.2016 123.2530 104.2314 101.1723 111.3750 112.4409 114.8458 125.9013 105.2653 120.0595 110.4727 114.2854 122.7381 118.5128 109.9028 104.6410 124.3953 122.0044 122.0030 121.8965 122.0057 121.8215 119.3326 120.9246 116.9941 121.2820 121.1128 114.0926 120.9136 117.5436 121.1571 121.1102 121.0271 120.9643 121.0599 121.1060 121.1586 121.2252 121.2039 121.5999 121.5915 121.6835 121.7141 121.8000 121.9408 122.0387 122.1880 122.3415 122.4815 122.6387 122.7873 122.9472 123.1200
123.2300 112.1926 109.7216 109.7090 111.6030 111.0540 112.8949 115.8300 117.2145 111.4896 118.6374 106.9348 103.8746 107.6858 103.4880 112.4562 124.1144 119.3038 123.7800 123.3140 111.5224 109.7225 108.9083 110.1265 109.1371 120.2520 116.6780 118.4649 121.9949 121.7350 121.5564 121.5709 113.2625 116.0014 117.7097 122.3088 120.9330 121.1990 122.5563 120.9325 120.8421 120.8088 120.7534 120.6412 121.3143 120.7060 120.7705 120.8299 120.9005 120.8066 121.0636 115.1042 121.6269 121.4496 121.5149 121.6507 121.7917 121.9381 122.0828 122.2436 122.3427 122.5681 122.7329 122.9000
114.7600 112.8534 112.3381 110.0337 109.7554 111.0566 110.2090 115.7212 112.9440 109.3356 110.2321 104.3400 104.0979 106.9407 103.3176 104.3059 121.3843 106.7593 126.0794 127.1890 110.2715 115.2656 108.0840 114.2888 107.2732 98.3449 120.4081 120.0266 122.0319 121.4459 121.3283 122.3689 109.2172 105.6144 115.4970 116.7824 103.4381 116.2184 122.3757 106.8614 121.9153 120.1259 120.1827 120.2518 121.2878 120.3291 120.4225 120.4891 120.5966 120.3856 121.2603 113.3419 121.2985 121.0001 121.2384 121.3696 121.5178 121.6721 121.8318 122.0093 122.1811 122.8561 122.3628 122.5600
112.8200 114.1529 113.8274 110.9758 108.9168 108.9740 108.9544 112.9704 110.1337 109.5416 109.1800 106.9482 104.8349 102.7122 102.2413 105.8144 118.8246 102.0793 118.9042 110.4449 99.1395 108.1602 119.5134 111.5439 114.1875 119.8564 123.6974 121.3293 121.1050 121.0864 121.0386 121.6837 117.4684 110.1108 121.0924 107.9544 104.7572 110.4132 120.1917 120.2835 118.4702 119.9741 121.4477 120.2280 119.8962 120.0157 120.0634 120.1674 120.1112 121.8612 115.9812 119.2628 119.4222 120.7565 120.9398 121.0784 121.2475 121.4006 121.5725 121.7494 121.8437 122.8082 122.3405 122.5600
112.8900 113.1337 113.5203 111.7680 110.0645 108.2992 108.5071 112.9769 109.8186 111.6170 108.9652 105.2103 112.1006 105.5178 113.7022 103.7621 117.1981 115.7358 127.5715 113.8102 115.5284 123.9286 121.6714 108.3241 107.9076 123.1325 121.2982 120.6605 121.9155 121.2562 120.9431 120.5721 120.9135 113.8788 105.4812 109.6769 119.1907 122.4817 119.5107 120.5515 113.0690 119.3286 120.4868 119.6535 119.6335 119.6365 119.7017 119.7574 119.9952 115.5594 111.5243 118.8182 119.8514 120.4420 120.6166 120.7861 120.9500 121.1290 121.3138 121.4943 121.6837 121.8778 121.9855 122.3100
112.8900 113.4626 115.7415 111.4250 111.0197 109.0795 108.0074 107.3540 106.5744 106.7310 105.5456 105.2202 105.3787 103.6438 106.3617 106.2234 103.6874 103.3056 122.4217 123.8888 123.1534 122.3470 122.8347 124.1838 116.6886 109.8243 122.6471 121.4863 119.2259 111.9603 120.5004 120.3560 120.0156 114.0024 115.0360 123.2271 108.9837 118.6377 119.4071 118.7067 127.1587 119.1699 119.0599 119.1787 119.2047 119.2451 119.2616 119.4389 119.4514 120.1476 121.4004 119.9590 119.9740 119.9549 120.3654 120.6660 120.6541 120.8519 121.0484 121.2467 121.4469 121.6495 121.8434 121.9600
112.0200 112.0734 114.0909 108.3010 110.2512 109.9175 108.9888 107.4986 104.7557 103.9176 103.4318 107.2277 109.7945 116.0371 105.8403 100.5246 108.4978 110.9765 124.0568 122.7990 121.9926 121.9747 121.7528 121.5102 114.9474 102.5222 108.4035 99.2816 108.8549 120.2085 120.4455 119.9560 119.6748 118.3812 118.1401 118.7765 115.0169 119.6216 118.8273 118.8926 118.4915 119.9191 118.5810 118.7893 118.7878 118.8064 119.2600 118.8698 119.1330 115.9072 112.1986 120.4720 119.6251 119.9270 118.2869 120.1787 120.3294 120.5729 120.7735 120.9708 121.1973 121.3838 121.6207 121.7100
111.8800 111.6669 111.2616 110.6107 105.9740 109.6110 111.0920 108.7465 104.8656 102.0108 102.6900 104.9449 114.3225 118.6527 119.6546 103.7514 103.4108 112.3224 114.1603 121.7913 121.9628 121.7456 121.7584 120.5576 122.8493 97.3996 109.3580 114.4906 103.4427 120.0206 119.6132 119.6844 119.1391 119.3087 119.1495 118.7560 119.1101 118.7258 118.4024 118.5279 118.3957 118.4512 118.2954 118.3230 118.3062 118.8720 115.3642 118.3260 119.0906 116.5090 111.5018 119.6992 119.2196 119.4569 119.7490 119.9534 120.0525 120.2919 120.4952 120.7861 120.9306 121.2340 121.3335 121.3800
111.8300 111.9386 111.2514 110.3362 109.7217 110.4445 112.0825 110.7669 109.6298 104.5348 100.7174 120.2552 110.4529 121.1291 122.4462 97.1862 116.7184 123.0469 121.8195 122.2704 121.5373 122.3006 121.7242 115.0322 122.6798 118.3640 120.1044 121.4286 118.1072 120.5879 119.2980 119.2445 119.0850 118.8052 118.6483 118.5393 118.3785 118.3292 122.2058 117.8029 117.9432 117.8690 117.8615 117.8387 117.7405 119.1463 101.9870 116.5408 111.6923 102.2043 119.3413 118.7292 118.9190 119.1085 119.3193 119.5440 119.7550 119.9954 120.1760 120.4550 120.4448 120.9272 121.5393 121.3300
111.8800 111.8461 110.3406 110.9670 110.5172 109.9510 110.4296 109.7958 111.1593 107.2087 105.4445 114.8278 102.3533 126.9589 117.1879 107.6651 123.4854 121.0463 122.6182 121.9508 121.7220 119.5932 118.6758 120.7297 120.5982 120.5584 116.3627 108.8275 120.6803 118.9343 119.6343 118.7167 118.7016 118.4680 118.2682 118.0557 117.9163 116.2822 119.1622 117.7217 117.4135 117.3798 117.3597 117.3471 117.2533 118.2403 112.8376 117.8969 104.2808 119.8766 118.1794 118.1817 118.5321 118.7500 118.9739 119.2078 119.4490 119.6714 119.9385 120.0158 117.4533 110.8274 119.8384 121.0400
110.0400 110.8851 111.5096 111.7519 109.8322 110.5088 109.5872 108.6460 108.0810 107.2463 106.9034 122.6045 113.9100 97.0426 121.5102 113.4645 123.2660 121.9948 121.9978 121.5798 121.2111 121.4922 120.9823 120.5085 120.3402 119.9842 120.5461 120.0587 119.1495 119.4169 124.0574 118.0523 118.3125 118.0703 117.8454 117.6265 117.6805 116.7198 116.7430 116.8572 116.9232 116.8655 116.8726 116.8228 117.5103 109.7235 108.5556 117.8962 100.9316 102.2605 117.0406 117.6076 118.1562 118.3757 118.6146 118.8692 119.1289 119.3625 120.0021 117.6607 121.1357 111.8536 123.0397 120.9600
110.7800 110.7431 113.6603 116.5539 111.5166 110.2444 110.0732 107.1037 105.1211 101.3933 102.3476 112.2947 108.0286 102.7619 112.7739 116.8641 122.0882 121.6747 122.0784 121.7062 122.0961 117.8174 120.7034 120.3273 120.1206 119.8828 119.4906 119.2383 119.0125 118.3619 118.3901 118.1856 117.9299 117.6677 117.3884 117.1758 116.9736 116.8620 116.6529 116.5355 116.3783 116.3186 116.2955 116.2339 111.5926 117.4745 100.4071 116.2074 102.8799 104.0747 117.0980 117.4970 117.7628 117.9866 118.2584 118.5289 118.8117 119.1002 119.3160 120.0744 119.6413 120.1544 120.9448 120.6600
110.7600 110.5491 113.2950 113.7882 112.6794 116.2204 115.7248 107.1741 107.5039 105.6154 104.5289 112.9796 116.5486 106.1036 119.7398 122.0690 122.3770 121.8481 119.4476 102.2079 117.1718 112.8822 121.9431 119.4673 119.7099 119.6218 119.3046 119.0424 118.8030 118.4248 118.0649 117.8770 117.3550 117.9656 116.9653 116.6247 116.4942 116.2354 116.0762 115.9208 115.8051 115.7376 115.6895 115.5957 116.1818 121.8574 117.4705 126.6744 114.9033 106.4848 116.8601 117.0139 117.2988 117.5735 117.8748 118.1677 118.4821 118.7834 119.1119 119.4003 119.4546 119.5315 120.2298 120.5800
111.2700 110.6643 111.4707 112.2693 111.7402 113.3251 120.2177 113.8503 110.7446 108.9049 111.4380 118.7759 112.4396 125.4391 124.3356 124.4712 121.4631 118.8344 118.6766 114.8179 99.8239 111.8076 111.1654 122.5392 120.1226 119.1942 118.9621 118.6774 118.2590 117.9899 117.6000 117.4121 116.5012 109.5696 117.4454 116.8320 115.7442 115.7820 115.4882 115.3071 115.2259 115.0902 115.0600 115.0692 114.4858 115.0251 115.8661 114.7466 116.9590 112.1613 116.3016 116.6428 116.9054 117.2776 117.5185 117.8919 118.1546 118.4768 118.8150 118.9957 119.9169 121.6869 118.9858 120.1900
110.4800 110.9119 111.3949 111.5596 112.7077 112.4300 108.1849 112.9908 110.1763 105.9998 109.8281 121.3776 115.8401 121.6077 122.6007 101.2669 125.0111 110.7616 107.7751 121.7471 102.5367 108.1534 96.4354 113.4084 108.9812 119.9724 118.8604 118.3458 119.2262 119.5711 117.5685 116.8077 118.3305 114.3972 110.1777 107.9544 110.2764 114.8284 114.9263 114.7335 114.2162 114.4702 114.3644 114.4409 114.5807 114.6137 114.8376 114.9960 115.2161 114.4676 115.5469 116.1268 116.4318 116.3134 116.4758 117.4404 117.8094 118.2224 118.4197 120.2611 111.8890 112.6934 104.8810 120.1900
111.2300 110.6922 111.0350 110.9664 110.0823 107.5049 105.4365 106.4783 104.3835 108.5882 107.6133 113.1524 124.7177 122.8254 122.0574 128.3682 108.0564 99.9079 122.3495 122.1445 111.7398 95.6676 111.0248 101.8583 110.6348 114.8707 118.8390 118.4485 109.3933 116.5109 116.7608 108.6219 117.4949 101.1675 101.3916 114.6253 108.5951 113.6914 114.4237 114.0118 116.3113 113.5791 113.7752 113.6000 113.6917 113.8560 114.0379 114.2879 114.5629 115.0401 115.2625 115.6153 116.0780 116.4507 119.0688 119.8449 117.4525 117.3644 117.0863 112.7390 110.2866 126.9604 106.2171 109.5600
113.1300 115.3228 111.1642 111.0137 110.8360 109.5029 106.0480 104.6405 102.7576 110.9891 117.2538 115.1556 122.1823 122.9412 123.1794 115.0489 114.9142 104.6919 97.5216 121.7649 120.5741 116.9607 121.3429 118.1696 103.8716 118.2113 117.9467 117.9214 112.7079 116.4668 116.7294 103.9728 100.8156 93.6643 111.3991 108.2372 115.3784 114.3041 113.7099 113.2233 114.0096 113.8953 112.8575 112.8248 112.9267 113.0911 113.3288 113.5933 114.0123 114.3062 114.8034 115.0991 115.2463 116.8563 99.2214 110.8881 116.0860 118.9130 120.1840 99.2411 104.5733 111.5340 104.6409 108.9100
109.7300 115.0559 110.5177 110.9135 109.1721 107.4964 111.0708 104.3605 102.6218 113.4546 122.4325 121.0831 124.1169 120.9536 114.9350 121.9138 122.5527 122.0447 115.5988 123.0219 99.8683 121.9126 113.6485 118.7102 111.7931 117.9017 118.0583 117.5651 117.7741 116.9256 117.3606 112.3344 103.6834 104.7219 114.4963 114.2964 111.8795 112.5104 112.9460 112.4533 112.1455 111.8426 111.9358 111.9302 112.0477 112.2510 112.5287 112.8533 113.2119 113.8325 113.7769 114.9628 115.1158 115.8290 106.8049 106.1994 115.1532 101.1542 102.3848 102.6933 108.1224 98.2235 112.8735 106.4700
111.2300 111.1488 109.6952 109.3471 107.6747 110.0763 110.3755 104.1033 107.1829 102.4683 121.7094 106.1862 122.5757 101.0902 118.7253 121.3556 127.6380 105.8210 124.2258 120.3590 117.3981 113.7711 105.9591 120.1012 118.7405 118.0905 117.7460 117.2918 116.8137 117.9956 106.5378 106.7068 115.7998 109.9664 94.8784 108.2907 112.9514 112.3560 111.9809 111.5663 111.2524 111.0584 110.9208 110.9399 111.0784 111.3335 111.6740 112.0766 112.2575 120.6478 113.8484 101.5641 115.0890 115.6375 116.6566 102.3925 104.5772 116.1651 119.6671 114.4700 95.9391 96.4510 106.2544 119.3200
111.8700 111.5390 111.6794 111.4399 108.5155 108.3096 104.9176 101.5897 101.7656 122.6377 113.5578 99.3317 104.2101 103.8774 103.8858 104.8015 122.9609 118.2678 121.3494 120.4536 121.5571 119.5925 119.2782 118.8795 118.3869 117.9716 117.5292 117.0881 116.3310 117.1746 99.1230 99.6137 111.0052 115.0760 108.7904 127.0872 110.6124 111.7733 111.0638 110.6086 110.2030 109.9291 109.7980 109.8243 109.9973 110.3170 110.7377 111.2510 111.7208 111.1780 112.7632 114.9190 104.8531 109.7030 115.2212 115.3388 116.5634 117.3491 105.2683 117.5375 98.4363 106.5676 101.6650 119.2600
111.1800 110.9110 114.4611 111.8031 110.8775 110.1985 109.6227 105.6854 103.1756 102.5661 103.3291 101.2254 125.1943 122.9690 112.2826 117.4879 121.4007 122.2507 120.8883 120.1176 119.9682 119.7392 118.9303 118.6064 118.2225 117.7953 117.3224 116.9087 116.1466 114.2980 109.1294 113.9264 114.6292 113.2687 112.9194 111.5773 111.5415 110.7788 110.1493 109.5463 109.0428 108.6795 108.4922 108.5316 108.7636 109.1799 109.7192 110.3953 110.6326 110.7627 112.3037 112.8639 114.1902 115.1121 114.7306 115.2603 115.2002 114.9641 117.7638 117.0555 129.6120 126.4690 119.3256 109.9500
113.7000 113.3895 110.2956 110.0865 109.3496 108.4096 113.0714 104.1174 106.7971 113.1708 119.7238 124.5932 122.4908 121.5219 120.2792 120.3133 120.5130 120.6608 116.7669 119.7103 119.0187 115.1230 118.9244 118.7701 118.0235 117.5880 117.7770 115.0088 118.5882 112.9779 95.9736 115.7734 113.5350 112.4014 119.0180 105.7775 111.3433 109.8600 109.1702 108.3804 107.7188 107.2237 106.9734 107.0199 107.3435 107.8961 108.5981 109.3365 110.2690 110.9806 111.7727 112.4785 113.1175 113.7636 114.5622 115.1746 117.1022 103.4646 117.6556 117.2800 114.6436 132.5295 119.1613 110.0100
111.3800 111.3715 111.8424 110.3341 110.0565 110.2898 105.7668 103.8823 106.3245 118.7461 108.7674 123.0341 121.7836 122.1240 121.7873 121.4679 120.7815 122.0794 99.8054 113.5433 118.7667 96.5659 118.1517 114.9613 118.0479 117.2847 118.1900 97.8443 112.8658 110.7753 116.9279 114.7404 113.3272 112.5405 111.9134 111.3563 109.8360 109.0225 108.0543 107.1145 106.1968 105.4960 105.1253 105.1948 105.6672 106.4490 107.3864 108.3715 109.3407 110.2868 111.1705 112.0481 112.8352 113.5809 114.2456 114.8339 98.9667 116.6088 116.1173 117.1748 117.5931 119.1706 101.6406 103.5600
112.3200 111.4361 109.9500 109.5284 109.6206 107.7129 107.3202 111.8519 107.2314 107.2201 124.0347 123.6128 122.1791 121.8397 121.5406 121.2234 120.8816 120.5035 122.7582 121.9694 117.3504 118.6080 120.0838 114.5187 117.3651 116.9607 117.7923 94.2235 100.3582 93.4632 114.8101 113.6379 113.0817 112.1304 111.2197 110.2551 110.4164 108.2684 107.1404 105.7073 104.4402 103.3827 102.7569 102.8764 103.6581 104.8106 106.0792 107.3453 108.5398 109.6404 110.6594 111.5819 112.4490 113.2233 114.0287 114.7786 115.3845 115.6519 116.4809 116.8751 117.4953 119.7571 110.4172 119.0100
113.3900 110.1918 105.9400 104.4325 105.5072 102.0429 102.9400 108.3555 104.5366 108.2988 113.8634 123.5827 122.1143 121.8672 121.5418 121.2785 120.8569 120.8937 116.2733 114.2427 120.6102 121.1392 118.5108 118.6133 118.3665 116.6121 116.9182 118.1934 127.4508 105.3459 115.2500 113.6310 112.7915 111.9447 112.0943 109.3212 111.6465 103.2047 106.1268 104.2140 102.4211 100.7025 99.5638 99.7865 101.1469 102.9698 104.7295 106.3551 107.7857 109.0586 110.1953 111.2110 112.1391 112.9812 113.7570 114.0764 114.8158 115.7177 116.3189 116.8619 117.3820 117.7220 123.7016 104.1900
103.6900 105.6801 106.7822 106.4936 120.3698 106.6958 114.8722 102.1437 103.2303 107.4430 113.6918 122.8025 121.9480 121.7000 121.5292 121.2877 120.3487 117.3981 120.9232 113.6735 121.4720 104.7548 118.2003 118.1210 117.4497 118.3624 112.6538 118.4047 103.8472 115.3049 114.1087 113.3552 112.5424 112.9586 95.9987 111.2780 108.4586 105.3581 104.9151 102.7549 100.1935 97.1537 94.1851 94.7708 98.1369 100.9986 103.4759 105.4827 107.1565 108.5931 109.8282 110.9233 111.9003 112.7892 113.5934 114.3904 115.0695 115.6267 116.2132 116.7719 117.3477 117.4463 117.4747 119.8600
104.1900 102.8022 101.4016 103.4789 116.9014 108.1235 127.9232 105.6247 98.8684 118.6724 111.3270 122.5874 122.1337 122.2474 121.4971 120.9854 122.5574 120.5955 111.3858 121.2304 119.8845 111.2215 116.6640 117.6727 116.7922 117.6036 104.6492 114.4200 106.3047 116.0155 114.0853 113.2597 112.4433 111.5874 105.6914 105.2735 106.7028 104.5409 104.5450 101.6787 98.3060 92.0874 87.9002 88.5219 94.2004 99.3135 102.5036 104.8590 106.7225 108.2734 109.5892 110.7371 111.7505 112.6598 113.4831 114.2229 114.9731 115.6530 116.2300 116.7657 117.0283 118.4253 101.5250 106.4700
103.0100 102.2110 108.8583 109.0668 113.1237 107.6355 126.3216 119.4012 117.9655 104.8369 101.7503 104.0599 122.3932 112.7258 121.2196 122.6684 104.4639 122.2887 118.3044 119.7238 119.2564 119.4966 117.5720 119.3781 117.8252 119.7403 101.9702 108.1746 95.5887 116.2321 113.7182 113.2364 112.3486 111.4683 110.6805 105.5239 103.7829 103.4238 104.1105 101.1694 97.2471 89.3414 84.5046 85.4965 91.7656 98.5310 102.0759 104.5974 106.5522 108.1534 109.4980 110.6645 111.6937 112.6114 113.4360 114.1372 114.6444 115.2386 115.8789 116.5769 116.4938 115.7226 99.6522 106.4800
109.5300 108.8205 108.8126 108.1433 127.9732 107.7889 124.3964 107.4154 105.1284 99.8243 100.1657 98.4410 116.5206 110.2798 119.9561 121.2625 117.6856 120.5547 120.1352 119.3305 118.5869 120.0093 101.0152 106.4215 106.5593 103.5103 98.3945 95.9292 98.1724 106.4299 114.0821 113.3606 112.3868 111.4691 110.2482 108.1139 107.8051 106.0752 104.1374 101.5077 97.8494 91.2768 86.9349 87.3935 93.5694 99.0648 102.3586 104.7724 106.6697 108.2393 109.5578 110.7160 111.7302 112.6493 113.4639 114.1099 115.8003 116.6082 116.9549 116.7984 116.1603 119.2790 106.5781 96.3700
112.8500 116.1703 105.3475 114.3803 111.3868 107.9830 109.7390 106.5714 103.2778 104.0863 101.4121 101.9397 120.5190 113.6283 120.7300 121.2281 121.2455 120.5927 120.5299 120.6028 121.6025 100.7101 100.2356 99.0985 98.4275 99.2901 95.6463 95.2042 92.6178 102.3919 114.1060 113.3550 112.5057 111.5945 110.5651 109.4928 108.0777 106.6010 104.7694 102.5734 99.7705 96.2132 92.7264 93.3981 97.5059 100.6295 103.2606 105.3437 107.0598 108.5170 109.7726 110.8770 111.8678 112.7654 113.5690 113.9223 114.5769 100.1967 118.9133 100.5306 101.5881 101.0891 102.2733 102.0100
112.8500 111.9000 126.0215 124.4609 124.3490 124.2806 124.5802 112.7615 105.6198 102.6664 104.0168 103.8817 123.2644 120.1646 121.4645 121.3925 120.6567 119.6451 105.0276 102.5763 102.7019 111.2208 104.8337 101.2924 100.8299 98.8191 120.9258 105.9141 115.3964 115.1140 114.2586 113.5002 112.6974 111.8195 110.8616 109.8032 108.6041 107.2393 105.7008 103.9404 101.9874 100.1416 98.7667 99.0237 100.6033 102.5952 104.4888 106.1747 107.6591 108.9566 110.1193 111.1568 112.0880 112.9398 113.7096 114.4689 115.1256 115.6055 116.2249 116.6869 118.4010 119.4860 113.8139 121.6700
118.6600 124.7913 124.2118 124.2876 123.9686 123.9124 124.0195 113.9515 105.3796 109.9843 116.1626 114.1087 113.2024 113.2231 116.4002 118.9644 120.0824 110.4092 122.4167 121.3124 103.6282 103.5237 95.8184 93.6034 117.0964 91.5779 117.7023 103.2012 111.0197 114.4606 114.5859 113.6992 112.9517 112.1295 111.2412 110.2620 109.1980 108.0313 106.7725 105.4008 104.0890 102.8772 102.1901 102.3184 103.1975 104.4694 105.8281 107.1482 108.3893 109.5235 110.5668 111.5102 112.3861 113.1837 113.9285 114.6056 115.1916 115.6970 116.3025 116.8714 117.1783 118.2662 118.3995 108.1200
125.0200 124.8344 124.8194 124.5604 124.2972 123.8625 122.8538 121.1261 118.4011 119.5044 123.9845 113.3024 108.9373 116.9267 96.9456 97.6571 112.0718 117.5023 121.0342 104.1300 116.8189 97.5505 97.9170 95.9649 101.8457 107.2299 110.9329 126.2691 118.4181 115.8578 114.7633 113.9510 113.2681 112.5055 111.6905 110.8206 109.8899 108.9026 107.8637 106.8331 105.8659 105.1054 104.6911 104.7699 105.3020 106.1486 107.1374 108.1773 109.1936 110.1660 111.0826 111.9373 112.7385 113.4859 114.1786 114.8317 115.4756 116.1025 116.5809 117.3646 118.7028 109.5657 117.3640 122.7300
125.0300 125.2332 124.6849 124.5642 124.3744 115.5605 122.7815 123.4100 124.0609 123.3388 123.5670 114.9742 103.9298 99.9442 103.9480 101.2304 121.8074 106.9824 121.3351 106.0214 98.4436 102.7166 103.6190 101.7998 103.9993 101.1755 103.5696 117.5980 122.8072 114.2497 114.6896 114.1430 113.6352 112.9298 112.1851 111.4122 110.6061 109.7672 108.9468 108.1393 107.4284 106.8954 106.6114 106.6601 107.0240 107.6252 108.3693 109.1811 110.0176 110.8494 111.6519 112.4129 113.1373 113.8289 114.4743 115.0893 115.6649 116.1907 116.7210 116.9730 120.2557 106.1034 107.2969 121.4400
127.2200 124.9000 124.7500 124.6000 124.2900 124.1300 123.8100 123.6400 123.3000 123.1200 122.9400 122.5600 122.3700 99.9700 99.7700 106.4800 121.1000 115.0700 120.4200 106.8600 101.1100 107.2300 118.8400 105.3800 104.9000 102.6300 103.8000 107.1700 115.7100 115.7800 114.9400 114.4900 114.0100 112.9900 112.4900 111.8600 111.2400 110.5800 109.1300 109.3000 108.5000 108.5000 107.3900 107.3600 108.4400 108.4400 109.2100 109.8800 110.5700 111.2300 111.8500 112.4300 113.5100 114.0100 114.4800 115.3600 115.7700 116.1700 116.9100 117.2600 122.2700 122.5800 103.7800 107.5900
