118.3500 104.5300 104.5400 121.0100 126.5400 126.5300 126.5300 126.5200 122.1600 122.3800 126.6300 126.6300 126.6000 126.7300 126.7100 126.6900 132.2700 126.7900 126.9000 123.7300 109.4000 117.4800 112.6700 127.1900 127.2800 127.2800 127.3700 127.4600 127.4400 127.5500 127.6300 108.4500 127.8200 111.1800 110.5900 110.4800 128.0800 128.1600 128.2600 128.3300 128.4300 128.5000 128.6900 128.6900 128.8500 128.8500 128.9200 129.1000 129.1700 129.2500 129.3400 129.4100 129.4900 129.5700 129.6600 129.8000 129.8800 117.0800 114.6300 115.7900 108.2700 130.3400 130.4000 130.4700
117.2800 105.0180 117.2818 126.7891 120.8739 126.8858 126.2297 122.8361 121.5001 123.8838 126.4851 126.4993 126.5037 126.5064 126.5458 126.8129 127.2379 126.4458 126.4436 116.1073 112.2445 110.5413 128.6220 127.5236 125.5036 127.4597 127.0640 128.8802 124.3200 110.7447 125.2384 124.1894 110.5765 113.7928 113.0332 110.6183 113.4035 122.4027 128.6857 126.3207 122.1341 125.2587 128.5706 128.5853 128.6826 128.8423 127.2185 129.0430 129.0810 129.1850 129.3207 132.0860 131.0930 129.1266 131.0195 117.6504 121.6372 114.4111 117.5236 118.1445 113.8270 128.6986 129.8630 130.4700
104.2000 117.1095 110.8971 136.2643 106.0791 121.2020 121.1310 121.1181 120.0784 125.7158 126.2321 126.3383 126.4128 126.8627 126.3677 126.4471 126.4815 126.1670 132.6279 123.4678 113.8270 109.1944 128.5378 126.6892 122.0571 125.1396 128.3783 120.0063 110.4945 119.6799 122.8472 107.4106 104.6963 113.3742 118.6883 109.7186 110.5632 112.0777 129.6028 128.2632 125.8409 127.4321 130.6381 128.3770 128.5409 129.0327 128.8452 128.6739 129.0206 129.0646 129.1113 128.9460 128.0318 124.0215 131.7260 110.1947 115.1949 116.1902 111.5561 106.9675 117.9189 135.1612 129.9704 131.4200
115.7400 109.9875 121.1319 125.3220 108.0019 121.5264 121.3488 119.3923 125.9157 126.3072 126.1222 125.2180 125.4989 126.0777 126.1664 126.2740 126.2967 126.1918 128.5883 110.3880 118.1675 120.8366 117.6902 119.0840 134.1587 119.8635 129.0166 107.6531 127.0608 112.2138 127.5770 104.0355 108.3161 114.8501 119.7962 113.0653 107.4405 114.9529 117.6924 127.5891 120.5217 128.2394 126.4368 129.4176 129.0016 128.0443 129.2019 129.2042 128.8761 128.9848 128.9803 128.9909 130.2133 121.8181 112.4330 112.5608 117.9627 109.9716 107.7266 106.9520 125.8259 131.2631 131.3834 131.2000
114.9300 117.5732 118.4632 119.3129 106.4256 122.6975 120.8743 119.5935 119.9139 126.6917 125.8982 125.8470 124.5883 127.2509 125.8431 126.0999 126.1311 126.1940 126.6097 119.2574 125.5947 137.4280 107.6748 106.9196 127.4071 127.3653 127.6939 128.0531 128.9154 123.8928 126.0630 103.0564 113.0967 132.4355 108.2122 112.7292 119.7904 126.2924 129.6568 128.1039 129.9274 128.3288 124.6818 121.2746 128.8498 129.8359 116.8444 127.5573 128.8411 128.9546 129.3430 129.8261 129.3302 112.5118 113.2643 118.6746 109.2062 106.8997 107.6171 107.7324 118.6844 132.9886 131.9061 108.2100
115.2500 117.0647 116.2755 119.8960 117.8335 125.4032 111.6706 120.6684 118.9901 126.4235 125.5797 125.8492 126.0485 125.6163 125.8861 125.9011 125.9607 125.9896 126.1604 126.4623 126.3455 127.3043 117.9407 129.8697 125.1997 126.6671 126.4973 126.3880 126.9665 118.2662 124.2178 118.9483 107.5219 108.8311 109.6191 129.6270 126.9723 127.1102 130.9701 106.9568 121.7737 128.3037 127.9530 127.4768 128.2234 128.3861 126.2475 128.6475 128.4747 129.4928 129.7179 109.9631 112.0282 116.1979 113.0845 117.5114 111.6823 107.5314 107.1577 108.0499 104.0005 129.6352 113.2596 130.9100
121.6700 125.1198 110.1333 119.4791 112.3464 125.8815 112.8682 120.0153 118.5250 126.5075 125.8721 123.5791 126.0587 125.7306 125.6745 125.7336 125.7840 125.8497 125.9095 125.9570 125.6636 114.3936 124.9098 125.9296 126.2585 126.5386 126.5284 126.6145 127.0567 125.7190 103.2502 104.4174 118.9168 106.1110 105.4240 125.0639 127.7700 127.7205 123.5479 127.3314 128.1495 127.9211 127.9025 128.1121 128.2177 128.0745 128.7330 128.3193 128.7091 129.1228 109.5338 106.6378 112.1021 108.9041 128.9349 114.3900 115.0868 112.0095 107.5421 113.4304 131.1015 131.6362 115.3653 131.2000
114.3900 120.8414 112.4053 132.1753 105.8953 126.7962 119.7495 119.4764 119.1168 114.0974 125.3516 116.2076 121.5562 126.1051 125.5288 125.5695 125.5983 125.6498 125.7095 125.7636 126.0515 131.9319 119.6712 121.6521 125.6755 126.2371 126.2473 126.5239 126.2606 127.3349 122.0610 127.5629 120.6762 106.4118 109.2216 128.6514 127.1833 127.4363 127.2858 127.9471 127.3959 127.0355 126.6814 128.0999 128.0540 128.2013 128.3611 128.4864 126.0911 123.0636 114.1355 108.6999 107.9135 126.7433 107.0308 105.8280 107.7602 109.5437 131.6222 128.3578 130.0078 129.1484 121.6332 107.9800
113.0000 115.9579 114.5804 125.9833 106.6836 131.2535 118.6689 119.1332 119.1160 111.0346 125.5399 126.9063 123.9071 120.4075 125.4956 125.3736 125.3993 125.4647 125.5473 125.6108 125.0404 127.2173 117.3100 120.8953 126.0642 126.7845 126.9618 125.8799 125.3959 105.0928 110.7023 106.9630 115.3685 127.4179 124.0551 126.9876 126.8305 127.1035 127.8813 123.4895 127.9956 125.1688 127.5373 127.9469 128.3437 127.2320 128.0671 127.7490 128.8399 129.2907 114.3309 117.9806 131.3974 129.4215 126.3253 105.7597 108.8078 119.6441 128.9812 129.5241 131.0589 122.6777 111.2211 107.9500
112.0300 116.4909 113.0695 134.0406 106.4481 131.9342 119.4855 122.5437 118.5565 112.6321 124.7738 117.6039 118.2203 117.5359 125.3652 125.1651 125.2069 125.2793 125.2863 125.5119 125.3917 125.4256 126.8628 125.5481 125.7846 114.2660 125.5229 126.6516 120.8209 120.8280 126.9830 127.0673 123.9369 126.0455 127.0398 127.0274 127.0407 126.3464 120.4810 111.9303 126.4623 127.7841 127.9888 126.5214 126.1272 127.5393 127.5336 127.6961 128.2325 129.7027 124.1883 120.1593 127.5135 119.8830 104.4239 104.8719 125.6609 128.6709 129.1145 129.7741 129.3033 116.3943 134.4392 130.7500
112.1900 113.1889 103.9270 112.9698 102.3155 118.0355 123.7481 132.0177 110.8540 110.0200 115.7771 117.9262 113.8814 125.0001 124.9180 124.9533 124.9988 125.0929 125.0775 124.5805 123.0385 125.5348 125.0952 125.8665 128.1035 116.6340 126.4400 126.2513 118.7951 126.4161 126.1421 124.8494 125.7708 126.2945 126.6229 126.7247 126.8563 121.7731 103.9192 125.0494 126.6932 127.8890 126.8190 124.9006 125.1966 125.8703 127.5976 127.0290 128.0492 128.1894 107.6080 112.9291 130.5779 107.3488 108.9399 110.3812 114.6094 126.7254 128.7600 129.4025 130.9605 132.2631 125.4826 131.4300
124.3300 108.4621 115.2614 114.0332 99.9230 113.6185 118.4698 124.6554 125.4950 114.5644 110.0234 117.3273 109.4380 127.0405 124.5236 124.7055 124.9539 124.8412 125.4568 125.6776 124.9414 125.2305 125.0316 126.0985 115.5123 128.3557 126.1328 125.5998 125.8593 126.7240 118.3206 127.8000 126.3940 127.3636 127.3553 126.0328 126.9710 123.5680 114.8707 121.9291 126.1755 125.0697 123.3441 122.0707 126.0478 125.2031 127.2538 125.9196 127.9461 126.6483 122.2888 117.4327 117.1106 107.7556 109.7914 110.1550 109.4542 130.6568 128.7450 129.1959 129.4090 129.7510 114.0120 107.6800
124.1100 107.9968 108.3692 111.3313 105.2104 116.9402 108.4512 120.0165 112.7532 113.4744 111.4602 111.4469 123.6917 124.3693 124.3916 124.5203 121.4604 126.4320 118.0241 123.9950 124.8250 125.0706 125.1255 125.0861 126.2031 124.6576 125.5326 125.5138 125.6762 125.8088 125.5578 125.9294 108.9077 127.6338 122.3018 126.8656 128.0076 124.3427 128.0066 126.5359 125.1147 122.8735 124.6800 124.9270 126.4566 126.2367 125.6800 126.1495 126.8450 125.1808 127.3422 119.9222 115.6095 104.6941 105.7877 104.1456 106.1540 115.6261 130.0787 129.7973 130.5534 132.0830 118.4537 107.6800
106.7500 110.5704 127.0150 114.9756 114.7295 116.5038 121.7639 115.8859 100.1775 121.1730 110.9792 113.9764 122.6698 123.9216 124.2516 124.2284 127.7641 116.6959 122.7434 125.2170 124.6565 124.7580 124.9416 125.0574 125.3789 125.3338 124.9026 125.6230 125.4633 126.3576 127.2515 128.1242 120.2250 123.9771 121.9198 125.9931 121.8217 116.6818 114.7968 125.3992 124.3125 121.0308 122.3119 126.5375 125.4098 124.9665 125.3847 125.4416 123.7259 125.3721 108.6113 126.7371 125.2052 116.7060 120.3009 117.5984 123.6271 119.0462 130.0831 130.3797 130.2866 132.0310 110.9135 107.5500
110.2100 109.6395 125.0942 125.2669 114.5459 113.3330 118.9358 108.5048 116.7570 127.9962 119.4676 115.3717 121.6388 123.6378 124.0512 123.8896 126.0508 122.1919 124.3265 124.2648 124.6191 124.7598 124.4354 126.3906 117.0634 121.9264 127.1382 124.6909 125.6917 120.4152 121.3920 111.2692 121.1563 122.3489 120.7029 125.4235 123.2130 125.0235 104.4490 124.8566 118.7898 121.4124 124.1521 125.1045 124.1937 124.8201 124.3336 124.0168 123.9607 125.3852 120.4970 125.8747 123.8880 125.4821 122.9037 124.7648 125.0416 128.2895 128.5259 130.0876 130.0418 125.2851 116.3898 130.6000
124.0400 124.9954 124.0521 123.5499 123.5176 112.2205 115.1410 108.3687 111.3431 125.4802 114.3246 120.3050 123.3379 123.4766 123.8105 123.6661 124.8051 117.6021 126.2450 124.4001 123.7310 123.4165 113.3513 125.1252 105.2138 103.2122 123.5321 125.3583 125.5179 125.2304 126.6620 110.4927 119.8530 121.1714 125.4504 124.0060 122.8003 125.5697 118.4717 121.3511 121.5211 124.4118 124.1716 124.5844 124.2140 123.7117 122.8615 123.7975 124.2959 113.1822 105.6520 125.1668 122.5052 128.1124 129.3390 123.1987 126.2835 126.0150 126.2607 128.4382 132.7559 128.5299 127.6641 123.8500
123.2100 122.6228 122.3637 123.7696 114.8828 117.4414 113.2264 122.1009 107.2300 125.6741 123.8194 128.5444 123.0729 123.4550 123.4826 123.4907 123.6689 124.0737 121.6556 130.9391 123.8666 125.7506 125.2826 110.2246 123.1451 101.7378 106.2952 123.0658 124.3806 126.4359 116.2835 106.7976 120.6911 120.1167 121.2638 123.2852 122.7781 124.6689 118.5765 117.5765 125.4100 123.7189 123.3089 123.6896 122.7921 121.4751 123.3105 123.5078 122.8390 122.4384 119.4476 120.2388 126.9909 118.6286 105.0878 105.7978 123.2920 125.0813 127.9139 128.8910 129.0571 132.2799 135.0844 125.8600
122.9700 123.3442 123.1483 124.0363 109.1176 110.3342 112.7702 105.3850 106.9305 125.0060 122.5285 122.9127 124.3506 123.3407 123.1739 123.8320 123.6122 123.6117 123.2391 123.7265 123.7474 124.4815 125.0014 127.0671 99.4247 109.9613 99.9424 105.4524 110.3387 115.4536 125.3909 119.7963 120.4714 121.7006 123.5395 123.4737 123.0043 115.0660 107.4990 125.8244 124.4977 122.1851 123.9436 122.1144 121.6053 122.3562 122.2440 122.9676 123.2582 123.7044 121.2467 126.8558 113.0107 119.0584 121.7936 123.6618 121.4599 128.1924 128.2873 128.6546 133.9198 132.2799 125.6782 125.6500
122.4700 122.1435 117.0667 118.9539 101.2357 112.3475 108.2170 103.4099 105.6946 124.1208 122.8989 122.7721 122.3058 127.4528 123.0328 116.1102 123.0506 123.2931 123.5398 123.5649 123.7864 123.7675 112.2143 114.0180 113.7097 113.7959 104.7236 109.4321 109.8362 103.6671 116.1583 120.6594 121.5251 122.5185 123.3121 118.3306 122.8427 108.2691 103.9941 105.6365 104.2477 113.9578 123.3123 120.3996 121.0272 121.3602 122.5010 122.4924 122.7432 125.3447 124.4135 122.0995 122.0177 120.9660 121.4005 127.2515 127.3857 128.8674 133.7962 131.7769 123.6970 125.8145 129.1546 132.4100
122.2100 123.5305 121.2091 110.4369 118.5225 109.0863 109.9785 124.5567 122.5360 122.4949 122.7854 122.4806 123.9018 123.1645 123.4064 111.2337 120.7293 123.4742 123.1572 123.3237 123.4535 123.4373 124.8398 129.8956 118.2633 113.9271 117.7698 103.0898 105.7981 107.9816 120.5024 120.3734 122.3071 123.0091 121.6712 111.9538 116.3306 106.4582 104.3938 105.6636 117.8256 122.5422 119.8123 119.5667 120.7111 113.8225 122.2130 123.7172 123.0794 122.9821 124.3019 114.7589 112.7302 109.3990 130.3678 129.5529 127.6641 132.6800 125.3905 124.0332 127.0928 131.1043 132.7855 132.4900
121.9400 103.1586 113.2944 109.3722 120.1037 108.8439 108.3520 123.0827 122.0592 122.5926 119.7575 122.5842 122.9338 120.0459 115.0190 111.8429 123.2600 120.9165 123.5445 123.5060 123.3169 123.2927 123.9030 123.8844 119.4175 105.4463 107.1763 103.6572 103.9995 115.1632 120.1004 119.8192 113.8652 116.7343 110.1617 113.6310 102.7631 103.0571 103.7450 105.6956 121.0597 112.9576 118.7920 118.4107 114.9891 109.9395 123.3447 124.7012 109.6720 117.2670 121.6424 121.7264 115.9039 116.8439 120.7551 126.3943 121.3317 116.1092 123.6713 131.4705 132.6914 127.5779 126.8315 132.2300
121.6700 107.0529 110.2744 107.0200 128.6565 120.1695 109.5161 122.0970 121.8423 121.9158 117.6417 122.7194 121.6862 106.1952 113.9123 109.3540 118.7155 117.1820 122.6193 118.7458 123.6036 123.4512 124.1070 115.2565 112.2595 100.8933 101.9478 106.0308 106.7847 114.9492 108.4518 109.7414 105.5727 108.0370 102.3646 102.5945 103.1595 103.0569 104.0530 103.7094 113.4133 112.1295 117.9325 117.6352 114.5889 123.1498 119.7331 119.8901 111.3368 103.3639 120.4961 119.1776 104.4096 106.6486 104.0000 102.3715 103.3454 109.2177 113.3133 126.4821 128.0115 127.1088 119.4290 119.2300
110.5700 106.5453 104.1735 96.6632 123.4070 120.1818 130.2663 121.2845 121.6395 121.6682 121.9960 121.7377 122.0760 121.1585 123.0213 117.5869 109.1674 121.6355 124.5864 118.8015 122.8779 121.8003 124.1323 108.8747 102.5290 102.9774 101.1202 106.6618 114.4485 109.0324 107.9148 113.2570 105.4288 102.2597 102.8528 103.0495 103.0555 108.8032 111.7181 108.8718 106.3200 117.2601 118.7377 121.1000 121.2079 113.6305 109.4285 117.5497 122.1601 121.3286 122.9571 102.2666 105.2091 106.1442 105.8083 114.8263 106.0477 106.0604 105.1200 122.3317 120.1139 122.9416 124.2907 118.9400
99.0800 106.2354 111.5200 98.3295 120.3220 121.0653 117.7791 119.3060 121.6767 120.8886 122.3106 120.9712 121.1517 109.4651 111.5150 117.1492 114.3232 108.1352 119.4876 123.3466 122.4440 126.4259 122.4947 100.8224 113.5414 103.6042 104.4767 99.3797 109.2169 102.0838 112.3147 111.8070 112.5123 102.3624 102.7838 105.0066 102.0837 116.2855 117.3639 118.1901 116.8930 116.3642 116.9639 113.2286 119.0315 110.6790 119.2833 125.5401 124.8186 117.8522 109.7653 105.3780 105.5987 105.4088 104.8789 111.8949 103.7147 106.4383 113.5757 119.3805 119.5257 120.2810 122.6386 122.9800
113.5100 105.2810 104.6716 96.2890 109.5098 121.7347 121.1050 113.7501 117.5261 120.9695 117.2751 106.7691 121.4023 120.1050 113.5482 108.5640 112.8381 124.0261 118.7850 122.9318 121.7108 127.0926 126.8743 126.0499 113.4074 105.3498 110.4835 102.6642 101.6540 108.3033 112.0269 116.0523 107.6387 110.2708 103.5935 102.9322 106.8763 117.3655 119.6476 107.5463 114.5473 120.7250 112.3483 107.6076 121.2888 121.7545 124.3485 114.0352 105.1231 117.8421 103.2182 105.4029 105.5448 106.7377 105.6174 105.2847 116.5366 115.5280 122.3334 120.5555 122.4437 118.9941 120.4949 120.0300
100.8300 99.9353 104.3266 106.2682 122.6504 120.2410 120.4572 117.7765 116.6522 122.7256 122.7966 115.1331 120.7496 115.2380 128.3827 119.9315 121.9007 124.1762 119.9615 121.9104 122.2369 121.6948 124.3848 124.8725 108.3286 110.0061 107.8406 111.2113 107.0294 110.7878 112.3936 120.6609 118.4666 108.9533 100.1738 112.0993 102.7824 117.1422 108.9305 105.0888 107.6220 104.9037 103.7716 102.2237 122.5212 112.6130 118.5390 119.5724 103.4000 108.1953 105.1476 105.4135 104.9984 103.9281 112.3051 114.8359 116.6000 115.8628 122.6561 123.4633 120.9140 119.1928 118.3304 119.4600
98.7200 111.3373 114.1925 122.4349 119.7849 120.0866 120.2540 121.2457 120.9650 120.5667 123.7096 122.8660 120.6683 121.9683 126.7820 117.2418 125.8095 110.1562 126.0481 122.5328 121.8484 121.7158 119.0490 108.4491 102.2745 110.4791 110.4373 106.3944 106.4276 113.2616 102.1360 108.9208 106.0549 113.7110 113.6189 102.1516 107.6792 120.9941 106.9097 107.0783 114.7715 103.8763 121.7394 118.5971 120.1056 115.3192 112.9964 105.3044 104.5901 104.7644 104.9665 104.3726 110.4724 114.4153 116.3057 116.7267 114.9235 115.5820 118.3682 119.3897 119.0967 119.1925 119.5965 120.2300
102.5600 119.7023 121.2799 119.4086 119.6628 119.6702 119.6825 119.7067 119.6941 119.9042 119.4004 120.0785 120.1557 120.0384 117.9014 120.1043 129.0149 127.5195 113.3106 106.0505 122.3436 123.4380 113.9262 102.8079 111.5981 111.2504 107.7407 109.6309 111.1522 110.9132 110.5699 110.9551 113.2536 113.2637 116.8394 105.8175 105.1620 105.4519 105.2824 118.4335 119.6324 119.2518 119.9724 115.9264 121.4578 121.6065 114.7889 102.6266 104.5276 104.4992 109.5075 114.7787 115.0544 114.7573 115.5062 115.9037 116.9771 117.1542 118.3788 118.7170 119.2892 119.8557 120.7462 120.6300
97.4200 117.5078 119.9416 119.1376 119.2233 119.2603 119.3081 119.3764 119.4611 119.5045 119.7582 119.7056 120.2224 120.5670 120.2262 120.7905 120.4311 120.8103 120.0410 121.4828 121.7785 112.0277 107.5650 108.8357 113.7612 104.0032 108.4689 110.8213 109.4351 110.0777 108.7492 112.9145 113.4182 114.1647 114.7146 102.3272 105.1027 107.4661 108.5104 119.4371 117.9289 118.5489 117.7267 121.4578 114.2110 102.2211 104.5791 105.7293 108.0497 114.2741 113.1665 113.0859 113.3023 114.7436 116.5229 116.1282 117.7291 118.3207 117.8380 118.3652 118.8497 119.1693 119.6802 120.1500
119.0500 119.2534 118.6109 118.7753 118.8101 118.8413 118.8949 118.9645 119.0654 119.1636 119.2774 119.3497 119.4607 114.4071 120.1204 120.0697 120.3267 120.5556 120.6094 119.9016 120.9865 103.0474 110.1849 107.3896 117.8869 104.7049 105.4662 108.4489 108.7222 107.3516 111.8423 112.5696 112.9195 109.4540 100.0799 104.7047 107.1384 118.5961 118.8966 118.3480 118.0783 117.8707 119.8411 117.1623 102.5778 105.8206 108.7768 113.0629 106.2081 112.5837 105.1875 107.4438 116.1386 114.0171 113.1242 116.7588 117.7577 117.5757 116.0915 116.6511 110.5969 110.3717 107.8952 110.6100
118.2500 118.2894 118.3503 118.3701 118.3661 118.4049 118.4581 118.5446 118.6168 118.8178 118.7807 118.7326 120.1769 115.5478 120.1554 119.7414 119.9590 120.3701 120.1575 121.5445 105.9274 109.0302 101.6998 99.8935 104.4728 106.0076 106.6839 108.1399 109.3744 111.4483 111.8497 114.8469 106.3689 101.6120 102.8258 104.5731 115.0593 116.1132 117.4019 118.4212 120.3434 119.1957 115.4126 115.7239 104.6840 110.7174 112.2277 108.6080 115.2536 105.9892 106.9580 113.2451 111.7057 113.3636 107.2934 113.9696 113.3020 112.4845 106.5781 110.8549 111.4127 106.8516 110.2982 117.0100
117.8200 117.9485 117.9038 117.8972 117.9083 117.9474 118.0098 118.0709 118.2891 118.0794 119.1603 121.1525 114.5060 117.2051 119.6942 119.4434 120.1377 119.9481 115.6514 110.9153 106.6009 100.6360 100.5012 104.1175 110.7135 102.8703 104.3036 108.5206 107.7865 111.3582 108.4366 108.8068 99.9428 100.7061 104.9575 111.7837 118.5678 111.8542 115.6220 114.9820 118.1698 119.1736 110.8351 110.9865 105.9030 104.1244 114.3823 107.4953 111.5987 110.5636 111.1786 105.3213 103.9939 104.0638 113.0957 103.5520 105.9423 110.4363 115.0313 118.2702 117.0169 117.9282 118.5294 117.1800
117.3700 117.4615 117.4209 117.4056 117.4186 117.4629 117.5360 117.7310 117.5366 121.2384 109.8793 117.8400 118.2043 119.3868 118.7573 118.6862 122.3366 111.2717 109.9064 98.9921 104.8122 107.1348 105.6556 108.5680 111.0213 105.6913 109.0990 108.6231 110.6452 110.9739 108.1866 98.1050 106.7239 107.2913 112.8844 110.2706 113.2879 106.4982 111.3311 112.8710 109.1245 111.0162 110.2574 106.3944 112.6790 108.3417 109.5213 111.8540 107.6045 103.4047 103.2049 104.3959 105.2424 104.1012 108.9902 108.2028 113.5275 116.7573 115.4816 117.2206 116.5154 117.8219 116.9642 117.7800
116.8900 116.9481 116.9043 116.8870 116.9005 116.9531 117.0320 117.1909 117.6869 119.3937 112.3147 119.1670 118.0104 117.7775 118.5978 120.7961 106.5908 107.6079 102.8924 109.9064 112.0991 103.8006 107.6192 103.6321 101.0209 105.0633 108.6797 106.2874 112.0108 113.8040 110.8371 107.9126 110.1596 115.4486 112.1735 102.2650 110.8802 101.7023 112.7892 110.1370 112.4236 108.2914 105.9822 107.2455 111.2711 110.4475 102.6104 104.8572 103.6980 104.5818 104.9743 104.4975 104.4524 110.4452 113.2677 114.3847 115.8453 115.9552 117.1898 113.5873 116.7476 110.2135 115.3215 111.5100
116.3900 116.4494 116.3622 116.3333 116.3528 116.4096 116.4969 116.6881 116.6181 116.8352 117.7688 117.2853 117.5517 117.6443 118.1809 111.4872 98.6750 90.7536 117.8529 121.3641 119.2043 114.5400 107.4637 101.3421 101.6646 104.5016 108.7661 109.4707 111.7625 108.4853 105.5650 114.8268 112.2929 110.6753 110.0856 109.2731 106.5550 106.2789 111.1653 108.1081 111.4799 116.9724 102.3136 111.3963 112.1231 111.3862 108.3658 103.5520 104.2869 103.9272 103.3122 107.3868 111.5576 114.6205 115.3854 114.4680 115.1147 111.1789 111.1054 109.7555 115.7932 128.1706 110.1732 112.1100
115.8500 114.9597 115.8068 115.7441 115.7702 115.8322 115.9311 116.0472 116.2758 116.4700 116.6734 116.9142 117.0646 118.7035 118.3758 115.5471 92.8444 116.2761 117.3958 106.6521 121.7626 116.5514 107.8716 101.2599 103.7399 103.8383 104.9404 103.3858 109.4211 112.2490 109.5596 106.0545 107.4651 106.3380 102.8805 102.3104 104.3037 107.4421 107.8625 107.5906 109.2081 111.5680 112.8778 114.2322 104.0602 105.9296 104.5812 103.6080 103.2064 106.7274 110.9014 113.1636 114.0445 109.2017 108.2359 107.7579 110.2342 108.5501 108.6747 109.2652 118.6196 121.0429 116.4354 118.3700
115.2800 108.4720 115.5174 115.0419 115.1314 115.2153 115.3373 115.5002 115.6829 115.9109 116.1693 116.4522 116.8119 116.5549 112.2036 118.2764 115.4727 119.5767 118.3646 120.8424 104.6030 109.7156 103.8675 101.5578 106.9877 102.9048 106.3956 101.4999 99.5205 100.7671 113.2990 111.8321 107.7217 100.9091 100.9510 102.9850 103.2433 105.0121 107.4422 108.4482 107.1961 117.4873 116.5668 115.2674 101.0089 102.8545 103.5993 108.6823 110.7674 111.0257 105.4886 106.2492 106.4850 105.3594 106.8610 106.9452 109.3502 116.1545 115.7423 115.7072 116.5979 115.8266 116.8964 115.5100
114.6600 115.1970 114.9866 114.4031 114.4633 114.5517 114.6864 114.8680 115.0977 115.3523 115.6399 115.9520 116.2398 116.7161 117.0923 117.2443 117.6619 117.9887 118.3478 118.8654 116.2888 107.6642 99.0852 108.8005 109.3940 101.7761 111.5080 109.3603 111.5506 100.4367 114.5135 114.1288 102.0845 103.1396 101.1864 103.0409 104.8649 106.7219 106.5241 108.6130 110.7885 118.8448 112.4820 117.2612 119.1900 101.9559 103.7027 104.0153 104.4257 104.1817 104.6642 105.5240 105.1268 111.9623 114.2192 114.8442 115.6694 115.9128 116.4474 120.3390 118.6311 118.5123 120.8931 122.3900
114.0000 113.7027 113.5899 113.6785 113.7358 113.8301 113.9881 114.2059 114.4697 114.7661 115.0857 115.4331 115.7990 116.1529 116.5530 116.9377 117.2980 117.7394 118.0222 118.2463 118.8157 99.2013 103.2443 116.9968 98.8280 109.2117 119.8008 97.6453 106.2564 111.1875 110.2201 113.5163 116.9586 98.8234 101.6861 102.9981 105.1534 101.4161 102.4775 104.6137 106.1669 107.5696 107.9477 101.9330 103.0135 103.4954 103.5479 104.0399 104.3881 104.5238 113.6679 112.9945 113.6657 113.7620 114.5156 114.1755 119.2776 119.4174 119.0000 119.4407 120.0922 118.3820 120.0262 119.2600
113.2700 113.0652 112.9499 112.9017 112.9337 113.0533 113.2443 113.4954 113.7981 114.1449 114.5097 114.9041 115.3114 115.7264 116.1407 116.5384 116.9914 116.4556 117.7241 113.0001 109.9864 101.0212 93.5722 104.2320 101.7770 102.6347 101.9330 99.9588 102.4189 114.7106 112.8929 116.3586 106.1364 103.4214 109.9158 100.2510 106.0613 102.6550 105.3269 105.9657 106.8342 112.5445 103.1227 102.9699 105.2032 103.3598 104.9328 110.6351 111.1499 110.3930 110.4109 111.9618 117.3672 117.2738 117.9765 120.1678 119.2245 118.3205 118.9270 119.7106 118.8256 119.7778 112.4295 106.2500
112.5000 112.1846 112.0409 111.9972 112.0565 112.2044 112.4310 112.7290 113.0849 113.4837 113.9139 114.3624 114.8146 115.2657 115.7599 116.0306 116.8273 111.7577 118.8709 109.0889 98.4504 102.7175 102.0220 105.3777 101.6222 105.0848 101.6873 99.6111 105.7250 109.8357 109.7057 113.2833 109.3109 105.0816 114.5878 103.2329 105.2757 117.4551 117.0957 113.9467 113.6721 110.6358 106.6817 103.7215 113.1419 103.0165 113.5957 103.3808 110.5817 105.8211 106.3005 117.5012 116.3049 116.8476 117.2338 118.9022 118.0568 119.1140 119.9793 122.4736 119.9743 122.1340 108.9081 106.2400
111.6400 111.2383 111.0676 111.0158 111.0786 111.2537 111.5352 111.8990 112.3289 112.7991 113.2905 113.7995 114.3155 114.8163 115.2960 116.1037 116.6837 116.8398 117.1861 122.3013 102.2213 98.1944 105.9987 118.8251 100.9840 105.3552 102.2225 103.2507 110.6937 105.3571 103.2079 108.3407 109.7813 111.2273 116.7502 115.7422 110.4066 108.8506 115.6376 104.1900 108.1474 104.6153 107.0005 102.1051 101.1537 102.6224 105.2070 113.1165 115.2151 115.3224 113.6427 111.3428 113.3105 118.6256 119.3719 119.1190 119.6129 120.0743 121.3768 119.3347 121.9930 115.4789 115.8562 120.0700
110.6800 110.1885 109.9664 109.8910 109.9790 110.2059 110.5621 111.0067 111.5242 112.0754 112.6580 113.2291 113.8078 114.3801 114.9038 115.1142 115.8222 116.3636 116.7327 106.1227 106.1324 101.6552 99.1324 99.2570 100.5313 109.1311 109.2040 100.8819 109.4372 105.0211 106.1202 110.3870 111.4957 111.5210 105.6687 112.8992 98.0780 105.8320 115.0960 112.7125 109.5703 105.8153 101.0538 103.6155 107.2791 113.5740 115.7380 115.5721 115.0119 115.9983 107.5689 103.2681 111.3454 112.4121 111.7278 112.0347 111.1879 119.8679 112.8379 103.4164 111.3577 109.0519 108.9101 117.1200
109.6000 108.9950 108.7069 108.6092 108.7234 109.0190 109.4751 110.0399 110.6666 111.3272 112.0008 112.6659 113.3060 113.9458 114.5727 114.6650 114.2752 110.3084 101.0651 92.2790 120.0434 110.9697 95.1643 113.1449 97.1241 113.8100 109.9226 103.3928 106.6559 110.0244 111.6252 112.4997 110.6670 109.2428 99.1074 114.9965 98.9669 110.7323 110.7526 111.7634 111.6009 113.5120 107.1453 112.9546 114.5007 113.8255 114.3488 115.7937 115.8413 118.1272 112.8810 103.9045 101.6834 101.1067 110.5509 109.7813 114.6945 118.7844 111.2989 112.5861 113.2770 114.3922 121.6473 119.2200
108.3500 107.6334 107.2437 107.1038 107.2623 107.6636 108.2702 108.9930 109.7745 110.5559 111.3439 112.0983 112.8266 113.5276 114.2182 113.8366 110.4984 114.9096 106.9638 112.9914 117.3557 119.0124 91.0840 112.7627 100.1568 108.3792 101.6388 115.6257 104.2292 104.6979 105.6181 105.4247 104.5585 104.9901 108.9751 111.6405 106.0768 110.0816 110.8620 111.1118 111.2822 112.5286 112.7871 112.7491 113.8026 113.8752 114.1739 114.7220 114.8004 117.4586 115.5587 110.4004 112.9773 113.5162 118.9549 119.7976 119.1156 119.7201 121.2746 120.8602 120.5638 119.9648 119.9008 119.2000
106.8800 106.0556 105.4801 105.2853 105.5107 106.1050 106.9339 107.8674 108.8360 109.7915 110.7014 111.5646 112.3702 113.1401 113.8516 113.4078 114.6571 116.7270 118.1149 117.5308 116.9277 118.1197 115.9044 114.0436 116.0665 115.0671 114.9502 117.7015 111.2872 113.6781 110.5840 100.9205 103.7500 106.0228 115.8071 110.2673 111.6728 111.3754 111.6370 110.7508 111.1736 111.5454 112.5526 113.1681 113.5990 114.1355 114.6701 115.1390 115.7328 116.3852 113.1131 117.0654 118.0880 118.7259 115.9759 118.4163 118.6767 119.3322 118.9111 118.7794 119.7290 120.4632 121.0364 120.6500
104.9000 104.1902 103.2971 102.9672 103.3450 104.2518 105.4446 106.6821 107.9013 109.0416 110.0986 111.0697 111.9616 112.7959 113.5395 114.3634 114.9291 115.3458 115.9427 116.6005 117.0708 118.0700 119.2380 119.7838 114.9985 118.4137 119.1141 120.2905 120.0796 112.8232 118.1473 108.3067 101.5376 105.5066 108.2138 109.1835 111.2101 111.1401 111.3151 111.3785 111.6630 112.2278 112.9794 113.1535 115.5364 114.2155 114.1981 115.2388 115.0985 114.7618 120.4685 116.8562 116.8607 118.1431 116.9562 118.0596 119.2880 119.6421 119.6604 120.1979 119.6426 119.6839 120.5933 122.0600
102.7700 101.9365 100.4688 99.8530 100.5441 102.0614 103.8195 105.4927 107.0077 108.3562 109.5584 110.6365 111.6109 112.4942 113.2977 114.0388 114.7445 115.4201 115.9475 116.4755 117.4700 117.9385 118.0027 115.8253 120.2570 119.2058 120.2854 120.2755 121.1319 117.1551 119.0473 109.8666 104.9103 105.1576 107.6251 109.9796 110.2909 108.5748 109.5517 110.5930 111.6551 112.1677 112.0000 117.5834 110.0180 114.3317 114.4919 115.2380 115.1371 120.6373 103.1998 113.7744 115.6331 111.3165 118.2883 118.7696 119.3481 120.1048 118.1099 117.5365 117.2010 120.6620 116.8354 124.4600
100.0300 99.3383 96.2407 94.5420 96.4595 99.5367 102.1766 104.3850 106.2284 107.7870 109.1210 110.2973 111.3323 112.2664 113.1149 113.8899 114.6014 115.2227 115.9677 117.1895 109.2469 111.6222 120.4358 94.9039 109.5525 119.1242 100.8733 119.7767 105.6106 108.9153 100.5821 114.0145 102.1218 103.3647 106.1827 108.1461 109.5498 110.6162 110.6236 110.4987 102.8055 110.8589 109.9139 118.4828 102.2822 102.7317 116.5740 119.1283 115.6428 118.1809 102.5071 112.2718 114.9791 113.8493 121.7710 121.8467 121.9300 121.1220 115.1928 119.6290 109.9551 105.8600 106.1320 106.1700
99.3700 96.6339 90.2471 88.0375 90.5415 96.9080 100.7524 103.5387 105.6654 107.3849 108.8306 110.0695 111.1589 112.1195 112.9969 113.7817 114.5194 115.7664 110.0283 117.1462 117.2745 117.6776 118.7727 118.1864 118.7462 119.7635 120.4471 120.1969 114.5179 111.0693 116.8336 108.2508 101.9889 102.4264 103.8809 109.2554 107.4173 113.1397 110.0524 109.3457 104.8353 115.4258 113.5474 118.7819 103.3030 103.0060 115.7160 117.9562 118.1005 117.7667 103.0570 116.1618 114.4222 119.7807 120.9801 122.0175 122.8306 124.2117 117.5209 120.5921 111.0433 109.6094 114.4209 106.1700
99.0000 94.7807 86.7523 84.0183 87.1645 95.2682 100.0568 103.1552 105.4135 107.2153 108.7030 109.9717 111.0764 112.0674 112.9557 113.7574 114.4951 115.2762 116.1711 116.9601 117.0588 117.3820 120.2891 92.9461 107.3901 119.4588 119.6638 121.2596 98.9909 99.4366 108.5037 101.3511 104.5693 105.9965 111.8071 107.1651 117.2638 109.6446 111.4600 109.4218 106.7914 101.5371 113.0477 116.7621 103.2732 106.0191 105.3826 104.8129 105.9235 111.1909 109.2575 110.5891 111.0075 116.9024 120.2029 121.2158 119.2058 116.2300 122.1674 115.8358 113.2413 116.1433 120.9668 106.1700
99.0300 95.2346 88.5639 86.1503 88.8816 96.0826 100.3819 103.3347 105.5297 107.2926 108.7565 110.0133 111.1141 112.0966 112.9358 113.6650 114.5042 115.2252 115.5115 113.1502 114.2084 118.5014 112.8069 96.1599 110.7924 119.3485 118.5581 114.8045 105.1739 105.4409 108.5416 102.9158 103.8833 106.9887 111.4776 107.4073 115.0179 113.6528 111.1477 114.7565 106.2477 102.0167 105.3247 111.3128 101.1080 104.5522 104.7609 106.6085 110.2913 111.9494 111.9801 120.6976 118.8050 112.5022 124.3815 118.1295 110.9356 115.5019 120.5426 124.0064 124.2354 116.5933 115.7605 106.1700
99.4300 98.0822 93.7817 91.7454 94.1455 98.5804 101.5990 104.0267 105.9850 107.6111 108.9941 110.1955 111.2485 112.2238 113.2225 114.5598 114.5001 115.2569 115.7679 118.9937 110.3843 116.9642 104.0341 98.1804 100.7303 112.7748 108.4742 110.0934 109.9521 111.5896 100.9104 102.3346 105.2366 107.1046 107.9223 108.0518 112.7687 108.6984 113.4912 115.2126 103.9803 106.1784 106.1701 105.2429 107.0704 104.1710 109.8519 109.9280 119.7984 121.7726 122.8753 122.2688 120.5391 109.6473 123.4636 116.5525 102.6068 115.0513 118.3802 126.9049 125.0150 124.7319 109.1563 106.1700
102.2400 101.0072 99.1574 98.2235 99.2771 101.1165 103.1979 105.0728 106.6909 108.1285 109.3849 110.4971 111.4920 112.3970 113.8676 108.1519 115.1865 115.3383 116.2213 116.7568 119.4559 101.1706 108.1700 107.4033 105.3496 101.5668 116.7194 116.4706 117.6562 113.7805 105.2468 107.5047 107.0144 106.8088 107.1671 115.1594 106.6473 108.4360 105.0675 106.5861 103.7627 115.9228 118.4885 115.2642 111.6517 111.8603 117.9407 117.7274 117.7700 118.6716 119.1788 119.5787 120.8797 122.6899 120.0890 122.2076 114.4205 107.4606 100.9150 121.5279 125.5525 127.4720 115.6892 118.2400
103.2600 103.3789 102.2778 101.8713 102.3398 103.4572 104.8512 106.2047 107.5214 108.7193 109.8965 110.8933 111.8201 112.6724 113.5796 109.7983 115.1195 115.3603 114.6605 114.3221 116.7986 106.4342 95.9260 99.0652 98.4210 103.0896 107.8084 108.5931 103.3726 116.0629 107.7703 113.6035 114.2980 112.8774 111.6445 118.2921 110.4055 102.8083 100.4512 108.6423 106.3290 114.6633 106.4082 102.8466 103.4428 113.2831 115.4801 115.4751 116.2046 117.1241 117.6181 118.6134 119.0741 119.2904 119.9540 114.4684 123.7869 114.2692 116.4254 115.7444 124.0849 124.9563 124.3314 115.2500
106.6600 105.3749 104.7003 104.4648 104.7393 105.4315 106.3711 107.3914 108.4866 109.7639 110.4580 111.3661 112.2166 112.9966 113.6782 115.0642 115.4491 115.7174 116.3977 121.2108 118.7344 114.3530 105.9543 112.3226 114.6256 110.2951 114.5723 114.5299 105.7573 108.7986 110.1400 113.7249 114.0616 114.9753 115.9738 107.2259 113.4574 104.8448 103.2048 114.1133 116.6309 115.0813 113.9967 110.7619 116.3774 113.0693 117.5413 118.3878 121.6845 118.9447 120.0022 120.4372 117.7759 119.4598 118.1682 119.5685 120.5269 122.5742 123.5267 124.1759 123.1671 120.6428 110.3548 106.1700
106.8200 107.0574 106.5990 106.4460 106.6250 107.0917 107.7336 109.5366 102.9682 110.1994 111.0451 111.9103 112.6581 113.3714 114.0645 114.5536 115.1645 115.7148 116.0893 116.9183 116.5332 119.3964 113.7729 116.6860 104.3034 101.6107 107.0818 112.7053 104.2589 101.8076 102.8957 105.9560 106.5511 108.1460 112.3716 117.2973 103.3927 101.0559 105.7590 119.2962 115.9225 109.8373 103.9868 104.2758 106.7632 107.5166 116.4007 116.2046 123.4494 123.8358 123.5880 123.8659 125.2138 104.7745 125.3501 124.3344 125.9709 123.8281 123.8229 126.3559 126.7662 113.6286 105.7861 112.1600
108.3000 108.5013 108.1698 108.0596 108.1852 108.5277 108.9567 109.6721 106.7299 111.9267 111.6656 112.4539 113.1373 113.7576 114.4177 115.0291 115.6946 116.0101 116.6100 122.4645 104.4176 105.5116 96.7809 122.5612 102.4058 101.1258 100.6550 103.2990 101.6145 107.3060 108.5917 105.7057 102.9233 106.3515 117.3238 100.0298 107.3190 100.3450 107.4325 116.2478 114.2340 111.4939 109.8272 115.9197 100.8476 102.2771 102.6702 120.9569 123.0689 123.7023 123.9747 123.5019 124.9909 123.5908 126.7347 127.1477 125.8474 127.5574 129.0494 112.5704 129.1737 129.5508 105.5734 106.1800
109.5600 109.7511 109.5043 109.4211 109.5129 109.7691 110.1634 110.4955 111.5022 111.4547 112.4672 113.1818 113.5571 114.2101 114.6710 116.2091 108.8400 117.4445 108.8628 116.1110 112.5547 99.2616 103.2532 107.4130 98.8362 104.4001 104.0349 106.2132 107.0831 111.2343 106.7074 111.1718 113.1242 116.9985 113.0861 112.4467 106.8573 110.3267 115.6578 101.3878 110.6301 106.7572 106.1574 106.4373 109.4902 119.7652 121.1610 121.1558 122.0235 123.7884 124.4256 124.4408 125.6291 125.5669 125.0279 126.4482 108.7674 126.3079 118.1177 124.4544 127.0011 129.4117 104.6998 106.1900
110.6500 110.8483 110.6644 110.5954 110.6644 110.8653 111.1847 111.5934 108.5340 91.1444 114.2012 113.6074 113.8060 114.6246 115.1979 115.4397 115.2524 117.3580 117.4073 109.3264 99.5658 96.4399 98.7458 106.9654 106.1641 108.2332 109.5515 112.3091 107.4212 108.2942 108.1405 121.8273 111.7336 118.1545 110.8999 106.9231 101.5830 101.2427 101.7039 112.6903 104.2133 107.7102 102.5412 103.6016 109.8801 114.8274 116.7126 118.2862 119.8269 120.6733 121.0676 123.9383 125.7158 126.0740 126.4576 126.6705 127.0922 128.4927 128.6859 128.6927 128.0758 130.4046 107.8323 112.4900
111.6200 111.8373 111.6809 111.6322 111.6945 111.8486 112.1137 112.1694 112.8855 111.9887 115.3625 91.7896 114.1263 115.3110 116.0693 110.9021 115.5711 114.1580 104.8651 94.3836 117.7353 98.3363 112.4939 97.4696 98.8469 107.4514 108.3822 110.1559 111.7673 112.9804 124.1509 122.1753 123.1819 115.0207 118.5678 112.7828 113.4671 106.0398 106.2504 107.2771 106.4764 108.3655 109.9806 109.9100 105.8818 110.1591 112.6351 117.2510 118.6248 119.0125 119.6071 119.7358 121.4665 121.8836 122.5295 122.7916 125.7835 126.9110 127.3347 127.9338 128.6188 130.0385 109.1898 114.7100
112.4900 112.7278 112.5999 112.5594 112.6079 112.7310 112.9478 113.0598 113.5254 113.2022 117.4073 114.0701 101.5652 115.4277 115.7985 113.9641 108.6556 98.0607 94.1732 106.9563 99.5231 104.3106 113.0771 101.6866 108.9405 100.0989 104.2732 101.1433 110.2729 108.1500 108.1402 121.7813 122.3113 122.4060 119.7642 100.0558 100.7210 110.3889 101.6841 113.3543 106.5362 105.0402 106.7767 109.3138 110.2657 111.1277 110.2797 110.3951 116.7539 117.6551 118.0106 118.5534 121.3135 121.9647 122.5070 122.4182 122.8900 124.0283 124.4360 125.6099 120.7409 124.2441 105.5279 106.3200
113.2700 113.5339 113.4281 113.4006 113.4366 113.5433 113.7090 113.9345 114.2347 114.4481 114.7465 114.8349 115.3578 118.2609 116.3208 107.6758 120.5335 121.1603 106.4630 115.5063 99.1359 114.9996 104.6652 105.3797 102.7338 101.4802 107.9235 105.3294 107.7892 107.0387 111.3568 119.9350 120.0000 119.9560 121.8292 104.0007 107.6689 100.2835 102.5915 104.4982 102.2937 103.8946 103.9394 104.3911 106.7463 116.2249 112.9454 113.9028 114.2568 111.7086 112.6993 113.0008 119.4735 119.8406 120.3780 122.3065 123.1730 123.5833 124.2332 121.9142 111.7482 107.0902 107.7640 106.3200
113.9900 114.0600 114.1000 114.1300 114.1200 114.0200 114.5300 114.5300 114.8100 114.8100 115.1800 115.6100 115.9000 116.2500 116.5900 116.9000 117.2400 117.8600 118.1600 118.4200 96.7200 122.9300 103.9500 104.6800 110.4400 108.9600 107.9400 105.4600 118.7300 104.3400 108.9100 122.1800 110.8100 111.8600 122.9300 113.4400 114.6100 101.6200 102.9800 104.8700 109.3200 109.0200 109.2800 103.0100 103.1500 111.1500 119.8500 122.1300 120.9100 112.5600 113.5500 114.0800 115.0500 115.5800 115.9900 122.4700 122.9000 123.8600 124.1500 111.4200 114.1800 106.0300 115.5400 106.3300
