124.4200 124.2600 121.8900 123.7700 123.4300 123.2500 122.8900 122.7000 122.5100 122.1200 121.9100 121.4900 121.2700 120.8100 127.9000 116.1400 119.8200 119.5500 112.4500 101.7500 116.6400 119.7000 117.0500 116.6800 115.9000 115.4700 113.5400 114.0700 113.5400 112.3900 111.7500 91.7000 109.5000 115.9100 112.2200 105.1500 102.0400 99.4200 96.2100 91.7100 91.7600 96.4900 99.4300 101.7700 105.1500 106.4600 108.6000 109.5000 111.0700 111.7500 112.3900 108.7900 111.2500 93.0300 95.1200 98.5300 103.0100 103.7700 111.4400 98.4700 114.5400 96.9900 103.1500 108.5400
124.4200 124.2418 122.8685 123.5079 123.5510 123.2384 122.9692 122.6938 122.3808 121.8559 121.7820 123.9447 120.7623 121.4754 123.4413 119.0333 119.8753 119.7588 115.9962 109.9764 115.5679 118.3040 116.5256 116.2305 113.1279 115.6120 112.3666 121.1311 117.8163 112.2714 111.8037 102.4245 108.9488 107.2239 108.9498 104.0313 101.6828 98.1422 91.6314 87.0394 87.4841 93.1323 98.9030 102.2439 104.7270 106.6488 106.4109 109.0702 101.8279 112.1162 113.0312 111.5460 105.8749 100.0307 96.2286 97.5850 102.2491 106.6293 111.8480 102.8590 106.1664 96.8374 109.5691 108.5400
124.4100 124.1482 127.1302 123.9807 123.3750 123.2255 122.9574 122.6951 122.4848 123.0628 122.1770 126.2550 122.3707 116.3784 120.6496 120.1580 119.7829 119.3729 119.6215 119.5488 118.5546 117.6366 117.2040 116.8892 116.4092 115.4537 112.0871 129.0067 123.6793 113.2644 111.4716 111.3922 109.6724 107.6574 105.7028 104.0521 101.3317 97.4442 89.7218 84.8003 85.2659 91.3821 98.2989 101.8871 104.2805 106.5910 104.5698 108.6800 97.5415 111.9061 112.4445 114.7097 111.9149 101.9751 95.6733 98.0118 101.8865 113.7580 112.9227 108.7224 99.1908 104.0870 116.4666 119.8000
124.4100 123.8307 126.1455 125.0790 123.9677 123.2989 122.9827 122.6915 122.3449 113.9813 106.8749 113.6344 113.5142 119.8919 120.6784 120.0733 119.7879 119.4036 118.8453 118.3681 118.0401 117.5670 117.1398 115.8236 115.7371 115.5387 113.6367 118.7708 116.1099 112.4415 111.5404 110.3224 109.2292 107.9674 106.3789 104.3323 101.7905 98.2833 92.0424 88.0206 88.2600 93.7827 99.1176 102.5523 104.8731 106.5601 107.7923 94.6663 105.6375 112.2115 112.5901 114.0762 98.1706 117.3198 98.6192 99.7882 102.5343 106.7095 109.3545 108.7580 107.1837 112.5871 116.7773 119.8100
124.4200 124.0063 124.9044 111.4809 124.8543 123.0191 122.8725 122.7297 122.0688 117.8889 118.4135 118.0431 121.5390 124.8997 121.0183 119.9606 119.8175 119.4489 119.0509 118.6153 118.2563 118.0314 116.6551 123.4604 115.1174 115.5328 114.6450 113.2424 113.1368 112.4286 111.4678 110.6170 109.5578 108.2505 106.7564 105.0215 102.9087 100.3210 96.9656 93.9600 94.4466 97.9819 100.6030 103.3970 102.9130 96.5218 122.5392 95.0799 109.1024 110.6769 114.2016 105.9881 112.3183 115.9560 108.0047 102.9459 105.9667 108.4018 108.4993 108.5043 107.9539 115.1288 120.1126 119.8100
124.4200 124.1776 124.1321 122.1899 123.3615 124.2115 123.3906 122.6923 122.7324 122.7650 122.6116 117.2234 123.2028 114.9379 120.6403 119.8058 119.8928 119.4846 119.1037 118.6906 117.5054 116.2627 116.9262 118.5301 116.8716 115.6702 115.6360 115.6702 113.6056 113.2714 112.2521 110.7605 109.9408 108.7450 107.4359 105.9623 104.3003 102.5781 100.7040 99.5601 99.6499 101.0095 103.3675 110.9293 104.7049 107.7908 94.2732 89.9912 110.5706 113.7020 98.8529 99.1997 98.4818 101.3771 111.9989 99.9304 104.2820 106.1762 109.8929 112.7528 109.7581 113.3189 119.5414 119.8300
124.4300 124.2312 124.0414 124.0879 124.8551 111.8357 128.2101 122.3689 122.4081 122.3019 122.0119 115.3511 107.9837 115.5397 118.7674 119.9766 119.9540 119.5668 118.7117 118.3609 117.7181 131.1521 116.3676 107.6382 107.2590 120.3074 115.2049 114.4828 113.4693 110.9745 105.7452 111.4675 110.5404 109.3542 108.2444 107.0243 105.7567 104.4861 103.3556 102.7044 102.8238 103.5427 104.6734 105.7834 107.2359 108.4927 110.8323 92.2760 109.1115 93.2155 116.5202 101.0266 100.7955 100.1682 107.5504 96.8406 102.9187 95.8045 94.0411 116.1809 109.8173 119.5475 119.6263 119.8500
124.4400 124.2729 124.6973 117.7292 124.1717 127.4281 122.3200 122.9222 122.5639 121.1620 121.7906 115.3341 108.2060 113.6008 122.3095 120.3105 119.9766 119.6114 118.8979 119.8094 106.5525 115.6720 117.5342 109.1975 115.8854 114.8188 116.1736 110.7028 114.2867 113.7624 113.1318 111.7253 110.9816 110.3390 109.0121 107.8982 107.1160 106.1690 105.4795 105.0692 105.0933 105.6206 105.7870 107.2626 108.3161 109.1052 110.2655 110.5780 113.1352 109.4260 106.2708 99.5521 100.0378 101.0178 101.9499 110.3822 116.7922 94.3625 105.3069 111.0023 118.7707 119.3582 119.7459 119.8700
124.4500 124.3177 124.2408 124.0034 123.4518 123.2599 123.2115 122.7968 122.5362 123.7541 108.7342 109.9121 108.0250 108.2433 119.6573 122.1927 120.2410 119.7210 119.2969 120.2041 111.8282 115.9210 117.8980 101.2882 101.9142 103.2882 118.7753 114.9967 114.3863 113.7162 112.9814 112.3548 111.4030 110.6924 107.4516 109.4380 108.2658 107.8528 107.1620 106.9134 106.8938 108.0718 102.6024 102.5426 109.7665 110.4318 110.0284 111.6835 112.4940 113.1075 116.0391 103.0056 109.3618 101.9593 106.6418 100.2232 93.1544 95.7746 107.6021 119.5140 119.3203 119.3131 120.4091 119.9000
124.4600 124.3646 124.1017 123.8444 123.6985 123.4708 123.0895 121.5101 120.9118 120.7126 116.4658 113.6350 110.3951 111.6349 126.3150 133.3663 119.3925 119.8785 118.4221 118.9688 119.5250 113.5900 111.2461 106.1695 102.7248 102.5753 116.0155 116.3374 115.0870 114.1607 113.5147 112.8487 112.2401 110.2156 111.4417 111.0064 109.8366 108.4264 109.0754 108.6631 108.5012 108.5105 109.3433 110.1103 110.1097 110.8533 108.8724 112.7448 112.9429 113.5630 114.5703 118.1392 105.1834 110.4601 108.2995 95.9018 99.6272 107.8681 120.2157 118.7315 119.0368 118.9638 124.1901 105.8300
124.4700 124.3943 124.1806 123.9458 123.6788 123.4787 123.1282 122.2645 117.1526 115.7299 119.9309 108.2240 117.9666 112.0990 122.0582 118.6981 120.3108 121.1836 110.9535 117.2911 119.2672 114.4377 118.5703 117.5087 98.6941 110.7616 116.4799 115.4512 114.8634 114.5349 113.9539 113.3851 112.8080 112.1165 114.2188 109.6077 108.1308 111.9954 111.8944 109.3351 109.6926 109.9965 109.9962 111.5576 111.4642 111.8221 112.5728 112.7939 113.8931 114.1351 115.0852 115.5806 111.8546 118.6311 103.2386 107.3942 101.1825 105.1197 118.5654 118.7886 119.3091 120.0729 124.2479 123.4800
124.6600 124.4555 124.2203 123.9911 123.7713 123.5019 122.9091 122.7746 119.8807 119.8501 121.0587 118.1394 113.6488 115.0442 125.4710 119.8552 121.9209 113.9127 112.3474 122.6027 119.0565 103.5540 107.7313 94.5438 108.4240 117.1104 116.3514 116.0396 115.5139 114.9599 114.4600 113.9301 113.4216 112.7378 110.1914 109.4785 105.4293 107.3470 110.9980 111.0311 111.0139 111.0389 111.6036 109.6424 106.2220 112.8227 113.0306 113.4523 113.8804 113.0719 121.1002 112.9322 102.9481 116.9213 123.3508 114.5376 101.2897 105.5266 117.5274 118.9611 119.4370 121.3190 119.7600 107.3000
124.6600 124.4409 124.2588 124.0499 123.8349 123.5932 122.2083 122.7900 122.5183 116.7875 122.9322 119.0866 110.9939 114.7160 120.2444 113.4070 108.8596 108.9206 115.1092 118.0004 120.7717 95.1949 99.9608 105.1406 116.7800 119.6006 116.4772 116.2229 115.7415 115.4168 114.9168 114.4265 113.9068 113.9619 110.2176 99.9682 117.1144 109.9809 108.5952 111.9267 111.9559 112.0030 112.5997 108.4440 112.2686 113.4483 113.6499 114.0651 113.8520 114.1022 113.5788 110.3692 104.9453 109.7696 109.4785 106.4133 114.0281 120.7460 119.3017 119.1913 119.6693 119.0818 122.7958 125.0400
124.7000 124.6757 124.3081 124.1240 123.8932 123.6271 123.6006 123.0887 123.3126 119.1325 119.2073 118.3098 102.2595 118.4625 105.1543 107.7601 98.1145 104.2933 117.6253 101.7641 106.6825 103.8896 107.7149 104.2860 104.7408 116.6277 117.3771 116.7135 117.3736 115.7102 115.4404 115.3203 114.7010 114.4091 114.8572 109.8270 110.7418 112.8235 113.8491 112.6634 112.7688 112.9156 113.0514 113.6036 113.8503 113.7949 114.2661 114.8576 114.2586 115.1129 111.7478 106.5715 107.4149 106.5967 112.0453 98.7049 114.7192 114.9349 118.9409 119.4225 119.8600 119.9101 131.3379 127.1500
120.8500 123.3891 124.4109 124.2014 123.9692 123.7214 123.4585 123.2213 122.9249 122.9386 106.0260 122.2302 116.7829 116.2537 114.3376 116.6989 99.3546 98.2278 102.3429 119.2785 123.4012 108.7056 106.2918 104.3394 102.8127 117.7534 118.9908 110.5011 112.0321 116.8157 115.8475 115.0611 107.6657 113.6768 114.4400 108.5581 112.1239 113.4218 104.0577 113.8484 113.4950 113.6963 113.8373 113.9752 114.2481 114.5858 114.8669 115.1468 117.3210 124.1263 112.3174 105.1154 108.5517 105.7346 102.6769 112.5474 112.3261 117.9960 119.1523 119.6540 119.9144 119.7062 124.5630 124.8600
124.9000 124.6025 124.4595 124.2624 124.0395 123.8153 123.5979 123.3582 123.0346 123.7915 114.2584 124.4720 122.9310 116.6945 118.4602 104.7216 96.1240 100.3900 110.4608 121.2980 107.8859 107.4591 106.4700 97.1433 109.9305 111.5632 106.1237 108.5986 113.6909 118.6785 116.3414 115.4797 102.1981 105.4550 117.4495 107.1347 112.0946 116.4166 116.4020 114.1220 114.4180 114.4222 114.5393 114.7138 114.9204 115.1644 115.4387 115.8547 116.1417 116.8547 117.0443 119.4652 120.7562 109.0782 110.1091 100.0179 113.1667 119.7520 119.5565 119.8191 120.2247 120.7179 134.0443 135.6200
124.9200 124.7696 124.5585 124.3454 124.1306 123.9106 123.6898 123.4457 123.2599 123.3283 119.6439 116.3475 102.1202 107.1318 113.1751 113.3873 125.1934 116.7357 113.4184 108.3943 107.1012 105.9194 108.6654 100.9783 104.0770 113.9378 117.0973 118.2795 117.6396 117.0731 116.8653 117.3383 114.5668 111.2227 115.7795 108.1087 115.3330 116.1307 115.4162 115.1389 115.1121 115.0889 115.2037 115.3499 115.5314 115.7527 115.9900 116.2928 115.4938 116.7224 103.8417 117.5274 111.1701 109.8258 112.4434 107.6045 117.9034 113.8048 121.2598 119.8076 120.3022 120.1146 114.3665 111.0700
124.9500 124.8282 124.6327 124.4242 124.2178 124.0040 123.7048 124.4215 123.2407 123.0557 122.7937 124.2978 99.8632 117.2758 123.4311 114.2001 118.1542 96.1914 104.3902 111.0028 123.9052 103.7152 98.1545 99.4192 101.4321 105.0306 120.6099 117.3228 118.2221 117.3186 116.9495 116.2247 116.2051 117.9939 116.7664 115.8445 116.1068 115.6947 115.7168 115.6495 115.2001 115.7854 115.7912 115.9168 116.0726 116.2681 116.5138 116.7428 116.7931 117.0138 115.6260 112.3543 119.5056 110.5351 112.1494 109.4700 117.6046 123.1140 119.1626 120.6394 120.5602 122.0279 132.8026 106.7900
124.9800 124.9116 124.7164 124.5098 124.3122 124.1033 123.5172 125.7501 123.4284 123.2346 123.0251 118.5461 119.8254 116.3949 113.0548 111.2944 111.8524 114.2566 118.2552 117.3762 107.4697 109.1086 110.3215 103.3038 100.7040 106.2700 125.1348 119.6923 117.5472 116.6683 117.0610 117.4453 118.4276 116.6029 99.4875 117.4180 116.3677 116.3805 116.2905 116.3529 120.2620 116.4388 116.5778 116.4856 116.6839 116.8957 117.0133 117.1292 117.7912 117.7856 117.2474 118.9806 117.5260 115.1264 114.8772 117.1057 110.1300 114.8243 118.1631 119.4067 121.0703 122.2116 115.1199 121.4100
125.1500 125.0008 124.8031 124.6095 124.3938 124.2503 124.7457 124.2551 122.2464 123.2509 123.7116 117.3055 124.0610 119.4270 107.3573 114.4511 114.7750 113.9351 103.9580 105.6769 104.5848 105.5863 109.5498 121.1545 105.9648 113.2225 122.5187 119.0063 121.6670 118.4185 118.1239 110.9496 107.3341 115.1552 107.7634 117.1959 117.0087 116.9108 116.8979 116.6197 111.4373 116.9828 116.8029 117.1138 116.4808 115.9364 117.5783 117.3219 115.6338 118.2822 118.3203 118.5055 118.5422 113.8734 118.7205 111.5062 107.1075 109.3815 112.9499 110.7797 120.1526 121.3908 121.5725 121.6700
125.1800 125.0840 124.8929 124.7053 124.4883 124.0542 127.7646 127.8657 123.9774 123.8256 122.4309 122.4190 113.6357 112.6401 111.9358 117.3604 113.2068 110.4309 102.7973 114.3549 112.4864 109.2880 121.6306 120.5490 103.9467 109.4686 110.0343 124.5542 119.0890 118.2669 119.2938 113.4709 106.9068 96.8958 117.4209 117.3930 117.4152 117.4271 117.3840 117.4717 117.0729 116.9529 117.3827 117.3128 120.3051 121.5972 117.7541 114.5275 121.7781 118.7161 118.6000 118.8230 119.0537 114.6898 120.5884 121.1604 113.7039 112.4182 112.6532 110.8523 112.1790 121.4121 121.9386 121.7400
125.3800 125.1756 124.9851 124.7959 124.5902 124.4767 124.2197 123.6604 123.1102 120.9796 125.2856 119.0160 110.7615 118.8755 117.8905 114.7746 109.7336 99.0827 105.3680 105.9966 123.6353 121.1414 121.0594 121.6515 117.1155 108.4204 105.5637 113.5904 119.0482 119.2308 118.7182 112.9528 109.2700 115.6233 115.5118 120.2776 117.8637 117.9165 117.8755 117.8249 117.8403 117.8406 117.8550 117.8054 122.8368 116.0675 116.9627 121.4760 112.5690 117.7751 118.4114 125.7151 118.5276 119.6755 119.8633 119.9984 121.7865 114.0051 110.4533 110.0483 115.4959 121.2302 119.6284 122.0000
125.3800 125.2702 125.0880 124.8965 124.7128 124.4943 124.4099 124.2864 122.5096 116.6594 114.9983 119.2778 114.8660 116.9947 117.8601 115.0920 101.8253 100.3217 101.8017 103.4659 123.1654 120.4737 121.2199 120.1106 107.8355 119.9770 118.9068 119.5498 119.6184 119.4482 116.8182 115.0561 95.3841 115.3987 120.1101 118.2072 118.4960 118.3611 118.3270 118.3060 118.3136 118.3631 118.4494 118.3633 115.8218 109.9846 106.9706 123.4325 107.5661 109.6235 115.1087 114.8491 116.3523 120.0700 120.2500 120.4726 121.2056 118.8497 115.2722 109.8851 117.8299 118.2252 115.8612 105.9200
125.4100 125.3636 125.1858 125.0054 124.8223 124.6721 124.3842 124.3016 123.8570 122.3378 123.1780 125.5692 122.6357 116.5822 107.8099 99.9235 100.3304 100.0062 96.8530 112.7244 122.2191 121.4703 119.9381 119.7892 114.3418 120.4709 119.8728 119.7115 119.9057 119.9098 119.4549 124.1217 99.5539 119.6913 118.9243 118.9942 118.8570 118.8130 118.7365 118.7353 118.7466 118.7642 118.8250 118.7955 117.7026 105.0736 116.9517 121.0299 110.7679 109.4404 118.4555 108.4444 120.3911 120.1893 120.6021 120.7625 120.9899 121.9939 122.8353 111.3138 118.4391 115.8724 115.6455 105.9200
125.6200 125.4610 125.2820 125.1093 124.9248 124.6735 125.0291 121.1396 121.4569 121.4245 121.3685 121.4576 128.6585 111.1623 98.2929 100.8058 101.2386 97.4373 127.6001 119.2522 121.9240 121.4893 120.8568 118.0046 121.7705 121.4346 120.6163 120.4014 120.2799 120.0955 119.9594 120.4632 119.6056 115.4422 119.7108 119.3296 119.2826 119.2332 119.4418 119.2013 119.1752 119.1936 119.2329 119.2957 119.5948 118.9270 111.2794 120.0150 120.1755 119.8856 119.2755 115.3030 121.1255 120.4733 120.8326 121.0510 121.1895 121.1379 121.4282 119.3850 117.0686 117.2736 116.2409 114.9900
125.6300 125.5580 125.3845 125.2197 125.0331 125.2088 125.3656 119.5203 119.1543 120.2811 122.4198 122.4888 107.0840 100.6495 124.1921 101.1682 103.1512 120.4175 115.9709 119.1236 122.0186 121.7702 121.7194 121.7393 121.2289 120.9227 120.8349 120.7525 120.5789 120.3858 120.2842 120.9899 114.7704 120.4529 119.8214 119.7666 119.6229 119.4537 117.8015 119.5685 119.5715 119.5883 119.6298 119.6762 119.7215 119.9157 119.4640 117.1989 120.1897 120.1093 120.5957 120.3031 120.2893 121.0184 121.1114 121.2233 121.5790 121.6143 122.1613 122.0752 122.4670 117.8633 115.3022 114.9300
125.8200 125.6618 125.5002 125.2997 125.1468 124.0539 119.6125 120.2841 120.4165 122.0595 120.7554 119.9908 119.9204 99.9292 101.5032 99.6984 104.8363 121.1147 120.6754 121.6067 122.1849 122.1022 121.8722 121.6688 121.5354 121.3587 121.1955 121.0351 120.8856 120.7408 120.5843 120.7719 117.0334 120.8355 120.1310 120.1205 119.8947 121.8713 123.2806 119.8559 119.9602 119.9720 120.0095 120.0626 120.1159 120.1702 120.2569 120.7457 120.4233 120.6700 120.7482 120.8076 121.1183 121.2152 121.3944 121.5075 122.1234 121.9558 122.0854 122.2609 122.8452 120.3141 115.2854 114.6100
125.8600 125.7649 125.6135 125.5440 124.8870 126.0299 119.3356 120.6682 121.0089 121.2362 121.4455 119.4351 114.3596 100.0623 100.3859 115.9626 122.3535 129.8911 127.9498 121.7362 122.6261 122.2686 122.1269 121.9529 121.7959 121.6275 121.4737 121.3325 121.1917 121.0545 120.9305 120.7794 121.0746 120.5447 120.5402 120.4647 120.4053 121.8819 120.8699 120.3978 120.2907 120.3382 120.3722 120.4121 120.4951 120.5431 120.6457 120.6871 120.8627 120.9565 121.0688 121.2176 121.3440 121.5085 121.6625 121.8108 121.9910 122.0657 122.3573 122.5076 122.6702 122.8922 122.9055 114.6100
126.0200 125.8847 125.6530 125.9009 120.8962 120.2902 119.8963 119.8021 120.2658 119.6000 119.2472 118.1033 120.3023 102.5825 118.4797 118.1359 116.3455 109.3254 128.2262 124.3088 122.3534 122.5771 122.3434 122.1969 122.0431 121.8954 121.7484 121.6080 121.4789 121.3501 121.2446 121.1414 120.9780 120.9551 120.8683 120.8054 120.7792 120.4939 120.6776 120.6580 120.6784 120.6913 120.7226 120.7569 120.7117 120.8338 120.9202 121.0291 121.1419 121.2701 121.3715 121.5055 121.6356 121.7767 121.9280 122.0559 122.2151 122.3731 122.5411 122.7252 122.8700 123.0132 123.1322 123.2400
126.0600 125.9816 125.8269 125.7577 125.8871 125.1670 125.2153 120.7049 119.9224 119.9145 118.9213 118.6352 121.1701 121.7294 114.9478 111.5388 106.6914 119.5278 107.7044 121.9309 123.0471 122.7117 122.5993 122.4365 122.2964 122.1398 122.0170 121.8961 121.7644 121.6407 121.5350 121.4287 121.3533 121.2606 121.1892 121.1277 121.0693 121.0727 121.0231 121.0154 121.0099 121.0328 121.0556 121.0965 121.6597 121.5428 121.5640 121.6526 121.5623 121.3813 121.6773 121.7912 121.9132 122.0514 122.1300 122.3680 122.7321 122.5070 122.7966 122.9383 123.0957 123.2743 123.3684 123.4900
126.2200 126.0921 125.9502 125.7352 125.5185 125.6038 122.2473 120.5631 120.0479 122.6969 120.3551 119.4357 122.9073 120.1605 111.3067 122.2212 102.8258 112.1761 120.4181 115.3098 123.2609 122.9404 122.8393 122.6906 122.5482 122.4715 122.2838 122.1140 122.0350 121.9385 121.8314 121.7353 121.6497 121.5743 121.5090 121.4595 121.4109 121.3741 121.3499 121.3428 121.3489 121.3533 121.3876 121.3914 119.6005 114.0629 121.7883 114.8836 121.3233 121.7980 121.9568 122.0678 122.1853 122.3071 122.4539 122.3657 121.2420 123.1815 122.7984 123.1418 123.3040 123.3928 124.0068 123.7100
126.2600 126.2039 126.0516 125.9335 125.6859 125.8832 121.8605 121.2931 121.6113 120.4626 114.7484 113.6449 121.7200 118.0336 107.5874 111.1449 116.6113 125.6129 124.4541 122.9422 122.9954 123.1259 123.1043 122.9591 123.0342 122.2436 122.4662 123.0167 122.3037 122.2118 122.1130 122.0200 121.9438 121.8717 121.8088 121.7604 121.7151 121.6897 121.6640 121.6375 121.6278 121.6702 121.7113 121.6003 121.7579 121.2137 122.3283 121.7847 122.6263 122.0976 122.2230 122.3329 122.4396 122.5562 122.6712 122.7540 125.8106 112.0129 123.2867 123.3500 123.5091 123.6706 125.4272 123.9900
126.4500 126.3090 126.1677 125.9903 126.0935 124.5794 122.9971 121.1343 112.3545 115.5977 105.5475 106.4413 116.7762 112.4431 114.9148 116.1519 120.8280 124.8951 123.7480 123.6514 123.2597 123.3279 123.2428 123.2231 130.9062 123.7179 123.2683 124.4526 122.5587 122.4775 122.3876 122.3006 122.2283 122.1643 122.1082 122.0570 122.0173 121.9845 121.9405 121.9963 122.0346 121.9538 121.9824 122.0323 122.0314 122.1109 121.9337 122.2395 122.1668 122.3640 122.4994 122.5981 122.6979 122.8067 122.9316 123.0604 124.3205 121.9863 123.9069 123.4837 123.7206 123.8085 123.8401 124.2000
126.6100 126.4336 126.2649 126.3195 125.2927 122.3316 122.5128 117.4700 103.1501 109.9141 122.8094 118.7396 114.7458 115.6642 116.3394 124.8598 124.9975 120.9255 124.3001 123.6940 121.7815 124.3890 123.5370 123.1105 123.7592 123.7121 123.0690 122.7936 122.8270 122.7516 122.6532 122.5764 122.5014 122.4401 122.3870 122.3406 122.3064 122.2797 122.1741 122.2348 120.1216 122.6369 122.3160 122.3163 122.3997 122.2974 122.8402 122.4262 122.7029 122.6859 122.7527 122.8542 122.9485 123.0504 123.1638 123.2283 123.4047 123.4775 123.5196 123.8219 123.9021 124.0377 124.2155 124.2400
126.6500 126.4887 126.5710 126.5793 123.8970 123.1235 122.0162 112.4888 119.8209 120.6509 130.6964 124.3842 120.5579 116.5541 118.4469 126.7834 114.3958 117.0474 124.9510 124.0400 124.7697 123.7363 123.6586 123.6690 123.4420 123.3695 123.2709 123.2104 123.0733 122.9698 122.9137 122.8377 122.7728 122.7170 122.6648 122.6196 122.5883 122.5606 122.5213 122.5984 121.3008 119.9564 122.6331 122.5205 122.5908 122.8411 119.2174 127.4716 122.7395 122.9001 123.0076 123.0994 123.1920 123.2912 123.3896 123.5043 123.6206 123.7526 123.8644 123.9688 124.1015 124.2353 124.3657 124.4700
126.8000 126.6913 125.8393 125.1690 126.4853 126.0727 125.4422 134.1087 130.3257 120.6591 118.0990 119.4099 106.3373 114.2863 123.6540 124.7651 114.2035 122.5284 124.0768 124.2686 124.2127 124.0417 123.9378 123.7941 123.7244 123.6188 123.4320 123.2130 123.3587 123.3365 123.1651 123.0929 123.0376 122.9789 122.9335 122.8922 122.8624 122.8327 122.8817 122.8121 115.4848 109.0194 123.6751 123.1086 122.8651 122.2835 116.2969 124.2492 123.1662 123.1552 123.2608 123.3369 123.4251 123.5194 123.6224 123.7303 123.8355 123.9437 124.0563 124.1778 124.2961 124.4237 124.5477 124.6700
126.8500 126.7288 126.3617 126.0959 126.5655 126.2371 125.6501 123.5081 125.4005 125.7437 123.1185 118.8387 105.6080 118.0055 125.4752 125.2071 125.4607 125.1048 124.6056 124.4711 124.3509 124.2351 124.1279 124.0246 123.9370 123.7358 124.1652 125.8263 123.3598 123.5283 123.4141 123.3460 123.2935 123.2330 123.1904 123.1524 123.1210 123.0928 123.1817 123.1750 120.7823 116.4542 122.4830 119.8922 123.2801 124.5366 115.4974 123.8216 123.4058 123.4119 123.5021 123.5820 123.6630 123.7506 123.8498 123.9467 124.0464 124.1525 124.2616 124.3753 124.4879 124.6072 124.7347 124.8700
127.0000 126.8998 127.4531 128.0353 124.3281 126.4125 126.4280 122.2539 123.9545 140.7560 126.1471 109.9600 126.4258 124.3827 125.4065 125.0493 125.0197 124.8068 124.7962 124.6440 124.5446 124.4438 124.3369 124.2314 124.1564 124.1418 121.4853 125.3594 123.8434 123.7379 123.6527 123.5885 123.5382 123.4899 123.4460 123.4101 123.3802 123.3427 123.3708 123.2630 123.5059 124.2511 124.4885 126.1213 122.4944 123.2988 124.2329 123.6260 123.6212 123.6579 123.7353 123.8068 123.8917 123.9700 124.0676 124.1613 124.2526 124.3579 124.4644 124.5676 124.6845 124.7931 124.9090 124.9100
127.0200 127.0165 126.9484 126.9134 126.7341 126.7437 126.0353 125.7253 127.8898 124.3602 123.6486 123.9909 126.1819 125.2962 125.4836 125.2557 125.1842 125.0637 125.0426 124.8513 124.7413 124.6408 124.5330 124.4450 124.3222 124.2461 118.8601 124.0265 124.0214 123.9958 123.8781 123.8316 123.7761 123.7290 123.6892 123.6600 123.6171 123.6873 123.6246 123.2792 123.5681 123.2751 125.4308 113.7113 129.0279 117.7663 123.6477 123.8373 123.8559 123.9006 123.9541 124.0393 124.1115 124.1959 124.2801 124.3640 124.4582 124.5589 124.6594 124.7608 124.8646 124.9758 125.0872 125.1300
127.1900 127.0943 126.9980 127.1266 119.4619 112.9123 128.7062 120.0803 126.6825 127.2604 124.7737 126.2153 128.6392 125.8095 125.5195 125.4720 125.3463 125.2401 125.1320 125.0277 124.9283 124.8328 124.7405 124.6425 124.5071 124.6581 124.7606 124.3592 124.2373 124.1433 124.1130 124.0569 124.0110 123.9621 123.9257 123.8923 123.9023 123.4538 124.2347 125.7915 123.7399 123.8130 120.1942 108.5041 118.3345 124.4432 123.9838 124.0378 124.0788 124.1337 124.2940 124.2435 124.3355 124.4062 124.4902 124.5751 124.6644 124.7588 124.8552 124.9498 125.0533 125.1569 125.2659 125.3400
127.2300 127.2378 127.0064 128.7106 113.3891 122.3390 126.7674 127.3591 125.9399 113.3729 126.9645 126.8147 117.3649 126.4731 125.6611 125.6349 125.5182 125.4164 125.3163 125.2171 125.1186 125.0229 124.9024 124.8271 124.7837 124.6264 124.5181 124.4864 124.4872 124.5000 124.3405 124.2956 124.2422 124.1993 124.1695 124.1929 123.4750 129.2286 123.9759 124.6030 124.5726 123.9878 118.5731 120.0747 125.2818 124.2394 124.1509 124.2631 124.2890 124.4979 123.8152 124.5375 124.5399 124.6180 124.6939 124.7821 124.8604 124.9538 125.0398 125.1369 125.2380 125.3333 125.4376 125.5000
127.3700 127.3266 127.2601 126.8781 128.7602 110.0995 124.2664 121.3333 130.8556 127.0595 122.2400 119.5300 127.9810 126.0326 125.8195 125.7961 125.6842 125.5859 125.4915 125.3925 125.3044 125.1410 125.2182 125.1068 124.8815 124.9215 125.3566 126.4436 124.7182 124.0671 124.5759 124.5214 124.4709 124.4211 124.3671 124.4092 124.0457 124.3267 124.3961 124.2222 116.7797 123.6549 125.4275 112.3616 124.8557 124.1344 124.4318 124.4665 124.4710 125.8517 129.1360 124.1656 124.7934 124.8262 124.9008 124.9759 125.0596 125.1400 125.2291 125.3228 125.4164 125.5229 125.6066 125.5400
127.5100 127.4594 127.3470 127.1794 127.6757 126.4036 126.5323 120.5407 104.2252 130.1924 115.6146 110.2929 129.4351 126.1607 126.0791 125.9447 125.8335 125.7623 125.6602 125.5728 125.4940 125.4152 124.4496 124.7449 125.1303 125.0870 124.9601 124.8416 135.0463 122.2884 124.7888 124.7243 124.6383 124.6586 124.7568 124.3466 125.0050 124.3059 122.8444 124.4458 124.8351 124.1855 124.3094 125.6056 125.9960 124.5201 124.6452 124.6958 124.7695 124.2127 126.9456 124.5700 124.9778 125.0247 125.0984 125.1749 125.2403 125.3265 125.4308 125.5484 125.5552 125.5956 125.7734 125.7500
127.7000 127.5735 127.4578 127.4883 126.8776 126.6992 117.8474 109.7533 120.1164 117.9658 116.6826 116.3410 124.9943 126.2310 126.1807 126.0787 126.0683 125.9082 125.8354 125.7448 125.6667 125.6039 124.4765 124.8556 125.4260 125.3084 125.2569 124.2915 124.8525 124.6909 124.9742 125.0415 125.1228 124.8295 124.1072 126.2879 120.8882 125.0976 128.5763 124.6534 126.0495 108.5465 129.0440 124.1011 125.5669 124.7502 124.8564 124.8995 124.9315 125.0506 124.7769 125.1304 125.1901 125.2188 125.2921 125.3704 125.4228 125.5132 125.5528 125.4011 125.9242 126.1455 125.4580 126.0900
127.8300 127.6869 127.5896 127.4549 127.5686 129.2354 108.8712 104.9520 112.3642 114.2501 117.6009 127.0551 126.6381 126.9408 126.3155 126.6115 125.9862 126.1523 125.9946 125.9191 125.8478 125.6769 125.6155 125.5600 124.8402 125.5269 125.4060 125.3971 125.4088 125.0895 125.4534 124.0541 124.0489 126.5719 130.1056 112.9405 129.5259 124.5538 112.2231 123.9105 116.9186 125.3410 114.0549 125.5575 124.9838 124.9773 125.1564 125.1655 125.1551 125.1863 125.2728 125.2962 125.3413 125.4184 125.4971 125.5243 125.6077 125.6793 128.3039 126.7728 124.8859 125.0871 128.1614 126.2600
127.8300 127.8015 127.6960 127.6582 127.3858 127.0087 108.8007 119.3569 116.6507 113.7770 126.2518 126.9503 126.9242 126.4766 119.4546 118.9689 127.7792 126.2509 126.1653 126.0848 126.0066 125.9408 125.7051 131.4126 126.0046 125.6615 125.5342 125.9113 124.6990 126.7356 122.9071 126.1278 127.7616 125.5034 126.5874 117.3316 118.7077 130.6604 109.8528 112.6131 111.4963 125.0217 116.0448 126.3597 125.3186 125.2271 124.6694 124.7066 125.3568 125.4073 125.4374 125.4942 125.5413 125.3743 125.6987 125.8447 125.8103 125.5164 127.4007 122.1104 125.0491 111.4931 125.9832 126.3000
128.0200 127.9159 127.8183 127.7551 127.4542 127.7172 122.1691 123.9554 118.0904 114.0127 113.0750 111.6959 127.0521 127.3581 128.3353 115.3943 126.9344 126.3712 126.3373 126.2521 126.1780 126.0947 125.5877 126.2704 125.3850 125.9106 125.7545 125.7588 117.3640 126.5675 110.0803 126.6499 132.6259 132.0209 111.6598 123.9494 115.1168 122.9443 110.6335 126.4028 123.8188 124.1266 125.9358 124.8868 125.2599 125.3402 126.0205 127.9112 125.3546 125.7130 125.6346 125.6807 125.7602 125.3668 128.1562 125.8878 125.9401 126.0174 127.4986 111.0776 127.0049 127.4017 127.3807 126.4700
128.0200 128.0363 127.9406 127.7717 128.0539 124.4575 121.7097 123.5620 121.5367 119.2394 123.4084 119.3052 127.7201 123.8905 114.1401 127.7013 126.4351 126.6189 126.4890 126.4215 126.3477 126.2532 126.2513 126.1105 126.1515 126.0047 125.9339 126.4848 126.4041 127.1122 127.4849 107.8933 121.2879 126.4389 111.3659 116.0433 120.5208 118.5307 117.5891 125.6681 124.9388 125.8967 124.7456 130.2755 128.3568 125.3809 123.1728 125.8496 125.6442 126.0049 125.8111 125.8505 125.9437 126.8565 126.4134 126.0616 126.1428 126.1388 126.7529 118.5795 126.9173 126.2670 126.5657 126.6500
128.1900 128.1555 128.0190 127.8978 129.0664 121.9280 120.0711 121.0748 115.2401 116.8663 113.9071 120.2649 122.0044 115.4854 128.5515 126.3132 126.7832 126.7141 126.6539 126.5856 126.5006 126.4686 126.3838 126.3223 126.2692 126.1795 126.1691 126.0127 125.9395 121.4151 123.3262 113.2644 119.0475 127.8320 114.5024 126.7917 126.7611 126.7420 126.8394 125.7615 125.8217 125.7277 126.3923 127.2921 125.8770 125.4557 125.9275 121.1687 113.0040 127.4791 126.0292 125.9952 126.1198 126.3380 126.6770 126.3385 126.2978 126.4143 126.6372 126.7369 126.6926 126.6033 126.7420 126.8200
128.3300 128.2671 128.1176 128.2063 127.6658 119.1944 132.0025 120.8735 116.4205 110.4610 121.5441 116.4320 122.4278 114.1034 128.2746 127.0451 126.9412 126.8891 126.8084 126.7321 126.7244 126.5162 126.3903 126.4445 126.2895 126.4805 126.1125 126.2649 126.1618 123.6721 126.3252 111.1177 124.7437 126.1277 126.4582 125.8778 125.8634 125.8164 125.7901 125.9611 125.9354 125.9797 127.3587 111.8740 127.6778 125.8157 126.2209 122.8149 111.6221 128.5363 126.1271 126.2224 126.2882 126.3396 126.3219 126.4691 126.4931 126.5550 126.6093 126.6948 126.7233 126.8487 126.8902 126.9600
128.3600 128.3712 128.5722 127.6101 119.9083 122.9398 118.2322 110.6502 114.9135 129.9575 108.1512 104.6817 127.7800 125.9775 127.2524 127.2971 127.1274 127.0387 126.9815 126.9874 126.9011 126.8148 127.0357 126.5626 126.6161 126.0118 127.5374 126.7946 127.0343 119.6840 120.2817 121.0950 124.5477 126.0356 126.1256 126.2262 126.1820 126.1839 126.1900 126.1588 126.1557 126.1763 126.1210 126.2573 126.9075 126.1078 126.2338 125.8614 125.7727 122.5701 126.3789 126.4116 126.4488 126.4982 126.5569 126.5930 126.6594 126.7179 126.7833 126.8471 126.9183 126.9789 127.0542 127.1500
128.4900 128.3691 128.5086 124.3419 121.3030 119.5110 111.6778 116.5373 115.5934 117.4814 113.3244 108.8875 125.9060 127.4508 127.4189 125.5410 127.3550 127.1225 127.2236 126.5995 126.6547 127.0762 111.0288 123.7145 126.7128 128.3752 117.5169 119.9420 122.9034 127.0548 111.5165 127.3630 126.4060 126.3850 126.4203 126.3870 126.3979 126.3446 126.3333 126.3206 126.3226 126.3375 126.3677 126.2502 126.1723 126.3332 126.4306 126.4334 126.4405 127.1355 126.5463 126.5872 126.6249 126.6716 126.7206 126.7757 126.8318 126.8845 126.9458 127.0021 127.0714 127.1397 127.2103 127.3100
128.6200 128.8287 129.0662 122.8199 120.6246 118.2426 123.4526 114.9150 115.9605 115.5101 124.0254 119.5131 126.9744 127.5815 127.6431 127.2598 127.3418 127.3091 131.1749 128.7924 127.3163 127.4533 108.9614 130.9036 126.6925 126.5771 117.3281 133.0977 111.6544 128.4433 122.5657 126.4670 126.6115 126.5950 126.5499 126.3043 126.1326 126.4476 126.6545 126.5410 126.5351 126.5350 126.5228 126.5749 126.6160 126.5970 126.5966 126.6208 126.6619 126.5957 126.7179 126.7613 126.7914 126.8408 126.8862 126.9371 126.9915 127.0445 127.0999 127.1576 127.2265 127.2871 127.3519 127.3100
128.7600 128.2746 127.2641 122.3439 120.6910 119.3590 128.5299 122.2461 120.1782 115.7809 129.8084 127.9441 128.0707 127.5639 127.6787 127.7112 127.5368 127.4259 127.1702 125.2515 115.3227 119.7107 114.0101 129.1186 126.3688 128.1251 128.8177 119.4581 111.2101 128.4487 127.2430 126.7833 126.7929 126.7894 126.5257 128.1062 133.4793 127.1468 126.9289 126.6855 126.6345 126.8481 126.7161 126.7104 126.7169 126.7421 126.7709 126.7929 126.8164 126.8603 126.8756 126.9107 126.9579 127.0031 127.0486 127.0929 127.1470 127.2081 127.2560 127.3133 127.3723 127.4358 127.5018 127.4700
128.9100 129.2413 124.7588 120.0700 121.7195 119.2195 118.6912 128.7591 121.5999 125.4395 120.4366 128.8279 127.9454 127.8833 127.8352 127.7395 127.6866 127.6421 127.4101 127.8404 127.7775 120.0769 126.5513 112.3274 126.8080 116.1961 128.0240 125.4270 119.9234 128.2626 126.9053 126.9743 126.9523 126.8548 127.7973 121.9152 132.8312 129.6289 129.9000 126.8532 126.7463 130.6009 126.4721 126.9371 126.9069 126.9248 126.9332 126.9616 126.9874 127.0182 127.0502 127.0863 127.1244 127.1665 127.2126 127.2525 127.3039 127.3519 127.4083 127.4596 127.5248 127.5815 127.6429 127.7500
129.0300 129.1008 128.9053 129.5775 122.1309 126.7986 128.5975 122.6716 117.7846 118.1679 124.3478 128.1991 128.1193 128.0387 127.9665 127.9467 127.8325 127.7745 127.7439 127.5432 127.6962 127.7265 129.0061 126.6212 125.1825 112.7744 125.2981 127.1616 128.6633 127.0632 127.1959 127.1471 127.1175 127.0487 126.4248 119.8393 116.8083 113.0539 127.7980 127.0268 127.0360 126.7137 126.8149 127.0789 127.0710 127.0877 127.1065 127.1213 127.1409 127.1771 127.2160 127.2456 127.2812 127.3257 127.3650 127.4087 127.4592 127.5122 127.5303 127.6174 127.6720 127.7186 127.7894 127.8900
129.0400 129.0182 128.8181 124.6029 130.3537 127.3039 128.9217 132.1169 129.8196 127.6779 128.0943 128.4596 128.0993 128.4199 128.1431 127.8628 128.0225 127.9094 127.8211 127.8708 127.6526 127.7844 127.3639 127.3232 129.3358 126.6933 125.7830 111.3331 127.4362 127.2756 127.3433 127.3167 127.2180 127.5003 127.6794 124.4252 114.7185 118.1725 127.6228 127.2934 127.1883 127.2695 127.2478 127.1940 127.2430 127.2504 127.2706 127.3253 127.3571 127.3499 127.3700 127.4084 127.4374 127.4769 127.5206 127.5631 127.6008 127.6484 127.8194 127.7581 127.8349 127.8773 127.9432 127.9200
129.1800 129.0626 129.1696 125.7729 125.7205 128.8126 128.6991 128.7711 128.6292 128.5495 128.5210 128.7485 127.8290 127.0583 128.0432 128.1170 128.1726 128.0724 127.6927 128.4058 126.0706 127.7955 130.4775 133.2769 116.9681 121.6043 124.9428 116.7118 127.2705 127.3298 127.5084 127.5087 127.4198 121.5739 123.0566 126.0584 121.2090 128.9435 127.4005 127.0534 127.3567 127.3698 127.4844 127.5688 127.3751 127.4174 127.4368 127.3354 127.2775 127.4599 127.5573 127.5564 127.5955 127.6327 127.6760 127.7127 127.7557 127.8138 127.7607 126.2451 127.9913 127.9824 128.0107 128.0600
129.3100 129.2673 129.2801 128.9610 129.3291 128.8129 129.0877 128.8475 128.7503 128.6859 128.6174 126.3837 119.1206 124.3615 129.6364 128.2465 128.2353 128.1801 128.1632 127.8935 117.7157 116.9933 125.0799 121.0676 108.6829 107.4230 116.5806 128.6056 128.0199 127.5753 127.6574 127.6557 127.4805 127.9670 127.6149 127.9570 128.0687 127.2087 127.4300 128.3947 127.5525 127.5327 127.0559 126.5767 127.6576 127.5617 127.6053 127.4806 128.2132 127.8336 127.5812 127.7730 127.7448 127.7852 127.8193 127.8616 127.9041 127.9104 128.7708 127.8463 128.3343 128.0709 128.6947 128.2100
129.4200 129.3600 129.3048 129.2116 129.1551 129.0149 129.0546 128.9148 128.8762 128.7962 128.7601 130.1127 114.6672 125.9182 125.9261 128.5544 128.3302 128.3824 128.0576 127.1364 133.4448 117.0067 114.5122 112.3594 115.1949 129.0327 118.2391 128.3044 127.8238 127.8358 127.8015 127.7929 127.6268 127.5905 127.6794 127.6278 128.3655 128.1126 126.9485 127.0249 127.6476 127.7170 127.5688 136.1191 126.7013 127.8926 127.7586 127.6038 126.6304 118.9883 128.0898 127.8867 127.8904 127.9216 127.9678 128.0004 128.0422 128.0563 128.7179 128.2392 128.1799 128.6973 124.8651 116.7400
129.5700 129.4614 129.3963 129.3271 129.2541 129.2057 129.1288 129.0597 128.9898 128.9461 128.7968 128.4811 130.0066 129.6031 130.3533 128.3645 129.1049 128.3749 128.0272 129.1297 128.9925 115.0739 114.4326 127.4003 118.5534 129.1927 125.7434 128.1677 127.9963 127.9442 127.9440 127.9420 127.9554 127.9198 127.9265 128.3184 120.1466 128.1357 121.3918 127.7655 127.6767 127.8477 129.3455 112.8799 129.2864 127.6430 127.8958 127.8913 128.0366 128.2976 128.0713 128.0312 128.0592 128.1070 128.0769 128.1813 128.1778 128.2508 128.2348 128.3423 127.9488 128.5794 116.2102 113.9400
129.5700 129.5741 129.5033 129.4339 129.3723 129.3033 129.2384 129.1694 129.1063 129.0420 129.0226 128.4174 128.1663 111.3890 123.9989 126.5343 128.3517 127.6632 127.3898 128.5117 128.9764 129.2869 109.2153 105.2756 128.3277 127.3314 128.3696 128.1772 128.2367 128.2748 128.1163 128.0745 128.0513 128.0312 128.0727 128.2222 126.9125 127.7244 117.4280 128.2466 127.9329 128.0158 127.9234 128.1397 128.7979 127.9509 128.0420 128.0623 128.0761 128.0013 128.0442 128.1645 128.1931 128.1493 128.5311 128.0972 128.3380 128.3397 128.5443 128.3862 129.2743 130.2648 112.6678 112.7500
129.6900 129.6658 129.5723 129.5430 129.4756 129.4206 129.3511 129.2852 129.2229 129.1811 128.9926 130.2586 112.3807 109.7373 117.4343 126.4175 122.9509 129.2697 114.2941 129.1428 128.3852 129.1423 111.8951 107.3195 118.8410 126.3282 128.3388 128.6024 128.0828 127.8670 128.2029 128.2267 128.2100 128.1904 128.1901 128.1228 128.0199 127.5961 127.2261 127.9577 128.1371 128.1484 128.1682 128.0149 127.9231 128.0916 128.1918 128.2179 128.2381 128.2872 128.3241 128.3039 128.2196 128.7731 125.3931 130.2000 128.2235 128.5573 128.3011 128.4928 135.8704 118.2240 121.9429 122.6300
129.8000 129.7300 129.6700 129.5800 129.5100 129.5100 129.4600 129.3600 129.3000 129.2400 129.2400 129.1700 108.7000 129.0300 129.0300 128.9600 128.8800 128.7800 128.8000 128.7100 128.6300 128.6500 128.5600 119.3400 128.4900 128.5100 128.4100 137.9200 137.7000 128.3300 128.3400 128.3600 128.2400 128.2500 128.2700 128.2700 128.2800 128.2900 128.2900 128.1600 128.1600 128.2900 128.2900 128.2800 128.2800 128.2600 128.2500 128.2400 128.3600 128.3500 128.3200 128.4300 128.4100 128.5100 111.8700 128.5900 128.5900 128.6600 128.6600 138.0600 138.0600 114.0000 113.6900 117.2000
