121.9400 113.4900 122.7900 122.7900 123.4600 123.4600 120.5700 120.5700 119.3900 119.4200 122.8400 122.8400 125.5800 125.5800 112.0600 105.8000 105.8000 115.3400 115.3400 108.8000 115.9900 115.9900 109.7800 111.9300 112.3700 112.4500 112.2700 112.9800 112.9800 105.4100 105.4100 104.8700 126.8900 106.5700 126.7800 126.7900 106.6000 125.0900 126.6800 126.6800 126.6900 126.6900 136.9400 126.6900 126.6900 126.6800 126.6800 126.6700 126.6600 126.6500 126.7800 126.7700 126.7400 126.8800 126.8500 126.9700 126.9700 127.0600 127.0600 127.1700 113.6100 127.2400 127.3400 127.3400
121.9400 116.3253 108.8245 122.5694 121.1816 122.6201 121.9141 120.9185 119.8734 119.7927 121.9377 123.3922 124.6447 121.6317 107.5575 109.5627 111.1882 127.2218 112.9866 110.0107 116.9748 106.4878 106.0249 111.8825 113.8528 114.6136 110.7263 108.2429 108.9072 105.3982 104.8109 106.5247 112.7319 107.3525 124.3361 124.3770 107.7128 118.3854 122.4344 122.7218 122.7198 126.9137 123.6580 126.6672 126.5560 126.5430 126.5622 126.6277 126.5550 127.2035 126.5902 126.7034 126.6956 126.7411 126.7731 126.8135 126.8604 126.9314 126.9459 127.4832 105.7259 123.6842 126.8751 127.1600
118.2100 117.4558 120.6402 113.0664 114.0349 122.8622 122.1791 122.8260 120.0048 120.1168 120.1975 124.8370 121.0362 104.5851 103.8806 123.4353 109.2214 116.2724 115.4238 110.5533 113.7011 105.8920 106.6200 113.7871 116.6033 106.8152 104.8985 110.2131 117.8860 110.0350 104.5551 105.3776 123.2280 124.5479 106.8754 106.7788 112.3018 115.8777 121.7239 126.4677 126.1525 126.3639 126.4188 126.4085 126.3682 126.3673 126.3853 126.0223 126.4497 121.8817 126.5245 126.6256 126.5273 126.5625 126.5917 126.6643 126.6978 126.6043 126.9575 127.0813 117.5156 130.4788 123.5873 127.1600
114.4500 116.6549 116.7542 111.2170 121.7426 124.8343 124.2776 122.0965 120.6975 118.9975 119.6069 121.7863 123.2912 105.5453 107.4328 121.0392 125.1427 113.2661 111.4130 112.7193 112.7468 119.4259 110.4318 112.8811 113.0837 117.2043 115.4008 108.2841 104.8898 112.4548 104.7907 115.6158 121.6480 120.1810 106.2133 127.4786 128.7989 120.4357 127.5724 121.6679 126.7189 126.1482 126.1364 126.1625 126.1746 126.2028 126.2376 126.4045 126.6398 116.4386 126.5444 126.3228 126.3668 126.3811 126.5093 126.3262 126.9762 127.1832 125.1379 109.5685 105.4527 112.5223 106.4829 126.8700
119.2100 122.4134 115.1096 117.5690 113.5055 112.4030 120.8125 121.6682 121.1324 121.6957 120.2953 121.1371 124.7778 117.8178 102.2976 112.6593 117.5193 124.8451 108.5533 114.0375 113.7369 117.9454 114.0491 110.3570 112.1993 115.0704 103.6408 116.6353 110.2583 104.4343 112.6598 112.1844 127.2089 128.9863 106.1498 120.8071 125.4299 128.8492 125.8482 126.1639 126.1441 125.8556 125.9986 125.9844 126.0244 125.7876 124.5948 117.5420 113.4192 116.6806 125.0527 125.8041 126.2030 126.2622 125.9480 127.3080 122.2411 123.9641 123.2091 113.9745 107.9364 111.7356 113.1994 126.7000
120.6600 117.1357 113.9514 112.3408 114.9590 110.5386 115.9065 124.2452 122.9012 122.8082 117.4763 114.9529 123.6242 120.1852 122.1301 110.9194 117.7634 121.1472 110.0687 114.5757 117.0935 111.1327 111.7268 107.3333 108.1908 108.0932 106.7902 106.5776 111.5506 110.9464 118.5023 120.2859 126.4072 117.8322 120.7963 127.5349 126.1140 126.3118 125.7779 125.7553 126.2511 126.8599 125.7652 125.8136 125.8188 125.6967 125.7946 127.9920 109.4277 111.0293 124.7108 125.1951 126.0641 125.9028 127.0402 120.4061 117.6988 108.3938 113.4520 120.1144 119.2470 123.9736 127.2251 126.5300
120.3400 119.7198 124.9040 114.7966 112.8069 123.3422 111.7874 112.9068 123.0851 116.4481 119.7578 118.7788 122.1271 119.3440 121.2966 118.9840 112.7819 128.1037 116.3043 113.4560 111.3829 112.8993 111.5674 109.7546 106.5256 105.8892 113.4535 111.8384 106.4662 114.1606 109.7210 121.3518 124.6844 117.8750 119.7735 125.0342 125.5869 125.6141 125.6370 125.6219 126.2377 117.7803 126.0553 125.3996 125.5876 125.5820 126.7547 112.2527 113.4481 111.9297 126.0546 125.2280 125.8345 125.8161 125.5107 112.7382 121.6653 113.3075 125.9922 118.6174 124.3831 125.9302 126.0740 126.3600
109.6100 112.9658 119.3555 117.8376 116.6800 115.8026 110.9131 109.8931 121.6208 124.1593 123.5869 116.7363 114.0697 121.5787 115.7779 112.5023 118.3590 130.1568 117.8851 118.1835 111.0178 105.2767 108.0183 115.5736 103.0601 115.5858 108.2006 109.0102 112.2138 122.1905 127.2173 122.2893 125.4144 115.9246 123.0539 125.1881 125.6108 125.4751 125.4214 125.4684 125.6534 118.8007 125.7052 125.3400 125.3716 126.0854 120.2841 110.1968 128.0734 125.7749 125.3486 125.6348 125.6521 125.6393 127.0589 128.4114 125.7798 126.8807 126.9883 126.2591 126.4700 126.2960 125.9886 126.1800
116.3300 121.3711 118.8907 122.5141 120.7776 118.8275 117.2315 115.9299 114.6711 122.9153 120.4587 117.2666 116.5623 114.7895 114.2678 113.4879 113.0879 113.2834 110.0709 104.2432 101.3361 102.9716 109.6905 106.2950 105.6020 119.8201 110.2453 113.4702 129.8712 126.0938 125.8191 124.5847 126.2404 123.0949 125.6357 125.1322 125.3264 125.2648 125.2395 125.2117 125.2339 125.9076 125.9174 125.1680 124.9649 125.4238 113.3530 126.6178 120.7029 125.5674 125.3476 125.3608 125.4079 126.4746 114.9385 120.3641 125.8976 125.5390 125.6403 125.8144 125.9636 124.6938 126.6714 126.0000
116.2800 121.0187 114.3498 120.0283 119.6106 118.8476 113.9938 111.7959 109.7021 111.0436 120.1092 117.8816 119.1399 114.7385 114.4656 112.7402 112.0420 112.2623 106.7962 105.2528 130.1101 109.0819 104.4609 104.4317 104.5420 117.1481 123.9209 127.8028 127.3947 125.5030 125.1811 125.4070 124.8350 125.2728 125.1034 125.0789 125.0914 125.0683 125.0541 125.0135 124.9942 124.9089 124.8362 125.0250 124.9098 126.9800 126.2152 124.9249 125.2417 125.0936 125.1345 125.1662 125.2202 125.5745 123.8080 108.6166 127.4760 125.5306 125.5749 125.6527 125.8470 126.6032 102.7926 125.9800
116.2500 114.9527 114.2408 119.5976 117.3217 120.1176 120.4005 113.5442 111.6470 119.7179 113.5376 117.6090 119.4102 116.6554 117.3621 114.5128 112.5929 114.2591 110.3826 103.1225 130.4516 106.0579 106.9951 107.4647 109.4610 123.5876 125.5863 125.4002 124.6801 125.2194 125.2217 124.9866 126.4241 125.9690 125.0067 125.0152 124.8783 124.7770 124.6876 124.8170 124.7900 124.7880 124.8918 124.3449 122.5534 116.5454 124.5820 124.8517 124.7965 124.8948 124.9239 124.9566 125.0317 124.8235 126.8077 115.0696 126.5180 125.4177 125.3665 125.4511 125.9425 122.6218 125.8172 125.8200
116.0700 116.2712 115.2220 113.1059 116.4325 117.6057 120.2428 114.4853 114.4015 106.0096 105.5871 114.6830 119.3776 114.7431 119.7808 104.9447 114.0318 114.5650 114.7169 109.4327 129.4113 116.9979 117.3206 111.2165 111.3329 119.6371 125.5149 125.1111 125.2014 125.0341 124.9355 124.7281 125.3987 107.9480 125.8905 124.7719 124.6395 125.0838 125.3399 124.4964 124.5795 124.5458 124.5821 124.3529 123.2445 125.2764 124.2097 124.7031 124.6618 124.6706 124.7161 124.6817 125.1655 124.1313 112.9528 125.4193 124.7899 125.1078 125.1906 125.2892 125.9211 119.7394 125.9417 125.6300
124.1500 122.0460 114.0822 104.7668 117.5568 110.6054 115.9550 116.6583 114.3416 110.7333 109.5773 112.1176 121.9032 118.4148 112.6965 114.5948 114.2993 111.0129 102.9381 104.6592 107.0910 112.5947 128.0725 127.4980 123.5262 118.9795 125.4877 124.8170 124.9930 124.8217 124.7722 124.2197 125.5413 110.6242 126.2822 124.4775 124.5523 121.7387 116.9794 124.6534 124.1518 124.3398 124.1336 125.4808 104.5128 118.4227 124.2052 124.5008 124.4145 124.4607 124.4959 124.5120 124.5421 124.3790 122.8332 128.0114 124.4884 124.9172 124.9981 125.0640 125.2176 125.3201 125.4029 125.4300
124.1500 122.0353 118.4771 109.6520 102.6615 111.0276 114.0197 109.8147 116.7197 112.7695 111.1633 108.0268 106.8825 119.2480 113.9700 117.8029 110.3811 113.1584 118.5006 106.3592 106.2859 127.4863 123.2074 125.3773 121.9819 121.4193 125.0475 125.2837 123.5114 124.5054 124.5330 124.5096 124.8823 123.4844 124.7935 124.2147 125.0835 110.9863 109.2887 123.8726 123.8497 124.2681 124.4667 124.6651 120.3769 118.5492 123.9987 124.2467 124.1939 124.2339 124.2800 124.2921 124.4262 124.3025 125.8509 122.8578 124.9515 124.7066 124.7948 124.8961 124.9666 125.0666 125.1510 125.2300
105.5500 115.4223 122.2925 115.3278 113.9035 109.1515 115.3159 114.2633 114.7570 115.1811 115.7706 108.6165 108.0441 110.7674 113.3253 117.1264 108.6770 118.2611 121.9239 103.8709 109.0401 125.1991 124.6498 125.1563 124.9909 125.3097 124.5568 113.4776 118.5359 124.4205 124.3385 124.1908 124.1485 115.3835 124.5989 123.8820 125.6762 110.3830 109.1511 123.8986 123.4755 123.6774 119.9819 121.6465 123.8318 124.1470 123.8996 123.9345 123.9670 123.9989 124.0475 124.1097 124.1482 124.2194 124.2954 124.4436 124.4193 124.5326 124.6020 124.6782 124.7803 124.8755 124.9743 125.0100
120.3400 121.5986 122.7468 122.0552 115.4495 107.8649 103.2590 118.1232 112.2427 116.6563 110.0851 113.0909 115.6525 113.7440 111.2967 112.6199 107.4843 103.8461 112.1391 104.2043 102.0603 136.6748 124.2538 119.9385 124.4995 124.4044 124.9931 123.8540 125.9046 124.2019 124.0988 123.9105 124.3414 124.0115 124.2906 123.8521 120.3126 112.1278 116.9172 123.6119 123.0974 124.3494 110.7463 122.7795 123.2666 123.6369 123.6583 123.6777 123.7147 123.7608 123.8149 123.8668 123.9273 123.9942 124.0568 124.1195 124.2209 124.3010 124.3914 124.4845 124.5820 124.6855 124.7867 124.8200
120.2700 121.7390 120.9147 113.9717 116.5978 112.3639 109.5120 105.7354 114.4786 118.2341 109.1504 110.7727 113.4589 110.0991 108.3983 107.6700 106.4953 106.7212 103.6184 113.3079 104.6814 112.0768 112.9468 127.2511 123.8290 125.8376 124.7920 124.0975 123.7966 123.8894 123.9310 123.8380 123.6941 123.6377 123.6482 123.9535 114.2622 110.1060 116.1776 121.8605 122.4481 123.8415 125.6748 123.8195 123.4310 123.2891 123.3546 123.4780 123.5277 123.5488 123.5803 123.6324 123.7002 123.7637 123.8420 123.9208 124.0026 124.0907 124.1837 124.2839 124.3799 124.4847 124.5972 124.6200
123.2400 123.0885 114.9875 113.6228 114.4512 113.2615 110.8803 114.7757 113.7804 109.3503 112.2505 111.9840 106.7022 105.5987 116.3021 106.8706 117.1677 109.2979 107.4182 111.2392 108.9945 115.5284 127.4896 122.9168 106.5349 124.1728 115.2511 124.2380 124.1845 123.7279 123.5831 123.6230 123.5263 123.3760 123.2327 123.9846 110.2440 106.5761 112.7823 109.6460 114.2811 123.0320 114.4535 120.8190 122.8298 123.9034 123.5397 123.0486 123.0301 123.2034 123.3300 123.3841 123.4512 123.5310 123.6033 123.6891 123.7807 123.8695 123.9722 124.0756 124.1803 124.2853 124.3968 124.3800
117.3500 122.8158 122.0175 115.4040 112.9379 112.0730 114.2666 110.1201 109.9497 109.1992 108.8651 109.5840 110.5725 105.3817 114.0903 113.2379 109.6274 109.0846 113.5459 106.6395 100.8761 109.6927 124.3702 124.7148 120.5931 121.0904 108.8981 115.6606 122.7968 120.2151 123.4225 123.3119 123.1175 122.8823 124.6020 123.4188 113.2158 101.7521 109.7574 110.9100 117.5678 124.1178 117.4403 122.8377 123.2881 115.1017 122.1581 123.3232 123.6643 122.6161 123.0831 123.1590 123.2069 123.2891 123.3682 123.4618 123.5489 123.6520 123.7559 123.8583 123.9756 124.0812 124.2016 124.3400
115.8400 116.5383 111.3505 109.7259 111.6228 115.6647 110.5183 109.7622 109.8566 109.3635 108.1757 108.5753 109.9517 105.0044 110.0286 106.5741 103.5829 106.2426 115.2957 114.1736 117.7082 123.2728 124.4224 123.5780 126.1601 105.5113 108.7908 101.5960 111.2445 121.2870 124.4080 123.2165 124.0423 123.1926 125.6680 101.0172 108.7887 100.8982 105.3337 108.9116 120.0830 123.2061 111.1412 121.3763 108.8072 111.0719 125.2843 105.9030 123.0315 123.0602 122.8587 122.9033 122.9582 123.0415 123.1313 123.2210 123.3166 123.4228 123.5284 123.6371 123.7594 123.9136 124.0128 124.1300
118.3600 114.4178 114.7352 119.2453 112.0355 113.9218 110.3056 111.2960 109.4022 109.3056 106.7807 106.6450 108.9370 105.7344 112.3397 105.6354 104.4198 102.7015 107.5912 117.8035 124.9171 117.0724 123.8544 123.8361 125.1128 108.1435 110.3242 99.5527 123.6379 125.5062 112.5631 122.8193 117.0019 117.0841 105.4016 110.2531 114.6470 99.1810 108.1689 111.2848 111.1798 122.4624 101.9039 114.7500 108.8281 118.8385 111.9860 104.3153 118.4309 118.6233 122.6113 122.6466 122.6940 122.7821 122.8779 122.9782 123.0818 123.1938 123.3019 123.4335 123.5502 123.6805 124.5258 123.9200
118.3100 115.8210 114.9844 112.6411 116.0665 108.9381 110.0051 110.5449 110.0176 112.6482 108.4437 106.5232 105.9976 105.3669 109.0969 103.3224 105.9203 100.9902 113.6176 119.9579 126.1369 123.5579 124.1290 124.6731 111.8895 103.5926 106.3099 113.5790 123.1959 126.5923 99.8341 124.0833 113.9615 117.1825 104.4493 110.2362 103.6862 104.1884 110.6730 111.5337 112.7437 122.3397 105.5101 107.4548 101.7463 117.5729 107.4977 107.9269 124.3707 121.3517 122.2799 122.3762 122.4286 122.5270 122.6162 122.7315 122.8431 122.9210 123.0682 123.0676 123.3823 123.3750 123.4420 123.6800
120.1200 117.0002 114.7488 114.1636 113.4933 110.0282 107.5087 108.4894 109.2428 108.1737 107.6595 106.9911 105.6894 104.7276 107.5922 108.4647 108.1860 107.8394 108.7678 108.1683 123.1973 123.5968 112.5401 114.2015 102.0318 111.2477 99.6488 122.9998 122.1342 123.9646 110.2247 123.4909 111.5308 114.0782 108.3040 109.5413 108.1742 99.8803 105.6403 101.3919 108.3551 115.3462 99.7070 119.9247 103.8549 106.5120 113.5454 120.9930 121.7231 121.9341 121.9870 122.0946 122.1637 122.2414 122.5215 122.2098 122.7150 123.2052 123.7841 123.0947 123.2618 122.6581 124.5323 123.4000
104.6200 106.4840 111.4179 117.1403 115.7982 111.9986 111.4661 107.9117 107.5175 107.3571 108.7015 107.1990 106.3785 103.4172 102.4601 105.4654 105.9034 114.8457 108.5282 103.2772 125.7473 123.8789 124.6393 109.9760 101.7898 113.0191 103.9893 121.8423 122.9829 122.3388 123.1145 110.2328 108.8517 116.1837 123.1102 102.1749 117.3327 121.9055 99.2241 107.2361 109.0202 100.3465 108.8697 101.7776 119.1270 112.1860 126.5750 121.8056 121.6443 121.5735 121.8347 121.7108 121.8623 122.0068 121.7820 123.7936 115.3551 117.5415 111.7750 123.0091 123.9537 115.5134 120.7857 123.4000
104.6200 111.6345 112.2846 110.5193 115.3624 114.0394 108.1972 108.6421 107.2160 105.7000 105.6544 107.8048 107.1565 102.1843 100.6596 105.6348 110.6208 117.7946 126.1781 125.1561 122.2298 122.7287 122.8499 112.6305 102.8809 101.6993 121.4980 112.3601 121.3902 122.2532 122.3058 119.1325 108.4334 110.3111 105.7225 112.1460 120.6484 117.6354 96.9536 103.1498 102.3755 105.3987 111.5777 121.0970 121.0797 122.0359 121.3129 121.1242 121.1994 121.5891 120.3539 121.8750 121.5893 121.6688 122.4666 119.2630 99.5131 115.9185 117.8157 120.8151 122.7696 121.9798 124.2747 122.9000
117.2500 118.5795 115.2407 113.6820 112.1677 114.2581 111.1547 105.5951 104.6867 107.7506 109.9651 108.5534 104.2743 102.0963 108.9629 110.4239 118.3960 117.0806 121.6334 123.1514 123.3237 123.1726 124.5909 123.6914 118.5706 99.3765 112.0052 121.2077 122.0514 121.6267 121.6079 122.5973 113.5197 108.9227 109.5573 108.9776 123.7814 104.6320 101.4872 114.7730 99.1067 120.4920 124.2266 120.7250 120.7446 120.6568 120.8052 120.8473 120.9349 120.9054 116.7437 121.4461 121.2898 121.3522 121.9746 119.1455 114.1134 101.6356 124.1258 122.3441 122.3266 122.8089 122.6935 122.8500
105.4300 107.9886 118.0963 115.2679 113.2490 112.8772 111.1494 112.5545 113.1273 115.8544 116.4916 103.1622 102.4206 104.3227 107.0389 101.5034 103.3385 102.2040 121.8031 123.7964 123.8869 112.2058 123.2624 103.3222 121.2343 122.8280 103.6034 114.2746 121.8350 121.5943 121.3936 121.2831 121.6552 106.1654 99.2849 102.0155 123.6722 104.4307 112.7987 99.5944 103.6222 117.7361 118.9732 120.5007 120.4102 120.4188 120.4550 120.5089 120.5785 120.8618 123.3968 120.6142 120.9704 121.1620 121.7164 121.0918 121.5458 114.2252 122.9749 121.9599 122.1898 122.3295 122.5268 122.6200
119.9800 108.2364 105.4368 115.4228 113.6008 112.8533 110.8577 110.9562 111.5850 109.3202 104.9831 103.2840 102.1677 102.0420 105.5293 109.8723 99.9909 105.1655 113.2900 123.3951 123.9734 112.9709 111.5408 116.5182 125.2498 121.9163 115.6006 120.7697 121.0599 121.3030 121.0644 120.6672 121.2801 104.6623 107.8407 104.5537 122.6805 105.4869 117.9887 120.8354 102.1553 118.4997 119.8004 119.9841 119.9838 120.0315 120.0932 120.1633 120.2434 120.2146 120.1622 120.5670 120.7061 120.4742 120.8266 113.9122 116.7625 121.6892 121.6876 121.7086 121.9618 122.1098 122.3076 122.3500
119.7900 119.6138 113.8990 103.5926 103.7818 115.2167 109.7511 108.6884 109.6250 107.5954 108.9416 107.2348 102.1542 101.2646 110.5456 100.4416 101.4956 102.2962 109.6184 112.9312 122.4361 121.8517 118.7642 106.9437 126.8227 118.2585 122.6129 120.8537 121.1231 120.9390 120.7583 120.2119 120.8990 102.7809 105.6111 112.2614 119.8718 100.9835 109.2787 120.0555 106.7840 120.8917 119.5179 119.6414 119.8034 119.7464 119.7270 119.7942 119.8681 120.0036 120.1049 120.2271 120.4972 121.3701 119.1645 121.5447 121.6931 120.9895 121.3338 121.5303 121.7093 121.9191 122.1570 122.2700
119.1100 119.3950 119.9544 112.9014 109.2748 102.7375 110.6053 108.7111 108.6524 113.2062 110.2283 105.5430 102.0984 101.2858 106.1346 109.8196 105.3118 104.3864 108.3474 109.3778 118.8148 117.8087 103.9184 121.8213 119.1400 102.1966 121.3331 121.0583 120.9329 120.6209 120.4747 119.9388 122.2408 117.4419 105.3701 111.1362 121.8047 112.9568 119.3546 112.3584 118.5324 118.9153 118.8053 119.1227 118.3615 118.9606 119.3289 119.4080 119.5062 119.6009 119.7416 119.8180 120.1244 110.4067 114.1941 116.0534 120.8984 120.8711 121.1293 121.2638 121.3990 121.7146 118.9081 122.0300
114.7300 113.7587 116.8547 116.4507 111.9313 113.6124 104.1910 110.5773 106.5469 107.8321 108.5932 101.5620 104.1945 112.8998 105.5318 109.1675 112.3044 110.5113 111.7149 106.1902 116.5890 105.7645 98.6814 108.0082 99.9216 121.2512 113.2097 118.1873 120.6419 120.4198 120.6385 121.2221 114.8672 107.9107 105.5157 102.4867 113.3787 121.0969 122.5102 101.6686 116.5578 119.7372 120.6839 118.4176 125.2946 118.3376 118.9339 119.0075 119.1109 119.2265 119.3585 119.6095 120.8744 114.4619 114.1701 119.0574 120.2718 120.5712 120.7990 121.0046 121.1805 122.0328 116.1594 121.6600
111.1500 110.8064 112.1879 115.7985 110.7613 110.3182 113.2088 113.8784 101.5952 105.7690 102.1105 102.0440 100.7931 109.5957 103.2677 101.6769 108.1380 111.6558 110.2412 109.0971 107.4084 108.2033 105.4623 105.8955 104.1214 110.3405 118.7908 119.6926 119.9452 122.0977 110.7658 120.1028 106.3934 108.1165 110.2029 102.4226 106.2161 116.1767 108.8067 115.4371 120.7455 118.7337 98.3632 115.0736 118.8880 118.4709 118.4712 118.6021 118.7058 118.8336 118.9338 119.3117 110.1124 105.3950 111.6183 121.8980 119.9476 120.3261 120.5186 120.7487 120.9983 121.0376 121.7339 121.6600
113.2700 112.0744 110.2761 109.6401 110.1267 110.2599 109.5066 111.6741 111.3078 101.0863 107.1189 101.8218 102.0108 102.7073 102.7745 100.9105 109.7242 103.8024 109.6233 106.9633 107.4183 105.4234 104.4988 107.3613 107.1993 124.9397 122.0150 120.3477 119.3863 117.2148 109.2477 105.3260 97.5479 104.5680 118.3216 97.3978 109.1022 117.0083 108.7967 104.8110 111.0625 118.0266 117.4049 118.0594 117.8947 117.9562 118.0620 118.1569 118.2782 118.4746 118.4272 119.4809 110.6208 108.4209 110.7762 116.5763 119.8921 119.9687 120.2417 120.4971 120.5366 122.5473 121.1452 121.3000
113.6800 112.8077 110.8910 111.6993 110.8929 110.0753 110.5484 109.8941 109.1071 106.4144 107.9933 103.2171 101.2193 110.3121 104.8752 114.0980 114.9085 113.4604 108.7095 112.8249 107.8421 109.8636 104.6018 113.8390 117.1867 104.5473 120.2588 118.8385 120.6679 109.3145 119.0842 116.2386 111.2249 113.9981 107.9101 104.2259 109.3519 120.2861 116.4148 119.0999 96.1117 116.4936 117.1035 117.3403 117.4364 117.5038 117.5808 117.6884 117.8152 117.8517 118.4794 115.8063 104.4476 110.8880 119.2122 121.2163 119.7065 119.7174 119.9698 120.2241 120.3819 121.1759 120.9947 121.3000
113.6800 114.2059 111.4754 110.9917 110.8638 111.3725 111.4173 109.7314 109.4994 108.1535 105.5452 106.9333 103.0463 110.1112 102.0158 101.5945 107.1300 116.3196 117.3063 123.0932 117.1189 106.9485 104.5103 122.3088 111.6130 102.0343 124.3684 124.4105 119.1545 113.4840 119.2240 119.8000 118.8666 104.9412 101.9167 113.6771 100.7343 101.5586 118.6711 117.0646 112.6713 117.0741 116.8259 116.9060 116.9296 116.9786 117.1050 117.2271 117.4460 117.1535 117.7430 107.3778 108.8866 119.2374 118.5288 118.8793 118.9971 119.4089 119.6761 119.9337 120.2222 120.4187 120.6990 120.7100
113.1400 114.2393 110.1027 112.0309 110.3620 111.0397 110.4298 110.0545 108.7883 105.7519 104.8459 103.5125 117.2427 113.8438 97.7436 101.6595 99.7231 99.7084 108.7020 123.4982 121.4385 111.2594 105.9300 101.7827 99.4960 99.1303 106.4647 98.0933 119.7631 113.9741 118.9253 118.0972 116.0268 113.2817 115.1594 119.3133 118.7097 109.9924 117.8999 116.3555 115.6180 116.7881 116.2047 116.3371 116.3756 116.4813 116.4666 116.7314 116.5416 117.1538 117.3122 101.6342 107.4614 110.6345 118.9900 118.5572 118.8772 119.1137 119.3917 119.6735 119.9575 120.2483 120.5207 120.6200
117.7100 111.7612 111.0316 111.5231 107.3240 108.6094 109.8538 110.0207 106.2766 104.7704 105.0855 117.0680 116.9752 113.8101 120.0047 103.8881 113.1976 110.2205 119.1045 109.5456 117.8740 120.9676 120.8167 103.9029 101.2009 104.9028 113.8832 101.7226 110.4206 118.8152 118.0079 117.8752 117.5842 108.4853 100.3198 115.9876 115.7813 115.8697 102.7327 115.9281 115.9578 115.7840 115.7543 115.7523 115.8247 115.6488 116.2866 115.2789 117.2604 117.1428 110.5718 109.4872 109.2224 109.7457 118.5480 118.0355 118.5230 118.8103 119.1104 119.4042 119.7281 119.8923 120.3127 120.5400
112.7300 111.1568 105.3536 103.0833 106.4236 109.8183 109.3256 108.8237 107.0926 104.6743 118.5819 123.3275 114.9374 121.2828 119.8016 101.8018 120.4761 131.9965 120.7603 119.4136 121.2396 120.7367 116.3877 101.2877 114.4569 100.4034 106.0103 98.1693 99.8850 119.5487 117.5251 117.4330 117.8580 108.5085 90.3406 117.8290 115.8990 111.7329 103.7525 115.6526 115.2373 115.1382 115.1077 115.1233 115.1774 115.2120 113.3582 99.1491 114.4420 111.1544 109.7658 114.5048 116.8503 117.4743 117.6493 117.8514 118.1842 118.5043 118.8272 119.1315 119.4851 119.6693 119.5051 120.2300
110.5700 110.8222 110.1164 109.6258 108.0307 106.3267 108.9346 109.2164 108.1320 106.3264 105.3470 113.5770 102.4253 124.3893 122.7556 101.9901 103.4344 119.6494 121.2768 119.3792 118.1989 120.6199 113.1605 119.8457 121.6110 97.5550 107.5995 119.4252 117.9267 117.8764 117.1627 118.4921 116.7424 116.4604 115.4910 116.4650 115.4253 113.3200 115.8230 115.1935 114.3661 114.4913 114.4365 114.4271 114.5206 114.6282 116.4564 115.8539 118.1860 104.3793 100.1356 104.1929 116.9629 116.7588 117.1485 117.5178 117.8456 118.1933 118.5382 118.8806 119.0859 120.8688 106.3752 120.1500
110.1100 110.4591 110.0870 109.9998 108.7485 109.5909 109.9083 101.3256 108.6637 102.6118 102.0756 118.5855 121.7173 110.6233 122.4394 122.6086 121.8360 121.5626 121.1393 121.2048 120.8072 120.4810 121.2867 120.0047 120.3477 108.7785 116.7118 116.8681 117.7263 118.3114 110.0345 115.3124 116.2855 115.9377 115.3082 115.3164 115.4882 112.8093 115.8592 113.3526 113.7594 113.7535 113.6871 113.7316 113.6291 115.0736 102.1455 113.8822 106.3239 99.7458 94.0431 105.2338 116.5762 116.0839 116.8014 117.1475 117.5226 117.8910 118.2647 118.5661 119.2267 112.5391 107.2377 119.8400
109.5700 109.5079 110.0473 108.9344 109.0629 108.4533 108.5730 107.5029 103.0807 100.8751 101.9516 121.5494 110.3443 119.2655 121.6586 121.6291 121.0864 121.1059 120.7391 120.2304 120.6614 118.1587 119.4010 119.1809 118.5819 122.2325 115.9757 109.3635 118.1727 115.0770 105.4913 117.2537 115.7167 115.4985 115.0449 114.6093 114.3138 113.9131 113.9324 113.4178 112.9457 112.9573 112.8805 112.8976 113.3395 105.5679 102.8143 109.3458 96.7157 99.8902 108.8054 116.1255 115.7394 115.9711 116.3762 116.7968 117.1998 117.5983 117.9828 118.3691 119.2362 114.9138 106.3874 119.7600
109.9600 109.5496 110.3339 109.4114 109.0890 109.1135 108.4060 108.3622 105.3057 102.4324 100.3549 118.5668 105.2082 123.3443 121.4133 122.6450 121.5005 120.7837 121.6920 123.7795 121.9908 111.0913 121.2155 119.1101 118.6768 117.8733 119.4021 119.3551 112.2192 109.4539 116.7546 115.7835 115.4585 114.9311 114.5018 114.0311 113.6174 113.2022 112.8701 112.4941 112.2605 112.0824 111.9895 112.0190 112.4123 112.5005 112.4981 114.2003 104.6556 104.0562 103.8421 114.4559 114.9561 115.5450 115.9995 116.4404 116.8840 117.3117 117.7171 118.1290 118.3782 119.1187 119.6984 119.3600
109.6600 109.7027 110.0387 109.9469 109.8410 110.2410 110.5745 107.1673 103.3944 103.9841 104.9858 120.9167 115.5461 112.4146 115.8435 117.5715 122.1956 122.7286 113.4606 98.0673 114.8051 120.8117 119.4299 118.9412 118.6729 118.3908 117.6510 117.1920 118.6173 118.3262 115.5637 115.4745 114.9471 114.4816 113.9309 113.4434 112.9588 112.4639 112.0181 111.6333 111.3211 111.1089 110.9998 111.0215 111.1295 111.3583 110.1249 110.7597 110.0661 114.8730 114.4506 114.7123 114.5864 115.1226 115.6170 116.1062 116.5701 117.0290 117.4585 118.0085 118.3242 119.0472 119.3377 119.2900
109.9200 110.4221 110.3297 110.2168 110.0794 108.7231 104.9360 108.1257 103.7444 103.6764 109.9075 117.1017 112.6223 113.1149 111.1271 110.8954 113.2350 112.1986 110.5406 126.1190 99.8883 110.7632 122.6468 118.0039 118.3864 117.9057 117.5478 117.1099 116.3193 115.9350 115.6297 114.9515 115.2765 114.0591 113.9980 112.8618 112.1109 111.6747 111.1582 110.6813 110.2863 110.0204 109.8854 109.9041 110.0950 110.3212 111.2830 109.2084 111.1509 111.7355 115.0421 114.0078 113.9905 114.7275 115.2439 115.7657 116.2737 116.7468 117.2092 117.2563 118.4387 110.8899 118.0445 119.2300
109.7300 110.1112 110.3816 110.7158 110.4824 106.4102 104.1348 105.1646 102.7669 101.8925 112.1299 115.6191 110.9449 110.7204 111.4581 109.6436 110.7770 101.8254 103.6355 96.6292 97.2496 97.5134 105.7507 121.9526 117.7075 117.6531 117.3582 116.8494 116.3903 115.9092 114.7885 115.0259 112.6489 105.2396 114.0911 114.4224 111.5624 110.8595 110.2137 109.6301 109.1368 108.7801 108.5981 108.6361 108.8660 109.3022 109.6997 110.6648 111.5054 111.5747 109.6695 109.3626 113.8337 114.3305 114.8836 115.4790 115.9837 116.5423 116.8650 120.8122 118.7193 113.4419 118.7003 119.2300
110.0600 109.7551 109.6346 109.8156 109.4510 108.1440 104.7000 103.1192 102.3524 107.0309 117.0828 114.1639 118.3716 106.7619 110.8033 108.2733 108.3713 104.7287 105.8168 101.8399 99.2083 111.7155 108.9515 121.5480 102.0698 118.4711 116.7911 116.6447 116.1129 115.1968 116.0057 111.6796 104.9544 98.9875 98.8569 107.3562 110.8619 110.0193 109.2237 108.4800 107.8216 107.3417 107.0972 107.1429 107.4525 107.9917 108.6841 109.4517 109.9342 111.8941 112.1553 110.6147 112.9892 113.7644 115.2057 114.5377 115.7576 116.2720 117.4832 100.6456 119.2866 119.2598 117.5304 106.0100
110.4900 110.5996 110.3576 110.0121 108.5013 107.2845 104.0436 101.5154 102.6930 111.4677 117.5406 114.9512 113.1724 106.5900 106.1216 103.1110 104.0875 99.2284 105.3022 99.3257 96.8874 97.2810 99.9711 120.6789 112.4923 117.7518 116.8188 116.4906 115.5952 116.1892 110.1840 93.6383 89.5262 101.8980 111.6389 103.8763 110.6351 109.0599 108.1504 107.2052 106.3257 105.6358 105.2798 105.3440 105.8037 106.5732 107.4530 108.5660 109.2179 110.4915 98.7474 114.0704 113.7816 114.4753 114.2620 114.8158 115.5046 116.0388 117.2254 114.9656 104.8745 109.7227 120.2722 118.8000
113.6700 109.4562 109.3272 108.0132 107.9250 108.4376 108.1686 106.7283 102.1908 104.0096 106.0153 108.1183 106.1707 109.2600 114.0811 108.3180 111.9580 114.1090 108.1577 118.6636 117.7319 117.0285 111.6702 118.8348 117.8481 117.6557 116.7974 116.1884 115.5744 112.3707 104.8224 105.2200 104.0417 90.3626 117.1168 106.8503 109.6738 108.2675 107.0572 105.8123 104.5987 103.5536 102.9612 103.0739 103.8223 104.9317 106.1744 107.4079 109.0877 102.9311 101.0416 96.3901 103.9356 113.3114 113.5643 114.6978 115.2464 116.4792 114.7548 112.7723 100.7097 99.7745 98.9003 98.4600
112.5300 112.2682 111.6355 111.6421 106.9738 106.5158 103.4582 101.9666 102.2118 116.1928 115.3282 104.6198 102.4037 100.9764 100.0296 99.7505 120.6195 117.4854 120.0195 119.9111 116.7792 121.2121 100.0767 119.8508 117.9053 117.1815 116.7122 116.1344 116.3420 93.1251 109.5631 108.0125 114.0004 111.9245 105.4926 108.4417 108.5591 107.5003 105.9725 104.3492 102.5850 100.9151 99.8714 100.0670 101.3652 103.1051 104.8381 106.4367 107.8869 102.2392 104.1646 111.2143 111.5928 113.1915 113.7892 114.4810 115.1210 116.4933 109.4603 112.9895 108.5871 95.8242 114.9608 98.2100
117.1700 116.7391 113.9314 110.0487 109.7251 108.2521 107.2766 104.3343 101.4841 101.5720 102.7071 101.1378 107.1073 105.4223 115.8154 115.9592 104.5317 119.7835 120.3977 119.8448 119.5470 118.9691 118.7414 118.3204 117.7431 117.1275 116.5723 118.3617 93.6095 93.1593 101.4999 89.7596 90.4423 91.4623 112.2527 109.5133 108.0407 106.7576 105.0022 102.9099 100.3682 97.4541 94.6774 95.2805 98.3744 101.1403 103.5565 105.4949 107.9085 102.7184 111.1152 110.7064 111.8613 112.7465 113.7570 114.2427 115.0860 116.1603 114.7584 117.9322 103.2876 103.0908 108.3366 101.3900
108.7000 109.6864 108.7195 109.7685 109.4344 109.2764 107.8527 105.1559 101.2338 103.9481 119.9855 112.4298 122.9631 123.7194 107.1015 118.1583 122.3243 121.8038 117.0419 119.7418 119.0326 118.7230 118.4952 118.0998 117.6513 117.1117 116.9660 114.5330 98.7070 103.3020 119.3638 105.0980 112.6438 106.9581 104.0063 103.3558 108.3881 106.2547 104.2533 101.7396 98.2791 92.5008 88.1607 88.8163 94.5769 99.4003 102.5415 104.9055 106.8573 108.4371 109.4317 110.8183 111.8078 111.5946 112.3843 114.6245 105.0510 110.5111 112.3136 116.2878 119.1297 115.3682 118.4312 117.0600
116.7600 116.1598 113.4122 109.0272 108.7246 108.0813 106.8217 103.8119 103.9005 116.6521 116.4087 116.9207 122.4815 122.3333 123.1324 122.0741 120.6655 122.4123 102.2530 121.7523 118.5678 120.2000 115.6625 118.1674 117.6993 117.2031 117.7368 100.0177 110.1549 104.2883 113.4940 113.9263 112.6539 111.7504 111.5033 109.3806 107.7357 106.0694 103.9616 101.1821 97.2334 89.3811 84.5728 85.3617 91.8977 98.5311 102.0797 104.6151 106.5384 108.1135 109.5211 110.6752 111.6548 96.3544 111.2534 105.8198 88.3341 121.4157 117.6053 116.6396 117.1427 117.8917 109.3922 99.9200
117.3200 108.9599 108.9392 108.4170 108.3161 104.9843 103.1009 101.7768 104.2219 103.6365 116.5669 118.9800 118.9919 116.9760 120.0361 120.9302 121.2913 115.7417 99.9425 117.3801 105.5178 107.0307 116.9244 118.2574 117.1367 117.0888 117.7334 106.8250 113.2502 114.1572 114.2190 112.7870 112.3257 111.3504 110.0402 109.0519 107.7775 106.0133 103.9976 101.4525 97.7848 90.8540 86.6116 87.3825 93.2078 98.9930 102.3221 104.7463 106.6569 108.2353 109.5517 110.7262 111.6882 106.8246 112.3979 112.9060 90.2875 114.5055 105.3600 117.2406 117.3191 117.9806 106.7654 99.9200
111.9100 111.3505 109.8674 106.0416 101.9691 103.5426 102.3012 105.1835 103.5664 101.1759 112.6591 113.6840 108.6732 113.9653 118.5819 120.9989 121.2508 110.6503 106.4236 119.8492 105.5865 107.0493 108.7916 119.1372 116.7424 118.3010 118.7806 105.1907 104.9520 103.6151 114.9789 113.0765 112.5855 111.6107 110.6338 109.6847 108.1489 107.2662 105.4608 102.3440 99.6427 95.7417 92.2178 92.9335 97.1788 100.4880 103.1846 105.2791 107.0186 108.4863 109.7449 110.8498 111.9075 113.0403 112.6077 112.8935 104.2370 109.9646 103.3878 116.9930 117.1003 117.6072 116.4406 101.7100
110.0400 110.6901 109.4058 103.1007 111.3981 101.2123 105.8494 110.4872 102.8232 119.4272 119.5116 120.5563 117.5605 118.9066 120.0970 120.7731 121.6168 122.7401 122.5760 119.8529 121.5963 115.2552 104.8714 120.0520 102.0832 108.5941 103.6203 110.8999 92.9672 105.1113 116.1626 113.0692 112.6886 111.7903 110.7902 108.5945 108.7385 105.0016 104.6729 103.9062 101.5401 99.9167 98.4288 98.6908 100.3899 102.4586 104.3882 106.0958 107.6060 108.9142 110.1164 111.2069 112.0610 112.5946 114.4319 90.1350 118.3769 106.1543 118.5642 117.8315 117.4827 117.8124 121.1111 116.6900
103.0400 105.4408 105.5815 113.1519 115.3985 112.0051 110.2727 102.8988 106.4664 102.3232 107.4531 123.6428 122.0821 123.5110 123.6338 121.9392 120.6263 115.1181 124.6975 119.6849 117.8035 106.4880 115.9115 118.6271 109.5097 107.6334 90.9325 118.2426 110.5953 116.4247 114.4040 113.7591 112.9591 112.1364 111.1699 113.1904 101.3800 101.4621 105.5509 105.1463 103.7962 102.6937 101.9743 102.1107 103.0295 104.3230 105.7231 107.0767 108.3216 109.5168 110.5333 111.2785 112.3434 113.2660 113.9505 110.4329 114.7762 116.3816 115.9397 116.5202 116.9573 121.8842 109.9753 96.7300
103.0300 102.1834 102.2218 107.4696 120.6339 110.3526 107.2829 100.7342 100.8838 106.6628 111.2249 119.9373 125.0043 106.6031 108.8242 121.0891 123.2079 104.6982 118.0707 110.8809 117.4634 121.2026 119.6464 119.4580 119.2405 114.0175 104.5494 117.8947 108.6821 116.3868 108.4645 114.5296 113.2490 112.4099 112.8784 93.0517 88.8630 109.2504 107.4952 106.5128 105.7939 104.9468 104.5260 104.6063 105.1606 106.0216 107.0416 108.0972 109.1150 110.1036 111.8701 112.6229 112.5123 113.4828 114.1870 115.1510 116.3610 116.2921 116.5942 117.0092 118.1676 119.1387 97.5229 118.9300
103.0400 105.7410 108.2775 105.5676 114.3377 105.0768 111.2687 109.9566 104.2489 111.8375 103.2842 102.9531 121.3767 108.9686 121.0883 109.9083 111.4406 118.5622 118.9794 119.4236 120.6086 99.3966 115.2724 100.3903 121.1522 104.1293 104.3993 97.1117 96.9519 110.3541 114.1801 114.3030 113.5850 112.8942 112.3176 109.7085 108.7518 109.5372 110.9769 108.1074 107.3487 106.7739 106.4926 106.5424 106.9073 107.5242 108.2817 109.0938 110.0088 110.4474 112.1872 95.4133 114.7934 113.7145 114.4490 114.7272 115.8416 112.5161 117.2658 115.3782 108.2857 97.0761 104.3771 104.5500
103.0500 101.8305 114.3437 114.7079 116.8092 114.8486 115.4645 103.6524 101.0567 101.4625 102.4268 110.1672 127.1799 120.5405 122.4816 120.2765 120.7807 120.9145 120.5778 119.8517 122.2729 99.9502 115.6627 107.1754 107.6016 105.9568 103.3023 105.4236 117.0921 116.3922 114.9736 114.6182 113.9852 113.3540 112.6509 111.9404 110.8872 94.7527 111.1084 109.2023 108.6888 108.2981 108.0945 108.1285 108.3967 108.8419 109.4203 110.0817 110.7791 111.3913 112.6285 111.7791 113.5717 114.2079 114.8307 115.2545 115.5807 116.6855 116.9155 116.6072 124.1377 100.9480 101.7610 100.3600
112.8200 111.6147 117.0767 116.6889 116.7108 116.4106 111.1714 110.9205 110.3535 104.7090 106.4961 107.4704 123.6953 125.0564 121.3961 121.4398 121.1578 120.9275 120.6683 120.0821 113.0117 106.8990 106.1516 104.7035 103.7750 102.0419 104.0673 103.8846 110.8625 111.6841 115.3828 115.0444 114.3875 113.8134 113.2041 112.8204 105.8231 90.4201 111.6791 110.3259 109.9313 109.5962 109.4526 109.4754 109.6736 110.0077 110.4691 111.0023 111.5780 112.1852 112.5014 113.3538 113.9086 114.5631 115.1234 116.2354 101.8283 116.0183 116.5847 117.9604 117.9672 116.9537 115.0958 116.1300
105.6400 113.3026 118.2479 112.5059 112.9558 112.4198 107.9535 122.9457 104.3214 101.3032 102.8384 99.4878 112.5995 105.7629 119.4513 122.0610 122.3175 121.0466 120.8221 119.6190 119.2226 105.8298 105.2175 115.3723 114.2409 99.4792 103.3227 110.0456 95.4141 120.1051 115.3784 115.3650 114.8301 114.2967 113.8097 113.2276 103.9386 96.0514 113.5523 111.2492 110.9626 110.7360 110.6207 110.6419 110.7893 111.0583 111.4284 111.8629 112.3466 112.8664 113.3944 113.9548 114.4659 114.9770 115.4717 116.0481 117.8758 105.2168 109.5846 113.0793 118.8031 113.0327 117.1855 122.9200
119.1700 119.7011 125.8342 126.0851 125.4824 124.7911 124.0649 122.1182 109.9837 115.9185 126.4112 110.0342 118.9562 119.8230 118.1649 117.9421 118.4058 120.4489 120.4141 113.4684 117.9652 105.1367 103.9514 103.7691 102.4161 99.8022 103.2472 96.3062 106.4447 116.3479 116.2124 115.7328 115.2627 114.7764 114.3408 113.6650 102.8899 98.4089 113.0693 112.2357 111.9212 111.7501 111.6554 111.6708 111.7950 112.0090 112.3013 112.6606 113.0740 113.5110 113.9683 114.4382 114.9237 115.4065 115.7983 115.6143 117.8234 107.2120 104.4037 97.6461 116.7411 118.9432 114.8331 99.7400
125.2500 125.6049 124.6620 124.3533 124.3096 116.2497 123.5203 123.9676 125.6585 124.2533 123.1593 123.8851 106.8255 100.7142 97.3841 102.6167 104.1391 121.5894 119.2388 117.1336 111.2134 105.2693 106.9610 104.5792 101.8462 99.7368 112.3225 110.1688 117.6173 110.6234 116.3432 116.0508 115.7131 115.2698 114.7968 116.1181 113.9100 115.2750 113.3392 112.9772 112.8045 112.6482 112.5784 112.5888 112.6912 112.8617 113.1059 113.4111 113.7610 114.1413 114.5448 114.9669 115.4029 115.7922 115.9853 120.6213 117.3355 117.9663 122.2373 108.8254 122.7112 111.5130 112.6711 122.8400
126.1400 125.1300 124.9900 124.8400 124.5500 124.3900 124.0800 123.9200 123.5900 123.4200 123.2500 122.9000 122.7100 122.5300 100.1500 105.2800 124.6800 120.4500 121.1100 105.8700 105.4000 103.5900 106.3800 103.6600 102.6900 98.2500 102.3900 105.7700 102.6200 100.5000 116.8100 116.4400 116.0900 115.7900 115.3500 114.9600 114.5600 114.2000 113.7700 113.7700 113.3400 113.4000 113.4000 113.4200 113.3800 113.3200 113.7300 113.7300 114.1500 114.5600 114.9900 115.4100 115.7100 116.0800 116.4300 99.2400 117.4300 117.7400 118.0400 118.3400 120.2000 107.0900 103.9900 102.1800
