125.0400 126.0400 128.2500 124.4400 124.2900 125.4100 125.3600 125.0600 124.7000 124.6400 117.4300 101.4000 115.5800 114.8900 120.5800 117.2100 120.8600 120.6300 117.9600 97.8800 97.6200 105.0400 109.3000 108.8500 104.2600 117.5100 112.3900 116.4300 115.6300 115.2000 112.0500 113.7800 113.2500 105.8900 104.7300 110.7600 109.2100 108.2600 107.3700 106.4700 105.4100 105.4100 102.5800 103.8000 105.3100 105.3100 106.3200 107.5400 108.3400 110.0200 110.7700 113.6400 121.4600 91.2500 91.8000 92.7500 93.3500 113.8000 118.3400 99.7500 108.9500 108.2100 118.4800 118.7800
125.0400 126.6788 130.7247 127.3837 127.2011 128.7468 126.9735 129.4063 127.3511 123.0341 120.5780 116.8415 121.7606 114.6041 117.0226 117.0545 112.8913 115.4053 112.8778 107.5241 106.9279 111.4176 116.0232 112.2051 113.5320 119.7041 113.7762 123.5736 120.2516 115.8916 108.0025 104.1493 109.6092 109.1477 104.6336 96.4568 107.3723 106.5042 106.6680 106.1762 104.3163 98.6146 101.6100 102.1821 103.0981 104.4072 105.7694 107.1040 108.3472 109.4671 110.3421 110.2689 110.1537 102.1887 90.8221 101.3427 110.9929 104.2356 109.3951 106.6041 99.2420 107.5693 119.3559 118.7800
119.9400 122.8247 116.7431 113.1678 116.3184 109.7165 111.4414 109.2513 110.5161 106.5532 106.0477 109.2487 112.8162 118.4129 113.6348 119.2569 111.7886 111.1202 112.5801 113.8312 114.5344 114.5096 118.3504 107.6914 112.3234 110.0137 108.8969 116.3326 111.7153 111.7995 110.5998 98.2793 99.0563 107.4067 98.9272 101.1045 109.3686 105.1239 105.7997 104.6766 101.7752 100.5325 98.9681 98.9454 100.5222 102.5254 104.4362 106.1355 107.6431 108.8766 110.3102 113.7962 99.0009 120.0602 94.8960 106.0525 110.9421 98.7978 105.7794 106.9745 102.9192 108.0481 118.9685 118.7200
125.0200 118.6034 119.7764 103.2330 118.4987 111.8059 112.8818 111.6314 110.4978 111.2531 112.3707 115.1516 109.2598 121.7498 112.7658 115.3352 110.6230 111.3030 114.1244 110.5407 112.9989 114.5963 105.5018 112.5925 103.6813 102.5769 102.6144 96.9049 104.3587 99.3774 98.7482 96.7393 92.3587 110.6538 87.6765 102.6933 110.5717 107.3215 104.7226 102.4967 99.6992 96.0565 92.5439 93.2145 97.3231 100.5581 103.2029 105.2994 106.9958 109.0160 104.8848 101.8228 108.6549 97.8492 91.3932 95.7445 100.6021 113.0653 102.5413 106.6476 107.4131 115.2909 118.0169 118.7200
125.0200 119.0293 120.7114 118.6977 121.3242 119.9208 120.8965 120.0187 121.0190 121.8857 119.7124 106.7089 104.6576 109.3585 111.7387 110.3914 110.6505 110.0543 113.9482 108.8365 103.2045 106.7992 108.6423 114.0125 110.9454 105.6933 109.1579 101.8211 103.5925 98.4127 116.2489 109.0317 108.2348 111.7451 112.7174 105.0960 108.6517 105.9297 104.1345 101.5216 97.9623 91.1959 86.8509 87.3552 93.3621 99.0152 102.3287 104.7492 106.6141 108.2435 108.7040 105.8597 111.7237 107.1254 108.7098 110.9185 108.8875 114.8113 101.4690 99.5069 112.4603 118.2219 118.2200 118.3800
125.0200 124.2034 122.2840 120.4849 116.9696 126.3453 123.2455 119.0804 119.9894 106.0183 121.7475 108.5298 99.5231 107.8951 110.6215 111.0961 110.7452 109.8018 111.0505 109.2187 109.1461 102.9475 108.2565 113.7088 114.6215 105.4455 102.8199 102.2977 102.6767 98.8001 120.8756 112.6170 112.3937 110.5557 115.7742 110.6837 107.8449 106.0803 103.9574 101.1806 97.2761 89.3449 84.3637 85.3824 91.7302 98.4970 102.0519 104.5830 106.5291 108.2889 109.7340 110.9365 111.9053 113.3233 114.0021 112.3800 109.5337 111.9166 102.4668 97.5591 115.4826 117.7309 118.2560 118.3700
125.0200 124.9441 123.0932 130.1270 115.2927 114.3475 109.3314 114.7379 111.5303 102.5552 109.7763 104.9620 100.1732 98.4459 109.0113 111.1168 111.7434 111.6160 111.0319 109.0574 103.3142 106.5114 101.0997 110.8614 100.7025 105.3570 105.9778 117.6885 99.9767 101.2926 120.1154 113.0758 113.1421 112.9382 106.6805 109.4894 107.8069 106.2460 104.2427 101.7164 98.2629 92.4195 88.1052 88.5008 94.3332 99.3144 102.5009 104.8592 106.8080 107.1356 109.6809 110.6875 111.7217 112.6632 113.3226 112.2913 115.7817 120.9999 102.4656 111.3862 117.5116 117.7465 118.2258 118.3800
125.0200 124.8977 122.7859 128.5846 117.7943 117.5349 125.9919 116.4402 117.0605 124.9117 106.0235 104.3916 101.2797 110.4504 111.9805 111.9355 111.4102 111.2438 106.8220 107.1484 106.9080 106.0313 103.5066 101.7588 99.6104 100.1604 117.7274 107.2287 116.0427 114.1480 114.7868 103.4368 93.1270 112.6905 103.6707 109.1130 108.4451 106.6954 104.9655 102.8561 100.3022 96.6460 94.2532 94.8687 98.3035 101.0276 103.4831 105.4903 107.1680 108.6325 109.8710 110.9054 111.9245 112.8251 113.6049 116.8079 122.2370 102.8094 104.8516 118.0742 117.1382 117.7284 118.1128 118.6900
125.0200 124.1088 124.6059 122.2043 119.0986 119.2203 117.9977 106.9583 100.4533 101.1503 100.6670 100.3355 100.0334 99.7157 98.1663 109.1277 116.2083 120.4528 106.7382 107.4044 107.9270 104.7574 102.9472 109.4650 97.5031 99.5844 116.7720 114.9234 115.6515 114.8980 114.6831 112.9613 99.0928 101.9725 110.5756 104.9743 109.0981 107.2778 105.9502 104.2847 102.5516 100.7638 99.6753 99.8447 101.1954 103.0532 103.7391 106.4054 107.7955 109.1271 109.9862 111.2593 112.0518 112.5862 112.8789 104.3382 100.3872 101.3361 116.9571 117.1039 117.3377 117.5775 120.1043 119.2100
125.9900 115.2044 112.3947 111.2889 110.0947 110.7319 103.6884 122.9658 102.3862 108.4319 101.4741 103.2884 99.8209 102.2511 116.7252 114.1306 108.5883 119.3805 109.6316 110.4302 115.5047 104.2330 114.1044 104.8430 100.6675 107.0263 104.8425 105.7207 116.1516 114.8847 102.9932 95.6054 91.2210 94.1421 96.2057 111.0235 107.5167 108.1917 107.0171 105.6899 104.5169 103.4252 102.8418 102.9207 103.6891 104.8074 104.2301 107.4292 108.4292 109.6402 111.2168 108.0640 113.5856 115.1093 116.7837 102.7937 104.7938 105.0027 116.7361 116.6049 117.4829 117.1852 128.4390 118.7300
125.0300 127.1993 115.9457 109.5609 108.9870 107.1750 108.9993 121.6456 108.5884 110.9037 105.8019 104.1023 101.2790 117.4473 117.4414 112.5927 111.8683 112.1975 110.6272 107.0665 110.0344 109.7589 116.8674 99.8770 120.1067 114.5307 119.0539 116.0459 116.3264 113.0241 116.3448 108.4243 90.2856 95.2962 108.3722 110.5924 110.7785 108.9955 108.1913 107.1872 106.2071 105.5477 104.9881 105.2035 105.6989 106.4729 107.4074 108.5213 109.3571 110.3392 115.8140 108.5273 108.2753 109.1252 121.6795 115.8469 107.1488 117.9524 117.1880 117.0918 117.7615 116.5449 121.2583 102.3100
125.0400 122.7234 123.1542 114.4175 114.3458 111.6526 123.0490 119.5789 121.4439 114.8020 101.4855 99.6580 101.1840 115.4069 119.3349 108.1298 110.0067 109.3119 111.4391 110.0604 103.6287 106.5412 98.6403 104.6227 116.4947 121.2007 116.7036 120.1008 115.8033 115.7462 114.9992 102.0536 107.5837 116.8235 114.2310 111.3559 110.7603 110.0267 110.4731 108.5593 107.7383 107.1975 108.0497 107.1926 107.3861 107.9316 108.6339 109.3235 110.2810 106.6416 112.9921 107.3751 101.3730 102.1489 117.8117 115.1037 107.5964 116.1394 116.6078 117.2653 117.8421 117.0387 116.1175 104.8000
125.2100 120.9139 118.4128 119.4908 119.2110 119.2143 118.8193 117.9419 109.6883 101.5573 115.3303 104.6017 100.4522 107.6878 107.6026 108.4393 102.1754 98.6782 111.9200 107.5522 107.6624 121.5102 104.5512 104.7357 111.4423 119.8592 117.4193 116.6481 116.3354 115.7729 116.3695 101.5054 111.4053 108.1337 113.2609 112.1084 111.5029 110.8294 110.3405 109.5825 108.9835 109.0912 99.6735 107.4075 108.6712 109.2092 109.7236 110.5058 110.2550 110.2112 106.7397 107.9269 112.2196 101.3292 104.6905 104.7397 111.3906 117.6749 116.9822 117.4525 117.9487 118.0940 121.2101 122.5800
125.2200 124.2285 120.0119 118.3880 118.5063 118.3904 118.6438 120.2903 123.3975 105.7727 111.8818 100.4049 99.3776 102.2626 99.3755 98.2724 98.5736 99.3685 112.7974 109.2570 115.7838 109.3384 102.8812 111.3245 121.4558 116.4925 117.7296 117.1182 116.6077 116.0917 116.4215 104.7662 96.8087 109.4947 113.3901 112.7421 112.6613 111.7345 111.1993 110.6309 110.1643 110.2546 109.2277 109.5886 109.9287 110.3421 110.7506 111.2367 112.1039 119.8661 103.0895 102.6036 105.4562 104.0580 114.2685 107.7113 109.4732 113.4168 117.4997 117.6361 118.1272 118.1707 127.9710 130.4800
125.2400 123.1674 124.0320 119.1032 118.6284 119.7619 119.6263 108.0030 104.6331 103.5040 116.6087 103.6552 111.6367 114.5490 109.0695 110.0294 97.0961 100.6499 115.9833 105.1351 112.8652 107.1057 104.0989 107.6242 114.3144 110.3967 117.6900 117.4878 116.8666 116.4111 115.9424 110.0500 103.3743 114.7462 113.8439 113.5132 109.5548 112.5009 111.9605 111.5830 111.2147 110.8924 110.8970 110.9457 111.0548 111.3521 111.6936 112.1846 112.4684 114.2091 101.5993 109.6098 107.4830 110.7260 108.0670 111.0119 108.7386 113.0020 117.5491 117.9911 118.2338 118.5250 119.4814 123.1800
125.2500 124.3984 124.2080 122.1746 122.7696 108.3221 106.8356 103.8700 124.9256 114.4468 123.2481 114.6290 115.3341 118.3194 113.5529 111.2801 110.2365 105.4531 113.4741 99.1683 107.7588 108.0589 102.1065 113.8755 115.0473 118.1916 117.7959 117.6162 117.1733 116.6603 117.1759 116.8018 109.9879 106.1619 115.3009 113.4809 110.0343 113.2864 112.7282 112.4643 112.2139 112.0729 111.9640 111.9650 112.0876 112.2689 112.5297 112.9338 113.4757 113.6512 115.1566 116.9651 103.0248 105.7960 105.3236 107.0827 110.2278 107.6579 118.7312 117.9818 118.5006 118.4313 125.8414 127.4500
125.2700 125.1910 124.5876 124.5988 125.3704 109.4014 122.6016 117.2097 119.8984 119.3120 119.2272 114.9119 110.2520 113.2619 118.2299 116.1797 111.0087 112.2924 100.2786 97.5178 107.2083 101.4670 102.9056 106.7225 115.1526 118.8148 119.4618 117.8149 117.5078 117.0852 114.8818 102.1759 116.4022 112.9622 115.3294 114.7091 114.2296 113.8047 113.5490 113.2560 113.0858 112.9181 112.8305 112.8502 112.9395 113.1005 113.3268 113.8006 111.1786 113.9032 115.1482 92.9709 110.4709 104.8514 106.1324 106.5477 110.1081 113.5098 118.3080 118.5337 118.6662 119.3007 115.0101 128.6500
125.2900 125.2428 124.9389 123.0783 118.4357 118.7372 117.9438 118.7710 117.9873 115.4954 116.0259 121.1649 119.0195 118.6870 117.0320 104.6566 102.9649 98.0265 119.7990 103.9155 107.1222 102.1740 101.6650 115.3453 119.2710 113.4613 113.1290 118.2173 117.9947 116.6662 120.1025 101.4620 114.4172 112.1996 115.0143 115.1458 114.8272 114.4946 114.2536 114.0559 113.6287 113.6101 113.6425 113.5947 113.6877 113.8608 114.0846 114.2902 113.6657 115.3170 112.7537 115.2197 119.5096 111.4129 114.1712 106.4507 106.4858 114.0311 109.2857 115.2726 118.9662 121.3786 114.3934 107.3000
125.4500 125.2028 125.5721 118.6776 118.9215 118.5709 117.5338 117.8300 115.8372 114.9176 114.2640 114.7911 119.1974 103.8608 115.3354 107.7074 107.8848 103.2663 114.0944 113.6885 98.0138 120.0595 120.0410 99.0546 104.0471 119.3497 127.0936 118.6754 117.4256 116.8265 117.7171 94.5317 104.6887 117.4193 115.7375 115.7386 115.4096 115.1399 115.1141 114.0765 116.7608 114.4699 114.4017 114.6287 114.6972 114.6384 114.6881 114.9620 115.3671 115.5630 115.8309 115.9335 115.1953 94.5785 111.0593 102.7558 106.4155 110.3621 107.2698 107.7091 106.7892 116.4231 108.9950 120.0700
125.4700 125.5582 125.3773 120.4045 123.7896 124.0556 116.9484 114.8191 117.9974 120.7456 114.0813 114.7713 117.7881 113.0443 101.5818 103.1499 104.6057 107.7995 106.5705 108.6310 102.5929 118.0915 116.8992 110.6216 111.6116 108.7612 113.0869 118.3215 117.4908 105.0225 103.1574 103.8161 112.8563 116.7045 116.3175 116.2144 115.9498 115.7114 115.5259 110.2850 110.5497 115.3081 115.0720 114.4343 113.6122 114.1304 115.6988 115.4760 115.4291 116.0197 116.3580 116.5487 116.8139 103.1606 113.3110 111.0390 106.6639 107.0582 107.8084 108.2070 108.8447 109.3639 115.2305 120.1400
125.5000 124.6002 121.2152 121.5295 122.4554 121.1291 119.7677 117.7588 116.0444 121.6297 114.6527 113.1267 107.3160 104.1759 106.4833 100.0242 105.2255 115.4929 110.4058 108.7204 122.8415 121.5222 120.6275 104.4027 106.7161 111.4925 107.9095 119.4893 111.3622 110.2413 106.5787 113.9926 119.0035 116.8914 116.9096 116.7149 116.4825 116.2617 116.2919 116.6230 115.8746 115.7093 115.7409 115.9705 125.1437 110.0201 116.6208 116.0539 118.7198 116.3776 116.6448 117.8172 117.1900 117.6817 114.8587 118.5212 112.8921 109.0915 108.3035 110.7047 107.6906 115.8551 118.0006 115.4500
119.7200 120.2009 120.4899 118.9404 119.3849 121.0494 120.0290 121.6878 121.3530 115.9767 112.7711 104.2053 106.4218 112.0004 105.0789 100.4853 98.6631 100.6954 116.9697 120.9503 120.6807 120.8837 121.6244 121.2995 122.3180 121.1461 121.1846 119.0160 118.5813 119.9831 117.9674 117.6941 118.1883 117.6432 117.4180 117.1943 116.9868 116.8022 116.5659 116.3454 116.3612 116.3224 116.3311 117.0699 109.6929 102.8249 117.8462 120.3452 108.5286 117.9667 116.9551 118.8666 117.5725 117.9175 118.6830 118.5308 118.8540 115.9351 115.0726 113.6033 111.6824 117.5269 116.3042 115.7400
119.7200 119.6403 119.1492 119.5751 118.9700 119.6512 118.7948 120.7423 121.9737 110.0118 113.5418 113.6329 107.2938 109.6594 102.1735 100.8369 99.7832 107.4140 125.6339 121.6565 121.3658 121.2277 120.8449 120.5110 120.0607 120.0068 120.9655 113.9445 115.8117 118.2807 118.6675 118.6523 118.2862 118.0806 117.8564 117.6457 117.4598 117.2909 117.1630 117.0556 116.9530 116.8613 116.6581 118.1490 102.6546 102.2985 121.3858 120.3151 103.3592 107.3061 117.0724 117.1314 117.0584 118.3899 118.6337 118.8704 119.1981 120.1068 117.8137 111.1408 112.2148 114.5073 116.2470 115.7400
119.6400 119.6243 120.7081 120.3212 119.2207 119.6837 119.2509 121.7046 118.0848 112.3010 113.3751 107.7158 104.4712 99.9008 100.2465 99.6651 106.5491 119.1511 116.4689 121.1718 121.7738 121.5607 118.3327 121.2480 120.5217 121.1089 107.0329 120.2968 120.6469 119.3996 119.3660 119.0104 118.6994 118.4754 118.2779 118.0855 117.9190 117.7590 117.6356 117.5304 117.4580 117.3757 117.1526 118.9978 102.5156 104.5864 117.8582 118.2372 111.9229 113.7211 106.3413 113.4200 119.5597 118.5995 118.9806 119.2256 119.3646 119.4247 120.4508 118.2998 113.0344 112.7346 114.2799 114.1700
120.6600 120.4467 115.9252 118.6994 118.8257 119.7090 121.9094 123.7629 118.4251 110.1888 104.1739 99.6413 103.4000 101.8083 107.5763 117.9101 114.0707 119.0196 105.7010 119.6336 121.6850 121.6849 119.4164 121.1525 120.8781 121.1545 118.7662 114.0814 120.0835 119.4752 119.5038 119.2678 119.0571 118.8664 118.6784 118.5082 118.3515 118.2486 118.0903 117.9700 117.9369 117.8684 117.6864 118.8799 104.7282 108.8495 118.2093 117.9809 118.8560 118.0451 117.9602 112.7293 118.9335 119.1137 119.3469 119.4455 119.8140 119.9680 120.2894 120.5895 117.2622 111.2603 112.3799 112.3400
120.6300 120.6315 118.1660 121.3262 120.6676 124.3949 113.5395 114.4976 124.6837 110.6445 98.2666 124.1310 105.2063 117.6919 116.3477 117.1018 107.4742 111.0117 106.0865 122.9730 121.7311 121.8357 121.5405 121.3728 121.1145 120.7190 120.9440 115.1016 120.4827 119.9825 119.8559 119.6080 119.4239 119.2369 119.0735 118.9156 118.7659 118.3592 118.4758 118.4860 118.3961 118.3427 118.3288 118.2711 118.9174 119.6714 118.8734 118.5359 118.6048 118.7402 118.9430 118.2315 118.5453 119.4520 119.6942 120.3121 125.6458 120.3905 120.5083 120.8042 120.1149 117.2663 112.5279 113.3100
120.8200 120.7661 120.8378 119.5815 114.8176 123.7858 121.3841 114.3119 103.4668 102.7296 114.3317 120.6156 114.8292 119.5724 113.3428 111.3321 108.1426 119.0702 117.0065 123.1229 122.1729 121.9745 121.7644 121.5710 121.3353 121.2276 120.5124 121.2666 120.2983 120.2570 120.1226 119.9404 119.7712 119.6045 119.4489 119.2827 119.2484 121.7656 117.9197 118.9080 118.8261 118.7794 118.7628 118.7843 118.6413 118.6474 118.8416 118.9637 119.1161 119.2154 119.3501 119.3238 119.6745 119.8059 119.9839 120.2277 120.7056 120.5021 120.8423 120.9386 121.2512 121.4974 121.1699 113.6600
126.1100 125.7742 125.2201 125.5330 125.3171 125.5104 122.3881 101.7695 112.6257 106.6627 115.0662 115.1337 116.9049 110.5385 108.9512 109.1624 107.4658 116.2518 122.5680 122.5201 122.4525 122.1861 121.9990 121.7934 121.5878 121.4191 121.0922 121.8616 120.7418 120.6026 120.4442 120.2696 120.1008 119.9537 119.8048 119.7301 119.4063 122.8956 120.0469 119.2633 119.2382 119.2047 119.1875 119.1965 119.2406 119.4079 119.1224 119.3611 119.3787 119.6418 119.6940 119.8565 119.9715 120.1431 120.3298 120.4720 120.5219 120.9488 121.0363 121.2432 121.4391 121.6092 122.4412 121.9000
126.1400 126.0765 125.9008 125.6717 125.5379 125.3717 125.7684 122.7968 120.8224 117.2320 119.8326 117.1215 115.8641 115.5705 111.9131 105.3804 112.7226 113.0497 127.7782 122.3036 122.6410 122.4049 122.2094 122.0143 121.8224 121.6256 121.4954 121.1663 121.0906 120.9144 120.7506 120.5871 120.4321 120.2774 120.1714 119.8447 119.9115 119.3354 119.7232 119.6929 119.6337 119.6023 119.5865 119.5604 119.5145 119.7883 121.3930 116.3605 119.9575 119.9649 120.0712 120.1958 120.3366 120.4732 120.6583 120.7698 120.9453 121.1459 121.2846 121.5144 121.6777 121.9107 122.0916 122.1800
126.3000 126.1670 126.0120 125.8538 125.6944 125.2715 125.1646 120.6488 123.9484 118.3349 120.5248 126.7793 121.0566 115.6970 109.8511 109.4017 110.7308 112.6028 107.6601 122.4101 122.7861 122.6191 122.4229 122.2475 122.0563 121.8839 121.7092 121.5258 121.3540 121.2015 121.0430 120.8902 120.7584 120.6238 120.4235 122.6767 120.2190 120.2698 120.1315 120.0532 120.0110 119.9856 119.9812 119.8315 120.2131 120.1011 120.0635 120.8100 120.0671 120.3465 120.4040 120.5354 120.6584 120.7945 120.8944 121.3401 120.6363 121.4309 121.5768 121.7502 121.9476 121.9307 122.2994 122.4400
126.3400 126.2399 126.0840 125.9165 125.7697 125.8427 123.1058 130.9612 122.9195 113.1202 129.6323 124.6404 115.7374 111.2385 111.4818 108.7823 107.7379 108.2657 111.6644 117.8975 123.5130 122.7626 122.6519 122.4458 122.2391 122.1541 121.9561 121.7824 121.5981 121.4920 121.3372 121.1981 121.0620 120.9426 120.6015 121.6502 120.4166 120.5381 120.4734 120.4228 120.3887 120.3597 120.3713 120.0839 118.0516 118.9341 120.4144 114.2649 121.3331 120.3645 120.7588 120.8515 120.9683 121.0947 121.2768 121.1530 119.3024 121.6236 122.4339 121.9793 122.2453 121.2721 129.9802 122.5000
126.5200 126.3400 126.1886 126.0152 125.8444 126.1935 125.0816 133.8831 121.2100 119.3765 123.9299 113.8793 110.5976 110.8597 115.9775 110.8998 127.2976 123.6633 124.6042 123.8555 123.0216 123.0156 122.8367 122.6536 122.9229 122.2931 122.0395 122.6140 121.8847 121.7802 121.6121 121.4880 121.3628 121.2648 121.1698 120.9432 120.9689 120.8729 120.8206 120.7836 120.6925 120.6967 120.7503 120.4152 116.5616 115.9996 120.6671 118.0047 120.2490 120.8723 121.0688 121.1691 121.2807 121.4037 121.5215 121.6174 125.1445 114.1384 122.2624 122.1779 122.3988 123.5980 129.7599 122.7700
126.5200 126.4443 126.2946 126.1354 126.1318 124.2298 122.3587 118.0524 123.8124 141.3158 114.0072 112.7937 107.0052 105.8680 107.2252 115.4461 118.1723 124.3646 123.3489 123.4063 123.4923 123.2225 123.4421 124.0810 121.2663 122.9480 122.0498 123.2046 122.1757 122.0348 121.8945 121.7648 121.6569 121.5368 121.4387 121.3630 121.2705 121.2106 121.1736 120.7639 121.1979 121.0547 121.0901 120.8539 117.4564 116.3029 120.9007 121.4596 121.4552 121.1602 121.3811 121.4789 121.5779 121.6873 121.7967 121.8358 124.2478 116.4663 123.6884 122.4862 122.6235 122.9014 122.1368 123.0100
126.7100 126.5339 126.3543 126.3773 123.5207 120.7032 119.0888 122.9890 122.3011 113.8547 112.4289 115.6476 117.5121 108.0661 103.4283 126.9679 126.8584 122.7163 124.0664 123.7398 123.6081 123.3976 123.3178 120.9398 112.4970 123.5951 122.5682 122.5332 122.3272 122.2874 122.1621 122.0461 121.9365 121.8367 121.7398 121.6596 121.5843 121.5101 121.6673 118.2550 121.8314 121.3252 121.3885 121.3392 121.4370 121.2661 121.1508 121.5220 121.5085 121.6422 121.6893 121.7697 121.8662 121.9680 122.0665 122.0571 122.2712 123.2875 122.4110 122.7429 122.8595 122.9758 123.1632 123.3200
126.7100 126.6439 126.4293 126.7518 122.3097 118.7865 119.1930 122.6339 119.7529 120.2981 121.1676 120.0679 107.3496 102.7210 118.4336 118.1597 125.3359 123.0534 124.0649 123.9069 123.7685 123.6399 123.3611 124.7192 123.3317 122.3643 122.9391 122.7993 122.6437 122.5575 122.4272 122.3173 122.2136 122.1160 122.0330 121.9551 121.8831 121.8158 121.9189 122.3086 120.3669 121.7165 121.6240 121.6731 121.6327 121.9562 122.3098 121.7989 121.8330 121.8918 121.9770 122.0612 122.1471 122.2424 122.3391 122.4789 122.5752 122.6042 122.8619 122.9514 123.0983 123.2320 123.3785 123.5400
126.8900 126.7155 126.9318 123.9199 121.3738 119.9808 119.7196 120.9167 121.2566 128.4488 120.7174 108.7720 104.0476 119.8956 119.6351 120.6191 123.9548 125.3696 124.4140 124.0623 123.9850 123.8101 123.7187 123.2975 122.9086 123.2319 123.1347 123.0630 122.9407 122.7647 122.6858 122.5791 122.4860 122.3903 122.3106 122.2380 122.1794 122.1249 121.7765 121.6178 108.4305 121.0890 121.8614 122.0232 121.9041 122.0084 116.3050 122.6436 122.1402 122.1843 122.2601 122.3364 122.4188 122.5100 122.6118 122.7154 122.8242 122.9363 123.0546 123.1919 123.3166 123.4502 123.5864 123.7700
126.9300 126.9458 125.4983 121.5464 121.4272 117.2942 113.5562 115.2152 122.6354 126.2233 115.7298 111.7482 102.5018 116.9245 125.5950 125.7119 124.6301 123.1133 122.7440 124.5247 124.1086 124.0287 123.8676 123.8103 123.3348 124.4281 123.9046 123.1365 123.1427 123.0341 122.9325 122.8385 122.7431 122.6640 122.5872 122.5119 122.4591 122.3929 122.2328 122.2069 107.7837 121.9809 121.4543 121.4603 122.5233 123.3559 113.7437 122.5957 122.4372 122.4640 122.5298 122.6112 122.6819 122.7734 122.8652 122.9672 123.0699 123.1767 123.2906 123.4099 123.5320 123.6647 123.7923 123.8200
127.0800 127.0375 125.5843 122.1731 115.0011 113.6980 118.9877 118.0964 120.6951 107.7273 112.5250 129.0592 120.2166 115.6664 126.7947 124.7898 124.7669 124.9450 123.2751 124.4973 124.3334 124.2120 124.0731 124.0090 123.7227 123.5760 122.2223 129.3353 123.3708 123.2487 123.1841 123.0855 123.0008 122.9239 122.8536 122.7847 122.7281 122.6801 122.5870 123.2778 123.6466 122.4450 120.0692 122.0068 120.7646 122.1177 123.5085 122.9387 122.6862 122.7353 122.8063 122.8733 122.9456 123.0276 123.1153 123.2042 123.3067 123.4098 123.5168 123.6370 123.7439 123.8705 123.9907 124.0600
127.1100 127.1820 123.4970 113.7631 121.3081 119.1907 118.1134 119.2500 107.1130 109.3478 125.8731 126.3862 126.7141 124.6681 125.8984 125.1757 125.0603 124.9564 124.8066 124.6625 124.5382 124.4002 124.2736 124.2180 123.9678 124.8921 122.6281 123.5971 123.7097 123.5210 123.4142 123.3275 123.2519 123.1746 123.1099 123.0457 122.9948 122.9048 122.6318 122.3391 122.6021 122.9737 126.3300 123.1327 124.2925 118.1684 122.7911 122.9018 122.9597 122.9959 123.0620 123.1259 123.1977 123.2773 123.3550 123.4440 123.5432 123.6407 123.7375 123.8476 123.9595 124.0762 124.1917 124.3000
127.2600 127.1662 126.2970 121.1593 121.1860 119.6598 119.2926 116.4924 110.6580 117.4567 125.3744 124.7107 125.0811 125.4819 125.5297 125.3470 124.9824 127.8543 124.4230 124.9177 124.7006 124.5882 124.4697 124.3564 124.2546 124.0345 124.3243 124.0540 123.8159 123.7082 123.6629 123.5696 123.4912 123.4221 123.3585 123.3232 123.0807 123.2924 125.3134 123.3326 123.7786 123.4771 115.4387 108.2181 114.8133 123.9454 123.1379 123.1884 123.2843 123.3127 123.3179 123.3722 123.4451 123.5105 123.5980 123.6772 123.7674 123.8582 123.9573 124.0560 124.1689 124.2754 124.3922 124.4800
127.3000 127.5372 123.6836 121.5066 119.4294 120.6153 109.5790 117.3330 111.3560 129.8899 126.1606 109.4695 117.3843 125.8078 125.5013 125.5940 124.7224 125.4463 125.1379 125.0717 124.8882 124.7768 124.6636 124.5521 124.4348 124.4164 123.7634 123.9514 124.1216 124.1151 123.8397 123.8108 123.7230 123.6643 123.5962 123.5730 123.2892 121.8203 114.5296 123.7154 117.0015 123.2789 114.5923 116.2880 125.0507 123.5744 123.3833 123.4190 123.1647 123.2129 123.5324 123.6401 123.6751 123.7488 123.8266 123.9044 123.9914 124.0777 124.1756 124.2721 124.3740 124.4756 124.5874 124.5200
127.4400 127.3123 125.7084 121.9404 120.6568 118.5474 112.8776 118.5205 120.0803 124.7781 119.0690 119.7099 123.6215 126.3885 125.7717 125.6153 125.5233 125.5146 125.2699 125.1802 125.0855 124.9745 124.8503 124.7404 124.6316 124.6997 126.9558 130.1120 124.2622 122.9131 124.1683 124.0380 123.9658 123.8754 123.8829 123.8053 123.5836 125.8474 123.1859 123.9409 112.6345 124.5692 119.4001 110.5300 125.0952 123.3728 123.6378 123.6622 124.5452 127.0644 124.0799 123.7928 123.9298 123.9799 124.0489 124.1235 124.2105 124.2879 124.3861 124.4666 124.5759 124.6851 124.7705 124.7500
127.6200 127.6832 124.0669 123.1723 121.4448 112.4286 118.5750 104.4598 100.6067 114.2242 106.8404 121.6082 128.9283 125.6427 125.9143 125.7861 125.6818 125.5546 125.4576 125.3580 124.8637 125.1401 124.9472 124.9578 124.8131 124.8779 124.7042 125.4103 127.6428 122.4985 124.3749 124.2588 124.1735 124.2167 123.8245 124.3426 123.5643 122.9810 122.6389 123.8440 124.0183 123.8872 124.6530 121.7960 123.2709 123.8343 123.8857 123.9036 122.8037 112.3104 123.2497 124.0976 124.1433 124.2095 124.2718 124.3445 124.4082 124.5024 124.5992 124.7462 124.7367 124.8228 124.9508 125.1400
127.6300 127.6204 125.3685 124.1514 123.9121 120.1653 105.4690 111.4305 113.6087 120.8577 123.4025 113.7624 126.6383 126.2471 126.1966 125.9613 125.8512 125.7397 125.6323 125.5388 124.3413 126.0302 126.2359 125.0433 125.0051 124.5239 122.2240 116.7864 124.9180 124.5912 124.5647 124.4612 124.5738 122.1175 132.6785 124.5499 124.1213 124.9514 127.0435 125.2305 111.6758 124.7653 124.4667 123.9559 128.2470 123.7593 124.1118 124.0071 124.5679 123.0294 124.7835 124.2817 124.3651 124.4276 124.4884 124.5565 124.6168 124.6855 124.7274 124.4868 125.2755 125.1070 124.6513 125.3300
127.7900 127.6157 127.6598 120.8989 125.3150 125.8216 103.1896 121.0119 115.2741 115.4125 105.3782 135.7392 127.3323 126.4508 126.1528 125.8587 126.0346 125.8973 125.8130 125.6831 125.6516 125.7932 121.6338 124.9363 125.4982 124.5158 122.6375 113.9146 125.6455 125.0146 124.5744 124.6406 124.3092 127.2250 114.2790 123.1919 120.8839 122.0325 111.6677 108.9691 119.3242 116.6265 114.7922 122.9533 124.3428 124.2890 124.3773 124.4483 124.3362 124.4759 124.2408 124.4779 124.5715 124.6157 124.7197 124.7597 124.8172 124.8682 128.3490 126.2325 123.8552 125.1675 126.5409 125.3600
127.9300 127.7648 127.7044 126.4972 126.2470 122.1523 107.6094 120.5072 114.4521 115.8851 122.4707 125.1692 126.2632 126.3083 126.4968 128.2608 125.8396 126.0499 125.9725 125.8694 125.7226 125.5026 130.4956 123.4470 125.5340 125.1364 122.3331 103.8835 125.0825 125.7219 113.0674 126.4725 126.4116 126.5550 111.8187 115.9262 133.1606 127.0150 113.3217 113.8206 118.9960 112.5916 126.0359 124.2920 124.4539 124.4827 124.4089 124.3035 124.6504 124.6687 124.7673 124.7647 124.8405 124.9613 124.7699 125.0238 125.0190 125.0085 126.5332 120.9970 122.8598 108.1253 125.3770 125.5600
127.9700 127.9297 127.7266 128.2398 123.2591 126.0603 127.4232 123.0775 116.3796 107.9628 118.9796 124.5207 127.5695 127.5366 109.2870 127.2418 126.1594 126.2237 126.1083 126.0319 125.8089 126.0758 125.4486 125.7728 125.6543 125.5852 125.6164 125.3204 124.4686 114.6505 116.0835 124.0745 127.5715 125.6496 109.9136 110.9544 110.5109 113.1383 110.8186 128.1030 119.8620 125.2848 124.6336 124.5688 124.9595 125.5109 125.4153 128.3863 124.8723 124.8543 124.9001 124.9314 125.0285 124.6375 126.0757 124.7707 125.2930 125.1443 127.5439 108.3976 129.6859 123.1139 127.0691 125.7600
128.1000 128.0069 127.8521 127.6693 123.1513 117.9087 127.3109 129.7645 116.9168 113.2666 107.6473 120.5803 127.4515 126.5734 126.8909 126.1769 126.4192 126.3671 126.2760 126.1769 126.1073 125.9865 125.9976 125.8340 125.7834 125.5309 125.5297 125.2447 125.8970 125.5668 127.8543 113.6720 127.9321 123.3400 123.1984 114.8556 114.9630 123.1749 113.6659 124.3505 124.9825 124.9051 124.9484 126.5340 125.6064 118.9019 123.3841 123.8400 124.9076 125.1848 125.1109 125.1427 125.1761 129.4183 127.7174 125.4482 125.4514 125.4039 126.3821 113.0218 126.1221 126.0920 125.6412 125.9400
128.1100 128.0266 128.6193 123.5926 117.8274 119.9826 105.4693 125.6037 112.3643 105.5055 120.0058 111.9262 128.2401 126.7627 126.7872 126.7031 126.5486 126.5171 126.4304 126.3389 126.2525 126.1773 126.0882 126.0119 125.9258 125.9000 125.7987 125.8024 125.6613 119.9131 119.8299 112.6469 123.3456 125.5033 121.7202 121.3687 125.8352 125.7075 121.0588 125.5995 125.0668 125.1951 124.4820 130.5213 127.0002 119.7116 125.0208 121.3867 125.2337 125.3606 125.3660 125.3003 125.6374 125.4067 125.1939 125.4486 125.6397 125.6308 125.8216 126.7107 126.0137 125.8491 126.0466 126.1000
128.2700 128.0698 129.0091 119.4527 118.8382 121.0318 122.6868 106.4065 113.1091 112.0688 111.9439 115.0637 112.2766 114.0519 127.9954 126.8606 126.7565 126.6707 126.5909 126.5052 126.4179 126.3193 126.2565 126.1666 126.1174 126.0475 125.9585 125.9931 125.9327 126.3683 115.4213 111.4585 124.5232 125.5700 124.9845 126.1716 125.4548 125.4782 125.9173 125.3280 125.4001 125.4105 125.5820 122.2039 124.9192 125.8054 126.0047 125.5996 124.7911 124.7551 125.3869 125.6566 125.5609 125.6889 125.7540 125.7815 125.7895 125.8723 125.9187 125.9878 126.0175 126.1561 126.1970 126.2700
128.4000 128.5903 126.6441 119.4141 119.4984 115.0596 124.0020 103.4222 107.0049 108.7988 106.0426 109.3721 123.4102 126.8502 127.7991 126.9948 126.9048 126.8275 126.7400 126.6595 126.5430 126.8484 126.5549 126.3972 126.3119 126.0479 126.1613 125.9828 125.7237 116.4127 113.3861 119.6433 126.3110 125.6753 125.7795 125.6474 125.6913 125.6534 125.5916 125.6361 125.5931 125.6234 126.4633 111.8838 126.7525 125.4538 125.5021 125.1902 125.7350 116.0851 125.9412 125.7808 125.8026 125.8252 125.8618 125.9257 125.9930 126.0432 126.1034 126.1668 126.2440 126.2914 126.3764 126.4800
128.4400 125.9929 118.5079 119.8717 119.8214 109.2496 110.1386 106.4886 112.0727 109.4966 106.8794 124.6207 128.1601 127.2233 127.2053 126.9766 127.0694 126.9826 126.7484 126.8718 126.8258 128.0487 119.5098 126.7698 126.2330 127.6011 126.1461 127.0970 130.4071 116.2164 115.1150 125.9223 125.9386 126.0188 125.9238 125.8987 125.8466 125.8910 125.8140 125.7783 125.7786 125.7809 127.0534 121.0262 126.1632 125.5848 125.8176 125.8605 125.7018 126.8935 126.0276 125.9669 125.9761 126.0212 126.0689 126.1122 126.1611 126.2172 126.2722 126.3373 126.4045 126.4731 126.5409 126.6500
128.5700 128.2524 124.5658 121.5265 118.0769 121.1531 108.4933 120.0073 107.2152 105.8883 117.8160 118.0543 127.5051 127.4344 127.2851 127.1901 127.2094 127.1144 127.0569 126.9917 125.6865 122.0545 112.1574 127.2112 126.9151 127.0766 107.3140 123.2545 134.9181 120.8628 124.0912 126.9255 126.1153 126.1478 126.1091 126.1249 126.1712 125.4843 125.9007 126.0378 126.0058 126.0559 125.9819 126.4500 126.5298 125.8983 126.0030 126.0177 126.0761 125.8738 126.0491 126.1435 126.1576 126.1982 126.2458 126.2867 126.3412 126.3895 126.4443 126.5051 126.5730 126.6271 126.6964 126.6500
128.7200 118.7661 124.5781 120.5306 119.6088 120.4179 115.7053 118.7043 120.9482 119.3073 125.9266 128.6988 127.5791 127.5982 127.4997 127.4309 127.3541 127.3162 126.9569 126.7716 113.6759 107.6452 116.7243 131.0886 124.6594 120.8856 127.9863 116.6944 115.2633 126.3147 126.6844 126.4151 126.3752 126.3182 126.3136 126.2219 125.1267 130.9613 126.6774 126.1687 126.0598 125.9647 126.1147 126.1139 126.0684 126.1601 126.1914 126.2078 126.2164 126.2759 126.2750 126.3008 126.3372 126.3781 126.4174 126.4633 126.5123 126.5617 126.6161 126.6729 126.7326 126.7896 126.8587 126.8200
128.8600 123.7500 123.1851 119.4489 107.8001 120.2723 115.2170 115.3552 112.3587 118.0504 128.9171 127.7266 127.7179 127.7179 127.6380 127.5761 127.5164 127.3362 128.6102 127.4308 127.4165 113.8718 111.0657 112.4365 121.8297 110.0177 128.6266 128.9707 125.9736 126.3962 126.6119 126.5839 126.5227 126.5370 126.5342 128.8997 125.4635 126.9638 129.1280 126.2938 126.7584 126.8930 126.2497 126.3572 126.3639 126.3591 126.3676 126.3883 126.4059 126.4258 126.4524 126.4872 126.5199 126.5554 126.5955 126.6377 126.6790 126.7345 126.7802 126.8329 126.8976 126.9548 127.0119 126.9800
128.9800 124.5655 124.1800 120.7193 119.3712 121.9109 122.0322 121.4268 124.5684 120.9565 126.0211 128.1260 127.9917 127.8385 127.7738 127.6951 127.5248 125.1168 113.7611 128.1935 126.8554 130.3969 126.7751 125.4997 122.8066 115.6787 123.0701 120.7262 127.1518 126.6529 126.8045 126.7507 126.7711 126.6852 125.5832 114.2887 116.7111 111.1436 127.0161 126.7640 118.4348 124.8183 126.1102 126.5545 126.5355 126.5357 126.5514 126.5514 126.5674 126.6008 126.6339 126.6575 126.6901 126.7241 126.7617 126.8062 126.8484 126.8985 126.9464 127.0004 127.0587 127.1133 127.1651 127.2800
129.3100 124.1186 117.3726 118.5833 116.8805 124.9960 130.2135 130.5067 127.5693 129.4594 128.3711 127.8237 127.6509 128.1193 127.9003 127.8423 127.5083 128.8555 114.9295 127.3856 127.1864 125.3657 119.3776 127.3794 128.3133 123.7318 109.0334 117.5691 126.8342 126.8567 126.9639 126.9146 126.8934 127.2057 117.8971 124.5245 123.0615 121.0145 126.7482 126.7362 126.9701 126.6947 126.7368 126.6938 126.7064 126.7109 126.7309 126.7771 126.8119 126.8018 126.8016 126.8253 126.8628 126.8934 126.9314 126.9718 127.0106 127.0617 127.1064 127.1623 127.2030 127.2562 127.3340 127.3000
120.2700 127.6048 127.9994 117.5177 123.9910 126.7219 128.6339 128.5053 125.6497 129.4466 127.7214 132.7972 127.6496 127.4195 127.9480 128.0120 127.9358 127.4296 127.9509 128.2551 128.4834 114.2166 121.9634 129.1264 121.8518 110.2320 115.7140 127.2310 127.3520 127.1024 127.1259 127.0801 127.0535 127.3603 127.7942 108.7257 119.7088 128.5865 126.7814 126.6033 126.7026 126.8915 126.8786 126.9314 126.8820 126.8865 126.9072 126.7776 126.7190 126.9138 126.9876 126.9938 127.0270 127.0616 127.0903 127.1285 127.1743 127.2064 127.2583 127.2489 127.3706 127.4435 127.4768 127.4500
129.2500 128.4821 129.2759 128.5719 128.9644 128.8778 128.7740 128.7225 128.6131 128.8872 109.9017 126.9723 126.7411 128.0813 128.4520 127.7997 128.0470 128.0686 127.7670 126.6817 117.6291 114.0002 109.0996 114.9297 109.4286 125.6484 128.3481 127.2490 127.3865 127.3271 127.2770 127.2434 127.2125 127.0844 128.0091 128.6806 127.4982 126.9048 128.1849 127.7380 126.9232 127.0627 126.9176 126.5449 127.0533 127.0614 127.0777 126.8922 127.6158 127.2651 127.0412 127.1994 127.1886 127.2188 127.2568 127.2952 127.3338 127.3624 128.1599 127.1129 127.5275 127.4617 127.6477 127.6100
129.2700 129.3141 129.1151 129.1959 129.1299 128.9140 128.8427 128.8299 128.7137 128.8771 120.2465 128.5813 128.5920 131.5976 119.6750 128.6970 128.1264 128.0722 127.8273 128.8258 124.5421 106.2819 112.5760 114.2151 119.6214 127.1043 127.9018 127.5292 127.5167 127.4671 127.4362 127.4042 127.3697 127.3242 126.9504 126.9111 127.3685 127.4544 124.2793 126.3428 126.9606 127.1660 128.0318 130.9862 127.0195 127.2145 127.2739 126.8747 126.4007 117.1104 127.6012 127.3491 127.3484 127.3731 127.4139 127.4536 127.4884 127.5161 127.6468 127.5741 127.4883 128.5591 128.5117 127.7600
129.4100 129.2974 129.3143 129.2290 129.1439 129.0715 128.9933 128.9184 128.7957 128.8747 128.5069 127.9683 128.7989 121.2602 128.2351 128.5918 127.6051 128.2528 128.4650 127.8372 127.0791 106.5641 109.8240 122.3808 129.3874 127.8566 127.7551 127.7080 127.6696 127.6430 127.5969 127.5551 127.5306 127.5048 127.5632 127.4992 127.6018 127.7388 118.7425 127.0992 127.2232 127.4605 127.5149 120.7866 128.0794 127.4523 127.3719 127.4184 127.4759 127.8462 127.5370 127.5094 127.5136 127.5629 127.5851 127.6038 127.6250 127.6637 127.6192 127.8531 127.4950 127.0670 121.2748 122.9700
129.5200 129.6270 129.3885 129.3410 129.2510 129.1843 129.1120 129.0356 128.9620 128.8994 128.8451 130.7472 131.5285 113.5832 127.1741 127.2259 128.4680 128.3149 124.9280 128.2798 130.1499 110.5955 109.1894 116.4838 127.3589 127.8947 127.9101 127.8104 127.8265 127.7022 127.7178 127.7243 127.6883 127.6593 127.6156 127.6325 127.2779 126.0276 115.7733 128.0001 127.6186 127.4259 129.0446 120.8700 127.2503 127.3710 127.5527 127.5615 127.5859 127.4504 127.5174 127.6594 127.6270 127.5592 127.6835 127.7439 127.8094 127.7604 128.4986 126.4508 129.1178 127.2090 123.3656 111.8200
123.1500 129.2217 129.4795 129.4291 129.3552 129.2898 129.2218 129.1480 129.0899 128.9785 128.7044 128.3675 110.2558 117.1857 126.7440 127.0021 123.4049 106.1281 119.0740 128.7581 129.2874 128.8055 122.2809 125.9702 129.2256 127.9796 127.8575 128.8518 127.7220 128.7031 127.9695 127.8423 127.8255 127.8046 127.7897 127.7867 127.5578 128.0858 128.0524 127.5436 127.7048 127.7105 127.6047 128.7492 128.7646 127.6279 127.7066 127.7265 127.7288 127.7797 127.7973 127.7742 127.9506 128.5388 127.9844 128.1798 127.8328 128.0885 129.8245 117.9381 132.8713 115.9698 130.9341 119.0500
123.1500 123.1500 129.6100 129.5200 129.4600 129.3800 129.3100 129.2300 129.0800 129.1000 129.0000 128.9300 128.8500 128.8700 128.7700 128.7000 128.6200 128.5500 128.5500 128.4700 128.3900 128.3900 128.3300 128.3300 128.2400 128.1500 128.1700 131.8500 112.5500 127.9900 128.0100 127.9000 127.9200 127.9300 127.9400 127.8300 127.8500 127.8600 127.8600 127.7300 127.7400 127.7400 127.7500 127.7500 127.7400 127.7400 127.8700 127.8600 127.8500 127.8400 127.8200 127.9400 127.9300 127.9100 107.2700 128.0100 127.9900 128.0900 128.0700 107.2500 129.4300 111.5400 114.0700 114.0700
