121.9200 121.9200 105.5200 119.4000 120.1800 124.1100 125.0100 125.3100 124.5600 124.5600 104.5000 104.9800 104.2500 115.2500 115.2500 115.1300 115.1300 113.6100 113.1400 103.4300 104.0700 114.5500 112.9200 112.6600 111.0200 111.0200 106.7600 107.8600 104.1800 104.1000 124.4500 104.2000 124.3300 102.3600 108.7000 124.2200 124.2400 105.5400 124.0900 124.1000 124.1100 124.1200 130.6400 124.1300 124.1200 124.1100 124.1000 124.0900 124.2500 124.2500 124.2100 124.3800 124.3500 124.5100 124.4800 124.6200 124.6200 124.7500 124.7200 124.8400 124.9600 124.9600 125.2300 125.2300
111.5000 118.7011 117.9987 114.9060 119.5217 125.1731 127.4829 125.0023 124.4926 122.4892 125.4898 103.8126 102.8334 105.1365 111.4386 112.4974 112.2226 112.2145 112.9797 103.6934 101.1848 112.8229 112.2468 111.4140 111.8902 112.1734 101.3123 107.5147 107.3877 99.6266 117.1933 103.9513 117.6640 102.4472 104.2869 113.9290 109.5057 110.5905 121.6404 118.5399 121.2956 124.1048 124.0353 123.8497 123.9101 123.9276 123.9417 123.9963 123.8148 124.4694 124.5869 124.0450 124.2189 124.2660 124.3290 124.3896 124.4760 124.5540 124.6096 123.9416 120.6999 124.9652 124.6804 125.0000
120.2600 121.3233 124.1339 119.6768 114.9991 123.2401 109.5931 125.2121 119.8920 116.7093 115.2990 115.1862 104.1244 107.8165 123.0471 114.3523 112.4918 112.9492 107.3184 118.0404 103.2430 102.8309 112.8465 108.3593 111.5081 103.4621 103.1855 110.2092 118.5075 109.0787 104.8613 120.9357 121.1629 121.9568 108.4643 112.5172 106.4155 120.7732 117.9222 123.6887 123.5617 123.7263 123.7241 123.6714 123.6776 123.6780 123.7290 123.7502 124.5264 115.5406 122.6888 123.8474 123.9902 124.0451 124.0860 124.2166 124.2000 124.3865 124.3503 124.7054 124.2280 124.0440 124.3614 125.0000
111.9800 119.8715 121.3184 123.3932 118.0388 116.7413 122.4944 120.9068 122.7381 116.0397 117.2826 103.3838 103.8047 103.8800 106.2814 113.8092 112.9857 112.5873 116.3112 111.4474 103.0081 112.1773 110.4809 110.7313 114.5233 115.1822 112.9277 108.4799 105.4536 109.0636 100.6808 131.1180 121.8831 117.7694 102.8123 117.3499 119.6662 110.3324 124.9467 117.7135 124.1156 123.3362 123.3869 123.4093 123.4144 123.5008 123.5315 121.1895 122.1837 102.8491 121.9807 123.2717 123.7816 123.7963 123.9670 123.8003 124.5023 123.9513 125.7274 120.0343 123.0702 107.9202 100.4153 102.6100
119.1300 121.4372 121.1999 121.0465 124.1001 117.2033 118.9864 119.4735 123.2499 117.1013 116.2245 109.9346 109.3080 105.6867 105.1874 111.2833 110.7853 111.5145 110.6759 112.2555 106.5859 110.4859 113.8981 113.5383 113.9971 106.6422 106.3108 103.0881 105.3053 100.1744 111.0190 110.0772 124.3359 124.5821 117.1286 116.5805 124.2040 125.8338 123.6000 123.2420 123.4760 123.1728 123.1595 123.1586 123.2007 122.9512 122.3617 116.1556 124.6406 115.5233 126.3064 122.5374 123.5527 123.5861 123.6065 124.9344 119.3784 125.3160 109.2590 108.0796 104.0686 103.0227 124.8023 124.3800
118.6900 118.0640 117.5228 123.4200 106.9483 112.2201 115.5825 113.2541 120.6544 110.2087 115.8146 115.3406 102.3895 105.8759 113.1457 113.7041 112.3686 110.6350 111.4757 114.1675 110.4016 101.9558 105.4029 108.1051 107.7520 111.9642 110.7766 103.1694 113.6623 111.8181 118.4348 123.9209 123.4341 122.4756 123.8133 122.3021 123.2072 122.9663 122.8803 122.8904 122.8325 122.8871 122.8849 122.8945 122.9067 122.9018 123.3971 113.9467 114.4671 114.6960 114.8779 122.8214 123.2681 123.1281 125.1078 121.4434 112.8678 122.5755 112.5948 124.1255 122.5731 118.9311 125.0818 124.3800
118.6600 118.9710 117.2041 117.2646 120.0489 120.3184 118.0192 114.1090 107.6713 117.0686 115.4979 116.2550 101.1104 116.0177 115.3440 113.4507 114.6528 109.8976 108.2284 110.5408 109.8381 107.7508 106.9803 106.8591 111.0593 110.4781 108.8372 107.0804 101.7098 118.4372 107.9478 120.5638 121.7666 117.1257 115.5604 122.6414 122.8480 122.7589 122.7008 122.6718 122.6668 122.6337 122.6212 122.6237 122.6111 122.6718 123.6803 110.9608 106.6644 104.4642 122.4048 121.6964 122.9737 122.9736 122.9623 114.4657 123.9224 109.4939 122.6789 119.6331 119.3716 124.4921 123.8572 124.1300
118.1400 119.6149 112.1379 114.1585 119.0441 118.2162 119.1672 110.2780 112.3510 104.5698 119.9600 108.5062 118.7197 110.1318 111.5894 114.3295 110.9890 124.5095 106.5194 108.6534 110.1012 114.2480 108.3965 106.3076 106.6269 111.1341 110.2098 107.9147 106.2051 132.8839 125.7459 122.5581 122.5775 117.5674 121.4863 122.3915 122.5865 122.4675 122.4250 122.3903 122.3563 122.3438 122.3365 122.3218 122.3368 122.8539 118.2827 122.0436 120.5487 109.7331 121.0487 122.5014 122.7876 122.6806 123.8060 123.5752 124.6051 127.3820 121.9092 123.9064 124.2379 124.7105 122.8567 123.9200
114.3700 119.1254 120.6533 120.1336 118.1427 119.3526 115.8574 118.6769 112.7675 108.1791 114.5459 116.3962 114.4275 111.6516 103.8406 107.2594 116.3403 125.7753 116.0108 108.5652 108.2343 107.5887 103.7920 101.7353 103.9006 109.5665 109.4921 112.4032 112.5359 107.7521 121.2271 122.4061 122.8643 121.9510 121.9035 122.2830 122.2874 122.1892 122.1383 122.1052 122.0723 122.0580 122.0585 122.0212 121.8615 122.4361 106.1004 124.3138 120.0164 123.0298 122.4482 122.2536 122.5236 122.6279 122.0887 122.9672 123.3967 122.0278 123.3162 123.1271 122.9719 131.5995 125.0326 123.6800
119.5200 114.6548 118.3506 120.5755 118.8088 117.6056 117.4128 114.1848 118.7856 113.8279 101.1682 111.4926 117.6895 113.9001 105.7002 108.6710 107.0829 105.2701 105.1234 102.5074 104.8424 108.6096 105.2800 102.2677 100.4008 111.6051 120.7561 112.8214 117.7503 122.0289 123.5228 122.5266 121.7263 122.2557 122.4291 122.0064 121.9618 121.8925 121.8475 121.8083 121.7753 121.7550 121.7440 121.7970 121.6140 124.0026 120.3546 122.3702 121.2744 121.9242 122.0223 122.1448 122.1767 122.3717 124.4905 117.1492 117.1435 122.7063 122.8870 123.0623 122.9752 122.6316 122.3330 123.4300
120.7600 121.7190 117.8378 117.9346 119.6388 118.4662 118.2162 112.0292 116.6101 117.6163 113.7250 112.8613 108.0515 113.5226 108.9330 116.8674 108.6763 122.8271 103.6044 107.4771 120.0814 107.3386 106.8938 101.6262 103.8960 117.8631 123.4640 123.0163 121.0733 122.7537 121.9077 121.7267 124.7889 121.7371 118.7407 121.9538 121.6710 121.5955 121.5476 121.4983 121.4658 121.4479 121.5310 120.9051 119.1309 112.0918 121.5799 121.5264 121.6877 121.6982 121.7595 121.8351 121.9949 121.5451 123.4865 103.0043 111.6912 123.0929 122.6945 122.7494 123.0417 118.3346 122.7014 123.4000
108.2000 116.8456 120.4084 120.9902 117.3960 121.3458 115.7988 118.5610 107.8884 116.2754 111.7080 109.0311 112.5723 110.2171 105.1439 115.2745 118.6741 108.5579 107.2772 109.9925 128.5324 124.9491 111.1458 106.4267 106.1709 110.4105 121.5254 122.2910 122.0756 122.0715 122.1071 123.0988 110.7996 103.9550 121.8334 121.7541 121.2778 121.2896 121.2285 121.1852 121.1443 121.1207 121.1532 120.9260 119.6743 121.8435 120.6292 121.3610 121.2980 121.3686 121.4597 121.5524 121.5038 122.7462 114.6977 106.4694 118.7352 121.6189 122.4466 122.5231 122.9001 122.2831 117.6278 123.1700
114.6200 114.7050 110.3392 117.2844 116.4817 112.5222 117.0139 116.3388 114.8415 113.8702 114.0685 112.4791 114.2260 105.9637 106.6255 111.8263 113.7747 111.2515 112.6980 104.4478 111.6671 119.9132 111.8450 119.0250 117.9934 111.3526 122.4245 121.8196 121.9200 121.8443 121.6707 111.5781 94.7144 104.8615 122.7512 121.1366 121.0975 120.8848 120.9024 120.8199 120.8217 120.7864 120.6871 121.4833 103.6411 113.3786 120.7556 120.9951 120.9886 121.0586 121.1507 121.2556 121.3610 120.0546 123.8103 120.8962 123.1887 121.8037 122.1426 122.2901 122.4360 123.6202 115.5700 122.8500
114.6200 114.8164 118.7011 109.9562 111.9503 104.4023 117.0774 112.9370 113.3514 112.6650 113.8709 109.8247 109.8883 112.9939 110.9794 108.2036 106.0733 104.2587 108.4457 105.1595 110.5640 116.1568 121.1494 114.8190 123.0646 123.7580 123.9191 121.7902 121.7361 121.5534 121.2681 122.8552 114.2548 119.5819 121.6590 120.8837 120.8237 121.4163 121.2920 120.5895 120.4121 120.4482 120.4753 120.5598 115.2340 112.4401 120.3799 120.6497 120.6518 120.7298 120.8327 120.9484 121.0185 120.7036 119.8657 121.6114 121.6458 121.7268 121.9098 121.9556 122.2219 117.1455 107.9582 122.6200
112.5600 112.6573 114.9889 108.0946 117.7377 113.2009 112.0443 112.9078 112.6124 112.6955 117.5194 115.6259 104.7306 100.7295 105.2121 110.0722 110.1333 107.8097 107.0602 103.2985 111.1218 126.3423 122.1181 124.5205 110.9529 119.0215 116.1672 116.1742 121.4998 121.3560 121.1122 120.6770 118.7975 110.5364 120.6712 120.5155 120.5647 120.2883 125.0038 120.1056 120.0810 120.0837 120.0636 119.4546 120.1852 120.4198 120.0979 120.2461 120.3043 120.3933 120.4961 120.6132 120.7343 120.8407 121.6463 121.4263 121.2177 121.4767 121.6307 121.8508 121.7039 124.2846 116.2402 122.3500
104.2000 114.4697 114.0189 113.1110 116.8351 113.9639 111.3864 113.1595 111.3156 111.8466 105.1355 113.5026 117.0899 112.1523 106.8388 109.8786 113.7574 106.0757 108.2850 105.8655 113.2956 124.2294 121.2414 122.0806 118.7123 121.3644 121.7028 120.9024 121.0228 121.0044 120.8154 120.4656 122.9936 119.8425 121.1000 120.0801 119.9304 119.9322 119.2974 119.7593 119.7103 119.6888 119.6926 119.6415 119.5737 119.6663 119.8022 119.8651 119.9425 120.0501 120.1516 120.2895 120.3960 120.5427 120.6279 120.8495 121.0489 121.2062 121.3800 121.5720 121.7202 122.1696 122.1798 122.2700
114.5600 114.2298 114.7851 106.9461 111.4753 105.4642 103.8730 113.8136 110.9619 111.6221 113.1125 110.6242 102.7019 110.3826 113.0464 107.0439 112.4831 101.2428 103.7625 110.4228 115.8172 124.6582 122.5253 121.9327 122.0280 121.4505 121.2932 121.0740 120.8936 120.7085 120.5372 120.3731 119.8524 120.0538 119.8765 120.0200 119.7804 120.1869 119.3553 119.4099 119.3634 119.3791 119.3394 119.3476 119.3586 119.3685 119.4133 119.4954 119.5955 119.6703 119.7966 119.9365 120.0775 120.2330 120.3957 120.5625 120.7451 120.9288 121.1221 121.3014 121.5224 121.6540 121.9424 122.0300
119.5800 114.1200 112.5007 107.9007 103.5282 111.5220 117.5963 113.9894 110.7697 110.7560 111.8175 112.1518 109.6825 108.8155 113.0081 106.4832 107.4533 105.4282 107.0351 108.6111 102.9756 107.1739 123.5953 121.3755 121.4470 121.2352 121.1938 120.9426 120.4692 120.5185 120.2043 120.0120 119.9169 119.6833 119.3044 119.9643 111.8911 116.1959 119.8787 118.4210 118.9513 118.5940 118.5791 118.7729 118.9354 118.8833 119.0072 118.9920 119.0731 119.3622 119.4448 119.5739 119.7348 119.8985 120.0759 120.2581 120.4551 120.6434 120.8416 121.0521 121.2554 121.4635 121.6789 121.7400
114.3700 115.7687 113.4523 114.7524 107.3726 104.7184 106.8739 109.9126 112.2285 111.1017 109.7843 108.4837 107.0882 114.0180 106.9304 105.6577 105.8212 107.2016 108.9400 104.2249 108.4586 103.9427 122.1564 121.0151 121.6089 113.7166 107.7750 122.7439 119.2074 120.5280 119.8559 119.6786 119.4985 119.3007 119.8944 117.1377 112.4926 108.2246 120.7038 111.2430 118.7064 119.1158 119.8751 118.6563 117.9145 119.0348 118.6033 119.0965 119.3929 118.7365 119.0410 119.2086 119.3763 119.5609 119.7437 119.9470 120.1550 120.3610 120.5704 120.7885 121.0146 121.2362 121.4530 121.6600
114.1300 114.9973 114.3594 113.4927 115.5927 117.9959 105.5847 108.4403 102.5465 108.4009 104.9968 110.3988 108.8366 107.6986 112.8931 106.5368 105.1780 107.0020 111.6640 111.1497 105.8965 117.4215 120.6180 121.2505 120.9988 119.6915 97.1631 108.8487 112.7946 120.8965 119.4376 119.3636 119.1612 119.3108 112.1976 106.3275 102.2776 101.2827 106.4995 117.4174 119.1129 118.5740 101.7802 115.8014 118.3403 113.7172 117.7502 110.9459 115.5294 119.0384 118.6434 118.8092 119.0101 119.2107 119.4095 119.6210 119.8413 120.0707 120.2999 120.5280 120.7403 120.9732 121.1226 121.3800
125.7800 118.1171 116.3211 115.9613 114.3454 112.3380 114.2937 115.8027 107.5960 107.0106 104.8809 112.5424 114.4094 108.6719 107.9918 114.6426 107.9945 110.4070 117.6416 111.0184 119.3790 120.9323 121.3063 120.4556 120.7760 118.6656 116.2328 100.1998 101.8017 120.0313 119.1962 118.9991 118.8146 119.3605 108.7628 102.9952 98.5769 95.8873 106.6730 111.0079 109.0760 117.8744 99.5545 101.5037 116.4691 113.1546 118.1509 106.9228 105.3539 119.2630 118.1993 118.4257 118.6316 118.8440 119.0668 119.2988 119.5335 119.7699 120.0354 120.2842 120.4413 120.7286 120.8234 121.2900
119.6600 112.2120 116.9592 120.1007 115.7803 116.2335 113.0749 111.3516 105.8279 115.2448 107.5665 101.9511 108.0775 109.2703 111.9023 105.2997 108.2072 114.4384 126.1083 119.2951 122.5494 121.0538 121.7249 122.9726 111.5926 98.9029 97.7843 105.6325 118.4522 119.4665 118.8581 118.8771 118.4844 119.5259 109.0153 96.1107 108.6397 103.3459 107.9211 114.2968 117.1914 116.4917 104.8926 114.9296 105.3069 97.6204 119.3547 115.9586 109.1390 120.2248 117.7743 118.0120 118.2390 118.4768 118.7195 118.9625 119.2184 119.4713 119.7153 119.9886 120.5096 120.5276 120.0508 125.8700
103.5700 116.4731 110.0787 115.5885 114.2903 110.5515 112.7736 110.8823 105.5865 111.7835 108.9329 103.2575 107.4943 107.5592 109.4436 108.2613 107.5011 106.1574 114.3476 112.5244 121.5611 121.7285 113.4773 104.1936 99.8945 102.1664 103.7487 112.4388 119.4899 118.6890 117.5055 117.4923 118.0447 119.6983 102.6691 105.4356 96.5479 113.4558 98.8090 98.7180 111.1444 118.1146 91.0132 114.1837 100.9850 95.9735 117.7552 117.9395 117.4597 117.0105 117.3127 117.5744 117.8371 118.0949 118.3525 118.6110 118.8753 119.1790 119.4582 120.5183 112.0787 121.3343 121.1331 120.6500
112.2700 105.4812 104.5507 115.3547 113.6568 109.7712 110.2103 111.1359 111.7648 109.8316 109.7755 108.6192 106.7458 107.1063 106.5646 108.9807 108.5570 120.8188 121.1062 116.3753 121.4617 121.2351 113.6837 113.8440 113.3767 108.6710 101.8124 106.2375 119.8380 117.4721 127.5493 118.4206 117.5215 117.1758 110.1722 102.7415 103.1438 109.0864 118.1268 112.2259 115.9085 97.0535 99.1884 96.3974 113.3775 102.2013 113.9840 119.7176 117.0616 116.7847 116.9058 117.1566 117.4189 117.7041 117.9835 118.3909 118.6157 118.8704 119.0943 119.9726 118.2171 115.0909 117.8137 120.6200
114.0900 107.9234 107.6677 112.2416 111.6694 114.5254 108.9441 109.9408 110.1236 105.6253 119.9670 110.4733 114.1671 104.2408 107.7850 106.3485 114.8884 120.2032 115.8013 121.5269 120.8183 120.7995 120.7467 112.0564 107.1159 125.1608 116.8052 110.8709 119.0305 117.4269 125.3866 115.8301 117.5608 116.7545 118.4376 110.4941 116.3773 98.9379 96.7901 114.0616 107.1586 100.3646 112.0228 117.5417 117.7246 120.9304 115.2730 117.1999 115.1695 116.3100 116.4182 116.7026 116.9925 117.2996 117.5910 117.9263 117.3677 118.3083 118.9708 119.1560 120.0105 117.5898 119.5364 120.2300
114.0900 113.1099 112.4905 110.7354 113.4785 110.1029 109.6809 110.0573 105.8740 115.5397 109.2387 107.1063 110.0342 93.6188 104.9719 99.6413 124.5469 116.8032 119.5054 120.7475 120.5840 120.4632 119.9180 120.3852 116.2037 100.8083 111.1892 112.6183 118.6597 117.8625 117.3090 116.9576 116.6734 116.6127 115.8545 113.9028 98.1355 102.2301 107.8643 111.3916 94.9437 109.6014 134.4384 115.8797 114.9063 114.5010 115.1742 114.9200 115.5173 115.6273 115.9133 116.2319 116.5608 116.8821 117.2370 117.5006 118.8312 118.3475 118.5165 118.9190 119.2302 120.1178 120.5237 120.1500
113.0500 112.3202 111.5624 111.5444 110.7702 109.5244 108.8503 101.7156 110.1250 115.4803 109.9303 106.2988 103.8314 107.6343 100.4060 117.8859 106.4765 95.6866 123.3512 121.1781 120.5694 119.9058 122.1816 98.9210 122.1947 114.3985 115.9804 117.9475 117.6787 117.5023 117.1205 116.8531 116.1646 116.8800 100.0207 117.2458 115.8142 93.0493 102.0290 114.6637 104.6020 112.2321 111.3971 113.9427 113.9823 114.0766 114.1823 114.4994 114.7331 115.0614 115.4362 116.0364 116.0664 116.4789 116.8260 117.2314 117.2781 117.8245 119.4121 118.4919 119.0384 119.3136 119.6469 119.8400
125.3000 117.0264 116.8631 112.4647 111.0595 110.5265 108.3820 108.0021 108.0329 107.3041 105.7744 106.2797 105.5767 105.3091 102.3845 99.6928 119.6336 121.7180 106.0653 121.0904 120.1205 120.1310 119.8552 118.0558 119.2520 118.6368 118.5885 117.9974 117.5286 117.1489 116.7619 116.2554 117.0332 104.9893 95.4892 111.0740 116.4983 97.0177 108.5837 113.4017 113.6811 113.3897 113.1863 113.0345 113.1350 113.2887 113.5413 113.7975 114.1174 114.4784 114.8231 115.2658 115.6345 116.0582 116.4494 116.7641 118.4983 109.8029 114.4042 118.3843 118.8254 119.1360 119.4919 119.7600
114.9500 114.0212 113.1335 114.8584 107.6371 112.7680 113.6123 109.2602 108.3491 105.9108 104.5584 101.2027 100.3536 101.1110 99.7193 101.2606 102.4463 105.1272 120.4679 120.7758 120.1355 119.9824 119.6227 118.9556 118.8496 118.4973 118.0761 117.6789 117.2468 116.8199 116.3658 115.9012 116.0434 114.1507 120.6897 115.8341 109.9333 96.5892 112.5358 114.5851 112.1066 112.1666 112.0530 112.1937 112.2962 112.4929 112.7138 113.0837 113.4451 113.8529 114.2902 114.7291 115.1762 115.6210 116.0651 116.5593 116.7280 117.9833 117.5971 118.0442 118.5588 118.9299 119.2765 119.4300
125.2600 115.2988 115.3743 113.4244 112.4790 112.7546 107.4218 108.5246 106.4560 110.0086 107.8062 105.2021 100.4039 101.8765 113.1607 118.2352 104.7095 104.5629 102.4961 114.8540 120.0749 114.4698 115.4261 119.5230 118.5562 118.1487 117.9499 117.3903 116.9381 116.4937 116.0879 115.2489 115.7451 109.1166 113.3862 107.6726 114.0100 113.5429 106.1731 111.6477 110.0921 111.3725 111.2349 111.2196 111.3562 111.5103 112.0407 112.2587 112.7353 113.2142 113.7002 114.2017 114.7075 115.2044 115.6944 116.1634 116.6048 117.1450 117.5486 117.9646 118.3413 118.7653 118.6599 119.3600
125.2400 125.6940 123.5268 113.9258 110.7516 109.8681 109.9144 108.6414 107.5941 106.5664 103.4921 101.6869 102.2242 100.2178 113.9804 109.2775 119.1551 122.4003 123.1515 120.2834 121.8204 109.1465 98.6097 114.7775 119.2841 118.8166 116.8613 116.0709 116.6977 116.1737 115.7267 115.8973 107.1845 93.2114 109.1280 114.6012 113.3658 111.9155 111.5303 111.1615 110.4394 110.2850 110.1136 110.1310 110.3061 110.5878 110.3560 111.7737 112.0101 112.5493 113.1078 113.6774 114.2361 114.7872 115.3205 115.8281 116.3424 116.8196 117.2779 117.7115 118.1262 118.8107 116.3504 119.2900
115.0100 119.3671 112.4940 111.2456 111.0888 111.2193 110.4313 109.5667 107.6298 107.7201 108.6862 102.7128 110.8852 100.5718 110.7896 102.1767 122.6537 116.4873 112.7659 116.2386 111.9967 113.4562 109.5655 93.6128 123.9550 107.7436 116.7563 113.5167 116.6851 115.9017 115.2076 115.6848 95.8324 99.2079 95.3812 100.3666 108.3634 110.9681 110.2627 109.7682 109.3839 109.0293 108.8642 108.8970 109.1154 109.4821 110.1131 110.5704 111.1689 111.8643 112.5126 113.1519 113.7749 114.3762 114.9599 115.5136 116.0480 116.5561 117.0412 117.5084 117.9573 118.4196 118.9680 119.2300
117.3300 113.6568 116.6470 110.8730 113.8444 113.7487 109.3116 111.4893 102.1401 105.7511 101.6909 104.8553 101.1818 102.4396 113.0584 111.6566 115.0306 120.6015 104.1883 106.0678 109.9392 104.7886 105.7523 94.8733 110.7416 105.0196 117.9856 116.6549 116.1558 115.6469 114.8704 114.1388 90.8590 97.3636 97.3921 92.3633 95.7687 112.2805 109.1124 108.6521 108.1075 107.6417 107.4106 107.4538 107.7482 108.2546 108.8893 109.6392 110.4114 111.1618 111.9182 112.6412 113.3274 113.9952 114.6169 115.2147 115.7821 116.3192 116.8251 117.3194 117.7865 118.2038 118.6236 118.8500
125.0500 112.5741 114.9068 111.1812 112.5091 112.6360 109.5755 105.4562 106.8190 102.6998 104.7041 105.2056 110.6794 100.5097 99.0742 110.4769 112.1713 115.7924 121.4988 108.1332 123.9191 117.2793 122.1492 107.2886 106.6041 116.9617 117.5673 116.4832 115.8989 115.3766 114.8087 114.3083 117.5284 92.9777 93.8621 92.7615 114.6712 102.7111 109.1721 107.8538 106.6366 105.9907 105.6565 105.7177 106.1450 106.8594 107.7165 108.6444 109.5728 110.4697 111.3332 112.1483 112.9145 113.6333 114.3054 114.9477 115.5428 116.1103 116.6537 117.1512 117.6363 118.1021 118.5349 118.8000
120.0100 115.5279 113.0670 110.3734 109.1108 108.6250 108.3697 107.6340 107.5787 106.4323 104.4348 111.1078 105.5679 100.2892 99.3150 99.3666 122.1748 120.6504 119.8431 121.3470 119.8016 117.5700 117.8040 119.1718 120.3483 116.6747 118.6108 116.1933 115.7577 115.1697 114.5172 113.6106 111.9212 105.4794 104.1244 88.1861 91.5789 103.2784 107.6275 105.8222 105.7670 103.9936 103.4643 103.5682 104.2451 105.2657 106.4323 107.6222 108.7514 109.8081 110.7930 111.6962 112.5372 113.3155 114.0344 114.7097 115.3380 115.9254 116.4792 117.0044 117.5051 117.9730 118.4163 118.7600
109.8800 110.3423 111.9025 114.5055 109.1175 109.9278 110.1591 110.1811 110.3866 110.2571 102.7269 99.4692 115.5249 106.9672 102.4879 116.8739 122.6399 120.7904 120.1183 119.5908 119.2975 119.2899 119.0738 118.0046 116.9532 120.1746 100.6809 117.6210 115.6086 114.9591 114.3161 113.6325 112.9918 112.8164 112.0221 104.7636 102.4983 99.1489 106.0503 95.7648 103.7698 101.4454 100.5663 100.7327 101.8863 103.4774 105.1029 106.6043 107.9755 109.2055 110.3098 111.3091 112.2122 113.0450 113.8034 114.5068 115.1609 115.7781 116.3472 116.8873 117.4022 117.8770 118.3382 118.7300
111.1900 110.4392 110.3406 109.5593 109.0008 113.6193 108.1077 110.6747 105.2172 103.5162 104.4953 100.4503 121.0860 111.4830 122.4325 122.9898 120.9926 120.5252 120.1734 119.8468 119.4576 119.0113 118.7343 118.4326 117.5906 119.0885 98.6959 116.4316 115.4834 114.8287 114.1493 113.4005 112.5756 111.5468 110.5386 110.2274 109.1533 106.2360 105.0754 101.3531 101.0509 98.2326 95.9684 96.4497 99.0435 101.5277 103.7962 105.6980 107.3137 108.6981 109.9118 110.9915 111.9572 112.8311 113.6259 114.3580 115.0304 115.6599 116.2454 116.8036 117.3146 117.8061 118.2722 118.7100
111.8800 110.0948 110.4180 109.6651 109.7723 110.4884 109.5397 108.8228 107.6166 104.4522 105.4357 114.6549 118.0527 111.4684 102.8226 104.1577 120.8572 119.0309 120.3234 119.7948 119.3945 118.9462 119.1380 112.6493 118.9748 108.9897 116.4774 116.0347 115.4231 114.7478 114.0433 113.2762 112.4230 111.5112 110.4733 109.2280 107.8653 106.5061 104.5359 102.0903 98.6111 93.4880 89.2436 89.9296 95.3493 99.7038 102.7156 104.9838 106.8170 108.3361 109.6359 110.7748 111.7828 112.6852 113.5048 114.2518 114.9497 115.5851 116.1773 116.7416 117.2651 117.7574 118.2215 118.3900
116.5500 117.2967 108.9632 109.7494 109.6487 109.9618 108.8562 108.2918 106.4795 105.1875 107.3039 121.5368 101.4734 99.5590 120.7229 96.6824 117.8731 118.9210 120.3348 119.8131 119.3462 119.0074 119.8133 118.0742 111.5926 119.7229 117.4358 115.6643 115.3600 114.7030 113.9957 113.2147 112.3488 111.3974 110.3404 109.1333 107.7313 106.0483 103.9766 101.2394 97.3019 89.6206 84.6197 85.4814 92.1154 98.5974 102.1133 104.6240 106.5677 108.1614 109.5023 110.6738 111.6976 112.6135 113.4448 114.2090 114.8994 115.5485 116.1505 116.7073 117.2391 117.7269 118.2578 118.3700
116.5500 115.6335 109.4334 109.8725 109.7292 109.5412 108.6197 108.4460 105.7810 104.9490 106.8982 119.9981 102.9733 97.7989 120.5838 104.3346 122.5489 120.6425 119.6073 119.5750 119.2742 119.0739 118.4200 116.7446 107.9119 119.3491 118.4003 116.0832 115.2777 114.6543 113.9932 113.2593 112.6767 111.8432 110.3720 109.1668 107.7568 106.0937 104.0213 101.3342 97.6337 90.2328 85.9237 86.6972 92.5584 98.7996 102.2203 104.6790 106.6045 108.1858 109.5289 110.6847 111.7063 112.6307 113.4599 114.2089 114.9092 115.5596 116.1501 116.7103 117.2636 117.7803 118.7970 118.3700
111.6400 110.7756 110.0167 110.0083 108.8277 108.4669 108.2719 106.9141 105.1113 101.7448 100.1184 110.8401 115.3984 103.4291 110.4356 110.0678 118.6128 121.4523 106.4350 121.3377 118.7882 118.2374 107.5071 117.8741 100.8438 98.6132 116.3521 118.1992 116.1863 114.7367 114.0877 113.2533 110.0316 110.4832 110.3516 109.3551 108.0083 106.4471 104.5755 102.2334 99.1631 94.7187 90.9358 91.5656 96.4086 100.1363 102.9708 105.1487 106.9331 108.4204 109.6980 110.8202 111.8180 112.7158 113.5353 114.2766 114.9613 115.6053 116.1888 116.7955 117.3056 118.0909 115.1043 101.6900
115.4500 107.6821 109.6472 109.5321 109.5291 109.2599 109.5123 108.4492 104.0690 102.0947 100.6991 107.3553 114.0968 117.8251 123.5143 108.3767 119.3930 120.3286 120.2214 118.7797 107.0786 117.5785 119.8523 116.8518 114.3185 101.7040 101.9977 118.7769 112.8693 114.7627 114.2522 114.8615 95.4400 111.9381 111.5695 109.6351 108.4474 107.0581 105.4258 103.5575 101.4990 99.3037 97.4854 97.8358 99.8102 102.0700 104.1291 105.9256 107.4747 108.8194 110.0157 111.0672 112.0147 112.8757 113.6725 114.3908 115.0639 115.6922 116.2675 116.6300 116.8237 118.4946 114.4421 101.6900
109.0000 112.4361 107.8384 109.2983 109.5545 109.7342 108.9301 107.6692 102.2361 102.3112 106.9513 114.6034 105.1651 123.7640 123.5921 123.0767 121.2968 120.7098 110.7502 119.7147 114.7736 118.9157 111.2330 105.3929 119.3551 120.1112 110.5381 106.8362 111.9730 114.7176 114.2980 113.6169 114.2133 106.6539 111.4455 109.9023 109.0463 107.8303 106.4751 105.0296 103.5462 102.1824 101.3946 101.5385 102.5570 103.9716 105.4601 106.8854 108.1866 109.3693 110.4337 111.4066 112.2932 113.1094 113.8607 114.5528 115.1998 115.8181 116.4152 116.3656 120.9131 111.4944 118.8273 118.7100
114.9300 114.0066 112.4953 106.9990 107.8763 107.8766 107.8927 105.6322 102.7105 105.6303 123.3525 119.9635 109.7795 122.4307 126.8065 120.5872 121.0401 120.5742 121.0838 119.9342 119.9301 120.2704 111.0668 119.4795 117.4471 117.9800 102.0297 120.0335 117.2141 115.7187 114.6030 114.2047 113.5139 100.0667 109.3834 107.9600 110.0854 108.5570 107.5898 106.4670 105.4049 104.5502 104.0892 104.1732 104.7842 105.6926 106.7933 107.8617 108.8996 109.8972 110.9377 111.8200 112.6289 113.4024 114.1210 114.7721 115.3936 115.9813 116.5460 116.8613 123.8889 105.3054 117.7836 118.7400
115.9900 113.5511 111.5773 107.8382 107.2856 107.4641 107.4926 103.3197 107.0832 106.8633 114.2937 124.7074 120.5559 121.9394 121.1733 121.5094 121.0589 120.5812 120.1654 119.9491 119.2299 118.1375 114.3096 118.0353 118.1978 119.6004 121.9009 104.3869 115.3474 105.9806 110.9634 112.9935 113.4420 114.9436 98.4087 112.9866 110.0975 109.5294 108.6885 107.7974 107.0356 106.4490 106.1423 106.1972 106.5857 107.2730 107.9863 109.1446 109.8327 110.8863 111.6174 112.1653 113.0497 113.7166 114.3327 114.9458 115.5740 116.1618 116.6939 117.1817 108.1059 113.6755 119.0429 118.8100
110.0700 112.1924 109.2460 110.1498 109.2783 111.4533 104.7819 104.9178 106.0242 109.0329 111.9464 125.1178 121.5549 122.1458 121.8364 121.4110 121.1378 120.8710 120.5486 120.1310 119.7046 116.1342 118.4401 118.5961 118.5128 106.9020 98.8163 91.6733 104.0332 95.7713 110.5870 112.0245 113.5259 99.6550 97.8087 109.2394 110.7414 110.4103 109.6955 109.0152 108.4413 108.0234 107.8063 107.8409 108.1201 108.5853 109.2259 109.9872 107.1420 110.9959 110.8131 112.9663 113.4241 114.0650 115.0077 115.9884 115.9299 116.3883 116.8878 117.1575 119.2554 119.8502 119.3213 118.8600
116.3900 109.3367 110.3205 110.4031 111.0619 111.7684 110.0908 108.0329 105.3395 109.6732 127.5093 128.3136 123.0650 121.9320 121.8276 121.6126 121.1421 120.7118 120.0986 120.3434 119.6806 121.3396 109.6094 119.9276 118.7747 113.6047 112.0497 112.5059 111.1905 112.1823 114.4685 115.3765 102.8879 92.6626 94.1570 114.4567 111.3809 111.4812 110.7096 110.1226 109.6757 109.3589 109.2034 109.2279 109.4362 109.8018 110.4319 109.3648 116.3749 101.0782 102.3985 115.1053 113.1445 114.7899 115.3661 120.9995 115.6649 116.6209 117.1072 117.5132 117.2019 117.7436 118.7134 119.1900
115.4100 116.1996 109.7166 110.3574 110.3395 112.5211 109.5825 110.0661 106.8515 111.7601 124.4058 110.5214 120.5729 123.3283 121.9496 121.3084 120.9469 121.0229 120.8190 120.0814 119.6961 118.5272 111.3755 120.3869 113.2102 118.4540 118.0694 118.8972 117.2387 116.5422 115.8238 115.3500 113.1778 110.7443 107.4123 114.0606 112.4504 112.0824 111.5625 111.1231 110.7699 110.5275 110.4049 110.4253 110.5833 110.8725 111.1595 111.8636 101.0993 98.6230 91.8124 113.0710 114.6951 114.8532 115.3047 117.6663 116.4676 116.8637 117.3464 117.7743 118.2565 118.6680 119.0119 119.2400
115.4200 110.5866 110.2956 110.1155 110.0517 112.0525 111.3460 105.2418 103.1489 105.7005 102.7674 105.2350 113.5073 104.5381 123.4492 123.1126 106.1976 120.8961 120.9496 120.0729 120.3662 120.6588 117.5253 118.5529 117.2560 119.0428 117.8047 117.3627 117.0559 116.4941 116.0680 115.5670 115.1304 114.5674 114.7835 113.9125 113.3573 112.7961 112.4008 112.0409 111.7539 111.5613 111.4645 111.4805 111.6076 111.8210 112.1714 112.0181 114.6552 93.0242 97.6422 96.2697 107.0564 115.9390 115.8104 116.4420 116.7575 117.1658 117.6162 117.9593 118.4066 118.7917 119.1702 119.3000
117.1600 116.7985 109.9603 110.6442 110.6650 109.9678 107.7505 102.0828 102.1091 106.5092 111.0415 106.4379 105.1884 102.2035 100.8837 104.7461 102.2732 119.1181 123.0648 98.8494 110.7128 119.4873 130.0844 116.9903 122.5546 132.5004 116.6700 117.8222 117.3037 117.1234 114.8652 116.2670 115.2956 115.1680 114.6301 114.1802 114.0130 113.5110 113.1663 112.8779 112.6423 112.4790 112.4025 112.4168 112.5230 112.7061 112.9399 113.1905 111.8595 102.8152 94.6629 116.3203 115.9669 115.6460 116.1958 116.5949 117.0037 117.3482 118.8630 118.4029 118.6517 118.9432 119.3148 119.6300
110.5600 109.5101 110.3630 110.8213 108.6933 107.4529 106.3613 101.9886 102.5594 106.4377 108.4878 104.3707 121.9628 109.1452 117.8939 113.7104 122.9100 117.1026 119.5150 113.5030 120.2951 118.0908 99.5344 99.6424 120.1143 118.6830 118.6684 118.2261 115.4032 118.3581 101.3604 117.8173 116.9165 115.5336 115.2559 114.9163 114.4205 114.1948 113.9170 113.6401 113.4468 113.3260 113.2653 113.2674 113.3503 113.5006 113.7189 113.9980 114.4279 114.3683 116.7492 114.9034 115.7911 116.1690 116.5389 116.7962 117.5691 117.6390 117.9692 118.3998 118.7634 119.6459 119.5665 119.7000
110.0000 109.8295 110.2415 109.2609 107.9643 107.2863 108.1900 103.7602 101.9701 102.9364 118.4894 109.9941 104.5838 118.7490 106.3584 100.7041 107.3753 110.5056 98.8696 106.5350 103.1627 98.1722 101.5105 101.8614 119.3969 118.5315 118.6859 116.3483 111.6229 118.1903 116.7151 116.9139 113.9542 116.0147 115.7170 116.1132 115.6586 114.7734 114.4257 114.3685 114.2308 114.0842 114.0112 114.0412 114.1060 114.2357 114.4267 114.6262 114.8860 114.5579 115.6551 115.6993 116.0786 116.5985 117.0946 117.4358 113.8852 118.8310 118.5392 118.8086 119.6685 114.1782 120.6965 120.0200
111.8900 111.5914 111.5560 107.9287 108.7796 108.4127 108.0034 103.2347 102.9380 105.7922 100.3794 102.5641 103.9203 99.6187 104.8165 109.9475 108.5878 106.8114 103.7248 103.8429 100.3334 110.4051 102.1253 122.6258 120.4817 119.1881 118.5862 111.9441 116.1263 108.3793 121.3965 117.1236 108.4061 116.5183 114.8910 109.4965 111.9578 116.1650 115.2570 115.0182 114.6205 114.6868 114.7678 114.7447 114.8058 114.9202 115.0784 115.2740 115.5109 115.8117 116.0539 116.4025 116.6644 116.9621 117.0587 112.8036 92.0664 113.1637 118.3320 118.9702 120.0962 107.2657 118.5876 109.8900
110.5700 109.7411 110.3099 109.8634 109.9166 105.4692 105.9404 100.9173 106.0493 104.3620 107.0410 104.4927 109.8006 108.8410 111.4965 105.8674 118.3182 107.4327 107.2751 103.5035 108.5867 113.1065 116.4093 121.3876 116.2479 119.3552 119.1556 118.7490 104.4936 122.0203 94.8362 121.0534 117.5778 118.3717 118.8768 111.2545 106.4999 115.4216 115.5235 115.5895 117.8769 116.1046 115.4451 115.4047 115.4579 115.5550 115.6872 115.8614 116.0656 116.2991 116.5421 116.8067 117.1416 117.4048 117.9414 117.6775 100.4404 100.7715 120.4044 119.0969 119.6151 120.0937 124.2700 114.4900
113.6000 109.3680 108.9960 107.9084 106.6603 106.7433 111.9033 110.5046 115.5736 107.0175 111.5268 109.1775 111.2832 111.6034 114.2171 109.8975 113.6227 116.6889 107.8841 122.6794 122.5385 112.0891 118.1349 108.0378 104.9374 118.7338 120.0280 113.1654 109.2252 121.4611 118.1658 114.4233 116.1365 120.2731 99.1089 118.5704 104.5001 118.0512 116.1806 116.3148 120.5053 116.0854 116.1695 115.9995 116.0548 116.1480 116.2650 116.4157 116.5943 116.8081 117.0095 117.3409 117.3956 117.8121 118.0156 118.1610 122.3989 108.9931 119.6480 119.3767 119.6452 120.5381 119.9752 120.5200
112.8400 109.0279 108.9899 117.6127 111.0273 111.4980 113.1561 112.3160 117.4387 103.0362 113.0376 108.2781 114.1300 112.5865 110.7970 108.0341 121.0528 110.4686 102.2675 120.9633 122.5796 106.8416 105.4859 112.6803 111.1816 119.1638 112.1980 116.7520 112.2918 116.6942 119.6003 117.0346 119.0513 117.9623 104.9625 104.3889 95.3498 101.3256 118.1314 116.7142 116.2142 116.6680 116.5670 116.5947 116.6244 116.6984 116.8005 116.9429 117.0992 117.2782 117.5585 117.5104 118.4227 119.4089 118.2937 118.3917 119.6953 119.2482 119.4795 119.7936 119.8032 121.2395 103.1349 120.8500
112.9200 113.6730 102.5520 102.2339 113.0267 111.6292 117.5332 102.6344 107.3252 106.0701 103.7023 103.5907 115.2971 112.3665 111.2708 116.8287 122.8402 117.3100 117.8404 122.4886 122.9398 101.6095 128.9713 120.9868 120.1128 120.7585 115.5687 120.0925 107.6916 120.5809 112.2094 114.7095 119.5462 118.2470 104.4554 93.6779 97.8029 96.6164 118.0984 117.2675 117.2619 117.1307 117.1242 117.1004 117.1487 117.2220 117.3167 117.4205 117.5827 117.7604 117.9822 118.0920 118.8840 101.8748 118.7902 119.0588 119.3293 119.4685 120.0935 120.3161 120.3499 120.6055 115.4676 104.5000
103.7400 103.2278 112.1541 106.1606 116.1677 105.4672 117.6144 109.9975 103.6491 118.0274 116.5077 115.1882 101.3817 104.6832 121.1915 121.8567 115.7223 123.9613 118.4933 113.8513 107.5270 106.2438 106.8541 117.3952 120.9321 120.5874 114.8733 98.0123 108.9371 122.3002 111.4499 116.2123 121.1969 112.4345 114.7661 105.4006 106.3425 117.2360 117.8651 117.7677 117.6849 117.6504 117.6326 117.7205 117.6816 117.7350 117.8013 117.9502 118.0187 118.1305 118.0033 118.5353 118.2040 112.9197 120.5747 119.1901 119.5734 120.3465 114.0071 117.0536 116.1386 120.8201 117.5063 111.8600
114.4100 113.2584 107.3242 110.5278 117.7976 112.5272 113.3101 108.2574 118.9375 104.8025 103.4541 102.9068 115.5498 122.2873 123.1066 123.3251 122.2212 119.6114 102.6320 101.7312 101.6093 102.4706 105.4823 108.5156 122.4394 121.8968 105.6100 109.7605 119.9816 119.7841 121.8604 121.0541 117.6796 106.8207 120.9888 119.0140 119.8433 118.7492 117.9428 118.2546 118.0167 118.1281 118.0555 117.6225 118.1025 118.1247 118.2658 118.3386 118.5838 118.9636 120.4997 117.9717 119.3251 120.2310 119.3473 119.7831 119.9046 120.1296 122.0487 121.8553 120.2058 103.2951 106.1965 99.5100
114.0600 112.8648 119.4873 116.5542 114.1470 113.7864 111.8345 119.3142 102.6389 113.2571 101.1225 102.1010 110.5424 126.2073 123.1003 122.9400 123.7929 111.5859 122.2815 100.5360 103.6021 100.8987 99.5162 119.2494 121.3554 121.1815 98.4425 123.3731 99.6094 122.2685 119.9716 119.6906 121.5586 116.1727 119.7802 118.9225 120.0636 97.3389 103.6202 118.2696 118.2076 118.6089 118.7879 121.5502 118.5672 118.5889 118.7983 118.6023 118.7139 108.3608 110.4012 120.6659 119.5155 119.6261 119.8469 120.0162 120.2369 120.4288 120.7194 120.5349 121.6828 121.8059 121.3094 119.5600
109.8900 117.3017 119.2366 115.9517 113.7445 118.2397 112.8581 119.3358 107.8650 101.7862 104.3322 118.4949 118.0409 113.7372 110.4749 121.9408 122.2647 121.9922 110.1015 124.1467 123.9951 123.1207 123.4709 121.4806 121.4519 117.2558 110.7962 122.6097 114.8080 119.9347 120.1401 120.1180 119.7077 120.0675 119.5781 119.7457 121.3744 102.0208 96.6660 122.5283 118.3263 119.1150 119.1334 100.1536 122.2221 107.8364 119.6441 119.6515 119.4314 116.8108 114.2274 116.2814 119.9320 119.9943 120.1390 120.3491 120.5260 120.7348 120.9183 121.1496 121.4368 111.4267 123.1254 110.7200
116.5300 115.4129 127.0252 127.3745 116.4249 114.7116 113.0708 112.9386 103.6996 108.8231 109.4280 105.7153 116.1452 112.5730 104.6587 101.3233 109.7346 110.8224 121.8407 122.0914 121.9306 122.4017 122.1344 116.4288 122.8883 121.7988 116.2832 120.5332 119.9482 117.9240 120.8530 120.3649 120.2821 120.1281 119.9951 119.8291 116.9917 117.8102 109.3584 119.1539 119.6520 119.3967 120.0423 117.8746 119.9570 113.5728 120.3061 109.5552 119.2908 121.5207 99.8761 119.3830 120.2823 120.2927 120.5274 120.6089 120.7587 121.0860 121.0387 121.5852 122.9086 109.2441 106.8405 107.0600
116.0000 124.4440 126.0496 125.5003 127.3360 117.1015 107.7003 122.6471 111.8507 111.1115 126.9577 125.4451 106.5058 104.8471 102.1902 105.5347 106.2621 117.1435 123.7115 122.9443 122.7227 122.4317 124.1948 106.3064 119.6232 123.9025 99.9410 114.9060 112.9069 116.6622 119.9766 120.7510 120.5941 120.4603 120.3394 120.1824 120.0745 96.4320 108.0002 119.9465 119.9285 119.8017 119.8035 119.7841 119.5203 120.1346 120.0579 120.9388 120.9946 119.9517 122.0978 121.2381 120.3039 120.8777 120.6102 121.6857 121.1343 120.9447 122.3192 108.0915 112.3013 116.3042 110.7787 107.0600
116.0000 115.7200 125.9500 125.8200 125.6900 125.5600 125.3000 125.1700 110.2500 124.9200 121.6000 124.4800 115.9100 112.4900 109.0500 109.0900 101.6000 103.8600 123.1000 122.9600 122.8000 122.6500 122.4700 122.3000 122.1300 121.9500 101.2900 119.3500 104.5500 118.9900 121.0300 120.8600 120.8600 120.6700 120.4600 120.5200 120.2900 120.3300 120.0700 120.0900 120.1200 120.1500 120.1600 120.1600 120.1500 120.1100 120.0900 120.0600 120.3200 120.2700 120.5000 120.7100 120.6700 120.9100 117.2500 121.2500 121.2500 121.4100 121.6200 113.2000 113.7800 120.5600 120.4300 105.2400
