120.2400 117.8700 115.1100 118.3500 118.0200 116.1300 115.2600 118.6100 116.9000 101.2500 107.1200 109.0100 111.3400 111.5300 118.1600 114.5600 112.5700 112.9700 106.4700 99.4500 106.2900 115.7900 110.5400 110.3800 110.1400 109.1200 108.6800 104.5000 106.5400 106.5400 105.7600 105.8300 100.4600 95.8700 92.3400 113.8900 113.8900 98.5200 113.0600 113.0600 114.8900 114.8900 111.8400 111.8300 112.6200 112.5600 113.0200 113.0200 113.4800 113.8900 114.4100 114.7700 115.1900 115.6400 115.9600 116.3300 112.4200 117.4000 100.2800 102.2700 109.2900 104.9100 119.1400 119.4100
120.2400 117.1442 119.2343 118.2675 117.7547 116.4930 115.6314 116.6940 116.9426 115.3708 111.7852 103.4352 104.1480 109.8482 113.9897 111.8588 111.5918 111.3199 105.8208 102.5352 105.9518 111.0231 106.4403 106.6612 111.4517 108.4489 107.8913 104.8562 103.3752 105.5564 106.8585 107.0124 96.9018 99.2618 97.1435 99.1226 94.9403 109.2868 114.2410 97.6564 108.1181 111.7631 111.4056 111.6062 111.7555 111.9973 111.3397 109.4654 113.2031 113.4868 113.9551 114.4266 115.0490 115.6330 116.1139 115.7621 113.4647 117.6984 99.1589 102.9471 107.7555 114.9473 119.7073 119.3400
119.0800 115.5904 114.9596 112.4119 116.8805 115.7333 115.5902 114.7797 114.6344 107.1381 108.1053 105.5936 107.4497 113.0979 109.1443 110.6200 108.9722 109.8694 103.2992 102.5722 101.9335 108.8104 106.4573 100.5952 105.2841 104.2177 107.4976 106.4004 103.8208 101.0942 103.1667 104.2956 100.2092 93.4598 100.7743 103.5463 92.8715 116.1322 110.9980 112.4345 112.8449 110.5837 110.6269 110.6088 110.7612 111.0380 111.3352 110.6346 112.2963 112.8275 113.3612 113.8294 114.4150 110.3382 115.9262 117.5946 123.5558 103.2694 101.0671 105.3800 105.5413 112.7796 120.3162 119.2800
124.5100 122.1563 111.7293 101.9558 109.8060 112.0958 113.1302 114.8188 114.1472 114.7861 116.2717 113.8614 116.2486 117.4023 111.9406 113.8084 110.3276 109.9909 108.0965 107.2976 102.8790 99.8569 100.0454 114.2123 94.7995 96.9754 101.5913 108.2017 104.2071 105.4271 114.4498 114.7122 107.0529 99.6930 110.1980 119.8480 105.6319 110.9859 110.2314 113.0240 109.4492 109.6503 109.4263 109.4350 109.6398 109.8518 110.4307 111.1778 111.5522 112.1616 112.7575 113.3870 114.2341 111.3029 116.6557 95.2944 105.0869 96.0504 105.3679 105.3820 104.2296 108.4244 109.9867 119.2800
123.3700 125.7955 126.1932 122.0451 124.4904 123.3017 124.3352 117.4781 112.7264 111.3483 103.0948 103.7299 110.5994 103.2659 113.7114 112.1083 111.7340 111.0511 110.5839 104.5776 99.9953 105.6155 105.2930 100.8716 110.2651 111.7878 101.2467 114.1675 103.7750 100.9375 122.7712 101.3393 95.0077 99.6477 118.0785 114.8468 107.4612 111.3849 109.4471 109.0403 108.5946 108.2369 108.0327 108.0841 108.3419 108.8210 109.3695 110.0354 110.7392 111.4515 112.1586 112.8127 113.3369 115.1239 113.7205 106.7674 105.3383 111.1340 108.4896 110.9187 106.5352 104.0903 104.2300 105.5800
122.0900 123.8375 108.8240 110.8955 107.5509 115.2229 106.0528 125.0430 123.9807 103.0935 112.7703 99.1924 99.5240 98.7850 112.8048 111.2864 110.6570 110.0828 110.6931 109.4659 112.9374 110.9767 107.6792 104.5924 106.1047 110.0901 108.4229 103.7550 103.3100 102.9493 96.6766 90.1373 111.6600 104.5437 94.0911 107.5703 110.6866 109.8158 108.8480 108.0106 107.2833 106.7265 106.4474 106.4811 106.8538 107.4537 108.2271 109.0587 109.9314 110.7508 111.6196 112.1159 114.2493 103.8798 93.6205 95.6494 101.5624 105.5370 106.6246 105.2914 107.3449 106.0798 105.0054 105.1100
122.9600 124.1057 117.0357 125.3965 107.2105 105.9305 123.3782 125.3504 103.9631 117.4686 122.5937 98.7832 100.9918 118.3223 110.4309 109.0080 108.4123 110.0015 109.6496 108.5481 109.2344 108.4699 108.4005 105.2697 101.3727 108.2658 108.5455 113.9853 104.7986 95.4809 95.1671 91.8564 93.8463 91.1485 108.2458 96.8024 110.2073 108.6973 107.7506 106.6868 105.6853 104.8968 104.4599 104.5268 105.0833 105.9619 106.9808 108.0420 109.1099 110.0030 110.8909 113.9175 93.6813 90.5070 98.2759 109.1736 99.3893 111.2645 107.7942 104.0778 105.2575 103.3269 104.1764 105.5000
120.6200 121.2131 122.2467 124.2710 123.3453 125.0478 125.0323 110.4638 109.2986 103.4973 100.7191 100.2941 100.2000 99.9774 97.7088 114.0116 107.2010 106.6664 108.3595 109.8160 99.7189 99.9483 105.9131 98.7069 100.2288 99.4080 117.7035 117.0693 114.7751 114.4773 116.5430 91.8615 94.0144 90.8832 109.8944 110.5885 109.7623 108.1153 106.6139 105.2648 103.8638 102.6020 101.8787 102.0061 102.9222 104.2501 105.6598 107.0134 108.2459 109.6822 101.3658 104.4430 89.1814 92.3195 96.0325 102.0557 103.4364 110.1605 102.1964 103.3084 101.0937 103.6750 106.6793 117.0200
120.7000 122.0991 123.5668 123.1426 121.3500 120.9855 120.2287 119.7034 120.9410 121.5173 120.6845 103.1441 100.9176 100.1913 101.9738 119.1315 110.2949 107.6714 107.5155 107.8582 105.9406 114.1370 109.4163 102.7211 101.3767 108.3577 93.4929 105.3909 92.9133 108.6095 97.9319 99.0402 116.5881 117.9763 109.9896 109.4737 108.0521 107.2410 105.5921 103.7958 101.7485 99.7064 98.2885 98.5603 100.2939 102.3356 104.3076 106.1111 107.3504 107.9225 101.7191 91.7624 90.4293 95.6218 99.2123 108.6762 102.3682 107.0375 109.2550 106.9665 105.2561 106.6953 108.6883 109.4300
119.2400 120.2612 121.1855 122.4278 121.0882 120.4486 119.6986 119.2116 117.9583 116.9451 111.7670 104.9131 102.4218 106.2007 119.5089 112.6644 109.3225 110.1536 109.0216 109.8564 105.7053 103.8364 103.0670 102.7725 108.5140 118.4519 95.2934 99.8923 97.9494 114.7634 115.7519 111.3121 112.5328 114.8113 110.3258 109.4069 108.1062 106.5291 104.6925 102.4171 99.5471 95.6539 91.9536 92.6478 96.9107 100.3950 103.1127 105.2333 106.7357 109.7407 105.7141 98.3319 93.4502 98.8215 104.2732 107.8397 105.4946 103.0419 104.8320 106.4086 103.7923 105.3106 108.8481 115.1100
120.6800 120.0730 118.9169 119.8767 120.6735 119.8817 119.2961 118.9706 113.4301 115.4387 114.5770 105.1204 106.2181 108.6380 118.7599 111.0868 110.2510 110.4690 111.6042 113.3952 109.1547 107.9406 106.8945 105.5674 112.0772 117.9910 108.7792 120.8865 118.1774 115.4575 113.8880 112.5584 120.3343 115.7118 110.8958 109.1914 107.7743 106.1243 104.0967 101.4443 97.7070 90.8929 86.2134 86.9162 93.0859 98.9040 102.2724 104.7130 106.4190 109.4306 111.4780 96.5420 100.3139 102.0133 103.3010 101.9077 103.1851 102.7514 111.1041 109.6568 108.9184 109.9574 110.0629 111.6100
114.1600 114.1988 113.8002 114.8232 117.8250 117.1944 117.4431 114.2613 115.6814 117.3319 114.0197 113.8129 113.8359 105.5552 120.2102 102.5178 109.9933 109.4922 114.9644 115.1132 110.3616 110.4694 109.3215 107.1109 113.0699 119.1225 118.4994 114.7752 114.7146 114.5534 114.1391 113.0456 111.1497 110.7035 110.1852 109.1683 107.7287 106.0450 103.9509 101.2043 97.2279 89.3475 84.4725 85.3832 91.8404 98.5278 102.0547 104.6269 107.0796 103.1248 109.5694 89.9449 91.2449 95.9039 95.9193 100.9961 105.7180 104.5760 118.0155 118.0009 118.1751 119.2597 119.6996 118.3800
115.4900 112.6860 114.7937 117.6616 118.5437 118.0223 116.8140 114.4801 114.3672 116.5473 113.2820 111.0037 112.4253 104.0037 113.2330 108.5650 109.5835 108.7194 117.4856 113.5985 108.7103 108.7074 107.8612 106.5068 120.4743 117.7727 117.1083 116.4027 115.7163 114.8690 113.4060 114.3035 112.6791 111.8640 110.4775 109.2814 107.8804 106.2693 104.3009 101.7901 98.4732 92.8267 88.3525 88.9983 94.6570 99.4494 102.5636 104.9183 107.1108 103.2152 111.6519 92.0838 92.8911 100.5569 98.2935 100.9841 104.2873 108.1066 116.9242 116.4977 117.0028 117.4202 117.0084 116.4500
112.4000 116.7362 117.6536 119.3581 119.4050 118.8224 117.2100 116.6670 114.0713 114.9966 113.6086 112.6611 113.0270 104.4971 104.8216 104.0633 104.7109 110.4849 117.1838 111.3666 107.6975 106.6188 106.7596 104.4723 123.3254 116.2310 116.1919 115.5576 114.7328 114.2741 117.1734 99.8632 113.5484 104.3815 111.6270 109.5108 108.2443 106.7756 105.0463 102.9740 100.5414 97.5972 94.9180 95.4150 98.5186 101.2043 103.5960 105.5596 107.2855 107.1514 109.7099 108.8794 88.3924 95.0007 99.1883 99.3221 102.4086 110.0618 116.6974 116.8992 117.3808 117.9849 116.7874 120.2400
119.3300 117.2100 117.8075 116.5803 118.2654 115.7677 115.1265 115.4408 112.0603 114.7023 113.9064 103.5196 105.5546 102.3822 105.0645 105.8314 101.0017 100.9723 112.0750 102.3770 114.7751 105.3718 106.7575 120.1232 116.5241 118.1785 118.2498 118.3957 117.6419 115.7594 96.9223 91.6454 106.9050 108.7389 110.9410 109.9572 108.7763 107.4813 106.0368 104.4100 102.7042 101.0183 99.9821 100.1833 101.4536 103.1699 104.8972 106.4513 107.8070 109.1398 110.2278 112.2163 105.7695 100.1141 97.4172 100.4059 105.0897 111.6295 116.3108 116.9147 117.3808 118.2537 115.0221 116.5400
118.9600 117.1442 118.6121 119.3943 120.2192 119.2803 120.6546 112.8037 113.9237 114.8841 114.9872 107.0084 106.3462 106.1875 105.6578 107.8452 106.2804 106.9420 108.9282 108.6583 106.3442 99.4886 107.0973 119.0303 101.2377 120.4787 103.0705 101.0349 96.2706 95.2721 91.3148 94.1197 113.3459 109.8560 111.3835 110.4640 109.4087 108.2995 107.1123 105.8788 104.6372 103.6359 103.0595 103.1519 103.8969 104.9908 106.2190 107.6186 108.5485 110.2097 111.9170 111.7804 112.1010 112.1517 103.7925 102.9547 111.0573 114.7549 116.4538 116.9792 117.4878 119.0358 111.2006 100.7200
118.0700 118.3584 117.5387 110.8417 112.3937 108.6410 105.3884 104.1491 108.8072 105.6420 110.1367 111.0489 112.6243 112.4046 109.6751 107.1783 112.6466 109.6081 108.8012 104.6691 100.5426 99.7514 100.9384 118.8461 100.8000 119.9852 109.2999 114.6056 113.3177 115.8377 94.9647 90.3446 110.9083 112.5443 111.8182 111.0039 110.1142 109.1712 108.2043 107.2442 106.4131 105.7153 105.3170 105.4076 105.8647 106.6135 107.5191 108.6696 104.7970 108.5367 93.4155 111.0518 115.1863 114.6876 113.8835 113.4828 114.1656 116.0483 116.6644 117.1134 117.3505 121.2538 115.8055 106.3500
118.5400 118.4088 117.7975 107.8006 110.0334 113.2851 118.1330 112.0123 111.5964 110.7417 111.6946 113.6107 111.2213 107.2726 108.7803 107.6771 107.6687 101.6316 116.7285 113.2278 101.7571 99.1246 98.9470 96.3034 97.5664 95.8293 115.7994 116.1557 117.0228 109.7607 99.8971 117.2115 108.2304 113.5804 112.3673 111.5982 110.8597 110.0383 109.1598 108.5077 107.3205 107.2596 107.1490 107.1781 107.5114 108.0532 108.7414 109.5927 109.9915 111.4230 111.7238 114.0745 112.5610 114.0831 111.0363 97.6532 115.5447 116.0871 116.8246 117.2914 117.4212 118.7651 104.3217 105.9000
116.6000 116.0636 117.1927 119.6282 119.2761 120.3662 115.2576 113.1860 111.3975 112.1760 110.0713 108.0422 114.6465 108.0405 108.3911 108.0952 107.0616 102.9466 108.6180 105.8994 101.3796 99.2954 98.4864 99.3748 103.5525 120.2844 125.9081 97.6446 96.3609 94.4983 95.1658 114.6853 114.5349 113.5978 112.8923 112.2291 111.6066 110.9157 111.2545 107.9874 114.6586 108.9763 108.6852 108.6508 108.8498 109.2950 109.7761 110.4117 111.0616 110.8049 113.9448 105.1923 114.6750 112.5310 115.7036 116.7851 115.2561 114.8569 116.9526 117.5877 117.9074 118.9130 119.5280 121.1700
117.4200 116.6294 116.0606 118.5601 118.3785 111.5568 115.7728 114.3792 111.6760 111.2702 110.5584 109.0828 107.5608 107.2518 106.5851 104.9363 98.2743 99.5237 111.2743 105.2103 101.7436 103.8347 100.3908 109.2634 100.8527 98.3117 110.2862 102.0675 98.1792 109.5083 116.8396 115.9414 114.3233 114.0316 113.4285 112.8016 112.0923 113.2004 111.9136 101.0684 101.8108 110.1190 109.9583 109.9681 109.8686 110.9636 111.1448 111.8123 112.0354 112.5455 112.0327 107.8455 114.5496 96.1021 115.7639 115.2534 116.1493 117.4109 117.1517 118.5873 117.3452 111.6880 118.2620 119.2000
120.2700 119.5399 117.0895 115.9773 115.4334 103.6966 113.2462 111.3744 111.4038 110.8074 110.3369 109.2842 109.7782 100.3677 99.2975 102.9092 98.3727 113.6512 104.4641 115.8346 108.5361 113.9649 120.6449 120.2749 116.9503 103.0528 103.6929 102.5050 100.7639 118.5782 115.6412 115.3937 114.9842 114.4620 113.9881 113.4111 114.3503 113.2278 111.1214 112.8453 110.9897 111.0814 111.2718 109.4035 109.3158 113.0127 112.1941 105.8528 111.0703 112.5924 113.8116 104.4924 104.2448 110.8195 118.2004 116.1644 116.6136 118.0388 117.7763 117.8426 118.9347 119.4245 118.9903 119.2600
121.0400 115.3617 115.4749 115.0396 114.4008 113.6493 113.5433 113.2079 112.4724 111.9534 111.5657 106.3709 106.2699 102.0494 100.2169 98.8667 98.2738 105.3391 114.1357 108.5337 122.1755 120.4531 119.9521 118.7657 113.9029 111.3917 118.3663 106.1261 113.3042 117.1102 116.1368 115.9477 115.5687 114.9411 114.5260 114.0610 114.2827 109.8418 104.7933 112.5965 112.2949 112.1144 111.6897 113.2706 98.4956 103.0107 105.9263 110.1455 99.0934 108.4528 116.5271 105.1559 106.8376 114.6463 114.1061 116.3906 116.9060 117.0993 117.5714 118.1554 118.3125 118.7324 118.8356 126.6500
116.2300 118.6733 115.4520 114.6669 115.1793 116.5307 117.1096 113.9409 113.6673 115.1766 114.9673 105.2148 103.2004 100.6069 102.8797 102.4351 103.5830 99.2436 119.9094 111.0053 121.0058 119.9009 119.5708 119.7627 115.1456 112.6021 117.9285 118.2191 118.1896 116.5947 116.0141 116.2977 116.0276 115.4748 115.0343 114.6583 113.4917 114.9793 113.8479 113.2324 113.1655 112.9728 112.8096 113.3114 105.3531 96.8869 102.1550 117.6464 98.5495 99.1103 96.8076 99.2772 102.2299 101.7723 115.8254 116.8228 117.2377 117.6067 118.0136 118.3729 118.7716 119.1677 119.7901 126.6500
118.9300 120.2058 119.3141 119.2401 118.1633 120.4126 119.7388 116.7948 112.8404 111.4258 107.7217 104.7645 105.4148 105.2526 106.9727 103.0319 103.7604 108.6921 116.0453 116.8647 120.7170 120.2959 119.9042 119.5273 119.3879 111.8556 118.6180 118.1553 117.6933 117.4781 117.1727 116.6759 116.3007 115.9094 115.5612 115.2029 114.9342 114.4066 114.2654 114.1039 113.8839 113.7719 113.8091 113.4014 112.3665 97.1835 96.5751 114.8194 94.9758 108.5397 103.0109 115.5324 108.7069 112.7744 117.6279 116.9381 117.5640 117.9473 118.2671 118.6314 118.9703 119.3365 119.8517 120.0400
122.2300 116.2773 118.5215 119.3337 118.6066 119.1492 118.9262 118.8782 115.6890 104.9148 106.2193 105.5020 109.2969 103.5622 103.1789 102.4863 103.6740 114.6372 120.5144 119.2249 120.7963 120.3908 120.0890 119.8455 119.2698 121.8790 106.5799 119.5069 117.8144 117.7606 117.4227 117.0583 116.7307 116.3911 116.0698 115.7471 115.4521 115.1944 114.9613 114.7368 114.5992 114.5032 114.5062 114.3227 110.8393 97.5771 98.0348 112.7409 110.8785 111.4593 101.5848 109.2189 116.6440 116.7271 117.3803 117.8248 117.7856 117.8587 118.6246 118.8893 119.2248 119.5485 119.7253 120.1100
103.4900 118.2006 118.3147 114.1246 118.5888 121.4657 116.6010 115.5034 108.9319 105.6442 108.0882 115.5915 111.3411 106.7871 104.8706 99.2796 101.6187 109.5538 105.1239 123.0518 120.7613 120.5793 120.3080 119.9751 119.6552 119.5446 112.8306 118.7142 118.4315 118.1198 117.7755 117.4613 117.1454 116.8383 116.5454 116.2715 115.9638 115.8647 115.5511 115.4115 115.2609 115.1740 115.1766 115.0518 115.0786 116.7625 108.2556 115.3878 116.7916 109.9534 105.1094 107.6751 113.4695 116.2099 109.8914 117.6878 120.9654 120.4697 118.6791 119.1487 119.4668 119.7752 120.0990 120.1900
120.2900 119.6146 124.6846 122.4632 124.3864 114.8883 109.9069 109.0559 111.6145 117.1491 118.8767 111.2580 117.5624 100.6374 114.7608 108.3988 108.5257 116.3655 117.6236 121.8251 121.1265 120.7711 120.4958 120.2100 119.9352 119.7663 118.8478 118.8166 118.9220 118.3805 118.1524 117.8432 117.5597 117.2767 117.0115 116.7637 116.5051 116.0040 114.8705 116.0035 115.8735 115.7932 115.7608 115.7804 115.8053 115.5952 116.3494 116.3408 116.0052 115.7107 105.9921 105.1588 115.6431 117.6659 117.2744 118.2356 119.4037 118.1785 119.2983 119.3898 119.7181 120.0069 120.2964 120.5000
125.6700 125.2111 125.3360 125.0226 123.5031 123.2664 108.6435 113.1212 115.2832 111.6025 114.4494 116.2907 115.2467 114.0455 101.2619 104.6698 115.5069 131.0827 120.8694 121.7871 121.2350 120.9815 120.7140 120.4481 120.1319 119.8280 120.4238 127.2747 118.1146 118.9007 118.4753 118.2207 117.9562 117.7044 117.4650 117.2371 117.0077 116.9500 116.7101 116.5269 116.4508 116.3753 116.3391 116.3397 116.3851 116.5526 117.1994 116.4317 117.3174 118.1884 105.5448 114.1646 118.5635 117.9094 118.3482 118.5323 118.8807 119.1137 119.4049 119.6905 119.9606 120.2403 120.5192 120.5800
125.6900 125.5390 125.1764 126.1531 113.9679 113.9923 116.3638 116.4037 116.5320 116.0867 111.3441 108.9514 114.3628 106.7274 107.3241 104.0892 107.8947 125.7782 115.2075 121.9023 121.3054 121.1990 120.9187 120.6677 120.3788 120.3282 119.1335 120.1729 119.1974 119.1088 118.8347 118.5911 118.3499 118.1092 117.8437 117.6164 117.5002 117.3072 117.1844 117.0766 116.9874 116.9209 116.9213 116.9490 116.9211 116.9250 115.2354 107.4743 116.7070 117.8928 117.9325 115.2846 118.7125 118.4065 118.6762 118.9107 119.1758 119.4405 119.6657 119.9523 120.2175 120.4567 120.7296 120.8800
125.7200 125.6910 125.5303 119.8792 113.8039 116.9652 115.2192 114.7912 115.2694 117.6969 116.9353 107.6733 110.0367 106.6573 107.3981 105.3413 100.6419 112.6606 111.0071 121.4377 121.6054 121.3697 121.1719 120.8818 120.6559 120.3893 120.2614 119.9239 119.6576 119.3989 119.1812 118.9505 118.7266 118.5253 118.3126 119.2257 117.9285 117.8097 117.6808 117.5712 117.4922 117.4408 117.4494 117.3676 118.0751 117.4077 118.5385 116.5262 119.1768 117.4064 118.2600 118.7529 118.5010 118.7893 119.0003 119.6136 118.7924 119.8762 119.9634 120.2138 120.4943 120.7602 120.9298 121.1700
125.8800 125.5942 126.1067 117.2195 117.7852 117.4955 118.0916 115.9502 117.2178 108.2099 111.8867 110.6659 108.9594 111.2979 106.5975 104.6232 105.6001 104.7182 106.7029 122.0576 121.7352 121.4776 120.7078 121.2813 120.9043 120.6901 120.4293 119.5836 120.0386 119.6932 119.5142 119.2915 119.0925 118.9080 118.5861 118.7538 118.3059 118.2495 118.1430 118.0368 117.9856 117.9644 116.6684 117.9980 115.9922 119.2362 116.5729 95.6665 117.9191 117.8602 118.5859 118.7815 118.9780 119.1448 119.3703 119.9431 114.5294 119.0191 121.2448 120.5822 120.6018 121.1125 116.6175 121.2500
125.9100 126.1595 123.7337 116.6877 118.5425 113.2056 114.3599 117.7458 113.5646 111.1590 111.0783 116.6022 109.9921 114.1189 112.6823 107.7160 121.9671 124.9314 124.2593 121.5197 122.7096 122.6548 118.5284 121.2419 121.1982 120.9207 120.4079 123.6886 120.9153 119.9449 119.8577 119.6410 119.4529 119.2724 119.1184 118.9176 118.8116 118.7066 118.5705 118.4957 118.3986 118.7622 96.8589 114.6962 113.8330 110.7846 119.2100 106.2963 118.9855 118.3557 118.9988 119.1498 119.3211 119.5048 119.7172 122.4588 121.4796 106.2858 119.6774 120.7915 120.9170 121.5649 112.5158 121.5300
126.1000 126.3932 118.1119 120.9807 118.8673 112.8470 110.1526 114.0558 113.0240 109.5617 114.1954 110.3052 104.9875 104.5805 103.8105 110.0164 127.6014 123.7073 122.4301 123.0524 114.2462 120.8177 121.5888 126.1712 122.0927 121.0328 120.9868 122.6978 119.1463 120.5231 120.1863 119.9663 119.7962 119.6354 119.4788 119.3328 119.2311 118.9566 119.2422 118.9681 118.6854 119.8858 104.0107 115.7957 128.4310 109.9917 118.0213 114.8422 118.9775 118.9219 119.3938 119.5213 119.6770 119.8433 119.9828 119.8555 120.0638 122.4000 118.3047 121.0638 121.1842 121.4347 121.8444 121.8800
126.1000 126.7885 127.1099 124.9545 117.9474 113.3996 111.1796 115.7795 112.1382 112.7908 111.5312 113.5357 106.7767 101.1329 114.2500 122.9765 115.0393 117.3415 123.2772 123.1030 116.2494 120.5810 121.9955 106.3060 121.5447 121.4159 121.2551 120.7177 121.9794 121.5628 120.4626 120.2970 120.1314 119.9850 119.8412 119.7294 119.2169 119.8251 116.9949 117.8926 118.9269 119.8044 104.9254 118.8198 119.6339 105.9422 119.1487 119.9837 119.8229 119.5241 119.7531 119.8815 120.0233 120.1899 120.3353 120.5039 120.9922 123.3580 111.7368 121.4940 121.3850 121.6901 121.8013 122.1400
126.1400 123.2744 125.7421 124.2042 116.6925 114.5831 114.6886 117.3833 114.0548 115.1831 114.0185 110.7957 102.4675 103.1355 123.2802 111.7684 107.9967 117.8268 122.9916 122.4070 124.0249 122.2666 122.3132 122.9767 121.3627 121.2923 121.4522 121.1776 121.0711 121.0128 120.7741 120.6149 120.4642 120.3186 120.1926 120.1132 119.3861 118.0702 110.7679 119.7210 121.5790 120.9964 107.0471 116.2347 120.8785 106.8616 120.6105 119.5843 119.8414 120.0067 120.1006 120.2246 120.3641 120.5074 120.6611 120.7971 120.8438 119.7231 121.4031 121.5533 121.7643 121.8980 122.0982 122.2100
126.3200 124.6993 120.1701 123.6712 114.4462 114.1572 113.3601 113.8638 115.1043 115.6716 108.5471 106.2045 105.6150 104.6063 122.3397 118.2237 122.6397 124.0828 123.3709 122.9988 122.6900 122.5418 122.3883 122.0799 122.2736 122.0076 122.7079 121.9406 122.1596 121.2181 121.0731 120.9238 120.7843 120.6487 120.5279 120.4512 120.1144 118.5298 116.7047 120.3605 105.2032 118.5432 121.1011 121.1858 119.6607 120.1350 120.0008 119.8154 120.1657 120.3577 120.4410 120.5555 120.6865 120.8229 120.9589 121.1038 121.5727 121.4274 121.7098 121.7663 121.9621 122.1352 122.3138 122.4800
126.3500 121.3533 119.4904 122.2672 117.0047 114.6962 113.8918 113.4124 111.1918 109.1455 107.1679 106.6231 102.6852 111.6309 124.3625 124.8771 124.5604 121.8604 123.0992 123.2133 123.0251 122.8423 122.6712 122.4576 121.6367 123.9084 108.4343 119.1688 121.5648 121.5066 121.3631 121.2256 121.0891 120.9624 120.8525 120.7657 120.5808 120.9656 120.1594 120.6573 104.7413 120.7570 122.2535 116.0240 120.4826 121.9263 107.9187 117.7329 120.6016 120.6999 120.7775 120.8830 120.9984 121.1261 121.2630 121.4077 121.5491 121.6874 121.8574 122.0178 122.2001 122.3703 122.5505 122.7300
126.5000 118.2221 121.2265 117.7445 116.1699 114.4922 118.5710 110.1160 108.8875 110.1367 117.7987 108.7589 106.2193 109.7351 127.2057 123.8125 123.8492 123.4403 123.5894 123.3425 123.2041 123.0322 122.9044 122.5903 124.2978 122.7285 108.4264 122.3179 121.8345 121.7819 121.6400 121.5107 121.3877 121.2694 121.1713 121.0770 121.0071 120.8741 120.3324 121.1678 121.1193 120.5841 124.0178 122.0159 125.6213 106.5162 122.2461 121.8823 120.9395 121.0207 121.0958 121.1953 121.3087 121.4197 121.5504 121.6786 121.8181 121.9725 122.1169 122.2752 122.3406 122.7288 122.6839 122.7800
126.5400 119.0763 122.0402 120.4650 115.1883 115.2100 111.2474 108.7572 111.6268 112.7254 117.1459 111.3799 120.2480 124.1056 124.3816 124.2754 123.9897 123.9369 123.7369 123.5385 123.4214 123.2378 123.1032 122.8106 123.6774 104.3686 113.8518 123.1842 122.1552 122.0265 121.9200 121.7931 121.6812 121.5684 121.4753 121.3868 121.2909 121.1742 122.0183 121.0109 121.0736 121.0236 122.4720 122.0283 110.7262 114.6771 119.6220 120.9296 121.2649 121.3189 121.4047 121.5030 121.6060 121.7126 121.8310 121.9559 122.0908 122.2272 122.3684 122.5108 122.6575 122.9950 122.8548 123.0500
116.5900 117.8674 121.5246 122.4054 114.4149 109.6765 111.5435 104.0366 115.8203 115.4138 110.2706 129.4227 115.1146 125.1899 123.9877 124.7900 124.3130 124.0053 123.9356 123.7861 123.6788 123.4365 123.2711 123.1210 123.1555 123.7861 121.3694 122.6983 122.4057 122.3236 122.1848 122.0715 121.9620 121.8593 121.7706 121.7216 121.2631 120.9141 111.3912 121.8086 121.5190 122.2958 101.7085 105.2054 122.2879 123.0591 114.0475 121.7277 121.5675 121.6712 121.7146 121.7962 121.8921 121.9916 122.1045 122.2180 122.3423 122.4759 122.6076 122.7794 122.7325 123.1412 123.1135 123.2800
126.7300 127.2923 119.9791 117.9208 105.2959 111.4684 113.8532 115.0746 115.8252 111.4401 105.7904 109.0315 112.5499 126.6633 124.6782 123.7578 122.7930 124.1663 124.1024 124.0026 122.4381 124.1203 123.0826 123.4680 123.3861 123.9908 121.9958 122.3530 123.0434 122.4992 122.4537 122.3433 122.2380 122.1399 122.0661 122.0110 121.4058 119.7068 110.2667 122.1490 117.2229 122.1674 107.5509 119.4751 121.9037 121.4330 122.6176 122.3434 121.8101 121.6378 121.9968 122.1079 122.1667 122.2624 122.3773 122.4827 122.6033 122.7174 122.8525 122.9758 123.2012 123.2447 111.8358 123.5300
126.9100 125.6654 112.8147 112.1709 113.6931 114.6517 115.1213 112.8603 111.6641 106.7760 103.5555 108.8362 118.9449 125.0719 124.8837 122.8419 110.8064 125.8029 124.2492 125.0404 117.1322 115.3208 125.1674 123.2878 123.4565 123.4965 123.1073 122.0021 121.7110 122.7002 122.6966 122.6016 122.5092 122.4270 122.3110 122.3322 121.9184 122.1227 121.4976 121.3254 99.4403 121.0887 103.7875 106.1652 122.5732 121.8716 121.9409 122.2448 123.0928 123.0012 122.5727 122.5086 122.3981 122.5366 122.6316 122.7397 122.8404 122.9716 123.0584 123.2029 123.1944 123.7790 122.5553 123.5900
126.9200 126.4309 113.1397 115.2931 118.2467 117.3296 112.3790 112.4640 104.9745 110.2000 107.9012 103.1696 110.6883 125.0968 125.3388 127.0941 125.0488 124.8719 124.4117 123.9356 120.6792 116.3696 123.3309 124.1064 124.0593 123.0601 123.4704 107.4575 121.4098 122.9753 123.0196 122.8706 122.7534 122.6560 122.8158 122.3907 122.3768 121.9006 118.6068 122.8521 97.8880 122.2396 124.0516 124.2929 123.3147 122.2416 122.3080 122.9961 121.7882 120.7835 117.6966 122.8215 122.7059 122.7853 122.8908 122.9893 123.1128 123.1473 123.4513 123.4440 123.8264 123.6976 124.3137 124.0300
127.1000 125.5119 121.4194 116.0059 117.9010 123.2392 113.0070 111.0997 110.2278 109.7232 107.5526 104.5214 120.4406 125.6849 124.6277 121.4617 124.5871 124.4593 124.6214 124.7256 124.4169 125.1310 125.2423 124.5849 125.3605 123.7635 125.4013 110.7434 124.8838 123.0582 122.7086 123.0205 123.1531 123.4202 120.6975 123.5389 122.6049 122.9131 122.4498 124.4855 107.8874 115.6524 108.0143 119.7404 123.3365 122.5044 122.6580 122.6339 122.9481 122.7130 122.5023 123.7328 122.8582 123.0455 123.1358 123.2342 123.3258 123.5817 122.9376 123.6486 126.2018 115.5280 123.4222 124.0300
127.1100 128.0614 125.1329 120.2607 121.7035 116.1998 122.6563 115.0224 111.4054 107.1779 106.2881 114.2202 124.4768 125.2112 126.5241 130.0336 125.1397 124.9093 124.7506 124.6304 116.0148 127.5125 122.5762 124.8483 117.2698 125.7762 105.8641 106.1420 123.2203 122.8625 126.3065 123.2473 122.8681 124.1201 109.3763 111.8614 130.6866 118.8477 115.0745 108.5360 111.3135 101.3709 108.9977 120.4912 122.5456 122.8188 122.8393 122.9227 122.9118 124.1633 111.9315 123.3493 123.1794 123.2628 123.3980 123.4716 123.5578 123.6582 121.3219 123.5259 123.4706 109.6743 126.2867 124.3200
127.2800 121.6179 121.0486 120.7324 114.6448 111.5772 116.9646 113.2727 108.6690 104.6616 103.3837 119.3557 128.3076 125.6955 117.7012 105.5884 120.7195 125.3562 124.9717 125.2767 120.3942 115.4901 129.5174 125.5515 116.4403 125.3858 104.6998 100.0967 124.1916 108.3113 107.8477 122.0931 126.1930 120.4724 107.2680 106.3907 112.8698 105.7051 123.6529 100.7458 109.1361 114.5926 117.5634 121.4910 123.1217 123.2214 123.2741 123.2041 123.2412 123.2767 124.0420 123.9652 123.4382 123.6353 123.5824 123.7867 123.7785 123.8038 124.7985 121.6998 122.8048 102.6929 126.0798 124.5200
127.2800 119.5501 117.7317 114.0180 114.0704 112.6156 111.8974 110.3284 109.3506 107.7942 108.1960 104.1750 126.4611 126.9619 122.4882 118.3942 125.2628 125.0817 125.1664 124.9698 124.9899 129.2194 122.6317 124.2874 125.2061 107.0418 111.1934 114.1205 112.5530 104.7931 126.4907 117.5585 121.8760 105.9860 111.6661 106.6495 107.1718 108.8761 104.5407 116.8786 120.9638 122.9426 123.5663 122.7160 122.7508 123.0501 122.5653 120.4858 123.3725 123.4627 123.4728 123.5020 123.7169 121.3563 124.8036 123.9105 124.0063 124.0923 125.3114 113.3808 125.2852 130.5823 123.6434 124.7200
127.4600 122.4730 115.4609 117.6661 115.0375 112.4497 111.3908 112.8103 107.3303 108.1952 108.3873 123.5838 119.4467 112.1931 127.7722 126.2460 124.9932 126.0610 126.3681 124.9250 124.7492 128.1886 115.3657 126.0876 124.3283 124.3001 128.0442 124.5544 124.1926 125.4255 125.5215 104.6287 112.7789 112.7478 114.3094 109.3094 123.1195 101.7324 110.5468 110.3587 122.8989 123.4464 123.8442 126.9943 128.9580 123.5836 123.2079 124.4383 124.1954 124.4361 123.7443 123.9806 123.7789 124.4479 124.5109 124.1685 124.2189 124.3218 124.3974 120.7838 125.8196 123.8467 124.8607 124.9100
127.6000 119.9384 116.2000 116.7565 113.4843 112.1693 111.9300 111.7998 105.5562 107.7330 108.5429 110.6410 104.2239 120.6507 127.4619 124.7955 126.8794 114.2693 119.7419 126.6055 124.9994 124.5581 120.0343 121.7424 124.9925 124.8035 123.9263 124.5614 124.5305 110.3346 117.4802 103.8680 124.1281 124.8379 108.8416 116.7240 125.3515 114.9064 122.3145 124.4067 123.9829 124.2732 118.0836 116.5948 127.9247 107.8256 124.4698 118.1462 122.9060 114.7205 124.4808 124.0837 124.2085 124.1633 124.2686 124.3559 124.4410 124.5379 124.5207 125.3415 124.8553 124.9170 124.9698 124.9600
113.0900 112.6935 114.5491 114.3561 112.0146 112.1605 112.3120 110.0399 106.3739 105.3491 107.9346 107.2434 103.5069 127.2580 125.5597 104.5763 127.1485 125.4605 126.6269 124.6388 125.5831 124.9011 128.8532 127.8570 124.9744 124.9272 125.5740 124.4206 125.3749 126.4796 110.0395 111.6212 125.0376 124.5667 118.8848 125.9840 123.9995 125.6850 118.0574 124.1148 124.1047 124.1339 124.4856 111.3642 111.4218 125.1522 125.4777 114.4882 123.8638 117.0407 124.0048 124.3636 124.3786 124.4520 124.5243 124.5844 124.6441 124.7251 124.8156 124.7979 124.9922 125.0688 125.1679 125.1600
114.0200 113.7121 114.1103 113.9917 114.4304 112.2417 113.1956 109.2920 111.1483 108.4451 107.5578 114.2799 129.2992 126.2878 126.8696 126.1667 122.1643 104.7649 128.0064 127.2642 123.6335 127.0357 122.0345 123.4686 125.0834 126.4610 120.4012 127.5449 113.7546 107.5439 106.3568 115.7552 125.0248 124.7134 125.1444 124.2609 124.3550 122.5501 122.9870 124.2590 124.3866 124.3666 125.5586 109.6069 126.3830 124.1645 124.0280 121.4822 123.9306 124.0657 124.7419 124.5624 124.6065 124.6542 124.7176 124.7833 124.8556 124.9291 125.0040 125.1057 125.1702 125.2578 125.3467 125.3700
114.8800 115.0646 114.0377 115.3615 111.2180 111.0348 112.1592 106.1540 108.3256 104.0378 105.1466 112.3597 128.2193 126.4760 126.2513 125.8405 128.7757 121.7498 119.8817 125.9858 127.6417 126.6982 121.7015 125.7736 124.9643 128.2758 101.0961 117.2157 116.2792 110.8321 105.9000 126.8564 124.6993 124.8525 124.6845 124.7539 124.6722 124.7853 124.5744 124.6514 124.4789 124.8898 124.5037 125.2745 125.0948 124.3731 124.7461 124.8095 124.9367 124.5294 124.6151 124.7659 124.8170 124.8658 124.9240 124.9904 125.0545 125.1253 125.2009 125.2765 125.3544 125.4433 125.5308 125.5600
127.9600 115.3792 113.8669 113.5298 112.4467 113.9866 106.2439 110.9812 107.4532 106.1380 113.2010 126.9843 126.5461 126.5614 126.5228 126.5044 125.9448 127.5329 131.2341 112.6058 102.7373 105.7210 113.9052 125.9206 117.5351 105.5007 109.1382 107.0110 119.6678 116.9844 121.0022 124.7137 125.1148 125.0225 124.8467 124.6803 123.5950 125.0929 124.9562 124.6382 124.6152 122.7745 124.6593 124.6111 124.6307 124.7929 124.7923 124.8045 124.8325 124.9496 124.9678 124.9817 125.0209 125.0725 125.1251 125.1830 125.2512 125.3234 125.3874 125.4688 125.5458 125.6215 125.7091 125.7300
119.2100 113.6698 114.5138 114.2621 113.3200 114.1699 110.0839 111.6940 111.8990 122.7667 128.9538 127.4823 126.9294 126.8329 126.6773 126.6278 126.4492 126.9641 117.3352 117.7057 107.4343 104.0502 112.5318 124.8184 108.3968 114.2819 127.7923 124.0825 106.3504 118.4649 126.0891 125.3449 125.2344 125.2261 125.0877 125.4067 121.5218 125.1758 124.3538 125.3705 108.2609 125.0309 124.4936 125.1084 125.0588 125.0194 125.0277 125.0565 125.0706 125.0905 125.1284 125.1785 125.2299 125.2702 125.3318 125.3861 125.4422 125.5116 125.5736 125.6498 125.7184 125.8005 125.8823 125.9400
116.1600 115.3186 113.3325 114.1495 111.6338 110.6095 114.6508 112.0649 115.6552 108.6367 127.3746 126.6287 126.9901 126.9573 126.8531 126.6502 126.0355 130.5696 128.8293 116.6531 104.9616 121.0231 104.9351 105.6386 102.0661 121.8015 124.6708 126.8126 108.6700 133.5432 124.8731 125.5252 125.4517 125.1398 127.3624 110.9230 121.7855 123.3940 131.2942 125.2553 110.2519 123.0715 125.1072 125.2109 125.2011 125.2161 125.2363 125.2582 125.2782 125.3152 125.3430 125.3797 125.4226 125.4700 125.5144 125.5671 125.6509 125.6898 125.7578 125.8308 125.9017 125.9717 126.0503 126.1200
116.1900 114.5343 114.6498 112.6254 112.5424 115.2440 117.5911 119.4763 122.8994 120.2409 125.0293 127.7755 126.5169 127.0916 126.4383 126.8462 127.7878 123.0786 106.1455 111.2224 125.4295 128.5256 112.7147 109.0638 125.2468 99.3105 114.1886 108.5420 113.3668 125.8496 125.9027 125.6124 125.7190 125.4944 125.8745 121.2341 106.4773 107.2405 128.1146 124.7926 116.4331 125.5829 125.2532 125.4488 125.4221 125.4240 125.4367 125.4546 125.4768 125.5082 125.5433 125.5815 125.6183 125.6596 125.7247 125.7855 125.7096 125.8838 125.9560 125.9860 126.0881 126.1442 126.2446 126.3100
116.0100 114.8269 114.9155 107.2368 115.5416 113.0947 117.7081 119.7408 111.4786 130.2245 123.0847 114.4688 129.5771 127.5215 129.0394 129.6917 127.0125 126.7948 119.4790 130.2451 128.5930 111.9892 125.1596 124.2252 127.0283 118.7159 102.7883 106.4643 125.4512 127.4022 125.7446 125.8854 125.8470 126.6271 111.7247 105.1072 106.8066 109.1665 127.2271 125.9474 126.6622 125.5154 125.6265 125.6160 125.6112 125.6225 125.6326 125.6561 125.6989 125.7090 125.7406 125.7704 125.8123 125.8456 125.9121 125.9279 126.5003 126.0154 126.0212 126.3639 126.1362 126.3393 126.4794 126.4800
116.3500 120.1871 117.8574 111.7223 118.1342 118.2633 121.6344 130.4555 116.8123 125.4365 114.2807 108.3983 121.9550 110.4901 117.5851 127.4953 126.6336 127.2838 117.8701 122.2585 126.4247 110.4388 120.1759 120.2177 121.3226 111.3403 128.5467 120.3853 126.7266 116.7805 126.0399 126.1020 126.0245 126.7133 127.0539 123.0077 115.9005 128.4299 125.4979 125.7741 125.7115 125.8168 125.7923 125.7219 125.8163 125.8189 125.8297 125.8211 125.7277 125.8427 125.9176 125.9638 125.9995 126.0375 126.0971 126.4202 118.8348 126.0641 126.9421 125.0924 127.4059 126.5991 127.2080 126.6500
119.8200 115.3015 114.6721 120.3214 125.3878 127.7964 128.9496 120.7447 126.5161 113.8142 104.0058 111.7634 106.3507 111.2044 130.0672 128.9726 126.9374 128.1979 115.7995 121.1188 118.8644 103.0957 110.6638 110.2946 105.2159 106.0972 111.1448 122.9858 124.4613 121.9397 126.6900 126.2417 126.2009 125.9056 125.7578 126.6714 127.0466 125.8352 124.8789 126.0003 125.9458 126.0016 126.0775 126.3526 125.9605 126.0126 126.0357 125.9036 126.6177 126.4267 126.1232 126.1407 126.1600 126.2158 126.3078 126.8742 123.6888 127.1880 122.3647 119.3955 125.4025 126.1111 127.0750 106.8400
128.7200 130.1518 122.2163 119.4155 128.0184 128.2935 128.1900 127.9676 118.1278 114.0619 116.2115 105.7328 112.5912 126.2473 129.5115 127.4354 127.1831 127.1658 115.2784 106.1909 113.9633 104.8784 105.8979 107.0314 122.4006 124.6948 116.9054 120.7398 126.8138 126.8742 126.4045 126.4928 126.3783 126.4292 126.4593 126.2377 126.1899 125.2857 123.5521 125.8588 125.9761 126.2214 126.5744 120.8811 126.7947 126.1124 126.2334 126.0135 125.2497 120.4198 126.5165 126.4243 126.3898 126.3178 126.2274 126.4509 126.8058 126.7156 110.2877 126.5994 125.2864 129.3736 124.7602 109.0300
128.8400 128.9907 128.6780 129.2047 128.6064 128.3269 128.1649 129.1124 125.5965 118.3137 129.9540 126.4801 129.0071 135.5943 120.8863 126.3253 127.7190 124.9719 117.4390 126.7481 115.6895 105.3561 105.4905 107.8940 127.7864 128.3477 125.9728 127.6281 126.6427 126.5581 126.6029 126.4835 126.5608 126.4873 126.4462 126.4420 126.6036 127.3157 113.7620 126.6824 125.6672 126.4367 126.9077 119.0643 127.3396 126.2172 126.4050 126.0937 124.9725 113.8177 126.8265 125.7891 126.6015 127.1164 128.1300 126.5591 126.6689 126.8719 125.5896 128.8234 127.6780 114.7889 111.3258 109.0300
128.8700 128.7714 128.7495 128.5777 128.6642 128.4606 128.5551 128.0449 128.9328 128.0245 127.7206 125.1317 113.4499 116.3486 105.5403 112.6587 117.4114 117.3659 122.7812 128.1682 116.8304 106.5248 110.8479 108.3197 123.4173 126.9492 117.3709 126.9150 127.1148 126.6659 126.8360 126.8214 126.6887 126.7494 126.6747 126.6713 126.2768 127.5696 102.5216 126.5196 125.9676 126.5851 126.5542 126.7934 126.8024 126.5005 126.5572 126.4751 127.4762 110.6252 125.0884 122.2664 126.9122 127.9281 110.9034 128.2768 126.6878 126.8434 128.5280 123.1146 132.0146 104.2282 122.2607 109.0200
129.0000 128.9710 128.9361 128.8019 128.7227 128.6392 128.5268 128.5000 128.2669 128.3243 128.0032 129.8853 115.9221 107.8836 116.1841 112.5322 113.2558 106.2821 123.8302 128.0383 115.8848 106.2866 113.4262 107.0634 116.9006 129.4679 127.5118 124.7687 122.1479 125.1099 126.8434 127.0505 127.4306 126.8654 126.8656 126.8086 126.9084 124.0631 109.5584 125.9448 126.3806 126.7528 126.7435 126.6342 126.6365 126.7123 126.7429 126.7930 126.4741 127.4197 127.6634 127.2581 127.0678 127.6290 107.6177 129.3519 126.9703 127.1398 129.3906 104.7873 121.9925 119.4990 107.5159 108.5900
135.2800 129.0400 128.9600 128.8900 128.7900 128.7100 128.6400 128.5500 128.4700 128.3900 128.3000 128.2200 128.2200 128.0500 128.0600 105.9900 105.8800 107.7000 127.7200 118.1600 118.1800 107.0800 127.4500 127.4600 127.3700 127.2700 127.3000 127.0900 106.1800 133.0200 127.1300 132.3600 127.0300 126.9100 126.9200 126.9400 126.9500 126.8200 104.8300 126.8400 126.8500 126.8500 126.8500 126.8500 126.8500 126.8400 126.8400 126.8300 126.8100 126.9500 126.9300 126.9200 127.0500 127.0300 127.0100 127.1300 127.1000 127.2100 127.1900 109.8300 127.0600 105.3700 106.8500 106.8500
