121.8100 125.2100 119.2800 121.9300 121.7300 121.7300 121.9300 125.3400 124.8600 124.1800 125.5300 108.6100 108.6100 104.5500 104.5500 109.5100 104.3200 115.2800 117.6600 114.4200 114.4200 107.6800 115.9500 115.9500 113.5400 113.2900 110.5500 109.1700 107.0900 105.2100 105.7900 103.3900 125.2300 103.2500 125.2800 125.2800 105.4000 105.0500 125.1300 125.1300 125.1300 127.4100 125.1200 125.1100 125.2800 125.2600 125.2500 125.2300 125.3900 125.3700 125.4800 125.4800 125.4600 125.5900 125.7200 125.6900 125.8100 125.7900 125.9200 126.0300 126.1300 119.9400 126.2300 126.1900
121.8100 123.2987 124.2633 122.2732 122.5630 121.6839 121.8635 121.2578 125.2567 125.7254 127.3950 118.6837 102.4016 106.1003 110.5377 104.0638 112.0380 116.8081 117.0246 114.3324 112.5978 106.0982 110.4303 116.6323 115.6522 109.6435 111.4210 106.8129 104.5523 105.9034 105.8908 103.7198 115.0234 103.1212 120.5301 120.9224 103.7976 101.7921 119.6061 125.0674 118.6460 123.9119 124.9200 125.0672 125.0675 125.0884 125.1090 125.1200 125.1612 126.0881 123.1835 126.6310 125.3379 125.4498 125.5178 125.5808 125.6495 125.7400 125.8212 125.4870 124.4794 126.1698 125.8685 126.1500
115.4200 123.5521 125.0263 127.3690 123.0716 123.7380 120.4600 121.3746 121.3780 121.1627 116.8038 112.7304 121.5685 117.8014 107.4756 118.7857 117.3301 112.5714 114.5802 114.1506 116.5436 103.5229 108.2843 111.6111 111.0621 109.3179 104.9860 105.1980 117.8557 113.8785 105.2006 111.5669 117.6943 117.2316 108.7291 107.9508 114.4118 116.1827 119.1086 124.2743 120.3480 124.8292 124.7292 124.8365 124.8547 124.8734 124.9686 125.2148 125.5054 116.2685 113.3999 126.1357 125.1313 125.2479 125.3306 125.4181 125.5518 125.5322 125.5778 125.5698 125.6888 125.2965 123.9721 125.9800
115.4200 117.5727 124.8906 124.7295 125.6123 124.7346 123.0152 117.6015 119.9554 120.6038 122.2713 120.7169 119.4689 102.1792 118.2284 122.3470 117.6013 114.0202 126.9569 114.9973 108.0000 111.7235 114.0407 111.2879 106.2753 117.7577 116.0194 110.1436 108.6780 106.4120 104.9985 111.1478 124.1097 118.4027 103.8194 125.5401 124.0886 112.7457 127.1282 125.1323 133.3234 124.2258 124.5462 124.6285 124.6166 124.8196 124.8171 119.6102 124.5071 117.5274 124.8960 124.6083 124.9351 125.0348 125.1877 125.3039 125.3042 125.6738 124.2642 127.8973 129.6698 125.8313 103.4875 103.8200
124.4100 122.3437 112.6631 129.6522 125.8581 125.4219 125.6479 123.2523 122.1221 122.9264 119.8828 117.1962 115.3370 113.6721 113.6921 117.4506 121.6192 125.8280 111.5479 112.6419 117.6151 118.2204 110.4739 109.0113 111.9484 107.4357 109.1473 103.6687 106.5313 109.7349 107.9698 111.8981 125.2858 125.5988 112.2121 120.4163 124.4116 120.9449 124.4302 124.2524 124.5086 124.3915 124.3760 124.3926 124.4054 124.5143 124.7271 118.6397 125.2200 116.5914 118.3672 125.3433 124.7344 124.7740 126.1967 117.0202 126.1010 126.3885 107.1903 114.0643 105.2940 103.8568 119.3269 111.3400
122.2200 123.9316 123.9110 120.0465 122.3391 117.6948 117.8199 121.7364 119.2149 115.9130 118.1888 116.9976 118.1939 109.8762 108.1411 115.6628 112.4690 124.0239 118.1797 113.8409 116.3584 114.7448 114.0460 109.0869 108.6415 105.9601 104.4772 105.9405 117.1512 112.9620 123.5697 118.6650 124.4338 123.1010 125.1982 125.5065 124.3569 123.9076 124.2378 124.1364 124.1734 124.1240 124.1483 124.1655 124.1852 124.2673 124.3534 124.9770 123.4370 104.2160 105.8351 126.3634 124.4851 124.5517 125.4662 118.5559 122.9412 124.2290 112.6023 126.4388 120.7027 117.4748 120.1707 125.4200
121.1200 122.3853 123.9223 113.5866 115.1525 118.3294 117.1217 117.6085 116.5642 116.4515 120.8181 119.6373 114.0505 104.3363 115.5001 111.1863 112.0521 123.8195 109.0953 103.2493 115.3564 114.8520 108.5537 110.2543 107.1657 104.8401 104.2184 105.5686 102.5670 111.8634 104.8645 120.6074 122.3481 117.9537 116.8054 123.5702 123.8698 123.8799 123.9216 123.8860 123.8737 123.9007 123.9097 123.9309 123.9449 124.0211 124.2204 122.5048 122.7812 117.9388 126.8191 123.9570 124.4033 124.3351 124.5253 125.3679 124.8963 107.6787 120.4143 122.7122 128.9830 118.2540 125.9079 125.3900
119.1300 121.9950 104.9287 111.9103 120.1317 113.9753 117.4328 117.9213 116.8961 116.7112 115.0446 115.4778 117.3430 119.0110 116.6881 104.4737 122.2082 125.5492 126.3949 112.3826 108.1699 107.3879 110.2973 108.2912 107.6590 108.7901 106.2288 100.0284 105.9104 111.2063 102.7253 126.1949 123.9688 121.8472 123.1239 123.5331 123.7582 123.6619 123.6398 123.6416 123.6484 123.6492 123.6735 123.6713 123.6882 124.0772 122.7555 118.9064 122.5656 113.3054 123.1430 124.1198 124.0321 124.2724 124.3300 124.1654 125.1382 124.4913 124.6372 125.7872 126.6875 123.5035 125.7985 125.2200
114.6500 119.9503 125.9006 119.4071 113.5058 120.4170 115.9290 117.2278 117.8063 116.4685 115.2006 117.0669 117.0389 119.4685 112.9618 105.7842 109.1746 117.4662 112.6926 108.0257 110.7536 104.1466 106.5024 107.2883 104.5290 122.9582 115.4708 109.8652 120.9792 115.2546 123.8461 121.5837 123.5090 123.0800 120.7000 123.3402 123.4648 123.4216 123.4069 123.3934 123.3927 123.4059 123.4210 123.4297 123.3428 123.9137 109.2973 123.8388 130.8966 122.9735 124.8856 124.1940 124.6736 124.4570 123.8444 124.8977 124.1974 124.2493 124.4073 124.5294 125.0669 121.0181 124.8138 125.0200
113.6300 114.2598 120.8425 121.4894 120.4207 123.8734 114.7691 116.2561 117.3836 116.1686 115.9427 118.5789 118.3716 119.6495 112.3062 109.5681 115.1502 117.2227 113.3405 106.4071 125.8228 113.9540 104.8634 102.5770 107.1199 124.2416 120.2776 119.7397 123.6651 122.3127 123.3792 123.3924 123.4046 123.3364 123.5367 123.2138 123.1943 123.1643 123.1410 123.1351 123.1378 123.1442 123.1704 123.1799 123.1649 124.4741 121.7604 123.4620 121.3423 123.5487 122.3986 108.6861 123.6623 118.8626 124.1703 118.4538 118.1611 123.8815 124.3966 124.4184 124.5786 124.8774 124.7047 124.8000
119.3900 111.6162 114.8886 121.3627 120.9835 114.4294 113.6654 109.6682 117.3762 117.2218 117.8002 119.1362 119.7225 118.3734 116.0706 113.0103 113.1268 110.9665 110.6532 113.8968 124.6191 108.5813 106.9297 108.0459 110.1881 123.5986 122.2727 121.6802 123.4144 123.4387 123.2135 122.9819 123.0691 123.1970 122.9529 122.9408 122.9242 122.8930 122.8751 122.8735 122.8737 122.8877 122.8962 122.9324 122.8725 122.8448 123.0917 123.1614 123.4719 123.1064 124.6509 124.5226 121.9487 124.6794 126.6459 107.6685 120.6489 124.3046 124.1256 124.2253 124.2926 124.4447 125.2432 124.7600
120.8500 121.1187 109.5458 117.1594 122.4209 117.4851 117.3115 111.2728 113.7511 111.2294 118.9647 115.8672 114.3562 111.3080 111.2335 117.2433 110.5739 111.2196 110.4269 105.2522 126.9185 112.9918 117.1237 102.5462 108.6848 122.1124 123.6059 123.1202 123.1546 122.9259 122.9777 122.7256 122.9976 120.5366 122.9183 122.7376 122.6510 122.6607 122.6136 122.6010 122.5966 122.5996 122.6133 122.7526 122.4366 123.3342 122.7969 122.8369 122.8718 122.9692 122.8134 123.3108 107.0867 121.8292 117.5401 109.8491 124.6010 123.3582 123.9255 124.0202 124.1043 124.5942 120.0169 109.7600
119.1900 122.3513 115.2782 113.9576 115.3234 116.0502 115.6758 117.8244 114.5272 115.0669 117.3142 114.6493 114.4230 109.6998 109.9967 113.6286 116.2075 120.4134 103.8309 109.4079 106.9659 106.7020 123.1496 115.2669 122.3435 117.4663 122.7679 123.2201 122.8361 122.7712 122.7073 122.3696 123.8632 112.5471 122.7501 122.4602 122.2897 122.1859 122.2808 122.2975 122.3175 122.3406 122.0918 122.7479 109.3347 123.6629 122.5035 122.5662 122.6521 122.7178 122.7868 123.3730 124.0133 123.5644 122.7429 117.7675 124.3375 123.7243 123.6657 123.8204 123.9626 125.1296 119.8287 109.7600
119.1600 115.4719 120.8199 122.7374 117.4966 111.8700 115.3767 111.1879 113.1820 115.5533 102.4614 114.7140 113.1506 114.3528 114.0271 113.4410 122.5964 105.6815 105.0384 101.3409 106.6161 116.7373 124.3646 123.8559 121.7537 121.1570 123.3499 120.2428 123.1021 122.4939 122.4505 122.3365 122.5181 122.0322 122.3492 122.1590 121.8448 122.5763 122.3672 122.0888 122.0215 122.0312 121.9511 123.2248 123.0116 122.1052 122.2914 122.2884 122.3775 122.4563 122.6052 122.5514 122.6729 122.6247 122.8185 116.4943 123.5984 123.3060 123.4678 123.5978 123.7799 123.4056 118.1403 124.0800
123.7800 121.5476 115.5290 121.6790 116.2737 112.5848 108.8826 109.5170 115.8481 119.8948 110.2949 105.3093 113.7914 112.2719 113.3610 112.9918 118.3367 110.9930 115.2189 104.4054 107.0862 119.6845 122.5930 122.6805 123.1277 122.8855 122.4846 111.3626 110.7718 122.4216 122.1503 122.1247 121.7545 123.1433 121.8763 121.9247 121.6635 120.2806 116.1764 121.5475 121.8382 121.7326 121.6685 121.5173 121.6660 121.9120 121.9441 122.0227 122.1005 122.1892 122.2711 122.4042 122.5031 122.6230 122.4236 122.8379 122.7360 123.1478 123.2647 123.3993 123.6372 123.1921 124.7363 123.8700
126.1700 122.7599 121.0129 115.1462 121.6695 109.3659 112.8588 107.9664 106.3609 114.5874 115.2499 106.7465 103.3787 112.5395 114.2483 112.7766 111.0483 100.4836 103.7397 104.2260 110.7317 105.5403 126.1763 122.5107 122.5861 122.4639 122.1113 124.8529 121.1113 123.2298 121.8698 121.7963 121.7437 121.4662 121.5783 121.3913 120.8040 120.0859 115.5988 121.5749 121.4988 121.4211 121.4795 121.5483 121.5604 121.5805 121.6574 121.7319 121.8145 121.9116 122.0148 122.1194 122.2380 122.3587 122.4773 122.6840 122.7549 122.8961 123.0465 123.1959 123.3449 123.5169 123.5975 123.6300
126.1300 126.1139 126.7134 122.5128 113.0243 113.8128 111.7349 105.0123 109.6699 107.9055 114.5872 113.7563 107.6771 108.0196 114.9831 105.9828 105.9784 105.5817 100.1381 113.0548 115.9077 102.2653 107.9668 122.3897 122.4501 122.0236 122.1151 121.5686 121.9327 121.6105 121.6141 121.5084 121.4067 121.3537 121.2785 121.5077 123.0869 122.2031 115.8157 111.7713 121.8104 121.0659 121.0920 121.1463 121.2214 121.2763 121.3350 121.4266 121.5519 121.6214 121.7278 121.8530 121.9727 122.1005 122.2469 122.3700 122.5237 122.6739 122.8253 122.9798 123.1376 123.2964 123.3743 121.2900
125.9700 125.6421 126.5102 115.4357 117.9479 113.1509 113.9028 112.8906 111.0301 111.7827 104.0052 111.6862 113.9704 106.6728 110.1698 112.5663 102.6814 102.4111 107.5332 105.7466 108.0514 122.0300 120.4297 123.8563 119.5749 123.8494 121.0277 122.7567 121.5463 121.4230 121.3023 121.1978 121.1043 121.0100 120.9530 121.3745 109.7454 105.1161 112.6415 120.9630 120.5544 120.4611 120.7539 120.9127 120.8041 120.9293 121.0937 121.1502 121.0366 121.3188 121.4488 121.5615 121.6960 121.8392 121.9752 122.1243 122.2775 122.4362 122.5981 122.7659 122.9300 123.0803 123.3604 123.3600
125.9200 125.3383 125.4081 116.5409 114.9258 115.6335 117.6255 113.3385 112.2389 111.8788 110.8540 110.2105 113.8243 116.6724 106.8576 108.2957 110.6388 103.8181 114.4135 108.0207 99.1940 119.9508 120.0118 120.9560 116.2701 122.7005 105.1625 120.8741 120.2443 121.2209 121.0067 120.8765 120.7784 120.6659 120.7129 120.1537 122.3348 103.4978 116.1513 117.3575 115.3574 120.2993 120.4202 120.1111 121.2802 120.8439 120.4788 120.5357 121.9387 121.1377 121.1369 121.2529 121.4207 121.5658 121.7180 121.8776 122.0367 122.2043 122.3765 122.5493 122.7166 122.9087 123.0522 123.0900
117.0700 118.7389 121.2591 114.8410 116.1240 116.2492 117.3688 107.7282 110.1048 112.9100 116.7508 108.1248 107.8311 118.2911 117.4144 103.7728 110.9115 102.4125 111.5053 115.4806 123.1110 118.6066 122.3789 121.2489 123.5299 117.9340 104.9818 114.9937 106.1753 122.3017 120.6440 120.5485 120.4499 120.4362 119.5991 119.9640 121.8936 104.2109 107.7965 111.6257 115.4096 112.2406 120.6864 122.0878 112.0148 119.7436 121.7380 120.9878 108.1630 121.4992 120.7300 120.9681 121.1297 121.2858 121.4506 121.6158 121.7863 121.9598 122.1429 122.3219 122.5103 122.6330 123.0978 123.0600
116.7900 118.5248 119.3143 118.4882 113.3876 106.0812 115.0918 117.4195 115.2918 109.2287 112.3276 111.8052 112.6276 108.9174 112.3083 112.9301 106.0123 102.1403 117.4696 114.1929 121.8254 108.0293 122.8570 122.0309 118.4624 96.9830 103.7913 116.9786 114.4736 122.1633 120.3375 120.2085 120.1039 120.0173 120.6897 126.4476 97.9407 116.8154 97.9541 108.7312 107.1945 105.0206 117.1303 105.3440 110.2218 121.9392 103.9645 109.1757 103.6986 122.9320 120.5679 120.6546 120.8373 121.0080 121.1761 121.3558 121.5356 121.7221 121.9150 122.1058 122.2938 122.6204 122.6585 122.8200
116.7600 119.7045 119.0199 117.1394 114.5390 118.9541 111.4530 112.6477 114.5170 106.8948 110.9875 111.8194 113.0031 111.7121 105.6010 114.0450 113.1052 105.7704 115.8382 116.5041 123.1178 122.0242 121.5228 121.4070 107.2432 107.0496 101.1841 117.8644 120.1346 120.1697 119.9724 119.8583 119.7384 119.5586 119.6220 114.4253 111.3312 119.8295 100.5300 103.7790 105.8862 112.7287 123.3598 104.6562 111.7910 117.4328 109.6721 122.8013 104.9218 125.0206 120.0554 120.3590 120.5327 120.7156 120.8900 121.0870 121.2720 121.4769 121.6763 121.8774 122.0574 122.1551 119.0058 122.7400
120.1300 109.6808 113.5852 111.1836 117.0434 115.6225 110.6386 115.6512 111.6489 107.7943 106.4003 105.6269 103.6701 105.0387 110.5459 107.7771 106.9318 111.4753 105.7201 121.3718 121.9392 121.3000 120.2058 100.5599 114.3317 110.3750 104.9077 121.9015 120.0859 119.4391 119.8389 119.1672 119.3931 119.0025 120.2983 115.8997 123.2607 116.4162 103.1235 97.0679 100.9539 112.3989 112.7933 106.3060 99.8093 100.8109 119.6419 120.7645 114.6346 120.8157 119.8640 120.0461 120.2253 120.4219 120.6113 120.8501 121.0407 121.2936 121.4088 121.6491 121.8690 122.0449 122.5836 122.5000
120.1300 102.8535 107.1486 117.6353 115.7166 110.5638 110.9470 110.2497 108.5278 111.3634 110.9023 104.7159 104.5251 102.9482 109.7901 104.0002 111.4350 110.4967 103.9790 108.7322 121.2143 121.0301 122.1813 99.6434 116.4707 116.7070 109.3242 114.2051 119.4822 119.4956 125.7081 119.1408 119.0260 118.7721 119.7106 113.7482 118.6461 118.9253 109.3527 103.1818 103.7069 101.5575 98.7984 104.0392 117.4742 109.5450 116.3683 119.4625 119.7731 119.3149 119.5117 119.6858 119.9196 120.1015 120.3581 120.3265 120.8041 120.6269 121.3004 121.4199 121.6499 121.8367 122.0853 122.1700
118.2700 115.6160 117.0490 112.7005 117.3388 115.7573 109.5649 110.5293 114.7576 108.0075 109.2588 115.6301 107.7655 101.1686 101.6080 104.7702 107.9226 113.2174 118.9569 122.6483 121.3718 120.9472 120.3511 108.6654 107.1947 124.7055 121.9009 116.6279 119.5123 118.4392 119.1992 118.4430 118.6035 118.1611 119.8945 101.5606 120.0364 117.9162 106.1513 110.4001 110.3815 102.2677 113.1504 118.5273 120.1688 118.6128 118.1399 118.8283 118.6695 118.9991 119.1511 119.3416 119.5755 119.7255 119.8082 120.1428 125.0600 120.8203 120.8292 121.2077 121.4288 121.6763 121.8948 122.1700
114.1100 114.5863 115.6176 117.1625 113.5929 109.0308 107.8533 107.7072 111.1031 113.4510 109.5082 112.1278 104.3682 100.7128 100.2597 109.7748 109.7663 104.2966 118.3011 121.0341 120.9471 120.4467 120.7999 121.1353 116.0129 103.0416 115.7311 118.1895 119.0954 118.7288 118.5605 118.4183 118.1791 118.0952 108.7079 118.2062 118.2385 117.5897 116.7515 113.4987 109.7953 95.4972 122.8419 117.7087 118.1591 117.4455 118.0353 118.2042 118.3873 118.5715 119.1436 119.3260 119.3077 119.4937 119.8847 119.8891 121.1452 121.2080 120.8573 120.9266 121.2276 121.4615 121.7053 121.8400
113.7600 112.7081 118.5525 112.6926 113.0427 113.1695 113.1036 103.0240 99.1064 114.2674 107.7971 112.0383 107.8152 99.8444 100.1409 102.1248 104.9844 110.8399 120.1585 120.4492 120.4876 121.4177 119.7609 119.9344 119.2891 119.4499 118.3027 118.8559 118.6737 118.3752 118.1562 117.9343 117.7218 118.5583 113.9686 117.3711 116.9154 117.1689 113.6059 97.9498 97.2961 94.2670 117.6155 117.1044 117.2792 117.4109 117.5735 117.7785 117.9431 118.2035 116.4257 111.8550 119.2464 119.1505 119.3922 119.7490 120.4503 111.6787 116.6078 120.7827 121.0258 121.2490 121.5165 121.5700
114.1800 113.8970 118.3768 111.3883 111.5085 110.6392 112.8895 106.8131 106.5377 106.5702 106.3732 106.5924 106.9861 104.8395 101.7388 103.3798 103.6241 113.3276 120.3138 121.2366 120.2929 119.5577 105.8994 120.4276 121.5280 102.9123 115.6776 118.9043 118.1928 118.0147 117.7496 117.5025 117.3526 116.7980 117.0840 110.4114 116.9234 116.4703 116.6815 117.5924 108.5399 114.7802 116.2365 116.6460 116.7441 116.9244 117.1096 117.2928 117.8017 117.4842 118.9254 118.2242 119.0809 118.8182 119.0322 120.0652 114.5133 129.3293 119.6088 120.6845 120.7726 121.0596 121.3235 121.5000
114.1000 113.8997 113.4301 111.9647 111.5353 110.5381 110.2228 107.6502 106.7824 110.8873 104.3866 100.8338 102.7897 105.4666 107.1110 100.7436 100.1826 113.0620 123.8717 107.0195 121.9816 118.6883 121.1144 96.8831 120.7135 117.7294 119.8868 117.7938 117.9268 117.6051 117.3109 117.0854 116.7929 116.5940 116.6886 116.6566 116.5038 115.9423 115.4970 115.4376 107.2998 115.6535 115.9264 116.0707 116.2300 116.4178 116.7382 111.1173 116.7563 117.3897 117.5758 117.9714 118.1710 118.5012 118.8535 119.1423 119.1392 120.1551 119.6605 120.3176 120.5855 120.8313 121.2444 121.1800
122.2800 121.7788 121.2505 112.9275 111.6072 112.8502 112.2024 108.1081 107.8188 111.4774 105.8473 105.0573 104.5510 102.7813 123.4562 112.8478 107.2635 99.9569 122.5556 121.4853 100.8401 96.9797 101.9272 114.2700 120.8127 118.6565 118.1433 118.1191 117.4556 117.2102 116.8941 116.4527 116.4734 116.4479 115.5785 115.6341 115.3415 115.4020 113.5524 115.3481 114.8578 114.8460 115.2572 115.4842 115.6529 115.8840 116.3555 115.2942 117.4174 116.9779 117.2695 117.5782 117.8971 118.2153 118.5286 118.8166 119.2150 119.5081 119.8633 120.0521 120.3820 120.7113 118.5900 121.1500
121.8200 121.4868 120.5116 117.4897 110.7928 110.2916 109.7200 110.1337 109.7921 108.3572 105.1402 102.8480 113.4411 113.1631 102.9736 118.4453 124.1027 121.6565 120.9184 121.0259 120.3861 109.8862 102.0075 96.4123 114.4370 117.8930 116.3701 114.1311 117.1360 116.7909 116.4606 116.1032 116.0475 109.6600 115.9703 114.8427 114.8617 114.6559 114.6969 114.5723 111.8303 114.4642 114.5701 114.9220 115.0574 115.3236 115.5169 116.0806 116.1702 116.3564 116.8475 117.1789 117.5272 117.8791 118.2149 118.5648 118.8961 119.2197 119.5513 119.8782 120.1593 121.1442 114.8396 121.0900
121.4500 120.7507 118.0667 109.9105 111.1749 107.1598 106.4861 108.1212 109.2898 108.2249 106.4815 106.1839 105.4171 107.7342 97.9414 114.4276 111.1276 120.1931 119.7846 105.0626 113.2451 121.2634 122.2570 100.8182 91.9405 119.0245 115.9051 111.9207 117.3821 116.2459 115.9803 115.4968 115.7718 101.9239 110.1112 114.5123 114.1842 113.9544 113.8477 113.8082 114.0477 114.0594 114.1146 113.9992 114.4241 114.6852 115.0177 115.3220 115.6884 116.0543 116.4383 116.8010 117.1728 117.5472 117.9135 118.2756 118.6309 118.9796 119.3288 119.6548 120.0036 120.0458 120.5257 120.7400
118.3000 115.0353 114.7576 110.1574 112.5784 109.0824 107.9420 106.9598 102.6559 102.2243 106.1446 105.8392 108.0856 101.0423 99.0060 98.5375 118.3637 120.0480 120.5839 125.1194 93.4399 119.7077 118.3893 105.0882 106.4033 97.4105 117.5008 117.6404 115.8374 116.1147 116.0243 114.7671 115.0572 115.5804 115.1167 111.8782 111.8125 113.1329 113.1138 112.7650 113.3312 110.2241 112.0766 113.9230 113.7596 114.0505 114.4085 114.7949 115.1941 115.5927 115.9950 116.4095 116.8170 117.2203 117.6133 117.9981 118.3788 118.7495 119.1112 119.4480 119.8139 120.5812 121.0892 120.6800
117.9900 113.0843 111.1268 111.0480 111.9668 110.3056 109.0474 107.8584 104.6221 101.8791 99.6116 97.7302 100.0670 106.4668 101.3575 100.7244 114.6437 120.7303 120.4210 116.7920 106.5974 118.1025 118.3556 119.1603 119.6039 121.7144 117.6992 115.8250 116.0023 114.4004 113.6158 114.6193 114.3839 111.8525 104.6552 109.2010 104.3731 112.5505 112.2716 112.4610 109.5411 100.1875 101.7485 112.8949 113.0327 113.3813 113.7879 114.2199 114.6682 115.1229 115.5699 116.0196 116.4667 116.8953 117.3262 117.7304 118.1346 118.5243 118.9061 119.2615 119.6255 120.9667 120.6582 120.6800
117.9900 113.6273 110.9769 110.5339 109.8896 110.0241 108.7841 108.9775 108.6953 105.6970 104.7539 102.0362 106.0370 100.6602 100.6895 103.3468 109.3488 116.8749 117.5271 120.0629 121.3490 119.3340 118.0073 117.6807 118.8671 118.6673 118.9142 117.8818 98.4104 118.7177 114.3876 114.1883 113.2929 113.1905 112.2376 109.9960 94.0314 110.7795 111.1104 110.9646 112.5567 115.9364 112.1144 111.9491 112.1893 112.6528 113.1450 113.6385 114.1452 114.6487 115.1499 115.6350 116.1214 116.5826 117.0419 117.4770 117.8985 118.3087 118.7048 119.0897 119.4776 119.5649 120.0232 120.3400
114.2200 110.7087 111.2276 110.7688 110.3965 110.4889 110.9595 109.5362 107.4234 104.9143 105.8711 106.1665 105.7828 103.8808 98.8626 110.9661 110.7532 109.2743 106.2777 120.0278 119.2833 118.0941 118.1204 120.0276 99.8318 101.1084 100.3347 97.3193 119.4796 116.7893 113.9243 113.4820 112.9020 112.3241 111.8006 112.9325 109.6047 111.6744 110.1488 110.0709 113.3713 109.7523 111.0305 109.8487 111.5929 111.9122 112.4711 113.0447 113.6120 114.1789 114.7278 115.2637 115.7853 116.2828 116.7641 117.2277 117.6749 118.1043 118.5220 118.9210 119.3166 119.7201 120.0671 120.2900
111.1800 110.9123 110.4681 109.8645 110.8367 112.3386 110.1022 109.6297 107.5917 105.5320 105.9540 109.6874 118.5955 111.8838 111.2050 106.2574 101.8528 119.3844 117.8955 113.8299 105.6536 120.6183 102.5412 118.6638 100.1994 113.5059 119.4463 112.0274 114.7520 114.0465 113.6014 112.9491 112.3136 111.6417 110.9517 110.1227 109.8003 109.0130 108.7433 108.7630 108.6337 109.1669 109.4897 108.1456 110.5854 111.0776 111.7842 112.4389 113.0825 113.7132 114.3272 114.9098 115.4660 116.0037 116.5151 117.0068 117.4737 117.9190 118.3512 118.7643 119.1587 119.5349 119.8978 120.2400
112.9700 112.6699 110.8325 110.3712 110.4190 110.7796 108.2204 107.2567 105.6870 102.9085 104.1666 110.7785 105.5753 122.7631 107.1915 104.3073 123.0607 120.2841 120.7651 103.0204 118.8866 119.5114 104.0435 103.4830 93.2694 114.6192 116.0729 114.6926 114.4177 113.8484 113.1501 112.4319 111.6936 110.9249 110.1763 109.4513 108.4351 108.5238 108.4781 107.2660 107.3168 107.5943 108.1274 108.8319 109.5694 110.2924 111.0834 111.8323 112.5737 113.2649 113.9375 114.5644 115.1734 115.7398 116.2767 116.7915 117.2791 117.7520 118.1989 118.6214 119.0371 119.4153 119.8003 119.9500
110.2300 110.3129 110.6609 109.9546 109.7778 109.7078 110.8778 110.1891 108.5856 105.5042 106.6701 121.5143 101.8897 123.5872 122.2032 99.0112 114.4940 120.2911 119.2505 119.2589 119.9988 104.0323 100.2347 121.1544 101.9931 111.3899 117.2429 115.1271 113.9732 113.4486 112.7071 111.9203 111.0845 110.2101 109.2923 108.2593 108.1151 104.7571 104.0944 105.5841 105.5788 106.0010 106.7134 107.5850 108.5248 109.4692 110.3761 111.2509 112.0758 112.8540 113.5774 114.2552 114.9007 115.5034 116.0701 116.6025 117.1173 117.6013 118.0642 118.4977 118.9175 119.3336 119.8427 119.9100
116.6000 116.2430 110.5482 110.5246 110.0373 110.1304 110.1660 110.1324 105.7960 103.1484 102.2338 113.7686 118.6296 110.6020 120.6885 121.0434 120.3059 119.0743 118.8511 118.5670 118.1105 118.7603 118.3605 117.4075 109.1861 93.3424 116.2612 112.5116 113.9666 113.1170 112.3097 111.4509 110.5241 109.5072 108.4256 107.3168 105.5942 97.9430 102.8030 103.3407 103.3713 104.0402 105.0850 106.2832 107.4874 108.6425 109.7172 110.7050 111.6295 112.4732 113.2542 114.0040 114.6795 115.3068 115.8935 116.4510 116.9735 117.4761 117.9473 118.3982 118.8472 119.2466 117.9804 119.8800
115.9500 115.2875 110.5653 108.9364 107.8162 108.3853 110.4191 109.4619 109.2887 105.0861 102.5734 112.5255 115.0251 116.4412 120.6458 120.1252 119.5793 119.5209 119.1684 118.6373 118.8392 117.4130 116.9390 116.6859 114.7919 118.8168 96.6677 108.2221 113.7200 112.6175 111.9873 111.0451 110.0151 108.8768 107.6062 106.1542 104.9421 102.8104 101.7332 100.2704 100.4561 101.6047 103.2629 104.9265 106.4649 107.8669 109.1107 110.2252 111.2320 112.1678 113.0131 113.5563 114.3034 115.1051 115.7162 116.3059 116.8515 117.3646 117.8571 118.2776 118.6547 122.2028 106.8969 117.9200
116.6900 114.8598 110.9517 107.6900 107.5092 110.6141 110.2570 109.4662 105.0226 106.7005 108.8789 107.2600 118.8242 114.7023 120.0095 120.2338 119.9168 119.4523 118.9976 118.5350 119.6637 117.0461 117.3875 116.7564 116.5248 114.9854 115.6867 115.3117 114.0808 112.5517 111.7089 110.7267 109.6050 108.3406 106.8873 105.1879 103.1387 100.7494 98.0177 95.5537 95.8992 98.6268 101.2558 103.6121 105.5518 107.1983 108.6097 109.8368 110.9293 111.8050 112.4544 114.6653 114.9018 115.0319 115.7340 116.2768 116.7911 117.2921 117.7820 118.2326 118.7027 119.4229 120.5592 119.8300
115.9800 114.1950 110.4639 110.0522 110.5177 110.3403 109.6049 108.1208 107.3914 106.9681 114.5101 121.1180 118.7225 118.2297 120.6228 119.7983 119.7872 119.4035 118.9977 118.5650 117.9281 117.5385 117.1414 116.5720 115.9304 115.4695 114.5868 113.7447 113.1506 112.4533 111.5351 110.4973 109.3283 107.9682 106.3756 104.4374 102.0009 98.7622 93.2796 89.0854 89.5407 94.6187 99.4324 102.5276 104.8553 106.7116 108.2567 109.5712 110.6644 112.4691 114.3263 106.0370 114.1766 114.3219 115.0229 115.9707 116.7180 117.2483 117.7268 118.2028 118.6875 117.4557 119.0059 119.8200
111.6100 111.4995 111.6138 111.1496 110.7401 110.0473 110.5039 107.5924 103.4170 105.8757 121.5439 124.5132 121.1173 121.0515 120.2710 120.1677 119.7489 119.3808 119.0268 118.6116 118.1293 117.6930 117.1385 116.6398 116.0249 115.3995 114.8010 114.1071 113.3170 112.4085 111.4561 110.3998 109.1955 107.7927 106.1266 104.0572 101.3449 97.4821 89.7545 84.6999 85.3454 91.6439 98.3965 101.9625 104.5144 106.4837 108.0924 109.4213 110.6941 114.7061 112.8109 95.6698 117.3014 116.1779 117.1946 116.9592 116.5951 117.2202 117.7563 118.2531 118.6110 119.2533 119.5186 119.8000
109.3000 110.0284 111.3714 113.1306 108.2142 110.1516 108.3896 108.4635 100.3044 102.2854 114.7285 125.3371 120.5760 121.0017 120.6958 120.2388 119.8664 119.4639 118.7124 118.2661 118.1117 117.2587 117.0267 116.6815 116.0006 115.4099 114.7433 114.0181 113.2619 112.4172 111.4796 110.4205 109.2223 107.8372 106.1908 104.1599 101.5203 97.8024 91.2056 85.9276 86.3892 92.5514 98.6775 102.1130 104.6036 106.5444 108.1475 109.5620 108.2201 111.8898 109.9539 95.0987 103.6492 101.6855 106.7993 106.1490 117.5665 117.1592 117.6578 118.0183 118.6662 119.0243 119.4412 119.8000
109.3000 111.0948 111.5317 113.6270 108.9870 111.2846 106.1779 111.0759 102.4488 102.6400 106.7204 125.5421 121.1021 120.6408 119.8964 119.9384 119.4718 119.1178 120.4958 119.6690 117.8370 119.5597 117.6399 116.6733 115.9758 115.4209 114.7993 114.1105 113.3512 112.5146 111.6046 110.5890 109.4402 108.1095 106.5639 104.7080 102.4345 99.5064 95.6044 91.4505 91.9374 96.4312 100.1463 102.9381 105.1225 106.8849 108.3868 109.6402 110.6064 111.7355 107.7266 109.8588 100.9673 110.3011 98.3836 99.7954 115.6272 117.1776 117.7298 119.5158 118.5667 119.1451 119.5040 119.8100
109.4000 112.0040 114.4063 113.1732 111.7131 109.4187 104.0158 104.6605 103.6962 102.5950 121.0176 120.3838 121.6256 121.4313 122.6918 120.8472 121.3071 121.0979 103.1232 119.8322 120.1591 97.8035 122.5378 116.8250 116.1191 115.6222 114.8902 114.2373 113.4919 112.6927 111.8128 110.7879 109.7377 108.5638 107.1664 105.5836 103.7574 101.7050 99.6631 97.9036 98.0876 99.9792 102.0852 104.1092 105.8925 107.4638 108.8007 110.0054 111.1153 112.1325 113.0196 114.1146 114.7749 115.2195 110.2837 114.8488 116.5613 117.3386 118.3649 109.4432 119.3657 118.9036 119.5122 119.8200
109.3100 109.6402 113.1571 111.6031 111.0491 109.9052 106.2639 105.3508 103.6838 105.5181 122.1900 107.8832 122.2333 103.3511 102.3985 122.7423 103.1582 119.0147 106.9637 118.2460 118.5582 115.4616 116.4096 115.9806 115.8229 114.8085 115.0437 114.4264 113.7017 112.9376 112.0500 111.3981 110.4686 109.1040 107.9290 106.6217 105.2048 103.7574 102.4559 101.6394 101.7045 102.4683 104.4777 105.4347 106.9162 108.1863 109.3482 110.4232 111.3691 112.2407 113.0824 113.8841 114.4394 115.2190 115.4240 116.5789 117.0359 117.4210 117.8692 118.1912 118.8754 119.1845 119.6144 119.8400
110.6400 111.0830 110.8571 110.7115 108.8629 108.8616 108.2682 104.8062 100.8629 100.8063 119.4817 103.7731 105.1244 102.9661 117.1135 121.4302 106.9631 122.4598 119.8266 118.9149 118.6676 117.8771 112.6925 117.1055 116.3738 115.9029 115.2504 114.6236 113.9507 113.2412 113.0019 106.3828 110.9431 109.7498 108.7921 107.7036 106.6177 105.5900 104.7521 104.2740 104.2985 105.3540 103.6972 103.9443 108.3155 108.9635 109.9911 110.9132 111.9430 112.5663 113.3455 114.0973 114.7587 115.3626 115.9623 116.4912 117.0273 117.5159 119.0697 118.5009 118.8020 119.3530 119.7893 119.8600
112.3000 109.6083 109.1149 109.1444 108.8769 108.1525 105.1016 100.9055 102.8116 107.0949 108.1886 105.7252 104.0076 105.0969 102.9163 101.5050 120.7641 99.5893 116.2611 98.6169 120.0757 105.0043 98.2981 103.8665 117.8623 116.0446 115.4878 114.8890 114.2053 113.8996 112.7103 112.0957 111.5977 110.4927 109.6403 108.7687 107.9293 107.1703 106.5999 106.2820 106.2907 106.5745 103.2355 108.3066 108.8478 109.8275 110.6803 111.4141 112.3869 108.8978 114.0976 114.3834 115.0013 115.6068 116.1736 116.5778 117.2259 117.9342 113.7340 116.8409 123.3474 117.5496 118.0700 119.8900
109.7300 110.0931 108.8060 108.7261 105.2787 104.4594 103.3242 100.6134 102.0961 102.8355 108.3939 103.9149 107.7106 104.9594 111.0023 119.1683 103.5714 103.6722 117.8831 103.9828 116.2971 115.8752 101.7198 119.7659 116.3256 116.2928 115.7336 115.2152 114.5924 112.1991 113.0628 113.7900 111.9135 111.2217 110.5410 109.7722 109.1302 108.5750 108.1359 107.9208 107.9121 108.3417 108.1249 109.2432 109.9323 110.6512 111.3721 112.0800 113.0061 113.5762 114.0894 114.7272 115.2925 115.8369 116.4239 117.0160 115.8569 118.4042 118.6208 119.0150 114.2503 102.1965 111.4597 102.1200
115.0300 115.7665 108.9399 109.0896 108.9194 107.1709 112.9437 101.5203 101.6968 105.2701 118.9517 99.6908 110.4793 107.6922 98.4919 101.5022 103.0471 101.0122 103.7669 97.6114 112.3957 100.6300 108.3564 117.6276 117.0905 116.4652 116.0212 115.5126 113.6852 115.1113 113.7320 112.5035 112.7165 111.9476 111.3070 111.5113 110.2663 109.7387 109.4711 109.3143 109.3621 109.5464 109.8694 110.3258 110.8704 111.4503 112.0715 112.7073 113.2470 113.8555 114.4523 115.0589 115.6026 116.0983 116.7246 117.4482 113.1559 112.3485 118.6253 118.7042 119.6726 123.0478 118.5272 98.2100
114.2900 113.4103 112.5541 108.1335 107.4004 108.1221 104.1615 100.4345 99.2914 99.8398 107.1738 111.2215 114.7793 110.4967 107.6490 108.3451 107.5010 102.8902 118.7962 104.3759 103.0614 121.8725 118.8963 117.5021 118.2994 116.8749 116.2885 116.2171 113.3959 115.0630 114.2423 113.6325 113.1012 112.7658 110.4166 105.4791 111.9261 110.9719 110.5231 110.4385 110.3397 110.5332 110.9393 111.2913 111.7278 112.2283 112.7542 113.2895 113.8389 114.3774 114.9115 115.4221 115.9263 116.4191 116.8635 117.0964 117.2422 101.1211 111.0038 119.5031 119.0053 123.7747 108.1418 103.1000
114.2900 109.4825 108.8109 108.4307 108.0098 103.3734 102.0774 109.5386 105.7661 113.7237 108.3876 117.0977 117.3165 109.8292 115.8369 123.3081 115.2570 108.6745 113.2139 113.2803 109.9113 118.3475 120.1515 118.3159 112.6886 117.4700 116.5421 116.2608 108.2575 115.5113 114.6975 114.6737 113.7739 115.6092 113.3248 107.3511 112.3813 111.8827 111.6324 111.6901 112.2511 112.1071 111.9529 112.1215 112.5309 112.9709 113.4144 113.8825 114.3573 114.8446 115.3275 115.7989 116.2632 116.7166 117.1136 117.6135 118.6907 114.2111 107.2975 119.8154 119.4003 120.1367 112.2556 119.9900
114.1600 108.8391 108.4864 105.1740 105.6181 107.2849 100.0718 107.9924 104.9598 108.6843 106.8166 112.4537 118.1812 112.0111 121.8362 120.3026 121.2509 122.3525 115.5863 119.4672 120.0328 115.5274 103.8143 120.1714 117.8165 116.3349 117.4966 118.4015 110.1121 115.5083 115.2507 111.6859 108.0975 116.8900 94.8230 114.2104 106.6792 111.6433 109.0994 112.3588 114.9823 95.7712 114.0019 112.8304 113.2994 113.6702 114.0548 114.4618 114.8895 115.3167 115.7536 116.1848 116.6159 117.0311 117.4564 117.8621 117.6767 119.4891 120.2004 119.5992 120.2240 115.7598 115.6338 110.4700
114.1600 107.5902 104.0432 115.6948 113.0881 112.9723 115.8971 99.3368 103.4035 98.2658 109.5209 107.9930 117.9906 121.2150 121.1656 121.0404 120.4385 119.9422 118.4169 118.7087 118.6650 112.8414 107.5738 118.1871 116.1397 116.6753 114.8902 102.2338 116.0894 115.8218 118.7430 112.5469 108.5017 114.9583 97.0796 99.0448 98.4192 115.1735 112.7547 113.3547 115.2752 94.6873 115.9796 113.6271 114.0091 114.3203 114.6616 115.0255 115.3945 115.7873 116.1772 116.5683 116.9693 117.3538 117.7386 118.1170 118.5643 118.7726 119.1970 119.2027 119.6534 117.5579 120.7816 101.1900
110.3700 102.7683 102.5352 110.2706 113.5931 105.2285 116.1812 107.0288 107.3902 116.0219 102.7807 105.3143 126.0294 122.2863 120.6195 121.1453 122.4496 121.3038 123.7169 120.1709 120.8352 117.6783 105.6773 129.4146 117.9858 119.7104 111.6431 95.6174 115.1496 115.7904 99.3840 113.8616 115.2842 113.7950 97.4255 90.4955 93.5000 114.1189 113.7394 114.0860 114.0353 115.1627 115.6080 114.3656 114.6724 114.9509 115.2367 115.5559 115.8925 116.2458 116.5967 116.9567 117.3225 117.6861 118.0438 118.3923 118.7462 119.1144 119.4267 120.9298 121.2126 123.2906 104.4687 108.8100
102.9600 103.2337 105.4267 101.3536 108.8089 108.0022 107.2607 108.0267 104.4659 105.7845 116.1633 118.9003 98.4934 126.2236 121.5948 123.0168 106.5895 121.9592 120.2281 121.0365 100.9919 103.8914 109.6532 113.1575 117.9896 117.3226 98.4988 98.6400 119.9688 117.8898 101.8989 112.3500 116.4559 109.9974 109.9384 106.1815 113.1720 115.9928 114.6280 114.8051 114.8124 114.6403 114.6592 115.0891 115.2852 115.5401 115.7885 116.0763 116.3762 116.6865 117.0168 117.3409 117.6841 118.0162 118.3451 118.6766 119.0115 119.2927 119.6876 111.7333 106.7542 118.1505 114.2451 118.2200
102.9400 107.7804 102.9948 113.5068 113.5234 116.8119 124.7541 105.0717 111.0762 102.7229 101.8614 105.9491 121.2889 124.0801 119.6876 121.6633 120.4493 108.6690 119.4268 119.1860 97.7850 104.8710 101.1982 97.9692 118.7943 112.4840 93.6653 111.1095 118.5333 116.9790 117.9897 116.8612 116.0812 116.4732 116.2222 116.2047 115.9864 115.5243 114.8110 115.3607 115.3423 115.5514 115.7255 115.7678 115.9620 116.0704 116.3204 116.5752 116.8366 117.1416 117.4195 117.7199 118.0347 118.3357 118.6526 118.9584 119.2564 119.7205 118.6880 120.8148 105.2537 97.8234 99.1314 99.3300
116.4300 123.0545 116.6767 118.5521 124.8764 124.1362 124.8475 113.7660 102.7744 105.4573 100.9385 101.4682 122.5083 123.0661 122.6386 121.7746 120.7925 120.1401 99.4445 99.1864 102.7448 100.3255 101.4471 122.7079 118.3710 119.9672 97.6265 117.6048 118.1530 117.7377 117.2818 117.2188 117.0752 116.8129 116.5312 116.3476 116.5131 116.1446 111.3445 115.4529 115.6364 116.1234 116.3070 114.7195 116.4353 116.6248 116.8268 117.0575 117.3075 117.5301 117.9013 118.1485 118.3288 118.6795 118.9573 119.2423 119.5467 119.8179 120.0908 120.5300 121.0249 112.9977 104.4647 111.2900
123.8100 121.4984 125.3854 124.9008 124.1939 124.1782 124.2223 117.3976 105.5645 104.8706 109.7865 102.5352 122.3760 107.3076 113.7260 119.8488 120.8859 108.9821 120.8611 121.1245 121.2162 122.3551 119.3147 120.2746 119.7920 121.4082 119.5388 117.8103 118.6433 118.3637 117.8977 117.6903 117.4721 117.2737 117.1007 116.9043 117.0912 117.5481 103.3182 116.1420 115.8380 116.7182 116.7408 116.9179 117.1094 117.1248 117.3116 117.5099 117.7313 117.9717 118.3079 114.4612 118.7882 118.9981 119.2664 119.5396 119.8088 120.0749 120.4184 120.5933 120.8405 122.6593 108.7003 103.7100
125.1600 125.0073 124.7702 124.6190 124.4618 124.4846 120.9253 120.5432 110.2982 113.8385 123.4279 114.1183 100.6473 119.8506 101.1645 101.7528 102.0676 120.7725 119.3161 120.8595 120.5870 120.4978 120.3612 119.9927 120.2236 110.5578 106.2894 119.1184 118.9923 117.4136 118.4859 118.0831 117.9137 117.7373 117.5742 117.4693 116.8429 117.8968 95.2987 118.1494 116.6815 117.2306 117.2617 117.3281 117.4360 117.6098 117.7696 117.9521 118.1564 118.3471 118.5754 118.9800 119.1144 119.2840 119.5626 119.8220 120.0772 120.3477 120.3954 121.0519 118.9950 118.1143 101.6076 109.4400
125.1900 124.7825 125.0447 124.8189 124.3096 123.9222 117.9571 116.0651 125.4350 123.9444 124.7631 103.9912 106.8146 103.3785 103.0388 111.7623 103.2093 113.5856 120.8724 121.3145 121.0699 120.7659 120.5291 120.3418 119.8716 121.3213 105.0638 118.1914 114.8268 115.8734 118.1456 118.5510 118.3452 118.1785 118.0361 117.9127 117.6564 115.6364 117.0951 117.2144 117.7933 117.6934 117.7485 117.8319 117.9445 118.0624 118.2100 118.3777 118.5609 118.7459 118.9739 119.1784 119.3885 119.6470 119.8659 120.0970 120.3347 120.5974 120.8899 119.3984 114.2130 113.7831 105.9325 111.2500
133.1600 124.0200 124.9500 124.8100 124.6800 124.3700 124.2300 124.0700 123.7600 123.6000 123.4400 123.3000 122.9400 113.1000 112.2000 122.2400 107.0600 120.8600 121.6700 121.4800 121.1000 120.8800 120.6700 120.4900 120.2400 120.0200 116.3200 121.1900 107.0000 119.9200 118.8400 118.9300 118.6900 118.4000 118.4200 118.1200 118.2100 118.2100 117.8700 117.8700 117.8800 117.8500 118.2200 118.1800 118.1300 118.4300 118.7000 118.7000 118.8800 119.1600 119.1100 119.3600 119.5700 119.8100 120.0600 120.2300 120.4900 120.6600 120.8600 112.4500 116.6700 104.7200 112.7500 111.2500
