125.9300 128.5100 116.9900 116.9900 123.9200 123.9200 131.2500 131.2500 130.1400 130.1500 121.2500 120.7400 121.2600 120.3600 120.3600 115.1400 127.6700 118.7600 118.7600 123.8100 116.9800 116.9800 119.3200 119.3200 115.4000 112.9400 113.4700 105.7700 108.8800 112.2300 105.3200 104.9400 126.9500 106.7600 126.8200 126.8300 126.8400 104.8500 126.8500 126.8500 126.8500 127.7600 126.8500 126.8300 126.8300 126.8100 126.9500 126.9400 126.9200 126.9100 127.0300 127.0200 127.1400 127.1200 127.1000 127.2100 127.3100 127.2900 127.3900 127.3800 129.2600 127.5800 127.6700 127.6700
125.9100 129.1940 130.0308 128.8292 129.7682 110.4908 112.5645 124.0951 122.3920 122.2832 120.2214 120.7931 121.5653 120.3092 109.9165 105.2626 119.7824 118.8463 109.8039 126.9409 116.6983 116.3120 120.1742 115.7942 113.6559 115.2023 114.0393 107.1467 106.2260 110.1260 107.0208 106.6960 111.1090 109.4311 113.0464 125.4953 109.1022 104.3101 113.4789 126.7807 123.9880 126.1278 126.5412 126.7433 126.7402 126.7578 126.7729 126.8903 126.7863 126.3553 127.1653 126.5323 126.9868 127.0186 127.0591 127.1091 127.1677 127.2229 126.9447 127.3923 119.9666 125.7340 127.4968 127.5000
126.2500 126.5102 131.0720 129.2170 131.4369 114.0814 108.2278 118.0967 121.0687 121.3712 120.9414 120.9203 120.8903 121.3370 121.7930 107.8243 126.5494 121.9480 125.5404 121.2466 127.0662 117.0844 114.1713 111.3609 114.2254 118.3917 108.2287 105.5331 109.3008 113.9123 107.9836 112.6705 128.0599 122.7899 107.3883 111.7752 105.1292 126.0001 125.8208 126.5306 126.2442 126.5880 126.5831 126.5531 126.5708 126.5850 126.6014 126.7702 126.4157 114.9494 125.4921 126.4864 126.8392 126.8590 126.8982 126.9632 127.0013 127.1677 126.6049 126.8563 116.5764 129.7115 124.0876 127.5000
127.1100 121.7025 132.3625 122.7459 129.8603 123.2095 116.3081 108.8646 121.5710 122.4476 122.4313 119.7959 119.1740 122.7664 120.3401 118.2159 125.7376 127.9103 124.0653 116.0625 123.9007 116.0103 104.4568 124.4988 112.0833 116.7134 113.9313 114.4386 109.0589 110.5823 108.4718 115.9603 124.8307 114.9050 105.2796 119.8734 120.1078 105.1140 128.0761 126.5653 119.9156 126.4958 126.4242 126.3697 126.3869 126.4308 126.4235 126.2426 127.7290 107.3428 125.4692 126.2589 126.6637 126.6907 126.7532 126.6824 127.1159 125.8966 128.1129 126.6491 117.9203 112.5796 106.9695 127.2100
117.3200 116.6426 124.8424 122.4753 124.1057 121.6000 123.1721 106.1238 119.4556 121.4792 113.2579 124.1630 120.5543 119.7577 121.3728 118.8987 119.6459 127.0964 120.5513 118.1808 112.1839 116.8857 107.4802 107.8559 108.8109 111.8915 112.7949 110.8552 106.8848 107.2792 117.8588 114.9242 127.2010 128.7555 123.5654 121.4441 126.1504 127.0599 127.0700 126.1601 126.5840 126.1876 126.1836 126.1990 126.2103 126.2431 126.5864 120.6239 125.0974 115.1914 126.1668 126.3249 126.4878 126.4998 126.5442 126.6985 125.6675 130.3687 111.1594 117.4858 113.3690 101.9697 114.3489 127.0600
128.5200 117.3650 118.9571 123.1065 123.5538 122.6705 121.9702 118.4941 103.2428 115.1562 123.4487 119.4063 121.5100 121.1627 120.4873 120.0084 118.5733 127.5834 127.0936 121.5939 106.7523 115.8473 119.3958 112.8544 111.6278 112.8477 107.6178 106.3608 106.3444 120.4607 115.4767 122.8868 126.3673 118.9646 125.0298 125.1528 125.7171 130.0650 125.2870 125.9832 125.8938 125.9857 125.9996 126.0036 126.0236 126.1190 126.0472 125.4666 124.2608 109.0026 125.4483 126.0719 126.3080 126.3107 127.2399 127.2264 114.0259 116.6733 115.5713 124.7595 125.8079 122.3743 127.4165 126.8800
128.5200 113.9102 117.1188 126.2714 121.9452 122.0224 121.1219 123.6938 112.4080 106.9253 121.2049 122.0166 120.0682 121.3969 120.7580 119.2153 121.1351 118.5284 126.7325 122.8592 107.3095 119.3073 112.7976 118.8395 110.6529 105.4180 103.7465 106.3069 103.5136 109.9262 118.6465 123.1148 124.1741 125.4744 122.5597 125.7336 125.8744 125.4598 125.6347 125.8075 125.8039 125.8004 125.8069 125.8179 125.8300 125.8554 126.9841 120.8351 104.3076 113.5576 125.0761 125.6467 126.1515 126.1117 125.9072 129.6333 126.2560 120.7008 126.8193 122.7821 120.3315 125.1533 126.4025 126.7100
128.1500 115.1167 110.6402 111.8263 122.3897 120.7944 120.5271 121.0012 121.2444 106.3141 122.3960 121.0542 118.7828 120.5768 110.8821 113.5576 112.4038 119.9581 125.8074 129.3409 108.1351 105.1544 111.7528 110.7917 114.4560 112.1246 121.6358 104.3976 110.7843 108.5094 121.2179 122.8523 126.1281 125.5886 126.0106 125.5563 125.6481 125.6771 125.6389 125.5847 125.5912 125.6016 125.6178 125.6136 125.5127 126.7250 119.3572 111.0402 111.7125 118.9708 125.9007 125.4992 125.9566 126.0326 126.2054 125.4644 126.0667 126.6348 126.6584 126.4536 126.7954 126.8382 126.3559 126.6900
127.4100 114.6099 111.8571 110.3779 119.0157 121.0336 120.2181 119.7775 122.1533 111.3464 103.3946 113.2238 119.3237 118.0882 109.9686 113.0694 116.0271 117.2484 109.2318 113.8202 124.4451 110.8107 120.0380 109.2475 107.7552 120.2673 117.7668 110.1498 123.9102 107.3853 122.2394 125.6426 125.5470 125.4684 125.4462 125.4521 125.4342 125.3979 125.3936 125.3963 125.3973 125.4054 125.4165 125.4203 125.3729 125.6817 122.7976 125.3168 121.8226 126.8897 125.5107 125.6984 125.7433 125.8132 125.7495 126.8595 126.1584 126.0597 126.0987 126.2106 126.1594 126.2818 126.4415 126.5400
114.6400 124.8411 115.2372 110.8286 110.9395 113.2296 122.0022 120.3932 122.5598 121.6117 115.4538 111.0017 121.2360 113.0815 115.7199 110.9845 115.3620 112.6189 116.7606 108.4143 127.2707 131.8346 104.3222 108.2437 109.4229 121.0020 116.4780 119.7596 126.5145 125.3921 125.5940 125.1168 125.3523 125.3279 125.2502 125.2295 125.2161 125.1985 125.1982 125.1929 125.1927 125.2036 125.2036 125.1854 125.2226 125.2991 125.3820 125.5458 125.5161 125.2792 125.4830 125.4982 125.5778 125.5359 126.1070 113.4200 126.3086 125.8833 125.9455 126.0449 126.1426 126.2056 126.2869 126.3700
114.6400 114.5220 122.3969 114.1651 110.8234 111.4316 116.2236 119.5031 123.5922 124.3834 119.6301 104.2010 115.1610 117.6460 120.4172 116.6446 114.8166 118.1163 110.8533 105.9914 127.6082 115.4654 110.2567 116.2261 120.6880 123.2417 125.4214 124.5786 125.2103 125.0195 125.1689 125.1174 124.8197 124.9385 125.0739 125.0328 125.0316 125.0343 125.0144 124.9814 124.9846 124.9883 125.0164 125.2181 124.6358 125.8732 125.0487 125.1034 125.1327 125.2371 125.2548 125.3141 125.3570 125.5972 126.9472 114.7204 127.3525 125.7135 125.7684 125.8626 125.9479 126.0320 126.1233 126.2000
125.9500 121.8940 125.1454 106.8205 109.0780 107.3544 110.5113 118.1360 121.0223 117.6160 118.5404 113.3291 105.1494 121.0779 119.4429 118.4366 118.5890 114.4015 107.5306 105.0992 122.0981 118.2782 118.6693 122.3741 124.3398 121.9874 125.3073 125.1295 125.1129 124.9932 125.0032 124.8948 126.3288 125.6073 124.7638 124.8632 124.7907 124.6910 124.6791 124.7733 124.7551 124.8271 125.0605 121.3366 113.7145 122.7487 124.7320 124.9803 124.9748 125.0032 125.0568 125.1247 125.1817 125.7053 117.1160 124.0166 125.1654 125.6240 125.6066 125.6967 125.7770 125.8707 125.9573 126.0100
125.8900 128.6592 123.9497 104.7642 105.8256 104.7425 106.7490 108.6649 105.0193 119.6316 117.8474 120.8101 107.2849 108.4740 118.1817 118.8471 116.8074 121.3025 113.4518 102.4968 100.6366 117.3587 130.6434 125.3475 124.4664 125.5810 125.0957 124.9346 124.8947 124.8755 124.7868 124.6271 124.0353 111.2184 125.7039 124.5942 124.3876 124.6652 124.7191 124.5348 124.5458 124.5704 124.8250 124.8266 100.3849 119.1685 124.4456 124.7895 124.7535 124.8022 124.8530 124.9155 124.9322 125.1603 126.9716 126.7209 125.0422 125.3526 125.4229 125.5092 125.6028 125.6986 125.7882 125.8000
125.9600 107.0365 125.6669 119.6271 105.0845 104.0878 103.7933 103.8989 110.2261 110.8681 117.4763 115.8805 115.8184 107.3308 111.1196 125.4309 113.5804 115.9128 112.5015 116.0391 99.7409 119.1166 125.5930 124.7265 124.9688 124.8559 124.8321 124.5462 124.8055 124.6261 124.5727 124.5228 124.9087 131.8853 124.3624 124.4742 123.9341 123.6799 114.1120 124.1880 124.1800 124.3463 124.5183 123.2684 121.3390 122.9518 124.1384 124.5377 124.5445 124.5874 124.6497 124.7126 124.7901 124.7638 130.8715 125.5161 125.0365 125.1525 125.2430 125.3335 125.4307 125.5206 125.6380 125.6200
105.2900 121.1564 127.1564 119.0916 116.3068 109.8114 107.9217 109.1156 112.5051 109.1226 118.7410 118.3134 116.9297 120.5551 101.5018 124.4983 109.2894 118.1747 119.0844 140.3683 114.2460 116.6059 124.7586 125.4481 124.7380 124.7130 124.7011 120.7281 131.8760 124.1743 124.3769 124.2344 124.5048 118.8474 124.1092 124.1903 123.5567 122.5463 113.9306 124.5591 124.1843 124.1025 124.1527 124.0548 124.4941 124.1628 124.2638 124.2625 124.3196 124.3708 124.4322 124.4972 124.5476 124.3715 124.5087 124.5768 124.9433 124.9605 125.0573 125.1510 125.2478 125.3481 125.4649 125.4400
127.1500 128.5314 125.4258 124.8805 119.7232 117.5189 103.6195 104.9961 109.7483 108.5449 102.6228 111.7760 118.5240 126.2631 115.7638 106.7266 111.1266 103.0428 103.6870 117.0721 110.7530 106.3834 109.0193 124.5917 124.6124 124.5068 124.7989 123.6013 124.2087 123.6252 124.1408 124.0807 124.0266 124.3442 124.2821 123.9660 123.7374 123.6234 118.5226 122.1332 123.9375 123.8153 123.8815 123.8888 123.8543 123.9597 123.9910 124.0420 124.0935 124.1474 124.2110 124.2799 124.3302 124.4714 124.5094 124.5810 124.6722 124.7783 124.8648 124.9650 125.0617 125.1671 125.2639 125.2200
124.2200 123.8084 124.9180 120.6788 118.0549 121.1343 110.7345 105.0556 113.7574 108.5592 107.7775 112.4092 126.0201 117.1323 128.5808 103.0340 114.9331 104.0612 100.9037 118.7298 112.2730 111.2530 111.8585 124.7427 124.3846 124.2102 124.1213 124.3064 124.0005 123.9644 123.9224 123.8438 123.8049 123.6597 123.6177 123.6321 123.7883 124.0827 121.4750 117.8313 124.5955 123.7285 123.6407 123.6565 123.6962 123.7343 123.7620 123.8134 123.8746 123.9235 123.9859 124.0555 124.1389 124.2050 124.2935 124.3842 124.4819 124.5795 124.6717 124.7799 124.8788 125.0022 125.0398 122.5200
126.9400 126.2660 127.2168 120.0190 119.8111 120.1054 121.3588 111.3857 111.1801 115.6315 108.1161 107.4859 127.7640 128.3894 118.2421 117.2025 103.8753 104.3841 110.0849 112.6535 111.5246 121.8065 110.1208 124.7349 124.2016 124.7080 124.4487 123.0798 124.0279 124.0568 123.6125 123.6483 123.5577 123.5551 123.5200 123.3775 123.5377 120.3100 117.4071 123.4066 118.5079 123.6437 123.4189 123.4157 123.4175 123.4121 123.5565 123.5068 123.5588 123.6889 123.7468 123.8353 123.9108 123.9990 124.0841 124.1771 124.2737 124.3714 124.4756 124.5852 124.6949 124.7983 125.0108 125.0100
123.2000 126.6962 126.3932 114.5285 117.9005 118.5943 119.5776 116.5890 114.3533 120.0254 109.3577 106.0523 105.2062 108.5647 116.8151 115.9585 107.2028 109.4253 109.1751 108.0407 110.2785 107.0731 121.9998 124.8909 123.6728 124.1190 113.1382 125.1580 121.8118 119.8087 123.7332 123.3700 123.3078 123.1884 123.0032 123.0012 124.8196 110.7157 120.0515 125.1046 122.9905 123.0524 122.9672 123.0864 123.2887 123.3234 122.7989 123.7157 123.5960 123.3454 123.5485 123.6021 123.6852 123.7733 123.8611 123.9608 124.0592 124.1684 124.2821 124.3863 124.5068 124.6166 124.7516 124.8100
122.9900 123.7060 125.4141 112.3587 112.4487 112.1440 116.1905 117.2359 116.4093 109.0935 106.1518 104.7629 105.9706 103.1335 122.3837 117.6960 103.9443 106.7840 108.9779 118.4773 116.1555 138.6351 123.6054 123.9091 124.4472 121.2844 110.2671 105.8426 107.7715 116.5269 123.1592 123.1550 123.0473 122.7926 123.8314 122.6406 124.1120 114.3668 114.3796 119.3451 118.6913 123.3835 123.4612 123.0468 120.4400 119.7664 124.3604 114.3885 124.4598 123.3991 123.2669 123.3588 123.4528 123.5414 123.6447 123.7432 123.8486 123.9628 124.0750 124.2037 124.3283 124.4463 124.6820 124.5800
121.1200 118.4900 125.2842 125.8000 115.7849 106.6678 109.3685 116.2395 114.2876 115.9673 106.9484 103.7502 105.6355 102.8918 98.5452 123.9900 103.4204 128.8703 101.8425 113.9504 124.0789 123.8369 122.8739 123.8668 124.3455 111.2692 105.3760 113.4638 124.0030 124.8100 122.8148 122.8772 122.7884 122.3927 125.0156 108.0004 116.3094 112.4379 103.4010 113.5677 113.5859 113.9016 122.5986 118.5563 119.3991 104.6913 121.2038 110.9878 110.9176 122.8707 123.0193 123.1217 123.2091 123.3128 123.4207 123.5228 123.6320 123.7416 123.7667 124.0061 124.1039 124.4477 123.9351 124.5400
122.8100 105.9531 123.4115 121.1402 123.2297 112.7543 111.2487 113.2679 120.1580 117.8948 111.8753 106.6224 103.2214 104.4535 100.7237 106.1754 101.8889 103.0082 102.5080 109.8119 126.5227 122.7703 124.6779 124.9083 124.3145 113.5509 113.4198 124.1291 122.6723 122.4603 122.9003 122.5794 122.5297 122.2315 123.7734 108.5055 112.9911 128.4067 115.7851 104.4631 105.6360 118.6000 119.1939 104.4754 120.0178 105.2414 123.0000 120.3440 117.7798 124.0691 122.7048 122.8697 122.9708 123.0731 123.1837 123.3045 123.4132 123.5679 123.7280 124.9838 124.2323 123.3515 121.7172 125.5400
118.7000 122.5754 119.0614 108.4274 121.9053 111.5626 112.0385 108.9930 110.7482 116.7534 118.9936 122.2458 104.5577 102.8337 102.3360 101.4124 111.4052 111.7909 120.2566 105.9374 123.8819 123.0942 107.3553 115.3468 106.4906 111.7825 112.5331 112.3555 122.7804 123.0246 121.2911 122.6370 122.0603 122.0893 121.9907 120.9746 116.2309 121.8286 110.6722 99.7910 105.0721 120.8896 117.5017 109.0645 116.2158 108.4504 128.5533 121.4726 123.0098 121.8189 122.5784 122.6032 122.7200 122.8317 122.9284 123.0468 123.2015 123.1950 123.5107 122.0836 117.3535 124.4887 124.0199 124.0600
118.7000 118.2112 109.1958 114.1325 121.4084 112.5015 112.5889 112.7026 107.6445 110.3157 115.0844 120.6895 113.2502 103.0869 101.6338 100.7918 100.8162 113.4722 114.4023 123.2478 124.4532 124.0397 123.6626 112.0701 97.5085 111.7297 110.4402 122.2813 121.9772 122.5220 119.5257 121.7925 123.4783 121.7148 123.2077 109.2045 123.2667 121.6796 116.9040 112.4685 111.1180 129.4297 103.4475 100.1169 119.9800 107.1842 121.0655 124.0375 122.1497 122.2330 122.2305 122.3632 122.4671 122.5723 122.7842 122.7530 123.2976 123.7653 123.2542 121.6964 124.8777 123.4731 123.7832 123.8500
104.1500 106.9610 116.9347 108.6732 120.0453 120.3353 115.5796 108.7202 107.0660 106.7507 109.7218 117.5014 116.4847 103.2946 102.2167 111.3894 110.7275 108.2545 127.6893 127.3947 122.8526 122.1370 122.8197 99.6521 110.8235 103.6020 114.1114 114.5072 122.0176 122.1081 122.0897 121.4279 124.6676 121.2341 123.3259 110.4070 122.1838 120.8113 105.3417 109.2735 108.9531 106.3362 110.8639 117.7767 122.2820 125.2768 121.0895 121.6398 121.6624 121.9448 121.9779 122.0828 122.1997 122.3205 122.3974 122.7752 113.0263 122.0027 123.1082 123.7387 123.2564 123.4585 123.6572 123.6300
117.9900 113.0069 114.1329 113.1239 117.0088 113.8142 111.2428 117.1618 102.0030 104.0464 110.8787 107.5142 104.5557 100.6818 102.0574 109.1458 115.8909 111.1295 116.5837 122.5922 123.1108 122.4973 124.5454 124.1865 123.6883 102.3789 120.8181 115.5018 121.7766 121.6915 121.5161 121.4840 120.8912 121.4077 118.0892 120.1050 121.4114 121.0969 119.0359 115.2583 111.4753 103.4233 132.1836 122.0716 120.7747 120.9176 121.4123 121.3858 121.5036 121.5693 121.6943 121.8131 121.9363 122.0608 122.2535 123.1665 110.4201 123.0122 122.7848 122.9502 123.1354 123.2685 123.4298 123.3700
115.1800 116.4401 115.5019 114.6243 112.3136 117.7460 108.8770 104.7662 114.5429 109.0750 108.1482 103.7839 111.5331 109.6538 100.4171 106.8736 104.0212 107.1368 123.3836 122.9681 121.9176 122.5807 121.9066 108.5747 121.4473 120.7980 118.1234 113.1660 121.3790 121.4387 121.2712 121.1789 121.0421 122.0673 112.2822 119.9217 120.7794 120.7782 117.9036 112.5324 112.2149 106.2073 121.7396 120.7102 120.9898 120.9519 120.9896 121.0901 121.1719 121.2855 121.4013 121.5290 121.6645 121.8036 121.9217 122.4238 121.7675 123.6318 122.5404 122.7258 122.9092 123.0685 123.2403 123.3400
116.8400 115.8328 114.8758 117.1155 108.2086 110.0017 113.6580 108.9890 109.5870 110.5396 113.6111 104.0664 101.9677 103.5024 110.6431 100.3665 100.6272 107.4942 110.7396 119.7066 123.1272 122.1487 124.7620 100.8104 121.7622 122.3741 121.8653 123.4314 121.2389 121.1290 120.9516 120.8620 120.8877 114.3109 115.4017 125.9388 121.5222 120.4483 120.9122 121.5698 110.6607 119.0378 119.9659 120.5367 120.5166 120.5875 120.6681 120.6891 120.8779 120.9817 121.1032 121.2369 121.3812 121.5235 121.7050 121.9537 121.1642 122.6141 122.3160 122.5159 122.6904 122.8650 123.0422 123.1100
116.5900 113.8938 114.7025 114.6388 118.4735 114.7439 108.5868 116.9306 111.9523 108.1681 111.7152 114.2001 101.0813 101.6885 99.1818 114.3470 105.3693 108.8397 112.7402 107.0509 118.6218 120.8425 122.5092 120.3525 123.9782 114.8456 123.0306 120.8206 120.6882 120.8191 120.6384 120.5146 119.8927 120.5989 120.2917 121.5151 120.0035 120.1313 117.5358 120.4569 115.5914 121.8468 119.8161 120.0652 119.9917 120.1995 120.3700 121.0659 120.5370 120.6628 120.7993 120.9416 121.0875 121.2502 121.4241 121.5578 121.7352 121.9264 122.1251 122.2936 122.4763 122.6627 122.8478 123.0300
113.7000 115.2467 114.8749 116.0887 112.4051 111.3778 112.5442 113.5319 116.0298 114.0545 108.0421 119.5771 113.5626 102.4788 99.5414 115.2561 113.0687 112.9401 111.8298 104.6904 122.8409 108.6794 107.4013 123.1852 114.5310 109.3991 101.4874 116.3987 120.4974 120.4313 120.3242 120.1117 120.9062 120.0221 119.9532 119.4009 119.7130 119.6699 119.0603 120.0960 126.2881 118.8175 119.8761 119.5490 120.4674 119.5943 120.0924 120.2580 120.1854 120.3331 120.4831 120.6367 120.7949 120.9666 121.1387 121.3275 121.5035 121.6895 121.8800 122.0702 122.2618 122.4563 122.6491 122.8100
113.5600 113.0930 114.5613 114.7722 110.0007 112.2164 114.0145 112.0108 104.0053 107.1104 110.1989 104.3978 105.7329 109.0142 103.6140 112.0980 122.3470 123.7532 122.9819 122.5034 120.3323 113.5320 110.0516 119.7919 100.7884 128.6685 115.4048 114.5187 120.6900 120.1626 119.9781 119.9065 118.5394 106.7171 113.2881 119.4495 119.7351 119.1110 119.2485 119.2365 116.4857 119.4123 120.1738 107.4791 123.7474 119.1653 119.5731 119.7204 119.8621 119.9979 120.1583 120.3206 120.4932 120.6754 120.8637 121.0504 121.2467 121.4503 121.6448 121.8430 122.0399 122.2772 122.4776 122.5200
125.4900 115.4644 116.2711 109.6779 110.8638 110.5721 109.5591 105.3898 116.1310 112.5189 103.1502 102.6690 102.0306 107.1839 104.3494 105.2210 119.4722 117.1495 122.2919 118.5347 107.4858 106.9368 101.3305 113.1637 97.4041 117.0193 119.2312 117.3463 119.6935 119.8729 119.5942 119.7199 122.4545 116.0605 117.8882 119.8785 113.2071 120.0566 118.6313 118.7689 119.1256 118.5812 119.2989 119.3792 119.0569 119.0495 119.1992 119.3517 119.4928 119.6552 119.8177 119.9998 120.2023 120.3815 120.5979 120.7828 120.9853 121.2000 121.4048 121.6166 121.8469 121.9885 122.1912 122.4800
112.3800 113.5366 116.3996 110.3534 114.7547 115.9630 116.8642 111.9373 108.6079 110.5902 103.9421 106.8118 108.7421 102.4995 101.9341 106.9077 112.8026 101.2197 120.9308 117.6319 113.1906 109.2079 114.0204 105.6174 113.5191 119.1697 120.4063 120.0385 119.4919 119.3800 119.2548 124.0737 107.3876 118.5590 119.9842 102.4936 114.5454 117.3883 118.2902 118.3137 118.4879 119.1986 118.8554 118.5958 118.6061 118.6799 118.8211 118.9634 119.1240 119.2927 119.4747 119.6669 119.8559 120.0430 120.2472 120.3847 120.7507 120.9375 121.1721 121.4214 121.3594 123.7611 121.7229 122.1500
112.0900 112.9998 114.4228 110.3972 112.0731 114.5207 119.3123 112.8683 112.3970 107.9921 107.6514 107.3101 114.9983 106.8404 107.9945 101.3199 112.1868 113.5355 123.0142 111.4589 123.1783 122.0998 108.8678 110.6004 107.8454 121.0175 119.8256 119.3313 119.4934 119.3373 119.0482 118.6558 120.0310 119.8700 104.9450 119.2814 111.2356 119.8144 117.5869 117.8737 115.2329 110.8524 118.3909 118.1088 118.1622 118.2610 118.3998 118.5633 118.7430 118.9207 119.1245 119.3411 119.5313 120.2390 119.8899 120.8777 120.3647 120.7122 120.9274 121.1840 121.2864 123.1546 121.9192 122.1500
111.6600 113.0411 112.8953 111.8681 110.0759 110.2377 111.2715 113.1276 113.3425 119.5942 105.1993 107.1929 107.8799 102.6381 104.4989 101.5584 104.9098 110.4548 122.8142 122.4395 121.7483 121.9786 121.3726 122.2903 114.9434 109.7948 120.6484 119.6678 118.2686 117.1150 118.5590 118.4735 117.3711 119.4119 102.1645 119.6045 115.0934 116.8570 117.2649 117.3988 119.7712 121.9152 117.2233 117.6065 117.6885 117.8186 117.9723 118.1455 118.3365 118.5449 118.7549 118.9685 119.2323 120.2741 111.1985 119.7565 120.2088 120.4471 120.6924 120.9290 121.1864 121.4215 121.5783 121.8200
111.6600 113.7004 116.4796 111.0831 110.2892 107.5388 109.7088 109.4860 109.3746 111.4218 107.1626 112.0437 117.7289 113.9967 104.0789 98.6426 103.2322 98.3672 122.6593 121.1296 120.4393 120.1655 119.9846 119.8300 112.9614 102.2050 104.8098 112.8302 118.6639 118.7326 118.0788 117.8862 117.8816 118.1711 115.3167 117.9751 117.0078 117.1842 117.0101 116.8747 119.6004 117.3226 117.1213 117.0579 117.2016 117.3512 117.5213 117.7150 117.9204 118.1472 118.3864 118.6372 119.1206 119.3862 117.7521 119.4390 119.8728 120.1908 120.4482 120.7170 120.9838 121.2286 121.5048 121.5500
116.6600 117.0525 108.3551 107.0366 104.5609 115.2708 110.7276 110.7581 106.4018 107.3490 106.9694 113.6132 121.6968 115.0354 121.7434 111.2710 100.2059 120.9650 107.6352 118.6845 120.4821 120.1693 120.0148 118.9324 120.8136 98.4554 109.6308 110.9569 105.5255 117.6688 117.6828 117.4600 117.1837 116.9116 117.0044 116.4878 116.4581 116.4610 113.6298 116.6972 116.1132 116.4283 116.4321 116.5511 116.6879 116.8571 117.0459 117.2624 117.4962 117.7309 117.9757 118.3511 117.7334 115.9726 119.6117 119.4937 119.6527 119.9392 120.2151 120.4936 120.7568 121.0523 121.3029 121.4800
110.8000 110.8792 110.3947 106.4659 104.8639 112.0838 111.5564 111.0954 109.5545 103.4974 111.2767 121.6675 121.4208 120.9206 124.6237 100.9148 123.4088 122.1722 119.7118 120.9917 119.9419 119.9215 119.7303 116.8577 120.5980 108.4136 111.2145 118.7198 116.6234 118.1566 117.1067 117.0131 116.7438 116.5222 116.2809 116.1444 116.0604 116.0467 110.1199 114.4967 115.6245 115.7754 115.8740 115.9901 116.1531 116.3356 116.5565 116.7906 117.0519 117.2725 117.6273 117.8264 118.3905 118.0692 118.8614 119.0941 119.3875 119.6855 119.9802 120.2681 120.5641 120.7180 121.3919 121.2000
111.1400 111.1296 109.2609 109.8961 109.7223 110.4122 110.5805 110.5127 109.9138 106.4989 105.7863 108.3132 110.8927 122.2487 121.9265 120.5786 121.3885 120.7856 120.9306 120.2587 119.9867 119.1672 118.0989 118.7284 118.7132 118.6707 115.0040 109.6320 118.2863 117.0725 117.1870 116.4460 116.2556 115.9853 115.7540 115.5259 115.4205 115.5102 115.3979 115.9518 115.0581 115.1672 115.2575 115.4004 115.5685 115.8229 116.0580 116.3035 116.6173 117.0830 115.0028 107.6818 116.3270 118.1852 118.4913 118.8006 119.1224 119.4360 119.7462 120.0603 120.2716 121.4400 114.8622 121.1300
110.5900 110.9033 109.2640 110.3282 108.1641 109.4477 109.3673 101.6081 104.6967 108.3891 105.9381 117.1771 124.2203 101.6664 124.1550 119.9545 120.6098 120.7800 120.3721 119.9986 119.8867 119.4864 119.1805 118.7331 118.5294 117.9610 118.2837 117.8840 116.8677 116.6050 115.2763 116.1122 115.7285 115.4342 115.1691 114.9198 114.8551 114.4220 116.2769 114.0257 114.3756 114.4880 114.6019 114.7692 115.0339 115.0273 115.2052 115.1545 115.2186 115.2487 103.8876 106.2981 117.6242 117.5381 118.2275 118.5129 118.8542 119.1922 119.5181 119.8674 120.2021 125.4819 124.4968 121.0700
110.4600 109.8600 110.9274 109.2121 108.5433 108.3802 108.5294 105.6098 102.6244 105.1045 102.3327 119.0187 118.5577 105.2120 122.5406 112.7385 118.9555 120.5374 120.7140 120.4633 119.2892 118.8018 118.9586 118.5518 118.1655 117.8076 117.3806 117.0248 116.6549 116.4243 115.9753 115.5481 115.1978 114.8602 114.5547 114.2731 114.0409 113.9119 113.5423 113.7575 113.6863 113.7604 113.8918 114.0894 114.3578 114.5617 117.8094 115.7791 104.8468 104.3520 101.7859 104.0629 113.4344 117.7249 117.8656 118.2352 118.6049 118.9545 119.2967 119.6667 119.6863 119.4801 112.5646 120.7900
111.0100 110.6482 111.3927 110.6901 113.5577 109.3974 107.9784 106.2893 106.6248 100.9626 107.1701 118.8014 99.4928 104.8876 122.2147 122.0578 120.8309 120.6337 120.6922 115.6223 117.7110 116.2010 118.2363 118.2984 117.7555 117.5182 117.1017 116.7103 116.2921 115.8471 115.4516 115.0227 114.6368 114.2645 113.8908 113.5790 113.3115 113.0832 112.9812 112.8697 112.8748 112.9662 113.1250 113.3527 113.6718 113.6805 111.6242 112.0819 118.2739 105.6440 100.5967 114.1163 117.7981 117.1301 117.5706 117.9604 118.3498 118.7167 119.0853 119.4347 119.6750 120.8354 121.6368 120.7200
110.6000 110.5073 110.7495 112.2397 110.6511 111.3873 112.5763 111.7125 103.3787 105.9324 113.9117 110.6888 110.6311 122.7015 113.4138 115.3554 120.3601 122.1466 115.6523 98.9822 112.1314 116.5738 120.7799 118.5264 118.3569 117.1508 116.7843 116.3329 115.8759 115.4209 114.9569 114.4955 114.1031 113.5767 113.0088 112.8153 112.5320 112.2406 112.0665 111.9845 111.9910 112.0971 112.2923 112.5676 112.9092 113.1015 114.5663 111.4615 111.9233 116.1385 112.0687 110.6287 116.7627 116.8181 117.2825 117.7033 118.1028 118.4946 118.8737 119.2715 119.8972 120.3541 120.0791 120.3800
110.5600 110.1518 110.9102 113.5395 109.9086 110.0107 107.4498 104.5965 105.2753 108.7525 108.3436 117.6914 114.5357 116.2647 117.9660 109.0729 122.3124 109.1742 110.2275 112.6600 99.7065 99.2344 104.2371 106.8202 116.4732 117.1761 116.4912 115.9733 115.4870 115.0009 114.5036 114.0155 113.0575 113.5224 113.6911 112.0253 111.4447 111.3217 111.0983 110.9888 110.9992 111.1337 111.3780 111.7080 112.1116 112.5851 112.9785 113.6712 115.0822 120.6031 117.5899 115.7975 116.0587 116.5164 116.9244 117.4118 117.8749 118.2848 118.6999 118.8762 118.7648 117.3980 120.2054 120.3200
111.6300 110.8500 111.4415 110.2917 108.8628 108.6115 107.4015 104.8635 103.3095 100.3281 113.8809 116.4683 122.7632 122.3394 108.2969 119.7724 105.5561 97.2359 99.7627 121.7389 121.4923 104.2215 107.9344 90.7938 116.0175 114.0943 116.0059 115.5933 115.1140 114.5761 113.6276 112.9835 113.3127 109.9015 101.9088 113.5626 110.4985 110.3222 110.0120 109.8737 109.8870 110.0538 110.3616 110.7728 111.2586 111.8110 112.3758 112.9564 113.1416 111.6487 110.7024 115.2354 115.7606 116.3448 116.9392 117.1824 117.6632 118.0834 118.4731 119.6394 117.6539 118.8337 119.9228 120.2800
110.3600 110.5679 110.7996 110.7450 110.9482 110.6768 107.6801 105.7860 103.3456 111.0026 116.5425 114.9434 121.7392 120.7489 114.3406 117.7044 115.2864 98.9115 113.5290 121.6947 102.9203 97.4046 116.4378 111.7608 118.1083 114.8913 115.6998 115.3022 114.7467 114.1406 114.9457 113.5293 112.4315 96.6593 105.3772 117.0613 114.3816 109.1842 108.8216 108.5793 108.6093 108.8355 109.2335 109.7486 110.3627 111.0094 111.6862 112.3724 112.9716 114.2712 113.9635 114.8073 115.3752 115.9223 113.6015 117.1155 117.4572 117.8422 118.5428 120.4529 121.7435 120.6896 120.0394 120.2800
115.4300 113.9602 109.7392 110.0885 109.8266 109.4180 105.7017 104.6298 103.4394 105.9433 123.5443 117.6464 122.2874 122.7225 121.3226 120.4763 123.1569 97.1648 122.4244 121.0493 96.3932 102.9272 96.4587 119.6319 114.6942 116.5669 115.6582 114.9927 114.4085 113.6009 112.6735 91.5634 113.7984 106.7905 108.7940 119.5350 106.4196 107.5350 107.3595 107.0758 107.1091 107.4149 107.9523 108.6305 109.4033 110.1910 110.9804 111.7773 112.5535 109.8225 110.2570 114.5388 115.1545 115.6642 115.9035 116.7481 117.2706 117.7802 117.2348 118.5151 104.7739 112.5352 121.0068 119.9400
113.8900 113.5951 110.2960 112.2485 105.8405 106.2131 107.4324 104.3825 101.8597 101.9281 120.4597 104.8691 122.8181 97.2695 119.4360 121.7656 107.0424 123.2314 119.0622 118.7848 117.3817 111.7371 102.9810 118.0619 116.2377 115.9202 115.3236 114.7610 114.0136 113.3468 113.2666 107.6436 111.1450 111.6557 105.6828 105.2415 107.6573 106.3264 105.6409 105.2591 105.2998 105.7561 106.5000 107.4192 108.3876 109.3546 110.2816 111.2891 111.1877 118.8480 113.1567 114.2245 114.8634 115.5204 116.1232 116.5948 116.9924 117.4096 123.2890 111.0941 103.6205 103.6742 120.6338 119.9000
111.7300 113.4791 111.8284 110.5882 109.7344 109.4784 103.5068 102.0278 102.4941 117.6791 114.4444 105.3409 103.8605 101.7980 101.3529 102.1381 122.0984 113.8144 119.3626 117.7582 113.0670 117.8784 117.1610 116.9767 116.3698 115.7600 115.1447 114.5071 113.6794 112.4319 113.2277 106.7769 110.9235 110.7785 93.4252 108.0335 105.7666 104.6496 103.5654 102.9374 103.0119 103.7513 104.8553 106.1004 107.3484 108.5355 109.6217 110.6552 111.8489 107.4341 113.1245 113.7839 114.6473 115.2731 115.8662 116.4274 116.9572 117.4952 122.0876 108.9750 101.7045 115.0604 99.4488 119.8700
111.7500 111.5201 111.6219 111.4523 110.5548 109.4900 107.8523 105.5571 104.2619 109.4773 100.4383 101.7964 122.7713 121.3254 119.7953 117.9970 119.8233 119.3327 119.4480 118.7552 118.1300 117.6381 117.2463 116.7278 116.2148 115.6047 114.9744 114.3211 112.9445 102.4934 119.1109 110.4421 109.8420 108.6702 114.7351 110.8900 104.3197 102.6084 100.9361 99.8830 99.9910 101.2384 103.0007 104.7405 106.3426 107.7668 109.0363 110.1311 111.2395 110.6752 113.1964 113.7572 114.4363 115.1021 115.7205 116.3030 116.4922 117.0559 117.5823 120.0979 102.9735 110.4665 99.1205 97.8500
110.4600 111.0744 110.6506 111.4145 111.1109 111.6949 105.6373 106.2091 104.3533 110.2307 121.7831 122.1102 121.5135 120.1883 119.8429 113.7912 119.6912 120.1834 116.0960 119.4047 119.0557 117.7953 117.2295 116.6706 116.0888 115.4896 114.8987 113.9882 110.8012 100.0313 113.1178 108.5294 109.6668 108.3254 105.5436 104.2636 103.1401 100.4260 97.5086 94.5718 95.0260 98.1407 100.9789 103.4509 105.4395 107.1212 108.5519 109.7909 110.9324 111.9172 112.6914 113.5518 114.3017 114.9775 115.5787 116.6168 115.5993 106.6136 118.8105 117.9971 120.4076 115.3804 118.6152 99.2300
113.7400 113.6413 110.2828 108.9682 108.3538 107.1432 105.6462 104.0172 105.1503 117.9994 114.0901 117.1574 120.6350 121.0774 120.6229 120.6990 119.7208 121.5734 94.3441 117.2485 111.4882 115.5493 117.1143 116.5919 116.0273 115.4262 114.7435 113.8121 112.7144 113.3114 111.8351 110.5251 109.2076 107.9294 106.6178 104.5531 101.8792 98.4913 92.5960 88.3901 88.8339 94.1181 99.2315 102.4180 104.7899 106.6701 108.2182 109.5439 110.6957 111.7132 112.6410 113.4513 114.2106 114.8750 115.2739 116.5069 118.5358 122.6467 117.6764 117.8510 118.6068 126.0801 109.8221 104.3500
113.9500 112.6493 111.5781 108.1603 108.5102 106.1756 103.8636 102.6543 108.0118 103.7598 114.3641 118.5631 120.9511 120.9093 120.4646 119.9860 119.7328 120.0773 104.8385 109.5686 98.4999 97.0717 117.1176 116.6037 115.9998 115.3900 114.6643 115.4783 113.1097 113.9251 112.0611 110.2227 109.1480 107.7927 106.0602 104.0043 101.2999 97.4817 89.7296 84.8039 85.3276 91.4233 98.3583 101.9471 104.4965 106.4784 108.0836 109.4445 110.6177 111.6472 112.5632 113.4113 114.2109 114.7264 116.2253 116.3274 116.7313 118.9062 117.6875 118.1596 118.7429 119.0167 112.7052 120.8600
113.9800 112.4527 112.1925 107.3756 104.8127 109.2238 103.0552 112.9591 106.0564 112.3469 117.1391 121.4435 120.9887 120.8419 120.6588 120.1615 119.7495 120.2293 121.1293 111.2524 120.4859 109.8309 116.8628 116.5880 116.0128 115.4310 114.9856 102.8962 104.9272 100.2678 113.2059 110.1246 109.2399 107.8684 106.2341 104.2159 101.6027 97.9275 91.3675 86.8729 87.2809 92.9488 98.8341 102.1965 104.6519 106.5779 108.1604 109.4911 110.6558 111.6807 112.6042 113.4341 114.2622 114.7953 110.6181 115.0780 116.6057 119.5968 117.7087 118.1596 118.7347 118.7963 116.8917 120.8600
110.2700 112.1808 111.1645 107.2678 108.2367 103.0586 106.2155 113.2197 106.4217 118.0386 113.8901 122.1604 121.3572 120.9059 120.6976 120.2053 119.9423 119.5078 115.9413 112.1118 118.8799 120.4778 118.2196 116.6341 116.0569 115.4024 115.5435 106.4059 102.3441 101.5198 113.0177 110.5787 109.4448 108.1520 106.6221 104.8185 102.6054 99.8002 95.8817 92.3221 92.8968 97.0004 100.3943 103.0873 105.2058 106.9552 108.4281 109.7019 110.8172 111.8086 112.7057 113.5244 114.2676 114.7320 115.0683 110.1746 116.7262 117.0640 117.7766 118.2521 118.5964 118.8259 123.9218 121.0300
104.2500 105.5768 105.7762 108.5482 116.2167 108.8135 116.7999 106.0279 112.4530 105.5254 120.6047 121.5564 121.1268 120.6118 120.3140 120.1323 119.2286 117.3270 112.2967 116.6406 119.5493 101.3789 116.1366 116.7221 116.1642 115.5492 116.5966 118.9577 113.1893 113.9948 111.6183 110.8786 109.8234 108.6203 107.2629 105.7137 103.9456 101.8794 100.0312 98.5630 98.6810 100.3560 102.3431 104.3256 106.0410 107.5503 108.8776 110.0415 111.0853 112.0305 112.8836 113.6729 114.3978 115.0966 115.6785 116.8282 116.6978 117.4076 117.8027 118.2579 118.6434 121.6900 116.0234 106.6200
104.8000 103.1385 102.5522 105.4923 113.8200 112.3904 128.4121 106.5715 103.9287 113.1766 107.3988 124.2323 121.7234 121.2480 121.1596 120.3096 120.3772 115.1287 120.0489 118.7147 118.5316 112.6246 117.2125 116.7832 116.2355 116.6571 101.3087 115.5068 115.7520 113.7140 112.0970 111.2576 110.2862 109.2135 108.0377 106.7654 105.4089 104.0357 102.7716 102.0476 102.1232 102.9908 104.2614 105.6732 107.0326 108.2822 109.4343 110.4849 111.4454 112.3224 113.1295 113.8814 114.5657 115.2146 115.8017 116.2547 116.9028 117.4805 118.0742 118.8866 120.0003 106.1382 110.6540 116.8200
102.4300 102.6147 110.4193 108.2757 108.7558 104.6534 111.9199 108.3730 107.4846 104.8644 99.6260 99.9450 119.7761 112.0952 116.4265 118.8554 110.2201 119.9788 118.9572 118.7884 118.7207 118.7780 117.6812 117.0932 116.2833 116.8694 113.0650 112.6136 92.5367 112.5097 112.2446 111.7328 110.8238 109.8839 108.8923 107.8382 106.6712 105.6913 104.9591 104.5276 104.6217 105.1520 105.9968 107.0095 108.0659 109.0997 110.0856 111.0108 111.8706 112.6771 113.4274 114.1310 114.7875 115.4083 115.9887 116.4629 116.8701 117.2657 118.7156 112.6380 120.9164 101.4782 100.2191 99.8800
102.4400 101.8406 104.9461 122.0385 122.4723 122.5015 122.4280 103.7257 104.9380 101.3244 102.6240 106.8074 118.5143 115.6765 120.9336 120.0163 120.2436 119.5918 119.3057 118.9182 118.4674 117.2277 117.4417 117.0689 118.6425 94.3933 107.4983 115.3361 113.3515 113.6186 112.9245 112.1921 111.4171 110.5966 109.7560 108.9192 108.0402 107.6228 106.9984 106.5784 106.5693 106.9131 107.5118 108.2567 109.0864 109.9313 110.7690 111.5743 112.3439 113.0800 113.7759 114.4293 115.0456 115.6278 116.1917 116.6270 117.5852 118.3347 118.0686 118.4023 118.4971 118.3874 97.9957 104.7800
124.4500 124.3261 124.4010 123.2034 123.0941 114.1767 106.6677 104.7379 102.5772 102.9975 104.1084 108.3864 118.9953 120.0550 119.4693 120.6100 119.8451 119.7874 119.4155 118.9221 119.0451 123.6584 127.3274 117.3314 116.7506 118.3203 101.8663 109.7387 115.1249 114.0994 113.3693 112.7219 112.0305 111.3264 110.6151 109.9316 109.2856 108.0452 103.1534 108.2237 108.1673 108.3989 108.8356 109.4116 110.0622 110.7562 111.4660 112.1709 112.8534 113.5136 114.1465 114.7507 115.3354 115.8778 116.4329 116.8469 108.0262 110.0161 118.1366 118.8008 119.1445 119.7983 117.1536 130.0900
112.5100 120.2028 123.4073 109.2427 110.0413 110.7157 107.4275 122.6764 102.9871 102.2024 105.8252 103.0516 118.6669 106.6108 104.5632 122.9406 121.6943 118.7895 119.9017 119.1595 119.0553 118.2093 116.6700 117.9287 115.5088 104.6296 118.6520 113.5381 115.3013 114.2076 113.8283 113.2572 112.6509 112.0456 111.4411 110.8850 110.3406 110.2803 109.6365 109.4026 109.5143 109.6804 110.0149 110.4623 110.9888 111.5677 112.1673 112.7735 113.3776 113.9702 114.5465 115.1025 115.6442 116.1599 116.6507 117.1310 118.8166 118.9073 118.2226 118.8993 119.3308 116.9775 120.2152 106.6400
130.4900 124.5690 125.1533 125.5769 124.9395 124.7388 122.5938 123.3543 124.5912 124.6058 123.8393 122.5479 121.9943 123.5955 118.2264 115.5541 116.1472 108.4787 120.5410 119.1627 118.8901 118.6952 118.7899 116.1378 98.7797 94.9738 120.9226 97.8420 112.7845 115.2649 114.4554 113.8070 113.2735 112.7374 112.2263 111.7665 111.3129 110.8955 110.7415 110.6593 110.6556 110.8022 111.0646 111.4191 111.8491 112.3295 112.8468 113.3709 113.9034 114.4382 114.9647 115.4705 115.9688 116.4565 116.9117 117.3684 117.4303 117.8990 118.5705 119.0328 118.6381 119.5792 120.3183 104.7400
124.6500 124.6366 123.9264 123.4153 123.2559 123.1080 120.2410 122.8071 122.1779 121.9310 121.6360 122.0567 121.4139 113.9542 97.0409 96.0724 112.0413 110.8707 120.5682 119.2205 119.1475 118.5989 119.7239 99.6469 96.5679 97.5714 100.7947 96.2588 111.5028 119.0203 114.4452 114.2566 113.8555 113.3951 112.9766 112.5820 112.2378 111.9793 111.7671 111.6675 111.6815 111.7930 112.0100 112.3034 112.6543 113.0617 113.5014 113.9586 114.4366 114.9075 115.3887 115.8557 116.3148 116.7586 117.1995 117.6290 118.0722 118.4916 118.8263 120.7517 115.7938 116.5738 117.8561 101.3300
136.8000 125.7800 124.3700 124.0500 123.8900 123.5700 123.3900 123.0400 122.8600 122.6800 122.3000 122.1000 121.7000 103.8900 102.6100 98.8400 116.6800 123.0200 119.8800 119.6300 119.3900 118.8200 118.5400 97.9400 106.8800 95.3100 94.9800 107.4700 108.6400 97.1800 115.2000 114.7400 114.3200 113.3200 113.5200 113.0600 113.0600 112.5000 112.5900 111.8500 111.8500 112.6000 112.5200 113.0800 113.5400 113.4400 113.9200 114.3200 114.7400 115.2100 115.5300 116.2800 116.6300 116.9700 117.3100 117.6300 118.2400 118.5300 118.8200 125.0300 119.1600 102.9200 109.0600 101.3300
