118.6400 119.8200 116.1100 118.1100 117.8700 113.8000 108.9000 112.1500 113.6200 114.4600 110.4900 109.0200 111.4200 111.6000 109.3500 105.7400 111.9900 111.9800 103.2000 97.8600 105.8800 110.5400 110.7600 110.5600 110.4700 107.6100 107.9000 104.7800 104.5200 104.5200 106.5800 105.2400 94.6700 94.0300 112.6600 112.6600 112.2100 111.5600 111.7200 111.7200 114.3900 110.9200 129.9500 111.6100 112.2100 112.2100 112.7000 113.1700 113.6900 114.2300 114.5700 115.4500 115.4500 116.1800 116.5500 116.9000 117.5700 95.9000 115.8000 102.1100 101.9100 104.0100 119.8600 120.1100
118.6400 119.9807 118.4080 118.2166 117.5012 116.6200 114.2037 116.5654 109.8037 104.6112 110.2792 103.8051 105.0123 110.8380 110.1885 108.1796 111.6658 112.7173 102.8628 102.3473 104.9110 107.3114 104.7945 107.7215 111.7736 108.9483 108.5174 105.3308 103.0888 98.8042 104.8969 106.4501 102.4657 91.1417 97.4883 92.1915 93.8884 91.3067 111.9207 99.7800 113.8148 110.2113 110.7628 110.8149 111.6830 111.8538 108.4890 110.6825 113.1849 113.8781 114.2249 116.2570 111.1960 116.1825 116.8933 106.0410 105.2203 101.1768 98.5973 99.8952 99.7596 116.5199 119.4438 120.1100
119.4800 119.2862 121.2995 120.7163 118.8938 119.3940 119.9191 119.8912 116.4466 109.7204 109.6422 105.0850 98.2808 112.2045 112.6554 110.7781 109.2398 110.7706 102.4415 102.2001 103.1440 106.7746 105.9432 100.7941 104.6165 103.4694 107.9683 106.5369 103.2757 101.8936 101.9159 106.0036 102.3877 105.2912 103.8313 91.2272 95.7889 121.5102 111.3632 108.3349 110.2763 109.5644 109.7047 110.0556 110.3987 110.7626 111.6807 113.3894 112.7942 113.4179 113.8614 113.0724 109.2926 115.9140 116.3460 90.1537 107.0331 116.5981 99.5762 113.1417 99.4108 119.4114 119.3211 119.7500
119.4800 119.2685 121.7442 114.9788 121.5312 120.7402 119.8862 118.3230 120.2245 116.7716 113.7214 110.1785 107.7888 114.5025 110.6066 112.9925 112.0676 109.0471 107.4352 104.8264 100.4717 100.3416 99.0947 112.6162 95.1535 95.4095 101.6449 112.4670 104.3316 104.7963 114.7915 114.7044 110.0262 107.6581 113.9673 115.2857 95.8713 100.3302 109.3028 100.1824 108.2511 108.0265 108.3228 108.7806 109.3800 110.0113 110.7342 111.4112 112.0647 112.8487 113.3747 113.6685 114.5210 115.2464 114.7184 109.8944 111.7277 106.4736 102.7022 108.3830 115.9068 118.7224 119.3734 119.7100
121.7700 122.3164 118.6026 108.3837 109.0623 116.6899 115.5427 114.5877 114.5372 112.1432 114.4531 102.7058 112.2013 111.0484 107.8668 108.9094 108.7626 108.2876 106.8138 104.5648 99.9449 103.7412 102.6627 99.5828 105.3038 112.1469 103.3225 115.7893 97.9896 97.5583 121.8037 93.9038 95.2368 90.2679 117.5294 111.2599 110.6269 107.0494 107.7630 107.5279 107.1163 106.5133 106.8596 107.4636 108.2156 109.0535 109.9092 110.7172 111.9475 113.8944 113.5628 113.9273 114.6154 114.9901 115.9866 117.6660 110.6659 104.8262 100.4483 98.5741 108.9236 120.2906 119.4067 119.6700
120.9700 123.7809 102.2324 111.6466 107.4250 117.2926 114.9915 115.4798 102.3751 104.2021 114.9715 98.8275 101.1688 99.6687 109.8629 107.7346 106.2010 107.6466 108.5867 107.5612 110.2150 107.3399 107.6772 97.6990 100.4194 104.3084 103.0969 97.8372 94.4350 100.3128 100.6008 86.4940 107.0839 102.2416 89.0131 104.2159 108.0565 106.8177 105.7376 104.8495 104.3710 104.5543 105.0895 105.9475 106.9747 108.0184 109.1067 109.9120 110.4581 104.1368 112.5612 113.4303 114.0366 114.5355 115.4226 108.3037 108.2464 107.0957 100.4904 104.9251 115.8529 109.0031 120.1703 119.6300
120.0300 122.2086 108.2335 124.7852 106.5036 112.0728 102.1265 109.6364 100.4924 114.9048 114.5053 98.8214 98.6699 111.3320 114.5613 111.9520 113.2165 114.1914 105.5844 111.2144 104.8807 103.8914 103.8253 106.1982 104.0685 110.1872 114.3187 108.4956 97.3809 113.3029 87.5055 88.2339 110.6606 86.8010 106.2772 90.0456 105.0618 105.4475 103.9206 102.6857 101.9457 102.0369 102.9203 104.2378 105.6280 106.9935 108.2687 109.3720 110.6144 111.5990 112.1187 113.1784 113.9950 115.0084 116.0679 109.4842 111.3069 102.3804 105.4819 107.5801 119.4653 118.6521 119.4921 119.3300
121.8300 115.1346 124.1445 122.5219 121.2242 121.7947 120.6689 101.0793 100.7216 100.8906 99.8927 99.6283 99.5818 98.6959 105.6997 106.6019 112.2848 112.2136 106.4982 111.0400 105.3684 108.7580 108.9072 103.0260 100.0751 105.5317 122.9072 111.1088 115.2413 114.3434 112.2463 111.4229 88.6023 86.6771 103.9846 96.5218 105.4200 103.6997 101.8870 99.8250 98.3691 98.6021 100.2419 102.3106 104.2841 106.0179 107.5253 108.8638 110.0453 111.1150 112.2510 112.3094 112.2079 95.2288 94.1328 103.8608 100.8769 108.8337 106.5487 118.0311 118.1561 118.0755 114.6646 108.9700
122.1900 122.9823 123.2810 122.8209 122.8298 123.1353 121.6852 120.0372 102.6445 115.3798 102.9987 100.5134 99.4202 98.5952 111.8118 111.4009 106.9897 106.1785 110.8183 104.8673 108.2342 109.1590 108.1919 100.8817 100.3049 88.4915 115.8542 111.7514 114.0963 113.1892 112.2203 111.3651 113.0441 90.3132 107.7489 107.2422 104.9592 102.4643 99.6678 95.8831 92.1029 92.6645 96.8491 100.3356 103.0540 105.1965 106.9486 108.4375 109.7311 110.6691 110.3038 111.4782 93.8980 97.7259 95.7673 109.7599 102.8522 101.7892 104.2868 101.2664 121.0696 106.4211 106.4705 117.7100
121.0800 120.5617 120.8679 121.8062 121.3088 121.3423 121.3863 111.9806 121.9516 105.3295 113.6813 103.8530 99.8734 101.1532 113.3757 108.7417 107.5471 108.3313 108.2995 108.4247 106.6133 104.5947 103.9547 102.5249 109.0141 148.3918 116.0786 103.5033 113.4398 111.9372 112.5455 111.2135 109.5039 109.5194 108.3654 105.9708 104.0726 101.5564 97.9105 91.1119 86.6163 86.9966 92.9195 98.8146 102.1923 104.6556 106.5844 108.1445 109.4625 111.6356 103.0240 106.7441 92.0153 97.3988 101.6563 109.5479 103.2922 103.9972 101.9522 102.5943 117.4804 117.8866 108.1293 118.1100
118.5400 118.2530 117.7168 117.4710 117.8087 117.3875 117.6024 121.0147 117.5702 118.3154 118.0263 98.9003 99.7663 110.8464 113.5529 111.8042 105.6451 104.3570 109.5534 109.3077 107.3039 106.9235 105.1030 105.8126 109.2570 106.2226 94.1919 111.3238 115.3004 113.0845 112.4119 111.8869 109.4975 105.3726 107.7199 106.1670 104.0369 101.2900 97.4237 89.6267 84.6923 85.3161 91.5134 98.4023 101.9736 104.5249 106.4958 108.0862 109.4294 111.8762 108.0899 103.9682 94.5220 101.4297 103.1769 108.5886 110.6516 104.9585 103.9880 102.5564 110.0329 103.4215 105.0509 104.7600
118.3400 117.8138 117.5810 117.2760 117.7299 117.7654 117.7995 114.9506 117.4084 116.9147 113.5882 106.9083 102.7644 114.8939 113.2872 110.1886 106.8027 107.4459 112.5554 108.0252 108.9101 107.9817 106.3086 107.5244 121.5337 105.0530 118.9311 114.0098 113.7540 113.2571 112.4379 114.5818 108.0090 110.1423 107.8998 106.3031 104.3558 101.8621 98.5496 93.1199 88.4807 88.9314 94.3804 99.3269 102.4847 104.8304 106.7014 108.2438 109.5833 111.0340 108.3583 100.9611 110.4342 103.2259 101.8179 107.5364 108.6912 105.1621 101.9669 101.9681 102.3073 103.6733 103.2354 112.4400
118.5400 121.2978 120.4799 120.2626 118.0709 118.1487 117.8028 115.3762 117.0060 116.8641 113.0957 114.5391 112.1607 106.5881 108.1544 108.6100 110.1804 114.9678 114.6558 112.7847 110.9643 108.5953 106.4323 109.8543 119.7926 119.9937 114.8814 114.9331 114.2158 113.3781 112.7128 111.4323 110.9828 109.6703 108.2749 106.8252 105.0927 103.0316 100.5484 97.5291 94.7938 95.1905 98.3737 101.0988 103.5281 105.4962 107.1612 108.5918 109.8022 110.7544 112.6519 94.8564 101.6004 103.2838 98.8116 115.8504 105.1262 111.3452 113.7007 110.6317 111.4379 111.6654 115.5520 106.1400
114.3200 118.0717 121.0597 122.5612 120.0783 118.6228 117.8512 114.6663 114.6669 115.8676 112.6265 113.6845 112.9139 101.7336 106.8526 102.4780 107.0904 118.5332 109.6335 110.6396 108.1698 105.8218 105.6643 114.3485 117.4491 117.9908 115.5232 114.9383 114.2916 113.6215 112.6492 112.5544 110.8726 108.1953 108.8134 107.5167 106.0654 104.4449 102.6580 101.0221 99.9702 100.1422 101.3665 103.0949 104.8177 106.3978 107.8146 109.0735 110.1931 111.2928 112.1601 110.8130 106.8956 94.9249 111.0743 99.5405 104.0665 114.8471 118.0449 119.3117 119.4117 120.1266 119.9661 138.1500
115.2300 116.2775 111.9388 115.8942 118.9129 117.2497 116.4909 123.6960 121.9598 113.6429 115.7854 107.4758 107.5284 102.2010 105.3656 106.8410 101.1736 109.8582 110.0254 104.0937 109.4321 103.5132 97.6436 124.2795 117.6886 117.0162 115.7259 115.1456 114.5147 113.6056 114.1872 107.6868 116.0817 113.3358 109.2835 108.3377 107.1360 105.8953 104.6759 103.6284 103.0180 103.0974 103.8317 104.9507 106.1739 107.4075 108.5882 109.6547 110.6745 111.4982 112.2845 113.7898 109.7581 112.5539 98.4234 113.5573 112.7128 114.3642 117.3747 117.6856 118.2501 118.6261 122.9335 126.2400
122.4100 119.2782 118.9033 123.8253 118.5657 116.2681 114.4995 115.4739 115.7528 114.0615 115.3269 109.5020 108.1511 103.2133 105.1103 108.1693 105.5208 108.5550 99.2654 105.8688 105.5911 100.1390 105.3327 110.1148 114.8559 115.8544 115.8804 115.3609 114.8192 115.6142 100.5979 93.8842 112.4050 113.1027 110.1080 109.1863 108.2253 107.2764 106.3866 105.6894 105.3167 105.3592 105.8137 106.5707 107.4758 108.4351 109.3985 110.3894 111.2729 111.7138 113.1249 113.9522 114.4368 115.5736 96.8973 97.9768 118.5945 117.4457 117.6089 118.0691 118.4111 122.6313 105.0191 113.0600
123.8500 121.7788 122.2104 115.3940 111.5246 115.5472 113.9698 113.1364 109.9189 108.7043 106.6088 109.0333 106.0228 111.5859 115.3477 113.9765 111.0015 107.1948 103.2057 104.1974 107.9929 101.2383 101.8661 115.1647 115.1120 117.4252 115.9567 115.5791 114.4429 114.4146 93.7592 92.0095 106.4378 112.0776 110.7811 110.0681 109.2694 108.5214 107.8760 107.3785 107.1303 107.1556 107.4755 108.0116 108.6748 109.4506 110.2035 111.1479 109.5333 114.4243 101.9001 113.1060 113.5556 122.6659 115.8271 115.4341 116.7864 117.2982 117.7203 118.1978 118.8200 117.1539 120.2686 111.2500
122.9900 121.7454 122.2265 109.8943 117.0748 116.7906 116.1093 111.1277 107.9842 112.2210 111.6691 113.7342 116.5049 118.6530 116.0142 114.6686 111.0929 109.3200 105.3790 107.6019 100.3507 102.9877 118.6485 121.5456 98.4300 109.6594 117.9061 115.8959 116.8073 102.5776 103.8132 113.5823 113.0159 112.2999 111.5824 110.9088 110.2632 109.6719 109.1760 108.8103 108.6233 108.6478 108.8785 109.2594 109.8176 110.4320 111.0404 111.8008 112.2733 113.2108 113.5965 115.2305 115.0433 115.3465 112.8638 108.0281 117.0179 117.4218 117.9131 118.3587 118.4591 119.3512 106.9319 108.3400
122.0100 122.0744 118.7066 116.9997 115.7075 117.5846 117.1293 114.4617 113.3067 118.4567 111.0504 112.3118 114.6828 112.1893 111.6400 107.1720 108.4009 97.5782 109.5494 108.1613 105.0171 120.5130 101.5667 98.4571 100.8779 103.8769 120.5765 113.9305 115.4167 102.2743 117.0742 103.0626 111.7072 112.7970 112.3116 111.7100 111.1902 110.7214 110.3219 110.0484 109.9043 109.9251 110.0826 110.4284 110.6463 111.0085 111.8049 112.4399 113.0210 112.9597 115.6167 100.4325 116.2676 116.0003 117.0284 117.6370 117.3137 117.6665 118.1071 118.3850 118.8624 119.3840 120.1643 120.0000
122.5400 123.8512 118.0446 116.1080 116.0440 118.1750 103.0544 113.3841 115.6158 115.2348 110.9380 111.3088 105.5767 108.5361 104.1326 108.9428 107.5564 97.0919 99.9850 100.4029 106.6996 102.4400 108.5037 102.0618 105.0729 106.9781 97.5204 109.4800 109.2405 116.1531 102.9714 99.7849 115.9154 113.1834 113.1039 112.4855 112.0585 111.6650 111.3520 111.1304 111.0245 111.0388 111.1793 111.4776 112.2691 116.7033 112.3843 113.1462 113.4720 114.1934 114.9208 116.0629 116.3507 111.7270 116.4255 116.8961 117.4230 117.8884 118.3639 118.0453 118.8424 117.4315 119.5682 120.0400
116.7100 115.8328 116.1952 116.6120 116.6865 117.9036 118.9328 115.5527 117.8045 113.5896 108.9893 107.7321 111.6062 111.9281 98.2663 98.3401 98.1980 100.9487 106.5138 104.1429 107.2806 119.9717 119.8037 109.4086 116.8669 115.6474 109.8053 104.2457 117.2708 100.4417 104.4944 114.8740 115.1362 114.0220 113.7284 113.2380 112.8579 112.5307 112.2754 112.1006 112.0100 112.0248 112.1315 112.2539 113.4660 114.1392 114.5525 107.9281 115.5813 114.7461 114.5568 114.7373 115.0423 111.0079 118.0208 117.3338 117.7359 118.1183 118.4981 118.9362 119.2204 119.8967 119.9151 120.1000
117.2000 116.2772 115.9461 115.7458 118.8672 118.5567 117.3944 110.5018 114.4978 110.0521 127.9827 124.6541 116.0517 99.8512 101.1445 99.4539 98.8655 96.6534 116.2670 112.3618 121.9142 119.7156 118.6098 120.5793 116.4312 111.4746 109.5483 102.9668 111.0242 117.1682 115.2590 115.6252 115.0010 113.7694 114.2675 113.9242 113.6024 113.3307 113.1186 112.9718 112.9011 112.9085 113.0026 113.1089 111.4437 99.5051 108.0175 109.5388 113.3039 109.2371 114.1375 116.5329 107.1715 116.4134 116.8319 117.6057 117.9808 118.3646 118.7364 119.0950 119.4674 119.8827 120.0214 122.4000
117.2000 120.7213 119.9892 119.3832 123.3714 123.1339 125.4436 115.6390 116.2162 117.7083 96.4798 108.7844 100.8136 101.0471 99.0491 98.0403 104.2719 107.1842 125.9729 112.2132 120.0568 119.4855 119.2406 119.6388 109.3717 121.9859 109.2231 110.2189 116.9784 116.7717 112.8257 116.0026 112.1262 112.4621 115.0183 114.5750 114.2992 114.0608 113.8841 113.7577 113.7031 113.7081 113.8005 113.8271 114.4427 104.3315 102.1803 100.4563 105.8040 104.4341 106.1296 121.9858 95.0085 119.2657 117.3836 117.9311 118.2406 118.5985 118.9774 119.3220 119.6324 119.9349 121.5198 122.4000
125.0500 125.6706 125.6061 123.5541 124.4785 123.3356 117.9430 114.1757 110.5945 114.2148 111.2336 103.8613 101.7821 98.9671 111.2001 107.0940 113.2505 107.5558 113.4855 109.4679 120.4833 119.7726 119.5214 118.8968 118.7681 108.2221 113.3018 119.1892 117.3377 116.9427 116.8294 116.2944 115.9231 115.5851 115.4862 115.1851 114.9444 114.7504 114.5994 114.5038 114.4484 114.4481 114.5068 114.6769 114.7613 116.1095 111.9631 97.0534 105.5855 102.3560 102.8937 117.3298 107.5659 117.2639 117.6707 118.1972 118.5825 118.9538 119.2069 119.5364 119.8486 120.2054 121.1718 120.8100
125.0700 125.2648 124.4946 124.5939 124.1201 122.0820 119.2800 119.1428 114.3445 117.1754 104.6512 102.9240 102.0586 114.4623 114.5042 105.4240 102.7702 110.2360 117.7641 118.0235 120.4500 119.9863 119.6861 119.3094 119.5237 111.8328 123.1206 117.7904 117.8115 117.4622 117.1467 116.9015 116.7116 116.2507 116.0026 115.7679 115.5632 115.3732 115.2510 115.1205 115.1194 115.1301 115.1836 115.2793 115.5143 114.8426 118.8765 118.2343 111.7209 119.2653 116.8506 118.2244 117.4185 118.2457 118.0935 118.5441 118.6450 118.5434 119.5763 119.7561 120.0683 120.3690 120.3540 120.8700
109.1900 125.9226 124.8154 124.7385 127.6587 125.4040 117.8498 121.5989 123.9262 103.3388 103.3313 111.0870 112.2502 113.2457 114.7102 97.6739 103.1751 108.5719 116.5652 121.5097 120.3814 120.2144 119.9229 119.6641 119.3110 119.7792 117.8916 117.1396 117.8826 117.8650 117.5593 117.2322 116.9964 116.7650 116.5304 116.3227 116.1366 116.0000 115.6933 115.8292 115.7535 115.7561 115.8003 115.8994 115.9973 116.2825 116.0209 120.3629 116.7419 117.7744 117.6442 117.8737 109.7128 118.1796 118.4842 118.6942 121.9765 122.8020 119.4486 119.9911 120.2913 120.5661 120.8853 121.1600
125.2700 125.1940 124.9489 125.0382 124.6884 117.8707 121.2234 102.5019 103.0551 117.1081 112.0781 114.3796 114.1361 99.8208 97.5542 133.7826 102.7069 110.3840 119.1164 121.0612 120.7463 120.4379 120.1687 119.8912 119.5996 119.1630 119.4908 120.3351 118.3367 118.2742 117.9605 117.7010 117.4590 117.2354 117.0233 116.8297 116.7013 116.8640 116.3153 116.3795 116.3252 116.3469 116.3867 116.4468 116.5722 116.6990 116.8110 116.6132 117.2655 99.7544 110.3011 117.8026 118.0586 118.6002 118.7322 119.1226 119.5653 119.3712 120.0279 120.2131 120.5046 120.7831 121.0382 121.2200
125.2900 125.1918 125.0598 121.4778 124.1668 117.6489 111.4778 127.6685 121.2210 120.5579 112.2563 115.9072 115.8194 102.9451 119.7091 107.9139 104.5620 109.6125 121.9733 121.2541 120.9340 120.6681 120.4097 120.1432 119.8774 119.7367 118.5044 119.8530 118.4349 118.5740 118.3447 118.1227 117.8924 117.6888 117.4978 117.3512 117.2185 119.2529 120.4520 116.8774 116.8363 116.8888 116.9307 117.0334 117.1704 117.1648 117.8260 117.7648 117.9984 118.5001 117.2499 118.9670 118.4810 118.8922 119.1626 119.4471 119.7030 119.8896 120.2162 120.4761 120.7287 120.9847 121.2484 121.5000
125.4600 125.3159 125.0180 124.7805 121.6876 123.1797 123.2005 123.3435 119.3575 114.2751 113.7217 115.3067 104.7554 115.7609 104.6703 101.0153 106.6184 113.8305 117.1642 121.4576 121.2155 120.8804 120.6523 120.4023 120.1449 119.9274 119.6482 118.7344 119.1862 118.9556 118.7274 118.5120 118.3104 118.1271 117.9561 117.6215 117.6879 117.0612 117.2448 117.4285 117.4141 117.4167 117.4446 117.4043 117.3289 117.8032 115.6828 111.9552 118.0318 118.1371 118.4525 118.7765 119.0080 119.2313 119.4698 119.6769 119.9797 120.3062 120.4388 120.7151 120.9497 121.1900 121.4384 121.5700
125.4900 125.3561 125.4819 119.7097 125.3638 125.6469 115.9176 116.7184 113.5213 111.3263 112.3511 125.0822 113.5379 100.2638 101.5620 107.7463 115.0179 110.2889 106.4142 117.7324 121.6904 121.1202 120.8898 120.6557 120.4175 120.2063 119.9543 119.8282 119.5233 119.3314 119.0957 118.8991 118.7138 118.5667 118.1413 119.6837 118.0789 118.1455 118.0004 117.9250 117.8966 117.9036 117.9586 117.9495 118.9355 116.8237 119.5358 118.1351 118.6962 118.9541 118.6674 119.2626 119.3494 119.5645 119.7870 120.0581 119.9041 120.2239 120.7063 120.9505 121.1837 121.4484 121.6304 121.8400
125.5200 125.4875 125.2945 125.1063 124.3589 122.5240 116.7928 114.3634 114.3370 108.1857 113.7096 124.5079 110.0733 111.1491 106.0970 120.1023 107.2405 113.3950 107.8879 121.8333 121.5912 121.3736 121.1269 120.8852 120.6899 120.4828 120.4035 119.9844 119.8213 119.6396 119.4495 119.2707 119.0978 118.9602 118.7082 119.5975 118.4149 118.4592 118.4130 118.3534 118.3418 118.3280 118.2847 118.4224 115.1783 103.1969 118.0071 118.7540 118.9089 119.2526 117.4651 119.5683 119.6850 119.8900 120.0983 120.4619 118.3277 122.6424 120.6935 121.2121 121.3925 121.5921 119.0532 121.9100
125.6900 125.5397 125.3585 125.5869 122.7512 116.0633 121.2495 114.6683 114.1222 114.7957 100.1859 103.7704 107.7443 98.9251 107.2489 113.2132 119.1420 124.8734 126.2599 122.0653 121.7142 121.5953 121.3457 121.1007 121.3045 120.6632 120.4355 121.0265 120.0160 120.0888 119.7916 119.6345 119.4809 119.3541 119.2094 119.0123 118.9997 118.9699 118.8889 119.0043 118.9475 118.8146 119.4830 118.6814 119.0620 120.0423 119.9468 119.1501 119.3759 119.5254 119.8164 119.8481 120.0091 120.2008 120.3921 120.6012 120.8582 122.7526 120.8824 121.4608 121.6415 122.1592 121.7336 122.1700
125.7300 125.6609 125.3522 125.9088 115.5967 118.1212 118.7194 115.0356 111.6322 99.6638 113.6328 115.6714 108.3943 107.3395 103.1042 117.4251 125.0960 122.5557 122.1984 121.9239 122.0379 121.8088 121.7572 121.5736 119.3311 121.2839 121.2940 127.9840 120.4469 120.3282 120.1358 119.9760 119.8374 119.7027 119.5745 119.5079 119.4554 119.1487 119.4106 117.6975 119.2351 119.0936 113.9734 118.8078 118.9648 119.3012 119.2926 119.6502 119.7362 119.8662 119.9968 120.1677 120.3379 120.5081 120.6891 120.8771 121.0649 120.9866 121.4927 121.6502 121.8659 121.9862 122.5207 122.5000
125.9200 125.7821 125.6655 120.7634 116.5066 116.5700 110.3604 104.8495 97.3521 113.8673 125.7625 114.8289 120.8150 105.6275 109.8596 116.8885 116.8732 129.9335 121.9972 122.6626 122.2049 122.0486 121.7986 120.6741 114.5376 122.0159 121.1201 121.5013 120.8715 120.6335 120.4580 120.3205 120.1865 120.0662 119.9425 119.7320 122.5173 119.6207 119.8198 117.6058 120.3069 120.3497 119.0667 116.5920 119.6493 119.3787 119.5919 119.9713 120.0937 120.2118 120.3561 120.4988 120.6479 120.8121 120.9760 121.1522 121.3233 121.5164 121.6982 121.8958 122.0818 122.2641 122.4986 122.5000
125.9200 125.7062 126.1273 123.5878 121.0376 121.2277 111.9073 111.1003 121.2253 118.3685 117.6299 115.2394 107.0452 100.6480 121.7325 113.8002 108.9226 127.5262 122.2496 122.7381 122.4509 122.2857 122.0363 122.7140 121.8847 121.5278 121.2743 121.0989 121.1105 120.8912 120.7895 120.6466 120.5212 120.4116 120.3051 120.1245 119.9741 120.0963 120.0786 120.4200 116.4689 112.2565 120.7559 120.3950 119.9971 121.4616 121.7713 120.2625 120.4648 120.5415 120.6785 120.8120 120.9517 121.1109 121.2651 121.4307 121.6037 121.7726 121.9318 122.1310 122.3085 122.4960 122.6738 122.8200
126.1100 125.9889 122.4200 121.4129 118.1004 116.1732 116.0675 115.2695 113.5531 114.0422 111.7029 106.2109 102.0387 105.8656 124.0515 112.1779 121.4407 123.0712 123.1633 122.8490 122.6642 122.4823 122.3345 121.9981 121.9345 121.5170 121.7195 121.5428 121.3361 121.2995 121.0814 120.9638 120.8474 120.7482 120.6467 120.5892 120.5464 120.4543 120.1351 120.5150 107.5652 102.4557 121.5384 120.1873 120.3377 120.4795 102.0820 115.7710 120.7590 120.8831 120.9889 121.1190 121.2520 121.3974 121.5399 121.6983 121.8573 122.0131 122.1843 122.3574 122.5243 122.7042 122.8844 123.0600
126.1500 127.0690 119.2657 119.1429 118.2572 117.0078 115.8409 115.0297 115.1509 107.8362 104.5643 101.1876 103.2153 107.3200 122.0532 122.4534 123.6564 123.1640 122.3934 123.1623 122.8747 122.7052 122.5567 122.4019 122.5405 126.4853 121.7467 123.7083 121.5718 121.5185 121.3860 121.2744 121.1649 121.0662 120.9842 120.8979 120.8397 120.7939 120.6841 120.3933 117.7530 117.1669 121.3834 120.6885 121.0846 122.2116 118.1627 122.6428 121.1499 121.2009 121.3028 121.4131 121.5434 121.6712 121.8129 121.9609 122.1104 122.2625 122.4192 122.5845 122.7460 122.9176 123.0800 123.0900
119.2300 119.2533 119.1179 121.4184 122.6033 120.8912 117.6171 115.8968 108.6780 108.7915 111.0127 121.3827 118.3695 101.4367 126.4729 123.3269 123.7422 123.6634 123.2069 123.2655 123.0715 122.9210 122.7673 122.5445 122.3179 120.7781 111.7675 118.2790 121.9226 121.8242 121.6768 121.5732 121.4685 121.3778 121.2958 121.2306 121.1753 121.1120 121.0564 121.1901 121.4287 121.4839 120.0719 117.0372 120.4346 115.5221 121.8925 120.8893 121.3403 121.5105 121.5997 121.7027 121.8212 121.9488 122.0752 122.2210 122.3559 122.5007 122.6516 122.7973 122.9092 123.2553 123.1761 123.3600
126.3500 126.8823 118.7688 120.6540 120.5166 118.9638 118.1613 116.6318 104.2599 112.7927 112.2553 125.6701 124.7143 123.3886 124.9067 123.8189 124.2838 123.7150 123.6079 123.4527 123.2865 123.1448 122.9933 123.6412 123.9113 106.0705 114.7082 123.4947 122.1471 122.0850 121.9601 121.8610 121.7710 121.6816 121.6084 121.5383 121.4807 121.5188 121.4539 121.3963 121.3231 121.4026 123.4027 122.0328 125.0682 117.7937 121.6264 121.6478 121.7233 121.7665 121.8876 121.9856 122.0952 122.2126 122.3345 122.4663 122.6004 122.7390 122.8811 123.0321 123.1743 123.4394 123.3853 123.5900
126.3900 123.6483 118.1559 119.0630 118.3697 119.0177 111.7897 107.4518 106.0878 115.6067 121.0365 116.5146 124.2064 124.3913 124.3969 124.3294 123.7097 117.1388 124.4688 123.5516 123.5118 123.3511 123.2398 123.0126 122.8576 123.5607 124.0715 122.5645 122.4603 122.3193 122.2575 122.1433 122.0517 121.9724 121.9103 121.8423 121.8337 121.1393 121.5923 121.8393 121.1250 121.8567 121.5920 109.4263 115.8713 122.0703 121.7893 121.8461 121.9774 122.1351 122.1701 122.2665 122.3593 122.4784 122.5947 122.7131 122.8424 122.9769 123.1127 123.2418 123.3888 123.5348 123.6835 123.8600
126.5500 127.3605 119.0005 119.3415 110.0581 107.7954 105.4274 109.8040 111.4615 105.6284 109.4200 104.4850 122.5696 124.8410 124.5872 124.3245 124.8887 123.5598 124.1945 123.7810 123.6990 123.5547 123.4452 123.3199 123.1091 122.9846 122.7394 122.8605 122.5599 122.6592 122.4340 122.4397 122.3364 122.2639 122.1944 122.2163 121.4010 126.8396 124.6105 121.7169 101.4383 118.5219 117.7784 112.5661 123.5051 122.2358 122.1695 122.2676 122.3035 121.8362 122.4560 122.6013 122.6249 122.7366 122.8386 122.9564 123.0779 123.2054 123.3270 123.4579 123.5970 123.7297 123.8715 123.8600
126.5800 127.1170 120.5843 118.1313 113.0350 109.7630 109.3860 121.4460 122.4847 113.2298 105.3255 114.4505 125.4896 125.2540 124.6795 124.5944 124.3977 124.2584 124.2158 124.0227 123.8980 123.7983 123.6883 123.5004 123.4133 123.2882 122.9187 122.6401 123.7489 122.0687 122.9539 122.7014 122.6058 122.5312 122.4819 122.4807 122.3606 126.0526 121.3650 122.1492 108.4429 107.1240 121.4495 112.0739 123.9579 122.2646 122.4199 122.4982 122.5450 123.9821 126.6463 122.6190 122.9077 122.9732 123.0864 123.1932 123.3022 123.4266 123.5540 123.6989 123.6428 123.9411 124.0319 124.0900
126.7400 126.8324 119.0937 118.6617 106.2050 110.7488 118.2516 102.8463 116.1980 111.4569 108.1603 111.1089 122.9419 124.6976 124.9566 124.8496 124.6489 124.5070 124.3585 124.2284 124.1325 123.8246 123.6984 123.7648 123.6125 123.5488 123.3958 123.1877 119.6440 119.5726 123.0352 122.9662 122.8474 122.8321 122.6956 122.4615 122.4659 122.1473 122.5372 125.2345 119.2387 120.3275 102.0489 117.5795 121.8284 120.2304 122.6687 122.7880 122.8698 124.3584 122.9207 122.9035 123.0926 123.2560 123.3154 123.4233 123.5331 123.6359 123.8711 124.0027 124.7540 125.1507 124.2542 124.3100
126.9300 126.6820 125.3255 119.5563 120.7315 112.5301 100.7984 112.4344 111.1539 114.3347 108.9584 106.3978 125.5626 125.1902 124.1897 124.8652 124.5490 124.6707 124.5877 124.4075 125.3220 126.7988 124.8541 123.8659 123.8060 123.4406 123.7580 124.5505 122.3539 123.8536 123.2490 123.2193 123.2000 122.7509 124.1560 124.5996 122.7447 122.9120 120.3556 114.6153 117.2266 100.7582 123.1217 141.3413 121.5178 122.8109 122.8702 123.0381 123.0838 122.9233 123.2337 121.5358 123.6704 123.4459 123.5550 123.6511 123.7511 123.8747 124.0326 124.6972 121.1041 117.3304 124.6633 124.5800
127.0700 126.7153 127.6663 119.5872 129.2956 115.1305 116.9849 119.7447 107.7487 107.9585 105.6999 118.5003 126.9074 125.1898 128.2293 129.6620 124.8615 124.9429 124.7572 124.5575 125.0105 126.5740 120.8006 123.6998 124.5417 123.4076 121.6269 115.5897 124.9544 123.3795 124.6703 123.3655 123.3835 125.0434 129.2814 113.6067 118.0616 123.3317 118.5836 105.2903 120.3853 116.8178 106.0330 123.6310 122.7215 123.1912 123.3518 123.3499 123.3109 123.3784 123.7711 119.8588 123.7375 123.6957 123.7828 123.8762 123.9683 124.0174 124.9837 124.6046 112.3091 110.0430 124.9837 124.7900
127.1200 127.0651 127.1231 125.0565 119.6394 117.5170 117.7113 115.1722 119.2367 116.0053 126.8809 127.9089 126.0188 125.5884 111.3003 107.5844 124.0335 125.3085 124.9935 124.8292 124.4889 123.5242 129.2392 119.7443 124.4824 124.3850 120.8191 101.1568 123.6651 124.3037 114.1782 124.7785 122.5922 124.8228 112.6130 117.0052 123.5838 123.3843 124.4268 117.5330 107.1246 124.3271 117.6588 122.2503 123.4884 123.2701 122.5336 122.3494 123.6200 123.6338 123.6429 124.0302 123.8297 123.9484 123.9574 124.0985 124.1614 124.2468 125.6713 121.5456 125.5234 116.4405 125.0864 124.9700
127.2600 127.2581 126.1683 121.7658 119.1405 113.1339 115.5920 112.6628 111.0517 107.3865 108.8717 111.8079 123.7207 127.1930 114.9936 121.2195 124.9449 125.0623 125.0797 125.0097 124.7040 125.2027 124.5144 124.5410 124.2891 123.5747 102.9116 122.6567 119.3599 115.6885 111.9330 121.9180 122.1244 121.1248 109.5266 107.9502 108.5746 131.3800 113.0693 123.5026 118.9550 115.0578 125.0433 124.1442 123.7470 124.3583 125.0122 125.0977 123.7151 123.9672 123.9289 123.9482 124.0297 124.0508 125.0923 124.3337 124.3875 124.4308 124.6610 110.6690 127.1015 125.1736 124.3883 109.9000
127.3000 127.8318 122.4837 116.0576 115.4816 109.7957 113.9214 112.8692 108.8943 112.2041 110.7582 112.6102 128.2848 106.5815 105.2624 121.2217 126.4631 125.2146 125.3712 125.1458 125.0806 124.9036 124.9010 124.7451 124.4675 126.2566 124.4193 125.0668 124.8556 124.8315 128.5206 118.0706 123.4690 118.7552 107.8000 124.3783 113.7443 106.8099 110.3133 124.0252 124.5401 122.8850 123.7382 123.5936 124.3816 117.7661 121.8888 122.5962 122.8593 124.3332 124.1532 124.1803 124.4181 124.7335 126.4032 123.5268 124.6200 124.6624 125.7467 114.7285 121.9137 124.9961 125.2247 125.2300
127.4500 128.2375 120.7033 115.2353 114.8191 116.3336 115.4211 111.6708 108.6029 105.2191 122.7419 108.6333 111.5274 104.3434 128.5318 125.0865 125.5413 125.7637 125.3612 125.3747 125.2044 125.2387 125.1120 124.9735 124.8115 124.5717 124.8504 125.0086 124.7330 109.8320 113.2345 103.5935 122.3610 121.2370 110.9102 126.5534 126.0694 125.6283 124.3222 124.0720 124.0476 124.2070 124.3971 125.0326 132.4901 117.7860 124.7092 111.3448 109.4460 125.9227 124.2465 124.4670 124.3444 129.6349 114.7956 124.5489 124.8781 124.9599 124.1553 124.8469 121.9595 125.6767 125.4466 125.4200
127.4900 126.2103 119.7824 115.4473 117.4673 116.9664 105.6356 112.9218 108.6562 107.6834 111.0855 117.9272 100.5446 108.2217 127.0386 124.8951 109.4479 126.0942 125.8768 125.4169 125.5464 124.6753 124.6084 125.1601 124.9712 124.8772 124.6358 121.3776 124.6813 125.9052 116.8546 109.8423 122.1196 124.8939 124.1851 124.3023 123.7399 123.9260 124.2547 124.3313 124.3010 124.4100 125.6692 111.1480 124.3789 124.3443 124.9092 122.1265 111.8997 118.3724 124.9245 124.5898 125.0928 124.7286 125.2448 124.7431 125.0304 125.0622 124.9575 125.3551 126.0154 125.3078 125.5806 125.5900
127.6300 121.1356 121.4589 116.8600 118.1297 117.3870 112.7751 107.1338 109.3658 107.4802 106.6952 106.9319 117.6852 127.1942 127.0759 127.2403 120.8026 105.5260 126.3769 125.9502 125.4416 127.2374 121.7471 123.0665 124.9186 126.3937 124.0107 125.9705 126.0438 110.6106 113.8861 113.1871 124.8442 124.3879 124.6579 124.6901 124.7628 124.6986 124.5990 124.5640 124.5247 124.5707 125.6279 110.4161 126.7025 124.3239 124.5407 124.8408 126.8581 122.4030 124.8629 124.8836 124.8978 125.0927 124.8910 125.0998 125.2399 125.2766 125.3481 125.4057 125.5216 125.6570 125.6897 125.7700
127.7600 118.8695 119.2248 116.5667 116.4949 116.0094 110.9734 110.3839 111.3944 107.2572 118.6842 109.9875 122.1669 126.9890 126.3245 118.2409 126.0135 122.0126 123.9228 125.8645 126.4464 123.9981 103.6543 121.2136 126.0389 121.2557 106.0661 121.2888 114.4175 105.6831 107.6558 118.7734 125.4190 124.9778 124.8955 124.8361 124.7923 124.7353 124.7440 124.7972 124.8090 125.4173 125.3889 114.6540 125.6804 124.4674 124.8545 124.8899 124.5180 125.1991 124.8682 125.0717 125.1280 125.1696 125.2651 125.3130 125.3785 125.4585 125.5339 125.6221 125.7010 125.7773 125.8839 126.0000
117.4800 118.6062 127.0942 118.3336 115.9138 114.5417 106.6704 113.4163 110.3173 109.5856 117.3397 119.5575 126.3715 126.4215 127.1503 130.0597 127.3302 128.0825 123.6669 105.2509 126.3765 117.3713 114.4431 125.5040 126.5699 113.8233 100.6449 113.8549 116.5154 125.3439 122.0201 126.3284 125.0257 125.1246 125.0912 125.0175 125.1666 125.4165 125.0275 124.9311 124.9341 120.1648 125.1446 125.9977 125.9302 124.9210 125.0681 125.1041 125.2078 125.1537 125.2793 125.2743 125.3204 125.3812 125.4414 125.5016 125.5748 125.6427 125.7180 125.7983 125.8756 125.9575 126.0416 126.0000
127.9500 119.6243 119.9850 121.6902 116.5009 112.7814 112.5830 112.7296 110.8203 118.4664 107.6888 128.9277 126.7006 126.5412 126.4742 127.6533 126.3645 121.5239 118.4526 122.7820 107.2402 104.6279 110.0101 128.4880 118.1838 115.8546 126.9915 115.3497 106.1294 125.6037 125.7440 125.3425 125.3784 125.2957 125.3861 126.7685 125.4507 124.7303 125.1601 125.3068 128.2709 114.6176 126.1307 124.8861 125.0270 125.2191 125.2773 125.3036 125.3264 125.3728 125.4074 125.4603 125.5194 125.5723 125.6281 125.6902 125.7502 125.8265 125.8934 125.9724 126.0477 126.1307 126.2068 126.1800
128.0800 120.8590 119.8456 119.9526 116.6383 116.8318 112.5173 113.6655 109.8665 115.9962 116.6518 127.4322 126.6941 126.9609 126.8737 126.7308 126.1665 127.9476 123.7435 113.5136 125.6719 108.2569 121.9630 128.7113 109.2967 111.6678 126.1698 128.3834 110.9028 126.7938 125.5591 125.6156 125.5506 125.5234 125.5173 129.5092 127.9759 126.9892 129.4634 125.9039 109.8079 117.8211 126.7230 125.3452 125.4527 125.4594 125.4740 125.5028 125.5384 125.5734 125.6182 125.6587 125.7090 125.7580 125.8115 125.8723 125.9399 125.9981 126.0732 126.1475 126.2177 126.2965 126.3697 126.5100
118.7000 119.5498 119.1332 117.3420 115.2853 111.1860 120.8168 113.1149 112.4236 119.4134 116.3278 127.6121 126.3188 127.1813 127.0788 126.8411 126.6179 124.5257 101.8615 118.7813 116.8937 126.7897 115.9931 121.8343 103.6975 114.9700 126.3758 105.7260 123.2688 126.2720 125.8176 125.7924 125.7479 125.6070 126.9013 111.8501 113.3295 115.7819 127.1381 124.5753 115.8872 118.4147 125.5565 125.4982 125.6270 125.6568 125.6714 125.7002 125.7346 125.7645 125.8041 125.8476 125.8957 125.9413 125.9948 126.0530 126.1094 126.1854 126.2539 126.2676 126.3796 126.4550 126.5575 126.5400
118.7000 118.6535 118.9903 118.1949 114.4862 112.0579 131.5181 119.4083 113.2137 129.8216 124.6397 115.8773 130.2149 128.2182 126.8737 127.1456 127.0281 127.7407 111.5749 128.4438 127.3335 126.6922 119.5955 128.6499 120.7509 102.8357 108.8086 108.7635 126.9741 125.7829 126.0441 126.0211 125.7864 124.4463 125.8002 124.3925 108.8362 108.0893 127.1985 126.5016 127.1077 126.8524 126.2480 125.7955 125.8214 125.8402 125.8623 125.8774 125.9069 125.9545 125.9896 126.0296 126.0784 126.1253 126.1743 126.2342 126.2972 126.3129 126.4017 126.7829 126.5467 126.6235 126.5731 126.7100
118.6600 118.0186 115.4123 112.9091 124.1630 116.7442 119.5817 129.4810 117.8302 130.5820 121.3445 103.7090 116.8474 121.7925 127.6033 127.4403 121.4428 126.9260 127.4921 122.5919 117.8669 109.6275 116.2296 125.6721 111.5040 107.7274 112.1315 120.0061 126.3600 126.1888 126.2095 126.1980 126.0277 124.5645 125.3221 122.0628 109.7895 126.7131 125.2221 125.5157 125.7911 125.8144 125.8577 125.9825 126.0204 126.0350 126.0624 126.1070 126.1303 126.1363 126.1652 126.2040 126.2537 126.3038 126.3450 126.4028 126.4655 126.5688 126.6165 122.9523 126.4800 126.7416 127.0446 126.8800
116.9000 127.8589 115.6602 124.6051 127.9805 127.0299 127.6922 127.9477 127.7136 130.7479 105.1778 122.9744 111.2224 108.3956 129.2386 127.7255 127.3293 127.1119 117.4016 107.9946 110.2739 116.3706 111.8386 111.4415 109.0476 115.2781 112.6075 122.5772 126.4787 126.4094 126.3795 126.3571 126.2014 126.4072 126.1974 127.9656 111.0316 127.4714 128.0554 126.6316 125.9996 126.2081 126.2319 126.1853 126.2013 126.2225 126.2483 126.1270 126.3099 126.3114 126.3988 126.3830 126.4331 126.4794 126.5209 126.5790 126.6262 126.6890 125.4641 121.7646 127.4396 127.6976 120.4623 127.0400
116.9000 129.0400 127.8597 129.8138 128.2026 128.3863 128.3865 128.0246 127.9579 125.9696 107.6343 105.0048 127.1657 123.6096 130.9916 127.1134 127.1150 125.7766 126.5453 105.1842 108.0871 104.6263 108.3819 113.2437 115.0492 123.9271 122.5883 126.0617 126.6579 126.6009 126.5581 126.5331 126.5300 126.4578 126.3809 126.5771 127.6712 124.2932 111.8660 126.5155 125.6728 126.3820 126.3610 126.7053 126.3844 126.3944 126.4396 126.2154 125.3889 125.4899 126.4265 126.6612 126.5972 126.6474 126.6962 126.7413 126.7969 126.8441 126.8422 127.7676 126.8859 126.4773 113.7280 116.4800
128.7100 128.6453 128.6520 128.4230 128.4580 128.4201 128.2326 128.2832 127.6898 129.1927 125.4828 114.5287 128.7920 110.3048 123.2752 128.7818 128.0654 125.5985 119.1743 113.0796 124.5976 106.3757 104.4849 109.9774 118.1444 127.5276 126.9550 126.8959 126.8024 126.8017 126.7275 126.6900 126.6480 126.6379 126.6074 126.3390 127.4529 111.2735 114.0905 126.9106 125.9835 126.5770 126.6756 124.7536 126.7053 126.5926 126.6154 126.1564 126.7139 116.2926 126.8761 126.7916 126.7661 126.8130 126.8644 126.9045 126.9517 127.0242 127.1145 126.8221 126.9342 128.1690 123.4609 112.7700
128.8400 128.8301 128.7346 128.6309 128.5460 128.4689 128.3823 128.2796 128.3525 127.8760 127.5253 128.3200 131.1999 113.3074 119.8576 118.3122 124.5235 114.4727 120.2525 127.8706 115.3997 105.6769 105.4990 112.5166 126.8849 126.9890 127.0686 127.0081 126.9732 126.7543 126.8939 126.8568 126.8403 126.8118 126.7747 126.5681 128.3035 116.6402 124.5964 126.8954 126.6897 126.7847 127.5395 113.8506 127.3294 126.4942 126.7610 126.8229 126.6667 127.9496 126.9736 126.9412 126.9347 126.9818 127.0200 127.0692 127.1326 127.1265 127.0331 127.9231 126.6212 125.3185 117.5161 118.6000
128.9600 128.9034 128.8284 128.7491 128.6694 128.5856 128.5151 128.4370 128.3245 127.7094 126.9612 128.8594 115.0250 114.6258 125.6589 107.3703 127.6791 102.7928 119.2701 125.5838 118.8535 109.0163 109.3028 112.2658 127.9967 127.1220 127.1996 127.3147 126.8946 127.6928 126.9589 126.9758 126.9936 126.9799 126.9471 126.8457 127.8164 125.4244 121.8531 125.8874 126.8835 126.8734 126.8694 128.4351 128.2815 126.7985 126.9383 126.9513 127.0161 126.7890 127.0171 127.0974 127.1047 127.1463 127.1902 127.2301 127.2472 127.3932 127.9198 123.6324 116.7334 120.6935 107.4959 111.0100
129.0000 129.0000 128.9200 128.8400 128.7700 128.6800 128.6100 128.5200 128.4400 128.3500 128.2700 128.1900 106.2000 128.0200 128.0200 105.9400 112.6400 123.5000 123.5100 127.7000 106.9000 107.1500 106.0300 109.7600 127.4500 127.3500 127.3700 125.2300 106.6800 123.7900 127.1800 127.2000 127.0800 127.0900 127.1100 126.9700 126.9900 126.9900 107.0700 127.0100 127.0100 127.0100 127.0100 127.0000 126.9900 126.9800 127.1100 127.1000 127.0900 127.0800 127.2000 127.1800 127.1500 127.2800 127.2600 127.3700 127.3500 127.4500 127.4200 114.5600 121.6400 121.6400 129.9200 111.0100
