118.3900 112.6900 121.0000 118.7000 112.1800 118.9900 118.5100 118.5100 117.6500 117.8200 110.5900 111.8400 103.0900 103.9600 106.6600 117.6000 110.1300 111.0800 111.5300 104.6000 112.6900 118.5200 111.2400 107.3800 111.0500 109.5700 109.5300 109.4000 107.1500 100.2300 102.7600 100.3500 100.3500 99.6900 105.5500 121.3300 121.3300 102.3600 121.1700 120.9400 120.9800 120.7200 123.6400 120.7800 120.7900 120.8000 120.8000 120.7900 120.7700 120.7500 120.9800 120.9800 120.9500 121.1800 121.1300 121.3400 121.5300 121.4800 121.7100 121.8800 122.0300 122.0300 122.3900 122.3900
118.3900 112.3286 116.2951 116.1338 116.6913 116.5272 120.1932 119.3377 117.8392 117.2205 115.5652 111.8373 109.3946 108.7796 109.8151 115.5722 109.2046 111.0163 112.6192 111.5583 111.8302 109.0005 111.4690 109.8022 110.0614 108.7520 108.1998 105.8707 105.2484 108.4529 102.2340 107.4067 104.4852 99.6826 101.9967 100.3743 117.9190 104.8505 123.2743 114.4204 114.0000 120.7988 121.4904 120.4753 120.5020 120.4965 120.5142 120.2491 120.9261 105.6884 119.3742 120.4200 120.8157 120.8918 120.9965 121.1087 121.2352 121.3671 121.5195 122.4892 115.8292 121.8825 122.2062 122.3500
120.4200 118.2753 112.2523 111.4994 113.8133 114.8212 110.4307 113.6111 118.0014 117.8774 110.1879 116.0910 110.8860 109.9038 115.7782 101.9985 103.1483 105.4313 116.3253 106.9441 111.9062 98.5397 106.5235 109.2419 106.3852 106.4356 103.7601 112.4278 113.1839 103.9575 100.2072 107.8054 108.7727 115.6942 100.6411 99.7645 114.4828 113.4436 122.3813 116.7993 120.2305 120.4259 120.1158 120.1372 120.1434 120.1362 120.1646 119.6245 119.5837 101.2812 120.7426 120.1870 120.4739 120.5682 120.6771 120.7999 120.9246 121.0442 121.2278 120.9077 121.5636 120.5922 122.9467 122.1000
122.7800 121.2213 121.3314 121.4458 104.8101 109.6924 109.5134 112.1423 116.2156 119.0516 112.5687 114.1900 113.2530 115.8276 111.7429 112.9495 103.2738 102.7195 106.6359 108.7874 111.0915 105.5886 100.3922 111.2525 101.4273 103.5208 106.0084 109.1986 103.0423 110.2197 102.9674 117.1481 116.8847 116.8070 96.2150 119.7356 112.4171 120.2008 120.1554 120.2796 119.9646 119.8132 119.8682 119.7995 119.7666 119.7424 119.8348 118.6511 119.4717 108.9863 120.4803 120.1259 120.1140 120.2277 120.3243 120.4204 120.6653 120.8068 120.9444 121.6679 120.1613 124.7923 111.2076 121.8200
126.7000 124.5297 108.9088 111.3679 117.6868 108.6393 107.0234 112.7273 108.6907 111.7699 117.3243 107.2886 117.8732 103.8697 109.0994 110.3238 109.2567 104.0959 110.1729 104.3316 113.5130 121.4282 113.1971 112.2090 104.3881 103.9711 111.9464 114.7997 117.8428 102.8892 116.4601 104.0303 122.4682 120.8558 113.4437 121.8803 119.5600 120.0718 119.8838 119.4440 119.6659 119.5669 119.4624 119.4073 119.3789 119.2750 118.4573 113.4336 119.3352 105.0145 118.5652 119.5194 119.7817 119.8998 120.0885 120.6292 120.0575 120.4818 120.4104 120.0844 99.9287 106.1199 114.4838 101.1900
126.5000 125.8090 115.0400 110.9707 106.6312 118.6444 112.5079 111.0347 112.1563 111.0322 108.1455 108.5540 115.5738 101.9160 115.7980 113.6343 111.4659 110.2150 111.7165 103.0694 101.3146 110.6199 110.4965 108.3389 110.1840 106.1507 101.2291 113.8579 122.3942 114.9091 116.0584 117.4880 123.5969 117.2710 122.4694 119.8416 119.7251 119.5594 119.4400 119.3709 119.2141 119.1168 119.0607 119.0034 118.9840 118.9905 118.8206 119.4087 102.9539 100.6026 117.9146 118.9184 119.3711 119.4794 120.2113 115.3853 122.7406 120.1065 121.7089 119.6542 119.5807 115.3822 122.4136 121.1600
125.7500 125.2100 117.1861 118.0813 113.8599 115.1324 105.4869 119.2036 113.7949 113.0705 112.9262 105.5898 111.1863 110.8517 116.0136 112.2080 113.4242 110.9615 110.9352 107.2485 101.0368 111.1200 106.7832 105.5727 109.7419 102.4432 100.9330 112.2940 119.8863 118.9416 119.4762 106.6061 103.9538 98.7258 114.6949 119.7706 120.0649 119.2036 119.0640 118.9387 118.8213 118.7255 118.6374 118.5675 118.3829 118.4665 120.8876 104.8463 103.0289 98.9627 116.8315 118.2633 119.0645 119.0660 120.3274 117.2644 119.8447 115.9921 115.6263 120.3039 118.4328 120.6766 120.5754 120.8100
118.7900 119.8502 116.7466 119.9882 118.9410 119.4758 120.4540 108.9890 106.3410 114.1416 111.8025 102.4788 102.0989 107.5637 110.5896 115.4761 112.3687 110.2312 107.4373 111.7571 105.0932 101.6287 108.2729 111.7330 105.9241 108.3316 103.3382 105.0732 102.1957 123.7490 119.8560 120.3533 117.8662 106.8263 120.4074 119.9718 120.4288 118.8191 118.6659 118.5275 118.3997 118.2865 118.1976 118.1312 117.9066 120.3713 104.4638 110.4163 109.2385 116.2931 118.6985 118.0609 118.5633 119.0191 119.0271 119.2203 119.6482 119.4507 120.1875 119.7327 120.3422 119.1374 120.9191 120.7700
124.4900 119.7379 119.4081 119.2850 118.7170 119.8653 118.5686 120.7719 117.0265 112.8515 113.4115 109.4373 101.8932 102.4400 106.6588 112.0973 113.2953 111.3885 108.9533 110.5313 109.9227 108.9501 102.3424 104.3827 105.6659 108.9798 105.7544 106.0680 111.0297 119.2987 114.3950 119.5206 98.1971 115.5824 119.6064 118.7542 118.5645 118.5117 118.2631 118.0970 117.9607 117.8363 117.7333 117.6402 117.7378 114.6159 107.6043 116.3093 121.0213 117.9595 117.7421 117.7429 119.3341 116.8166 117.9727 118.9304 118.8769 119.1073 119.3399 119.5717 119.9527 120.9380 121.0057 120.4600
123.7500 124.1521 116.9365 118.6545 118.2063 118.6143 118.8557 118.9137 114.6211 114.5336 115.2980 102.8518 102.1766 107.8520 116.1465 111.8999 108.7720 108.5832 111.4485 107.8899 103.2333 107.1971 107.8467 102.7809 109.1213 106.0189 116.5481 113.6802 115.2947 115.0926 118.5103 120.7237 120.8956 110.6651 119.0226 118.6408 118.1889 118.0419 117.8228 117.6468 117.4860 117.3397 117.2739 117.1928 117.0768 116.8022 116.9977 117.0947 119.1679 116.9865 117.4271 117.3946 116.9569 98.0095 119.8157 116.6167 118.8553 118.7892 119.0207 119.3624 119.5393 120.0757 114.1914 120.3600
124.4700 117.2313 118.4467 116.9912 117.4189 119.4079 117.4543 117.3909 115.2462 115.1647 106.7189 106.9463 100.6938 105.3999 113.9273 112.7533 112.0987 108.1146 106.5177 107.1103 103.6591 103.7999 103.6943 107.7608 111.8351 109.7363 117.2950 118.2933 119.1541 120.2233 119.7744 119.3287 113.0714 108.0083 120.8093 117.9263 117.9349 117.4918 117.3345 117.2560 117.0173 116.8957 116.5438 116.4529 116.6502 116.5605 116.5623 116.4411 116.4407 116.7891 116.8856 116.7307 119.4614 116.7751 118.3452 114.5360 118.5345 118.3930 118.6945 118.9187 119.3038 112.2467 107.0935 120.0400
118.0000 120.7540 116.5707 117.7761 118.3329 118.2799 119.6379 119.9326 113.9963 116.8802 115.7165 119.4476 110.5435 106.1249 101.0691 108.3901 108.4827 118.0415 112.4967 110.9227 102.8218 105.3277 103.1508 99.3016 110.2734 118.6463 120.9581 119.9975 119.8562 119.2992 118.9596 119.1808 113.1423 118.9350 113.1599 117.7542 117.3860 117.5982 116.6213 115.9809 116.5475 116.2547 117.2314 117.2422 115.6189 116.0026 115.9646 116.0376 116.1358 116.2175 116.4081 117.1836 112.9200 114.1714 117.2908 107.3927 117.9438 117.9460 118.3651 118.6410 119.1842 119.4768 117.9749 97.6000
118.5500 122.4313 118.2174 118.0699 119.8978 119.4117 112.7231 115.6592 113.6306 114.8495 113.5718 116.9253 124.9351 126.4776 109.8273 106.7434 104.5296 107.2743 109.5907 101.4340 107.2055 107.0865 120.4777 114.7732 111.2824 115.7331 120.2539 119.6193 119.4220 119.1832 118.6098 120.9006 108.0939 115.0439 118.8267 117.2243 117.0525 116.9406 100.8021 116.8625 115.6090 115.7256 112.4394 99.4882 118.1185 114.9914 115.3456 115.4096 115.5033 115.6436 115.8330 116.8152 102.4905 115.5423 116.9313 119.3245 118.4348 117.6813 118.0152 118.2957 118.5730 119.5377 119.5907 97.6000
118.8400 114.2188 119.9112 119.3498 119.0423 119.6750 124.0316 114.4718 113.9006 115.1745 118.8628 114.3368 119.9686 120.4537 112.5047 113.1445 108.2203 111.4176 98.6808 110.7839 103.7532 105.1958 110.8574 101.3704 120.0797 115.6985 120.3902 119.7565 119.0617 118.6973 120.0427 105.9318 115.9254 110.3532 117.3155 116.7080 116.5860 116.5915 106.0477 115.7612 114.8045 115.1176 115.2511 91.9640 97.3870 115.9474 114.7587 114.7430 114.8782 115.0259 115.2072 115.5527 116.7552 116.9275 116.4496 116.7644 116.8643 117.3013 117.6463 118.0380 117.8852 120.2905 108.9403 99.0300
118.8400 113.6155 117.7337 121.0172 116.6218 115.0939 113.3491 117.7271 113.2933 114.2295 104.1469 117.2866 114.3185 120.2819 112.8308 108.9519 117.3361 119.8348 109.9374 115.6076 109.3356 107.6609 96.9826 127.5000 117.0679 119.5420 119.2982 113.4596 119.5692 118.6023 119.0230 105.9298 112.0315 114.3438 117.1670 116.4200 116.0684 116.1369 115.3503 115.4919 114.5890 114.5769 114.3719 113.7338 115.2883 114.4575 113.9980 114.0567 114.1931 114.3624 114.6275 114.8746 115.1021 115.6304 113.1247 116.2171 116.5440 116.9579 117.2879 117.6847 118.1441 113.7369 111.1106 118.7900
115.0500 116.6202 116.9680 119.2571 119.9170 110.7793 114.3747 114.9862 112.3831 112.7409 110.1584 115.7797 115.7841 101.1016 108.5802 109.3396 102.6240 105.9829 105.9124 117.6385 112.9706 125.4591 117.6560 121.0630 108.9018 120.2219 119.1741 117.2619 118.7477 118.3632 117.9680 117.5625 112.5204 117.4126 116.2272 116.0128 115.5842 115.1246 114.8334 114.3545 114.1326 113.8429 113.6215 113.3829 112.8782 112.9332 113.2109 113.2962 113.4533 113.6742 113.9288 114.2567 114.6035 114.9286 115.3409 115.6688 116.1249 116.5465 116.9406 117.3306 117.6618 117.9534 118.5719 103.3900
115.7700 115.6050 113.2997 106.7255 117.3211 108.7009 110.3550 110.9300 110.7659 112.4394 118.7023 101.6694 107.3702 120.3987 116.1152 101.8900 100.8284 105.0796 102.1820 119.5900 138.7910 120.9467 121.7761 120.4639 119.2490 119.6680 119.1523 118.9759 118.4585 118.0892 117.6347 117.3958 117.6064 116.5167 115.9939 115.5502 115.1306 114.6886 114.2067 113.8726 113.4064 113.1006 112.7955 112.5726 112.5045 112.4198 112.3510 112.4641 112.6479 112.9088 113.2302 113.5864 113.9858 114.4029 114.8366 115.2797 115.7198 116.1581 116.5902 117.0138 117.4128 117.9728 118.4074 118.3200
113.8300 113.4460 115.3428 107.3054 108.6736 109.8156 110.6566 110.7325 114.5241 110.0881 108.6843 106.9677 106.5395 111.0640 108.1784 110.9907 102.0893 114.2166 100.4212 119.8124 111.4436 121.2861 120.4423 120.1251 119.5072 119.8337 119.3968 118.4833 118.2398 117.8662 117.4100 117.0034 116.5484 116.0695 115.6016 115.1180 114.6315 114.1307 113.6661 113.1617 113.0752 112.3085 111.9539 111.6697 111.4511 111.3640 111.4052 111.5372 111.7625 112.0833 112.4600 112.8899 113.3481 113.8281 114.3193 114.8153 115.2950 115.7748 116.2485 116.7008 117.1527 117.5851 118.1261 118.2300
114.4500 113.3299 112.7868 117.3735 116.0435 116.0581 105.5974 115.8705 112.0870 110.3456 107.2154 112.2419 107.9869 108.2688 107.8255 103.8982 102.6469 104.8921 109.8612 117.7684 121.1402 120.2666 120.2539 120.0724 119.0861 115.6365 107.7692 118.5525 118.3968 117.4916 117.1843 116.7134 116.2149 115.7265 115.2065 114.6873 114.1535 113.5166 113.3809 107.6999 111.6778 111.4725 111.0337 110.6784 110.4425 110.3214 110.3464 110.5139 110.7967 111.1837 111.6420 112.1541 112.6878 113.2420 113.7927 114.3481 114.8777 115.4007 115.9108 116.3984 116.8728 117.3435 117.7539 118.1400
115.3400 114.8662 115.6688 117.1781 115.0631 111.8879 111.6381 112.3031 111.2912 110.2528 107.0142 103.4934 107.7409 105.7199 110.0914 100.5769 106.9497 106.6246 119.3293 111.3130 121.6017 125.6582 120.2106 119.9447 119.4912 112.9071 118.1128 114.6416 112.5426 117.6390 117.1061 116.4117 115.9227 115.3934 114.8387 114.2528 113.6599 113.0179 112.5435 111.5615 111.5013 110.5067 110.0232 109.5659 109.2512 109.1003 109.1374 109.3563 109.7207 110.2104 110.7679 111.3787 112.0085 112.6481 113.2746 113.8862 114.4767 115.0436 115.5964 116.1113 116.6200 117.0988 117.5388 117.7500
114.5700 115.4813 116.1551 116.2289 118.2042 114.5643 112.3909 111.1731 112.0320 114.5416 111.8506 111.9849 109.7242 107.7596 100.4457 106.0532 105.2562 110.4717 115.8679 113.9528 121.7826 119.0529 119.3785 119.7153 119.6693 120.3933 118.9444 117.1264 117.7619 116.6475 116.7711 116.1939 115.6453 115.0775 114.4959 113.8974 113.1909 112.4991 111.7462 111.0093 110.2596 109.5876 108.8854 108.3129 107.8976 107.6840 107.7397 108.0297 108.5216 109.1409 109.8367 110.5784 111.3205 112.0525 112.7607 113.4359 114.0858 114.7030 115.2892 115.8479 116.3816 116.8871 117.4764 117.6800
117.0600 120.9382 113.3884 114.1767 113.8212 115.1706 113.7290 110.9549 114.0728 111.1051 111.1037 112.5369 113.2915 103.6192 113.0827 103.6455 106.7056 116.8326 118.8670 117.2484 121.0666 120.6786 120.1471 119.5983 119.4742 115.0964 119.3084 117.8347 117.5374 116.9233 116.5034 115.9675 115.3898 114.8147 113.9470 113.1456 112.7463 111.9820 111.1640 110.3153 109.4348 108.5283 107.6551 106.8796 106.2916 105.9982 106.0652 106.4745 107.1493 107.9755 108.8635 109.7558 110.6312 111.4733 112.2694 113.0177 113.7234 114.3925 115.0206 115.6152 116.1640 116.7080 117.3535 120.6400
125.6100 123.9851 117.5309 116.5367 114.6432 112.9236 112.2261 112.2995 114.5470 115.6461 114.1193 113.2941 110.9857 113.6736 114.1988 108.1961 103.9600 118.5253 117.0715 118.2239 120.5290 120.3341 119.7320 119.3003 119.7102 114.1344 108.9384 118.9859 117.2731 116.8613 116.3256 115.7685 115.1660 114.5991 113.8769 113.8629 112.3332 111.4777 110.5748 109.5963 108.5413 107.4273 106.3046 105.2292 104.3553 103.8993 104.0137 104.6490 105.6096 106.7196 107.8498 108.9405 109.9648 110.9259 111.8141 112.6342 113.3947 114.1110 114.7711 115.3946 115.9813 116.5650 116.8050 121.6200
112.4700 117.4334 113.7643 115.8990 116.0562 114.0383 110.9259 113.0284 111.8756 115.6446 111.3665 109.2187 108.1198 107.7932 108.0292 128.2287 110.1360 118.9759 121.3188 118.5407 120.5390 120.3461 119.8661 120.6675 118.5123 119.5256 111.7074 119.0556 116.9247 116.7272 116.1904 115.6053 114.9711 114.3360 114.0817 115.1639 111.9357 111.0505 110.0451 108.9222 107.6900 106.3223 104.8369 103.3055 101.9183 101.1403 101.3344 102.3901 103.9005 105.4004 106.8436 108.1637 109.3576 110.4377 111.4098 112.3075 113.1187 113.8715 114.5689 115.2194 115.8300 116.3829 116.7949 117.1100
112.2600 113.8161 104.6064 107.4399 113.4283 112.9511 112.1498 110.4053 115.8468 111.3091 114.4633 111.6768 106.0458 105.7626 110.3350 111.2728 115.4874 114.9129 116.9132 121.1855 120.5064 120.2696 120.4847 103.9301 120.9144 118.6402 117.8281 117.5760 116.9869 116.6399 116.0762 115.4739 114.8527 114.2092 112.9352 112.9233 111.6918 110.7015 109.5940 108.3519 106.9219 105.2709 103.3465 101.0938 98.8026 97.0309 97.5060 99.7058 101.9733 104.0979 105.9186 107.4778 108.8346 110.0265 111.0873 112.0317 112.8953 113.6800 114.4093 115.0765 115.7028 116.3832 116.8869 117.0800
113.8000 113.5823 110.9517 112.7425 112.7768 110.0093 103.5171 113.2992 114.0861 111.6313 109.5520 110.5659 106.0497 104.5471 105.6486 106.3757 119.8087 115.2824 119.1614 121.0661 120.4856 120.1617 119.8157 117.6453 116.1369 112.2288 119.6985 116.7061 117.1195 116.5651 115.9946 115.3806 114.8381 113.9700 113.1511 112.3432 111.5003 110.4455 109.2738 107.9225 106.3327 104.4173 102.0206 98.9319 94.0548 90.3904 91.1824 96.2636 100.1302 102.9871 105.1844 106.9583 108.4527 109.7321 110.8521 111.8439 112.7455 113.5571 114.3034 114.9913 115.6633 115.4015 116.8464 117.0500
112.9200 112.8255 111.7512 112.6231 110.1362 114.1270 110.3389 110.3891 116.8258 113.0269 112.4404 106.6344 103.0723 100.4321 109.7218 111.6799 119.0839 121.2465 117.3135 121.0415 120.5533 120.1155 119.7328 119.7688 119.2829 115.8238 118.3877 117.7036 117.1095 116.5383 115.9613 115.3317 114.8364 114.4729 115.3967 112.2863 111.2711 110.3130 109.1046 107.6842 105.9954 103.9060 101.1584 97.2526 89.7043 85.3227 86.2676 92.7777 98.8832 102.3015 104.7484 106.6693 108.2360 109.5752 110.7264 111.7446 112.6562 113.4688 114.2340 114.9409 115.5964 116.0657 116.7494 117.0400
112.3800 112.0393 111.4885 112.2505 113.1945 114.2023 111.8013 113.8184 112.8501 114.6004 113.6632 111.5841 109.2045 100.5040 106.7646 111.6493 117.5514 122.3736 116.1352 121.0447 120.5301 120.1191 119.7477 119.3508 119.0494 118.5589 118.0384 117.5779 117.0684 116.5322 115.9561 115.3361 114.7444 114.8261 116.8373 112.5664 111.1451 110.3178 109.0936 107.6689 105.9872 103.8801 101.1047 97.2055 89.4425 85.2819 86.1638 92.6067 98.8221 102.2748 104.7299 106.6592 108.2263 109.5682 110.7218 111.7467 112.6768 113.4954 114.2737 114.9291 115.5771 116.1802 116.7308 117.0300
114.7300 114.3753 113.6739 112.5308 112.0318 111.7437 109.7971 106.8920 106.6315 109.3056 109.7563 109.2929 108.8453 108.0359 105.6510 105.9987 107.4227 124.7146 120.9085 120.8746 120.5050 120.1414 119.7632 119.3532 118.9718 118.5483 118.1164 117.5913 117.1048 116.5703 115.9632 115.1683 117.2348 95.6203 103.7131 111.7836 110.9216 110.4631 109.2517 107.8764 106.2909 104.3506 101.9037 98.6498 94.1136 89.7811 90.6101 95.9393 99.9777 102.9099 105.1281 106.9234 108.4198 109.7079 110.8331 111.8283 112.7683 113.7413 114.2689 114.9872 115.6218 116.2085 116.7703 117.0400
125.5800 117.2149 114.7046 121.2536 126.0052 126.3483 117.2505 111.0329 110.6415 109.2832 115.8968 110.1606 101.2495 105.0762 106.8709 103.9874 124.7211 121.1862 121.1597 120.8771 120.5286 120.0615 120.0317 119.3327 119.0231 118.2198 117.5001 117.5856 117.1240 116.6315 116.0430 115.4484 115.7640 115.1987 109.0166 111.8777 111.4521 110.6479 109.6660 108.2796 106.8580 105.1826 103.2121 100.8855 98.3965 96.4289 96.9727 99.4118 101.8032 103.9919 105.8466 107.4277 108.7982 109.9949 111.0595 112.0007 113.0233 114.0933 117.3636 115.0598 115.6582 116.2792 116.8321 117.0600
125.5800 126.0881 126.2536 125.3247 124.0426 116.3100 111.3606 105.5105 103.5966 105.3234 108.8831 101.6246 113.7111 114.4172 122.2670 102.4807 124.0295 121.3963 121.2029 120.9477 120.6464 115.7796 118.4568 119.0734 119.0195 115.0832 117.5294 118.0611 117.5593 116.7236 116.1605 115.6255 114.8758 114.4336 114.7845 113.0369 112.0505 111.4915 108.5509 108.9017 107.6239 106.2166 104.6989 103.1153 101.6623 100.8127 101.0228 102.1609 103.7181 105.2856 106.7613 108.0968 109.3057 110.3983 111.3826 112.2796 113.0802 113.7746 114.3629 115.2695 115.8024 116.3874 116.9225 117.4700
125.5900 125.2763 124.7750 124.9779 113.6929 110.3673 113.9615 115.3377 115.1142 112.4525 108.3144 111.4545 113.0823 114.7234 115.2573 109.1324 122.3259 121.4999 121.2679 121.0677 120.5661 110.2588 119.2388 120.2889 119.8041 119.3869 118.3716 114.9449 117.4677 116.7702 116.3057 115.7152 115.1630 107.2684 118.3185 114.5573 107.4070 115.4317 107.6229 109.6408 108.4548 107.3204 106.1727 105.0561 104.1306 103.6501 103.7674 104.4483 105.4553 106.6012 107.7598 108.8666 109.9145 110.8795 111.7709 112.6086 113.3733 114.1427 114.8575 115.4223 115.9699 116.5182 117.0444 117.4700
125.7400 125.6454 126.1208 122.7642 110.3668 113.2886 111.0695 111.3249 114.1056 110.0631 104.7967 111.9437 110.9219 105.9718 113.5700 110.4275 122.5558 121.7274 121.3691 121.0108 121.0499 120.6002 120.1677 111.9467 117.9542 117.9326 118.9802 111.8309 118.0902 116.9689 116.4848 115.6649 116.7226 108.3314 102.5477 103.8523 112.1709 105.8063 112.5651 110.2415 109.3504 108.4004 107.5347 106.7231 106.1174 105.8015 105.8772 106.3059 107.0176 107.8573 108.8151 109.6848 110.5752 111.4205 112.2252 112.9863 113.6975 114.3474 114.9772 115.5818 116.1516 116.6837 117.1868 117.5100
125.7500 124.9050 118.0267 116.8159 112.0907 107.0066 110.5209 107.2585 107.9443 107.5881 108.0900 106.1362 105.9674 105.7205 110.2887 124.5168 121.3155 122.2507 121.0388 121.1812 112.3996 121.9100 121.8136 111.2001 117.8748 118.7377 118.4386 118.5034 117.5724 117.1928 116.7021 116.0213 114.9415 104.3646 103.0967 89.8083 113.2403 99.3826 112.4899 110.9227 110.2607 109.4711 108.7670 108.1817 107.7430 107.5241 107.5736 107.8776 108.3938 109.0500 109.7537 110.5070 111.2585 111.9997 112.7160 113.4046 114.0559 114.6779 115.2716 115.8295 116.3629 116.8689 117.3528 117.6100
125.7600 123.2500 110.1841 112.0007 108.4317 107.8466 108.4864 109.2541 112.2863 107.8085 109.8210 106.7315 103.9953 109.6635 109.8755 109.0925 122.5158 121.9553 121.0882 120.3000 118.5621 112.9621 120.5296 120.7458 119.6478 119.5532 118.8220 118.1911 117.8215 117.3725 116.9362 116.3050 115.7563 92.0589 108.4501 93.5012 111.0847 108.6809 112.0618 111.6318 110.8481 110.3942 109.9460 109.4371 109.0933 108.9455 109.0041 109.2247 109.6059 110.1092 110.6882 111.3131 111.9521 112.5980 113.2294 113.8483 114.4422 115.0106 115.5687 116.0912 116.6019 117.0814 117.5466 118.0100
125.7700 125.0287 119.6762 112.4902 112.0672 114.0074 112.3375 117.5107 111.6632 106.8776 108.5262 106.9466 107.8824 120.9029 104.2140 119.0665 120.1592 120.7525 121.3607 122.0220 121.0194 116.9398 120.3097 119.7689 120.1138 113.2513 119.7034 118.5199 118.0421 117.5892 117.1328 116.5293 116.9475 111.1315 113.3337 109.5752 112.8662 113.7937 113.5828 112.4246 111.5600 111.5971 110.7955 110.6679 110.4913 110.2612 110.2336 110.3997 110.6950 111.0924 111.5677 112.0872 112.6311 113.1875 113.7521 114.3001 114.8447 115.3736 115.8825 116.3769 116.8511 117.3003 117.7379 118.0800
125.7800 126.9720 117.1165 113.0364 114.1823 113.6766 114.1886 105.9515 110.3416 108.9568 103.5082 105.9708 115.0986 103.6853 99.1172 102.0182 122.5263 121.5119 121.6652 121.2613 121.1315 121.0471 120.4314 120.1152 119.8238 118.7269 113.9935 119.1524 118.1670 117.8173 117.3909 116.9710 116.5345 116.9096 115.3529 115.4053 114.8432 114.0955 113.5768 113.0692 112.6357 113.8232 109.3621 111.1529 110.5662 111.2521 111.2995 111.4412 111.6737 111.9962 112.3863 112.8275 113.2927 113.7792 114.2745 114.7706 115.2635 115.7449 116.2192 116.6789 117.1183 117.5852 118.0207 118.1400
117.1800 118.3865 113.2925 109.8098 107.9352 112.0341 111.3390 108.7723 108.0505 107.7996 107.1729 103.0228 123.7178 112.0791 121.4364 120.2451 122.3943 122.0432 121.7483 121.4842 121.1407 120.8310 120.5519 120.2357 119.9180 119.7410 118.6479 118.8405 118.4868 118.0572 117.6588 117.2498 116.8175 116.3519 115.7884 115.5167 115.0876 114.8495 114.3231 113.0670 113.3389 113.3269 111.5522 118.3375 113.3902 112.2308 112.2627 112.3687 112.5636 112.8256 113.1550 113.5225 113.9331 114.3504 114.7904 115.2391 115.6864 116.1261 116.5565 116.9946 117.4559 117.2241 118.1551 118.5400
125.8200 121.1315 113.3279 110.0183 110.4190 110.4510 114.1651 108.7255 104.7076 107.5465 108.1753 125.1759 114.4054 119.3939 122.8209 122.8933 122.7466 122.1058 121.8268 121.6060 121.3091 121.0071 120.7093 120.3978 120.0679 119.7253 119.4380 119.2845 118.6568 118.3158 117.9354 117.5544 117.1565 116.7525 116.3631 115.9426 115.7384 112.9590 112.9435 121.3117 113.2547 113.7939 116.2011 101.4627 113.4890 112.8930 113.1122 113.2207 113.3660 113.5831 113.8702 114.1928 114.5413 114.9076 115.3012 115.7068 116.1058 116.5070 116.9165 117.3100 117.6943 118.0852 118.5054 118.6300
125.9600 111.6460 111.2660 115.6357 115.3625 115.0586 111.5710 112.4453 107.4984 104.3276 101.8946 128.8008 124.5122 121.2609 125.3546 99.6232 120.0204 119.9202 121.9552 121.7612 121.4536 121.1386 120.8527 120.5583 120.2444 120.4627 106.5980 119.9379 118.5395 118.6394 118.2273 117.8569 117.4936 117.1256 116.7463 116.4609 115.6787 123.5296 118.5979 118.9886 114.3741 114.4502 114.9305 114.0097 114.0482 113.8785 113.9149 113.9792 114.1650 114.3427 114.5477 114.8172 115.1175 115.4540 115.8039 116.1592 116.5242 116.8915 117.2690 117.6336 117.9974 118.3553 118.7070 118.9900
118.3500 117.6051 114.2070 112.4388 112.4310 113.0026 113.2849 109.3279 109.3785 103.8083 119.4663 124.1027 110.6656 98.0861 121.0656 115.3496 123.2323 122.9785 122.0924 121.8554 121.4352 121.4772 121.0598 120.6267 121.0299 115.4655 118.6844 120.7297 119.2464 118.9060 118.5389 118.1547 117.8262 117.4950 117.1540 116.7290 116.6213 111.4074 107.6920 114.0737 115.5889 115.2561 114.7860 114.6886 114.6720 114.6162 114.6226 114.6869 114.6937 114.6779 114.9252 115.6128 115.6684 115.9689 116.2857 116.6096 116.9422 117.2796 117.6259 117.9586 118.2962 118.6377 118.9909 119.0800
111.5500 112.2700 114.2052 112.3939 114.0595 115.7749 103.9262 110.3064 105.4766 105.1966 101.5704 117.1052 117.7472 116.4545 124.5153 122.9546 122.4881 122.3910 122.2701 122.0337 122.6929 118.5358 121.5080 120.8767 120.6489 121.7345 103.3393 119.4717 115.6187 119.8395 118.5357 118.5318 118.1667 117.7686 117.4268 117.1944 117.8870 116.0306 106.9555 117.1815 102.7304 115.7658 115.5887 115.4225 115.3185 115.2915 115.2974 115.3245 115.3535 121.8180 116.9596 116.0467 116.2051 116.4746 116.7514 117.0455 117.3489 117.6591 117.9656 118.3324 118.6815 118.8460 119.2163 119.4300
116.1200 114.9061 112.9260 112.7128 110.2715 111.4974 107.2120 108.2347 104.4179 106.5576 104.4682 113.5202 120.2539 125.8695 122.7884 123.1414 122.9967 122.6481 122.3890 122.0795 120.0554 113.9436 121.7254 120.6787 120.8137 121.0248 118.0242 101.7564 114.0937 120.1976 119.2206 118.7942 118.2228 118.2007 119.0490 117.4481 117.7201 116.7856 118.7034 109.0080 118.3455 116.3702 116.1388 115.9992 115.9411 115.9051 115.9108 115.9134 116.1373 116.2020 115.8528 116.5482 116.7088 116.9584 117.2045 117.4735 117.7420 118.0263 118.3437 118.4668 118.5301 119.5135 120.1165 119.8700
116.1200 113.1395 111.0174 110.5050 110.4079 110.9768 109.9990 109.7861 104.1922 106.1081 104.6916 123.6930 122.8505 116.3707 124.5282 124.5585 122.8576 122.7787 122.5330 122.3475 121.9691 122.0551 122.5934 122.4630 121.5322 120.4280 110.1976 108.5640 119.8777 103.1978 118.6913 120.2716 119.7668 118.7815 111.9312 116.9489 116.6991 117.9665 116.3486 102.5274 118.2510 116.7230 116.6700 116.5752 116.5174 116.4815 116.4791 116.5305 116.5760 116.7425 116.9898 117.0512 117.2080 117.4135 117.6483 117.8833 118.1299 118.3962 118.6663 118.8767 122.0783 115.0380 117.7136 119.8700
111.0800 108.2906 111.1865 110.8075 110.8232 110.9360 111.8499 109.5478 106.8341 104.7233 116.4335 110.3860 121.9513 118.8000 124.3095 124.2970 123.0538 122.8953 122.6715 122.4516 122.3613 118.9952 120.5723 113.7377 110.2108 122.3190 121.1075 128.1982 125.7203 114.7469 120.2816 111.1905 114.9746 115.9360 99.4266 122.4251 124.7368 104.5393 119.2788 118.4929 117.4158 117.3096 117.1913 117.0913 117.0315 117.0369 117.1498 117.0715 117.1606 117.2245 117.3299 117.4872 117.6844 117.8576 118.0505 118.3136 118.5159 118.7425 119.0285 119.6473 121.0190 103.4273 119.3764 101.9800
107.5700 105.9888 111.4758 111.2511 111.0900 111.0149 111.4796 108.4742 105.0336 105.1887 113.0354 112.3097 109.4109 125.8892 123.6119 123.3553 123.3610 123.1466 122.8460 122.6226 122.4153 118.3539 121.4555 121.7260 114.0494 121.6411 119.8682 94.9733 105.5465 108.7838 112.1873 114.6449 99.7331 113.9452 99.1787 109.2038 113.8800 100.8826 120.0095 117.9251 117.8681 117.7902 117.6960 117.7077 117.6822 117.3416 116.7446 117.3229 117.5451 117.7418 117.8306 117.9619 118.1203 118.3504 118.5110 118.4973 118.8707 119.1933 119.2386 119.1390 120.6844 115.9669 121.2118 120.6000
112.1900 111.5037 111.8203 110.8604 110.7203 110.5249 108.2513 106.0425 103.8004 105.0871 106.3014 124.6905 121.5252 124.0952 123.9006 123.6911 123.2477 122.8750 122.9429 122.7845 122.4322 122.4883 119.2321 122.1463 122.1314 121.0270 121.4796 115.1523 118.3402 101.6046 97.2504 125.8627 103.5317 109.5514 100.3578 99.5539 95.4695 119.9279 118.7169 118.5438 118.3325 118.2553 118.0626 117.5077 117.6160 118.9357 119.7469 117.3158 118.3099 118.1734 118.2758 118.3991 118.5638 118.6672 118.0399 119.2886 119.2432 119.2978 121.4616 114.6683 121.7548 120.6997 120.3329 120.6900
112.3400 111.1798 110.5608 110.6582 110.4289 110.4781 105.2731 107.3786 104.7621 104.0703 124.3993 125.3273 125.0310 124.1074 123.8693 123.3734 125.4258 124.0815 123.1981 122.9145 122.6969 122.8102 121.8845 121.9714 123.2021 121.0225 121.5701 121.4831 122.1394 117.2454 115.8249 102.0401 121.8269 112.8178 106.5900 99.6264 98.5356 117.1826 119.1316 118.8878 118.7632 118.6828 119.9789 123.8772 117.9397 112.3066 114.8089 120.1855 118.0433 118.6708 118.7503 118.8128 118.9461 119.5137 119.2313 119.4310 119.6082 119.6662 121.1048 111.7032 121.3654 120.4167 120.8601 121.0000
111.1900 110.6286 110.7866 110.5037 109.9608 110.7480 109.7808 108.0470 108.7750 109.0586 122.9220 102.7053 125.0865 124.1180 124.4554 124.3116 98.4608 111.7585 123.0614 123.1640 123.0415 121.4536 121.3556 121.3606 122.0644 122.1588 121.5499 121.4932 121.0708 121.6827 116.2839 99.7198 112.4042 113.3037 99.4992 105.3481 117.6911 120.7164 119.1900 119.3022 119.2162 118.9879 119.2998 121.1701 113.6013 117.1730 119.3298 110.4996 119.5478 118.6109 119.0168 119.3043 119.3421 119.6897 119.9008 119.7568 119.8737 120.1093 120.2802 120.7406 120.7363 120.8218 121.0988 121.0400
117.9100 111.4119 112.4803 109.8825 110.5744 111.1552 110.9396 109.6798 107.9428 101.3049 121.8607 106.1888 110.9284 122.6598 119.5770 112.6787 107.2185 123.9409 123.1447 121.2516 121.5020 122.8944 124.0675 123.0372 122.2989 121.9302 121.9133 121.6092 121.6238 121.5903 121.7884 115.8710 113.6783 121.8735 117.4441 121.8205 119.9335 119.5710 119.8716 119.6680 119.6621 119.3913 112.3357 114.8810 119.6916 119.5454 119.0098 120.0895 118.6081 109.0606 119.8120 119.6276 119.7268 119.8197 119.9448 120.1379 120.2415 120.3162 118.7895 120.9214 120.9693 121.1580 121.3297 121.3700
113.7000 117.0128 110.5437 111.0101 111.0551 111.8468 110.2439 103.4286 103.1425 103.2812 104.4279 100.3972 126.2884 124.7632 125.7087 124.3786 124.9254 129.0693 122.8768 124.1520 124.3717 122.6972 123.1648 122.9412 123.7600 122.2609 122.0336 121.9037 120.8164 120.8334 108.5431 118.0201 121.4578 120.5350 120.6109 120.5509 120.1750 120.3276 120.1329 120.0425 120.0026 119.8496 111.8226 115.3274 119.2731 119.7770 119.7722 119.6262 119.8023 120.4727 120.0611 120.0058 120.0772 120.1921 120.3191 120.4417 120.5927 121.1345 120.2734 121.1370 121.2432 121.4212 121.6001 121.6700
117.1900 109.7262 112.4487 110.6726 110.9987 108.1518 109.1668 105.0009 102.8987 105.2757 108.3051 111.3798 125.9548 124.6837 125.2209 113.9391 125.1089 124.5024 121.7401 120.4099 119.7737 112.6522 98.2669 119.2907 115.7246 122.4969 122.0354 121.8443 110.9736 115.7628 122.7465 121.5838 120.7682 122.0682 120.8386 120.8242 120.7268 120.4201 120.5084 120.3924 120.3383 119.9984 120.4787 120.2982 120.1239 120.0981 120.0944 120.1193 120.1524 120.0333 120.1713 120.3511 120.4274 120.5323 120.6417 120.7678 120.9607 120.9724 121.1621 121.2420 121.5328 121.6788 121.8488 121.9400
111.5700 113.3196 118.8555 107.9152 105.8802 110.4768 107.7166 105.4849 105.0876 102.7025 107.0690 127.0955 124.3290 124.5376 126.4360 106.3240 125.6016 126.5298 114.7842 97.4067 98.9154 101.3886 103.3291 118.7065 122.8128 111.5881 122.1713 123.5664 123.7894 120.7809 121.0794 117.6888 107.3412 121.4294 121.2100 121.2600 121.1456 121.6024 120.7141 120.7106 120.6699 120.5399 120.4156 120.4686 120.4642 120.4566 120.4632 120.4790 120.5061 120.5888 120.6343 120.6799 120.7633 120.8562 120.9632 121.0787 121.2008 121.3568 121.4788 121.6359 121.7715 121.9330 122.0879 122.3000
115.8800 120.1316 115.3967 110.6980 110.6364 109.0491 107.9394 106.4805 108.4161 111.3566 112.8500 126.2875 124.7754 125.5189 125.4263 124.2963 125.3024 110.0025 111.2991 129.0522 105.1323 104.4541 111.4880 96.9334 111.4015 122.7192 123.6830 122.2163 113.4124 126.8721 122.7783 104.1138 120.4431 122.7648 122.1788 118.5362 112.8828 121.2184 121.0362 121.0792 121.2410 120.8306 120.9080 120.8364 120.8122 120.8002 120.8044 120.8196 120.8516 120.8837 120.9354 121.0118 121.0884 121.1822 121.2775 121.3796 121.4989 121.6209 121.7535 121.8911 122.0341 122.1784 122.3372 122.3000
115.8800 110.0842 111.3186 109.6585 108.7226 106.1419 111.4474 103.5857 103.7406 112.8223 107.7759 126.9012 124.9203 125.1506 111.5097 126.0221 125.1572 121.2331 116.5968 106.7459 114.6400 103.7116 103.1904 110.8030 102.7264 123.7710 118.0728 124.7649 111.0989 119.6374 122.6074 123.3282 123.6234 122.8432 120.1481 114.1012 123.3498 117.7004 120.5594 121.4962 125.2933 121.3130 121.1972 121.1709 121.1491 121.1381 121.1427 121.1549 121.1850 121.2209 121.2732 121.3352 121.4031 121.4876 121.5803 121.6742 121.7839 121.8956 122.0446 122.1621 122.3052 122.4310 122.5583 122.8000
114.1200 113.6508 111.4023 110.4512 108.6997 110.6844 120.9081 103.7006 108.3022 110.6682 114.8839 115.5949 125.6218 126.3605 115.6309 118.8094 122.6568 121.5020 102.7457 115.1572 118.6138 113.1539 113.3739 129.2122 110.1985 124.9116 126.2607 126.4786 125.3615 122.0387 122.9540 118.9625 119.8293 123.6461 104.1291 101.8120 103.2393 103.8040 123.1118 121.4472 121.3303 121.5720 121.5259 121.4863 121.4733 121.4571 121.4569 121.4679 121.4866 121.5320 121.5844 121.6401 121.7104 121.7839 121.8681 121.9597 122.0616 122.1971 122.1291 122.4027 122.4300 122.6894 122.8500 122.8500
111.8000 111.6118 111.1030 105.9281 114.1614 109.8994 118.7825 109.8684 113.0269 112.4935 102.1929 105.9851 127.4661 116.0100 114.4135 109.3136 125.1163 126.6508 112.4685 122.3548 120.9488 109.1526 108.7615 121.1686 123.7735 124.3463 123.5832 114.7416 121.7250 124.1791 122.6133 123.0080 122.9091 122.2034 107.2273 101.0002 99.3932 112.2470 123.4622 121.9839 121.9491 121.8681 121.8311 121.7921 121.7690 121.7664 121.7792 121.8177 121.8575 121.8512 121.8838 121.9354 121.9996 122.0757 122.1542 122.2393 122.3364 122.3999 123.0499 122.6575 124.0669 123.0458 122.9371 123.1300
112.1500 112.4201 108.9228 102.4758 117.1401 113.6401 111.7155 114.9185 112.8727 105.6479 110.2345 113.1986 111.5585 104.5874 124.9835 117.6430 114.9110 116.4572 112.2193 113.4057 115.9057 105.3405 125.7045 118.3656 125.5968 123.8162 121.9991 95.4173 104.8293 123.0911 123.1512 122.9951 122.8542 117.4106 100.2001 116.8722 116.8251 124.3064 121.9872 122.3469 122.0075 122.1686 122.1311 122.1332 122.1226 122.0813 122.0741 121.9725 121.8894 122.0242 122.1871 122.2369 122.2890 122.3368 122.4196 122.5074 122.5986 122.6655 122.6547 110.8873 122.0211 122.5490 124.3130 123.3700
112.3300 106.2778 104.4770 120.9371 127.0049 126.4907 125.2909 106.0970 114.2257 107.3981 104.5934 105.5282 107.8876 118.1091 124.3960 125.5880 124.6945 123.1408 104.3558 115.3020 108.8230 103.0264 113.8202 117.3991 120.0998 124.9831 119.1192 101.2777 126.0407 123.4566 123.3277 123.2495 123.1793 121.2760 121.7810 123.0951 123.0105 123.8390 117.1285 123.0440 122.3543 122.4487 122.3792 122.2154 122.1829 122.4018 122.4303 122.0546 123.0431 122.7687 122.3955 122.5107 122.5420 122.6979 122.7723 122.7909 122.8531 122.9247 123.7612 122.1080 121.6865 113.3899 122.4947 101.5900
127.4000 127.5775 127.5976 127.0632 126.8986 126.4938 128.5245 116.7990 108.2431 112.1359 104.4825 104.3153 101.5650 129.0548 125.4468 125.0863 125.0398 118.5693 102.7674 117.8801 104.9475 106.5785 101.0869 116.8752 125.7626 127.1358 121.0283 108.0534 126.9343 122.8839 123.5553 123.4987 123.0609 123.4879 123.1163 122.8759 122.8868 107.8209 102.1007 121.7738 122.6321 122.6897 122.5239 122.8029 122.4171 122.6867 122.5618 121.6690 121.5628 112.5731 123.2872 123.0404 122.8196 122.2875 122.7829 123.0792 123.0751 123.2428 122.3655 123.7021 124.9394 113.2927 101.0611 104.3700
127.5400 127.2084 127.1075 127.3045 127.0541 127.0221 126.6428 125.3855 110.7926 110.1267 117.7764 104.9505 111.7521 116.7894 114.0663 125.6628 113.1511 115.3014 123.0561 126.5502 104.4549 102.2452 128.3006 124.5433 124.6141 127.8644 107.3359 114.4962 123.6101 124.2093 123.7764 123.6615 123.6488 123.4610 123.4016 123.2469 125.5217 101.9661 120.2031 123.1157 123.1121 122.9247 114.6681 117.1562 122.6416 122.9937 123.1791 123.9088 122.2917 108.8028 123.1772 120.5889 123.3318 123.6599 131.7511 123.9499 123.0888 123.4118 123.4802 123.4691 125.1873 117.0870 112.3669 105.6300
127.5700 127.5587 127.5130 127.2878 127.1767 127.0781 126.7489 127.3523 122.5830 117.9167 117.4207 110.8260 107.5049 121.7003 109.0190 100.4107 102.8233 117.6372 115.4945 125.8191 111.7106 127.0057 125.0709 124.9826 124.7821 127.8160 104.9646 124.8235 124.9903 123.7934 124.0022 123.9003 123.7976 123.7287 123.6352 123.4522 123.3840 119.5672 112.8185 123.4385 123.4568 123.0743 123.0868 123.3409 123.1740 123.1469 122.7869 113.7587 103.8231 125.0111 123.6236 120.1736 123.4464 125.2313 104.2891 124.9982 123.1679 123.6923 123.7592 124.4870 124.0687 120.4699 103.3679 105.9500
127.7100 127.6272 127.5206 127.4111 127.2903 127.1511 127.0788 127.0169 127.3133 121.7378 111.8548 118.6184 108.8455 115.8054 100.2407 105.9767 109.9464 119.3708 126.8789 120.6868 128.6018 126.5188 125.0207 125.0636 124.8234 124.2112 111.9224 118.9104 119.2407 124.8491 124.1371 124.1199 124.0390 123.9541 123.8608 123.6416 124.9569 104.4592 118.6422 123.6812 123.6440 123.2971 123.2929 123.4007 123.4341 123.4198 123.4570 121.9320 102.3626 111.3943 123.6925 123.9835 123.5530 125.6327 104.1182 125.7366 123.5006 123.8929 123.9301 121.2213 116.6025 117.0437 106.7788 108.9300
128.5400 127.7400 127.6600 127.4400 127.3400 127.2400 127.1600 127.0400 118.6800 109.2200 126.6200 126.5100 126.4000 126.3000 117.9500 116.8100 116.5100 112.9800 125.6200 125.4900 125.3900 125.2500 125.1500 125.1500 124.8900 124.8900 108.2400 124.0000 105.8200 123.0500 124.2800 124.2800 124.1500 124.0100 124.0500 123.9000 123.9300 123.9300 123.7900 123.8100 123.6300 123.6400 123.6600 123.6800 123.6900 123.4600 123.6900 123.6800 123.6700 123.6600 123.6300 123.6100 123.8000 123.7700 101.9400 123.9100 124.0600 124.0300 124.1600 123.4700 123.4700 104.4100 105.0500 105.0500
