124.7300 124.7300 121.1600 124.2700 123.9400 123.7800 123.4400 123.2600 122.9000 122.7100 122.3300 122.1300 121.9200 121.5000 127.7700 118.1800 120.5800 120.0900 119.8300 108.0400 119.0100 123.3500 118.0900 117.7700 117.0800 116.7100 114.2200 115.5100 115.0700 114.1100 113.6000 112.4600 111.8300 113.8500 110.4600 108.7400 106.6700 105.4300 103.9900 100.1700 97.3600 97.8500 97.8100 100.5800 102.2900 104.0000 105.4400 107.8200 108.7500 109.6200 111.1600 111.8300 96.7000 94.8300 102.6900 102.8800 102.0500 110.3300 114.8400 98.7600 115.6400 118.4100 118.7100 119.0100
124.7300 124.7982 122.9745 124.4093 123.9641 123.7284 123.4999 123.2996 123.9932 124.1199 123.9538 126.5081 121.5228 121.3588 124.2688 120.0876 120.5235 120.1378 119.8714 113.9946 118.4443 120.4863 118.2647 117.6452 117.1494 116.9770 112.3842 120.1651 115.2009 114.1317 113.3664 112.4240 111.1601 110.9066 109.9606 108.1881 106.6310 104.8213 102.6194 99.8461 96.2086 92.7855 93.2947 97.2759 100.5587 103.2350 105.2002 108.4060 108.3664 109.7345 110.8830 112.7539 109.0535 101.5357 96.1144 104.8061 103.6829 116.0865 107.2375 104.9786 101.2366 111.3405 118.7330 119.0100
124.7200 124.6771 124.5130 124.0993 123.8140 123.7313 123.4880 123.2416 119.9447 115.7736 114.2961 117.7189 122.1608 121.8607 120.9486 120.7917 120.5983 120.1633 119.8236 119.8775 117.9714 118.4687 118.0605 117.6844 117.1506 116.6018 114.6240 118.8648 115.6979 113.9996 113.1855 112.3591 111.4420 110.6020 108.9570 107.8602 106.1980 104.1832 101.5763 98.0735 91.5085 87.1824 87.6514 93.3399 98.9910 102.3310 104.6983 107.2721 108.1886 109.5298 110.7072 111.1097 118.9592 108.0979 110.6129 99.8951 110.3701 109.7894 111.6521 115.9923 106.0594 117.9362 118.6417 118.9800
124.7200 124.6068 124.6103 125.1652 124.3130 123.6201 123.4969 123.4564 118.3048 108.6655 118.7054 111.1613 116.9349 122.7988 121.3068 120.8515 120.4980 120.1556 119.7685 117.5851 130.3669 116.1888 117.9765 117.2031 117.0082 116.3896 116.1441 115.2819 114.2561 114.0183 113.4252 112.5666 111.3828 110.3185 109.1540 107.7645 106.0741 103.9855 101.2390 97.3145 89.3975 84.4532 85.2459 91.6551 98.4329 102.0063 104.5263 106.3552 108.1265 109.4724 110.6287 111.8294 112.4776 113.7171 109.8960 96.2946 108.6965 103.8342 117.3821 122.7755 114.5320 119.1816 118.6215 118.9700
124.7200 124.4622 124.7338 114.4451 122.8327 123.4473 123.5084 123.2818 121.6802 120.6011 123.4063 121.1152 124.0190 124.2787 121.1306 120.8507 120.5096 120.1664 119.8490 119.0514 122.7920 118.6043 117.8545 121.4671 117.1621 117.0491 115.7837 115.1101 114.8437 114.0755 112.4476 112.0706 111.5968 110.4384 109.2502 107.8773 106.2547 104.2672 101.7281 98.2623 92.2278 87.9562 88.5764 94.0173 99.2087 102.4374 104.8144 106.7158 108.2443 109.5623 110.7118 111.7350 112.6986 113.3629 113.7409 111.5469 116.5627 105.4160 107.4512 123.2785 116.8096 118.3799 118.6194 118.9800
124.8700 124.6169 124.3406 121.6732 123.6465 124.3039 123.7003 123.3115 123.3138 122.8781 122.9603 116.0139 123.7514 122.0537 121.3491 120.9208 120.5412 120.1826 119.8215 119.1497 117.9150 112.1641 118.3168 117.7920 116.2212 115.5089 118.9965 115.5750 115.1304 113.5283 126.5763 114.4470 111.7908 110.5962 109.5124 108.2258 106.7412 104.9675 102.8466 100.4061 97.1713 94.1743 94.5650 98.0928 100.9509 103.4315 105.4461 107.1247 108.5652 109.8073 110.9082 111.8838 112.7601 113.5825 114.4958 115.5568 118.3603 118.1529 109.1821 121.9259 117.2939 118.5155 118.6897 118.9900
124.8700 124.6703 124.4498 124.2302 126.0011 115.1691 126.9170 123.2625 122.8976 122.7808 122.3230 123.2258 110.4669 122.3404 121.0080 120.8895 120.5702 120.2217 119.8043 118.3571 133.5272 129.8825 117.8239 118.7582 133.2333 127.4574 115.9271 115.6318 115.2279 111.4791 114.7718 114.6958 111.8725 110.9298 109.9018 108.7246 107.4058 105.9178 104.2696 102.4447 100.6894 99.5483 99.8066 101.0905 102.9285 104.6932 106.3211 107.7607 109.0226 110.1870 111.1973 112.1199 112.9623 113.6834 114.9550 111.0112 122.0948 114.1886 108.1467 116.7300 117.6639 118.3740 118.7568 119.0000
124.8800 124.6184 125.0434 119.5080 124.1737 128.9642 122.8045 123.2889 123.2004 120.7205 123.1973 113.8926 109.7131 123.0894 120.9107 121.3606 120.5485 120.2439 119.9088 119.6422 114.0383 109.7975 118.9195 117.6094 117.7175 105.6566 121.1198 113.9886 115.1689 114.4004 113.7532 112.9439 112.2308 111.3435 110.3621 109.4299 108.1046 106.9713 105.7453 104.4734 103.3775 102.7409 102.8341 103.6217 104.7717 106.0549 107.3176 108.5222 109.5331 111.3706 111.4804 112.4412 113.2246 113.9691 114.6339 115.8033 111.8926 115.5571 111.6417 117.7682 118.0063 118.4039 118.8866 119.0300
124.8900 124.6345 125.7406 124.4315 123.8476 123.5512 123.6683 123.3402 123.4008 122.8716 123.0121 115.0120 111.3724 108.3151 111.9537 127.5214 120.2659 120.2834 119.9841 119.6778 119.2452 112.7715 110.9337 117.5593 107.5545 108.3557 116.1930 115.9300 115.3113 114.6687 114.0241 113.3718 112.5939 111.8217 110.9318 109.4874 105.9068 108.4381 106.9594 106.1892 105.4927 105.0979 105.1606 105.6443 106.4261 107.3585 108.3494 109.3261 110.2829 111.1866 112.0035 112.7656 113.4587 114.2859 115.3178 108.8011 110.0149 117.5993 117.1699 117.4416 118.0460 118.4692 118.8874 119.0600
124.9000 124.7451 124.4459 124.2436 124.1240 123.9009 123.5928 122.9309 125.1732 122.7215 121.5428 115.7150 112.2971 112.8093 119.8221 134.5173 119.8986 120.4099 119.9502 119.9493 112.5979 108.7024 110.0072 111.8719 110.0551 115.2344 116.6876 116.1014 115.5642 115.0050 114.3784 113.7123 113.0295 112.3165 111.4822 111.1418 109.7955 109.4229 108.3886 107.7232 107.2197 106.9547 106.9883 107.3185 107.8754 108.5753 109.3579 110.1612 110.9654 111.6621 112.4067 113.5664 114.6117 114.3357 116.0045 109.5669 117.7446 116.6237 117.1313 117.6862 118.1794 118.1815 120.4703 110.1900
124.9100 124.7910 124.5890 124.3469 124.1123 123.8938 123.7535 120.5562 121.0873 123.6464 118.2522 113.3816 112.1014 115.7618 126.5227 120.7999 121.2943 120.3455 120.1482 118.4183 120.3424 111.6168 114.6055 113.9626 103.0183 118.3395 116.6907 116.3520 115.8358 115.2801 114.7034 114.1118 113.4810 112.8174 112.1727 111.4325 110.8172 110.1917 109.5328 109.0407 108.6657 108.4819 108.5140 108.7425 109.1562 109.6954 110.3229 110.9563 111.9751 112.6698 116.2565 112.6765 109.7043 118.8291 108.4029 114.2310 118.0099 116.9987 117.4752 117.9120 118.4395 117.8291 125.7360 119.4100
124.9200 124.8228 124.6058 124.3877 124.1650 123.9453 123.6627 124.1049 119.1296 120.3378 121.6888 111.9004 113.8926 125.2757 122.2616 116.9633 121.2270 122.4271 120.0982 117.2484 119.9933 113.0838 112.4982 104.8053 113.9295 117.0823 117.0759 116.5906 116.1214 115.6032 115.0759 114.5108 113.9676 113.4449 112.7887 112.2058 111.6041 111.0976 110.6118 110.2002 109.9227 109.7815 109.8036 109.9774 110.2979 110.7204 111.2154 111.7948 111.9565 111.2703 114.4849 104.7181 98.8043 107.5043 123.8812 111.7428 111.1329 117.4840 117.6280 118.0603 118.6059 118.4776 122.7543 110.7200
124.9400 124.8411 124.6431 124.4419 124.2139 123.9911 123.7314 123.4732 124.1773 115.8228 120.5718 117.5699 111.9566 110.6918 107.9246 128.8632 116.5688 104.8662 111.1620 119.5313 120.1810 117.8209 109.9516 115.7006 124.5134 124.4424 116.6578 116.9360 116.4373 115.9402 115.4480 115.0974 113.7894 113.7893 113.4160 113.1843 112.3885 111.9520 111.5524 111.2574 111.0228 110.9077 110.9281 111.0634 111.3202 111.6557 112.0653 112.5760 113.1521 117.3454 109.9623 108.0059 106.6663 115.6287 113.0133 114.5789 113.9233 117.9206 117.8846 118.2767 118.7326 118.7857 118.3284 125.1300
125.1100 125.1183 124.7504 124.4961 124.2736 124.0470 123.8277 123.5667 123.7859 120.8676 120.9035 119.9557 105.1526 121.9041 99.2471 107.9510 95.6663 112.2166 111.8265 119.9503 117.1072 118.3283 112.6346 114.2273 118.0070 121.1583 117.4968 117.1950 116.6367 116.3112 115.8429 115.3133 115.2351 120.0080 113.4023 113.7782 113.1475 112.8396 112.5307 112.1594 112.0001 111.9112 111.9267 112.0335 112.2376 112.5154 112.8583 113.2191 113.3992 113.7344 112.0508 110.2498 103.8794 110.9429 118.3476 100.3330 115.5372 117.4201 118.1360 118.4970 119.0010 118.7070 130.3477 128.9400
125.1300 123.2431 124.9535 124.5417 124.3330 124.1103 123.8877 123.6789 123.4138 123.6124 125.3497 123.6089 118.3057 123.1137 99.1377 118.6824 98.7212 124.2702 123.4238 122.4508 114.1734 115.2284 105.7451 108.8403 114.0759 117.3757 117.7871 117.7115 117.0092 116.6576 116.1865 116.4514 111.6516 113.3770 114.5678 114.2670 113.8170 111.9095 112.9808 113.0374 112.8823 112.8106 112.8232 112.9136 113.0743 113.3149 113.5947 113.9251 114.4291 114.8403 107.6618 107.9419 115.9387 105.7923 116.0325 110.7958 119.1187 117.8782 118.3269 118.7234 119.0856 118.9890 125.6134 126.4300
125.1500 124.5755 124.8265 124.6125 124.3983 124.1826 123.9571 123.7342 123.4951 123.1789 122.4779 122.3658 122.4552 122.6617 119.3795 121.2802 112.3534 117.5650 120.6468 118.5444 111.3422 110.4195 116.3489 117.8648 114.6337 118.0676 118.8836 107.6009 118.7236 116.9603 116.6661 116.3257 114.6373 119.5080 113.6593 114.7578 114.6932 113.6110 113.2843 113.8273 113.6742 113.6213 113.6286 113.7048 113.8459 114.0438 114.2903 114.5790 114.8712 115.5576 115.1524 115.4368 110.2646 107.5440 120.1647 122.6260 117.4871 118.2855 118.5758 118.9481 119.2674 119.3495 133.0571 137.1500
125.1800 125.1276 124.8795 124.6818 124.4722 124.2607 124.0366 123.8217 123.5986 123.3454 122.8260 122.8479 123.9514 119.0572 129.3441 115.0331 120.2116 119.2981 106.7419 122.2364 130.1832 104.3881 103.9146 105.6085 121.1119 118.8766 118.5428 116.1750 117.8536 117.3395 116.9673 116.6625 116.4619 114.9440 115.4758 115.4025 115.0744 114.9369 114.7397 114.5038 114.4530 114.3828 114.3749 114.4441 114.5564 114.7231 114.9372 115.1854 115.4713 115.6785 116.1014 116.3653 117.8977 118.3269 112.7644 115.2345 118.1141 118.5342 118.8637 119.2266 119.3500 119.6441 112.2913 115.6000
125.3400 125.1498 124.9581 124.7496 124.5512 124.3325 124.1248 123.8883 123.6757 123.4287 123.2456 123.2396 119.7691 115.7116 134.7096 117.7513 127.4919 115.3241 117.5440 103.6594 107.1248 100.8411 104.8736 119.9402 118.3698 119.1001 118.4600 118.5061 118.3989 117.6546 117.6510 116.9561 117.0980 118.3997 116.2743 115.8926 115.7158 115.4923 115.3032 115.2135 114.8878 115.0118 115.0499 115.0911 115.2115 115.3637 115.5446 115.7629 116.0084 116.2791 116.5719 116.8727 117.2860 113.3412 114.4223 110.0843 114.9175 119.0543 119.0934 119.4074 119.7166 121.6130 127.6371 107.0700
125.3600 125.2255 125.0259 124.8275 124.6309 124.4134 124.1560 123.9684 123.3259 123.5589 123.4512 122.1986 118.8311 116.6883 117.9212 115.9265 124.7898 117.0411 121.6324 104.2730 112.5094 121.0421 120.4275 118.8324 108.2355 125.6973 123.3057 124.6587 115.6054 118.1870 118.3949 111.2972 111.5600 122.2061 116.2667 116.4638 116.2629 116.0755 115.9855 115.7099 117.7587 115.6112 115.6765 115.7932 115.8296 115.9111 116.1144 116.3110 116.5269 116.7706 117.0329 117.3157 117.6193 106.2298 114.2266 112.9038 110.7107 118.6859 119.4029 119.5083 120.9041 111.9065 111.8763 120.6900
125.3900 125.2934 125.0991 124.9046 124.7117 124.5540 124.2916 126.1487 121.3879 123.8170 122.8143 118.5365 126.2031 115.2422 119.0895 116.0686 111.8259 101.2708 101.2999 120.8182 116.1791 121.1651 120.2594 120.3059 111.7707 110.5606 117.7918 115.5396 118.9891 118.4411 117.9727 111.0710 115.3972 118.5287 116.7217 116.9749 116.7869 116.6177 116.5162 116.3876 116.4276 116.2672 116.2736 116.3462 116.7293 116.8778 116.6441 116.8304 117.0358 117.2366 117.4055 117.8175 117.5696 119.3547 118.2370 110.0538 113.0138 119.3816 117.2834 119.7328 120.3134 120.8322 121.2049 120.9800
125.5800 125.3738 125.1818 124.9927 124.7781 124.5865 125.9413 126.4081 124.1162 121.9375 118.7748 117.8373 117.1894 116.7445 115.4087 105.2054 100.0235 101.4756 108.6646 119.4746 121.5721 120.9022 120.6283 121.1895 113.7815 105.0806 111.1671 119.9055 118.9855 118.8007 118.5891 117.5290 118.4392 117.8910 117.6671 117.4329 117.2802 117.1304 117.0172 116.9404 116.8636 116.8265 116.7371 117.0018 117.2199 114.5216 117.6754 117.3054 117.4243 117.3664 118.3237 117.8272 118.5069 118.6355 118.2006 113.5098 117.9074 115.5202 120.8099 120.1604 120.3352 120.9116 120.4346 121.0600
125.5800 125.4603 125.2708 125.0827 124.8804 124.7517 124.0824 124.4010 122.9739 122.0919 120.5848 119.7624 116.3198 115.1807 102.8232 101.8068 100.4105 107.0530 120.3204 120.3778 121.4894 120.9905 120.9417 120.3719 120.9263 109.8844 119.6002 120.0698 118.3053 119.2215 118.9320 118.9676 118.4566 118.2390 118.0676 117.9029 117.7511 117.6233 117.5039 117.4241 117.3811 117.3466 117.1945 118.1421 109.8727 108.0303 117.9209 119.6330 111.6940 117.2625 117.5458 116.6995 118.2851 118.9687 119.1702 119.6282 110.1805 114.1381 118.9468 120.5890 120.3806 121.2299 120.2980 121.3400
125.6100 125.5290 125.3455 125.1779 124.9911 124.8273 124.5984 122.9830 119.0102 124.8469 123.1109 112.1821 109.8656 107.2572 108.9429 104.1927 106.1126 114.8056 114.6054 127.2617 121.5035 121.4406 121.0736 120.8629 120.7955 120.8966 120.5769 119.9758 119.7012 119.4604 119.2415 119.0562 118.5335 118.6728 118.4963 118.3404 118.2028 118.0861 117.9936 117.9160 117.8744 117.8427 117.6624 118.9501 107.0539 104.7445 121.5939 119.5753 105.6821 117.0517 119.9348 120.4847 119.2984 119.3263 119.5439 120.3215 116.7590 123.2301 116.2798 117.8152 121.1443 121.3110 121.5918 121.6900
125.8000 125.5985 125.5054 125.2154 125.0516 124.8451 124.7620 123.8550 125.1760 121.0448 127.4144 110.6009 102.7879 112.4550 109.2583 108.3961 112.0668 112.5408 130.4649 129.4145 121.4272 121.6194 121.3282 121.1397 120.7468 120.5699 120.3301 120.2166 119.9941 119.8154 119.6066 119.4248 119.2164 119.0520 118.9034 118.7627 118.6385 118.5299 118.4424 118.3702 118.3328 118.3117 118.3172 118.3071 119.4541 118.4318 118.8378 118.4302 107.0590 119.8980 120.6724 118.9166 119.4305 119.6628 119.8501 120.0790 119.9304 121.6388 114.0559 114.7313 116.0270 118.4170 121.8532 121.7500
125.8300 125.9082 123.8258 125.6272 125.2393 125.0213 124.8401 124.9707 125.9311 123.0003 127.4074 124.1230 110.4360 112.8465 110.6495 114.3764 117.4079 118.0300 113.8121 119.5156 121.9969 121.8151 121.5554 121.3412 121.1551 120.9281 120.7493 120.5213 120.3191 120.1266 119.9362 119.7566 119.5943 119.4322 119.2939 119.1580 119.0452 118.9549 118.8769 118.8219 118.7717 118.7505 118.7533 118.7915 118.6760 118.7426 118.9186 119.0995 119.5500 119.9594 119.2672 119.6795 119.8118 119.9255 120.1795 120.3522 120.5631 120.8235 117.7603 114.0117 114.0894 113.8516 123.2874 122.0300
125.8700 125.8506 125.0234 125.4050 124.8008 124.8985 125.0516 124.9742 125.1243 122.8758 113.4766 123.8280 119.7636 124.2027 120.7655 117.2116 117.1781 115.5813 120.1817 122.2673 122.2010 122.0060 121.7721 121.5762 121.3884 121.1802 120.9926 120.7973 120.6194 120.4394 120.2615 120.1014 119.9398 119.7971 119.6689 119.5363 119.4746 119.2801 119.2474 119.2150 119.1891 119.1744 119.1760 119.1977 119.2656 119.3257 119.3774 119.4854 119.5142 119.6379 119.8906 119.7530 120.3150 120.3252 120.4807 120.7177 120.3738 121.1130 121.1182 116.7579 113.8043 114.5134 116.4503 122.0700
126.0300 125.8990 125.8032 125.4898 126.3174 125.2658 124.8756 121.3100 120.8176 115.6750 122.3354 123.5759 122.5851 118.8820 123.8752 119.7994 114.3027 120.5641 122.3748 122.5587 122.1887 122.2517 122.0338 121.8315 121.6380 121.4419 121.2651 121.0816 120.9068 120.7352 120.5741 120.4265 120.2775 120.1496 120.0228 119.9681 119.6106 120.7741 121.1870 119.5801 119.5916 119.5762 119.5754 119.5909 119.6274 119.6837 119.7708 119.8414 119.9505 120.0885 120.1717 119.2184 119.9832 120.5924 120.7911 120.9608 120.7435 121.3532 121.7962 121.0983 114.0242 115.4092 115.7140 116.5900
126.0600 125.9948 125.8142 125.6415 125.4020 125.4858 125.6602 132.5212 123.3428 122.3507 123.0032 124.8584 120.4564 119.8741 117.5211 113.7013 107.0802 119.0136 122.2991 122.8288 122.6464 122.3403 122.1561 122.0534 121.8669 121.7030 121.5233 121.3558 121.1900 121.0376 120.8858 120.7472 120.6078 120.4912 120.3749 120.2959 120.0978 126.1032 119.3146 120.0474 119.9709 119.9613 119.9685 120.0049 120.0317 120.0673 120.0551 120.1675 120.2940 120.4092 120.4842 120.7235 120.8303 120.8770 121.0807 121.2514 121.4028 121.5724 121.7487 121.9270 121.9447 117.0314 116.9258 120.6000
126.2200 126.0901 125.9312 125.7602 125.5953 125.5107 124.7826 125.0382 124.9662 124.9087 124.5351 124.3137 123.0189 120.8797 126.6201 121.5270 111.4791 117.3864 114.3102 123.7580 122.4224 125.5110 124.7466 122.0699 122.1560 121.9461 121.7868 121.6301 121.4752 121.3263 121.1906 121.0553 120.9283 120.8148 120.7084 120.6305 120.0979 119.9935 120.3921 120.3584 120.3378 120.3308 120.3394 120.2743 120.2882 120.4269 120.9612 121.1026 120.6429 120.7293 120.8529 120.9642 121.0678 121.2316 121.3665 121.5228 121.6708 121.8310 122.0118 122.1677 122.7291 121.0732 122.6714 120.3400
126.2500 126.1888 126.0251 125.8707 125.7176 125.5396 125.4333 125.2928 125.1528 124.5579 124.7217 124.9535 126.2240 119.4632 117.1134 117.3117 109.3882 114.3194 117.2440 121.9926 123.4772 122.5016 122.6026 122.5429 122.3688 122.1940 122.0462 121.8831 121.7451 121.6082 121.4798 121.3510 121.2397 121.1268 121.0360 120.9469 120.9537 120.8891 120.7400 120.7218 120.6886 120.6766 120.7018 120.6171 120.8271 120.8997 120.6827 121.6573 120.9875 121.0592 121.1585 121.2711 121.3853 121.5092 121.6446 121.7783 121.8926 121.9444 122.2539 122.4128 122.5492 122.8100 121.5866 119.3700
126.4100 126.2841 126.1330 125.9768 125.8229 125.6613 125.4868 125.3096 125.1276 129.9930 124.7976 125.4349 132.5417 123.0938 115.5759 118.1944 113.9764 111.2034 123.5241 112.7112 122.9999 123.0814 123.4312 122.7235 122.5202 122.5228 122.3785 122.1725 122.0674 121.8832 121.7641 121.6445 121.5414 121.4366 121.3530 121.2717 121.1844 121.1261 121.0911 121.0544 121.0410 121.0275 121.0549 120.9134 118.9996 117.7726 121.1952 121.1378 121.3106 121.3656 121.4601 121.5649 121.6738 121.7968 121.9273 122.1634 119.6860 122.4540 122.4520 122.6398 122.8017 122.9900 123.9625 123.1700
126.4400 126.3871 126.2352 126.0820 125.9330 125.7787 125.6171 125.5691 124.5403 126.9220 115.0763 119.9647 116.0883 118.6375 118.3094 117.5534 124.1081 125.0923 125.2111 123.5801 124.3188 123.6238 126.7748 122.3406 123.0917 122.7117 122.3824 122.4786 122.0014 122.2318 122.0430 121.9274 121.8266 121.7369 121.6488 121.5691 121.5111 121.4555 121.4100 121.3725 121.3234 121.3219 121.3408 121.3597 121.4893 121.6389 121.4274 121.5480 121.5862 121.6710 121.7616 121.8581 121.9627 122.0723 122.2005 122.4316 122.0373 122.8343 122.6934 122.8618 123.0100 123.1405 124.6173 123.4700
126.6400 126.4877 126.3453 126.2043 126.0569 125.9124 125.7295 125.7458 124.8363 120.1450 115.5315 125.5449 113.0852 114.0770 125.5011 124.4349 122.4611 124.2148 123.7046 123.5306 123.5910 123.0605 123.3427 124.1391 127.0967 124.4453 122.7071 125.8570 122.7889 122.4731 122.3134 122.2107 122.1085 122.0248 121.9474 121.8754 121.8077 121.7650 121.7220 121.5475 121.7792 121.6956 121.6764 121.6711 121.6874 121.6503 121.7171 121.8284 121.8989 121.9656 122.0489 122.1387 122.2366 122.3383 122.4432 122.5673 122.6658 122.7847 122.9511 123.0886 123.2117 123.3672 123.4518 123.7000
126.6400 126.5956 126.4621 126.2621 126.1171 126.0203 126.0086 124.3083 127.8194 122.5600 119.2677 117.8480 116.9483 115.9479 119.1577 121.5931 125.8994 126.2906 124.0421 124.0481 123.6760 123.7553 123.5733 122.7787 125.4397 125.4723 123.0468 122.9400 122.4200 122.6990 122.5679 122.4757 122.3842 122.3072 122.2344 122.1640 122.1048 122.0434 122.2976 119.2051 122.3892 121.9797 121.9797 121.9742 121.9956 122.0475 122.0899 122.1242 122.1818 122.2473 122.3233 122.4115 122.5019 122.6027 122.7029 122.8155 122.9362 123.0536 123.1786 123.3020 123.4422 123.5799 123.7102 123.9200
126.8300 126.7131 126.5466 126.5374 126.4569 126.1452 126.1249 124.4567 128.9438 132.2732 125.3573 124.4507 117.0728 110.9437 125.0428 126.0914 115.4059 118.7930 124.3781 124.0920 124.0280 123.8773 123.7928 123.0879 123.2306 123.2691 123.2868 123.1586 123.1173 122.9083 122.8348 122.7351 122.6505 122.5774 122.5077 122.4461 122.3900 122.3398 122.4712 122.7515 120.2654 121.5873 122.1579 122.2419 122.2856 122.3128 122.3500 122.4016 122.4594 122.5222 122.5982 122.6779 122.7662 122.8554 122.9530 123.0609 123.1657 123.2868 123.4010 123.5220 123.6517 123.7786 123.9145 123.9300
126.8300 126.7804 126.8715 123.7242 126.3038 126.2078 126.0783 126.1562 125.1096 126.1339 123.8773 125.4025 114.8579 116.4686 125.2404 124.4548 124.1633 124.9275 124.8015 124.3372 124.2081 124.0801 123.9556 123.8051 123.8052 123.3357 123.3967 123.1078 122.8710 123.3516 123.0800 122.9927 122.9127 122.8374 122.7767 122.7163 122.6675 122.6274 122.4277 121.9830 109.5944 121.9440 122.4848 122.8460 122.5909 122.5987 122.6342 122.6783 122.7356 122.7942 122.8611 122.9317 123.0191 123.1015 123.1960 123.2959 123.3993 123.5165 123.6245 123.7414 123.8580 123.9850 124.1101 124.2100
127.0100 126.9263 126.8223 126.0138 126.5816 126.3800 126.2273 126.1360 125.2922 123.3935 117.8245 115.0861 120.7052 127.1510 125.6231 125.0347 125.0248 124.8245 124.6434 124.5155 124.3977 124.2826 124.1527 124.0340 123.7498 124.7075 123.7371 129.1096 123.8966 123.5424 123.3171 123.2399 123.1652 123.0984 123.0334 122.9821 122.9341 122.8998 122.7942 123.4898 123.8222 122.8588 122.3528 120.9470 122.7569 122.8616 122.9034 122.9489 122.9940 123.0522 123.1140 123.1880 123.2648 123.3488 123.4384 123.5364 123.6302 123.7341 123.8392 123.9500 124.0631 124.1820 124.3092 124.4300
127.1600 127.0251 126.8844 126.8185 126.6236 126.5045 126.4066 125.9638 129.8297 128.0953 121.7442 124.6201 124.5153 125.4272 125.3221 125.2058 125.0677 124.9322 124.8296 124.7013 124.5863 124.4685 124.3512 124.2313 124.0511 123.6781 112.1286 120.3529 123.6138 123.6788 123.5656 123.4887 123.4143 123.3479 123.2901 123.2405 123.1996 123.1502 123.0579 122.8523 122.8676 123.1144 124.6739 125.4004 125.1183 123.0425 123.1673 123.2058 123.2489 123.3117 123.3629 123.4349 123.5067 123.5846 123.6656 123.7618 123.8519 123.9517 124.0500 124.1579 124.2710 124.3813 124.5021 124.6200
127.2000 127.1333 127.0077 126.8843 126.7598 126.6006 126.6474 124.0679 122.2636 126.2584 125.8382 125.9901 125.7307 125.6121 125.4930 125.3642 125.2412 125.1154 125.0023 124.8868 124.7734 124.6554 124.5453 124.4425 124.2719 125.4583 120.3508 116.6734 123.8947 123.9116 123.7934 123.7205 123.6509 123.5953 123.5349 123.4921 123.4419 123.4103 123.4331 123.4146 123.4087 123.3225 124.0028 117.2065 119.3558 123.6674 123.4555 123.4393 123.4927 123.5467 123.6132 123.6682 123.7445 123.8176 123.8944 123.9824 124.0697 124.1676 124.2635 124.3611 124.4696 124.5802 124.6872 124.6600
127.3400 127.2416 127.1187 126.9818 126.9451 126.7045 127.9561 123.0740 125.5331 122.7765 126.4431 126.8028 126.8245 125.6555 125.6702 125.5164 125.4055 125.2936 125.1742 125.0650 124.9493 124.8442 124.7401 124.6346 124.5449 124.0964 124.9046 124.5944 124.0302 124.1139 124.0233 123.9542 123.8898 123.8305 123.7800 123.7353 123.6562 123.8971 123.4829 123.6383 123.4255 123.4475 124.2792 121.1566 119.9354 123.6902 123.6865 123.7116 123.7884 123.8388 123.8082 123.9092 123.9719 124.0403 124.1209 124.1998 124.2820 124.3789 124.4681 124.5629 124.6620 124.7647 124.8759 124.8900
127.3800 127.3482 127.2306 127.1050 126.4898 126.0360 129.1199 125.7209 127.7966 128.6832 126.5402 126.7667 130.4219 125.9515 125.7915 125.6823 125.5709 125.4581 125.3454 125.2453 125.1292 125.0319 124.9280 124.8209 124.7432 124.6990 124.3466 124.4039 124.4251 124.3623 124.2462 124.1785 124.1198 124.0664 124.0131 124.0094 123.7625 127.3506 123.5112 123.7288 124.5938 123.8799 117.3335 123.1057 124.1401 123.9361 123.9197 123.8221 123.8935 124.2146 124.2294 124.0617 124.2044 124.2624 124.3352 124.4182 124.4935 124.5822 124.6528 124.7785 124.8582 124.9591 125.0502 125.0800
127.5200 127.4587 127.3347 127.3268 126.1365 124.3005 120.5871 123.3091 127.8886 125.6187 126.6683 125.4869 125.1341 126.0467 125.9608 125.8388 125.7295 125.6258 125.5166 125.4130 125.3069 125.2024 125.1158 125.0202 124.9234 124.8562 125.1587 125.3304 124.9906 124.2439 124.4652 124.4035 124.3361 124.2840 124.2537 124.1906 123.8520 123.9198 123.5586 124.4887 113.9267 124.2284 123.9852 121.8511 123.9686 124.1624 124.1670 124.0502 124.3410 126.5952 123.9423 124.3865 124.4163 124.4829 124.5455 124.6252 124.6980 124.7833 124.9364 124.8801 125.0620 125.1581 125.2402 125.2700
127.5600 127.5673 127.4630 127.2646 127.3652 124.4749 121.8785 124.6550 129.6663 131.3899 111.5325 115.8496 127.1603 125.7856 126.1984 125.9830 125.8925 125.7860 125.6858 125.5874 125.5230 125.3333 125.2520 125.2166 125.1212 125.0606 124.8950 124.8410 127.8844 124.6867 124.6776 124.5939 124.5565 124.5414 124.3643 124.5015 124.4536 123.8860 123.6823 124.3091 124.6285 124.5180 124.1124 124.5121 124.2813 124.3502 124.3730 124.2468 123.9403 119.0589 124.7069 124.5845 124.6315 124.6884 124.7557 124.8306 124.9044 124.9424 125.1314 125.2531 126.5655 125.2440 125.3859 125.4500
127.8400 127.6784 127.5619 127.4652 127.3579 127.8928 126.3064 113.3689 113.2788 118.1324 122.4679 117.2814 125.1230 126.4839 126.2218 126.0477 126.0703 125.9949 125.8542 125.7512 125.3892 125.6743 125.9415 125.3585 125.3181 125.2246 125.1872 124.9513 124.8025 124.8694 124.8742 124.9054 124.8414 124.7476 125.6244 124.5829 124.8924 125.6243 127.9988 129.8696 114.0900 123.3617 124.4760 124.5568 124.5779 124.5867 124.6058 124.6178 124.6617 125.0836 124.8182 124.8126 124.8472 124.8966 124.9608 125.0355 125.0588 125.3237 125.0576 125.3089 128.5772 125.8548 125.5903 125.6800
127.8400 127.7857 127.6739 127.5817 127.3250 126.3390 119.0744 114.7541 118.9886 118.4433 113.8434 129.5955 126.3280 126.7671 126.4134 126.9911 126.0890 126.1279 126.0160 125.9230 125.8141 126.3436 123.5670 125.7127 125.4924 125.4257 125.3169 125.3255 125.3073 125.7679 125.1534 124.5487 124.6761 126.0342 126.2311 123.1680 120.9139 122.7457 118.4529 121.9501 123.9242 125.3371 117.2813 125.2933 124.7938 124.7398 124.7634 124.8195 124.8719 124.8261 124.9181 125.0055 125.0352 125.1516 125.1643 125.2436 125.2295 124.8237 126.0415 125.3334 127.7184 120.5886 125.9755 125.8800
128.0100 127.9016 127.7888 127.6889 127.7444 128.5840 111.9554 116.4206 123.6043 119.6039 112.1891 128.5561 126.1333 127.0309 120.9426 124.6840 126.4022 126.2451 126.1804 126.0985 125.9645 125.7558 128.2100 125.5689 125.6712 125.6078 125.5884 124.9496 125.2894 116.7152 125.2646 127.2553 126.1440 123.3522 108.6549 115.1479 131.9931 136.0276 107.4108 112.0076 120.9962 125.0325 125.3108 125.1343 125.0269 125.0337 125.1931 125.1406 125.0734 125.1303 125.1598 125.1953 125.2371 125.0671 125.2579 125.3024 125.4790 125.4933 128.3075 127.2680 124.1310 115.1311 126.7109 126.0600
128.0300 128.0126 127.9101 127.7986 127.5229 126.9627 121.3978 120.6557 122.9874 115.4186 112.9836 127.5992 126.6408 126.8522 126.0477 127.1847 126.2958 126.4043 126.3405 126.2557 126.0836 126.2116 125.7992 125.9654 125.8483 125.7928 125.7489 125.5879 131.6869 124.4739 125.4226 115.0987 133.2603 119.5895 111.8426 108.9752 113.8200 118.3517 116.9450 126.8900 125.4606 125.1893 125.1321 125.0214 125.1013 125.2351 124.6199 124.3008 125.2716 125.3217 125.3523 125.3994 125.4686 125.2775 131.3313 125.6221 125.6797 125.7596 127.1148 116.1794 126.3210 126.8229 126.2169 126.2100
128.1900 128.1298 128.0202 127.8272 127.9792 123.8458 136.4244 124.0868 122.1950 114.1655 126.5324 119.3459 127.6322 126.9081 127.0087 126.6435 126.6073 126.5801 126.4978 126.4108 126.3464 126.2487 126.2002 126.0964 126.0299 125.9646 125.9187 125.4109 125.2857 125.5776 126.3213 113.2601 130.2657 116.6523 122.2431 114.5193 116.2197 122.4912 122.2197 125.1376 125.2911 125.3834 125.3099 125.2293 126.4450 125.4375 126.5724 130.4562 125.5492 125.5297 125.5549 125.5929 125.6521 126.3768 126.3171 125.2310 125.8536 125.8719 126.5953 125.1461 126.8712 126.0513 126.2402 126.2400
128.3200 128.2356 128.1357 128.1255 127.8649 126.4696 126.5415 121.3824 123.1231 111.7068 115.4116 117.2956 128.0514 127.2259 126.9198 126.8884 126.8198 126.7338 126.6561 126.5720 126.4856 126.4158 126.3443 126.2779 126.2061 126.1354 126.0857 126.0789 126.0982 125.5803 125.7385 115.4073 126.0144 125.8399 126.8217 118.4691 126.1999 126.0838 125.9584 125.6272 125.5915 125.5939 126.1825 126.7545 127.2321 125.5047 125.5910 125.4758 125.5165 125.7199 125.7451 125.7814 125.8410 126.0741 126.5093 126.1201 126.0497 126.1172 126.0743 126.3717 126.2018 126.3837 126.4482 126.4200
128.3400 128.2439 128.6170 123.9064 125.4254 121.9832 120.7793 122.9126 122.3622 117.8818 113.2481 121.1090 128.7123 126.9536 127.2253 127.0639 126.9648 126.8867 126.8021 126.7352 126.6667 126.5862 126.5173 126.4460 126.3616 126.3705 126.1263 126.2212 125.8446 126.8146 122.6753 111.8589 123.9162 125.6909 126.3922 126.5633 125.7505 125.7950 125.7465 125.7775 125.7730 125.7905 126.8258 115.3678 126.7088 125.6254 125.8144 125.9417 125.9723 125.9089 125.9357 125.9721 126.0130 126.0667 126.0407 126.1764 126.2083 126.2684 126.3490 126.3721 126.4786 126.5294 126.6042 126.5900
128.4900 128.3946 128.8598 123.0530 129.7366 127.7679 118.1410 118.2039 115.4955 123.6379 110.1996 107.3283 125.7588 127.5903 127.0374 127.1942 127.1170 127.0374 126.9663 126.8794 126.7553 126.6582 126.6740 126.5547 126.5988 126.1720 127.3391 125.9397 127.8060 122.6252 112.9530 119.9690 126.3038 126.1624 125.9828 125.9663 126.0406 126.0034 125.9965 125.9867 125.9705 125.9885 125.9824 123.5629 125.9430 125.9432 126.0000 126.0160 126.0338 126.0788 126.1180 126.1508 126.1920 126.2368 126.2921 126.3235 126.3861 126.4407 126.5019 126.5600 126.6205 126.6928 126.7626 126.7600
128.6100 128.5391 127.6248 119.2100 127.8519 128.3468 131.9288 122.3769 116.6769 120.6602 115.0222 121.9165 128.0049 127.1421 127.4414 127.3457 127.2632 127.1958 126.8099 127.2083 127.3261 127.9874 126.7691 126.9978 126.7166 127.7876 119.4663 121.4672 139.7620 123.5165 118.2328 127.3114 126.1812 126.3175 126.2751 126.2124 126.1357 126.1310 126.1986 126.1444 126.1452 126.1361 126.1729 126.3150 126.4067 126.1546 126.1918 126.2229 126.2502 126.2683 126.2990 126.3306 126.3709 126.4131 126.4555 126.5095 126.5597 126.6152 126.6679 126.7253 126.7901 126.8482 126.9168 126.9300
128.6500 128.7240 128.5669 134.9577 133.5629 123.5017 112.8510 124.9059 132.0598 117.1132 100.1298 125.4987 127.8633 127.5732 127.5528 127.4813 127.4041 127.3385 127.2059 127.0895 122.0149 123.0545 117.6627 127.5006 126.7355 126.7602 114.4169 120.8895 132.5359 124.6945 127.1034 126.5366 126.5305 126.4670 126.3824 126.4806 127.4928 126.0795 126.4005 126.3745 126.3762 126.3779 126.3376 126.3349 126.3357 126.3728 126.3766 126.3955 126.4189 126.4446 126.4773 126.5122 126.5486 126.5880 126.6329 126.6722 126.7235 126.7724 126.8293 126.8854 126.9452 127.0114 127.0817 127.0900
128.9000 128.7455 128.6782 126.7204 126.9713 123.3938 124.8400 119.2937 132.7030 125.3909 129.0397 126.9043 127.8282 127.7822 127.6978 127.6214 127.5439 127.4773 127.2797 127.2678 124.4521 112.0504 115.9755 127.2191 127.0027 126.8046 127.8854 128.1978 108.7617 129.4362 126.5650 126.7265 126.6749 126.6451 126.5852 125.6427 134.1067 128.0077 127.3498 126.5554 126.3333 126.5001 126.5529 126.5216 126.5240 126.5371 126.5537 126.5799 126.6007 126.6225 126.6481 126.6857 126.7169 126.7543 126.7998 126.8364 126.8927 126.9403 126.9888 127.0436 127.1001 127.1667 127.2232 127.2300
128.9200 128.8947 128.5938 129.6610 123.9735 119.9145 123.6449 117.0774 125.2780 125.7542 127.7302 128.3124 128.0456 127.9076 127.8210 127.7582 127.6905 127.6579 127.2199 127.9017 129.4492 120.7004 127.8810 127.2254 122.8727 122.9062 123.0171 128.6083 117.0653 128.3762 126.9093 126.8473 126.8326 126.9372 126.1093 132.2949 135.7472 123.5983 129.8218 126.5350 128.3854 127.2417 126.8751 126.6811 126.7108 126.7165 126.7353 126.7539 126.7662 126.7947 126.8185 126.8557 126.8858 126.9236 126.9660 127.0027 127.0482 127.0968 127.1504 127.2005 127.2600 127.3124 127.3759 127.4100
129.0600 128.9684 129.1819 129.8338 130.8000 125.2266 128.5770 125.9126 122.4564 124.4467 128.1905 128.0182 128.0615 128.0212 128.0041 127.8931 127.8132 127.7304 127.6810 114.2693 127.2242 127.4916 127.4800 127.3307 128.4575 128.6214 124.8552 119.7274 127.3227 126.8791 127.1029 127.0197 127.0645 126.8630 127.2628 116.9242 118.2312 115.0346 127.2244 127.0347 126.8375 126.8504 126.9185 126.8725 126.8734 126.8904 126.8993 126.9213 126.9389 126.9656 126.9910 127.0174 127.0538 127.0846 127.1214 127.1664 127.2088 127.2574 127.3051 127.3694 127.4137 127.4669 127.5301 127.5600
129.1800 129.0632 129.0151 124.8719 123.6422 126.4785 128.9059 128.6959 128.6097 129.6623 128.7637 128.1103 128.3995 128.2895 127.8594 128.0708 127.9540 127.8417 129.2452 125.4753 129.2533 127.3360 127.4018 127.5309 128.3797 115.1585 122.5801 126.2654 128.0029 126.9882 127.2452 127.1975 127.1867 127.8866 116.9044 126.6920 113.3938 124.6819 127.1000 127.1028 127.1075 127.0408 127.0111 127.0145 127.0500 127.0583 127.0739 127.0813 127.1111 127.1248 127.1567 127.1844 127.2117 127.2448 127.2899 127.3296 127.3637 127.3962 127.4700 127.4165 127.5709 127.6191 127.6534 127.7100
129.2000 129.1594 129.4034 127.9778 129.3380 128.8007 128.7648 128.6835 128.6089 129.1979 128.0641 128.9662 128.3105 123.8010 128.9393 128.1855 128.0853 128.0654 127.7541 128.0987 127.0935 128.8908 130.4074 129.1984 120.3021 125.7470 121.1922 128.8856 127.3999 127.4473 127.3968 127.3640 127.3434 127.8331 127.6429 124.4069 119.4223 127.7492 127.2669 126.8876 127.1878 127.2125 127.3467 127.3920 127.2040 127.2246 127.2400 127.2759 127.2434 127.2897 127.3082 127.3494 127.3696 127.4101 127.4436 127.4853 127.5174 127.6207 127.4755 128.4776 127.6152 127.7591 127.8614 127.8600
129.3400 129.3144 129.2136 129.1582 129.1511 128.9636 128.9162 128.8305 128.6895 128.2709 111.4796 128.9221 127.9991 123.2456 128.9770 128.2809 128.2334 128.1655 128.1152 127.8057 128.5620 123.6262 122.5908 121.5188 115.7586 112.6035 126.7570 127.8654 127.6197 127.5800 127.5534 127.5181 127.5021 127.4203 127.1307 127.5877 127.5458 127.3004 127.8092 128.2273 127.2036 127.3703 126.7895 126.1943 127.4465 127.3939 127.3980 127.3485 127.6836 127.5054 127.5151 127.4916 127.5310 127.5591 127.5976 127.6351 127.6625 127.6295 128.7245 127.7683 127.7433 127.9576 127.9318 128.0000
129.4600 129.4015 129.3223 129.2400 129.1747 129.0968 129.0394 128.9794 129.1304 132.9813 128.5684 129.0136 128.4459 128.9574 128.2693 128.5191 128.3320 128.2835 128.1650 128.2855 130.1579 112.4885 113.8670 112.6491 125.1080 128.7440 127.0055 128.0897 127.7757 127.7348 127.7054 127.6797 127.6503 127.6567 127.5314 127.4617 127.6445 127.5016 126.5214 127.0830 127.1896 127.5615 127.3268 135.9470 126.6930 127.5828 127.5826 127.4618 126.4455 126.0679 127.5661 127.7464 127.6785 127.7171 127.7491 127.7874 127.8157 127.7271 130.8765 128.3190 128.2390 128.0563 130.2746 132.8600
129.5900 129.5076 129.4319 129.3597 129.2881 129.2179 129.1409 129.0869 128.8359 128.8080 128.6767 128.6952 128.9816 131.0972 130.7058 129.6100 128.6823 128.5953 128.1617 128.2967 128.6588 114.9284 113.7120 126.8643 129.8958 127.6822 128.1109 127.9284 127.9269 127.8900 127.8592 127.8336 127.8003 127.7848 127.7887 127.7597 127.8606 128.0387 118.6875 127.4479 127.4117 127.6991 128.8009 118.3854 129.0559 127.6567 127.7258 127.3994 128.1396 120.6596 127.8999 127.8558 127.8348 127.8651 127.9018 127.9382 127.9441 128.0577 127.7995 127.9557 127.9279 127.6099 124.9473 114.5600
129.5900 129.6023 129.5317 129.4674 129.3880 129.3267 129.2515 129.2240 129.1575 129.0786 129.0823 129.0981 130.8319 120.9838 116.2183 131.5216 126.0542 128.4984 128.9385 128.5181 128.2039 130.2934 111.3601 114.4787 128.1217 128.1605 128.1076 128.1147 128.0922 128.0571 128.0042 127.9806 127.9486 127.9334 127.9016 127.8783 127.9566 127.9318 126.6718 127.9825 127.8261 127.8491 127.7952 125.8733 127.4972 127.8187 127.8602 127.9130 127.7563 128.8521 128.0175 127.9863 127.9900 128.0134 128.0494 128.0810 128.1184 128.1263 128.3184 128.0194 128.4961 132.5479 128.1117 119.4200
129.7200 129.7180 129.6404 129.5717 129.4982 129.4341 129.3644 129.2994 129.2447 129.1669 129.0401 128.8647 120.1982 118.9832 116.0180 118.6344 122.1079 129.2876 130.9196 128.4961 128.4802 127.8327 116.1839 128.3060 128.6617 128.2294 128.2877 128.2452 128.0953 128.1299 128.1576 128.1303 128.0999 128.0848 128.0644 128.0415 128.0562 127.9998 128.0751 127.9843 127.9870 127.9897 128.0293 128.2880 128.2668 127.9836 128.0125 128.0272 128.0747 127.9269 128.0924 128.1260 128.1334 128.1630 128.1921 128.2279 128.2660 128.3226 128.1228 128.6356 137.7057 120.0153 116.6371 117.2000
129.9400 129.7600 129.6900 129.6100 129.5500 129.5500 129.4700 129.3200 129.3400 129.2400 129.1800 129.1000 129.1100 129.0500 128.9800 111.1000 111.1000 111.9500 128.7500 128.6400 128.6700 128.5900 128.5000 128.5200 128.4300 128.4500 128.3500 130.9000 128.2600 128.2900 128.2900 128.2000 128.2100 128.2200 128.1100 128.1200 128.1300 128.1400 128.1500 128.1500 128.0200 128.0200 128.0200 128.0200 128.1500 128.1400 128.1400 128.1200 128.1200 128.1100 128.2200 128.2100 128.1800 128.2900 128.2700 128.3700 128.3600 128.4500 128.4500 140.8700 140.8700 140.7900 117.9300 117.2000
