126.9900 133.1900 131.6600 126.9100 129.4900 129.7400 123.1400 122.7500 122.2400 121.7300 106.0800 106.1900 105.9000 105.7900 105.7200 114.8600 117.3600 121.3500 117.3900 116.7000 116.7000 116.0500 114.3800 114.3800 113.2300 112.3300 111.0100 111.0100 107.8100 107.2600 126.5700 107.5300 126.4800 106.8300 104.3800 104.3800 126.2600 104.2800 126.2900 120.9800 126.7300 126.1800 125.6800 126.1900 126.0300 126.0300 126.0300 126.0300 126.1900 126.1900 126.1700 126.1600 126.1400 126.2800 126.2700 126.2500 126.3800 126.3600 126.4900 126.4600 109.8500 126.5500 126.6600 126.6500
126.9900 133.1376 128.7406 130.5820 128.3886 130.4028 123.5529 122.7223 122.2778 121.3527 113.1502 107.0580 106.2516 119.2720 108.4483 110.6066 124.0298 118.1828 117.2153 117.2401 116.1096 117.0094 118.2160 114.8423 111.2683 113.2294 105.6848 110.3641 108.9989 110.4052 104.7813 106.9849 104.4443 105.6504 124.4087 103.1740 111.4249 103.9424 118.6138 124.1598 124.1584 126.0675 126.0404 126.0100 125.9994 125.9833 126.0096 125.9477 124.6127 126.5468 126.0104 126.0233 126.0855 126.1120 126.1486 126.1768 126.2097 126.1971 127.1996 121.3709 115.4071 121.6010 126.4570 126.6500
129.1500 128.1382 123.6961 125.1444 124.7410 126.3309 121.3204 121.8548 122.0841 122.3672 124.2422 103.6175 104.2872 107.5947 114.4684 126.4557 120.7207 118.6784 116.9494 117.1024 117.9345 109.8038 114.6667 113.3783 115.0678 116.0279 104.9139 112.3938 115.1290 115.5812 109.0746 126.3264 123.8909 125.8402 112.5305 109.3813 105.0961 119.0840 127.4539 120.7087 125.4660 125.8320 125.8259 125.8098 125.8106 125.7899 125.6396 127.5343 110.4996 127.6078 125.8251 125.8623 125.8987 125.9248 125.9499 126.0222 125.9821 126.1282 127.5613 113.7898 120.3905 129.7220 126.1371 126.3300
129.1500 128.9209 129.1714 123.2765 122.1969 121.9462 121.7523 126.2070 121.4364 121.5709 120.5986 114.8095 103.1081 103.3502 99.0040 127.9503 128.2796 116.2189 116.8193 115.1991 108.0952 108.7049 115.7138 114.3993 111.3935 111.2322 115.2225 110.0861 113.3541 112.0038 104.7975 116.1926 115.5555 117.1665 110.0755 109.6308 122.5546 116.2174 126.8893 121.4837 125.8795 125.6352 125.6282 125.6249 125.6168 125.5831 125.5612 126.9021 121.3373 126.5560 125.6302 125.6764 125.7060 125.7335 125.8088 125.7148 126.0613 125.5846 128.5487 108.9961 117.3260 100.9348 115.3549 126.1600
127.9800 112.6806 122.7356 123.7579 123.5491 122.4802 121.1075 121.4188 120.3950 122.6058 123.2906 125.7762 120.3888 106.8846 103.0517 131.1224 123.4850 122.5406 115.4601 124.7406 120.3386 125.2603 120.5317 114.9211 113.7687 111.9729 109.9241 118.2498 110.9834 108.1427 107.9937 113.5785 125.3257 129.8056 106.4524 125.5716 125.6517 126.0144 125.8837 126.0155 125.5587 125.4436 125.4310 125.4208 125.4134 125.3815 125.2840 126.9721 104.4844 122.0923 125.4834 125.4994 125.5096 125.5783 125.3333 125.7157 123.8807 124.1144 114.6935 111.4965 117.8020 115.3532 126.9904 125.9700
128.4700 124.9737 123.9847 122.9352 122.1838 124.9392 122.4899 120.8327 120.6900 118.4940 120.0226 122.3807 108.3975 102.7901 114.3360 108.6668 118.6455 120.1763 113.6272 116.5627 120.5930 117.3045 113.9813 112.4758 114.6541 112.2481 106.5683 105.8523 112.9130 126.0238 114.9589 118.4353 125.9847 117.1807 121.6983 127.0810 124.6881 131.1840 124.7563 125.2380 125.2758 125.2538 125.2309 125.2146 125.2099 125.2629 124.8761 123.8949 104.7880 123.1150 125.3109 125.3831 125.2987 125.3782 125.2822 123.3591 129.0100 110.3148 115.3044 129.3623 124.6355 128.6027 125.1762 125.7900
128.4700 131.6818 129.4706 122.6565 123.6967 123.2919 122.9365 120.6198 120.4835 119.6681 119.7770 120.8451 117.4952 122.0762 116.7278 122.6489 127.4192 128.2406 121.7271 122.5366 119.2075 127.6516 118.6998 108.3811 109.8997 108.9945 108.1886 108.6828 101.2789 117.7969 123.6469 115.3907 124.7086 125.7134 124.3561 124.8232 125.1497 124.7771 124.7756 125.1053 125.0693 125.0383 125.0254 124.9993 124.9648 125.0066 126.1736 116.8844 106.8197 121.3914 125.1970 125.0484 125.1220 125.1034 125.1769 125.1179 126.0208 123.2706 124.0831 127.2904 111.6614 123.5873 125.5889 125.6000
125.5400 131.0519 109.4191 121.3616 112.0455 122.0619 123.0382 123.1762 122.1114 122.6454 121.5801 104.5348 119.8932 117.5688 115.9200 109.4593 129.3587 126.7637 125.4636 128.9725 115.2696 116.9162 109.6168 108.8862 109.2793 108.9468 105.0737 109.4526 112.0214 112.5950 128.4871 125.7258 127.0106 119.1732 126.4096 124.9207 125.0114 125.0341 124.9959 124.8896 124.8592 124.8371 124.8209 124.8013 124.6671 125.8890 116.9468 122.5983 121.9878 123.6525 124.7854 124.9459 124.7682 124.8993 125.3455 127.0294 124.7300 125.4023 125.0718 125.4622 126.0162 125.6694 125.2614 125.4100
128.8800 126.2741 121.1457 108.2505 117.3750 122.3147 122.9740 120.6665 120.1332 121.7163 119.7857 118.7049 118.5937 120.6119 112.8974 111.5006 124.8455 126.1579 112.8325 109.9797 103.4414 121.1662 121.5978 105.2658 108.6140 123.0368 104.8933 117.4575 118.5579 121.5957 124.9121 115.2722 126.6518 111.2203 125.4245 125.0195 124.7922 124.7377 124.6907 124.6731 124.6390 124.6076 124.5775 124.5518 124.5182 124.8144 123.3981 124.7633 123.0341 124.9657 124.6215 124.6612 124.6911 123.2725 126.1794 125.6513 124.6596 124.8838 125.0374 124.9212 124.9258 125.1393 125.2850 125.3800
126.6000 128.4626 122.2703 123.2414 122.2885 122.1858 112.8552 120.9923 119.8844 119.8699 120.4524 119.0025 112.2245 113.2996 120.0493 118.1582 113.0929 125.8492 110.7493 100.0195 121.2712 119.7955 112.9306 107.4050 115.1767 109.7066 113.6639 123.5244 116.0012 123.1651 125.4798 125.5562 124.8617 126.3542 124.7476 124.6615 124.5792 124.5371 124.4971 124.4589 124.4173 124.4046 124.4274 124.4113 124.3577 124.3289 124.3287 124.3791 123.5602 124.3707 124.4052 124.4446 124.4365 124.3240 125.8517 124.8585 124.5344 124.7252 124.7799 124.8886 124.9634 125.0053 125.0933 125.2200
126.8400 128.1513 123.4198 118.9365 120.4369 111.3960 112.4237 117.8005 119.8856 118.0072 117.7652 118.7331 118.3307 115.7542 113.9466 120.0892 116.0549 120.2124 116.7666 119.3088 128.6492 110.0588 116.2820 105.9634 112.6234 121.5648 121.5493 121.8822 118.9563 125.4253 124.5816 124.6757 124.6091 124.5334 124.5172 124.4677 124.3653 124.3119 124.2751 124.2329 124.1900 124.1736 123.9970 124.0746 124.1251 124.1281 124.1191 124.1005 124.1747 124.1528 124.1759 124.2067 124.2646 123.8023 123.9586 124.4060 124.4643 124.4992 124.5885 124.6439 124.7301 124.8089 124.8955 125.0200
128.5100 128.3804 124.7071 120.4942 121.3083 122.8528 105.9493 122.1614 120.3331 121.3421 118.2097 119.5425 119.2432 121.4901 107.5395 128.5951 122.4208 109.6254 118.5663 108.8032 127.1712 120.0211 125.4411 118.2128 110.2582 125.1075 126.2104 125.0083 125.0049 124.7209 124.6059 124.3170 124.3485 124.7355 124.1862 124.1921 124.1471 124.0852 124.0384 123.9975 123.9571 123.9491 124.1333 123.0969 123.0904 123.8918 123.8766 123.8817 123.8993 123.9162 123.9403 124.0688 123.6515 128.5284 123.8978 124.1039 124.0524 124.2916 124.3712 124.4457 124.5305 124.6087 124.6973 124.8200
125.8300 129.8206 122.3615 119.0839 121.2610 122.8641 124.4728 119.0262 117.8212 107.7296 118.6016 119.6404 122.5339 120.5870 120.3584 127.0051 116.4593 102.9263 101.3061 107.4512 112.9091 120.3962 119.3510 110.1212 128.5037 119.8522 124.2559 124.6182 124.5027 124.4863 124.3743 124.1790 124.7481 120.0468 124.8370 123.9810 123.9255 123.9138 123.8333 123.7564 123.7132 123.6944 124.5309 111.9045 104.9168 125.0093 123.6631 123.6125 123.6446 123.6694 123.7040 123.7900 123.4857 124.0873 123.7739 126.7687 123.8635 124.0693 124.1518 124.2286 124.3154 124.4030 124.4989 124.6000
127.8100 119.3938 128.0151 119.0313 121.2087 121.6656 120.4300 116.8739 117.3040 98.4896 115.9382 118.5033 121.6404 123.9716 118.4329 116.0904 115.6809 115.1175 110.8123 109.1749 104.4798 124.6084 125.8582 124.7731 124.9697 124.5539 125.4206 124.1422 124.4696 123.8065 124.1650 123.9880 125.0132 116.6857 123.9919 123.7876 123.6805 123.4151 123.4477 123.5524 123.4733 123.4350 123.0834 126.0500 111.8646 125.3464 123.4561 123.3724 123.4055 123.4243 123.4568 123.5359 123.6071 123.5936 123.3732 123.6894 123.7672 123.8487 123.9319 124.0146 124.1030 124.2006 124.2942 124.3800
135.5400 125.5335 126.8126 119.8779 120.1537 120.1868 122.5574 121.2258 117.7978 116.9397 105.8104 108.0184 122.5296 122.5875 115.7818 116.3082 117.2794 108.4811 118.2079 101.7387 101.0536 124.9733 124.7755 124.5783 124.5812 124.5750 124.2526 122.7884 125.0308 124.0936 123.9576 123.7047 124.0396 122.0291 123.7435 123.4912 123.4630 123.9981 125.6806 123.2263 123.2185 123.1965 123.1775 122.8128 124.2635 123.5227 123.1370 123.1256 123.1403 123.1696 123.1993 123.2339 123.2713 123.3447 123.4582 123.4741 123.5379 123.6214 123.7016 123.7903 123.8837 123.9818 124.0828 124.1300
127.4800 127.5897 127.8984 118.4809 119.8559 111.0458 119.8503 117.5047 116.0974 120.2980 107.3225 104.5538 106.9783 116.2237 115.2376 117.0923 108.7625 110.3412 109.7450 103.5957 116.2522 126.9767 124.0106 125.0672 124.3802 124.3400 124.1211 126.3080 123.0011 123.9368 123.7061 123.5944 123.5441 123.6582 123.3660 123.3225 123.2431 123.0614 123.0694 122.8776 122.9792 122.9232 122.8915 122.9163 122.6876 122.7530 122.8570 122.8617 122.8812 122.9099 122.9410 122.9848 123.0368 123.0876 123.1468 123.2206 123.3024 123.3823 123.4747 123.5662 123.6667 123.7657 123.8748 123.9300
127.4400 127.2853 125.9472 118.1758 120.3292 118.9501 109.1894 119.0835 120.3457 115.8977 115.7901 115.4417 100.4088 112.0688 118.8830 112.0187 107.0025 102.0349 102.9381 117.5919 115.7730 107.8978 116.7805 125.3835 124.0662 124.1077 123.8773 123.8121 124.0090 123.5285 123.5196 123.3982 123.2962 123.1710 123.1161 122.9687 123.2459 122.7878 123.0415 123.5633 122.6261 122.6730 122.6406 122.6353 122.6311 122.5999 122.5813 122.5933 122.6100 122.6383 122.6717 122.7171 122.7670 122.8362 122.8992 122.9762 123.0539 123.1428 123.2299 123.3341 123.4333 123.5416 123.6598 123.7000
127.3000 127.1880 127.5664 120.4675 119.9875 119.7015 121.6222 107.7310 108.6076 114.9519 114.9690 119.6974 123.2135 105.1870 104.8064 116.8571 105.2423 103.2287 113.5622 133.9188 108.3335 125.6259 122.4504 124.1642 124.0338 123.8936 123.6972 123.6082 123.5551 123.4180 123.2624 123.1622 123.0566 122.9533 122.8688 122.9025 120.1720 123.4888 122.3348 115.8835 123.4237 122.3175 122.2941 122.1377 122.1714 122.2900 122.2865 122.3030 122.3281 122.3600 122.4021 122.4416 122.4997 122.5631 122.6330 122.7212 122.8022 122.8977 122.9932 123.0958 123.2083 123.3148 123.4368 123.4500
127.2700 127.0859 125.7435 120.0221 120.3008 121.2955 118.0976 116.7378 117.6147 114.3974 114.3445 122.4197 118.1080 116.3224 104.6471 106.8834 119.8431 101.7389 113.8748 116.4133 102.6888 135.5819 128.1426 123.7393 123.8725 123.6398 124.0101 122.8377 121.6049 123.4525 123.0526 122.9279 122.7915 122.6908 122.5953 123.4450 115.0276 118.6229 123.4557 118.7068 122.3215 122.1139 121.9625 122.7220 122.6703 121.9744 122.0338 122.0149 122.0221 122.0510 122.1072 122.1639 122.2205 122.2924 122.3673 122.4546 122.5391 122.6442 122.7407 122.8497 122.9617 123.0840 123.2326 123.2000
124.4100 123.9920 125.3282 118.7267 115.0673 113.2513 118.1150 117.0949 115.5983 116.0158 111.3549 114.3768 119.8611 120.1513 119.0100 103.8806 114.3113 107.9307 117.7742 110.6136 115.7932 120.3743 120.6729 123.4819 123.3185 122.9709 118.8437 106.9798 122.3503 123.2626 122.8122 122.6824 122.5972 121.9486 122.8297 117.7279 116.2208 102.3588 115.0501 122.6284 121.6631 121.7519 121.5160 122.3661 112.9389 122.4132 121.7391 121.6780 121.8240 121.8622 121.8257 121.8709 121.9315 122.0084 122.0881 122.1760 122.2767 122.3827 122.4893 122.6018 122.7245 122.9758 123.0361 123.1600
124.4900 117.5156 117.8403 115.5547 111.2673 107.0529 118.3723 116.3692 115.7518 119.2971 120.0781 113.1547 116.4642 119.7781 104.7939 110.0766 103.1093 106.9580 117.1342 115.9650 125.2771 123.3480 124.1597 124.5575 119.3249 107.7932 122.5302 108.9330 115.2259 123.0762 122.5685 122.4380 122.2711 122.5932 122.5905 100.2086 111.5379 97.8566 111.4414 122.3071 121.1147 121.6531 121.1528 122.1531 118.4549 121.8190 121.3869 121.4429 120.9868 121.0683 121.5253 121.5720 121.6378 121.7195 121.8033 121.9021 121.9989 122.1081 122.2235 122.3636 122.4850 122.5815 124.6196 122.9400
127.0600 121.8062 117.2655 114.6428 117.2648 117.9278 119.0312 116.6491 117.7449 112.6281 113.3808 118.4402 113.5184 125.5380 123.9606 113.1843 113.4917 98.5146 115.9532 123.4588 123.4064 123.6823 123.9578 120.5041 123.3982 111.7279 123.8347 123.1771 122.7943 122.5055 122.2974 122.2007 122.1113 121.7526 114.7162 111.9301 97.6981 106.1621 110.0897 109.7423 121.7450 120.6221 120.9478 122.8455 107.4213 122.4649 121.5202 120.4416 127.4062 120.4971 121.2154 121.2662 121.3327 121.4178 121.5042 121.6129 121.7309 121.8687 121.9538 122.0561 122.1819 122.3587 122.6514 122.6700
126.9000 117.5606 119.6121 112.4812 115.7449 118.4398 118.4764 111.6887 112.2701 115.7670 113.2733 113.9681 105.4218 105.2033 118.7460 108.7270 115.9439 122.2406 105.3649 122.9792 124.0250 123.5500 122.8258 109.2296 116.6267 112.8472 109.1547 123.2126 122.3445 122.2304 122.0509 121.6363 121.5666 122.2605 122.5710 116.3596 113.6377 113.0221 102.8107 124.4180 109.5570 122.8267 122.0698 112.9887 107.3789 123.3003 121.2577 120.3916 120.7634 120.8232 120.8536 120.9481 121.0132 121.1026 121.2317 121.2779 121.5066 121.3507 121.6962 121.9725 123.0072 122.0404 122.3023 122.3900
112.9100 107.2368 115.3049 120.2809 119.5492 116.9897 115.4953 113.8833 112.9270 114.6892 129.7304 114.3919 112.2366 105.7615 116.8646 100.6117 119.1661 119.5771 108.6441 110.3888 123.3884 123.3715 123.6940 109.5839 106.4975 116.8933 119.8430 121.3740 122.0104 121.5092 126.7511 121.6429 123.1585 121.6279 103.3324 105.1592 122.0801 122.5343 119.3460 103.1052 123.7138 107.7327 109.8498 121.8186 111.6563 121.5288 116.9929 119.6672 120.4383 120.4799 120.5331 120.6028 120.6836 120.7820 120.8964 121.2719 120.6489 123.0262 121.2971 121.4538 122.6148 121.8428 122.0326 122.0700
104.7000 104.5172 112.1846 118.6675 114.1307 124.6084 122.6597 109.8262 108.4055 113.3350 104.7870 118.5536 111.8929 102.4288 107.0865 106.9692 105.3791 119.2561 118.4749 125.6481 123.6200 123.1998 122.4597 111.6158 109.4674 119.0526 123.6599 120.5350 122.2647 121.8339 125.6601 120.3693 119.6819 109.3198 114.9208 100.0328 112.7491 103.3698 102.5051 104.4228 115.4237 111.1252 114.5475 119.6680 128.5301 119.8279 120.4742 120.0597 120.0584 120.1131 120.1775 120.2644 120.3484 120.4531 120.5566 120.7937 113.2518 111.9366 121.3686 121.2565 121.4551 121.6174 121.7852 121.8000
121.9000 115.7868 120.0530 111.9464 112.2061 117.6324 110.4150 105.0566 111.2414 118.2584 113.1010 119.6903 108.4358 103.0023 102.7826 107.8254 113.0752 110.7965 123.3181 122.8448 123.1378 122.9969 123.0760 124.7325 120.7860 120.7306 112.8753 121.6957 120.9058 121.3614 120.8990 121.2249 123.4319 119.9193 121.4008 114.3443 115.9720 107.0370 106.8910 107.7520 112.2162 124.8998 120.0781 119.7843 118.5378 119.0969 119.5307 119.6540 119.6913 119.7424 119.8115 119.8987 119.9922 120.1044 120.2412 120.3854 122.4163 113.3920 122.3211 121.0219 121.1713 121.3538 121.5341 121.4800
119.9700 120.3529 119.1435 117.4176 118.3236 113.2735 109.2940 102.8583 100.1976 114.5376 106.0090 116.8506 102.0851 103.2618 104.4765 107.1315 108.4586 115.7800 123.5509 123.2468 123.0259 122.7913 122.6431 122.1965 122.2152 122.1588 122.2762 126.1335 121.2342 121.3425 121.0202 120.5913 120.5911 120.8441 115.6655 114.8961 123.7821 103.7692 110.4091 100.7933 121.7521 120.6432 118.8843 119.2486 119.4549 119.3563 119.2470 119.2544 119.2976 119.3506 119.4340 119.5250 119.6292 119.7511 119.8992 120.0734 122.5960 114.9816 121.0252 120.6309 120.9081 121.0877 121.2794 121.4300
126.4900 123.0980 126.3044 121.1528 114.7739 113.0816 110.4411 105.5792 107.7003 106.4202 103.1474 118.4844 99.9416 102.7271 102.0078 103.8968 109.5446 114.2337 123.7997 122.9457 122.8733 122.5998 122.4959 121.9110 123.6056 107.8905 119.8504 119.9509 121.0551 120.9450 120.7387 120.5431 120.2498 121.5520 113.3548 107.3584 114.4253 101.1148 115.2383 119.3569 120.1715 118.8561 119.1289 118.9058 118.7994 118.7834 118.8100 118.8401 118.8853 118.9468 119.0301 119.1334 119.2547 119.3836 119.5268 119.6174 116.5402 120.2146 120.2423 120.3943 120.6124 120.8147 121.0253 121.1600
126.4600 123.8333 121.7915 114.3646 113.8546 112.4894 117.2637 112.5007 106.1469 109.1272 104.4062 101.7813 107.3171 101.9854 104.8535 104.7378 112.3365 113.8993 124.6205 122.9298 122.4142 122.8992 121.3601 122.7477 121.9879 121.1393 122.3763 121.1100 120.9926 120.6774 120.4570 120.2619 119.9528 119.3806 121.1137 123.0444 107.7469 111.6337 122.2704 118.7337 118.4511 118.5798 118.4321 118.4082 118.3920 118.3774 118.3780 118.4046 118.4518 118.5238 118.6126 118.7272 118.8568 119.0032 119.1500 119.4447 119.6047 119.9538 119.9175 120.1128 120.3246 120.5423 120.7581 120.8400
114.8700 117.9194 119.9362 113.3141 114.0249 109.7184 114.5004 114.0296 114.9287 111.1190 104.3532 102.3142 104.3916 100.9718 119.8403 115.4315 108.7785 107.9220 122.2007 122.1442 122.3306 120.8394 102.8046 120.0659 122.2632 121.3807 121.1087 121.1856 120.6414 120.4122 120.1711 119.9292 119.7372 119.4933 118.7992 115.3101 120.0355 118.6475 118.6021 118.4226 118.6154 118.1050 118.0542 117.9860 117.9309 117.9123 117.9111 117.9421 118.0053 118.0814 118.1769 118.3032 118.4398 118.6001 118.7959 118.9375 119.1532 119.3630 119.5913 119.8042 120.0294 120.2704 120.4953 120.7500
116.5900 116.1644 113.1001 113.9809 114.8842 115.1662 107.5809 106.0055 111.3074 118.4847 115.0535 105.2001 116.5542 109.6881 103.1192 120.1833 123.6356 126.1085 123.3392 123.4771 122.9299 115.6425 107.4473 101.2510 120.4192 120.8061 120.2186 117.4740 120.4121 120.1482 119.8914 119.7066 119.2798 119.3635 119.1122 119.0997 118.6728 107.0526 118.7225 117.9768 118.5135 117.6590 117.5673 117.4984 117.4431 117.4193 117.4292 117.4551 117.5201 117.6133 117.7194 117.8569 118.0167 118.1898 118.3757 118.5904 118.8111 119.0227 119.2629 119.4954 119.7370 119.9834 120.2272 120.4500
113.5000 113.7234 115.1128 114.7005 112.4774 113.4618 115.4275 111.3067 106.8283 104.7047 104.7019 110.7729 113.1691 111.4611 100.6746 105.8166 116.0360 122.2165 121.8707 106.8368 121.2955 121.4774 123.9750 107.8413 105.5517 119.4112 119.8859 114.1007 120.8116 119.8358 119.5980 119.3515 119.3431 117.0578 113.9973 118.3729 104.8084 109.1106 110.9969 117.4679 117.3250 117.1906 117.0767 116.9861 116.9319 116.9017 116.9128 116.9458 117.0197 117.1121 117.2456 117.3916 117.5650 117.7586 117.9658 118.1874 118.4307 118.6666 118.9263 119.1805 119.4386 119.7040 119.9645 120.0700
113.0700 114.6669 114.5823 114.6249 110.3972 110.8530 113.0367 116.5899 105.1961 106.1094 102.7035 102.3245 106.4772 104.5430 102.6634 102.0360 120.9880 122.2776 123.6192 128.2361 109.0151 117.7532 122.2501 112.1914 113.9838 105.3718 121.5176 120.9144 119.3002 119.6831 119.5499 118.8757 118.6440 111.1189 117.5326 118.9874 116.3951 114.1974 110.3328 117.0675 116.8477 116.6778 116.5450 116.4502 116.3862 116.3537 116.3609 116.4038 116.4830 116.5942 116.7337 116.9009 117.0927 117.3106 117.5405 117.7924 118.0457 118.3124 118.5822 118.8637 119.1374 119.4177 119.7001 120.0100
113.7500 114.5714 113.1313 112.7727 110.4572 110.3665 110.8189 111.1698 104.5162 101.1751 106.8349 102.2419 100.5733 108.3937 103.3773 101.9973 112.9978 119.5678 121.8896 119.4028 112.3343 121.6004 121.1449 121.6949 121.9895 124.4339 121.0132 119.6298 120.6370 119.1788 118.2216 118.7063 118.3719 107.4810 115.9731 117.2441 117.3193 117.9848 117.0844 116.5256 116.4787 116.1115 115.9954 115.8781 115.8024 115.7715 115.7745 115.8303 115.9101 116.0408 116.2041 116.3865 116.6024 116.8358 117.1041 117.3598 117.6587 117.9400 118.2365 118.5341 118.8366 119.1338 119.4342 119.5800
113.8100 114.1299 111.0192 112.6817 113.1196 119.5609 110.4893 110.9880 110.9796 106.4495 108.0305 104.0642 109.3373 110.7508 105.8286 114.2329 119.0751 126.1011 122.2449 122.8717 124.3293 122.0973 121.0530 120.7591 122.0427 121.1222 120.8260 120.2954 108.1386 113.9650 118.6844 118.3369 118.1785 118.8423 105.9333 119.7783 116.4531 116.3027 116.0797 115.5730 115.0069 115.6512 115.3879 115.2640 115.1743 115.1440 115.1461 115.2059 115.3054 115.4515 115.6388 115.8488 116.0969 116.3287 116.7562 116.9421 117.2403 117.5652 117.8900 118.2112 118.5295 118.8524 119.1638 119.5800
117.5100 115.6155 111.1694 111.9273 112.2089 114.6754 115.7767 113.2091 109.4720 106.9211 104.6453 104.7354 121.2205 117.3166 104.9336 105.5212 125.5848 122.2178 121.9586 121.6663 121.2521 121.2719 121.1616 124.6372 103.7080 107.9207 107.7362 117.4618 120.4613 117.4319 118.7050 118.0522 117.8498 118.8949 118.3230 116.3319 116.7108 116.0718 115.7036 120.8989 114.6876 114.9676 114.7608 114.6047 114.5044 114.4608 114.4745 114.5322 114.6594 114.8207 115.0283 115.2777 115.5539 115.8483 114.0083 116.6285 116.8598 117.1866 117.5342 117.8876 118.2277 118.5699 118.8949 119.1300
112.6200 114.6089 111.4275 109.6566 110.7279 110.7753 110.6034 110.5826 114.6472 108.9981 110.7268 117.6961 122.9658 116.2979 121.8237 98.9140 124.9522 118.2001 122.3756 121.6902 121.4723 120.5671 123.1025 100.9543 110.6246 99.9536 120.7460 115.2571 118.9822 118.6333 118.1586 117.7887 117.3917 116.9544 116.6310 116.1333 115.9141 115.4629 115.7042 114.4797 113.9789 114.3173 114.0704 113.8928 113.7804 113.7263 113.7338 113.8410 113.9527 114.1389 114.3964 114.6766 114.9801 115.5464 115.2814 116.0382 116.4121 116.8073 117.1758 117.5563 117.9150 118.2868 118.6532 118.7700
112.9700 116.6025 109.8172 110.0016 111.3325 111.0338 110.0133 109.3307 106.9205 108.2767 108.7019 122.0283 119.9594 122.6907 121.6711 96.0899 117.0545 118.8019 122.1659 121.5672 121.3593 120.4940 118.8972 110.9023 98.4629 124.7738 119.7693 118.7386 118.5717 118.2395 117.8670 117.4750 117.0739 116.7125 116.2291 115.9936 115.6050 115.7472 114.9163 114.6434 113.9061 113.5948 113.3307 113.1121 112.9654 112.9125 112.9630 112.9072 113.1884 113.4460 113.7070 114.0323 114.4058 114.7863 115.1793 115.6205 115.9967 116.4198 116.8226 117.2278 117.6588 117.9269 118.3633 118.6700
111.5500 113.6723 111.6516 109.8464 110.3788 111.2987 111.9740 111.9727 109.3793 105.1030 120.0813 118.3017 111.1771 123.4817 123.2863 122.3735 121.8274 119.1920 121.8090 121.4997 121.1315 120.8125 121.1146 119.4103 114.6775 97.7870 114.0985 118.7302 118.3931 118.0002 117.5931 117.1807 116.7382 116.3088 116.0272 114.5135 118.6445 112.4132 110.4029 112.9170 113.1975 112.8439 112.5232 112.3278 112.1849 112.0662 111.9384 112.7699 112.2914 112.6848 112.9918 113.3662 113.7806 114.2221 114.6656 115.1325 115.5824 116.0337 116.4801 116.9030 117.3418 118.2562 116.7320 118.2900
111.2000 111.2410 112.4733 109.6969 109.1898 110.8446 112.4097 105.3347 110.3432 107.9679 106.1672 111.8349 123.6812 122.1238 122.6044 122.1548 122.0735 121.8973 121.5443 121.3731 121.0868 120.9578 120.1833 119.8328 122.1869 104.3556 106.6588 119.7188 118.1905 117.7470 117.3313 116.8844 116.4416 115.8001 117.1060 114.9525 113.8288 107.4765 110.8641 113.6966 112.3319 112.0455 111.6505 111.3905 111.0169 110.5451 110.5768 103.5341 112.1837 112.0511 112.1431 112.6764 113.1324 113.6375 114.1532 114.6590 115.1606 115.6562 116.1345 116.6646 116.2235 122.2748 110.6256 118.2000
112.2600 112.6158 112.8328 111.6152 110.4933 109.3748 110.7067 110.9470 108.8741 106.9656 106.2222 110.8692 123.3866 105.1840 123.8641 122.5787 122.1334 121.8153 121.5235 121.2471 121.1672 117.8757 120.4030 120.0192 119.1488 119.6907 119.5489 118.3060 118.0127 117.5276 117.0781 116.6142 116.1188 115.6223 115.0357 114.6733 114.4215 113.5085 113.0602 112.1249 111.7127 111.1706 110.6896 110.3275 111.8228 111.4251 108.4714 102.3914 106.9851 104.6023 111.4545 111.9157 112.4626 113.0440 113.6215 114.1899 114.7457 115.2901 115.8110 116.2935 116.8072 117.3671 118.0671 118.1200
112.9200 112.5588 112.5087 112.4280 112.1875 112.2842 111.9160 110.1535 108.4741 106.6249 109.7027 102.7195 121.7420 110.0195 122.6636 122.4962 122.1241 121.7767 121.4542 121.1449 121.4318 112.0573 121.0047 119.6058 119.4833 118.8524 118.3517 118.1115 117.7895 117.3230 116.8460 116.3454 115.8290 115.2885 114.7295 114.1073 113.4172 112.7614 112.1733 111.5347 110.8715 110.2353 109.6282 109.2777 108.7989 108.6110 108.8975 108.1866 100.6112 109.7721 111.2768 111.1253 111.8004 112.4516 113.1062 113.7377 114.3484 114.9333 115.4891 116.0198 116.5971 117.0486 117.4810 117.7300
109.7900 111.2993 111.7065 112.3720 111.9407 112.0004 114.1687 109.8839 109.7840 109.7754 116.7185 126.5014 122.0645 115.6278 122.2829 121.1241 121.4874 121.6866 121.3733 121.1028 120.7529 121.5209 120.5585 119.6976 119.2923 118.9638 118.5927 118.0794 117.6048 117.1351 116.6351 116.1217 115.5519 115.0019 114.3599 113.7215 113.0432 112.3378 111.5875 110.8025 110.0079 109.2337 108.4953 107.8623 107.4172 107.1788 107.0972 108.4945 108.4333 108.2728 109.3889 110.2932 111.0925 111.8678 112.5856 113.2871 113.9682 114.5924 115.2016 115.7730 116.3038 116.8267 117.3221 117.6600
114.7800 111.8413 112.2736 115.4472 110.1828 115.2734 116.5851 111.5105 107.8170 109.2295 125.0839 119.2578 123.0114 123.3775 122.0230 123.5412 123.9362 121.6035 121.3730 120.8771 120.2988 119.9621 119.8860 119.6033 119.2039 118.7775 118.3490 117.9121 117.4548 116.9576 116.4458 115.7738 115.1768 114.5981 114.0378 113.3465 112.5961 111.8032 110.9615 110.0696 109.1296 108.1721 107.2164 106.3679 105.6908 105.3824 105.5066 105.7999 106.6556 107.2643 108.5430 109.5149 110.4108 111.2948 112.1460 112.9476 113.6448 114.2999 114.9377 115.5372 116.1087 116.6468 117.1474 117.5400
110.2200 111.0508 112.9677 114.2603 114.4177 109.3329 111.3351 110.6690 105.0503 102.3540 112.9882 112.0751 123.5962 122.5456 122.0158 122.2134 105.2616 121.1760 120.9576 120.7272 121.5513 121.0104 119.9160 119.4909 119.0554 118.7033 118.2632 117.8067 117.3263 116.8243 116.3377 115.5736 115.6435 114.5042 113.8085 113.0154 112.2041 111.3336 110.3917 109.3637 108.2491 107.0646 105.8202 104.6328 103.6231 103.0665 103.1914 103.9756 105.0689 106.3315 107.5508 108.6783 109.7657 110.7506 111.6698 112.4061 113.3216 114.0199 114.7092 115.3318 115.9131 116.4525 116.9952 117.5400
111.7100 112.3616 115.7711 116.6782 113.2328 112.7830 108.8786 108.0416 103.6218 113.8484 118.5742 115.9744 123.7160 122.6546 122.5577 122.4759 113.3509 113.9798 121.6960 120.5988 116.2458 111.8175 119.6049 119.6186 119.3344 118.5976 118.1761 117.7071 117.2058 116.6686 116.1412 115.6248 106.7339 113.9074 113.1965 112.7461 111.8733 110.9238 109.8837 108.7174 107.4208 105.9581 104.3412 102.6068 100.9881 100.0370 100.3184 101.5508 103.2745 104.9655 106.5306 107.9309 109.1782 110.3559 111.2172 114.4993 112.9241 113.7944 114.5089 115.1918 115.8496 116.4575 116.9547 117.1000
110.3200 110.9876 111.7634 111.2760 109.1852 107.9876 105.2788 103.7388 103.2120 112.3493 119.8669 112.2647 124.5823 123.3142 121.8861 121.8318 124.4936 122.9336 121.0511 120.7952 120.5020 114.5989 115.0576 120.0742 116.1783 118.8124 118.1118 117.6400 117.1271 116.6334 116.4123 115.7529 114.2840 113.3491 113.2789 112.5238 111.6219 110.6056 109.4719 108.1879 106.6982 104.9542 102.8829 100.3414 97.5145 94.9432 95.5918 98.6425 101.3481 103.7152 105.6592 107.2961 108.6973 109.9405 111.0347 112.1567 112.8500 113.6404 114.4113 114.9293 115.4378 115.9636 116.6338 117.0700
109.9600 109.5438 109.3567 108.7746 107.4611 105.9883 113.4831 100.9403 101.9836 108.6971 114.1645 114.6200 115.4852 112.0448 124.3103 122.6999 105.5277 103.4079 122.9033 120.8407 120.3959 120.2069 114.9272 119.8165 118.6492 118.5551 118.0632 117.5988 117.0474 116.3492 115.5766 111.2496 115.0730 114.4121 111.6437 112.4319 111.3686 110.3839 109.1920 107.8182 106.1793 104.1947 101.6597 98.2942 92.3538 88.4280 89.3774 94.9701 99.6336 102.7179 105.0099 106.8435 108.3664 109.6787 110.7695 111.7909 112.7061 113.5256 114.1341 115.4508 116.3363 117.0818 117.2212 117.0400
114.3600 113.9579 109.4541 109.3405 107.8011 106.9370 103.9959 102.8942 105.0196 123.0663 104.5453 101.5865 101.2833 100.5712 101.0080 100.4470 116.4547 120.6988 121.3326 118.3797 120.8725 120.0447 119.7221 119.4239 118.9588 118.5084 118.0496 117.5911 117.0551 115.8687 124.4651 115.1213 114.8268 114.0447 111.2109 112.4651 111.2303 110.2908 109.0752 107.6499 105.9487 103.8316 101.0419 97.0231 89.1123 84.6324 85.4421 92.3425 98.7375 102.2331 104.7112 106.6379 108.2184 109.5607 110.7159 111.7346 112.6343 113.5089 118.2242 102.8046 102.7220 99.0588 118.2131 117.0300
113.8700 114.0721 109.8333 109.6451 107.2998 106.9953 104.5433 103.2437 105.0003 105.3274 102.1800 107.0772 106.1745 122.7146 109.2207 122.8400 112.8929 121.0446 121.1096 118.3412 120.7871 120.0719 119.7182 119.3647 118.9563 118.5254 118.0608 117.5841 117.3189 115.8935 123.1892 115.5825 114.6839 114.0793 111.0707 112.3907 111.3290 110.3305 109.1171 107.7134 106.0480 103.9835 101.2998 97.4669 90.8903 86.4304 87.2482 93.3929 99.1121 102.4331 104.8222 106.7261 108.2803 109.6010 110.7562 111.7876 112.6927 113.5170 117.6007 103.0719 116.3866 100.2206 117.4183 117.0300
113.3700 112.8471 112.5683 110.4889 108.9799 108.8476 107.2837 103.1282 103.7610 103.2166 106.7236 108.2513 123.9087 122.4450 115.6302 121.6517 121.4501 121.5280 122.1193 121.3468 120.4974 120.0185 119.7125 119.3793 118.9155 118.5103 118.0493 117.5121 113.4206 109.1325 102.6365 116.3348 114.5544 114.0558 113.2307 112.6901 111.5379 110.4910 109.3288 107.9995 106.4435 104.5906 102.2917 99.3945 95.4414 91.7799 92.7332 97.2154 100.5501 103.2421 105.3384 107.0753 108.5338 109.7964 110.9011 111.9696 112.3299 113.6460 114.1158 115.7813 116.0161 118.4874 101.4565 107.5700
110.1800 110.4092 110.6637 111.3504 109.7370 109.5432 112.9142 105.5109 104.7145 118.3536 121.4858 124.2678 122.6691 122.8959 116.0430 122.0718 121.5288 121.7907 114.4251 121.5681 120.6449 121.1893 119.9317 119.4480 119.2719 118.6230 118.0255 112.6477 102.9391 108.7908 118.9973 115.7141 114.7406 114.1860 113.9338 112.8771 111.8014 110.7668 109.6863 108.4748 107.0870 105.5093 103.6845 101.6499 99.5786 98.1780 98.6110 100.3485 102.4503 104.4069 106.1348 107.6367 108.9538 110.1195 111.1626 112.2222 111.7077 115.1441 114.4038 114.9735 115.2661 121.1443 115.3908 124.8000
112.2900 111.6555 109.5596 110.2370 109.1657 108.5159 103.7182 106.0253 105.2361 117.7670 100.5048 124.0663 122.9476 122.5857 122.8612 122.1198 121.5933 122.8561 107.4871 121.2655 119.9242 112.0182 119.7982 119.2063 116.5760 118.6702 118.0538 118.3006 117.9537 117.0994 115.5929 115.5834 115.0237 114.4586 113.6115 112.8290 112.0467 111.1530 110.1565 109.0674 107.8785 106.5839 105.1827 103.7626 102.5121 101.8259 102.0078 102.9780 104.3138 105.7301 107.0927 108.3487 109.5021 110.5492 111.4921 112.4540 113.6688 117.0858 114.4987 115.2621 115.9436 115.7682 113.5214 119.5600
110.7000 111.2185 107.4937 106.9965 106.4418 103.3136 102.9477 114.8115 106.0105 112.3647 125.0162 123.3855 123.1397 122.7200 122.1143 122.2078 121.8199 122.8716 123.3812 121.8885 119.7899 99.0101 121.0369 117.2104 118.3397 118.6045 117.7926 117.9330 104.5200 118.8563 116.1555 115.8642 115.2103 114.5953 113.9399 113.2000 112.4362 111.5998 110.7055 109.7510 108.7446 107.6851 106.6311 105.6246 104.8361 104.4151 104.5231 105.1016 105.9906 107.0316 108.0941 109.1378 110.1307 111.0569 111.9179 112.7345 113.6861 114.7338 114.8825 115.4304 116.0175 116.2109 121.2363 119.5600
112.7300 113.8359 110.0785 111.1352 107.2392 105.6111 104.6889 112.7837 105.5248 117.0122 111.0486 124.0992 123.1200 122.8432 122.3965 122.2604 122.1072 121.6016 119.1154 112.8212 122.9366 112.8385 119.9289 120.2435 119.4248 118.8381 120.0014 121.7622 97.2948 118.2074 115.9333 116.0297 115.4512 114.8530 114.2137 113.4830 112.8599 111.9626 111.3148 110.4790 109.6388 108.8081 107.9460 107.2035 106.6939 106.4051 106.4744 106.8606 107.4945 108.2499 109.1018 109.9566 110.7987 111.6147 112.3877 113.1247 113.7245 114.3536 115.1648 115.6610 116.2886 116.4008 118.6235 100.5700
112.9600 107.1761 108.4234 110.6887 117.3794 112.0315 119.3223 107.9929 115.7638 106.1338 121.4944 123.6208 123.2223 122.6197 122.5429 122.3297 121.4116 120.9968 107.9822 118.4584 122.1157 122.5651 119.8764 119.4850 119.1582 119.4887 106.4480 121.8698 105.6385 117.6655 116.9650 116.2199 115.7050 115.1455 114.5812 113.9468 113.5902 112.9469 111.9251 111.2051 110.4934 109.6332 109.2541 108.7213 108.2179 108.0210 108.0711 108.3469 108.8085 109.3941 110.0308 110.7783 111.4900 112.1963 112.8812 113.5422 114.2029 114.8182 115.3263 115.8347 116.5329 116.9132 117.7739 117.6400
105.0900 103.1699 103.7957 105.7456 112.5420 113.0570 127.5059 110.3473 107.9983 113.4507 109.9514 126.5600 122.9102 124.0730 122.9557 122.3354 122.5017 120.7908 115.7326 121.2921 119.1346 110.1515 119.8321 120.6118 119.7322 119.5730 115.6557 117.3112 101.5767 118.3841 117.0520 116.4754 115.9929 115.4617 114.8409 115.0542 105.5949 113.0709 112.5060 111.9817 111.6196 110.3259 107.9133 109.8533 109.5361 109.3873 109.4306 109.6330 109.9791 110.4486 110.9892 111.5724 112.1759 112.7905 113.4059 114.0004 114.5692 115.1356 115.8223 116.7274 117.0825 118.5859 107.2967 115.4900
103.7700 103.8505 102.0715 110.2142 112.2089 123.8069 124.9767 124.7554 102.6499 128.8978 106.2719 111.3950 120.2592 110.6339 123.7255 123.7709 105.1583 125.9218 100.6533 123.4254 120.3673 121.8713 123.7813 104.8272 121.0042 120.7245 101.5575 110.8728 116.2827 117.7734 117.2119 116.7666 116.2956 115.8018 115.2881 114.8942 115.1565 113.5072 113.4791 112.5617 112.0840 111.9805 111.2133 110.9391 110.6836 110.5705 110.5989 110.7568 111.0308 111.4025 111.8421 112.3387 112.8496 113.3840 113.9229 114.4613 114.9968 115.4023 116.1306 112.9450 114.8783 119.8498 97.2730 103.0100
103.7800 105.0052 123.9324 122.3623 124.8182 124.6937 125.3163 106.7397 105.4884 102.6620 102.3138 101.5011 122.0644 117.2589 122.7787 122.7592 121.6093 122.2072 120.6316 121.2522 121.3270 121.0350 120.9902 118.4888 120.0993 111.8610 101.5447 101.6310 119.8737 117.8368 117.4688 117.0524 116.6121 116.1504 115.6901 115.2069 114.7182 111.5362 117.8730 113.4845 112.8816 112.4425 112.1545 111.8831 111.6976 111.6091 111.6296 111.7574 111.9770 112.2778 112.6493 113.0587 113.4903 113.9926 114.4500 114.9231 115.4063 115.8765 116.2312 117.9230 100.1409 97.6231 95.2548 97.1700
125.8000 125.7466 125.3896 125.4387 125.0452 124.3827 126.3948 104.3578 105.7269 102.6155 107.5146 105.5825 127.7357 120.4185 122.7455 122.4577 122.3313 122.1847 121.7654 121.5262 121.2322 120.9573 120.6082 120.3625 119.6632 117.5862 98.7573 122.6149 117.9426 118.3758 117.7260 117.3473 116.9357 116.5135 116.0691 115.7120 115.1810 124.2280 112.9429 113.9707 113.6087 113.2791 112.9868 112.7541 112.6093 112.5357 112.5541 112.6579 112.8387 113.0860 113.3979 113.7525 114.1479 114.5414 114.9648 115.3951 115.8253 116.2493 116.6770 117.3987 118.1239 120.5955 102.7505 105.1700
137.2200 126.7175 125.5547 125.2471 126.1862 109.5207 106.8975 111.7898 106.0555 105.5968 104.2793 102.5299 122.7292 103.9423 122.3257 122.6645 124.1146 121.2471 121.8761 121.6090 121.3366 121.0386 120.8608 121.3142 116.4571 121.8451 98.3770 118.8485 118.7992 118.2636 118.0048 117.6711 117.2596 116.8835 116.4814 116.1468 115.2060 116.4577 112.9602 114.7018 114.2618 113.9936 113.7492 113.5600 113.4302 113.3785 113.3912 113.4720 113.6285 113.8358 114.0962 114.4002 114.7335 115.0909 115.4680 115.8599 116.2488 116.6386 117.0331 117.3770 117.4070 115.6770 113.9593 127.0200
131.8600 125.4728 125.7559 125.4759 119.4754 112.2586 116.9027 126.5202 124.2904 125.8785 127.0624 111.2849 109.3131 126.8874 119.5322 118.1907 118.7261 117.8855 122.0544 121.8117 121.5074 121.1479 120.6379 117.3034 100.8689 99.7961 111.2898 98.5782 120.6946 117.2801 118.7690 117.8236 117.5974 117.2419 116.8887 116.5159 116.3167 115.8214 115.5988 115.1918 114.9289 114.6611 114.4565 114.2928 114.1935 114.1393 114.1482 114.2264 114.3500 114.5281 114.7577 115.0154 115.3147 115.6291 115.9665 116.3069 116.6679 117.0358 117.3277 118.6050 120.3176 115.1712 103.6884 104.4300
125.9800 125.9693 125.7016 125.4049 126.3609 121.9631 125.5589 124.1311 124.2163 123.5896 124.7403 125.1032 123.7891 123.1218 99.6953 99.7166 100.2682 121.9656 116.9012 121.8824 121.6821 121.0372 121.6561 96.2345 114.6124 100.5649 106.5919 113.2193 113.7646 114.7789 118.9593 117.9980 118.0075 117.6014 117.2755 116.9529 116.7864 116.4718 116.0059 115.7439 115.5152 115.2986 115.1137 114.9738 114.8837 114.8443 114.8533 114.9082 115.0223 115.1773 115.3730 115.6002 115.8642 116.1408 116.4457 116.7497 117.0729 117.4157 117.3517 117.4028 106.6316 109.2813 106.5549 101.9800
127.0300 125.8700 125.7400 125.6100 125.3400 125.2000 124.9200 124.7800 124.4800 124.3300 124.1700 123.8600 123.7000 123.5300 101.2000 104.6100 116.7000 115.2100 122.2900 121.9100 121.7100 121.5000 121.1100 98.8800 102.5900 100.5800 106.0300 111.7200 107.7600 110.1200 118.6800 118.4100 118.1500 117.8500 117.5500 117.2600 116.9500 116.6300 116.3600 115.9900 116.0400 115.6700 115.7500 115.3000 115.3400 115.3700 115.3700 115.3200 115.2600 115.6900 115.6000 116.0700 116.3900 116.6700 116.6700 116.9400 117.2600 117.5500 118.1800 118.1200 121.7400 97.5900 111.3800 101.9800
