123.1900 123.0100 118.9800 122.4500 122.2600 121.8600 121.6500 121.2200 121.0000 107.9400 120.3000 120.0500 119.5300 119.2700 125.5800 115.8400 118.1000 117.4600 117.1300 116.7800 116.0400 115.6300 115.2400 114.8200 113.9900 113.9900 112.8600 112.4900 111.8100 111.2900 111.2900 110.7700 110.7700 100.7300 109.8900 110.7700 110.7700 111.2800 111.2800 111.8200 112.4800 112.9200 114.0000 114.0000 114.8300 115.2500 115.6600 116.4600 116.7900 117.1400 117.4700 118.1100 112.6300 96.9900 98.8900 97.5400 120.0500 105.6300 102.3700 100.7400 106.6700 121.6600 121.8600 122.0700
123.1900 122.9646 122.2498 122.1357 122.0916 121.8524 121.5506 121.3179 121.1773 121.5438 119.3207 111.6547 112.4037 121.5515 120.9104 117.1988 118.0318 117.4611 117.4561 113.4907 116.9718 115.5954 114.7646 113.9243 113.6607 113.7411 110.2997 113.6196 111.3733 110.8567 110.3096 116.4606 113.9164 103.6037 111.3949 109.6500 109.8413 110.5529 111.4074 110.8155 111.7198 114.1029 113.2535 113.7134 114.3414 114.9483 116.3566 108.0544 117.5540 116.9382 117.4667 118.9585 119.7562 112.0410 100.5616 111.7165 119.5135 102.0293 109.1636 110.8041 120.2111 115.5656 121.9337 122.0300
123.1700 122.8007 123.3170 123.0327 122.1195 121.8039 121.4814 121.1718 120.8578 119.7578 116.5603 110.9436 113.0625 122.6803 118.5254 118.4029 117.8701 117.4540 112.6530 111.7934 108.5366 112.8661 117.6093 115.6308 113.5329 112.8702 101.1783 105.7694 111.5166 114.4512 109.3764 108.7053 109.3463 105.0228 111.4548 107.6614 108.6599 108.4221 108.5543 110.9676 111.0171 113.4521 112.7485 113.7596 114.3480 114.0328 115.6704 109.5857 116.6897 117.0281 117.1825 116.1384 112.8541 123.5790 107.4797 108.4765 107.0998 99.8219 113.1089 109.9670 114.0104 121.1673 121.6626 122.0100
122.9500 122.6433 122.1203 119.0762 121.8123 121.6851 121.4174 121.1039 120.7837 120.5246 120.1467 119.3524 123.1465 125.1467 118.3537 118.0621 117.6396 117.0716 115.3672 100.6094 96.0105 97.8302 99.4177 102.4600 112.6721 113.8694 99.1761 110.3312 108.7276 109.7814 108.0556 107.8310 103.6423 102.9379 105.6037 106.8218 107.7673 112.9521 111.0998 110.0676 107.5428 111.7299 111.8537 112.6367 103.6383 115.9998 115.1301 117.7491 116.0413 116.3226 113.8517 117.2582 118.2453 119.7346 115.5143 98.5856 117.3904 111.4151 105.4822 102.7482 114.1167 121.4682 121.7967 121.9800
122.9300 122.7183 122.5455 119.2863 122.8160 122.0155 121.3980 121.0198 120.6760 120.2372 120.9020 111.0202 120.1631 120.6560 118.4319 117.9875 117.4805 117.1433 117.2283 103.8938 106.8677 96.7340 100.4637 103.5424 100.6411 110.1419 106.1611 112.6823 108.0163 108.1711 106.9218 105.8140 105.3386 105.2511 104.6648 105.1208 105.0265 108.0189 107.6989 108.9558 108.6415 110.4820 112.2525 107.1718 92.6150 103.8583 106.9573 104.4524 116.7673 116.2693 116.8205 103.7681 119.4115 117.7905 117.9810 114.8146 119.7440 119.0015 105.2303 109.9795 121.3190 121.2668 121.6773 121.9800
122.9100 122.7338 122.6725 122.5052 119.3227 120.3327 121.1495 121.0894 120.7235 120.3687 119.8758 116.6022 116.5706 117.8719 118.2598 117.7873 117.3497 116.8900 116.6159 108.3790 106.3138 102.4089 113.4676 108.9600 100.2313 103.9120 111.4215 107.9724 108.1113 106.8811 105.4886 104.1137 102.7795 101.9132 102.0125 102.8217 104.2247 105.3294 107.0020 108.1490 109.2358 111.6868 111.7932 111.7824 114.0449 96.8193 115.1873 113.7541 115.8596 115.2118 126.3079 113.8259 117.9232 118.2969 119.0012 117.7914 116.8835 115.7717 103.6414 102.4926 120.2444 121.3124 121.6138 121.7300
122.9000 122.5208 119.9008 120.5805 122.7173 122.6206 121.3761 120.8248 120.8247 118.3622 120.5749 110.3944 106.5116 123.8464 118.0352 117.9153 117.3209 116.7554 116.0253 116.2807 105.3307 109.0277 109.3596 102.6310 100.4951 101.7502 108.5739 109.5611 107.2925 105.8432 104.0890 102.0927 100.0733 98.5535 98.5536 100.1042 102.1369 104.0970 105.6784 110.9681 109.3738 86.8962 107.8403 89.6389 100.8584 93.6834 116.2293 114.8903 115.6036 116.0635 116.9929 117.5515 117.7619 118.4209 117.7950 123.5452 121.0369 106.1992 108.0369 120.4558 120.6842 121.2786 121.6480 121.7200
122.8900 122.5154 124.9598 121.8907 121.7261 121.7047 121.2865 120.6225 120.6823 116.7015 109.0798 113.9079 104.3418 109.2703 117.6578 117.6635 117.3223 116.6889 116.1299 115.4804 115.1657 114.2414 113.8173 110.6579 111.1051 92.6272 118.5494 106.8797 106.8791 104.9899 102.7912 100.0105 96.4462 92.4582 92.5112 96.4837 100.0475 102.8418 104.9292 105.4846 109.4006 95.7490 115.6573 112.3111 113.1367 113.7481 114.2134 114.2034 115.5078 116.1929 116.7633 116.9883 117.9694 116.9031 120.4988 107.6228 106.6395 105.2206 116.0624 120.5036 120.9609 121.2585 121.5536 121.7100
122.8900 122.7327 122.3379 122.0563 121.8803 121.5968 121.3134 120.1050 126.7851 119.3734 120.7501 112.4924 112.3489 113.3389 114.6096 133.1556 119.9807 116.7116 115.9276 115.4886 117.4295 115.2440 111.4168 112.7281 111.0381 111.4000 109.2243 107.5523 106.3738 104.4135 101.8657 98.3735 91.9824 86.9383 86.7735 92.1404 98.3968 101.9102 104.3954 106.6202 108.6175 109.6863 109.9124 111.2352 112.4458 112.9896 111.9663 110.1447 115.3176 115.9612 116.5959 119.5346 110.0241 104.2420 104.2801 108.5212 109.9314 114.8427 124.2563 119.8600 120.6538 121.1679 124.2522 134.4000
122.8800 122.7340 122.4839 122.1754 121.8439 121.5347 121.2592 120.3457 125.8389 119.1865 119.9098 114.4900 108.4434 114.8177 122.4927 123.1971 116.5772 116.4684 116.0206 115.6531 114.4458 111.6053 100.2672 111.7716 103.0390 110.7927 109.3530 107.9620 106.2748 104.2658 101.6189 97.9165 90.4437 84.9197 84.9649 90.5702 97.9525 101.6604 104.2583 106.2545 107.8917 109.3045 110.6706 111.6966 112.5898 113.2343 114.6114 115.3438 115.5283 116.8465 116.5255 113.0563 99.6971 108.8296 110.0230 107.4630 109.6920 116.5626 105.8747 116.3578 122.0925 122.3710 122.3736 123.7300
122.8800 122.7144 122.4310 122.1454 121.8642 121.5385 121.0644 124.8557 118.0508 120.6400 117.4121 108.0566 112.2781 125.2870 127.0868 117.4321 118.0195 117.2460 115.8526 114.8856 104.3686 102.0821 102.3247 100.4321 117.1314 110.6302 109.0531 108.1199 106.4969 104.5789 102.1465 98.8946 93.7671 88.5688 88.5642 93.5519 98.9508 102.1878 104.6063 106.5258 108.1147 109.4446 110.5828 111.5856 112.5162 113.3823 113.9887 114.7626 115.7117 111.4854 116.5186 115.7524 102.1407 106.0847 115.4060 108.5280 112.1127 110.2258 106.8483 112.7718 115.8598 116.8089 117.7848 123.7400
122.8900 122.7508 122.4682 122.1735 121.8758 121.5457 121.2091 121.1681 113.6790 121.3633 113.9324 112.2452 112.6616 122.5422 121.1195 113.9907 113.0276 113.6271 104.1785 111.9817 109.3157 103.2291 99.5654 109.0579 119.3961 113.0048 111.1055 108.4208 106.9486 105.2701 103.2391 100.7657 97.8577 94.8500 94.9695 97.9562 100.7938 103.2874 105.3077 107.0196 108.4651 109.6867 110.8028 111.8072 112.6892 113.4930 114.2596 114.9958 115.6549 112.3466 113.4272 113.5316 103.3115 109.6943 108.9929 111.7307 115.2791 111.9808 104.6399 102.7995 106.1691 106.4804 104.3110 113.2800
122.8900 122.7208 122.4487 122.2022 121.9056 121.5851 121.3141 121.8381 115.6224 121.0455 121.4436 111.6349 109.9988 110.2512 108.0788 105.1154 106.1948 109.6156 107.8531 103.9922 112.8301 105.4240 105.0247 101.2934 125.4309 125.6266 109.7507 109.0260 107.6139 106.2032 104.5951 102.8319 101.1337 99.9799 99.9936 101.1555 102.8850 104.6067 106.1718 107.5382 108.7952 110.0867 111.1063 112.0387 112.8877 113.6646 114.3796 115.0410 115.6868 116.2400 118.1433 102.5567 100.7002 112.8708 109.3428 109.3433 111.9076 115.2132 116.2409 113.4121 115.2087 116.4633 120.2548 111.5300
122.9100 122.9414 122.5047 122.2418 121.9409 121.6172 121.3460 121.4507 116.7054 116.5137 115.6755 111.1225 112.7630 107.4852 97.3600 100.2374 96.6424 104.1362 106.2403 105.2898 106.2641 104.5540 105.7049 99.0302 120.3828 118.6001 109.6407 109.5788 108.4474 107.2397 106.0099 104.7679 103.6846 103.0090 103.0167 103.7444 104.8544 106.1013 107.7293 108.3963 109.7140 110.5489 111.4939 112.3606 113.1554 113.8932 114.5754 115.2237 115.8089 116.3750 116.5626 115.3679 101.8282 106.5291 117.6882 107.9148 113.4866 119.0532 120.9833 122.1850 121.8711 122.1949 120.4859 125.9800
118.4100 120.6155 122.6095 122.2885 121.9949 121.7169 121.3823 121.1079 119.5443 115.5990 116.7203 111.4643 108.8302 110.8441 105.1601 109.9406 110.3107 107.8992 110.1249 105.4388 106.4981 109.0861 100.4261 99.0938 115.6043 110.7650 111.2254 110.1523 109.3078 108.3229 107.3447 106.4430 105.7214 105.3091 105.3256 105.7209 105.0035 107.0417 104.5136 98.1076 111.2091 110.9562 111.9687 112.7401 113.4765 114.1654 114.8106 115.4297 115.9836 116.5559 117.0126 117.9615 117.7382 115.8996 106.7857 103.6677 112.5267 118.2991 120.2763 120.4722 120.9468 120.6574 129.4709 133.9100
123.1200 122.7269 122.6043 122.3337 122.0083 121.6021 121.5275 121.4869 120.0376 115.6643 111.2133 109.8440 108.0986 108.7551 109.4205 111.4352 114.8646 115.7645 110.6362 105.4623 101.3447 104.8905 100.6922 116.5957 110.5932 112.6028 111.8035 112.2393 109.8547 109.3354 108.5805 107.9130 107.3968 107.1176 107.1262 107.4857 108.3686 104.8195 115.0410 111.8697 110.7593 111.6904 112.4412 113.1612 113.8378 114.4731 115.0840 115.6637 116.2400 116.3958 117.2290 117.7965 118.8577 119.2344 113.1250 122.7085 118.1538 120.5049 120.5052 120.8164 121.0586 123.2667 118.3972 107.9800
123.1400 122.9442 122.6079 122.3805 122.3212 122.1097 120.5535 115.5852 115.3573 113.9844 112.5710 108.4135 108.1632 106.5759 107.9074 110.0595 114.7707 99.2230 95.9715 103.8595 97.4638 101.2386 100.5600 106.8376 98.1818 114.6709 111.8689 111.9447 110.9157 110.3650 109.7119 109.2039 108.8199 108.6170 108.6429 108.7629 109.5721 98.7863 95.3484 111.9302 111.3722 112.3655 112.9655 113.6102 114.2240 114.8165 115.3876 115.9055 116.6390 116.5574 118.7865 115.1402 117.8952 123.8346 121.2791 104.0963 116.5620 120.1312 120.6259 120.8869 121.1157 123.3833 128.2027 110.7600
123.1600 122.9850 122.8645 122.2689 121.1670 113.9777 113.0978 114.2499 111.8481 111.6202 115.2663 108.7300 108.9062 106.7211 107.1614 109.8728 100.6827 95.2202 115.1013 105.3023 101.9875 95.7538 101.4698 106.2024 110.3892 113.1609 112.8025 112.4038 111.2510 111.2160 110.7538 110.3467 110.0435 109.7744 109.9121 110.4828 110.1975 112.7664 97.3430 105.7554 112.2240 112.9628 113.4955 114.0844 114.6181 115.1806 115.7000 116.1983 116.7164 118.0310 107.6458 104.7675 119.0594 119.2015 113.4055 120.9067 107.0003 121.7519 120.4988 120.9760 121.0137 121.9907 109.0084 115.3100
123.1800 122.8946 121.5074 112.4086 113.0693 114.1056 113.5617 114.3927 112.3252 111.7043 112.8271 109.8506 109.2217 107.3537 109.3526 109.1431 106.8904 106.1871 104.2795 102.7878 94.7544 118.8538 115.8927 107.3146 97.7764 107.4473 109.5401 114.8339 113.7077 112.0725 111.6974 111.3729 111.1109 110.0997 116.7113 110.4416 111.7625 103.8097 104.4336 112.2631 113.1031 113.5232 114.0449 114.5343 115.2246 115.0771 116.0652 116.5387 117.0548 117.1290 121.2141 108.8608 114.7652 118.7304 119.8933 111.8130 120.9956 120.6812 120.7987 121.0049 121.3712 121.4902 122.2645 122.2500
123.2100 122.8555 123.4223 112.5262 112.7276 113.0514 112.9644 117.4981 113.3026 111.7397 111.6281 111.8519 121.3083 117.1285 107.8616 106.1222 103.4300 108.1321 95.3865 108.8465 107.6233 117.1449 115.7481 115.6424 112.0123 105.7377 105.1204 109.0621 113.6587 112.7891 112.5559 112.2922 112.0807 112.0945 111.4867 112.7064 110.3108 104.8216 117.2399 113.5249 113.6388 114.1256 114.5882 114.9273 115.5652 112.4467 116.9031 117.2922 116.3533 117.8881 118.1958 116.7243 116.5923 112.5752 118.3526 120.3301 120.6189 120.5205 120.9291 120.9193 121.2184 113.4734 122.1236 122.2800
123.4100 123.0515 123.9799 115.1720 113.4824 114.5545 114.5706 114.9594 112.1780 111.7392 111.2067 111.6936 112.4683 109.9856 107.4566 104.8135 105.7990 93.5285 106.2129 116.8774 118.6701 116.6025 116.3963 115.9397 110.4635 106.5541 101.4765 101.1908 113.5071 113.5746 113.3443 113.1288 112.9514 112.8921 112.7960 110.6327 110.9067 113.4845 110.0446 114.2399 114.3882 114.6969 115.0951 115.5462 115.0511 115.2540 116.6747 115.1063 113.2104 110.0054 119.9434 114.0084 107.5750 113.3503 120.8903 119.7609 120.3911 120.7760 121.0335 121.3747 121.8534 122.4328 122.0747 122.3200
123.4400 123.3315 122.8606 124.2542 112.2588 112.3716 113.7263 115.9090 113.6324 112.5102 111.9780 111.5417 109.2993 110.2504 109.8798 106.2663 101.6313 101.4973 120.7238 114.6260 117.7014 116.8537 116.6909 116.0549 118.1679 104.9603 103.7418 113.9901 115.1690 114.3720 114.0708 113.8934 113.7630 113.7368 113.9510 112.3034 99.4283 114.1685 107.4854 113.7572 114.8295 115.2526 115.5967 115.9668 116.5991 116.2357 116.4219 113.7343 117.1795 106.0989 110.8718 121.0030 105.7841 117.1686 119.8826 120.2519 120.5898 120.8787 121.1721 121.4681 121.5941 121.7466 122.6374 122.5800
123.4700 123.3231 123.4544 118.7467 118.0459 117.1067 122.0252 122.4946 114.0008 113.0545 112.2900 108.3631 111.7155 109.5537 112.5061 93.6545 101.6639 108.8470 117.7977 121.4643 117.5644 117.5067 117.8337 120.6637 114.2301 116.1071 115.8792 115.7629 114.7759 115.0780 114.7552 114.5965 114.4859 114.3504 115.3424 113.2877 103.9838 115.1021 115.1129 115.9327 115.3582 115.7822 116.0927 116.4204 116.6980 117.1602 117.6374 117.8478 115.3701 105.4639 99.8540 117.2704 102.3042 113.8028 119.8838 120.3626 120.7410 121.0346 121.3239 121.6038 121.9073 122.1781 123.0954 122.5800
123.7100 123.3266 123.6002 119.6212 123.6701 123.6071 122.6544 121.1562 117.1773 112.5396 111.2273 109.3618 113.1043 105.3318 114.1469 108.7152 111.7226 107.5523 122.8002 118.5222 118.2921 117.7617 117.8170 113.3391 118.8831 117.1639 116.2291 115.9729 115.8666 115.5467 115.3949 115.2575 115.1576 115.1117 115.1693 109.9974 115.6179 115.6429 115.5015 115.6722 116.0496 116.2881 116.5717 116.8747 117.1879 117.4836 117.8257 118.2612 119.3377 116.4294 111.2744 130.7295 112.2738 122.0517 120.4471 120.6284 120.9189 121.1937 121.4716 121.7429 122.0102 122.2841 122.4210 122.6600
123.7500 123.9695 120.0051 123.3924 122.6991 122.5101 122.2911 122.1694 122.0839 117.8980 117.2016 112.9331 111.2821 112.7160 113.5064 118.3921 109.8171 113.1520 107.0631 112.7835 118.6373 118.0939 118.0062 118.7031 116.1099 116.7752 116.7744 116.5556 116.3361 116.1453 115.9854 115.8692 115.7852 115.6299 115.9108 113.9604 116.0157 115.8491 116.1457 116.3390 116.5455 116.7835 117.0404 117.3070 117.5912 117.8741 118.1722 118.4923 118.7953 119.1862 116.6551 123.5225 117.5509 120.0467 120.6015 120.8306 121.0289 121.3570 121.6366 121.8963 122.1552 122.4083 122.6767 122.8900
123.7900 123.7834 122.2747 123.2886 123.0564 122.8061 122.5317 122.5032 121.9587 118.3663 114.9626 115.6281 118.9167 117.8730 113.3344 116.1788 116.9966 108.2974 115.4631 119.3062 118.8999 118.5609 118.2173 117.8303 117.6850 117.5364 117.2468 117.0397 116.8495 116.6855 116.5464 116.4438 116.3688 116.3404 116.3272 116.5479 116.4414 116.5366 116.5928 116.9224 117.0486 117.2556 117.4861 117.7238 117.9819 118.2486 118.5269 118.7973 119.0768 119.3363 119.6074 118.1515 113.0367 120.8454 121.0850 120.9548 121.6383 121.7295 121.7936 122.0523 122.3024 122.5436 122.7811 122.9400
123.9800 123.8624 123.7198 123.3556 123.1395 122.8616 123.0703 117.7030 120.1059 113.8001 116.7939 120.6377 120.3091 117.0348 116.5498 108.6547 113.0779 106.0191 121.7663 119.0068 118.9967 118.8690 118.6035 118.3816 118.1346 117.9046 117.6971 117.5170 117.3389 117.1934 117.0738 116.9771 116.9160 116.8862 116.8785 116.9065 116.9982 117.3513 117.9158 117.1281 117.5679 117.7075 117.9124 118.1366 118.3689 118.6146 118.8626 119.1587 119.2939 119.7229 119.8073 120.0722 120.1537 120.5052 121.1605 121.1992 121.5035 121.6944 121.9797 122.2143 122.4502 122.6887 122.9202 122.9900
124.0300 123.9105 123.7045 123.4990 123.2677 123.0603 123.0304 119.2982 117.7648 117.0150 119.8790 121.7492 121.7657 117.4524 110.0846 107.9650 103.3479 120.6708 122.8358 119.5267 119.4558 119.1997 118.9702 118.7457 118.5269 118.3240 118.1365 117.9683 117.8100 117.6770 117.5704 117.4871 117.4295 117.4053 117.4051 117.4273 117.5215 117.4406 119.3447 118.0898 117.9860 118.1414 118.3276 118.5267 118.7630 118.9606 119.2295 119.4322 120.0019 120.0894 119.8366 120.4479 120.7068 120.9016 121.1742 121.4287 121.6555 121.8967 122.1372 122.3753 122.6032 122.8319 123.0537 123.2100
124.2200 124.0337 123.8286 123.6230 123.4101 123.2211 122.9155 122.7749 122.6284 122.3962 122.1527 122.1127 121.5392 111.7011 112.8046 125.6004 106.1199 113.7978 122.2487 119.2792 119.8923 119.5136 119.3050 119.1055 118.9142 118.7271 118.5563 118.4025 118.2593 118.1410 118.0414 117.9649 117.9173 117.8902 117.8905 117.9186 117.9551 118.0808 118.0418 118.1393 118.4223 118.5577 118.7552 118.8664 119.0619 119.3828 119.3300 119.7534 121.0522 105.8358 120.0326 120.6274 120.9412 121.1630 121.3845 121.6154 121.8539 122.0875 122.2756 122.5505 122.7602 122.9898 123.2028 123.2700
124.2700 124.1514 123.9548 123.7563 123.5497 123.3410 123.1257 122.8961 122.6811 122.1028 122.4155 121.8197 122.3689 113.8916 114.5058 98.5403 105.1779 108.7205 117.2591 124.0762 119.8052 119.8957 119.6590 119.4636 119.2765 119.1028 118.9678 118.8131 118.6788 118.5768 118.4896 118.4212 118.3721 118.3560 118.3563 118.3726 118.4235 118.4846 118.5754 118.7158 118.8063 118.9445 118.9978 119.4479 119.6427 120.0743 116.9865 119.4922 121.0384 120.1190 121.2477 120.8965 121.1598 121.3852 121.6065 121.8153 122.1184 121.8693 122.6969 122.7118 122.9256 123.1396 123.3422 123.4800
124.3100 124.2771 124.0830 123.8909 123.6899 123.4861 123.2863 123.0827 123.0684 120.6062 122.1566 112.1999 112.8477 108.9081 114.2278 115.8019 111.1014 114.3040 116.6053 120.9385 120.3407 120.1665 119.9921 119.8112 119.6590 119.5284 119.2711 119.2634 119.1569 118.9990 118.9207 118.8583 118.8144 118.7944 118.7944 118.8150 118.8595 118.9226 119.0041 119.1105 119.2174 119.3600 119.2841 119.8803 111.4196 119.5980 106.5851 110.0653 121.4364 120.6377 120.6612 121.2490 121.3880 121.6073 121.8067 122.0889 122.4990 125.1576 116.7401 123.0921 123.0562 123.0613 124.8103 123.5200
124.5200 124.4020 124.2158 124.0231 123.8354 123.6299 123.4437 123.5050 123.2246 119.6102 122.9172 114.0295 114.2186 103.6634 112.2219 109.7688 121.6802 122.7066 121.7769 120.7576 120.6391 120.4841 120.3129 120.1204 119.9368 119.5806 119.8746 119.8049 119.4097 119.3954 119.3235 119.2679 119.2318 119.2127 119.2129 119.2321 119.2688 119.3251 119.3767 119.4326 119.5799 119.7054 120.2232 120.7412 103.1364 117.7819 119.3297 111.5435 118.5067 121.0652 121.3618 121.4277 121.6364 121.8369 122.0323 122.2690 121.8801 123.0088 114.9695 123.8069 123.1326 123.2181 127.5643 123.7500
124.7400 124.5334 124.3489 124.1676 123.9787 123.7909 123.4667 121.8966 120.8922 117.5111 119.2676 116.9385 108.6954 106.3081 128.2292 121.4256 123.2534 121.4457 121.0447 121.1321 120.9343 120.7907 120.6283 120.5347 123.4392 122.4419 119.8192 123.2221 119.8865 119.7790 119.7105 119.6619 119.6310 119.6087 119.6089 119.6316 119.6635 119.7128 119.7640 120.1150 119.9748 120.1649 120.2167 114.0367 111.4106 115.0568 121.2531 110.1664 109.3537 123.4497 121.4469 121.6795 121.8695 122.0590 122.2555 122.4541 122.6663 122.5943 123.5577 123.2023 123.4379 123.4633 123.7669 124.0100
124.7400 124.6616 124.4671 124.2928 124.1340 123.8977 123.5684 121.2664 97.6910 113.9037 118.2304 110.9427 129.5019 113.3268 128.8220 100.7391 122.1924 121.6838 121.4624 121.4130 121.2570 121.0859 120.9348 120.6919 121.1321 121.0050 120.3263 120.1534 120.2317 120.1569 120.0876 120.0440 120.0115 119.9966 119.9966 120.0121 120.0376 120.0898 120.1528 119.9670 117.7508 119.8309 120.6090 120.6131 122.0948 115.0070 120.7417 115.5185 113.9588 116.7738 121.7484 121.9300 122.1074 122.2815 122.4656 122.6504 122.8305 123.0834 123.2016 123.3214 123.5764 123.8844 124.0115 124.0500
124.9700 124.7773 124.6774 124.4769 124.2785 124.0966 123.9173 125.9227 115.8728 123.4126 120.2532 106.4090 114.5409 104.7525 122.0538 118.3225 128.8482 122.7160 121.6769 121.6473 121.5156 121.3756 121.2152 121.1561 120.9304 120.8473 120.7906 120.7113 120.5311 120.4806 120.4420 120.4045 120.3770 120.3579 120.3581 120.3770 120.4059 120.4441 120.4944 120.5708 119.5893 122.7083 121.5140 121.2949 121.4204 116.2191 121.1632 115.1577 119.8949 120.1870 122.3129 122.1424 122.3358 122.5105 122.6809 122.8546 123.0256 123.2128 123.3907 123.5860 123.7405 123.9164 124.1015 124.2700
124.9900 124.9907 123.9502 124.5325 124.4393 124.2525 124.0264 123.8785 122.4544 124.5415 127.3742 117.5057 112.1599 104.7742 124.0800 123.3132 113.7869 119.7999 122.5509 121.9788 121.7879 121.6498 121.5294 121.3781 121.2684 121.1718 121.1122 120.6724 121.0429 120.9040 120.7859 120.7540 120.7215 120.7103 120.7103 120.7218 120.7543 120.7885 120.8713 120.8907 115.6761 105.6248 110.4409 121.7291 121.7531 121.4328 126.4237 119.8540 121.9812 122.2324 122.1130 122.4402 122.5569 122.7236 122.8896 123.0615 123.2260 123.4036 123.5731 123.7435 123.9185 124.0999 124.2542 124.3000
125.2000 125.0661 124.8162 124.7269 124.4718 124.5238 124.2342 124.0541 123.4919 121.2417 120.7002 110.7283 115.7549 107.1657 124.9880 122.2118 123.1683 124.9887 123.0282 122.2097 122.0526 121.9289 121.8000 121.6907 121.5910 121.5289 121.6582 123.8119 120.9820 121.2312 121.1183 121.0836 121.0606 121.0513 121.0514 121.0607 121.0850 121.1140 121.1705 121.4671 119.2787 119.1009 110.3059 121.8178 119.7992 122.0056 121.7222 122.0693 122.1577 122.3820 122.4825 122.6296 122.7832 122.9466 123.1018 123.2649 123.4261 123.5899 123.7510 123.9065 124.0860 124.2378 124.3397 124.5200
125.2200 125.1892 125.0401 124.9744 124.9213 120.5793 124.8435 124.1267 124.2524 124.0299 129.6131 123.3545 122.6120 121.7957 123.9954 123.0834 122.7569 122.5356 122.5958 122.4292 122.3198 122.1925 122.0751 121.9684 121.8808 121.6855 123.7455 120.6780 121.4697 121.5524 121.4384 121.4095 121.3906 121.3714 121.3714 121.3905 121.4105 121.4520 121.5962 121.5702 121.5626 122.1921 105.4476 123.8470 126.1538 123.0922 123.7944 122.5835 122.4358 122.5870 122.7206 122.8622 123.0071 123.1620 123.3023 123.4661 123.6154 123.7733 123.9271 124.1195 124.0656 126.0540 124.6775 124.7200
125.4400 125.3389 125.1916 124.2563 121.2707 125.1853 124.7175 124.3963 124.2349 120.2946 115.3375 123.9766 123.8670 123.0496 123.7984 123.2199 123.0840 122.9862 122.8324 122.6952 122.5769 122.4557 122.3474 122.2480 122.1610 121.8302 120.2304 120.3367 121.8581 121.7953 121.7542 121.7200 121.6963 121.6898 121.6897 121.6956 121.7293 121.7779 121.3064 121.8531 121.7847 121.9872 123.0722 114.1517 119.1671 108.8423 112.5408 122.7317 122.6757 122.8141 122.9579 123.0663 123.2284 123.3740 123.5120 123.6632 123.8071 123.9549 124.1050 124.2544 124.3829 124.6443 124.5838 124.7700
125.4800 125.4704 125.2702 125.6560 124.9052 124.9982 124.9360 133.7607 121.0443 122.4425 125.3149 124.1153 124.0450 123.5464 123.5345 123.4413 123.3165 123.1783 123.0543 122.9372 122.8235 122.7092 122.6078 122.5122 122.4295 122.1528 122.4642 122.2951 122.1428 122.0805 122.0415 122.0205 122.0019 121.9883 121.9879 122.0003 122.0395 122.0268 121.3457 129.2472 121.9136 122.4296 122.7548 109.5738 121.3317 110.7438 122.0531 123.4779 123.0097 123.0816 123.1644 123.4241 123.4459 123.5787 123.7133 123.8602 123.9961 124.1395 124.2867 124.4346 124.5758 124.7432 124.8911 124.9700
125.6500 125.5934 125.4737 125.2639 125.2533 123.1824 124.7469 116.7614 119.5651 117.3669 125.2367 125.9524 124.7764 124.2619 123.7654 123.6870 123.5293 123.4078 123.2879 123.1746 123.0688 122.9614 122.8699 122.7681 122.6936 122.6572 122.5094 122.4685 122.4201 122.3964 122.3583 122.3138 122.2964 122.2790 122.2770 122.2898 122.3297 122.5238 122.9931 122.0336 123.1107 118.0529 126.3045 123.1702 123.7780 123.8202 122.7387 123.0743 122.9452 123.8839 123.2874 122.6868 123.7173 123.7704 123.9183 124.0481 124.1885 124.3206 124.4606 124.6007 124.7350 124.8869 125.0327 125.0200
125.8200 125.7362 125.6001 125.4201 126.0330 121.2440 119.8125 109.7506 119.6798 120.7267 124.4742 117.0994 124.3313 124.1202 124.0654 123.8613 123.7461 123.6225 123.5158 123.4103 123.3027 123.1993 123.1266 123.0356 122.9395 122.8589 122.8025 122.7685 122.7127 122.6254 122.5911 122.5757 122.5757 122.5680 122.5773 122.5815 122.6311 122.6143 122.8675 122.5960 124.6792 107.4512 120.8394 113.4650 123.3317 124.7840 123.3454 123.2084 123.4685 129.1280 124.5555 124.4080 123.8290 123.9855 124.1142 124.2387 124.3670 124.5046 124.6401 124.7818 124.9320 125.0700 125.1816 125.2100
125.8800 125.8775 125.7258 125.6751 125.1430 122.9119 117.1978 129.1823 105.5753 112.2776 108.0192 106.0507 124.2619 124.1828 124.1258 124.0424 123.9388 123.8536 123.7419 123.6292 123.5157 123.5297 123.2834 123.2282 123.2111 123.1226 123.0713 122.9463 123.2513 124.4823 122.8879 122.8800 122.8493 122.8229 122.7620 122.8442 122.7616 123.0483 120.1556 124.8163 124.5968 109.0094 114.9305 121.6135 118.8312 118.7007 123.0900 123.6777 123.5625 113.8066 123.7278 123.9859 124.0774 124.1896 124.3112 124.4353 124.5559 124.6827 124.8159 124.9013 124.9922 125.0491 125.3418 125.3900
126.0600 126.0065 125.8757 125.7607 125.4852 125.9292 125.8469 112.3431 110.4337 134.1288 113.9865 112.5518 124.4194 124.5903 124.4136 124.3635 124.2210 123.9809 123.9704 123.8654 123.7784 123.4401 124.9275 123.4718 123.4800 123.4036 123.2666 123.8254 123.5370 123.2177 123.0983 123.1542 123.1026 123.1623 123.8988 122.9065 123.7267 123.0912 123.7795 125.0690 125.9858 112.3582 110.2527 120.6917 117.6606 121.0725 123.9355 123.7313 123.6277 123.1170 124.2594 124.1689 124.2819 124.3847 124.4926 124.6166 124.7361 124.8636 124.9878 125.0947 126.4003 125.3553 126.1154 125.6300
126.2600 126.1433 126.0197 125.9564 125.7737 127.6217 110.7805 119.8070 119.6479 118.1594 110.1223 113.2654 125.6347 124.6656 124.2740 124.3628 123.1282 124.4152 124.1583 124.0783 123.7550 125.2872 121.9735 124.3200 123.6785 123.6334 124.1525 117.0159 123.5038 120.9692 123.4367 123.4585 123.4391 122.9581 124.7028 125.2673 118.7955 123.4767 121.6762 112.2555 118.4619 124.9777 113.8266 109.8833 123.8126 123.7451 123.7656 124.1541 124.1115 123.9940 124.1041 124.4231 124.4562 124.5940 124.7328 124.8171 124.9172 125.0286 125.1639 125.3382 126.2296 112.4639 126.2736 125.8000
126.4200 126.2785 126.1532 126.0167 125.7886 125.1379 104.2366 121.8891 111.1488 115.1799 124.4199 125.5405 123.5853 124.8614 126.8468 123.4118 125.8763 124.2136 124.3982 124.2910 124.1106 122.6812 112.6903 124.6416 123.9422 123.8880 123.9296 120.8731 119.8700 116.3541 123.9021 124.3133 123.4859 129.0654 112.9511 123.6433 124.3909 132.2321 118.6759 109.5213 107.7069 122.3016 118.7574 121.6722 124.4135 123.8939 123.9850 123.6187 124.2802 124.3577 124.5039 124.5499 124.6942 124.7189 124.8128 124.8238 125.0917 125.2293 125.2582 125.4500 125.9051 122.8326 125.5854 110.1200
126.4400 126.4129 126.2979 126.2029 125.8971 126.6579 114.9624 122.1521 115.6777 111.0650 119.3366 122.7183 125.6129 125.2249 123.3485 103.9813 124.4581 124.7121 124.5773 124.5039 124.1537 125.3168 125.0053 124.1259 124.2107 124.0933 123.9764 124.1917 122.2973 125.0429 123.9308 127.7796 126.8380 136.0647 116.3472 108.9834 112.2280 108.9580 126.1206 109.4451 106.4593 120.1577 117.2199 121.6893 123.6890 124.6727 126.5828 124.0591 125.5389 124.7251 124.6271 124.7758 124.8653 124.8809 128.4769 125.4693 125.2675 125.3032 126.6713 124.7697 125.5589 126.1980 125.7378 126.0300
126.6300 126.5452 126.4452 126.2754 126.2462 125.8220 128.8947 127.5060 118.4174 117.9342 108.5010 116.5710 126.6729 125.5375 114.3236 126.1592 126.1325 124.8299 124.7858 124.7117 124.6750 124.3582 124.3841 124.4693 124.3595 124.3305 124.2987 124.2072 124.2609 123.8188 124.3248 110.7772 132.7674 125.2832 125.4991 106.2512 119.9325 111.2666 112.8958 117.9759 124.7216 115.4695 121.3817 121.9869 124.4759 124.1107 118.1360 119.7319 116.3260 123.9514 124.9711 124.9968 125.0151 124.4653 129.7322 124.8746 125.5272 125.4700 126.2593 119.7545 126.3311 125.9799 126.2190 126.1900
126.7800 126.6841 126.5792 126.4801 126.2607 126.8457 127.8260 116.5049 125.2164 103.7883 103.4321 105.3131 121.9026 111.2076 107.3858 127.1547 125.1334 125.1201 124.9832 124.9103 124.8206 124.8086 124.7034 124.6238 124.5872 124.5295 124.4719 124.4598 124.4561 123.9726 124.2704 108.9992 106.4777 125.9465 124.1134 124.2866 124.5183 124.9613 126.2434 125.6497 124.3778 125.0319 123.9933 118.8813 124.7104 126.4073 120.0662 119.6828 109.1009 119.3801 125.2600 125.1965 125.2193 125.4011 125.1938 125.7199 125.5716 125.7190 125.7991 125.9465 126.0684 126.1246 126.2474 126.2200
126.8100 126.8147 126.6758 127.0623 124.8618 118.2802 118.5126 123.9033 114.2819 112.1277 106.2884 114.5364 127.4205 107.6896 118.5145 125.4966 125.0553 125.2533 125.1770 125.1002 125.0562 124.9122 124.9371 124.9051 124.8301 124.7337 124.7738 124.6583 124.5858 124.2533 127.6552 107.4211 124.1079 124.0992 124.6179 124.5018 124.4363 124.3944 124.2897 124.3989 124.7515 124.4462 121.7238 114.9827 125.5527 124.5899 125.5992 125.9665 125.0166 120.3468 125.4682 125.3463 125.4136 125.4601 125.6738 125.6812 125.7894 125.8787 125.7060 126.0930 126.1998 126.2912 126.3847 126.4000
126.9900 126.9288 126.9697 126.0100 121.8534 115.2629 120.9476 111.2078 109.6694 103.5866 106.7342 106.5755 124.9553 116.6890 126.5718 125.5692 125.5107 125.4449 125.3635 125.3332 125.1882 125.4328 124.8711 124.8135 124.8915 125.0597 124.5812 124.8930 124.9118 122.3009 124.2899 109.4936 123.1777 124.6936 124.7893 124.8109 124.8461 124.8743 124.9010 124.8912 124.8705 125.7766 121.3434 114.9077 123.1836 125.2890 125.1295 124.9895 123.7608 117.7261 125.7617 125.5347 125.6102 125.6977 125.7616 125.8540 125.9376 126.1903 126.0315 126.2518 126.3344 126.4376 126.5323 126.5700
127.1400 127.0303 127.1983 120.1179 118.3259 106.9097 102.3391 103.3693 105.7948 107.5482 104.9907 113.6130 123.0745 126.6278 125.7868 127.2160 125.6533 125.5886 125.6820 125.3506 126.2844 124.1296 127.3972 126.2018 124.9159 124.9879 127.0566 115.5368 129.6824 120.0864 98.3729 117.9289 124.7264 124.8249 125.0034 124.9514 124.9047 124.9887 125.0078 125.0538 125.0852 124.2807 115.9327 124.2163 124.7273 125.3606 125.4095 125.0980 125.6922 126.1641 125.4428 125.7068 125.7798 125.8117 126.0671 126.1120 126.2477 126.1707 126.2891 126.3738 126.4908 126.5877 126.6857 126.7300
127.3300 127.2539 127.9309 121.1819 118.3991 110.4382 109.0091 118.0340 111.5024 111.3332 114.6906 116.3532 127.1769 125.6399 125.8513 126.1633 125.9226 125.8771 126.2165 126.2592 119.6262 127.4765 118.3522 119.2587 127.5187 126.7770 111.6492 107.1588 118.2712 112.9761 118.1539 126.4368 125.1561 125.1913 125.2786 125.4152 125.6636 125.2202 125.3730 125.2598 125.1890 126.7702 125.4546 124.0461 126.3692 125.4096 125.5582 125.6193 125.6403 125.6296 125.8630 125.9005 125.9525 126.0225 126.1286 123.0591 126.3589 126.3705 126.4540 126.5508 126.6401 126.7329 126.8265 126.9400
127.3300 127.4709 126.0325 122.5352 117.7877 116.6609 113.5856 116.7532 111.1831 108.7044 127.8938 126.1412 126.8388 126.2416 126.2321 126.0680 126.1221 125.9441 125.2012 125.4525 114.2644 116.1165 119.8470 129.9504 114.3624 125.3557 119.0080 105.9909 114.4671 127.0552 126.0924 125.3033 125.4102 125.3904 125.2226 125.2325 121.5898 127.0981 124.5697 125.6430 125.2185 126.5929 113.1131 126.2607 125.4731 125.7471 125.7544 125.8006 125.8693 125.9449 125.9840 126.0526 126.1308 126.2057 126.6440 125.6164 126.6870 126.5308 126.6118 126.6997 126.7841 126.8769 126.9611 126.9400
127.6200 127.5308 124.9421 122.1696 118.3002 121.1353 112.8118 117.1859 110.2406 120.5946 122.8747 127.6727 126.4073 126.4736 126.3633 126.3422 125.9094 126.4454 126.8133 126.0084 128.2337 109.5858 111.1320 125.9225 115.9284 118.5053 124.7399 106.4380 118.1987 126.0525 125.5456 125.6288 125.5994 125.5586 126.1871 127.5803 127.2684 134.5837 131.5178 127.5830 126.4500 114.8674 121.7963 126.4111 125.9203 125.8597 125.9313 125.9869 126.0421 126.1015 126.1679 126.2309 126.2960 126.3619 126.4429 126.5295 126.5452 126.6875 126.7630 126.8454 126.9342 127.0199 127.1090 127.2400
127.6500 127.5708 128.8902 127.6966 116.5448 126.6866 130.9996 117.6027 112.6989 116.7949 113.9647 127.1667 126.7147 126.6046 126.5422 126.4599 126.4954 124.4115 113.2956 126.5726 126.5937 123.4684 119.9087 127.0998 120.2386 123.2977 108.9504 112.9462 127.9146 125.5339 125.8366 125.8106 125.8003 125.8608 127.7624 115.6887 118.6402 119.6215 118.2176 125.6738 127.0176 115.5006 121.1102 126.2425 126.0250 126.0679 126.1126 126.1659 126.2249 126.2756 126.3351 126.4003 126.4683 126.5372 126.6126 126.6932 126.7609 126.8301 126.9143 126.9954 127.0808 127.1637 127.2712 127.2700
127.8100 119.4949 124.4733 128.6582 124.5625 127.6108 128.3489 124.3828 126.3005 127.5054 127.6525 126.9761 127.7620 126.6657 126.6502 126.7265 126.5503 127.1148 115.5630 126.0130 126.2255 127.4160 128.1072 126.0518 127.3748 109.9618 118.9327 123.3920 124.6043 126.1820 126.0017 125.9866 126.0482 125.9576 113.8642 124.8841 113.1628 115.8718 118.2608 126.3408 126.9710 116.8512 127.7539 126.1698 126.2036 126.2417 126.2984 126.3385 126.3984 126.4531 126.5117 126.5668 126.6331 126.6998 126.7665 126.8386 126.9066 126.9859 127.0587 127.1423 127.2156 127.3244 127.3124 127.4500
127.9600 127.3610 130.0079 128.4259 120.0197 124.8768 126.9574 127.5743 125.6658 126.4696 127.1138 128.5663 120.4891 126.8623 127.1819 126.6715 126.5588 126.4257 127.4237 126.7380 124.8466 115.7172 123.7308 126.5556 127.4788 121.0074 103.9146 116.1460 127.1647 126.0405 126.2027 126.1846 126.1795 126.5613 125.3049 127.2860 113.5090 116.6504 127.2394 125.8403 126.3048 126.2079 126.9530 126.4023 126.3654 126.4269 126.4725 126.5122 126.5603 126.6181 126.6703 126.7356 126.7945 126.8570 126.9232 126.9889 127.0607 127.1315 127.2112 127.2830 127.3773 127.4045 127.8502 127.5900
128.1100 128.0620 127.8873 127.7157 127.9395 127.6154 127.7557 127.4090 128.4826 127.3057 127.2304 116.2639 108.8702 131.7265 127.7275 127.9500 126.8081 126.9037 126.4886 126.5221 118.0024 112.3208 119.4896 114.8338 111.9089 113.6969 119.6905 124.5423 126.1719 126.4304 126.3769 126.3624 126.3663 126.3561 126.3961 126.3680 126.7074 127.7617 127.1954 128.1255 126.3130 126.4346 125.7017 125.4326 126.5484 126.6263 126.6436 126.6870 126.7332 126.7853 126.8393 126.8939 126.9548 127.0169 127.0780 127.1446 127.2122 127.2882 127.3902 127.4619 127.5029 127.5104 125.9311 115.2500
128.1100 128.0973 128.0426 127.9300 127.9254 127.7825 127.6281 128.0713 122.1624 128.1923 127.5941 128.7241 124.4182 127.1077 114.7179 126.3520 126.9285 127.0231 126.7461 126.8598 110.8415 114.9029 112.4601 107.9909 124.2507 112.3105 117.2536 128.8303 126.5525 126.5811 126.5617 126.5443 126.5374 126.5296 126.5467 126.5657 126.4540 125.0712 127.8210 116.4777 128.0869 126.5627 126.7932 136.5312 125.5095 126.9109 126.8452 126.8466 126.8976 126.9519 127.0034 127.0532 127.1129 127.1720 127.2317 127.3003 127.3628 127.4272 127.5110 127.4972 128.0231 127.7004 127.2444 124.9900
128.2600 128.2327 128.1537 128.0754 128.0102 127.9262 127.8368 128.4827 123.4748 127.5528 127.4538 127.0952 128.2203 126.8443 125.1240 129.1531 127.3058 127.0576 126.9083 127.1070 119.0901 118.1241 105.0115 110.8153 108.8509 120.4403 114.3894 123.4681 126.8424 126.7238 126.7273 126.7182 126.7150 126.7090 126.7036 126.6919 126.4333 123.4065 121.5379 112.6608 128.1520 126.7279 127.3945 115.9010 115.0225 127.4946 126.9948 127.0066 127.0609 127.1142 127.1593 127.2137 127.2645 127.3256 127.3855 127.4425 127.5064 127.5749 127.6385 127.8162 126.5592 126.8261 117.3770 124.9900
128.4000 128.3588 128.2757 128.2001 128.1324 128.0577 127.9548 127.8620 128.2634 127.7086 127.7863 127.6632 126.7493 104.0772 109.2297 118.8053 127.0045 127.8129 122.6750 127.0802 114.1378 127.2353 119.8036 108.3240 116.7829 122.8490 115.2483 128.4228 126.9948 126.9828 126.9267 126.9060 126.8897 126.8868 126.8755 126.8694 127.3903 121.4088 112.0625 126.8658 127.2141 126.9177 127.0246 126.6743 129.0262 127.7239 127.1506 127.1733 127.2246 127.2650 127.3116 127.3639 127.4221 127.4747 127.5336 127.5915 127.6478 127.7344 127.6632 127.9664 128.4731 140.8548 117.6934 122.7200
128.5400 128.4771 128.3997 128.3255 128.2564 128.1817 128.1252 128.0659 127.9265 127.9300 127.7054 128.7843 127.6704 107.1152 111.1763 115.1367 124.5131 125.2548 119.7714 127.7291 126.2150 127.3377 109.4723 112.8827 114.7103 118.4108 120.8307 127.7920 126.7961 126.8188 127.0251 127.0240 127.0355 127.0499 127.0588 127.0556 127.1184 127.8395 126.0905 125.8014 114.2921 127.4439 127.2218 127.2000 126.7809 127.0118 127.3108 127.3355 127.3793 127.4180 127.4719 127.5156 127.5675 127.6252 127.6797 127.7388 127.7941 127.8102 128.3977 127.0079 127.2967 125.9252 112.5423 113.4700
128.5600 128.5800 128.5800 128.4000 128.3200 128.3400 128.1600 128.1600 128.0900 128.0100 128.0100 127.9300 105.8400 127.7500 127.7600 127.6600 106.8700 127.6000 127.4900 127.5200 127.4100 127.4300 119.5800 127.3400 113.7000 127.2300 127.2400 138.1300 138.1300 127.1400 127.1400 127.1500 127.1600 127.1600 127.1600 127.1600 127.1500 127.1500 127.1400 119.2300 119.2300 127.2400 127.2300 127.3500 127.3400 127.3200 127.4300 127.4100 127.5200 127.5000 127.6000 127.5700 127.6700 127.7600 127.7600 127.8500 127.9300 128.0100 128.0100 122.0900 133.6200 133.6200 112.9500 110.3800
