122.6600 122.6600 117.5900 119.3800 122.1500 120.8200 120.3100 119.7800 104.0000 103.0000 119.0100 100.6400 100.4600 116.4500 102.6300 115.2400 108.7400 107.2800 116.2800 119.2200 117.7500 116.0700 100.0100 105.7800 104.6400 105.5300 104.8700 102.6900 102.9700 104.5300 97.3900 97.2200 97.2200 102.1000 111.4500 95.8200 95.8600 111.4700 111.4600 117.8500 114.4400 125.9900 100.2800 118.4700 118.4000 118.6800 118.9300 118.9300 119.1500 119.3700 119.6500 119.8300 120.1000 120.2800 120.5100 122.0400 109.2400 112.0000 113.9000 115.4300 116.2600 122.2700 122.3100 122.4700
112.3700 119.9233 118.3369 121.5737 120.4742 119.9094 118.7024 118.7422 111.8797 105.3852 104.1645 103.8587 104.1182 107.5011 109.7381 117.2434 110.5344 108.1279 115.5866 118.2921 115.6876 113.9754 114.4800 114.5572 101.1362 104.3825 103.6330 100.7381 101.9563 102.0620 103.7687 99.6530 104.1477 96.4800 106.4118 95.9070 95.7606 120.0594 109.7357 116.2163 114.6794 117.5273 115.1926 118.8521 118.1215 118.4071 115.5755 116.9722 119.0867 119.1451 119.4677 119.5456 119.9008 120.3688 125.4403 114.1659 110.2285 112.3682 116.8091 110.9254 114.1849 116.0795 122.5954 122.4700
115.3000 114.5379 114.9979 119.7994 117.4287 116.7715 116.8640 115.4620 118.2190 115.8718 110.6957 101.6261 105.4200 114.4540 115.9053 116.0778 111.8935 109.0484 102.9994 114.2312 117.9169 113.4005 108.7575 105.1238 97.6007 102.2103 100.6058 106.4916 110.1083 106.5103 97.1406 108.9480 116.0580 112.3004 102.6018 106.3442 98.4404 119.2060 112.6303 117.6588 118.2201 117.3523 117.6002 117.5399 117.5222 118.0062 118.0875 117.7089 118.1979 118.8691 118.9635 119.4851 118.9367 116.6039 102.7340 112.2829 110.9900 114.2800 116.5442 110.4988 108.8175 117.2496 121.8516 122.1600
112.6600 114.5646 114.0006 115.7798 112.9451 115.0174 117.3839 111.5881 117.2822 114.1451 116.2666 112.6154 99.2668 113.4086 112.9816 114.8401 111.8019 113.4600 103.3238 104.6970 105.1024 98.0964 104.4802 104.4248 97.8975 106.9268 108.6974 106.0106 110.6800 104.7614 100.6682 117.0505 108.3649 113.1794 97.8043 118.3638 113.9596 101.3174 109.6648 116.8159 117.6136 116.7519 116.9784 116.4407 115.7868 118.8521 118.4573 116.6307 118.3171 118.4091 119.3014 121.6010 118.3444 104.9021 108.8447 110.6476 112.5327 111.8091 109.0153 107.1126 104.2577 118.4976 122.1627 122.1600
118.4900 117.4154 116.1690 115.5760 114.5825 112.1572 111.9392 112.8416 113.4852 113.8072 115.6268 100.1305 111.9318 102.0700 103.4839 113.7738 114.8471 113.1626 108.0061 104.8766 112.1170 114.7751 98.5584 107.8028 103.7550 103.7841 101.3094 109.1099 98.2510 96.9944 98.5301 98.7834 106.0026 102.6948 95.0447 113.9259 116.2597 93.7481 106.3657 116.1464 116.1363 116.2628 116.4442 116.7273 105.3565 110.4907 115.7218 108.2330 118.1068 118.7767 118.5069 99.6840 99.3060 109.4980 109.4916 110.4545 102.3693 105.2582 105.0783 107.3996 110.0005 121.4189 121.8986 121.8400
119.0800 118.6310 117.5469 118.7315 102.9455 113.3765 108.7280 109.4943 111.2253 111.8386 111.2873 116.3220 101.6540 98.9591 100.4715 102.8769 106.5742 111.7234 109.9090 107.0116 108.9382 103.7226 112.9717 107.6074 109.9673 101.7099 112.5844 102.4733 114.1970 107.8600 114.6809 108.8389 101.5467 105.9552 92.7658 118.6340 114.9259 119.0014 117.5000 115.3743 115.5731 115.6918 115.7348 116.8152 111.9683 117.3233 117.1005 117.4575 117.3264 116.1570 97.3571 102.4030 105.7348 110.4048 109.9276 105.3925 109.4403 99.1502 101.4288 106.3602 112.2963 111.8854 120.9650 105.3400
117.8100 117.1447 117.5812 116.3714 115.8007 114.3757 111.1249 106.5443 105.0029 115.6747 110.5034 110.2081 104.3815 106.5146 107.8208 104.9944 104.0195 103.1051 113.3155 106.7171 108.3843 100.6971 101.4177 104.3187 111.1244 102.8349 98.6915 104.6764 102.0742 98.7583 111.5078 109.7989 99.5990 108.2780 92.1278 105.3928 115.6505 114.7982 114.5392 114.8396 114.9235 115.0806 115.2801 115.9527 107.9999 117.0598 116.3306 116.6247 117.1548 115.2289 98.0797 115.1777 116.1153 108.1510 101.9083 99.9942 102.3207 98.1252 103.7433 110.4617 118.8322 120.5737 123.6047 125.8100
114.5200 110.5917 117.9442 113.8445 110.9198 115.2126 114.9583 110.7585 106.9447 104.4781 107.4570 105.5235 107.8825 107.6793 104.5383 105.7882 107.6416 106.3651 102.9248 102.9982 103.9826 104.4595 109.7842 109.7796 106.1665 107.9205 105.1592 98.5880 92.6938 106.5962 119.8962 109.7921 91.8203 108.9905 109.6909 106.2479 114.4427 114.1314 114.1336 114.1173 114.2459 114.4276 114.6395 116.3988 116.3775 115.5418 115.6712 116.3620 111.8243 117.5295 115.1074 103.3939 107.6699 105.2783 101.6820 98.7390 98.5516 105.0425 108.2549 120.8013 120.7170 120.9402 121.3206 121.4600
113.3200 109.8062 108.6596 107.8906 109.2048 113.2625 107.7143 110.2860 114.1895 110.5914 108.7673 99.7210 99.7145 97.7383 104.6277 114.6183 106.9571 107.2446 108.0564 104.9798 102.8214 98.3927 102.5564 106.4715 104.2229 106.7724 108.3199 106.0922 118.0700 121.2639 110.3161 93.0468 93.4500 89.0679 112.8729 114.8928 113.3988 113.2718 113.2654 113.3635 113.5101 113.7154 113.7683 114.8898 113.7270 114.9963 115.5390 115.7980 116.1390 115.8346 108.8181 112.8414 105.6218 102.3940 100.1405 97.9700 104.8260 105.2950 124.0387 120.1348 120.5041 119.6418 121.0648 129.1200
117.7900 115.8463 114.2927 110.6255 110.8883 109.9113 110.1128 109.2660 108.4448 103.2198 109.5436 102.5585 102.3842 101.5277 103.5049 112.2380 107.1131 106.4777 108.3003 108.2746 105.1065 101.5583 101.7264 101.2997 108.2448 111.4350 105.0240 108.4941 118.7075 115.7119 115.7305 102.7262 97.4316 89.6958 108.2648 112.2340 112.6563 112.4559 112.4437 112.5293 112.7088 112.9504 113.3034 113.4525 114.0678 114.3650 112.9459 115.0485 114.8482 116.8927 125.3035 98.3114 109.9848 98.7771 105.3646 103.6972 103.3635 101.0479 117.4811 119.5547 120.5696 121.2689 114.8097 105.3200
119.6100 118.9664 113.6573 119.9168 112.3824 111.4351 113.0396 107.9447 103.0352 106.4544 107.4462 106.5525 102.0514 104.0712 114.2458 108.1293 108.8122 107.7687 109.5396 108.2038 102.1846 104.5337 103.2777 102.6019 107.0386 117.3248 106.5799 116.3183 116.8539 113.7777 113.8733 115.7530 93.5640 103.0099 113.8417 111.7185 111.6290 111.4817 111.5009 111.6148 111.8350 112.1329 112.4889 112.9472 113.3530 114.1640 112.2499 111.9889 115.4307 111.7501 108.6172 91.5577 97.5793 97.0202 107.7490 99.6833 105.4369 106.0131 118.6415 120.4704 117.5603 116.9093 115.5658 115.1700
116.9700 116.3328 117.7629 114.8947 117.6802 115.9123 116.5469 114.7880 108.5892 102.9969 109.8463 106.1300 107.1175 104.4454 105.1947 106.1585 104.7001 103.8019 107.3009 104.0343 101.5408 106.0204 103.0959 110.1054 109.5872 115.4209 115.2360 114.5084 113.6263 113.6535 114.0593 118.2436 91.0636 92.4258 110.6686 110.7385 110.6078 110.4513 110.4493 110.5983 110.8640 111.2336 111.6770 112.1635 112.7204 113.0570 114.4158 114.6278 116.9831 98.9538 95.5986 103.5619 100.9359 103.1840 101.0904 101.3236 102.3705 106.0213 117.3072 117.4550 115.6624 109.9774 115.8957 99.0400
115.2900 115.0368 117.4657 111.0275 111.0121 110.1905 109.7096 114.1883 110.2616 105.5501 115.2761 108.0446 104.7397 108.7424 108.1918 108.3098 107.7524 100.8632 96.9950 107.0724 109.7264 106.0539 102.9494 96.1740 129.2173 109.7949 115.4791 114.2634 113.7685 114.0291 104.3115 98.1671 110.6322 99.5864 110.2495 109.7702 109.4062 109.2437 109.2527 109.4492 109.7917 110.2569 110.7960 111.3890 112.0021 112.6524 113.2378 113.5247 114.8271 97.0729 94.1695 104.2718 98.8280 101.5084 100.3576 97.5374 97.2419 102.2011 105.1583 112.4649 117.4865 114.8149 115.2769 116.3300
102.0000 112.9999 116.4402 114.5596 111.1203 110.6801 110.3345 109.0917 108.3552 111.8962 109.5998 111.4964 105.7479 106.2020 106.6805 106.7991 101.0929 100.0277 105.1879 100.8702 109.7920 99.8471 96.9806 120.5671 117.6651 114.5371 114.1926 113.9713 113.3808 113.5900 95.3714 91.6045 107.1228 105.4321 109.4723 108.4828 108.0931 107.8621 107.8738 108.1271 108.5832 109.1818 109.8545 110.5782 111.3066 112.0211 112.7900 113.1127 113.0424 111.4741 107.6224 93.6161 98.6451 110.6417 102.5547 102.5935 105.4461 106.0036 105.0113 111.7598 112.7066 111.4072 112.0642 121.7700
114.2200 112.5464 113.0857 115.1363 114.7447 110.7774 109.3483 109.2281 109.3084 111.0777 112.6459 109.4894 110.1398 104.5130 104.2213 105.5482 100.1790 103.0755 104.1798 105.6784 105.4958 100.8921 100.6911 118.3007 97.7761 119.1979 115.0474 113.4240 112.8743 111.9741 94.4078 108.0643 108.5686 106.5275 108.0242 107.1378 106.5183 106.2100 106.2304 106.5948 107.2187 107.9980 108.8597 109.7376 110.5982 111.4446 112.1968 113.0319 114.7485 117.2883 100.6554 96.6142 97.4714 107.7734 97.5782 107.5155 105.7383 103.7654 106.1499 117.6282 118.1405 119.8182 101.5199 98.6600
113.4600 112.0750 111.3328 111.6278 115.3698 111.0597 109.4787 108.7102 107.4204 107.2091 107.9750 108.2915 106.3813 106.0090 103.4912 106.2876 102.6900 101.4138 99.2845 99.5593 94.1132 97.8441 101.3445 119.9432 108.7254 114.9832 112.1857 113.2376 112.4624 111.6300 111.5404 98.1946 109.6728 107.4251 106.6084 105.5379 104.6646 104.1811 104.2084 104.7635 105.6611 106.7242 107.8242 108.8964 109.9126 110.8654 111.8009 111.9057 114.6841 94.7745 98.8701 94.7918 94.2587 99.2008 98.4220 99.2045 107.8205 117.1808 118.2449 119.4195 120.0305 111.8482 112.4635 102.9900
123.9600 122.6338 123.7388 113.9936 112.6015 109.9100 108.0508 108.2296 107.0353 105.5736 107.1726 106.4926 105.1515 106.0898 102.3175 102.0155 101.2759 104.6448 109.9374 117.2541 114.0576 115.3734 114.7038 116.1483 114.9289 115.0184 113.3963 113.0116 112.0985 111.1558 110.0644 107.7796 107.8327 106.6142 105.1634 103.6987 102.3523 101.5154 101.5636 102.4956 103.8977 105.3579 106.7811 108.0921 109.2927 110.3062 111.4890 113.9836 97.5214 90.9329 93.2131 95.5511 117.5507 99.1402 114.0596 101.6181 105.2822 110.4333 118.6466 119.0258 119.2675 119.4303 121.5633 118.0100
123.9500 124.1631 116.8193 115.0243 113.7521 109.4727 108.6509 105.2724 107.7628 105.3513 106.7935 101.7314 109.9070 103.5064 99.6365 98.6922 101.5379 103.3420 96.9202 123.4539 115.0281 116.7448 116.1682 115.5606 114.7915 114.9387 110.8733 112.8916 111.8325 110.8696 109.7497 108.6029 107.1292 105.5877 103.7420 101.6176 99.4560 97.6914 97.8507 99.7128 101.9015 104.0005 105.8147 107.3576 108.7568 110.6663 107.3638 112.4706 103.0573 113.7732 105.0685 116.4643 94.8282 97.9215 97.5899 98.5186 104.9722 111.5707 118.6389 118.9045 119.4499 120.6134 102.6729 120.5900
113.9300 123.9393 116.2617 114.2180 113.4483 113.8543 112.5364 106.2793 101.0460 104.9434 106.5274 110.8897 104.8659 103.5914 101.5870 100.0762 101.4862 108.5020 118.9057 98.4854 118.9101 116.5918 116.0659 115.4873 114.4524 115.3720 98.3710 113.6316 111.7165 110.5760 109.4745 108.1599 106.6035 104.7396 102.4599 99.5015 95.3886 91.1690 91.4889 96.0485 99.9261 102.7915 105.0028 106.7978 108.3417 109.6192 110.4793 112.1917 112.6319 112.3325 107.8608 93.6582 96.6343 96.9437 98.5911 97.3050 117.3968 111.1317 101.8251 102.9196 103.6561 108.5022 121.6814 120.5800
113.9200 112.7474 112.4292 114.1894 115.4395 109.5513 109.8237 108.7011 108.5490 106.2880 107.5740 107.0742 106.5630 105.7284 106.2500 103.5057 103.6691 110.9461 116.5989 113.3936 118.9223 110.4844 116.3030 115.4114 114.8284 113.8296 114.1603 112.4471 111.6392 110.4431 109.2606 107.8687 106.2274 104.2058 101.5915 97.8968 90.9136 86.1266 86.2476 92.0930 98.4798 101.9875 104.5134 106.4730 108.0979 109.4304 110.2808 111.7751 106.9349 97.6970 116.9649 113.3171 115.8457 97.6080 99.8472 100.7576 101.3639 104.1326 103.7787 102.4071 117.3118 120.4979 120.0174 120.5700
113.8500 112.6021 113.3984 112.3259 113.6280 109.0539 112.5011 108.9481 107.4192 108.2174 108.0842 108.1629 106.9129 107.1284 106.8969 104.0087 104.6203 110.9311 117.8795 112.8064 113.4618 117.0706 116.1578 115.4284 114.7062 115.6336 106.6372 113.7314 110.3833 110.5634 109.2447 107.8505 106.1985 104.1414 101.4680 97.6667 90.1926 84.7467 85.4623 91.3221 98.2783 101.8780 104.4453 106.4323 108.0517 109.4072 110.4724 112.5740 107.6473 103.6473 115.0535 110.8043 113.5156 102.1228 100.0778 105.9937 108.3009 109.1346 108.2362 108.0450 115.2078 119.5248 120.5915 120.5600
114.2000 110.1052 112.4465 111.4862 109.4403 109.7867 109.4931 109.7938 109.5970 105.9653 106.0074 105.5927 104.9362 106.3573 103.5081 105.1592 103.8626 109.2141 115.4368 106.8648 114.3374 116.2638 116.0873 115.4984 114.4114 106.4227 107.8028 112.8556 109.9622 110.5798 109.3922 108.0273 106.4564 104.5350 102.1384 98.9633 93.9145 89.3179 89.5958 94.7176 99.4011 102.4973 104.8236 106.6769 108.2260 109.5435 110.6893 111.5915 113.1492 114.5594 115.0389 113.4041 115.8522 111.8306 107.6526 120.2061 118.9202 119.5167 120.0111 120.8196 120.1854 119.9225 118.5007 120.5600
114.6200 108.7853 109.2843 106.7507 107.7819 107.6436 107.4384 104.9376 100.7225 101.1056 98.2441 97.9069 98.4830 101.1515 99.4875 102.7142 103.7136 109.8717 118.9524 112.2372 117.1395 116.6913 116.1101 115.5315 116.3630 99.5655 115.1503 112.4224 112.0035 110.7861 109.6631 108.4093 106.9810 105.3011 103.3286 100.9340 98.5065 95.8607 96.1356 98.7669 101.2866 103.6100 105.5418 107.1846 108.5939 109.8208 110.9041 111.8999 112.6938 113.3206 114.1191 115.1942 115.6623 116.3543 117.6181 117.7174 117.5345 117.9219 118.3232 118.6586 119.3074 119.7929 119.1956 120.6300
104.9700 104.7072 103.3640 100.4793 102.3262 100.9145 100.0620 104.6421 105.2103 108.4277 106.9008 103.1314 104.6373 105.9115 104.4610 103.6819 103.3797 105.6619 108.9736 115.7742 117.3651 116.7826 116.2133 115.6813 115.2788 113.5734 116.0357 113.8257 111.9045 111.1211 110.0696 108.9438 107.6904 106.2873 104.7316 103.0958 101.5017 100.5176 100.5980 101.6999 103.3196 104.9461 106.4821 107.8632 109.1042 110.2243 111.2259 112.1394 113.0046 113.8085 114.5102 114.9593 115.5103 116.2896 116.6658 116.9699 117.5007 118.2908 118.8148 119.2587 119.6121 119.9705 120.5504 120.5900
101.9500 108.1633 108.4709 112.4925 109.2952 107.5883 109.1005 110.6485 109.9581 115.0554 114.9075 101.0205 111.0227 106.5379 103.3415 102.1996 105.5871 112.1521 111.3091 118.3648 117.3810 116.8767 116.3584 115.8695 114.8766 113.0435 97.1772 111.7308 113.1399 111.4661 110.5799 109.5835 108.4993 107.3506 106.1256 104.9953 104.0052 103.4178 103.4495 104.0844 105.1630 106.3579 107.5086 108.6559 109.7186 110.7072 111.6309 112.4452 113.2141 113.9471 114.6706 115.9131 117.2121 116.2496 117.0712 117.6911 119.3507 118.5454 118.8755 119.2125 119.6021 120.0116 120.3496 120.6100
101.9600 112.3231 101.9098 113.3985 110.6074 112.9200 101.4291 109.4862 110.1677 113.6400 108.7809 105.1057 108.1721 106.4602 106.8904 106.0012 115.6449 114.1115 119.6788 117.6354 117.6088 117.0872 116.5585 116.0278 115.3280 113.8056 109.8578 105.1416 112.5367 111.6512 111.1964 110.2725 109.3676 108.4260 107.5067 106.6487 106.0000 105.6123 105.5645 106.2271 106.6078 107.6220 108.5500 109.4850 110.3946 111.2618 112.0961 112.8843 113.4173 114.9691 115.6353 117.5002 99.2323 118.3210 117.0646 117.5347 106.0824 118.8390 118.6069 119.3219 119.7229 119.9498 120.2780 120.6300
109.2100 115.6435 117.0155 109.1531 117.1553 104.9376 109.0795 115.5788 115.9286 112.7662 107.7630 107.1017 106.9565 104.7711 105.0518 97.5755 120.3185 108.6223 118.5763 118.0499 117.4754 117.0499 116.7368 116.1924 115.5977 115.1198 114.9799 101.5033 114.3706 112.3410 111.7878 110.9936 110.2195 109.4623 108.7295 108.0988 107.6536 107.4274 104.2254 107.1334 108.2061 108.8284 109.5572 110.3310 111.0935 111.8502 112.5274 113.5532 111.9645 111.2539 116.4436 117.0152 115.1057 116.8948 117.2946 117.9126 119.2703 118.5656 119.0641 119.4161 119.8453 120.1511 122.0442 120.6600
118.7100 118.7553 117.2922 115.0023 109.9755 109.5979 109.4441 107.8125 107.2793 112.9949 111.4713 108.7313 107.6954 105.9670 98.1836 104.8545 104.7594 119.5881 114.1942 118.3599 119.3423 118.2298 116.9846 116.6109 115.8593 115.5321 110.3782 112.2188 113.7502 113.0851 112.3420 111.7196 111.0596 110.4453 109.8405 109.3462 109.2283 105.2673 108.4477 109.5580 109.4231 109.9409 110.5195 111.1444 111.8088 112.3719 113.2643 114.0397 113.7956 114.1598 96.5113 102.7477 111.7630 117.1256 117.4648 117.8992 118.2238 118.7164 119.1608 119.5346 119.9028 120.2384 120.6804 120.9200
113.9600 116.3463 124.8448 110.1188 110.6883 108.5972 108.6593 113.2441 113.2583 111.2401 106.5837 109.4140 103.9549 103.2111 102.8385 97.9877 98.4645 101.4400 123.5126 118.5843 117.9869 117.8034 112.8226 116.9374 117.7914 99.5550 115.7858 114.4506 114.1747 113.5597 112.9841 112.4179 111.8633 111.3550 110.9597 110.5827 110.5419 110.4363 110.0778 110.0709 110.5407 110.9087 111.4457 111.9353 112.4470 113.1947 114.0560 111.3028 113.6865 113.3128 95.5547 91.8587 116.1994 106.1895 118.9865 118.0862 118.4305 118.9191 119.3340 119.7558 119.9350 120.3642 120.7458 120.9600
124.1900 122.1539 113.5881 117.7232 109.7447 110.5597 107.8398 104.5000 109.6774 103.4401 104.5203 104.9699 107.7550 103.7937 102.0748 106.2219 104.4639 117.4549 113.4600 120.9358 118.1774 118.7520 117.3938 117.2688 116.3061 112.9184 113.7751 115.7093 114.4373 114.2224 113.6067 113.0854 112.6274 112.1794 111.8426 109.4469 111.4497 111.0782 111.1561 111.3310 111.5415 111.9493 112.0232 113.1393 113.2412 114.0578 101.8367 96.2200 103.3074 120.4543 119.8703 99.1352 101.9378 112.6888 117.4389 119.5624 119.2303 118.5884 119.8191 118.8550 121.1825 120.8659 120.6616 121.0000
117.3700 117.0320 117.0481 117.5986 110.0296 110.8701 99.9200 102.8571 100.4186 113.4776 108.7836 108.4920 108.6325 113.5032 102.6769 101.4234 99.2743 105.1198 121.4729 109.6532 119.9571 104.1389 108.3337 117.6645 119.0730 102.4187 97.9570 116.3608 115.8622 114.2905 114.0440 113.6751 113.3532 112.9736 112.8720 112.4050 112.2790 112.1940 112.1990 112.3212 112.4876 112.3779 113.1530 113.0804 106.7568 104.0898 93.7723 91.1170 94.9108 108.2633 115.1728 121.2538 106.5955 101.3918 108.8838 111.9318 117.8930 117.4028 121.4633 108.0090 114.3604 118.4683 124.4461 121.0400
117.4100 115.1237 112.7336 108.9786 108.2854 106.9314 103.9813 110.4205 108.7556 110.6180 106.0610 99.0789 100.0486 108.7128 99.2604 116.8282 119.7014 121.6066 119.5363 119.6179 119.7253 120.8807 117.3924 117.3299 114.6144 118.4156 115.7925 105.9343 108.5867 114.2965 116.1318 114.2914 114.0444 113.7151 113.4259 113.2382 113.0701 112.9550 112.9493 112.8387 113.2628 113.4683 110.6786 115.7375 91.1080 92.0222 111.9492 105.7646 99.0626 94.6031 103.2695 111.8312 118.7441 108.7779 106.6307 108.3923 115.5965 119.8753 119.9808 114.1496 104.5453 105.9563 119.7338 121.3100
116.7700 115.0386 109.6551 111.2487 117.4949 110.4725 109.9999 110.0699 105.2808 104.5295 101.2539 104.0763 101.8371 101.6629 117.1267 114.4378 120.3200 120.3726 117.6735 119.4626 109.0946 107.5975 119.8045 109.1245 108.7051 116.5070 103.2664 99.8810 116.4888 115.4915 115.5240 114.9752 114.6722 114.4034 114.1923 113.9924 114.0628 114.0528 113.7828 114.5995 113.4901 114.6713 108.7070 113.7449 95.2928 98.2934 114.4278 106.4898 99.3200 97.3249 99.3120 95.7541 113.2891 119.2061 119.3079 119.0096 120.2092 119.5677 119.9950 122.1569 122.8512 113.6706 101.9323 105.6200
116.7700 116.5264 116.9781 118.8977 112.9356 110.6038 107.2111 104.4291 99.7906 99.0440 112.0797 106.6061 105.2810 104.4751 115.5072 105.4896 109.7919 116.9407 118.2769 120.4615 106.4397 107.4889 118.7490 109.5802 102.8037 116.9564 119.1663 121.2186 116.0444 115.4777 115.7892 115.5450 115.2908 115.0548 114.8610 114.8777 112.3948 114.4224 116.2803 110.1580 102.8900 110.2781 108.1997 115.5669 101.7384 93.5911 92.8787 112.6006 99.1656 100.6679 103.3008 100.7825 104.6127 119.5925 117.9090 119.7772 119.3396 119.8716 120.1612 120.2738 119.9872 122.7738 121.4684 121.6700
117.1700 117.8588 112.9193 113.8184 105.6895 104.2753 98.7638 107.8325 104.9532 103.8817 107.0392 101.9803 99.0875 104.8049 98.1348 105.8092 110.8570 113.0476 120.9663 119.7161 120.4251 119.9918 118.8791 118.3812 120.4517 118.8776 117.4870 116.5233 116.8696 116.5121 116.3648 116.0964 115.8645 115.6558 115.4942 115.4091 114.6724 115.2914 117.3256 93.1664 109.0538 100.4481 105.9804 110.8744 119.0275 106.1012 96.2041 99.5143 99.4899 102.1135 100.8475 103.7577 104.4070 119.3878 119.0164 119.4629 119.8940 120.0965 120.4068 120.7522 121.0676 121.5541 120.5470 121.7200
117.7900 118.0116 106.5625 103.2587 101.3786 107.5736 107.5736 109.2061 108.6579 107.2179 104.1396 108.0688 114.1354 100.6699 111.2083 114.4250 120.4081 118.2707 120.0411 119.8921 119.3129 119.4469 118.9746 118.6938 118.2144 117.8499 118.9870 117.7837 117.5756 117.0802 116.8482 116.6135 116.4039 116.2225 116.0781 115.9426 115.9188 115.7524 115.7072 115.7178 108.3932 92.7111 101.6395 118.1359 111.1335 97.7272 100.2168 103.9859 100.1036 98.7490 102.2936 117.4675 103.4806 108.1105 120.9907 119.5729 119.8699 120.3225 120.5744 120.8571 121.1453 121.1930 121.6415 121.7800
108.5100 108.3535 105.7079 109.1047 109.1052 109.2411 108.5559 108.1626 107.6917 106.0623 107.7732 100.3736 120.3620 98.8246 124.4746 118.7916 130.1340 131.8479 122.6822 120.0555 119.9836 119.7026 119.3885 119.0257 119.3011 115.1715 105.1669 117.1322 117.8159 117.5331 117.3115 117.1061 116.9206 116.7609 116.6346 116.5339 116.4658 116.4411 115.9700 116.3195 91.9364 93.1288 100.4793 111.1781 116.9333 108.3844 99.3949 105.0342 103.9116 94.1421 100.8508 107.2810 106.1411 106.7147 106.1993 116.1620 120.7882 120.4843 120.7939 121.0846 121.2620 122.0968 122.3919 122.0300
106.7300 116.7609 110.5945 110.4235 106.8825 109.2261 108.7891 108.5717 109.7328 105.6741 99.9971 105.9557 101.4058 108.8760 121.5451 122.1658 123.0186 121.8698 120.9539 120.4288 120.1914 119.9323 119.7046 119.2976 121.1836 107.1851 100.7160 115.8628 118.1175 117.9838 117.7682 117.5743 117.4104 117.2619 117.1522 117.0531 117.0015 116.9858 116.5969 118.4632 100.4182 114.1477 96.5534 115.6943 114.1430 98.3812 96.6451 102.0756 99.0164 113.3819 118.6475 122.0029 110.0713 105.4421 109.3939 105.5615 122.0267 120.3206 121.0634 121.2752 121.5890 118.8841 117.5755 122.0700
119.4700 114.7016 109.6885 110.1845 104.6604 110.1511 108.8202 106.9747 99.9494 108.0421 106.4837 101.6166 105.7578 123.5682 113.6611 106.1288 121.0091 121.2488 121.0405 120.6736 120.4549 120.1929 120.0011 119.5394 120.4455 105.0655 107.6648 117.5874 118.7079 118.3511 118.1971 118.0327 117.8751 117.7489 117.6472 117.5606 117.5063 117.4327 117.3934 112.4695 117.5149 120.8661 94.2645 104.6004 100.1178 98.9158 95.5173 105.0858 100.3009 103.8450 110.1546 121.6700 115.6899 111.2366 122.1620 113.3314 116.3092 120.8663 121.2412 121.4386 121.6668 122.2547 122.4341 122.3400
124.9500 119.4523 110.5747 111.0434 110.4091 110.4183 103.9636 111.3533 104.5016 103.8960 101.6296 116.4777 127.1034 122.0520 121.8614 123.5561 121.8314 121.4331 121.1595 120.9366 120.7236 120.4640 120.2171 120.1926 119.1354 124.2236 122.5421 120.0593 118.9897 118.7212 118.6136 118.4577 118.3238 118.2047 118.1166 118.0335 117.9870 118.2708 120.2018 103.4369 105.5004 100.5883 99.3024 99.7700 99.0513 98.1754 98.0860 103.1353 102.5886 106.8271 107.9699 120.1178 123.6267 120.7463 120.6030 120.4030 108.6486 115.5526 119.9292 122.0706 122.2632 120.5902 119.4997 122.4100
124.9900 118.1499 113.8084 109.9790 107.6706 100.5440 110.4584 107.0246 102.1096 106.6571 104.4098 116.6820 111.5938 122.9963 122.2838 117.2862 123.4945 121.5191 121.3994 121.1726 120.4576 120.8461 120.4795 120.1644 120.0403 119.7533 120.7943 123.8315 119.1026 119.1751 119.0087 118.8718 118.7448 118.6419 118.5458 118.4785 118.5569 115.4357 108.9156 122.0484 102.3004 98.8064 101.8126 99.8010 98.2763 97.4264 95.8870 103.2156 104.3156 109.7393 108.1311 106.2595 110.0683 120.6623 120.4965 121.0950 122.8050 114.7449 111.0957 122.4032 122.2791 113.3278 101.5227 122.6500
125.1700 124.5477 111.1531 100.8774 115.7021 105.9778 107.5199 102.0411 104.4763 104.4816 104.2442 104.3033 119.4835 122.4166 123.7561 104.9980 122.3173 121.8383 121.6876 121.4900 120.4291 119.6026 121.1330 120.5798 120.0911 118.9878 121.5920 122.0632 119.9221 119.5673 119.3935 119.2595 119.1578 119.0658 118.9754 118.8835 119.2998 113.0057 111.9327 118.4926 110.2458 96.4384 101.8912 103.3833 102.6540 107.6085 104.4556 105.8584 104.0680 108.9905 109.8458 105.6614 118.5303 121.9911 120.9359 120.9771 121.5257 121.9587 114.4692 122.2433 122.4242 124.7046 108.2311 122.9500
118.6600 118.3827 106.5399 110.4338 109.8940 105.3037 102.3831 108.2888 110.0106 107.8309 100.8297 104.2519 117.4878 126.4504 116.8576 122.9799 123.1103 121.9087 121.8515 121.5374 123.7187 119.1339 120.7425 120.7370 120.5719 120.9783 114.9756 109.7554 119.7058 119.9931 119.7943 119.6930 119.5340 119.4734 119.4197 119.1372 119.4389 119.9542 115.2437 112.2602 102.9708 97.6750 100.5314 105.9383 102.0836 98.6242 97.7650 106.7230 104.9910 109.2487 110.8270 105.6160 111.4936 122.1912 121.2864 121.5037 121.6971 122.4473 122.4792 122.5657 118.0751 115.3041 123.0953 122.9500
118.6600 117.4553 119.4836 111.3994 108.2233 109.5791 108.8196 107.0542 107.9444 104.7507 104.4339 104.9368 107.3258 105.1724 99.1856 121.3889 122.1422 122.3470 122.5527 121.7767 123.2078 121.6967 123.7010 121.6949 120.7785 120.8238 120.8354 113.3420 120.4480 120.2152 119.9450 119.7781 119.9919 119.6456 119.4837 120.2160 121.1041 119.6723 116.6869 116.3659 109.3620 98.9861 100.0114 105.1512 107.9729 100.7210 112.1551 117.1065 110.7620 112.3575 111.4752 112.3347 108.0399 110.0474 121.3220 121.7475 121.9141 121.7936 123.2231 118.4623 101.7359 103.1086 112.6192 123.2500
119.2100 118.1404 114.4934 107.8137 114.4493 111.8031 109.9687 106.0270 104.5424 105.9218 102.5277 102.1753 109.6451 127.3480 124.9358 128.6757 124.9230 118.7512 120.1698 122.7709 115.6981 106.7954 121.8748 122.3728 120.3696 121.7726 104.4257 103.8527 120.6885 119.7512 121.6927 121.6290 119.8099 118.3031 119.3611 98.0317 113.5817 120.5329 111.0649 101.3757 99.5435 101.7392 101.9945 105.1347 104.4297 115.8967 121.9944 121.9662 120.1852 112.1552 112.5480 111.5044 111.2130 109.0929 118.6619 121.7798 122.2825 122.3287 123.5663 122.6224 119.6665 104.9743 113.0911 107.9400
119.7100 112.8056 115.0966 117.8498 116.5315 110.1201 109.1094 110.9597 109.9957 105.2694 103.2373 101.7130 110.7109 116.6965 107.4950 123.3870 112.5377 104.3299 119.1935 123.2875 118.0837 111.6532 123.7629 121.9936 108.5761 102.6291 101.5254 102.2064 120.8450 111.0856 101.2841 118.8904 120.8465 109.8375 102.2151 101.4700 119.0772 119.2223 108.2022 99.9516 99.6427 101.7794 102.8650 104.7192 104.2861 115.5805 121.5331 119.8250 114.2786 110.8092 112.7172 111.7255 110.9773 109.2898 110.7504 122.8816 122.4206 122.4909 122.5860 122.9502 123.2669 109.7061 107.9863 101.5200
119.7300 116.4091 114.4630 117.4931 110.1063 108.1582 111.6532 114.7562 109.8519 100.7435 101.2824 111.4076 123.7315 114.0885 119.6811 122.7575 119.0823 119.8994 122.6161 122.2341 122.5217 123.2362 121.2347 123.1340 121.7602 104.1317 108.9087 105.8149 99.8853 105.7891 110.0420 117.8308 114.2728 116.7122 101.8000 98.3882 97.4512 119.3509 107.4886 98.7135 99.5602 100.8735 102.9728 104.0257 108.2488 102.8348 120.4102 115.1516 116.3492 111.4943 111.6067 110.5515 110.4964 110.2552 110.5378 114.3648 122.3162 122.6591 124.0910 107.2993 123.6601 124.2196 119.1977 115.0800
115.7000 115.8958 115.8270 108.8597 108.2739 112.1032 114.7841 102.9790 106.6678 113.1764 114.4587 102.6067 113.8459 108.2038 125.6805 124.6372 124.5067 125.5843 122.1081 123.7625 122.3868 122.6645 115.1978 119.1766 121.7392 120.9572 124.4875 123.7046 122.0106 109.7882 121.5216 102.1795 102.8870 98.8867 99.4664 99.8088 98.4254 100.3326 101.4475 99.1526 112.6705 107.9253 105.0872 106.1305 108.7383 106.8523 109.5287 122.1035 104.7739 105.3141 116.1465 117.1364 110.5459 113.7565 100.7083 111.8698 120.6727 122.8826 123.4970 121.1583 124.5284 123.2738 124.2030 123.9700
116.6100 113.3201 110.4902 109.6637 109.5082 114.4564 104.1559 102.2067 103.7955 102.3321 102.9715 102.9418 109.8280 99.3154 111.3289 121.8487 109.9066 100.1552 112.8985 123.5992 122.7549 122.5424 119.4723 121.4792 120.8322 122.1199 121.6988 121.8099 121.4253 99.6212 114.5511 98.4400 120.5238 116.5622 106.1484 100.3010 120.0862 99.4201 102.7157 99.9207 119.4063 117.6274 105.8572 108.0457 112.7665 111.0969 109.4959 124.5876 102.3393 101.6780 116.8258 114.1251 110.4987 114.3604 109.5237 112.8773 116.4677 123.6253 123.4344 123.4111 123.5466 123.8094 123.9189 124.0300
110.7200 111.1974 110.0079 112.2311 116.9644 105.6755 107.1383 106.3989 104.3514 102.7301 101.6873 112.1375 116.1873 117.9573 114.4244 108.0859 102.5558 112.0428 124.1801 123.3195 122.7781 123.0841 123.2290 122.8028 122.7665 122.1160 121.5632 120.5565 122.6196 108.2631 118.5091 100.2613 118.6040 122.2498 113.4830 107.2756 123.0628 123.3658 121.9715 103.5167 121.9107 115.0745 110.8271 107.7612 111.6349 111.3879 124.6516 123.7802 98.0862 101.5874 123.2870 121.1845 121.6428 124.1279 119.1644 123.5769 124.0185 123.3023 123.5752 123.7278 123.8706 123.9853 124.1497 124.2400
111.0400 111.1955 114.0948 115.6271 105.8014 110.8144 108.2980 107.1549 103.3627 102.7325 102.7923 105.3771 124.8309 117.6471 111.2976 123.0728 118.5420 102.6496 127.0241 122.4991 123.0985 121.4393 124.5269 123.4397 121.3158 123.0147 119.3063 124.1797 120.1784 102.2562 109.3036 102.7839 121.0211 121.6557 123.7920 115.9450 123.0331 122.1171 110.7147 110.2399 114.6738 114.1157 111.5624 109.2070 109.7231 112.0593 122.5042 122.1847 115.6851 98.6048 121.5797 122.7320 123.1597 123.1384 123.1523 123.7000 122.8202 123.9733 123.4915 123.8966 124.0366 124.1795 124.3234 124.5000
119.6700 114.3920 114.0683 104.4468 110.3918 108.0730 102.8408 102.8047 103.1498 103.7045 101.7369 120.3823 121.6996 124.5859 115.4880 108.0218 122.8184 123.7769 127.5534 122.9655 126.4725 106.2504 110.5129 120.8637 123.2204 110.8813 104.4371 118.4941 110.9887 105.7102 104.8167 102.7467 121.5662 122.2769 124.6819 110.5671 123.3558 122.5625 117.4264 122.5216 121.7669 114.2006 109.7953 108.3802 109.7395 112.4495 124.2343 122.1873 124.3513 119.7035 122.7907 122.9433 123.2729 123.2921 123.4771 124.0238 109.7256 124.8155 123.9506 124.1581 124.2329 124.3638 124.5056 124.5000
104.4600 113.8767 124.0806 109.6768 108.9193 109.1984 104.1504 104.1930 103.0575 102.4209 98.9993 121.8260 116.7609 124.8133 120.2117 106.0667 108.5253 123.2589 124.2550 124.8443 110.0080 107.6039 106.4381 116.7129 101.6369 111.8774 116.5704 128.5613 115.0194 105.6664 106.1615 114.5705 117.5168 117.8180 122.7865 119.6557 123.8811 123.7305 124.4918 124.2169 106.2278 116.1488 108.8417 110.0531 112.0770 113.3609 116.8217 118.7899 122.7664 123.5697 123.2905 123.1397 123.4377 123.5781 123.8889 119.9126 105.6568 121.5555 123.4112 124.5051 124.4427 124.5474 124.7004 124.7100
107.9500 116.4798 105.3006 108.9704 108.8724 106.2392 103.1949 103.0362 104.3495 111.7990 111.4148 117.1030 106.2123 125.8825 123.9944 128.2096 126.4127 122.1499 102.7296 124.6264 107.4562 106.5805 99.8365 101.1991 99.8463 118.1065 104.3245 114.6376 101.6392 110.8942 111.5247 109.5901 124.7936 122.6055 124.2970 112.5719 118.5719 117.0552 112.0744 114.8643 110.1311 102.5655 103.9670 109.3126 114.6324 113.7484 114.6461 124.2268 123.4325 123.4375 123.4842 123.6307 123.6755 123.7723 123.6497 125.9150 108.4244 125.8127 119.9286 124.2896 124.4364 124.7425 125.1207 124.9500
107.9500 109.8515 109.3468 109.9347 105.9456 106.7721 113.9693 110.3068 106.3682 106.1099 124.2851 115.6168 119.2067 123.8176 107.9748 124.7666 125.2480 119.8512 103.8050 114.6357 106.0019 110.9945 101.8710 101.9543 103.6596 116.5073 102.4469 106.1530 102.2513 112.7364 113.4398 123.8646 122.9371 123.1414 124.1464 117.4960 125.2547 118.7567 116.7789 114.0308 105.6743 111.2714 103.1332 109.1460 115.2641 114.9730 120.9618 123.7357 123.4796 123.6583 123.7266 123.7981 123.8986 124.0238 124.1314 123.3359 126.6842 125.4144 124.6850 124.6018 125.2325 124.8026 127.7285 125.1600
111.1700 109.8296 109.3206 107.0663 104.5993 112.7946 117.4958 119.5920 106.8401 102.2714 115.0201 125.5948 125.2797 126.7959 121.1221 124.4849 131.3793 122.1269 105.7816 104.6960 105.4193 112.9173 102.3449 100.7474 119.6863 112.1957 111.2530 100.3361 113.5856 114.2167 123.2102 123.3338 123.7205 123.3080 121.1673 103.3112 108.8701 107.7281 102.1862 123.1072 102.7083 100.8103 103.3322 119.5514 114.3201 114.7475 119.8411 124.1516 123.7563 123.8817 123.9527 124.0347 124.1190 124.2047 124.3100 124.5304 124.4908 124.6112 124.6001 124.8415 125.0786 115.4006 124.9682 125.3400
111.2000 111.4103 108.4664 104.2241 115.6341 110.6666 106.0769 125.2561 108.9652 117.8323 112.7273 102.8721 127.8369 118.9172 112.6428 112.6436 129.3940 123.4621 108.0791 110.1388 126.9564 112.4155 102.7768 105.6576 114.1368 103.2284 104.6376 100.2507 112.3089 107.9861 123.2029 123.5180 123.5201 125.1184 101.9996 122.5638 102.9232 105.1921 115.2122 123.2720 125.8134 104.3955 107.0534 113.8177 123.0444 116.0176 113.7930 120.9087 123.8799 124.1692 124.1721 124.2521 124.3386 124.4186 124.5162 124.6101 124.7431 124.7990 124.9293 125.0784 125.0246 127.1635 128.3964 125.3700
111.1200 104.1676 119.5708 122.0388 105.8493 109.0060 116.8176 119.7803 107.7075 123.6066 108.7534 104.3343 114.0017 112.5513 115.1091 124.9025 122.2467 108.8646 113.2024 109.9509 113.5227 106.5797 115.5399 115.8838 108.1534 104.7869 108.4964 110.6665 112.6047 107.8914 124.7099 123.8921 124.0366 119.4734 111.5584 108.7874 105.3697 103.8499 114.3798 123.9248 126.1640 102.4058 120.3476 112.4072 113.3775 116.2243 115.1801 119.9084 124.3924 124.2180 124.3935 124.4747 124.5460 124.6287 124.7122 124.8045 124.8978 125.0135 125.2646 123.8581 126.5568 122.5721 104.3849 103.5900
111.1200 124.0942 124.9898 124.1738 121.6702 124.0995 119.6550 123.2302 120.1521 111.7648 104.6442 104.3985 103.5170 108.4131 133.6457 130.5328 118.6458 109.7082 112.6776 113.2312 110.7733 105.1274 105.9271 104.8101 104.5802 112.4135 118.1990 114.9565 112.7514 118.0254 124.2074 124.4045 124.2113 125.1398 125.9802 126.6090 109.0156 125.1658 122.8453 125.2999 123.6050 104.2141 120.7012 113.3328 120.4925 120.5037 123.7668 124.9169 124.2903 125.4010 124.6003 124.6258 124.7585 124.8174 124.9471 125.0010 125.0835 125.1913 124.5246 123.5691 130.8127 124.1935 120.4808 107.0300
124.8000 124.7079 124.1897 124.0833 123.5583 124.9168 121.0853 121.3518 104.4672 106.7921 107.8434 103.8325 112.1758 113.9100 132.5694 116.6505 121.8325 121.3262 109.3270 103.1192 108.7231 104.0392 102.7127 102.9436 112.3952 106.7387 112.1650 119.3633 113.8101 124.4039 124.5252 124.4902 124.4193 124.1387 123.9838 125.0129 110.7793 103.9317 104.6373 130.4351 119.1963 100.2870 115.5794 115.7086 122.3018 126.3559 124.5317 124.6458 124.3743 114.7089 124.6840 124.8190 124.9630 125.0629 124.8253 125.2103 125.2808 125.3642 125.4224 125.9162 127.7680 119.3933 104.5057 107.8500
119.6400 118.9385 128.2226 127.1119 123.5201 123.3397 125.8894 121.6978 102.8585 108.7271 109.5601 107.8620 114.4209 129.8595 121.2909 114.3568 111.1331 120.9220 106.5906 110.6730 109.6571 103.7883 103.7779 114.7610 117.4704 116.4815 117.9827 114.2056 117.0557 125.5204 124.7571 124.7050 124.6723 124.6740 124.8647 125.7346 111.7626 120.8826 107.5205 104.2544 117.5698 113.8892 116.8828 105.1678 114.9494 112.0196 126.1273 125.4905 127.3726 100.2501 124.7238 124.7157 125.1653 124.9850 128.5284 125.2548 125.4793 125.5326 125.6006 126.0813 124.6229 122.9517 106.4879 107.3000
120.9700 124.4945 127.7134 127.0083 126.0204 123.2285 127.0121 123.1413 114.8347 110.1305 111.5348 116.1884 119.5096 120.5417 105.4157 112.7787 114.6060 109.8508 116.7460 124.9594 108.5271 103.5717 109.1454 124.6272 110.3881 115.2669 116.3566 116.0280 127.1211 124.6785 124.8537 124.9254 124.8622 124.8795 124.8679 125.3830 118.0886 109.7832 104.6910 102.3013 124.7493 119.5255 119.7551 118.2315 109.2131 112.0991 126.0784 122.2428 119.4236 126.1751 104.0040 126.2884 125.2689 124.9067 129.3859 125.1875 125.2909 125.7514 126.4695 124.9786 124.5624 132.9809 113.4507 119.1700
127.5300 127.9654 127.4846 127.1873 127.5546 127.1724 126.5130 122.5045 123.0032 111.6882 118.3804 118.7673 108.6909 104.1910 110.2695 100.9949 116.9809 103.4443 115.3839 116.8817 117.1910 104.3275 107.2247 115.2804 109.8946 114.7824 117.6485 113.6626 118.7719 124.4410 125.4635 125.3683 125.5716 125.1417 125.0682 125.1652 127.1950 128.2659 119.9744 104.1269 120.2907 119.0773 119.4099 121.6995 124.6996 124.6108 125.6442 122.3855 119.4090 126.5795 125.0052 127.5010 125.4185 125.4733 123.1858 114.0128 125.9941 125.6232 127.2535 114.0611 111.3056 112.0312 111.7255 115.3300
133.9700 127.5800 127.4800 127.4000 127.2900 127.1900 127.1000 127.0000 122.2500 110.4900 118.8900 118.0500 118.0500 120.9600 118.5700 104.1900 104.1900 104.1000 113.2100 110.6400 110.6600 103.7900 119.8400 119.8400 118.7100 118.7100 117.5100 116.9800 107.5600 112.5800 125.2200 135.4700 125.2700 125.2800 125.1100 125.1200 125.1300 125.1300 120.0600 105.8800 120.0500 119.4700 120.3400 120.3200 122.6000 125.2300 125.3800 125.3600 125.4700 125.4700 125.5700 125.5700 125.6900 125.8100 135.9300 125.8800 125.8800 125.9900 126.1200 113.7100 125.6900 125.6900 108.8100 108.8400
