112.5000 112.5900 111.8400 111.8500 112.6200 112.5500 112.4500 113.0000 113.4600 113.4600 113.8900 114.3900 114.7700 115.6200 115.6200 112.9500 111.6600 117.0300 117.7200 111.2800 118.4100 102.2300 99.6800 119.4100 119.6800 120.1800 120.4200 120.6600 121.1000 121.3200 121.7400 121.9500 122.1500 122.5300 118.0000 123.0800 123.2600 123.4300 130.3100 123.9300 124.2500 124.4000 134.0100 124.8500 125.0000 125.2800 129.8800 125.6900 125.8200 126.0800 126.2100 126.3400 113.1700 116.2900 106.5800 106.8600 110.8200 119.0400 123.2900 106.6300 118.4400 106.0300 126.4600 121.1000
111.6400 111.9143 111.6179 111.6098 111.6642 111.8395 112.0860 112.4089 112.7955 113.2209 113.6736 114.1401 114.6233 115.0872 115.6396 115.3984 114.9380 117.1644 118.0311 112.8892 106.2181 111.1422 114.0139 119.1321 118.7309 119.6505 120.3575 120.6984 121.0252 121.3303 121.5871 122.3257 117.8653 123.4476 121.5248 123.1652 123.2695 122.8421 126.1638 123.5928 122.6667 122.9869 128.1109 124.6152 124.7493 124.8374 127.7417 129.7443 114.9312 116.9863 128.0513 128.3563 126.0229 114.8922 110.9652 105.8196 114.4708 110.3526 115.9409 105.4380 108.1975 105.9290 116.6986 113.4800
110.6500 110.5408 111.3143 110.5321 110.6692 110.8540 111.1647 111.5582 112.0181 112.5202 113.0483 113.5830 114.1176 114.6530 115.1526 115.7391 116.1137 116.7014 115.9746 116.6418 102.8919 108.0471 105.5732 121.4838 121.7451 121.0398 120.1341 120.5799 120.9086 121.2131 121.4317 121.9782 119.5669 122.7096 122.8212 122.8031 123.0736 125.0695 125.0711 123.7525 123.2711 124.2095 124.3286 125.3119 126.1392 129.2410 124.3203 113.7275 107.3116 123.9570 117.9156 116.1247 117.1268 118.2695 108.1618 105.5781 106.9953 104.9429 107.4867 105.9368 107.5640 110.2586 122.4175 130.4800
109.5900 109.1871 117.5290 108.9775 109.4548 109.7641 110.1456 110.6379 111.1927 111.7915 112.4019 113.0142 113.6177 114.2109 114.7749 115.3336 115.8728 116.3812 115.9198 117.3026 115.5256 101.1967 108.8450 104.7943 104.6458 118.6674 119.8567 120.5055 120.7997 121.1250 121.3638 122.2970 122.3708 122.2807 122.5773 123.2318 123.9865 109.4807 111.2994 125.7359 112.3264 125.0088 124.6196 120.3485 114.0693 110.5234 109.3650 111.8688 119.8719 114.0484 115.5777 105.7622 101.1485 107.9502 104.5293 104.1356 105.0405 106.3236 105.3889 106.4812 108.2435 134.8369 132.2352 130.9200
108.3500 108.8604 104.1599 107.9324 108.1713 108.5145 109.0202 109.6428 110.3216 111.0308 111.7463 112.4476 113.1262 113.7761 114.3990 114.9955 115.5650 116.1190 116.6308 116.2238 121.1901 103.4177 111.5571 111.2133 114.1016 119.5992 120.0201 120.3696 120.6992 120.9709 121.9073 116.3789 122.4343 122.2569 122.5397 120.0224 125.2618 118.5640 122.2089 123.6081 123.5604 125.4220 120.6449 128.1414 106.9252 103.9065 103.5044 103.2506 112.0037 115.0297 120.7048 104.0190 122.5729 107.0638 105.6795 109.2569 115.6344 111.2065 105.4954 105.6538 106.1675 112.5305 126.7269 129.9800
106.8800 106.9645 107.0744 106.6246 106.6069 107.0815 107.7608 108.5725 109.4110 110.2619 111.0925 111.8937 112.6577 113.3792 114.0578 114.6940 115.3017 115.8609 116.4248 116.6452 113.7058 109.3909 105.6939 120.8979 119.6355 119.5172 119.9185 120.2749 120.6171 120.9254 121.3064 121.1592 121.8907 122.0790 122.8452 124.1248 122.7589 123.8666 123.5200 125.6175 108.2339 122.3875 112.9588 108.0953 103.7714 103.8088 106.2134 114.1351 113.8574 107.1158 122.5853 106.6034 110.9099 109.9866 103.6469 111.9075 121.1012 114.5585 105.3766 104.2872 116.1481 128.4038 129.0363 129.2900
105.0800 105.3364 104.5852 104.3799 104.7176 105.4162 106.3712 107.4179 108.4786 109.4982 110.4694 111.3754 112.2197 112.9995 113.7274 114.4211 115.0624 115.6593 116.2293 116.7447 116.9053 119.2943 103.4279 120.5626 118.8950 119.4485 119.8332 120.1967 120.5548 120.8935 121.2416 121.5624 121.5300 123.8141 103.3724 122.7152 123.2110 123.3520 123.4586 125.4499 116.1164 105.1140 105.5829 106.7520 114.5983 103.1486 112.4548 120.4368 122.1753 125.0916 123.3630 119.2106 123.2082 125.9210 116.0026 116.7439 122.3632 103.6919 104.8075 121.1603 119.4745 131.3428 131.0978 131.5000
105.0800 103.3156 102.2375 101.8416 102.3257 103.4506 104.8242 106.2283 107.5545 108.7757 109.8869 110.8998 111.8079 112.6117 113.4291 114.1836 114.8557 115.4827 116.0694 116.6374 116.9740 110.9166 96.6399 118.9494 119.0019 119.3814 119.7612 120.1338 120.4781 120.8917 121.1632 121.4676 121.6120 122.5302 112.0035 103.3475 102.3675 112.9178 123.7138 123.2847 131.6874 113.1943 109.6948 106.2944 113.1982 111.0454 115.2354 123.1112 121.9274 122.6446 123.2313 123.4700 122.8478 110.5142 115.6945 103.1191 104.7901 105.8853 104.7463 113.6123 114.5537 115.0043 113.7854 118.4100
102.6600 100.8925 98.9746 98.1572 99.2334 101.1008 103.1844 105.0604 106.7013 108.1353 109.3591 110.5033 110.1564 113.0989 113.2566 114.0229 114.6893 115.3307 115.9416 117.0756 112.9345 111.8698 104.6001 101.4926 120.0153 119.3811 119.6864 120.0630 120.3945 120.0076 121.0731 121.5282 122.4465 107.9468 106.5081 116.4674 125.9774 121.2012 123.3951 124.0137 114.0196 109.2811 111.6782 105.1479 115.8823 104.2802 103.8636 106.0757 105.4393 105.3381 108.7284 118.3692 102.2658 104.2003 103.9090 108.3384 107.6567 109.1608 107.2560 108.6230 123.8966 122.9859 119.3934 124.8100
99.8900 98.1606 93.8142 91.6526 94.0810 98.5397 101.5986 104.0369 106.0002 107.6284 108.8947 110.4774 108.3744 118.2833 112.5984 113.9371 114.5777 115.2368 115.8697 116.6328 116.8433 117.9406 120.1500 118.7109 119.0374 119.2624 119.7170 120.0336 117.3675 120.2458 120.9702 121.4203 122.2925 131.2876 123.8574 118.3250 118.0583 109.3671 106.8781 110.7233 106.6354 101.2120 101.5326 104.0477 104.2959 105.9003 107.7855 109.2591 111.9561 114.5097 116.2260 108.4566 105.1064 104.9073 106.6075 116.0464 108.9513 108.9467 108.6339 107.6320 126.8486 105.0807 114.0659 106.1800
99.2800 95.4911 88.4071 86.1577 88.8773 96.1114 100.4048 103.3588 105.5544 107.3035 108.7452 110.3214 111.3338 111.6248 113.0366 113.7725 114.5010 115.1739 115.8609 116.4584 118.0262 117.2050 116.8586 115.5995 119.2513 119.2491 119.6524 119.9671 120.6733 120.8986 120.9229 121.5989 114.9804 116.2363 105.7062 101.7344 102.0248 110.9848 112.7662 99.2330 111.3500 105.4063 105.7222 114.8485 109.4560 109.6204 113.0661 110.9075 120.6109 111.2279 115.4347 110.7889 104.8309 107.0390 109.8191 108.5548 109.3821 108.7016 107.5124 106.9198 107.3706 111.9502 110.0528 110.5500
98.9800 94.7143 86.7803 84.1945 87.2956 95.3941 100.1110 103.1939 105.4464 107.2358 108.7285 109.9591 111.0804 112.1779 112.9535 113.7646 114.5112 115.1548 115.8704 118.7723 120.0160 118.0476 111.5222 115.3204 118.9951 119.2224 119.6628 120.0289 120.2677 120.6436 121.3101 121.5089 109.4520 118.4714 104.2277 104.6198 103.1749 106.9579 117.4307 103.7971 107.6510 112.2175 112.8595 107.5719 112.7949 113.0862 114.0291 114.4395 116.1670 110.1589 112.4448 109.0151 104.2425 104.8626 106.7033 107.2926 106.8412 110.8511 114.1615 113.2639 120.1869 123.1789 120.6245 121.4900
99.0800 95.9334 90.2470 88.0637 90.7793 97.0386 100.8383 103.5913 105.7034 107.4210 108.8564 110.0939 111.1829 112.1213 113.0007 113.8117 114.4950 115.1401 115.8998 116.6136 118.9890 117.5985 115.0153 119.2545 117.8788 119.2988 119.6554 119.9363 120.6866 121.0912 119.4964 122.0035 122.7163 112.9573 109.7244 105.6458 108.8004 108.8091 108.8880 112.4935 111.2728 113.3903 114.0930 109.3191 114.5944 114.3332 114.3652 114.8107 116.5664 104.3771 113.1720 100.7327 103.6902 113.2373 104.2277 103.0972 104.6087 108.6058 118.6418 123.6781 130.4030 122.7658 118.2124 106.1700
102.3500 99.3421 96.2982 94.6566 96.6160 99.6586 102.2575 104.4426 106.2757 107.8178 109.1529 110.3225 111.3565 112.2897 113.1369 113.9270 114.6542 115.5749 115.8342 116.4771 116.7858 117.5059 117.7970 117.5996 118.8234 119.2907 119.6757 120.2692 119.0312 117.9337 123.0209 114.9735 110.5774 116.9777 104.9738 101.8372 116.0064 112.8641 117.8283 101.7188 105.9628 105.5401 105.8121 110.2123 110.6391 110.6532 116.3690 116.5870 117.0634 115.5036 118.5482 114.5941 109.3407 106.0984 105.1676 118.1295 105.5961 112.8129 121.1067 122.7264 125.2457 125.2715 117.6491 116.0500
102.6600 101.9885 100.5066 99.9075 100.6371 102.1372 103.8913 105.5466 107.0525 108.3884 109.5921 110.6654 111.6327 112.5161 113.3188 114.0729 115.1271 111.0370 116.4082 116.5059 117.1310 117.6181 118.0714 118.6716 118.9695 119.3401 119.6620 119.8051 115.3008 147.9126 106.8280 104.4107 98.9012 109.4441 106.6019 104.3142 111.3505 110.7295 109.0011 106.8096 101.9881 105.1096 103.6534 104.7687 105.7986 106.5798 110.5609 109.8531 111.0978 112.0655 112.4602 113.4074 114.4415 111.6461 105.4442 112.7997 105.6925 109.2469 120.0446 124.1847 124.2880 125.2925 118.1453 119.1500
106.7600 104.1915 103.3299 103.0141 103.3894 104.3160 105.4866 106.7337 107.9408 109.0752 110.1297 111.0964 111.9854 112.8072 113.5720 114.2857 114.9093 115.0089 116.2034 116.6529 117.1785 117.6701 118.1427 118.5683 118.9926 119.4101 119.8279 120.1823 120.4101 124.4984 96.1347 98.1863 104.8160 103.7337 104.5760 105.6403 109.5872 118.3107 103.6350 103.5388 101.3935 102.1829 104.0160 108.0193 113.9005 112.9119 107.5842 108.0293 109.5830 103.9574 107.1361 111.3131 106.9757 112.8035 111.6621 120.4501 104.4824 111.1316 114.2145 117.1234 116.8829 116.7225 108.2536 106.1800
106.7600 106.0780 105.4978 105.2822 105.5498 106.1430 106.9789 107.9080 108.8724 109.8256 110.7297 111.5858 112.4001 113.1541 113.8637 114.5308 115.1331 115.5410 115.9486 116.8244 117.3331 117.8048 118.2554 118.6876 119.1077 119.5003 119.7949 120.1795 120.4675 118.0970 122.1881 117.8851 104.4850 108.5914 124.5112 111.5157 118.6010 106.8979 102.7971 102.8661 102.6911 116.3322 103.8382 113.5241 115.7192 117.1250 116.3702 117.5137 111.5652 109.8256 103.8921 104.3470 104.2844 104.7279 104.8494 105.9391 106.3849 109.4872 107.2001 114.7082 115.7377 112.4305 113.4109 106.1800
108.1800 107.6595 107.2799 107.2565 107.2765 107.7050 108.3067 109.0293 109.8021 110.5955 111.3709 112.1426 112.8500 113.5388 114.1978 114.8119 115.3834 115.9651 116.4935 117.0075 117.4847 117.9453 118.3796 118.8010 119.2334 119.4848 119.5138 119.2166 120.7696 121.4620 117.5424 118.0385 99.6690 103.5606 100.7874 105.8752 105.2487 109.4770 107.5325 103.8648 104.2911 104.3764 105.4007 113.0807 116.6376 115.9440 116.8157 118.1650 113.0718 103.5726 103.8319 104.6014 104.8570 104.1656 122.2707 107.4450 105.4262 104.4097 126.6381 124.7663 125.7207 126.1453 124.6240 120.1300
109.5600 108.9824 108.7749 108.3438 108.7951 109.0324 109.5038 110.0737 110.6955 111.3631 112.0139 112.6682 113.2029 113.8950 114.5613 115.0811 115.5802 116.7839 116.9382 117.1906 117.6401 118.1072 118.5232 118.9107 119.5937 116.1012 112.9753 96.7294 120.0885 118.1319 121.7387 99.0211 101.5923 102.2410 102.2900 104.8934 108.8334 110.6189 99.9768 108.1215 108.0616 110.3199 110.3917 114.6988 115.1683 113.6605 112.9091 109.7175 105.8650 103.7121 101.9582 117.6628 102.5345 104.7111 104.3365 104.8302 105.6745 119.9793 122.6828 122.1972 124.0879 125.8763 126.0051 126.7000
110.6500 110.5712 108.8717 109.4144 109.8743 110.2427 110.5682 111.0430 111.5171 111.9871 112.0439 113.8283 114.8667 114.5412 114.8535 115.6232 116.2980 121.2923 112.8281 115.1168 117.8190 118.2964 118.6946 119.1279 119.4877 113.3986 101.1707 98.7170 98.7835 98.0252 119.5233 123.4500 124.2378 114.4271 105.2876 106.9577 106.3873 104.6339 104.4015 102.6989 107.8405 110.7488 109.4090 109.7858 117.4137 116.8509 117.9261 119.4135 119.5882 105.5744 107.6932 106.0642 107.6701 107.8508 107.4401 107.6975 109.0662 104.5790 104.0672 103.6178 122.0824 116.0163 127.3520 126.7200
111.6200 111.2428 96.0406 89.7087 112.7173 110.9646 111.5546 111.9293 112.4942 112.0618 113.4333 109.3829 104.2087 114.7356 115.6492 115.0871 117.3199 116.9559 108.9544 108.0145 118.7158 118.4827 118.6764 118.9654 119.5976 121.0217 121.1412 98.3885 102.1969 106.8553 97.8386 114.1651 116.4389 114.7600 118.6580 114.0481 104.9266 101.3821 101.4821 103.0747 110.6421 110.3615 110.5054 111.6348 111.9862 112.5372 112.0467 116.7615 110.8649 118.8831 121.1349 120.0751 120.1317 114.6942 104.8399 110.1589 115.3225 113.2351 114.4558 114.7879 108.3065 107.7766 124.2051 127.2700
112.4900 112.3493 108.1531 112.4315 112.8544 112.1546 112.4250 112.7551 113.1151 113.3767 115.9968 99.6583 114.1852 119.6433 103.7747 114.8196 116.1600 117.2516 118.4003 118.7458 118.1747 118.7707 119.2953 120.3544 120.5008 118.2276 115.0897 100.7848 102.6849 101.5995 115.6134 109.6245 110.5016 108.1379 103.8884 101.6391 110.5835 100.8183 101.8433 101.9216 100.5343 101.4337 113.1002 110.8662 108.2617 114.8057 112.8837 112.6466 114.3388 115.6229 116.5519 108.5420 116.8659 108.6699 103.9889 105.5650 116.4977 121.3288 124.3995 126.0600 115.3642 117.0587 118.7403 111.6700
113.2700 98.9605 88.0729 95.4736 113.3290 112.7697 113.2526 113.5265 113.8204 113.6418 115.9198 102.5707 105.9198 103.5373 100.2414 116.8517 117.0304 117.3407 117.3851 117.7877 118.5298 118.7784 118.7835 109.4073 116.5035 117.3836 127.1765 107.8541 104.5214 98.5581 112.7082 103.9273 115.3335 116.6861 108.0679 103.3302 100.1431 102.0706 102.6567 102.3111 105.7004 110.3240 115.1198 117.1130 112.6598 116.1763 115.7875 113.8017 115.5072 113.9403 114.8454 116.8360 113.1417 114.8711 109.5221 109.3134 107.1683 114.3791 126.3627 124.5149 126.2734 127.3958 125.5815 119.1500
113.9900 110.9044 100.5317 109.7216 115.3186 113.6911 113.9685 114.2162 114.4818 114.7602 115.1669 116.2302 100.4798 97.3368 111.5891 117.3005 117.0279 117.7382 118.1055 118.4214 118.7378 120.1619 121.5328 124.4992 115.8624 119.9205 107.4183 105.1122 103.0797 102.7787 100.5723 105.0173 115.0317 107.8669 112.2590 103.8357 101.7590 107.1852 109.7405 101.3259 105.3047 109.9506 111.7716 115.8279 113.4614 116.4446 117.9115 117.1999 116.5162 117.9630 120.7171 111.7104 116.6959 114.9690 117.0719 122.6268 117.2840 116.7851 119.4619 118.7176 117.7433 124.3668 127.8233 126.1800
110.0800 99.4170 92.8496 90.9803 115.5344 114.3463 114.7560 115.0879 115.1428 115.2044 115.8705 115.7094 115.1018 111.8514 109.5973 118.4429 117.5352 118.0483 118.2856 118.6947 118.9771 118.6153 112.1858 118.4258 117.4961 103.8257 99.8074 98.9610 101.5599 107.3723 104.8771 106.7765 108.8427 116.3381 114.7818 100.2457 101.0365 111.4517 124.5599 115.2253 106.9667 112.9069 115.0402 108.2954 111.1529 113.9673 118.2057 118.6272 119.0539 120.5723 106.9882 119.1393 119.9178 122.5884 117.7683 117.8957 121.7380 119.0051 123.5694 123.7477 122.5172 115.4459 118.9535 119.2000
115.8700 98.7501 94.6332 107.6134 115.0900 114.4955 115.4110 112.5567 115.7390 116.9053 111.8888 116.1771 119.3259 107.9856 102.4233 112.7038 114.2808 119.2043 118.6070 118.9749 119.2739 120.2684 121.1621 120.4094 119.2576 100.7242 100.3633 102.4964 108.7408 100.8178 103.4440 105.2569 108.5910 107.3425 102.8700 107.1394 105.0888 110.1418 110.0824 116.2677 114.8306 104.1866 105.1642 115.1559 114.8891 110.1647 116.9346 116.8879 119.0010 115.2854 109.3733 110.2524 107.3092 106.4249 105.4678 104.6746 108.7035 115.6106 123.9318 127.4275 127.9739 127.2605 127.1873 128.2900
100.7100 92.5151 117.2400 116.5158 116.1269 115.9075 115.3850 116.2482 115.8756 108.5650 117.5427 117.3056 117.0796 115.3645 111.7654 105.8828 111.3752 121.1055 118.6135 119.2591 119.5305 119.8319 118.2971 121.0898 110.5130 97.2387 99.0486 99.7281 103.2598 104.1870 100.7124 101.5460 105.1799 105.2430 101.3605 108.9627 107.4419 109.8138 109.4496 114.0609 105.2151 115.7475 100.3968 111.7552 115.0533 114.4022 116.3555 116.9643 108.4882 110.5127 104.0317 105.2826 105.7558 110.4034 121.7415 122.6653 105.9196 108.8099 123.3044 123.4362 123.2829 124.1748 114.7236 123.9100
97.5900 115.1859 115.9640 116.2579 116.1432 117.0385 114.3694 106.4443 114.6419 104.3797 107.0698 117.1203 117.6475 118.1920 118.1267 119.1134 117.8148 119.5339 119.0668 119.5580 119.6972 120.6097 116.1723 121.3354 120.2500 121.9803 103.1986 104.7902 107.3952 106.8340 108.1874 108.2134 102.7593 102.9550 113.3587 102.0907 110.1754 109.9592 109.3075 109.7090 111.0904 113.2088 112.7676 125.1941 117.2855 127.0200 111.1803 118.9932 118.7224 104.7294 103.9713 104.6530 104.8103 105.1997 105.4523 104.4977 113.2869 118.4058 123.4747 123.8678 124.0764 124.5090 124.2349 124.9800
116.8800 116.9161 116.9627 116.9121 116.9755 116.1184 108.6109 105.9491 105.6101 112.3478 110.3929 119.0626 118.0434 118.2695 118.5129 118.8417 118.8674 119.2277 119.5296 119.8417 120.3047 120.2719 119.5426 116.3023 98.2899 104.9460 99.1642 105.9289 104.0438 104.2515 106.3840 107.9761 107.4389 104.8524 101.9219 109.0557 105.6883 109.9769 110.3866 111.5596 112.1143 112.1877 111.6233 124.2964 113.2018 114.4165 122.8357 115.5311 103.1725 104.5747 103.9999 117.2358 104.0120 106.3062 105.7092 103.8798 106.7392 104.0410 123.9014 123.0882 124.0857 125.1645 125.4949 125.3400
117.3600 117.5111 117.4212 117.4330 117.6403 113.9278 103.4918 118.3788 103.7992 116.9451 119.0890 118.1859 118.4309 118.6997 118.8767 119.0989 119.3577 119.5834 119.7886 120.2203 117.0285 109.2598 115.2728 111.7731 97.2494 100.6904 102.8714 99.1638 106.3771 107.9297 104.7215 106.7590 107.2187 107.9641 109.8323 105.6379 101.5761 103.6314 109.3441 111.7562 112.0673 112.3551 113.6013 114.3233 112.7293 112.7450 102.4090 103.1459 110.5158 104.2130 104.4251 104.7696 105.0105 122.5184 106.1112 131.0786 126.8299 111.4409 109.3103 104.0268 106.1579 122.6069 123.8682 125.7800
117.8100 117.9366 117.9075 117.9006 117.9127 117.8605 117.2533 98.5010 96.9330 120.9046 118.1535 118.7084 118.7480 118.0009 119.3130 119.3210 119.6917 119.8840 120.1219 120.4761 122.3169 116.6668 108.0783 99.9572 100.0063 99.6683 104.1548 102.7086 120.1659 115.5286 117.6153 107.0467 107.5853 107.8358 110.0550 113.8131 103.0636 110.0890 102.5634 111.1845 111.0335 115.7219 114.3737 114.4983 107.1979 107.8621 103.8450 104.2434 104.3459 104.5967 104.9016 105.1752 104.8154 103.6947 104.5459 112.0635 119.0918 103.8510 117.4461 108.3467 105.1202 101.6407 109.6491 125.9400
118.2400 118.4091 118.4103 118.4208 118.3919 118.8760 116.2418 110.1719 105.4716 118.9168 118.8964 119.9472 111.8483 120.0734 120.9043 119.9802 119.9841 120.1939 120.3831 120.6407 120.2253 122.5654 119.2490 101.2319 99.0382 101.0535 100.0230 104.8690 108.7709 103.5617 96.4645 105.3629 109.2903 111.4162 109.1037 106.2982 110.7495 115.9958 109.0008 110.5097 106.0623 115.5823 110.8442 113.3920 106.5118 107.7861 108.9912 103.7678 103.5370 104.6594 105.0020 105.9831 105.8551 106.0897 105.7533 105.0212 105.3523 108.5481 119.3139 123.6246 114.5237 116.0796 108.9519 107.8300
119.0400 118.8767 118.5534 118.4611 117.6100 119.9934 103.7424 97.3275 120.3981 119.4696 118.6624 118.8504 120.0189 113.0210 115.7843 119.9164 120.2925 120.4840 120.7157 120.7848 122.1864 117.0781 121.2767 125.6447 101.3193 102.6043 100.6622 101.1855 111.4273 106.6284 108.5898 106.8775 104.5629 100.8805 101.9757 101.8210 108.7022 105.9192 111.3039 115.4999 113.0325 110.8080 102.7279 108.0598 103.1535 113.6260 111.2530 106.4831 112.6993 104.4081 104.9076 105.6319 105.9510 106.9577 106.4751 106.8543 105.6395 100.4644 104.6925 111.2409 120.4140 118.2019 109.2984 107.8300
119.4200 119.0463 121.2715 120.7473 116.9831 131.7617 100.6686 98.5895 114.6855 113.1465 120.8451 118.5357 119.6545 120.0669 120.5225 120.2054 120.6273 120.7750 120.9395 121.0290 121.6157 121.0287 120.4577 124.4198 100.2650 99.8888 102.0734 100.3609 101.3596 110.8844 108.0048 107.9932 105.6382 103.1056 102.1929 101.7214 108.6477 106.5347 112.6418 118.9621 121.1505 122.9299 101.9621 101.3162 103.2147 111.2145 103.1622 104.8884 106.8268 104.6458 105.0136 104.9578 104.9167 106.1004 106.9087 108.1359 107.1935 123.6406 107.2471 117.6275 106.1243 107.0126 110.5076 110.9300
119.7800 120.5159 111.2479 107.7547 122.7340 113.6516 101.7273 102.4910 104.0819 101.1149 119.1401 120.2186 120.4698 120.2681 120.4202 120.6884 120.9142 121.0877 121.4454 121.9893 119.7898 120.6456 106.4487 121.6814 119.9256 116.2355 106.8357 102.1542 107.3035 113.2089 105.2017 108.7597 109.6394 107.1802 104.6910 106.2044 113.6036 113.5190 116.9904 110.4154 120.1500 117.3217 112.8267 117.4545 116.0072 100.3734 102.4671 104.4964 104.9412 104.5204 104.9832 105.2888 107.3412 105.9687 106.2116 106.9476 108.0096 108.0364 108.7634 116.0245 108.4389 109.8166 109.7836 110.7900
120.1200 120.6162 98.8089 104.1047 111.8729 101.9197 102.8253 98.2276 105.9245 119.4037 120.9161 120.4655 120.5876 120.7610 120.8971 121.0343 121.1701 121.3287 121.5246 121.5135 121.8785 122.3034 116.0532 123.9301 122.3281 123.4990 123.3874 117.8122 107.3704 109.2261 116.9478 104.4161 116.0588 110.0454 109.1008 106.3312 107.3949 108.9665 118.5839 118.7583 119.2774 110.0210 114.8702 123.3908 122.9578 112.8470 116.7001 102.9769 104.9825 104.8730 105.0152 105.4416 105.5677 106.8641 107.5783 107.6099 110.0250 108.3602 108.7558 109.6575 110.9530 111.4092 111.7606 111.3300
120.4500 121.5377 104.1616 120.5519 118.6030 99.3557 104.4666 103.8762 107.7823 122.0508 120.4663 120.8050 120.9418 121.0535 121.1767 121.2847 121.4569 121.5831 121.8728 121.7541 122.0212 122.2824 122.5005 122.1853 123.6471 118.8910 110.7949 109.7873 107.7776 106.6807 102.0374 102.7192 102.3776 115.1042 116.5949 114.4570 111.4063 107.9359 113.7827 121.4069 120.4159 121.8095 101.8364 105.7952 110.8800 111.6600 119.5401 104.8672 105.4003 105.3889 105.1652 105.1069 105.6817 106.1822 106.0590 107.7728 108.1213 114.9499 109.2586 118.4533 111.4399 112.2307 112.6890 112.8300
99.1500 118.1880 103.6668 107.5910 108.6877 105.6534 105.5286 105.4525 111.1988 122.3699 120.9773 121.1691 121.2345 121.3530 121.4712 121.7116 121.7361 121.9059 121.8856 122.5610 121.6208 123.2969 122.7202 123.2047 119.9356 106.2630 121.9977 102.5445 106.2717 105.5328 114.2549 102.7110 104.4129 110.7002 118.1756 112.6968 118.2745 111.2268 112.4490 118.6218 121.1355 122.8349 107.8393 104.1194 103.6646 104.1857 105.2601 104.6755 105.2040 105.0102 105.4505 106.2206 108.2893 110.9747 128.6683 107.1986 112.1768 114.0712 119.6949 115.6735 110.4263 110.6134 111.6871 111.7800
102.2700 120.8622 100.9958 101.7717 102.1823 105.8724 100.1841 115.9445 106.2447 114.5050 121.4505 121.5167 121.5418 121.6443 121.7459 121.3789 121.1938 122.1321 122.2884 122.4019 124.2259 121.2176 123.7334 114.8385 106.2784 104.7396 101.8246 123.5619 122.3022 110.4288 126.8642 119.7984 110.2582 105.2222 102.0033 110.7695 120.7728 119.9504 117.3393 113.3215 112.6049 121.5230 108.7937 108.6388 105.4073 104.7617 104.7094 104.8133 104.9565 114.1767 111.1468 107.4217 107.5607 107.6357 110.0439 129.5818 113.8786 113.9072 112.7412 119.8338 111.1057 111.0818 122.5349 118.9000
99.6400 121.4759 102.4341 100.5883 99.9843 106.0562 108.9660 107.5712 110.8138 114.8868 121.8639 121.8488 121.8235 121.9261 122.0073 122.2223 122.3051 122.3746 122.5123 122.5435 125.3060 123.8165 121.8464 122.1705 125.8418 114.8667 101.7165 101.7253 123.2610 124.7605 123.8015 113.7689 108.7818 101.8356 103.1135 104.7172 119.6795 120.6852 111.8606 112.4057 114.9642 121.2997 112.0702 104.1850 104.4358 104.6895 104.7448 104.9065 105.3246 103.7899 112.0133 117.9479 106.4189 107.9755 108.7220 108.8093 109.6241 130.6668 115.0672 115.3215 115.7833 110.0868 124.5847 122.4200
121.6600 122.6526 104.6307 105.2858 101.4758 110.3549 113.8107 111.4061 109.4186 114.1079 122.1541 122.1265 122.1076 122.2073 122.3066 122.3931 122.5125 122.6484 122.7344 122.9910 122.7480 127.6259 122.0798 124.3320 123.4166 124.2310 121.7360 120.5994 125.7315 123.1417 126.2582 111.3560 119.1325 112.7704 105.6310 104.8703 113.6547 117.3246 119.4715 116.3646 118.6495 111.1816 117.0400 111.2451 104.5023 104.7366 104.8748 104.8624 105.1365 109.7384 105.0762 104.6937 106.0049 106.1535 113.1366 115.8352 108.3487 107.6523 126.1333 126.7911 116.5293 115.9987 104.0583 125.0000
121.9400 122.7637 106.6154 110.1350 102.6671 108.0355 116.3646 102.0641 108.8278 115.0470 122.0652 122.4030 122.3938 122.4858 122.5694 122.6723 122.7932 122.8875 123.0214 122.9844 124.6533 107.7430 107.7290 125.5893 123.7407 123.9594 124.0387 121.3447 125.0410 125.2712 129.4453 129.5284 126.6555 106.8572 105.9817 106.9452 108.3396 106.5896 115.8226 121.2206 114.5642 106.7417 104.2609 102.2987 104.1033 105.1154 104.9628 105.4609 105.5814 102.4952 105.9313 106.6523 106.0292 107.6524 127.8488 129.5696 117.9101 111.1601 109.9382 106.9450 125.9527 134.5801 121.3412 113.1000
122.2100 123.8561 108.2676 110.8817 103.7105 104.9561 101.7598 108.6233 108.4645 113.3957 123.6102 121.8419 122.7080 122.7461 122.8263 122.9349 122.9761 123.0894 123.4131 123.2310 123.8112 114.6503 105.1585 116.2291 125.5020 125.3825 124.4284 115.5561 117.9554 119.1031 121.3536 116.3872 114.8781 121.5851 109.7087 104.5751 106.3877 112.0414 107.1680 111.8057 109.8601 109.1299 103.8627 104.8401 105.0189 104.1526 101.0894 102.3982 106.2691 106.0117 106.0522 106.4993 111.6229 119.2579 121.9843 110.3286 127.7732 123.5337 120.8475 113.9410 110.0931 125.0286 118.8980 130.5400
122.7300 117.7429 107.3072 108.8733 109.0422 115.4911 115.3915 108.4553 111.0446 120.3136 120.1670 122.5129 122.9461 122.9994 123.0782 123.1979 123.2152 123.5176 122.6940 123.8208 116.5835 111.8435 105.8331 112.4735 120.0750 125.8577 123.0739 116.4741 125.5055 126.2509 126.6557 115.8586 111.5142 122.3126 107.7619 103.7134 104.7003 108.9077 111.0285 106.0067 107.3700 105.6805 104.6723 105.0555 103.4109 102.1255 124.6967 116.6431 105.9510 108.3377 105.8828 106.6710 127.4539 132.5314 130.3226 120.5859 110.5597 128.0506 129.8653 117.2819 117.5613 111.2936 109.5226 130.5400
107.1700 111.1498 109.2225 107.9645 114.5737 124.3657 122.6989 107.2436 123.7312 124.2257 123.2874 122.8184 123.1968 123.2522 123.3229 123.3173 123.6605 122.9132 126.9916 124.5888 125.2622 117.1820 112.2657 117.3520 111.9473 122.4749 125.2534 111.7103 119.2562 121.2577 113.1781 122.3720 125.2195 109.2383 114.5290 102.3811 104.1805 105.3360 107.2168 109.8365 103.7725 104.2199 105.0039 103.0354 107.0683 119.9789 112.6341 130.0167 118.5033 107.3321 106.1381 107.3999 101.3197 112.2424 132.0885 110.8916 114.8600 110.8592 112.1635 117.5380 127.7696 104.1590 113.8978 114.3500
101.7600 108.0179 109.8883 108.4572 111.5967 122.6684 121.5618 107.9188 123.3302 122.6691 123.2745 123.3963 123.4403 123.4808 123.5485 123.6456 123.6888 113.6833 119.3697 120.5770 125.7349 114.4534 113.2836 110.4689 112.7058 99.5256 116.8936 109.3826 101.8641 108.0633 114.7290 108.9622 108.7196 104.7431 119.4163 107.9381 104.4285 106.0174 106.9148 104.0734 104.0754 104.2822 104.1409 118.2174 108.0058 113.0175 124.2741 108.0184 111.3056 111.2753 111.7882 106.4049 109.0189 107.1119 111.7278 127.0940 111.5422 125.9301 119.2703 107.1649 133.6932 107.8614 105.9940 107.4200
103.2400 100.0622 111.0992 110.1186 110.1579 119.4061 121.6795 112.0724 123.6782 123.3564 123.5587 123.5956 123.6536 123.7933 123.8260 123.6217 125.5221 119.5910 106.6767 108.6818 125.4421 125.0815 120.8216 109.4805 115.0334 115.8359 109.4538 123.5533 114.8293 101.5988 112.9945 102.6769 109.1108 110.8867 110.8663 107.2371 104.3100 106.9086 105.6694 106.9126 108.5084 105.7607 105.0267 108.6751 103.9356 104.8606 108.6271 104.7801 104.6469 105.8753 107.1450 106.0242 107.9958 107.9268 117.6508 108.2682 119.0279 132.7943 133.4483 112.3929 114.8304 133.0720 123.9922 126.5100
102.4800 101.2478 112.2088 110.3990 110.9039 120.2974 123.4857 124.3266 123.8899 123.6519 123.8004 123.7480 123.9078 123.6903 123.7553 124.4905 123.7814 111.9501 115.6164 110.0045 127.7934 123.4313 116.0419 108.8184 116.5036 120.0633 126.7020 124.9076 124.8925 113.9509 109.0091 106.3815 102.9440 103.5511 104.7358 104.6640 103.6598 106.6055 106.7032 108.8328 108.9778 113.3014 108.9541 105.1320 106.3475 113.0710 104.6457 106.6449 105.8392 105.8843 106.4834 104.0647 125.5868 107.3888 109.1840 112.1259 111.7058 130.9810 132.0296 113.6524 111.2730 122.4595 132.8895 131.9800
103.9400 101.3376 112.5889 110.5253 110.1828 120.5066 123.6939 121.9895 124.1589 123.8380 124.0906 123.4386 124.1894 124.3026 126.7722 119.5388 128.5603 113.0117 117.8134 107.4294 101.7420 128.4376 118.4014 103.4910 125.0000 117.3730 118.3342 125.1789 127.1489 127.5609 103.3103 109.6359 114.1036 104.0588 104.3485 105.4751 107.1560 110.8408 106.0763 108.8446 108.6536 117.6774 113.3366 112.9989 104.5091 105.4152 125.5618 124.6078 104.3353 108.3290 106.2047 106.4278 106.8971 103.7616 128.4922 130.5263 119.2890 118.2732 111.3763 119.1862 133.3207 133.2981 132.0323 132.3200
111.6800 102.1026 113.5731 110.9772 110.9754 120.9334 123.9497 121.1029 123.7945 124.1790 124.2496 124.3615 124.3973 126.4196 117.7688 102.2536 104.0353 114.4113 116.0860 125.8137 107.4176 113.9212 125.6594 120.9111 124.4673 119.6225 121.7608 120.3895 117.6359 129.8056 115.2459 108.4468 106.7067 105.1608 104.3158 105.1066 117.3820 104.6072 106.8305 110.1508 115.9677 115.4594 107.8394 118.4052 104.7523 108.1626 108.8759 124.7689 108.4030 116.7664 105.7871 111.1345 110.8757 110.0415 129.6871 129.4704 130.9491 128.7626 110.1165 128.3868 129.9307 132.7698 132.9606 132.4800
106.8800 102.8584 114.0273 111.7525 112.2017 121.1182 124.4602 126.1645 124.5726 124.4600 124.4711 124.4910 124.6663 124.2772 126.9742 106.5435 121.1672 117.4403 109.3904 124.9051 115.7900 107.5571 128.1773 120.4433 125.1105 119.7831 125.5114 121.4896 128.0286 116.7207 110.7481 112.6408 104.8971 106.5112 116.1977 111.7001 110.9345 119.9147 107.0213 114.9595 113.5993 121.0343 109.0309 109.2696 104.5052 115.9292 115.6311 114.8394 120.5039 113.8757 112.2662 131.3208 130.8333 125.5765 130.7099 130.0745 124.9607 130.7071 133.3524 134.0191 132.3670 128.6060 132.9012 133.7000
124.5300 121.1929 118.0586 112.8532 112.9618 121.0680 125.1006 113.5921 125.7373 124.1850 124.7472 124.8062 124.7301 124.5433 127.0996 108.5428 118.5248 128.5283 119.3475 111.9692 113.4451 110.9926 117.2454 112.9636 123.6576 110.8705 110.0508 114.1242 114.8877 111.8277 116.2434 114.2943 109.5156 115.5619 118.1207 100.7695 114.6147 128.5030 114.3954 107.9511 111.3970 111.3388 107.6163 104.8638 108.9893 115.4250 116.4734 114.9869 114.4751 114.2451 129.9023 129.4622 129.5829 129.9854 131.6095 118.6476 105.3889 132.5458 129.8582 130.0211 131.7619 108.6340 118.8259 116.0900
124.7300 124.3010 125.1289 119.9933 123.5489 120.7614 124.6426 122.6843 124.0159 124.6966 124.8340 124.3526 125.0585 124.4563 128.7501 111.4219 108.6846 114.7488 120.6603 118.2259 119.8223 112.0961 116.4214 103.1053 122.0081 113.7540 109.3855 117.5444 115.1530 110.7429 102.6148 108.4251 106.0204 107.2969 111.6703 111.5637 122.2867 120.4813 124.3387 117.0252 112.3535 111.6528 107.1271 104.8739 114.2841 112.6491 120.4435 116.7949 115.4077 117.2572 125.8412 123.8923 129.3462 129.4929 129.8005 115.9411 106.3980 113.4883 131.7337 131.3878 134.1871 119.3792 113.3245 116.0900
124.9300 120.4113 118.4646 119.6711 122.1694 120.5608 124.8238 125.2119 125.3797 124.9465 125.2295 124.7212 125.1848 125.1915 124.9718 122.7203 126.6243 120.7665 117.3382 103.4019 112.2552 100.1963 103.5243 102.4949 110.8836 110.4237 123.1469 108.5403 103.7894 103.7328 104.2198 112.5518 113.5925 119.1077 112.4890 109.4168 104.1965 108.8748 116.1043 114.3080 105.5668 115.9900 105.2628 115.0534 105.5021 114.9218 114.6572 121.3847 118.8860 117.7307 116.1365 122.7616 128.3356 130.6012 130.4517 132.7652 119.6392 108.0245 114.0341 130.9139 129.8256 137.2275 128.6227 107.9700
125.3100 121.6995 119.7167 123.1600 125.0415 121.4292 125.1417 125.2844 125.2385 125.3218 125.3123 125.4118 125.3991 125.2845 126.9986 114.1354 107.7940 125.4075 126.0857 118.3427 116.4339 106.6463 116.8537 119.2497 101.7792 103.9105 115.0762 109.8455 104.4130 104.8567 107.7128 108.8476 106.7673 125.1345 114.7352 123.9808 105.9012 107.4217 109.2521 105.9017 105.1887 109.6347 113.3978 118.8119 114.8005 114.6943 129.4582 128.1569 124.1946 129.0729 125.2958 120.4052 117.1863 122.5654 131.3807 130.5456 133.4496 130.0744 121.0834 129.4595 125.7426 129.8775 111.6359 132.6300
122.1000 122.0289 123.3188 118.8204 126.1947 125.7166 125.3445 125.4672 125.4627 125.4767 125.5091 125.5459 125.5682 125.6145 125.3048 124.6994 109.2146 128.1071 122.0688 117.5409 113.8420 117.6297 111.0749 119.3044 116.2523 100.4777 103.9113 104.7183 104.5113 104.5084 105.9206 103.9349 112.2390 112.4977 119.9601 108.4794 104.7571 105.1395 106.3686 120.0536 106.1867 105.7892 105.5189 117.1569 118.9281 111.8689 118.9021 126.8759 127.5043 129.0910 118.9234 122.3896 118.0750 118.3486 122.9086 130.8771 130.8170 131.7620 132.1169 131.2597 130.0903 129.4544 116.4755 108.1000
122.6000 122.9463 122.9502 117.9835 125.8464 125.3515 125.5942 125.6451 125.6618 125.6917 125.7437 125.7341 125.8260 125.8802 126.1725 121.4762 118.9205 118.4773 114.3199 124.7779 125.4844 121.2518 114.8671 121.4498 116.1136 102.2949 109.5939 104.6152 104.9335 106.4884 107.4067 104.7547 114.6987 105.5613 109.0775 105.3968 112.9037 98.9852 114.6740 124.2824 111.1406 109.1201 117.4974 109.6544 118.4072 119.4204 113.5903 120.9564 131.5692 126.2759 127.5984 127.8146 120.8131 118.5357 118.0388 120.7888 132.9679 130.5578 131.2146 134.0531 135.6736 132.3263 112.7383 108.1200
103.8500 120.6814 125.1359 125.6756 126.3636 125.7237 125.8262 125.8366 125.8547 125.8720 125.8876 126.0153 127.0430 123.7318 123.5942 122.9471 126.3611 113.2951 109.7264 124.3848 115.8450 121.1165 110.6357 123.8079 118.5711 112.9104 115.9806 104.5974 104.8905 107.1646 106.1952 114.1764 107.7022 105.5895 108.1504 118.0523 102.0179 113.8093 115.4677 118.3903 120.7262 106.5212 106.4431 115.0508 113.5959 120.4364 114.7680 119.9147 124.0077 126.8027 130.2940 127.4297 119.6136 123.7198 130.3915 124.4733 119.4411 128.7180 130.0604 108.5690 106.8155 132.3251 113.4852 113.3300
126.0300 125.6268 126.0867 126.0009 125.9354 125.9702 126.0072 126.0275 126.0483 126.0589 126.1359 126.2454 116.0980 122.1559 121.4408 126.8562 121.3223 114.2743 112.0830 106.4529 116.4833 113.5950 109.9173 109.5737 102.0703 104.4952 108.0226 104.0699 105.0681 107.0437 111.7626 128.1097 125.5262 128.9984 108.8433 111.4986 114.7556 116.6811 106.4918 115.7047 114.7299 111.8569 105.3201 112.2129 119.3813 118.4508 122.5111 117.5045 116.8305 125.9179 129.2590 129.3867 127.0647 130.8711 128.9007 131.3816 118.3320 126.8251 116.5144 131.2096 107.6416 108.3927 107.4249 113.1200
126.1900 126.1978 126.1667 126.1756 126.1846 126.1941 126.1941 126.2150 126.2325 126.2312 126.2629 127.9246 117.3463 126.7459 127.0823 126.8478 127.7369 125.8986 115.1654 103.6626 115.4261 104.6570 108.0507 102.3703 109.2847 107.5694 104.3874 105.1927 105.2818 109.5326 109.0898 130.0450 131.4402 111.7484 107.8627 107.2344 117.7765 119.5501 121.4227 116.0481 113.8837 112.9505 106.9693 107.8479 107.9214 122.3122 120.6376 122.7310 126.3116 117.5797 126.8861 127.7234 128.1943 131.3581 129.1588 132.7343 123.0496 131.7537 131.6157 135.3523 134.2831 113.2192 109.1110 109.4100
126.3600 126.3764 126.3651 126.3610 126.3639 126.3690 126.4026 126.3867 126.4157 126.4317 126.4617 126.3782 127.0789 120.0737 119.4538 132.3917 126.1239 121.9726 111.9738 122.5744 112.8248 109.0040 103.0184 105.9918 128.5857 126.9424 105.0530 105.3354 110.6937 120.7861 108.8315 126.8685 130.8535 118.1424 108.7464 109.9246 111.6290 112.7128 108.7704 115.2155 117.0178 110.2235 108.0114 106.6859 108.6653 117.7000 121.9606 120.8376 122.6977 119.1508 121.2101 126.8981 127.7498 128.9745 130.2356 131.8034 131.2096 132.5239 132.7142 132.7504 134.3389 122.2630 110.1436 113.4100
126.5300 126.5505 126.5406 126.5362 126.5348 126.5685 126.4080 126.6026 126.5631 126.6086 126.6326 126.6144 127.4568 127.1731 128.3032 121.0154 116.9272 110.1514 109.9675 122.4118 118.4301 126.7365 105.1347 104.1854 106.9964 127.4100 98.2531 106.5394 111.1951 122.2595 124.1369 124.8068 124.9055 123.8906 102.4445 116.4450 112.9597 113.1404 118.5490 118.5271 112.7878 109.7664 117.0329 105.3998 105.4959 107.5548 117.3669 117.1151 115.3294 124.1741 119.6334 120.4680 129.9460 128.8759 129.7624 131.2423 131.9442 132.6313 134.0702 129.9477 128.9260 112.2160 108.4762 108.4900
126.6900 126.7238 126.7156 126.7116 126.7059 126.7412 128.0850 127.2246 126.8907 126.7414 126.8034 126.8129 126.7011 109.5631 117.3824 110.4664 120.2031 102.7751 103.9307 124.4693 116.1901 126.1054 98.6224 109.5302 104.7960 121.7360 119.8058 105.9472 109.9926 115.7730 122.7742 124.5039 130.8619 130.1935 130.0288 134.3953 121.5376 111.3774 110.2047 112.7876 119.1034 117.2888 122.3775 108.6218 109.8833 132.8105 129.4475 124.3475 122.9725 124.8126 125.5984 123.9548 127.1544 130.2603 130.5015 130.8097 132.1915 132.9420 131.5811 112.4318 105.1489 108.1220 108.5217 108.6200
126.8400 126.8500 126.8500 126.8500 126.8500 126.8500 126.8400 126.8300 126.8200 126.8100 126.9500 126.9300 126.9000 127.0400 114.0500 112.0300 117.6200 105.2100 105.2100 126.1900 126.1900 105.3900 106.1600 129.3300 105.8800 105.8800 129.0600 105.7200 110.0500 111.4600 111.4600 116.8200 116.0600 132.3200 132.8400 132.8800 112.8200 112.0200 118.4000 109.1400 120.4300 117.5300 110.1700 110.0200 107.0400 128.9100 125.0300 129.2700 124.5800 125.4600 125.4500 125.8100 130.2100 129.8100 131.9600 130.9800 131.9100 133.3600 108.2500 108.3300 108.4000 108.4700 108.5500 108.6200
