111.4400 111.5900 111.7000 110.9100 110.9400 110.8800 111.7300 111.6300 112.2400 112.7300 112.6600 113.7300 113.7300 114.5700 115.0400 113.4700 105.5100 116.1800 116.9000 114.3800 118.7200 98.5600 97.3300 100.3800 119.3400 119.6100 119.8600 120.3600 120.5900 121.0500 121.2700 121.4900 121.9100 122.1100 123.2000 122.6800 122.8700 123.2300 123.6800 123.7400 123.9000 125.4000 130.6900 124.5300 124.8300 124.9800 125.2600 112.9300 125.6700 125.8100 125.9400 127.6900 130.9700 113.3100 114.1700 109.8100 111.0300 114.5400 116.8300 105.4900 116.1700 105.8200 119.6700 119.2500
111.4400 111.1481 110.8405 110.6483 110.5903 110.6762 110.8733 111.1856 111.5797 112.0404 112.5382 113.0639 113.5927 114.1186 114.7068 112.4893 111.4374 116.2711 116.8843 113.9016 104.1636 96.3001 106.6186 116.3667 121.8087 119.4456 119.7984 118.1280 120.0473 120.8194 121.2827 121.6596 121.9183 121.4504 122.1313 122.6286 122.8683 122.9210 123.1126 123.6063 122.8729 125.3788 126.3194 123.8108 124.3418 125.4748 126.2489 130.5489 121.3380 116.2535 118.9826 124.5867 125.7041 117.9917 106.6139 107.0047 107.2163 110.5234 111.4497 104.2922 109.6822 108.9757 113.8770 119.2500
110.4400 110.0478 109.7461 109.4933 109.4200 109.5207 109.7766 110.1744 110.6635 111.2169 111.8117 112.4178 113.0301 113.6422 114.2068 115.0597 115.8690 115.9403 116.4553 113.7498 112.1574 95.9759 105.9915 105.8555 105.6728 122.4997 119.8453 118.3372 120.5858 120.7391 121.1374 121.8106 120.7253 122.2519 122.3142 122.5969 123.1611 123.7509 124.3079 123.4977 124.0144 125.9887 124.9971 126.4864 125.5767 131.2898 115.3316 123.6605 103.5503 111.3451 112.0824 115.9426 114.5871 108.7693 105.8781 104.7853 104.6238 105.9467 112.6035 105.2656 104.8009 111.3699 113.1344 119.5100
109.1800 109.4881 108.4725 108.1741 108.0512 108.1944 108.5340 109.0444 109.6671 110.3449 111.0608 111.7665 112.4656 113.1469 113.7971 114.3021 114.8770 115.5560 116.0900 116.9236 115.0977 98.5700 97.4388 96.3593 97.5697 104.6156 120.6678 120.1686 120.3171 120.7278 121.0676 120.5941 121.1505 122.0016 122.3179 122.5462 121.4051 119.4041 119.4303 123.4822 119.3005 117.1296 119.5005 117.1028 118.2334 108.5269 109.2832 110.3448 108.9516 125.0959 114.3200 118.3196 101.2855 108.2074 104.4681 105.0190 104.6413 104.7724 107.1908 105.2633 105.7540 105.5789 114.1396 115.6100
107.9300 106.9017 106.8112 106.5403 106.4495 106.6338 107.1132 107.8024 108.5904 109.4386 110.2854 111.1202 111.9206 112.6720 113.3932 114.0750 114.7178 115.3610 116.0794 110.6451 114.1665 96.4623 102.1588 95.1405 106.9582 117.1393 120.0620 119.9091 120.2797 120.5852 120.8309 126.4008 121.5691 121.9840 121.9288 123.1355 132.2980 118.4483 123.2862 123.5003 122.3864 122.5816 120.8574 125.0203 124.0433 111.5770 108.1684 112.0185 111.8370 120.5657 124.1821 117.0246 113.1310 113.5780 104.1651 104.5826 109.3967 114.2468 104.1877 105.9125 105.3374 112.4352 115.1219 115.6000
106.3200 106.6670 105.1292 104.8399 104.4637 104.7471 105.4506 106.3996 107.4541 108.5056 109.5286 110.4940 111.3933 112.2291 113.0203 113.7530 114.4252 115.0906 115.7027 114.8579 116.8073 111.8324 92.6567 117.6716 120.6449 109.3048 120.4097 119.7228 120.2030 120.5442 120.7886 122.3893 121.4904 122.1855 122.9854 125.4440 127.7293 123.2391 123.0853 123.8736 105.4162 124.9430 108.2959 120.2330 122.9734 112.0511 103.8337 103.8686 106.4724 109.3342 111.0866 103.6041 110.2191 104.2761 103.9217 113.4054 119.2650 106.4658 105.2625 104.0527 113.5578 114.0914 114.3669 115.0300
106.0200 104.7307 103.3890 102.2219 101.8693 102.3610 103.5045 104.8656 106.2638 107.5829 108.8043 109.9112 110.9235 111.8518 112.6961 113.4740 114.1974 114.8783 115.4674 116.0436 117.4510 107.7635 107.4241 96.1412 113.6927 113.0033 118.7857 119.9152 120.1449 120.4823 120.8387 121.1756 121.1691 117.5111 111.1177 107.1873 124.4391 123.2040 118.3812 119.3502 99.5292 102.6891 102.5272 102.5599 104.1936 102.7043 105.5572 106.2781 107.9329 108.5286 107.9451 108.0581 109.0773 110.2514 107.3312 116.2321 111.8109 105.1318 112.6815 123.4270 123.4954 123.7361 124.5014 125.3400
104.2400 102.9844 100.8995 99.1021 98.2151 99.2162 101.1701 103.2376 105.0981 106.7307 108.1676 109.4072 110.5729 111.4873 112.4307 113.2488 114.0060 114.7145 115.2750 115.6088 119.9555 100.8761 97.5094 114.4574 93.3038 113.5040 119.1353 119.7947 120.1182 120.4662 120.7748 121.2243 120.7889 126.3183 116.3052 109.7178 106.6065 123.1321 115.9191 113.6248 114.3940 102.7115 111.2209 107.4923 132.8185 128.6372 118.0141 117.1422 116.5468 116.3473 116.5805 116.8939 118.2430 106.2966 107.7867 104.3998 104.5911 105.3174 111.5908 124.2624 124.2991 126.7457 107.0754 112.6100
103.8200 101.2857 98.1814 93.6967 91.7366 94.3500 98.6026 101.6602 104.0822 106.0328 107.6352 108.9692 109.8962 111.6572 112.1820 113.0848 113.8623 114.5753 115.9415 108.4638 112.7737 98.7779 96.0303 113.2388 119.9100 119.3664 119.3043 119.6710 119.6229 120.3725 120.9878 121.1304 122.6233 104.6392 108.9113 122.2862 123.7497 120.1714 124.0549 125.6809 106.5118 109.8939 106.5661 115.3746 112.7387 111.0917 102.8299 113.7657 113.8476 114.9869 109.3262 110.6300 103.1314 103.9881 111.9123 104.9147 105.2040 105.2200 107.3878 113.5881 113.9742 114.6790 116.6158 105.9700
101.6400 99.9886 95.4045 88.3355 86.0458 88.9739 96.2484 100.4593 103.4006 105.6066 107.2970 107.2701 108.6815 112.9233 112.0252 112.9833 113.7879 114.5291 115.4191 116.8629 116.9992 119.5322 109.1274 116.3378 117.8458 118.7297 119.2461 120.2382 114.9471 121.7606 117.2427 121.2577 121.1184 124.9539 112.1349 103.2358 110.7713 107.9971 113.8603 109.1079 106.2367 101.3230 104.5546 108.1683 106.3637 105.1205 106.2294 107.9550 120.4567 114.9198 112.0156 102.7152 104.3568 103.9420 113.1735 104.8398 105.2906 105.5315 105.5294 105.1958 105.1760 104.0172 113.5995 105.9700
101.4700 99.6604 94.5138 86.9741 84.4741 87.3921 95.5049 100.1581 103.2279 105.4750 107.2299 109.1171 110.4065 110.8750 112.0948 112.9699 113.7611 114.5135 115.3995 115.8150 116.0535 117.3534 115.8419 118.4477 118.5240 118.9213 119.2702 119.8655 116.5766 124.0280 112.2236 121.7908 117.6934 122.8177 111.4950 104.1387 110.6505 118.9757 107.4714 105.1524 99.3040 101.6357 102.9730 114.3337 116.6935 110.9922 111.5937 112.9347 120.6994 114.4630 112.1298 103.3082 104.4516 105.1452 108.0926 104.7283 105.3640 103.7507 103.8350 103.2526 104.4607 103.2528 110.6818 105.9700
103.6900 100.4587 96.2613 90.2529 88.1402 90.7695 97.1068 100.8547 103.6152 105.7276 107.4472 108.8335 110.1259 111.2363 112.1664 113.0201 113.8210 114.5457 115.5858 113.2070 117.1652 116.9998 113.9573 116.6155 118.4568 118.8293 119.2633 119.6629 120.3916 120.3389 121.3395 122.6955 125.8506 125.3355 111.5776 107.0276 111.2502 112.0031 114.4841 98.6562 108.0299 108.7106 105.1232 102.4575 108.3138 109.9755 119.9084 120.4076 121.6204 102.6389 108.4428 104.1329 103.5425 104.1893 104.7793 105.1104 104.6604 115.5846 115.0807 115.3557 114.8758 116.1041 116.9439 105.9700
103.6900 101.9796 99.1577 95.9265 94.5460 96.6016 99.6726 102.2669 104.4557 106.2885 107.8314 109.1750 110.3334 111.3712 112.2987 113.1513 113.8687 114.5700 115.3782 113.0484 118.7777 117.3191 110.3001 115.2572 118.5104 118.8625 119.3038 119.6860 120.0358 120.2538 120.4052 126.6840 117.4921 117.4716 108.7041 108.7175 110.3588 113.2968 103.3568 111.9862 119.0507 119.1234 120.5552 115.2985 120.9631 120.5955 119.1673 118.7530 120.1093 108.4203 114.4347 102.4703 104.3233 111.7068 102.3246 103.2560 106.3402 126.5029 127.5042 127.0938 128.7113 129.2152 118.0187 105.9700
104.1300 103.6405 101.8518 100.4996 99.8539 100.5894 102.1283 103.8950 105.5496 107.0597 108.4026 109.5974 110.6683 111.6389 112.5285 113.3492 114.0327 114.9532 115.3744 116.4287 116.5608 117.0138 118.1110 117.3781 118.6030 118.9143 119.3487 119.6897 120.0887 120.4461 121.1591 109.1278 111.2294 112.8058 101.9798 108.8047 109.3545 112.0357 113.5227 104.9882 105.8939 103.3737 112.6520 108.7926 108.2873 106.1102 118.4966 118.5380 119.4100 115.7170 121.2500 112.1482 102.2666 108.7559 111.9609 113.5146 108.6460 124.5673 124.2802 125.2799 125.6064 126.0298 107.3133 114.4300
106.3000 105.3345 104.1345 103.2838 102.9671 103.3730 104.2866 105.4853 106.7299 107.9465 109.0838 110.1329 111.1023 111.9919 112.8101 113.5899 114.4751 111.2559 115.7059 116.0242 116.7265 117.2224 117.6092 118.2655 118.6033 119.0092 119.4354 119.7943 119.9099 125.0739 108.1235 103.7707 103.2053 111.6653 110.7925 108.5465 112.1654 114.1386 104.9770 106.7238 99.5215 114.2072 106.5394 101.9130 100.7047 99.8859 118.3574 117.7560 118.3644 120.1581 120.3038 120.8747 118.8500 114.7931 104.8018 118.2172 103.1764 108.0341 124.0839 124.9971 125.4855 126.1686 119.4629 111.6200
106.3000 106.8579 106.0348 105.4727 105.2806 105.5253 106.1320 106.9703 107.9165 108.8793 109.8274 110.7335 111.5948 112.4063 113.1592 113.8746 114.5244 114.7438 115.6008 116.1185 116.5895 117.3638 117.8081 118.2451 118.6821 119.1012 119.4588 119.7877 120.7136 121.4473 101.8269 103.2752 107.2733 109.6719 110.7669 107.5141 109.5794 113.3356 104.2101 102.8337 101.1017 102.5905 102.5978 114.8672 114.4961 115.3748 118.3590 118.6559 120.2547 108.8091 108.9886 119.0747 107.3512 112.5421 107.2630 119.4092 103.9818 121.2639 123.4207 123.9999 124.1923 125.2304 111.5586 105.9800
109.2100 108.2164 107.6282 107.2478 107.1223 107.2646 107.6945 108.2956 109.0249 109.8059 110.5916 111.3728 112.1336 112.8598 113.5430 114.1894 114.8255 115.6452 116.4324 117.0160 117.9869 117.4206 117.9367 118.3935 118.7947 119.2100 119.6349 120.0862 120.1046 120.8863 116.6508 123.0308 107.5048 101.5069 110.0270 111.1304 110.4741 108.1870 101.5593 101.7921 100.5151 121.3353 106.2938 111.5168 122.0894 125.0342 119.9889 118.2604 115.3505 108.3534 103.5505 103.9349 104.1769 104.6709 103.8321 105.2668 104.3526 120.6071 103.3450 123.8265 130.3123 124.8252 110.1834 114.2900
109.2100 109.4316 108.9833 108.7205 108.5641 108.7353 109.0405 109.4973 110.0706 110.6971 111.3594 112.0216 112.6890 113.3322 113.9576 114.5625 115.1386 115.4460 117.5377 110.5083 109.4724 117.5591 118.1907 118.5228 118.9643 119.1076 119.7570 119.9382 120.7074 116.2671 103.7248 113.4633 115.9396 103.4363 102.4552 116.4125 115.2380 108.0839 101.5254 101.7658 101.9806 101.7402 102.6811 106.5508 124.0093 122.9186 122.7980 125.9896 119.1277 104.5456 103.9659 104.2083 104.4461 103.4118 118.5688 112.5295 104.8711 110.9552 118.4716 121.9793 123.6496 123.6082 118.2422 118.8000
110.3800 110.4505 109.9485 109.4144 109.8530 109.9910 110.2146 110.5752 111.0301 111.5395 112.1008 112.6751 113.2540 113.8312 114.4032 114.8565 115.4870 116.7048 113.5821 113.8338 118.1428 117.7057 118.2976 118.6923 119.5492 113.7463 119.1532 120.6015 94.3455 119.4041 104.3381 112.9644 108.6987 100.7596 98.6024 116.7610 106.5701 102.8480 101.2658 110.7720 114.2711 110.4538 106.4020 104.3344 122.4820 121.8529 109.3087 126.5142 110.0061 127.3581 100.6865 104.0073 104.2770 104.5696 104.1863 104.2429 107.8380 114.5052 122.2507 119.5178 118.5647 117.5395 120.2085 125.8000
111.4000 111.7322 108.8576 110.8890 110.8393 111.1203 111.2639 111.5463 111.9213 112.3609 112.8194 113.3097 113.8584 114.3532 114.7703 116.0032 117.6752 121.0311 111.6176 115.1350 117.3935 118.0252 118.4669 118.9739 118.7865 118.6528 101.5225 98.1793 99.7948 99.0916 98.3454 99.1044 100.1568 103.6852 104.5618 101.4011 101.6060 107.0534 100.5172 110.7690 112.5809 111.3501 114.7110 114.5299 124.0764 112.8871 120.1568 106.2182 107.9748 106.7733 106.2119 106.0743 104.9002 104.5849 104.9417 103.6472 122.2607 110.0868 103.2796 102.7520 126.2397 111.6233 127.4680 126.4100
112.3000 106.0531 112.6320 109.2389 111.9106 112.0805 112.2129 112.4352 112.7492 113.0948 113.2990 113.8559 114.0550 114.8396 116.0695 116.2884 108.1420 118.0939 95.7024 109.7066 118.0740 118.3597 118.6583 118.9594 119.4067 120.0938 102.0026 100.1509 102.8148 107.6674 103.6583 101.1571 103.5769 102.3401 103.6698 105.2168 106.0355 101.3787 104.2447 101.0559 100.4892 103.8212 111.3534 108.3363 110.0995 115.9085 125.1397 116.0381 114.5320 114.6589 98.1133 115.7200 107.3992 104.3808 105.0698 105.6213 106.1342 104.7695 106.3977 104.7838 123.4525 126.9334 125.6429 126.3100
111.7300 110.3106 108.7744 113.7564 112.6099 112.9891 113.0567 113.2449 113.5143 114.2968 107.7999 102.1990 113.0312 117.9996 108.9085 111.9697 110.2831 109.4898 110.8247 119.2461 117.6560 118.6068 118.9250 119.6867 120.0575 119.2697 115.3043 100.3988 98.4698 102.9667 101.5629 104.7664 108.2060 109.6631 105.0681 104.1948 104.3902 100.9062 101.0147 102.2204 101.0872 117.4239 107.5423 108.0050 100.8535 107.2881 109.3303 110.7011 116.1356 116.9929 134.6430 120.6974 112.0499 105.9414 102.7160 103.0767 119.1257 105.9247 104.1709 111.2103 108.9504 120.3831 122.5628 108.4200
95.0200 95.5116 107.3924 110.0439 113.6929 113.7740 113.8479 113.9896 114.2069 115.5596 111.1145 108.0920 96.4209 96.0958 104.9537 116.1098 118.4022 104.1868 118.7603 118.2783 118.4161 118.7721 118.9454 118.5896 117.3756 121.0825 129.3583 106.7393 101.8424 99.2238 101.0960 102.6043 105.1306 115.6995 108.8896 103.2360 107.6153 100.7222 102.1881 101.9739 102.8982 110.9856 114.5401 115.5184 116.3291 111.0221 110.6538 108.9572 101.2143 110.5661 108.9240 109.0076 124.3704 122.8558 115.2091 112.8001 119.2801 101.4041 114.2744 118.6154 121.1013 119.8086 121.6986 120.9900
114.5400 93.3247 92.3249 110.5728 113.8758 114.5451 114.5479 114.6774 114.8397 115.2174 96.8327 116.5654 103.3051 94.1657 109.8888 118.7323 116.8600 117.5896 117.8698 118.2925 118.7296 119.0384 119.6197 122.7816 127.9784 117.5469 115.4883 106.6963 105.7257 103.3532 104.0879 99.0429 103.6186 109.2498 112.2720 103.5859 107.1135 107.0052 101.3752 102.0583 104.1303 108.6669 110.4983 111.4224 115.0597 114.1234 115.3751 118.1251 114.5081 112.1373 112.4101 110.9363 108.2555 109.0203 112.7095 123.6080 125.5673 116.0643 123.0189 124.4955 124.1354 125.5052 126.3573 125.7800
109.6800 95.4491 92.1980 110.7636 115.7520 115.3205 115.2594 115.3919 115.3488 116.8146 115.2635 114.0154 91.8309 103.6309 104.1979 113.8724 119.2340 119.2223 117.7990 118.6415 118.9752 119.0840 120.6546 106.8005 111.5069 106.3601 107.1156 107.8634 105.2320 105.4010 107.6766 107.0580 109.3783 112.7849 110.7393 100.3283 103.6317 113.6329 113.8896 115.0601 107.2810 117.7455 106.7516 106.5466 108.6143 110.1943 113.1856 112.9813 116.4098 117.1716 117.3584 124.7907 117.8107 117.9377 101.5298 104.4022 109.2465 111.7415 112.1869 126.2458 126.5250 125.6011 124.5882 125.7400
115.3800 97.7126 101.1447 111.8740 110.9147 115.0798 115.6618 115.3807 116.8825 116.4050 118.1437 113.7397 110.1224 98.3425 102.6735 112.7093 97.9680 101.9542 119.9514 119.1476 119.2394 119.5326 120.3258 107.9237 106.6593 100.5701 108.0332 115.1763 111.4475 111.7868 106.1031 107.5432 110.9586 106.4636 102.3366 101.2579 103.2421 106.2156 107.5626 117.6994 114.5555 104.7993 102.7082 119.6227 118.2087 108.0877 112.0823 114.5347 114.5407 115.7457 105.0557 107.8028 105.3041 105.5592 116.4965 120.1588 110.4401 103.0030 105.8808 110.7118 110.7881 108.8683 128.0322 126.1100
102.0900 96.4421 107.6597 115.4142 115.1638 115.7696 116.3564 115.2760 109.4825 114.9798 115.3188 105.8945 121.1042 100.6864 106.0110 107.4478 105.8690 119.9697 118.1529 119.2991 119.4884 120.1388 120.0182 120.8412 99.5557 102.3991 101.8307 105.9937 106.7797 109.8316 120.6643 107.0839 109.3875 103.6693 102.9171 109.5601 115.7890 109.4368 111.2313 113.3514 103.5917 118.6523 100.3236 114.7495 120.7953 120.0442 120.6868 120.4328 108.4987 113.4299 103.3145 104.6056 105.6724 115.6026 117.0971 116.9528 123.7700 122.9931 124.2508 124.3562 115.7470 115.2967 107.7177 109.1800
97.6500 100.4618 105.8645 117.8035 117.0434 117.7512 106.9828 106.8554 103.7935 110.5078 101.4488 115.3821 119.6055 114.7280 105.9395 107.2337 118.3803 117.5543 119.4381 119.5200 119.7998 119.9385 120.5228 120.6045 120.1125 99.7442 106.1178 102.9177 105.8379 107.2763 111.3934 114.0435 110.5327 110.9968 116.4808 101.4918 113.6450 111.2030 116.0519 113.2690 110.1327 109.6490 111.7675 118.9714 119.7310 122.0731 110.5722 123.9217 123.4890 109.9384 103.6572 104.5921 104.6127 105.0923 104.6999 114.1712 105.3642 110.1667 118.4137 126.4161 126.0741 126.0796 125.9963 126.0800
98.9500 104.8630 118.8904 117.4380 117.8772 110.4556 114.0641 103.0118 98.1154 103.0422 116.2416 105.7178 118.3894 115.4054 101.0876 108.1225 114.5480 120.3305 119.4680 119.8282 120.1772 119.7001 125.0828 102.2488 117.0006 119.1406 100.1525 109.4230 106.4016 108.1238 107.9181 111.1122 114.8933 112.2484 112.6895 106.4615 99.0097 111.8590 112.7082 114.1296 110.0937 119.7844 119.5097 120.0861 114.4919 120.3494 119.1437 105.8349 104.5418 103.4720 103.9107 111.3147 104.4792 104.0277 106.9507 104.0829 105.3645 104.6274 118.8340 118.3878 118.1983 121.6791 127.0979 127.5800
100.5900 104.4509 118.8005 117.8220 117.8992 118.6705 102.9646 106.7721 96.7182 106.4099 118.3099 119.2595 118.6541 118.4383 119.0986 120.6988 119.2715 119.5942 119.9398 120.0653 120.5911 118.7552 109.5868 105.8255 99.1967 107.7336 115.6856 104.0714 109.8716 109.4912 108.2968 109.6229 109.4438 115.1120 115.4508 110.1084 102.5398 108.5533 112.6411 113.7113 114.3611 115.3735 117.9433 119.5497 111.4144 112.9723 102.0762 103.9489 110.0466 104.0827 104.4610 105.0122 104.3662 123.1649 120.6275 108.1546 112.0967 108.1681 105.1177 105.1796 105.8786 119.4980 118.2187 120.0700
118.6100 110.4616 119.1881 118.2860 118.5754 113.4246 113.1615 104.4072 96.0176 100.3615 102.9045 121.1251 117.1510 121.6106 120.7991 120.2536 119.6479 119.9911 120.1819 120.3977 120.6742 120.7045 120.7469 111.9258 101.2380 107.5266 106.2404 102.6136 110.1586 119.5535 111.4196 110.3994 110.2882 111.5658 111.6154 111.2930 111.2626 115.9314 113.5956 113.9197 114.1149 115.3644 116.2388 117.6264 110.1348 105.6573 103.4948 104.1810 104.0511 104.5049 104.6786 104.7297 104.7318 104.6089 103.4714 119.9229 106.6955 113.6420 107.4111 107.8702 105.2640 105.7231 108.5771 121.4800
119.0000 110.6874 119.7082 118.7462 119.1691 109.5701 100.1929 95.0092 100.5003 122.0619 100.6672 121.8003 102.6818 112.6804 104.0699 119.4245 120.0187 120.2827 120.4900 120.6907 120.8213 121.5212 118.9866 106.5912 110.8775 112.6571 112.9315 109.8803 103.0099 104.2196 112.0852 107.0185 115.0602 109.3099 103.1701 101.1587 116.9266 116.2560 116.2628 115.8188 119.8355 115.8504 115.3259 115.4671 105.9764 109.7525 111.4057 103.5806 103.8765 104.5631 104.8479 105.1134 104.7412 105.4693 105.5719 105.0155 106.3057 124.4107 107.6730 124.9805 111.0753 106.5166 107.4499 106.5900
119.3800 111.0769 119.7523 119.1910 120.0346 116.6014 109.4230 97.1390 99.4426 113.2932 102.1529 109.1855 122.0927 103.3165 121.5782 121.7185 120.3236 120.5940 120.7340 120.9433 121.1177 121.9124 106.0273 117.1643 105.0376 103.7405 107.6352 109.8239 104.7319 107.7050 106.4760 100.6827 106.9555 102.3006 101.6961 102.0063 117.7323 116.6628 116.7220 118.4102 123.6545 117.5552 114.0579 111.3802 103.0740 104.5156 114.3566 106.4787 112.0701 104.2735 104.7827 105.6794 106.8734 105.8317 106.1825 104.7350 103.6155 104.4483 106.3987 122.0507 114.3359 102.3131 117.3826 106.5900
119.7400 118.3215 119.4080 119.4951 115.0427 116.9048 96.0246 104.4687 101.7222 105.0841 105.6110 110.0257 112.5206 121.0073 120.6384 120.3746 120.7104 121.1756 121.2498 121.3457 121.1569 132.4876 120.0303 122.3160 113.0324 105.8003 115.5174 111.4026 114.5575 116.9095 109.6562 108.4791 103.0520 101.1791 100.7881 110.8794 106.5479 115.0675 116.2278 118.1754 118.1756 118.4732 104.7524 105.2470 103.6189 104.4232 101.3478 103.4972 110.6856 104.2078 104.9052 105.3796 105.8655 106.4136 107.3106 106.5559 120.3836 108.7648 106.4241 105.3994 105.7290 117.4841 135.0726 108.4600
120.0900 119.8383 121.2606 118.3746 122.4626 107.0983 100.8632 97.7609 100.8037 118.0336 107.9272 115.1896 120.5146 120.0252 120.7757 120.8980 121.3052 118.4814 121.3690 121.3199 121.3684 118.5886 112.3500 122.4171 122.7000 112.1973 100.5480 111.1322 113.1467 113.0806 105.3483 111.6743 111.8604 108.1640 101.8903 106.2398 112.2387 116.4426 116.5532 117.0452 117.7836 119.4945 110.0986 119.9276 101.4995 103.4560 103.7905 114.4499 102.6642 104.8003 104.9089 105.2283 105.2450 105.9426 106.6754 107.6858 106.0495 106.6553 108.3544 107.3535 126.0345 103.4217 115.3429 110.8900
113.0900 120.7857 104.2383 115.0543 102.7683 103.6921 106.4354 101.5439 104.8066 112.8828 120.9480 122.3229 120.5929 120.6830 121.0930 121.1721 121.4062 119.7885 121.9417 121.9459 122.0642 125.3052 106.5044 123.0941 122.3731 122.7518 118.3403 110.5866 113.1815 105.7230 113.6118 111.5584 110.9155 112.5269 108.8657 104.1006 108.3403 114.9120 117.1066 117.4463 118.8583 106.7981 108.5280 123.3253 119.7159 103.0769 114.7079 104.2862 104.6211 104.7166 104.9930 105.1338 105.3675 106.2544 107.0536 107.4760 107.9572 109.0652 110.1760 109.9749 114.8676 121.3124 128.1089 110.6700
113.6800 121.4982 103.8131 117.7870 112.2586 98.0534 107.7918 104.6662 102.6892 116.0452 120.8910 120.8611 121.1541 121.2621 121.3315 121.4796 121.5830 121.8924 121.8891 121.8804 121.6452 121.8845 122.9769 120.9723 125.5844 124.7896 115.8254 107.2785 111.0197 114.1827 101.9495 121.8651 111.8592 113.0018 113.5836 113.3611 104.5836 115.2172 117.7932 118.1131 119.0026 117.7951 109.2904 108.9211 113.8890 115.4910 108.5327 104.5600 104.2461 105.0506 105.1285 105.1473 105.5969 105.8467 105.5899 107.2248 107.7726 107.1888 109.0076 110.7025 111.1089 111.0497 115.4737 112.4000
99.0500 116.5422 99.6913 107.6233 103.2463 101.2497 108.3570 105.9302 101.7178 118.1161 121.4512 121.4691 121.4233 121.5197 121.6886 121.7457 121.8535 122.1008 122.1255 122.5768 122.0480 123.1663 122.4342 123.1954 120.9131 130.9774 121.8887 100.4993 113.0869 111.3747 114.3499 117.5592 126.4812 103.4407 115.7179 114.5309 115.0302 106.9115 111.4504 119.2827 118.8843 120.8819 103.4526 104.2279 104.4998 104.8331 103.4024 116.1699 107.6950 105.3051 106.0025 105.5980 105.6599 106.0301 113.9099 106.8397 113.3056 126.3277 124.9276 108.9473 110.8407 111.9119 112.9508 112.4600
99.3500 114.6562 97.7891 102.0856 99.0177 99.6794 109.7235 106.1595 101.8060 113.8982 121.9376 121.6113 121.7404 121.8349 121.8776 122.1466 122.5841 122.1529 122.4084 122.5203 110.2051 103.9610 123.4390 113.9822 107.1066 122.5791 110.0580 122.1578 122.4560 111.0561 119.6365 118.2250 117.4475 112.8257 102.1249 115.0591 115.2183 116.6317 112.6924 109.9255 119.3637 121.1260 109.7961 104.2856 104.3991 103.1536 105.1438 104.3777 104.3615 105.4231 105.9641 105.4679 107.8109 107.6724 107.7073 107.0208 114.2739 116.7650 117.9949 127.8267 109.2346 111.7784 112.1496 112.8600
100.4800 102.0963 104.0402 99.4789 99.3695 105.5088 106.1981 107.6455 102.9879 108.7996 120.8977 121.8025 122.0363 122.1107 122.2677 121.4704 125.9697 122.5430 122.6429 122.9611 121.7756 120.8726 117.6601 106.3030 119.0879 117.2665 112.5760 115.6374 116.0288 123.6105 124.4253 121.4552 102.1067 104.5565 114.8822 107.7811 117.4183 116.3043 114.4063 105.5719 115.5589 120.1362 104.6103 106.5726 102.1168 125.4698 104.9223 105.1716 102.9131 104.6551 115.4899 108.5814 106.5136 107.1165 109.1192 107.9216 121.1097 112.1321 110.6465 112.2687 114.6706 110.8387 110.4355 112.6600
122.1900 110.5417 106.8213 101.4133 103.7333 103.6649 107.3008 108.5947 103.3704 108.6634 121.5840 122.1864 122.3174 122.3886 122.4873 122.6113 122.6661 122.8846 122.9472 122.6425 123.4582 127.7546 122.3090 124.9759 124.0449 126.5513 126.4652 123.4786 125.1726 125.3073 122.1408 114.7127 112.6024 108.7217 110.9757 105.7933 117.9747 117.4840 110.2938 117.2039 115.2519 110.8628 125.0433 105.5268 104.5278 103.3661 103.6155 104.0658 123.7976 108.5151 106.1090 120.5738 103.7258 107.8185 109.2888 113.4298 108.4880 109.4828 124.9520 119.5910 112.4780 110.2210 105.8712 129.8300
122.4500 125.0237 112.4567 104.4157 104.4158 106.3798 107.0625 103.4098 109.2433 123.6170 123.2127 122.4270 122.5906 122.6602 122.7358 122.8029 122.9456 123.0423 122.9293 124.1654 117.0791 110.1647 111.7954 124.3525 123.9064 108.8955 116.7079 115.1075 125.2971 122.2473 107.5449 118.6316 125.8429 120.6074 102.7559 109.5493 115.4450 119.9312 119.6503 120.7939 106.3217 110.3130 106.4398 102.7200 104.6432 111.7809 107.1129 105.2643 104.2885 115.1068 114.7717 104.4782 105.2233 104.6206 125.2825 127.3713 111.3575 108.9284 111.9361 115.8760 123.9510 118.8733 114.6215 112.4700
118.7400 120.3383 112.5762 105.7384 105.3097 106.3322 109.0763 108.1120 108.9739 116.3449 122.5289 122.8135 122.8443 122.9144 123.0101 123.1022 123.1494 123.2707 122.9001 124.1614 104.9344 115.9307 113.9464 119.8106 129.6618 111.0448 113.4116 117.1426 125.6741 120.6008 123.8558 127.5003 110.1719 112.2664 111.8740 102.4693 113.3792 122.0711 118.6235 117.1372 108.1285 108.6659 104.1068 104.9758 105.2626 110.3210 106.1307 103.8701 105.0030 104.9548 105.4167 105.4440 114.3910 112.2443 126.2475 130.1887 125.1030 117.3913 121.0851 114.7900 118.6913 122.8403 125.0410 125.8200
122.9600 121.0101 112.2734 106.8979 105.8686 108.3700 109.1317 108.4693 110.3410 116.7105 123.3568 123.0808 123.1048 123.1764 123.2344 123.2796 124.0462 123.4986 123.4405 121.0816 106.6413 113.0429 109.2207 104.6730 114.1714 124.9319 126.5818 114.3617 121.0767 126.9075 124.7683 117.9684 105.1537 110.3018 102.8452 104.3378 103.5709 109.1303 118.2666 102.0489 103.4838 103.6445 104.7630 104.6943 104.1834 106.1605 111.2657 120.1099 103.7122 105.3644 105.8414 105.7830 117.5460 130.5979 129.4267 130.1568 131.5801 131.9249 119.1366 111.1875 114.6100 109.5438 121.9737 125.8200
120.8000 112.5542 111.6928 109.2611 105.9935 108.3612 110.1353 110.8899 111.3836 124.8807 123.1899 123.2945 123.3574 123.4132 123.5351 123.7703 118.9627 124.0589 124.0809 125.8721 124.1961 111.6042 114.7715 112.2761 105.6143 112.6927 108.1608 109.5301 109.5381 117.5600 104.4199 120.1856 112.0277 110.2095 107.7515 102.9928 103.7310 106.0755 111.8502 114.5995 103.9838 104.6801 104.7429 104.8350 105.4437 112.1044 117.2981 126.9246 123.1893 105.7999 106.6942 107.0384 103.5724 126.9360 126.6029 120.5974 133.0698 109.0177 112.9022 123.4043 125.0083 103.2193 113.9220 107.3400
101.4300 114.5216 112.6753 113.2581 105.6079 114.6175 110.4025 112.0147 111.9935 124.8175 123.4615 123.5558 123.5930 123.6834 123.5332 124.0479 124.0141 123.2762 120.8636 115.5356 124.4572 113.0776 117.8820 116.1902 108.7937 102.3222 108.0910 105.0575 103.1576 118.6144 113.2922 114.5380 112.2504 109.9409 111.5400 105.0789 104.0360 105.2341 104.9443 103.4204 104.9375 104.5779 104.8161 104.9685 105.1753 101.4186 118.0057 111.4594 105.5592 112.9993 108.4311 107.5539 107.1312 120.5743 123.3484 126.4802 127.8636 123.0174 123.7992 133.2768 137.0109 106.3149 111.9721 107.3700
101.6600 102.1748 114.9853 116.1998 112.1063 113.0448 111.8890 111.9731 113.2925 124.7942 123.6624 123.6426 123.9175 123.7829 124.9056 124.7444 125.6154 102.4490 117.5180 105.2392 127.8265 112.4128 112.2932 117.7087 112.0954 106.1181 106.0973 122.2444 112.4209 100.8608 103.2369 104.3982 104.4125 114.2893 108.6730 103.2789 104.3890 104.4991 106.0896 104.6643 108.9503 104.0066 104.9817 105.2715 105.2008 105.4927 105.3032 104.4417 108.0238 107.1991 105.7416 106.2401 107.9183 108.4480 116.7736 119.4038 130.2003 130.1059 129.4698 123.0195 129.8853 127.9604 131.9139 130.8000
101.8800 101.0091 116.8182 117.0778 109.6869 115.2782 112.2420 117.4248 120.8771 121.7497 123.1636 124.1379 123.9575 124.2377 124.0030 110.8416 126.6308 126.9223 115.6458 112.0334 127.9906 112.7350 108.6217 113.5940 111.5306 115.7015 126.1006 125.1363 124.8075 103.3684 103.7780 127.0978 107.5808 104.7218 104.1111 104.3389 104.4407 104.3983 105.4041 105.3664 108.8929 109.7271 104.0973 105.1047 105.0662 105.3633 105.7734 105.7819 117.3433 105.2263 105.8659 106.2889 110.1116 120.6545 109.9971 109.1046 131.9961 128.9827 129.3605 129.2934 114.2059 134.7288 134.4351 130.4800
102.1000 101.1103 113.7085 114.3664 114.4524 115.9218 114.2542 118.3668 119.6102 121.5500 124.7158 102.6720 125.6590 124.3714 123.5631 124.3442 122.7617 121.8008 108.2964 104.3661 120.7570 124.2661 113.7841 111.4860 117.8955 112.6329 115.4814 126.0879 126.6870 116.1769 105.3917 103.7153 107.4757 103.2900 104.6275 103.9613 104.5136 105.4347 104.4578 107.7684 123.3430 120.1307 122.9856 117.7192 105.7342 108.8011 121.5600 106.1207 105.5482 113.0805 105.6024 106.8337 102.5636 128.1322 126.3814 107.7163 124.6233 129.8361 129.9678 131.2332 130.3755 131.2333 129.6226 127.0600
102.3100 101.9719 113.7250 115.1657 114.1457 114.4689 114.7844 118.0038 120.9450 119.6904 124.3252 124.4200 125.1890 125.0323 117.2814 107.4442 115.6960 120.7719 118.9841 114.6486 118.5711 113.6224 120.5462 109.8898 113.0715 114.0077 113.0687 107.6865 114.8083 111.7708 108.6804 114.9771 109.0834 103.0468 104.2090 109.4797 116.4901 109.9492 104.3589 105.3516 107.5220 121.8581 109.9471 109.3520 105.0699 103.4340 125.3841 125.3791 105.7510 107.5376 105.6298 111.5893 106.1142 115.8910 129.4996 130.4603 130.3217 129.7654 130.6058 127.6192 130.9145 131.1251 131.6851 132.1400
115.0600 102.0354 117.5377 117.8139 115.5018 114.2822 121.5773 120.3001 121.4351 121.6527 124.7548 124.6565 124.6608 127.8813 106.6879 114.0707 117.1802 110.0375 105.5608 122.4494 116.5717 112.3535 128.9669 111.8823 114.2062 114.3336 114.5953 120.6719 119.9076 110.1522 103.6336 105.8524 104.4663 106.7931 103.9189 103.0939 114.1423 115.9225 107.8134 107.5361 103.9111 107.4554 112.7112 105.2636 105.6407 117.0081 128.4926 126.1459 129.7770 109.9256 116.0599 129.4465 127.3228 124.4902 129.2914 127.6342 130.0736 130.7435 129.4573 122.5042 131.6740 132.0528 134.4670 132.0200
115.6500 107.0685 118.1403 118.4283 117.2976 117.5809 116.9056 111.3174 122.7812 118.8844 125.0746 124.9593 125.0475 125.8620 119.9467 112.0088 114.4951 113.5694 107.2458 114.0741 123.1160 113.4622 111.4794 104.4146 114.4012 105.5306 113.2522 110.1784 102.3174 106.1809 104.8516 103.6639 103.5029 131.8881 130.2073 107.6210 107.9159 130.0633 116.5209 111.6901 106.9215 108.5121 107.1946 105.1204 106.1331 103.3642 125.2356 126.8999 128.6613 128.9049 128.1621 127.8116 127.3581 126.1454 127.5960 121.7578 120.5989 131.8887 131.0644 132.7720 131.3222 133.4341 123.3711 132.2500
118.0900 118.7510 117.7483 118.6669 117.9148 117.8869 123.6282 119.8122 123.3442 117.2155 124.4458 124.8807 125.2052 125.2202 121.7303 125.1220 108.2570 112.6205 113.7241 109.4970 111.2399 118.4706 110.7791 108.9134 120.2615 113.7999 104.7493 119.7920 111.7826 104.0192 104.4036 104.8825 104.8229 102.8491 103.0652 112.2073 118.9640 124.7498 112.0683 118.0416 118.1612 107.2914 105.5343 105.0156 118.7312 117.6947 117.6169 127.5400 127.1734 127.6597 127.8032 127.2860 120.5196 127.3901 129.2029 120.7297 104.6402 121.5865 129.4666 131.1800 131.4444 132.0030 108.5499 107.9000
118.0000 118.4940 116.2489 119.5103 117.9223 118.0610 119.2498 118.7462 119.0281 115.6178 124.9755 125.1894 125.4068 125.8663 122.3136 117.4072 117.9476 125.2957 112.9277 106.9200 107.2603 110.4584 102.1026 103.9003 108.9609 119.8212 114.0610 113.4230 103.8234 104.1365 104.6272 104.5239 103.5965 114.0009 109.2239 106.9891 105.3976 111.9821 110.9424 103.7977 104.8432 105.8951 105.3519 106.7025 120.8076 126.6887 120.3015 126.4212 127.8470 128.1323 128.8663 127.4624 124.7691 128.9051 128.7406 127.7607 108.3012 112.0853 116.4461 132.6831 131.8359 133.5767 116.4999 107.9000
112.6300 118.3571 117.9411 118.4469 121.2003 117.9615 119.2090 115.0767 118.0092 126.3051 125.6766 125.3823 125.5646 125.8188 117.9852 110.1883 117.2162 125.2698 114.6036 112.1652 103.5518 116.2087 115.6749 106.0577 107.8031 104.5263 117.0138 105.6906 104.4607 105.1129 104.8727 104.8649 106.1194 112.8650 106.4744 111.2379 108.6108 108.4044 106.6793 126.0048 107.1856 106.0018 106.5944 111.2971 109.4466 120.7816 127.4207 124.3827 128.9590 129.0451 128.9790 126.8592 130.2010 129.1238 129.2230 129.4729 134.7310 128.9085 119.3767 129.9399 131.9683 122.1527 126.1391 133.2800
119.7000 119.7618 116.4210 113.2937 124.7957 121.9476 126.2576 123.9338 117.5266 120.9569 125.7182 125.6946 125.7696 125.5507 124.9696 113.8020 114.7317 125.9225 116.8009 104.9949 112.2220 116.9003 116.9228 105.7579 111.5508 110.3166 104.0743 105.2580 104.5814 103.3032 103.7964 104.9214 104.1051 105.0697 104.7194 112.2091 109.6563 105.6419 108.8589 122.9700 105.1436 105.2911 104.6638 111.4787 111.1410 115.4639 128.8550 126.2501 129.7506 129.2815 129.1234 129.7080 129.6602 130.0013 129.9471 130.0550 130.2419 128.2727 134.0570 131.3942 132.3808 133.7773 110.4452 108.0600
120.4600 120.3743 117.8354 117.5303 122.1026 124.1494 125.8657 125.9921 125.7790 126.3076 125.7384 125.8939 125.9160 126.5821 127.7092 124.3555 115.0936 125.3248 115.1651 112.6262 114.4792 116.7526 117.5949 118.3723 113.6798 120.1736 103.8683 104.3503 104.6554 119.2756 110.8348 105.2135 106.5281 104.8962 105.9262 104.9968 107.0982 105.0492 106.3193 109.9510 119.7221 104.2680 110.4122 116.5742 111.1452 112.0486 114.2119 128.9229 137.3153 132.6273 130.1042 130.0066 130.0177 130.4699 130.9795 130.2527 128.0385 127.9434 129.6399 129.8583 131.6636 135.2831 124.2159 108.1600
121.0200 121.5689 117.3563 126.1555 124.8609 126.3220 125.9666 126.0119 126.0105 125.8122 126.9693 126.6743 126.2107 125.2983 115.9304 115.0521 116.4775 115.2996 116.6978 118.3391 116.6609 112.6637 101.5198 117.9906 113.7440 108.4504 111.9898 105.0570 105.3161 105.1656 111.5595 101.0193 105.7902 104.7355 108.6707 106.9085 112.0007 109.0273 115.8111 116.2394 111.3421 107.1515 113.5259 123.6537 112.6531 113.1495 110.7243 119.1704 134.9116 138.2390 126.3314 127.5594 130.5989 129.6629 128.8967 128.8818 129.9377 116.5557 121.2392 110.2260 109.0433 132.2219 107.6399 111.8000
104.1900 120.8057 114.3456 123.9476 126.1571 126.2329 126.1888 126.1992 126.2195 126.1021 125.5273 117.4694 124.9802 132.5987 126.6016 128.8431 121.2599 110.2591 109.4408 114.6922 108.5537 109.3924 109.0269 109.2500 102.3026 108.4602 105.7458 104.6302 105.4007 103.2362 117.5245 119.1141 120.5243 106.0261 105.6005 105.4334 110.7250 115.7970 105.7338 107.3890 116.4864 114.2060 107.3016 104.8231 122.0623 113.6503 115.9275 124.8477 120.4796 133.1765 131.0537 126.2240 131.2040 131.7795 135.8807 129.7616 131.8407 130.0747 129.1614 107.6879 108.8759 109.2278 107.9316 108.2900
115.9000 116.1015 127.3192 126.2880 126.3397 126.3610 126.3722 126.3834 126.3882 126.3034 127.0752 127.2635 107.5602 131.8601 127.1402 125.4365 117.4935 119.0185 111.7627 102.9714 112.7204 107.6686 104.5827 103.8805 108.5502 111.5335 104.8127 105.8328 104.1378 104.4311 127.8735 125.3571 126.7322 106.1050 107.2097 105.3259 106.4607 108.7555 110.1829 117.8367 109.7529 108.3227 106.0691 105.9520 117.1207 127.4984 115.1139 125.0672 130.4058 116.5654 133.5590 135.9688 133.7157 130.3608 136.2612 135.8746 113.8319 133.9670 132.7560 131.8931 132.5255 126.4225 106.7539 108.3200
126.5200 127.0493 126.3461 126.5223 126.5443 126.5401 126.5380 126.5593 126.5692 126.5718 126.5375 128.4193 113.3205 129.3817 116.4669 126.9162 118.3442 119.5805 110.7166 107.9438 123.4224 105.8916 105.2480 104.8527 122.2777 106.0085 105.8383 105.6492 111.4292 120.7436 125.6566 123.4507 125.6930 114.5844 105.5922 107.1533 106.7455 107.5159 106.7897 108.6081 113.0326 111.6233 106.8959 106.7420 105.0715 117.1767 120.8748 116.0111 122.7533 124.4925 129.5737 131.3588 137.5671 134.0883 130.9672 118.8187 127.9587 131.5628 132.7472 132.9029 135.2244 115.0000 110.9349 108.4200
126.6800 126.6443 126.7804 126.7138 126.7242 126.7065 126.7977 126.7197 126.7562 126.7642 126.8026 126.6758 128.5878 128.7425 126.3549 124.9913 108.8154 105.7019 112.8065 124.3580 114.3893 111.6630 104.3349 104.8443 105.6326 109.4516 102.9041 105.8133 108.0832 127.0997 120.3852 122.1730 121.4335 118.5126 103.6456 106.9345 106.9373 108.0096 105.6023 113.0921 113.4999 107.3893 113.4139 105.3401 107.0927 106.2625 126.7756 129.1890 117.6443 128.0887 128.6640 130.9518 135.9298 138.6853 139.6166 139.4443 132.6696 132.7473 135.0169 134.3905 126.7417 120.4808 107.0451 108.4400
126.8400 126.9125 126.8811 126.8868 126.8926 126.8786 126.1958 126.6812 126.8503 126.9373 126.9444 126.9648 126.4532 120.7624 111.7974 105.5673 112.4638 105.8530 104.8472 122.2009 117.0135 126.7804 101.3954 106.1549 106.1845 125.0667 117.7355 105.2831 104.8259 117.6976 127.1312 129.1868 125.2756 128.7845 112.8256 108.4702 107.7387 108.4823 106.6538 115.0838 108.6305 115.6119 107.7898 125.9629 106.9453 107.6662 129.8671 129.5263 120.5868 116.5278 128.5222 129.3719 129.5306 133.1799 131.1367 134.2585 134.1558 133.4731 139.8713 122.7452 111.2606 106.5729 108.7319 108.5500
126.9900 127.0000 127.0000 127.0100 127.0100 127.0100 127.0000 127.0000 126.9900 126.9800 127.1100 127.1100 127.0800 118.2800 114.0000 106.8700 105.2900 105.2700 105.3800 122.8900 110.3600 105.4400 105.5300 105.5300 105.6200 123.2400 105.7900 105.7800 105.8800 113.4800 113.4800 127.7000 111.6000 129.1900 129.1800 108.5700 107.4000 109.0200 110.3900 115.7400 114.6700 114.6700 107.9700 108.0400 107.0000 127.3200 131.0700 133.0500 133.4700 117.0300 128.5800 129.9300 130.3600 138.9600 139.4200 107.9300 133.3000 133.7300 134.1700 108.2900 108.3700 108.4400 108.5800 108.5800
