124.6500 119.0300 124.4100 124.4100 124.0800 116.8300 123.6400 123.4800 123.3300 123.2000 123.0100 114.6000 113.8100 108.1200 122.8400 118.7900 118.7900 109.0900 109.1500 108.2200 111.6500 111.6500 100.3700 105.9000 107.2700 109.9800 105.0500 104.9800 108.4300 108.6600 108.6800 105.7000 98.8000 120.8000 105.6900 120.7500 120.7300 120.9800 120.9500 121.1800 121.1300 121.3400 121.5300 121.5300 121.7100 121.8800 121.8300 122.0300 122.1800 122.3900 122.5200 122.7200 122.8500 123.0300 123.1700 105.7000 123.5100 112.9000 111.3000 112.3000 102.2400 118.2600 124.6700 124.6700
124.6300 121.1831 125.1140 124.7386 123.3530 119.5485 117.5611 120.3210 123.4057 121.0754 122.2841 118.1973 109.0002 113.4865 120.0102 116.2947 125.3778 113.1656 108.2210 111.3661 110.3392 106.2833 108.3948 107.7477 108.2632 106.8200 105.7075 101.0479 106.8463 103.1449 107.6457 101.9337 103.9717 106.4461 100.4049 122.8860 102.4347 108.7961 99.3426 120.6670 113.9186 121.4071 128.3569 121.2503 121.4640 121.7745 120.0633 123.3534 121.7335 122.2538 122.3858 123.9872 123.8559 123.7037 125.6426 105.9456 119.3414 114.4466 108.9508 117.0088 112.9206 123.4666 124.6359 124.6500
124.6000 122.5368 119.7752 118.2361 124.7124 121.3097 115.8945 115.5906 118.5377 118.3655 112.1845 112.4183 102.7333 112.3872 119.6235 120.0970 117.9629 120.2407 113.5831 113.0279 107.6058 97.8326 108.4603 109.1785 110.5751 107.5480 101.9051 107.6056 104.4040 109.0691 108.1676 111.6997 99.1212 123.6488 120.7903 100.1102 107.1544 102.2336 122.5604 120.6494 120.3582 120.5317 120.9234 120.8099 121.1117 121.0355 121.7022 123.7241 121.7875 121.9992 122.2549 121.4946 122.2568 113.1359 108.7910 109.0123 107.0703 106.6015 112.2293 112.7790 118.0614 124.3459 124.3366 124.4200
124.3500 122.1576 117.2289 116.1563 120.8800 117.5738 115.4893 117.9871 116.5427 121.6534 121.7074 119.1225 114.0869 107.1343 118.4700 119.5133 120.6966 121.6020 112.3641 114.2673 108.8741 101.6409 112.5847 108.5019 106.3797 108.2353 113.3037 111.3282 106.4685 107.1038 103.7900 109.9785 100.0610 117.5003 116.2284 118.8346 118.9051 117.7776 118.3779 120.1976 115.1428 120.4314 120.9712 120.9536 120.9050 123.0919 120.7764 121.4573 121.5739 122.0196 121.9956 121.7711 125.1630 101.8313 112.3857 110.6869 106.3887 114.8406 116.0993 112.3811 125.0808 123.5666 124.3483 124.4100
121.4600 121.6751 115.8829 114.8867 110.2140 115.5231 117.7553 116.8786 114.9862 116.3200 120.0216 124.5685 121.1034 118.4668 118.7341 122.6369 121.6419 121.5489 109.7474 108.1028 106.0686 110.1429 108.5098 107.5889 106.4329 102.8109 107.8501 104.8718 100.8361 105.7492 105.7120 112.5065 120.8975 119.3896 121.6869 98.2991 120.5027 119.5702 119.6451 120.0388 119.1611 120.2532 115.2446 118.2107 110.4858 110.4466 121.0200 121.1280 121.1957 121.3459 121.2546 120.4450 107.0424 106.1153 107.9637 107.9312 103.6115 107.9464 109.0240 107.7563 122.7411 123.5292 124.3273 124.1500
124.0900 123.8288 119.0682 115.0260 108.4742 115.3930 116.6342 116.6141 116.6252 109.4897 117.3041 112.7253 102.6115 103.9240 116.8599 113.1919 116.3377 121.1416 118.1895 113.4178 107.8168 109.4043 102.6500 107.5715 106.8348 102.4844 98.9254 97.6554 99.3180 104.9333 102.2854 119.9167 115.1481 118.6131 119.6433 119.3251 118.9062 119.2857 119.2317 119.4282 119.5976 120.0425 119.7586 120.0953 112.5594 122.2800 120.2759 120.8599 121.7137 120.8966 126.2956 111.6402 101.4644 103.3012 102.2285 111.6273 105.7380 111.0402 119.0235 121.7737 123.4242 126.2513 106.5004 103.5100
123.8900 123.2633 119.2493 119.6653 113.6617 114.9626 113.4455 122.4810 118.4964 120.6873 113.5437 121.1319 98.8932 101.4780 123.0284 119.0883 119.8944 120.1577 121.2394 118.2118 104.2319 107.1952 105.5745 106.9584 106.8520 101.7784 96.8228 99.3975 96.7837 101.1819 106.6844 116.7022 113.8409 120.3390 98.8136 120.7884 118.2287 118.8285 119.0025 119.1011 119.2906 119.2696 119.1514 120.9049 116.2275 120.3823 120.2262 120.4740 122.2395 106.0598 97.2699 100.7720 104.6119 102.3337 117.7680 101.4745 104.7723 101.7520 124.3885 123.9662 115.0899 117.3047 116.6494 110.5200
115.3700 121.5684 112.9463 114.5112 114.2442 113.9266 113.5141 113.9631 116.3376 124.0762 119.4856 117.2293 111.1873 100.4972 102.1642 123.4694 120.1199 120.2141 119.6174 119.5361 121.5729 109.8336 103.9132 103.4988 105.1341 115.5359 96.2785 98.1818 96.1647 104.9317 122.9485 118.9038 118.7761 119.4862 111.4875 119.4865 118.1008 118.3999 118.5493 118.7054 118.8566 119.1071 119.0632 116.1492 119.7383 119.7965 120.1523 120.3620 120.4088 118.5037 105.0299 100.5654 108.9788 123.6807 106.3754 108.3555 111.0843 113.4262 123.6697 123.0643 123.4508 123.3274 123.5224 106.3200
117.0400 118.3016 112.5378 114.7684 113.7386 114.0048 113.6657 113.7890 114.0172 116.2151 118.5207 112.1685 113.4750 107.4078 96.4315 106.0191 117.9002 120.3091 110.3291 98.3210 99.7006 105.6151 110.9428 97.2651 101.0037 117.5281 103.3403 109.3368 121.9293 100.4663 117.9666 117.1794 117.5447 118.4932 108.0941 117.5119 117.8976 117.9729 118.1250 118.2921 118.4774 118.6073 119.3130 116.0428 121.1783 119.4599 119.7761 119.9717 120.1989 122.6422 112.5756 102.8755 120.5185 122.4506 117.8513 108.8198 110.7204 108.8480 123.7869 122.6264 122.8647 120.1552 113.4952 127.8000
114.6700 114.7945 117.5272 113.7804 113.2510 112.7323 112.7557 114.1509 115.2112 113.3836 111.6005 111.3482 111.3764 111.4891 110.0404 106.7772 121.0425 121.3219 110.5888 119.1380 120.7550 115.5283 101.3073 97.9788 98.7201 120.0013 113.0929 118.1329 116.9696 117.1506 117.2078 116.9081 117.1438 117.5824 118.1111 117.2107 117.3794 117.5214 117.6797 117.8590 118.0555 118.3217 118.4182 118.6776 118.9975 119.0031 119.4953 119.7317 119.8494 116.6453 111.8385 120.4263 121.4040 109.7535 100.4772 108.3716 105.2930 123.9764 122.3993 122.7752 122.8911 124.3020 120.3121 101.5900
115.1900 115.4419 114.4525 117.0451 118.5533 113.5419 108.9154 110.0392 113.8664 116.5385 115.2749 109.7203 111.2201 110.1212 109.4041 112.7027 118.3842 114.8210 113.0487 121.7469 117.8126 113.5934 103.7406 99.8005 102.5605 124.2214 116.8339 117.2150 116.7673 116.5858 116.5341 116.5132 116.5294 116.4779 116.2950 116.6722 116.8925 117.0359 117.2081 117.4180 117.6536 117.8547 118.1325 118.4014 118.6665 118.9213 119.2008 119.3576 119.9172 122.5881 120.4199 120.3782 124.7460 107.5405 108.2393 99.9363 100.6862 122.6200 122.0674 122.5781 122.8524 122.8587 123.7551 123.5400
113.1600 113.6514 114.4812 115.9926 117.2226 115.1477 110.4964 112.6340 107.3985 114.4151 114.2193 110.7405 109.4485 109.8717 109.7821 106.8269 119.6913 117.9589 96.2719 115.0217 118.2861 117.0093 108.4471 100.4914 103.9000 105.7802 116.2449 116.4207 116.1746 116.1103 116.0213 115.9681 116.0088 116.1763 116.8690 116.2085 116.4083 116.4748 116.6467 116.8974 117.1397 117.4685 117.7228 117.9977 118.2836 118.5821 118.8640 119.1546 119.4031 119.6665 120.2470 116.9427 109.4551 107.8387 107.2446 104.1759 111.3712 122.4634 122.1997 122.4268 122.7233 123.1401 119.5158 123.2000
115.9500 114.6733 114.1934 116.9952 113.7378 109.6285 110.2140 107.4027 106.2939 108.5134 101.1959 109.7492 111.3565 109.1825 106.6716 106.2428 110.0093 104.7558 104.0642 96.8240 106.1296 110.5302 113.1617 94.6357 114.0764 113.8508 116.2239 115.6689 115.9559 115.4649 115.3963 115.4392 114.9982 111.0771 108.7071 115.5780 115.8471 116.2074 114.9873 116.8398 116.6482 117.0278 117.3183 117.6239 117.9413 118.2543 118.5603 118.8968 119.1851 119.0568 119.6641 118.0206 106.7260 104.7461 98.7445 115.4151 112.9498 122.2059 122.0663 122.3156 122.5368 122.6667 123.8843 105.6300
115.9500 119.1989 117.0959 116.5450 109.9445 109.5534 108.5069 108.8771 109.0362 110.2411 107.7036 105.5088 106.3442 109.6318 107.2575 111.5626 111.2425 103.7295 104.8602 101.0371 103.2673 111.8917 116.9848 115.2914 117.5956 115.7586 115.4749 116.1009 112.2841 115.3363 114.7314 114.7051 114.6162 116.0140 117.1428 114.5793 115.2968 115.5411 108.1361 114.9987 116.1686 116.5779 116.9067 117.2430 117.5790 117.9181 118.2646 118.4866 118.8934 120.5787 118.6726 114.7385 119.7407 116.8544 111.4184 121.9040 119.6511 121.5461 121.9507 122.1670 122.6126 122.6826 130.3800 105.6300
122.9800 120.3706 112.8095 113.3931 110.7879 110.1144 108.8185 109.1341 109.4000 111.1450 113.5424 109.7686 105.6749 105.8497 107.7079 109.5268 109.6455 95.6997 113.4510 103.6640 101.4815 117.4611 116.3550 115.5998 115.2604 115.0850 114.8999 108.7549 105.0668 114.2011 114.0359 113.9872 113.8291 111.6312 111.9725 114.5094 114.5347 114.7578 115.4248 115.9383 115.7213 116.1406 116.4843 116.8524 117.2216 117.5801 117.9565 118.2456 119.6004 110.6417 101.1434 122.8468 119.5652 121.9018 121.2031 119.4378 121.9063 121.5359 121.7692 122.0620 122.5087 120.1125 128.0550 106.3700
113.6100 123.3332 123.8923 122.1058 110.1820 110.1979 110.3787 105.7530 107.8787 109.0669 109.1726 107.2806 108.1858 107.8495 105.9625 104.9472 100.3785 100.1533 99.1867 106.9951 106.2162 116.8323 115.3702 115.4000 114.8848 114.5578 114.2860 113.7912 115.1629 113.7163 113.2702 113.2048 113.2499 113.4860 113.4206 113.4512 113.9404 114.2005 114.5297 114.9076 115.2376 115.6753 116.0525 116.4592 116.8616 117.2586 117.5355 119.0438 111.6070 115.3013 106.2001 119.9493 119.7575 120.1891 120.1638 120.6770 121.0795 121.3666 121.6523 121.9556 122.2473 121.5299 122.9042 131.7900
122.7200 122.8841 122.9157 115.5042 109.4949 112.9284 111.5425 109.9811 110.1453 108.7675 112.4038 106.8722 109.3471 111.0623 107.7344 102.1852 104.1082 96.9287 98.8265 97.1729 109.0033 115.3387 115.0066 114.7629 114.3298 113.9171 113.5200 113.1641 112.5853 112.5343 112.4464 112.3355 112.2419 112.3585 112.5685 112.8650 113.1456 113.5102 113.8968 114.3118 114.7519 115.1859 115.6257 116.0678 116.4977 116.9224 117.3531 117.8203 117.7110 118.8953 118.6498 119.3320 119.3908 119.5938 113.6211 121.8499 121.0451 121.2118 121.5442 121.8314 122.0960 122.3732 122.4978 122.7300
122.6900 123.5684 113.8429 117.1877 110.1808 107.3950 106.3511 108.3959 113.1803 108.6540 111.1211 108.5871 109.9777 110.3065 108.0385 104.4889 104.3735 100.3496 107.1827 97.8105 103.5296 116.8606 114.7345 114.2268 113.7514 113.2726 112.8209 112.3984 112.0644 111.7317 111.4967 111.3958 111.4239 111.5198 111.7172 112.0067 112.3812 112.7968 113.2505 113.7279 114.2149 114.7133 115.2004 115.6778 116.1500 116.6083 117.0658 117.4527 117.8538 118.4265 117.7314 128.5724 117.9357 120.3368 120.4044 120.3293 120.8187 121.1317 121.4289 121.7223 122.0147 122.2751 122.4594 122.6900
122.6500 122.3745 121.2470 116.8345 109.3115 110.2112 110.1913 108.9153 107.1163 108.6514 107.6004 108.5114 105.1129 105.5822 107.5539 113.6653 105.6868 104.7487 110.2474 106.6172 106.5308 97.6957 115.7945 113.4329 113.1929 112.5978 112.0675 111.5674 111.1154 110.7428 110.4745 110.3279 110.3205 110.4624 110.7284 111.0959 111.5474 112.0462 112.5816 113.1254 113.6824 114.2357 114.7673 115.2937 115.8111 116.2972 116.7750 117.2503 117.6902 118.2865 118.3054 119.0120 122.9925 117.4267 120.2185 120.4334 120.6841 121.0118 121.3234 121.6252 121.9208 122.1927 122.4752 122.6600
122.6300 122.5343 121.9890 122.6868 112.8477 116.8373 110.6913 110.5327 111.6604 110.3982 108.2392 109.4659 108.7725 106.6545 95.9887 103.0806 101.3787 107.3301 115.3183 109.7133 107.7211 105.0338 113.5602 113.1909 112.5308 111.9099 111.2799 110.6755 110.1272 109.6512 109.3018 109.1165 109.1143 109.2981 109.6310 110.0987 110.6546 111.2473 111.8800 112.5109 113.1383 113.7593 114.3527 114.9263 115.4832 116.0059 116.5004 117.0209 118.0358 118.6986 118.3922 119.0487 99.8101 106.9538 120.7516 120.2409 120.5777 120.9156 121.2289 121.5439 121.8338 122.1281 122.4058 122.6300
122.6000 121.9979 122.8065 122.1222 122.5638 121.8629 122.1220 114.9009 107.5804 109.0455 108.3735 110.0278 105.4084 117.9968 103.8076 104.6099 102.4523 112.8909 115.7776 116.3414 116.7386 115.8691 113.3046 112.6587 111.9342 111.1921 110.4596 109.7156 109.0278 108.4264 107.9657 107.7093 107.7045 107.9518 108.4037 109.0024 109.6912 110.4251 111.1685 111.9323 112.6381 113.2929 113.9490 114.5785 115.1714 115.7330 116.2687 116.8338 117.2941 117.5622 118.3404 119.6331 122.2943 120.9549 119.6839 120.1331 120.4836 120.8247 121.1533 121.4629 121.7626 122.0587 122.4061 122.6100
122.5800 114.9805 119.0200 118.5480 118.8441 115.7866 121.4024 117.3946 108.7086 109.6726 108.6913 110.6095 108.1810 114.6528 109.2545 105.2350 99.4684 105.6051 117.9522 112.7731 113.9616 113.2883 112.8595 112.1359 111.3437 110.4935 109.6094 108.7530 107.8370 107.0220 106.3981 106.0328 106.0180 106.3736 107.0019 107.7941 108.6748 109.5684 110.4447 111.2873 111.9333 112.8753 113.5742 114.2564 114.8923 115.4923 116.0522 116.5824 117.1146 117.6349 118.1337 117.9418 118.2823 119.0486 119.7532 120.1036 120.4210 120.7442 121.0767 121.3937 121.7053 121.9973 122.5334 129.5100
114.2800 117.2687 115.2350 110.6228 114.4412 106.3937 110.8120 107.7939 108.3164 108.7154 108.8768 107.2075 107.5324 112.9766 106.9456 112.2722 107.6158 109.8385 116.4837 111.1407 114.2845 113.3564 112.4973 111.6642 110.7703 109.8394 108.1884 107.6705 106.4556 105.4064 104.5103 103.9531 103.9393 104.4769 105.3908 106.4887 107.6122 108.7186 109.7725 110.6767 114.2586 112.1855 113.2565 113.9654 114.6377 115.2686 115.8633 116.4232 116.9371 117.3842 117.5384 118.1546 118.4760 119.1234 119.3626 119.6804 120.3109 120.7191 121.0414 121.3389 121.6496 121.9442 121.9455 122.3500
106.1100 112.5334 111.4818 112.0031 111.6431 107.1586 106.9331 108.5286 112.0945 108.6802 111.5206 106.4548 104.7542 102.8123 105.3179 113.6698 116.0413 111.6435 116.0809 112.4612 113.8899 112.9833 112.1533 111.2617 110.2159 109.2663 109.3446 104.6058 104.6678 103.6404 102.1786 101.2331 101.2095 102.1139 103.5676 105.0874 106.5526 107.9017 109.1234 110.2577 113.2840 112.0075 112.9534 113.7176 114.4314 115.0879 115.7106 116.2770 116.8616 117.4662 119.6638 119.9980 120.5010 118.9811 120.3725 120.5620 120.2497 120.3512 121.0184 121.2906 121.6051 121.9456 122.2001 122.3400
111.4300 110.7973 102.1663 106.2036 110.2714 109.1002 107.6310 108.3752 114.3858 108.0937 108.8247 108.1968 99.8537 98.6508 105.5419 97.9783 109.9224 110.5832 111.7373 114.5891 113.5670 112.7777 111.8868 110.9303 109.8017 108.4609 106.7591 105.0097 104.1668 101.5478 99.3680 97.2674 97.1852 99.2757 101.4784 103.6976 105.5622 107.1746 108.5621 109.6834 110.6222 111.8641 112.7215 113.5221 114.2627 114.9425 115.5298 116.2336 116.6005 117.8062 106.4406 105.5889 105.0915 128.1957 107.6533 119.8474 121.5333 120.8560 121.0585 121.2545 121.5718 121.7012 122.0087 122.3200
110.3900 110.6482 109.3960 112.4678 109.2734 108.6150 108.8410 110.8619 110.4786 108.5993 109.1031 107.2102 108.3173 109.2364 98.5840 101.1355 117.7701 112.6836 113.6293 114.2916 113.4151 112.6051 111.6913 110.6953 109.5521 106.8387 118.9723 103.5592 102.8949 99.5825 95.3236 90.7689 90.6181 95.0721 99.4568 102.4582 104.7541 106.6141 108.1558 109.4980 110.6616 111.6418 112.5611 113.3897 114.1501 114.8325 115.7267 116.3527 115.6064 119.9881 107.2846 100.5636 111.6350 118.8110 116.5028 119.9086 121.2800 120.5026 120.9017 121.2178 121.4854 123.6944 121.9942 122.3200
110.4100 110.3588 109.1374 110.7452 108.2907 109.3832 108.8489 107.5152 112.7514 108.9575 106.2120 105.3086 101.8035 98.0066 105.4972 106.5103 115.5924 117.7984 114.7956 114.1753 113.3703 112.5088 111.5839 110.5472 109.3574 107.9689 107.6455 104.1739 101.8710 98.2417 91.3542 85.8127 85.6062 91.0100 98.0456 101.6771 104.2875 106.3030 107.9283 109.3083 110.4910 111.5406 112.4812 113.3106 114.0830 115.1936 113.0202 118.2441 112.0090 103.4280 105.8020 104.1631 114.9206 120.4110 119.6249 119.7950 120.1093 120.5195 120.9130 121.2384 121.4988 121.9805 122.1263 122.3100
110.0200 109.3641 109.1213 110.2321 108.3301 109.9050 107.3712 104.4658 109.6596 108.5913 105.0056 106.8925 103.5853 96.5376 104.7726 107.9144 115.2376 118.9571 114.5267 114.1869 113.3691 112.5157 111.5897 110.5438 109.3572 108.0355 106.3092 104.3702 101.7770 98.1655 91.0648 85.7666 85.5356 90.7514 97.9782 101.6502 104.2650 106.2806 107.9201 109.3029 110.4948 111.5422 112.4739 113.3131 114.0796 115.0566 113.1912 119.1192 111.1034 100.9724 105.2901 104.5389 114.2612 120.0752 119.3253 119.8087 120.2120 120.5470 120.9713 121.2049 121.5567 121.8439 122.1494 122.3100
122.3100 121.9674 121.2152 112.9331 108.1825 108.5413 109.2954 111.5434 114.3841 106.4703 105.9388 105.6061 103.7089 102.7668 101.8602 102.9671 100.7441 113.3385 110.6613 114.4188 113.4555 112.5734 111.7186 110.6538 109.5157 108.1839 106.6367 104.7807 102.4732 99.4194 95.1950 90.2862 90.0322 94.6623 99.2793 102.3664 104.7049 106.5694 108.1301 109.4531 110.6171 111.6399 112.5487 113.3917 114.1011 114.4565 115.4256 98.3513 112.4704 104.1874 107.4839 107.9980 113.6124 119.5612 119.2611 119.8184 120.2754 120.6162 119.8725 120.2988 121.5150 121.8612 122.1595 122.3100
122.3100 121.9270 122.0655 116.3783 114.0850 117.0117 107.8142 113.4679 112.9477 111.8457 109.6636 103.0384 104.3937 106.3853 99.1648 117.0968 116.2882 115.8682 115.2711 114.2679 113.5236 112.7182 111.4304 110.8983 109.7940 108.5833 107.1815 105.5565 103.6508 101.3979 98.9266 96.7152 96.5761 98.8644 101.2815 103.5680 105.4801 107.1152 108.5266 109.7677 110.7595 111.7451 112.7056 113.5098 114.4437 116.2104 114.7881 115.2765 116.1427 101.0343 118.5396 104.2822 117.3421 119.2695 119.4760 119.8452 120.5443 119.3960 120.3527 107.3321 122.7852 121.7694 122.0811 122.3100
122.3200 122.0371 121.4805 113.4269 113.7361 109.2101 110.2586 110.4375 108.1484 98.9086 113.9761 95.2718 107.4779 111.8479 116.5380 116.3132 115.7863 115.5594 115.0214 114.4682 113.7583 111.8711 114.3130 111.1891 110.3025 109.1060 107.8877 106.5265 105.0247 103.4467 101.9533 100.9058 100.8821 101.8599 103.3820 104.9645 106.4543 107.8272 109.0547 110.1957 111.2961 112.3249 113.0551 113.6361 115.5657 113.9698 114.5338 107.4476 104.4216 115.2184 117.0833 111.5600 119.2281 119.0520 119.5104 119.9055 120.2469 120.7864 121.3619 123.4377 122.1204 121.9571 122.7403 122.3200
122.5400 122.1715 122.4570 122.6410 123.0623 123.7191 113.5629 112.2867 110.1711 107.0709 110.6461 99.9670 114.8909 106.6715 118.6683 113.3493 116.8464 115.8419 115.2988 114.6270 114.1528 113.9339 117.3834 111.3083 110.5433 109.7415 108.6932 107.5712 106.4198 105.2781 104.2973 103.7071 103.6880 104.2717 105.2317 106.3523 107.5204 108.6432 109.6924 110.7380 111.7603 114.0379 112.9743 116.4559 111.6144 98.7892 116.8298 118.2709 110.3277 118.7300 117.0331 115.1612 118.4189 119.2621 119.5950 119.9698 120.3358 120.6567 120.9323 120.8776 121.4730 121.7744 122.5456 122.5400
122.5400 122.2748 121.8427 121.4097 120.5324 117.4420 111.7222 113.8481 110.7951 110.4220 109.4428 98.7907 112.6802 103.8350 118.7331 108.0164 117.5758 115.9701 115.4577 114.8983 114.2969 112.7480 111.8824 111.5406 111.0013 110.4391 109.5405 108.6007 107.7145 106.8832 106.2188 105.8380 105.8280 106.1933 106.8482 107.6826 108.5750 109.4909 110.3930 111.2389 111.8522 112.6006 112.5474 116.8486 93.5971 108.1982 118.2606 115.5357 125.2826 112.8151 118.3877 118.7918 118.7753 119.3266 119.6742 120.0461 120.4011 120.7476 121.0833 121.4516 121.7612 123.3718 122.4830 122.5400
122.5800 122.3284 122.0518 122.1901 107.7681 113.4646 114.1298 106.4543 109.6404 109.6517 106.4511 102.2454 104.3446 98.3851 105.7641 105.4001 117.9275 116.5433 115.7875 115.1593 114.5699 114.0418 113.3662 112.5987 112.0320 111.1171 110.4354 109.6318 108.9190 108.2934 107.8183 107.5466 107.5397 107.7958 108.2700 108.8933 109.6019 110.3460 111.1014 111.8409 112.6321 113.2645 112.6681 103.1975 118.9523 114.3187 106.9290 117.1337 121.8311 113.5716 118.7960 118.4794 118.9493 119.3882 119.7755 120.1353 120.4785 120.8228 121.1380 121.4425 121.8051 122.3199 123.4646 122.5700
122.6000 122.4984 121.9617 123.2272 110.2401 116.6536 112.7810 111.4925 113.3367 110.2267 105.1081 103.1848 105.0638 102.7500 111.8661 118.1025 113.9818 115.0614 115.6557 115.4899 114.9226 114.3156 113.7114 113.1003 112.4788 111.8359 110.8805 110.5882 109.9953 109.5413 109.1762 108.9790 108.9782 109.1690 109.5126 109.9967 110.5574 111.1695 111.8169 112.4617 113.1080 113.5379 114.4184 108.2618 114.3399 116.3317 110.7148 102.1667 114.7883 117.4458 117.8388 118.8048 119.1375 119.5175 119.8834 120.2411 120.5779 120.9111 121.2233 121.5388 121.8283 122.0907 122.1830 122.6000
122.6200 122.0160 122.4358 112.5903 112.7444 110.4073 107.9000 109.1211 108.1671 103.7923 109.4163 99.5016 112.8166 107.8600 116.3450 117.2884 116.8863 119.4170 116.1229 115.8180 115.2845 114.7566 114.2121 113.6543 113.1391 112.5069 111.8449 111.2290 111.1017 110.6333 110.3640 110.2100 110.2120 110.3529 110.6218 111.0004 111.4602 111.9698 112.5193 113.0726 113.6262 114.2329 115.1346 116.7479 116.0362 103.7554 103.0359 94.8198 115.0514 113.8878 119.4295 118.7493 119.3242 119.6471 120.0045 120.3518 120.6880 121.0033 121.3217 121.6219 121.9155 122.2021 122.5226 122.6200
122.6500 123.5050 116.0666 114.6353 109.6783 109.2200 108.8966 109.3357 108.7614 110.7185 107.0669 99.1586 103.1755 99.8986 119.6358 119.1114 112.2642 109.8329 117.4875 116.1244 115.6594 115.1812 114.6759 114.2343 113.6066 111.0984 110.5219 113.4043 111.9087 111.6152 111.4124 111.2919 111.2880 111.4005 111.6164 111.9224 112.2939 112.7311 113.1897 113.6738 114.1614 114.6245 115.6926 111.2786 118.1822 125.2584 117.2521 112.8558 116.7871 110.0567 108.1377 120.7045 119.2256 119.8019 120.1422 120.4794 120.8030 121.1194 121.4192 121.7140 122.0023 122.2765 122.5411 122.6500
122.8700 112.9421 115.1597 111.4364 107.9087 109.5919 109.2446 118.7455 113.1204 111.1593 103.4970 100.5423 97.8995 103.2814 119.3565 112.4924 105.8845 117.1287 116.9754 116.4751 116.0535 115.6152 115.1638 114.7554 114.4718 112.5162 96.0926 113.8045 112.8072 112.5232 112.3460 112.2477 112.2480 112.3364 112.5153 112.7621 113.0951 113.4422 113.8218 114.2708 114.6772 114.9296 116.5942 110.5428 106.8197 110.8148 102.2273 118.8147 118.9591 118.2529 114.7561 114.5517 119.6440 119.9942 120.2811 120.6161 120.9289 121.2342 121.5263 121.8213 122.1018 122.3729 122.6472 122.8600
122.9000 123.0575 111.1040 111.4816 105.8752 110.7203 107.2670 109.7537 107.2552 106.7032 101.6714 98.6862 115.8003 112.4897 103.7775 116.7290 118.4436 117.4658 117.2412 116.8429 116.4416 116.0400 115.6306 115.2355 114.8157 115.6367 114.6153 115.0852 113.4809 113.3306 113.1929 113.1148 113.1167 113.1900 113.3340 113.5435 113.8067 114.0958 114.5205 114.9237 115.3212 114.0323 119.0945 102.0418 103.8411 114.2546 102.4142 105.0343 119.0256 118.0327 119.6439 119.6115 119.6906 120.1396 120.4472 120.7579 121.0653 121.3532 121.6425 121.9333 122.2064 122.4788 122.8036 122.9000
122.9400 117.1249 112.9351 111.6083 110.6962 109.9453 110.7536 108.5523 108.2730 99.8931 98.7084 106.8105 119.4809 119.2636 119.4293 119.4595 118.4318 117.8938 117.5709 117.2037 116.8334 116.4637 116.0942 115.7219 115.4209 114.9056 114.7388 114.5337 114.3496 114.0805 113.9672 113.9014 113.8938 113.9637 114.0864 114.2620 114.4968 114.8325 111.3338 114.6819 115.7119 113.1647 118.7865 112.1391 114.7343 117.8203 118.7482 119.5255 116.3607 119.1683 119.5770 119.6619 119.9840 120.2997 120.6108 120.9086 121.2055 121.4929 121.7742 122.0411 122.3614 122.6397 120.0750 122.9300
123.1500 123.7978 116.1258 110.9671 109.6260 108.5192 109.7322 101.7971 108.0263 102.3769 110.8727 116.5469 119.1853 120.0108 119.0634 118.3043 117.4623 118.0587 117.9385 117.5688 117.1399 116.8235 116.7049 116.1259 115.9112 115.6676 115.3716 115.1651 114.8449 114.7270 114.6853 114.6180 114.6285 114.6816 114.7620 114.9251 115.1256 115.3991 116.1474 116.5702 115.9879 116.5989 115.5802 100.3671 97.6481 119.2236 117.9501 118.6942 106.6520 122.2197 114.9711 119.8443 120.1974 120.4711 120.7784 121.0703 121.3570 121.6299 121.9023 122.1264 122.4268 123.6113 112.6026 123.1400
123.1900 122.9692 119.8007 110.5485 111.8373 105.9157 107.8522 113.9545 106.8909 103.3651 102.7821 100.8311 111.6147 118.6374 119.5449 116.8423 111.7022 119.2687 118.1853 117.8828 118.3121 117.2868 116.5699 116.6854 116.4411 116.1532 115.9364 115.6986 116.1460 115.7926 115.3312 115.2853 115.2736 115.3349 115.5524 115.5539 115.6777 115.8997 116.2983 116.1616 117.1486 115.1676 116.7047 98.3920 98.9780 104.0497 119.8434 119.1853 119.7984 118.1288 125.7763 121.5451 120.2847 120.6732 120.9593 121.2376 121.5055 121.7786 122.0658 122.3754 122.5382 123.4864 120.3263 123.1800
123.4400 123.2445 116.5516 110.1344 108.7909 109.1066 110.0886 108.9240 106.4649 109.5977 103.8819 101.6613 120.1013 120.8101 119.3695 120.7959 119.5369 118.6952 118.6159 118.2622 118.2310 106.5847 114.8600 117.0897 116.8760 116.7337 116.4381 117.0293 110.1298 116.0205 115.9301 115.9029 115.8938 115.7824 115.0459 116.2371 116.7359 116.4383 116.7674 116.8910 118.1841 101.9368 121.3571 108.1328 103.2009 107.2307 109.1034 119.4560 118.4482 113.8151 120.9406 114.9579 120.7200 120.8726 121.1349 121.4072 121.6688 121.9268 122.1481 121.8814 121.6609 123.8516 115.7665 123.4300
123.4400 125.1320 112.1747 111.7331 111.5230 108.7004 110.6073 105.5982 107.7008 108.8841 102.4634 106.1349 117.5388 109.5979 120.5045 119.1076 119.3808 119.1676 118.8765 118.5559 118.8147 120.5009 119.5833 117.8994 117.9543 116.8998 116.8936 118.1021 113.9484 118.4130 116.3273 116.4433 116.5482 116.3081 124.3565 115.3801 113.7964 117.2311 116.5383 115.4101 112.3183 114.1743 105.3366 100.5649 97.0096 104.1903 116.7772 119.2178 120.4723 120.5636 119.4989 116.2892 121.1281 121.0785 121.3226 121.5869 121.8392 122.1006 122.3504 124.4893 126.2308 116.4882 126.4640 123.4300
123.4900 117.2691 106.3236 109.2557 109.8975 110.3539 110.9095 106.0244 106.4454 102.8879 106.4803 104.2972 123.1517 111.3294 123.8413 105.3331 120.9093 119.4844 119.2327 118.9805 118.5477 118.8042 118.2503 113.0438 116.4266 118.2910 117.3112 109.9247 120.9636 127.7528 116.5663 116.6768 115.7156 116.7232 122.0214 118.8797 108.5980 126.5132 117.1697 117.3935 99.3496 105.7724 106.9595 103.3532 109.3272 118.0850 120.4087 120.1581 121.0833 120.6605 123.4497 120.8317 120.8470 121.2517 121.4656 121.7339 122.0100 122.2573 122.3559 124.3392 111.7372 105.7613 117.7512 108.5700
112.7700 112.3461 110.1170 110.3939 110.7082 109.4706 106.7492 109.9130 108.6745 101.8634 101.8652 110.2885 121.8935 121.1163 105.0679 110.3256 119.5689 119.6336 119.5294 119.2904 119.1938 118.8809 119.0604 116.1215 107.0984 118.5314 114.9498 91.0480 94.2508 118.7521 117.6459 115.8202 107.8235 117.4882 120.0130 114.1173 108.8834 101.2339 113.6264 99.6290 110.5365 104.5725 101.0620 108.1246 120.6768 119.1481 120.2045 116.9799 113.6476 124.0301 111.2748 122.4366 121.0207 121.5121 121.7704 121.9054 122.1867 122.4042 122.6655 122.9408 117.7535 113.8212 124.1409 119.1700
111.3000 111.5275 111.2041 110.9277 110.8038 110.2539 109.7523 109.6829 103.8259 100.4899 102.6296 107.0227 123.4344 120.8102 105.4958 121.8622 120.7909 120.0624 119.9158 119.6255 119.4480 119.1963 118.7436 120.2377 118.9263 118.2134 116.7788 100.5998 119.4465 118.9645 118.4937 109.4280 110.7477 119.6842 106.9977 116.2814 113.0854 96.3817 107.8170 99.5571 102.8337 101.7215 105.8176 120.9967 120.0352 120.2559 120.4157 121.2259 123.3133 120.3136 103.2284 117.7890 121.3963 121.5549 119.7175 122.5826 122.3440 122.5733 122.7687 123.5273 123.9690 123.8585 123.7868 123.7800
111.5600 111.7609 110.6082 111.0038 106.8634 111.0201 110.2614 104.2646 102.7048 104.1317 110.0740 110.1677 114.2563 121.8729 122.0544 121.4130 120.5856 120.3144 120.0896 119.5995 119.7544 119.5729 115.2506 116.4102 118.9694 118.8701 119.7818 105.5902 97.1568 120.5285 119.4888 98.6698 99.9141 114.8288 118.9046 101.6932 122.0146 114.3217 107.3772 119.2002 122.5581 102.6089 105.7668 120.0525 112.8367 120.0765 120.1428 119.4502 120.5944 110.1939 110.6940 123.2873 121.8905 121.9006 122.0767 122.3281 122.5325 122.7469 122.9662 123.1815 123.2863 123.5078 123.8811 123.9800
113.2000 112.3447 110.8729 111.9106 111.0652 112.1722 101.0217 108.7010 100.9534 105.5315 103.4780 106.9096 100.3034 122.6770 120.6628 120.8830 120.8385 121.0339 121.9851 120.2056 120.1192 119.7810 119.8759 119.8981 119.2945 119.4353 119.4161 122.4059 120.0307 110.9528 112.5708 101.1795 105.3373 100.0516 119.7742 119.3823 119.4997 119.7278 119.9300 119.5921 119.5493 109.2051 102.0115 107.0023 118.8675 121.0149 120.4603 120.7290 122.8102 108.6381 106.0524 105.9095 122.7090 121.8582 122.3685 122.4807 122.7150 122.9139 123.1231 123.3210 123.5299 123.7249 123.9171 124.0300
113.7000 112.7126 111.3081 111.9464 111.8265 103.8012 109.7668 106.5407 105.6623 104.0401 105.2983 103.2686 101.2755 106.7035 124.2632 121.5569 121.1137 121.0420 121.0125 120.7399 120.4285 120.2728 119.9443 119.9383 119.8498 119.6925 119.3196 117.5669 119.1472 117.3368 117.8927 102.5637 104.0811 115.9805 119.7480 119.3962 119.3358 119.5330 119.5613 119.7792 119.9686 121.3463 102.8617 108.0838 114.5909 121.2312 120.8607 121.1273 119.3886 117.8927 113.4391 105.3881 119.4957 122.4444 122.4864 122.6920 122.8908 123.0912 123.2790 123.4823 123.6945 123.8882 124.0097 124.2300
111.0300 112.7184 112.9500 112.0710 110.5910 110.1459 110.7722 110.6337 106.2719 105.1743 102.2162 97.8597 118.7353 122.9350 121.6701 121.1902 121.5399 121.2794 121.9543 120.2537 120.4097 120.2448 119.3676 119.4921 119.9609 120.3724 119.8737 123.1895 119.2570 111.6815 106.9111 103.4912 101.4159 106.8423 120.8269 119.9432 119.9174 119.9685 120.0677 120.1679 120.3957 120.6801 113.5587 100.5997 115.4479 121.8083 121.2298 121.3726 121.5446 121.9858 121.9464 122.9335 122.8850 122.4196 122.7136 122.8439 123.1333 123.2720 123.4550 123.6217 123.8046 124.3750 124.9206 124.2800
113.9900 113.6276 110.5463 112.0171 110.4820 111.4876 111.9111 112.0769 104.7256 106.9521 103.6640 121.5153 122.9447 121.5971 120.5266 118.8376 121.6442 120.7517 125.0116 122.8205 120.5932 128.9146 108.8735 117.0408 120.4831 121.8898 97.5417 112.2085 108.6387 107.4720 98.8961 100.1091 117.8822 117.2157 120.5132 120.1470 120.1221 120.3204 120.4068 120.5100 120.3730 121.3391 114.9958 111.2137 117.1393 120.4810 121.4801 121.6469 121.8171 121.9834 122.0006 122.1864 122.3773 122.6553 123.1307 120.3616 123.8419 123.3038 123.4285 123.8537 123.8544 125.6293 117.8659 124.4800
113.8100 113.7690 112.8075 110.6287 111.8026 111.8774 111.2329 109.9172 105.6121 103.3248 117.9299 111.4049 123.0699 122.3575 121.8527 123.0048 122.7183 116.4301 109.0773 120.8653 103.6663 124.6720 103.6169 125.2877 115.0399 117.2828 100.6894 114.0856 104.1262 116.6942 120.2388 113.3614 98.6661 122.1808 120.2574 120.9378 121.1551 120.6956 120.7411 120.8477 121.8465 118.0017 104.8269 102.2737 121.0850 121.8970 121.6563 121.8792 122.0558 122.2206 122.3915 122.5893 122.7644 122.8895 123.2118 119.2807 118.7303 124.9020 123.8635 123.9621 124.0600 123.1422 114.2093 124.7200
114.8300 113.2453 112.2487 112.4423 111.8436 111.2603 110.5408 109.8497 108.9468 109.3930 119.5888 122.9355 123.3380 122.5963 122.5076 122.5716 123.6744 121.8718 99.7922 117.0421 99.4232 102.6603 106.0667 114.3551 101.3855 124.2496 101.9544 103.8514 99.6377 121.9134 120.7580 104.1617 105.1351 122.6739 120.5251 120.3750 114.4631 117.7179 120.1543 121.2582 122.2410 109.1778 102.3075 111.9719 123.4299 121.7162 121.9866 122.1652 122.3010 122.4652 122.6176 122.7885 122.9450 123.0737 123.2318 123.7769 111.2547 116.1828 123.7790 124.1706 124.2559 125.6593 123.0849 124.7200
114.0300 113.4164 112.6782 112.6340 110.0125 113.6687 110.2874 110.7027 115.6462 109.5419 116.9983 123.7261 122.6490 122.9659 122.7125 122.4025 121.9369 122.7745 123.8844 117.8524 113.7843 105.8812 114.0053 103.1032 105.0158 109.3300 103.6794 99.8606 109.4380 121.9695 121.8018 121.9380 121.7554 121.3125 121.6102 127.2519 123.3024 119.2701 102.6826 127.0427 115.2617 116.1921 114.4908 123.8695 121.7169 122.0937 122.2942 122.3912 122.5413 122.6934 122.8434 122.9996 123.1515 123.3137 123.4765 123.9768 125.9857 122.6036 124.3509 124.2824 124.5365 123.4281 122.9182 124.9600
113.1400 112.2584 112.9379 112.0758 111.2633 111.8074 119.9198 114.3949 113.7120 111.4007 113.2397 123.7242 123.6951 122.3129 122.9193 122.6382 122.9520 122.6345 112.9804 106.4496 122.5992 103.7538 126.0811 115.7683 106.5776 111.3444 107.1307 97.2499 123.7776 120.9345 121.1909 121.2320 121.2423 121.6804 122.9963 110.2151 127.1004 102.3943 115.7576 120.2476 121.7535 105.6058 108.8480 122.9695 122.4168 122.3927 122.4909 122.6481 122.7769 122.9170 123.0615 123.2117 123.3554 123.5099 123.6806 123.6363 123.7385 124.7977 124.1957 124.3459 124.4434 123.6832 121.5058 125.0000
114.4100 113.5029 113.2278 112.9189 115.4219 113.9874 126.6768 117.1326 105.4628 123.8085 124.1569 114.6464 121.1597 125.6490 123.7465 122.4645 123.2339 119.6389 102.3418 122.6742 124.8835 104.8298 120.8005 115.0764 123.3562 111.1796 115.6612 99.7952 121.5185 121.3315 121.8855 121.8244 121.8230 122.5192 113.0517 118.6529 107.6715 99.0179 113.6962 123.4076 123.0381 105.7246 116.6841 123.1643 122.5555 122.6313 122.7653 122.8826 123.0100 123.1444 123.2799 123.4193 123.5640 123.7104 123.8748 124.0025 124.1499 124.2435 124.3193 125.8522 125.8892 124.7373 123.8002 105.8200
114.4100 113.2125 113.1261 112.8144 116.4754 122.8702 124.6633 123.9561 121.2547 120.8420 108.4212 102.8617 110.3215 114.9193 121.4627 123.8406 120.7225 119.9091 97.3922 122.7152 121.0302 104.3717 111.5482 109.1612 117.3993 105.3181 107.7944 110.5650 122.9182 121.6827 122.0717 122.0468 122.1171 122.1299 118.7163 122.3005 124.2714 109.4791 117.8936 122.0833 122.5279 122.4560 123.7290 122.4171 122.7941 122.8864 123.0013 123.1196 123.2422 123.3663 123.4990 123.6305 123.7684 123.9041 124.0449 124.1888 124.3278 124.5083 124.0929 119.3050 109.4580 123.5316 125.5856 105.6400
120.1100 120.4377 115.3074 117.5230 124.9232 124.9461 123.9323 111.7773 126.5674 121.1789 99.9845 107.5630 121.8600 111.1198 122.5923 124.0469 108.5804 120.9719 101.5508 118.6976 111.1792 106.4894 112.8276 105.3833 120.2551 100.3563 110.1174 100.0113 122.2753 122.0976 122.3888 122.3587 122.3495 122.4089 122.6382 122.6169 122.1260 121.8275 112.3771 122.0693 123.8904 118.0930 122.7337 122.9612 123.0250 123.1225 123.2377 123.3476 123.4617 123.5831 123.7127 123.8378 123.9699 124.0981 124.2342 124.3568 124.5213 124.6013 124.8191 125.0446 122.4241 102.8108 105.7737 118.4600
119.5700 124.6331 124.5720 120.9122 125.1019 124.8645 124.7843 123.9885 122.7415 112.8249 115.9454 99.1948 107.1097 115.9562 119.3592 123.5254 123.1373 124.4354 103.2869 102.9309 105.0240 106.4117 104.1521 104.2680 113.9379 106.7128 110.7918 117.6243 122.6418 122.7892 122.6540 122.6487 122.6440 122.6392 122.6440 122.7292 122.2832 121.3838 111.9439 114.0373 117.3150 121.9237 121.9947 123.2218 123.2724 123.3682 123.4697 123.5769 123.6822 123.7952 123.9193 124.0359 124.1570 124.2994 124.3917 124.4960 124.6846 124.8514 124.8697 125.0946 124.3299 127.7335 103.3749 109.8200
125.6700 126.5217 125.5624 125.3164 125.2077 125.1617 124.7251 125.1450 117.3978 109.1302 124.9701 101.1559 100.7534 112.1577 126.9967 124.1136 123.3368 120.5502 112.3187 123.6842 114.0420 101.5158 102.1264 101.0386 106.4501 109.6250 108.7872 118.5060 122.9133 123.0183 122.8615 122.8688 122.9134 122.9222 122.9436 123.0011 122.6590 121.2460 105.0655 105.5494 117.9898 119.1430 122.0953 123.5157 123.5066 123.5949 123.6934 123.7907 123.9011 124.0095 124.1257 124.2341 124.3581 124.4654 124.7106 125.1890 124.7485 124.5061 125.0742 125.6194 125.9054 122.8986 117.3492 112.9600
125.8400 125.9731 125.6084 125.5366 125.4216 125.2787 125.1911 125.0093 125.8507 126.5836 125.4565 115.6813 121.1673 116.6269 115.9558 124.6150 120.0061 118.8241 124.3262 123.7945 122.7105 109.6161 102.2024 105.6900 108.2572 110.9451 106.2743 118.3806 123.2408 123.4748 123.3640 123.1383 123.1776 123.1871 123.2005 123.2425 123.0737 123.9192 111.9395 110.1957 116.3879 123.7739 123.9363 123.5891 123.7343 123.8308 123.9159 124.0125 124.1137 124.2189 124.3261 124.4357 124.5619 124.6649 124.8638 125.2942 124.7701 126.2830 125.2700 123.7614 124.2866 124.0375 115.0173 109.8700
126.0100 125.9325 125.8359 125.6798 125.5550 125.4325 125.3275 125.1327 125.0761 124.4372 123.9407 107.5294 105.7254 110.0058 104.1290 102.4194 107.5428 101.0940 113.4549 123.9155 122.7540 107.8689 103.5265 109.5067 109.0079 112.1993 108.6123 117.7588 122.7433 118.9818 122.9284 123.3324 123.4518 123.4449 123.4471 123.4449 123.4671 123.2425 124.1162 121.0214 103.0448 121.6762 123.4206 123.9445 123.9603 124.0464 124.1300 124.2250 124.3191 124.4214 124.5257 124.6289 124.6996 124.8682 124.4203 126.5614 104.1646 124.7507 125.5895 125.8387 120.1007 119.5439 117.8805 111.9600
126.0600 126.0600 125.9700 125.7200 125.6200 125.6200 125.3900 125.3900 125.2500 125.1500 125.0100 124.8900 124.8000 124.6400 124.5300 102.4000 102.4000 106.2500 124.1500 124.1500 109.7500 109.7500 123.9300 123.9300 109.1500 108.7100 109.8000 117.1700 115.6300 130.2000 123.6800 123.4600 123.6900 123.6900 123.6700 123.6600 123.6300 123.6100 123.8000 106.5100 101.9400 123.9100 124.0600 124.0300 124.1600 124.1600 124.3000 124.4200 124.5400 124.5400 124.6500 124.7700 124.9100 125.0100 125.0100 117.4900 125.2500 103.9200 125.6200 125.6000 122.3100 107.1500 107.1500 106.2500
