113.8300 113.8300 101.2300 106.4300 119.6900 123.4500 123.4500 123.4200 123.4000 123.3900 123.5700 123.5500 123.6900 123.6900 123.8500 123.8200 123.9300 124.1100 124.1100 115.1200 114.4900 108.8300 111.4800 124.6000 124.7600 124.8700 124.9800 125.1200 125.1000 125.3600 125.3600 125.5900 125.7300 125.8300 107.3000 126.0900 126.1700 126.2900 114.1500 126.5100 126.7300 125.0200 125.0800 127.0500 127.1500 127.3700 127.4600 127.5600 127.6600 127.8600 127.9700 128.0500 128.1500 128.3400 128.4300 128.5200 128.6200 108.3500 106.8900 106.9800 115.5600 110.5900 129.3200 129.4000
115.0300 104.9859 102.3124 106.1110 116.3336 123.5622 123.1601 123.3309 123.2273 123.3662 123.2343 122.7274 115.7848 123.5904 123.5812 122.3094 121.6184 123.7372 125.0432 116.0759 110.0060 104.0196 112.8604 124.6473 124.7457 124.3231 124.5577 125.6076 124.5869 127.5428 125.8380 126.8435 113.2045 113.3940 106.1390 113.1172 113.6470 117.0375 112.1911 126.9681 117.1811 116.2171 126.1898 126.9757 126.9491 127.3124 127.3870 127.4559 127.6889 127.7861 127.9091 127.9935 128.6424 116.1423 130.0179 123.3961 130.0723 120.6722 106.4183 106.9687 117.2319 113.7900 123.9617 122.6400
101.1300 115.3407 101.6939 104.8229 106.1186 117.3363 117.1199 123.5299 122.9525 123.1199 123.1899 120.6863 123.0973 123.3069 123.2897 123.5872 123.6621 123.6270 118.7689 117.3009 105.6638 105.5811 117.2245 126.6881 124.5044 124.5567 125.4215 119.4150 124.4371 109.6344 125.1643 108.7778 102.8583 110.1253 106.5871 105.5257 109.4606 112.9150 104.7214 124.1982 121.4623 127.2236 128.5257 129.3683 128.0575 127.0533 127.0884 126.9534 127.3872 127.6783 127.7644 127.4612 126.5564 120.6584 129.7669 123.5008 115.9161 107.1296 107.1246 107.8486 119.1551 119.3765 125.6809 122.6400
114.9600 106.7429 107.5847 104.3144 104.8151 118.4475 115.9971 120.2090 122.7285 123.4901 114.8099 123.9508 122.1421 122.7521 123.1686 123.2088 123.2811 123.3727 124.8609 112.6745 129.2490 106.9609 95.6869 121.4946 127.8882 117.1329 114.5199 124.6042 124.5055 111.5711 114.1972 101.9685 122.8335 116.2539 112.7282 118.3337 106.5086 107.5351 118.1755 127.2399 115.6070 126.5448 124.1346 113.3580 126.1823 127.8756 127.1584 128.1813 127.5017 127.4519 127.7021 127.9210 127.0244 128.0844 128.8209 113.9550 105.2202 109.1653 112.2506 117.6779 120.2624 109.9140 115.9085 129.2400
114.2300 110.0350 105.9598 103.8007 102.6994 119.9882 118.8029 120.3663 122.4135 123.5845 114.3528 114.5716 124.4019 122.6194 122.8962 122.9727 123.0868 123.1589 124.7190 117.4426 107.3569 120.9942 117.8577 123.5710 126.6579 125.1173 126.1882 128.9840 125.1477 125.0787 124.8067 108.1944 125.3579 125.5947 122.5859 111.3995 118.0410 123.1152 124.9516 126.3724 125.5100 126.8631 127.1519 113.2889 124.0131 122.4664 126.7927 112.8226 121.6358 127.9733 127.5661 127.6516 127.9520 132.0102 109.4446 104.3465 114.2508 107.7219 116.9654 120.1914 111.5002 116.1201 133.8057 131.0300
108.2400 108.2358 105.7812 101.4420 119.9532 112.8085 121.0777 121.1360 122.1058 123.4373 115.0270 123.6933 122.5296 122.4285 122.6451 122.7408 122.8310 122.9289 122.7072 124.8712 118.1277 124.4791 122.3421 124.5039 124.0926 123.6520 124.1317 124.3326 124.4117 124.6595 116.5491 112.8499 108.6760 112.2729 108.4282 109.6389 110.6804 126.4860 125.4412 125.6190 110.2982 127.3586 126.4839 125.9054 127.0815 126.4516 123.1403 120.5198 127.8772 120.2323 128.8577 128.3039 129.2757 106.1648 107.6076 117.1023 119.3413 112.6797 109.7854 107.7644 105.0540 127.3128 127.5475 130.4300
108.3600 111.7014 102.8103 102.2165 106.7899 110.3805 120.7311 120.4035 121.7788 118.9927 114.6946 112.9092 122.7151 122.6684 122.4432 122.5317 122.5600 122.7056 122.9812 122.1695 123.4130 120.6599 111.4930 120.2942 103.5207 125.2198 123.8138 124.0677 124.1304 124.5377 124.5277 123.5129 109.9695 106.5929 110.9920 108.5950 115.3348 126.8116 124.9602 131.1249 113.5057 127.8615 126.3822 126.5298 126.5140 126.8103 126.8868 127.3988 120.0765 109.2551 128.5081 118.3911 104.2706 110.6359 119.0207 118.6850 119.0114 107.9952 104.1420 131.1338 127.0794 129.1519 130.9178 132.0400
114.5100 119.7097 99.6472 104.4211 103.4102 121.9819 119.6338 120.9831 121.3615 117.4109 114.6196 122.6955 120.7801 115.0368 122.1352 122.0877 122.3431 122.4274 122.5680 122.8997 121.7422 128.7775 123.0889 125.5187 122.3084 124.6888 123.6135 123.9855 123.8150 124.8006 121.5340 124.1141 111.4107 106.5852 105.8825 103.0297 123.8955 125.2431 125.6235 125.9151 127.4222 103.0406 128.6457 126.9867 118.5841 127.4237 126.2140 111.7014 127.7148 122.5518 112.7455 111.7776 112.8254 113.7218 114.2949 104.6206 106.4660 106.0524 128.7951 129.0338 128.6671 128.6917 129.6125 124.3700
116.0200 110.0547 99.4743 103.8702 103.3690 122.4029 122.1507 121.3951 117.8065 114.2171 114.2131 122.3828 114.0997 116.6273 122.0944 122.0885 122.0073 122.1977 122.3313 122.4566 121.6698 134.8315 123.4413 121.8687 123.0912 123.3513 123.5233 123.6395 122.9211 104.0128 105.5411 105.6954 108.7328 112.5274 105.2559 128.1589 124.4361 125.5229 125.1095 123.2015 124.1727 103.4350 121.8212 125.5011 108.5039 123.3618 110.5920 122.8352 127.2402 128.1541 124.0512 110.9816 113.9898 106.6548 119.4616 107.6761 106.9723 103.0944 128.5678 125.4519 129.0130 128.4256 123.3247 107.7400
108.4500 111.5042 98.2118 101.7127 101.8343 112.0864 112.7937 119.8317 117.6074 111.0299 117.1892 118.6818 123.7129 119.3417 120.6471 121.6799 121.7675 121.9141 122.0971 122.2331 122.4108 121.7789 130.8890 123.7586 123.2333 123.2006 123.3867 123.8158 124.0702 121.5998 117.2343 112.9192 118.2662 105.2346 129.0072 125.4049 125.3106 123.6078 118.7702 101.1442 119.4781 105.6775 109.6753 122.3962 107.5139 111.7916 120.1014 120.5399 127.0774 127.4411 123.2134 108.9593 113.4037 108.0811 115.0642 109.5477 106.1939 110.2847 123.7880 126.7144 129.2564 124.7244 121.6421 109.3900
109.3600 106.3091 99.1685 97.2241 112.7178 105.5267 111.9981 102.7397 109.4643 110.2829 110.1669 105.6798 113.9204 120.0380 126.4151 121.4452 121.5028 121.7679 121.7004 121.9687 122.1460 122.0246 122.6424 121.1358 123.0167 122.8358 123.1499 123.3402 117.7098 128.6871 124.3100 125.1464 125.7560 103.1055 123.7934 117.3642 123.5004 111.9264 102.0137 103.7480 103.4832 104.7733 105.1580 107.8124 116.9732 119.6573 121.4902 123.6048 126.9880 120.7410 109.0299 110.7942 114.3962 106.1131 114.0726 104.0461 108.6082 123.8125 126.5519 128.7384 128.1620 128.1041 108.4276 131.2800
103.8700 100.2620 111.4490 95.8277 106.2658 107.0949 110.1148 106.1048 110.2462 107.8289 99.6897 107.2495 114.1363 112.6726 123.2198 120.8959 121.2762 121.1759 122.7498 122.5481 121.6345 122.0977 118.1489 122.6019 122.6037 122.8681 123.3253 123.3341 124.0648 124.3066 123.4782 123.7330 122.8619 120.7541 121.3687 120.3852 125.3888 114.2609 110.9737 103.3460 103.1343 99.4576 114.2451 119.6162 119.2945 119.0404 122.4004 120.5964 123.0495 121.5602 123.5757 113.2988 120.3726 110.1883 104.9751 105.8618 110.8039 115.8220 125.2373 127.8043 126.5736 128.0727 111.6575 127.5900
110.8500 102.2953 98.6918 95.4162 111.6005 107.6084 108.8965 107.4680 109.9350 110.4754 97.6373 106.7111 105.5507 107.9021 121.3565 120.9388 121.6800 121.4095 112.3855 119.7527 121.4498 122.0576 122.4277 122.1783 122.3347 122.5959 118.7417 121.2704 122.4805 122.6905 124.6149 125.8137 109.3660 103.4393 104.3070 121.9246 124.9772 123.9287 107.0461 102.8703 102.9929 120.8738 118.5769 117.6116 117.2562 118.6056 118.4489 119.3730 119.3909 120.4014 122.2626 113.1089 103.8831 112.3558 105.5422 109.7834 104.2507 110.2775 125.7665 128.3012 127.6109 129.0443 125.9167 109.1400
97.4200 97.5430 119.3721 101.0273 119.4156 106.5734 108.1234 107.1537 112.3618 108.2749 111.4779 113.9300 120.4922 116.6492 120.8343 120.4811 120.8470 115.3894 115.7416 124.1798 121.3723 121.6258 121.7521 122.0022 122.2023 122.4929 121.4134 123.6173 124.7906 125.2484 124.8350 104.9205 106.1741 98.8159 116.7256 123.1349 121.8332 111.7753 100.5402 108.6048 108.2822 117.6929 116.4588 116.9839 117.2318 118.1882 118.7149 119.3332 121.0899 120.1112 122.7617 115.6433 110.4259 111.1505 103.4370 117.4971 111.3710 117.3937 128.1164 128.4150 128.2749 127.6418 122.0332 118.1900
97.4300 104.6903 119.3049 115.4201 115.7597 107.4264 117.5363 107.0800 108.4782 113.3462 121.2351 113.3336 116.7498 121.1355 119.8354 120.1603 119.8691 121.5917 115.4117 121.1248 120.7644 121.3610 121.5645 121.7579 121.9978 122.2551 122.1445 123.4764 103.4001 110.2254 111.3147 104.1567 102.5698 109.3556 119.0479 125.5443 125.3197 110.2775 113.6292 103.4931 117.4385 116.2018 116.1146 116.7719 117.8092 117.2871 124.7523 120.0754 121.4655 118.9478 107.3468 122.9486 104.9754 105.3989 122.3374 112.7682 108.4868 130.3989 127.1575 128.1846 129.0650 127.7558 129.8273 112.0100
112.5700 119.8475 120.3558 120.0461 122.4465 109.4675 116.7591 103.4492 106.2808 115.9968 118.9280 116.9445 106.1137 120.1311 119.5010 119.8879 120.1633 121.9165 121.9493 120.8132 120.9704 121.0966 121.3362 121.5924 121.3918 121.8307 121.9915 123.7245 126.4510 121.4644 117.8659 104.1722 105.1512 110.2779 123.5396 122.5314 111.8410 114.1969 109.5275 107.8073 115.6516 114.5296 115.7914 117.7818 118.7520 119.0019 120.6847 121.0593 114.2592 103.7623 103.1024 107.6594 109.5510 113.1003 107.5630 106.7811 102.8561 127.8343 127.0366 128.0702 124.7808 130.8458 128.9109 135.6000
118.2500 117.6332 111.4713 105.7263 104.9858 111.1044 104.1474 105.7587 109.3018 119.0054 118.4325 120.7303 106.9517 119.6275 119.1488 119.5512 119.7899 119.2189 118.3645 120.4951 120.6448 120.8335 121.1568 121.2277 121.8807 122.6856 125.1411 104.9216 120.2150 122.6456 106.6693 108.6936 112.4499 109.7165 110.2911 112.9286 113.8439 113.2458 116.0179 116.0819 115.4094 115.2947 116.3023 116.6333 118.8482 119.3913 120.2037 120.3822 110.6660 121.3249 122.6723 102.1474 124.3452 118.5556 103.0980 104.7203 115.5681 127.2071 127.0483 127.9805 127.7499 129.2435 121.4717 106.5800
117.8200 117.8891 118.4679 114.1842 117.9994 111.0745 109.4073 113.2557 100.8623 119.0142 118.1145 119.0237 118.5884 119.1506 118.9560 119.1856 119.3313 119.7679 119.8415 120.2263 120.3697 120.6336 120.8808 121.7361 112.4937 98.0594 105.8676 104.3791 106.1462 103.7560 105.8989 107.0112 112.5778 110.9734 112.3931 112.8889 113.7459 107.4082 103.3669 115.5878 116.0166 111.9204 113.5361 116.0355 117.4881 125.8432 113.9261 122.7439 125.7098 125.5782 104.3107 103.8086 105.0417 104.5680 117.1748 108.0843 111.8163 126.4849 127.7436 127.9982 127.3393 127.8772 127.3077 128.5600
116.8900 118.4599 103.3961 104.4246 104.3158 107.4843 105.7256 107.4728 110.0665 119.5998 117.6269 117.8486 118.1420 118.1971 118.5929 118.8118 119.0823 119.2890 119.5776 119.8385 120.1039 120.3885 119.6613 119.4664 100.3419 112.5673 109.2331 106.4457 101.7819 112.0913 105.3269 110.3460 111.3237 111.1528 112.2144 112.0773 113.0375 116.9780 102.7364 112.4790 113.6841 108.1648 110.6744 118.0740 116.7177 122.3907 125.6568 124.2597 120.7650 124.3521 112.6113 106.2707 127.7287 107.6747 105.1220 104.0014 128.2692 116.7991 118.4055 126.0757 125.3579 126.5094 126.4927 127.4300
116.3900 106.5613 104.4323 103.5504 112.2192 107.4268 94.5404 97.8937 117.2255 116.2366 117.8903 117.4087 117.9053 117.9743 118.2051 118.6408 118.7403 119.0445 119.2730 119.5724 119.8139 120.5234 114.1279 106.2473 108.6274 116.6973 109.1678 105.8305 105.1525 112.1433 107.5997 111.1386 110.4143 111.1477 113.4465 113.6521 104.6710 111.5637 103.1990 108.4732 108.7043 116.1103 115.2513 122.5287 119.2166 108.8572 121.9578 118.3885 102.5899 122.5235 125.5709 112.0140 111.0355 109.7849 107.0553 119.0365 123.6172 125.5298 125.1297 125.7176 123.1012 120.2934 121.1084 121.8200
101.1900 102.6506 100.7757 102.6363 116.4493 118.2610 95.9384 113.1555 117.1679 118.8131 112.7621 117.2778 114.7752 118.0172 118.0001 118.0811 116.0700 119.2498 118.9806 119.2981 119.5922 119.9749 120.5976 124.0114 123.1886 102.3180 110.6458 105.5288 108.0502 110.1594 107.9563 109.4841 109.9519 107.8473 108.1927 108.3688 101.7155 105.8839 102.5986 105.7939 114.5585 110.0386 106.7765 106.7223 108.4611 111.3171 121.0823 114.7872 104.9756 118.7453 121.0864 114.7079 114.0615 114.3245 117.9422 125.8341 125.5247 127.2223 121.3920 121.2750 120.6468 121.0573 119.3461 125.1600
115.2800 101.9019 96.6111 95.4752 117.9229 115.3135 106.2684 110.7351 105.3868 102.4040 119.8919 117.0028 114.4064 117.0912 114.7987 118.3675 114.6037 117.9057 118.6162 119.0315 119.2986 119.5776 119.9804 106.8946 105.8408 103.8892 104.5047 107.0047 106.4614 108.4483 110.0496 107.6839 111.9250 104.1702 103.0221 101.3748 102.4521 104.7545 107.9143 106.3768 107.1778 110.5895 114.4379 115.7126 108.5133 99.8017 115.1696 112.7169 112.8317 111.7614 107.5017 116.5326 110.3453 121.0130 128.2067 122.9545 122.7703 116.8284 120.1900 123.5261 122.9140 127.8190 120.9677 118.9500
97.9700 97.9872 96.6777 97.8650 115.7000 114.4153 117.4237 110.3221 108.8126 118.1131 115.2243 115.1746 116.7150 116.9603 115.2002 116.9126 117.7740 119.5974 118.8106 118.5348 119.1277 119.2769 123.2442 101.9052 103.4325 103.0673 104.3201 105.4780 106.0122 103.1375 104.8196 108.8615 110.8429 103.7758 103.1422 102.1828 105.5091 105.2212 104.0978 103.2585 103.5338 118.0511 111.0398 118.1911 105.0010 115.0921 110.8320 111.3114 114.6101 113.7670 112.8320 121.1212 118.6591 117.7030 114.3827 110.0809 108.0513 110.3993 119.1802 127.2840 119.0507 125.1279 115.5300 125.8200
96.3200 95.6433 100.9828 99.2834 115.3426 114.6232 108.1484 114.6013 115.9269 114.4929 115.1807 115.6925 115.9413 113.8748 116.6334 117.3890 119.5487 109.4590 114.8746 118.9797 118.6003 120.5085 111.1251 95.2731 107.6593 108.9098 101.9693 104.1121 108.8784 107.9509 108.7233 111.4022 104.8540 109.6069 98.8226 101.6888 103.9773 109.8252 117.3258 107.2842 108.5676 112.5800 104.7267 108.2490 116.1387 107.7207 111.6568 114.1360 118.5211 114.2780 110.1837 115.9335 107.6736 103.2422 104.0566 104.5851 105.6120 111.1303 110.4678 114.5170 111.7615 127.2750 115.7101 125.8200
114.6800 95.6189 90.5066 94.6506 113.9080 113.5122 112.9230 98.7151 114.5310 115.3782 114.7979 115.0389 115.5279 115.1158 108.9348 109.7866 107.2894 104.1145 108.9332 117.9597 119.6585 106.6817 117.7338 110.9565 113.5285 117.4952 114.2968 101.4360 105.3030 104.6172 119.8690 117.6408 96.9125 111.6650 110.1587 101.3377 101.1527 105.9604 110.9527 108.8776 109.3826 108.4548 111.2343 109.3793 116.3286 109.7019 115.2529 118.1517 112.3922 116.1776 102.7844 107.6293 103.9846 105.0100 104.1651 104.3193 104.8130 105.1619 114.2148 119.1878 121.4435 113.9569 114.2152 110.3800
90.5000 89.6308 97.4366 102.1207 113.0100 112.2545 113.2838 107.2418 94.7841 114.2316 114.1011 114.4921 114.6616 117.6486 115.6088 105.4646 107.6586 114.8565 107.5220 119.3723 118.5314 117.7570 112.9684 118.1192 113.3125 104.6722 103.5638 122.3917 109.9620 119.0684 108.1544 103.0647 111.5020 109.4480 114.9778 106.7502 104.9491 102.3915 104.2765 103.7155 104.1726 110.3067 109.5639 109.9212 112.0507 117.1896 119.1654 118.9972 120.3964 105.7216 103.0744 103.0998 104.7076 106.0660 114.5485 114.3679 106.1778 107.1496 127.3689 125.5977 120.1608 111.7493 109.3533 110.6300
111.6400 98.5940 102.6606 113.4070 111.3366 111.5441 111.8425 113.2633 109.2964 116.3712 112.4102 113.9629 114.4753 115.1692 112.5237 116.0031 105.4959 112.6682 116.2468 117.7077 118.1004 118.6837 116.7068 123.9304 106.7211 105.5091 119.6935 121.6779 103.4909 106.9096 102.6762 119.9329 99.2360 100.3673 100.9449 100.9826 100.9160 114.1169 109.0452 107.8738 107.4941 109.4695 111.7622 116.7127 119.3877 121.4093 110.2971 111.0196 104.7421 112.3093 114.6513 117.5997 103.6013 105.4140 105.5957 105.8438 105.7639 106.6462 112.9410 127.1273 118.0113 109.7730 113.3559 113.8200
110.6500 111.3118 109.8014 110.3852 110.2605 110.4469 110.7363 108.5582 110.7183 112.7561 112.7060 113.3722 113.9297 114.5940 114.6016 115.6315 115.9960 116.8303 116.9817 117.4675 117.9087 118.3692 117.2423 118.6142 101.2760 121.9711 113.2424 105.3534 108.3196 121.5492 118.8268 112.5695 110.4185 111.2060 111.1385 107.6860 99.7747 107.1784 106.0210 123.4979 107.7431 110.1370 125.7147 124.6302 125.0443 126.0071 113.7902 108.4840 103.4258 103.8943 104.2023 104.0338 104.6101 105.0032 105.6495 106.2122 107.9549 110.8673 111.7307 111.4302 112.3109 113.4507 114.1030 114.3400
109.5900 109.5783 107.0194 108.9051 109.0287 109.2986 109.8690 110.3159 111.0859 111.5311 112.1734 112.7990 113.4323 114.0143 114.6376 115.1615 115.7054 116.2396 116.8092 117.1063 116.9671 118.3151 118.8908 118.2800 119.7364 119.2835 119.8748 123.1834 102.1095 107.2632 108.2983 104.3844 108.7666 107.9327 99.0656 117.9659 99.7951 105.3826 110.4569 121.1563 124.2362 124.3514 124.0555 120.7327 118.1992 115.6557 104.3430 103.7019 104.0187 104.2643 105.9786 107.2966 107.5799 108.1212 109.0384 109.9516 110.4337 112.7621 114.4654 105.2924 105.8008 113.2408 112.8034 113.3400
108.3500 107.9047 107.8095 107.5051 107.6114 108.0067 108.5383 109.2138 109.9721 110.6881 111.4992 112.2321 112.9418 113.6210 114.2584 114.8970 115.4788 115.9763 116.5813 118.3155 101.0938 119.0282 115.0279 104.1876 118.4813 97.8438 116.7242 107.8007 122.9891 109.1250 102.9377 110.7569 125.9214 103.2163 112.2206 99.6220 105.8175 117.6716 99.8193 112.8910 116.6358 119.8389 117.4352 113.0381 102.0800 105.3151 103.3445 104.4587 105.8922 106.4078 107.1666 107.3945 107.9032 105.1977 108.2782 108.2310 108.7303 108.5396 109.3158 110.6606 112.7521 112.7253 113.2825 113.0500
106.8800 106.4406 105.8783 105.7302 105.9312 106.4809 107.2423 108.1428 109.0558 109.9677 110.8478 111.6878 112.4827 113.2263 113.9190 114.5809 115.1937 115.7781 116.4012 116.6926 117.1882 118.3033 103.3894 102.3214 105.3671 98.6251 118.2412 107.6959 117.2599 114.8232 113.3325 117.9739 109.3513 107.0776 99.0587 101.2200 109.6580 115.0775 108.5562 119.9714 119.2973 121.2741 117.2187 101.2512 104.5836 102.3971 102.6044 102.9688 107.7808 106.2566 105.4125 104.6269 108.2142 105.5533 109.3139 109.9246 110.5564 111.3337 111.7506 115.5056 119.4453 119.2844 114.0167 119.4600
105.0800 104.6195 103.8252 103.5422 103.8739 104.7091 105.7933 106.9600 108.1181 109.2143 110.2316 111.1808 112.0612 112.8635 113.6176 114.3151 114.9672 115.5874 116.1877 116.5245 116.8952 118.0173 123.4344 111.7710 117.0491 92.7223 115.1050 119.8050 114.4724 106.2047 111.3691 105.0305 109.2935 101.4666 100.1411 104.5098 102.7350 106.8819 109.0153 115.9573 119.8542 119.3715 112.3129 108.1051 106.3805 106.1970 106.4786 107.1703 112.4654 104.5437 104.4683 108.2742 115.3937 104.4159 117.6903 117.2162 118.1318 118.8308 119.2228 118.9795 118.0156 115.2368 120.3143 119.7900
102.6600 102.4709 101.1515 100.6486 101.2324 102.5928 104.2064 105.7726 107.2093 108.5121 109.6810 110.7366 111.6953 112.5623 113.3652 114.0962 114.7808 115.4233 116.0092 116.5779 117.5485 109.3133 117.8090 122.0427 106.4446 108.1910 117.5917 119.3413 120.3575 110.5248 107.7811 119.1394 109.0737 100.9128 100.7049 100.7211 105.5899 106.5269 106.3963 106.4173 106.1089 107.4386 109.9005 110.5827 111.9345 112.6438 114.8030 113.6437 106.1895 103.3391 106.6410 110.8006 108.4229 110.6394 114.8434 116.9252 116.6943 116.5119 117.1174 117.6700 117.7532 117.2393 113.6771 118.9200
102.6600 99.9321 97.3857 96.0536 97.6071 100.1374 102.5476 104.6355 106.3917 107.9048 109.2192 110.3728 111.3956 112.3225 113.1591 113.9286 114.6368 115.2922 115.9011 116.3842 116.8811 114.5845 117.3688 106.0049 125.5504 121.8213 121.5197 122.6018 114.5706 123.1959 106.5819 112.7205 99.0138 99.5931 101.7293 103.8943 105.2464 106.5776 108.8520 108.3756 112.0019 109.9518 112.1030 112.3953 111.3973 111.6979 118.1893 108.6458 112.5430 103.2538 103.4808 102.9229 103.5624 121.1255 120.9678 110.0471 121.8930 123.2529 121.9507 121.9528 122.4446 122.4387 119.5049 126.7400
99.2700 97.1957 91.4632 89.3791 91.8023 97.5731 101.0497 103.7103 105.7778 107.4657 108.8869 110.1153 111.1976 112.1562 113.0192 113.8136 114.5427 115.2046 115.8127 116.3652 117.3876 118.0998 110.5748 93.9880 100.9397 118.5387 101.3564 104.0822 107.7507 112.2782 114.9755 109.1093 106.3657 103.3079 108.9446 108.3610 108.2743 109.3734 111.5954 111.5031 113.3324 108.4500 107.7724 103.6262 114.9988 113.5659 109.7453 105.4797 104.9574 103.7163 103.9385 104.4452 105.8126 109.8887 123.6698 101.7786 124.6553 109.0184 125.0136 127.2809 127.9215 111.8197 128.4653 126.8700
98.9800 94.8777 87.1128 84.5791 87.6284 95.4683 100.1466 103.1994 105.4468 107.2385 108.7178 109.9870 111.0939 112.0773 112.9574 113.7521 114.4613 115.1567 115.8334 116.3465 116.4928 117.1867 114.5530 113.4307 111.6933 118.2759 109.0429 115.8557 104.3049 105.2766 106.6024 107.6062 107.4857 108.4866 109.5334 103.9243 110.9353 103.5170 111.8334 112.3029 113.6307 108.2197 105.8696 114.0653 117.7983 111.6957 116.2770 106.0985 103.8945 104.6204 105.0357 105.4496 105.7906 105.1563 110.5732 107.3166 110.2942 113.4463 110.0431 112.5698 112.8260 120.6220 117.6354 120.5500
99.0800 95.2166 87.6667 85.2449 88.0847 95.7395 100.2271 103.2556 105.4841 107.2586 108.7345 109.9995 111.0990 112.0808 112.9626 113.6892 114.6477 115.2844 115.6164 116.3097 117.6726 119.3043 118.3236 119.3856 119.9416 121.8132 104.4245 102.2145 102.4185 104.8294 104.5658 105.2258 107.1731 108.3725 108.4813 108.4451 110.5148 109.7068 111.8940 112.2215 113.1476 113.5696 106.4365 103.7209 103.6749 103.8508 104.4598 104.0831 104.0637 104.7414 105.0840 105.7035 106.3666 106.9947 107.2546 108.0543 108.6272 119.0464 109.2587 118.3658 119.5460 112.3723 112.5698 121.8500
99.5500 97.2356 92.4694 90.4354 92.9041 97.9681 101.2906 103.8477 105.8701 107.5248 108.9296 110.1502 111.2245 112.1727 113.0435 113.8438 114.5567 111.4042 116.2923 116.0106 118.6991 92.7896 112.4627 116.6561 95.9941 120.0984 100.8126 110.7777 99.2518 102.2520 102.3797 104.1257 106.3114 108.3236 109.0522 110.4395 111.0525 111.3133 112.1305 113.0052 113.5481 114.4675 110.7960 114.0087 107.5549 102.9921 103.1286 103.4145 103.9592 105.5429 106.6247 106.8480 107.1963 107.7309 108.2867 108.8673 108.9970 110.2626 110.0366 111.4722 111.5257 111.7731 112.5246 113.3600
102.3500 100.5525 98.2129 97.0666 98.3450 100.5686 102.8454 104.8206 106.5251 108.0035 109.2865 110.4247 111.4399 112.3517 113.1140 114.6174 110.5597 104.5426 93.5723 118.2876 117.0939 114.4607 121.1471 100.0612 102.2902 98.9859 102.1461 102.9587 102.7293 102.4369 108.7810 109.6252 110.7254 109.2445 99.7901 100.4985 100.7610 104.5289 115.0445 100.9637 110.6676 116.6993 115.0593 110.8320 108.8231 103.2243 103.0632 103.6854 103.8925 104.0450 103.9493 104.1303 104.4473 104.6553 105.8920 105.1534 120.1522 114.2460 119.4403 121.0998 111.6785 112.3762 112.6148 113.7100
102.6600 102.8868 101.6411 101.1978 101.7178 102.9915 104.4861 105.9719 107.3669 108.6230 109.7679 110.8118 111.7486 112.6152 113.4143 114.0679 114.5433 118.7645 97.4747 119.1321 117.2480 119.9565 100.0431 108.1901 98.9469 100.5489 105.1544 103.7357 104.3897 104.3319 105.6913 118.8280 100.1000 99.8982 100.3949 103.2760 104.6952 105.7907 111.5287 105.8056 105.1891 114.3396 107.8497 113.8271 101.0730 108.5170 102.0820 109.7521 110.0844 112.3087 111.7265 107.1213 106.6207 106.4710 109.4736 110.6735 109.2808 112.2581 107.3453 110.4391 118.4607 110.6983 111.0100 122.9900
106.7700 104.9417 104.2117 103.9489 104.2563 105.0290 106.0529 107.1699 108.2724 109.3429 110.3418 111.2674 112.1274 112.9252 113.6612 114.3592 115.0625 115.1391 116.6244 116.8922 117.4279 112.3972 117.5249 97.8966 97.1623 100.0766 113.9156 104.0130 107.3346 106.9272 108.4509 112.8102 110.9374 100.6957 101.7407 101.3912 110.2780 105.0471 108.3104 112.7429 111.2382 109.7838 107.8473 112.1137 102.0769 105.5668 103.4244 103.0828 102.3850 109.5360 110.0371 110.9812 113.1035 112.2191 115.4038 118.8709 118.1557 115.3750 118.4019 118.6448 115.8014 118.9507 111.2676 118.0600
106.7700 106.7057 106.2039 106.0406 106.2342 106.7508 107.4904 108.3276 109.2145 110.1026 110.9601 111.7778 112.5535 113.2876 113.9796 114.6361 115.2275 115.8456 116.5143 117.1770 119.3881 109.2449 99.6084 110.9921 101.4234 108.0913 98.9958 99.9382 106.7597 107.0641 106.1675 111.7442 106.5217 104.1265 111.3256 100.6174 102.0330 106.2235 106.2916 110.6198 108.1353 112.1296 101.9906 101.8105 103.2089 104.3788 107.7886 103.2606 103.9684 103.5510 103.3096 103.0579 111.2002 111.6337 118.3114 123.3874 125.4000 117.6873 122.7341 124.0757 120.6920 123.0466 104.8873 106.1800
108.1800 108.1836 107.8236 107.7145 107.8600 108.2244 108.7741 109.4278 110.1443 110.8775 111.6086 112.3300 113.0232 113.6860 114.3232 114.9302 115.4992 116.3647 116.2276 117.5619 110.4466 113.5381 107.6032 119.9052 111.1519 110.9666 99.9149 104.4226 103.1298 104.2627 107.2381 106.9229 111.2209 113.3767 106.1227 100.8911 101.1658 108.8034 103.3525 107.9088 107.7006 105.5791 102.2575 103.1387 102.5974 106.2492 101.9763 107.8688 103.6329 103.8875 104.8512 104.5156 108.3636 109.2170 116.7853 115.7927 109.7653 122.1720 124.7119 117.0634 127.5139 119.4231 118.7957 117.0200
109.5600 109.5288 109.2807 109.1613 109.2320 109.5031 109.9225 110.4356 111.0203 111.6352 112.2616 112.8913 113.5136 114.1105 114.6922 115.2392 115.8099 115.8041 120.0872 118.5342 101.6196 97.0263 95.0913 109.1319 96.8853 101.0091 104.1052 103.6927 100.4033 98.9853 105.9652 106.0855 107.5655 110.3269 104.0347 106.8022 101.1877 110.8086 109.6180 111.7223 109.7786 104.8796 102.2057 102.6423 103.7537 108.9594 108.0395 113.1642 110.1488 114.8103 103.9114 103.8783 113.4807 117.2728 116.2454 116.5738 112.3350 118.5726 118.6996 116.6395 120.1458 109.4819 124.5868 118.8000
110.6500 110.3531 110.0768 110.2711 110.4150 110.6336 110.9566 111.3667 111.8520 112.3671 112.9081 113.4592 114.0119 114.5462 115.0982 115.6588 115.8954 117.9781 102.9449 118.1299 103.0659 101.6397 97.2325 96.1139 102.6876 102.1090 108.1413 108.5860 104.8779 105.7193 99.1402 105.8763 106.8406 109.0624 102.9803 107.0742 103.0360 100.8462 105.6996 108.0693 103.8346 106.6863 101.8906 102.4074 106.9684 109.0345 115.2211 117.3820 118.0816 115.8417 115.7517 104.2949 106.7796 111.6850 117.7199 116.7275 117.8850 116.9283 116.5198 117.9042 117.6969 115.5671 119.1837 118.7900
111.6200 112.8379 113.0547 111.3087 111.4671 111.6378 111.8950 112.2416 112.6392 113.0720 113.5445 114.0232 114.5133 115.0079 115.3885 115.8067 116.1136 118.9462 104.3567 95.5845 111.9645 95.7614 98.6702 100.1494 103.9272 98.2525 104.2270 106.2783 106.5351 106.0822 98.1958 102.3861 105.0202 106.1605 104.2119 101.8434 100.1259 101.4865 100.7228 104.1998 105.3349 106.8256 106.7604 106.8129 113.9336 115.3530 118.9604 118.2271 113.6679 115.8557 120.9544 103.4969 103.5093 103.6163 106.0941 107.8142 107.4057 119.3862 119.7861 119.5059 120.3088 120.0516 119.3024 119.5900
112.4900 91.3294 113.6938 112.1394 112.3987 112.5406 112.7575 113.0378 113.3702 113.7435 114.1591 114.5795 115.0111 115.4646 115.8750 116.6791 119.2802 116.6290 119.2641 108.7580 120.9513 99.4358 100.3242 101.5771 103.2988 102.9385 107.5634 107.5319 108.2635 113.2907 106.6160 106.8074 105.2406 112.4534 116.3303 99.9326 107.5985 100.5754 105.5497 101.7855 103.1026 108.8266 108.0078 108.8021 109.2379 111.1172 111.4469 110.9290 109.7931 110.0931 104.4703 110.3977 112.1017 112.2646 114.9182 109.7179 104.0092 106.3229 106.5542 106.7841 108.1724 108.7705 121.4928 119.9300
113.2700 113.1073 113.2637 113.2079 113.2605 113.3687 113.5451 113.7837 114.0693 114.3920 114.7455 115.1151 115.5268 115.7945 116.8496 104.4964 98.3912 95.5746 110.1951 111.7316 117.1358 114.5666 99.8049 101.5143 104.2948 108.0620 106.0776 107.0919 108.8914 103.1381 110.9938 99.3923 109.3802 111.6560 101.8074 110.1522 110.1523 109.8096 110.2211 110.2312 113.1646 113.8875 112.5186 113.3558 106.7550 109.1707 109.3983 110.2636 110.8488 112.1272 116.2651 112.1763 115.1178 120.6245 118.4449 119.7347 115.1440 116.2853 115.7231 117.0367 106.2804 105.7197 105.5265 120.7900
113.9900 114.0164 114.0456 113.9926 114.0277 114.1198 114.2665 114.4724 114.7215 114.9990 115.3116 115.6410 115.9758 116.3234 117.0355 111.8867 93.3224 95.2166 97.8489 107.8629 109.7531 95.9306 119.5792 105.3067 113.2757 109.9938 109.1187 107.2626 107.9358 112.0153 119.3556 104.4131 107.0130 103.1428 104.0264 100.2069 111.7990 115.5215 112.4963 111.5241 110.9709 112.2075 113.4271 118.5045 109.5421 117.0047 117.0159 118.1096 111.2605 117.9930 112.6755 105.0227 113.6726 114.0071 114.7014 113.9208 122.2517 123.8026 117.8413 111.0644 117.7966 117.6244 126.1383 126.2500
114.6500 114.8487 114.7279 114.7043 114.7359 114.8151 114.9442 115.1217 115.3314 115.5768 115.8492 116.1451 116.4556 116.7817 116.9080 116.1491 100.5765 95.3719 95.5665 116.8720 100.6482 116.4195 103.2153 102.3330 103.5177 107.6863 120.9819 109.3470 110.4698 112.5032 101.2225 104.0458 103.2444 101.2889 104.5662 107.1987 110.6225 120.1114 119.1745 109.1311 105.0312 113.8523 113.8040 115.6851 110.4255 113.7154 117.3380 117.5275 118.2488 117.7508 119.3560 119.7796 115.3192 115.1203 115.9017 116.6815 125.1392 124.8816 114.1200 110.3490 106.6080 124.9107 122.5655 124.8800
115.2700 115.4491 115.3890 115.3636 115.3913 115.4619 115.5716 115.7258 115.9124 116.1289 116.3673 116.6302 116.9116 117.2692 117.8266 105.2939 112.0527 101.2976 96.9823 102.7643 110.6431 117.8448 115.6934 109.4907 103.5592 112.4868 112.5381 115.9820 99.3769 119.7993 103.0225 111.5741 109.5105 102.2411 103.8049 104.9779 105.2494 116.9398 106.0676 115.6308 121.1135 115.1246 116.2482 113.1380 102.7042 105.1899 118.2267 116.1036 118.3811 114.9803 119.4581 119.3916 120.4700 121.3967 122.0572 122.8137 119.9090 123.6799 121.6510 126.5388 107.2544 116.7828 106.7498 106.3600
115.8400 116.0652 116.0007 115.9845 116.0065 116.0620 116.1597 116.2941 116.4569 116.6493 116.8688 117.1034 117.3593 117.6644 117.9233 113.2290 110.5076 123.2897 99.9570 97.3589 105.1882 109.3917 106.4173 113.6749 101.8574 107.5051 110.7229 111.9671 110.0994 111.9539 103.6952 100.7401 102.1933 103.2557 104.5241 106.4969 108.9621 111.3766 108.7897 110.0857 105.6819 103.5094 116.9080 106.9245 103.6878 104.5691 118.1253 118.0778 117.4886 118.4659 120.9209 121.8367 120.6371 120.1853 121.9317 122.8572 113.9937 115.9513 125.2353 124.2376 127.0938 117.5969 115.0375 106.4800
116.8800 116.6214 116.5669 116.5527 116.5695 116.6255 116.7135 116.8317 116.9736 117.1446 117.3429 117.5524 117.7786 118.0190 118.2417 118.3872 119.7613 117.1489 105.3740 107.4499 104.2308 101.9738 101.5212 100.6303 108.3428 99.1871 112.8578 101.8258 106.7784 101.9480 101.4079 104.9486 101.0150 104.4323 105.8142 107.9159 109.8937 117.0750 108.0390 110.4707 102.9109 112.3508 112.2324 109.5001 107.8516 107.1020 126.0724 123.0481 124.1014 124.7459 122.6446 122.6956 121.6990 120.5580 122.5550 120.9443 121.0780 112.1431 118.4493 124.0451 123.7780 119.7030 107.0982 106.4800
117.3600 117.1625 117.1108 117.0948 117.1069 117.1570 117.2322 117.3357 117.4629 117.6224 117.7956 117.9847 118.1907 118.4162 118.7037 118.8927 119.1832 121.1999 110.6312 107.8166 106.0131 104.5975 105.9678 97.3758 99.0971 101.0683 103.4900 114.1399 108.3285 102.4355 100.5924 104.7522 105.4589 105.6418 107.1679 106.1899 106.6763 108.3646 107.7897 101.9630 101.2356 117.2311 118.8045 112.1892 105.7346 110.9348 127.5870 126.4795 126.2112 127.0756 125.4771 125.3613 125.9662 124.8886 124.5815 133.8735 112.1004 115.7174 108.5048 126.6820 124.7341 124.0699 106.4219 117.6300
117.8100 117.6365 117.6019 117.5969 117.6114 117.6552 117.7194 117.8194 117.9343 118.0718 118.2302 118.3906 118.6344 118.7877 119.0072 119.2111 119.4625 119.5762 120.3955 101.1686 100.6632 103.5647 104.5646 109.9658 101.3763 105.1668 101.8973 101.8561 110.4784 101.0272 103.7936 107.0108 110.2345 108.7144 111.4436 115.7417 111.3790 105.7664 104.5711 113.4326 108.9859 113.1737 108.4333 102.8965 103.5841 109.1635 116.8099 122.0118 128.2660 127.4558 127.3182 128.1072 128.9837 128.9625 128.3181 96.1231 119.7487 126.3895 119.1405 127.5398 127.2874 124.3268 117.8670 106.5200
118.2400 118.1640 118.1297 118.0844 118.0901 118.1296 118.1935 118.2777 118.3811 118.5034 118.6328 118.8514 118.8107 119.1955 119.4080 119.6523 119.7640 120.0847 119.0338 116.2886 107.1489 110.3050 104.5362 114.0987 107.4148 107.8894 106.3750 106.1215 102.1181 106.1349 101.1705 104.7703 108.5084 108.6905 111.1484 107.5580 104.3111 111.1022 109.8616 110.3641 112.0712 114.3078 101.4228 110.5528 110.9463 114.2145 114.2298 113.9120 116.2674 123.4607 129.1789 128.4778 128.2084 128.8451 129.6992 129.8255 129.3267 130.0726 125.9526 125.6780 126.1839 125.5775 128.5458 127.1400
118.6500 118.4220 118.4337 118.5365 118.5437 118.5819 118.6356 118.7103 118.8082 118.9178 119.0551 118.9199 119.9764 120.7070 119.1974 119.8005 120.0545 120.1222 122.0284 110.2033 110.1879 111.2958 109.6958 105.2675 107.7660 115.2489 106.4912 108.9621 100.6114 110.7953 107.1316 101.6295 103.6394 119.7273 110.9462 110.1686 111.9882 99.7523 103.4082 113.5090 111.7768 115.3740 110.9484 114.0320 114.0929 114.6797 106.4887 115.3668 125.5650 116.4120 117.8423 125.3363 128.9778 129.6159 129.5026 130.3450 130.6823 130.2867 129.9033 131.2401 132.5274 130.9873 112.8259 110.9300
119.0400 119.2588 118.8109 118.9792 118.9769 118.9996 119.0551 119.1279 119.2086 119.3163 119.4372 119.1014 120.0699 104.4387 124.4401 120.5012 120.7115 118.9546 122.9153 98.9567 101.0702 105.1677 117.2434 107.3682 106.2414 105.0110 103.7031 105.6370 106.0905 110.5756 110.1528 107.8990 108.6988 104.8465 109.6081 105.2192 114.9374 101.8410 110.2426 113.8185 114.2192 111.1130 106.1735 113.7224 113.9081 114.7817 114.3130 115.0288 125.1099 125.7519 126.4650 117.9062 118.6327 117.0095 129.7009 129.6513 130.1842 130.4541 132.8634 110.3990 115.6100 107.0005 106.4051 106.6700
97.4200 117.7435 119.0948 119.4081 119.3914 119.4135 119.4539 119.5189 119.5993 119.6948 119.7982 119.9320 119.2135 111.0978 122.2610 120.1325 120.8062 120.1615 119.1388 101.3929 99.3744 103.4522 115.3516 102.4943 101.4830 100.2908 102.1493 101.4317 104.6370 109.4164 110.4127 111.3366 109.1336 113.6163 109.4745 110.5405 113.3077 114.4600 104.4481 103.8173 103.8669 109.2573 103.0493 108.2577 114.5499 114.8861 115.2480 116.0508 116.4615 121.2914 127.5719 127.5187 129.0667 117.9291 127.6959 116.4965 130.9828 130.7314 130.8017 130.7541 131.5163 132.2076 103.5809 106.6900
119.7800 119.9027 119.7895 119.7689 119.7729 119.7995 119.8356 119.9028 119.9704 120.0639 120.1589 120.1822 120.6183 115.6778 121.6402 119.7719 121.1280 121.3284 122.6237 121.3209 99.6732 101.5291 104.5967 103.8705 100.2578 100.9062 101.6419 101.9431 100.3023 103.0138 112.5757 120.8754 115.6849 108.9615 113.7990 112.3161 111.9732 113.9904 108.7375 114.3353 104.1491 111.6415 102.6336 103.7569 104.6127 115.5965 115.2331 128.5420 121.4398 116.8641 117.2305 123.2471 128.2232 128.6624 130.4834 119.7394 112.2958 115.2997 130.7535 130.5395 131.5288 132.2621 115.1974 115.8300
120.1200 120.1635 120.1424 120.1452 120.1447 120.1773 120.2370 120.2660 120.3310 120.4136 120.5085 120.6457 120.4322 113.5958 114.3664 120.4504 121.3280 122.8371 109.8329 121.0960 124.9919 104.4311 103.4302 102.4802 100.1179 100.8512 103.4659 105.8840 99.8839 113.9442 119.3458 118.7410 119.4428 119.8922 107.5740 102.2654 111.9607 110.8955 103.8123 102.6264 116.8532 107.2148 108.6577 108.1710 103.6713 111.1203 118.9977 122.9721 118.1553 118.8270 122.5711 119.0421 127.1564 125.1955 128.5506 130.1598 134.2639 123.1165 121.4656 118.3398 130.5292 116.1454 113.7988 112.8900
120.4500 120.5407 120.5134 120.5052 120.5036 120.5405 120.4429 120.6050 120.6784 120.7509 120.8383 120.9784 120.7377 121.4768 121.9551 98.7953 105.9110 106.1737 107.2948 120.9127 110.3953 98.6769 102.2867 107.8030 105.2016 99.9210 103.9424 106.9331 117.9244 117.7781 117.1926 119.0658 119.4174 120.3067 111.5863 113.5922 103.2444 111.2285 107.9137 108.1501 104.4948 113.7015 119.8735 107.5971 111.5244 119.8007 118.1225 118.2798 118.6378 118.7265 118.7238 130.3100 129.5604 129.2276 124.6326 124.9753 127.5784 129.7573 132.6440 123.8992 120.4682 110.1244 112.8078 106.8400
120.7700 120.8725 120.8534 120.8441 120.8493 120.8787 121.7181 121.7530 121.0174 121.0697 121.1587 121.2603 121.3970 121.3725 120.7181 111.3821 111.1115 112.5571 100.6223 123.0440 117.7756 103.3123 105.6807 106.8189 109.9082 104.3999 104.5393 106.5754 107.9952 118.3746 111.8323 120.7157 116.5712 119.9617 106.3200 123.6443 116.6634 105.0923 108.0595 103.0404 106.0481 105.0958 116.3966 103.6895 116.7807 118.9841 118.8640 118.7464 119.0024 120.1967 122.7623 127.9528 129.7263 129.5336 125.2651 123.5429 128.1813 133.3253 131.1711 128.3673 114.5434 105.8869 111.3633 116.8700
121.0800 121.0900 121.1000 121.1100 121.1000 121.0900 121.0700 125.8700 121.2900 121.2600 121.4400 121.4400 121.6300 121.6000 121.7600 121.9300 121.9300 105.3600 105.2800 122.4200 100.5800 106.0600 106.6000 107.5700 108.8600 102.6100 105.2100 106.2400 108.6700 108.5700 113.1900 120.3300 102.5100 121.7200 121.6600 122.5600 116.6500 117.0700 103.4400 104.4900 103.8200 106.9800 116.8300 104.7900 115.2900 115.7100 119.7600 129.6800 119.6200 120.1500 121.3900 121.4900 129.4100 130.0000 130.5200 130.1700 130.2400 122.3200 131.3600 111.6500 115.5400 106.7900 117.4300 106.9700
