128.2100 127.5000 127.5000 124.3700 123.8200 123.2500 123.2200 123.2200 123.3400 122.8700 123.7200 123.9100 123.9100 120.8600 120.8600 119.2400 120.9500 121.2000 105.0700 105.0700 126.4100 126.4100 115.9600 117.4000 114.6200 119.4000 116.7900 104.6500 106.8700 109.6700 109.6700 113.4500 126.6900 126.6900 106.8300 126.6900 126.6800 126.6800 104.6700 126.6600 111.7900 121.5800 126.7700 127.2100 126.8800 126.8700 126.9700 126.9700 127.0600 127.0600 127.1400 127.1400 127.2500 127.3400 127.3400 127.4100 127.4100 127.5000 127.5900 127.7100 127.7900 127.7700 127.8700 127.8500
128.2100 126.8853 126.9373 125.0586 123.8043 123.5168 122.9228 122.9677 122.5562 123.4244 123.5212 123.2809 121.9992 121.9432 115.3582 109.8488 122.4196 121.4716 108.6975 127.5025 120.5382 129.2311 120.4320 115.5282 115.6437 114.5824 112.7819 102.9346 105.9586 106.6744 110.0816 107.7177 108.4713 116.6224 105.2625 128.6001 115.1069 109.6418 106.7266 122.5521 119.1647 126.3311 126.8130 126.6879 126.7380 126.7661 126.8062 126.8539 126.9091 126.8290 127.0865 126.9489 127.1106 127.1543 127.2340 127.2989 127.3608 127.4593 127.4706 127.6455 128.4124 127.7062 127.8500 127.8000
128.0600 127.2197 122.9331 127.2048 125.5102 124.3830 123.0939 122.7284 122.6666 123.9361 122.6389 123.2642 124.1364 122.9094 123.2405 117.4226 122.0525 120.1361 110.0324 118.9245 119.0331 114.9014 109.5099 119.4729 118.6695 121.7296 103.4197 108.3699 107.8813 110.0758 110.5770 110.8192 122.6933 127.7467 136.4542 108.5745 112.8276 109.6004 120.1084 128.4198 123.0622 126.5240 126.5149 126.5192 126.5525 126.5929 126.6357 126.7089 126.7285 126.6821 126.6169 127.8665 126.9260 127.0510 127.0757 127.1343 127.2506 127.1882 127.4329 127.5223 127.4946 127.4841 127.1915 127.6600
127.8900 127.1265 123.7725 122.6084 125.9095 124.4006 124.3554 122.2303 121.9840 123.9285 122.9439 121.7588 121.9478 120.3596 120.6055 119.8522 119.1467 119.2666 110.5182 103.2564 119.5457 107.5898 111.2715 104.1630 119.9090 122.7561 114.6737 119.1859 108.2231 111.5042 107.3009 114.7871 122.5149 119.3591 125.4958 125.0851 126.9411 120.9077 114.3338 125.3221 123.2588 126.4148 126.3542 126.3513 126.3824 126.4279 126.4597 126.4984 126.5713 123.5210 107.5073 128.3729 126.6946 126.8693 126.8914 126.8272 126.6020 127.2989 127.4641 127.9141 132.8529 126.2429 123.4232 105.5200
127.7500 122.1107 122.0547 114.4455 127.5125 121.4327 123.3771 122.1102 121.6567 123.2315 124.3681 120.4938 120.7527 120.1455 119.4041 120.7033 119.3882 126.5995 105.9997 107.1258 117.5760 118.5890 112.1372 103.0213 113.2816 112.8754 111.4016 109.6096 111.8104 106.0181 109.3423 115.8743 126.9491 126.7285 127.4105 109.8072 126.8640 126.2059 125.8538 126.3074 126.3352 126.1020 126.1244 126.1666 126.2060 126.2363 126.3234 126.1209 127.4564 115.9851 104.9140 120.9077 126.8138 126.5175 127.4780 127.1275 126.3409 126.5768 127.7868 117.2977 121.4299 125.0374 111.3366 127.3600
123.6600 128.8476 120.5712 123.5412 113.3624 113.1649 124.7279 124.3152 123.3514 121.4876 121.4095 121.9245 119.6736 119.4398 118.5164 118.4548 117.7822 125.6333 114.9676 117.5186 109.9816 114.5529 120.1528 116.7827 108.2747 111.9369 105.4432 105.3446 125.8923 111.4538 105.7222 130.4786 125.5827 126.8554 123.7961 127.3107 125.3709 125.0611 122.5912 125.8757 125.8785 125.9049 125.9483 125.9835 126.0247 126.0695 126.0251 127.2011 121.7799 108.1245 125.9239 120.4140 126.4655 126.4839 126.3209 117.6495 128.0267 128.2226 127.5604 120.3955 123.0434 123.0020 107.5091 127.3600
123.6100 123.5233 106.7689 121.1442 116.7938 122.2104 124.3288 122.1616 122.2869 120.2951 121.3886 120.1983 120.0427 118.6908 117.9574 117.2902 116.4035 116.5070 116.1788 117.6067 117.3245 115.6983 111.1552 112.5287 116.3671 104.4740 108.8045 105.6146 106.1611 104.9495 106.3907 127.8459 125.3918 125.7028 112.8426 126.5510 125.5395 125.8657 125.8257 125.6578 125.6977 125.7274 125.7553 125.7882 125.8413 125.8368 126.0013 126.5463 110.9656 111.2787 125.8313 126.7352 126.2788 126.2867 127.6627 125.5417 127.2609 124.8257 121.2319 127.6154 126.8102 129.0541 126.8556 127.1800
123.1100 124.4542 113.9521 122.1639 126.7672 113.5031 113.6198 122.8445 122.1895 123.1656 120.4888 119.2478 122.1545 118.4161 117.7903 115.1625 115.7326 115.4377 121.4715 115.4764 116.2182 113.4204 111.6645 109.3356 117.5639 105.8426 107.1236 105.0368 108.1748 110.8920 128.2801 125.6374 125.3641 125.5199 127.1911 125.3459 125.3461 125.3381 125.4100 125.4752 125.4941 125.5301 125.5643 125.6024 125.5925 126.1842 125.1652 127.0834 120.1993 108.0621 126.0750 125.8542 126.1975 126.2339 126.4380 126.0341 126.3642 126.6461 126.6762 126.4275 126.8445 126.6607 127.1325 127.0300
124.2900 124.5354 124.3675 124.4141 123.7868 120.8464 113.0260 122.9849 120.1234 119.8276 119.9720 118.6524 122.8215 123.9922 119.4224 119.4998 116.3039 115.1973 104.0515 113.6516 121.9090 112.3180 110.5275 115.5765 107.4977 119.0426 109.5975 119.2774 120.6697 106.8855 123.2067 120.5305 125.4100 125.1649 124.8964 125.2024 125.2305 125.2451 125.2468 125.2687 125.2995 125.3299 125.3664 125.4122 125.4513 125.4123 128.1755 110.3956 113.8690 127.6044 125.7648 126.1266 124.0754 123.0393 121.8853 126.1824 126.3222 126.1903 126.3687 126.5583 126.6191 126.8167 126.8156 126.8700
123.2500 123.6923 122.7669 124.5783 123.7031 122.9504 108.9211 119.3569 115.0922 122.0942 118.2687 118.8226 119.1354 123.4287 125.7479 122.3499 116.4558 114.2481 124.9505 129.0344 127.1261 117.5608 106.9062 124.8151 109.5224 104.6339 117.0625 120.2384 125.0680 122.5156 126.0385 125.6506 125.2608 125.0732 125.0591 125.0200 125.0001 125.0134 125.0360 125.0638 125.0952 125.1290 125.1707 125.2160 125.2422 125.3778 125.2501 126.0208 118.2322 126.2834 125.5509 125.9008 127.6244 103.0125 120.7830 127.3378 116.2228 125.9722 126.3590 126.3879 126.8365 126.3875 126.4207 126.6900
123.2500 124.0802 116.5946 120.9051 126.3365 125.8000 118.8561 119.9976 119.8603 119.5998 119.1160 119.1945 119.8030 117.7047 126.3950 123.5005 117.7982 120.6365 120.8227 111.4121 120.6560 116.2117 112.5972 121.9948 108.7201 109.8800 126.3204 124.8856 125.1788 124.7971 124.5314 124.5615 124.4648 124.4822 124.6724 124.7287 124.8027 124.8046 124.8240 124.8518 124.8819 124.9212 124.9632 125.0061 125.0640 125.1042 125.0981 125.2973 125.9835 125.3849 125.4497 125.2694 125.5330 112.9452 128.0608 118.0420 122.4693 126.3968 126.1475 126.2388 126.4395 133.7705 126.9179 126.6600
123.1900 125.9568 124.6610 106.7175 112.8665 107.2657 110.7287 117.1482 109.8810 116.6378 119.5022 119.1489 119.4805 120.4879 121.0939 127.9286 127.8423 114.7649 116.0566 117.0321 117.1696 107.2397 127.2691 124.9581 123.2371 126.5866 125.3784 124.5688 124.5261 124.5315 124.6290 124.5533 125.0251 125.1450 124.5946 124.4957 124.5823 124.5901 124.6199 124.6770 124.6689 124.7117 124.7589 124.7983 124.8535 124.9118 125.0038 125.0191 125.1091 125.1782 125.2597 125.8737 122.3150 126.9242 128.2040 118.5996 126.3742 125.5166 126.0024 126.1223 125.8727 125.3296 130.5001 126.5100
126.7200 124.2351 118.5943 106.4446 110.8638 103.6552 108.6908 119.1613 116.8443 119.2193 125.6432 120.4254 119.4041 120.7243 119.6815 113.7725 113.4332 119.9772 116.6570 114.6613 113.3435 113.2982 116.5665 124.5016 124.7350 124.1748 124.2374 124.5441 124.5538 124.4113 124.3593 124.1467 124.9832 109.3446 121.7663 124.1262 124.3893 124.3493 124.3074 124.2129 124.4699 124.4908 124.5372 124.5885 124.6439 124.7051 124.7563 124.8435 124.9062 124.9894 125.0699 125.5494 120.9034 125.3838 129.2931 123.0280 126.3502 125.7262 125.8221 125.8974 126.1812 126.9298 121.4549 126.2900
126.7200 122.8154 125.0450 114.5505 117.1613 104.6346 101.6635 108.0193 119.9663 107.4508 116.2603 142.4247 120.4366 124.2193 126.1801 117.4190 108.7647 110.4217 116.3213 118.0906 110.0049 117.5063 124.4761 124.8329 124.4396 124.3904 124.3876 123.4852 123.0158 124.2360 124.1306 124.2479 123.4943 132.8393 125.2987 124.2808 124.0482 124.1133 125.6017 124.6475 124.2624 124.2653 124.3206 124.3709 124.4264 124.4897 124.5651 124.6291 124.7080 124.7870 124.8666 124.8899 125.1240 124.8159 123.8821 116.7250 125.5574 125.5363 125.6465 125.7788 125.9091 125.3961 119.1924 126.1200
110.8900 115.7034 125.5231 113.7650 116.9378 104.3031 107.2134 120.6422 117.1560 112.8661 108.1507 129.1618 126.9426 125.6476 120.3129 114.1244 114.2159 107.8547 107.5479 122.3838 113.4163 122.4423 110.4258 124.6952 124.2344 124.0604 124.2104 121.0882 121.5457 123.9401 123.9020 123.8269 124.0939 120.9475 123.4868 123.8026 123.8761 123.8637 125.6783 123.7161 124.1146 124.0296 124.0909 124.1427 124.2038 124.2769 124.3428 124.4192 124.5023 124.5787 124.6858 124.7714 124.8246 125.1203 124.2452 125.2733 125.0132 125.3941 125.4787 125.6139 125.5727 128.2873 126.9807 125.9500
108.4000 120.2412 126.5830 124.4877 112.4515 115.9158 108.2408 104.6063 119.5101 119.7644 112.6377 128.1912 117.1357 122.8022 118.1037 114.7255 121.4024 108.2106 104.8998 115.3120 109.4140 120.2126 115.4994 124.9327 123.9978 123.8859 123.7973 124.0108 124.2781 123.7600 123.6541 123.6369 123.5919 123.9840 123.6604 123.6387 123.6223 123.6499 123.4966 123.8003 123.7635 123.8060 123.8646 123.9152 123.9767 124.0529 124.1305 124.2046 124.2919 124.3828 124.4659 124.5636 124.6742 124.7582 124.8766 125.0904 125.0935 125.2046 125.3237 125.4403 125.5436 125.6339 125.8627 125.7500
126.1600 126.9288 126.2179 121.6210 110.9821 117.1674 110.1684 104.9937 114.3034 116.1567 117.3677 109.4890 122.8659 114.8987 116.1434 114.4021 117.1900 116.8691 103.6269 114.5678 128.2955 129.8085 118.1669 124.4322 123.6942 123.4765 123.5330 123.3557 123.4040 123.4090 123.4151 123.3878 123.3790 123.2821 123.3545 123.3697 123.3849 123.4203 123.3654 123.3178 123.4786 123.5632 123.6206 123.6842 123.7647 123.8270 123.8845 123.9941 124.0988 124.1604 124.2729 124.3706 124.4724 124.5848 124.6987 124.7829 124.9259 125.0366 125.1573 125.2688 125.3917 125.5322 125.6392 125.7300
126.1300 126.1598 124.4101 118.7001 117.2867 111.0702 106.6907 104.5530 112.8922 116.1358 116.7300 115.1010 115.5758 112.0912 117.3926 115.2006 114.7109 118.5885 105.2222 121.4745 107.5620 112.3850 113.8825 124.0683 123.4208 123.8321 123.3122 123.9944 123.0491 123.2310 123.1491 123.1289 123.1179 123.1204 123.1055 123.1212 123.1447 123.0815 123.6818 123.6559 122.8501 123.3159 123.4149 123.4576 123.4475 123.5823 123.7890 123.6547 123.7521 124.0156 124.0566 124.1585 124.2706 124.3820 124.4979 124.6138 124.7337 124.8547 124.9821 125.1092 125.2281 125.3592 125.4870 125.5500
122.8800 126.2644 118.3404 119.1879 118.2082 111.6438 109.1551 110.2461 107.0871 116.2309 116.8128 120.8516 107.3214 111.1341 107.5426 103.8348 108.9086 121.9507 108.2451 109.5222 114.2145 122.2357 127.5860 123.5321 123.1154 124.2857 112.8794 112.2591 123.6877 122.6349 122.8936 122.8612 122.8400 122.8397 122.8456 122.8344 122.7883 123.3183 110.6344 123.4181 123.8374 123.0906 122.9880 123.1704 123.6429 123.6267 123.1518 123.6018 123.9275 124.0138 123.8548 123.9463 124.0695 124.1848 124.3047 124.4247 124.5561 124.6843 124.8138 124.9402 125.0623 125.2580 125.3530 125.3400
123.2000 123.4190 118.2845 116.7504 120.0972 106.5692 106.9649 103.8419 105.0667 105.2504 118.4279 123.4798 111.2601 109.9266 117.4728 107.4208 108.6917 112.6872 113.3077 115.9642 113.2512 126.4666 119.7408 122.5746 123.1407 123.8295 112.3461 107.7657 123.0396 122.2001 122.6485 122.6371 122.6198 122.5611 122.5618 122.6217 122.8360 122.4676 109.2804 107.6384 123.2668 122.4393 123.7956 122.8510 116.9504 121.6456 124.1336 112.0220 117.7656 123.7271 123.5599 123.7555 123.8611 123.9889 124.1080 124.2347 124.3658 124.4980 124.6338 124.7660 124.9044 124.7393 125.3007 125.3100
122.9900 119.8048 117.4343 114.6374 114.6009 120.5778 116.0794 106.5674 116.7075 108.5580 129.8490 128.0519 115.9807 112.5290 108.0580 111.0551 115.4113 116.4082 110.5457 118.2044 116.6955 122.8224 122.7404 122.9999 123.2387 114.1070 122.1948 108.1173 122.8360 121.9665 122.3265 122.1710 122.0824 122.2936 122.3358 122.4262 117.7944 114.7919 114.6205 120.7833 123.5311 113.5581 123.0653 112.8604 112.1261 108.7642 123.2327 116.1291 116.8462 123.0532 123.3146 123.5687 123.6487 123.7802 123.9148 124.0506 124.1858 124.3160 124.4619 124.5974 124.7899 124.9940 127.4954 125.0700
121.7200 111.3357 112.9111 111.7640 116.5939 117.8105 119.0269 117.4051 106.1298 110.5426 110.9893 115.1241 116.9515 111.1124 108.0629 115.6483 114.9430 109.8294 109.3972 120.8870 123.6873 122.5085 122.1599 124.2266 121.4211 106.1775 123.4366 118.2330 122.3412 121.8076 122.1184 122.6244 122.7053 121.8841 122.0702 122.3257 112.4076 106.3358 124.8473 124.6366 118.5159 125.0959 119.6621 113.5522 110.3081 122.1099 120.8854 121.1324 108.0936 117.5656 123.3184 123.3144 123.4421 123.5786 123.7095 123.8549 123.9942 124.1399 124.2836 124.4232 124.5793 124.4317 121.6772 125.0700
121.7100 121.9685 116.2002 104.0844 117.4354 113.2467 116.0480 114.7158 110.3908 105.1839 111.9574 103.0033 114.5655 114.2217 110.0193 107.1384 110.9649 105.8651 114.3041 120.4294 122.1729 122.5995 119.1842 105.1715 109.0471 106.0747 113.9411 112.1578 108.7148 122.7172 122.1230 123.7038 106.3816 123.3757 121.5112 121.8534 119.8191 124.1935 119.7600 119.4495 115.8766 119.2569 117.7632 119.1555 104.4910 112.7363 105.7356 118.9416 114.6807 117.9081 123.0406 123.1043 123.2265 123.3684 123.5106 123.6694 123.8204 123.9784 124.1025 124.2544 124.4179 124.5365 125.0343 124.8800
103.2900 108.1925 114.0374 107.8015 114.8204 114.6116 112.6769 110.1395 114.1571 109.8359 105.6748 115.3529 111.5483 116.4408 111.6924 100.6210 109.0454 116.0949 111.7368 130.5393 121.9655 122.0640 123.9904 103.5052 103.9014 108.3980 112.9841 105.3540 124.3600 122.0943 118.1551 126.8234 107.0237 124.0241 121.1439 121.3649 121.6502 123.1263 121.3035 121.6969 105.6058 110.5594 111.4139 116.4104 112.9618 112.6426 113.0187 122.2430 123.2259 122.3188 122.7423 122.8435 123.0062 123.1512 123.3086 123.3637 123.6115 123.6846 123.9754 124.0837 124.2432 124.3787 124.5558 124.6300
103.1000 108.7226 116.4217 115.5888 113.0014 114.9362 117.5365 112.9953 113.4963 123.8439 104.8396 108.3507 108.4723 101.6760 98.6478 102.0666 109.2576 115.6902 124.2826 124.6125 121.0770 121.9541 124.0194 110.6231 105.4610 121.5847 118.5614 108.2190 121.1649 120.4728 120.5383 122.5102 107.7716 123.3352 120.9256 121.0504 121.0809 120.9765 120.7294 121.3399 107.9709 119.9310 111.3341 116.9979 123.4216 125.2335 123.9281 121.9525 122.0704 122.3259 122.4913 122.6364 122.7860 122.9398 123.1197 123.1882 125.1344 123.5035 123.6343 123.9180 124.0631 124.2522 124.4016 124.4300
113.1400 112.6231 115.7872 112.7534 112.7679 115.3079 117.5156 108.3181 101.3828 111.5284 113.7117 101.7968 102.4800 114.3373 100.3759 113.5786 111.5783 108.5596 121.4005 122.1771 121.9266 121.6643 122.1508 113.6760 122.5844 106.4706 107.1859 112.3847 121.7737 120.7602 120.8571 120.7008 121.7699 121.5636 120.7012 120.7370 120.7568 120.7911 120.6753 122.5067 114.6843 105.1795 112.9109 122.7921 121.0508 121.6564 121.4540 121.7722 121.9433 122.0836 122.1986 122.2900 122.5881 122.7188 122.8895 122.9559 123.7233 123.6854 123.7275 123.7286 123.9238 124.0755 124.2491 124.3700
115.3000 113.8252 114.6711 115.0778 114.4041 113.7516 114.1646 112.7242 114.9497 114.1834 116.7157 119.6923 100.7254 115.2223 104.8909 116.0169 107.1995 116.9644 113.2601 121.6921 121.5935 121.4641 122.7029 111.3254 122.3783 120.4295 125.4901 120.6564 120.1340 120.4323 120.4444 120.4152 120.1475 120.1746 120.1491 120.3900 120.1829 120.4983 120.4005 117.7563 115.6348 105.4389 110.9174 121.1347 121.1507 121.2138 121.4111 121.5404 121.6954 121.8036 122.5193 123.5629 122.1829 122.5171 122.6588 122.9071 123.3729 116.8725 120.4164 123.6717 123.7419 123.9167 124.0975 124.1800
113.0200 114.6379 114.3971 114.2243 116.9867 115.1406 116.1600 113.7552 113.5764 112.9920 108.8564 111.1473 110.5980 102.0956 101.9658 108.1096 107.4719 112.5485 123.6476 120.9014 121.1597 121.0377 116.0472 111.1251 121.5617 115.4051 114.7968 121.2845 120.2444 120.1822 120.0898 120.0688 120.1501 120.1016 119.4785 120.1146 122.2205 120.0817 120.3225 120.8413 120.8854 113.1650 121.8469 120.7628 121.1802 120.8443 120.9640 121.2320 121.4842 121.5025 121.6735 122.0412 121.9977 122.3089 122.4092 123.0509 118.9226 125.9628 123.0522 123.4493 123.5689 123.7462 123.9518 124.1100
112.7000 113.6766 113.6464 110.3872 113.4475 114.7413 119.2111 112.9055 112.7890 112.4228 112.7085 107.0472 113.2173 107.5680 107.6440 122.4377 113.4233 118.7524 111.8449 121.2523 120.9530 121.7716 116.1585 117.3678 121.2137 111.1965 103.3912 121.2667 119.7713 119.8485 119.7166 119.5856 119.2317 119.2286 119.5867 121.0297 124.7468 119.4475 119.9631 119.2454 120.6867 120.8546 120.1589 120.4624 117.6949 121.0845 120.8669 119.5187 120.5909 121.3855 121.5071 121.7077 121.9320 122.3902 122.1809 122.4559 122.5275 123.0433 122.9238 123.2646 123.4184 123.7342 123.9941 123.9200
124.5800 113.0456 116.0252 111.9788 110.0519 109.7968 112.7260 112.6497 113.3177 116.9409 112.7640 116.3894 110.8361 104.1684 97.9805 112.5238 106.9883 120.4766 127.4877 120.9031 120.3166 120.6461 109.4831 122.4734 118.2884 118.6589 112.8675 112.7149 119.5198 119.3251 119.2931 119.1901 120.2768 120.9925 119.5823 118.4953 118.7675 119.3548 119.4189 119.3949 119.6793 119.0516 120.0899 119.9222 121.2996 114.7179 121.0038 119.8205 122.5243 121.0219 121.2598 121.3954 121.7400 125.0477 121.8056 122.2491 122.4420 122.6533 122.8528 123.0363 123.1652 123.5970 121.3886 123.8500
124.3900 121.6134 124.2699 112.5543 110.1281 111.0726 109.8295 108.0750 112.8384 117.3673 116.1473 100.2813 98.9792 104.3546 109.9916 108.3501 118.3169 121.4915 120.1427 120.4655 120.1837 120.8388 114.6193 118.6930 108.4294 115.6654 115.9154 109.7293 119.5962 118.7761 119.1575 118.4623 118.7338 101.9569 115.8002 119.6257 118.8683 118.9046 119.0288 118.9099 119.0219 119.3338 119.5847 107.7727 109.7006 115.5162 120.2668 120.5513 120.5492 120.5195 120.9715 121.2465 121.1583 121.6460 121.7654 122.0419 122.2440 122.4526 122.6610 122.9250 122.8998 122.8254 114.9844 123.6400
115.5100 112.2152 114.5473 111.1896 111.4338 117.7657 110.8108 109.6598 107.1899 108.7828 102.8052 110.0666 101.4124 103.8911 99.6063 104.6428 117.3458 120.5135 120.2740 120.2454 117.8448 120.5304 118.6937 122.7132 110.2084 101.3780 118.3246 118.5283 116.8860 108.3095 116.8801 118.0289 119.2817 117.9070 108.3365 118.9134 118.1938 118.4831 118.5816 118.7230 118.9257 118.9346 118.2363 119.8729 107.3679 120.5352 120.1858 120.0661 120.3018 120.4999 120.7279 120.9219 121.2113 121.4010 121.6158 121.8176 122.0475 122.2687 122.4920 122.6924 122.9048 123.7337 124.0234 123.5800
113.4700 117.6263 111.7444 111.6769 110.9529 112.1195 114.4400 111.3680 112.5060 109.3587 105.6862 104.9411 113.3546 115.4283 108.6317 100.7212 101.5084 119.9992 120.1209 117.8842 103.5637 118.7235 119.1171 128.5926 116.1217 114.7504 120.5354 118.7842 115.4619 107.5422 116.8519 117.3941 118.5981 101.5312 113.6046 117.6418 118.0688 118.0656 118.1333 118.2819 118.4780 119.4504 112.3005 114.9073 110.8285 119.3439 119.3531 119.7568 119.9691 120.2064 120.4418 120.6814 120.9128 121.1377 121.3884 121.6189 121.8507 122.0840 122.3120 122.5275 122.7175 124.0354 123.1448 123.3100
114.1600 115.4385 110.4890 110.7039 110.7573 107.1022 110.1546 118.5210 121.9443 108.5291 107.3019 104.0901 107.6334 100.4163 103.3425 104.2162 108.0901 118.8691 120.1628 120.5870 119.4325 119.2780 118.5458 118.5546 118.7130 107.8072 117.9362 118.0057 118.6731 112.6199 116.8348 117.2872 117.3031 118.8916 120.4240 117.2488 117.4152 117.4388 117.6702 117.7929 119.0545 113.4914 110.2220 120.3498 118.7684 119.2975 119.1927 119.4594 119.6785 119.9286 120.1793 120.4249 120.6750 120.9244 121.1707 121.4115 121.6591 121.8951 122.1342 122.3664 122.5220 124.0489 123.1551 123.3100
114.1600 112.5722 111.3540 110.4406 111.4505 109.3505 107.7086 112.7288 115.8001 110.6867 106.0112 105.2370 108.4702 103.0847 97.2135 99.1580 99.5659 113.6748 119.0326 119.2078 119.0341 118.8633 118.6390 118.3531 117.5003 119.6713 115.7966 109.1343 117.0976 109.5944 117.2094 116.8744 116.9523 116.6687 116.6953 116.8252 118.3856 117.1821 117.2079 117.2605 118.2691 106.4169 120.2295 118.8569 118.2896 118.5752 118.8635 119.1179 119.3828 119.6387 119.9047 120.1703 120.4336 120.6971 120.9510 121.2141 121.4651 121.7130 121.9703 122.2045 122.4732 122.6726 122.8404 123.0300
112.2300 112.6022 111.0272 109.6634 109.8637 108.8928 109.5027 108.3696 106.8940 104.8533 106.9337 108.6202 110.9066 112.5697 99.0281 100.4281 100.9221 104.3281 120.4642 119.2438 118.7524 118.5018 118.2404 117.9943 117.6008 118.5017 107.5709 99.4611 116.7714 116.1022 116.5553 116.4259 116.3623 116.3949 116.3663 116.3284 116.6877 116.4286 116.7110 116.8931 117.3288 113.6604 110.6891 118.6195 117.3621 118.2917 118.5272 118.8100 119.0696 119.3550 119.6347 119.9173 120.1924 120.4725 120.7389 121.0140 121.2778 121.5337 121.7913 122.0501 122.3048 122.5315 122.8030 122.9800
112.2400 111.7183 113.2121 105.8042 102.8146 108.2782 109.8581 110.1296 107.5629 103.9290 105.0265 107.6575 117.6395 114.4846 121.0850 101.1896 115.3817 116.0369 119.0801 118.6471 118.5548 118.2719 117.8640 117.5572 117.2310 116.7603 104.2494 116.1842 114.0439 115.8881 115.9649 115.8731 115.7847 115.7303 115.7317 115.7974 115.8569 116.0066 116.1545 115.9215 116.6216 116.7668 113.8389 116.7142 117.5282 117.8088 118.2032 118.4051 118.7795 119.0668 119.3659 119.6616 119.9644 120.2352 120.5224 120.8107 121.0920 121.3689 121.6314 121.8954 122.1493 122.4191 122.6611 122.7600
111.3500 110.7501 113.0182 120.8706 114.1991 109.6718 110.6858 109.2673 108.5592 105.7569 103.7031 116.8513 113.4153 121.0665 120.2167 98.8122 125.6719 118.9618 118.8000 118.4426 114.9800 118.0358 117.4472 117.1963 116.8163 117.5500 116.2362 116.3020 113.2088 115.8744 115.4047 115.2524 115.1592 115.1182 115.1154 115.1537 115.2624 115.3426 115.1930 119.4142 115.6932 116.2401 116.7001 116.9311 117.0451 117.4279 117.9494 118.1234 118.4541 118.7826 119.1104 119.4141 119.7333 120.0607 120.3696 120.6228 120.9102 121.1964 121.4733 121.7442 122.0164 122.2031 122.4791 122.7100
109.3100 111.8820 114.7401 119.2410 111.9716 107.4128 110.1903 99.8325 110.8627 105.6947 105.0070 118.4644 99.3602 121.0626 119.2007 120.3793 118.9884 118.7882 118.4235 118.4280 117.5810 117.4885 117.1055 116.7574 116.4022 116.0836 115.8000 115.3623 115.5938 114.9158 114.7355 114.5980 114.4818 114.4311 114.4324 114.5011 114.4855 114.9362 114.2312 114.9863 115.3673 115.7794 116.0776 116.2734 116.7706 117.1104 117.4614 117.8104 118.1003 118.5867 118.9800 119.1554 119.5405 119.7934 120.2834 120.4702 120.7345 121.0261 121.3216 121.5908 121.8825 122.2502 121.6671 122.6600
107.5100 109.8434 109.3534 108.5054 118.6627 113.8840 103.9362 102.0539 115.1156 110.1144 103.2921 119.4325 116.9821 107.9523 120.0742 119.4803 118.6764 118.5145 118.1992 117.8302 117.4438 117.0700 116.6434 116.3362 115.9740 115.6011 115.2274 114.9072 114.5199 114.3193 114.0812 113.8843 113.7556 113.6958 113.6971 113.7627 113.8888 113.4523 117.3891 111.6665 114.7888 115.3004 115.5019 116.2052 116.3201 116.7251 117.0962 117.4587 117.8153 116.8216 119.1646 119.9813 119.3742 115.9811 112.8001 120.4897 120.6094 120.8627 121.1726 121.4800 121.4607 122.2191 111.5143 122.4300
112.6700 109.9337 111.6629 117.7756 105.8672 107.0845 112.9371 108.3957 105.2172 103.6789 105.5325 106.9288 111.8242 97.3917 121.2380 118.6339 118.7505 118.3526 117.9182 117.5506 117.1534 116.6855 116.7200 116.5372 115.4303 115.0860 114.6704 114.2955 113.9436 113.6144 113.3338 113.1188 112.9651 112.8907 112.8916 112.9713 113.0534 113.3613 113.6799 114.3670 114.2652 114.7034 115.0789 115.4884 115.9162 116.3174 116.6571 117.3854 118.1917 105.6128 115.0937 99.8320 112.2140 111.0832 121.1564 119.9782 120.4138 120.7259 121.0352 121.3233 121.5068 123.5197 115.5353 122.3900
108.1000 112.7005 110.9701 116.5243 112.7760 114.0020 110.9112 107.9813 108.3320 107.8918 105.8592 113.4153 115.5207 106.7691 121.1104 118.8242 118.4035 118.0668 117.6186 117.1787 116.8688 116.0993 113.9607 113.1120 114.8350 114.5852 114.1695 113.6619 113.2606 112.8774 112.5461 112.2850 112.0938 112.0008 112.0022 112.1010 112.2876 112.5433 112.9105 113.2048 113.6649 114.1156 114.5654 115.0233 115.4782 115.9307 116.1217 116.4617 114.8357 109.5850 110.7728 105.9397 108.3416 115.2434 119.5425 119.9110 120.2440 120.5822 120.9031 121.1867 121.4284 121.8089 122.6109 122.3500
107.2500 106.5954 109.5731 112.4803 118.0719 112.5018 113.7997 107.5652 110.7112 107.4548 120.2959 122.4956 115.3772 120.4911 118.8245 118.6256 118.1987 117.8851 117.5303 116.8661 116.8222 117.1054 110.4525 112.2430 116.6519 114.1320 113.3506 113.0027 112.5025 112.0779 111.6844 111.3591 111.1255 111.0124 111.0141 111.1287 111.3634 111.6925 112.0876 112.5439 113.0163 113.5187 114.0353 114.5423 115.0389 115.5859 115.9552 116.1410 113.9584 121.3303 113.1531 107.1844 119.1081 119.5976 119.4623 119.8164 120.1136 120.4540 120.7706 121.1253 121.5794 122.2571 121.8139 122.0800
112.7300 110.5704 108.6277 113.1815 117.8453 112.0859 106.7911 110.8558 113.5078 101.9539 110.4054 124.0104 118.9503 118.9679 118.8196 118.3389 118.0578 115.6834 116.7235 117.2890 110.6039 110.3461 113.2435 104.5813 112.5440 107.7740 114.5182 113.0733 111.7615 111.2454 110.7405 110.3351 110.0409 109.8921 109.8942 110.0461 110.3432 110.7510 111.2338 111.7644 112.3363 112.9135 113.4697 114.0521 114.6502 115.1843 115.6729 117.0002 117.2995 121.4231 116.4375 109.6304 119.1723 118.7926 118.8814 119.3244 120.0234 120.3317 120.6745 120.7761 120.4531 118.2072 121.9010 122.0400
110.7600 109.3947 111.9140 117.6038 112.7294 111.8776 107.7303 104.4867 109.9857 105.3851 100.9107 118.3566 119.2835 119.0125 118.7585 118.8137 107.9930 131.6331 118.3761 116.4288 108.2431 92.6745 112.3655 105.5703 116.0531 103.4564 106.0505 111.3506 110.8255 110.3163 109.7054 109.1986 108.8148 108.6178 108.6200 108.8208 109.2078 109.7160 110.3126 110.9658 111.6354 112.3112 113.0152 113.6123 114.0600 114.6485 115.3830 115.8623 116.2847 115.4310 116.5813 117.6356 118.2354 118.7178 120.9297 119.3688 120.0240 120.2059 120.5749 121.1559 119.0939 120.8886 121.6729 122.0200
110.7600 110.5448 110.5322 113.6428 109.6363 109.7526 111.3903 113.2085 103.4847 104.6759 116.2613 120.8605 119.5240 118.9615 118.6496 118.2840 114.6188 94.0339 112.7572 115.8054 116.3845 110.1021 111.8676 106.1775 98.6264 114.2193 114.1882 111.0149 110.1394 109.3450 108.5749 107.9096 107.3973 107.1157 107.1185 107.4047 107.9141 108.5872 109.3399 110.1319 110.9250 111.6901 112.3275 112.5696 113.9867 114.5963 115.1269 115.6401 116.1940 117.5959 119.0077 117.2514 117.8339 118.7465 117.9776 120.4240 119.8357 120.0973 120.5019 121.0043 121.5740 121.5828 121.8648 121.9900
110.1100 110.0035 110.1357 109.7526 108.8588 108.0033 104.5391 105.7060 104.0870 107.1844 122.8284 121.0103 118.9215 118.7347 118.2577 117.9274 118.0843 119.2648 114.5277 115.9559 115.3402 114.8164 114.1841 114.1273 108.9074 112.6269 110.6883 110.1506 109.2716 108.2944 107.3325 106.4372 105.7146 105.2993 105.3034 105.7249 106.4531 107.3513 108.3137 109.2822 110.2161 111.1053 112.4339 118.5698 104.4880 115.0672 114.7699 115.4219 115.7584 116.4956 109.4144 119.2966 118.6267 118.3825 119.1225 119.2945 119.6786 120.0413 120.2029 120.4390 120.8717 121.0822 121.4538 121.9700
113.8000 114.6714 108.5910 107.4782 105.9745 105.2680 110.2799 100.9745 101.8267 109.3542 107.5192 101.5826 120.8664 118.6056 118.4655 118.0463 117.5717 116.6494 116.5504 115.7695 115.1961 112.8123 102.3717 113.9377 112.3984 111.8004 110.6236 109.5140 108.4205 107.2318 105.9886 104.7521 103.6779 103.0061 103.0127 103.6944 104.7690 106.0029 107.2519 108.4394 109.5275 110.6137 111.6652 109.2804 111.5580 114.0126 114.5133 115.2150 115.4831 119.3130 113.0962 101.6145 118.6898 118.1668 118.7861 119.2009 119.5786 119.8030 122.8732 123.4633 120.8809 122.0179 121.9159 121.7400
111.6000 110.9987 110.2645 110.8162 106.9701 106.3280 103.2087 102.3113 106.4449 120.6057 102.1790 122.7114 101.0583 120.6956 105.2738 117.7426 113.9834 116.9624 116.2764 115.6519 115.0298 114.4244 113.5621 113.0997 112.0063 111.0845 110.0799 108.9172 107.6311 106.1929 104.5827 102.8348 101.1196 99.9468 99.9592 101.1421 102.8615 104.6085 106.2148 107.6530 108.9378 110.0694 112.5620 113.9186 98.0050 113.7241 113.9651 115.0592 115.5427 117.0996 116.6309 117.2610 117.7830 118.2883 118.6993 119.1215 119.4918 119.7033 122.9762 127.0971 114.1296 104.7516 112.0076 121.7200
114.0100 110.1946 110.1964 111.1826 108.8070 108.1527 107.5909 103.3061 104.8443 105.6507 98.9200 103.4986 121.0351 119.4764 118.8440 118.3724 112.6128 116.5119 115.9496 115.5680 114.9384 114.2005 113.4080 112.6083 111.7761 110.7714 109.6737 108.4523 107.0087 105.2589 103.2299 100.7276 97.9864 94.8968 94.9357 97.9319 100.7835 103.2544 105.2894 107.0032 108.3469 109.1993 107.1749 115.3849 99.0110 112.4291 113.9766 114.9605 115.6933 113.6672 116.7307 116.9842 117.7341 118.0857 118.6088 119.0540 119.4333 119.8964 118.3656 120.3138 122.7286 113.1196 121.4713 108.7800
107.9900 113.2736 111.9484 115.6978 109.7293 110.8505 101.6984 103.6062 109.4920 113.7289 115.5310 121.1685 118.8716 118.4064 117.8587 117.4379 117.4531 116.9570 116.0089 115.4728 114.5676 113.9619 113.4049 112.5547 111.6259 110.5861 109.4113 107.8069 106.0097 104.5808 102.1308 98.8550 93.4601 88.4890 88.5311 93.5750 98.9096 102.1717 104.5985 106.5126 108.0515 109.6292 110.6897 111.8109 111.4828 113.7578 114.1744 114.8373 115.4901 116.2164 116.7095 117.2522 117.5919 119.3269 118.4377 119.2368 117.2036 122.3734 114.2892 120.5441 121.7845 107.2537 113.4751 112.0100
122.8800 124.4997 107.9317 107.6353 107.7931 107.1577 108.8751 102.6749 102.1161 112.0442 117.5736 106.8377 119.7115 118.7387 118.1951 117.7212 117.0792 116.5272 116.0488 115.3956 116.1040 115.1358 113.3314 112.4804 111.5400 110.4741 109.3019 108.7568 105.0779 104.3648 101.5915 97.8775 90.4874 84.9790 84.7580 90.7152 97.9450 101.6621 104.2990 106.3113 107.9579 109.2779 110.1174 112.2233 101.5596 114.0535 114.1448 114.7992 115.4459 116.0267 116.6139 117.2736 117.3415 124.3162 118.0563 119.0110 118.2308 131.0428 119.7316 120.5190 121.3367 122.8221 125.2450 125.0200
122.8800 119.1146 108.3780 108.3281 107.4936 104.4441 104.0029 101.2853 105.6761 108.7461 120.8141 114.5799 119.1326 118.6609 118.1207 117.6582 117.1925 116.6918 116.0766 116.0064 104.1821 109.9711 113.2717 112.5284 111.5830 110.4984 109.1557 113.3052 106.2773 104.5212 101.8748 98.4383 92.1524 86.8778 86.8138 92.1397 98.4786 101.9219 104.4483 106.4055 108.0595 109.1964 111.5230 112.4273 105.2501 114.4377 114.1563 114.8049 115.4744 116.0913 116.6642 117.2223 117.1886 122.4008 119.0536 119.6151 119.6512 127.4915 118.7023 120.5669 120.8923 120.7558 118.3331 116.1400
109.8000 110.6066 111.0444 106.4571 103.4813 103.8333 104.8568 113.3023 103.8009 118.3500 121.2689 119.8398 119.0915 118.6005 118.1714 117.7080 117.2093 116.4540 115.6137 115.2266 100.2781 111.9002 113.3816 112.6239 111.7072 110.6750 109.5912 107.8819 106.7917 104.9681 102.7979 100.0471 96.5100 92.4054 92.5251 96.5501 100.0809 102.8516 105.0206 106.8238 108.4253 110.1246 111.3932 111.9094 113.4239 113.5428 114.2384 114.8816 115.5281 116.1303 116.6861 117.2189 117.7707 117.3745 118.3608 113.2515 119.8858 111.4799 120.0834 120.6178 121.0511 121.3295 122.4053 105.0000
110.7500 113.5057 109.9181 110.8287 104.4021 102.0272 102.8973 102.8545 111.1345 104.5588 115.0555 119.3515 119.1936 118.7593 118.2736 117.7630 117.2832 117.9811 116.9163 116.4613 116.9897 114.4490 113.4838 112.8162 111.9275 110.9669 109.9710 108.8243 107.4012 105.8519 104.1027 102.1347 100.0857 98.5541 98.5482 100.1381 102.1593 104.1298 105.8700 107.4944 107.9951 110.4340 112.6639 111.7782 112.7264 113.5632 114.3444 114.9989 115.6312 116.2134 116.7624 117.2841 117.7582 118.2788 119.5345 109.7321 120.9667 110.8045 121.3505 120.6037 120.8989 120.6350 123.0974 121.7000
102.1600 105.6741 106.0917 114.9718 114.0263 117.2618 114.1972 103.4762 123.7021 111.0786 119.5383 119.3079 118.9548 118.4606 118.0884 117.9118 117.5177 108.8512 119.1351 114.5542 114.2175 115.2448 114.1789 112.9730 112.2014 111.3413 110.3520 109.2821 108.1298 106.8716 105.5013 104.1005 102.8553 102.0195 102.0347 102.8651 104.1392 105.5368 106.8894 108.0954 109.8865 99.1576 107.2496 112.4920 113.0711 113.8173 114.5125 115.1544 115.7598 116.3345 116.8681 117.3736 117.8633 118.2990 118.6229 120.2674 119.5448 121.2006 120.5844 120.6367 120.9905 124.2591 114.3474 106.6300
100.9100 101.4378 102.3161 107.3329 121.2166 108.9462 123.4404 118.8630 109.8320 121.0916 119.6300 120.6027 120.3869 119.7441 118.9024 117.8574 117.6595 112.2214 117.7119 115.9716 117.3357 101.5039 113.8706 113.5176 112.5601 111.7792 110.9006 109.9647 108.9781 107.9331 106.8816 105.8598 105.0420 104.5560 104.5580 105.0543 105.8871 106.8928 107.9475 109.1068 109.8917 106.7210 109.7852 112.5828 113.3616 114.0581 114.7279 115.3465 115.9269 116.4815 116.9993 117.4966 117.9646 118.4104 118.8419 119.1182 119.6137 119.9164 120.2851 120.9467 120.8787 113.9977 108.1975 108.3200
101.4000 102.2299 104.0473 104.0620 116.7504 120.2112 121.4668 120.2701 120.9435 121.8990 122.1637 107.8674 116.3139 107.1907 118.0818 117.7505 117.6562 117.4732 116.1669 117.0950 97.9614 116.4948 114.0054 111.5963 113.1642 112.2608 111.4787 110.6710 109.8267 108.9697 108.1549 107.4119 106.8362 106.5103 106.5105 106.8456 107.4290 108.1160 108.9888 109.7069 112.6417 118.8815 113.7723 112.7527 113.7206 114.3630 114.9892 115.5732 116.1319 116.6572 117.1604 117.6381 118.0895 118.5289 118.9261 119.3986 119.6728 120.0103 120.6895 117.6688 121.2132 123.6475 103.5612 103.3300
105.5700 99.2762 117.4340 110.0296 123.7216 121.8947 121.0377 123.7020 98.7730 99.7365 99.0335 95.4861 117.1358 108.4708 116.0993 118.1879 117.8073 117.2991 116.7726 116.7913 115.0078 115.4489 114.7328 114.0027 113.4460 112.7792 112.0843 111.3785 110.6742 109.9747 109.3238 108.7605 108.3399 108.1058 108.1089 108.3442 108.8120 109.4445 110.0059 110.3299 111.6674 104.8022 102.2729 114.1565 114.0219 114.7124 115.2708 115.8269 116.3556 116.8609 117.3433 117.8014 118.2421 118.6644 119.0436 119.2790 120.0885 120.4186 120.3265 120.9540 121.8727 111.4391 100.3836 104.8000
123.1500 123.1521 123.3644 122.3885 122.0747 122.2201 121.9999 109.0745 99.3325 99.5355 98.8134 102.9542 122.5903 118.8397 119.5415 118.2705 117.9570 117.4676 117.1505 116.6106 116.1144 115.5564 115.0773 114.4641 113.9018 113.2995 112.7063 112.0918 111.4784 110.8901 110.3871 109.9531 109.6345 109.4596 109.4615 109.6283 109.9793 110.4557 112.2161 110.4308 112.9593 99.2992 102.9262 105.2575 115.4661 114.9873 115.5789 116.1135 116.6081 117.0816 117.5397 117.9808 118.4062 118.8137 119.1999 119.2351 120.9433 100.6376 122.4595 120.9521 121.0489 122.3553 120.2466 124.7500
121.9000 122.7503 122.6428 122.4683 120.3246 119.4842 120.1377 104.4031 103.4126 101.7322 103.7101 98.0783 115.6409 98.4624 126.4699 117.9561 118.4596 117.9776 117.3339 116.8537 116.4293 115.8991 115.4064 114.8997 114.3687 113.8359 113.3182 112.7191 112.3158 111.7879 111.3633 111.0022 110.7637 110.6319 110.6330 110.7630 111.0291 111.5917 112.7704 112.1231 112.6983 114.4178 102.1360 98.4361 115.1236 115.2157 115.9475 116.3995 116.8681 117.3221 117.7589 118.1766 118.5836 118.9710 119.3488 119.7605 120.0653 120.7959 120.7681 121.0811 121.7288 121.6644 118.4451 123.4600
123.1900 122.8788 122.8526 123.9468 107.3093 106.9833 104.7474 123.7708 122.4736 122.8753 122.9563 107.9156 118.8069 107.4197 119.8062 116.3354 119.4332 110.9077 118.2101 116.9843 116.7295 116.2539 115.8017 115.3267 114.8571 114.3605 113.8616 111.1571 113.1465 112.5438 112.2569 111.9742 111.7680 111.6650 111.6657 111.7679 111.9939 112.2435 112.5732 113.1041 113.4344 114.1322 115.1376 115.2867 115.7798 115.7889 116.2517 116.7129 117.1535 117.5789 117.9874 118.3910 118.7782 119.1522 119.5163 119.8590 120.1523 120.3063 120.6141 121.4165 119.9004 123.3721 120.1443 111.5600
123.3900 124.3489 122.7877 122.8858 124.1479 124.4758 115.6686 121.3916 120.7950 120.8583 119.8460 114.0635 116.0989 121.2601 120.5879 98.6355 118.6017 119.1277 114.5027 117.3879 117.0339 116.6027 116.1813 115.7606 115.3064 114.8709 114.6017 114.9315 111.9370 114.0411 113.0331 112.8129 112.6613 112.5875 112.5875 112.6642 112.8263 113.0725 113.3671 113.6918 114.0926 114.5266 114.8159 115.0396 115.6213 116.1931 116.6130 117.0325 117.4461 117.8357 118.2362 118.6108 118.9788 119.3441 119.6905 120.0259 120.3432 120.7830 121.0730 120.5836 116.8705 115.2391 121.6024 124.7200
133.4800 129.0900 122.9000 122.7100 122.5300 122.1500 121.9500 121.7400 121.3300 121.1100 120.6600 120.4300 120.1900 119.7000 119.4400 97.2100 126.7400 112.2600 118.0500 117.7500 117.1500 116.7800 116.4400 116.0900 115.7600 115.3500 114.9600 103.0100 103.0100 113.7300 113.7500 113.3300 113.3900 113.4200 113.4200 113.3900 113.3300 113.7500 113.7500 114.1700 114.5600 115.0200 115.4000 115.7100 116.0800 116.4300 116.7600 117.1100 117.7400 118.0400 118.3400 118.9000 119.1700 119.4400 119.6900 120.1900 120.4200 120.6600 121.1100 121.3200 123.9200 112.5700 109.8100 119.7400
