123.7800 123.6200 119.2200 123.1100 122.9400 113.7700 113.9700 113.8600 113.5900 113.5200 109.9700 98.9900 98.7700 108.7500 98.3200 108.6300 108.6300 112.1900 107.5000 107.2900 115.9100 112.0300 109.4100 109.8200 109.2600 107.8300 102.9900 116.5400 116.5400 116.2600 116.2600 115.8800 115.9100 104.5500 104.4800 115.9100 115.8800 116.2600 116.2600 116.5400 116.5400 116.8500 117.1400 117.5100 117.4400 118.0900 118.0200 118.6100 118.9200 119.1100 119.3700 119.6400 119.8600 120.3300 120.5500 120.7800 121.0100 121.4200 121.6200 121.8200 100.2100 102.3100 122.5800 122.7600
123.7800 120.5143 123.3251 123.5418 122.9259 117.2902 113.3242 113.8151 113.7433 113.6859 112.3719 105.5315 102.1397 99.4212 106.7156 110.1885 106.1408 110.6251 108.5239 119.0479 105.7263 104.3604 108.2562 110.5362 105.5352 101.6507 106.3357 110.9722 101.8199 114.4143 114.2170 116.9654 102.2823 101.4365 110.8429 115.4431 116.1641 94.2924 117.9643 116.0395 110.4677 115.9895 116.7696 117.0530 117.3879 117.5721 104.5586 118.2974 118.5536 118.9271 119.2403 119.5401 119.8532 120.1439 120.3354 121.1140 121.1851 121.7407 108.5812 112.1801 111.8812 115.2601 124.2113 122.7100
123.5300 122.1686 118.8709 119.4482 119.0461 120.2190 114.4184 114.4489 113.7967 114.1280 115.0231 113.4547 108.8709 110.1882 107.8843 107.2752 106.9587 107.7018 103.7153 109.1848 113.0542 99.0073 101.6090 106.7373 103.1752 96.7457 102.6852 107.4670 113.9708 97.4571 95.9522 110.4245 116.4868 114.5750 115.1595 114.7209 116.9157 103.2740 119.8888 115.5655 113.7413 116.3326 116.2847 116.9722 116.8221 118.0916 119.0587 118.0239 118.3240 118.6435 118.9682 119.2981 119.6119 119.9718 120.2291 120.7234 121.5876 101.1164 97.9057 111.6974 111.8452 123.9137 122.8365 122.6700
123.5000 123.0164 115.5174 115.8318 115.4020 115.6962 115.7161 118.8006 115.3313 117.2021 115.3194 117.5830 114.5818 113.9722 111.4531 109.5843 106.5357 110.3137 104.9963 103.1010 103.3492 98.6206 113.5430 105.0219 101.4390 104.2045 104.8721 105.2331 100.0266 95.7169 108.2847 102.9289 108.8766 117.2831 114.6314 114.1966 116.0296 116.9195 114.4904 114.9002 115.4985 115.5669 113.2845 116.0262 116.5253 116.9639 117.0948 117.7325 118.0208 118.4043 118.7384 119.0511 119.3914 119.7088 120.3754 111.5797 121.5237 105.2675 109.8824 113.3006 118.8166 117.0420 122.4576 112.3800
123.4700 123.7862 116.8122 116.8874 116.3415 116.9698 117.7059 117.4911 116.7758 116.3068 112.6068 101.3931 110.1063 108.9765 108.7788 110.6495 112.5634 108.9753 103.1599 110.3426 107.2903 104.7865 106.5549 103.1895 108.8657 104.7355 99.3446 98.7015 104.0372 115.5502 106.5080 111.0670 113.6163 113.6705 113.2865 113.4200 113.3274 113.5150 114.2632 114.2285 114.6087 114.9361 115.3609 115.7504 116.1153 116.5420 116.9287 117.3170 117.5743 118.0145 118.4620 118.8072 119.1456 119.3325 121.0576 112.0564 107.6480 101.2409 112.2180 110.2579 114.6672 108.4175 113.5161 113.2100
123.2600 124.1768 116.3798 117.2306 110.1531 121.9093 111.9697 116.6558 115.0764 112.1619 111.3465 110.0875 100.7060 101.8775 110.0030 108.2331 107.7080 105.9570 105.8476 104.8293 110.5460 105.0702 110.0554 101.8982 104.7102 106.1861 96.9779 111.5751 115.0803 111.9823 115.7482 117.1197 112.4052 112.4403 112.4921 112.5773 112.7990 113.1919 111.2128 114.3446 113.9885 114.4285 114.8447 115.3649 115.6801 116.1933 116.5478 117.0660 117.3600 120.5646 117.9028 118.4640 118.8735 120.6390 106.9568 101.5640 104.4292 100.4948 114.5317 107.6282 110.7595 106.6077 110.5471 122.3500
123.2300 123.9161 118.2990 119.9402 117.3738 124.0994 116.2237 116.8558 113.2727 117.9407 110.3021 111.5668 95.7846 105.6562 109.5572 107.2529 108.1048 107.3518 111.1562 104.7818 106.5855 96.9091 105.2988 105.8849 101.5261 105.5521 100.2648 92.2365 116.9214 111.3411 112.3443 111.3006 111.7270 111.5916 111.5584 111.6597 111.8944 112.2987 107.7358 113.9186 113.2113 113.8529 114.3443 114.5842 115.6030 115.6243 116.2325 116.6869 117.0499 117.6716 117.9723 118.5223 119.1958 110.6512 108.6328 104.5908 110.7571 106.9796 113.2712 104.6291 118.3141 121.1548 121.5874 122.1200
123.2100 122.7971 120.0036 117.9366 116.3216 116.9354 117.4907 119.1762 112.5949 111.5407 110.8098 110.8385 111.7607 99.0625 100.2616 113.0585 111.7864 107.2528 105.7495 107.4024 107.8905 109.2623 106.9668 105.1211 102.7181 105.8300 104.8663 100.3516 98.2814 111.2506 110.1727 108.0973 110.8308 110.4937 110.5123 110.6457 110.9079 111.1703 111.6992 111.8477 112.7922 113.2221 113.8464 113.9841 115.1490 115.3846 115.8740 116.3560 116.8194 117.4493 115.2325 117.8000 96.9947 101.1788 108.6440 110.2010 108.6364 113.1805 111.3208 122.0573 121.3526 121.5572 122.7625 124.2700
123.1800 122.2074 116.1362 116.2486 116.6335 117.4806 118.3318 113.2427 111.3610 111.0131 110.9527 97.2673 96.1083 113.5838 112.8655 106.9531 114.6487 115.1787 108.1624 106.8678 103.1183 107.9806 105.1444 105.7308 103.2369 105.3248 102.7371 112.1846 109.1119 114.8798 110.4495 108.4988 109.6523 109.3512 109.3231 109.5011 109.8517 110.3009 110.7882 111.4071 112.0168 112.6372 113.2436 113.8703 114.4365 115.0320 115.5447 116.1000 116.4867 117.3667 114.5744 110.8226 102.3402 104.8763 110.3544 112.1630 126.9929 115.5620 121.2142 120.6825 121.2806 121.0021 123.9756 104.2300
123.1600 122.9370 123.6219 116.1470 116.1763 116.6870 118.5364 112.6003 111.8279 111.2391 110.9592 107.7787 101.0460 102.5989 96.5649 116.2944 106.5683 105.2382 106.5871 101.9332 101.8915 104.8381 101.5252 109.5371 109.1502 103.8393 94.3922 111.5423 113.8787 112.2711 109.0920 108.8575 108.1323 107.9540 107.9525 108.1929 108.6220 109.2049 109.8740 110.5844 111.3034 112.0236 112.7170 113.3884 114.0239 114.6428 115.2354 115.7397 116.1370 113.0145 116.9199 105.1140 103.7740 102.4334 106.1274 110.2373 115.8618 120.8576 120.5548 120.8718 121.2268 121.2354 125.7912 106.4200
122.9600 122.8447 122.3049 121.6738 118.3093 116.6795 116.5985 111.4080 110.6037 110.4794 110.5488 116.5490 105.1020 121.6615 116.7086 112.5968 107.8570 106.5557 108.1144 99.2701 105.8064 101.5739 102.1223 106.9558 119.9099 124.6646 114.8015 113.8320 110.0504 108.6357 108.0337 107.2904 106.6694 106.3315 106.3270 106.6621 107.2615 108.0246 108.8725 109.7355 110.5908 111.4194 112.2090 112.9533 113.6639 114.3307 114.9757 115.2152 116.5424 105.3244 126.1677 117.6099 109.4025 117.4617 113.1973 105.5679 111.3908 121.2798 120.4113 120.7055 121.1000 124.6407 128.6788 107.8800
122.9400 122.8098 122.5911 122.3229 122.4529 121.2665 115.8862 115.6421 115.2252 118.3288 111.7395 116.8156 117.4341 117.9854 113.2837 108.1975 106.8646 107.3573 102.9071 106.6086 114.4478 110.9167 106.0269 99.5895 116.1164 110.2524 109.5989 109.2127 108.6044 107.8938 106.7389 105.6813 104.8248 104.3167 104.3247 104.8486 105.7035 106.7353 107.8257 108.8883 109.8964 110.8497 111.7298 112.5480 113.3197 114.0348 114.6897 115.2333 116.8814 116.2542 118.0693 117.0485 118.4966 113.7322 114.6433 115.9756 106.6672 120.8171 120.2395 120.6728 121.1125 120.8616 121.8122 124.4600
122.9100 122.7690 122.4941 122.1950 121.8061 121.5785 122.1846 121.9803 121.1569 125.0508 119.6438 120.1451 114.3465 117.9777 107.7431 103.6804 112.6832 99.5405 97.6807 98.0779 99.5413 114.7623 102.2704 109.7227 121.5241 108.4411 110.9824 109.3235 108.0485 106.7278 105.3507 103.8993 102.5716 101.7200 101.7242 102.5857 103.9141 105.3650 106.7647 108.0670 109.2529 110.3236 111.3053 112.1967 113.0228 113.7774 114.4664 115.1391 115.7034 115.5235 116.9249 117.2337 117.3138 110.2878 112.5849 111.9461 112.6281 120.2648 120.3220 120.6365 121.0420 121.3834 123.4777 120.4000
118.5200 122.6780 122.4297 122.1927 121.9086 121.5954 121.0816 120.7381 120.4921 115.7082 118.7340 119.3405 117.5075 116.9638 114.4674 110.2139 101.8993 96.2005 93.6931 99.7537 105.7968 95.9647 97.7218 109.1716 116.8355 107.3439 110.0687 108.6363 107.2937 105.7393 103.9406 101.8722 99.8264 98.0746 98.0808 99.7797 101.9063 103.9693 105.7638 107.3286 108.6872 109.8877 110.9545 111.9155 112.7769 113.5728 114.3053 114.9996 115.6589 116.3189 116.7782 117.0590 117.4002 110.6216 119.4599 118.5641 115.1725 119.7789 120.3138 120.5964 120.8912 121.4506 120.9897 129.6100
122.8900 122.4250 122.4274 122.1698 121.8602 121.5580 121.2741 120.9627 120.5671 119.9641 118.7820 119.4844 119.0638 115.4670 115.6840 111.9664 95.1056 93.6088 102.7670 102.5368 111.4529 100.5497 105.3552 116.2603 110.5430 110.9104 109.5979 108.2570 106.7127 104.9060 102.6849 99.8130 95.9761 91.7566 91.7731 96.0706 99.8485 102.7122 104.9314 106.7395 108.2540 109.5552 110.6950 111.7019 112.6094 113.4317 114.1832 114.8758 115.5178 116.1217 116.5689 117.6380 118.2356 118.3308 119.0120 114.0673 119.6938 119.7763 120.2112 120.5807 121.0539 120.2073 131.3045 107.5200
122.8900 122.7840 122.4405 122.1544 121.8588 121.5474 121.2249 120.8883 120.5381 120.2126 119.9998 119.4140 118.9618 118.4224 116.9076 115.7972 114.3064 106.3628 108.1757 112.4604 105.7984 100.2963 106.6937 114.1475 110.1958 110.7179 109.3269 107.9782 106.3549 104.3738 101.8128 98.3161 91.6003 86.3761 86.4398 91.7195 98.3608 101.8498 104.4051 106.3876 107.9991 109.3602 110.5429 111.5840 112.5110 113.3530 114.1120 114.8281 115.4757 115.6887 117.5721 108.0034 118.0858 118.0830 118.5029 119.1987 119.4835 119.8410 120.1970 120.5491 120.9042 121.7182 124.7743 133.0300
122.8800 122.7114 122.4328 122.1506 121.8484 121.5443 121.2211 120.8901 120.5587 120.1735 119.7940 119.4746 119.0632 118.6437 118.2408 118.0250 112.0793 109.5365 108.7951 111.5059 109.5193 97.0500 105.3523 112.7360 109.7691 110.6432 109.3242 107.9284 106.2917 104.2772 101.6477 97.9239 90.6230 84.7988 84.8414 90.7565 97.9884 101.6828 104.3106 106.3276 107.9503 109.3308 110.5192 111.5648 112.4942 113.3366 114.1064 114.8133 115.4719 115.6133 117.3144 107.8210 118.1217 118.2698 118.4492 118.8707 119.4051 119.8175 120.1995 120.5544 120.8811 121.2716 121.5864 128.0000
122.8800 122.7250 122.4381 122.1580 121.8562 121.5581 121.2602 121.0842 120.5581 120.2014 119.8279 119.2894 119.1829 118.6249 118.2214 117.9607 110.4327 108.0126 123.5129 121.2301 114.3940 114.0566 113.1874 112.7033 111.6624 110.5901 109.4396 108.0996 106.5298 104.6344 102.2437 99.0295 94.1641 89.1818 89.1516 94.1051 99.1098 102.2826 104.6649 106.5577 108.1223 109.4600 110.6186 111.6418 112.5580 113.3851 114.1502 114.8484 115.5087 115.8061 116.8234 108.7539 118.0909 118.3691 117.9792 122.9010 119.1102 119.8240 120.2129 120.5632 120.9085 121.2302 121.4799 121.6900
122.8900 122.7356 122.4594 122.1684 121.8747 121.6108 121.6695 121.1057 120.4456 120.1816 119.9918 121.9454 120.3691 118.7578 117.5934 118.2477 111.4489 110.6299 112.2836 125.0747 119.1551 113.8157 113.4005 112.6510 111.7915 110.8256 109.7127 108.4698 107.0334 105.3597 103.3784 101.0552 98.2606 95.6006 95.6549 98.3995 101.0154 103.4204 105.3928 107.0635 108.4855 109.7337 110.8285 111.8104 112.7051 113.5092 114.2491 114.9358 115.5698 116.1837 116.7098 117.1402 117.8178 118.5165 118.6717 118.9843 119.4047 119.8508 120.2344 120.5917 120.9334 121.2565 121.5844 121.7000
122.8900 122.7595 122.4863 122.2028 121.9288 121.0809 125.6491 118.7624 120.4627 120.1543 119.8301 118.3051 119.9690 118.3977 107.7924 117.9532 102.6308 122.8536 115.3909 113.7985 114.7151 114.4725 113.7080 112.9169 112.0547 111.1340 110.1212 108.9869 107.7217 106.3126 104.7498 103.0832 101.4353 100.3419 100.3413 101.4603 103.1009 104.7810 106.3416 107.7422 108.9995 110.1334 111.1478 112.0713 112.9104 113.6893 114.4012 115.0679 115.6864 116.2573 116.8035 117.0775 117.1781 114.9481 118.8613 119.1590 119.5407 119.9048 120.2781 120.6288 120.9670 121.3066 121.6825 121.7100
122.9000 122.7896 122.5196 122.2385 121.9388 121.4743 120.9400 121.1516 120.6768 120.8050 120.2833 120.3331 119.6583 117.3114 111.7586 104.6593 108.5777 121.3691 118.3918 116.7550 115.0869 114.5754 113.9050 113.1767 112.3883 111.5300 110.6047 109.6083 108.5193 107.3554 106.1496 104.9681 103.9180 103.2909 103.2969 103.9365 104.9686 106.1750 107.3842 108.5448 109.6215 110.6226 111.5493 112.3985 113.1868 113.9217 114.5988 115.2414 115.8343 116.4066 116.9218 117.5220 120.9977 106.7477 118.8254 118.9706 119.5871 119.9732 120.3256 120.6822 121.0050 121.2557 121.1536 121.9300
123.1100 122.8514 122.5529 122.2754 121.9917 121.7282 121.4306 121.0266 120.8007 117.3315 120.0804 116.9823 112.7355 112.2417 108.5147 110.4569 106.6626 114.7478 123.6646 120.6218 115.0819 114.8471 114.1939 113.5021 112.7743 111.9954 111.1645 110.2905 109.3685 108.4156 107.4883 106.6060 105.9135 105.5173 105.5213 105.9227 106.6286 107.4960 108.4343 109.3858 110.2978 111.1800 112.0045 112.7852 113.5122 114.1990 114.8411 115.4469 116.0166 116.5801 116.9980 116.6586 111.7329 120.1360 119.5958 119.2379 119.6730 120.0441 120.3963 120.7381 121.0734 121.1801 123.9877 121.9400
123.1100 122.8027 122.6432 122.3268 122.0334 121.7463 121.4408 121.1332 121.3796 115.0390 120.3726 115.1119 118.9209 115.0343 113.1459 111.0788 109.0394 114.0910 122.0690 118.6558 115.4825 115.1324 114.4995 113.8652 113.2026 112.4954 111.7592 110.9975 110.2231 109.4500 108.7107 108.0565 107.5585 107.2921 107.2948 107.5661 108.0700 108.7252 109.4609 110.2343 111.0042 111.7689 112.5007 113.2095 113.8749 114.5136 115.1148 115.6831 116.2327 116.7592 117.1588 117.1738 111.0044 118.5142 118.6261 119.3927 119.7627 120.1308 120.4782 120.8135 121.1361 121.3960 123.9715 127.8200
123.1500 122.9641 122.2773 122.4703 122.1604 121.8287 121.5203 121.2553 120.9700 121.7894 119.1841 115.1464 119.2780 113.4305 115.7099 103.8193 103.4029 113.7601 109.7354 113.5133 116.0530 115.4169 114.8437 114.2606 113.6417 113.0160 112.3683 111.7046 111.0523 110.4236 109.8288 109.3312 108.9578 108.7589 108.7606 108.9639 109.3394 109.8452 110.4161 111.0639 111.7166 112.3758 113.0313 113.6559 114.2709 114.8540 115.4186 115.9537 116.4689 116.9420 117.4127 117.9540 119.6417 118.6355 119.1159 119.5136 119.8738 120.2297 120.5695 120.9064 121.2248 121.5350 121.4848 122.0100
111.6500 125.2147 124.3371 122.1750 122.1368 121.9046 121.6171 121.2052 121.5287 113.3255 119.1501 110.3169 111.1842 103.2542 111.0344 107.7395 98.1767 115.5962 119.7244 117.5643 116.3950 115.6724 115.2106 114.6696 114.1201 113.5456 112.9828 112.4063 111.8548 111.3217 110.8518 110.4544 110.1750 110.0186 110.0203 110.1793 110.4703 110.8319 111.3762 111.8439 112.4161 112.9872 113.5577 114.1271 114.6767 115.2207 115.7415 116.2366 116.7282 117.2214 117.6424 118.1597 118.5834 118.8102 119.2664 119.6340 119.9959 120.3440 120.6747 120.9928 121.3141 121.6132 121.9594 122.0400
123.2000 124.1029 123.1837 125.1881 122.3045 122.0054 121.6332 121.7429 121.4269 124.5121 125.4006 114.6209 116.7204 111.3659 105.1617 103.8617 104.7104 109.8540 121.8724 117.0074 116.6355 116.0591 115.5833 115.0935 114.5943 114.0890 113.5821 113.0847 112.6132 112.1687 111.7866 111.4674 111.2389 111.1239 111.1250 111.2426 111.4726 111.8317 111.7359 112.6362 113.0959 113.5898 114.0945 114.6038 115.1049 115.5920 116.0784 116.5473 116.9240 117.3317 117.7662 116.7995 118.0473 119.0032 119.4366 119.7854 120.1321 120.4655 120.7858 121.1025 121.4158 121.6941 121.9858 122.2600
123.2200 122.9991 122.8805 122.9125 122.3514 122.0805 122.3747 115.8465 116.0939 119.1413 116.7358 116.9566 124.5309 101.1792 106.7643 103.0731 118.4128 119.0208 116.6488 116.9985 116.8395 116.4226 115.9741 115.5268 115.0671 114.6212 114.1706 113.7440 113.3348 112.9642 112.6417 112.3790 112.1972 112.0995 112.1012 112.2002 112.3814 112.6675 111.6151 113.2465 113.7703 114.1811 114.6268 115.0773 115.5312 115.9949 116.3692 117.0546 117.3404 117.6588 118.3831 118.5840 118.8692 119.2391 119.5920 119.9426 120.2769 120.6000 120.9203 121.2177 121.5024 122.1427 122.0881 122.3000
123.4200 123.2269 122.9529 122.6843 122.4756 122.0803 122.0765 114.5284 113.0001 116.2442 112.5438 110.8111 125.9014 114.4673 100.8585 109.6756 119.9266 108.0109 118.9427 117.3315 117.1981 116.7736 116.3611 115.9553 115.5417 115.1349 114.7428 114.3654 114.0179 113.6911 113.4258 113.2090 113.0563 112.9811 112.9769 113.0590 113.2160 113.4015 113.7992 114.0575 114.3347 114.7616 115.1464 115.5551 115.9533 116.3968 116.8258 115.8803 117.0601 107.9624 118.7289 118.4947 119.1057 119.4275 119.7719 120.1011 120.4253 120.7398 121.0446 121.3415 121.6402 121.8986 122.1798 122.3300
123.4600 123.3084 123.0612 122.8012 122.5421 123.0163 114.5940 115.5204 113.8538 112.5903 112.6330 108.8564 135.1978 104.9806 109.9630 105.0302 106.0498 118.7653 121.3143 117.9005 117.5289 117.1284 116.7576 116.3817 116.0155 115.6460 115.3002 114.9652 114.6565 114.3880 114.1461 113.9703 113.8390 113.7770 113.7734 113.8411 113.9701 114.1590 114.3904 114.6489 114.9795 115.2798 115.6950 115.9729 116.4818 116.6248 117.4318 117.0126 118.0615 109.8054 119.7906 118.9145 119.2869 119.6332 119.9615 120.2793 120.5821 120.9138 121.1016 121.4932 121.7535 122.0367 122.3115 122.3700
123.4900 123.3988 123.1646 122.9150 122.6811 122.4070 122.8854 116.4842 113.9098 111.1179 120.8912 119.7587 111.9096 106.8026 104.3510 108.1350 106.7141 111.7111 103.9288 117.7160 117.8519 117.4839 117.1542 116.8004 116.4712 116.1411 115.8341 115.5374 115.2600 115.0266 114.8277 114.6661 114.5615 114.5081 114.5090 114.5633 114.6713 114.8296 115.0286 115.2742 115.5348 115.8623 116.0168 116.8268 116.2533 116.9649 115.8680 111.3316 119.7857 119.0099 118.2002 119.2377 119.4850 119.8460 120.1546 120.4600 120.7568 121.4559 122.7225 121.5439 121.8872 122.1622 122.3410 122.6000
123.6900 123.4908 123.2579 123.0255 122.7828 122.5879 122.2924 118.0760 115.0055 114.1866 115.2816 110.2237 110.1706 112.8729 106.7761 101.6372 105.1765 113.7388 119.7227 118.7872 118.1698 117.8646 117.5210 117.2317 116.9169 116.6226 116.3279 116.0819 115.8864 115.6363 115.4542 115.3237 115.2254 115.1851 115.1854 115.2267 115.3261 115.4577 115.6350 115.8516 116.0904 116.3402 116.6011 117.1884 107.1860 123.8813 118.4955 107.8421 109.8736 118.9087 117.7851 119.1418 119.7232 120.0774 120.3545 120.6485 120.8997 122.3479 127.3329 121.3465 122.1052 122.2784 123.6023 122.6400
123.7200 123.5951 123.3695 123.1411 122.9257 122.4780 122.9053 119.6685 121.4046 113.0782 111.7055 113.5018 110.5352 99.7362 109.2628 109.3701 114.8679 119.8800 117.9579 118.7794 118.4959 118.2309 118.9091 117.5633 117.5868 117.1252 116.7405 116.6687 116.2221 116.2057 116.0469 115.9297 115.8474 115.8085 115.8088 115.8487 115.9308 116.0540 116.1961 116.3155 116.5500 116.8688 116.9742 115.9072 106.1100 115.3593 117.9920 112.5982 109.7500 119.4290 119.2346 119.9395 119.9641 120.2786 120.5545 120.8412 121.1295 121.1492 121.1400 121.7491 122.1194 122.2929 124.3696 122.9100
123.9600 123.7021 123.4803 123.2481 122.9951 123.5899 119.6809 122.0414 114.9047 108.4209 113.5983 114.0857 106.8317 108.9800 105.8615 118.4234 121.7430 119.7816 119.4817 119.1992 118.8694 118.4420 118.2399 118.0212 117.5932 117.2672 117.2688 119.6780 117.1162 116.7641 116.6013 116.5003 116.4282 116.3934 116.3939 116.4293 116.4981 116.6034 116.7225 117.2645 117.0439 117.3916 116.3979 118.1479 119.7205 112.4404 118.9841 118.7384 119.4040 119.6312 119.6168 119.9257 120.2353 120.4993 120.7644 121.0393 121.3042 121.6165 121.8098 122.1427 122.2045 123.5419 122.5234 122.9100
123.9600 123.8174 123.6010 123.4081 123.1318 122.9189 113.2051 109.1202 107.3226 113.3606 112.6741 111.9485 115.8848 111.4105 115.1277 123.8966 124.5098 111.5579 120.0857 119.2412 119.3263 118.9069 118.6605 118.4080 118.1783 117.9663 117.6957 117.5520 117.2415 117.3054 117.1251 117.0312 116.9724 116.9348 116.9350 116.9733 117.0336 117.1347 117.2399 116.7043 114.5998 117.6599 117.9792 118.8889 118.1746 119.1013 119.3328 119.6748 119.8168 119.6188 119.9609 120.2057 120.4670 120.7201 120.9788 121.2388 121.4909 121.7208 121.9734 122.2266 122.6622 116.2779 122.2248 123.1800
124.0100 123.9280 123.7431 123.4805 123.2322 122.6425 122.9742 116.6596 117.8808 115.7495 113.3527 110.3703 105.3873 109.5694 122.0261 119.6380 105.9579 110.9657 120.4040 119.6980 119.4632 119.2338 118.9976 118.7858 118.5698 118.3545 118.1944 118.0798 117.8011 117.7117 117.6220 117.5382 117.4825 117.4575 117.4579 117.4832 117.5406 117.6266 117.6868 118.0798 115.0527 119.0185 109.2420 114.7202 118.8122 118.5681 117.2045 103.2962 120.5966 119.7907 120.2140 120.4541 120.7044 120.9496 121.1920 121.4387 121.6814 121.9180 122.1548 122.4078 122.7139 122.6320 122.5234 123.2400
124.2400 124.0681 123.7931 123.8346 124.0067 121.2359 123.1411 123.4839 112.4004 115.0511 109.4304 109.2788 105.8331 107.5021 121.1534 120.6105 116.3490 118.7318 121.2055 119.9241 119.7846 119.6250 119.3536 119.1514 118.9581 118.7958 118.5873 118.0146 118.5096 118.1912 118.0849 118.0136 117.9658 117.9405 117.9405 117.9664 118.0137 118.0921 118.2184 118.3796 115.2085 114.6903 110.8618 121.0227 119.0102 119.0022 127.2779 119.7332 120.0313 120.3203 120.4656 120.7105 120.9440 121.1804 121.4133 121.6468 121.8777 122.1019 122.3317 122.5627 122.6963 122.7837 123.7179 123.4500
124.2800 124.0535 124.2186 123.3120 119.5294 121.5498 124.4439 125.7609 123.1276 102.5811 105.4006 106.4422 106.0347 120.6696 121.3887 121.3962 121.1305 120.9243 120.5129 120.2832 120.0980 119.6055 119.2072 119.4548 119.1637 119.7041 119.5621 121.9301 118.5606 118.6178 118.5317 118.4625 118.4198 118.4022 118.4026 118.4213 118.4667 118.5369 118.6567 118.6389 119.3509 118.7421 103.0107 114.2252 117.5249 117.7389 120.7734 119.9110 120.2496 120.5331 120.7365 120.9635 121.1867 121.4028 121.6337 121.8505 122.0671 122.2932 122.5049 122.7231 122.9538 123.1460 123.2058 123.5000
124.4800 124.6468 120.4922 120.1387 120.4046 120.7528 121.3633 122.9271 102.4114 115.0692 122.3095 121.9201 120.5411 120.8973 121.5337 121.3058 121.2499 120.9394 120.8031 120.5880 120.4261 119.9262 120.5616 120.0049 119.6298 119.3125 112.7190 118.8980 119.0640 119.0475 118.9647 118.9014 118.8594 118.8363 118.8368 118.8572 118.8907 118.9604 119.0509 119.1800 119.0552 119.5720 118.7714 116.3323 120.9335 114.2646 119.5273 120.4045 120.4951 120.7996 121.0039 121.2073 121.4197 121.6312 121.8467 122.0544 122.2675 122.4750 122.6911 122.8899 123.0376 124.1322 124.0959 123.5600
124.5200 124.9238 117.7941 119.4019 119.3531 118.4372 117.5070 118.2541 116.8914 123.6766 122.6254 122.4911 121.9848 123.2276 121.6021 121.7413 121.4603 121.2532 121.0721 120.8745 120.7122 120.5208 120.0577 114.4960 120.2085 121.4477 117.2085 116.5446 119.6890 119.4261 119.3647 119.3093 119.2740 119.2558 119.2567 119.2790 119.3490 119.3763 119.3537 119.3960 119.5453 119.9563 121.1288 108.9987 109.7655 117.8341 114.6421 121.6224 120.7308 121.0811 121.2555 121.4474 121.6616 121.8566 122.0579 122.2641 122.4617 122.6616 122.8632 123.0638 123.2817 123.2741 123.6117 123.7700
124.7100 125.0109 120.7857 117.9594 117.3590 117.7394 120.5631 114.2535 113.3535 122.9117 123.1442 122.7256 121.3760 122.7145 122.0291 121.8992 121.6981 121.5209 121.3341 121.1537 120.9861 120.8065 120.9430 120.9410 119.9892 119.8293 120.4602 120.1201 119.8535 119.8554 119.7495 119.7024 119.6728 119.6486 119.6504 119.6826 119.5928 119.8242 119.8040 121.3006 119.5993 121.9374 119.4939 120.9341 120.3897 108.2539 120.4772 121.4371 121.2083 121.3523 121.5303 121.7123 121.9003 122.0827 122.2738 122.4736 122.6647 122.8509 123.0485 123.2442 123.4424 123.6206 123.8151 123.8300
124.7600 125.1771 118.6305 124.5468 108.0387 109.6507 125.3354 115.1563 116.0478 115.7889 123.5706 108.8305 118.9511 122.4468 122.2907 122.1211 121.9381 121.7730 121.5994 121.4265 121.2683 121.1318 120.9517 120.6826 120.7756 120.6116 120.3313 120.6589 120.1769 120.2134 120.1273 120.0730 120.0503 120.0366 120.0421 120.0605 119.9311 119.2692 119.2370 120.3706 120.7164 122.1948 122.6595 122.6114 121.8905 117.3690 122.5186 121.0872 121.4405 121.8705 122.2668 121.9953 122.1255 122.3095 122.4935 122.6770 122.8555 123.0463 123.2318 123.4156 123.5879 123.7623 123.9289 124.0300
124.9900 124.9227 124.4886 125.3359 121.7147 119.6889 118.9175 121.5003 121.4954 120.8538 108.4420 113.8888 122.0127 122.6891 122.4957 122.3560 122.2032 122.0201 121.8655 121.7011 121.5454 121.3914 121.2727 121.1364 121.0019 120.8982 120.6658 116.6521 120.5951 120.4984 120.4670 120.4387 120.4153 120.3914 120.3766 120.4512 120.1049 120.4385 114.3893 120.7237 121.3411 107.7157 108.5665 120.4355 120.7870 122.8213 121.3722 121.5752 121.8814 125.1140 123.9291 122.3707 122.3559 122.5264 122.7000 122.8764 123.0525 123.2329 123.4054 123.6078 123.7537 123.9364 124.3012 124.2400
124.9900 124.8737 124.6887 124.2844 106.4941 124.9795 120.9067 119.0617 103.6322 111.4375 112.3335 125.6718 123.5585 122.9508 122.7839 122.5738 122.3787 122.1589 122.1314 121.9700 121.9036 121.6456 121.4611 121.4875 121.3134 121.1262 119.7625 119.6659 120.7242 121.7775 120.8028 120.7865 120.7562 120.7600 120.8561 120.7944 120.9284 120.6496 118.5361 120.9365 122.9547 121.6023 107.0989 112.2923 125.0463 113.8813 121.9348 121.7585 120.9324 119.4016 122.0078 122.4794 122.5725 122.7522 122.9189 123.0816 123.2518 123.4167 123.5859 123.7094 124.1384 121.1296 123.3486 124.4900
125.1700 125.0814 124.8599 126.5722 128.0202 126.4245 107.8853 109.6246 103.5802 105.7545 111.3415 99.2117 122.5644 123.0240 122.9274 122.7283 122.9340 122.5766 122.3328 122.2145 121.7332 121.9630 121.9952 121.3379 121.6320 121.3269 121.5759 121.4046 121.2886 121.3194 121.1605 121.0937 121.0966 121.0977 120.8329 121.1286 119.1711 121.4343 127.6335 123.3319 126.4411 111.3358 110.8176 106.2749 122.9221 122.1667 121.8880 122.1111 122.3788 122.6192 122.4255 122.6774 122.8203 122.9665 123.1276 123.2835 123.4461 123.6021 123.7861 123.9305 125.6753 118.3085 125.4856 124.4900
125.4000 125.1890 125.0583 124.9203 124.3227 123.3272 111.2694 119.7512 107.7876 107.8494 106.2709 116.7380 123.5125 123.9130 123.1177 122.6429 121.4823 123.6568 122.5691 122.4719 122.3909 123.5422 115.7881 122.2723 121.9125 121.8477 121.6974 121.6228 121.6728 121.3836 121.4972 121.6083 121.4868 121.3411 122.3249 126.2806 115.5189 121.2188 122.0008 121.0599 111.7409 121.6669 114.3143 108.8770 123.0060 121.7527 122.2372 122.4204 122.6804 122.5904 122.7557 122.8890 123.0032 123.1918 123.3158 123.4822 123.6057 123.8257 123.8522 123.9566 125.2370 111.2619 122.9388 109.1100
125.4500 125.3428 125.1885 124.9989 125.1003 125.2913 113.5095 112.8189 113.0539 107.0152 119.1937 121.0672 124.0471 123.5770 108.9470 122.5210 125.1697 123.0894 122.8228 122.7546 122.4971 122.4462 116.7791 122.7854 122.1766 122.0771 122.0254 122.2206 120.2224 122.6344 121.9541 121.2615 122.1913 122.2510 120.2895 117.6029 116.8497 121.8044 127.0680 112.4583 115.2835 121.8878 110.4223 112.1622 122.6722 122.1134 122.4788 120.8693 119.6169 123.0322 122.6405 123.2589 123.2657 123.3053 123.5074 123.7794 123.8154 123.9279 124.6362 124.0687 124.2726 121.7117 125.9376 124.7700
125.6300 125.4612 125.3472 125.4853 122.2487 118.6413 115.9873 110.8544 111.8627 108.1713 107.7482 125.7873 124.3926 124.2288 117.8885 122.7494 123.7817 123.1985 123.0794 122.9648 122.5509 123.0108 123.2359 122.4509 122.4811 122.3722 122.2467 122.8645 105.6775 131.4630 120.0729 133.7749 124.3769 131.8286 112.3581 105.9677 118.9349 106.7569 111.5637 118.3325 122.5896 122.0337 118.5739 120.1032 123.1158 122.6537 125.2874 122.5840 127.8318 126.7092 124.1351 123.0540 123.4597 123.4076 130.6157 123.8837 124.0295 124.1606 124.4589 112.0132 125.8380 124.7370 124.7554 124.9900
125.6500 125.6644 124.9819 126.1110 117.4863 106.7714 128.5447 123.3025 108.4460 109.6000 117.1789 121.9218 124.8422 125.0248 124.5382 123.4877 123.5166 123.4419 123.3155 123.1888 123.1488 122.9504 122.8214 122.8210 122.7073 122.6324 122.5348 123.8709 123.4258 121.9032 125.8167 111.3471 121.5203 130.6978 117.7804 111.6068 124.6854 118.4959 114.1884 109.1309 123.6083 112.7690 123.0031 122.2036 118.9596 123.3975 123.1305 123.8152 124.4299 109.8797 124.1628 123.5520 123.7053 123.2857 127.8845 123.8990 124.2833 124.2555 124.9443 124.0516 124.8004 124.8841 125.0417 125.1800
125.8600 125.6923 125.6416 124.8213 114.1066 114.6654 119.4428 117.3407 116.8189 105.7228 100.6067 122.8530 116.3101 111.4953 126.9672 123.4379 123.8547 123.6533 123.5385 123.4352 123.3191 123.2303 123.1609 123.0678 122.9746 122.8810 122.8425 122.6303 122.6426 124.3440 106.5164 104.2635 108.5545 122.5901 122.7711 124.8627 122.8987 123.0546 122.9131 124.4277 123.3504 123.3028 128.4289 113.4144 119.9248 123.3025 123.2644 123.3712 112.0416 115.5841 123.5260 123.5339 123.8848 124.0736 123.9670 124.4390 124.3082 124.5017 124.6708 124.8519 124.8438 125.0876 125.1961 125.2100
125.9000 126.1440 123.8130 114.9019 115.9846 121.2498 122.3976 111.1699 109.0076 108.4057 104.7936 123.0342 105.9385 120.7159 129.4055 124.5137 124.0065 123.8932 123.7654 123.6539 123.5484 123.5598 123.2236 123.2120 123.2099 123.2126 122.9710 122.8848 122.6705 124.5257 109.6882 105.1678 122.3072 122.7902 122.9233 122.4737 122.7182 122.8919 122.9217 122.6632 122.8688 123.0647 125.9208 115.3334 120.5292 123.7839 123.4674 123.6616 121.0736 109.8542 123.3933 123.9746 124.1095 124.2423 124.3116 124.4373 124.6710 123.8761 124.7891 124.9987 125.0982 125.2197 125.3542 125.4100
126.0700 126.5819 120.7966 116.9198 115.2486 116.5144 113.8690 113.3352 103.8682 110.7252 102.6902 108.3851 120.9020 129.0520 123.9608 121.5308 124.8057 124.0671 123.9470 123.8707 123.8587 123.1931 124.4160 123.8185 123.4473 123.0218 124.2407 124.3399 123.6796 114.8850 101.6932 111.8623 123.2664 123.0616 123.1704 123.2279 123.2085 123.1855 123.2050 123.3092 123.2284 123.6443 121.5749 118.7506 117.1406 123.6948 123.7290 123.7321 124.1508 123.1413 124.4376 124.0587 124.3167 124.4030 124.5351 124.6360 124.7402 124.5292 125.0296 125.1281 125.2490 125.3842 125.5061 125.5900
126.2300 126.3712 119.8352 116.0844 115.6477 118.5158 102.2704 113.9137 109.6693 110.9410 106.2431 115.1789 120.4985 125.5514 125.0301 119.6640 124.5376 124.3042 124.5803 124.2063 123.8483 125.2054 111.5964 119.9218 123.4741 125.7052 113.9384 105.4671 126.6655 115.4821 101.2206 125.5067 123.1841 123.3856 123.3675 123.3366 123.3643 123.4415 123.5039 123.4778 123.4160 123.2459 117.9111 125.2294 121.9509 123.8921 123.9441 123.9621 124.0151 124.3068 124.1424 124.4818 124.4855 124.6061 124.6862 124.8223 125.1530 125.0791 125.2467 125.2580 125.4183 125.5359 125.6580 125.8200
126.4400 126.2009 126.7727 122.4396 114.4115 123.0451 114.1819 119.4594 119.6608 107.7779 107.1244 116.7879 128.0115 124.4963 124.7628 125.1466 124.5852 124.4602 121.6245 124.0397 123.9595 125.9887 98.0010 119.7684 123.7920 123.1176 109.3330 120.4132 118.6285 124.1242 124.3763 123.5602 123.6737 123.6377 123.6948 123.8240 123.6252 123.6869 123.5146 123.8571 123.6852 123.3038 120.0585 123.9247 124.2416 124.0662 124.1547 124.2367 124.3246 124.3772 124.5386 124.5759 124.6897 124.8092 124.7662 124.1481 123.9732 124.2867 125.3225 125.4447 125.5714 125.6948 125.8153 125.8200
126.6000 127.0991 123.0688 119.5247 115.9036 114.5853 113.9940 112.2970 109.4565 110.5406 115.2403 120.9200 126.1155 125.0693 125.0017 124.8854 124.7805 124.8297 122.7388 124.7441 122.6938 116.6558 111.6596 126.7552 120.2109 127.1953 126.1554 106.1549 121.7199 124.2105 123.7494 123.9219 123.8911 123.8855 123.9235 124.0472 120.5637 126.7861 125.7647 123.2906 124.8221 117.1894 117.8537 124.7751 124.1983 124.2983 124.3768 124.4471 124.5275 124.6065 124.6903 124.7932 124.8866 124.9901 124.8321 119.0082 119.0683 126.1911 125.5943 125.6000 125.7324 125.8211 125.9598 125.9900
126.6300 125.6976 117.5807 121.6236 115.0068 116.7944 115.9508 113.2333 109.0239 120.3660 123.8187 126.6570 125.3617 125.2466 125.1695 125.0843 124.9683 124.8946 124.6050 124.2189 127.4847 106.7442 108.4451 124.9709 106.4799 105.9976 113.7971 102.7658 112.6557 124.0451 124.1997 124.1431 124.1242 124.1081 124.1288 124.3676 127.0847 127.8415 124.1107 128.9566 122.6707 118.8314 113.4119 125.3247 124.4427 124.5157 124.5848 124.6557 124.7313 124.8118 124.8913 124.9756 125.0670 125.2010 125.3212 126.1099 118.3488 125.1755 125.6443 125.8289 125.6998 125.9351 126.0926 126.2100
126.8100 127.4383 118.3053 120.7240 116.0820 122.9677 113.8860 117.2305 113.6779 119.6083 126.2930 127.5131 125.4206 125.4517 125.3690 125.2537 124.8886 126.0422 119.4782 106.0995 126.1479 122.0756 116.6384 125.8319 121.3719 101.7463 113.8889 109.6813 122.7453 123.9984 124.3945 124.3758 124.3513 124.3239 124.3520 123.4241 110.9919 112.4154 118.3479 125.0027 125.1918 110.6524 130.0372 123.9690 124.6564 124.7276 124.7923 124.8598 124.9274 125.0033 125.0862 125.1723 125.2624 125.3409 125.4792 125.5825 126.9640 125.6364 125.8538 125.9430 125.9306 130.7863 126.2352 126.3800
126.9600 127.5726 116.8980 116.2122 113.2071 113.8374 127.6403 117.5906 118.7213 124.9371 128.0598 125.0314 125.9057 125.9125 125.4445 125.4629 125.2274 123.0820 109.3645 125.1880 125.7746 112.6940 125.8870 124.7291 126.0000 118.2835 109.8598 113.7958 125.3117 124.4216 124.6140 124.5991 124.5823 124.4236 124.5319 115.3025 115.9971 111.9135 119.3460 124.6777 125.2735 120.3504 124.7045 124.5662 124.8671 124.9370 124.9927 125.0591 125.1247 125.1962 125.2786 125.3602 125.4392 125.5331 125.5984 125.6991 125.6510 125.8931 125.8929 126.3050 126.3002 126.1836 126.6846 126.4000
126.9800 126.8757 125.5269 122.7157 118.6055 126.6626 126.2136 123.5120 123.2464 126.5376 125.8671 126.0928 126.5374 114.7474 125.8382 125.6895 125.4104 126.0855 125.8764 125.3175 126.0167 110.0667 126.5296 122.5834 119.5321 108.5057 114.3626 109.3470 125.0621 124.6183 124.8406 124.8008 124.8082 125.3983 120.3091 126.0850 122.0375 117.0272 126.7284 124.9032 124.7113 125.1885 125.3344 124.9435 125.0765 125.1339 125.1953 125.2607 125.3231 125.3929 125.4672 125.5434 125.6277 125.7030 125.7921 125.8761 125.9740 126.1460 127.8565 125.7513 126.3198 126.2285 114.2766 126.5700
127.1600 127.3955 123.8422 122.7032 126.7571 127.1342 126.5012 126.6639 127.6119 126.7569 122.2298 120.0347 137.7297 117.1708 127.2845 125.6699 125.7140 125.4222 125.3317 125.7062 110.5239 126.0767 120.3545 126.5564 117.9965 111.1808 116.6690 120.0894 124.8656 125.1948 125.0338 125.0225 125.0231 124.9569 125.4688 125.3360 124.7426 124.9195 116.2547 125.3301 126.0634 126.6837 125.0239 125.1789 125.2644 125.3390 125.3893 125.4532 125.5083 125.5823 125.6518 125.7253 125.7971 125.8784 125.9593 126.0458 126.1347 126.0002 130.6383 128.4838 126.0318 127.5094 126.2097 126.7900
127.3000 127.1158 127.5037 126.7575 126.9841 126.8407 126.7580 126.7157 126.1260 127.7588 116.9006 123.7642 126.7032 126.8505 121.6079 125.8073 125.7606 126.3649 125.3832 123.0573 105.9743 110.6429 107.7619 107.4861 112.9699 112.0964 110.8470 122.7151 125.2425 125.3446 125.2404 125.2200 125.2341 125.2276 125.1455 125.1785 124.8826 123.4808 123.5192 129.2083 125.9995 110.0434 127.3869 126.0068 125.3746 125.5238 125.5850 125.6404 125.7006 125.7597 125.8331 125.9002 125.9754 126.0562 126.1331 126.2118 126.2786 126.4613 126.5730 126.0815 127.5887 121.6633 109.2314 114.4400
127.3200 127.3567 127.2182 127.1683 127.0268 126.9843 126.8872 126.7981 126.7039 126.4976 127.8146 126.7610 128.0889 122.5921 124.7348 126.7088 127.2247 122.6979 126.7853 125.9420 125.9908 108.7627 109.9155 104.3856 109.4902 122.3451 124.9860 120.3823 125.5239 125.4980 125.4630 125.4400 125.4248 125.4194 125.4327 125.4678 125.2990 124.6893 122.7994 106.3699 126.7787 123.1861 126.4566 126.0209 125.6520 125.7250 125.7705 125.8196 125.8814 125.9428 126.0074 126.0725 126.1506 126.2267 126.3023 126.3782 126.4606 126.5345 126.5289 126.7769 126.6360 122.7109 114.5869 120.9700
127.5000 127.4878 127.3951 127.3103 127.2107 127.1244 127.0304 126.9445 126.8582 126.7760 126.5966 126.4484 129.0741 111.0183 115.0298 129.0853 124.7431 111.2677 124.0141 126.2075 118.9329 126.0557 103.7057 115.0300 112.0820 113.6875 113.7552 125.9642 125.4076 125.8628 125.6272 125.6567 125.6192 125.6108 125.6150 125.6125 125.6970 125.9599 117.9966 110.7622 124.4383 125.9246 125.6779 125.6837 125.8533 125.9177 125.9538 126.0043 126.0624 126.1200 126.1814 126.2482 126.3160 126.3927 126.4607 126.5345 126.6122 126.6856 126.8675 126.7838 126.7737 125.5028 120.1253 122.7800
127.6400 127.6146 127.5267 127.4329 127.3458 127.2547 127.1843 127.0912 127.0118 126.9104 126.8762 126.3962 112.6243 108.8581 105.1313 108.6311 113.0445 111.3720 119.8177 126.4800 125.2095 126.8705 109.4974 112.5282 112.7260 126.3661 125.6863 125.7598 126.4184 124.1034 125.8575 125.8518 125.8339 125.8371 125.8192 125.8228 125.8317 125.8411 126.0064 128.3752 115.6555 126.1103 126.0890 126.0247 126.0377 126.0858 126.1304 126.1845 126.2438 126.2962 126.3534 126.4185 126.4807 126.5543 126.6199 126.6992 126.7805 126.8396 126.9471 127.0382 132.1047 122.1918 115.1112 117.8100
127.7800 127.6900 127.6000 127.5100 127.4100 127.4300 127.2300 127.2400 127.0400 127.0400 126.9600 126.8500 126.8700 126.7800 126.6900 111.8300 111.8300 112.7200 126.3800 126.4100 126.2900 126.2900 126.1900 110.4000 126.0800 126.1000 126.1200 125.9700 125.9900 126.0100 126.0100 125.8500 125.8600 125.8600 125.8600 125.8600 126.0200 126.0200 126.0100 125.9900 112.9200 126.1200 126.1000 126.0800 126.2200 126.1900 126.2900 126.2900 126.4100 126.3800 126.4900 126.5900 126.5700 126.6900 126.7800 126.8700 126.8700 126.9600 127.0400 124.1700 126.5800 126.5800 114.3600 114.1200
