110.0800 122.6000 125.6200 116.9500 119.8500 122.1200 120.8400 123.3300 122.7600 122.0200 106.1400 127.1400 105.9600 105.8400 105.7700 108.1600 121.1700 112.7700 112.6300 119.5700 118.8800 105.2000 114.7000 113.2800 113.2800 112.2000 112.2300 116.5000 108.0000 105.4200 105.4200 104.6600 104.6600 104.5300 105.4500 126.4200 126.4500 126.4500 126.3200 126.3300 126.3400 126.3600 129.3600 126.3600 126.2000 126.2000 126.3600 126.3600 126.3500 126.3400 126.3300 126.3200 126.4600 126.4400 126.4300 126.5600 126.5400 126.6400 126.6400 113.2400 113.2400 126.8500 126.8200 126.7900
123.7000 124.8141 125.4067 122.6140 118.1483 120.4679 121.5059 123.5824 122.7216 123.2382 124.8147 114.9440 107.0572 117.0192 107.9611 111.4156 121.1012 116.5148 118.8165 115.0974 110.7961 108.2393 116.7159 112.5259 112.9793 112.0174 105.2892 107.3523 107.5451 105.1425 103.9569 105.3263 118.2769 100.9850 119.7503 117.3042 108.1947 109.1240 117.6909 122.9101 123.0453 126.3367 126.2344 126.1534 126.1995 126.1888 126.2407 125.6052 126.9951 115.4686 126.5523 126.2605 126.2884 126.3232 126.3518 126.3891 126.4213 126.5192 126.5898 127.0399 106.2408 123.4961 125.3384 126.7900
123.2100 116.4346 118.6917 125.1177 124.2131 121.1651 120.6182 120.3314 124.0713 123.9422 123.0425 119.5293 104.3142 105.2618 104.0461 123.7093 114.1786 114.5205 111.4987 112.8888 116.4136 107.9333 107.1446 107.8634 115.4909 113.5136 103.6079 110.0228 120.0304 108.2459 104.3496 127.5287 125.3516 121.3278 111.4777 109.8932 103.4278 135.1827 126.9953 125.7276 125.1333 126.0551 126.0318 126.0025 125.9837 125.9720 125.8331 128.1294 108.8594 128.8067 125.9617 126.1707 126.1021 126.1450 126.1639 126.2372 126.2971 126.1831 126.2362 125.7256 107.0701 123.5035 123.3401 126.6200
120.9900 123.3686 117.1458 125.4782 125.7242 123.4691 121.4158 118.4347 117.3314 123.6717 123.4930 123.0003 111.4314 105.6694 105.8763 114.0113 113.6609 114.8188 117.4972 111.6198 108.7559 107.1689 116.0420 116.8353 117.6536 115.3181 115.5119 109.4530 105.1982 108.4438 107.6218 115.7067 120.6150 120.8635 105.3192 116.5609 117.6535 122.4108 124.9771 121.9613 126.4108 125.7788 125.8128 125.8012 125.8347 125.7422 125.7131 125.6462 106.8994 116.9207 126.1486 125.9019 125.9201 125.9462 126.0799 125.8596 126.8464 127.0847 121.9536 106.2987 104.1251 110.7848 100.9672 126.4300
121.1200 124.2092 111.6281 115.5956 125.2847 126.0363 124.2320 120.9816 119.6629 121.6340 124.6050 124.8224 124.4178 102.7875 106.9851 115.2428 120.6326 114.9372 108.8375 110.9087 113.9173 114.8335 114.0370 112.4544 112.5490 114.1249 111.2680 113.1475 108.2696 102.0295 113.1175 113.1443 127.6938 125.6698 115.5161 118.3208 126.5297 127.6855 125.7955 125.1962 125.8023 125.6376 125.6259 125.6136 125.6201 125.4757 123.8835 121.1232 108.5995 127.6181 125.5939 125.7679 125.7264 125.7597 125.5529 127.1479 118.3095 122.7899 117.3220 114.7094 110.4408 106.9677 118.1119 126.2800
120.3300 121.2078 120.3127 122.2245 105.5157 121.9727 127.1444 115.9392 117.4044 115.6941 120.6992 125.1593 117.6295 121.4233 114.8965 111.9593 110.4696 111.5197 111.7437 115.2186 115.7769 113.7940 109.2675 106.0833 111.4348 112.7430 106.9256 108.4994 113.7786 116.7627 118.0985 125.6724 126.7369 126.5555 126.4514 127.2009 125.1520 127.1482 125.2981 125.5040 125.4188 125.4220 125.4022 125.3982 125.3868 125.3599 125.4287 125.7932 107.1580 116.7380 125.5384 125.5568 125.5301 125.4695 126.3150 119.1085 109.6624 108.4095 111.2286 120.1876 124.5711 122.2578 128.1985 126.1000
115.3500 119.0250 125.7472 117.1589 107.1063 110.1726 124.7551 124.1068 124.7663 122.7570 112.7408 115.1294 116.3653 115.4329 116.2221 121.3341 114.4998 129.0057 118.5991 114.4631 116.4538 115.9034 110.7306 108.0078 110.6851 108.7319 110.7456 105.1764 106.6092 109.4716 107.1683 123.3030 125.0023 102.5440 119.9347 124.8926 125.3925 125.1590 125.2254 125.2684 125.2577 125.2269 125.2393 125.2542 125.2300 125.1237 127.4992 111.2235 110.6882 125.1565 125.2569 125.3316 125.3392 125.3435 125.1357 111.9582 121.8521 115.7635 125.4761 117.9995 124.6257 125.9038 126.1159 125.9300
119.4500 119.4110 110.8011 116.4164 125.3589 110.8188 112.3422 124.8096 106.5421 112.8872 120.2338 119.2367 118.0277 117.2295 115.7202 116.9950 116.9542 129.9601 116.1615 109.2904 104.0087 112.0298 112.5453 108.0132 107.1059 105.5333 111.6448 103.0850 107.8763 121.2915 127.9465 126.0851 125.9140 99.2325 120.9221 125.0132 125.2383 125.1469 125.1023 125.0599 125.0455 125.0135 124.9546 124.7495 124.6512 126.7479 110.3861 117.9503 119.5841 122.9563 125.1532 125.1334 125.1420 125.1411 125.9175 127.3669 125.2699 125.7911 125.9021 125.9233 125.5902 123.2523 125.5639 125.7400
117.7400 119.6568 122.8891 123.6590 122.6502 124.0014 115.3582 114.6082 117.3974 116.9054 119.1262 116.4322 116.1490 117.2215 105.5119 113.4335 117.4107 124.5323 110.8392 104.1962 100.5498 108.9390 108.9614 105.1281 104.8606 109.8232 120.1580 113.0834 129.8897 121.3537 124.4847 125.0187 126.3688 120.5669 123.2669 124.9197 125.0276 124.9204 124.8858 124.8554 124.8348 124.7893 124.5926 125.5912 125.6063 124.5413 122.5619 126.1289 129.7049 124.7627 124.8756 124.9079 124.9209 125.1351 123.0055 120.0882 125.6925 125.2054 125.1748 125.2661 125.6046 124.8646 126.2243 125.5500
119.2800 117.7158 118.5816 120.7530 116.2355 121.9834 121.4807 108.9323 111.8856 108.0657 113.9117 119.0662 117.8186 115.1653 118.4029 112.4508 110.6275 109.4989 104.6013 113.8178 129.5637 108.6621 108.3855 103.3504 107.7276 106.0618 125.7055 129.0393 135.6250 125.9728 124.7129 125.1652 124.2837 125.0858 124.9374 124.7739 124.7681 124.7024 124.6719 124.6382 124.6160 124.5896 124.0018 126.7080 108.2871 126.7225 124.6738 124.2197 125.6943 124.5056 124.6440 124.6911 124.7209 124.5325 125.1100 106.9765 127.2456 124.9771 125.0475 125.1346 125.1634 125.4036 125.2779 125.3600
113.0800 118.2220 115.4021 120.1344 115.2864 120.9600 123.7056 125.4660 103.8595 113.7211 119.6460 114.4845 117.1952 114.8766 119.8027 115.8008 112.4189 114.3949 108.1394 102.3572 130.1447 105.3909 113.3649 105.9019 111.4221 118.7679 126.4258 125.1381 124.9873 124.0550 125.0190 124.7175 126.2352 124.8301 124.5877 124.5813 124.5482 124.5085 124.4529 124.4184 124.3930 124.3629 123.8344 126.0296 102.5426 119.7580 124.1325 124.4215 124.2535 124.3975 124.4292 124.4628 124.4864 124.4200 126.0787 115.2390 126.2091 124.8322 124.8238 124.9247 125.0166 125.0640 125.1910 125.1600
120.7900 117.9150 118.4301 115.9966 119.9530 121.2909 116.0155 123.7963 122.9611 100.3566 113.5916 112.1335 116.2768 117.3728 116.2492 118.3470 114.5844 114.0647 107.5325 112.1909 128.7690 115.8711 117.4517 111.9721 103.3061 117.1967 125.6761 124.8541 124.8460 124.9390 124.6541 124.3805 125.1968 104.3845 124.1046 124.4381 124.2598 124.2214 124.2130 124.2015 124.1516 124.1590 123.9303 125.0910 103.3281 124.6931 124.1850 124.1389 124.1614 124.1742 124.2031 124.0861 124.9833 125.4537 112.4060 124.5123 124.3178 124.6498 124.6365 124.7287 124.8048 124.8995 124.9811 125.1400
119.4400 119.4186 120.4229 117.9091 120.5065 115.0927 118.5809 113.6669 113.1210 109.6850 107.8946 114.1212 113.5674 106.4234 114.7822 111.7895 112.0355 108.7326 106.2484 101.3284 111.9211 112.3688 122.8676 101.8026 119.4967 116.1396 124.7895 124.6122 124.6665 124.5551 124.4917 124.4371 123.4539 111.4986 125.9284 124.2110 123.8819 124.1092 123.9101 123.9304 123.9346 123.9381 124.8136 111.0344 103.8798 118.8134 123.6108 123.9785 123.9079 123.9365 123.9717 123.9643 123.8773 125.9671 121.6891 126.1696 124.1144 124.3755 124.4375 124.5218 124.6072 124.6990 124.7832 124.7500
105.7000 108.9260 123.9125 113.7224 108.3097 115.9129 116.9130 110.9495 115.6480 116.5551 103.8821 111.4537 116.0155 111.0286 115.5920 116.2058 111.6998 120.2087 111.0613 115.8818 103.3000 125.9183 126.4907 125.0154 124.9633 122.3269 126.0537 123.9690 124.3620 124.3847 124.2891 124.0774 122.0845 119.1763 124.4512 123.9686 123.4754 123.1122 118.9076 123.6412 123.7618 123.6456 123.4833 125.8848 110.9269 121.8287 123.4123 123.6951 123.6697 123.7007 123.7309 123.7380 123.9771 123.5834 125.7218 121.6011 124.7347 124.1210 124.2238 124.3089 124.3977 124.4960 124.5885 124.5300
105.5600 120.2897 117.2425 117.2041 119.0999 119.0930 118.7428 113.2751 115.1697 116.5336 114.8025 106.5116 104.7741 106.2098 111.0691 112.1858 111.4816 119.6008 113.8029 105.6699 106.6337 123.5650 125.4041 124.6657 124.1467 117.7117 122.2889 115.2345 121.5349 124.1826 124.0629 124.2349 122.0220 117.1310 124.0413 123.6543 124.0618 122.4400 115.0432 123.6034 123.5128 123.3729 123.3959 123.0648 124.4139 123.5035 123.4100 123.3897 123.4193 123.4524 123.4834 123.5291 123.5855 123.6800 123.6875 123.8792 123.8376 123.9560 124.0031 124.0957 124.1970 124.2848 124.3948 124.5300
105.5600 119.2477 121.5649 114.7383 115.0866 104.9679 109.8130 116.7057 110.8125 105.6536 114.2369 117.6378 107.1798 109.7233 112.1742 108.1868 115.7562 106.9590 101.8904 103.5114 118.5268 120.9550 124.0863 124.4573 124.1835 124.3644 124.0843 123.9235 123.5439 124.1617 123.8534 123.5859 124.3154 123.5818 123.8586 123.4927 124.8556 112.5525 121.0185 123.2914 123.2342 123.5979 123.1347 123.1836 122.9691 123.1229 123.1523 123.1526 123.1712 123.1963 123.2397 123.2830 123.3351 123.4005 123.4650 123.5118 123.6209 123.6975 123.7856 123.8854 123.9778 124.0723 124.2723 124.3100
119.6400 126.5994 127.2889 112.5390 113.5806 110.0913 121.3989 105.7048 119.2870 106.2371 107.7615 114.2487 113.5021 107.4522 110.3101 109.2178 109.1273 106.4730 108.6287 113.3259 114.8794 120.4027 119.8436 125.0789 124.3362 124.1618 124.2560 123.8528 123.7641 123.7360 123.6282 123.5527 123.3639 123.3198 123.2463 123.6853 118.5863 112.7748 124.8136 123.2849 123.2198 119.0078 123.2418 122.8204 122.7088 122.6912 122.7867 122.8674 122.8930 122.9441 122.9777 123.0283 123.0834 123.1499 123.2201 123.2989 123.3785 123.4664 123.5583 123.6563 123.7576 123.8727 124.2388 118.3700
116.3800 118.4970 125.0259 113.9668 112.9173 112.0735 113.5365 113.0456 111.7053 116.6956 106.5993 106.2519 112.5517 113.2329 108.6824 107.4009 109.4561 104.3813 108.1528 106.0247 108.8104 127.5292 124.5116 124.0776 124.0797 124.0191 123.6154 121.0530 125.0656 123.1584 123.3847 123.2980 123.1353 123.1612 122.5426 122.2129 113.1678 110.0380 109.5099 115.8366 124.1362 109.9792 123.2194 122.0197 123.0700 123.2059 122.4774 122.7758 122.6841 122.6644 122.7090 122.7654 122.8258 122.8921 122.9705 123.0454 123.1367 123.2286 123.3260 123.4328 123.5391 123.6475 123.9281 123.8500
115.8400 115.3240 115.1500 113.4210 112.8983 111.6707 109.7474 111.0512 115.8403 114.3894 111.1528 107.0554 110.5280 111.5989 108.5718 109.0407 109.3322 107.7932 107.8807 114.1157 122.6108 104.7136 120.5399 124.0486 123.9006 124.2900 119.8198 105.6192 122.0016 122.8929 123.1394 123.0967 122.7441 121.7825 123.8738 119.6363 110.1720 109.4337 109.2829 122.1753 120.2671 120.0304 123.3939 122.9546 118.0212 116.2504 122.0167 121.9179 122.2917 122.3542 122.4407 122.4972 122.5610 122.6362 122.7089 122.7963 122.8913 122.9837 123.0911 123.1974 123.3110 123.4473 123.5772 123.6200
115.1900 114.6347 114.7663 114.4658 112.7919 105.7341 112.3822 108.5931 110.1872 111.8430 111.8906 113.2836 108.4341 104.3000 113.3383 115.8820 105.8364 105.9688 117.7571 114.8030 121.3982 120.4806 123.5497 124.0237 123.4059 125.4159 109.4714 106.3122 111.9591 124.0367 122.9259 122.8847 122.5773 119.1087 112.3896 106.5125 103.5148 99.3889 112.3531 109.0360 117.9612 113.4464 125.3519 111.6462 116.2938 119.7153 122.9564 126.8780 122.4819 122.2701 122.1566 122.2166 122.2896 122.3628 122.4479 122.5345 122.6412 122.7419 122.8471 122.9656 123.0704 123.1945 123.2678 123.3600
121.1400 113.2724 112.5358 113.5284 114.1097 112.8208 111.8778 111.0272 110.3658 107.8759 113.6071 111.6486 113.2696 104.5065 111.3418 113.0094 107.3834 106.4903 114.0996 118.9191 117.5192 118.8798 124.2544 123.4791 123.3523 115.9031 105.4554 100.4507 112.7082 123.0605 122.6709 122.6738 122.3503 118.0465 115.5890 104.4369 102.0456 101.3347 111.1012 107.8697 107.4159 101.9580 112.6764 109.1444 102.1976 118.0033 107.1883 124.7953 118.1392 121.7339 121.8623 121.9266 121.9983 122.0859 122.1741 122.2717 122.3808 122.4834 122.6169 122.7419 122.9427 122.8569 123.5232 123.1100
121.0800 113.5888 115.8503 113.0839 111.5173 112.5908 114.1063 112.1123 110.0042 108.3991 109.5812 110.8932 108.6305 107.1884 105.5431 106.1917 114.2058 109.6981 116.2491 118.0715 124.6530 124.8683 123.6367 125.7577 122.0990 101.8234 110.3962 112.7529 123.8676 122.4793 122.4485 122.1328 123.2033 119.1999 100.8861 99.4579 109.2491 102.1836 113.1324 100.4200 123.1529 101.0241 108.1515 104.4258 100.8985 118.4868 105.6029 122.9456 121.6472 121.6343 121.5569 121.6302 121.7058 121.7972 121.8951 121.9611 122.1696 122.1536 122.3177 122.5328 122.5120 122.8869 124.5210 123.0800
114.6500 118.3913 118.0732 114.6237 114.3567 109.3819 111.7373 111.4405 110.9532 108.8324 108.7847 107.1766 106.3603 107.4183 105.3288 108.1930 107.1586 112.9208 109.3433 116.6655 125.5880 123.7130 119.8906 111.7332 103.1056 104.3238 117.0571 122.2154 122.4760 122.1732 121.9783 123.3729 115.0244 125.9840 115.3445 114.5778 106.4307 110.7224 100.6695 100.3136 114.9895 102.9585 108.9305 111.7030 102.4366 116.8333 121.7877 121.1686 122.1409 121.1034 121.2589 121.3446 121.4078 121.4847 121.6175 121.8977 121.8946 122.2658 122.0774 123.8228 125.7908 122.2222 122.7775 122.8400
114.6500 110.5356 113.3212 119.1986 121.2701 116.0649 108.9091 109.8461 110.6418 110.7955 109.4361 107.6529 105.0652 103.3516 110.9341 106.9794 109.9791 115.4135 118.0702 103.7394 123.6186 123.7719 114.0018 105.0831 98.2846 107.8764 101.0808 121.8667 122.2965 121.9083 124.4927 115.2019 106.7855 106.3070 116.5380 107.4883 103.5132 118.8082 109.9026 104.8470 102.9701 101.3345 105.3381 118.4170 106.4947 118.5151 123.0925 122.1647 120.6858 120.8551 120.9921 120.9363 121.0717 121.1146 121.2941 120.4115 121.3520 121.7807 107.4645 119.4809 124.0526 126.7752 121.8872 122.5100
104.6100 111.5890 105.3048 115.5710 113.1646 114.9464 113.1440 107.7152 108.0652 108.2632 109.4591 109.2069 109.2634 100.5448 106.0550 102.6907 110.7720 117.7861 125.4068 117.0111 124.6629 123.3426 123.0125 126.9317 108.7372 99.2693 121.8211 123.1971 121.4250 121.8237 124.2037 119.0705 114.6729 108.4614 99.7458 107.5851 111.0208 105.0884 103.0171 105.6755 99.7308 101.5849 111.9752 121.3646 122.8343 120.6346 120.1810 120.3146 120.4879 120.6831 119.8829 121.0123 120.7350 120.6136 129.0696 122.2980 123.7483 121.8261 122.1775 121.7959 120.9716 124.8835 122.2696 122.2500
117.0200 114.3582 111.2126 113.5644 119.5352 113.2180 113.1613 106.0804 105.8293 113.2962 114.3284 111.7748 107.9069 101.5213 105.0820 103.6730 110.3652 114.4276 121.8692 123.4595 123.0941 122.9290 122.5087 126.7928 109.1817 105.3234 110.6143 116.2173 122.8641 121.4943 120.9598 121.4432 123.6915 115.4060 111.8408 107.4525 104.9067 109.3748 117.2856 111.5688 109.2055 119.4169 121.6904 120.0125 119.5197 120.0137 120.0851 120.0736 120.1036 120.3149 115.0250 120.9137 120.4035 120.0164 120.9865 119.8281 120.8910 108.7969 121.5257 121.4078 121.5762 121.7948 121.6829 121.9900
115.7700 116.4851 113.1177 113.0498 110.6187 113.6067 109.5293 105.2935 101.7279 119.6259 112.2584 102.8429 106.0513 106.5256 111.5870 110.5562 103.4785 104.8080 121.9631 123.1145 124.4542 124.0003 124.1767 123.9029 118.4269 116.2116 117.2679 112.0645 121.4678 121.4269 121.0848 120.4839 120.6508 122.2069 106.9213 104.1191 104.8352 100.0618 107.6257 104.8427 103.5034 117.9651 118.6854 119.6121 119.7516 119.6152 119.6325 119.6790 119.7313 120.1281 120.3608 119.9640 120.0737 120.2879 120.3350 120.7214 121.1900 121.1710 120.9784 121.1512 121.3500 121.5425 121.7170 121.6700
113.6400 113.5958 115.3155 115.4830 113.7833 111.9601 111.9478 108.0145 105.1739 107.1762 103.5797 102.6544 102.3834 103.5748 101.9107 108.8582 101.1610 109.2755 123.0139 122.9749 118.2895 99.1883 108.2212 97.7029 121.6398 120.0164 117.3636 122.1687 120.8851 121.1165 120.8126 120.6568 120.5590 123.4605 95.1261 100.3008 105.2081 109.7498 111.1537 122.1889 117.5356 119.6964 119.1245 119.2968 119.2076 119.2287 119.2538 119.2893 119.3493 119.3712 119.4370 119.6476 119.7660 119.8594 120.0327 120.3161 118.4192 121.2908 120.5080 120.9054 121.0680 121.2712 121.4682 121.6300
120.0600 118.4813 113.4257 112.2626 112.8548 112.8159 114.8328 110.3232 108.9496 109.0452 107.5356 101.9832 102.2172 102.7137 102.6914 103.3316 102.2859 107.7792 119.2611 122.0853 122.6654 98.4754 107.5308 107.8262 124.3985 120.8140 121.4707 121.0549 120.9292 120.7388 120.5367 120.3555 120.0110 120.4610 114.2127 114.1878 105.0005 107.2835 118.6831 122.0973 117.1321 118.8424 118.8250 118.9136 118.7929 118.8141 118.8378 118.8737 118.9361 119.0316 119.1520 119.2087 119.3268 119.5636 119.6847 119.8343 120.0368 120.0582 120.4446 120.6118 120.8072 121.0162 121.2252 121.3500
106.0800 104.3009 115.1377 110.5433 112.6130 111.1474 110.3987 109.6517 110.1675 110.2243 108.0915 103.2807 103.4298 103.1157 104.0880 113.9218 103.3336 117.7631 123.9602 108.7058 124.6003 116.5748 100.6247 120.1696 121.5954 115.6758 122.6728 120.8819 120.6466 120.4765 120.1195 119.9409 120.5346 118.2796 120.8173 108.5540 121.3113 97.7000 115.5932 121.0232 113.8863 118.5624 118.1577 118.0191 118.4182 118.3575 118.3976 118.4431 118.5195 118.6420 118.6105 119.1711 119.2664 118.9968 119.3394 119.5192 119.7020 119.8956 120.1030 120.3157 120.5370 120.7525 120.9730 121.0100
118.2200 119.6286 112.9634 105.6355 109.7662 110.3758 111.7314 107.8668 109.2957 112.1104 109.7113 109.7296 118.0381 115.7627 102.8496 106.2168 123.8640 107.5727 115.6397 121.9814 119.2511 119.7401 110.6464 104.1801 115.5552 119.4585 116.6364 119.6975 120.4086 120.2382 120.5633 110.4681 114.2531 102.7103 119.0117 118.8678 119.2987 105.5328 106.5003 118.9629 117.7081 119.1716 118.4561 122.7221 117.3316 118.0117 117.9434 117.9875 118.0638 118.2792 118.0967 114.2229 118.4476 118.4174 118.9972 119.1514 119.3649 119.5778 119.8027 120.0243 120.2542 120.4898 120.7260 120.9600
118.1800 118.5272 118.3544 119.8134 104.2915 105.2759 104.0103 109.0944 106.5554 104.0836 108.5244 106.6595 101.5177 112.9970 102.7882 101.4933 109.0810 104.4493 121.0433 114.2891 107.9096 122.1940 123.1787 101.4001 101.0344 112.5122 109.6853 116.7446 119.9265 119.8328 119.9491 114.0971 107.6726 103.5638 111.4626 119.1822 118.7518 93.4965 94.2090 118.3734 116.8141 117.0562 107.2007 118.2072 117.3699 117.4281 117.4564 117.5062 117.6192 117.4632 118.9949 112.2758 116.2862 118.3557 118.5646 118.7924 119.0176 119.2481 119.4840 119.7342 119.9733 120.2217 120.4740 120.5700
110.8700 115.1617 115.3547 115.4012 110.0827 114.6539 106.5877 105.0598 105.9032 103.8724 103.0913 101.4095 103.2954 103.6238 101.7879 101.3886 108.3597 110.9338 108.4174 103.7092 105.1375 124.0155 124.0153 106.8308 118.5773 106.3705 121.1584 120.9304 119.8320 120.1773 119.2551 120.8765 111.0330 98.9072 95.8052 125.4542 114.0426 104.5948 105.6953 103.4122 118.3325 117.8470 113.2734 117.2657 116.9993 116.9054 116.9364 117.0083 117.0541 118.1293 112.4782 105.7467 117.6714 118.1005 118.1904 118.4175 118.6617 118.9155 119.1731 119.4307 119.6975 119.9600 120.2231 120.5700
112.3400 111.3908 109.5661 112.5698 110.5498 109.6111 110.4953 109.7904 107.0561 104.7233 103.2748 100.9007 104.6470 108.3563 102.3663 101.4185 108.5755 118.9642 105.8325 107.9527 104.2226 98.3560 113.6498 122.0611 122.1147 120.7164 119.9568 119.3667 120.2315 112.0511 119.8003 119.4037 120.3068 100.2478 101.8736 101.5832 117.5633 118.2452 119.4080 110.3056 106.7954 116.9186 116.6009 116.3294 116.3563 116.3436 116.3918 116.5082 116.5871 112.5433 111.6607 109.0652 117.6861 117.3630 117.7447 117.9676 118.3177 118.5677 118.8508 119.1279 119.4098 119.6890 119.9670 120.2700
113.1200 112.3443 110.2114 109.7393 110.1036 110.7694 110.3937 110.2072 110.4315 107.3893 104.6159 104.1488 109.6743 104.2634 107.3024 106.4766 110.5938 106.7864 118.4903 104.2574 105.9741 106.2345 102.7555 122.6065 121.0470 121.7155 119.1725 121.7422 119.9252 109.7193 117.5085 118.3129 117.1048 112.1785 101.3144 107.0885 111.3957 116.6790 116.5172 113.7537 114.9781 115.3426 115.9846 115.8101 115.7766 115.7712 115.7377 116.0026 116.0495 109.6641 105.0419 117.2778 117.1426 117.2521 117.3010 118.0668 117.8542 118.2429 118.5264 118.8286 119.1279 119.4140 119.7080 119.8300
113.1200 113.1347 111.3213 111.0085 109.7657 109.7708 110.6837 110.1461 107.7561 106.1514 105.2182 104.8651 120.4443 117.8481 99.5628 101.8968 104.7733 110.3640 112.4425 113.6367 102.7572 104.2831 113.7105 105.8817 103.0826 103.4912 108.9561 101.4094 119.4653 117.0808 118.7324 118.0819 117.9998 116.9580 115.2738 104.7959 105.4922 116.1356 116.3457 113.9189 109.3371 123.2170 114.3379 115.2579 115.1419 115.1002 115.8599 115.1411 116.0596 110.2294 101.3772 117.6365 116.3140 116.7572 112.9179 116.6811 117.6112 117.8772 118.1999 118.5205 118.8391 119.1915 119.4732 119.8300
112.5400 112.7527 108.9188 110.0929 110.6753 114.6612 108.2883 107.4404 105.8040 104.2342 104.0775 116.3755 123.2682 113.0245 120.0578 102.5940 110.7966 113.7555 118.1734 110.5253 119.4116 119.3750 109.8812 101.5995 100.6552 94.1803 108.1350 115.1834 118.8962 118.1436 118.2788 117.7203 117.5222 118.0039 120.6531 102.2440 116.2685 115.4496 115.0568 115.7486 114.6375 116.2440 114.0799 114.5328 114.2444 115.0429 109.2281 114.6591 113.9679 100.2315 104.7153 116.3685 115.8011 116.2690 116.2194 117.0012 117.1593 117.5247 117.8750 118.2136 118.5779 118.7267 119.2788 119.4000
112.9700 112.2576 109.3323 107.6086 108.8885 111.0653 110.8236 106.5564 103.9407 105.5963 114.6068 120.9429 114.1239 120.4318 119.9021 101.5904 121.2802 117.1054 121.9640 120.5922 121.0216 121.5251 113.1680 97.0450 100.9900 105.7152 106.7983 120.2684 118.7601 118.1469 117.8030 117.2485 117.3797 95.4545 116.6048 116.3731 115.3747 115.8434 115.1608 114.7078 114.2571 113.8898 113.9982 113.8175 113.6869 113.7661 105.4361 114.6014 115.0092 93.0078 117.3551 114.7244 115.3111 115.6230 116.0883 116.4196 116.7669 117.1733 117.5458 117.9137 118.2503 119.1474 118.6963 119.3100
115.9800 116.5813 106.1138 104.4897 108.6729 108.1160 110.1235 109.9062 110.2101 104.2404 113.5245 113.1361 116.4441 122.9904 114.0109 101.6656 103.7183 121.0069 121.5592 121.3708 120.8307 120.0411 116.2976 120.5548 116.1178 96.5382 111.1837 118.3776 118.4036 117.8756 117.5127 117.1228 116.1986 116.9669 113.4036 116.2749 98.1017 110.3128 110.2538 113.3187 113.5385 113.3468 113.0789 112.9843 112.8043 114.2806 114.6657 113.5800 102.6752 96.9995 109.9439 115.7751 114.5536 115.2017 115.5798 115.9969 116.4044 116.8174 117.2115 117.7076 117.6126 118.4953 105.4742 118.9600
110.9400 115.1121 108.4349 112.9998 108.4735 106.8572 108.2043 103.3572 103.7671 106.0470 105.1878 107.7966 118.5499 105.6465 123.3507 123.6905 122.6630 121.8850 121.4577 121.1600 121.1660 120.8863 120.1233 119.4741 119.7096 104.0990 99.5228 120.4868 117.7430 116.6719 117.2735 116.7054 116.4569 116.0161 115.1402 116.1154 113.4747 111.8189 111.5685 113.6236 112.7512 112.5242 112.2692 112.1448 112.8399 104.6480 112.0479 112.1941 94.4284 96.8644 94.9041 112.6617 114.2121 114.6407 115.1122 115.5662 116.0193 116.4657 116.8967 117.3279 118.3537 126.3737 108.3651 118.8700
109.6500 110.0288 110.4658 110.6416 108.8798 109.0050 109.2684 108.9417 106.7129 103.9252 101.9085 114.9848 116.9315 113.9999 122.3556 122.1357 121.5382 121.4621 121.3837 120.9818 120.5166 119.2457 119.9577 119.7456 119.6350 120.5765 106.4189 116.2276 112.2265 112.4615 116.5700 116.2650 115.9926 115.4707 114.9745 114.4271 113.7903 113.2849 113.0454 112.3504 112.0573 111.6545 111.3380 111.1661 111.4419 106.0051 112.2462 98.9521 109.4439 107.2380 111.0433 114.6107 113.6293 114.1592 114.6379 115.1511 115.6460 116.1249 116.5910 117.0609 117.3332 117.7798 110.8888 101.7600
110.0500 110.5604 109.7245 109.2472 109.9587 109.1570 108.5484 107.8536 107.3268 104.5021 109.2700 104.1642 120.9898 120.5690 123.9095 122.5991 122.0976 121.4229 121.2212 121.0582 118.0810 116.9040 120.9058 119.5269 119.1626 118.3332 119.7436 116.6400 96.6223 117.5989 116.8526 116.1292 115.6122 115.0902 114.5683 113.9786 113.4716 112.8418 112.2251 111.7113 111.1678 110.6911 110.3179 110.0520 109.9394 109.9010 111.0679 101.4952 114.4228 100.6835 111.6407 111.4963 112.8783 113.6162 114.1728 114.7362 115.2757 115.7925 116.2954 116.7793 117.3716 117.6391 118.7363 118.4300
109.4500 110.1986 110.3261 109.9263 109.5220 108.6838 108.8346 106.3068 104.1766 107.0075 113.6563 122.9702 119.2331 123.9718 116.8929 124.4330 121.7855 122.7127 121.2485 120.7598 120.7131 120.5133 120.0402 119.2964 119.0668 118.7607 118.0820 118.7104 120.0059 116.7599 116.2085 115.8438 115.2711 114.7587 114.0958 113.4867 112.8596 112.1944 111.5391 110.8710 110.2332 109.6500 109.1605 108.8054 108.6286 108.7930 109.8456 109.4974 117.8903 110.6520 112.1504 111.8031 112.4755 113.0981 113.7155 114.3349 114.9090 115.4785 116.0174 116.5181 116.9909 117.3936 117.6706 118.3600
110.4300 110.4819 110.2868 110.2958 110.2464 110.8066 110.9016 105.5208 102.5402 104.5415 120.2395 115.8369 120.9686 117.9329 120.9756 114.5958 125.0313 112.2930 121.0154 120.3482 120.8605 120.8173 122.4281 119.5287 118.9741 118.4739 118.0899 117.3744 116.5793 116.5274 116.1903 115.5306 114.8510 114.2635 113.9209 113.1676 112.3211 111.5753 110.7974 110.0135 109.2271 108.4864 107.8537 107.3756 107.1440 107.2523 107.4430 107.7083 110.0890 109.4778 110.0583 111.0539 111.8259 112.4814 113.2605 113.9819 114.5772 115.1961 115.7586 116.3967 116.8704 117.3365 117.8119 117.9300
110.4300 110.4198 110.2150 110.1970 109.9308 109.1595 106.0892 108.5932 104.0425 101.7444 106.2473 116.4527 116.2737 115.7421 117.5298 110.5195 110.7184 100.4110 130.7520 120.4345 112.4006 120.4567 103.7022 117.3372 118.5215 118.3893 117.9169 117.4876 117.0461 116.5126 115.8269 114.9460 115.4733 114.1946 112.4592 112.3703 111.8074 110.9738 110.0684 109.1353 108.1603 107.2183 106.3469 105.6699 105.3348 105.4013 105.9184 106.6414 107.5430 108.3910 109.4605 110.4042 111.2656 112.5518 112.6215 113.0274 114.3239 114.9257 115.5531 115.3960 116.6608 117.0900 117.5713 117.8700
109.7800 109.9761 109.8220 109.5731 109.2879 110.2087 104.8498 106.3122 103.1544 101.1876 114.5558 118.6705 111.5531 120.2730 111.2753 114.4087 118.7937 116.5345 100.7517 122.0163 110.2678 105.2686 111.1077 114.5951 118.6733 118.3337 117.8245 117.3087 116.8164 116.1854 115.2318 116.2947 104.6598 106.1528 115.9846 112.4107 111.4125 110.3910 109.3648 108.2595 107.0636 105.8193 104.6196 103.5937 103.0387 103.1696 103.9152 105.0305 106.2565 107.4967 108.6531 109.7733 110.6262 110.4069 114.2539 113.3869 114.2290 114.6700 115.4027 115.6837 116.6365 117.1333 117.6545 117.8300
110.0500 110.2650 109.7294 109.4698 108.5236 108.4880 105.5363 104.1141 102.2341 102.4611 119.8905 111.7808 111.2967 113.2881 107.0433 109.1471 113.1363 111.6011 108.2435 106.5569 102.3982 96.8887 117.5961 118.9188 116.5426 117.9268 117.6251 117.2109 116.6950 116.9917 116.8966 104.5026 112.5008 93.4389 92.0279 112.4366 110.5641 109.8975 108.7350 107.4277 105.9629 104.3393 102.6062 100.9557 99.9737 100.1930 101.4907 103.2192 104.9238 106.4834 107.8983 109.1651 110.2382 110.9650 113.4772 112.9445 113.8031 114.5487 114.8583 115.4430 115.9426 116.4162 116.9810 117.7900
114.3300 109.2928 109.7242 109.2116 107.7809 107.7070 109.6126 102.9166 101.7972 101.7346 119.9927 112.0756 109.3687 110.1828 107.0428 109.5085 103.5637 101.1837 104.7138 101.8684 98.3426 119.0332 113.9656 118.9284 118.3499 117.8670 117.6323 117.1371 116.2338 118.5065 100.4284 110.1366 114.0760 99.6751 114.3387 115.1376 110.4456 109.4683 108.2023 106.7177 104.9672 102.8954 100.3495 97.4777 94.8293 95.5107 98.5970 101.2796 103.6481 105.6787 107.3493 108.6664 109.8735 111.0428 111.8578 112.8547 113.6222 113.9966 118.6648 117.0239 117.2170 117.7943 118.1706 117.7600
114.2500 114.0372 110.1606 107.2645 106.4258 105.8240 102.5124 102.3530 103.6051 117.7303 112.4953 103.7018 101.7248 100.4339 100.0786 99.5147 120.0558 116.4245 122.7375 101.2795 120.4925 120.0434 119.2685 118.9753 118.4672 118.0876 117.5871 117.1124 116.5017 117.6147 99.5080 110.4425 114.3669 113.6736 108.2032 106.6821 110.5626 109.2425 107.8239 106.1993 104.2100 101.6824 98.3232 92.4449 88.2969 89.1044 94.8805 99.5517 102.9051 102.6546 107.0919 108.3117 109.6393 110.7821 111.7918 112.6872 113.5148 114.7143 109.9659 109.8557 95.6247 96.4662 99.8023 97.4800
112.6500 112.2648 112.0119 110.0033 109.0046 107.7389 106.4149 103.5019 102.3924 101.3342 102.8453 100.8126 106.8343 103.9848 118.6764 118.2378 100.5534 121.3075 120.3638 120.7389 120.1002 119.6862 119.3112 118.9270 118.5096 118.0705 117.5671 117.0589 117.9085 98.3269 102.3453 92.9395 115.5898 112.4077 112.5816 111.7122 110.3668 109.1237 107.6679 105.9747 103.8743 101.0743 97.0776 89.1716 84.3240 85.3305 92.1662 98.6634 102.2255 104.7425 106.6001 108.1953 109.5443 110.7015 111.7311 112.7009 113.5947 114.7528 115.2027 117.0047 101.7181 100.4664 103.3143 109.3200
112.2800 111.7686 111.6155 109.7954 109.3706 107.8855 111.1248 104.7865 102.4853 103.6768 119.1233 101.3933 107.4578 118.2030 117.6301 107.5845 103.6374 123.6137 114.7738 120.5717 119.4802 119.4427 119.4481 118.9649 118.5199 118.0636 117.5838 117.8155 115.4220 97.5888 105.6656 95.1375 116.1275 112.6689 110.4798 109.1352 110.5271 109.1559 107.7398 106.0749 104.0156 101.3351 97.6728 90.5740 86.3828 87.2110 93.3515 99.0665 102.3868 104.7703 106.6763 108.2658 109.5600 110.7176 111.7019 112.6944 112.6839 110.0934 114.8713 115.7352 105.4516 101.3056 111.6987 109.3200
108.6400 108.1629 108.3652 109.1112 108.6804 109.1055 106.4043 103.6881 101.7247 103.1704 119.7904 112.9233 124.9308 122.5958 122.6309 120.8210 122.8957 121.2859 119.2497 120.5674 120.7044 121.3142 118.5514 119.0063 118.6770 118.0349 116.9276 112.3771 100.8928 98.9789 120.9527 92.0903 107.7395 101.2644 106.3993 106.4588 110.6573 109.4045 108.0200 106.4790 104.6304 102.3417 99.3973 95.1107 91.9024 92.7636 97.1791 100.5267 103.2194 105.3343 107.0569 108.5160 110.0809 110.9133 112.0608 113.5155 110.6340 109.4960 114.5201 115.0798 117.2897 115.6562 115.1684 101.1800
107.7800 107.8430 108.6786 107.3561 107.3990 106.2772 103.7022 101.8162 102.1829 116.9278 107.9914 112.7022 122.1096 122.2899 122.5060 121.6495 121.3830 122.3514 103.2533 123.3288 112.1759 112.2630 117.0032 119.1506 117.7156 118.2478 114.4049 100.1263 113.9245 112.2614 113.8602 99.9685 96.5855 115.7342 113.8349 111.6607 110.7839 109.7062 108.4952 107.1154 105.5410 103.7143 101.8164 99.8563 98.2754 98.6101 100.3685 102.4454 104.4007 106.1228 107.6285 108.9427 110.3927 111.2367 110.8441 110.1965 115.2620 105.7448 109.6534 115.4001 117.2610 102.6073 99.3208 100.2600
113.5500 107.4833 108.4049 105.3155 107.1624 105.5681 102.6720 108.7862 103.6215 102.0924 101.3466 121.7357 122.9065 121.7675 119.4426 121.8104 121.6269 122.0675 104.3060 109.0840 94.1874 93.2502 119.0499 118.5868 117.6664 117.8487 118.8600 108.7727 117.6467 117.7054 114.7186 117.3451 115.9566 113.1458 112.7366 112.1443 111.1849 110.1527 109.0987 107.9124 106.6205 105.2023 103.8062 102.5819 101.8724 102.0328 102.9837 104.3177 105.7200 107.0883 108.3364 109.4971 110.4811 111.0841 113.4706 124.8790 114.6888 104.5686 101.2860 116.8163 116.3315 118.3214 107.0204 120.5200
111.0200 109.8881 109.0062 109.6798 100.9011 106.8606 102.0511 111.9925 111.3703 103.5249 108.3735 119.0225 120.6198 118.5741 115.6966 121.8092 121.6328 120.4021 122.2286 108.0731 112.5348 110.0735 120.1996 118.5942 118.8703 120.1097 107.2519 116.3391 107.8344 115.6452 109.2615 114.8087 114.3448 114.0420 113.2845 112.4149 111.7123 111.0925 109.7024 108.7806 107.7093 106.6582 105.6680 104.8766 104.4519 104.5506 105.1214 106.0004 107.0352 108.0988 109.1376 110.1286 111.0596 111.7523 113.2201 88.5971 114.1363 116.5661 117.9790 116.1586 116.6779 116.7579 116.7738 98.9300
103.4700 106.4700 105.6305 114.2033 110.7655 109.3848 106.5731 103.5234 112.0663 102.5771 115.1922 101.5266 123.7846 122.9296 123.5698 121.7658 121.3692 116.9176 127.4551 122.5507 121.3479 109.7423 120.5049 119.2022 119.9643 105.0277 95.2096 123.1362 109.1092 116.9409 115.7121 115.5760 114.9866 114.2198 113.4771 113.5816 113.8726 108.0326 110.8685 109.6411 108.7853 107.9844 107.2704 106.7059 106.4273 106.5004 106.8828 107.4933 108.2705 109.1035 109.9594 110.8029 111.6128 112.4315 113.3014 115.3246 114.6919 114.8830 115.2930 115.8954 116.4585 116.9572 114.8888 113.8300
103.4700 102.8459 102.0541 105.8849 119.0785 108.9064 108.9016 103.0814 101.2027 104.9847 113.4765 117.9092 124.9617 110.1180 108.4984 123.9023 124.8162 110.2957 120.3449 105.7928 120.9037 110.8269 115.3445 119.2761 118.6956 115.9704 94.9501 117.5064 101.8254 120.7437 116.1181 115.6701 115.1433 114.6155 114.0569 108.4306 98.7396 109.6996 111.1476 110.2702 109.8386 109.2071 108.5535 108.2740 108.0638 108.0924 108.3611 108.8245 109.4017 110.0691 110.7810 111.4915 112.1970 112.8723 113.2560 113.9207 114.7983 115.3907 116.3208 116.8128 117.8627 118.8189 120.6888 117.7300
103.4900 103.2301 108.2035 105.2167 110.9531 104.4694 109.2985 107.1613 103.6269 108.9138 109.5831 103.8195 123.4958 110.8464 121.7762 115.3298 101.2703 114.8379 115.2201 118.4542 116.4125 99.4560 121.0160 118.4095 121.2266 108.0207 95.2516 103.6175 92.7530 117.6521 116.0544 116.0570 115.4741 114.9676 114.1723 113.6252 111.8824 108.5346 112.3667 111.6905 110.7937 110.2944 110.3066 109.4993 109.4632 109.4376 109.6425 109.9791 110.4600 111.0176 111.5765 112.2168 112.7974 113.4063 113.9209 115.0964 108.9470 116.0649 117.3206 109.7733 108.1697 113.9148 98.9245 96.3300
103.6400 101.9779 113.7773 117.0722 125.6694 112.3371 112.6546 105.1270 102.2300 101.8631 100.9019 106.4066 124.1169 126.2533 121.7088 121.4519 120.5618 120.7983 122.8081 106.4294 122.7634 119.1131 120.6996 107.7784 117.6290 102.1432 102.6488 101.0079 118.5288 117.0406 116.7181 116.3042 115.8256 115.2911 114.6826 115.5872 102.3389 98.1686 104.9872 111.6804 111.6345 111.5210 106.8592 111.0681 110.6685 110.6015 110.7674 111.0403 111.3412 111.6714 113.3447 112.7067 113.4026 113.9242 114.4258 115.2224 115.1525 115.9836 115.5216 111.3704 124.5334 99.1566 100.1204 103.5300
118.1800 119.3370 120.3384 115.3794 119.1661 124.6652 122.7986 104.6184 113.1497 105.0917 106.8630 106.6706 124.4761 120.6424 123.2106 122.1497 121.8191 121.6317 121.5189 120.8543 120.6560 119.6663 101.3546 121.3839 120.6061 103.7458 103.9123 103.5751 117.5424 117.2336 117.0976 116.6269 116.1639 115.6882 115.3579 114.3322 114.7831 107.8721 106.0119 113.1031 112.2031 111.7338 95.4356 113.1368 111.7316 111.6249 111.7626 111.9741 112.2824 114.9622 93.7151 104.7339 113.8321 114.5010 114.9808 115.2155 114.4549 116.6462 116.7230 117.3284 118.0104 115.3120 99.6452 106.2000
125.1000 121.0038 125.7268 126.3776 115.2472 111.4217 108.9219 111.6567 109.8286 102.9138 100.7162 129.1518 104.6160 110.1632 127.5144 122.8873 122.9749 122.5142 121.3970 121.1667 120.8704 119.0816 114.8490 119.5113 100.8630 99.5426 104.5381 99.3229 120.0241 117.1694 117.3368 116.9780 116.5117 116.1359 115.5118 114.5769 95.6512 116.0863 114.3362 113.5937 112.9348 112.4099 104.2352 113.4789 112.6295 112.5550 112.6693 112.8382 113.0879 114.1790 103.5407 101.1425 115.2259 114.8394 116.3376 102.9814 112.5580 116.2089 117.8274 118.0148 117.9936 117.1105 119.9364 113.8200
125.6800 125.4958 125.1410 126.4258 113.5237 114.0118 123.8840 123.8325 117.6715 121.4708 126.0290 106.8520 113.6772 119.1567 117.8175 117.5760 119.6494 119.6751 121.4616 121.3586 122.4277 108.4875 106.5271 105.7717 104.0498 103.6072 119.1468 112.2508 119.3991 111.9887 117.7587 117.2230 116.8973 116.4945 116.1137 115.8647 116.0766 114.0593 114.6323 114.3339 113.7889 114.3658 114.1221 113.4471 113.3891 113.4011 113.4800 113.6297 113.8367 114.2410 114.5768 114.6005 114.8985 115.5007 115.8426 117.3447 119.7591 99.8104 112.9766 114.2837 117.7515 118.2958 120.8504 107.5500
140.8200 125.5418 125.5448 125.7953 126.5037 123.0431 121.1246 124.3169 124.8459 123.7354 123.4643 126.9201 104.1532 99.1927 98.4798 101.5220 108.2310 113.1987 122.4063 121.5995 118.4569 111.5892 103.6000 107.5690 105.0739 99.5640 101.4612 117.8582 113.2861 105.7028 118.1631 117.5293 117.2717 116.8849 116.5788 115.8359 115.7738 115.1586 115.1796 114.9208 114.7345 114.3582 114.1887 114.2024 114.1565 114.1566 114.2325 114.3525 114.5347 114.7638 115.0226 115.3221 115.6452 115.8837 116.4672 115.5649 116.4346 105.4842 112.2190 105.9862 114.9910 110.9877 115.9448 107.9000
140.8200 126.2600 125.4500 125.3100 125.0400 124.8900 124.7500 124.4500 124.3000 123.9800 123.8300 123.6600 123.3200 102.2000 100.8000 100.7900 125.9400 118.7300 121.8500 121.6500 105.1700 104.3100 103.4700 103.1400 108.3000 101.4100 105.5700 105.6700 99.1200 97.2500 118.2800 117.7300 117.4000 117.0900 116.8000 116.4400 116.4400 115.8500 115.8500 115.5100 115.1200 115.1200 114.7100 114.7500 114.7700 114.7600 114.7300 114.6800 115.1500 115.0600 115.4400 115.7700 116.1100 116.4600 96.3500 120.5500 117.3900 117.7000 99.0200 110.4600 108.7400 100.6800 107.8900 107.8900
