119.2800 105.4600 105.4600 127.9800 127.4600 127.4600 127.4500 122.7700 127.5800 127.5800 127.5600 127.5500 127.6600 127.6600 127.6300 129.9200 127.7200 127.8300 127.8300 126.0900 112.0000 122.1000 127.9900 128.0800 128.0600 128.1500 128.2300 128.2300 128.3200 128.4000 128.3800 128.4700 128.5500 116.3800 114.1200 128.8000 128.8000 128.8700 128.9600 129.0300 129.1300 129.1900 129.2800 129.3400 129.4300 129.4900 129.5800 129.6400 129.7300 129.7900 129.8700 129.9500 130.0200 130.1800 130.1800 135.3400 108.5800 115.5600 109.1600 132.1400 119.4700 132.4600 130.8000 130.8700
119.2800 105.2826 127.1813 147.2683 124.7978 128.9922 125.6016 123.1528 122.8599 127.9182 127.4315 127.4702 127.5040 127.5188 127.5208 126.5757 126.0255 127.7389 127.3966 116.0193 114.9436 116.3266 128.0607 127.5905 129.0866 127.8624 128.3867 128.7915 116.1743 107.5560 126.3060 123.6778 112.7206 109.7121 112.6127 113.8096 113.4195 123.9603 129.4216 125.5319 120.0427 128.8921 128.5259 129.3958 129.3914 129.5259 128.8929 123.1862 129.8642 129.6756 129.8395 129.6838 130.0698 130.4867 135.5320 107.2548 110.5843 108.0528 115.0582 117.2365 114.3039 131.6233 130.5374 130.8400
107.3600 116.3093 119.3513 136.9571 113.6494 125.5092 122.7259 122.3054 123.3013 127.6271 127.2781 127.3093 127.3396 127.3641 127.4012 127.5366 127.4835 127.1804 132.4342 125.4687 114.9747 126.4766 127.4396 128.4478 114.0370 122.5085 125.2387 124.0154 116.7689 123.1094 117.7555 119.6861 106.8546 107.8446 117.4948 112.7545 114.1336 126.9165 124.8956 130.3872 125.5470 130.7007 128.6753 129.0125 129.2558 129.0953 129.3347 127.6747 129.9550 129.6518 129.7295 129.8981 130.9201 120.7751 117.9912 115.2233 115.8674 122.4707 126.5492 105.0823 109.3210 132.1001 130.5388 130.8400
119.0300 113.7366 114.4041 122.2910 109.4316 123.6688 122.6297 121.4159 127.6959 126.9586 127.1251 127.1498 127.1800 127.2054 127.1998 127.2433 127.2713 127.1298 129.8655 109.1852 115.1052 124.6527 113.4327 110.9824 128.0563 128.3348 127.4620 131.4054 129.8695 131.2298 122.1380 105.2108 111.1783 112.0750 118.5712 111.6072 119.2222 120.6678 121.2644 128.9234 114.0849 125.8648 129.5726 129.2045 129.1209 129.2179 129.2659 129.6669 129.4705 129.5428 129.5324 129.3110 127.0880 115.1121 106.1067 111.8340 112.7361 110.5911 136.6880 140.8314 127.5151 130.2631 129.2230 130.6500
119.0400 123.4791 113.1815 136.0518 108.9853 126.8775 122.6827 121.5616 126.9325 126.7244 126.9643 126.9835 126.9894 127.0317 127.0906 127.1219 127.1330 127.1615 127.6426 120.8465 118.2940 137.9941 114.4987 123.3750 126.0811 127.5813 127.6901 125.7872 126.6591 123.0086 106.0657 111.1846 108.6543 121.5511 119.6953 117.3584 130.0094 128.6747 128.6239 129.3066 127.2656 125.9074 125.5837 128.9494 129.0888 129.3925 129.5830 129.7266 129.3431 129.4455 129.8123 132.3387 130.7133 108.5169 103.7659 112.6716 106.9445 116.1869 108.8437 110.3120 130.6887 131.3603 132.1032 108.6200
126.3900 121.4864 120.3398 121.8337 110.9431 128.5745 123.2624 123.0434 128.2218 127.2356 126.7685 126.8294 126.9604 126.9229 126.8976 126.9450 126.9800 126.9996 127.1606 127.4545 126.3300 126.5209 119.4398 128.1453 127.7635 127.4363 127.5964 127.6262 127.9456 122.0674 122.8570 126.9661 109.1530 117.6417 120.1493 130.4909 127.7717 128.8182 125.2707 122.4854 129.5357 128.9308 128.6739 128.8857 128.8962 128.8108 129.2313 129.1542 129.5779 128.2605 130.1549 111.2945 109.8431 111.8035 128.9089 128.0430 112.3514 108.2394 104.0025 129.1558 132.4682 122.0911 113.2443 113.3800
120.3500 132.5120 113.3606 132.4061 121.9344 120.7234 121.5210 124.5053 116.6602 127.4321 126.8260 126.6883 125.9284 126.4583 126.7736 126.7825 126.8162 126.8709 126.9330 126.7907 127.7693 119.8321 118.1158 127.3179 126.5772 127.4517 127.3786 127.2783 128.0046 128.4119 104.1722 108.2843 118.6151 107.4279 104.5179 126.4502 128.2219 128.6304 119.4027 123.0049 129.4193 126.0850 129.8931 129.6757 126.7681 129.3975 129.2120 128.3899 127.9454 127.6259 127.6943 106.2936 105.0144 120.4632 114.4141 116.0018 108.2533 115.1626 117.3290 132.2060 128.5526 130.1293 124.6655 130.4900
116.4000 118.5029 111.4913 124.1029 110.8382 131.4701 123.0537 126.9562 121.1360 124.1078 125.7500 134.1474 129.4691 127.5196 126.5116 126.6262 126.6569 126.6929 126.7482 126.8059 127.3851 116.1431 120.4224 128.8109 126.6634 127.1490 127.2434 127.2950 124.8286 117.6970 121.1205 129.0013 119.0317 109.6168 126.8193 128.4805 127.9048 128.0448 128.1874 128.4889 129.9222 113.1893 125.5341 129.4976 127.6944 128.7779 128.6616 127.2884 127.7578 120.8582 106.0551 119.1657 132.1633 129.1159 128.0496 106.4772 111.2251 106.3087 127.6709 130.1553 129.9956 131.3076 125.6455 130.3900
116.1700 117.7611 109.8251 121.5051 108.2870 121.9246 123.2369 131.8726 110.2924 124.1670 126.9760 126.1836 116.3305 123.9655 126.4846 126.4441 126.4797 126.5342 126.5739 126.6223 126.9123 123.4339 123.1300 123.2488 127.1529 127.0233 127.0704 127.8187 123.6478 112.4120 107.0935 111.7285 117.5277 125.0126 113.3893 128.3281 127.9038 128.3477 127.5510 126.0448 128.4536 128.9774 129.0922 128.0341 124.5450 128.3743 126.6476 126.9907 128.2486 122.3053 120.9472 130.5181 128.3916 130.8926 121.2544 109.1413 125.1767 133.9342 129.3091 129.7710 130.2916 130.2092 172.3178 130.3600
115.1300 117.1775 109.4702 121.4391 111.2742 134.6433 125.3853 137.3759 121.6796 127.2399 126.4535 122.8399 112.5848 119.8561 126.2157 126.2819 126.3079 126.3640 126.4055 126.5396 126.6550 126.6373 127.4481 126.8846 126.4112 126.9001 126.9471 126.7299 118.0475 120.5707 129.0353 126.5746 128.2942 127.7453 128.0240 127.7189 127.7617 128.3522 125.8251 110.9418 128.2193 126.8002 126.1155 126.6662 124.1581 125.7019 126.2199 126.5594 128.1587 118.1302 113.8448 119.0972 125.8162 123.0722 108.0721 106.6926 109.5491 134.9108 129.9855 130.0737 130.0634 128.2202 131.8905 130.2600
117.2100 117.6949 108.0952 121.7069 105.5246 118.6120 111.7563 111.0426 135.6814 118.9902 119.5325 115.3465 119.7430 122.7463 126.4665 126.0799 126.1208 126.1950 126.1269 126.0838 126.2514 126.4548 126.4718 126.6579 126.6780 126.7155 126.7189 127.5991 126.4748 119.4604 126.8702 125.7785 125.0589 127.0968 127.3993 127.5397 127.9165 122.1235 114.8951 116.7646 126.9215 126.4932 122.7758 122.6871 123.8312 125.6189 126.3520 126.6610 127.1803 130.8117 130.4488 116.9391 130.1083 114.9072 123.0756 105.8019 103.6739 130.9801 129.3781 129.9373 129.9937 131.3813 136.3013 130.2300
125.6800 116.6234 110.8433 115.1326 101.8082 115.7589 113.2880 112.4003 125.9264 120.2417 109.6260 120.4874 122.1720 127.6842 125.7842 125.8984 126.0304 125.9295 126.4251 127.1304 126.0110 126.2863 125.5093 124.3017 126.4945 126.5441 126.7107 126.3783 127.0893 127.9565 114.6848 127.0505 128.5502 127.4211 127.3820 127.4855 127.1415 127.5819 113.6226 128.7859 125.7014 121.6982 122.2059 121.9907 125.6018 125.6754 126.0678 126.2995 125.8295 126.7445 127.1582 115.7556 119.4922 119.9843 121.9947 107.5071 119.3814 131.4556 130.2061 129.7905 129.6912 130.0070 116.4387 108.1000
125.4900 112.6021 114.7880 113.0009 102.5561 111.4882 115.5563 110.4573 117.9640 121.7402 113.0386 111.0555 123.1357 126.0958 125.5923 125.8042 123.4788 126.9197 114.8634 125.6577 125.8771 126.0428 126.2386 126.5108 126.1791 126.4526 126.3138 126.6557 126.4699 126.9244 126.4199 128.5547 126.9876 126.6316 127.1162 127.2038 127.3511 125.5920 127.6176 118.7499 122.5970 121.6210 124.6671 123.9902 125.6632 125.8364 125.8229 126.1347 128.5676 129.6961 127.9530 122.3041 119.8311 105.6993 109.7879 106.3405 113.8490 128.3355 128.6674 129.6808 129.6211 131.6336 115.3491 108.1000
110.5000 111.0407 122.0946 112.7304 118.8635 119.6967 120.1311 114.4440 125.6275 125.6696 113.3768 113.4802 123.9385 125.0105 125.5180 125.5652 126.4656 118.2011 125.4663 125.3820 125.8857 125.9144 125.9581 125.7806 125.9234 126.1261 127.3815 126.1759 126.5523 126.5426 126.1645 126.8808 126.7765 126.3493 126.9764 127.4048 125.6339 113.3881 120.7344 120.1045 121.0998 122.0876 120.6047 124.8224 125.2825 125.2645 125.5856 124.2347 124.7416 109.6440 128.5443 127.7190 119.0158 121.6843 120.3339 115.8737 119.0213 125.7428 130.5155 129.2823 128.8941 133.3713 104.7467 107.9700
127.9600 105.9543 126.9137 127.6468 115.1213 120.0103 117.0411 110.2466 109.6580 132.7564 111.0542 120.3243 124.2219 125.0139 125.2941 125.3340 124.9621 122.6145 126.7185 125.1701 125.7185 125.7263 125.0493 125.8537 126.4173 111.9765 126.0536 125.7102 126.0658 126.7999 131.3761 126.0043 126.1672 126.1150 124.3248 126.7977 124.2092 125.5588 118.0586 118.2648 120.6549 122.8389 123.1844 124.4679 124.7839 124.7979 125.1927 126.1305 127.6218 123.5493 127.2907 129.8853 128.6765 132.9917 116.8235 108.4001 124.7730 124.4763 130.0533 129.5772 130.8549 126.0137 123.5035 107.9700
124.7300 123.5899 124.9081 124.9498 125.0707 118.9382 117.6518 116.9117 110.8199 126.5444 123.7057 119.7068 124.2320 125.0332 125.0713 125.1190 125.3362 121.1643 127.4574 128.1220 124.8617 125.3737 127.3328 114.5307 116.6699 104.1376 127.2725 124.5391 126.1784 125.6888 127.1975 126.0029 123.6190 119.5468 126.7041 123.5605 124.3860 122.8411 118.3647 118.0923 121.3912 123.3337 123.9356 123.9512 124.2261 124.6373 125.4004 127.7767 115.4248 127.0004 124.7809 128.0514 120.3454 123.4298 126.4160 120.1055 124.3813 124.0237 124.8499 128.0179 130.0714 131.1040 128.3466 107.8300
124.5300 124.5894 124.5008 124.4153 123.3012 115.7679 114.9615 118.7038 107.5659 126.3583 124.8678 125.1304 124.7568 124.8377 124.8614 124.8688 124.8441 125.5932 125.0108 129.9934 124.4074 125.3616 116.5489 126.3058 123.6114 118.3390 106.9645 120.1692 127.2753 125.6903 125.9658 126.0153 125.1676 123.4481 123.4088 124.3722 120.3094 118.4185 119.5032 115.2543 122.8366 123.7640 123.8991 124.2939 123.8247 123.9961 127.7667 125.7778 125.7676 128.1907 116.9128 120.4656 121.9663 119.5105 104.2472 118.4892 122.3084 123.7436 123.3047 130.7367 131.7867 131.8900 130.7315 122.6000
124.3200 124.3661 124.4345 125.3671 115.1272 119.0855 111.6579 110.8295 105.3295 125.9629 124.4001 124.4166 124.5694 124.5757 124.6849 125.0275 125.2802 124.6780 124.9150 124.5886 125.0896 126.6839 127.5343 112.1009 107.4745 103.5084 103.8342 108.9966 124.3375 124.6726 125.7586 126.5524 114.2173 122.7095 123.5402 123.1522 118.2169 117.3666 116.7109 115.1959 124.8884 123.7795 124.2292 123.9105 123.5422 127.7340 125.1230 127.0573 129.9154 128.2720 119.6825 123.1423 109.4915 119.9380 121.7245 121.9403 122.1547 123.2925 130.5568 131.8858 124.1014 122.1515 124.2532 130.7700
124.1100 123.9770 121.6781 123.0069 110.0596 112.0287 109.2778 115.7958 109.9107 125.1893 124.2139 124.1025 124.2971 124.3207 124.7710 117.8467 123.9983 125.7406 124.6340 124.8722 124.7947 124.5809 116.6958 112.6535 110.9675 109.5478 107.2992 102.9022 103.7263 113.4463 124.2913 124.1094 124.7096 123.0755 120.7606 117.4373 118.6185 112.8960 112.4162 125.2190 124.1999 123.9287 124.3666 124.4284 127.0745 126.2618 128.1874 127.7454 126.6673 119.0020 121.2411 120.5732 121.4912 119.9159 120.7149 107.8799 124.8122 122.4844 119.5847 127.7522 118.6162 121.8702 122.2085 122.8600
123.9000 124.0567 111.7214 111.6319 119.2880 130.2530 116.2883 125.2503 121.2058 124.3154 123.5941 124.8514 124.0612 124.3660 123.6781 115.9494 119.6843 123.3001 124.4929 124.5319 124.7606 124.9320 124.4711 141.2165 109.7023 112.1969 104.1304 103.7267 102.1241 111.3999 113.7737 118.9689 121.0620 117.9294 116.4683 116.6163 113.1950 107.2326 103.2570 121.5483 124.2491 123.2314 125.8915 123.3914 123.1222 123.4330 126.4348 122.1662 119.2128 121.0660 122.5908 116.9245 120.8432 106.1066 106.3389 119.5683 120.9097 112.3767 129.2117 119.7119 121.4167 122.0909 122.6037 122.1500
109.3400 110.5154 116.3762 114.9871 112.1549 125.6553 107.1400 125.3291 123.9597 124.3947 113.3310 124.5610 123.8606 123.7372 118.1377 115.0575 123.6523 125.5714 123.8053 124.3549 125.5000 124.4878 124.2068 122.9368 123.6122 106.4769 102.8211 103.8808 113.1552 117.4463 121.5371 120.5889 110.0576 116.8879 116.3764 113.4599 104.0214 104.1255 104.4625 107.4708 125.7887 115.8699 126.8126 110.5640 109.0033 118.4854 117.8159 115.7718 118.6316 115.1077 122.3084 104.2046 105.1471 106.2163 105.5455 114.9056 120.3898 122.8482 119.2576 120.9543 121.0855 121.9007 119.8215 121.8700
123.4500 112.4559 111.1300 110.0816 127.0763 123.7632 116.7256 124.3723 123.3941 124.2040 124.3020 123.3079 123.1868 109.6087 120.3524 114.3048 118.6250 123.3111 124.7633 114.1270 124.3845 124.1373 125.3758 105.0257 115.6200 106.0538 102.7178 110.9088 119.2254 116.0228 116.1074 113.8753 107.6802 113.2894 107.6563 102.2425 101.9475 104.4499 104.9503 102.1734 117.6386 106.8224 120.7079 110.7746 113.1054 124.7801 115.2749 117.7479 109.2707 104.9805 113.4679 104.8427 106.4198 106.3825 106.3654 106.2294 112.0422 117.3373 119.2815 120.0494 120.3499 120.7402 123.7386 130.2100
111.4200 119.6044 111.4415 104.6628 126.7656 123.1730 127.8971 122.6869 123.1764 123.0590 123.1174 123.1433 124.6823 119.8126 115.4680 118.0248 121.2672 121.5864 120.2861 124.0967 124.6326 122.9450 124.7803 109.5796 101.6224 101.6706 102.6125 101.6645 99.3001 115.6221 121.8207 115.0382 118.4765 107.6664 102.7287 104.0579 104.9801 115.6863 106.0813 108.1945 110.8106 110.7592 109.5509 113.0549 110.1505 106.2225 116.7332 119.7970 107.3379 105.1160 105.5340 106.0546 106.0506 105.6854 106.6945 112.0219 113.5520 118.4350 119.0768 119.2937 124.9161 125.5962 130.5828 123.2900
107.7200 110.9054 109.1749 101.1128 126.0348 122.3024 121.1223 123.0366 122.9213 123.1949 122.9356 123.1524 123.5868 107.0949 108.8450 109.9969 108.8545 110.2026 116.1690 123.7998 131.4623 126.1793 101.6010 101.0763 107.8099 107.3374 102.4340 109.5880 114.9626 113.1343 116.7864 107.7838 113.3554 103.6924 104.1313 104.3835 102.7965 124.0360 121.4172 113.6117 110.8811 108.6124 114.4268 109.4194 116.0494 114.1403 111.6584 108.9804 114.2826 105.3122 105.9506 106.1821 106.0257 109.8401 113.6220 118.6638 117.3030 117.5455 117.9588 117.9522 131.0241 130.2328 116.1104 123.2900
100.4700 107.7720 106.5943 103.7759 109.7631 123.7576 122.8253 122.3105 122.9240 119.8523 126.4426 107.4323 122.0734 104.8705 118.1889 109.9692 115.9408 115.7369 124.5011 123.5978 123.7481 118.9155 118.8468 114.8752 103.7227 107.9580 106.3190 115.0810 108.5894 119.1838 112.8507 114.0257 109.8868 111.6857 106.8185 103.4989 102.6603 115.2064 109.0765 106.1488 106.4961 114.0331 112.0025 106.0545 120.0335 107.8073 117.9411 114.6474 107.3601 105.4572 105.6451 105.3864 104.4659 116.7856 115.3520 115.9535 115.7081 118.8212 122.2805 126.9929 121.4185 120.3184 117.0414 110.8400
114.0400 103.1353 102.7643 100.6093 123.4225 122.0035 122.3513 125.2068 120.5154 120.9068 131.2024 111.0913 123.0840 113.3368 125.2294 116.3249 114.7930 114.4766 120.7639 123.1124 123.4213 124.6956 122.1664 127.0387 116.7391 113.7463 105.8601 107.1805 117.1193 116.3173 112.4380 117.2641 118.3914 107.9890 103.2899 103.7713 105.0206 110.7659 107.9019 106.1707 112.6044 110.7162 104.8761 115.0629 118.4547 110.8066 113.2738 116.3124 104.6414 105.5116 105.2684 113.7432 113.7937 115.4069 116.5581 115.8765 119.9969 115.1944 129.4060 123.8545 118.5999 116.3474 110.7482 118.8500
101.5100 105.5058 111.5013 122.1948 121.9441 122.0386 122.8819 123.1192 109.6802 126.4541 123.2591 123.9566 123.1505 128.2351 124.5034 122.0922 128.4299 124.8576 120.4742 124.8575 123.0582 123.1410 126.1229 109.8690 113.2289 112.9316 112.4051 111.8363 111.5526 113.0200 112.1229 117.0359 118.0914 118.2566 110.0455 101.4511 107.5051 108.6248 106.2390 113.6767 114.5614 114.6598 117.1142 117.6299 117.2213 124.9713 103.7305 105.3534 104.9558 105.0154 114.4223 113.8240 115.9990 117.0161 115.0083 126.6567 112.5904 113.9415 117.8178 118.5310 118.6159 109.5704 118.4712 120.6000
101.0500 120.2638 121.5231 121.7272 121.7538 121.6762 121.5264 122.7867 122.7742 121.6979 121.6426 121.9302 121.1221 121.8976 122.0665 119.5654 123.4126 122.3020 112.0495 122.7769 120.0739 123.9766 118.3603 116.1728 115.0110 112.8395 102.3888 111.5428 111.3538 112.0903 113.8679 117.9040 115.9622 120.6405 114.1689 103.6097 107.5754 110.8104 114.7425 115.9956 116.1607 116.0007 116.3614 117.6345 112.5991 114.5366 107.1033 105.1496 108.0713 114.7147 114.4748 116.1315 109.3881 113.2383 113.7332 114.1510 114.6019 115.3885 118.6582 109.5114 119.8536 120.7278 122.5776 121.8300
121.3800 121.5029 121.3506 121.3413 121.3445 121.3631 121.3959 121.2808 121.3660 121.5793 121.7515 121.6015 122.9977 122.1395 121.8488 122.1652 122.5081 122.8563 124.0386 117.4042 107.9587 106.9771 109.9383 112.1775 105.6803 112.3072 113.0822 111.3460 110.9346 115.1163 117.1533 116.8320 119.0720 116.3129 105.0193 104.7812 109.1829 112.3719 112.7114 115.4790 115.6124 116.2449 117.2810 120.7269 112.3047 103.9425 112.1490 110.7283 113.6450 114.5721 116.2848 105.8853 107.1675 111.3893 112.9022 114.6103 110.0916 106.1203 117.3257 117.9326 119.5066 121.3322 121.7242 120.5200
121.0800 121.0021 121.0912 121.0365 121.0346 121.0516 121.0782 121.1457 121.2053 121.2465 121.1516 123.4486 111.6639 119.2474 119.2608 121.7140 122.1870 122.8354 113.4595 106.4262 125.5624 110.9686 112.9017 112.1216 111.6340 110.3148 109.3252 111.0272 109.7629 114.0232 115.3142 112.1733 111.3774 106.8266 102.2016 104.6703 112.4339 114.4480 114.3264 114.3047 113.8504 116.4428 114.2247 113.7419 104.3347 111.0502 113.7939 113.2644 110.3535 114.1821 110.1589 107.3640 113.9674 122.7137 104.1911 106.9439 108.6498 117.3493 117.9781 118.3576 119.4328 118.5177 115.1829 120.9600
120.7700 120.7369 120.7005 120.6728 120.6883 120.7109 120.7501 120.7955 120.7699 120.7533 122.0526 119.5025 114.2607 119.8978 121.9952 121.6660 120.9250 121.3409 108.2638 111.6617 120.5219 109.7660 107.5262 112.0348 111.3216 105.9889 110.1375 111.2231 111.4543 111.5736 112.6159 107.2499 101.1182 103.1089 106.0111 110.9425 113.0366 114.0265 112.7929 117.9905 115.5652 110.1336 112.7250 105.1711 112.6586 112.7173 113.1038 110.7435 115.3804 103.6638 105.3226 105.5234 108.1150 104.2290 105.8719 117.7512 116.6091 118.6631 120.1437 119.6487 119.2752 115.6370 110.5706 127.7500
120.4500 120.3512 120.3334 120.3369 120.3367 120.3626 120.4189 120.2014 120.9378 118.6611 120.1819 108.3269 119.6773 121.0682 121.1116 121.2114 123.5238 120.6378 101.7135 118.1180 112.0754 108.2888 105.4943 107.0251 108.3588 108.1880 111.1618 110.2483 112.0551 110.8049 109.1083 99.9283 100.4966 107.6490 110.4372 107.6988 113.2751 105.4484 108.0447 118.3874 117.3291 111.1481 111.6506 112.3366 105.5313 108.2431 112.9845 106.5247 104.1153 105.2449 105.1118 104.8881 105.2084 105.7216 104.8457 117.6660 118.7099 117.9223 116.6821 123.4738 120.0716 127.1512 125.9820 124.8900
120.1200 120.0264 119.9700 119.9669 119.9688 119.9937 120.0544 119.8995 119.8113 117.7765 115.0059 120.4568 120.4178 120.8586 121.2467 121.6932 112.1603 105.6746 110.5791 119.6602 106.5734 115.0820 104.6738 105.1625 106.1090 108.1845 107.3180 107.7374 106.3517 106.8298 114.0173 105.0929 109.9148 108.6284 109.9606 109.0455 112.2773 110.0726 108.1061 108.9757 109.2489 110.8606 107.8677 108.9789 111.4393 108.7993 107.8811 108.4817 104.6405 104.9036 105.1202 104.5420 104.1570 108.3647 114.3163 109.2384 118.4285 121.1053 117.5389 124.4043 121.9218 123.3564 117.7795 113.9800
119.7800 119.4334 119.6112 119.5794 119.5930 119.6147 119.5798 120.8275 111.8952 121.1095 116.7112 121.0119 120.5756 117.3364 118.6917 122.7206 108.0274 107.5138 110.5718 123.6250 112.0099 110.9010 101.7616 102.1146 106.7197 107.6376 109.6514 108.0710 123.3802 119.8513 101.6285 109.3063 108.7596 108.9176 104.5884 107.1755 103.3889 107.6333 109.2930 109.5648 109.9792 111.0749 101.4744 105.7001 122.1031 106.8986 103.7472 104.1025 104.6269 104.8361 104.4808 108.6096 111.1566 112.7102 108.4802 104.5159 122.3617 122.0945 119.9580 117.0248 118.7218 121.8557 115.5124 117.8700
119.4200 119.6599 118.9408 119.1884 119.1947 119.2132 119.2451 119.8195 116.6569 120.0189 120.0555 119.6338 120.1960 113.5732 117.8339 116.4041 106.1998 112.8890 109.8501 121.6614 100.1758 107.5655 102.3366 105.3914 107.7473 107.1122 109.4122 105.1110 114.8948 108.7134 101.9669 109.1803 110.7321 110.4444 100.9390 107.7028 105.4890 109.7294 109.0314 108.6728 109.6586 116.0190 104.7025 113.6740 107.5396 104.6976 104.3993 104.5173 104.6182 104.2081 110.4935 106.9498 104.4312 119.3380 109.2839 116.7770 114.6937 115.7328 114.0368 117.8585 116.0548 122.9974 123.8860 117.8700
99.4100 113.4466 118.9055 118.7639 118.7707 118.8028 118.8320 118.8412 119.3657 119.1036 119.2094 119.4407 119.2665 119.6788 122.6187 105.8849 118.9444 117.2552 95.1744 107.2075 102.8084 104.7097 102.3406 109.8293 110.3442 107.2770 106.4368 101.7102 102.3127 101.1539 106.9788 109.8320 102.1617 102.7181 104.7806 106.4931 107.0137 107.7585 107.8279 118.4326 106.1654 113.7254 111.8979 116.6501 110.0456 103.5441 104.0711 104.3089 104.4956 104.5211 106.2014 104.1506 111.2429 117.1149 111.2509 112.8583 116.3679 118.3910 115.5003 123.1951 122.4788 124.3099 125.1865 124.4600
118.2500 116.7947 118.2656 118.3196 118.3345 118.3526 118.4009 118.5135 118.5853 118.7297 118.8533 119.0293 119.0172 119.1576 119.7379 121.7729 122.2409 121.3665 118.7967 107.3961 103.1230 119.5802 103.1572 104.9414 101.0251 103.1774 103.9983 102.7123 103.9710 105.6250 105.4544 110.4690 101.2313 101.5401 102.7859 104.3464 105.8103 111.3147 112.8963 109.5036 115.8137 120.1204 117.5302 117.8607 102.5298 103.9862 104.0638 104.2757 104.3653 103.9872 112.1660 110.9720 111.3534 112.7934 116.4612 116.3666 121.6564 122.9179 123.7780 124.2248 124.3265 124.8000 124.9202 119.0500
117.8200 118.1690 117.8245 117.8552 117.8641 117.9545 118.1151 118.1110 118.1685 118.3009 118.4455 118.6148 118.8108 118.9950 119.2231 118.8149 100.5005 97.2308 101.3319 120.2674 119.2641 111.0188 96.5814 113.8887 105.7145 108.8271 112.2356 100.4346 101.1199 104.2855 111.3506 115.3008 101.1972 101.4630 102.2009 109.3591 102.0029 106.8946 117.7279 104.7222 112.4623 116.7873 115.2907 115.7436 116.8347 103.0401 104.0099 104.0936 106.3486 111.9890 111.9909 116.0552 116.6324 116.1533 121.4495 123.4112 123.3814 123.8050 123.6804 124.4212 119.3204 119.9663 121.3452 122.1200
117.3700 117.4125 117.4024 117.3654 117.3886 117.1756 116.7864 117.4914 117.7129 117.8560 118.0174 118.2045 118.4002 118.6116 118.9187 118.9750 122.7896 112.7860 109.6082 121.1812 107.2106 96.3642 118.5248 120.5515 121.6769 120.0203 105.4186 100.5717 105.9824 126.9233 117.2778 115.3852 104.1102 102.2308 101.9721 101.8984 101.8704 102.3081 102.8684 111.6650 113.8947 111.1448 107.8668 102.6240 102.8762 113.8625 102.7939 111.0308 114.3615 116.8451 116.3868 117.7635 124.3114 124.4333 123.7010 123.3703 123.4916 120.2307 118.7214 119.9513 120.3096 120.0049 120.3723 120.9400
116.8900 116.8945 116.8498 116.8366 116.9132 121.4101 119.4736 117.0371 117.2341 117.3900 117.5772 117.7831 117.9974 118.2224 118.4380 118.9591 111.6090 119.2859 120.7444 101.8163 97.6836 123.2136 121.4132 120.8326 120.7721 121.1730 103.1073 105.8623 118.4542 121.3416 120.8698 122.6523 107.8195 115.5212 107.4470 101.7680 102.7100 110.2840 113.9503 113.1208 111.3563 110.4842 106.9283 102.8594 115.3300 107.3901 114.3656 115.5155 113.9690 124.1485 123.8808 124.5174 123.5919 123.5231 122.4817 117.6484 118.9509 118.9714 120.1431 120.0123 116.8186 118.6395 111.3062 106.4400
116.3900 116.3548 116.3063 116.2817 116.1602 116.1640 116.6149 116.5580 116.7281 116.9096 117.1120 117.3380 117.5777 117.8384 117.9997 119.6537 101.0756 119.6236 117.6205 98.8296 109.7290 117.8137 117.2764 120.7978 121.0138 116.2148 105.6847 106.3194 104.5706 114.4372 108.1915 111.4456 119.3884 110.5150 112.4062 107.9892 111.3390 109.3095 110.9971 116.8891 111.6409 113.4539 110.9718 111.4363 113.6782 111.3030 115.1748 117.2664 117.5251 117.1904 118.9643 123.9109 112.7354 113.5844 118.3873 119.7322 116.1143 115.5270 115.3115 120.6775 102.8699 118.2483 104.0517 106.4300
115.8500 115.7714 115.7120 115.6939 115.7719 115.8467 115.8660 116.0206 116.1947 116.3986 116.6266 116.8718 117.1409 117.4217 117.7341 118.0413 118.6789 118.7588 116.4101 117.0556 119.6717 97.5743 111.1639 121.6621 121.9488 121.4611 106.9470 113.4292 108.9796 106.0623 108.4443 106.8712 117.1143 108.7482 112.0462 106.0066 106.6278 103.8938 108.9488 110.9740 113.6899 115.1224 100.6202 114.7257 117.1797 106.4973 117.7742 116.1634 111.8169 110.1640 110.7541 112.1286 106.4853 107.8109 114.5982 111.5581 102.1496 106.4674 113.7791 121.8210 111.8019 122.2867 110.2304 106.4100
115.2800 115.1502 115.0753 115.0530 115.0621 115.1369 115.2813 115.4371 115.6381 115.8616 116.1252 116.3931 116.6904 116.9884 117.3388 117.5762 117.8864 118.2021 119.0653 119.1242 118.8911 104.6924 119.2352 117.5888 110.4512 124.5689 123.4883 117.8111 111.8046 107.6814 108.0658 106.1665 106.0682 108.3305 111.3795 105.1978 102.8155 112.7160 111.1532 111.6661 116.2177 115.6670 107.5092 117.2940 115.1596 116.6430 114.9496 114.8198 106.9854 108.8221 103.2106 103.4155 112.5673 103.3644 103.1235 110.6549 112.0343 121.7989 121.7053 120.4683 115.1718 110.1520 117.9257 120.8200
114.6600 114.4811 114.3982 114.3737 114.4068 114.4905 114.6282 114.8094 115.0384 115.2982 115.5947 115.8978 116.2273 116.5660 116.9021 117.2978 117.6337 117.9767 118.2811 118.5079 119.6907 122.9818 107.1071 103.2218 95.1477 107.6741 104.6576 101.2110 102.3057 101.0790 101.1374 102.1511 104.3634 108.8316 101.3672 112.4376 105.2792 113.2168 110.3680 111.6407 114.2747 114.8881 115.5004 115.4656 112.3462 113.5514 114.0795 120.7445 115.7349 115.7908 112.7415 104.5526 103.7170 109.6458 115.9098 118.3852 114.9282 114.2025 112.4860 110.7977 110.6578 110.6669 110.7848 113.0400
114.0000 113.7564 113.6518 113.6319 113.6636 113.7611 113.9255 114.1435 114.4117 114.7064 115.0336 115.3875 115.7520 116.1274 116.5096 116.8798 117.2671 117.6441 118.0203 118.4346 118.6050 119.5655 112.0753 102.7733 99.3727 111.6962 111.3971 115.8289 111.2520 114.5826 116.2560 100.3411 104.5304 107.6146 106.7590 109.3703 117.3394 113.5566 112.1371 111.2025 112.9335 111.6147 109.7788 111.8267 114.1180 115.3755 114.3740 119.0224 116.2899 116.6886 116.9294 103.6599 106.1860 116.1990 111.8277 112.1329 108.5658 109.4676 119.3486 109.2422 113.9031 110.9281 111.5869 112.6600
113.2900 112.9721 112.8469 112.8158 112.8581 112.9812 113.1735 113.4279 113.7331 114.0840 114.4571 114.8549 115.2668 115.6778 116.0993 116.5171 116.9291 117.3275 117.7306 118.1096 118.5597 118.6236 120.3129 97.7460 110.3295 124.4123 105.8983 124.2835 115.6947 113.5522 123.5538 104.7115 104.5267 117.5803 102.7165 106.5842 111.9411 109.8312 111.1875 108.9393 110.4255 111.2299 110.9781 113.1695 110.2064 105.1507 114.2948 105.0909 106.3760 107.5625 106.9653 104.9889 107.5782 110.8982 111.1429 114.6750 108.5893 110.3506 119.9032 120.1589 118.8714 115.6923 115.4349 114.5200
112.5000 112.1063 111.9629 111.9153 111.9728 112.1229 112.3521 112.6558 113.0246 113.4277 113.8591 114.3093 114.7708 115.2269 115.6887 116.1443 116.5915 117.0229 117.4502 117.8786 118.2065 118.3884 121.3948 99.0890 123.3133 103.5173 117.4110 119.6876 121.8651 99.8180 116.8247 98.7213 111.6928 108.8402 108.3221 104.1777 106.0689 109.1253 108.1926 110.0304 110.2339 111.3742 107.5365 102.8053 112.1260 102.5415 103.3590 110.0910 116.0535 104.1788 104.0642 107.2189 107.8808 108.2935 107.7823 119.1166 115.0753 111.6737 113.0155 114.5673 114.5315 108.5401 106.4770 115.6300
111.6400 111.1480 110.9733 110.9212 110.9840 111.1633 111.4531 111.8215 112.2585 112.7353 113.2342 113.7472 114.2693 114.7809 115.2878 115.7806 116.2617 116.7266 117.1734 117.6021 118.2205 118.1969 115.2160 93.4992 119.2783 118.0406 120.8516 120.6287 121.7703 115.4215 121.3184 117.3092 102.7903 100.7914 101.0000 104.8501 109.2354 109.0016 111.0666 110.8600 111.2518 113.4829 119.3882 119.4179 101.8407 101.3786 122.2687 114.9711 105.0103 115.2408 103.4667 105.2844 105.9774 110.5281 110.3007 111.7292 114.7638 120.7574 117.3462 108.2387 122.6125 114.3547 129.0655 106.2200
110.6800 110.0882 109.8612 109.7830 109.8732 110.1040 110.4690 110.9269 111.4413 112.0109 112.5874 113.1785 113.7645 114.3298 114.8902 115.4252 115.9466 116.4389 116.9371 117.3411 117.4240 116.4783 118.8782 119.1672 119.5202 119.8152 120.0347 120.5166 120.8688 122.3421 106.5457 116.8874 114.6819 103.3207 106.7450 108.5694 110.6658 111.7380 109.7748 111.3561 105.7363 104.2897 117.2055 109.2946 103.0050 108.4931 115.9126 105.8590 106.4274 112.0981 106.3900 109.4865 110.0593 110.5290 120.1796 125.3561 125.0766 126.9749 114.7717 109.6550 105.3549 105.1205 106.3327 106.2100
109.6000 108.8816 108.5858 108.4838 108.5998 108.9148 109.3667 109.9335 110.5842 111.2555 111.9364 112.6130 113.2644 113.8987 114.5033 115.0882 115.6423 116.1771 116.6896 117.1577 118.0738 118.0247 118.4976 117.0378 119.3847 119.6499 120.2732 120.2526 119.3157 117.0442 106.0997 110.6703 105.8258 106.3553 110.0115 109.7315 110.7677 111.7434 109.7450 112.4367 111.1700 111.3392 115.5676 112.4965 102.7973 104.1925 115.2019 114.8140 114.9532 113.8174 118.5058 124.4477 125.5653 124.7075 124.6553 124.6907 124.6664 124.9113 126.9147 130.0982 107.9480 114.5160 108.2411 106.2000
108.2500 107.4994 107.0912 106.9548 107.1173 107.5403 108.2585 108.9630 109.6896 110.5052 111.2831 112.0452 112.7830 113.4885 114.1438 114.7754 115.3681 115.9302 116.4576 116.6097 112.9086 118.9084 106.4452 97.9824 119.7242 119.2925 118.9322 111.4785 106.3163 99.1331 114.8967 98.2879 106.7711 108.0330 109.0406 108.4762 108.4600 122.4562 110.2549 116.1753 100.9499 100.7351 111.7833 108.6987 102.4854 109.1821 106.3010 121.0410 122.7547 123.0807 123.3177 122.8317 123.1363 120.1587 124.4789 124.6900 110.7082 107.4659 127.9299 126.8752 129.3193 117.5407 120.3029 106.2000
106.8400 105.9009 105.3067 105.0977 105.3336 105.9481 106.8366 107.9895 108.7525 109.4286 110.5368 111.5298 112.3341 113.1038 113.8160 114.4888 115.1194 115.7192 116.0351 115.4424 103.8448 113.2255 94.0640 100.4677 121.0258 102.9713 120.7807 107.1922 119.6692 101.1390 100.5085 100.7236 101.5887 105.0098 107.8217 108.7432 109.2594 116.0162 116.8015 117.8729 102.0463 102.7845 103.5653 106.5821 103.5685 106.0324 114.2221 106.2067 111.8421 123.2547 122.6534 123.2553 121.0930 106.7189 126.2144 113.0328 110.7883 121.9963 120.1501 125.5425 123.8923 123.9600 108.8020 106.1900
105.0800 103.9982 103.0704 102.7218 103.1174 104.0871 105.2730 106.5348 108.1320 109.8044 109.9340 110.8337 111.9507 112.7595 113.5223 114.2361 114.9011 115.5104 116.0411 119.5347 117.2923 115.9971 97.8111 106.6549 113.0676 104.5414 113.3247 122.8755 115.3304 112.7447 101.6236 105.1638 102.2410 111.0858 110.7065 112.6813 105.2653 100.6392 109.5021 103.3502 102.1920 111.3255 118.2049 115.2146 111.7376 113.9647 113.3056 114.1560 118.4840 121.3948 119.5066 119.8617 121.4112 122.8925 121.5195 116.7494 123.8241 109.2685 103.6230 123.9725 123.0117 125.1011 112.7139 118.8700
102.7600 101.7048 100.1755 99.5071 100.2798 101.8187 103.6674 105.6170 104.4237 106.4289 103.0658 110.7039 111.6421 112.4635 113.2865 114.0325 114.7280 115.3686 115.8226 115.7417 115.0940 119.9376 108.7313 92.2605 97.9462 98.9752 95.3732 109.4738 106.3795 114.9099 107.3534 110.8191 109.2301 116.5889 108.1556 115.8715 102.1460 104.4613 99.1862 107.8051 106.1271 110.4099 112.2009 104.4461 103.7066 121.8058 119.9477 119.8121 117.7682 118.0621 118.3854 118.5953 119.1103 119.3304 119.4427 118.3188 121.0629 123.5671 113.6315 123.4050 123.1624 123.6238 122.0635 118.5600
102.4600 99.1506 95.7303 93.8965 95.9417 99.2965 102.0402 104.7180 100.7902 104.5324 106.9549 110.2178 111.3458 112.2498 113.1028 113.8829 114.5864 115.2363 116.4283 109.2962 116.3124 117.7293 120.7398 109.3702 111.4234 110.6746 113.6876 112.4199 102.8497 106.0492 102.9896 103.8223 103.4478 105.5843 105.5872 114.5645 115.6574 103.1149 101.5515 112.5091 109.5145 110.2058 108.8652 106.1740 111.0638 114.3699 121.2446 119.0964 118.4441 117.2968 119.8512 120.4161 121.1529 121.1905 122.4217 122.6248 123.0252 123.6348 124.0519 123.9081 125.3267 125.7314 115.6773 106.1700
99.1400 96.3312 89.9270 87.6641 90.0895 96.6861 100.6694 103.5196 103.2239 108.4666 109.0987 110.0845 111.1403 112.1119 112.9876 113.7804 114.5228 115.1150 115.7749 116.9264 116.9252 116.5626 117.2482 120.8870 108.5770 122.0577 107.9012 121.9193 115.4147 103.6838 105.5427 106.0583 103.5853 110.3311 106.9947 115.8042 108.0397 101.1685 100.6888 103.8571 107.7574 109.4992 110.1339 105.2023 118.1541 104.8219 108.3984 106.8984 120.2219 122.5780 121.0075 121.7627 121.8724 123.2868 122.5391 123.1601 123.5896 123.4456 126.0473 124.4595 121.1278 109.6513 105.5014 106.1700
98.9700 94.7506 86.5743 84.0829 87.2229 95.1944 100.0387 103.1002 105.5880 107.0068 108.6545 109.9622 111.0703 112.0573 112.9356 113.7495 114.3948 115.0834 115.1261 116.3101 118.7885 119.8634 118.2269 119.7887 105.6557 120.6833 102.1540 122.6622 115.8990 105.3823 108.8531 110.9769 106.4966 126.0611 107.4299 118.1750 103.3728 101.8626 100.8247 116.9634 117.0057 108.1866 105.0517 102.0823 104.5570 102.0908 102.0542 102.0100 121.0933 124.9720 119.5242 120.8899 121.5442 109.1347 123.0434 122.2374 122.7494 126.6767 127.0508 127.1242 126.2988 116.7894 103.7708 114.4200
99.2000 95.8392 89.0142 86.5855 89.1373 96.2506 100.4423 103.3547 105.5193 107.2838 108.7694 110.0254 111.1238 112.0984 112.9733 113.6514 114.5208 113.3080 116.6953 111.4566 96.6114 97.5067 102.3820 104.8933 102.4411 103.4457 106.0753 111.3323 108.5863 106.7442 107.3933 106.5845 106.8894 111.1047 109.0678 109.9426 101.6628 101.1582 101.4969 107.7368 120.5180 111.2993 116.2175 107.1915 107.8278 108.6941 109.4206 110.2153 115.9274 123.6439 124.1632 125.1038 124.7378 125.1021 124.7833 125.2039 127.0417 127.7774 126.7221 122.6135 124.2370 130.3162 113.4968 106.1600
99.7600 98.6017 94.4560 92.4144 94.7556 98.8445 101.7292 104.1129 106.0549 107.6735 109.0533 110.2067 111.2599 112.2134 113.1024 113.3861 117.0876 111.6295 95.5077 95.7206 94.7511 95.4870 103.0500 107.3161 105.8661 102.7097 106.0516 103.8178 108.4568 105.4549 105.2319 105.4014 113.1838 116.8941 114.9153 109.9559 100.4148 100.4654 103.4798 105.6352 106.5191 109.1079 109.8253 109.9019 110.1324 110.4762 111.0378 111.5865 112.1541 113.0306 113.6673 114.4577 114.8763 114.7436 124.9951 120.6353 116.4999 112.6172 128.9738 110.2833 110.7785 106.4487 106.3132 106.1600
99.7600 101.2537 99.4489 98.6356 99.5937 101.3362 103.3394 105.1819 106.8264 108.5383 109.2318 110.5140 111.5010 112.3650 113.1889 114.0203 114.7772 114.7201 115.5234 113.0737 97.7035 99.8181 106.4514 105.8445 103.5617 102.6780 103.5227 107.0286 106.6928 109.4544 109.3266 109.3235 109.7866 117.3396 99.8074 114.0043 114.1624 109.2905 106.9185 110.6163 101.9914 108.4623 101.4602 102.2545 106.6602 109.2573 111.1206 111.5376 112.2217 112.9953 114.5532 114.1428 115.4340 116.3031 116.7596 117.2927 118.0196 117.9286 126.0893 118.7090 126.3364 126.8595 109.8146 116.3600
103.2300 103.5824 102.5291 102.1349 102.5831 103.6631 104.9874 106.2372 107.6642 105.0026 106.7635 111.2865 112.3788 113.5878 113.9226 114.3858 114.9427 115.0068 110.9171 107.3776 116.4922 114.9727 117.9604 114.3886 96.6848 100.1404 103.1376 106.0082 107.2684 108.0540 110.1401 108.2896 108.9970 111.0342 117.9721 98.4700 101.6276 108.9030 116.7371 105.1136 104.3931 106.4437 103.8100 108.0980 107.4692 110.4397 111.4168 112.0781 118.8158 114.7212 118.1315 117.1476 125.6815 125.3792 125.6084 126.4585 126.4402 127.0900 126.8880 127.2509 127.3827 115.2860 109.1145 106.1700
106.8200 105.5405 104.8978 104.6657 104.9264 105.5989 106.5096 107.4784 109.0125 95.8936 84.5386 108.6790 110.8883 107.6099 108.8090 109.4346 115.3326 115.9298 105.9797 116.0471 115.0478 110.7294 110.9640 96.5783 101.2296 104.4066 100.7069 107.8614 104.4038 101.4361 111.1306 112.6093 113.5336 113.1835 113.9473 105.6400 113.1780 110.5137 108.5709 109.9126 102.8735 103.1809 109.0897 103.0304 108.7462 110.0004 113.1208 112.7217 111.4899 119.0424 121.6547 121.7523 122.8245 122.9268 123.3953 123.6433 124.3367 125.6141 125.9164 127.1993 124.7654 120.0160 109.0924 117.1700
106.8200 107.2063 106.7490 106.5910 106.7710 107.2303 107.8892 108.6663 109.8352 110.7445 97.4341 107.7138 109.3721 93.3676 97.7889 104.5511 113.3589 115.3955 97.4946 118.1127 117.4262 112.0204 107.5449 100.2850 102.1868 104.6531 97.2487 104.6282 106.1579 106.7018 102.1503 121.1610 120.2769 122.3670 110.7630 112.3293 111.6102 102.4130 101.5705 102.0395 105.8261 107.5195 109.6226 109.8301 110.0188 109.6083 118.0171 120.1379 114.5174 114.8910 121.8830 122.1751 122.6303 123.3587 123.6315 124.1405 124.8635 125.1496 126.1451 124.2402 117.2364 112.9452 108.5784 106.1700
108.3000 108.5200 107.3900 107.4100 107.3500 108.4100 109.1800 109.1800 109.8700 111.3200 111.8500 90.4300 92.8200 93.5600 114.4800 114.9300 115.3600 116.1700 94.5400 116.9100 117.5900 117.9200 96.5400 104.8900 119.1100 118.0600 97.9200 101.5500 103.4900 105.1500 102.6500 121.5500 112.0200 112.3800 111.4800 111.9400 112.8000 113.5000 119.0800 101.8000 101.9700 102.5300 110.0000 109.4400 109.7900 110.1600 119.4600 120.2000 120.3800 121.0400 122.0200 122.1800 122.6300 123.5300 123.6500 124.3600 124.9900 125.4100 125.7500 117.0900 119.5700 105.9700 118.9500 106.1800
