125.2200 128.2000 126.8800 124.5700 124.5900 121.2800 121.2100 120.7400 121.1600 121.1600 104.6200 120.2600 112.9800 113.0900 116.1500 112.7200 115.3400 115.6000 119.2700 113.0800 113.0800 108.7400 111.7200 111.7200 112.4000 114.0300 104.8800 109.6000 111.0300 109.7300 102.9500 106.4800 106.4800 110.2200 124.8700 124.8700 104.1000 103.0200 124.7300 124.7400 124.7400 123.6300 124.7400 124.7300 124.7200 124.7100 124.8700 124.8700 124.8300 124.9900 124.9700 124.9400 125.0900 125.2200 125.2200 125.3200 125.3200 125.4400 125.5600 125.5300 124.9600 125.7800 125.8800 125.8800
125.2200 129.0824 127.2514 125.4036 125.3978 124.6097 120.9005 120.8496 120.2797 122.7475 119.5386 109.5172 103.7638 115.8473 109.3811 110.2631 122.6560 119.9289 119.1946 120.1917 107.4609 107.1287 112.2879 115.5601 110.6770 111.0115 108.1790 109.4653 108.8104 106.9253 104.3472 110.3580 109.3159 101.4245 122.5841 120.6775 102.3180 100.2478 122.6425 117.6877 119.9564 123.8237 124.8545 124.6353 124.6403 124.6428 124.6714 124.7338 124.8009 124.7876 124.9527 124.7900 124.9604 125.0100 125.0753 125.1374 125.2262 125.2935 125.3607 125.2989 121.7497 125.7722 126.0425 125.6900
128.9000 129.6137 124.5636 125.0182 125.7306 123.3521 120.6309 120.5898 119.9631 120.0869 120.6668 115.5197 112.4552 110.1525 111.0532 106.5026 125.4475 124.0823 118.4201 114.2445 111.1474 105.3099 109.3701 116.0957 114.0771 104.4007 104.3561 111.1545 108.7525 112.6316 103.0533 102.6185 123.3870 116.9089 107.6137 107.3571 112.7198 117.5419 122.1222 124.3549 123.6672 124.4032 124.3162 124.3897 124.3956 124.4241 124.4646 124.3838 124.2222 121.1159 124.4065 124.5204 124.7559 124.8059 124.8711 124.9655 125.0131 125.1055 124.8824 126.2946 124.9033 125.9789 129.4954 125.6900
128.9100 124.4385 121.7130 121.8742 119.9750 119.1447 119.2624 119.4459 119.8038 120.2999 118.8897 118.7097 113.4631 101.7748 106.3554 128.9052 119.7341 113.1642 112.8986 115.4250 107.5129 109.0876 106.1210 114.6792 114.7249 111.8502 115.5412 109.6615 105.6009 111.8204 105.7202 110.7418 124.1457 121.8920 103.8136 126.4751 125.1872 112.4573 127.3334 113.5397 125.3508 124.0702 124.1217 124.1528 124.1684 124.2224 124.1771 124.5614 125.8653 109.3765 122.7317 123.8768 124.6073 124.6093 124.6503 124.6908 124.7872 124.7919 124.1736 125.0711 112.5594 125.8428 104.2706 103.5000
125.0900 126.8147 117.8463 117.3722 121.2925 119.4260 118.7661 118.4963 119.9084 120.7576 120.6256 119.9870 106.9626 106.8047 117.1188 126.1688 119.7429 125.5440 117.5254 114.2870 118.3177 117.7653 111.2757 111.8612 112.3417 109.3517 110.0497 112.0902 111.5965 104.9208 118.2369 109.5338 124.8224 125.3969 109.6230 120.6741 123.6973 120.5527 123.9940 124.1042 124.2505 123.8873 123.9017 123.9127 123.9269 123.9850 124.5193 113.6700 122.4157 99.5876 124.6501 125.1597 124.3125 124.4390 124.0163 125.9342 120.2049 124.6370 125.6880 127.8044 106.3177 98.3747 108.0161 103.2600
126.8800 123.5930 119.3518 117.3591 123.3231 122.4920 119.1286 118.4171 118.6963 115.0508 120.6145 122.6226 120.3493 115.6088 114.8566 117.0566 125.4886 126.0992 125.0984 111.9046 121.0785 115.8185 111.9213 109.7603 109.9480 107.9093 107.9637 101.6369 109.7484 109.3578 117.9218 120.0598 124.6969 123.9642 124.6066 125.1782 123.8592 123.6919 123.7211 123.5435 123.5426 123.6481 123.6613 123.6716 123.6872 123.7797 123.8407 123.0279 123.5030 105.7267 102.2800 123.8292 124.0941 124.1918 124.4632 128.1700 122.5664 122.8504 123.5263 123.4482 119.0293 112.2684 122.9081 125.0900
128.0200 128.5264 123.8758 122.0478 108.1072 123.2038 119.7348 116.8050 119.7433 107.2812 114.8826 118.0376 117.5451 117.2057 114.7818 123.3654 125.8419 124.6857 125.8667 118.0988 113.7459 118.7660 116.3894 111.0352 108.9574 105.8815 105.1358 106.9259 105.4236 115.0634 114.2776 118.3954 120.8705 116.3538 117.1428 122.5291 123.4613 123.4116 123.4504 123.4526 123.4307 123.4014 123.4110 123.4311 123.4509 123.3768 124.6962 123.7611 119.2331 105.2879 122.9506 124.4739 123.7337 124.0044 123.5404 124.1498 124.5335 120.0619 115.9181 124.5817 114.3769 125.9122 126.7087 124.8800
127.2800 129.3352 107.4011 120.8232 119.5875 122.2885 119.5788 120.8273 118.6722 115.3976 119.4105 116.4569 118.8784 108.8636 107.7254 117.4690 123.7901 125.1494 117.0267 107.9734 111.2531 112.6748 115.9699 108.0899 105.7394 107.7457 104.0335 102.6444 109.8110 119.1840 121.8039 113.9523 123.8355 134.7537 108.9941 123.3267 123.3220 123.1874 123.1492 123.1429 123.1322 123.1449 123.1605 123.1589 122.9759 124.7076 113.3460 121.2471 122.4620 108.5949 122.4700 123.4285 123.6657 123.7021 123.8921 123.8400 123.6975 125.2130 124.3324 124.3989 124.9148 124.6126 124.4402 124.6600
121.1200 121.2226 121.2584 108.9009 117.6759 120.8292 121.1520 119.6203 119.0180 117.9890 117.5576 104.6250 118.0944 115.4315 103.5848 102.3682 116.2993 125.6939 115.5606 105.5967 126.1503 102.8346 112.3308 111.7539 107.8405 110.0374 102.7412 109.0537 125.4431 121.6644 122.9981 122.7855 123.9056 123.0689 123.5369 122.6155 123.0206 122.9338 122.9058 122.8924 122.8840 122.8828 122.8908 122.8979 122.8763 123.1963 116.3053 125.9029 117.8514 119.0191 122.7091 123.1220 123.4537 123.5126 123.4186 123.6908 123.9602 123.6125 124.0782 124.0270 124.1300 124.3773 124.5933 124.4400
125.9100 126.3341 112.0745 123.0404 113.7478 116.8684 118.7146 106.9706 115.9404 118.6973 117.9955 116.1935 117.5158 116.8216 117.5324 107.6923 123.1223 114.0395 103.6455 106.1965 123.4110 106.5652 102.6742 108.5466 107.5084 126.5237 119.7583 116.6951 121.8751 121.5842 122.6830 122.9552 122.8124 122.9318 122.5700 122.5940 122.7110 122.6557 122.6328 122.6141 122.6071 122.6082 122.6182 122.6462 122.5261 122.8309 122.8297 123.1210 122.4852 123.2807 123.0098 123.0282 123.1349 123.3775 123.2211 122.4321 121.8861 123.8023 123.8166 123.9268 124.0426 124.1067 124.8674 124.4200
124.0800 123.2415 119.7105 118.1500 120.2346 118.3875 117.3771 124.1296 103.6816 115.1331 116.0598 115.5311 109.1953 111.2456 117.7593 111.6106 111.2162 111.3632 114.7573 106.5646 127.4453 104.7354 111.5835 105.2273 108.3319 122.6791 123.7161 122.5262 123.6238 122.9796 122.9149 122.6814 122.4845 122.5432 122.5521 122.4655 122.4124 122.3830 122.3497 122.3356 122.3203 122.3252 122.3348 122.2858 123.1075 122.4657 122.4832 122.4738 122.6000 122.6172 122.7324 122.8187 123.2789 122.9853 123.4983 119.8714 115.8387 123.3060 123.5752 123.6938 123.8252 123.5865 124.1138 124.2100
124.0800 124.6982 124.1586 119.4472 120.9893 120.2652 121.6981 114.4951 118.5492 118.8340 115.3826 115.8084 117.1410 116.6056 110.9883 118.4783 125.4603 107.9039 107.6033 113.5059 127.3230 116.4899 125.7223 107.7831 113.4670 120.2328 122.6633 122.9373 122.6193 122.6065 122.5225 122.4109 123.2594 122.2754 122.2267 122.2201 122.1212 122.0919 122.0608 122.0442 122.0421 122.0185 122.0018 122.8531 116.5879 122.4266 122.1472 122.2687 122.3096 122.3994 122.4727 122.5482 122.6174 128.6538 117.1086 119.4644 123.8849 123.2686 123.3775 123.4712 123.6385 124.4395 121.8322 101.9600
121.8000 124.1758 117.6369 116.4693 111.5301 116.6760 109.8841 108.3878 112.9989 114.4201 111.0769 103.5194 119.0712 114.4473 109.3762 118.2728 117.3175 98.8855 116.8275 109.2365 120.0566 115.3851 123.6821 113.0129 122.5257 118.0300 122.7839 122.5367 122.5029 122.3842 122.2703 122.1139 122.1378 112.6135 122.4659 121.8999 121.8349 121.8165 121.7645 121.7410 121.7370 121.7350 121.6797 121.4247 116.0150 120.9088 121.8491 121.9723 122.0274 122.1128 122.1999 122.3091 122.3662 122.3645 122.2560 116.0887 123.1541 123.0074 123.1142 123.2633 123.3792 118.7568 113.7177 101.9600
121.8000 117.2896 123.0210 116.6733 110.1063 120.8216 115.4918 108.9818 115.3019 115.2525 115.7523 116.0854 123.5196 114.4293 122.7611 118.5237 116.9641 117.3357 106.4267 104.8829 117.9432 114.9040 123.7988 123.5168 121.2530 121.1335 122.6286 122.3363 122.2200 122.1054 121.9987 121.7255 121.3823 120.9486 121.9673 121.5874 121.5341 121.4183 121.4098 121.4314 121.4193 121.4177 121.4116 121.9562 119.6850 120.4955 121.5134 121.6967 121.7364 121.8220 121.9197 122.0026 122.1666 122.4459 119.8068 119.4346 122.8060 122.7752 122.9042 123.0591 122.9720 124.3375 108.5673 110.7100
104.2400 120.2506 124.1073 115.8912 117.5252 117.0126 120.5412 112.7389 108.7380 114.6299 105.1710 120.9506 120.5918 119.3702 119.1803 114.2663 109.2240 116.5939 109.1365 111.3736 122.0895 124.2033 122.7028 122.6644 122.6380 122.4961 122.0380 122.1200 121.9479 121.8327 121.7124 121.5111 121.4827 116.0870 121.4118 121.2867 121.2389 121.3702 121.8003 121.1073 121.0897 121.1018 121.1103 121.0419 121.4173 121.2362 121.2924 121.3565 121.4380 121.5314 121.6298 121.7400 121.8564 121.9843 122.1089 122.8567 122.2937 122.5350 122.6741 122.8627 122.9029 123.7493 122.1204 123.4200
122.1300 124.0985 122.4863 115.5647 115.9541 118.2692 118.6399 117.8793 115.6476 111.1050 112.3832 111.7566 106.1150 113.8126 100.8443 115.8163 107.7455 104.2806 102.9620 109.2361 126.9084 121.7003 122.5281 122.4325 122.2509 122.0603 121.9902 121.8079 121.6749 121.5521 121.4230 121.2389 121.3249 121.3981 121.2955 120.9122 120.7716 120.8655 120.9231 120.7794 120.7543 120.7610 120.7821 120.8012 120.7997 120.8984 120.9615 121.0414 121.1246 121.2309 121.3331 121.4540 121.5842 121.7064 121.8562 122.0084 122.1310 122.2877 122.4552 122.5993 122.8154 122.8057 123.2197 123.1900
126.0400 125.5887 125.5479 115.4989 118.5398 103.5500 120.1216 119.5879 118.4700 112.5162 111.0022 102.1582 103.2840 109.2863 113.6099 110.2265 98.9952 101.5512 107.0082 113.0126 107.3754 120.8140 122.4302 122.1846 121.9985 121.9640 121.6824 121.5429 121.3968 121.2545 121.1266 121.0195 120.8738 120.7341 120.6663 120.8822 121.4194 120.2292 120.4782 120.4321 120.4147 120.4112 120.4332 120.4623 120.5144 120.5809 120.6455 120.7381 120.8170 120.9076 121.0270 121.1580 121.2877 121.4269 121.5823 121.7274 121.8878 122.0507 122.2096 122.3823 122.5408 122.7411 122.8713 122.9500
126.0000 126.1632 120.4887 117.2623 115.8878 119.8476 106.7039 112.3806 112.4383 119.3049 113.8930 125.2152 103.2562 105.7113 110.4338 111.2100 104.1984 118.3552 103.7194 112.0581 116.1070 124.8238 121.9183 121.8571 121.8396 121.1572 121.6243 121.4029 121.1590 120.9659 120.8432 120.6745 120.5706 120.4530 120.4038 120.4557 111.8242 121.6129 119.7383 120.0574 120.0568 120.0516 120.0736 120.0976 120.1310 120.0977 120.2058 120.3057 120.4540 120.6096 120.7152 120.8572 120.9893 121.1445 121.3021 121.4578 121.6289 121.8001 121.9760 122.1553 122.3342 122.5161 122.6953 122.8800
125.8400 125.5048 126.2613 118.3708 116.9050 116.4124 116.7205 112.4879 112.8504 117.6302 111.3697 120.3310 111.0493 103.8950 104.8372 122.1700 118.2356 99.5339 111.8178 108.7363 104.3721 107.1160 124.0665 121.4643 121.5229 121.4565 119.2609 119.0269 120.9748 120.8456 120.4441 120.3656 120.2354 120.1114 120.0999 120.0589 121.2689 107.6224 119.5701 119.7713 119.6650 119.6731 119.6782 119.7224 119.9637 120.2366 120.1421 120.2974 120.0727 120.3809 120.3879 120.5370 120.6868 120.8511 121.0170 121.1837 121.3620 121.5453 121.7339 121.9196 122.1022 122.3016 122.4996 122.6400
125.8000 125.9010 125.7010 114.7029 110.2718 115.0012 113.3665 113.8505 112.9795 112.7635 114.1239 123.6276 112.3631 109.7119 105.4290 101.2365 109.6848 101.4764 118.4255 104.7730 113.7793 119.5490 121.5939 121.4843 121.3097 121.9668 114.7350 115.1771 111.2214 121.2366 120.1845 120.0227 119.8823 119.7902 119.5437 120.3104 111.1039 106.7329 120.5450 118.8551 119.3284 119.2590 119.3884 119.2763 116.4265 113.2782 117.3725 112.7658 120.6784 119.5604 120.0767 120.2091 120.3723 120.5455 120.7238 120.9069 121.1021 121.2939 121.4872 121.6862 121.8890 122.1076 122.3162 122.3900
125.6400 123.5586 120.7978 120.3791 111.3043 111.4421 110.6596 116.0141 112.9926 116.1384 106.7413 115.2716 114.0246 116.9214 120.0169 116.1430 100.9731 104.9525 110.4146 120.1128 123.0100 121.7940 121.3662 121.0309 119.6231 118.5573 126.2334 121.7500 111.6357 121.8914 119.8507 119.6633 119.5272 119.4333 118.9962 114.7861 114.7696 115.1385 104.2130 120.7039 118.6888 118.9070 118.8598 116.4799 119.0694 120.0260 118.0927 113.9013 115.4236 121.3526 119.6801 119.8720 120.0543 120.2400 120.4314 120.6303 120.8264 121.0330 121.2428 121.4583 121.6595 121.8310 122.6368 122.3100
125.5900 118.1829 127.8570 111.8300 115.5836 110.9187 114.7572 114.8905 110.6947 115.3673 118.5303 106.5819 110.4271 128.1669 119.3369 109.5821 103.6416 105.7044 109.4375 114.9330 122.0171 121.3384 121.0291 122.0128 115.4841 100.2660 104.3393 121.2719 120.1629 119.4081 119.4568 119.3140 119.1528 119.0170 118.4011 115.8589 119.2198 121.4066 107.4218 104.1610 120.5078 118.2165 118.0972 101.6936 118.9548 111.2502 106.7569 116.0257 105.7937 119.5409 119.3261 119.5255 119.7236 119.9287 120.1318 120.3529 120.5708 120.7747 120.9939 121.1910 121.4332 121.6235 122.8413 121.9800
125.5600 120.8370 115.5959 108.8326 128.0550 117.3333 115.0163 107.3037 106.2115 118.9991 116.1683 115.5768 115.5021 115.4935 113.5086 130.6986 113.3795 104.0708 103.7676 108.8383 121.7457 121.1462 121.6428 117.1134 113.5330 109.5001 102.0656 118.3147 120.3175 119.5667 119.2639 118.7359 118.7740 118.6354 118.2187 118.0433 117.0457 117.4967 114.9410 94.3024 113.8488 116.9199 111.7765 98.5339 104.7494 105.0472 108.6151 121.7895 119.3903 118.7363 119.0211 119.1869 119.3946 119.5984 119.8267 119.9307 120.2894 120.4550 121.1029 120.9495 121.1842 121.4726 121.3983 121.9800
103.3600 114.6430 101.4942 114.9066 116.7174 113.1894 114.0082 110.2679 107.9178 105.4007 104.1823 107.3754 116.9570 100.7299 101.6498 97.7491 115.7993 118.8831 112.8950 110.8823 122.7502 120.7200 121.4071 103.8882 102.7177 119.2109 119.4909 122.5768 118.8913 118.4513 118.4204 118.7018 118.3570 118.2269 117.7365 119.6281 117.3670 116.4374 117.7700 103.4359 119.2967 117.1353 112.8731 99.0429 120.7848 107.7344 120.4175 115.1450 118.0823 118.3484 118.6024 118.8242 119.0453 119.2727 119.5472 119.7565 121.0290 120.8622 120.2539 117.9544 121.2074 121.2035 121.4920 121.6300
103.3300 115.3603 111.5116 114.0018 114.8437 119.8875 115.8566 115.8872 117.1941 112.6047 104.4738 105.0527 106.9373 101.2248 100.9043 100.8683 105.0233 121.8476 114.4164 122.3068 120.9238 120.6752 120.2593 113.5307 117.0926 121.3361 119.1689 120.5033 118.4487 120.0567 117.5502 118.2121 117.9804 117.6507 117.0558 120.2350 116.7798 117.1183 104.8009 101.5614 100.3202 116.0271 106.1778 111.1698 118.8506 117.1519 118.1432 116.7373 117.8874 117.9752 118.2122 118.4465 118.6947 118.9360 119.1788 119.4376 118.3780 113.2608 120.7490 119.1335 120.9034 121.0024 121.2621 121.3600
103.3300 123.8186 123.0135 121.7074 119.8912 114.1246 108.6674 106.7084 109.0647 113.4548 112.3968 111.5897 105.4058 100.4363 100.4081 113.2156 99.1941 119.3753 120.2485 120.6021 120.6204 120.5049 121.0271 120.8166 119.4859 118.8071 108.5842 114.9880 118.6602 118.1971 118.1720 117.7371 117.5259 117.6919 117.4404 117.4248 116.2313 114.4877 106.1399 108.7021 98.1610 114.9251 121.9815 117.3189 116.4507 117.0230 116.7674 117.1729 117.3428 117.5789 117.8131 118.0678 118.3272 118.5906 118.8842 119.1693 119.6244 120.7398 120.1737 120.3076 120.5299 120.8080 121.0662 121.2800
125.1300 125.6186 125.1998 119.9931 123.5480 112.7575 107.7154 105.2053 103.0084 108.4159 108.8798 111.3780 120.0874 98.6950 110.4053 108.5703 115.2645 112.6755 117.8773 120.9957 120.5672 120.2290 119.9162 119.6569 119.4710 118.8948 119.3987 118.1974 118.2734 117.9586 117.5912 117.3278 117.0775 116.8754 103.6077 114.6989 115.9218 116.6604 107.2864 96.7410 119.2453 102.3187 117.2731 115.7365 116.1463 116.2249 116.4703 116.6398 116.8718 117.1281 117.3942 117.6735 117.9629 118.2544 118.5443 118.8461 119.0841 119.4764 119.7779 120.0086 120.2981 120.5939 120.8723 121.0100
125.1000 124.8952 124.6750 125.1606 117.3512 112.3098 107.4486 107.4255 107.1295 107.7741 105.3520 108.9840 103.6233 115.4074 107.6677 106.0682 98.3624 117.7250 120.5909 120.5967 120.3554 120.0290 119.7488 119.2256 120.2630 106.4473 119.0665 117.9443 117.8788 117.5026 117.2021 116.9200 116.5199 117.1589 115.5387 116.9044 115.3952 115.2343 115.5275 116.7049 116.2504 116.5533 115.1909 115.3769 115.4799 115.6827 115.8832 116.1279 116.3910 116.6722 116.9654 117.2683 117.5870 117.8968 118.2126 118.5943 117.0734 117.3719 119.6245 119.7927 120.0854 120.3894 120.6852 120.9300
125.0800 124.4072 125.6110 111.9049 113.8199 123.8460 108.1807 105.2326 107.0239 104.6449 103.5030 102.8520 100.7952 109.9294 102.3493 109.5008 101.2939 103.6960 122.4470 120.5063 120.0541 120.0383 119.3995 119.1149 118.8378 118.2328 118.6795 117.7164 117.4680 117.1227 116.7815 116.4486 116.1359 115.8477 115.3482 118.3758 114.8673 114.8928 114.6492 115.0938 114.4627 114.3894 114.5943 114.7157 114.8812 115.0780 115.3216 115.5923 115.8831 116.1952 116.5216 116.8573 117.2048 117.5448 117.8967 118.2209 118.7072 119.0874 119.2090 119.5661 119.8780 120.1898 120.5004 120.6400
114.4800 115.5478 116.5424 112.9145 112.6079 112.9730 112.3800 102.0855 101.6666 103.2547 102.4104 101.8422 99.6085 104.5874 113.9098 104.9986 123.7861 120.8729 121.3344 108.7087 120.9086 119.3036 120.1621 119.6167 118.8314 118.0866 117.7705 117.4724 117.0631 116.7400 116.3593 115.9877 115.6286 115.3526 114.7948 114.6186 114.4087 114.3210 110.5013 115.2328 110.8332 113.3945 113.8768 114.0195 114.2064 114.4412 114.6907 114.9557 115.3610 115.7090 116.0667 116.4409 116.8155 117.1938 117.5615 117.9227 118.2771 118.6214 118.9912 119.3332 119.6714 120.0018 120.3129 120.5700
124.8800 125.2070 125.0467 115.3860 111.4530 113.9377 114.7952 109.4949 107.1708 104.2880 100.7648 101.2865 105.5833 110.1210 112.6581 114.5720 118.7750 120.4548 120.2549 121.0546 119.4147 115.8812 111.4003 114.3512 118.1006 118.3092 117.3846 116.5463 116.8231 116.3427 115.9171 115.5179 115.1221 114.7223 114.3669 113.9831 113.7224 113.3714 113.3894 113.2988 109.6763 112.9944 113.0547 113.2693 113.4815 113.7586 114.0859 114.4316 114.8215 115.2061 115.6131 116.0183 116.4224 116.8360 117.2361 117.6350 118.0286 118.4092 118.7696 119.1245 119.4716 119.8072 120.1448 120.5000
124.8500 124.4778 124.2342 118.1201 110.2250 111.8711 113.9427 116.5947 110.7450 105.9208 106.2939 104.9431 107.5450 103.7506 100.6538 118.9538 120.3318 120.3502 120.1029 117.8673 120.4955 119.8234 121.2080 98.2509 108.1797 111.8680 116.9452 113.8960 116.4359 115.9286 115.4893 115.0412 114.5869 114.1424 113.7195 113.3203 112.9502 112.6561 112.3540 112.1480 112.5251 112.1430 112.2466 112.4447 112.7048 113.0297 113.4012 113.8156 114.2439 114.6856 115.1401 115.5943 116.0438 116.4823 116.9118 117.3394 117.7502 118.1454 118.5320 118.9148 119.2759 119.6342 119.9769 120.1400
124.8300 124.9398 126.0982 115.2140 110.6292 107.8533 107.5438 108.5398 111.5691 113.7744 107.3544 104.6468 111.7241 102.2519 101.3679 123.2422 120.7354 120.9360 120.1651 109.0166 104.4615 118.8261 119.3455 104.4605 109.8747 107.5600 117.8701 117.1036 116.1142 115.5371 115.0600 114.5520 114.0557 113.5520 113.0620 112.5937 112.1598 111.7767 111.4783 111.2695 111.1007 111.1718 111.2980 111.5386 111.8645 112.2499 112.6929 113.1677 113.6623 114.1654 114.6698 115.1637 115.6610 116.1287 116.6020 117.0524 117.4885 117.9158 118.3239 118.7235 119.0944 119.4712 119.8222 120.0800
112.0000 117.6043 113.9776 109.4412 111.8065 110.0159 108.8323 107.7118 103.8534 105.3356 100.2170 100.0946 103.5009 103.4841 98.6902 111.4606 116.1755 116.0804 120.2393 115.6882 109.1913 119.4020 118.0617 120.0763 119.7001 118.0643 116.5666 116.2474 115.6611 115.1827 114.6483 114.0716 113.5068 112.9348 112.3734 111.8221 111.3071 110.8382 110.4585 110.2230 110.1036 110.0897 110.2349 110.5400 110.9445 111.4151 111.9381 112.4970 113.0648 113.6382 114.2008 114.7477 115.2853 115.8040 116.3015 116.7833 117.2480 117.6915 118.1189 118.5347 118.9276 119.3150 119.6823 120.0800
112.0000 111.8852 110.0205 109.8627 111.2565 111.0942 109.0864 114.1380 110.4506 109.7888 105.2041 101.5493 111.3832 116.1584 100.7990 106.0771 118.9507 116.0962 120.1693 120.3011 121.1357 118.9880 118.4130 117.6051 116.9893 116.5227 115.7269 115.5776 115.3755 114.7357 114.1846 113.5961 112.9692 112.3193 111.6615 111.0085 110.3858 109.8129 109.3311 108.9732 108.1891 108.7804 109.0419 109.4254 109.9364 110.5226 111.1619 111.8074 112.4693 113.1096 113.7378 114.3411 114.9292 115.4823 116.0122 116.5263 117.0145 117.4864 117.9320 118.3623 118.7756 119.1704 119.5469 119.7300
111.5700 112.6460 111.5519 110.6979 110.1450 110.1846 110.4533 111.9389 108.2273 107.0209 104.8126 102.9820 107.1028 103.0526 103.3666 117.7575 121.2442 119.9501 119.8637 119.2283 118.7504 118.3916 117.7059 117.4830 117.0791 117.8092 118.1663 117.1293 115.0241 114.4525 113.8313 113.1400 112.4332 111.6980 110.9382 110.1611 109.3997 108.6775 108.0559 107.5841 107.3375 107.3810 107.6732 108.1819 108.8305 109.5740 110.3398 111.1108 111.8677 112.5989 113.2879 113.9596 114.5860 115.1885 115.7507 116.2974 116.8064 117.2943 117.7626 118.2089 118.6296 119.0405 119.4333 119.6800
111.8600 111.5584 111.1463 110.2478 110.7492 111.3939 109.9873 109.8580 107.4680 104.9699 104.4428 106.6604 118.5935 110.4954 107.9752 119.9846 119.1635 120.0031 119.6042 119.2709 118.7978 118.8112 120.2773 118.5970 117.2409 117.0262 107.4006 116.5355 114.9050 114.0905 113.4338 112.7072 111.9280 111.0967 110.2082 109.2980 108.3496 107.4276 106.5902 105.9286 105.5733 105.6253 106.0555 106.7683 107.6387 108.5682 109.5079 110.4126 111.2811 112.1015 112.8706 113.5930 114.2799 114.9144 115.5121 116.0866 116.6158 117.1291 117.6118 118.0739 118.5061 118.9298 119.3309 119.6500
113.9000 110.8055 110.3689 110.0062 110.5107 109.7337 108.7494 110.2828 107.4168 105.9217 106.3089 123.0076 104.0203 122.2667 114.0808 107.5923 126.0618 120.1068 119.5820 119.1803 118.7446 120.2644 96.1003 105.4017 118.8386 102.9551 115.5635 115.1998 114.5683 113.8403 113.1082 112.3098 111.4486 110.5239 109.5189 108.4319 107.2712 106.0718 104.9070 103.9163 103.3638 103.4402 104.1305 105.1607 106.3419 107.5395 108.6856 109.7517 110.7381 111.6511 112.4945 113.2735 113.9986 114.6789 115.3112 115.9053 116.4610 116.9822 117.4846 117.9539 118.4023 118.8296 119.2546 119.6100
112.2900 110.9958 110.4440 110.1924 110.2135 109.9070 108.0461 107.8084 104.8416 104.0474 117.9846 112.1360 115.7013 121.8062 107.8686 99.5207 117.1798 119.1976 119.1789 119.1961 119.6363 103.7079 118.9158 119.2574 94.6705 118.3469 117.0233 114.7747 114.3643 113.6039 112.8221 111.9721 111.0408 110.0178 108.8723 107.5917 106.2310 104.5693 102.9971 101.4088 100.4248 100.5699 101.7204 103.3353 104.9886 106.5153 107.9027 109.1431 110.2580 111.2633 112.1735 113.0083 113.7741 114.4808 115.1400 115.7524 116.3241 116.8681 117.3846 117.8611 118.3281 118.7670 119.0702 119.3100
113.3100 111.4755 111.0469 111.0941 110.7491 111.0933 110.8682 109.2301 106.9407 103.8115 103.5972 122.6262 103.2502 122.7388 121.3582 121.8977 121.1308 120.1261 119.3322 119.0159 118.4820 119.1705 118.3229 116.2895 116.7741 106.7381 115.1296 114.8271 114.1762 113.4231 112.6005 111.7110 110.7148 109.5990 108.3449 106.8809 105.1728 104.1156 101.7063 98.1007 95.7253 96.1064 98.7910 101.3611 103.6786 105.6019 107.2373 108.6396 109.8668 110.9528 111.9190 112.7941 113.5918 114.3293 115.0065 115.6379 116.2275 116.7771 117.2990 117.7941 118.2506 118.6326 119.8578 119.2900
124.5700 111.1735 111.9310 111.4216 111.1955 110.9568 111.7514 111.4438 107.9328 105.9635 105.5046 109.7909 118.4855 119.1459 120.5902 120.0159 119.8299 119.6774 119.3350 118.9864 119.1192 117.8058 117.4700 117.2670 116.3724 116.8375 112.2387 115.1731 114.0538 113.2948 112.4593 111.5259 110.4914 109.3111 107.9496 106.3595 104.4302 101.8026 98.5295 93.5303 89.0255 89.5939 94.9527 99.5294 102.5883 104.9067 106.7506 108.2853 109.5969 110.7368 111.7412 112.6566 113.4787 114.2291 114.9209 115.5673 116.1641 116.7194 117.2486 117.7438 118.3699 118.6155 118.6065 105.9100
110.2300 109.4844 112.0388 110.8259 109.6819 110.7216 111.1868 111.2316 102.1919 113.9352 104.8487 109.7022 125.9846 106.9490 121.4111 120.8315 120.2306 119.7991 119.3901 118.9641 120.1662 118.5549 117.7259 117.0645 116.5962 115.8187 115.5644 114.7798 114.0189 113.2417 112.3915 111.4398 110.3851 109.1755 107.7859 106.1089 104.0277 101.3422 97.4209 89.7312 84.8870 85.5299 91.7935 98.4617 102.0144 104.5497 106.5131 108.1147 109.4599 110.6469 111.7036 112.5844 113.4272 114.1814 114.8853 115.5281 116.1317 116.6991 117.2271 117.7249 118.2082 118.3471 119.1526 119.2600
110.2000 110.9308 111.6147 110.9429 111.5905 110.9823 111.0962 110.5056 103.4222 105.4082 112.2777 121.0185 116.4366 123.0550 119.8464 120.4101 120.0322 119.7754 119.3673 118.9569 119.7698 118.0682 117.6481 117.1068 116.5811 116.0692 115.3786 114.7365 114.0245 113.2536 112.4028 111.4589 110.4028 109.2026 107.8121 106.1605 104.1147 101.4537 97.7444 90.7966 85.8038 86.4017 92.5578 98.7143 102.1489 104.6282 106.5674 108.1566 109.4943 110.4426 111.3965 112.6462 113.4381 114.1882 114.8910 115.5413 116.1379 116.7024 117.2313 117.7342 118.2044 118.6930 119.0322 119.2600
110.2300 112.9237 111.7616 111.0641 110.7943 110.4547 109.5956 108.2136 107.2026 110.0243 123.1592 123.4187 109.7292 122.3584 117.2400 120.8979 120.1600 119.7916 119.3928 119.0232 118.4612 118.2169 117.7124 117.1559 116.6069 116.0449 115.4504 114.7935 114.0920 113.3344 112.4951 111.5810 110.5582 109.3991 108.0697 106.5222 104.6682 102.3670 99.3982 94.7553 91.2770 91.8183 96.4383 100.1361 102.9473 105.1200 106.8993 108.3931 109.8426 110.2328 114.2252 112.3723 113.5176 114.2707 114.9604 115.5843 116.1851 116.7425 117.2601 117.7570 118.2252 118.6653 119.1034 119.2600
112.5000 113.3420 110.1881 113.4975 112.0679 112.3236 110.8492 105.2686 103.1645 108.4457 118.6841 120.4062 123.7139 121.2806 121.3613 120.5285 120.1960 119.8571 119.4760 119.0448 118.6507 117.9015 117.5072 117.2518 116.6926 116.1278 115.5335 114.9042 114.2188 113.4760 112.6754 111.7876 110.8143 109.7345 108.5169 107.1260 105.5271 103.6841 101.6306 99.3548 97.7658 98.0143 99.9108 102.0757 104.1296 105.9184 107.4588 108.8068 109.9099 109.9316 119.7805 113.9595 113.5642 114.3241 114.9849 115.6766 116.2641 116.8059 117.3279 117.8137 118.2759 118.7241 119.1323 119.2800
113.3600 111.0810 108.8381 113.3985 110.0807 111.1800 111.0955 108.8199 101.4956 99.7291 113.7003 117.7665 122.0973 121.2627 120.8449 120.5852 120.2771 119.7387 119.3667 119.1406 118.5207 119.2405 117.7403 117.1160 116.7801 116.2450 115.6710 115.0492 114.3941 113.6788 112.9230 112.0982 111.1953 110.1930 109.0924 107.8918 106.5646 105.1444 103.6986 102.3315 101.5448 101.6540 102.6341 104.0148 105.4803 106.8786 108.1712 109.4676 109.8995 114.4342 108.4005 99.7167 114.8527 114.7901 115.4751 115.7981 116.3716 116.9097 117.4170 117.8670 118.3471 118.7816 119.2004 119.5800
108.8000 108.6420 111.2354 109.8000 114.1092 107.4849 106.6884 104.5984 102.5414 109.2941 124.8937 114.1827 122.1253 121.3265 121.0359 120.7400 120.1229 121.2225 119.5567 118.9177 119.9818 100.7589 118.6883 117.9973 116.8127 116.3653 115.8471 115.2370 114.6156 113.9366 113.2208 112.4122 111.5873 110.7247 109.7531 108.7314 107.6581 106.5655 105.5197 104.6741 104.1975 104.2621 104.8359 105.7512 106.8089 107.9105 108.9710 110.0129 110.6978 107.3748 97.7175 98.6224 114.8222 114.4596 113.4814 115.9800 116.5312 117.0302 117.5266 117.9901 118.4378 118.8675 119.2829 119.6000
113.3600 111.4453 110.1894 110.9590 110.7589 108.8564 104.7712 107.0256 104.1488 109.8829 122.4410 121.9443 122.1627 121.2327 120.9330 120.4633 121.1983 121.1676 119.6491 119.0436 118.7966 116.9673 107.6955 117.0984 117.0803 116.7358 116.0033 115.4685 114.8660 114.2416 113.5404 113.0599 112.3519 111.2657 110.4702 109.6003 108.7299 107.8877 107.1146 106.5355 106.2293 106.2742 106.6529 107.2807 108.0762 108.9303 109.8114 110.6475 111.5709 113.0364 112.0410 112.6053 114.4465 115.0628 115.4702 116.1304 116.6989 117.1863 117.6652 118.1268 118.5498 118.9633 119.3552 119.6300
111.0600 108.3550 109.5987 111.8026 110.8148 110.2034 108.7659 104.1314 103.5774 103.6144 118.6200 98.1125 122.7987 120.7544 121.1545 122.2077 103.6012 123.3042 118.2670 119.5020 119.3374 118.9396 115.1909 118.1848 117.2733 116.6018 116.3239 115.7349 115.1584 114.5609 114.1198 110.9482 111.1729 111.9429 111.2182 110.4745 109.7587 109.0903 108.5174 108.0918 107.8750 107.9023 108.1790 108.6369 109.2334 109.9177 110.6358 111.3588 112.0778 112.7800 113.3855 114.0739 114.6670 115.2840 115.8343 116.3781 116.8865 117.3627 117.8000 118.2628 118.6855 119.0885 119.4396 119.6700
110.9200 111.3248 110.9480 110.9856 109.9432 109.6108 106.5718 102.9261 102.0169 113.5588 113.0809 113.7044 122.7142 107.5088 124.1348 101.1049 123.4924 120.1631 122.6432 99.3384 121.3157 118.7841 117.9596 116.3849 115.4650 110.0384 117.2079 115.9489 115.4626 115.0327 113.5914 113.9462 113.3957 112.5281 111.9331 111.1886 110.6819 110.1856 109.7385 109.4245 109.2594 109.2832 109.4822 109.8330 110.2984 110.8500 111.4426 112.0556 112.6847 113.3516 113.8949 114.4983 115.0555 115.5889 116.1208 116.6215 117.1081 117.6122 117.9596 119.0581 118.8292 119.3791 120.2312 119.7100
113.4700 110.0277 109.6843 110.2152 109.9014 106.3676 104.8418 101.5202 100.8541 107.5238 110.4140 109.5628 124.3460 123.9466 114.0916 119.7121 119.9747 119.7335 116.2751 117.1053 117.8942 110.5973 102.0094 96.7548 119.1369 117.0792 116.7084 116.3325 115.6451 115.4323 105.3614 114.7752 113.5397 113.1758 112.8236 112.3677 111.5788 111.1927 110.8323 110.5837 110.4612 110.4787 110.6301 110.9026 111.2699 111.7215 112.2062 112.7423 113.3397 113.7951 114.3651 114.8955 115.4187 115.9218 116.4045 116.9438 117.2874 117.5660 118.1865 118.5720 118.6430 120.0150 115.6915 120.0100
115.8500 111.3665 110.3669 108.2429 107.5466 103.2379 111.9382 103.5235 102.1229 119.0377 122.0722 102.1115 118.0446 117.3510 103.6084 97.6000 117.5312 106.7435 105.0003 100.7112 119.4278 119.8901 102.7904 115.0550 117.7979 117.6185 117.0167 116.6304 116.1350 116.3498 115.6917 114.9206 114.2591 113.7578 111.8778 112.0924 112.5680 112.0481 111.7959 111.6057 111.4989 111.5176 111.6450 111.8642 112.1643 112.5347 112.9544 113.4025 113.8598 114.3517 114.8409 115.3221 115.7929 116.2635 116.6924 117.0996 117.6624 119.9812 119.5388 118.7020 118.2665 120.1616 95.8950 99.5500
115.3200 113.3386 112.7737 109.0288 109.0876 107.3109 104.8150 105.5514 102.9116 103.4677 109.4776 105.2724 109.3478 107.7885 122.0903 106.3383 106.3709 104.1381 120.5373 107.9036 111.8814 102.8842 118.8695 118.9064 117.7810 117.7552 117.3219 116.5630 116.3499 115.8731 115.4935 114.9033 114.8167 113.0184 107.8226 116.2310 112.5724 112.9816 112.6935 112.5352 112.5111 112.5054 112.5464 112.7309 112.9814 113.2936 113.6465 114.0403 114.4465 114.8734 115.3113 115.7506 116.1752 116.6156 117.0173 117.3499 117.1982 109.8289 114.1462 119.0139 119.3629 119.4369 107.0218 124.0300
109.4900 109.8701 108.8348 109.8992 111.3854 109.9790 105.9438 101.9289 106.7420 108.9791 107.1614 104.0888 123.3285 114.4933 121.6809 123.8698 117.8717 110.8604 112.2526 112.4664 108.5957 124.0217 118.6588 120.1936 119.3400 118.3137 117.5728 117.7513 113.8253 116.8117 116.0768 115.6820 115.2331 114.2902 116.8249 115.9014 114.7946 113.8304 113.4827 113.3553 113.0490 113.1131 113.3971 113.5297 113.7413 114.0066 114.3040 114.6495 115.0095 115.3857 115.7751 116.1707 116.5641 116.9633 117.3559 117.8828 118.2681 118.4311 111.3401 119.4699 119.5379 120.4413 121.9150 124.0300
113.8400 111.0341 112.5068 111.1219 107.3897 111.7496 109.5743 114.4559 107.7397 102.7843 106.5430 107.1529 112.6996 104.1018 122.6339 120.6032 121.5176 123.8829 122.7336 120.1823 120.8472 120.0064 110.7370 117.6947 118.3705 115.4331 118.2863 116.1876 113.5691 116.8816 116.4067 116.1623 115.2861 115.7785 105.5324 118.3280 113.6557 112.9453 114.7093 114.1088 117.4527 116.9838 113.8934 114.2924 114.4458 114.6708 114.9310 115.2253 115.5424 115.8606 116.2362 116.5968 116.9600 117.3156 117.6759 118.0189 118.4126 119.2865 120.4308 119.2113 119.7107 119.4199 119.3287 123.2000
111.4200 114.7994 106.9385 108.5007 113.6145 114.1684 114.1677 108.5396 103.9785 101.4639 111.1721 108.8595 118.2989 114.8277 121.6940 121.6293 121.6761 110.7727 115.8945 120.6385 119.3563 119.6455 111.5583 118.3321 118.7267 115.2227 118.2189 118.6443 119.3451 117.0220 117.0090 116.6453 116.1453 118.3273 100.2460 103.1027 101.0507 115.6800 114.5743 114.7472 114.7611 114.7381 114.7221 114.9571 115.1016 115.2956 115.5185 115.7863 116.0640 116.3646 116.6810 117.0081 117.3402 117.6731 118.0085 118.3418 118.6588 118.8513 119.1413 119.6431 120.0790 120.0506 119.8293 101.0900
103.0800 106.0258 102.2213 109.1691 115.2072 106.8787 114.6556 103.7985 107.3195 105.9203 103.0330 105.6094 123.6217 124.3889 122.5655 121.7649 121.6446 116.2800 118.4101 119.6284 120.6262 121.6403 115.4722 112.5761 119.4468 118.7678 119.6328 110.7947 114.3655 118.1511 117.3014 117.1078 116.9354 119.3230 102.0303 116.6573 97.9295 116.7332 115.1529 115.5361 115.4911 115.4828 115.5297 115.5813 115.7088 115.8779 116.0784 116.3105 116.5657 116.8297 117.1234 117.4159 117.7257 118.0282 118.3372 118.6513 118.9683 119.2531 119.7485 119.6015 119.7996 120.2438 121.5602 122.5300
104.8400 102.6583 106.8462 102.7885 109.1763 108.7421 114.4101 113.1664 104.3924 123.0470 122.1172 120.9348 105.4503 110.3860 121.5196 121.8278 121.7013 121.2456 122.0075 123.0660 111.9109 103.0709 105.6227 110.7498 119.7008 121.0572 108.9730 114.3975 116.7794 117.9963 117.6967 117.4824 117.3021 117.9092 104.9660 118.4354 102.3903 116.5944 116.1082 115.8413 116.0128 116.0271 116.0722 116.1604 116.2867 116.4317 116.6189 116.8143 117.0442 117.2892 117.5450 117.8158 118.0867 118.3775 118.6682 118.9462 119.2807 119.4071 119.7639 114.0868 119.6010 124.5007 104.7658 105.1200
103.2800 108.2362 104.3778 119.7459 124.0356 120.0605 116.7670 106.7221 126.4319 107.0672 107.8997 103.2554 114.1495 121.9626 122.4001 122.0849 121.8579 121.3302 123.3732 102.6771 98.8365 96.0990 110.3331 119.4467 119.2632 120.5917 97.3997 121.3492 119.8252 118.3575 118.1777 117.8963 117.7039 117.3226 118.8194 117.2147 117.8225 116.4908 114.4341 117.5900 116.4141 116.6190 116.6483 116.7086 116.8235 116.9565 117.1175 117.2954 117.5056 117.7216 117.9567 118.1985 118.4635 118.7151 119.0098 119.2171 119.5862 119.7938 119.9516 121.5695 98.3357 118.3065 102.9284 118.6300
117.4700 122.7042 123.2088 122.3173 123.7294 124.4716 125.9777 110.3077 110.1239 117.8806 101.7239 101.7252 130.8309 123.3268 122.5401 122.2027 122.1034 121.7085 120.8256 96.3859 110.7495 102.8287 119.1072 120.0212 120.7181 113.6673 105.0053 122.2839 118.3678 118.7790 118.6103 118.2825 118.0997 117.9503 117.5502 117.4479 117.2895 117.4358 113.6362 116.1975 116.8804 117.1516 117.1738 117.3824 117.3161 117.4549 117.5966 117.7593 117.9465 118.1394 118.3550 118.5821 118.8292 118.9990 119.1335 119.9373 119.8474 120.0601 120.3502 120.0944 122.4489 104.4664 100.3135 117.3000
125.3600 120.6840 125.4715 125.2113 124.7560 124.6691 124.1681 119.8200 104.3048 100.7897 102.6322 101.8573 120.9712 120.2013 120.5503 122.6858 121.0951 119.5047 110.6463 125.0653 122.2347 120.8738 121.4666 120.5602 119.8538 122.5049 116.2441 121.6229 119.2707 119.3169 118.8747 118.7650 118.4994 118.3182 118.1835 118.0162 118.2551 110.6252 104.3526 116.6444 117.3221 117.6957 117.6880 117.7401 117.8065 117.9271 118.0513 118.1981 118.3681 118.5492 118.7412 118.9544 119.1796 119.3058 118.6364 114.7284 120.2772 120.3143 120.5620 120.9955 121.1783 121.7597 117.5681 117.3800
125.5000 125.6469 125.1970 125.0383 124.8278 124.6536 122.2209 125.0885 118.5183 105.6154 110.5710 108.8579 123.1402 120.1425 105.6221 124.5301 109.3480 112.6156 122.6138 121.5168 121.0882 120.7803 121.0124 120.7726 120.5420 120.9225 103.4278 118.7055 116.5486 116.9805 119.5798 118.9939 118.9029 118.7423 118.5870 118.4865 118.8558 117.6048 107.5272 118.8230 118.1279 118.1515 118.1503 118.1975 118.2815 118.3743 118.4882 118.6183 118.7780 118.9382 119.1174 119.3121 119.5102 119.7130 119.8880 120.9780 120.3388 120.6342 120.7638 121.3263 120.0769 118.5500 109.9316 107.8900
131.4700 125.2789 125.3721 125.1520 124.7751 126.1074 114.6389 123.2882 107.7655 127.6189 125.3130 125.8460 105.4818 108.4811 111.6386 102.5310 105.2987 123.2267 120.7504 121.9892 121.7790 121.5514 121.2710 121.0197 120.6853 121.1450 111.8260 104.7849 103.6450 112.2801 119.2163 119.4680 119.2841 119.1311 119.0050 118.8943 118.5168 116.2016 107.6559 118.7642 118.7038 118.5585 118.5988 118.6410 118.7131 118.8000 118.9078 119.0223 119.1642 119.3142 119.4812 119.6587 119.8464 120.0383 120.2506 120.4439 120.6643 120.8695 121.2212 119.7642 114.8257 124.1322 106.0638 111.6700
131.4700 124.9500 125.4400 125.1700 125.0300 124.9000 124.6100 124.4700 124.3200 124.0400 123.8700 123.7200 123.5600 123.2400 106.1400 105.5500 101.8800 118.4100 122.2400 122.0400 121.8500 121.6600 121.4900 121.2800 120.9000 120.9000 120.6800 98.2400 120.8800 120.8800 119.8800 119.6400 119.6800 119.4500 119.2000 119.2600 118.9700 119.0100 119.0400 118.6900 118.7000 118.7000 118.6900 119.0400 119.0100 118.9700 119.2500 119.2000 119.4500 119.6700 119.6700 119.8800 120.0700 120.2700 120.4900 120.6800 120.9200 121.0800 121.2500 118.4000 114.2300 101.3400 112.7500 111.6700
