119.2300 124.1000 116.8800 124.3400 124.0500 117.8000 117.6100 116.5000 115.1200 114.3300 101.8200 101.6600 115.1500 114.7900 117.6600 113.4900 116.8900 110.5900 105.1600 110.6700 108.0700 109.0100 108.6600 116.3200 100.3700 110.7100 107.6800 106.6400 102.2400 98.9300 96.7100 101.1200 96.1700 111.4500 111.4500 117.3100 117.3100 117.0100 117.1100 116.7600 116.8200 116.4000 113.9200 116.4600 116.4600 116.4200 116.3900 116.7900 116.7300 117.0800 117.0200 117.3800 117.6600 107.6100 111.4600 118.1700 118.7800 118.7100 119.2500 119.5400 117.4500 119.9600 120.2100 120.4700
119.2300 121.2071 120.0327 122.7825 119.5235 116.9128 117.0650 116.7985 115.9217 115.0962 111.3031 103.8785 99.8533 114.4559 117.0631 114.6307 116.6385 110.3086 114.9143 110.7093 107.2717 107.7381 109.6688 113.9300 109.2726 105.3944 101.8018 104.2958 103.7625 98.5584 98.4925 101.9846 97.1791 104.8641 104.2572 115.8067 96.4192 105.2963 118.1474 116.3447 116.6875 116.1386 115.5403 116.1056 116.0597 116.1025 116.1866 116.3028 116.4654 116.5829 116.9944 115.4019 114.7942 115.2965 114.8562 118.0666 118.5069 117.9376 118.9488 119.4330 118.9810 119.7818 120.1333 120.4200
117.8400 124.6493 126.3514 121.2706 117.5271 119.8990 117.0267 116.3332 116.1484 115.8055 116.5843 116.3681 121.1458 113.6125 115.4731 114.4621 116.0561 110.0391 104.3584 104.0495 109.5367 110.7616 101.7281 107.6668 108.1640 102.4704 101.9300 105.2884 101.7659 105.8341 104.3698 105.8740 109.8980 104.8576 99.5100 102.6420 106.4257 101.0817 117.9996 116.3920 115.6635 115.5619 115.5375 115.4693 115.4533 115.5003 115.5997 115.7414 115.8879 116.2364 115.8881 116.5046 117.9611 109.9616 116.2508 117.5233 117.4986 118.2667 118.7010 118.9403 119.6307 119.6338 119.8841 120.0100
124.3500 122.5904 122.0738 119.9524 117.5939 128.0384 116.3073 116.7721 117.5173 115.8218 114.9592 115.9257 116.0446 112.7719 117.0250 112.5457 112.3718 110.2237 104.4393 109.3632 101.6414 105.8057 105.8955 102.2566 107.6131 102.4482 104.3685 113.8024 103.2664 104.2124 102.9608 110.2265 111.6230 99.4616 105.3559 114.5042 107.6728 110.3708 115.7377 107.6654 115.7891 114.8952 114.8207 114.7855 114.7982 114.8603 114.9672 115.1231 115.3959 114.7708 116.9787 119.7644 105.2851 116.1770 117.0675 117.8003 117.6419 118.7598 118.2279 118.6786 119.0049 119.3247 119.6563 120.0100
118.1400 118.2626 121.8192 121.5046 122.0685 119.1485 115.3408 117.8301 121.3945 115.9710 116.2782 115.6116 115.2284 113.4908 113.6609 112.3317 107.9755 108.3213 110.3144 109.3921 107.4539 110.1458 109.5173 104.0560 111.3508 112.1511 104.5599 106.2288 100.3054 114.1269 104.2780 115.6091 112.1468 109.6478 113.9044 107.1984 114.1705 116.5149 116.1577 111.9564 115.2158 114.2204 114.1304 114.0855 114.0967 114.1592 114.2858 114.5124 114.6451 114.5810 114.8527 101.9898 110.9591 117.0197 116.5785 116.1216 107.2604 118.1926 117.7622 118.4889 118.7491 119.1140 119.4368 119.6000
117.7600 117.3687 118.3980 120.2749 113.1776 104.9037 121.9141 115.2871 117.8707 116.9613 116.7075 119.6033 103.0543 113.8162 114.3133 113.9217 111.6858 113.1164 110.3422 111.1294 108.5545 108.1224 112.4844 105.6660 104.0392 108.5304 100.0655 106.5028 94.6526 114.2884 115.7788 117.1852 116.8830 117.2700 113.9426 118.2419 114.6230 114.3908 114.0890 114.3537 113.5630 113.4680 113.3739 113.3122 113.3251 113.4100 113.5547 113.8528 113.8777 109.4272 93.2804 102.7052 115.1520 115.8033 115.8978 116.0942 106.0924 111.3182 118.5536 118.1203 118.4942 118.8349 119.2220 119.5200
118.9200 119.0684 122.6719 121.4569 119.2727 122.3572 120.2724 118.8521 116.7696 115.7542 108.4643 114.1872 99.8034 100.7392 110.2432 110.4299 108.3688 112.9058 106.1426 109.2053 110.7661 112.0266 107.6699 107.4776 104.3432 103.0234 105.8841 112.4342 114.8211 117.6411 117.0759 116.2637 116.3069 117.5747 112.4338 116.0840 114.1338 113.9632 113.5679 113.1579 112.9577 112.7167 112.5386 112.4730 112.4802 112.5864 112.7642 112.9213 114.3266 110.8080 91.9925 110.6501 114.9169 115.1650 116.8576 108.6692 112.2671 113.1267 117.7441 117.7691 118.2493 118.6633 118.8222 118.7400
119.4500 120.6486 123.2709 121.0280 121.8280 123.1059 115.7455 122.1693 115.2312 113.8172 112.9654 113.2862 105.8767 100.5585 102.5740 108.7241 108.3155 112.6895 108.7512 112.4038 110.9391 109.7061 107.5957 104.4497 103.8604 102.1486 101.9687 102.0042 119.3285 116.6671 116.6116 117.7655 106.2367 109.2831 114.8424 114.2363 113.7611 113.2877 112.8443 112.4574 112.0878 111.8159 111.6248 111.5388 111.5532 111.6783 111.8924 112.2341 111.1322 110.9804 112.9390 114.0710 114.3365 114.7973 115.9935 116.3646 116.6947 116.4270 117.2867 117.6059 118.0380 118.3246 119.4012 119.1000
119.1500 119.5774 120.9577 122.0579 122.1727 117.5585 115.4370 119.3605 115.1131 114.0899 114.6546 98.7324 109.8498 117.3665 117.1959 114.2088 111.0468 107.6767 110.0025 104.5683 112.7365 107.8706 106.1068 107.8866 113.9954 119.2829 102.5280 95.8394 115.2161 115.9131 116.1317 117.0937 97.9872 113.1600 114.0397 113.4940 113.1793 112.6030 112.0974 111.6054 111.1879 110.8417 110.6012 110.4918 110.5100 110.6638 110.9362 111.2623 111.9227 114.6465 108.3654 109.8675 114.0388 114.3645 113.2302 115.4814 115.7386 116.4322 116.8710 117.2979 117.8949 121.0984 125.8692 122.4200
118.8800 119.0640 119.8072 121.2028 121.4257 121.6727 115.1773 114.5459 115.2326 114.5753 114.0237 103.7558 98.3995 99.5284 105.8954 114.8024 113.6292 117.6114 110.6061 108.7901 112.5150 108.5591 110.8616 105.9575 122.5188 103.2853 111.5495 113.6778 121.5066 113.5379 115.8604 115.7348 115.1041 116.1937 114.4927 113.0919 112.5467 111.9037 111.3003 110.7134 110.1864 109.7536 109.4464 109.2968 109.3272 109.5307 109.8888 110.2613 111.1249 111.5939 110.4755 112.1671 113.2334 114.7263 110.5294 114.8505 115.5244 116.1925 116.6419 117.1145 117.6943 116.9438 111.6421 102.2300
119.1300 118.9750 119.2908 120.7723 122.8036 115.1571 115.3820 115.0723 115.7846 116.3331 114.6391 123.7755 108.1170 108.5736 115.0720 110.1848 112.2612 113.4727 106.9789 106.0968 103.9177 107.6019 106.6617 107.6223 120.5366 120.5690 109.9484 113.5767 117.0121 116.6375 115.7318 115.9034 115.2436 113.6447 113.1779 112.5827 111.8949 111.1822 110.4529 109.7469 109.0875 108.5245 108.1247 107.9156 107.9597 108.2248 108.6957 109.2626 109.8723 110.7456 111.3285 112.2758 112.8821 113.3040 114.9544 114.8329 115.3211 115.8675 116.3928 116.9045 117.4732 116.6148 117.9714 118.6200
120.0300 121.7648 118.8258 119.0698 120.3645 116.8854 115.4476 114.3306 113.5930 117.2226 115.9790 120.6412 119.7097 121.8797 114.2866 112.5680 111.4701 112.8847 105.6567 102.9463 112.4854 107.5834 107.5314 108.3897 113.8743 111.7937 119.3370 117.3371 116.6339 116.1471 115.5623 112.6871 113.5290 113.3359 113.1733 112.1017 111.2777 110.4529 109.5824 108.7145 107.8777 107.1349 106.5621 106.2774 106.3355 106.7175 107.3459 108.1313 108.9791 109.8622 110.6843 111.4922 112.3128 112.9781 113.6623 114.1727 114.8250 115.6570 116.1817 116.7225 117.1809 117.6149 119.0744 102.1500
125.3400 123.3440 118.8633 118.1805 118.3208 118.7694 119.6478 117.9608 118.8203 124.0250 114.2768 120.3739 111.2683 115.2638 111.8817 111.1185 109.7496 110.2406 101.9829 103.2942 106.4240 109.3094 104.5455 106.2251 121.6556 111.0346 118.2265 116.6734 116.3109 115.7204 114.7380 112.0773 109.7414 110.8096 112.3580 111.5717 110.7056 109.7317 108.7060 107.6316 106.5459 105.5211 104.7013 104.2550 104.3466 104.9257 105.8260 106.8807 107.9715 109.0261 110.0410 110.9797 111.8576 112.6041 113.3522 113.8799 115.0516 115.4454 115.9823 116.5458 117.0331 117.5437 119.7818 116.1900
108.6300 121.5470 119.6594 121.1318 116.6740 116.7273 117.0788 112.9199 119.8595 113.4733 116.3930 116.0164 115.9051 114.6863 111.7560 112.8136 100.6083 101.4975 99.3521 96.8915 109.2823 98.3927 109.8039 111.6499 118.8132 113.9000 117.8248 116.7801 116.2624 115.5816 116.3070 115.8049 115.0999 110.9305 111.6839 111.1100 110.1573 109.0611 107.8541 106.5350 105.1043 103.6551 102.3420 101.6146 101.7647 102.7304 104.1154 105.5498 106.9466 108.2388 109.4020 110.4732 111.4393 112.2891 113.3737 115.0262 114.5785 115.2500 115.8313 116.3882 116.9439 116.9832 121.6988 126.2100
119.9800 120.9770 119.5566 122.8545 122.3250 119.9927 117.2972 112.5352 105.0124 100.1062 106.5203 106.1201 107.9750 107.7869 108.0852 107.6649 101.5725 97.9051 99.4697 102.6090 112.6000 103.9230 107.7238 124.0488 119.5322 118.2761 117.4130 116.6686 116.1516 115.7098 106.3784 99.8051 115.9446 112.0604 111.8601 110.7756 109.6926 108.4728 107.0747 105.4794 103.6480 101.5254 99.4192 97.8352 98.1853 100.0452 102.1961 104.2298 106.0002 107.5334 108.8699 110.0464 111.1068 112.0703 110.7503 113.7704 114.3015 115.0802 115.6990 116.2778 116.8188 118.8826 119.4946 114.8600
125.1600 125.1774 123.9864 120.5084 118.0715 112.5488 102.0509 117.1470 111.6403 112.6633 102.6003 100.8201 101.7543 105.0614 105.9355 107.0086 104.9488 104.2233 104.8984 104.8565 100.9872 100.3049 103.0416 120.5930 101.2828 119.0959 117.0141 116.5757 116.0059 115.2228 117.3124 111.1619 112.8835 112.4028 111.5013 110.5114 109.3490 108.0253 106.4633 104.5927 102.2834 99.3080 95.1463 91.3216 92.0613 96.7044 100.2871 103.0484 105.2135 106.9721 108.4553 109.7302 110.8549 111.8996 111.9624 113.6174 114.2970 114.9808 115.6118 116.2117 116.7583 116.6420 120.7348 112.6400
125.1600 125.1001 124.9150 124.5466 117.2876 117.4975 115.7428 114.3855 122.4420 115.3513 121.2747 98.8417 112.6111 100.8043 114.2714 99.9577 99.2782 98.2994 111.0470 98.2335 117.6123 106.2373 118.8095 118.7511 117.6024 118.7451 117.1769 116.5907 115.9837 115.3827 114.8775 114.5386 113.1816 112.3637 111.4170 110.3638 109.1503 107.7516 106.0901 104.0295 101.3374 97.6666 90.4426 86.1661 86.7660 92.8996 98.8948 102.2768 104.7216 106.6395 108.2195 109.5500 110.7096 111.7355 112.6991 113.4605 114.2260 114.9180 115.5669 116.1629 116.7382 117.0610 117.8723 118.0600
125.1600 125.0676 124.8571 124.6198 124.4354 116.7605 117.4195 114.0904 122.4098 121.5727 119.7344 99.3459 101.4001 100.4388 120.1547 112.0304 108.5733 97.0669 109.5605 98.0786 103.6487 110.0972 118.8220 110.3145 102.5282 116.6342 116.1402 116.3892 115.9910 115.3710 114.6832 113.9983 113.1914 112.3497 111.4042 110.3302 109.1227 107.7092 106.0244 103.9312 101.1693 97.2513 89.4593 84.8349 85.5049 92.1138 98.6108 102.1372 104.6352 106.5843 108.1712 109.5197 110.6792 111.7121 112.6257 113.4543 114.2142 114.9066 115.5562 116.1579 116.7130 117.2569 117.7509 118.0600
125.1600 125.0693 124.8630 124.6004 124.3862 122.8168 134.0152 112.0522 123.4540 121.7484 113.2285 117.4454 108.4324 119.9609 109.2419 110.4530 109.1205 113.8582 111.5311 129.6336 124.4191 119.0955 119.1911 119.6270 118.6581 117.6342 117.1838 116.5857 115.9880 115.3857 114.7217 114.0148 113.2548 112.4192 111.4866 110.4448 109.2526 107.8961 106.2780 104.3285 101.8396 98.4850 93.5077 88.9312 89.7452 95.1046 99.6249 102.6748 104.9610 106.8132 108.3360 109.6433 110.7742 111.7890 112.6873 113.5061 114.2595 114.9478 115.5932 116.1835 116.7462 117.2662 117.7560 118.0600
125.1600 125.0849 124.8700 124.6954 124.3772 123.1096 132.2808 124.6692 122.6972 124.0249 116.5603 114.9580 104.8888 135.7318 104.9041 104.4043 106.0685 122.6871 116.5768 114.3131 119.0483 119.3271 118.8381 118.3257 117.9064 117.6158 117.1323 116.6176 116.2390 115.4864 114.8425 114.1400 113.3884 112.5604 111.6644 110.6662 109.5435 108.2775 106.8109 105.1039 103.0789 100.6348 97.8787 95.4910 96.0652 98.9118 101.4406 103.8950 105.7264 107.2956 108.6792 109.8924 110.9936 111.9574 112.8273 113.6291 114.3576 115.0396 115.6677 116.2518 116.7976 117.3267 117.8083 118.0700
125.3100 125.0912 124.8859 124.5958 124.3053 125.4308 122.9636 123.2228 122.8705 120.0161 131.7548 117.6882 124.5853 113.4501 121.9730 111.9628 113.4111 119.6489 119.1485 116.9370 120.1564 119.4499 119.1245 118.7118 118.2565 117.8094 117.2652 116.8268 114.5812 115.7035 114.9663 114.2870 113.5724 112.7852 111.9348 110.9962 109.9610 108.8105 107.5347 106.1110 104.5230 102.8621 101.2883 100.3206 100.5410 101.7380 103.4068 102.9724 106.4926 107.9206 109.1652 110.4893 111.2794 112.2053 113.0393 113.7989 114.5059 115.1652 115.7709 116.3495 116.8863 117.3986 117.7032 118.0900
125.3100 125.1296 124.8950 125.3486 124.5791 126.8004 123.9201 126.3022 125.2041 115.1010 128.8920 112.2967 119.2777 110.0243 109.6368 115.2006 109.7654 111.9784 116.3217 115.4982 120.2102 119.5701 119.1077 118.6863 118.2496 117.6348 117.3289 116.9018 114.0604 115.8339 115.1531 114.4936 113.8094 113.0676 112.2709 111.4079 110.4743 109.4625 108.3706 107.2038 105.9971 104.8243 103.8258 103.2869 103.3972 104.1100 105.1719 106.1881 107.7388 108.6538 109.7742 111.1450 111.6487 112.5307 113.3012 114.0268 114.7080 115.3310 115.9281 116.4807 117.0050 117.4772 118.6192 122.5900
125.3200 125.0950 125.1403 120.1953 124.7035 124.4743 124.7723 120.0233 111.8024 110.4197 105.1899 108.9767 110.2553 108.1638 111.2235 99.1686 108.0881 111.8457 116.8366 115.5475 120.2595 119.6174 119.2164 118.8757 118.5920 119.6865 117.2616 117.1169 116.4074 115.9070 115.3554 114.7411 114.0929 113.4007 112.6617 111.8809 111.0428 110.1674 109.2432 108.2886 107.3665 106.5174 105.8618 105.5227 105.5925 106.0396 106.7715 107.6481 108.5909 109.5415 110.4401 111.2811 112.1276 112.9016 113.6217 114.2992 114.9412 115.5401 116.1090 116.6435 117.1444 117.6288 118.4891 122.5900
125.3400 124.8336 125.3228 121.8030 124.3024 120.0461 121.2287 108.7026 113.1781 114.2759 114.4685 117.6851 117.1661 118.6380 105.6802 104.6987 103.4761 107.9730 111.4325 118.6413 120.1752 119.7041 119.3152 118.9415 119.0412 118.5556 118.6814 117.8412 116.4069 116.1467 115.6021 115.0165 114.4183 113.7752 113.0971 112.3928 111.6530 110.8933 110.1179 109.3464 108.6161 107.9919 107.5231 107.2913 107.3424 107.6505 108.1729 108.8399 109.5679 110.3635 111.1350 111.8956 112.6249 113.3130 113.9806 114.6113 115.2108 115.7789 116.3110 116.8274 117.3143 117.7810 118.1180 118.5500
111.8500 129.7768 119.2054 125.0625 125.9887 114.3667 113.8166 114.8883 118.8116 114.3895 115.8238 113.5430 107.5790 103.2611 105.0487 115.1388 112.4690 117.6596 106.9977 121.8696 120.1773 119.7954 119.4442 119.0962 118.4660 118.0989 113.5452 118.3033 116.5674 116.5179 115.8644 115.3246 114.7679 114.1792 113.5628 112.9296 112.2743 111.6236 110.9686 110.3416 109.7691 109.2798 108.9388 108.7669 108.8017 109.0265 109.4143 109.9351 110.5417 111.1739 111.8253 112.4788 113.1297 113.7626 114.3619 114.9451 115.5057 116.0373 116.5449 117.0382 117.5021 117.9489 118.3793 118.6000
119.0000 121.9963 101.0822 108.4157 120.7343 118.6640 114.8332 115.4808 124.1735 118.6924 114.8515 113.8977 114.5295 122.8877 105.0064 116.1074 128.3906 121.0446 115.9030 120.7704 120.2933 119.9370 119.5843 119.2138 118.8815 118.5019 115.7738 118.3850 117.0615 116.6544 116.1645 115.6602 115.1333 114.5973 114.0425 113.4752 112.9094 112.3330 111.7814 111.2628 110.7989 110.4232 110.1584 110.0272 110.0520 110.2254 110.5324 110.9348 111.4131 111.9532 112.5202 113.0851 113.6524 114.2137 114.7653 115.3008 115.8245 116.3241 116.7999 117.2609 117.7111 118.1335 118.5492 118.9500
125.3800 123.9009 122.9385 116.7645 123.9430 113.8171 115.3007 129.3891 119.8754 119.8006 114.1869 113.4688 110.4320 111.6300 117.5689 105.5323 123.8611 118.6999 121.1416 120.7336 120.4154 120.0793 119.7264 119.3682 118.9936 118.6147 117.7021 117.7348 117.3867 116.9241 116.4750 116.0032 115.5216 115.0282 114.5285 114.0053 113.4937 113.0063 112.5579 112.1265 111.7416 111.4342 111.2305 111.1332 111.1501 111.2840 111.5251 111.8575 112.2516 112.7034 113.1774 113.6784 114.1832 114.6869 115.1835 115.6699 116.1507 116.6183 117.0672 117.5010 117.9311 118.3399 118.7363 119.0200
125.3900 125.5954 125.2039 124.4493 126.0858 113.3796 119.1469 115.7548 120.2297 113.1226 112.0241 116.7086 113.4266 106.7154 108.2690 108.2138 110.6851 123.5925 120.6483 120.9230 120.5528 120.2249 119.8879 119.5375 119.1644 118.8132 119.1038 118.6059 117.6278 117.2133 116.7951 116.3549 115.9152 115.4649 114.9841 114.6068 114.0560 113.8000 113.2700 112.9166 112.6033 112.3542 112.1888 112.1054 112.1176 112.2311 112.4302 112.6991 113.0279 113.4116 113.8231 114.2522 114.7049 115.1516 115.6088 116.0648 116.4957 116.9248 117.3553 117.7626 118.1605 118.5559 118.9258 119.0700
125.5400 125.3851 125.2240 125.2252 118.4708 124.5124 125.2794 117.7509 116.9503 116.3492 114.3174 110.1220 123.4062 112.7853 113.4932 107.0164 111.5556 126.6967 119.3430 121.1219 120.7019 120.3823 120.0625 119.7172 119.3753 119.0187 118.6967 118.3665 117.9023 117.5158 117.1228 116.7200 116.3014 115.9538 115.3094 115.7827 113.3146 114.2645 113.9782 113.6634 113.3976 113.1918 113.0547 112.9873 112.9949 113.0886 113.2482 113.4779 113.7621 114.0810 114.4412 114.8200 115.2133 115.6169 116.0313 116.4392 116.9202 117.2785 117.5832 118.0387 118.4047 118.7741 119.1333 119.4300
125.5600 125.4103 125.2305 124.9567 125.1788 124.1675 123.7145 124.6121 127.7485 111.2481 114.4769 113.1325 109.4329 125.1857 99.6647 119.4077 104.9283 126.0769 121.8903 119.9544 120.9484 120.5059 120.1062 119.9348 119.5775 119.2456 118.9084 118.5599 118.1644 117.8242 117.4544 117.0808 116.6986 116.3994 115.4905 122.6670 115.6285 114.9468 114.6191 114.3611 114.1320 113.9520 113.8387 113.7850 113.7941 113.8709 114.0048 114.1969 114.4357 114.7187 115.0292 115.3592 115.7192 116.0822 116.4680 116.8225 116.7972 117.2644 117.9151 118.2899 118.6629 119.0175 119.3495 119.5000
125.5800 125.4928 125.3387 124.8703 122.4604 112.1813 117.0430 123.8066 116.7972 111.1157 114.2444 113.5777 111.0015 112.2838 106.1203 111.3426 116.3023 105.2838 123.0609 121.2698 121.0271 120.8158 121.8707 120.0067 119.7785 119.4845 119.0589 119.1383 118.4310 118.1584 117.7910 117.4460 117.1061 116.7568 116.4626 116.7166 115.5912 115.5241 115.2467 114.9956 114.8025 114.6589 114.5638 114.5174 114.5233 114.5862 114.6999 114.8715 115.0723 115.3152 115.5934 115.8900 116.2045 116.5340 116.8568 117.2872 116.7461 117.9029 115.3651 118.8019 118.9133 119.2497 119.5722 119.8300
125.7600 125.5385 125.2859 125.6201 115.4187 114.9844 114.4852 117.7974 120.5420 105.7231 109.6268 108.7241 102.0285 116.1988 115.2483 119.8269 123.8026 122.7087 121.5923 121.4725 121.2632 120.5049 124.6491 120.7394 120.2030 119.6033 119.7206 116.3464 119.2465 118.4235 118.1257 117.8079 117.4912 117.1896 116.8608 116.6766 116.3115 116.0130 115.7706 115.6457 115.5111 115.3161 115.2232 115.1817 115.1939 115.2512 115.3524 115.4950 115.6769 115.8807 116.1274 116.3895 116.6675 116.9753 117.2793 117.5826 117.9440 120.3429 112.7868 119.4660 119.1584 119.4900 119.8067 119.9100
125.7600 125.6252 125.3272 124.6911 118.4198 114.8767 116.6818 115.8917 119.0872 110.9338 105.6443 111.9822 108.2707 117.1065 127.8909 121.4110 118.5556 121.9044 121.7939 121.5977 121.3722 120.7657 120.5893 114.4500 120.7432 119.6959 119.6600 110.2743 119.0513 118.5968 118.4774 118.1667 117.8814 117.5966 117.3191 117.0591 116.4451 116.8896 116.7337 116.0754 115.8599 115.8869 115.8701 115.8235 115.8190 115.8729 115.9545 116.0790 116.2381 116.4229 116.6381 116.8764 117.1272 117.4040 117.6773 117.9644 117.9216 118.5143 119.4430 118.9935 119.5152 119.7382 120.0360 120.2300
125.7800 125.6957 125.3272 125.0472 115.9943 116.0842 118.5747 125.9979 114.2775 115.6031 113.6939 111.9521 106.8188 109.1283 120.5768 115.0632 109.2382 123.4614 122.1018 121.7635 121.4947 121.2875 121.1554 113.7130 120.1224 120.1661 119.9529 120.0371 119.7021 119.0714 118.7821 118.5194 118.2504 117.9864 117.7366 117.5158 117.2040 115.4272 108.9028 119.2091 116.5645 116.7674 116.3706 116.4007 116.4053 116.4483 116.5227 116.6354 116.7752 116.9397 117.1318 117.3405 117.5759 117.8158 118.0696 118.3386 118.6065 118.8719 119.0839 119.4382 119.7075 119.9970 120.2680 120.6200
125.8100 125.7454 125.8626 124.3409 118.9147 116.3191 117.3898 106.5318 110.6949 120.4616 114.0661 113.3680 109.0033 105.1202 107.0031 115.7457 115.3369 120.1037 122.4141 121.9218 121.6987 121.4930 121.1206 121.9503 120.4395 120.3799 119.9200 119.8656 119.4814 119.3727 119.1222 118.8646 118.6158 118.3778 118.1448 117.9499 117.6687 117.8919 116.5045 117.2300 115.6883 115.1936 116.8692 116.9633 116.9535 116.9847 117.0513 117.1555 117.2740 117.4252 117.5962 117.7921 118.0006 118.2176 118.4560 118.7008 118.9460 119.1972 119.4663 119.7372 119.9753 120.2462 120.5009 120.7100
125.9900 125.6909 124.3515 119.6088 116.5372 114.1026 123.0966 118.7537 116.8070 119.9052 117.3937 104.1660 117.3837 107.0395 113.8935 124.8369 123.1749 121.5218 122.4325 122.1115 121.8795 121.6390 121.3825 121.1065 120.9629 120.6686 120.8003 120.1919 119.9199 119.7062 119.4392 119.2042 118.9782 118.7558 118.5422 118.3640 118.0816 117.8724 117.8887 117.7058 112.2073 117.6961 117.2501 117.5697 117.4798 117.4967 117.5551 117.6478 117.7562 117.8899 118.0478 118.2162 118.4076 118.6103 118.8247 119.0440 119.2754 119.5325 119.7526 120.0019 120.2508 120.4943 120.7394 121.0000
126.0200 126.6743 121.0062 116.3690 121.6169 128.7672 122.7517 115.9341 113.1415 112.4479 112.6171 108.4402 109.2815 102.6554 124.0009 122.6106 122.8874 122.8152 122.5158 122.2983 122.0706 121.8384 121.6254 121.3167 121.5849 115.0935 117.6510 120.4047 120.2382 119.9767 119.7559 119.5409 119.3313 119.1270 118.9332 118.7384 118.5958 118.4490 118.3129 118.1145 118.7508 117.9916 117.1128 117.3466 117.8637 117.9634 118.0343 118.1161 118.2088 118.3375 118.4756 118.6290 118.8037 118.9883 119.1883 119.3953 119.6106 119.8298 120.0568 120.2818 120.5195 120.7497 120.9821 121.0700
119.9600 120.3476 117.5076 123.0292 131.8125 128.8538 113.8486 114.8201 119.6071 119.4076 119.7996 108.6516 121.1584 117.2422 126.5141 123.4043 123.0438 122.9070 122.6831 122.4780 122.2571 122.0360 121.8084 121.6166 121.4264 118.7015 108.5964 122.0331 120.2299 120.2983 120.0660 119.8687 119.6676 119.4826 119.3006 119.1343 118.9747 118.8380 118.7482 118.6551 118.4358 118.3585 117.2435 120.7866 119.2770 118.4669 118.4546 118.5554 118.6448 118.7558 118.8859 119.0277 119.1892 119.3583 119.5375 119.7272 119.9297 120.1337 120.3431 120.5645 120.7806 120.9976 121.2235 121.3800
126.2000 126.4275 121.2658 123.1649 104.4325 124.9531 115.3772 117.8830 118.0809 118.3546 101.9901 112.0887 126.0635 124.0845 123.4215 123.5625 123.2625 123.0622 122.8634 122.6571 122.4461 122.2295 122.0194 121.8427 121.3815 122.2886 119.3041 121.0338 120.6826 120.5929 120.3609 120.1862 119.9956 119.8234 119.6623 119.5038 119.3697 119.2377 119.0416 118.9715 119.0493 118.9639 119.7236 116.6772 121.3664 118.5267 118.9575 118.9734 119.0453 119.1554 119.2739 119.4065 119.5590 119.7150 119.8776 120.0562 120.2420 120.4362 120.6347 120.8343 121.0397 121.2461 121.4531 121.6500
126.2300 126.5622 117.9524 119.8923 123.3157 116.1324 115.7201 110.6289 102.8409 105.5659 119.2077 107.6823 121.4319 124.2100 123.7652 123.6109 123.4386 123.2337 123.0339 122.8375 122.6350 122.4308 122.2301 122.0136 121.8543 121.6001 121.1234 120.8324 121.2504 120.6719 120.6538 120.4937 120.3241 120.1630 120.0130 119.8686 119.6809 119.6134 120.3009 119.5540 119.4229 118.9491 116.0867 111.7553 109.8950 119.7747 119.3212 119.3750 119.5127 119.6033 119.6535 119.7741 119.9135 120.0589 120.2109 120.3763 120.5521 120.7325 120.9107 121.1052 121.2953 121.4981 121.6955 121.7300
126.2600 126.9066 121.1309 117.1545 116.8883 115.0740 101.3244 104.2855 109.2244 110.7579 115.0377 114.9963 125.3144 124.2278 123.9127 123.7875 123.5903 123.3956 123.2056 123.0173 122.8240 122.6566 122.4274 122.2421 122.0866 121.9444 123.3508 122.9005 121.1970 121.0763 120.9629 120.7978 120.6399 120.4868 120.3488 120.2140 120.0966 119.5807 118.3186 120.2295 118.7818 121.2703 108.0539 121.4440 121.5926 120.1345 119.7267 119.7514 119.7763 119.9751 120.0557 120.0787 120.2643 120.3940 120.5360 120.6915 120.8538 121.0147 121.1918 121.3711 121.5499 121.7409 121.9321 122.0100
126.4200 126.1446 123.6567 119.3058 113.9695 118.2962 105.4312 112.7850 103.7601 108.3837 106.8028 104.0136 122.7126 124.1316 124.1036 123.9273 123.7556 123.5675 123.3851 123.2012 123.0174 122.8271 122.9061 122.5150 122.3107 121.5396 125.2226 131.1200 121.1605 121.0913 121.2495 121.0907 120.9403 120.7913 120.6935 120.5929 120.3463 120.6191 120.1616 119.2500 110.0105 120.3107 118.5612 120.0072 119.6845 119.9086 120.0923 120.1265 120.0775 125.4091 120.4019 120.5268 120.5904 120.7185 120.8452 120.9910 121.1439 121.3040 121.4530 121.6393 121.7964 121.9848 122.1600 122.3400
126.6000 122.7932 121.7343 121.0774 111.1817 111.8563 114.7017 114.3730 104.6717 106.7623 108.3002 106.5594 121.8674 124.1398 124.4423 124.0858 123.8649 123.7426 123.5513 123.3828 123.1754 123.3677 121.6930 122.3036 122.3696 122.9336 114.8487 111.2389 122.5233 121.5452 121.5485 121.3929 121.2344 121.1481 120.8661 120.8581 120.7175 120.1004 118.0917 120.3813 120.2077 120.2657 120.0159 120.4674 120.4931 120.4441 120.4512 120.4638 120.6329 120.4730 120.3522 120.8161 120.9137 121.0288 121.1578 121.2895 121.4319 121.5535 121.7677 121.8742 122.0881 122.2363 122.6002 122.6100
126.6000 126.6786 124.8050 116.0120 116.8461 122.0235 118.5428 103.4114 104.4060 112.1441 105.5178 103.1436 124.3548 124.4362 124.3538 122.4300 124.3638 123.8903 123.7312 123.5728 123.3378 123.3699 118.9368 122.9609 122.8285 122.0613 122.5305 105.1035 120.9127 121.7890 121.6332 121.6960 121.6102 121.2361 123.3993 117.3074 121.5853 121.3395 125.3366 111.0393 114.0718 126.8056 119.9971 120.7835 120.7479 120.7742 120.7884 120.8436 120.8771 121.0042 121.1306 121.1339 121.2214 121.3320 121.4477 121.5754 121.7068 121.8965 121.8341 121.8850 122.9203 124.1293 122.4493 122.8500
126.7800 127.0432 122.7177 114.9151 114.9601 119.2546 115.6348 112.2510 110.9017 111.5168 102.5144 117.0983 123.6271 124.7394 124.5159 122.0808 124.4471 124.0256 123.9052 123.7359 123.6027 123.3906 123.7802 123.0899 122.9173 122.5235 123.1349 135.1982 123.4118 120.4465 122.6532 120.4324 121.3279 123.1741 109.5666 116.3521 122.0989 122.1399 114.3486 100.1017 123.2478 113.0798 122.3567 120.9422 121.0756 121.0996 121.2077 121.1882 121.2291 121.2754 121.3362 121.4352 121.5285 121.6426 121.7409 121.8601 121.9857 122.1179 120.3644 123.4740 124.7763 111.1566 122.8660 122.9000
126.8200 119.3554 120.7450 115.0627 114.4954 117.6322 120.3403 113.9703 112.0890 105.0197 106.2401 128.7245 123.2898 124.8748 124.8400 124.7009 124.4158 124.2585 124.0859 123.9209 123.7809 123.4481 123.4570 123.2109 123.1611 123.0278 122.5948 125.6010 114.2159 104.3434 121.5744 122.2820 122.1839 120.8928 107.8188 120.0437 113.6800 120.5112 112.3409 114.0221 123.9473 106.8970 123.1446 121.2692 121.3882 121.4292 120.9553 121.2398 121.5053 121.6035 121.6590 121.7349 121.7988 121.8663 121.9839 122.0339 122.3042 122.3931 122.9443 118.0252 122.8768 119.3281 122.5066 123.1100
117.3900 117.5499 117.6023 114.2758 114.4995 121.6040 116.9909 116.9790 106.3309 105.9964 102.0873 127.3708 123.6505 124.8467 124.9221 124.6364 124.5243 124.4069 124.2518 124.0983 123.9501 123.7970 124.0983 123.6226 123.3538 123.4813 122.8565 124.0309 108.7438 122.3545 119.4673 118.2523 123.6622 117.1585 104.9644 112.6275 112.9440 114.1196 122.2771 123.3626 122.5163 123.1436 121.6174 121.5024 121.6914 121.7127 122.9331 122.5737 121.8343 121.9006 121.9555 122.0173 122.2031 122.1139 124.5422 122.5081 122.5142 122.6216 122.6026 115.9467 125.4328 123.2931 121.5304 123.4300
114.5400 116.6228 115.8504 115.4116 113.6722 115.5451 116.4710 108.9442 104.7860 111.0238 119.1963 116.4159 127.0622 124.3745 125.0845 124.8610 124.7194 124.5735 124.4306 124.2821 124.1340 124.1280 121.6839 124.1418 123.5427 123.5376 123.2197 123.2900 123.7702 123.5505 114.9000 110.2260 123.0959 122.0284 106.9090 115.7168 121.3369 113.3401 108.5036 121.5178 121.7693 121.8523 122.1854 124.0890 122.3493 122.1593 121.5468 124.6882 122.1253 122.1918 122.2405 122.3009 122.3877 122.8293 122.9731 122.4134 122.7674 122.8600 122.7292 126.0048 122.9656 123.3335 123.7268 123.6300
118.7600 118.7326 116.8229 118.1190 114.3771 113.6502 106.7482 106.5308 115.3845 106.8307 114.7125 114.0719 122.0327 125.4186 125.1892 125.0286 124.8803 124.7318 124.5971 124.4570 124.3377 124.1211 124.1159 123.8618 123.7274 123.6401 123.5480 123.5594 123.2858 110.2568 115.4520 114.1433 123.6986 126.2261 123.8480 114.3450 123.9480 124.0720 123.1344 122.4831 122.3895 122.3987 124.5167 129.7474 124.9134 122.0945 122.4418 121.2087 122.4129 122.4752 122.5200 122.5805 122.6408 123.7904 124.0815 122.9841 123.0114 123.1080 123.1922 122.8743 123.5357 123.5794 123.6960 123.6800
127.1800 117.2188 118.0114 117.2342 112.7163 106.4774 111.3984 113.2305 112.1722 106.6501 107.5979 125.4699 126.5461 125.0380 125.5105 125.1409 124.9879 124.9057 124.7675 124.6347 124.5094 124.3754 124.2710 124.0956 124.0547 123.8047 123.5568 123.7035 124.6139 125.5477 113.8452 111.5040 123.2557 122.5727 122.9748 123.9510 122.7079 122.4716 122.5726 122.6811 122.6608 122.4215 121.4479 117.2641 122.1703 122.5306 122.5973 122.7934 122.6790 122.7326 122.7854 122.8368 122.9479 122.9267 122.9495 123.2190 123.2427 123.3469 123.4919 123.5599 123.6767 123.7932 123.9074 123.9300
115.7600 115.2016 115.3310 117.2643 110.6180 112.2956 112.2430 116.6480 108.4414 106.1570 104.1321 104.7825 119.2967 126.1530 125.5087 124.0568 125.3036 125.1279 124.9467 124.8173 124.6748 124.5714 124.4043 124.4180 124.5214 123.9618 125.0642 123.8769 124.3220 109.0416 116.6779 124.1963 123.3305 123.4365 123.2161 122.9916 123.0825 123.1251 123.0351 122.9537 122.9225 123.0175 118.0610 112.1215 123.8678 122.8375 122.8897 122.9220 122.9732 123.0139 123.0503 123.1083 123.1652 123.2474 123.3312 123.3858 123.4880 123.5843 123.6775 123.7866 123.8874 124.0026 124.1166 124.1600
127.3700 122.3157 115.8623 115.7697 111.7687 116.7356 104.5209 110.2975 104.7479 107.2301 123.1882 127.5776 126.3099 125.7108 121.8453 116.8188 125.9081 125.2478 123.5836 125.4539 125.4003 124.6738 125.0015 124.3168 124.1330 124.6031 113.2205 125.4979 111.8626 108.8976 112.9353 124.2100 123.5833 123.5014 123.4765 123.3986 123.4912 123.1589 123.1886 123.2130 123.1865 123.1419 124.7344 118.0205 123.2995 122.9660 123.1568 123.1935 123.2188 123.2557 123.3067 123.3573 123.4231 123.4826 123.5528 123.6402 123.7232 123.8077 123.8985 123.9976 124.1013 124.2045 124.3151 124.3500
118.1300 118.8905 117.0176 114.0735 117.5384 113.6802 105.1923 111.3342 108.0613 105.8147 120.6723 121.3942 126.3430 126.0309 126.0925 125.8778 125.9325 126.5745 117.6299 122.0988 123.7980 117.7273 125.7393 128.1585 124.2984 126.9568 110.7434 122.4174 102.8966 126.4451 125.2485 123.7437 123.8305 123.7821 123.5700 123.4551 122.4214 123.7962 123.6321 123.4359 123.4659 123.4087 123.6307 124.1820 123.7281 123.3385 123.4218 123.4461 123.4772 123.5161 123.5515 123.6076 123.6648 123.7268 123.7926 123.8650 123.9501 124.0295 124.1182 124.2138 124.3114 124.4124 124.5143 124.6100
118.1300 120.3640 122.4033 115.3787 116.4616 113.5810 112.8369 108.2708 116.1384 114.6031 129.1732 126.2388 126.5353 125.9308 126.6097 126.1336 125.4054 124.9102 109.4399 124.4998 118.7430 107.3150 122.5721 110.1365 105.7362 123.7932 125.7417 126.8448 103.8550 123.6904 124.2110 124.1277 124.0634 123.9869 123.8454 123.1731 123.6109 123.2859 123.3984 123.8885 123.1597 123.6498 123.5309 123.5821 123.5995 123.6399 123.6642 123.6900 123.7155 123.7538 123.7963 123.8379 123.8966 123.9553 124.0166 124.0929 124.1677 124.2504 124.3270 124.4220 124.5174 124.6074 124.7063 124.8300
118.2400 120.6896 119.7194 114.8751 112.8228 111.5241 110.4697 105.1447 126.3735 126.7120 126.5762 126.1552 126.3061 126.3037 120.0828 125.8215 125.9886 127.1835 131.2766 119.7223 127.1558 123.8372 125.7567 122.4356 106.2736 122.1146 124.6457 126.8293 118.3303 126.5290 124.3544 124.3549 124.2859 124.1418 125.2681 111.9876 123.1972 128.2290 124.9186 123.5023 120.9629 123.5199 123.7667 123.9098 123.8989 123.8951 123.9161 123.9337 123.9626 123.9914 124.0305 124.0790 124.1261 124.1834 124.2426 124.3137 124.3856 124.4590 124.5452 124.6213 124.7153 124.8090 124.9077 125.0300
117.9800 120.2205 115.2727 113.8620 114.7281 121.9834 123.0683 119.0467 123.7477 126.5546 126.5560 127.4269 126.3255 126.3579 126.5162 125.8654 126.9429 122.1695 111.1360 110.0253 129.0180 126.1876 126.6187 109.5241 124.7284 123.7546 125.2704 125.1626 125.1497 124.4675 124.7031 124.5628 124.5444 124.5595 124.0307 126.9417 107.2889 111.6257 124.9035 124.5970 115.0586 123.6071 123.7110 124.1641 124.1320 124.1320 124.1429 124.1562 124.1881 124.2133 124.2561 124.3007 124.3473 124.4102 124.4685 124.5271 124.5961 124.6754 124.7222 124.8243 124.9151 124.9970 125.1427 125.2300
115.0900 114.1324 115.1210 104.8938 116.3699 124.1533 128.4666 128.6609 126.6282 129.0122 108.5556 125.8094 128.4171 126.3224 126.3452 125.8045 125.9254 121.3505 119.8566 124.1557 127.9216 125.4666 114.2958 121.8218 128.9763 120.6270 121.1547 122.7089 127.2307 124.7544 124.8341 124.7777 124.7544 125.3263 107.1807 123.6237 109.4504 126.8685 123.8326 124.4174 125.0791 124.2845 124.3969 124.3475 124.3581 124.3620 124.3758 124.4201 124.4548 124.4500 124.4862 124.5240 124.5674 124.6244 124.6754 124.7363 124.8044 124.8660 125.0120 125.2751 125.1622 125.1998 125.2319 121.2600
115.5600 116.8975 116.9888 118.2971 126.1678 128.1744 127.3033 126.7928 127.0697 127.3392 122.4392 126.3571 107.2897 127.0501 126.1129 127.2264 122.2415 129.5484 125.8260 126.3389 125.4071 114.6055 116.1685 115.6841 116.4370 126.1834 125.3568 111.9506 123.2486 125.0916 125.0566 124.9762 124.9520 125.7515 125.9087 125.1690 112.8558 125.6499 124.2663 124.4541 124.3752 124.6221 124.5789 124.6470 124.5795 124.5908 124.6046 124.5298 124.5032 124.6066 124.7161 124.7376 124.7892 124.8313 124.8828 124.9399 125.0110 125.0407 125.2180 121.5759 125.4200 125.2819 125.7045 125.4300
115.5700 115.6059 116.5977 124.2899 125.1935 127.6743 127.4890 127.3917 127.1717 127.7421 121.4824 117.6220 113.0736 115.5640 127.8471 127.3914 116.4786 129.1954 125.7340 126.5808 123.9213 104.6331 109.5309 119.9617 117.2495 125.8885 125.7682 125.5762 126.5425 124.9187 125.2587 125.1797 125.1567 124.9059 124.8556 125.2520 126.3028 124.8215 124.6189 125.2142 124.6685 124.8063 124.7999 124.2653 124.7966 124.8120 124.8253 124.7132 125.2181 125.0516 124.8473 124.9848 124.9857 125.0420 125.0862 125.1455 125.2112 125.3004 125.2153 124.8578 125.9088 125.5507 125.3147 125.6300
128.1900 127.6091 128.5473 127.9962 127.7228 127.4282 127.6370 127.5212 127.1420 128.8037 112.1557 103.4562 122.7598 128.0800 125.3409 126.8225 126.3702 126.1049 127.2165 126.6899 116.3709 105.2389 113.3764 126.1184 116.5316 127.6070 125.6742 125.5695 125.3259 125.5688 125.4488 125.3731 125.3117 125.3039 125.2904 125.1590 125.0752 125.0453 118.6301 124.9228 124.7338 125.0843 125.0506 130.1343 124.7213 125.0272 125.0593 124.8434 124.4520 118.4822 125.3146 125.1734 125.1956 125.2410 125.2847 125.3477 125.4045 125.5196 123.9444 125.4780 125.4780 126.0220 121.3103 110.9000
128.3200 126.8727 128.2735 128.0460 127.8803 127.8439 127.6783 127.6207 127.5629 127.4081 127.1766 125.2810 124.8680 123.0783 125.8672 126.1858 129.5627 111.4452 120.0937 128.5781 118.0454 103.9118 111.5934 126.0623 126.3574 125.8465 125.8933 125.8554 125.8053 125.6130 125.5550 125.5986 125.5335 125.4618 125.4163 125.4200 125.1384 126.7936 118.7307 124.9520 125.1186 124.9685 124.4039 119.9065 125.3620 125.3774 125.2263 125.2504 125.3197 125.5425 125.3812 125.3730 125.4066 125.4731 125.4858 125.5320 125.6103 125.6323 125.6804 125.7701 124.9888 126.0929 113.5361 123.4100
128.3600 128.1429 128.5644 128.1232 128.0101 127.8364 127.9815 127.9125 127.6592 127.2202 128.0973 123.1907 133.7891 109.6557 123.1439 105.2540 120.7917 115.4827 127.1730 124.4476 122.8579 106.7427 131.4382 126.8533 126.0873 126.2336 126.1033 125.9944 125.8677 126.2004 126.2105 125.6410 125.7145 125.6667 125.6263 125.6112 125.3695 122.5963 117.7080 125.5339 125.6388 125.4534 118.1918 117.2084 125.1056 125.3756 125.4430 125.4548 125.4776 125.4120 125.4706 125.5705 125.5284 125.5060 125.6764 125.7461 125.7795 125.8481 125.8593 126.4819 126.2627 129.0030 102.9276 107.7600
128.4900 128.3687 128.2432 128.2358 128.1425 127.6739 116.7390 128.7117 127.5404 127.7273 129.5031 118.1204 108.7092 101.8811 105.7441 105.2781 115.0402 106.6942 122.7023 127.2325 123.5197 108.6389 127.8382 125.8733 126.5058 126.2504 126.1900 126.8597 126.1869 120.0204 124.6623 125.8368 125.9070 125.8520 125.8099 125.8412 125.2882 125.8168 120.2068 125.7250 125.7361 125.7053 127.5547 126.9927 126.2628 125.5881 125.6362 125.6580 125.6698 125.7081 125.7298 125.7202 126.0165 126.5524 125.3761 125.5219 126.0633 126.0268 126.0517 125.3847 120.4882 115.4434 114.2810 106.8500
128.5200 128.5200 128.4500 128.3500 128.1900 128.1900 128.0000 127.9200 127.8200 127.7400 127.6400 105.5400 127.4500 127.3600 105.2600 127.1700 127.1700 116.9000 116.9000 126.9100 126.7800 126.6900 126.6000 126.6000 126.5100 126.4000 134.6000 134.6000 126.2000 126.2100 126.1100 126.1400 126.0100 126.0300 125.9000 125.9200 125.9400 125.7900 125.8200 125.8300 125.8400 125.6800 125.6800 125.6800 125.6800 125.6800 125.6700 125.8400 125.8300 125.8100 125.7900 125.9300 125.9100 125.8900 104.0300 126.0000 126.1300 126.1100 126.2100 125.2400 125.2400 108.2700 109.2900 107.7100
