129.3800 132.7200 131.7400 131.7400 123.7300 123.7300 124.2100 124.2100 122.5600 122.1100 122.4800 121.6600 121.6600 121.8600 110.2000 105.5800 105.5800 127.4800 111.5600 114.1800 117.8700 117.8700 121.1100 121.1100 114.7600 115.1900 115.1400 113.6900 113.6900 108.1000 107.2700 115.8900 111.7400 105.6500 126.8400 126.8400 126.8500 126.8500 126.8500 126.8500 126.8500 131.0400 126.8300 126.8100 126.9500 126.9400 126.9200 126.9100 127.0400 127.0200 127.1200 127.1200 127.1000 127.2100 127.3200 127.2900 127.3900 127.3800 127.4900 127.5900 127.6800 127.6400 127.7600 127.7300
118.0100 127.3481 132.8234 130.7970 130.6289 125.9481 123.3241 119.4349 122.4723 123.0596 122.0668 121.4881 121.2348 124.5223 106.0760 104.8094 129.3358 127.3975 118.9368 123.2359 121.4838 117.5964 112.7195 115.6538 116.5023 116.9638 112.4255 106.0557 104.8997 111.1114 105.8234 108.0952 119.4769 103.9742 123.8471 121.6587 108.2151 105.5820 102.8140 126.1163 116.4247 127.0459 126.6560 126.7527 126.7819 126.8029 126.8341 126.8468 126.9267 127.3040 126.5692 127.9789 127.0468 127.1022 127.1573 127.2137 127.2691 127.3266 127.4058 128.0047 125.8212 127.5783 127.4991 127.7300
117.2900 128.2941 129.2646 122.0150 125.9261 123.8178 118.7207 120.9010 123.6276 122.8411 121.7774 122.4735 121.5568 112.3750 122.2228 120.8008 124.7625 123.5338 101.0426 111.1793 126.1051 124.2574 114.7430 122.3096 118.8692 114.2286 106.8949 106.4296 109.6972 110.2464 107.0806 109.5408 123.4353 120.0788 108.4325 124.1606 108.2844 105.6448 127.7846 126.4550 126.1196 126.5249 126.6002 126.5830 126.6053 126.6305 126.6596 126.7598 126.7694 125.5608 112.1365 127.3197 126.8918 126.9492 127.0053 127.0550 127.1374 127.1658 127.1491 126.8486 125.0228 128.1461 127.1069 127.5800
128.4100 118.7220 118.6486 123.2955 122.7621 122.5487 122.6058 124.4388 123.9979 122.2501 121.8274 120.5144 121.5685 121.4775 121.1327 120.4233 119.2768 128.8284 113.5774 122.6329 117.8267 115.9529 108.6491 118.5620 114.9223 117.3317 111.7530 113.6273 108.6058 110.2269 108.1808 113.9114 125.9777 121.9877 127.3052 121.8380 120.7369 120.4862 115.9474 125.8445 117.8901 126.6831 126.4495 126.4029 126.4329 126.4584 126.4812 126.6331 126.6483 116.3340 126.7206 126.0349 126.7623 126.7891 126.8453 126.8605 126.8852 127.3015 126.9032 128.1794 129.3617 121.4849 108.6126 105.4200
128.2500 128.5022 107.4707 115.9943 122.6324 122.6144 121.9294 121.9014 112.5332 123.5348 122.8056 115.2234 122.1963 121.5153 122.2792 119.0024 116.8277 123.6156 121.0965 118.0247 112.4794 117.7337 109.6342 107.3373 111.4953 110.5641 107.8588 110.5718 114.8384 106.2954 112.4675 117.4834 127.1471 126.1571 107.9906 127.9833 125.9423 125.3697 126.1104 126.6522 126.6429 126.1671 126.2127 126.2316 126.2556 126.2830 126.3076 126.3849 126.5692 118.0186 125.7128 125.9383 126.6077 126.6543 126.3866 129.1808 130.4798 126.8633 127.4952 112.9081 122.8880 106.9015 113.0443 127.2500
128.1100 133.1430 120.2981 124.3737 121.5375 125.3975 122.8555 122.5041 122.2756 122.4832 123.3410 122.2023 109.3725 122.8561 120.9345 114.5211 115.4958 119.5563 128.3709 105.6293 111.1440 114.8060 112.8997 112.9037 110.9990 109.8240 110.8657 104.7449 110.3928 111.0792 121.3050 127.3495 126.0367 126.4737 126.9347 127.0045 126.0686 121.4600 124.4053 125.7540 125.9128 126.0042 126.0293 126.0465 126.0739 126.1003 126.1479 126.0650 125.1164 103.8899 125.7046 125.8141 126.4358 126.4653 126.2831 130.6872 128.3830 123.8152 120.8837 127.6918 131.4745 122.7788 122.8438 127.1000
127.9600 132.9620 131.1245 123.0278 113.4526 123.9833 122.5944 121.3085 122.6261 123.5821 120.0113 120.3092 112.7070 117.8203 120.0942 120.8369 117.1560 114.2353 124.0983 104.3056 129.0817 117.9468 114.0796 114.3864 113.7387 104.5977 111.4498 103.0909 102.9476 105.4122 107.0644 123.5674 125.7385 118.8978 120.2395 125.3100 125.7818 126.3201 125.9763 125.8658 125.8232 125.8177 125.8321 125.8542 125.8795 125.9231 125.9918 125.3626 123.2862 105.6990 124.8440 125.8018 126.2401 126.3408 126.4400 125.7586 126.8113 115.1639 124.9420 126.2508 126.4879 126.6456 128.0196 126.9400
127.9400 124.6268 110.0599 105.7387 113.6810 122.3583 122.4092 122.6653 122.0570 122.3108 117.7942 118.8657 122.6381 112.2790 118.4299 117.5146 116.2819 114.7115 120.5201 104.6574 115.3081 102.5673 111.0604 119.1092 110.7526 112.7015 107.1068 105.1133 103.4585 118.1306 129.1307 123.6388 125.8548 125.9991 126.2021 125.5188 125.6789 125.4940 125.5563 125.5861 125.6116 125.6206 125.6475 125.6694 125.6907 125.7293 125.7655 125.0009 122.1065 109.4323 126.3739 126.0698 126.0125 125.9273 126.1274 126.1762 126.6170 126.7703 127.0627 126.4934 126.8032 126.6364 126.6671 126.7700
131.2000 127.1705 115.0526 106.7317 109.9182 109.3279 120.7552 122.5398 121.8984 124.0144 113.7025 116.4670 119.9513 117.3115 117.0575 115.3986 115.8143 113.8670 117.0384 110.6686 115.0387 115.1423 109.6937 116.5220 108.0335 118.2494 103.0674 114.8918 121.6098 109.5913 124.8305 121.2761 125.5555 125.4435 125.2059 125.2476 125.4148 125.4127 125.4040 125.4086 125.4131 125.4247 125.4402 125.4662 125.4895 125.5225 125.6017 125.1848 123.3659 126.2483 125.5039 125.7701 126.0611 127.0417 125.8908 126.7929 126.6438 126.1097 126.2581 126.4036 126.4423 126.5335 126.6585 126.6000
131.0200 127.7319 124.0383 119.1291 109.0855 109.5594 116.0786 123.2906 120.1472 121.2550 120.4223 113.5746 120.8206 117.6400 106.2997 120.6951 115.3633 114.7311 124.4995 111.4888 129.9983 117.5972 108.3718 104.3667 110.5440 128.4417 122.4100 118.4157 127.9599 122.3733 125.4630 125.6955 125.2597 125.2355 125.2550 125.2634 125.2098 125.1907 125.1911 125.1999 125.2076 125.2252 125.2454 125.2674 125.3242 125.3784 125.3804 125.5168 129.4854 124.8608 125.6768 125.5536 125.0016 111.0840 126.3813 118.9902 117.8991 126.0256 126.1067 126.1897 126.2775 126.3795 126.5186 126.5700
130.9900 121.4657 122.7118 123.8808 111.2855 108.5466 108.1495 117.5923 116.7686 119.2886 121.5871 120.2285 135.1540 116.7011 133.7872 116.8978 115.4192 117.5405 129.2769 109.5433 128.9769 111.6568 114.7424 129.4805 107.7030 125.3796 125.9013 121.5864 124.4034 125.1883 125.1141 124.9104 125.2941 125.2282 125.0332 124.9751 124.9865 124.9837 124.9849 124.9958 125.0004 125.0190 125.0293 125.0767 124.9711 124.9693 125.1770 124.9996 124.8666 125.3642 125.3210 126.1061 125.2339 124.8642 128.6665 115.7627 127.3306 125.8885 125.9298 126.0233 126.1244 126.1099 126.2069 126.4200
121.7100 128.4621 120.5133 122.9288 111.7575 109.5675 108.6215 108.8153 106.2637 121.4003 118.2555 117.2023 117.7023 113.0066 124.2948 126.8057 118.4174 127.9250 104.5127 101.7232 126.3361 110.8963 123.9771 127.2634 118.0265 118.0452 124.9813 125.5177 125.2551 124.7746 124.8987 124.7724 124.5303 121.9604 124.8553 124.8580 124.7673 124.7669 124.7634 124.7691 124.7794 124.7924 124.8284 124.9132 125.1014 125.6609 124.9737 125.0312 125.1043 125.1027 125.1789 125.2683 113.5109 126.7527 112.3968 111.7228 126.9761 125.6814 125.8177 125.8797 125.8994 127.1537 126.6062 126.2500
127.2800 130.4417 115.2617 123.5282 100.1642 104.4401 105.1424 107.5701 108.8632 114.3823 118.0480 118.8887 120.4720 120.7864 122.4147 121.0831 112.8878 119.3444 115.6397 109.3293 111.3987 102.6849 125.0717 124.5802 125.2824 126.7233 124.8459 124.6984 124.7619 124.7882 124.7101 124.3791 125.9490 116.1107 125.1225 124.5776 124.5479 124.5446 124.5606 124.5741 124.5821 124.5858 124.3455 125.4209 109.7964 125.9092 124.7549 124.7820 124.8501 124.9048 124.9615 125.4581 125.8087 125.7890 131.0532 110.3299 127.1611 125.5590 125.6139 125.6873 125.6796 123.4228 111.9512 126.0600
127.2800 124.1269 124.3976 121.8667 115.6698 104.3950 114.8409 103.2531 106.9705 106.3860 110.9808 116.1190 116.4799 121.7443 118.2937 125.1513 109.1750 118.0234 117.7888 108.3360 103.5535 123.9514 124.8386 124.9102 124.7966 124.5501 124.7549 125.1142 124.5776 124.5180 124.4793 124.4339 124.1832 123.5859 124.8260 124.3759 124.3212 124.3079 124.3291 124.3371 124.3700 124.3627 124.2375 125.6107 125.0584 124.4352 124.6031 124.5727 124.6441 124.7010 124.8027 124.7826 124.8371 124.3655 123.5899 114.2278 125.9426 125.2858 125.4260 125.5208 125.3494 127.8188 121.9581 125.8500
105.0900 108.7758 125.2700 112.7780 121.3567 109.9964 109.6112 116.2568 113.0872 106.5224 104.4938 121.0267 120.9846 123.9656 121.0999 115.6466 115.2675 110.2459 117.7845 110.7668 105.9307 109.0720 125.4239 124.9572 124.6790 124.6353 124.5200 120.1494 123.3016 124.2956 124.2694 124.1541 124.5352 122.2158 124.1315 124.1242 124.0949 124.1064 125.8231 124.0279 124.1849 124.1194 124.0606 123.8956 124.0696 124.2838 124.3045 124.3721 124.4248 124.4884 124.5512 124.6375 124.6945 124.9607 124.5265 126.1195 125.0897 125.1867 125.2401 125.3475 125.4800 125.3153 126.4049 125.6800
105.6900 119.3359 127.1037 126.6368 121.0145 125.8756 113.4934 108.2922 116.7835 114.0786 109.2717 107.4672 120.2114 128.1246 127.5133 116.1029 115.0914 105.4927 103.1730 117.2452 106.8310 120.6778 113.7189 120.2223 124.2403 124.0680 124.3544 123.6596 124.3495 124.1101 124.0341 123.9947 123.9166 124.1544 123.9213 123.8726 123.7390 123.6858 123.6498 124.0896 123.8451 123.9122 123.9785 124.0302 124.0256 124.0394 124.0955 124.1474 124.2083 124.2739 124.3505 124.4218 124.5118 124.5706 124.7153 124.6712 124.8598 124.9695 125.0619 125.1580 125.2760 125.3741 125.4899 125.4800
126.7900 127.4073 127.7968 123.6045 111.4656 118.9802 120.0368 102.7220 111.1703 107.6168 107.6905 102.5821 108.0793 124.6897 122.2869 116.8653 119.2857 106.9418 111.2462 111.0030 114.4930 107.9548 118.1452 125.0047 124.1038 125.4427 123.9656 124.2420 123.8267 123.7570 123.8013 123.7534 123.7163 123.6547 123.6510 123.5749 124.0006 124.6675 124.2063 124.6484 123.7570 123.7057 123.6223 123.6998 123.7543 123.7995 123.8413 123.9138 124.0008 124.0544 124.1206 124.2136 124.2875 124.3842 124.4847 124.5790 124.6679 124.7749 124.8772 124.9862 125.0978 125.2144 125.3260 125.4800
122.3400 122.0735 126.5679 110.8156 114.3421 117.4978 117.9142 118.9026 114.8309 117.5981 108.3758 104.4129 115.3186 115.5559 114.9724 114.0562 112.3682 111.1158 108.7363 114.6486 112.6305 106.7019 125.8018 123.7094 123.8772 123.3483 112.2400 123.6079 123.8743 123.6240 123.5604 123.5042 123.4638 123.4369 123.4026 123.2599 124.2139 115.7685 119.0628 122.9119 121.5378 122.7271 123.3710 123.5379 123.4957 123.5811 123.6950 123.6979 123.6177 123.8166 123.9195 123.9915 124.0780 124.1746 124.2702 124.3673 124.4714 124.5806 124.6938 124.8082 124.9235 125.0374 125.1622 125.2500
122.9500 126.1361 127.9001 114.2841 112.9224 109.2031 111.1378 118.8366 117.0812 118.3588 108.7599 106.7060 105.3517 113.1622 117.6930 119.3307 114.2401 106.4945 107.3231 110.6945 110.8757 116.2008 125.5609 123.9414 123.7266 125.1628 124.0198 124.2480 121.8301 123.9912 123.2722 123.2532 123.2211 123.1833 123.1021 122.7681 124.2368 105.7402 113.6080 115.8915 113.2605 123.2191 122.9185 122.9596 123.6001 123.3749 123.1112 123.2521 124.5731 123.6912 123.6448 123.7537 123.8574 123.9610 124.0605 124.1675 124.2784 124.3872 124.5041 124.6190 124.7437 124.8521 124.9907 125.0600
126.5400 124.4938 122.6350 114.7763 112.5529 107.4490 113.3742 118.2211 115.9212 115.0106 119.2101 116.7464 102.4305 108.5639 119.1861 134.2498 113.6998 119.0597 111.9181 114.6112 127.9494 127.1698 124.1760 123.5990 123.5482 121.0311 106.9395 117.4877 107.3786 123.3102 123.0483 122.9832 122.9521 122.9312 122.7404 123.2731 125.7147 107.5200 107.3789 114.0271 118.0236 122.4316 122.9480 124.5564 118.5399 122.3362 124.1611 125.3885 112.8245 123.8398 123.4204 123.5137 123.6353 123.7386 123.8487 123.9600 124.0727 124.1899 124.3137 124.4304 124.5635 124.7577 124.9251 124.8400
124.5600 113.0655 118.0801 117.4509 116.9513 106.4330 110.5786 107.8180 108.0621 114.3985 118.6316 126.6811 108.4767 106.2352 138.1972 118.9111 117.7941 108.3233 115.0767 116.2699 117.0480 123.7448 123.8540 123.4592 123.8013 130.3274 132.5007 106.8000 123.8997 123.5736 122.7952 122.7679 122.7087 122.6817 122.4896 120.7623 110.0960 108.5839 109.6332 105.5162 111.2735 118.1340 117.9648 111.2602 113.4240 122.0804 111.6114 112.7823 104.6290 125.9038 123.0773 123.2862 123.4103 123.5163 123.6350 123.7470 123.8706 123.9865 124.1024 124.2115 124.3509 123.9721 124.2515 124.8100
124.8400 110.6951 123.2631 112.5365 116.3708 113.0536 113.1105 111.8700 114.5261 109.6001 122.3671 122.7589 120.7199 103.6075 98.0835 105.0439 103.7701 108.5521 104.2513 122.9940 124.2759 122.9891 124.7731 122.8154 110.8548 115.0800 107.7129 106.3836 122.3087 122.3900 122.6365 122.3285 122.4207 122.4103 122.1173 118.8350 104.5585 123.7235 126.9400 112.7541 118.0835 114.2862 122.0547 110.3693 115.9704 119.5750 116.7222 126.1328 108.9721 122.4659 123.0541 123.0517 123.1776 123.2898 123.4107 123.5233 123.6507 123.7809 123.8538 123.8193 124.3026 124.0397 123.0180 125.5000
121.3500 122.0715 121.9490 112.6723 117.5145 116.4520 118.8991 108.3660 105.6748 107.5585 112.7532 116.7758 117.0061 107.3163 102.4142 103.7665 104.4484 119.9077 114.9858 130.1397 122.6411 123.4287 118.7485 97.8118 108.4539 108.2619 106.9137 127.5003 123.4925 122.4210 121.3816 122.7517 121.6307 122.2836 121.9179 121.6245 125.6841 122.8117 123.2688 103.3277 111.4217 121.2033 117.8284 110.6674 106.1113 110.4876 122.5985 124.0924 116.3285 124.1678 122.6421 122.8257 122.9306 123.0655 123.1935 123.3775 123.4751 123.6599 123.6677 123.6026 119.9813 124.5337 124.3165 124.3500
121.3500 123.0311 119.6944 105.5781 118.4765 116.2158 116.5661 114.6500 105.5813 105.1978 107.0292 117.7143 119.4974 117.0445 101.8884 101.0505 101.7034 122.4601 123.6936 128.5413 122.2503 122.8185 119.1486 112.2943 100.7709 112.4382 109.3533 120.4737 121.6698 122.4278 118.9361 123.9582 110.7306 122.0942 121.6122 121.7140 121.6768 121.4727 123.4970 106.6572 115.8688 120.7736 118.2328 107.0712 122.8692 116.0225 123.4933 123.3299 123.1766 122.1601 122.5522 122.5667 122.7521 122.6982 122.9806 122.4569 123.2945 122.9035 123.4647 122.6798 124.9158 123.8101 124.0968 124.1500
103.9200 108.0826 121.6289 125.7819 124.4554 119.9615 115.0411 119.7228 115.2060 105.4398 114.6207 109.5158 110.5781 103.5467 101.3294 106.1817 106.5466 120.3796 119.6065 122.5066 122.8945 122.8000 123.5739 109.6351 115.1915 111.9957 122.8818 121.4792 121.6692 121.7850 122.0596 121.3551 125.2377 122.4336 121.3774 121.3999 121.4233 121.4139 123.4007 104.6023 107.8827 107.2853 119.9267 107.3612 123.7931 123.4413 122.0380 121.6775 121.8293 122.2963 121.8686 122.2196 122.0905 122.6295 125.8832 123.1135 126.5021 123.9572 123.1178 123.8689 123.4652 123.7716 123.9592 123.9300
103.7400 121.0634 120.4122 118.7547 114.4588 118.3182 111.5312 105.2119 100.7066 109.7725 111.3840 103.9249 113.9050 103.9665 103.5377 115.9260 109.5232 102.5653 113.3041 123.1587 122.4412 122.4802 125.4899 118.2576 124.2446 113.8769 112.0700 115.3722 121.7893 121.4929 121.3032 121.3226 120.8536 120.8019 121.1020 121.0836 121.0209 120.9867 121.7571 120.8864 111.8661 105.8117 126.9679 121.6506 121.1218 121.2199 121.4468 121.6130 121.6841 121.8947 122.5199 118.9724 123.6073 122.0526 122.8522 122.5531 112.5972 122.5508 123.2990 123.2616 123.4363 123.5948 123.7501 123.8600
120.1800 119.6444 118.2276 118.9208 118.3978 113.4528 112.0638 100.3566 114.3074 102.8044 111.0577 101.9207 103.4610 101.9284 105.2043 112.9430 107.9513 112.7867 122.7193 122.9421 122.3388 122.0539 121.7619 122.3697 121.3035 123.3715 121.3757 122.6916 121.0128 121.1481 121.0810 120.9769 120.9526 120.2398 120.4683 120.6618 120.7489 120.6958 120.8164 114.0278 102.5094 100.5719 121.2493 120.6527 121.0109 121.0906 121.1753 121.2846 121.3951 121.5025 127.6657 115.1077 122.4627 122.1690 122.1124 122.8746 121.5057 123.3883 122.7920 123.0685 123.2386 123.3964 123.5751 123.6500
120.1100 120.7266 117.3416 120.1252 116.2159 113.2309 115.8476 112.1606 108.5890 105.3377 119.3503 115.9857 100.4958 101.8832 110.9831 107.6146 105.1976 119.8077 123.3644 114.9084 121.3396 124.0539 118.8467 122.5078 121.5176 119.9620 121.1351 121.0646 121.0368 120.8467 120.7345 120.6533 120.5594 120.4254 120.6138 120.6119 120.4861 120.4332 120.6675 122.1271 115.6402 118.2360 120.6435 120.6091 120.6691 120.7756 120.8652 120.9215 121.1475 120.8574 121.3792 121.8526 121.5967 121.8748 122.0225 122.1361 122.2340 122.6667 122.5996 122.8714 123.0607 123.2062 123.3760 123.3900
119.3800 118.7534 115.1646 113.5146 112.9070 111.8303 114.7504 114.3761 112.4039 107.0367 112.8668 120.1897 110.6154 102.2898 103.1531 105.5686 121.6375 120.9608 124.3612 118.3158 124.7824 114.2399 105.9569 119.0736 122.2157 120.4899 124.6534 120.7383 120.6210 120.5340 120.3992 120.3030 120.0145 119.8451 120.9310 114.2770 122.7169 119.9481 119.8556 118.2960 120.3159 120.2216 120.1218 120.1387 120.3017 120.3254 120.5758 120.9298 120.7648 121.0130 121.0729 121.2535 121.4160 121.5894 121.7440 121.9449 122.1219 122.3189 122.4583 122.6629 122.8648 123.2110 123.4678 123.3600
117.5500 118.6813 119.5530 111.0377 111.9644 112.2906 116.2385 112.4995 112.2127 114.7087 105.9062 107.7599 112.2049 106.2669 101.3266 114.4211 106.1880 114.8692 121.5376 122.4413 121.2456 107.7546 109.2793 122.6035 120.5332 104.8219 121.3643 119.8548 120.2756 120.2057 120.0688 119.8751 120.7992 120.6891 119.6603 120.3782 119.6992 119.6201 119.7918 118.1247 121.5312 119.6147 119.7056 120.6694 119.9131 120.8472 120.5109 120.2040 120.4918 120.6204 120.7888 120.9643 121.1321 121.3108 121.4971 121.6788 121.8697 122.0585 122.2582 122.4529 122.4988 122.9931 118.1035 123.1300
125.2700 116.2221 108.5458 112.0139 110.4358 110.4983 113.2301 113.5912 111.6536 113.2442 110.8423 104.1959 98.9687 100.5213 106.3013 113.1723 119.3768 122.2250 121.6599 121.1512 121.4139 120.8130 107.6549 116.7421 108.7159 118.8625 119.9670 116.5303 120.0048 119.8504 119.6960 119.5089 119.6059 107.7696 120.2613 119.1433 119.1801 119.2254 119.3197 119.4068 117.3654 119.3684 119.7019 115.8205 105.9406 120.2553 119.8574 119.9460 120.1396 120.3190 120.4892 120.6696 120.8559 121.0481 121.2436 121.4421 121.6424 121.8407 122.0417 122.2797 122.3432 123.4762 125.3130 123.0600
117.8200 118.8661 112.2042 112.6990 112.0664 112.4768 109.2327 109.9863 110.0872 107.8745 101.7604 112.8691 102.7630 106.8874 102.5303 108.1981 122.2985 121.1919 116.4810 123.1278 122.9491 113.5725 111.0814 107.1338 102.3749 114.9698 119.8918 120.1042 119.5505 119.4713 119.3641 119.0393 115.4041 118.6389 119.3147 118.8916 118.8110 118.7797 118.7704 118.8331 119.1612 117.4806 119.6411 110.9147 120.6810 119.1936 119.4843 119.6446 119.8151 119.9960 120.1806 120.3716 120.5723 120.7700 120.9787 121.1885 121.4068 121.6156 121.8305 122.0385 122.2457 122.4012 122.6331 122.7600
125.0500 115.1680 113.8203 110.7548 112.7750 119.0930 112.5370 110.0621 110.5189 109.3250 107.7337 117.0734 103.8924 108.6011 101.5930 108.4034 112.7472 120.2197 110.4562 112.1361 107.9777 114.1742 112.4611 108.8517 113.4295 120.6001 120.4773 119.3141 119.2567 119.1758 118.6745 119.4688 116.1336 118.8421 118.3222 118.4485 118.3647 118.3492 118.3226 118.4024 119.0850 105.1753 116.0401 119.5616 118.7106 118.9723 119.1261 119.2886 119.4775 119.6668 119.8665 120.0682 120.2852 120.5000 120.7158 120.9460 121.1644 121.3921 121.6161 121.8299 122.0551 122.3043 122.5489 122.7600
115.9300 113.6813 118.3112 111.9013 110.4923 111.0189 113.3696 112.7471 110.3785 109.3532 106.4789 100.4165 104.8425 111.1789 106.0275 112.4087 106.3596 113.8983 123.9450 105.2192 118.1658 121.6421 119.8686 115.7979 111.1687 110.5642 117.2591 119.2577 118.8803 122.0091 119.2713 118.3604 118.5539 119.2875 118.4788 117.9197 117.8679 117.8761 117.9150 117.8346 117.7835 107.8694 113.3312 118.6028 118.4121 118.5611 118.7353 118.9206 119.1146 119.3284 119.5407 119.7644 119.9882 120.2157 120.4562 120.6866 120.9232 121.1579 121.3958 121.6329 121.8593 122.0930 122.3112 122.4500
112.5500 111.9321 111.0670 111.6797 110.0800 110.4989 110.0059 114.2463 107.7685 111.5175 106.2108 106.0689 105.2336 107.3520 103.9409 105.9226 103.1005 116.3043 121.7054 120.6067 121.7593 120.2236 119.7348 120.8754 120.6297 103.2202 119.9648 119.1803 118.0189 120.2805 117.9244 118.0090 117.7916 117.6392 117.4741 117.8139 118.0209 117.4047 117.3264 117.4890 119.3191 121.1110 109.7438 118.3308 117.9994 118.1338 118.3332 118.5402 118.7530 118.9804 119.2077 119.4632 119.6930 119.9447 120.2249 120.4386 120.6869 120.9330 121.1786 121.4217 121.6664 121.9117 122.1499 122.4500
113.4400 114.4374 114.3295 108.8810 110.5405 110.4994 110.2339 108.2975 106.2767 105.6522 114.5942 105.7642 109.8363 113.4261 99.8701 99.1227 104.1225 106.5137 111.0041 120.9522 119.8838 119.8561 119.5149 119.3147 118.9884 97.1726 103.6444 99.5630 105.3879 117.1994 117.6382 117.5035 117.3252 117.1745 117.0869 116.9573 116.9086 116.8870 116.9118 116.9591 115.3667 118.0922 117.9435 117.2668 117.5397 117.7046 117.9163 118.1406 118.3754 118.6207 118.8647 119.1305 119.3130 119.6724 119.7879 120.0273 120.4498 120.7087 120.9673 121.2228 121.4786 121.7376 122.0293 122.1300
111.2000 111.3553 112.4472 106.0188 103.6733 115.5833 109.7908 109.3313 108.1179 104.3212 106.4811 140.1837 115.4729 115.4961 119.8111 97.8004 113.2669 118.7985 118.1057 120.5789 121.1491 119.5129 119.8317 119.3225 119.8880 100.2147 108.0414 117.3213 114.8707 118.5134 117.2273 117.0069 116.8298 116.6608 116.5268 116.4303 116.3748 116.3078 116.3953 115.4468 116.1929 116.3843 116.7135 116.8683 117.0377 117.2615 117.4866 117.7360 117.9858 118.2566 118.5411 118.7850 119.3390 119.4453 119.7889 119.8937 120.2091 120.4865 120.7507 121.0248 121.2801 121.5085 121.7219 121.8800
110.8400 110.8427 110.1811 109.0985 108.2392 110.9872 111.2603 110.2967 108.0036 104.8502 108.2826 126.8710 120.8533 121.0401 117.3731 102.5199 100.4003 122.7807 121.9603 105.8842 118.3834 119.1115 117.3644 111.5166 119.6019 115.2797 117.1631 117.7754 117.2480 117.1779 116.7576 116.5257 116.3067 116.1227 115.9719 115.8523 115.7131 115.5896 116.4612 108.5752 116.8329 115.9766 116.1526 116.3323 116.5468 116.7859 117.0434 117.3035 117.5943 117.8787 118.2070 118.2007 119.6245 111.8579 119.3550 119.5993 119.9859 120.2586 120.5481 120.8218 121.1539 121.2755 121.7267 121.8100
114.4400 109.6682 110.2166 109.6454 108.9748 109.0690 108.6703 110.4653 109.2818 107.3060 104.4242 122.5382 99.7093 124.7808 121.1608 118.9635 121.0069 120.6569 119.9448 119.3755 119.8653 119.0508 118.4748 118.4281 118.1265 117.8245 117.3247 117.1573 116.8964 116.1925 116.4487 115.8902 115.7494 115.5473 115.3742 115.2466 115.1203 115.9128 116.6789 115.1231 115.2063 115.3955 115.5646 115.7922 116.0305 116.2980 116.5793 116.8708 117.1879 117.5633 117.8886 118.1052 117.4676 109.6349 120.1533 119.2225 119.7434 120.0425 120.3476 120.6253 120.8594 122.7417 107.5029 121.7600
111.1800 111.0396 110.7285 113.0896 110.8524 109.4046 107.4820 109.1608 100.4596 112.4322 105.7440 108.6793 110.9624 116.3157 120.8722 120.9012 120.2126 119.9378 119.7652 119.3055 119.0153 118.8464 118.4086 118.1575 117.7512 117.4465 117.0807 116.7320 116.3768 116.2545 120.3110 115.4236 115.1854 114.9372 114.7376 114.5855 114.4124 115.1841 114.7736 110.7960 115.1530 114.7196 114.9664 115.2112 115.4895 115.7697 116.2639 116.3363 116.5397 116.6408 118.2307 115.8418 110.5608 117.1763 118.8155 119.2348 119.5012 119.8309 120.1444 120.4966 120.4262 120.9988 110.2150 121.5000
110.9100 111.2235 111.3057 111.6438 110.8547 109.0735 111.5653 106.5062 103.7347 100.1062 99.9505 112.6690 124.5671 99.6042 124.7288 120.8261 120.3359 119.9189 119.4846 119.7486 119.1177 118.6095 118.2347 117.8464 117.4451 117.0594 116.6799 116.3014 115.9281 115.3641 115.2907 114.5957 114.6021 114.2839 114.0559 113.8626 113.7440 113.5809 113.9597 114.2039 113.8438 114.0892 114.3104 114.6048 114.9221 115.1038 115.5586 110.6496 106.6815 112.3390 106.8852 108.4171 107.5443 119.4759 118.4017 118.9724 119.2841 119.6227 119.9590 120.2631 120.5024 122.4432 113.2772 121.4400
110.8800 111.9000 111.0237 110.6641 110.5493 110.7223 110.6791 110.1863 112.4751 105.9799 105.4077 116.2545 101.8792 103.1683 119.2290 119.1184 119.6461 119.7323 119.3215 119.2076 114.2433 118.1339 117.5473 117.4110 117.0979 116.7032 116.2897 115.8762 115.4407 115.1050 114.6298 114.3119 113.9049 113.5866 113.3157 113.1022 112.9515 112.8830 112.8253 112.8935 113.1335 113.3450 113.6298 113.9562 114.3408 114.7230 116.8814 106.8936 109.1353 109.5518 105.5693 110.4808 118.5640 118.0325 118.3322 118.6959 119.0748 119.4247 119.7645 120.0931 120.4066 120.6955 121.4484 121.3800
111.4000 111.2397 112.0882 110.6663 111.5350 110.7812 111.2358 109.8588 106.4263 108.7091 113.1468 117.4024 119.7510 123.6988 114.0884 117.7912 122.2769 112.9472 119.0245 118.4458 98.8762 116.5897 119.2209 117.3553 117.7397 116.2047 115.8918 115.4329 114.9783 114.5215 114.0644 113.6315 113.2021 112.8523 112.5279 112.2376 112.0522 111.9804 111.9985 112.0969 112.2880 112.5603 112.8940 113.2784 113.6938 114.0960 114.7784 114.1709 118.4784 114.1367 106.4632 109.5875 117.7194 117.6073 118.0932 118.4884 118.8626 119.2306 119.5816 119.9360 120.3070 120.9483 120.7522 121.0700
109.6900 110.5598 115.8158 110.5345 111.2224 114.0066 106.8936 107.7301 105.2653 103.9833 105.7693 119.1788 120.0128 120.3852 119.3360 119.0559 104.5065 100.5607 119.0652 119.5631 110.4194 109.8736 104.6258 114.0271 110.3438 116.4395 115.5290 115.0138 114.4957 113.9870 113.4778 112.9605 112.5686 112.0012 111.5721 111.4194 111.1823 110.9772 111.0096 111.1263 111.3657 111.6867 112.0974 112.5488 113.0287 113.5565 114.0550 114.1865 113.0038 116.3425 108.5050 109.7413 117.5918 117.4086 117.8237 118.2688 118.6865 119.0522 119.4291 119.6301 120.2523 113.9378 121.1371 121.0200
109.6900 111.9231 113.1115 114.2991 113.5475 116.2585 106.0806 107.4207 101.6963 106.8015 106.9795 118.7624 121.5290 121.9261 105.5170 114.6138 118.2335 114.3325 122.0745 118.4464 96.2207 91.9636 106.4747 101.9058 113.2986 112.8227 115.3062 114.5501 114.0225 113.4503 112.8564 112.2785 111.6240 111.2782 110.9799 109.9563 109.7746 109.8758 109.8828 110.0538 110.3395 110.8329 111.2516 111.8729 112.3528 112.9428 113.5070 114.3142 115.2770 114.4642 113.9773 116.9272 116.7185 117.1690 117.7879 118.0488 118.5105 118.8739 119.3152 119.4128 119.7354 117.6501 120.6676 121.0200
110.2000 110.5302 109.6823 111.4980 111.4616 110.9769 111.1586 106.8814 104.2557 115.3934 114.2168 110.4863 121.6433 120.5724 112.8828 113.8354 119.1306 109.9725 99.7180 120.1519 123.0344 93.8988 107.9925 112.3803 118.5864 113.6402 114.9543 114.1541 113.5500 112.9074 112.2500 111.5787 110.9112 110.6220 98.1406 111.0625 117.8689 108.4248 108.8217 108.8203 109.2091 109.6176 110.6547 110.3764 111.7186 112.3134 113.0033 113.5955 114.2052 115.3884 116.1186 115.7260 116.4333 117.3451 114.0086 119.0114 118.2824 118.7326 118.8739 120.2364 116.9291 121.2044 120.1797 120.7100
115.2900 109.1429 109.4914 109.5264 108.7406 107.5591 105.0857 101.7657 104.4606 114.3323 122.0736 119.5492 122.0164 121.1778 120.3423 120.2163 120.7526 99.6466 114.5488 120.1336 96.6701 110.8075 113.4283 116.3329 112.0311 114.8699 114.3062 113.7974 113.1003 112.3596 111.6190 110.8478 110.0634 109.4328 106.4842 117.9241 106.9632 106.4194 107.1645 107.4037 107.9434 108.4752 112.0511 110.7377 111.0004 111.7404 112.4765 113.2105 113.6782 114.7567 107.9755 116.3241 116.2305 116.7985 116.4486 117.7713 118.1648 118.5761 119.7413 108.8015 115.4717 116.6279 120.8368 120.6800
113.7900 113.4860 111.2971 111.9976 109.9153 105.8391 104.8578 104.4307 101.2621 102.5176 109.0796 113.9104 109.0130 107.4710 122.0761 120.5813 119.5637 118.0101 119.3253 118.1527 115.6540 111.8665 103.8911 117.1527 115.1564 114.6889 114.0605 113.4132 112.6759 111.9776 111.1438 110.1122 109.1579 108.2369 107.4117 105.5718 105.5677 105.4577 105.3439 105.7352 106.4052 108.0312 103.6419 108.1390 110.2596 111.1736 111.9877 112.7703 113.4651 114.4300 114.3575 115.3827 116.0377 116.6126 117.1356 117.5491 117.9787 118.6604 119.9274 111.7202 114.7903 101.6273 120.7476 120.6500
113.7100 109.8909 109.9414 110.9046 110.8499 109.4070 105.9991 101.6721 102.5534 116.2172 114.8530 105.3198 103.8984 102.3577 101.3415 102.7465 117.4449 119.0913 118.3510 117.8306 117.4714 116.9945 116.1484 115.9409 115.1843 114.5322 113.8207 113.0842 112.3056 111.4013 110.7281 109.2032 108.3578 107.1709 105.8752 104.6860 103.5822 102.8716 102.9888 103.7231 104.8587 105.9322 111.3539 108.2672 109.6212 110.6110 111.5433 112.3964 113.2030 111.5835 113.8398 115.2145 115.8635 116.4122 116.9344 117.4455 117.9560 118.1722 122.7009 121.9419 102.5864 112.2646 105.8702 120.6200
109.6000 111.6043 110.5556 111.7247 110.3466 109.5332 108.2051 105.2953 103.1970 108.4011 99.2350 98.8526 120.8741 120.4963 120.3156 116.5716 119.3766 119.0713 118.4947 117.6726 117.2063 116.6743 116.1393 115.5771 115.0079 114.3209 113.6094 112.7634 111.9352 111.7013 120.7760 106.1815 108.0646 106.0082 104.4579 102.6912 100.9799 99.9044 99.9621 101.1947 102.9566 104.5867 106.3023 107.6579 108.9956 110.1418 111.1577 112.0051 113.5302 108.9422 115.0296 115.0847 115.6929 116.2859 116.8310 117.3333 117.7804 118.3104 117.9287 119.0475 120.7060 106.1571 100.1112 98.6000
106.6900 109.4451 108.6446 111.4721 112.0176 114.2048 108.3236 108.4807 102.8560 106.7642 126.8867 117.7670 121.0223 119.7076 119.4424 119.1793 118.9466 119.2214 114.5846 118.5011 118.2493 116.9881 116.1615 115.5416 114.8752 114.1808 113.4535 112.6318 112.0924 110.2982 111.6638 107.7512 106.9357 105.1400 103.0572 100.5402 97.5963 94.6433 95.0001 98.0640 100.8998 103.3660 105.4596 107.1281 108.5114 109.7616 110.8559 111.8442 112.9284 113.8401 114.1980 114.9650 115.6004 116.1805 116.7553 117.4570 117.9097 110.1139 118.3966 118.4145 120.4229 113.1385 117.2099 98.5800
114.2700 115.1327 111.9364 108.5856 108.0845 106.7286 105.3622 103.1440 104.9706 114.0909 114.0467 111.6869 119.9871 120.3982 119.7128 119.4131 119.1761 120.3847 98.3855 116.4943 110.0002 113.7504 116.0303 115.4349 114.7798 114.0837 113.3459 112.0895 115.1350 110.1842 109.2902 107.9567 106.3751 104.4340 101.9412 98.6135 92.8606 88.3347 88.6460 93.9611 99.1230 102.3225 104.7033 106.6042 108.1750 109.5069 110.6625 111.6854 112.5641 113.3628 114.2047 114.8819 115.5240 116.1358 116.5427 117.1459 117.6260 119.2626 118.5631 119.0250 119.8642 120.8347 118.9857 115.5000
113.9700 112.8561 111.3944 107.7191 108.4572 106.3889 103.5571 102.8470 107.2837 108.8513 103.8257 117.1467 120.4198 119.9655 121.4703 119.5278 119.0270 120.2989 100.8121 114.1958 93.5669 94.1185 115.6177 115.4112 114.7500 114.0470 113.3026 112.4245 112.5764 110.8379 109.2426 107.8274 106.1671 104.1134 101.4180 97.6378 90.0098 84.8414 85.2136 91.1482 98.2274 101.8532 104.4363 106.4275 108.0389 109.4054 110.5825 111.6214 112.5524 113.3941 114.1433 114.8503 115.5140 115.9651 117.3988 117.3183 117.5571 116.7901 118.6767 119.0233 119.4111 120.1704 106.5452 124.1800
113.9700 112.5980 111.6824 110.0617 105.2583 108.7677 103.1353 111.6876 103.5743 119.7178 103.2318 122.1865 120.3869 120.0367 117.8081 119.6268 118.9429 120.1673 106.4443 112.8152 118.9723 107.0981 116.0235 115.4382 114.7734 114.0777 113.0216 112.9634 102.1667 111.5290 109.2998 107.8926 106.2793 104.2759 101.6999 98.1039 91.4532 86.9858 87.1164 92.6948 98.7097 102.1058 104.5844 106.5234 108.1156 109.4534 110.6218 111.6559 112.5755 113.4058 114.1635 114.8725 115.5443 115.9419 114.8503 115.4589 117.6822 117.6508 118.6998 119.0644 119.6040 119.7682 118.2596 124.1800
110.4600 111.9455 111.1627 109.5149 110.1529 102.3356 105.7733 111.8736 102.1259 119.3401 106.8316 121.9416 120.6205 120.4759 116.1502 119.5570 119.1693 119.1677 120.4365 118.0665 117.6601 117.8338 116.1178 115.4812 114.8411 114.0198 114.4893 114.5590 104.4863 110.9277 109.5293 108.1901 106.6756 104.8802 102.6541 99.8659 95.9484 92.4388 92.7960 96.9221 100.2914 103.0170 105.1561 106.9064 108.3876 109.6652 110.7848 111.7844 112.6796 113.4986 114.2416 114.9313 115.5720 116.0725 116.9064 110.4218 117.8728 118.3133 118.6559 119.0845 119.3667 120.0359 123.0795 138.6000
104.0600 105.7840 104.9508 106.2456 117.7371 108.3997 117.6717 108.7773 109.1011 111.3734 118.1684 121.1965 120.5054 120.1740 120.3486 119.5028 118.5264 117.9160 106.9551 117.6252 117.1187 116.5253 116.1765 115.5746 114.9306 115.2675 101.4793 113.3484 112.0163 110.9350 109.8451 108.6586 107.3066 105.7660 104.0063 102.1359 100.0876 98.5749 98.6556 100.2818 102.3032 104.2661 105.9961 107.5072 108.8286 110.0083 111.0553 112.0021 112.8581 113.6509 114.3747 115.0436 115.6676 116.2650 116.7241 117.9609 117.7598 118.2835 118.7067 119.1483 119.4910 123.0584 107.5188 101.5100
104.4000 102.1008 102.1522 105.0002 109.8433 112.9236 124.4416 109.7462 101.1076 107.7602 107.0015 122.9769 120.4367 121.4751 120.0947 119.4962 119.5708 117.3769 116.0020 117.8460 117.3715 116.8276 116.2832 115.7030 115.0808 114.8247 107.3679 112.6207 112.1076 111.2975 110.3164 109.2513 108.0768 106.8085 105.4472 104.0735 102.8102 102.0498 102.1106 102.9690 104.2472 105.6377 106.9930 108.2454 109.4032 110.4544 111.4165 112.3002 113.1053 113.8572 114.5484 115.1940 115.8011 116.3614 116.9053 117.3289 117.8553 118.3796 118.7728 119.3447 119.8187 108.2254 107.4990 115.6200
101.9500 109.6160 109.0107 105.5700 121.8385 112.1779 122.5458 122.5839 105.0734 119.8050 98.2925 102.9503 113.2613 108.7427 121.0714 120.2901 105.8786 119.9044 118.5844 117.9237 117.4588 116.9909 116.4788 115.9074 115.3146 114.9299 114.1433 113.4602 112.5923 111.7250 110.8507 109.9138 108.9229 107.8775 106.8335 105.8395 105.0378 104.5739 104.6130 105.1290 105.9716 106.9825 108.0330 109.0666 110.0474 110.9848 111.8455 112.6540 113.4045 114.1106 114.7687 115.3871 115.9704 116.5123 117.0394 117.5316 117.9418 118.3083 118.9612 118.4313 119.7496 122.7958 98.1928 108.0200
102.3000 100.6773 124.2584 118.1635 122.6351 122.5706 123.9623 99.7470 100.0865 99.5111 99.1126 109.1682 117.9801 110.8214 120.5159 119.6704 119.1612 118.7975 118.4796 118.0582 117.5954 117.0698 116.6535 116.1121 115.5255 114.9282 114.2498 113.7455 112.8979 112.2058 111.4441 110.6244 109.7876 108.9345 108.1244 107.3956 106.8365 106.5256 106.5559 106.8979 107.4861 108.2275 109.0521 109.9051 110.7425 111.5505 112.3196 113.0567 113.7551 114.4097 115.0273 115.6100 116.1654 116.6870 117.1992 117.8020 116.6341 119.0984 118.8301 119.3696 121.4484 100.0531 104.3483 102.6400
123.9800 123.3648 123.6291 122.8981 122.9454 123.1322 107.1954 105.7340 106.0432 105.8305 99.2009 106.1081 119.7307 117.5606 119.1446 120.1099 119.3400 119.0183 118.6230 118.2006 117.8840 117.2152 120.4624 116.0352 115.7761 115.1096 116.5191 118.8766 112.8421 112.8463 112.0449 111.3476 110.6350 109.9377 109.3062 108.7543 108.3351 108.1253 108.1416 108.3897 108.8219 109.3919 110.0474 110.7334 111.4460 112.1483 112.8335 113.4947 114.1259 114.7362 115.3197 115.8626 116.3950 116.8907 117.3833 117.7129 115.9995 109.3536 119.5889 119.5727 119.6009 120.4669 124.0887 125.8800
130.0200 119.9806 124.4316 109.8967 113.7713 106.4231 107.4862 103.6969 105.1901 102.0032 103.0024 103.9659 120.3068 106.4567 98.8567 122.6623 119.8280 119.3536 118.6961 118.3832 117.9915 117.2669 116.7272 116.6212 116.0812 114.1642 105.8237 111.2982 113.9870 113.2576 112.6653 112.0652 111.4641 110.8897 110.3772 109.9478 109.6316 109.4746 109.4856 109.6663 109.9971 110.4476 110.9679 111.5416 112.1439 112.7568 113.3580 113.9526 114.5305 115.0868 115.6270 116.1412 116.6395 117.1111 117.5629 118.0167 118.7468 119.1130 119.1253 119.5533 119.8955 118.6789 121.9373 118.7600
126.1500 124.1989 124.4961 125.1262 124.6732 125.2197 123.3887 124.1610 123.8983 124.0080 123.8712 110.5605 118.6544 122.3316 122.0611 115.4601 109.4892 120.1700 118.8356 118.5949 118.1346 117.7515 117.3195 116.8696 116.6986 109.7304 116.7761 115.8429 114.5223 113.7851 113.2512 112.8045 112.2656 111.7734 111.3570 111.0085 110.7662 110.6463 110.6489 110.7913 111.0497 111.4082 111.8309 112.3183 112.8263 113.3591 113.8907 114.4225 114.9493 115.4576 115.9521 116.4339 116.8990 117.3542 117.7886 118.2021 118.4398 118.7720 119.2885 119.8841 119.1863 121.9389 124.3189 112.9400
124.1900 124.2999 123.5793 123.0606 122.7591 122.8761 120.0749 122.1755 121.5605 121.3900 120.7095 122.3258 121.9704 116.7728 107.6957 96.8645 101.7400 116.6013 118.9749 118.7211 118.3631 117.9469 117.5229 117.1348 116.6929 114.7533 102.3006 112.6583 110.1413 112.9274 114.2072 113.6428 112.9612 112.6057 112.2484 111.9625 111.7674 111.6691 111.6743 111.7965 111.9995 112.2904 112.6474 113.0514 113.4842 113.9455 114.4232 114.8978 115.3737 115.8406 116.3018 116.7476 117.1835 117.6080 118.0200 118.4141 118.8531 119.2239 119.5990 119.7696 117.4402 115.7293 117.5655 116.8400
135.4000 124.0500 123.8900 123.5600 123.3900 123.2200 122.8600 122.6800 122.3000 122.1000 121.9000 121.4900 121.2800 98.8400 98.6100 104.2500 114.7200 122.8300 119.3100 118.8200 118.5400 118.2500 117.6300 117.3100 117.0100 101.3500 104.5600 109.1800 97.9000 106.8500 114.4000 114.4000 113.4900 112.9800 113.0400 112.4900 112.6400 112.6400 111.8500 112.6100 112.5300 113.1000 112.9800 113.4400 113.9400 114.3200 114.7400 115.1400 115.5300 115.9100 116.6300 116.9700 117.3100 117.6300 118.2400 118.5300 118.8200 119.3600 119.6200 119.8800 121.3100 103.7500 107.0100 107.0100
