121.64 104.91 99.67 121.69 121.69 121.69 121.68 121.67 121.89 121.89 121.84 122.05 122.01 122.21 122.21 127.75 127.75 122.5 122.66 122.66 107.16 109.33 120.04 123.27 123.45 123.57 123.74 123.86 124.02 124.19 124.29 124.6 124.6 124.71 110.15 125.1 125.23 125.36 125.63 125.73 125.86 125.98 126.22 126.35 126.45 126.56 126.67 126.9 127.01 127.13 127.33 127.43 127.54 127.74 127.84 107.53 115.96 106.24 110.25 106.57 115.33 124.68 128.89 128.89
121.64 107.5288 108.1472 122.2771 121.6068 121.4528 121.5067 121.5371 121.5708 121.6215 121.6792 121.7536 121.8338 121.9339 121.8923 121.9308 122.7172 122.5851 121.8011 117.4688 106.2189 114.516 117.2368 123.4698 123.0744 123.2244 123.4464 123.7135 123.903 123.8254 125.083 128.5228 108.7892 109.3699 120.1982 125.6632 110.8743 110.4212 116.9322 124.3103 116.9219 123.0913 122.3675 126.4265 126.097 127.0701 116.5337 115.7188 127.8046 127.0657 127.2498 127.5114 128.0972 107.5705 129.1805 107.5888 111.7294 105.8446 107.8495 107.4553 118.7954 128.01 128.7219 128.87
125.95 118.2444 105.4494 122.0864 121.3439 121.1226 121.1568 121.2057 121.2548 121.3114 121.3753 121.4509 121.5342 121.6278 121.7964 121.6083 121.5608 121.776 124.442 123.1969 108.3741 105.637 114.8738 124.083 123.5603 123.7164 124.1596 123.4674 126.7911 116.4684 106.1955 126.416 105.5134 108.8679 119.3863 115.6642 109.2151 106.0138 113.9612 126.9527 123.7663 127.165 126.1584 125.9647 128.1481 127.3709 124.3384 119.8255 127.0212 127.0921 127.0994 126.7945 124.0384 130.2711 126.7767 114.2194 115.1051 105.353 107.9052 107.1187 115.343 120.275 130.3786 118.71
121.06 122.8501 110.89 121.5552 120.9375 120.8196 120.9073 120.9076 120.9294 120.992 121.0619 121.1368 121.2302 121.3338 121.3806 121.6096 121.7082 121.3939 122.4877 107.7135 115.4266 109.3336 109.477 122.5426 115.6776 111.5931 123.2191 123.6575 123.4817 105.3441 112.7949 117.203 109.1916 123.5433 112.1215 113.4558 113.5424 107.0176 103.8638 126.3525 112.8887 118.8606 126.241 123.036 112.6463 125.2034 126.9057 117.6091 127.3695 126.6442 126.7586 127.0281 125.4589 125.258 127.4035 106.7105 118.0249 110.4153 116.659 110.9375 114.4038 111.8803 118.8767 118.71
120.43 120.3656 112.8479 116.5881 121.2304 120.244 120.3024 120.5837 120.5924 120.6499 120.7345 120.8127 120.9181 121.0222 121.1591 121.263 121.3881 121.5217 123.2772 113.1317 120.7851 120.3654 118.3459 122.1015 123.0419 120.3012 122.5055 122.3776 120.2861 122.9279 125.5236 103.528 122.5763 124.8876 123.8375 119.9209 111.2244 122.041 122.7159 125.3761 122.4361 126.5748 124.4921 110.5574 105.5048 116.8757 112.573 114.854 127.181 127.8696 127.6103 127.2955 127.1732 128.4224 131.1152 113.4524 111.809 117.0245 115.0826 116.4162 115.202 117.7273 120.3323 128.71
120.09 121.1569 118.6942 111.9528 120.8508 123.8755 119.7747 120.2868 120.2364 120.3095 120.3946 120.4831 120.5902 120.7082 120.8331 120.9708 121.1009 121.263 121.996 123.3238 108.6699 123.7276 121.9421 122.3617 122.386 122.7127 123.0188 123.1197 123.3877 122.7449 119.5237 122.2096 106.9662 116.8998 126.9367 105.1965 110.746 128.3551 113.7864 126.2778 128.2658 104.2406 124.6761 123.3201 124.2231 124.9442 124.2953 125.9614 126.7566 114.8972 122.8084 126.804 128.6492 113.6665 107.7783 113.6612 116.5773 108.417 114.9242 115.2862 112.8449 123.1368 128.2646 128.68
119.75 112.2271 114.767 118.7101 120.9471 119.4425 119.7949 119.8163 119.8773 119.9491 120.0318 120.1333 120.2613 120.3786 120.5169 120.6599 120.8169 120.977 120.9801 121.7529 120.6826 124.0316 119.9878 122.919 122.3642 122.265 122.6453 122.8017 122.9795 123.1992 123.3643 120.5581 110.6707 105.274 108.1501 105.8214 104.5302 126.1904 124.1746 123.6567 107.9752 127.4376 123.6398 126.0385 126.1047 125.6618 127.3263 104.2999 116.4706 116.1885 127.7369 129.1492 105.9014 105.673 106.862 114.8563 107.9439 115.0153 113.0912 122.1326 128.1526 128.8073 128.3167 130.93
106.96 97.3846 115.9519 113.9325 119.5332 119.3665 119.3778 119.4357 119.491 119.5704 119.6873 119.8025 119.8758 120.0545 120.1853 120.3484 120.5105 120.6836 120.8784 120.9087 120.9871 122.4039 125.2168 122.3867 122.1045 117.8074 122.7184 122.6264 122.8992 122.7689 123.164 123.3099 115.6929 104.9406 107.3155 103.651 106.5898 119.2435 124.7195 126.2975 124.4353 126.0721 130.3546 126.0774 126.1396 125.2367 119.7716 115.5943 127.983 122.1171 117.5924 118.5679 103.3577 106.3944 110.4345 115.0073 112.6835 104.2887 118.24 128.9906 127.9898 128.2084 128.8291 128.55
109.54 119.6439 98.2583 112.6333 118.9675 118.89 118.9666 119.0298 119.0969 119.1856 119.1993 119.2904 119.6788 119.6199 119.8761 120.0228 120.1974 120.3774 120.5681 120.7793 120.9852 120.8823 121.0502 111.8506 123.1235 121.9613 122.1183 122.4184 122.7479 120.874 112.2707 101.9763 108.1258 119.7639 106.6727 104.4198 124.8123 125.3944 124.3678 122.4216 124.5805 110.1469 121.2634 122.3294 111.602 109.0755 112.3127 124.9474 126.3508 124.0846 119.3129 108.3539 106.4546 115.985 114.9579 105.4503 121.4527 118.1834 124.5844 127.9098 128.6074 125.4445 126.3207 111.11
106.47 97.1695 97.7103 117.827 118.6964 118.5822 118.5613 118.6089 118.6837 118.7263 119.3577 119.4456 118.1404 119.5742 119.4976 119.687 119.8835 120.077 120.2786 120.4801 120.7335 120.6462 124.7563 124.9683 121.156 121.8029 122.0487 122.3293 125.1786 107.1004 105.8906 107.4372 120.2219 108.2748 107.7358 127.0434 124.9409 120.1262 124.627 104.8773 117.4995 111.512 113.9973 107.0907 110.3861 120.462 112.8817 111.3412 126.8923 127.5128 120.0758 123.5557 106.149 109.8931 112.5315 119.2352 113.5258 127.4261 127.9076 128.0508 128.1893 123.5846 125.8324 106.51
108.17 114.3155 99.8055 117.3549 117.7715 117.933 118.0584 118.1643 118.2357 118.3457 109.6846 118.1011 119.9104 117.344 119.113 119.3222 119.5332 119.6938 119.9925 120.2197 120.3979 120.6676 119.1806 121.6641 121.4809 121.5661 121.7785 122.1913 112.0534 117.1358 125.7087 123.8208 107.7417 110.5781 127.0498 122.7453 123.1244 118.8477 123.1372 105.4214 102.7327 106.6958 107.9201 110.048 109.7344 113.0231 118.9945 117.1876 127.0902 127.602 116.6623 107.9077 108.242 116.3885 111.0587 103.3378 104.3722 121.6557 127.7067 128.0238 127.9464 126.7739 126.9251 128.49
117.77 114.934 100.6161 109.4576 118.7093 117.8165 117.5885 117.688 117.7952 118.3196 123.9613 120.5194 111.362 119.3624 118.8625 119.1507 119.1432 119.8871 119.6358 119.9123 120.1271 120.277 119.4402 122.5589 121.1231 121.3692 121.5782 121.8108 122.3409 122.8596 119.0156 121.7692 122.7925 100.7003 120.4403 124.4707 124.6952 121.3947 119.9506 109.9658 103.8571 105.0713 109.414 111.7347 109.6106 118.0133 118.3749 126.0722 126.2321 123.7352 117.5831 110.3116 120.7616 111.3394 103.9914 105.1426 109.748 125.9524 127.5099 127.8982 127.9304 128.597 121.2251 136.1
117.31 98.1047 111.1476 106.0408 111.8758 115.2438 117.1167 117.2113 117.2947 117.3468 105.6186 114.7765 114.7843 118.4763 118.314 118.7763 115.9762 118.5227 119.4124 119.6171 119.8773 120.2016 120.2998 120.424 120.9002 121.2021 121.4073 122.6689 122.7708 121.8105 119.894 122.1213 124.9096 100.4871 110.7201 117.3975 124.0106 120.053 116.9258 116.1161 103.576 105.5989 106.9988 117.2316 117.3623 124.1113 126.4557 125.7155 126.4633 125.8831 132.7133 116.1009 112.7015 113.0622 106.5435 109.4217 108.8773 128.4376 127.5767 127.8296 127.9804 127.6071 135.2962 129.28
98.31 103.2325 109.6866 113.5417 115.3007 116.5773 116.5516 116.6785 116.807 117.4738 125.7926 102.1245 110.872 117.8413 118.0108 118.3117 118.0343 118.8233 118.9218 119.1632 119.6622 119.8369 120.179 120.4257 120.7123 120.894 121.8475 112.2484 122.4207 121.6483 124.3416 107.8038 110.4703 102.525 101.7897 121.9573 123.1217 129.4782 116.8147 107.2651 104.8013 117.5071 112.7945 117.6193 125.7788 125.6649 125.5522 125.8533 126.0138 118.3506 105.8353 121.7598 112.3099 111.3835 105.0493 107.2776 103.367 121.7577 128.4522 127.5504 127.937 127.632 132.0502 132.22
101.69 115.0186 115.8703 115.3543 115.7942 115.9797 116.0274 116.132 116.2728 114.3242 118.8068 105.1068 117.1958 117.2384 117.6578 117.8462 118.2629 118.5402 119.4892 119.9591 119.0594 119.6342 119.9054 120.1923 120.4809 120.8389 121.0497 116.9028 120.9951 122.1896 116.7445 110.9335 100.5458 101.1851 107.8225 124.9885 123.4529 117.0125 117.3972 108.4558 107.5758 125.1412 123.6617 123.5766 124.951 125.3967 125.5754 125.7394 125.9469 121.569 114.9109 127.6004 112.6932 109.8096 111.0143 103.948 116.225 113.6823 127.1628 127.5156 128.0335 128.2113 126.5623 106.31
99.68 114.4735 115.2596 115.3484 115.2935 115.3515 115.4181 115.5314 115.6739 115.7957 116.5114 113.209 115.0679 116.7617 117.237 117.4536 117.8926 116.4948 105.5529 117.2342 119.0963 119.3813 119.6615 119.9586 120.2754 120.4615 120.8312 121.225 121.269 122.3342 119.6991 121.7834 101.9325 107.0729 123.3243 122.3476 125.1559 109.1616 106.8855 102.3037 119.481 124.5955 122.9883 115.1636 125.2144 125.4647 125.4633 125.7129 125.2422 129.8902 103.5027 110.6449 111.8253 111.847 120.6978 103.3111 105.7754 127.432 127.1734 127.0863 127.8908 128.3467 125.7345 129.51
115.19 115.1489 114.7399 114.7113 114.675 114.6857 114.766 114.9109 115.0783 115.3185 115.4004 121.9706 116.0162 116.4386 116.7459 117.0974 117.3289 117.9689 114.4855 118.6798 118.6753 119.1148 119.423 119.7579 119.9469 120.9364 119.5813 121.8346 121.2087 121.6878 117.67 109.6458 107.2387 110.9359 122.7052 113.4121 117.1622 110.1202 105.878 103.8929 116.7821 124.6124 124.1536 124.8525 125.0897 125.241 125.6215 125.5709 121.6203 106.6483 115.1606 112.5241 127.1346 115.8134 113.5681 114.5555 102.6149 128.5238 126.4432 127.1722 127.4026 127.707 126.5765 116.0
114.56 114.1186 114.0561 113.9633 113.9329 113.9722 114.0696 114.2242 114.4301 114.664 114.912 115.1122 115.5218 115.9932 116.307 116.6831 117.0423 117.427 117.7426 118.2225 118.4879 118.8501 119.1498 119.5893 119.9591 115.4607 101.2798 98.7352 111.4468 111.2626 106.5628 105.8651 107.327 112.4804 110.5791 122.7341 114.0892 105.9107 102.2268 109.5612 123.9292 124.3094 125.2993 116.3944 125.646 125.255 124.1718 124.7048 125.8323 124.5337 124.5799 101.4013 104.0977 104.3101 104.5927 104.5762 103.6758 126.2919 126.1312 127.1364 127.5282 127.7481 128.0561 128.17
113.88 113.4862 113.2853 113.1631 113.1586 113.1969 113.309 113.4934 113.7336 113.9939 114.406 114.768 115.0685 115.4278 115.8759 116.2709 116.6809 117.0733 117.4763 117.8616 118.2429 118.6175 119.1594 119.0791 119.9846 110.1738 102.8383 107.3036 101.697 105.3899 108.4198 108.1658 106.2835 113.5436 122.0028 112.8208 122.491 117.339 121.3206 101.7333 100.8971 116.876 116.0283 116.5633 118.4176 125.03 121.931 123.2112 121.6077 122.9045 107.6911 105.9524 105.7319 104.0085 119.0089 107.5098 129.4542 126.6603 126.961 127.219 127.4921 127.7318 127.9016 128.32
113.15 112.6664 112.5055 112.4707 112.2846 112.3353 112.4778 112.6867 112.9757 113.3287 113.6947 114.1173 114.5366 114.9813 115.4297 115.8692 116.3058 116.7357 117.1582 117.5748 117.9636 118.1973 121.2566 119.266 119.2085 124.5053 123.6915 103.7131 106.0685 103.3415 103.0844 110.9484 110.9007 119.1866 121.4704 122.8496 101.1535 105.2321 100.1409 119.5304 116.6244 116.272 115.5697 115.9211 116.2348 114.8226 121.9528 116.1692 112.6412 109.8098 127.6299 113.1797 110.3044 106.8988 110.8533 127.9011 125.8601 126.6097 126.893 127.1231 127.407 127.7181 128.2082 128.32
112.3 111.7942 111.5119 110.4833 111.368 111.4523 111.6175 111.8876 112.2012 112.5625 113.0354 113.4996 113.99 114.4833 114.9729 115.4605 115.9399 116.4022 116.8588 117.302 117.7024 118.2216 118.5663 118.8191 118.1883 115.7124 122.2574 106.0878 103.794 109.9784 115.2436 120.7012 120.1535 120.1499 109.323 104.3619 107.5044 115.9083 99.3588 117.8834 114.4583 114.8959 114.941 115.6455 116.4114 113.9412 121.0678 119.6914 119.1408 124.6167 126.1544 117.3161 114.2431 128.3487 113.1462 126.4565 126.3033 126.4624 126.9176 127.2143 127.521 127.6852 127.3479 128.68
111.44 110.8275 110.3466 117.1383 109.4189 110.5884 110.3339 110.7265 111.3272 111.7821 112.3168 112.8622 113.4211 113.9789 114.5243 115.0593 115.5796 116.08 116.5676 117.0363 117.4844 117.9128 118.3611 118.7345 119.5063 100.6179 111.2951 107.0905 107.2786 111.8834 119.4422 110.9656 107.0608 107.0628 100.9095 100.9211 97.7942 98.0303 102.3023 111.1387 116.969 115.7924 114.7446 115.6301 116.6124 118.6986 116.8945 121.5626 116.9272 117.3835 122.5289 120.9166 124.2685 126.8154 127.437 127.0284 127.0353 127.1223 127.5057 127.498 128.3923 128.4288 119.2554 115.72
110.43 109.7987 109.2395 110.9644 109.0935 109.2379 111.4772 114.7452 110.4153 110.9325 111.5881 112.2188 112.8583 113.4821 114.0863 114.6869 115.2612 115.7907 116.2969 116.7949 117.2677 117.7253 118.2038 118.4202 125.3304 114.6991 102.366 111.3527 107.3491 105.8202 108.4141 109.3758 107.623 105.6466 109.2899 106.087 111.8198 109.4163 107.772 114.8574 110.8708 115.3692 114.2783 116.7003 115.0058 107.3841 117.2897 116.7658 122.2289 118.2961 115.1071 119.2073 118.485 123.1098 124.458 131.7217 129.9635 131.9956 131.4416 133.6106 131.0119 128.8504 131.6596 130.32
109.29 108.5995 108.067 107.5888 107.5472 107.7796 107.6618 108.8973 109.4439 110.0516 110.8251 111.5613 112.2986 112.9948 113.7854 114.3014 114.8556 115.4961 116.0345 116.5595 117.0625 117.5934 117.8088 115.1039 110.4379 107.0896 101.9495 102.9505 106.6547 110.7446 109.71 107.5842 108.1965 105.9056 103.5055 111.2842 107.4607 119.7283 115.1875 115.3583 108.2162 116.0763 115.4503 106.0559 112.8393 110.3717 117.7937 117.5936 119.6941 119.1448 122.1421 114.2511 123.2746 126.5592 115.9713 115.3767 123.0695 114.5907 113.4104 110.5868 131.662 129.8491 130.2148 130.41
107.76 107.2954 106.5647 106.0793 105.8921 106.1786 106.8725 104.8919 108.2542 109.0827 110.0639 110.9261 111.7523 112.5309 112.7876 114.4671 115.3524 115.1838 115.8049 116.3607 116.8784 117.4031 118.246 115.1529 108.7316 113.4626 100.2153 101.6363 102.9913 105.8626 108.8233 106.8845 107.7381 106.032 100.7076 99.6002 101.2325 106.1514 114.7348 108.816 106.2657 115.3431 116.3535 112.2824 118.0772 118.5954 118.2501 124.4929 119.4089 119.0487 107.7505 108.371 106.9867 109.198 103.0097 106.1251 102.3097 101.1803 122.7954 122.817 128.0537 130.162 129.2539 127.99
106.29 105.823 104.7923 104.0311 103.7674 104.0815 104.8341 106.1049 107.3364 108.2059 109.2962 110.3097 111.1951 112.2185 114.4408 109.4147 114.432 114.7221 115.6214 116.1821 116.753 117.2909 114.9267 118.3619 112.4407 104.0653 117.2258 100.17 100.5404 106.3547 104.8875 105.1611 105.3279 119.1068 100.6844 110.3905 98.0193 115.5886 109.4052 117.7179 113.8327 116.2669 117.9816 116.4302 115.3076 116.3548 117.2603 124.132 111.5495 110.4053 107.8374 106.6709 120.78 108.7825 111.0343 124.6791 128.8333 121.2251 130.5783 129.219 126.8457 110.3753 122.7881 127.98
104.53 104.1897 102.6598 101.4001 100.9499 101.5149 102.8358 104.3987 106.0047 107.1618 108.6232 109.7473 110.7744 111.7908 112.948 112.2291 114.2199 114.8198 115.4401 116.0323 116.6249 117.1049 115.751 118.2125 104.3534 97.6776 119.6368 109.4208 105.3885 103.5848 112.9799 107.7165 107.4551 107.5583 110.2758 107.6338 112.5008 116.4589 103.6726 106.39 119.3038 115.3437 124.4729 123.472 124.0428 124.1217 127.0188 123.4368 109.1035 117.3946 118.5665 115.7112 121.3898 115.8374 117.9188 116.1785 135.2505 118.6543 118.4139 119.8638 120.6473 121.0731 122.043 121.81
104.05 102.4864 100.133 97.7879 96.6463 97.9908 100.4117 102.6385 106.0988 107.0021 108.0191 109.2668 110.4179 111.4645 112.3202 113.2436 113.9223 114.6532 115.3165 115.9176 116.5128 116.958 116.7414 119.9893 99.2784 96.3462 97.6101 102.0169 100.9955 118.4708 105.7396 129.456 121.2628 109.5604 110.5408 99.6502 104.15 110.3718 115.3816 123.6427 123.8725 123.6928 124.1356 124.3869 124.5296 126.9464 107.0861 117.0163 108.4998 113.7985 116.329 114.2913 119.4449 116.0763 124.088 120.3726 118.2178 117.278 118.1906 118.3886 120.409 122.2832 122.0961 121.14
101.86 100.8572 97.3184 91.9361 89.7489 92.6033 97.7908 101.2447 103.7935 105.7723 107.522 108.9298 110.1502 111.2274 112.1821 113.0544 113.8465 114.558 115.2265 115.8454 116.4389 116.9265 117.2464 120.6428 119.3859 119.8123 120.8525 120.3075 120.4132 120.5138 120.7101 120.464 121.3898 120.9384 123.1379 117.3004 98.3421 122.1378 122.8076 123.0649 123.7631 123.8959 124.1482 124.2532 124.8522 126.1617 109.2103 120.0305 109.3193 113.2284 114.1908 114.3044 116.6339 124.9654 129.2212 120.1433 120.6919 108.6714 118.172 122.1391 127.8748 111.1992 128.6111 109.36
101.54 99.7987 94.8664 87.3118 84.8632 87.8205 95.6965 100.2662 103.305 105.5279 107.2805 108.7571 110.0138 111.1218 112.0927 112.9711 113.7665 114.5017 115.1827 115.7979 116.264 117.9835 126.028 133.7909 118.2863 116.5609 136.2468 118.0355 119.8368 120.921 120.6588 121.0277 123.2248 99.4135 112.6889 98.0787 99.5789 116.5933 119.2214 120.3674 122.4355 123.8809 124.3005 125.2931 120.0801 115.7795 103.2404 102.2171 102.3644 102.2796 102.3283 102.7847 102.5873 100.9872 111.5082 104.0239 127.7612 106.9334 106.4631 106.7787 112.1481 113.1734 128.7044 130.94
101.47 99.8232 94.9146 87.2581 84.6552 87.8234 95.6693 100.2466 103.2628 105.4937 107.2791 108.7523 110.014 111.1156 112.0919 112.9768 113.7719 114.5039 115.1787 115.7931 116.3405 117.5891 118.756 133.6573 120.0534 118.0592 131.4845 119.6381 120.8218 116.0762 121.2406 120.7942 124.1029 100.5598 106.7337 101.5094 108.0706 118.0165 120.8623 115.1835 116.4645 124.7051 121.4187 118.4543 101.4527 113.8825 104.0747 106.7161 107.526 105.9219 113.0033 107.0915 107.7078 107.8179 108.0231 108.1413 108.7307 110.3844 111.272 112.049 114.2277 119.9229 110.4398 127.96
103.82 100.8691 97.2935 91.8017 89.8178 92.3826 97.8663 101.221 103.8211 105.8578 107.5247 108.9318 110.1538 111.2234 112.1814 113.0449 113.83 114.5474 115.2216 115.8485 116.3931 117.0383 118.385 107.4717 111.1097 112.5337 119.6117 113.9281 116.2702 113.8023 110.7976 123.0802 118.0023 104.2282 99.9491 100.4511 124.6487 125.3986 115.4542 125.1269 126.2738 127.1185 123.8147 114.2733 109.8522 109.6096 110.6977 116.263 118.7412 114.1768 127.8604 122.4016 120.5038 119.1577 118.8497 119.236 119.8348 122.246 122.6128 121.857 121.5977 121.4644 119.5413 121.79
103.82 102.471 100.139 97.7208 96.5303 97.9573 100.3912 102.7359 104.7568 106.4943 107.9825 109.2739 110.4143 111.4371 112.3551 113.1901 113.9494 114.672 115.3114 115.9259 116.4317 116.9383 117.0288 110.5946 104.8994 96.6011 111.993 117.6312 114.9316 107.1466 111.4107 115.5084 103.3958 104.7234 99.5719 99.5899 117.8155 114.169 120.2724 123.6989 121.3941 123.1468 120.8161 131.3215 111.5497 115.8778 114.27 123.9063 118.082 115.2199 118.1124 115.645 126.5558 119.7282 115.6179 115.4948 116.1934 120.6766 120.5567 119.2723 125.3856 126.9102 121.3561 121.96
106.03 104.1609 102.6463 101.3757 100.9141 101.4838 102.8155 104.3732 105.9006 107.308 108.59 109.7477 110.7871 111.7381 112.602 113.3905 114.1254 114.8065 115.4409 116.0364 116.5734 117.3911 116.1949 119.4859 121.5949 115.7037 109.8427 121.0156 121.294 120.3199 123.6353 115.9754 107.8847 102.1698 102.2183 106.2339 101.9659 99.4768 113.1003 118.8063 119.6475 126.515 118.3811 119.6169 113.1383 117.1648 118.4208 121.8676 107.8321 107.3306 107.5669 109.2992 109.121 113.2234 121.1537 122.3428 123.2403 124.7757 123.8193 124.299 124.546 110.2710268113381 127.2478 127.97
106.22 105.8344 104.758 104.0081 103.7033 104.0722 104.8814 105.9358 107.0821 108.2161 109.2922 110.3051 111.2417 112.1041 112.9108 113.6522 114.3501 115.0026 115.6075 116.1788 116.7084 117.3513 117.7887 117.5666 117.8808 119.3268 120.9516 119.5907 120.0347 122.4982 112.1376 112.3789 109.1902 111.7196 105.4334 111.6138 105.7372 106.7378 119.697 112.7525 127.1173 113.6762 116.6657 115.537 123.6735 120.7863 109.0952 106.6549 103.2752 102.7568 103.2063 103.4932 103.6496 116.8084 123.49 107.9941 127.1 128.9613 129.6636 129.7006 130.6659 145.6059 131.714 131.28
106.66 107.222 106.5758 105.9377 105.9211 106.0606 106.6262 107.374 108.2497 109.1545 110.0472 110.9158 111.7488 112.533 113.2702 113.962 114.6137 115.2281 115.8038 116.347 116.881 117.4302 117.7075 119.7184 119.5215 119.0722 121.2149 121.1203 123.9256 103.7205 118.455 108.1498 115.7605 102.5562 101.3417 108.5889 106.7936 112.2249 111.8614 113.3711 114.5926 112.5384 104.6326 126.3915 121.3892 116.67 108.3699 105.1458 103.3073 103.937 104.0494 104.2325 104.0884 106.4418 128.4863 100.8147 125.6913 129.1072 129.9275 130.2611 130.0263 128.3955 129.9903 131.27
109.19 108.7398 107.7451 107.6997 107.647 107.7847 108.1226 108.6632 109.3345 110.0727 110.8167 111.5647 112.2869 112.9883 113.6591 114.302 114.9101 115.4922 116.0257 116.5806 117.0317 117.5097 118.9711 103.8423 99.6356 113.3018 103.2426 107.9381 106.5522 96.9155 98.111 120.4855 108.1199 118.2321 115.7489 107.1781 108.4747 112.4486 108.5047 114.7681 115.639 114.199 104.9398 104.4071 104.8691 104.102 103.2842 103.6373 104.2986 103.4915 103.7802 104.3261 104.6559 100.9741 126.9496 101.6519 104.7252 129.5741 128.4468 130.5475 128.0201 130.5626 122.8602 131.49
110.28 109.2006 109.4793 115.3709 108.1154 109.1967 109.3928 109.8303 110.3627 110.9405 111.5775 112.2153 112.85 113.477 114.0828 114.6752 115.2313 115.779 116.2931 116.5843 117.7984 118.1937 118.0392 118.082 112.2092 98.9907 105.5649 108.8839 119.4753 119.423 120.4426 121.545 122.5086 107.9559 118.3627 107.6996 112.6725 115.0628 111.3261 119.298 123.8461 125.1086 113.2251 115.7349 103.2808 102.5809 103.0267 103.3065 104.2216 105.1771 105.1551 105.9015 106.2527 104.5695 128.9047 110.4122 127.4882 126.372 127.8885 128.0775 130.6396 105.7853 121.3122 128.7
111.4 107.0957 111.0912 97.3442 111.0441 110.1217 110.5276 110.8806 111.3003 111.7867 112.3126 112.8653 113.4174 113.9747 114.5205 115.0596 115.5747 116.0724 116.663 116.6061 114.4296 109.1286 118.5858 117.735 118.0431 119.8721 97.8315 104.8934 122.3812 110.7535 120.6277 119.925 120.8073 120.8107 110.2392 100.8463 107.8574 112.3429 121.1151 111.0088 114.1292 125.4007 112.6129 108.2673 102.6862 111.5642 104.7368 104.7351 105.31 107.4361 105.7456 124.1586 126.6056 108.588 127.3557 125.3007 127.8601 127.541 127.3849 128.9606 112.5794 114.6109 129.7588 127.84
112.3 112.146 112.2603 102.9255 112.4634 111.0883 111.5548 111.8313 112.1739 112.5738 113.0205 113.4961 113.9862 114.4817 114.9662 115.4556 115.931 116.3992 116.8465 117.3615 120.5333 121.7395 118.1205 115.5083 120.7105 120.157 120.1812 120.8417 108.2412 122.036 119.6353 105.0632 106.5953 110.2353 106.5957 104.6434 105.3489 121.7258 106.757 104.8761 118.048 114.687 103.9424 106.7417 102.8421 102.6777 103.1107 103.809 102.712 114.6885 125.2167 105.6791 106.0821 107.9474 109.8942 103.8859 125.6933 123.9077 124.6836 124.0936 126.5702 128.7065 126.8052 128.26
113.11 112.6556 112.6917 113.45 112.2405 112.2242 112.4686 112.6878 112.9768 113.3119 113.6934 114.1106 114.5324 114.9738 115.418 115.8658 116.308 116.7505 117.1733 117.5655 116.9973 118.0188 111.6212 103.2449 98.0437 108.7921 111.1417 122.1616 127.099 121.0013 122.1319 118.0444 109.6072 99.0774 108.0137 102.2585 120.8236 102.833 110.5141 114.5159 121.6288 115.4597 114.0639 108.0199 102.7282 102.9628 106.4304 105.5964 104.5812 104.0233 101.6867 104.2757 105.33 105.8231 115.4402 115.4329 109.6151 108.1627 110.9394 111.4266 107.834 126.2826 107.3477 127.22
113.86 113.4674 113.2572 113.0111 113.1512 113.1996 113.297 113.4799 113.7178 114.0107 114.3409 114.7002 115.073 115.4673 115.8675 116.2709 116.6562 117.0898 117.3807 117.9193 118.0521 122.1357 112.0479 119.2867 98.446 101.5938 103.0056 115.3545 86.7336 122.1759 122.3024 117.8675 113.8073 102.9681 102.8702 104.4694 102.4669 113.8843 115.721 124.9422 116.8385 117.9026 119.9955 105.493 108.5038 104.912 108.1073 101.6317 105.5648 106.2135 104.9416 107.4031 106.7736 105.4437 104.1842 123.3672 115.9355 110.4451 123.6104 122.5144 118.5325 120.7973 105.7233 106.12
114.54 114.2028 114.0453 113.9702 113.9227 113.9605 114.0577 114.214 114.4207 114.6623 114.9507 115.2641 115.599 115.9487 116.3089 116.6719 117.0972 118.1472 119.2002 118.1979 118.5792 109.0021 108.3981 121.1328 103.8946 104.1301 106.0718 104.7875 104.9236 115.0701 114.9295 122.8778 125.7234 96.8859 111.6162 107.443 106.0876 103.7254 106.5861 110.8404 100.3181 100.5765 111.3818 109.0137 113.483 114.9033 106.9062 108.1802 104.0427 104.3351 103.3544 102.7179 106.9598 116.717 117.2209 110.3334 109.6068 115.0191 128.5141 127.1273 123.4331 123.2745 117.726 121.14
115.17 114.7331 114.7151 114.6752 114.6474 114.6796 114.7531 114.8854 115.0625 115.2851 115.5348 115.8108 116.1097 116.4277 116.7518 117.0916 117.1815 117.5917 113.1076 120.966 118.0722 115.4044 121.7237 108.3597 105.8181 111.142 106.6114 98.1667 106.1016 110.2777 107.9935 115.6927 113.4819 118.0038 121.0417 113.8992 105.6055 107.4491 110.3104 106.7354 113.9792 110.0681 101.2991 102.1535 107.1778 108.1001 108.4943 116.0461 118.434 104.8517 105.8315 114.4262 104.5504 111.994 129.6125 126.58 110.4963 122.591 129.1949 117.6184 106.159 110.8003 101.9018 114.3
115.75 116.4675 115.6913 115.2962 115.3097 115.3377 115.4044 115.5187 115.6778 115.8618 116.0829 116.3325 116.5966 116.8813 117.1611 117.5084 117.4766 121.0784 104.3904 109.0706 121.8903 106.9358 107.4801 101.1008 99.3122 105.4948 104.3856 105.2924 105.4036 111.6729 111.2829 111.9851 109.7828 111.8678 110.5127 124.0035 102.703 108.5941 108.6077 110.771 117.1381 106.3887 102.0169 101.6447 105.7674 108.8313 108.8652 118.9523 123.9894 107.4091 107.3514 110.9467 111.384 110.0991 111.7566 126.4237 109.2347 114.5276 113.9358 118.8934 119.4183 104.5141 120.7009 106.27
116.3 108.2447 115.9561 115.8992 115.9226 115.9487 116.0107 116.1101 116.2459 116.4102 116.6056 116.8236 117.0696 117.3066 117.6422 117.876 118.6583 100.2353 100.9642 97.0284 102.2107 110.2859 97.6686 100.9312 101.8908 112.51 98.1458 113.1623 101.9629 104.1778 106.7724 110.2345 106.4738 109.5624 110.1932 110.5197 101.6829 109.9703 102.0051 113.9572 110.1599 108.0023 101.9529 111.9004 110.8391 114.1832 115.5348 113.9986 111.6509 109.8671 114.7604 103.5527 107.0095 121.2321 121.4648 128.27 118.7076 115.5578 124.9631 108.6759 132.6982 108.3556 130.6756 106.28
116.81 109.2448 117.6633 116.4537 116.4849 116.5267 116.5767 116.6653 116.7852 116.9359 117.1093 117.3013 117.5244 117.8075 117.6942 118.3014 118.3613 121.751 111.1131 95.0983 112.7842 106.2515 102.1275 96.8254 109.3376 122.6788 119.1704 115.77 114.4987 100.4556 107.3536 109.5947 104.743 101.5904 117.9471 103.8945 101.3426 103.467 105.5268 113.0651 111.1367 114.2131 109.3686 112.1604 111.4982 116.4197 120.6709 119.8242 120.6078 116.1348 112.3993 102.9961 103.552 106.3103 116.2106 111.7049 120.3016 120.3004 121.6792 117.8295 120.8709 127.2763 116.4125 111.91
117.29 118.171 117.0039 117.055 117.0489 117.0629 117.1149 117.1869 117.2951 117.4224 117.5792 117.7594 117.938 118.1929 118.5905 121.9617 118.8032 119.2441 118.039 120.9903 121.367 109.9027 102.864 104.7981 121.5794 117.3619 114.9612 122.0104 121.7505 104.7325 108.7234 108.7266 101.5227 111.1593 104.4592 105.5404 103.4882 113.1821 102.1851 105.4647 108.1673 110.1441 109.0944 110.5121 113.0272 110.565 121.2279 118.9953 120.979 121.807 121.8345 120.4565 114.5832 116.2978 103.9308 105.8013 105.4309 108.3339 118.9225 119.9108 121.0257 121.7702 129.8312 129.56
117.74 117.5421 117.6223 117.5671 117.5546 117.5688 117.6122 117.6827 117.7759 117.8933 118.0334 118.1946 118.375 118.2636 118.7822 120.2229 120.3094 115.5039 116.8643 119.9508 120.214 117.2342 100.8297 104.2413 116.4072 121.3005 121.7466 122.0575 121.3286 122.5779 102.0596 105.9254 108.4722 107.7153 110.0549 109.8626 113.0973 114.6871 116.9253 115.11 112.9321 113.3624 109.5137 110.6161 109.5172 111.9937 119.1971 118.1844 119.9809 116.5016 122.2443 107.2609 123.5152 120.4915 117.3891 118.4325 119.0047 120.2624 115.4528 111.8199 105.7311 130.6026 126.8515 126.43
118.19 118.1603 118.0831 118.0478 118.0388 118.0492 118.089 118.1464 118.2359 118.3436 118.4691 118.6179 118.7605 118.9489 120.4543 96.4474 97.6469 108.9954 120.8525 121.3666 114.2352 120.2045 121.9226 103.0097 102.7149 111.1649 119.0839 121.7383 112.918 112.136 110.7597 108.4619 101.4538 105.0157 111.9274 110.0238 114.0472 113.4204 114.7392 109.1272 114.6443 117.8135 114.4206 121.6072 102.9658 114.741 110.5579 121.0086 118.5598 113.5845 122.3097 120.5404 120.5095 120.4977 119.6325 120.1437 123.1516 125.604 111.8323 120.0443 117.9169 103.3513 127.1339 128.43
118.6 118.5863 118.5352 118.5047 118.4925 118.5043 118.5436 118.5959 118.6768 118.7719 118.8856 119.0165 119.1672 119.1892 120.1993 109.5331 112.259 114.7009 111.332 120.991 120.7465 123.231 123.6009 111.2475 104.1975 103.2042 102.9111 107.2763 119.437 107.9276 98.32 104.7393 109.1712 103.1492 108.8821 113.3171 112.6126 114.5321 111.5748 114.8831 116.4288 113.5849 114.9455 117.6233 100.8478 109.3272 118.1143 119.8673 113.2252 109.9172 121.3076 117.9781 118.7176 118.8933 120.6036 120.0528 116.7402 119.9289 122.0625 121.1839 114.6861 107.2909 106.0558 107.93
119.0 119.0104 118.9668 118.936 118.9264 118.9344 118.9648 119.0172 119.0896 119.1744 119.2814 119.4045 119.5339 119.7143 119.8438 110.6464 108.6297 119.7362 123.6099 121.1413 121.8273 105.1233 120.0564 119.2037 116.5687 105.4319 106.5742 103.1759 102.3128 109.4417 108.9002 106.8334 102.345 106.3906 105.4219 106.3733 109.6361 120.2287 115.4259 115.1139 118.708 107.1378 110.6389 108.5279 103.2457 112.6091 115.3176 119.2273 119.8143 121.1756 128.3222 123.0524 119.8379 119.7003 120.2743 121.0953 108.4155 117.816 121.5104 121.7593 124.4035 110.8034 105.478 106.58
119.38 119.4207 119.3732 119.3497 119.3354 119.347 119.3798 119.4271 119.486 119.5645 119.6595 119.7769 119.8964 120.0312 120.0985 120.4005 122.7901 120.2394 108.3453 115.5829 106.3954 115.6816 109.7215 122.84 116.2719 106.4141 107.6096 111.2014 115.5106 105.3088 101.2449 101.5115 105.8164 103.8052 108.7372 107.2826 103.7472 112.4755 111.8087 117.5603 110.4982 114.631 108.0134 110.7248 110.1753 119.253 113.1328 116.638 120.8492 120.3821 124.5086 125.4425 121.0688 120.5889 125.2947 120.8937 119.4285 115.3745 122.45 122.9975 122.2979 120.1166 112.7866 106.58
119.74 119.8085 119.7645 119.7364 119.735 119.7442 119.7632 119.8073 119.8684 119.9434 120.0282 120.1354 120.2468 120.4023 120.483 120.5519 120.1991 120.9375 108.5922 117.7174 105.5908 100.0401 109.7691 114.5987 120.639 102.4152 106.4198 111.4559 112.1562 105.4807 101.2606 101.6297 104.9513 118.5316 106.8266 110.0654 106.1227 103.9441 110.1308 108.7944 101.2704 112.6824 116.8048 111.3012 107.3707 112.8234 117.1932 120.4908 122.3105 122.3246 122.6988 120.8078 119.6752 120.4666 118.4449 121.3888 125.3758 112.409 107.964 120.5884 126.1396 124.046 121.2325 106.6
120.09 120.174 120.1396 120.1128 120.1118 120.1185 120.1447 120.1801 120.2306 120.3021 120.3932 120.4827 120.5768 120.6953 120.8424 120.9729 121.3041 121.2887 121.9736 105.0903 108.7821 121.9215 106.1248 103.5676 100.2089 100.2649 104.2027 107.8553 109.0537 101.734 107.4765 109.8349 106.4084 107.5097 114.4899 111.0807 107.9604 102.4425 112.2948 106.2845 103.125 100.474 106.8772 102.3823 105.9493 116.7471 121.6294 120.5362 121.505 124.0008 124.2226 123.8872 123.9392 123.2212 121.7776 120.3695 123.2192 127.3118 128.5693 127.761 124.4171 123.543 117.2629 106.73
120.42 120.5291 120.495 120.4721 120.4745 120.4807 120.5031 120.5375 120.5842 120.6511 120.7084 120.7916 120.9659 121.0146 121.1544 121.2919 121.3704 121.6519 118.8765 110.4421 114.2099 123.2108 120.5921 113.9281 120.2533 107.7924 103.479 101.9203 112.7785 102.0327 113.2939 108.8918 109.1332 111.131 109.312 105.2796 106.9405 101.6526 104.1883 112.1603 110.3553 104.6729 103.0788 111.7498 103.1091 109.5036 117.3569 121.4332 121.3295 122.0019 122.6722 124.5746 124.3072 124.8741 124.1873 124.4912 122.4101 125.728 128.0982 128.186 126.2707 126.972 122.6779 124.5
121.05 120.8723 120.8427 120.8232 120.8137 120.8278 120.8405 120.8811 120.9206 120.9834 121.0838 121.1881 120.8688 121.342 121.3118 121.4379 121.7785 122.4256 123.5079 109.1551 111.6382 125.2951 113.3596 116.3046 116.0101 109.3946 107.9981 113.1909 105.477 100.0379 111.1634 112.4717 111.0178 110.2452 104.0891 111.6051 102.5803 107.7189 111.9933 109.987 111.7207 107.0534 111.5397 105.9795 114.9369 105.0475 107.5137 109.5998 122.3265 124.3055 121.9445 123.3866 125.5283 124.5188 125.9228 126.0109 127.6156 129.4705 130.2766 128.7243 130.6198 130.4285 120.7476 111.16
121.35 121.2044 121.1749 121.1599 121.1517 121.1588 121.1759 121.2127 121.2466 121.3066 121.3512 121.1676 124.266 119.9212 123.1092 121.7882 122.6005 113.9238 125.0792 104.0173 106.0595 115.7314 110.4841 108.1577 107.7956 126.0416 118.3203 113.1746 109.6523 110.7362 102.6022 111.0019 120.0561 112.24 109.6028 112.7189 111.182 103.2242 104.9516 110.811 110.8675 110.11 106.7063 113.7972 115.4586 116.3374 107.6173 117.9826 121.5552 122.0362 123.9295 124.3512 123.3851 123.09 126.1684 126.6484 126.0588 127.7344 128.108 115.837 118.745 116.2385 115.4819 121.1
121.64 121.5254 121.4905 121.4764 121.4694 121.4777 121.4969 121.5211 121.5611 121.6175 121.6681 122.3914 110.4414 104.209 121.7171 121.9185 122.266 119.3178 116.2379 102.6438 100.9487 109.8656 114.8718 102.8516 104.0399 102.8832 105.3637 106.2213 110.0519 107.7512 109.671 121.7684 120.3883 120.5822 112.1203 111.7816 113.0415 112.3985 107.0222 105.724 112.0603 106.9734 104.0473 104.3923 114.5902 115.844 120.3761 123.2702 120.9661 122.2285 122.3103 123.4599 126.5231 124.1338 130.0462 127.8033 127.0188 128.1945 127.7585 127.8846 127.6754 110.6379 108.119 120.89
121.92 121.8282 121.8043 121.7898 121.7838 121.7917 121.8051 121.8295 121.8649 121.9101 121.9906 121.7813 112.6543 121.312 122.9908 120.811 122.9306 122.7692 110.743 122.3534 102.7172 102.4499 106.1486 102.7855 100.8911 109.9751 110.3438 102.2283 108.6995 110.5616 108.2036 121.3618 118.3484 111.0869 112.5238 115.1287 113.2184 115.3384 105.5363 109.8076 110.3167 105.8347 104.2594 103.3956 113.0344 114.7733 116.0991 118.7476 124.0362 121.8667 122.9417 122.6399 128.1691 124.5118 125.4742 124.9264 112.8061 118.3989 128.1329 128.9195 130.6463 129.6141 105.0774 106.93
122.19 122.1197 122.1049 122.0842 122.0836 122.0752 122.0842 122.1205 122.1662 122.2059 122.2539 122.2381 123.5002 122.5824 122.722 119.9173 120.5122 126.4137 113.5191 123.6772 123.2714 109.4618 103.2634 101.6512 100.8 104.9218 110.1647 102.5162 102.9445 116.3888 125.6347 125.1335 122.4479 122.4959 102.2625 115.6632 119.7405 108.6722 104.5024 112.56 113.3355 113.616 107.3726 105.6156 106.0361 110.8604 118.0081 116.2079 117.4925 122.4201 124.6926 124.2771 125.6361 124.5269 129.195 127.6078 132.8655 136.692 134.1399 127.8642 132.3226 119.9021 113.0778 113.12
122.45 122.4144 122.3931 122.376 122.3684 122.3637 122.4542 122.4512 122.4475 122.4877 122.5409 122.6086 122.5051 122.5817 124.8334 103.9425 105.3761 111.8958 118.3774 123.1812 116.1257 104.7336 110.0928 103.7027 102.551 105.5524 110.8289 106.5391 109.7401 108.1511 113.1123 126.2032 124.6886 125.0573 109.2077 107.5254 120.3842 124.0344 106.1312 115.0631 114.737 108.0103 115.4879 115.9071 116.455 117.3725 109.9075 118.49 117.2912 118.6368 120.3813 125.2772 124.3392 127.7116 125.6383 129.2928 129.6408 126.1229 131.2702 106.1449 129.1344 111.4165 115.3421 107.07
122.71 122.6911 122.669 122.6537 122.6608 122.6441 122.3277 122.0566 122.7227 122.7623 122.8069 122.8656 122.9844 122.7995 123.1836 102.4022 110.7609 104.5768 104.8002 123.0674 120.6415 106.5833 106.5105 112.6925 104.6403 105.4763 106.5323 113.7057 113.9985 115.4192 105.1398 122.7811 117.8669 120.6506 105.0219 124.3642 109.1538 121.2321 112.1382 105.3822 112.3839 114.9587 116.1679 111.3538 115.8325 121.1751 121.8619 121.6809 118.9714 119.6236 120.6836 125.1484 123.8039 125.2155 126.3317 126.7058 130.8655 132.4388 132.533 110.7969 111.8287 105.8305 109.6709 107.2
122.95 122.95 122.73 122.74 122.75 122.74 122.73 122.96 122.94 122.92 123.1 123.1 123.04 123.21 123.21 123.37 123.33 102.91 103.1 103.1 129.06 108.79 109.01 118.44 106.01 113.68 109.16 115.35 109.17 113.96 114.37 125.16 103.28 117.75 125.52 123.78 123.58 124.03 124.3 104.23 116.68 117.25 115.72 116.23 116.42 116.58 121.12 122.25 122.06 120.19 123.75 124.28 121.17 128.01 125.11 127.17 128.39 131.01 131.7 108.0 110.94 107.03 115.08 107.2
