124.8700 124.7100 121.9100 124.4300 124.3300 124.0000 123.8600 123.7400 123.5600 123.4100 123.2800 123.0900 123.4500 111.4900 110.8300 115.1100 122.3000 112.1000 112.1000 112.8100 109.4800 109.4800 110.4000 110.3400 111.0600 107.4000 107.7100 107.6700 105.2200 109.9100 109.9200 106.0200 121.1100 121.1000 99.0800 121.0600 121.0400 121.2900 121.2600 121.4800 121.4400 121.6400 121.8300 121.8300 121.9400 122.1700 122.1100 122.3200 122.4600 122.6100 122.8000 122.9400 123.1100 123.2500 123.4100 123.5900 113.3100 109.4300 109.3800 124.1600 114.1200 124.6000 124.7200 124.8500
124.8400 122.9043 119.3962 124.0543 124.9772 125.2442 123.8318 122.2472 122.9245 123.3919 120.5012 115.2634 111.6325 119.2971 122.8856 118.8884 122.5241 122.3480 120.3177 123.2187 114.0849 106.9817 108.3559 108.7984 108.0344 109.6238 108.8812 101.1082 105.5457 102.5596 108.9263 102.1781 105.3904 108.1432 95.2244 122.3664 105.6092 101.2295 113.5959 121.3692 115.4510 121.2724 120.7101 121.6549 121.7494 121.8563 118.9996 117.8749 122.5436 122.4800 122.6513 122.7735 122.7373 123.3628 125.0455 115.7047 109.4154 108.1991 113.5974 102.2872 104.7580 123.0792 124.3950 124.8500
124.6000 122.7927 118.6298 121.4170 120.8242 120.5170 121.1902 123.0122 123.3686 122.7973 128.8058 129.5340 111.9185 111.3186 120.4064 122.3733 121.9338 121.2808 118.4014 110.2210 114.7676 101.0490 113.0898 104.0504 108.9141 106.7113 102.4253 106.4583 105.4443 108.5715 109.2476 102.0313 96.1091 123.4733 121.8828 111.4492 108.1395 98.6219 122.2300 120.9321 120.5911 121.3970 121.1882 121.3070 121.4527 121.6199 122.1181 120.3531 122.0262 122.2410 122.3861 122.5347 123.8325 114.6250 109.1380 106.0673 105.6795 111.2690 124.4686 126.4296 116.6376 125.5191 124.2052 124.6100
124.4000 122.0433 118.7262 118.5868 118.2405 118.2261 117.3961 122.7959 123.7505 123.6941 122.3036 121.7019 123.2585 101.8701 115.3538 121.3714 121.3107 120.8958 112.9161 116.7028 105.8061 109.5742 112.3401 104.0507 108.3761 108.5532 113.3368 114.3833 103.4086 108.6560 103.9769 101.3583 117.2182 114.0523 117.5688 115.7195 116.8095 120.2474 119.3866 120.4829 113.2712 120.8722 120.9660 121.0221 121.2041 121.2644 121.4641 121.9418 121.8483 121.9788 122.2097 123.1132 122.1416 111.3402 104.8039 109.7829 123.8598 125.5105 117.1344 123.7395 124.0980 123.9298 124.3530 124.4100
120.1300 123.3921 118.2039 119.2196 119.6512 118.9272 118.3327 119.8266 119.1516 122.4227 125.6215 123.1470 113.3891 119.2266 112.3682 122.3798 122.2396 121.3468 122.1466 113.4514 109.2427 109.1143 113.6492 108.2516 107.1564 105.1754 106.6429 103.4519 111.5361 101.9449 106.0591 107.0120 118.4685 119.5527 119.8146 119.8225 120.1026 119.9324 119.9681 120.4552 119.2003 120.6957 120.5940 120.7321 120.8801 121.0715 121.2149 121.4261 121.5728 121.6920 122.0902 124.3863 104.2722 108.5382 110.4847 110.4179 102.1016 122.4914 125.4448 122.7718 123.8302 124.5387 124.2018 124.3600
120.0000 121.0919 118.7989 119.5610 115.7626 116.1262 118.9617 118.4900 117.3880 117.1234 125.9644 112.6596 118.7526 108.5271 118.1735 110.0240 117.2689 121.4725 120.7395 113.7454 115.6891 108.5809 112.7360 109.1931 102.6272 104.0173 97.6829 96.4069 100.3880 105.1689 104.0597 120.3379 117.2433 119.1341 119.4858 119.5183 119.3362 119.6195 119.5488 119.7543 119.9096 120.0828 120.2922 120.4213 120.5934 120.7596 120.9474 121.0886 121.2247 121.6907 121.4334 101.7511 104.5710 107.6437 107.3445 111.9200 110.8443 109.8636 100.8431 121.9404 115.1812 123.8826 123.9705 124.1600
120.0800 120.1854 121.9600 119.9250 119.4364 120.1224 119.2652 117.3093 119.5590 120.5152 122.3453 119.0780 113.7625 108.5427 117.7297 123.1624 120.5520 120.3073 121.6084 118.0436 109.4329 109.9337 107.6233 110.8785 103.4252 98.8136 101.5782 98.4751 96.1953 99.3997 105.9696 116.2631 118.5036 120.2109 100.0465 120.6033 118.8151 119.2353 119.3951 119.4797 119.6113 119.7655 119.9217 120.0953 120.2823 120.4590 120.7134 120.6136 122.7278 109.4741 106.5710 103.4290 101.4054 119.4186 122.3168 116.7739 114.4666 100.2733 99.8566 123.8360 123.1964 124.0813 120.4182 124.1000
120.9900 117.5671 114.3170 114.3504 115.3230 118.6079 118.7513 120.3969 119.8123 121.1434 122.9339 113.1718 115.1114 110.7213 105.3882 123.1760 121.2436 120.1141 121.2328 109.5731 116.0227 107.5471 105.9948 102.8448 99.8966 115.3164 101.4289 93.8512 106.8034 101.8646 123.7790 119.4111 118.5725 119.2750 119.6063 118.5693 118.7230 118.8180 118.9469 119.0888 119.2428 119.4101 119.5822 119.7719 119.9658 120.1689 120.3792 120.5918 121.0699 116.6600 103.6719 102.6564 122.8473 122.0488 123.2790 114.9089 109.2697 112.6636 123.4249 123.3250 123.4022 123.7094 122.7603 123.9000
120.6500 121.8551 114.0727 114.4631 114.0954 114.2946 119.2504 119.5643 122.6102 120.0721 116.4978 113.7342 108.2277 112.1284 110.1521 110.1468 120.3915 120.0229 119.5758 98.1601 120.7548 101.4957 107.0005 103.4124 99.1813 118.8003 101.4960 108.6703 114.8368 98.5892 118.7755 117.6704 118.1065 117.8961 117.8640 118.2273 118.2844 118.4139 118.5442 118.6985 118.8595 119.0455 119.2313 119.4366 119.6390 119.8529 120.0359 120.2869 119.8723 120.7766 103.1905 109.7524 127.2099 121.4238 120.1521 122.6869 112.5471 124.1239 122.7185 122.9174 123.0776 124.5353 110.7694 105.3500
120.7200 120.3070 115.5461 114.0698 113.7199 113.6519 112.8453 119.7851 108.2766 116.8748 121.0133 115.4457 101.0274 115.6397 113.6688 121.1149 119.8895 119.5886 124.7860 122.0372 122.1684 115.3564 113.1637 98.6214 98.3784 109.2814 113.9940 108.2138 117.7531 114.9913 117.5798 117.2516 117.6124 117.6526 117.7474 117.7409 117.8358 117.9732 118.1148 118.2854 118.4639 118.6621 118.8697 119.0838 119.3151 119.5477 119.7811 120.3292 118.4429 118.6707 116.3366 115.6480 121.3975 117.0778 98.3980 97.9744 121.6492 122.1128 122.7379 122.8513 123.1334 123.3609 124.5737 123.6400
115.8300 115.5463 114.0507 113.6907 113.7192 114.0613 114.5079 115.0943 115.4622 114.7166 111.9644 115.4471 111.9801 112.5793 109.0502 121.3286 119.0787 118.7162 120.2507 119.9290 119.5943 109.8257 105.8634 108.4416 105.5399 118.1504 117.7907 117.1287 117.7200 117.3278 117.1255 117.0156 117.0612 117.0908 116.9868 117.1958 117.3797 117.5106 117.6744 117.8530 118.0552 118.2690 118.4998 118.7325 118.9773 119.2208 119.4996 119.4806 120.5041 121.0443 106.0955 107.8602 122.3919 105.6691 108.5770 104.3036 114.5760 122.1715 122.4557 122.7325 122.9822 122.9559 123.8792 123.5900
115.7200 115.2435 114.5818 114.2964 114.4600 113.9155 115.3545 114.1625 116.9614 116.0406 111.9619 114.3027 111.7775 111.2131 102.2711 113.3960 118.4991 116.9831 101.2440 111.6984 118.2853 110.1517 117.0178 135.2989 111.0510 110.8982 117.1103 116.8544 116.5841 116.4521 116.5599 116.5299 116.5828 116.6035 117.3820 116.7557 116.8853 117.0271 117.2048 117.4077 117.6267 117.8651 118.1101 118.3694 118.6314 118.9066 119.1766 119.4651 119.6113 120.3370 120.9080 128.3332 120.4993 123.1858 115.1330 109.8718 116.1475 122.6039 122.2892 122.5945 122.7909 121.9378 126.1900 125.6500
123.2800 121.7024 117.3549 116.7641 117.5380 116.7448 115.2867 114.4305 117.0953 110.8943 107.7423 107.6234 105.2457 110.0963 110.9007 109.1433 103.0924 106.7912 105.9987 110.3591 118.3495 122.4221 115.0266 117.2668 114.2111 116.1286 116.2017 116.2653 116.4400 116.1113 116.0060 116.0462 115.6068 113.2044 110.0356 116.2618 116.3471 116.5101 116.7134 116.9416 117.1847 117.4485 117.7178 117.9997 118.2867 118.5781 118.8698 119.1653 119.4551 119.7316 119.3653 123.0787 119.3647 106.5465 112.2776 114.4861 109.9066 122.6806 122.0791 122.4455 122.6924 122.6906 129.3467 108.7700
123.2400 120.8326 123.3646 114.5431 116.1656 118.2238 118.2663 119.5422 118.1814 111.9783 111.6079 111.5647 104.5044 99.9943 111.0386 112.0362 99.7309 108.8476 108.3945 104.3180 108.4633 118.4154 116.3232 116.7762 116.8704 116.2359 116.0649 116.4142 113.8451 115.7543 115.3825 115.3218 115.4545 117.0948 118.5057 115.2203 115.8162 115.9763 116.2040 116.4541 116.7282 117.0163 117.3101 117.6172 117.9316 118.2489 118.5570 118.8691 119.1532 119.4760 119.7822 119.9141 121.5803 115.4669 123.1879 123.5501 117.4056 122.3456 122.0330 122.3038 122.5537 122.4872 125.3869 123.7200
123.0200 121.0082 123.2262 113.3967 116.9321 115.1571 117.0108 120.6070 111.2502 109.1704 112.7236 111.8397 113.8571 113.9859 104.2405 112.3950 105.0620 98.4877 96.7437 104.4857 100.2405 117.3143 116.5427 116.2609 115.9074 115.6803 115.4672 112.4806 108.4344 114.9002 114.7304 114.6539 114.7796 117.0995 115.1666 115.3328 115.1299 115.4119 115.6646 115.9533 116.2556 116.5737 116.8999 117.2368 117.5734 117.9115 118.2424 118.5940 118.9057 119.4960 119.8720 119.8620 120.2258 120.8204 118.3132 121.0957 121.2029 121.5764 121.9238 122.1761 122.5288 122.6416 123.4232 111.7900
129.9700 123.4121 123.0552 115.7590 114.9766 119.3702 113.2446 120.0793 117.5347 110.7157 111.2380 111.4444 109.4780 108.4615 106.0228 104.0127 109.8212 97.4204 115.5298 105.2348 108.4621 114.7016 116.1647 115.8129 115.4504 115.1230 114.8369 114.5056 115.2891 114.4210 114.0265 113.9578 114.1650 114.1143 114.1872 114.2593 114.5452 114.8032 115.1020 115.4243 115.7621 116.1141 116.4809 116.8435 117.2151 117.5793 117.9440 118.2909 118.8763 116.3083 119.1810 119.6180 119.9822 120.2769 119.9941 120.8309 121.1768 121.5128 121.7806 122.0511 122.4233 121.7797 122.3206 121.9600
122.9400 122.6770 123.2819 113.6100 114.9443 102.4466 115.5504 116.2472 116.7650 108.5297 110.8019 109.4261 109.1319 107.2570 108.7224 121.8468 103.5135 93.7259 105.3340 95.1780 110.3421 117.2500 115.4371 115.3238 114.8868 114.5226 114.1870 113.8787 113.4471 113.3606 113.2707 113.1789 113.1918 113.2811 113.3948 113.6130 113.8679 114.1759 114.5113 114.8733 115.2567 115.6554 116.0517 116.4527 116.8546 117.2483 117.6346 118.0302 118.3733 118.4584 119.0355 119.3885 119.8089 120.1251 120.4920 120.7672 121.0744 121.3680 121.6569 121.9368 122.2154 122.3206 122.7591 122.9500
122.9100 122.6647 122.3803 121.9192 121.7161 117.2121 101.2095 105.8226 110.2782 108.6083 112.4401 108.8019 109.0691 111.6113 107.0525 106.4105 106.0664 99.3289 101.9081 107.5094 103.1141 115.2146 115.0775 114.7817 114.3293 113.9116 113.5124 113.1562 112.8755 112.6068 112.4162 112.3256 112.3240 112.4136 112.5880 112.8359 113.1436 113.4995 113.8905 114.3056 114.7381 115.1780 115.6169 116.0597 116.4941 116.9258 117.3450 117.7447 118.1241 118.5283 118.9018 119.2968 119.6177 119.9847 120.2705 120.6271 120.9390 121.2438 121.5378 121.8294 122.0996 122.3719 122.6339 122.7300
122.6900 122.5150 122.3985 122.1666 121.8125 121.9286 116.3617 107.5074 108.5872 110.2702 109.5723 111.4695 100.0170 105.7173 104.0602 100.0284 111.4846 109.1828 108.8800 104.0669 100.4846 117.5644 114.2460 114.2749 113.7423 113.2655 112.8086 112.3868 112.0098 111.7042 111.4910 111.3818 111.3784 111.4858 111.7010 111.9987 112.3682 112.7852 113.2421 113.7212 114.2103 114.7023 115.1925 115.6702 116.1443 116.6030 117.0538 117.4836 117.9078 118.3068 118.7015 119.0043 119.5884 119.0037 120.1387 120.4979 120.8037 121.1233 121.4242 121.7166 122.0088 122.2919 122.5711 122.7000
122.6600 122.8334 120.7828 120.1918 121.1329 121.4328 121.2428 122.1186 114.0548 119.1266 109.1480 110.2380 113.7643 98.4974 95.1986 100.8325 98.6948 102.1752 104.7221 101.7336 116.1262 116.5992 114.0543 113.7338 113.1410 112.5924 112.0547 111.5564 111.0994 110.7298 110.4546 110.3096 110.3105 110.4496 110.7126 111.0826 111.5347 112.0336 112.5693 113.1181 113.6751 114.2234 114.7660 115.2896 115.8064 116.2981 116.7746 117.2308 117.6788 118.1036 118.6009 118.0475 119.5454 117.0340 120.1070 120.3974 120.6917 121.0132 121.3263 121.6223 121.9170 122.1990 122.3916 122.6600
122.6300 120.0697 119.9604 110.8144 112.9660 119.9500 120.3020 116.8161 121.4845 115.6094 116.1983 119.4572 113.6272 113.6232 101.3617 99.3948 98.9139 110.4963 114.9947 114.8401 112.8658 114.1625 113.7596 113.1562 112.5339 111.8987 111.2816 110.6623 110.1107 109.6312 109.2896 109.0969 109.0932 109.2791 109.6144 110.0823 110.6394 111.2338 111.8700 112.5222 113.1477 113.7510 114.3438 114.9185 115.4782 116.0022 116.5130 116.9978 117.4631 117.9136 118.3287 118.6899 119.5346 119.3669 119.8629 120.2400 120.5859 120.9118 121.2345 121.5408 121.8392 122.1277 122.8017 122.6300
122.6000 114.4285 125.1783 114.1153 122.5895 112.6925 112.7479 107.5033 116.8812 115.4878 119.4522 110.5988 111.0765 110.6248 109.4917 104.8620 98.2061 107.1801 111.3560 112.0615 114.7193 114.0398 113.3631 112.6372 111.9313 111.1655 110.3695 109.6821 108.9997 108.4032 107.9492 107.6861 107.6820 107.9306 108.3822 108.9864 109.6714 110.4219 111.1734 111.8295 112.6061 113.2917 113.9468 114.5738 115.1690 115.7296 116.2671 116.7777 117.2779 117.7258 118.1739 118.6510 119.0547 119.4765 119.8199 120.1436 120.4915 120.8279 121.1474 121.4642 121.7695 121.9836 123.8100 132.4400
122.5800 121.9925 115.8898 110.7546 116.7870 112.9233 112.0668 113.3755 110.1812 107.8388 105.5378 120.8778 105.4130 114.0490 111.8721 108.6291 107.6982 104.8008 113.2284 112.4560 114.2539 113.6128 112.8885 112.1280 111.3388 110.4051 109.8955 109.3283 107.8044 106.9721 106.3674 106.0049 105.9906 106.3516 106.9814 107.7824 108.6603 109.5796 110.3955 112.4427 111.9600 112.8642 113.5785 114.2473 114.8867 115.4820 116.0561 116.5911 117.0889 117.6716 117.9672 118.2916 118.8196 119.1563 119.5890 120.0681 120.4045 120.7462 121.0762 121.3926 121.7009 121.9982 121.5985 125.9100
104.9200 114.7996 108.7773 118.9548 107.2509 108.8650 110.6704 116.8667 108.4635 108.8819 107.5839 116.2426 92.9192 98.6026 101.7074 98.1872 108.6118 128.9760 117.4910 113.4409 114.0358 113.2713 112.5021 111.6684 110.7583 110.3719 104.2296 105.6740 106.9864 105.3893 104.4918 103.9202 103.9060 104.4567 105.3633 106.4668 107.5942 108.7245 109.6021 111.5376 111.5471 112.4673 113.2411 113.9569 114.6352 115.2646 115.8508 116.4269 116.9491 117.0552 118.5409 119.4543 118.7318 119.9734 119.6854 120.0209 120.3291 120.6798 121.0163 121.3337 121.6474 121.9560 122.2214 122.3500
111.7900 109.5544 99.8327 111.3646 109.5340 112.7986 115.0333 109.0554 110.0215 108.2886 113.4604 112.6128 103.6134 112.1248 110.5031 94.0193 103.0325 98.1601 113.7021 114.7547 113.7654 112.9849 112.1577 111.2542 110.2550 109.2860 105.8872 102.5999 104.7350 103.5831 102.1484 101.1895 101.1630 102.0853 103.5457 105.0642 106.5430 107.8864 109.1130 110.1200 111.2218 112.1226 112.9489 113.7155 114.4239 115.0902 115.7257 116.1903 116.7600 120.2917 108.8522 111.9337 120.3928 108.5334 120.3473 119.9359 120.2640 120.6232 120.9720 121.2949 121.6080 121.9302 122.2249 122.3400
122.3200 120.4916 117.7491 110.7317 117.6868 112.9799 117.4063 110.5490 115.4305 111.3687 108.6882 110.0336 110.8487 108.4871 102.6909 98.3206 111.3065 105.7186 114.2955 114.2996 113.5411 112.7607 111.8863 110.9121 109.8443 108.6772 106.3768 105.1997 103.9231 101.5449 99.2931 97.1953 97.0949 99.2166 101.4587 103.6733 105.5523 107.1594 108.5569 109.7851 110.8642 111.8404 112.7219 113.5261 114.2624 114.9118 115.5168 116.4679 116.7345 124.0001 103.5629 108.5298 120.0039 118.0760 119.4519 119.8754 120.2370 120.5876 120.9203 121.2424 121.5841 121.5730 122.2170 122.3200
122.3100 122.4772 123.1225 111.9992 121.7345 110.2278 109.7869 104.5484 109.0441 105.0437 106.6096 105.0312 99.0793 95.6886 103.0136 102.8416 113.9086 115.7395 115.4920 114.1699 113.4187 112.6007 111.6869 110.6772 109.5276 108.2100 106.5924 104.8993 102.6131 99.5663 95.2793 90.6952 90.5304 95.0571 99.4268 102.4486 104.7486 106.6067 108.1558 109.4776 110.6229 111.6484 112.5557 113.3884 114.1405 115.1394 115.4484 115.9419 115.9081 105.6215 106.1745 106.0403 114.9472 118.9261 119.5163 119.8253 120.1944 120.5509 120.9209 121.2794 121.5569 121.8223 122.1640 122.3200
122.3100 122.1592 121.8441 121.2463 120.5868 112.7930 109.0349 112.9121 111.9338 107.5373 106.8305 108.3652 108.6615 95.2961 95.2271 96.2276 97.7757 115.9096 111.3585 114.2894 113.3864 112.5150 111.5832 110.5446 109.3677 107.9930 106.3847 104.3894 101.8129 98.2408 91.2758 86.0023 85.7263 90.9685 98.0770 101.6820 104.2868 106.2952 107.9352 109.3082 110.5002 111.5381 112.4802 113.3232 114.0810 114.9002 115.5065 103.1112 115.9623 108.6654 109.0894 118.5000 118.4835 119.0172 119.4241 119.8181 120.2091 120.5541 120.9694 121.2329 121.5621 121.8383 122.1452 122.3100
122.3100 122.1569 121.8454 121.4961 121.1320 122.2335 109.3596 110.5701 112.5513 110.3485 107.5890 106.1006 106.3425 96.2968 100.1799 96.8929 97.5481 116.0274 111.6538 114.2622 113.3859 112.5111 111.5881 110.5381 109.3639 107.9922 106.3683 104.3764 101.7899 98.1558 91.2446 85.2874 85.1189 90.8348 97.9657 101.6523 104.2731 106.2854 107.9236 109.3060 110.4913 111.5393 112.4775 113.3084 114.0152 114.6042 115.5071 104.2570 116.0967 108.4686 110.4056 119.3855 118.3141 118.9977 119.4277 119.8161 120.1340 120.8055 119.9709 119.8637 121.4997 121.8559 122.1518 122.3100
122.3100 122.1717 121.8746 121.5622 121.2253 120.8784 121.5793 105.9199 116.8518 117.0899 120.6384 117.6273 119.7618 102.9671 107.2899 118.5279 121.7277 115.9993 115.3224 114.1586 113.4091 112.5928 111.6791 110.6624 109.5065 108.1908 106.6594 104.8028 102.4963 99.4627 95.0728 90.3918 90.3032 94.6889 99.3184 102.3814 104.7190 106.5754 108.1321 109.4615 110.5890 111.6007 112.5829 113.3488 113.8615 116.9456 115.3222 116.6887 116.8605 117.2005 118.3165 118.6317 118.5566 119.0260 119.4506 119.8269 119.8994 124.2130 116.6941 105.3408 122.9851 121.6715 122.1132 122.3100
122.3100 122.1825 121.8936 121.5883 121.1915 120.8198 121.6827 98.6555 100.2639 104.5663 117.6310 102.3353 109.6092 108.2037 113.4614 114.8792 116.1091 115.4219 114.8713 114.2858 113.5458 112.7467 111.8710 110.8968 109.8648 108.5869 107.1927 105.5696 103.6718 101.4799 98.9634 96.7920 96.6776 98.9317 101.3191 103.5878 105.4960 107.1202 108.5351 109.7679 110.8453 112.0817 112.7801 113.2233 114.6549 122.0393 115.2235 116.2619 116.4556 117.1295 117.5561 118.1157 118.6249 119.0637 119.4779 119.8598 120.2506 120.2321 121.1211 123.3173 122.3207 121.8504 122.3548 122.3100
122.3200 122.2131 121.9098 121.6119 122.0374 116.3833 118.8457 113.5534 111.6310 111.3937 109.0546 110.1273 113.1453 116.3330 121.7327 110.2467 116.6588 115.6245 115.1257 114.4473 113.7344 112.9725 112.1377 111.2549 109.4851 109.1917 107.9025 106.5416 105.0516 103.4552 101.9650 100.9525 100.9275 101.9129 103.4109 104.9800 106.4703 107.8381 109.0728 110.1879 111.1064 112.9563 112.8408 114.9822 107.0891 115.3506 114.7595 116.3259 117.8080 117.4907 117.8746 118.2989 118.7162 119.1274 119.5262 119.9093 120.2699 120.6948 120.9221 120.7734 121.3191 121.9186 122.2793 123.4000
122.5400 122.2480 122.0201 121.6234 118.9557 107.7264 109.6022 107.0751 119.7798 112.0914 108.2043 110.9856 104.6318 102.4690 118.7615 98.4360 116.6563 115.6171 115.2567 114.6578 113.9806 113.2515 112.4456 111.7191 109.6939 109.8412 108.6933 107.5830 106.4244 105.3047 104.3299 103.7426 103.7340 104.2948 105.2554 106.3707 107.5381 108.6569 109.7103 110.6864 111.5925 112.4027 113.3825 115.0184 95.8354 111.6310 116.6126 116.3098 117.7690 117.7750 117.9393 118.3438 118.7842 119.2003 119.5955 119.9640 120.3285 120.6617 121.0224 121.4483 121.7110 121.9576 122.2190 122.5400
122.5500 122.2971 121.8734 121.7006 114.0045 111.7912 109.9339 111.5136 108.1237 106.2715 102.9717 106.4068 107.7057 101.5667 114.2769 111.0147 116.7127 116.4457 115.4494 114.9041 114.2645 113.5846 112.8699 112.1508 111.4059 110.4618 109.5470 108.7003 107.7396 106.9037 106.2395 105.8660 105.8561 106.2231 106.8741 107.6925 108.6171 109.5048 110.4029 111.2607 112.0729 112.7852 115.3103 115.8328 111.0865 102.7863 107.6871 118.5518 110.4561 119.0994 118.0179 118.4620 118.8957 119.2910 119.6793 120.0437 120.4000 120.7411 121.0700 121.3672 121.6814 121.9889 122.2886 122.5500
122.5700 122.2554 122.7690 122.9137 119.1848 113.2279 115.6782 110.6412 109.6249 106.8105 103.5708 101.7998 109.8815 107.8745 117.1072 119.7091 115.2412 114.4557 115.7671 115.2065 114.5782 113.9591 113.2973 112.6040 111.8975 111.0820 109.9903 109.6000 108.9459 108.3114 107.8405 107.5698 107.5633 107.8193 108.2900 108.9139 109.6084 110.3525 111.1111 111.8505 112.5778 113.1410 114.2838 103.5062 115.8862 113.4277 102.4324 116.1008 104.9117 113.5109 118.0946 118.6400 119.0032 119.3998 119.7737 120.1374 120.4844 120.8183 121.1448 121.4626 121.7671 122.0549 122.3383 122.5700
122.6000 123.0732 112.9837 114.3702 114.5756 114.9936 117.5081 115.7269 107.4971 100.1490 121.3647 97.9143 109.9655 119.8000 117.5700 117.9138 116.2653 116.4075 116.0172 115.4867 114.9199 114.3515 113.7448 113.1262 112.4363 111.7589 114.1031 111.6812 109.9570 109.5610 109.1946 108.9984 108.9982 109.1883 109.5305 110.0107 110.5755 111.1846 111.8307 112.4559 113.1214 113.9153 114.0982 115.7067 114.6394 114.8610 120.6849 103.6957 115.6890 116.3745 118.3895 118.7478 119.1333 119.5168 119.8859 120.2440 120.5776 120.9049 121.2296 121.5323 121.8314 122.1249 122.4001 122.5900
122.6200 123.3837 110.9219 112.8662 116.0923 117.0966 115.7172 99.8395 121.9642 105.9125 107.4015 96.5514 116.3889 109.1756 118.5904 117.7668 117.8267 112.7147 116.6500 115.7048 115.3028 114.7601 114.2304 113.5687 114.1591 106.0737 103.8564 108.9866 111.0342 110.6632 110.3799 110.2268 110.2287 110.3690 110.6370 111.0146 111.4698 111.9897 112.5246 113.1123 113.4876 114.9444 102.8994 116.7737 119.5764 123.2267 118.7542 112.3808 114.9662 118.0973 118.5129 118.9057 119.2879 119.6568 120.0100 120.3578 120.6840 121.0060 121.3173 121.6164 121.9161 122.1942 122.4753 122.6200
122.6500 123.8180 113.1104 113.3517 99.9243 108.1884 122.6273 111.5866 102.4815 107.4802 106.1935 98.0077 117.1039 108.9733 119.3376 117.8299 117.5223 116.6933 116.6301 116.1333 115.6710 115.1887 114.6889 114.2182 113.6704 102.5573 93.3862 110.5839 112.0790 111.6462 111.4275 111.3080 111.3035 111.4200 111.6294 111.9335 112.3350 112.7103 113.2104 113.6686 114.2720 114.0566 116.6058 111.0988 101.4828 108.4588 103.1593 115.8139 117.7184 118.2746 118.6903 119.0730 119.4446 119.8006 120.1429 120.4750 120.8075 121.1137 121.4214 121.7176 122.0066 122.2768 122.5607 122.6500
122.8700 122.5748 124.3560 100.3991 108.4182 119.7807 120.2994 108.4335 105.5194 106.8254 114.7117 102.7994 117.5080 118.8876 118.5095 118.1804 117.6563 117.4283 116.9207 116.4910 116.0617 115.6124 115.1690 114.7211 114.3287 113.9246 114.2936 114.1857 112.6521 112.5538 112.3557 112.2580 112.2613 112.3544 112.5262 112.7785 113.0771 113.4807 113.9065 114.2839 114.7899 114.8129 123.3950 116.2002 115.9850 117.7184 117.5389 113.8367 118.4706 118.4976 118.8947 119.2570 119.6108 119.9594 120.2959 120.6131 120.9304 121.2394 121.5320 121.8194 122.0975 122.3754 122.6486 122.8600
122.9000 122.6630 119.3850 117.2383 105.3099 116.9073 109.9118 109.0979 102.9154 98.3352 102.5668 114.5275 115.5131 119.6261 118.5636 118.6233 118.5540 120.3253 116.9510 116.8570 116.4492 116.0453 115.6377 115.2573 114.8508 114.4652 113.9920 113.8514 113.6537 113.3160 113.2194 113.1351 113.1281 113.2010 113.3448 113.5550 113.8286 114.2056 110.6203 112.8359 115.3106 115.7857 106.9963 108.4475 116.5448 117.3009 118.0118 117.8670 118.2829 118.9746 119.0365 119.4360 119.7928 120.1287 120.4419 120.7624 121.0601 121.3556 121.6475 121.9291 122.1906 122.4807 122.6374 122.8900
122.9300 123.6198 115.0391 115.5189 111.8282 115.6595 104.1976 98.8981 104.5510 105.0020 107.1186 108.3047 123.7114 119.1543 119.2811 116.0155 119.0386 117.6317 117.5743 117.2026 116.8402 116.4719 116.1064 115.7407 115.4021 115.0955 114.7767 114.5628 114.1458 114.2843 113.9521 113.9252 113.9079 113.9767 114.0950 114.2726 114.5004 114.6997 117.7089 121.2152 115.4555 116.7247 113.8849 102.0814 111.4214 118.0890 116.9229 118.2999 118.5520 118.8202 118.6841 119.7202 119.9871 120.3007 120.6073 120.9143 121.2105 121.4957 121.7688 122.0337 122.4257 122.7116 124.2197 122.9300
123.1500 123.0188 124.2067 111.6116 111.5333 109.9559 112.9427 110.4973 106.5906 100.0719 99.1807 111.6654 118.1431 119.3167 120.7414 105.1747 119.2175 118.1341 117.9706 117.5620 117.2243 116.8858 116.5561 116.2369 115.9328 115.6402 115.3778 114.9576 115.5871 113.1103 114.7245 114.6503 114.6288 114.6872 114.7865 114.9321 115.1262 115.3596 115.6443 114.8187 116.6799 116.6286 117.7261 99.8086 101.6909 109.9939 113.9057 116.2902 119.5853 112.4631 115.9726 119.8772 120.2119 120.4786 120.7831 121.0761 121.3543 121.6315 121.9057 122.1903 122.2801 121.8988 117.0836 123.1400
123.1800 123.0932 119.5483 105.9988 113.4526 113.6817 112.7313 105.7297 109.6572 106.5061 100.9405 99.3062 110.2170 120.4525 119.3480 119.1563 119.0799 118.5125 118.2180 117.9275 117.6122 117.2974 116.9951 116.7156 116.4352 116.1763 115.9404 116.1312 111.6857 113.6923 115.4165 115.3403 115.2974 115.3375 115.4070 115.6006 115.7435 115.9261 116.0987 116.2736 115.6456 117.8565 117.2147 108.5084 103.2890 109.5059 111.5016 114.7006 119.8870 111.8871 120.3464 119.7014 120.4039 120.6774 120.9572 121.2379 121.5139 121.7838 122.0387 122.2587 122.0098 133.6883 114.3441 107.6000
123.4400 116.5784 114.5347 109.1818 108.8839 110.8338 113.6787 103.8659 103.3978 103.1482 102.3164 104.5575 110.0524 120.3646 123.8433 118.3318 120.2461 118.8487 118.5638 118.2780 117.9881 117.6999 117.4233 117.1646 116.9715 116.6037 116.3812 116.6840 115.2416 115.9742 115.9586 115.9035 115.9210 115.9363 116.3122 115.9552 116.2017 116.5084 116.3569 116.6258 107.9175 114.9568 111.8941 111.5189 115.6107 113.3200 107.7890 120.1135 119.3123 120.0414 120.1214 120.2559 120.6323 120.8611 121.1289 121.4036 121.6722 121.9324 122.2210 122.1586 125.7943 114.8756 122.0940 123.4300
108.8600 107.9775 110.7851 112.0648 109.0833 110.9447 112.2147 111.6910 105.2249 102.0245 103.2275 101.1779 119.5372 120.3934 104.2398 103.0150 117.3075 119.1621 118.9124 118.6232 118.3586 118.0800 117.8672 117.6254 117.4555 117.0086 116.8362 111.8479 117.3958 116.4088 116.5731 116.4781 116.1803 116.7700 117.2840 116.8330 116.9761 117.0105 118.4925 115.6157 99.6572 102.2208 100.4375 115.3691 118.4918 119.0433 119.6670 119.7843 119.8833 120.2112 120.6135 119.8551 120.7688 121.0771 121.3592 121.5753 121.8543 122.0775 122.3776 122.5018 121.8240 111.2793 122.7339 111.7600
108.8800 109.5711 114.5366 110.6978 108.9392 113.7068 105.6231 110.9286 106.1385 102.0637 99.8047 102.6584 121.1036 121.1916 104.6243 117.1085 119.9897 119.6730 119.2020 118.9690 118.7291 118.4043 118.2869 117.9253 117.8376 117.4129 114.8800 90.6279 117.5434 115.7900 116.9791 118.5611 113.7640 117.2846 111.2086 115.3424 110.6170 104.8465 118.7241 99.6818 108.4725 103.1960 99.7475 116.4951 118.9539 119.2915 119.1728 116.1569 121.5386 120.6769 108.6487 123.0794 121.0389 121.5257 121.4194 121.6570 121.9969 122.2409 122.4903 122.6715 122.0355 118.8419 120.9341 106.9900
110.4500 113.3582 114.9090 108.7771 109.0147 110.1063 108.3485 107.5226 105.3096 101.4860 99.7451 118.2821 122.3717 121.3327 114.9231 120.7783 120.0122 119.6082 119.5650 119.2944 119.0990 118.9551 118.3677 119.1580 118.2342 117.8096 116.2181 99.1486 119.0994 118.6038 118.1830 113.0682 120.3629 112.4723 115.3658 104.5028 120.8459 97.1491 113.4472 100.9079 119.6612 103.6039 117.2529 121.3963 118.9722 119.4288 120.8101 123.0468 114.6070 113.3153 105.4461 120.2691 120.9242 120.2007 124.5924 122.7817 122.1585 122.4552 122.4369 124.4235 123.2952 124.2259 124.5438 123.7300
111.2700 113.9294 116.1293 110.4208 114.3318 110.7148 109.0107 106.9985 101.3688 104.8502 115.1147 114.8634 122.9428 119.9816 121.0017 120.1855 120.6012 120.1359 119.8577 119.6387 119.4408 119.2035 114.0292 116.4528 118.5590 118.3699 119.1033 120.8520 97.0302 119.6760 117.9840 96.9711 103.1141 112.5678 120.6421 116.9621 120.3188 114.9922 115.4338 118.3280 120.4337 112.1812 105.7371 119.2711 110.0076 120.1582 120.0359 121.0534 114.7191 105.9915 117.1761 123.3342 121.1892 121.5417 119.6700 113.3859 123.0424 122.5592 122.7830 123.1744 123.1842 123.4539 123.5473 123.7700
110.3200 112.9878 114.1141 111.9174 110.6699 110.3936 109.1666 105.1828 101.8978 106.4294 111.4835 109.9537 115.5903 120.9104 122.5251 120.8671 110.4221 120.4768 120.0847 119.8258 119.7846 119.3800 113.4495 115.0843 118.8188 119.0084 118.6396 120.9283 118.9967 118.2760 117.6999 100.2133 100.4938 111.1406 118.7912 118.7096 118.4532 119.2285 119.0791 119.1354 118.9251 119.6376 114.5911 120.1362 119.1643 120.3096 120.3938 120.5433 120.8717 120.8001 104.4559 106.4551 112.8568 122.7440 122.5061 122.3284 122.4390 122.7756 122.9757 123.1732 123.3899 123.5694 123.7995 123.9800
124.0300 112.2446 110.9198 111.2354 110.3544 110.2726 108.6565 110.4103 107.6157 105.3526 106.1073 104.8043 122.0865 100.6197 119.9401 100.1880 124.1656 120.5082 120.2293 120.2266 120.0483 119.7312 119.9733 120.0808 119.1944 119.2609 118.4697 112.4461 118.6962 119.2010 119.2066 101.6890 108.1461 121.0206 119.1688 119.0331 119.1520 119.1688 119.3146 119.4301 119.7366 119.3939 109.4069 109.1593 117.9105 120.6116 120.5733 120.8279 121.1032 123.4554 107.4961 109.6389 122.5451 121.6416 122.3941 122.4604 122.6341 122.9185 123.1240 123.3270 123.5258 123.7415 123.9360 124.0300
115.8500 110.0278 112.7694 112.2742 109.8980 110.1902 109.2049 111.2204 107.6032 104.2022 105.5406 104.5231 126.1547 120.4191 125.2136 115.7626 124.1571 104.6531 115.0144 120.8706 121.0889 120.0394 115.3478 117.9870 119.6322 119.8670 119.0437 121.6846 120.3327 111.8434 111.2238 105.2713 102.8274 120.9829 119.1162 119.4241 119.5198 119.6047 119.6909 119.8183 119.9917 120.1265 122.4422 99.6750 110.6775 121.6619 120.7396 121.1264 121.1868 121.8256 122.3135 122.2446 122.5101 122.3005 122.6046 122.8511 122.8988 123.0420 123.3512 123.4838 123.6795 123.8735 124.0382 124.2300
114.2200 113.4523 112.8246 110.3228 110.8958 111.7940 99.6206 110.9754 106.3005 104.6360 107.6721 107.2044 123.1164 121.4812 122.5537 123.0223 123.0897 125.0084 116.3528 121.1712 118.9340 110.5835 105.1027 115.0210 120.0664 121.3759 99.1804 113.5422 117.3557 107.1510 100.9136 104.8474 113.9016 119.3245 119.7455 119.8215 119.8290 119.9188 120.0955 120.1738 120.2132 121.0436 115.2145 108.2776 118.2481 121.2935 121.2527 121.3719 121.5572 121.7468 121.8717 121.8619 122.1691 122.4707 122.7723 119.3135 124.0533 123.2805 123.4046 123.6242 123.8340 124.0047 124.4219 124.2800
113.9900 113.3275 112.2529 112.3222 109.7710 111.5334 101.9861 109.9352 108.7859 101.3584 125.9127 126.6043 122.4463 122.4097 121.9750 121.6129 121.4567 124.5566 114.9841 121.1626 103.1390 122.3389 105.1130 125.0571 114.7406 117.6006 99.5345 113.6292 108.0258 115.8467 119.0621 117.9067 118.9809 120.2198 120.1234 119.9079 120.4775 120.4390 120.3022 120.5203 121.7550 117.3677 118.0410 103.9089 123.1376 121.0902 121.4903 121.6494 121.8151 121.9902 122.2101 122.3684 122.5462 122.7298 123.0586 123.2933 116.2067 126.6680 123.8758 123.8019 123.9884 124.0877 124.0920 124.4700
114.0200 113.6039 112.5755 112.6573 111.9864 112.3257 110.2290 107.2287 107.9130 108.4289 123.1735 121.7177 121.9517 122.4024 122.2012 122.0927 121.9855 121.4689 121.0729 118.9654 101.3966 101.6171 108.5631 112.4637 101.2899 123.2421 97.4687 108.1206 101.8869 121.9176 120.4193 120.5713 120.5761 120.4562 120.4531 120.6481 125.7454 112.9603 122.0806 120.8436 121.6999 109.9289 111.3413 102.5738 121.6769 121.4089 121.7405 121.9008 122.0597 122.2321 122.3946 122.5542 122.7270 122.9105 122.7211 124.4035 105.5536 114.4683 123.8624 123.9509 124.1505 124.0774 124.0756 105.6600
114.0200 112.3973 112.7600 112.5620 112.1805 111.2313 109.5073 107.1121 123.4560 103.4445 108.2551 124.6814 122.6862 122.6794 122.4501 122.3171 121.7862 121.9580 124.1040 116.6169 125.3651 101.6946 113.4577 98.6006 106.1276 106.3652 102.1493 100.8534 111.6772 121.5730 120.8662 120.8062 120.8100 120.7494 121.1103 118.7084 118.7528 118.6660 107.5883 120.3970 115.9452 120.9067 110.2490 124.7591 123.7140 121.8305 122.0091 122.1527 122.3012 122.4610 122.6181 122.7793 122.9494 123.1518 123.3063 123.4305 116.8336 124.3071 123.6070 124.1580 124.3215 124.4208 125.6471 105.6600
112.3700 113.5966 113.0290 112.6964 111.3610 108.4998 118.3859 119.5986 120.7921 115.6844 114.5295 123.8212 123.9708 122.3761 122.7016 122.5809 122.4666 122.2616 108.7354 102.0883 124.2142 99.7405 125.5695 112.2434 107.4909 111.6662 106.6947 98.0732 122.4178 120.7855 121.1425 121.1421 121.1524 121.5518 122.1948 115.5570 111.1963 104.6335 111.0824 121.7220 122.0081 117.7261 108.1417 122.8145 122.0723 122.0742 122.2679 122.4003 122.5447 122.6928 122.8439 123.0006 123.1566 123.3036 123.4762 123.7315 123.8812 124.1462 124.0801 124.3368 124.3163 124.9751 107.6176 124.9500
114.1500 113.8293 114.1085 105.1839 110.9808 119.2757 125.5606 114.9051 111.7089 128.4034 117.9439 105.6560 117.9189 125.0929 122.7627 122.8318 122.6235 120.9548 98.6324 123.8095 124.4363 119.3171 123.9538 124.1180 116.0897 98.6992 115.8382 104.6127 122.0529 121.1967 121.4833 121.4639 121.4605 122.1002 112.2944 117.0300 108.3380 100.8898 113.2314 121.7472 122.0124 113.3731 118.0867 122.7131 122.3537 122.3851 122.5042 122.6479 122.7787 122.9206 123.0636 123.2148 123.3589 123.5084 123.6668 123.7463 123.9886 123.9518 124.6662 124.3602 124.1570 125.5446 120.5480 111.0500
114.6600 113.5468 113.2700 110.6269 110.7718 125.7112 123.9234 124.2794 116.4869 125.4868 123.4463 115.6702 110.6133 113.1126 121.9646 122.9406 122.6894 125.0229 104.3631 122.1484 118.5798 108.7648 121.9398 118.5573 107.1433 102.1645 107.8985 112.7299 121.8573 121.5532 121.7976 121.7526 121.8677 121.9633 115.7040 122.1516 123.5369 108.6149 116.2414 122.1566 122.2333 122.7208 123.4052 122.2355 122.5600 122.6440 122.7672 122.8877 123.0108 123.1450 123.2844 123.4270 123.5636 123.7202 123.8519 124.0073 124.1220 124.6233 122.0506 124.3312 124.9777 124.7033 123.7944 127.4000
114.6800 114.1819 112.3025 118.7416 124.6286 124.8134 124.5154 124.3933 124.2765 107.1716 111.3610 119.3318 121.3311 110.9821 121.8004 123.3615 123.3157 122.8562 124.3927 118.1386 111.5304 101.8183 111.7479 105.9798 115.7279 99.7564 109.9347 105.4782 122.0271 121.9583 122.0861 122.0741 122.0582 122.1247 122.6125 122.6904 121.7553 121.7889 112.9274 121.7513 122.1635 123.0058 122.3778 122.7608 122.7517 122.8882 123.0042 123.1210 123.2396 123.3656 123.4998 123.6320 123.7671 123.9058 124.0490 124.1833 124.3325 124.4666 124.9254 119.7909 113.0153 126.4353 113.9708 111.5700
125.4300 126.0031 125.5367 124.6672 124.7181 124.8467 124.6432 125.0471 121.3262 120.8913 106.6888 104.2486 126.6850 121.8815 121.9717 123.2388 123.3361 123.0839 122.6053 103.6170 111.0905 107.7458 103.9081 100.9692 114.0727 108.5274 108.2996 117.6050 122.5497 122.4758 122.3941 122.3776 122.3634 122.3665 122.3423 122.3895 122.0906 120.9436 109.8465 120.2969 116.5149 119.9180 125.2187 122.6519 123.0220 123.1331 123.2404 123.3524 123.4719 123.5826 123.7157 123.8382 123.9633 124.0931 124.2405 124.3718 124.5087 124.6426 124.7781 125.2640 125.9827 121.4799 108.8587 114.1500
125.6100 125.7037 125.0895 125.3290 125.0635 125.0567 124.5415 126.2115 123.0869 124.4080 125.7489 124.0417 119.1043 109.9672 124.4786 124.2145 123.8314 124.4113 123.9929 123.3185 122.3601 104.9246 102.7749 99.1363 107.9719 110.2412 108.0526 119.5003 122.6771 122.6394 122.5704 122.5933 122.6468 122.6528 122.6743 122.7353 122.4013 122.5768 105.5081 123.5243 116.0836 121.3420 123.1014 123.0599 123.2639 123.3683 123.4768 123.5793 123.6852 123.8039 123.9227 124.0382 124.1654 124.2912 124.4247 124.5524 124.6835 124.8188 124.8439 125.1227 124.9231 116.3043 117.7518 108.2100
125.6600 125.6275 125.5149 125.4068 125.2327 125.1022 125.0220 124.8408 124.6352 124.4084 124.2852 123.9694 117.1990 115.5005 111.4041 117.9371 118.7978 114.3236 121.5647 123.5474 119.8389 103.8016 102.2161 105.6657 109.5558 111.8968 108.7571 121.1256 122.8287 123.2722 123.1778 122.7990 122.9221 122.9268 122.9386 122.9687 122.9759 123.3393 113.2121 122.4004 116.1319 123.3993 123.7437 123.3576 123.5090 123.6005 123.6945 123.8011 123.9045 124.0150 124.1318 124.2403 124.3624 124.4760 124.6026 124.7286 124.8547 124.9952 124.8323 125.9024 125.4925 123.4124 112.4689 112.8800
125.8400 126.2823 125.7400 125.5150 125.4184 125.2856 125.1557 125.0509 124.9309 124.7518 124.6887 130.7669 104.3002 103.4067 116.7741 107.3198 112.9388 102.0524 113.7434 123.9162 124.4562 106.9674 101.3522 108.3759 109.7143 111.6172 120.3375 123.9805 123.7790 117.8748 122.4681 122.9351 123.1768 123.1893 123.2016 123.2216 123.2996 123.1889 123.1532 124.3358 103.8882 119.7953 123.6525 123.7266 123.7295 123.8271 123.9234 124.0148 124.1174 124.2261 124.3227 124.4346 124.5517 124.6707 124.7784 124.9087 125.0105 125.1247 125.1382 122.7865 115.8950 114.0098 113.4029 110.1400
131.8300 121.8900 125.7700 125.6600 125.5500 125.4200 125.3300 125.1800 125.0600 124.9400 124.8100 124.5200 124.5800 124.4700 124.4700 102.1900 102.1900 105.5700 123.9300 123.9300 109.9900 109.9900 123.7000 123.7000 110.4700 123.5600 123.3800 129.9100 124.7000 118.6500 118.6500 123.2300 123.2300 123.2300 123.4400 123.4300 123.4000 123.3800 123.5700 123.5400 123.5100 123.6800 123.8400 123.8000 123.9400 123.9400 124.0700 124.2000 124.3200 124.3200 124.4400 124.6000 124.7000 124.8100 124.9500 125.0600 125.1900 125.2900 125.4100 137.3400 122.1000 107.5700 110.0700 110.0700
