115.9700 114.9900 117.0200 121.3000 121.8100 121.8100 108.0600 112.0800 118.8800 118.8800 106.7700 106.6800 117.1100 119.1300 119.9900 118.4100 118.4100 113.5400 125.3700 114.4700 122.7100 121.7200 118.5700 105.6600 106.5900 108.1400 116.6900 116.5300 115.7200 114.8000 112.5500 120.5700 111.2600 107.0800 107.0800 126.4100 126.3100 126.1800 126.2100 126.1000 125.9900 125.9900 125.8700 125.7500 125.7800 125.6500 125.6700 125.5300 125.5600 125.5700 125.4200 125.4400 125.4600 125.4600 125.3100 125.3100 125.3200 125.3200 105.0500 103.3200 111.1800 125.4700 125.4700 125.4600
115.9700 114.3880 118.0553 121.8005 113.5618 110.9635 114.1543 107.8984 114.4391 118.6484 110.9308 107.3297 111.6152 111.4325 108.9078 115.2995 116.2422 116.5346 122.0776 114.0105 123.6015 120.0337 119.5226 118.9860 104.5239 111.7386 113.9212 105.2310 112.2907 111.1637 110.8493 116.5458 104.3147 117.6233 114.4196 112.5548 120.9140 127.1605 123.9622 125.3103 125.4907 130.7440 126.1447 125.7462 125.8359 120.0735 111.3218 126.4507 125.4430 125.3643 125.3403 125.3088 125.2830 125.2722 125.3105 125.0572 126.4938 111.9116 106.6711 103.2490 110.6096 124.2135 124.8171 125.2700
127.1300 113.3692 110.5127 116.9977 123.3302 116.6730 116.2077 111.8373 109.3605 114.2652 111.1468 104.4493 103.9486 118.9968 114.4941 117.5346 113.5058 114.7045 118.0502 116.7162 113.4796 118.7707 116.8308 116.1010 105.1548 104.4213 105.1841 111.3071 112.9193 106.6822 109.9149 118.4162 113.5521 114.8232 111.4685 109.8464 120.5344 130.3131 125.8568 125.2660 125.7277 125.4184 125.1667 125.5612 126.1845 120.5179 115.9231 126.8751 125.2583 125.1508 125.1403 125.1027 125.0781 125.0522 124.8361 124.4748 126.8320 104.0789 103.2729 103.2952 110.2845 120.3876 124.8526 125.0800
127.1300 120.0358 113.2515 111.1548 115.6221 120.7155 119.3116 113.1644 117.9001 120.0489 114.3859 112.1292 105.1460 110.1662 109.0314 118.5945 120.5362 116.4158 112.1932 116.8199 113.0145 105.7223 111.9335 117.4368 105.2017 110.2437 110.3408 112.6286 116.4105 110.1711 103.0069 119.7789 127.0835 108.5070 112.3681 120.5399 121.5814 130.7312 125.4171 129.5974 129.2622 125.3785 125.4032 125.3310 125.5916 114.1282 113.6125 125.2039 124.8776 125.0084 124.9355 124.8917 124.8700 124.8644 124.9492 125.7527 128.4307 103.4080 104.9833 102.4938 109.6997 111.7617 126.2328 124.8900
114.4300 114.7500 119.9548 114.7848 110.8784 113.6409 116.3971 119.5463 110.9240 120.7743 121.4012 106.1357 114.2837 106.9683 106.6725 110.5218 116.6112 118.6307 114.2196 115.7641 109.2462 118.6066 113.3007 117.2061 116.8874 113.6474 109.0195 115.0513 112.7544 108.5621 106.0974 114.0575 126.9725 115.3810 111.6027 125.5137 112.3202 125.5638 125.1608 126.2029 124.6664 125.2833 125.1588 125.1125 125.6637 120.5297 110.1960 117.2219 124.6808 124.8655 124.6900 124.6854 124.6520 124.6499 124.3193 117.0570 109.3226 102.3099 103.0433 103.6581 124.4168 125.9656 124.2418 124.6900
114.1700 110.4761 118.5891 120.4504 116.2468 107.6317 111.2017 113.4059 119.4286 111.5768 118.0316 106.8447 110.2303 110.6880 107.3589 104.2605 110.8049 111.2269 111.5154 112.0105 105.7917 113.4731 116.4193 119.2472 121.3536 118.2065 109.6443 103.7142 118.5950 117.5909 130.4424 124.1747 125.7495 127.3425 124.4081 126.1323 125.7973 125.1967 125.3788 125.0326 125.3009 125.0493 124.9804 124.9272 124.5454 127.6012 127.8289 112.5826 124.7840 124.9192 124.5329 124.4150 124.4280 124.4933 123.9922 120.1742 99.3160 108.7568 116.1428 112.9949 124.2012 123.6839 124.5420 124.4900
107.3400 105.8093 107.7831 121.5400 119.9683 119.5970 108.9748 110.0136 109.8843 123.9569 118.3406 107.2161 105.5068 106.7499 111.4190 110.4805 104.5375 109.1734 119.3308 112.5466 113.7081 112.4507 107.5282 113.9381 115.7736 118.7831 110.7806 116.2016 106.7544 123.1901 129.4529 124.3741 127.1245 106.8798 118.9956 125.7538 125.1425 125.2047 125.1557 125.0952 123.4519 125.0504 124.7447 124.7201 124.6901 126.9695 103.0464 124.8659 124.4714 129.0466 124.1946 124.2146 124.2405 124.2521 123.7592 120.7434 100.0245 122.8660 112.3292 123.6488 123.6369 124.2688 124.1703 124.2800
110.0200 118.7688 119.8546 119.7730 116.3348 117.2840 118.9384 109.9358 108.9301 110.6745 114.8650 116.7983 104.9564 105.7859 112.4616 111.8028 111.5641 109.7462 109.0571 113.6794 114.4001 113.3491 115.2974 112.0307 114.1396 117.5197 119.1933 113.4263 113.3970 128.2540 123.9699 126.9720 120.7239 119.0274 127.5837 125.0243 125.1486 125.0601 124.9446 124.8887 123.6620 124.6285 124.6203 124.3602 124.4633 109.7674 115.8757 127.0502 122.6738 123.8495 123.9704 123.9506 123.7945 123.8747 123.8828 124.3773 111.8573 119.2920 121.7058 123.8489 123.9783 123.9186 123.9623 124.0700
125.0600 122.4796 121.2170 117.6152 116.6309 116.9171 115.7649 116.7719 112.9762 109.5771 108.6297 113.4081 113.6168 107.0675 105.5986 106.2568 107.3277 110.2289 105.5595 109.4122 113.0332 111.8163 109.8619 107.8384 117.9796 112.3939 116.8839 122.7544 130.8401 131.4629 127.4270 122.5243 107.2848 128.7603 124.4312 125.2161 124.9834 124.7968 124.7789 124.4980 124.7185 124.5133 124.2011 124.9277 124.9251 120.6695 124.8496 122.0523 123.8174 124.2078 123.8212 123.7260 124.5050 124.1053 123.0248 122.1123 110.9927 124.5933 123.6212 123.6909 123.6729 123.6907 123.7206 123.8500
124.5600 124.0311 119.0795 109.2320 118.2565 114.1875 114.1384 115.4490 116.9799 114.4251 107.3412 105.8744 106.8666 114.3582 106.7559 109.6577 110.3077 108.3123 112.5957 104.6031 107.7216 114.5999 108.4025 112.1011 115.3419 129.5808 126.4686 131.1526 124.6081 129.1896 125.3483 125.0349 126.5372 113.6411 124.9877 124.8896 124.7768 124.7682 121.0155 124.4152 124.6154 124.2624 125.0447 118.2218 124.5316 122.0916 123.5930 123.2854 123.8835 123.5884 123.5705 123.3179 123.3550 115.5202 124.1591 123.3971 124.3482 123.5947 123.3327 123.3951 123.4241 123.4485 123.4740 123.3900
119.5300 122.1862 119.6316 119.4564 114.9406 116.6298 116.5670 109.3407 112.7828 111.1983 116.2746 111.2672 107.2386 105.9236 118.2239 113.0245 110.0115 107.2845 108.2754 112.7308 104.7810 105.2725 106.6986 114.8548 115.7761 121.3735 126.5301 124.5978 125.3406 125.5551 125.3249 126.1302 104.9983 125.8194 125.4047 124.6044 124.5795 124.8563 123.7137 124.3840 124.9754 104.8558 123.9115 103.3029 109.5362 124.3627 123.5918 123.5857 123.3850 123.3347 123.3266 123.7813 124.3222 122.3933 124.1440 123.4338 122.9368 122.9269 123.1261 123.1462 123.1659 123.1887 123.2278 123.1600
123.8900 116.6491 117.3047 118.6339 118.4557 118.6420 119.4654 111.9415 110.3716 116.0314 111.8787 119.0429 109.8126 105.6118 104.2735 108.4026 109.4190 108.7994 111.9453 105.0840 106.2536 113.2605 106.0758 117.8495 110.2585 125.2255 125.7613 125.8843 125.4306 125.3980 124.8527 126.7164 114.8796 124.5085 124.3717 124.6206 124.4817 124.0369 124.6372 124.3331 126.4549 101.6286 100.0096 101.9043 106.0243 125.0461 123.4018 123.2624 123.2102 123.1350 123.0771 123.6880 113.5200 124.3056 118.4045 119.5700 122.9994 122.9544 122.9071 122.8814 122.9026 122.9293 122.9629 122.9200
116.4800 116.2247 113.5191 115.1535 120.0381 118.6877 117.2378 114.6348 117.9506 110.0560 111.7645 108.9531 111.9112 108.6525 111.8025 112.6021 108.0214 113.4381 105.0104 106.2583 102.9589 118.3743 108.0715 110.7889 131.9866 119.5312 125.7945 124.5062 125.3088 125.0617 126.0571 116.6794 108.6858 122.2394 124.5427 124.3006 124.1835 124.8560 121.0763 123.4444 124.7569 121.7853 102.4578 104.7407 115.6557 124.1252 123.1586 123.0123 122.9462 122.8586 122.8470 122.7865 122.2594 123.7169 115.4681 107.7276 121.7305 122.4663 122.6742 122.6068 122.6305 122.6582 122.7014 122.6700
123.7700 113.4946 114.7192 112.0988 116.5425 112.3739 118.5480 116.7326 115.7232 115.9882 106.8955 111.5193 108.6789 105.2658 109.8970 104.1210 103.5687 105.4168 105.1971 110.1473 116.9979 106.8577 118.3337 107.1419 114.6706 123.8707 127.1685 125.2334 125.6873 124.7167 124.7501 115.6931 123.8635 119.6909 125.2542 124.1658 123.9410 123.9206 115.8189 122.9691 124.7174 107.4460 98.0918 104.7303 122.0006 122.9784 122.8943 122.7602 122.6901 122.6159 122.5371 122.5049 122.4570 122.2876 122.6949 124.5746 116.4025 122.3254 122.3476 122.3250 122.3470 122.3842 122.4166 122.4100
123.7700 114.5892 120.5021 115.4343 111.7608 114.9332 109.8984 118.3082 116.5347 118.3251 112.8480 111.6455 116.8577 108.6360 107.3908 108.1039 112.8955 104.0905 104.2552 105.3745 104.4035 113.7874 125.9091 121.3152 125.1642 125.8284 113.6956 126.8728 123.7358 124.6802 125.9017 129.8785 117.2242 116.2341 124.2617 123.8733 123.8365 124.3710 123.5994 124.1433 123.0655 114.5889 103.4031 119.3659 123.3362 122.5885 122.5966 122.5027 122.4206 122.3430 122.2725 122.2026 122.1537 122.1362 122.0152 121.5320 122.5497 122.0590 122.0423 122.0329 122.0600 122.0819 122.1471 122.1400
106.7100 121.1273 121.1369 112.5298 115.0526 110.8320 109.6512 116.4318 115.2733 115.7351 116.4220 111.7984 112.0663 104.8301 107.9152 109.0142 108.0303 104.1902 104.5402 103.6742 114.1481 122.8855 120.3846 121.5068 122.3083 125.3906 129.0868 124.4936 125.3618 124.4734 125.2237 111.0402 119.0381 122.2136 124.1723 123.8482 123.5254 123.2302 123.2966 123.0017 122.9483 125.0579 111.9967 122.0626 122.2582 122.5390 122.3366 122.2389 122.1430 122.0599 121.9830 121.9196 121.8557 121.7995 121.7763 121.8107 121.6945 121.7022 121.7223 121.7400 121.7749 121.7475 121.0785 118.3600
114.9500 115.6052 118.9493 116.1246 116.8393 107.9278 116.0243 113.0081 112.3832 105.7537 116.3255 112.0273 118.4954 114.6548 113.6723 113.1986 103.9701 104.1186 106.0566 102.5012 112.2065 109.7997 122.0296 125.3752 125.6278 125.0104 124.7327 124.7712 124.9627 124.4639 124.1507 124.0851 124.4565 123.7470 123.8126 123.2032 124.4998 123.0173 123.0619 123.0728 122.8108 121.9044 122.9765 122.5535 122.2235 122.2086 122.0682 121.9619 121.8587 121.7685 121.6899 121.6183 121.5604 121.5049 121.4625 121.4291 121.4166 121.4116 121.4093 121.4261 121.4644 121.4914 119.7129 113.4800
115.3200 115.0987 113.7692 106.8388 114.2391 115.4829 107.9635 115.2317 114.0194 110.5501 114.9760 112.9629 114.8817 112.5981 109.6583 108.2490 107.2130 107.3041 112.9254 109.6226 110.8031 124.4997 124.5888 125.6339 124.5409 125.4368 125.5897 124.6451 124.5972 124.2880 124.2544 124.0321 123.8665 123.6430 123.5191 124.4711 118.6745 110.2643 115.5247 124.6199 122.4204 122.4801 122.2503 122.1152 122.0798 121.9105 121.7891 121.6764 121.5716 121.4824 121.3817 121.3108 121.2436 121.1775 121.1363 121.1149 121.0935 121.0843 121.0845 121.1091 121.1411 121.1456 121.3373 121.2900
113.4900 118.9958 116.8150 107.8407 108.2803 108.3627 115.5962 115.8923 112.2047 112.3184 109.9344 111.6435 105.1298 112.9453 106.9041 107.3944 104.6156 109.7172 116.8527 107.8314 104.7577 113.6919 126.7385 125.5593 115.3025 114.2681 114.5424 124.0763 123.5308 124.1692 124.0424 123.8075 123.7901 123.5024 122.9060 123.6994 108.7385 108.5932 106.9644 117.0761 122.5539 122.3739 121.9961 122.1865 121.3484 121.6988 121.5072 121.3829 121.2708 121.1677 121.0735 120.9906 120.9255 120.8897 120.8251 120.7716 120.7540 120.7417 120.7508 120.7703 120.7982 120.8014 120.8456 120.9900
107.4100 108.9179 113.0144 118.6302 112.4538 110.5371 106.5322 108.2766 114.3686 115.0328 112.9013 110.2951 110.6679 109.1441 121.4406 103.4270 106.9521 109.5085 119.6354 109.9666 107.0928 121.9707 120.9404 126.3526 115.7211 124.0437 100.7658 105.8967 107.1593 122.2876 123.9539 123.6380 123.9789 124.5615 122.9864 117.8397 124.4264 112.6897 107.6468 104.5780 117.2187 122.0053 123.0198 107.8592 122.2962 121.3292 121.2153 121.0791 120.9647 120.8501 120.7549 120.6605 120.5875 120.4212 120.4602 120.4170 120.3961 120.4000 120.4050 120.4274 120.4581 120.5466 120.5858 120.6800
115.4500 115.9510 119.5996 108.4946 110.8576 115.3516 111.6189 107.3162 105.9558 105.3221 109.6028 111.1125 107.0239 111.7421 108.2729 106.5965 107.5364 113.1047 124.0071 111.9862 126.2108 126.2950 125.2863 124.6414 122.2804 107.3111 104.6240 103.2259 113.2252 126.8406 119.4144 123.6939 120.3575 118.5537 103.6425 108.7291 109.6027 118.8295 108.5720 107.9205 115.1944 122.4227 117.8635 100.1260 122.8178 121.0586 120.7971 120.7867 120.6407 120.5231 120.4179 120.3154 120.2546 120.5771 119.6590 120.3797 120.0758 120.0288 120.0283 119.9904 120.2904 120.0787 120.2408 120.3500
120.7200 118.9012 111.0964 114.9904 113.2968 104.4908 110.9301 111.4795 109.2721 121.1552 110.3862 105.3088 105.7513 116.8472 114.2138 114.2289 108.6237 113.8586 121.7006 120.4806 126.3927 125.2121 125.2514 127.9856 112.3756 105.8907 110.9660 101.1429 117.8056 122.8206 108.7266 121.2634 104.1103 107.4347 102.7203 101.1898 104.0404 112.2128 107.4082 102.4340 96.2668 122.1959 122.7732 101.5573 113.5731 116.4555 120.4704 120.4759 120.3102 120.1846 120.0632 119.9575 119.8531 120.6856 107.9579 117.1088 119.4919 119.6779 119.5810 120.2520 117.1964 119.9114 119.9049 120.0200
119.1600 119.9444 111.9978 110.3279 109.5840 112.6249 110.5565 105.5391 111.1609 113.6322 110.3015 108.0500 108.0191 105.5170 110.3665 112.0851 112.0107 110.4134 119.0927 117.7404 125.4643 124.9655 124.2421 113.2681 103.1752 105.8597 103.9362 109.4281 108.4578 121.3974 123.1630 124.5065 105.9143 106.6192 106.0481 107.0823 108.1518 106.4389 102.9709 103.0975 110.7062 116.8711 120.9349 106.3413 106.5426 119.0696 120.2508 120.1545 119.9769 119.8322 119.7053 119.5974 119.4776 118.8802 122.2089 101.4899 120.6269 119.3097 119.0659 118.2188 111.6386 119.9044 119.4969 119.6600
112.3900 104.7201 107.3017 120.1012 120.2860 108.8211 109.5173 111.7127 110.2799 105.2128 110.6677 109.3349 107.4589 107.3063 109.2825 105.1035 120.4455 121.5680 117.5299 121.1342 126.0524 124.7435 126.5104 100.4090 112.7479 99.7965 111.8616 100.9892 116.1320 113.9118 115.2221 112.9582 103.3039 102.0550 105.8140 109.1866 118.2547 115.6560 94.8288 102.0594 111.8192 108.8654 107.7316 122.8967 118.8637 115.7412 119.6347 119.8063 119.6243 119.4680 119.3431 119.2154 119.1423 118.5529 122.4525 98.6819 119.3534 118.7513 118.8478 119.7564 119.5479 118.9587 119.0955 119.2900
113.9500 112.2332 116.1111 117.0232 116.2614 114.1336 111.2182 112.3191 108.8140 107.1341 110.0045 103.6074 113.1146 107.9058 108.2824 104.6950 118.0288 117.4527 123.6838 126.1762 125.0208 124.6420 126.5164 104.0820 129.3466 118.8321 94.5359 117.0297 125.0932 117.3440 116.2480 104.6026 114.7635 104.3646 102.0985 107.2589 121.3436 115.6736 104.9679 100.2183 105.9417 119.2708 116.5707 118.4591 120.2376 119.6704 120.0068 119.3417 119.2671 119.0891 118.8705 118.8216 118.6558 117.0931 122.4239 104.4663 114.9836 118.4347 118.4509 118.2197 118.4107 118.5652 118.6588 118.9000
120.3000 112.8387 115.0692 110.7881 115.3480 113.3444 110.7170 107.7944 105.7220 119.1815 108.9491 108.2330 107.0577 104.7459 107.2286 104.3925 124.1633 116.1474 120.8856 125.0127 125.0316 124.7899 124.4074 120.3322 108.3996 107.3680 123.4330 107.9352 124.0921 125.1344 123.4096 119.4206 104.2932 106.1410 102.9194 99.3318 103.5211 100.3395 97.3991 101.6464 102.6663 110.7196 122.1283 118.5216 119.4958 119.5479 119.2092 119.0849 118.8797 118.6033 119.3812 118.4419 118.2731 117.9539 119.0495 111.9248 119.1622 117.9791 117.9418 118.0220 118.0497 118.1246 118.2272 118.0800
121.7700 117.8900 114.1133 116.6756 111.3148 110.8949 110.3005 106.0084 107.6706 120.0431 114.8100 108.4625 105.0722 107.8976 111.4286 110.4869 106.1132 116.0750 126.1825 124.8279 124.7799 124.5041 127.5617 104.6149 120.3425 121.3009 121.0521 121.2165 122.9817 122.8777 122.8835 123.2536 109.3083 103.8664 104.5971 110.5876 120.6120 128.2438 110.5962 119.3314 116.0740 114.3439 120.7932 119.5232 119.3386 119.1580 118.9255 118.7002 118.4928 118.3050 118.9319 117.8769 117.8069 117.6673 117.5839 115.4597 117.8583 117.4596 117.4480 117.4971 117.5636 117.6546 117.7733 117.6300
121.6000 121.4548 120.5244 122.1276 110.5121 110.2493 109.9314 108.9973 108.8124 108.2753 107.4075 106.0607 107.0517 107.2653 105.1225 104.6309 116.5625 115.7685 113.0022 125.6842 124.7959 126.0621 105.6178 105.1681 128.5298 102.7709 126.1990 123.5132 123.2047 122.8545 122.6961 122.0847 121.0535 100.4354 104.6324 102.9676 101.8974 104.6534 122.7436 120.4105 120.1938 119.8393 119.6610 119.3270 119.0488 118.8050 118.5579 118.3144 118.0926 117.8881 117.5711 117.4943 117.3458 117.1751 117.2494 116.1291 117.0150 116.9392 116.9484 116.9879 117.0643 117.1663 117.2902 117.1600
114.1500 120.9876 118.3701 110.5400 111.8942 121.0768 110.0360 109.6393 114.1155 105.8514 104.7740 104.3654 104.2337 103.8973 103.8386 104.7156 102.3895 117.4556 125.2486 113.9490 126.1229 116.8254 111.4212 118.9474 124.2257 119.1853 120.0154 123.3284 123.0122 122.7045 122.4660 122.1984 122.0147 123.7979 102.5884 113.0549 108.4122 97.8934 120.5134 120.2767 119.6565 119.6210 119.2668 119.0043 118.7258 118.4470 118.1899 117.9302 117.6765 117.4367 117.2350 117.0132 116.8348 116.6865 116.5477 116.5474 116.3940 116.3864 116.4012 116.4467 116.5367 116.6525 116.7928 116.6500
120.0300 121.1067 114.3923 111.7094 118.4237 109.2764 109.9842 109.6989 108.7892 111.9058 104.9970 105.9503 104.3913 103.9832 117.9293 118.9640 109.5552 108.5765 106.1940 113.1249 126.4832 109.5961 111.3815 120.7696 121.5655 116.7656 122.5223 123.1114 123.3427 122.4681 122.1226 122.3633 121.5927 120.4797 125.5492 123.8248 101.5585 116.3583 103.9978 120.1044 119.4794 119.4167 118.9726 118.6857 118.3870 118.0887 117.8038 117.5209 117.2456 116.9883 116.7365 116.5109 116.3111 116.1377 115.9986 115.8890 115.8358 115.8111 115.8129 115.8728 115.9697 116.1007 116.2661 116.1200
117.8200 116.9761 124.9676 111.6660 113.0829 111.3582 110.7824 109.7862 110.0173 108.5899 106.4020 104.7820 108.3018 113.6295 110.4926 107.6025 123.2266 115.0543 112.9658 121.5703 125.2102 119.9469 118.0752 111.6005 108.3614 126.1693 120.9494 114.5664 119.8664 123.1627 123.1302 119.6359 112.5222 105.5829 97.8101 124.1642 123.1499 107.6941 121.6693 105.8599 116.8848 119.0276 118.7054 118.3652 118.0551 117.7304 117.4175 117.1089 116.8031 116.5084 116.2361 115.9855 115.7598 115.5648 115.4038 115.2811 115.1991 115.1784 115.1887 115.2544 115.3705 115.5171 115.7059 116.0500
117.7900 116.8099 115.0432 117.9210 117.6355 110.7906 111.9202 110.4896 109.1098 109.9497 110.8706 104.1038 112.6226 101.1434 112.9593 105.2076 122.2395 115.4363 121.2797 110.7767 125.0683 118.5460 102.2946 104.3389 120.8139 122.7187 121.7715 111.9317 109.7637 113.6465 117.4542 111.8579 99.6198 103.5114 99.5756 118.0905 115.5123 119.9866 120.5945 120.6546 119.9444 118.7292 118.4120 118.0515 117.7054 117.3677 117.0192 116.6794 116.3456 116.0212 115.7148 115.4280 115.1705 114.9451 114.7646 114.6225 114.5374 114.5028 114.5196 114.5978 114.7165 114.8957 115.1119 114.9400
120.0800 115.2978 113.0130 117.7660 110.6066 111.6055 113.5161 111.9677 110.3953 113.0900 103.8411 111.2514 103.4762 103.3912 116.1756 107.5603 120.7378 120.7249 119.5681 117.4416 105.5733 113.4875 111.5973 103.3435 113.1446 113.6173 123.2008 122.2146 121.0268 111.6072 102.1155 102.1899 102.8931 102.5125 97.7810 118.2970 120.0061 119.9217 119.3424 119.0242 118.1986 118.0536 118.0961 117.7415 117.3672 116.9934 116.6139 116.2454 115.8734 115.5151 115.1670 114.8431 114.5525 114.2878 114.0736 113.9088 113.8071 113.7689 113.7883 113.8770 114.0250 114.2300 114.4791 114.9400
118.1800 114.0169 111.2582 111.4527 110.3815 110.6260 108.2707 108.3685 106.3255 112.5871 103.5679 108.4370 109.9964 102.3924 106.2160 100.5393 117.1590 115.7002 125.9322 112.7318 113.9435 122.4836 125.7965 115.7335 111.4786 121.0593 122.2910 122.6012 123.3298 113.2763 114.0734 113.2543 107.9286 100.3409 99.9746 101.2380 124.1726 119.4008 119.3454 118.8496 121.9125 119.1465 117.8530 117.4247 117.0279 116.6258 116.2153 115.7994 115.3931 114.9862 114.5983 114.2329 113.8902 113.5866 113.3334 113.1402 113.0173 112.9698 112.9920 113.1063 113.2784 113.5161 113.8065 114.2800
121.6200 121.5519 110.6040 108.6406 109.3007 109.2046 109.2500 109.6192 109.8568 105.2336 99.2530 105.3586 106.5087 115.9263 105.6933 106.1138 125.8379 125.2688 125.3001 125.1710 125.8271 122.4841 122.8610 125.2097 128.4080 125.6642 124.6598 124.1226 112.8793 102.4955 124.2202 123.0214 110.6308 104.3214 96.0300 95.2646 104.0848 121.0367 118.8532 118.6064 119.6721 113.5821 117.7754 117.0987 116.6771 116.2548 115.7984 115.3521 114.9003 114.4511 114.0121 113.5892 113.1870 112.8299 112.5305 112.3006 112.1534 112.0852 112.1181 112.2520 112.4580 112.7496 113.0895 113.5500
110.1600 112.6014 112.9632 109.2687 107.4011 107.4261 108.2178 108.4357 106.7277 105.9059 107.6752 103.7240 101.8602 114.6820 104.3501 104.3515 124.1930 123.0976 117.9604 124.7637 125.1375 123.9915 123.7000 124.8048 103.1429 107.5154 111.1263 111.0335 121.4209 116.2411 122.1559 121.0114 123.0374 123.7190 116.4472 116.3770 96.2613 105.1807 118.3245 118.5181 117.7471 115.1921 117.4024 116.8269 116.4367 115.9836 115.5047 114.8906 114.4083 113.8968 113.3969 112.8997 112.4395 112.0226 111.6559 111.3644 111.1827 111.1095 111.1509 111.3081 111.5697 111.9157 112.3258 112.6000
113.3600 109.2958 109.5468 109.8681 109.4016 109.6258 108.8575 108.2772 106.5041 104.2146 103.6466 102.1734 118.7755 111.6138 103.5101 109.9227 121.4256 124.2167 119.3468 123.7444 108.8342 123.4327 124.0655 124.2241 120.1681 108.6565 102.0593 97.8476 122.2826 122.5979 121.6734 120.9084 122.6546 99.8107 107.1508 120.7091 116.3391 116.1071 118.4760 118.3175 117.9141 117.5958 116.9920 116.5266 116.0312 115.4508 114.7757 114.4662 113.9164 113.3380 112.7633 112.1934 111.6444 111.1361 110.6909 110.3307 110.0976 109.9993 110.0583 110.2570 110.5889 111.0144 111.5150 111.7800
110.6300 110.3900 109.5652 109.2471 109.3853 108.8797 106.4281 107.2196 105.6037 104.3993 103.6323 116.3220 112.9514 117.1754 123.3415 112.6120 133.4732 127.8428 124.3056 120.4921 118.3512 124.1076 113.2035 101.7362 115.5992 117.2002 121.9246 121.3789 121.8350 121.5930 121.2786 121.3541 121.1525 118.9851 114.7180 108.7370 120.5621 119.2563 118.6037 118.1518 117.7135 117.2413 116.7693 116.3011 115.1104 121.8397 114.2800 114.1794 113.3870 112.7781 112.1248 111.4616 110.8113 110.1886 109.6236 109.1703 108.8627 108.7335 108.8070 109.1090 109.4890 110.0529 110.6336 110.8800
110.6900 110.4685 109.7399 109.5563 109.4239 109.8198 108.6518 108.4049 104.7861 104.3705 109.9342 116.1142 102.3039 109.8588 123.2811 99.6258 120.2312 119.1066 124.3177 118.1123 120.0139 120.0774 103.4569 104.3288 111.4595 121.1615 114.9721 121.3235 121.6930 121.7672 121.8801 106.2314 120.3796 119.5244 119.8113 119.5049 119.5294 118.8401 118.4242 117.9870 117.5279 117.0479 116.5509 116.0082 115.5297 114.9528 114.0450 113.6415 112.9443 112.2206 111.4736 110.7009 109.9235 109.1593 108.4548 107.8471 107.4277 107.2492 107.3943 107.5524 108.3541 108.9208 109.7350 109.7100
109.1500 109.8001 110.4391 110.3492 109.5229 110.0999 109.0757 108.1098 105.0923 104.2691 102.3851 118.4210 109.4473 121.9983 123.6379 123.2873 125.2873 126.5082 108.8661 126.6023 124.1725 125.1960 107.1953 127.0538 109.7977 108.4609 127.1096 122.2534 121.7186 121.6125 121.2845 121.7138 118.1408 98.6385 102.5547 121.0810 119.3013 115.1810 118.4751 117.7955 117.3985 116.9029 116.3739 115.8032 115.2208 114.6319 113.9635 113.2289 112.4916 111.6856 110.8430 109.9454 109.0148 108.0573 107.1430 106.3190 105.7176 105.4667 105.6408 106.3376 108.7110 107.7485 108.7786 109.5600
126.4100 119.6766 114.2176 112.0209 107.7465 107.9963 109.6028 107.7499 107.2187 104.1240 103.2874 119.6204 111.7006 124.0840 124.6208 124.8881 124.2973 124.3628 125.7317 124.6160 124.3766 123.4446 124.7235 125.0946 103.9903 105.1332 113.5571 119.1745 122.9989 121.4092 121.2549 120.2292 117.2962 112.1721 121.9692 120.0281 119.0918 118.8548 118.2843 118.5335 117.0340 116.5377 116.0538 115.6205 114.9907 114.3262 113.6244 112.8879 112.0794 111.2030 110.2416 109.2076 108.0897 106.9080 105.6900 104.5403 103.6212 103.2080 103.4815 104.1066 105.3155 106.6217 107.7956 108.4000
126.2400 120.7525 117.0477 110.8003 112.9937 112.1864 109.5274 107.6044 111.5720 104.7325 113.3000 110.4709 120.1562 124.5761 125.1979 125.1348 124.9315 124.7264 124.1562 123.8111 126.9957 123.6262 123.2738 123.7141 108.1746 127.3097 109.3453 121.9933 118.1891 121.3841 121.3771 121.0064 122.0300 115.9465 119.0861 119.0037 118.8373 118.1005 118.1129 109.7927 117.8467 118.0341 117.1374 115.4468 114.8215 114.1410 113.4032 112.5958 111.7210 110.7635 109.7057 108.5317 107.2107 105.7421 104.1319 102.4148 100.9349 100.1900 100.6637 102.0198 103.6841 105.3438 106.8504 108.1000
126.2300 116.4409 109.8338 109.0067 108.5436 108.6971 106.1819 105.6517 103.4269 104.1804 114.0247 121.6096 123.2104 125.3827 129.1727 124.8827 124.7789 124.5708 124.4123 124.1906 123.5668 123.5946 123.4613 123.2024 124.5823 123.4466 123.5744 123.3922 121.8094 122.3524 120.8353 120.4242 121.9745 100.3624 121.8257 120.6058 119.3614 120.7043 119.2883 113.1244 116.2466 108.6927 108.3020 115.1157 114.6040 113.9628 113.2101 112.3712 111.4832 110.4703 109.2770 107.9642 106.4453 104.6642 102.5355 100.0135 97.1957 95.1982 96.4487 99.3737 101.9251 104.1494 106.0099 106.5700
109.8200 111.9238 113.3777 109.1738 112.2855 109.4891 110.7658 106.9596 107.1817 109.9777 123.9166 122.9520 126.5335 125.6697 124.6362 125.0847 124.8112 124.6503 124.4486 124.1763 124.0011 123.7155 123.4084 123.1396 122.5943 122.3857 122.1342 121.8672 121.5300 124.0407 122.2368 121.7740 123.5967 101.2344 113.6174 112.8226 118.6176 108.4704 109.3918 109.8100 107.8495 98.1732 93.4926 109.8419 114.9005 113.8389 113.0830 112.2272 111.1501 110.0130 108.9723 107.5550 105.8795 103.8177 101.1617 97.5835 91.5682 88.5080 90.3180 96.3150 100.3334 103.2170 105.3911 106.3800
116.0300 116.8980 118.3361 118.0218 119.0886 113.7164 113.1015 110.4350 112.9221 114.3278 122.7406 123.5327 125.8944 125.2507 125.1391 124.8564 124.7906 124.4311 123.9284 123.9269 123.7741 123.4852 123.4612 123.2520 122.9758 122.6852 122.3768 122.0933 121.7320 121.8370 110.4721 119.6596 109.2159 104.2687 103.1302 102.5746 105.3010 98.4727 93.1095 96.8192 90.1760 99.9254 93.9351 103.1616 111.0707 114.0654 113.0223 112.1540 111.0879 110.8244 108.8774 107.3968 105.6069 103.3932 100.4087 95.9146 87.8443 84.2998 86.4246 94.0147 99.4637 102.7415 105.0988 106.3300
116.0300 117.3571 120.3759 119.5970 118.3597 110.2519 114.2367 110.5125 115.0683 115.2098 121.6678 125.5075 126.1750 126.3262 125.9461 125.3932 124.5745 125.5375 127.1655 124.5853 124.2885 124.2153 122.6691 123.0103 122.7209 122.4748 122.3291 122.0228 121.7709 122.2556 119.1271 119.9357 115.0211 115.6461 114.7674 115.1935 113.3054 112.0365 112.8289 112.6944 111.2304 112.2598 110.0591 114.7085 113.0745 113.8605 113.0223 112.1199 112.2645 99.6035 110.0545 107.4085 105.6662 103.5164 100.6319 96.5023 89.0123 85.9267 87.7755 94.7764 99.7091 102.8791 105.1855 106.3700
109.9000 112.0122 111.7694 111.4766 111.3019 110.7189 109.0172 105.7837 106.8093 109.3307 120.6207 116.0908 127.5539 116.6023 122.6624 123.2792 125.1920 114.4875 108.7322 124.8960 123.1460 114.9032 126.1094 123.5400 123.6372 123.1286 122.3172 122.0474 121.7466 121.4233 121.7232 120.8000 114.9982 130.1585 117.0080 120.3316 119.8851 119.5447 118.7528 118.4247 117.7202 117.0204 118.0073 116.1858 114.8130 113.8761 113.1260 112.2083 111.4134 108.3173 109.0683 107.7254 106.0974 104.1464 101.7278 98.5684 94.0772 91.1670 93.0748 97.7012 100.9914 103.5963 105.6379 106.4900
109.8000 109.6345 109.5403 109.1463 107.9665 107.8893 104.5930 103.8863 104.2894 106.8675 118.1190 124.0673 121.5083 120.8559 120.8434 117.9235 120.3835 115.8491 113.2852 127.3745 109.6705 112.2003 111.7865 125.5805 114.5996 123.5696 122.2157 122.0741 121.8048 121.4301 121.3543 121.3340 119.5266 123.0935 118.1162 119.3244 118.7314 118.3985 117.9637 117.4286 117.0541 118.1947 99.3797 117.7410 114.0825 113.9920 113.2989 112.4575 111.7190 110.7991 109.4605 108.1883 106.7625 105.1344 103.2118 101.1362 99.0594 97.8031 98.5576 100.5628 102.7170 104.6745 106.3772 107.8200
109.2600 109.2325 108.8480 108.4719 107.5801 106.1958 112.5848 103.8132 105.1962 104.6356 114.2523 103.2370 118.6119 103.5704 103.7367 103.4235 103.1084 102.3064 109.3883 106.2835 103.6166 122.7776 108.2823 124.4135 122.5837 122.6191 122.4050 122.1270 121.3023 121.9319 103.8639 111.7837 116.8400 94.8047 120.1032 115.0786 118.9111 118.6565 118.1334 117.7173 116.9340 114.6119 94.4488 125.1397 113.5104 114.2745 113.5151 112.7196 111.8617 110.9190 109.9379 108.8227 107.5971 106.2650 104.8412 103.4332 102.1960 101.6208 101.9659 103.0650 104.4698 105.9043 107.2702 108.0700
108.4900 109.3314 108.1568 107.0960 105.8740 105.3777 104.6997 104.6472 103.2823 118.0750 108.3518 103.1841 103.9571 104.8287 104.0902 101.6120 119.9911 110.7359 124.8328 110.7279 123.3465 115.6309 119.2948 122.6770 123.0585 122.7175 122.4402 122.1014 121.2616 123.7642 102.7212 110.9917 117.2300 98.4078 117.4040 117.3483 119.1896 118.6946 118.2394 117.7895 116.6763 115.3035 99.0724 119.7720 114.6993 114.5121 113.7724 113.0351 112.2397 111.4052 110.4995 109.5257 108.5011 107.4253 106.4305 105.3059 104.5088 104.2381 104.4624 105.1402 106.0862 107.1547 108.2326 108.3800
111.9100 111.7401 107.8192 108.4336 107.1654 106.4336 105.3887 104.9234 103.9061 104.1877 106.1414 104.0521 122.8139 117.9368 112.4868 120.5016 102.9612 114.1024 124.2160 125.1912 123.7418 124.1566 121.5549 123.2589 123.0467 122.7731 122.4737 122.8457 120.3047 106.8033 107.0265 102.3560 100.9798 123.1199 119.7200 113.5806 119.5117 118.7851 118.4029 117.8472 109.5467 94.3142 100.1969 118.5847 114.6020 114.7395 114.1843 113.4406 112.7022 111.9230 111.1207 110.2972 109.4154 108.5730 107.2974 107.1216 107.2555 106.3253 106.4237 106.8642 107.5448 108.3406 109.2067 109.5300
110.4200 110.1080 110.3024 108.5402 108.0999 108.8788 111.1998 104.8717 105.2454 105.2171 121.2128 102.4667 119.6737 115.7227 107.1984 108.5339 125.9087 124.9198 123.2471 122.3462 124.2795 123.3303 120.0298 123.2585 122.5893 122.7402 122.3130 117.1185 101.8441 108.3292 120.4490 116.3717 117.2286 112.5343 110.1400 120.5340 118.9994 118.9207 118.5977 117.3921 118.3502 96.6752 98.9391 115.8657 112.9056 114.9830 113.7390 113.5315 113.0289 112.4640 111.6411 111.0456 110.1313 109.8058 108.9717 100.0636 105.0660 107.9168 108.0293 108.3423 108.8403 109.4552 110.1390 110.5600
110.7300 110.3322 108.3318 108.3671 108.1630 107.2211 104.6024 104.3633 102.4224 114.9964 111.7361 123.0394 125.4069 126.7463 128.0203 123.0819 124.2099 125.1267 106.4772 112.6874 125.9678 120.2337 126.8654 123.6954 124.2239 122.8836 121.9053 117.5072 102.0900 118.4422 97.1300 105.3238 109.5951 113.4356 120.6109 119.0359 119.7888 119.0233 118.5087 118.8969 116.7643 91.5802 99.7643 116.1942 116.3989 115.6066 116.5765 114.7399 113.9410 113.0850 112.5403 111.4360 105.2926 111.6347 110.0672 109.7627 109.2901 109.2585 109.3974 109.6163 109.9936 110.4783 111.0351 111.6600
112.3500 108.7840 107.3340 106.1475 105.1678 105.5455 105.3534 106.5793 110.9536 104.3100 118.6012 114.2020 125.4201 125.2868 127.5581 125.2397 124.8905 125.5955 117.5018 104.6423 111.7523 109.5038 124.4564 129.7333 117.9946 125.1976 120.8004 112.6809 99.8552 96.1973 113.4192 124.5528 119.9867 120.6926 120.7717 124.0128 119.5280 120.1527 119.7358 109.6504 107.3088 106.6913 108.0816 117.3382 116.0128 115.1638 110.7935 105.9810 113.8617 113.5240 112.9439 106.4445 90.1220 111.9180 110.7886 110.7084 110.5640 110.5054 110.5645 110.7382 111.0300 111.4236 111.8817 111.7700
106.9500 106.6589 109.8923 109.6851 103.9953 104.7565 103.3459 109.2196 117.0896 109.6698 119.5980 118.9971 126.7364 126.7253 121.0008 125.5518 124.8563 121.4984 117.7888 121.0179 113.3423 123.4810 121.4644 123.7898 113.3699 113.0729 119.7929 112.7169 109.5263 105.9141 126.1100 120.3976 121.0789 120.5011 114.6908 105.7585 122.2740 113.6085 119.6875 107.8284 101.9023 114.9902 119.3408 117.6862 117.5061 118.4877 119.2690 119.1574 114.6590 114.3259 114.6670 112.4749 111.8183 113.8871 112.0531 111.7902 111.6208 111.5510 111.5909 111.7352 111.9728 112.2889 112.6785 113.3500
105.8100 106.8097 106.6112 114.3082 111.9769 109.0742 112.1235 111.7951 114.4374 108.2720 125.9194 124.4703 121.6320 124.9313 123.6513 125.1882 125.1152 115.7408 124.7284 128.2071 126.8931 123.2637 127.7591 123.5526 120.7774 106.5048 109.2695 117.2272 120.4170 120.7251 121.0773 121.4821 120.8454 123.5969 105.7962 103.1648 120.9398 108.4093 119.3568 119.5681 111.3557 104.8231 117.4987 116.6216 103.3355 100.5323 115.0625 115.3059 114.8635 114.6433 113.9926 114.1035 113.6735 113.1984 112.8692 112.6731 112.5382 112.4748 112.4907 112.6509 112.8314 113.0910 113.4092 113.4800
105.8200 106.1873 105.3197 108.4045 117.3056 122.8520 119.3038 108.7418 105.3072 122.3092 108.2473 118.4502 127.1801 127.3223 126.6025 125.5170 125.3529 122.1959 121.9160 106.7024 126.6368 113.5237 114.6862 124.3796 123.3169 103.9922 103.5076 118.4663 120.3353 123.5520 121.0924 121.6908 121.4354 111.7689 98.3174 98.0560 111.6427 118.5093 119.6043 120.8070 105.4755 107.9666 104.0783 109.3914 97.8726 113.1773 112.5440 115.5976 116.0968 115.4441 115.3272 114.2968 114.1723 113.9222 113.6697 113.4813 113.3762 113.3340 113.3992 113.2505 113.6104 113.8437 114.1214 114.2200
105.9300 105.9529 105.5343 104.5162 108.9750 104.7810 107.6050 103.0261 108.3693 108.4335 107.6505 104.3162 117.8318 110.9260 122.4826 124.2598 119.5222 109.1935 106.3579 108.5134 112.5703 112.4912 109.7792 118.3240 126.2140 100.0500 102.3342 102.3707 103.5992 118.3258 121.8123 121.7896 121.4051 118.6871 117.5690 116.5674 118.3928 117.2155 119.2719 121.4443 94.3011 111.5335 117.3472 97.0047 102.1489 97.7574 111.5191 123.3471 114.4813 117.8851 105.4136 117.1540 114.8218 114.5636 114.3747 114.2320 114.1037 114.0968 113.8774 116.1868 114.0667 114.5396 114.5333 114.9200
109.9600 104.6088 110.1063 112.6066 127.4645 126.2256 127.2503 110.5419 122.7296 104.0197 104.1619 105.6892 122.9514 120.7878 125.8782 126.0623 113.0126 116.9422 114.5217 118.0875 110.0037 122.1171 122.0088 109.9593 104.8306 102.2874 107.3185 106.6620 122.4651 122.4050 122.0949 121.8496 121.5432 121.3959 121.3559 120.9095 121.5986 120.5916 121.1946 107.5461 98.8144 114.0942 107.1646 100.0758 96.3480 110.8253 104.1672 114.5778 124.7622 119.4741 100.3708 116.0574 115.4704 115.2992 115.0282 114.7482 114.6435 114.8113 113.7998 123.3774 114.7564 115.3638 117.7826 115.5100
123.9200 127.6956 125.3889 124.8084 127.3386 126.7198 127.0701 103.6629 104.2475 119.4334 111.1438 117.0358 117.6983 113.4233 127.1445 125.6100 125.7505 118.7393 123.7957 124.9860 115.7714 111.6055 109.2227 118.5711 106.3727 103.4076 101.2973 117.8043 106.6851 122.6597 121.9041 122.0221 121.7278 121.4277 121.2645 120.8815 117.5424 95.4222 117.4648 106.8832 101.1517 101.4323 104.9601 98.3988 118.6788 116.8207 117.2340 118.6668 114.2605 97.3080 114.7689 116.3115 115.2463 115.4782 115.6791 115.6080 115.5544 115.6985 115.5614 114.6180 114.7202 115.6440 106.5098 109.6000
123.2400 126.8823 127.7143 125.9414 123.3054 122.5578 122.5911 123.8526 131.1733 103.5096 106.1201 110.4366 113.1527 115.3948 137.8906 124.7715 124.1004 126.0784 125.3722 123.9863 121.2078 110.0557 109.0204 107.1415 122.5690 104.2929 100.4360 105.5828 107.1007 124.5126 122.2868 122.0981 121.8899 121.6080 121.3837 120.4030 123.1401 101.2941 122.7985 112.7182 107.8395 108.8108 99.8558 103.2608 111.3307 95.1923 117.7492 108.2781 102.1457 118.0443 114.7936 115.5181 125.7932 116.2974 116.4613 116.2176 114.4651 115.1878 115.7227 116.1927 116.9219 114.0946 91.6209 94.6200
128.1000 127.9984 127.7836 128.2224 120.4355 118.1240 117.8271 123.7062 120.1087 112.1496 129.6652 120.9273 110.3393 119.5792 122.2125 120.4045 116.4038 130.8261 125.8096 113.7737 124.7294 108.8976 101.4135 107.8590 98.1900 118.1245 113.4619 122.4726 108.2828 125.8531 122.1345 122.3096 122.0439 121.7947 121.5251 121.3167 121.5039 115.0874 109.0129 107.3936 107.4211 106.2207 102.7080 101.8220 100.1183 101.3170 112.8401 102.3908 97.6638 101.6436 116.2295 116.2823 120.2272 116.7499 116.9252 117.4088 98.5435 110.4851 113.4430 116.8626 119.3837 97.3846 103.8378 99.7800
128.1000 128.0207 127.9217 127.6324 128.2263 126.9807 114.3424 128.3357 128.1599 126.7361 125.6083 122.2407 111.3245 107.3404 103.4160 110.1790 117.6754 125.8895 123.1094 120.3938 120.8601 111.1587 110.0955 116.0616 104.3418 108.7166 109.2427 121.8846 123.0766 130.2131 122.8001 122.5634 122.1992 121.9674 121.7286 121.4072 121.7724 110.3124 108.5752 108.2578 104.7884 104.1614 103.7039 101.4930 97.0464 113.7983 106.3264 97.5160 105.6770 114.4772 117.6074 119.4920 100.5048 117.3864 117.3065 119.3589 102.9530 101.0193 109.5900 117.1194 113.7149 103.0212 110.5986 99.3300
144.6800 128.2800 127.9100 127.7100 127.6000 127.3900 127.2800 127.1700 126.9400 126.8300 126.5900 126.4700 126.3500 107.3700 107.7300 118.4000 127.9700 132.6400 125.2000 122.8200 111.3100 115.9800 111.2400 119.6300 107.8000 112.4800 104.9500 110.3800 115.2300 123.7600 122.7100 122.5300 122.3500 121.9900 121.7900 121.5900 121.3900 121.1900 109.4000 107.5500 103.9000 102.1400 103.5300 102.8400 102.2700 119.2000 96.6600 118.7700 101.9400 118.2000 118.2900 101.5200 101.5200 117.7000 95.7500 117.3800 96.3100 95.4300 95.4300 118.1500 118.4100 98.8300 102.7700 99.3300
