122.5200 105.3000 105.3100 127.3100 127.3100 127.3100 127.3100 127.3100 127.3100 127.3000 127.2900 127.4200 127.4100 127.4000 127.3900 134.9600 132.7000 127.5900 127.5900 116.6900 116.6900 127.6400 127.7700 127.7400 127.8400 127.9400 127.9100 128.0000 128.0800 128.0800 128.1700 109.2800 109.2800 113.7400 113.7400 112.9300 128.5800 128.6600 128.7600 128.7400 128.9200 128.9000 128.9900 129.0600 129.1400 129.2100 129.3000 129.3900 129.4500 129.5400 129.6000 129.7700 129.7700 129.8300 130.0000 130.0600 117.1300 119.9200 130.2800 130.3500 125.9000 125.9000 130.6300 130.6300
122.5200 116.1075 110.5176 122.3270 127.6825 127.3763 127.0050 127.3163 127.1825 127.2518 127.2583 127.2722 127.2762 127.1941 126.9796 127.7142 127.7839 127.3557 128.5810 115.7050 115.4820 126.7345 126.9917 128.0723 128.3051 127.8782 127.7857 127.7279 110.5581 110.2081 125.6924 123.4695 106.3349 117.4521 110.0362 105.4601 115.9787 129.2519 128.3935 128.3573 122.4373 127.9733 129.0399 129.0445 129.0629 129.1917 127.6709 127.6483 129.6851 129.4792 129.5762 129.7264 129.7446 129.3818 132.2697 121.1368 123.4769 117.1283 111.4967 126.5272 126.0308 131.3854 130.5726 130.6000
109.2100 119.7221 114.5720 123.2852 128.1590 124.8887 124.9455 125.7067 127.0657 127.0872 127.0925 127.1079 127.1323 127.1979 127.3049 127.2368 127.2631 127.4614 124.3399 115.6230 116.1642 123.9834 125.9745 125.9758 117.3773 127.9907 126.8256 131.0884 118.3618 125.1516 130.3473 106.7425 106.8852 113.3214 114.8362 116.7874 110.8812 128.3904 129.2062 128.1777 125.9905 128.4153 128.6866 128.9043 128.9752 129.0330 129.3419 127.5404 129.3000 129.3058 129.4811 129.5705 129.2641 129.3655 123.7579 116.9636 109.7564 128.3282 123.5246 129.7220 125.2874 130.7484 130.4287 130.6000
126.7500 115.3773 114.7641 135.0576 122.4804 124.2193 124.5221 126.0223 126.8972 126.9088 126.9029 126.9240 126.9569 126.9690 126.9917 127.0340 127.0812 127.1057 127.2043 113.3504 113.6948 124.1353 111.4240 121.9186 127.8801 129.0937 127.8093 122.6199 128.2309 118.5165 104.7103 106.4543 108.7960 116.5360 116.6066 109.0186 119.4357 123.8682 121.0474 128.5201 122.1229 128.4565 129.2889 128.9523 128.8233 128.9164 129.1067 129.1981 129.3272 129.3345 129.4682 129.4876 130.3162 124.9546 113.1783 127.0192 111.2116 116.8515 131.0889 132.0659 129.5287 130.2373 130.2515 130.4700
126.6700 124.9281 120.3019 123.1357 122.6985 126.0613 127.5444 126.5123 126.7476 126.7175 126.8767 126.8434 126.7964 126.8117 126.8467 126.8797 126.9000 126.8248 127.5558 119.6146 131.9255 133.6857 118.2411 128.4922 127.5466 127.0335 127.5907 125.5499 127.7295 128.5750 116.9709 114.8920 105.9851 128.3880 126.9301 123.3931 127.3028 127.1421 129.0495 127.8623 130.2379 128.6558 126.5530 128.3173 128.7515 128.8757 128.9243 129.0412 128.9143 129.2427 128.2499 131.8921 115.7719 118.8849 110.5878 109.6933 123.8943 113.5011 113.7127 111.5148 130.1026 130.9843 131.3077 130.3700
119.4000 120.9380 122.2776 121.1070 126.5182 127.6734 122.1893 128.0335 126.5541 126.6221 125.6337 126.4627 126.6063 126.6549 126.6779 126.7069 126.7409 126.7881 126.8980 127.4586 127.0809 112.8600 115.8214 127.8136 127.2454 127.2162 127.1714 127.6557 127.5215 115.6718 114.4480 109.9418 124.8451 125.7534 128.7697 128.0952 128.1947 127.8694 130.4740 110.0929 130.2346 127.9602 128.5002 128.5585 128.6402 128.7377 128.8073 128.9593 128.7629 131.5106 129.2077 113.3259 119.9675 115.0580 130.0291 125.3292 120.9487 111.0221 106.2600 128.8286 130.1345 122.5306 118.1240 118.3300
116.8600 117.6482 125.5842 124.1902 132.4333 124.3093 121.4475 126.3871 126.3796 126.0470 128.4590 126.1546 126.6049 126.4286 126.5152 126.5380 126.5675 126.6137 126.6309 126.6187 128.2003 118.3452 117.2388 127.2653 125.9437 127.0988 127.1303 127.1282 129.2885 106.3235 110.2899 115.1879 119.1686 101.6091 109.8896 128.2673 127.8495 128.2132 122.4907 125.6517 129.1259 128.1065 128.3825 128.4487 128.4554 128.6742 128.6814 129.3834 129.7261 128.3535 106.2687 107.6812 107.5190 121.3256 116.5059 124.8590 110.8886 114.4921 116.8224 131.8490 124.0752 129.6614 130.6488 130.2400
121.9300 117.1775 115.5840 117.5164 125.3069 127.1071 122.5916 126.4611 126.1805 126.4608 127.9512 125.8591 125.0683 126.1989 126.3263 126.3563 126.3940 126.4386 126.4692 126.5449 127.3278 117.1094 126.9417 124.6396 126.0685 126.4223 126.9085 127.2230 125.4033 103.9228 126.4120 121.4682 128.7529 114.3826 127.0743 126.6632 127.7731 127.9902 127.9574 128.2442 128.0647 128.1978 128.2525 128.3228 127.2399 128.6003 128.9545 129.2795 129.4316 128.3062 115.3970 122.3771 130.9555 128.8196 124.8642 109.2560 120.8228 127.6177 128.2338 129.8066 129.7990 130.4669 128.0929 130.1300
117.1400 129.1537 113.4314 116.4943 122.8992 118.0387 130.1162 125.7776 126.2822 119.4634 117.6128 123.6791 124.2248 126.0439 126.1477 126.1724 126.2201 126.2616 126.3069 126.3486 126.5679 124.2596 110.1199 126.7086 126.4220 127.0755 126.8107 126.6617 124.3424 113.4051 128.4918 112.1025 119.5805 119.8680 125.8140 127.5601 127.6173 127.7727 122.7212 129.0787 127.6845 128.1385 128.0077 128.2756 128.3171 128.5334 128.6269 129.0650 128.5747 130.2884 118.2357 130.9781 128.3698 131.4758 122.9882 137.7551 125.5029 129.2517 129.5037 129.5886 129.6614 130.7905 130.6286 130.1000
117.9700 118.8660 107.6569 114.3528 123.2623 123.9081 125.1537 126.4671 124.8204 113.0446 115.6757 127.1805 115.3377 125.6564 125.9904 125.9970 126.0363 126.0879 126.1278 126.2007 126.2282 127.1528 126.4814 126.2143 127.3086 123.3137 126.6902 127.0438 121.4709 125.6693 127.8315 128.5308 121.9765 127.1306 127.3155 127.4150 127.4242 129.2150 119.6939 116.9137 129.1968 127.6299 128.3548 128.7862 127.9278 128.2271 128.4481 128.5989 128.1643 116.1577 130.7988 121.6142 128.0933 124.6642 114.8929 109.6185 121.3833 130.2038 129.3445 129.7312 129.7187 130.0176 131.3420 130.0000
113.9300 114.9968 109.4278 111.9609 117.1589 130.3680 118.5098 119.9281 126.6379 122.5439 115.5037 117.6262 120.5085 127.2696 125.5668 125.8105 125.8437 125.9048 125.9606 126.0045 126.1046 125.8319 126.3442 126.4494 112.8343 128.9472 126.3725 127.0999 122.5420 127.0073 126.5411 127.0032 127.0514 127.4701 127.1483 127.2260 127.4695 126.7021 127.1890 120.1581 127.4730 127.8435 127.8685 127.6754 127.6265 127.9909 128.2233 128.4836 128.7934 128.6723 130.5477 116.4180 129.7158 116.5402 128.7279 119.8254 118.3418 129.0151 129.4121 129.6090 129.5346 129.5245 115.0099 129.9700
110.8300 112.1185 110.0901 114.1025 108.8099 123.0859 128.2993 118.8129 126.3750 119.9475 118.1774 117.9544 129.5577 128.6973 125.2902 125.6097 125.6998 125.6575 125.7138 125.8529 125.8889 126.2481 124.1686 124.9816 123.7563 126.5795 126.4096 126.3708 126.8766 126.5389 126.7275 126.7141 126.8073 126.8606 127.0110 126.9658 127.1043 126.6343 128.0092 128.6878 128.5708 128.1292 128.1997 128.0940 127.4132 127.6907 127.8933 128.2796 128.0539 128.2580 128.7615 122.3317 128.3504 126.6407 127.5422 114.0323 126.4414 129.1349 129.4146 129.4666 129.7286 129.4898 133.6497 118.2100
125.2900 112.4248 117.1864 114.5345 110.6460 105.9328 123.7571 116.8297 119.9540 118.5658 115.7714 122.3941 127.8556 124.5610 125.4626 125.4953 123.9573 126.7288 125.9719 125.6128 125.7039 125.8395 122.3397 124.6801 126.1552 126.0046 126.1803 126.2096 126.2749 126.3774 126.3667 126.5863 126.5805 127.1042 126.8803 126.9615 128.0804 127.4924 130.5785 129.4694 128.4437 127.0503 126.6874 127.0592 127.3559 127.7293 128.7583 128.1752 129.9100 129.8770 128.8638 124.0572 125.8965 111.1593 116.1601 106.3600 111.9353 132.8311 129.1783 129.4060 129.6395 130.3032 128.5288 118.2100
108.6500 107.8096 120.5236 124.7909 121.9459 113.5717 121.3901 116.3616 123.1329 117.6195 117.3937 113.3940 123.0805 124.9856 125.1872 125.1834 126.7419 112.8937 125.3643 125.5710 125.6172 125.0634 125.9191 125.8191 125.6130 126.8823 125.7722 125.7909 126.4561 126.2729 126.8299 126.6119 126.5328 125.5746 126.2290 126.7996 126.4381 111.5654 110.1419 121.8292 128.8144 126.2347 126.7966 127.0491 127.0576 127.6050 128.5158 127.8624 127.5289 116.0148 129.3358 128.5263 129.5045 120.5424 131.0055 118.4494 127.3404 128.8622 129.2495 129.3897 129.1607 130.1918 115.2453 122.4900
110.9700 117.5835 125.5976 123.7733 117.1920 115.5382 127.2912 118.1556 124.5574 126.0168 125.5479 113.6195 123.6384 124.6070 125.0260 124.9188 126.2290 122.2556 127.5056 125.3355 124.9923 126.6839 124.8319 126.1884 117.9798 119.5969 126.4703 125.9338 125.3479 121.5277 122.5347 126.6818 124.8718 122.2488 124.3714 126.4930 128.5309 120.2494 112.6214 117.4749 126.7733 126.3372 126.5397 126.6602 127.8099 128.3956 127.8631 127.7958 128.3065 123.5276 128.2741 129.4858 128.6241 130.0433 115.1085 107.7312 135.5276 128.3227 128.8843 129.2501 129.2522 129.4429 128.0193 129.5900
124.5000 126.1443 124.7207 124.9776 123.8800 120.6816 118.1033 110.1780 124.3796 123.9411 124.8360 117.2949 122.3495 124.5634 124.7988 124.7838 124.2201 126.4106 127.3809 124.9800 124.8643 120.6158 105.3555 123.4539 108.7592 119.2717 125.9435 125.3021 125.6736 126.4853 126.3367 123.1337 120.7015 123.8772 126.7658 126.0754 127.4439 123.6633 114.3223 124.7129 126.6860 126.0312 126.4357 128.8324 127.7477 128.5164 127.7143 127.6028 130.3159 128.4351 124.1928 118.5654 131.4663 133.5347 138.9301 130.8194 129.7872 132.9402 132.5467 128.8212 129.4857 129.1262 126.5833 107.5600
124.2900 124.1447 124.3710 124.9093 115.6253 118.3644 117.4274 124.4601 124.6757 124.2380 124.2448 124.7200 124.5131 124.4166 124.5625 124.5903 124.4404 124.1781 124.7974 124.8642 122.9213 113.9678 117.2285 124.0198 111.7142 118.5463 113.9459 129.5128 125.4564 125.8085 126.2046 114.7996 120.4661 126.2815 127.2129 119.6644 127.9312 117.5532 124.7652 124.8122 125.9611 125.9665 127.1590 128.9971 127.5251 127.6048 127.6567 127.7724 127.5418 129.6396 113.8734 129.6719 132.8207 126.4426 101.9161 130.1738 132.6149 131.7210 129.0825 129.1314 129.1655 130.2043 133.5761 133.0700
124.0800 124.0366 124.9311 115.7094 126.1967 117.9862 117.7648 110.2277 124.5946 123.8212 124.1130 124.0906 124.2385 124.2693 124.3514 124.7289 125.0294 124.5052 124.5878 124.7097 125.8550 124.0504 125.7356 127.5599 107.0964 102.2814 104.4213 111.0704 115.8225 127.3411 123.9931 120.1840 120.3263 120.5296 119.5489 118.8525 116.9414 116.2504 124.9600 125.2525 124.8514 126.6466 129.2736 127.0378 127.3120 127.2733 127.6562 127.6935 127.9178 127.7703 131.9610 137.0197 110.7527 130.1475 133.4725 132.5146 133.4387 129.2906 128.9900 128.8525 131.8157 132.7369 131.9151 129.4200
123.8600 124.2926 124.0860 120.6295 121.2268 122.4918 121.1729 117.3265 124.3724 123.6776 123.9507 123.9947 123.9985 124.0410 124.4053 117.5271 122.0675 124.3200 124.3790 124.3270 124.7219 111.9425 120.9283 121.4083 113.6027 109.8203 111.9092 115.0140 105.5153 121.4777 114.6181 120.6461 119.3158 118.8214 118.7946 117.0934 122.5318 115.0067 111.2496 124.7416 121.0363 122.0538 127.4565 116.4099 127.7496 127.0249 126.3020 127.2449 128.5200 132.0739 131.5932 131.0567 132.8673 130.3982 132.3898 108.8974 130.6076 126.1591 135.7257 133.4289 133.0913 132.9089 132.2416 132.2400
123.6400 113.0893 115.2972 113.2319 107.3521 114.1308 118.9471 129.0677 123.2561 123.8035 123.6891 123.7156 123.8275 123.7525 123.9058 116.6093 123.9069 123.9568 124.2049 124.7114 124.7234 125.1159 132.3881 128.3102 122.0879 111.8139 107.6061 118.9706 119.8657 115.3111 115.1258 119.0360 116.8591 118.0710 119.3300 117.7649 112.7626 118.6187 103.7877 119.1547 121.1483 121.2060 121.7168 121.9624 125.6864 110.0347 118.7037 127.0539 129.1621 132.5137 132.4714 123.2073 121.1419 106.5745 101.4074 126.7962 139.8221 112.8739 136.7482 132.5995 132.6346 131.8263 132.7891 132.5800
123.4100 108.1334 115.9383 122.1773 115.3640 122.0094 111.9220 124.3555 123.4709 123.3940 123.3960 123.2821 123.1489 123.0614 116.5736 123.9808 119.3795 123.7820 117.6077 123.5122 123.9440 124.3868 123.3764 124.1876 126.0389 111.3718 105.1898 106.8787 106.7292 112.1910 116.1422 114.3753 118.8474 116.5932 113.1580 113.5901 103.9179 102.7610 102.6224 109.2263 118.6359 108.4681 121.4572 116.8663 119.0293 117.4243 124.5465 118.6432 124.0748 122.3870 131.2867 121.0312 105.4545 105.0569 119.0985 120.4818 124.4587 135.3485 132.8529 132.6267 132.8244 132.4705 131.1576 133.2200
123.1800 122.8532 120.6759 126.5734 123.1479 125.6029 108.0356 124.2133 123.1409 123.1514 123.1899 121.8619 123.2277 108.4508 118.0196 112.3065 119.3662 123.8635 119.8796 122.4660 123.9575 124.0215 123.1179 125.7170 113.1460 119.2466 110.7413 109.0413 111.9705 115.3681 116.6706 108.5533 119.4034 106.8978 100.8661 103.7290 104.0176 104.0105 104.3235 101.8577 109.2388 108.4004 127.4746 120.7261 124.4205 121.8147 119.7741 117.8195 112.2092 103.6621 115.9609 102.4371 105.5323 106.2193 103.8585 105.4957 101.5426 130.0749 133.6505 133.2362 132.9117 130.3042 129.6973 133.9700
113.9400 112.6297 110.9014 121.1599 122.2885 122.5443 122.2188 122.8672 122.9262 122.8817 122.9252 122.9088 124.1866 122.7072 124.7862 111.1013 123.7907 124.0483 120.6068 121.8952 123.5413 123.0587 124.3902 113.2107 115.2049 122.6741 102.2825 109.5403 105.0467 115.4203 117.1236 119.1585 109.3907 103.4476 103.7313 103.5842 103.1726 104.6399 104.1729 110.9786 112.4865 110.8567 112.2650 122.5823 113.1157 106.9379 120.9283 124.5870 107.3577 104.3241 105.3222 106.2483 106.0179 103.7140 106.2967 115.6286 118.1728 130.9057 134.4725 135.1110 133.5296 131.8100 134.7524 134.0200
106.4900 112.0394 116.4097 118.3292 121.8460 123.1777 119.9289 122.8976 122.5008 122.7200 122.6494 123.0470 122.3309 107.1846 115.4278 111.0807 124.8250 112.2189 121.5418 123.1278 123.7966 126.8736 105.8834 109.8021 123.4104 111.3106 99.0783 108.7995 101.7350 115.0549 117.8622 113.2595 110.3812 103.6932 102.7014 103.8079 102.1282 119.5171 117.6752 109.7908 116.3703 110.2040 120.1614 113.9174 118.1987 116.5314 114.0881 106.0595 113.2857 105.0835 105.6805 106.1099 107.5943 117.9645 118.6294 125.5132 124.9859 131.1922 120.7746 124.9246 133.3791 134.6392 118.7737 134.0200
121.2800 102.7482 112.9044 118.8443 121.8983 122.3190 122.0189 122.2677 122.5685 122.4746 122.2330 108.9197 126.5838 117.9063 118.6211 109.5552 115.8998 113.4051 124.5355 124.0501 122.8270 124.3260 113.8542 123.5720 117.1627 111.6969 110.8017 116.7523 104.3671 118.5312 117.8319 115.6994 104.1420 111.2900 104.4321 103.3260 102.5883 116.6459 109.7595 104.3389 119.6610 121.7459 106.9903 105.7181 124.1184 108.4842 121.3469 115.4002 105.6006 105.1892 105.0912 104.5893 103.6880 125.9029 125.1481 125.6321 125.4347 121.5608 121.5977 129.2181 133.6670 125.0886 117.7183 110.5500
108.6100 113.6092 107.1284 118.8387 121.4157 122.0529 121.9419 122.0034 121.6853 134.8325 113.5115 117.2207 121.0992 109.5169 132.5304 117.4269 112.5035 110.9562 122.9812 122.4909 122.6076 123.5861 123.6013 124.0875 123.9862 110.9741 101.2923 109.4136 113.4002 114.7457 113.2254 114.7668 115.1040 106.4284 103.0211 103.2684 103.6905 127.0031 108.4693 104.8569 122.8491 116.0001 106.9544 118.2947 121.5914 112.6342 105.1186 123.2673 103.9097 105.1389 106.1056 121.5818 119.4854 123.2382 124.4609 113.9904 121.6336 114.0927 136.7571 135.2519 120.7317 117.0373 108.0311 118.2200
121.8900 122.4466 122.4668 121.0867 121.4681 121.8837 122.9863 125.4280 122.1566 126.3219 125.6158 127.0214 122.7750 129.7891 123.4791 120.1328 119.5648 122.2957 111.2626 122.0208 123.1892 122.4495 119.4333 123.6289 111.0954 117.0209 116.7906 113.3208 112.6961 112.1117 113.2141 115.3647 116.3560 115.4213 107.6449 98.9750 123.2800 104.9749 107.2383 113.0466 108.8506 107.6458 121.4267 119.9802 124.4044 126.8152 102.1724 105.3429 104.1369 104.3224 124.1644 124.6513 124.5539 125.4995 115.5202 130.5601 111.3698 113.2274 117.7035 118.9007 116.8757 115.6759 121.4837 131.9100
121.6100 121.3370 123.3143 121.2164 121.2750 121.4366 121.2187 121.2100 121.2846 120.7796 120.5740 121.4434 121.2481 121.2816 121.2737 121.2535 122.9444 122.8397 110.4529 114.1653 119.7066 122.9537 116.6689 109.2758 107.4104 113.5238 108.2424 113.1671 111.8813 113.9616 114.4371 115.0846 115.7495 112.3395 110.8582 104.0096 114.1271 108.4381 119.7051 118.8281 118.7827 120.4172 119.2880 118.2538 119.5804 120.9310 109.0840 104.7016 109.4584 123.8717 123.7312 124.2920 112.3208 111.8427 112.8872 114.1395 114.7797 118.9439 120.0275 108.2863 120.5063 132.4232 131.1644 131.6900
121.0200 121.0601 121.2357 121.0237 121.0534 121.0794 121.1165 121.0827 121.1049 121.2977 121.3968 121.2702 121.2174 121.6752 121.8806 121.1981 121.1847 121.7492 107.9848 117.4522 121.6655 122.5255 115.9163 105.0045 111.4696 115.5333 113.7038 112.0547 112.3774 113.8162 114.0821 116.4385 109.6721 112.2965 106.9653 106.0695 113.9396 108.5022 109.4719 121.3183 118.6865 118.0831 127.3790 126.2452 122.9216 103.1962 119.2619 115.4145 121.9825 123.4058 112.3925 109.7775 105.6128 115.1756 112.3133 113.8237 112.3009 105.5998 119.3871 133.5485 131.8741 129.6541 130.6462 131.5900
120.7100 120.8008 120.7474 120.7246 120.6799 120.6704 120.6729 120.7177 120.7513 120.8366 120.7195 121.2003 121.1484 117.3654 117.1341 121.3400 121.2689 118.5726 109.8976 119.8020 123.2267 113.4574 110.6283 103.3446 113.1924 111.9220 110.4416 114.2044 113.3223 113.8379 114.4304 115.3142 107.5934 112.7156 101.9645 121.9047 107.9288 122.5495 118.2138 121.6669 118.2332 114.6974 117.2474 113.7225 103.8499 114.9972 120.0464 119.3180 110.8447 114.0421 109.4174 107.6624 111.4350 120.3157 103.5792 105.8291 116.1771 126.5486 132.2414 131.6940 130.3187 112.0638 112.3354 119.8100
120.3900 120.4439 120.3979 120.3563 120.3416 120.3459 120.3467 120.3617 120.3845 120.3323 120.5138 112.4948 119.0053 122.9153 121.5498 121.0363 121.2718 117.9106 113.1604 122.7902 120.0770 122.7064 103.8359 108.4524 108.5373 109.2620 110.6800 112.5217 113.7040 115.2486 113.4327 106.1422 102.4975 101.0918 105.1556 108.6795 112.0653 119.3349 116.7118 125.1319 120.0326 125.8155 111.8591 106.1910 117.5205 118.1767 120.2920 114.7019 103.7664 103.1751 104.8687 104.8477 108.6780 104.5248 104.9218 122.4315 125.6954 133.5598 126.5040 128.8099 112.0363 121.3673 112.2000 118.7600
120.0500 120.0892 120.0415 120.0010 119.9763 119.9737 119.9739 119.9638 120.1644 120.4412 120.5778 115.0956 117.5382 121.8909 120.4005 120.7144 113.5003 103.4823 108.4200 111.7808 118.1511 106.1410 103.0273 108.4043 108.0781 100.0314 116.9756 112.3157 109.2990 108.9898 114.0654 102.3286 110.5888 108.4153 105.8837 113.6421 115.5375 116.6019 115.0211 118.5446 122.3362 117.7124 116.8637 117.4663 107.9083 110.0801 117.0364 104.1345 104.5474 104.9094 104.7371 104.5130 104.7506 105.2842 103.9474 121.1456 121.8913 124.9640 111.7254 126.4934 121.4347 129.6990 130.1537 124.1900
119.7000 119.7152 119.6570 119.6155 119.5908 119.5873 119.6097 119.5266 118.8792 107.0879 118.8839 119.8369 120.5220 119.8301 120.3499 120.1034 108.6707 103.1814 111.2047 114.0017 109.8086 108.2608 109.5237 105.2293 108.4592 107.5242 112.0655 112.8766 116.3623 113.4563 133.7457 112.4690 107.2563 103.1378 110.3224 111.2502 115.2600 116.6980 118.1829 114.9457 115.6951 115.7925 111.2185 110.1817 108.8664 108.3202 107.2738 110.1207 104.2867 104.4834 104.6968 104.1051 103.9216 107.8026 115.2025 109.6523 111.9730 124.6187 118.1362 125.5605 124.3673 122.0866 121.5810 113.4500
119.3400 119.3158 119.2663 119.2185 119.1887 119.1840 119.2080 119.1654 119.8355 119.5196 119.5662 119.3001 119.6374 119.4779 120.8440 120.2238 103.2250 115.8501 113.7008 121.7238 118.6515 108.0835 105.3515 102.6816 106.2550 107.6617 109.1363 105.3600 123.0883 123.6859 99.4517 108.4907 115.5540 112.1133 104.9069 107.8127 112.2457 114.5318 121.6513 119.0067 115.8493 106.6689 100.5080 112.0552 120.2861 106.6954 103.9613 104.2940 104.1802 104.4349 104.1726 107.9230 110.1509 111.4529 106.3799 109.9985 122.8612 125.4561 118.8181 117.5957 116.4748 117.9369 124.9119 131.4000
118.9600 119.0416 118.8440 118.7994 118.7759 118.7601 118.7810 118.7496 118.6296 118.8173 118.9946 119.2656 118.7642 120.2676 118.6186 99.5188 112.8266 118.9882 117.2224 118.4881 123.5078 118.3463 102.2184 103.2353 106.7235 109.0994 108.5480 106.2101 123.6894 115.4289 104.7757 116.5796 115.3475 116.8339 101.3853 120.1211 112.5962 114.0385 111.2623 117.6777 113.5010 111.9927 102.7722 118.8769 107.8178 104.3973 103.5758 103.7481 104.2145 103.9779 109.3471 105.6943 105.6835 124.4296 118.3949 113.1133 115.1988 113.2189 111.4172 117.6778 127.0741 125.7005 131.1421 131.4000
118.5600 117.5081 118.5871 118.3613 118.3278 118.3243 118.3352 118.4032 118.4950 118.5361 118.6194 118.7551 119.4579 122.9487 122.7857 120.0657 118.6073 119.5354 113.4735 102.8765 119.4726 104.0322 108.9105 110.5575 111.0476 101.9425 104.0129 98.2537 108.3862 100.5701 108.7286 116.4217 115.7888 106.1543 123.6556 116.6845 112.2544 114.2941 111.9346 117.5846 105.5771 115.0061 108.6498 115.2053 109.3154 103.0800 103.7280 103.9421 104.1278 104.1439 105.8449 103.8782 113.5781 118.4481 112.3977 115.7201 112.5584 118.6009 127.4250 129.7385 129.9745 130.0527 128.9201 128.8700
118.1400 115.1402 117.9804 117.8932 117.8716 117.8640 117.8741 117.9066 117.9675 118.0645 118.1740 118.4068 118.0467 118.6272 125.5407 120.4374 112.8587 121.9564 119.1240 117.3261 120.2084 105.6682 105.7382 105.4276 105.8822 104.7548 105.3050 109.0550 103.1414 107.3202 106.1428 122.3306 103.5196 104.5637 108.8178 112.9890 110.7811 115.8823 116.0059 107.4944 115.8926 124.0433 114.0923 116.6595 101.6498 103.5328 103.6333 103.8520 103.9406 103.5424 111.6038 110.3309 110.7358 111.1997 114.3917 120.7962 120.4329 129.9368 128.7616 129.3308 128.8020 129.2595 129.1699 129.1400
117.7000 117.9103 117.6770 117.4127 117.3790 117.3679 117.3814 117.4286 117.5029 117.6045 117.7227 117.8545 118.1127 118.1503 118.4432 116.9254 101.2700 104.1116 106.2700 121.4515 117.5796 106.4337 101.6932 114.4616 107.2715 121.1240 120.2765 109.6343 124.2789 104.8675 123.2012 114.4586 105.5374 105.3449 112.8414 110.7183 101.8716 106.3698 125.5621 105.5209 110.4821 117.0617 117.6241 104.4825 115.9278 102.6480 103.6193 103.6344 105.4317 111.3264 111.1698 115.1634 113.8662 121.7673 120.4242 128.3014 127.7024 128.5862 128.0687 128.4568 129.2755 130.0603 130.6329 130.3100
117.2100 117.0366 116.9476 116.9103 116.8615 116.8472 116.8645 116.9137 116.9923 117.1031 117.2483 117.4117 117.5532 117.7963 117.9099 118.6753 119.0334 110.1293 111.3679 120.0597 107.2907 101.9062 119.9215 120.9530 120.7347 119.4362 115.2461 100.8434 109.7642 121.5726 130.4579 121.2180 109.5847 105.8421 101.3204 101.1746 101.3706 101.8095 101.7140 110.4888 119.5718 113.2287 107.5165 102.7071 103.1167 111.3464 102.5766 110.2156 112.7620 115.2437 119.8219 120.6636 120.2848 120.4746 123.0874 128.5512 128.1368 128.4156 128.8140 130.7458 131.2057 131.4539 131.6834 131.0100
116.7300 116.5771 116.4563 116.3536 116.3065 116.2927 116.3110 116.3710 116.4675 116.5867 116.7404 116.9238 117.1340 117.3541 117.5940 117.7165 117.7676 119.2438 119.7658 99.5001 119.6593 120.0253 120.4601 119.9145 119.8993 120.4731 109.1197 119.1402 121.1882 121.9706 122.1213 130.0541 106.6520 114.4966 109.4217 100.8747 101.9075 110.4736 105.0267 110.2961 111.3030 108.8699 106.5395 101.6128 113.0703 106.9422 114.3979 117.0304 121.5913 120.4728 119.4622 119.3374 120.4334 120.8570 121.3146 128.1692 122.2019 122.5774 130.8289 130.5172 126.4552 129.1853 113.8731 106.1300
116.2200 116.0156 115.8775 115.7789 115.7183 115.7008 115.7221 115.7875 115.8917 116.0351 116.2114 116.4105 116.6445 116.8914 117.1547 117.4598 117.7389 117.8437 118.4808 118.5952 119.7084 119.3166 115.8425 120.3180 120.4093 115.9887 113.5298 119.0088 116.3307 119.9528 119.3389 106.7971 118.3797 113.1947 115.4127 108.3403 111.7981 108.7347 110.4256 122.6828 111.1061 111.9330 110.6129 108.7259 113.6902 110.2892 121.4658 122.6240 119.6900 121.5344 122.6395 121.6494 116.5431 121.3991 121.0345 125.0975 123.7503 119.3096 123.0806 132.4990 101.9031 123.1518 103.0924 106.1100
115.6600 115.4274 115.2762 115.1581 115.0903 115.0618 115.0942 115.1668 115.2922 115.4526 115.6469 115.8862 116.1368 116.4115 116.7076 117.0085 117.3268 117.6656 117.7965 118.2273 118.3863 118.7481 110.0808 119.8009 119.9137 120.9249 110.3465 114.4457 113.7712 114.4295 119.1453 124.0362 115.0775 116.7601 117.4662 109.1281 108.9272 103.3498 109.1967 108.8789 112.1989 111.5941 100.5194 116.6709 117.4003 107.7370 120.1244 121.6154 112.1077 113.9978 116.8656 117.0146 106.0482 117.1028 116.8045 115.0596 105.7548 105.6216 120.2390 133.1946 113.5180 134.4533 112.8328 106.0900
115.0600 114.7988 114.6238 114.4841 114.4104 114.3814 114.4128 114.5011 114.6439 114.8319 115.0515 115.3188 115.6066 115.9184 116.2412 116.5860 116.9271 117.2648 117.6531 118.0050 118.3955 119.0146 119.9028 121.6421 112.2809 121.9498 122.2634 123.4859 121.4889 122.3697 117.6142 112.7592 113.5912 121.4683 111.5096 103.2923 100.9895 111.3624 115.0215 111.5623 112.9348 110.2582 106.5461 114.8059 115.0768 121.5792 118.8341 121.1642 110.2829 107.1628 101.0157 102.3857 114.8437 100.0324 102.2618 110.1048 111.6274 125.4108 131.7109 127.3763 113.8503 116.8835 132.9446 133.1800
114.4200 114.1303 113.9230 113.7655 113.6686 113.6352 113.6805 113.7842 113.9450 114.1663 114.4290 114.7247 115.0551 115.4068 115.7683 116.1464 116.5253 116.9050 117.2853 117.6487 117.9998 118.9985 104.7022 109.8635 98.6250 118.4237 102.7915 107.6245 114.5172 107.8321 101.2842 100.3478 114.4623 115.5862 98.0898 110.3812 106.9165 112.3600 114.0035 113.3768 113.3268 114.0778 117.4900 115.5952 119.0885 118.0129 117.6653 122.3376 116.0964 109.8107 108.9142 104.4489 104.5513 115.3197 119.8608 126.0413 126.1386 114.6563 114.4047 117.8835 109.9041 113.2310 119.1611 106.0500
113.7200 113.4077 113.1642 112.9806 112.8636 112.8282 112.8764 112.9980 113.1967 113.4501 113.7559 114.0978 114.4838 114.8790 115.2867 115.6970 116.1209 116.5347 116.9464 117.3530 117.7299 118.7277 112.8804 103.6211 99.2640 119.1570 115.5719 113.5144 114.3110 112.4789 103.1373 99.7950 103.0729 106.4506 112.1569 105.3728 115.9661 111.3062 121.4839 117.3539 115.7649 114.3301 117.1858 107.4405 116.7757 118.8482 121.6762 124.1213 115.3148 112.7664 113.4488 103.7863 108.4455 119.9574 113.7647 116.9154 112.7805 108.6333 117.7916 112.7032 116.3770 109.9002 108.9958 106.0500
112.9500 112.6375 112.3364 112.1122 111.9798 111.9333 111.9864 112.1392 112.3713 112.6810 113.0398 113.4467 113.8817 114.3293 114.7887 115.2537 115.7105 116.1663 116.6088 117.0391 117.4553 117.8990 118.2325 114.4343 111.5553 120.2868 123.0637 122.8909 114.6853 115.8559 118.1271 107.7501 101.4211 114.9971 103.5147 99.4680 114.1187 113.0868 120.9839 114.5645 105.9149 113.6689 104.9877 113.1328 111.0081 105.3524 120.2017 106.5015 107.9324 107.8195 106.3019 105.4229 105.6737 109.6764 114.0868 117.5267 105.9320 107.7935 114.5476 109.5354 109.6961 111.4408 112.3292 111.5200
112.0300 111.8033 111.4344 111.1614 110.9847 110.9299 111.0021 111.1898 111.4739 111.8550 112.2841 112.7612 113.2589 113.7735 114.2863 114.7996 115.3072 115.8015 116.2813 116.7445 117.2294 117.5549 120.7309 101.0512 120.8495 118.6223 119.4055 119.8784 118.8146 117.6540 111.6392 104.2983 106.0208 109.0367 114.2992 106.8915 105.9615 104.5879 123.1703 104.6597 113.2635 111.8104 107.5143 104.4878 109.4834 103.1172 104.1468 109.4558 115.0800 102.2527 117.0326 104.6743 106.8764 106.9766 108.6251 109.8148 123.4576 121.8801 108.5052 112.6612 112.2858 114.2221 105.3908 115.4300
111.1400 110.8900 110.4454 110.0908 109.8763 109.8057 109.8943 110.1315 110.4927 110.9536 111.4770 112.0385 112.6204 113.2053 113.7902 114.3561 114.9133 115.4417 115.9674 116.4626 116.8660 117.2852 116.1693 90.7608 117.6953 118.7162 119.5613 119.9286 118.9951 132.1176 115.7314 120.0346 105.2055 101.5636 101.2117 100.4766 111.6270 117.7387 116.3757 112.0577 112.4593 113.3105 110.0317 113.8181 102.0561 101.9253 120.3716 119.0711 104.5781 110.7016 104.3371 104.0716 102.4173 120.3804 109.2960 110.9953 118.9297 130.2950 110.8792 107.0963 115.3028 112.9406 130.0510 105.9000
110.0900 109.9014 109.3435 108.8855 108.5966 108.5110 108.6224 108.9215 109.4022 109.9852 110.6210 111.2886 111.9721 112.6397 113.2975 113.9264 114.5297 115.1098 115.6485 116.3146 117.1246 119.7456 117.8226 118.1171 118.7883 118.9394 119.3091 119.6749 119.8646 120.5832 120.2769 116.1590 104.3668 107.6978 106.2704 109.2884 118.5763 122.4502 108.5210 109.9700 107.5343 104.8370 114.7821 107.1038 102.8121 100.4138 124.2662 123.0026 108.5012 108.6805 107.2409 109.6123 109.9449 111.0324 124.8946 128.5489 126.6080 128.4103 111.7490 107.9439 105.4576 105.0757 105.7049 112.6900
108.8400 108.8330 108.1113 107.5122 107.1133 106.9563 107.1857 107.6573 108.1927 108.9358 109.7203 110.5201 111.3196 112.0865 112.8188 113.5088 114.1700 114.7984 115.3928 115.9986 116.6374 116.6985 117.1001 116.4278 118.4130 118.7385 119.2359 119.5404 120.3344 123.7026 107.8377 108.7094 119.0759 106.1522 119.3283 108.4472 116.1433 122.5742 105.7756 121.3306 123.0703 113.1189 110.5887 107.8354 102.4710 105.3818 115.7400 113.9489 107.8783 110.6965 116.8734 119.9497 120.2491 127.8681 126.7425 126.5154 127.4383 127.4759 127.8887 129.5970 113.2850 129.5740 112.2791 111.1800
108.6900 107.6867 106.7320 105.9029 105.3304 105.0968 104.8846 104.1915 106.8295 107.8163 108.7947 109.7586 110.6809 111.5529 112.3630 113.1321 113.8419 114.5096 115.1352 115.3242 111.9323 117.5680 120.2141 98.7355 120.6182 118.1106 118.8673 118.9192 117.4015 104.1937 102.3750 103.5886 104.6236 120.5285 121.4795 108.4257 111.7096 123.5409 112.3806 117.1791 98.8432 99.8619 107.4162 105.5045 101.6425 107.0982 116.0908 115.6176 121.3737 127.0809 126.2920 126.3453 126.3487 125.8197 126.5293 125.4365 125.5067 117.1062 128.4709 127.1494 128.5547 124.2118 124.2975 109.4900
107.3200 106.4728 105.1898 104.0028 103.0826 102.7696 103.2652 104.1085 105.5099 106.5715 107.8683 109.0213 110.0873 111.0610 111.9599 112.7882 113.5527 114.2618 114.7140 114.6042 103.9653 110.9088 109.6692 111.4153 118.4147 120.4895 119.5544 112.3093 121.2091 104.0486 112.9124 117.1242 107.0920 102.6671 105.9683 120.5492 110.8013 119.8207 115.0018 111.7188 100.5958 107.6869 103.5639 104.1140 107.0521 105.0880 117.7514 107.3837 121.3320 125.0961 125.4403 125.6706 131.1224 115.4410 128.3954 112.1194 107.9442 126.4793 123.4245 127.7116 127.3980 126.0955 106.8704 105.8700
107.0300 105.2473 103.5262 101.6826 100.1816 99.5546 100.3361 101.9007 103.9896 105.5967 106.9853 108.3428 109.5584 110.6384 111.6149 112.4993 113.3169 114.0498 114.5833 119.3987 114.5046 113.6183 94.7466 109.0789 115.4077 109.4438 115.0339 123.6925 120.8382 122.3296 98.2637 102.1911 114.6498 113.9044 117.4662 124.7478 107.2619 109.1795 103.4212 107.4262 106.3642 111.2507 112.4920 118.6001 119.0103 120.4660 115.0062 119.4037 123.4499 125.5096 125.6825 126.0220 126.0536 127.7766 127.0589 131.8066 116.0685 110.9444 112.6225 128.0773 127.4904 129.6241 122.6492 136.0400
105.3900 104.1123 101.8057 99.1271 95.6230 94.0618 96.0479 99.6202 99.9032 104.4326 106.1602 107.7887 109.1295 110.3092 111.3486 112.2875 113.1381 113.9088 114.4801 114.3884 121.2720 118.6544 105.4262 115.3662 109.8072 107.6412 106.9104 107.4358 105.9982 112.9589 108.6012 117.3443 123.7096 122.8893 122.4837 129.4008 106.1081 115.8289 104.1631 113.2909 110.9470 101.9696 108.7022 108.1832 106.5953 107.6578 116.7074 126.4212 126.1071 125.3914 125.1039 125.5993 126.0486 124.9058 122.6789 117.9091 127.0159 118.2691 120.7962 127.2252 127.0054 127.0775 126.5215 117.2000
105.0400 103.2681 100.3443 96.2297 89.8192 87.7882 90.3155 97.1162 98.5327 103.7232 105.6786 107.4075 108.8505 110.0898 111.1697 112.1332 112.9907 113.7690 114.9281 107.5915 121.0611 116.6867 119.2037 118.0372 119.8485 117.7730 108.3854 112.2057 104.0596 102.5701 112.7038 110.2734 112.4519 122.8183 112.5417 112.0286 109.8070 101.0381 100.0284 109.3441 102.8303 109.6307 107.1111 105.5867 106.6870 111.0206 116.8245 119.4700 124.7867 125.5318 124.3586 125.7717 124.7579 124.5569 124.6571 123.5914 125.9037 127.7360 126.9296 127.4049 126.8239 126.9505 110.6447 105.8500
104.9900 102.8945 99.6794 94.4807 86.5025 84.0217 87.2678 95.4263 100.4090 103.1938 105.4665 107.2540 108.7424 110.0024 111.1126 112.1512 113.0541 114.0226 113.7816 123.4214 114.5494 115.5808 115.6771 117.0471 117.6565 119.6430 118.3047 119.5512 104.9924 99.3778 104.5745 101.3473 104.8951 123.4574 118.2770 110.3488 119.7330 101.7905 100.7984 115.5791 113.3217 113.0396 113.5351 109.2287 117.5301 118.6670 117.3369 116.8047 121.9431 125.4437 123.5910 124.3069 124.3527 125.8168 125.1599 126.1761 126.3542 126.5299 126.8538 127.3425 127.3575 121.7702 104.0050 105.8500
105.0700 103.1324 100.1266 95.6347 88.8257 86.2239 89.2385 96.3733 100.5045 103.4317 105.6017 107.3544 108.8096 110.0512 111.1270 111.8798 112.6522 113.6825 113.7317 120.3215 116.2655 118.8381 115.8391 119.0099 114.0856 114.8246 111.4548 121.2077 108.0578 105.4477 108.9096 105.0246 118.3264 123.1872 109.1208 116.5835 103.6815 100.4813 98.9433 124.4366 114.8928 111.1785 103.1716 102.1632 103.7652 104.0719 104.9743 105.0823 125.2846 125.6057 125.3852 125.5117 125.7734 125.4293 126.1643 126.4860 126.8598 127.0166 126.9956 127.0975 126.9483 126.2211 111.6448 120.4500
105.3100 103.8915 101.4445 98.4123 94.3343 92.2615 94.9540 98.8380 101.7819 104.1565 106.0854 107.6854 109.0562 110.2430 111.2236 112.8044 114.1662 112.8071 116.7698 100.0744 115.9488 94.7971 99.6321 103.0267 109.0228 120.1386 106.1911 112.1326 109.5609 109.0846 113.2755 119.9166 121.5051 122.0954 125.7208 118.5625 106.2385 101.6804 119.4309 123.8888 124.4224 104.6601 114.4627 113.6150 110.5407 111.5312 111.0328 116.3220 122.5184 125.3089 125.5352 125.8511 126.0091 126.1807 126.4178 126.5480 126.5616 126.6204 127.4189 126.6814 128.5002 129.9909 117.7197 109.8800
105.5900 104.9590 103.1381 101.2162 99.3293 98.5675 99.5207 101.3683 103.3743 105.1945 106.7994 108.2119 109.4511 110.5732 111.2737 112.5888 98.1488 112.2471 92.7318 92.2707 116.0353 93.3520 98.6707 106.0409 103.6270 105.0974 111.8026 112.1474 109.0907 107.0485 121.2894 120.8993 120.7851 122.1360 121.8023 110.6775 100.3370 103.3926 111.9431 109.5741 108.4859 116.3674 122.9205 115.4915 111.2618 111.2275 121.1699 124.2964 121.6529 125.6037 125.7189 125.8225 126.0551 126.1943 126.3635 126.7106 128.6030 128.8579 126.7332 123.9432 109.2390 110.8179 106.2802 105.8500
107.1100 106.1975 104.9216 103.4488 102.4588 102.0948 102.5843 103.6573 105.0028 106.3608 107.6599 108.8602 109.9599 110.9509 111.9074 113.0306 113.5687 114.0830 101.7979 96.3231 94.3764 95.9819 100.2235 103.3748 100.6409 108.9903 108.0446 109.8034 108.6206 108.6711 122.0458 121.0387 120.2423 127.1539 101.6086 119.8436 122.6940 107.4249 116.1495 111.2421 111.1495 112.8318 101.8875 117.4391 111.5912 117.5720 113.1289 112.1801 112.4639 113.9362 113.6415 125.3019 123.5369 120.9743 126.2741 126.5760 122.3252 127.3407 127.1557 127.1784 128.2569 129.8542 126.0935 132.7800
107.4900 112.7640 110.3968 105.4834 104.8420 104.6277 104.9098 105.5890 106.5223 107.5480 108.5925 109.5933 110.5420 111.4350 112.2618 112.9375 113.4906 114.3732 117.4072 95.5484 110.7095 95.4636 105.0655 105.5386 101.9537 105.6276 108.6199 110.9723 105.5023 119.6967 117.9743 118.7521 121.6550 123.4656 115.7629 99.1638 107.8675 110.0894 112.8952 107.3643 112.7437 112.8163 105.2243 111.0784 112.4042 115.5841 113.8959 126.2780 116.9846 114.8292 117.8518 123.0301 124.4618 121.4487 125.6561 120.9425 127.3987 127.0267 127.1116 127.1074 127.0872 127.6980 125.8245 119.0500
108.7800 110.5129 107.4847 107.0183 106.7221 106.5804 106.7610 107.2296 107.9024 108.6797 109.5207 110.3522 111.1676 111.9666 112.7008 113.4161 114.7582 114.6622 114.9426 117.8131 118.2490 112.5170 118.8975 95.8151 102.4730 106.4415 109.2445 107.6040 110.5641 105.3483 103.6308 104.2991 115.3075 119.3639 125.2057 107.2281 126.7881 119.0260 110.0365 117.1025 100.1490 103.2214 109.8990 112.8844 113.4426 117.6613 114.9464 114.4901 114.0369 125.6592 116.5689 126.4613 126.3963 126.8945 126.8963 127.2998 126.9793 126.9149 127.2969 127.7578 130.5832 117.0741 106.2905 109.4600
110.2600 109.9134 108.9806 108.6397 108.2662 108.1609 108.2929 108.6374 109.1364 109.7514 110.4189 111.1013 111.8253 112.5135 113.1907 113.7258 116.0141 115.1467 115.5591 116.0096 115.7752 116.7558 113.0222 101.4144 102.3097 104.3248 105.7745 108.5117 109.5573 108.2532 107.6192 107.4100 106.4022 107.4829 109.0625 111.1845 120.0157 101.3702 105.9880 105.9765 118.0617 113.9025 109.6646 108.3443 116.1421 113.9495 112.7291 116.6019 114.6377 118.2664 127.2972 126.4900 124.6254 126.4137 125.2612 126.6086 126.6894 126.9761 127.4656 124.7053 128.6645 120.3933 120.5332 113.9000
110.2600 110.2600 109.5700 109.7500 108.6800 108.7500 108.6900 109.6200 110.3200 110.3200 110.9000 111.5800 112.1000 112.6000 113.6900 114.1600 114.6200 115.0600 115.8800 116.2600 116.6300 116.6200 104.3800 118.3000 113.3300 117.9500 101.5500 102.5800 108.0900 108.9500 108.2700 106.4600 107.7100 108.8800 113.4700 114.9700 115.0000 117.1700 116.1500 101.3100 101.6500 113.6400 111.7300 111.5600 111.6800 118.0600 113.9700 125.2000 113.0200 125.6100 125.7500 125.8800 120.9500 126.2600 121.9900 126.6300 126.8700 126.9900 127.1000 118.4600 122.3900 120.8100 119.0800 111.5600
