124.4300 125.9400 108.3700 114.7400 111.1400 111.0600 121.7600 121.7600 120.1600 120.8600 119.4900 121.9400 103.7300 103.9900 118.8700 117.1100 115.0900 115.0900 116.9700 116.3100 109.8500 102.2900 103.2100 103.2100 108.4100 110.6100 106.4700 101.8200 110.3200 101.1100 106.5600 106.5600 106.9800 109.2600 104.4800 122.3200 122.3800 113.8100 122.2000 122.0100 122.0400 121.8300 123.8200 121.8900 121.6500 121.6700 121.6800 121.6900 125.1100 121.6800 121.6600 121.6500 121.8900 121.8600 121.8300 122.0400 122.0100 122.2000 122.3800 122.3300 122.5000 122.5000 122.8500 122.8500
123.7000 123.1360 114.4126 123.8100 116.4971 110.8540 114.0339 115.9030 121.7639 119.2973 119.9229 122.8928 115.0998 109.5737 118.1444 117.6030 114.6238 114.6996 116.0640 120.7433 112.3276 116.2876 114.7832 107.2122 105.0497 109.6854 104.2270 103.2454 106.5283 102.8371 101.7395 112.6913 100.7725 106.6862 105.1029 111.3756 105.5041 119.8852 121.1227 121.6588 122.0722 121.6921 121.8227 121.5525 121.5646 121.5740 121.5962 121.1341 124.4447 121.1225 121.4982 121.5473 121.5985 121.6611 121.7253 121.7985 121.8987 121.9441 121.9889 120.9191 112.5860 122.4049 122.3640 122.5500
111.0100 118.3448 126.1973 118.2421 119.4985 114.9447 109.4950 108.2845 115.1517 121.8363 112.9304 116.0950 119.0126 113.3574 114.2778 117.8236 114.9906 113.2874 117.6380 114.4116 121.5628 107.0997 112.6937 102.7526 103.0388 104.6624 107.8756 110.4678 104.0420 112.4075 102.2789 109.4249 123.7177 109.2544 104.0677 109.9991 118.2211 132.7580 120.7721 121.3503 121.4937 121.3829 121.3017 121.2767 121.2101 121.0180 120.9368 121.1634 120.7430 122.0323 121.2239 121.2422 121.2877 121.3491 121.4269 121.4946 121.4971 121.8638 121.7493 122.1415 122.5204 121.8632 120.8841 122.5500
116.6100 113.6986 108.3962 120.8534 119.9694 119.0045 113.7654 113.3722 109.0930 107.4431 116.2497 114.2338 111.4098 119.8644 114.0992 110.9032 115.2601 111.7685 119.7719 113.1682 112.8015 104.4236 108.0324 109.6464 99.2248 102.5022 112.9660 110.2134 112.5314 107.3228 101.7400 113.8571 121.5950 114.3850 110.7434 111.0693 121.7501 124.0945 121.2728 121.3155 121.1641 121.0787 121.0014 120.9422 120.8971 121.0956 121.2303 123.1082 105.9313 122.9182 120.6573 120.9212 120.9674 121.0293 121.0466 121.1485 122.2504 120.4321 123.5501 112.6054 106.5469 115.4315 98.0408 108.5500
113.5800 108.2576 120.5490 113.9290 106.0597 118.2095 117.6595 116.2372 115.5408 108.1128 109.0324 113.6445 109.2589 105.8226 114.7847 115.8438 110.9658 113.9491 109.1659 116.7855 110.0794 115.6514 112.8741 116.5281 115.0008 107.6307 109.4388 102.8148 99.4857 98.6715 98.7902 106.8063 116.8997 123.5121 104.3267 113.5433 102.5618 120.4997 120.8335 120.9219 120.8470 120.7503 120.6728 120.6016 120.5029 120.8535 114.3322 113.2672 105.8396 122.2975 120.5056 120.5611 120.6311 120.7238 120.6868 119.4649 111.5324 124.2501 110.8082 101.2470 102.1893 101.8330 107.8896 121.7200
117.1900 114.9944 117.0660 114.9767 102.9855 116.3631 117.7500 117.0240 115.9752 116.0971 109.3713 108.1530 108.1261 102.4391 115.9227 117.8778 114.4912 109.5226 108.5275 110.4899 105.9835 115.1031 116.8999 124.0976 113.5289 109.1839 111.5542 105.9282 118.8939 119.3590 113.7649 110.3977 118.6562 118.6331 113.8781 120.8916 120.5388 121.9152 120.6408 120.6151 120.5068 120.4037 120.3175 120.2513 120.2736 119.9432 119.7158 120.5132 103.0031 108.7749 120.2011 120.2132 120.2790 120.2892 120.6616 115.2632 99.1662 106.7203 110.2010 120.0246 127.1532 122.6683 102.6299 121.7200
117.1600 118.1559 115.7048 113.9174 114.8798 105.3632 109.4432 107.5419 115.3323 116.1473 113.3864 106.3961 103.2250 104.3789 109.9049 115.4785 117.0922 115.6069 111.8769 110.6399 104.8458 105.5287 117.4933 109.6775 109.1948 110.9774 113.6226 105.6073 103.4729 117.5692 113.8791 114.9993 120.4326 98.4026 120.5335 121.5216 120.3705 120.3848 120.3909 120.2982 120.1712 120.0944 120.0047 120.0326 119.8329 119.4061 117.7140 97.5406 107.4266 115.4082 119.7088 119.8590 119.9189 119.9875 119.9204 110.7331 121.5753 119.0617 119.7130 118.1914 113.9396 120.9872 121.3815 121.3800
117.1500 118.4102 114.5330 119.7721 119.3659 111.0804 109.7109 111.7775 109.5973 108.4044 114.8866 113.8006 102.0911 102.1868 109.5638 107.8890 112.6100 113.8513 116.6076 109.2550 111.5126 110.3065 115.0234 111.4356 106.3821 105.6646 111.1993 106.0228 103.2068 120.5694 121.6761 119.6328 99.8753 118.1506 119.7326 120.2178 120.4260 120.1900 120.0586 119.8244 119.7272 119.4885 119.2917 118.9856 119.7072 116.8801 119.2504 104.4709 112.3433 115.2199 119.5337 119.5049 119.5613 119.5355 120.9865 119.9826 119.3775 120.4430 120.5399 120.7169 122.0519 118.3580 122.7416 121.0900
116.8400 116.5307 117.3053 117.3316 118.2042 119.6908 119.7927 109.2895 112.3570 109.4015 108.0480 101.9683 102.7734 102.4467 108.9375 112.0524 108.0121 109.8505 110.9512 109.8999 110.1947 110.7003 112.7799 112.4859 116.6504 108.0742 114.2066 117.4803 111.0809 116.6664 121.6801 103.0150 117.0450 127.9327 119.7409 120.3107 120.0591 120.0387 119.5385 120.0255 119.1378 120.5238 119.5891 122.3741 120.8972 105.1376 119.4020 120.1510 119.8776 119.2388 119.0045 119.0955 119.2217 120.6592 113.5118 120.1368 120.3366 119.4599 119.9823 120.0528 121.0517 107.6914 118.5411 120.7500
113.1300 113.2951 116.1180 114.9382 115.8123 115.9562 118.0959 120.1500 111.0347 105.3643 108.7403 106.1841 103.4819 108.0178 114.4083 113.2786 109.3810 107.6646 103.6788 109.2789 107.4871 108.9348 107.8661 110.2406 118.8037 112.8478 115.8431 119.8736 120.9663 121.6073 121.4102 121.9775 111.1034 113.8509 120.5624 119.8744 119.7076 119.5634 114.1885 118.3953 118.7297 119.9464 97.0060 102.9780 100.8870 118.6238 121.2846 117.7305 115.9787 118.6394 118.5392 118.5137 118.3432 119.2206 106.7807 114.1459 115.1603 119.5253 119.6472 119.7583 120.1445 121.0481 121.4203 120.6800
113.3500 117.1637 116.4726 113.4838 117.2268 114.4634 117.8700 117.2096 113.0929 114.0660 108.7470 109.7690 105.5369 106.9467 106.7981 108.4125 108.6265 107.3922 107.6348 109.2673 105.9782 105.8142 111.0055 107.4397 117.6654 115.5125 124.1407 123.7992 121.2927 120.8264 120.4664 120.2730 121.3993 114.9062 120.1506 119.5857 119.4187 119.1563 119.2806 119.2032 118.5979 119.2953 95.4741 115.1356 97.6723 120.3886 117.5555 117.9008 118.3748 118.0448 118.5825 118.1313 120.3406 116.8500 122.2218 95.7361 115.7364 119.2919 119.2632 119.5124 119.5167 121.5382 116.0332 120.3700
122.1400 113.7597 111.0870 111.2471 111.0390 111.5787 117.5117 109.7733 113.4654 114.7032 111.9992 117.0454 108.6366 108.7102 106.1796 108.0345 103.8655 105.4722 96.6636 110.0258 101.7108 105.9062 111.7697 106.5618 107.9226 123.4492 120.9055 121.3808 120.4959 120.8436 120.3783 121.3232 118.9400 126.2471 118.6766 119.2697 118.9463 118.6888 119.1035 119.7655 117.5029 119.1398 96.5382 97.4080 116.4968 111.6171 117.7113 117.5996 117.5321 117.4143 116.9532 92.1172 113.2331 110.6606 112.6703 105.9921 120.6393 118.4011 118.9125 119.1540 119.2722 119.8879 109.8477 104.2800
111.5400 108.5301 109.6201 117.4356 108.3517 117.6816 112.0021 106.2788 113.0482 109.2836 111.3742 114.4923 115.8512 111.5565 108.4287 106.3294 102.1876 105.9079 108.1741 102.8389 107.0225 117.5475 107.9979 114.0430 120.9269 120.1556 121.0462 120.9448 120.7921 120.4173 118.8416 107.0496 101.9772 110.9509 118.7765 119.0277 118.5355 118.7981 107.6026 115.3744 117.1234 119.0403 94.6364 96.3710 98.4050 118.1798 117.1607 117.0561 117.0749 116.9799 118.5687 117.9692 118.2918 117.0438 111.5133 108.5599 118.8599 118.5486 118.5382 118.7845 118.9319 119.6846 107.1531 97.5900
112.5500 111.9991 108.2220 107.3653 113.2381 112.3773 109.9734 112.5343 114.1364 105.0061 113.1758 109.6133 111.6478 114.6161 110.9364 107.7423 113.7687 104.2297 103.7784 116.4527 103.5908 112.9824 101.1740 111.3805 125.9335 119.1663 121.1457 120.5791 120.4887 120.1347 122.0552 111.1834 120.3635 120.0589 119.2150 118.4606 118.2133 114.4831 114.7307 118.0757 116.7293 119.1535 100.8950 98.1139 101.7930 118.1267 116.4952 116.5090 116.5245 116.4564 116.0730 116.4540 116.6456 116.9268 116.7242 117.4755 117.4193 117.9030 118.1507 118.3764 118.8533 118.7724 110.1660 97.5900
105.2800 106.2467 111.4954 116.2458 110.8886 109.0869 105.9090 109.9934 108.5365 109.8313 108.4025 108.4564 110.3993 110.0266 109.0431 105.3933 105.8130 103.3778 104.9409 111.2809 102.2043 103.0950 112.7368 114.0633 115.6435 119.8754 120.9342 121.1688 120.3221 119.6956 119.9012 95.8676 112.4451 114.4472 118.7520 118.2283 118.0299 118.4696 117.8000 114.9467 116.9609 114.6942 101.1133 96.6360 119.4244 116.3395 115.9798 115.9351 115.9474 116.0323 116.2172 116.2647 116.4241 116.5150 117.0192 117.2250 117.1628 117.4952 117.7878 118.0465 118.8220 114.2060 117.5102 119.1200
120.6200 116.2733 119.2603 105.7480 106.8903 113.1571 111.9346 107.9386 108.7607 104.1629 109.1479 106.5044 109.4518 108.4407 109.2662 105.1947 104.5201 104.6557 102.6842 117.9055 119.6042 120.1948 122.3946 121.5125 129.9396 119.7925 120.6305 119.7901 120.0105 119.4801 119.7115 112.1389 118.4390 117.8656 118.1706 117.8896 117.3927 117.2606 116.9609 116.7861 116.0451 116.6468 117.2516 115.9339 118.3070 115.0835 115.3501 115.3269 115.3342 115.3827 115.4596 115.6221 115.7797 116.0103 116.2166 116.4942 116.7932 117.0763 117.3772 117.6588 118.0487 117.3913 118.8947 118.7700
119.5200 119.5700 118.5820 115.6567 111.4621 113.0221 102.4756 110.9936 108.4528 109.1883 107.4801 107.1023 115.5349 110.4037 110.5385 108.3203 105.0340 103.1277 109.7050 124.5866 114.8021 118.7605 117.5456 120.8773 121.9603 121.9964 120.0442 119.9339 119.8535 119.5342 119.4983 118.8211 118.5539 118.2905 117.8098 117.5574 117.1581 116.8688 116.5012 116.2041 115.8769 115.5246 115.1760 115.1120 114.5486 114.6806 114.6864 114.6630 114.6699 114.7368 114.8537 115.0141 115.2168 115.4521 115.7152 116.0129 116.3123 116.6379 116.9637 117.3125 117.6199 117.9820 118.3503 118.3600
119.2600 118.6296 119.0210 116.3118 113.0064 110.0759 110.1230 113.1927 110.1871 102.6022 105.0521 113.4850 108.3483 109.1903 106.4941 104.1843 106.5941 104.9272 118.7284 122.3532 115.4479 122.6887 121.3959 121.1731 120.1251 119.9692 104.5650 121.0780 119.4430 119.2746 118.9288 118.5753 118.2228 117.8452 117.5250 117.0203 116.8129 116.3079 116.0949 115.6954 115.3381 115.0336 114.7964 114.4941 114.2043 114.1298 113.9890 113.9392 113.9519 114.0273 114.1612 114.3500 114.5855 114.8537 115.1622 115.4878 115.8333 116.1926 116.5556 116.9197 117.2928 117.6550 117.9966 118.2500
118.4500 118.0006 117.7218 111.9931 111.8798 112.2608 114.7527 113.5008 110.5318 109.8450 111.6927 114.0871 102.1306 108.5711 108.8491 106.5676 103.6169 112.5021 117.1932 98.3607 114.2615 121.1862 121.2996 121.0609 120.8096 112.7492 113.2204 119.3654 117.6173 119.2319 118.6679 118.3202 117.9212 117.3693 117.1140 117.4355 114.4737 114.9387 115.7285 115.0850 114.7888 114.4175 113.8633 113.7821 114.5050 113.2202 113.2315 113.1592 113.1772 113.2615 113.4183 113.6403 113.9164 114.2267 114.5774 114.9453 115.3331 115.7319 116.1366 116.5374 116.9455 117.3221 117.7338 117.7700
119.2300 118.1011 118.5966 113.0032 112.5654 113.0800 111.7889 112.5360 112.5106 109.8181 113.0600 113.6790 109.1710 109.2549 101.0745 105.5150 106.7782 112.9888 115.6777 106.9755 119.7643 117.5509 121.6596 120.8641 120.8628 120.8165 101.0832 118.1610 100.7200 119.6535 118.0585 118.0470 118.2353 118.4897 116.5920 117.2318 99.8456 101.2127 116.8046 114.6428 114.2334 113.8418 113.3242 114.0582 104.2651 113.8834 112.3617 112.2793 112.3173 112.4266 112.6190 112.8765 113.2015 113.5668 113.9749 114.3912 114.8260 115.2741 115.7116 116.1525 116.5930 117.0559 117.3720 117.7300
120.6700 113.6033 110.5983 110.7602 110.9135 112.3075 110.1907 110.7281 109.7635 111.6361 114.5203 108.3209 109.3165 104.5520 102.7853 103.8786 105.3495 106.8400 115.0766 129.5203 122.8438 121.2320 120.9613 121.1835 119.1770 104.3523 93.8669 95.9635 112.8364 121.2924 118.3191 118.9025 111.2814 111.7390 112.9527 116.9376 108.6334 98.7389 111.3882 112.8930 113.4221 113.0506 112.6915 113.8205 100.2538 112.2670 111.4768 111.3294 111.3681 111.4998 111.7369 112.0580 112.4359 112.8704 113.3353 113.8191 114.3134 114.8073 115.2933 115.7816 116.2289 116.7252 116.4382 117.6300
119.0800 118.3595 114.7187 112.6207 114.0723 110.0063 110.5072 108.4872 108.0442 108.5436 108.1295 108.5635 110.5913 110.8371 105.6972 101.6146 102.8172 108.7593 119.8824 107.6016 121.1235 121.2351 121.1537 123.1889 103.0926 94.3483 108.7985 112.3695 114.4620 110.6435 116.9536 120.2660 92.9769 99.8518 110.1396 111.8050 113.7329 97.8004 97.6574 98.3532 115.0893 112.3587 111.6771 111.5374 111.0909 110.6401 110.2657 110.2610 110.2954 110.4642 110.7631 111.1569 111.6178 112.1310 112.6773 113.2313 113.7925 114.3416 114.8810 115.4137 115.8782 116.3224 116.0857 117.1000
118.2700 116.0458 119.9109 115.0873 119.0830 110.3952 110.1643 109.7335 110.9451 111.7407 109.3632 107.7385 108.3024 110.0009 107.1518 105.3990 101.1369 111.1706 118.6828 119.5595 122.7473 121.0531 122.3965 110.6197 105.4169 106.9115 116.5384 113.2059 111.9054 107.3074 113.4059 110.2569 94.3587 107.5445 95.2872 107.0618 106.7473 107.2753 99.8460 92.1584 113.7002 113.7192 112.2050 110.4603 110.2719 108.6379 109.6748 109.0440 109.0916 109.3040 109.6807 110.1780 110.7515 111.3706 111.9980 112.6393 113.2683 113.8825 114.4749 115.0385 115.6001 116.2483 116.6333 117.1000
107.0100 111.9709 113.7018 115.8269 114.1076 110.9692 111.6798 109.4528 110.9007 116.1301 111.4855 108.5861 103.7145 101.6882 103.5871 105.4216 105.4999 115.1742 105.4200 124.0335 121.2415 120.6446 123.0418 96.7865 96.1365 96.1793 100.1498 97.4395 106.6634 118.9334 111.3427 99.2428 99.0531 105.8554 106.8436 114.4763 119.4703 116.7213 109.6820 107.5195 104.8145 97.8502 109.6701 109.3866 108.7326 103.4951 104.2053 107.9868 107.6707 107.9713 108.4750 109.1045 109.8237 110.5617 111.3116 112.0504 112.7543 113.4388 114.0875 114.7121 115.2332 116.5518 116.2968 116.5900
119.0400 115.9394 104.8822 107.3425 115.1734 111.5556 104.2194 107.8115 101.8396 111.4095 106.0135 109.3539 103.0924 105.8932 105.3717 102.2255 115.2135 114.3070 118.4345 122.3987 121.3230 120.6062 120.7267 95.4872 99.9356 103.9632 107.6188 102.7259 120.3143 115.9028 111.4787 101.6181 101.1009 96.1972 103.8913 107.1602 112.8554 113.9371 106.5618 114.1025 106.7271 87.1596 102.1739 109.3425 107.5427 107.9923 104.0601 106.0166 105.9941 106.4201 107.1102 107.9454 108.8417 109.7482 110.6256 111.4680 112.2680 113.0231 113.7335 114.3771 114.9684 116.1765 116.3394 116.5000
118.2400 119.9298 114.9806 118.6444 117.3780 113.2673 109.8974 113.2238 117.2977 115.0572 111.9404 110.7470 105.5727 102.5021 104.8429 103.0611 117.6405 111.1306 125.1370 121.7737 121.2564 120.5758 120.6237 116.8212 95.5123 103.4239 110.8831 109.0595 119.2357 118.3225 117.5623 114.9995 95.6876 97.4649 95.3071 98.0095 94.9256 97.5059 92.3493 95.3522 114.2029 91.3437 107.2268 106.9866 106.1995 104.9421 104.5067 103.7869 103.9205 104.5838 105.5768 106.6980 107.8355 108.9400 109.9693 110.9258 111.8233 112.6387 113.3977 114.1905 114.8504 114.5595 115.4167 116.4300
109.5400 108.6366 109.5499 109.1137 108.4572 107.0786 104.3284 105.0367 120.6918 116.3141 111.4731 109.7179 101.0432 100.0860 110.7622 111.5391 119.2038 119.4531 121.2253 121.3811 121.1159 121.8114 120.4742 118.3685 118.1336 118.4032 118.6263 117.3322 118.3704 117.6630 117.2282 117.5091 101.8376 94.5181 105.0400 112.4911 87.8828 89.6041 88.0696 97.5926 102.5484 109.4360 107.8749 106.1796 104.7374 103.1753 101.7271 100.9974 101.2183 102.3373 103.8448 105.3944 106.8428 108.1653 109.3645 110.4409 111.4191 112.3350 113.1731 113.7621 114.4274 114.8707 115.8576 116.3800
125.9900 125.0579 120.7417 109.2806 110.9083 110.7505 102.3425 102.7418 102.5783 102.5214 105.3976 104.8259 103.7762 104.8203 103.5734 104.3103 102.4966 120.9563 118.5831 121.4939 120.7271 122.7182 102.4537 120.5855 116.5139 107.1994 113.7011 119.2669 118.1225 117.6534 117.1179 116.3065 117.7860 93.9137 94.4833 97.2055 113.5939 111.8734 111.3363 106.6678 103.8999 108.9447 106.8237 105.1828 103.2098 100.9369 98.5432 96.7286 97.3211 99.6074 101.9655 104.1012 105.9364 107.4949 108.8527 110.0435 111.0995 112.0060 112.9035 113.7313 114.3777 115.0780 115.7393 115.9300
123.3400 122.7057 122.5826 118.1864 108.0874 114.1936 107.6128 108.9162 108.7589 108.2770 105.9874 104.7282 101.7712 101.5023 101.2545 101.0140 114.0232 115.0467 121.7945 120.9778 121.2940 120.8097 120.5157 120.4680 120.0603 119.2899 118.9725 118.6478 118.0510 117.5906 117.0840 116.5855 115.3350 111.9423 91.5101 94.0736 109.0590 111.2617 111.3257 110.4485 109.3206 107.9318 106.2769 104.3090 101.8763 98.6699 93.7991 89.9132 90.9825 96.2423 100.1569 103.0163 105.2057 106.9898 108.4753 109.7454 110.9404 112.3638 115.6325 96.3806 106.8003 115.0692 115.7360 115.9000
125.9800 123.0617 123.8829 113.6647 110.8809 110.0100 109.5797 105.2845 109.1809 106.3006 107.7840 105.4304 101.3924 116.5801 105.9275 99.9181 99.0226 100.9688 104.3645 109.9752 121.9893 121.3168 113.6535 118.1183 119.5778 117.2239 117.0556 119.2494 118.4548 117.5719 117.0184 116.9257 116.7041 117.5297 97.7776 108.9902 116.2299 87.7434 101.2761 110.4621 109.1110 107.6216 105.9260 103.8222 101.0273 97.0265 89.3458 85.1833 86.3190 92.9958 98.9638 102.3636 104.8017 106.7133 108.2748 109.6061 110.7768 111.6616 113.0372 115.7016 114.9463 114.9643 115.6152 115.8800
125.9800 126.7417 123.9658 122.9083 109.6515 110.5126 110.6335 110.7483 107.9719 104.9320 107.2152 100.5498 108.8934 107.1776 105.0297 102.7040 104.9910 125.1689 123.3270 123.0695 120.7641 117.3112 109.1480 120.7107 120.3160 120.3178 113.9752 114.5984 114.5557 118.1918 117.7958 111.1545 111.8117 111.7972 93.8875 104.1277 115.1079 88.7367 106.2795 110.1422 109.1429 107.6380 105.9370 103.8220 101.0288 96.9970 89.4079 84.8773 86.0887 93.0020 98.9667 102.3671 104.8072 106.7167 108.2804 109.6018 110.7690 111.8284 112.6683 112.9734 114.0728 114.9538 115.4169 115.8700
125.9800 123.4866 111.3568 113.7523 108.3858 108.2160 109.6372 106.2810 102.4966 104.3613 102.6722 102.5278 105.6390 107.9234 108.3664 107.0633 124.0478 121.1471 121.2677 121.3036 124.4207 104.3323 111.4023 115.9339 114.5137 121.3490 98.5648 98.8441 98.4253 118.9331 113.5182 90.4381 91.3680 91.5138 92.8303 95.6059 106.7933 107.6715 113.5256 110.4020 109.1930 107.8590 106.2593 104.3115 101.8716 98.6651 93.5680 90.0388 90.9319 96.2534 100.1550 103.0261 105.2135 106.9905 108.4779 109.7599 110.8740 111.8543 112.7635 113.6937 114.3898 114.9991 115.5576 115.0000
116.6100 116.0867 106.5291 106.9440 106.1392 103.7434 106.1208 107.5935 105.5632 104.3532 104.7998 107.9459 110.2001 103.6327 107.2293 110.1589 119.8449 122.6853 121.7349 120.3560 110.8216 119.2751 117.4126 105.4699 109.2680 121.8058 109.5956 108.9122 104.2001 113.1615 101.1931 99.7656 101.5532 100.1589 101.3536 100.3276 102.3612 104.6034 111.3322 110.3863 109.5587 108.2853 106.8368 105.1704 103.2073 100.9694 98.4341 96.6707 97.2698 99.5934 101.9554 104.1068 105.9352 107.5046 108.8541 110.0424 111.1053 112.0548 112.9150 113.6758 114.4095 115.0911 115.7398 116.3300
116.6100 113.8182 118.1201 106.9682 105.9560 109.7014 107.1985 106.5139 103.5317 101.3000 105.6992 99.8708 99.7555 102.3966 107.5122 122.0137 119.7653 121.5187 122.1594 107.7394 107.2731 118.8044 117.3786 114.3398 114.9090 119.6185 120.7793 113.5184 120.5463 106.1970 106.0864 103.0900 101.4520 97.4089 94.7441 102.8843 102.3987 99.1810 112.6424 110.8937 109.9745 108.8773 107.6305 106.2168 104.7203 103.1675 101.7185 100.9438 101.1840 102.3123 103.8413 105.3928 106.8470 108.1720 109.3701 110.4488 111.4271 112.3186 113.1332 113.8900 114.5842 115.2336 115.8314 116.3700
125.9900 112.8323 113.3393 106.8901 107.8181 106.6025 107.1471 102.4569 107.2080 107.4736 104.9787 104.9220 105.3140 101.4548 99.5260 105.5626 113.3581 118.1591 122.5355 113.4425 122.8558 122.3181 123.1605 113.4033 120.0289 121.1441 118.4211 118.9115 114.3876 103.2650 102.8243 112.4822 110.7703 109.1743 90.0520 117.1361 116.2471 114.1050 112.2427 111.5014 110.5560 109.5359 108.4238 107.3636 106.1965 105.1148 104.2169 103.7556 103.8891 104.5573 105.5572 106.6975 107.8392 108.9351 109.9730 110.9300 111.8221 112.6465 113.4096 114.1226 114.7853 115.4080 115.9954 116.4200
119.7300 113.1836 109.1931 109.5436 109.9292 109.8508 109.3973 109.2640 106.1163 103.3008 103.8493 101.6585 115.8189 101.5447 102.7827 116.6690 122.2433 124.8655 122.5675 122.4487 121.2090 120.9339 104.9761 121.9500 120.3703 121.3467 118.8938 118.7413 114.3009 112.4441 116.2732 117.8743 117.4174 117.8820 110.4995 112.8469 113.8578 113.4755 112.6499 111.8461 110.8855 110.9523 109.3220 108.3283 107.4822 106.7792 106.1745 105.8850 105.9650 106.4057 107.1000 107.9437 108.8481 109.7495 110.6282 111.4718 112.2732 113.0252 113.7342 114.3962 115.0121 115.6212 116.1555 116.4900
117.8400 117.1217 117.4414 111.6660 109.9428 107.8474 107.9031 107.8352 108.7023 108.3243 108.7227 101.7726 117.6637 102.4940 102.4263 114.8360 111.1298 109.6673 120.6430 121.4157 121.4169 121.6328 116.9411 120.5444 113.3262 116.2724 119.4520 118.5384 119.1302 118.2774 118.0076 117.0122 116.5036 116.2718 116.1285 114.4260 114.5468 113.8954 113.2346 112.3440 111.2876 102.3276 111.2928 109.7063 108.8246 108.2251 107.7951 107.5923 107.6500 107.9599 108.4686 109.1074 109.8157 110.5686 111.3131 112.0517 112.7627 113.4447 114.0887 114.7134 115.2860 115.8801 116.4424 116.9200
112.8500 112.1983 117.6401 102.0337 112.5314 115.6680 113.8839 110.7475 110.5443 110.9097 102.2720 101.0602 118.2774 108.1737 121.6428 116.7723 118.8972 120.2799 122.2860 121.7872 121.4882 121.2119 121.3521 120.4179 118.9325 119.3328 97.4983 121.3737 118.3499 118.2093 117.7960 117.3883 116.9068 116.3816 115.8724 115.3963 114.7430 113.4550 113.1095 113.1774 112.4286 109.1495 111.2937 110.6038 109.9377 109.4858 109.1718 109.0196 109.0666 109.2970 109.6720 110.1741 110.7515 111.3652 111.9985 112.6361 113.2683 113.8808 114.4775 115.0490 115.6922 114.8388 116.6179 117.0000
116.1900 115.8276 118.6757 112.1650 112.0588 106.2076 109.0117 107.6213 106.5103 102.9588 107.0809 119.2895 123.4164 125.5566 121.5521 125.8100 121.8948 121.9013 122.4490 121.8452 121.5841 121.1112 120.4427 117.2600 120.7170 115.3321 119.6551 119.1517 118.8293 118.4308 118.0138 117.5760 117.1927 116.6250 116.2312 115.6288 115.0583 115.0510 105.3762 112.3837 113.1035 111.9118 112.5563 111.4381 110.9757 110.6059 110.3661 110.2461 110.2740 110.4491 110.7541 111.1483 111.6198 112.1387 112.6788 113.2305 113.7922 114.3378 114.8868 115.4009 115.9171 116.4575 117.3556 117.0900
122.2100 111.6118 109.3091 109.4473 109.6238 109.2746 112.9014 113.9158 114.8084 108.7006 114.3203 114.6618 105.0232 102.2119 103.1039 112.1672 130.6268 121.7460 122.0968 121.9595 121.6716 121.3310 121.3110 120.9861 120.5255 120.3438 115.8847 118.3241 118.9986 118.6244 118.2324 117.7961 117.1725 117.8155 116.4989 116.7888 108.4717 94.3826 95.6886 113.6088 113.4518 113.1349 112.6079 112.2639 111.9063 111.6058 111.4163 111.3383 111.4114 111.5162 111.7261 112.0389 112.4329 112.8733 113.3329 113.8224 114.3128 114.8027 115.2978 115.7767 116.0975 116.9257 115.3572 117.5200
108.6100 110.7294 113.5301 111.9083 111.5711 110.8916 111.7644 107.6405 103.0953 101.2392 100.7000 119.7725 113.1005 104.4901 107.0072 119.7295 120.9872 122.7243 122.3681 122.1719 121.8032 121.4749 121.0714 121.0557 120.5936 122.9303 120.7344 122.4626 118.5336 118.8304 118.4501 118.2257 118.8252 115.3913 116.1419 118.2849 95.5647 92.4810 102.9092 116.6357 113.7723 113.7223 113.4221 113.0449 112.7477 112.5148 112.3575 112.2520 112.0922 112.2706 112.5737 112.8897 113.1996 113.5644 113.9728 114.3888 114.8323 115.2757 115.7168 116.1993 116.4684 117.1848 106.3183 117.6100
113.3700 112.1401 114.3702 110.0937 108.8577 107.9026 106.6774 104.7572 103.6957 103.8305 100.7025 115.3365 114.0186 120.8395 125.5374 112.2723 122.4265 122.1690 122.2586 121.3784 122.9702 121.4982 121.7337 124.1856 97.8640 119.4252 122.2693 133.9928 118.4986 119.2350 118.6953 118.7602 107.4592 97.8846 119.3481 116.6853 118.4204 118.5687 114.9940 115.1545 116.0254 114.4589 114.1483 113.7848 113.5261 113.3364 113.2079 113.1538 113.6507 113.5172 113.5199 113.4481 113.9069 114.2259 114.5798 114.9625 115.3308 115.7340 116.1359 116.4278 116.5126 117.5932 118.8938 118.0200
121.7400 112.6990 107.7692 107.1911 107.0728 106.8571 104.4704 104.6526 107.3901 103.5351 102.4569 109.3229 112.8533 121.8321 122.0750 123.1540 123.3204 122.7303 124.3073 124.0168 131.0789 122.1556 119.5137 112.0630 111.8380 112.0000 112.3025 127.3144 119.9089 119.4720 118.8796 118.3390 118.4367 114.7543 103.0250 102.4871 118.0817 115.2980 113.8815 113.5932 106.3738 115.3068 114.7588 114.4697 114.2502 114.0906 113.9741 113.8398 113.3620 101.5160 113.0005 114.3052 114.5892 114.8536 115.1566 115.4945 115.8387 116.1935 116.6564 116.9165 118.3954 113.8971 118.6386 118.5200
121.7400 120.6194 107.7648 106.4415 106.1619 106.9610 107.3363 107.3224 103.5958 102.5029 103.8443 112.8851 102.5960 124.0386 125.3328 124.2945 122.6348 122.9307 111.8540 124.7692 121.8414 119.4613 104.0013 99.6954 123.1898 121.6679 111.1329 119.9138 118.5087 119.2800 119.2567 118.9459 119.9226 101.3415 99.0603 98.0986 117.2928 116.9886 117.7726 115.1545 110.6353 115.5271 115.3592 115.1092 114.9262 114.7808 114.7056 114.6433 114.7574 114.7061 115.3773 114.9665 115.2146 115.4510 115.7187 116.0040 116.3151 116.6798 116.4525 118.1998 102.9067 104.3797 104.4993 118.5200
121.4100 109.2868 107.3231 107.0212 107.0594 108.4016 109.3670 104.8749 104.5390 102.1366 115.6305 119.8670 107.5002 124.9064 127.7917 124.7253 124.5974 124.5936 112.1059 122.9857 108.2134 111.4701 101.0918 115.0572 121.2834 124.3805 106.1795 108.2978 122.6838 119.4662 119.7990 115.2822 118.5306 102.6819 101.6793 101.6956 109.0130 118.2751 116.5990 116.6456 117.2382 116.1493 115.9055 115.7126 115.5434 115.4730 115.3784 115.2605 115.3173 115.2856 115.2954 115.5649 115.8109 116.0093 116.2446 116.5236 116.7776 117.0975 117.2474 120.4590 116.7451 117.9344 115.8243 98.4100
108.7000 107.3579 108.8467 108.9943 109.3073 104.7032 104.8605 102.2098 102.7194 105.5940 109.0662 126.3722 120.1793 123.1458 111.4361 123.0586 111.8405 119.5419 121.9697 123.5594 117.1048 116.4669 117.3500 121.5757 112.0199 106.2716 104.0695 114.0479 106.3320 104.9498 114.0394 112.6316 106.4494 104.1310 102.7489 118.3241 109.8084 115.1840 117.4342 117.0724 116.8840 116.6634 116.4604 116.2722 116.1144 115.9830 114.8304 116.2309 115.9439 116.0040 116.1286 116.2118 116.3828 116.5059 117.2176 117.2288 117.0893 117.4359 118.0031 118.4049 117.0151 120.3374 111.8221 98.3900
109.1600 109.5248 106.4159 104.5788 104.4641 104.4875 104.5374 108.1415 103.1518 103.1065 101.4858 114.2347 125.5136 123.4374 120.7214 124.5699 119.2547 118.5634 113.8838 122.9477 119.6076 121.3012 117.2888 122.2250 117.4355 116.0676 119.2888 119.3486 91.7508 109.7074 107.6056 109.9932 103.7472 101.8468 99.1688 105.5976 120.8316 117.9488 117.8536 117.5812 117.3417 117.1253 116.9731 116.7247 116.4883 118.1338 105.2967 117.6219 116.5277 116.5263 116.6202 116.7539 116.7393 117.1604 111.9913 117.2352 117.6560 117.8848 118.2669 108.8940 100.4723 119.3115 116.7584 119.4700
109.4400 108.8450 104.5738 106.1418 106.5825 111.9673 107.0777 111.2013 102.8864 105.0969 117.3146 113.9477 124.8798 122.3303 115.5073 126.3229 124.3630 122.3110 123.2573 122.8140 121.8300 121.8978 117.2227 124.2506 116.5616 122.4956 121.1999 120.7034 118.0181 121.1221 117.6974 102.9841 102.4524 102.8128 96.3200 104.6446 120.0075 118.1461 118.2876 118.0135 117.6359 117.8540 118.2681 117.3376 115.6281 110.4356 109.7814 107.9805 117.2389 116.9676 117.1624 117.2884 117.3734 117.6643 116.4674 118.5691 118.0312 118.3017 118.3560 113.9135 114.7158 120.3286 119.5907 119.8100
116.8100 117.0104 111.1566 112.2566 108.0096 116.0859 106.5348 104.0739 103.6119 102.1496 119.0165 106.6198 115.2094 116.0163 125.7828 127.5278 101.9627 118.6087 121.4298 122.9783 123.6185 116.4890 118.4144 122.5550 121.6037 121.7298 121.4042 121.1485 122.3319 115.3708 105.4848 100.7728 103.6939 104.6658 115.6456 119.7132 121.7676 118.7681 118.6230 118.4103 118.2135 117.8688 107.5676 113.2424 114.0892 118.0120 90.8585 92.3033 117.5731 117.1691 117.6682 117.7707 117.8787 113.6282 113.6855 118.1292 118.4920 118.7343 118.6529 119.6322 119.2115 119.2712 119.9407 119.9000
112.0200 110.8069 107.5968 113.9734 107.7768 108.5799 107.8711 104.5591 103.3420 103.1239 103.3553 103.9813 112.5391 101.5153 100.7638 104.9295 109.2906 123.4062 124.7619 114.5750 121.4252 123.5616 114.9139 114.9192 122.8445 120.9911 121.8036 121.1997 122.4188 111.3963 107.7371 108.3607 121.0887 120.7807 119.7950 119.5306 119.3364 119.2074 118.9749 118.8053 118.7085 119.2267 113.3219 116.3390 118.2878 119.9076 106.4053 91.4755 118.7603 117.5396 118.1462 118.2585 118.1188 118.6831 118.9897 118.4866 118.8756 118.9916 119.2235 119.5234 119.6986 119.9126 120.0974 120.2500
108.9700 114.5678 108.5797 109.1312 109.2725 109.2816 106.7787 103.3226 103.1313 106.6406 104.8731 105.4256 118.7689 117.5359 106.3674 125.1310 128.7242 113.6754 120.3424 123.6448 112.1257 121.5797 101.1894 106.9922 115.7903 122.6245 121.8480 121.9129 120.5061 117.7127 103.4545 113.4322 111.6015 120.7564 116.0142 119.8351 119.7399 119.5331 119.3608 119.2140 119.1179 118.4216 114.1070 114.9275 98.3468 120.5981 116.6044 105.0765 118.4212 118.1387 118.6006 118.6467 118.7675 118.8513 118.7584 119.3898 119.6088 120.1251 119.5249 119.8060 120.0079 120.2105 120.4166 120.5700
109.4300 108.4860 109.0758 109.0733 108.8857 108.0186 109.0055 103.8995 103.5583 100.9514 119.1139 112.3627 116.8591 121.6942 105.1941 109.6165 125.4589 106.0268 111.1465 107.4444 109.1578 102.6695 102.3544 112.5771 108.1656 121.8142 122.0366 115.6534 103.9107 110.8065 109.9614 111.4842 121.7720 121.3227 114.5819 101.8387 121.8873 119.8557 119.7085 119.5079 119.4727 119.2836 111.6655 115.6062 119.2539 119.9604 122.7132 120.9355 119.4151 118.7890 119.0111 119.0718 119.1323 119.2398 119.5215 118.6009 114.8194 117.9561 120.0872 120.1355 120.3153 120.5003 120.7005 120.9400
108.7300 108.3498 107.5369 107.8108 106.9167 106.2392 106.7736 103.3848 104.2893 104.9321 112.3709 113.8072 101.5779 107.4643 107.9553 107.2227 114.6233 105.7423 104.8940 101.7131 104.9919 107.3301 112.3815 121.7818 122.6004 123.9418 122.5859 116.1160 109.2427 118.1040 117.9136 119.2345 118.3159 120.4349 123.9376 125.7567 115.3670 120.1956 119.8151 120.0632 119.7696 119.2616 112.4282 114.2586 119.7971 105.6717 103.0445 121.5136 119.2546 119.3213 119.4067 119.4634 119.5478 119.6167 119.5611 120.7172 119.7166 121.4317 120.1723 120.4474 120.6208 120.7987 120.9948 121.2800
108.7300 108.3415 110.4430 106.8472 107.7804 105.4664 104.2489 104.2602 104.9881 102.5093 103.4742 105.9992 109.1151 108.2056 114.5633 116.8249 127.9112 107.0463 107.6015 114.2738 103.9759 100.4364 108.5199 98.0970 119.8549 121.6212 123.1000 125.0091 110.6173 109.2662 122.9132 115.1720 121.5110 122.9598 119.0271 121.4788 112.1050 131.0373 113.7482 121.2984 119.7726 120.0382 118.3644 119.7359 119.5786 121.6880 98.1393 121.8615 119.7789 119.7361 119.7957 119.8503 119.8915 119.9645 121.6329 120.5184 106.0497 119.3263 120.4472 120.7608 120.9444 121.0608 121.1687 121.2800
111.6200 110.1286 110.6657 107.1271 107.5132 103.5203 103.6545 105.0133 104.7599 112.0312 115.6781 115.5505 113.8972 112.2406 112.3908 107.4124 122.3883 119.0822 112.4039 110.2503 116.1318 117.2527 102.4839 114.4138 128.6533 123.9633 122.2128 107.8635 99.2682 116.6556 123.9332 121.7555 121.6972 124.3812 106.4769 107.3204 106.0132 103.4612 100.7684 118.5086 112.3245 120.4834 120.4620 120.1457 119.8958 120.7902 119.6596 120.1226 120.0955 120.1215 120.1712 120.2246 120.2406 120.2498 110.5370 121.9162 120.8543 121.7363 120.8395 121.1119 121.0325 122.6740 121.3094 121.6400
111.8000 109.7379 108.2515 106.1304 108.8974 105.1140 107.8438 102.5240 116.6687 115.0085 107.3657 111.8987 119.5455 114.4712 117.5079 113.3405 120.2624 115.3674 119.7679 111.3296 123.3469 117.7591 119.8812 127.5494 123.9073 127.4454 124.6358 104.9903 122.6894 120.1463 122.3398 122.0419 121.3281 121.5438 105.6287 106.7112 99.1877 97.0739 115.1739 121.3719 121.1746 120.7048 120.7204 120.6205 120.5620 120.3963 120.4338 120.4690 120.4741 120.4865 120.5272 120.5797 120.5977 120.1606 122.4272 102.1907 121.1918 120.9087 121.1817 121.1367 123.2113 108.9022 122.8191 121.9400
111.8200 108.4570 107.1568 117.0476 114.3235 105.2628 120.0693 114.0002 110.5497 105.1857 102.6642 100.9694 115.8485 115.0953 119.9552 117.4766 119.6109 112.0779 110.4912 115.1437 127.3468 107.0952 100.8516 121.9384 122.8541 114.7008 117.2365 98.5104 116.3877 124.3452 121.1031 120.9051 122.5144 120.2698 103.7205 114.9306 97.9204 120.8744 122.9974 120.9236 121.1736 121.1107 120.9641 120.9568 120.8833 120.5827 120.3774 120.8444 120.8259 120.8314 120.8665 120.9084 120.9494 120.9456 121.4187 122.0624 121.9193 121.4522 121.5978 122.3416 122.3129 108.8371 120.0659 100.2300
109.2700 108.5476 105.6914 107.6013 105.8722 119.7066 118.7815 107.6347 105.2900 104.0973 104.1712 103.4532 104.8978 102.0561 121.5927 120.4674 119.0835 113.8928 117.7093 110.9845 121.6538 102.6215 128.7170 113.4115 127.4331 114.2640 103.5217 98.8801 103.3518 113.9352 123.3151 121.3931 124.8896 116.3267 119.4392 110.5146 106.6378 122.9646 121.0549 121.6361 121.4546 121.2749 121.5503 121.2667 121.5230 117.3815 118.0833 121.3666 121.1036 121.1709 121.2061 121.2422 121.2847 121.3398 121.4049 121.3832 120.9526 121.6082 122.3528 114.4740 122.8268 123.4889 119.1722 100.9400
105.3600 104.5205 104.3705 107.9922 121.5490 118.8940 125.4413 116.2052 103.0908 103.3631 103.5787 104.2281 101.9876 120.8503 124.7156 116.6222 118.4818 104.3773 103.2768 115.4138 112.5814 109.2712 119.0014 116.9041 122.4268 116.3192 107.7958 103.3658 121.8265 119.6238 124.7320 122.8948 120.7557 99.2470 116.7170 122.7972 122.5366 120.4678 118.9934 121.9759 121.5168 122.5202 119.3900 121.7012 121.5869 122.2189 121.7358 121.4554 121.7770 121.4897 121.4585 121.4985 121.5952 121.6760 121.7401 121.8287 121.8685 122.2578 121.6751 123.9308 133.1077 120.7850 117.8358 122.5100
120.2000 126.9997 125.6719 120.3420 121.1268 117.8051 123.4144 123.5741 107.4035 123.3437 107.6234 103.8888 104.5837 116.7833 120.7749 119.6387 125.5632 123.6912 116.2569 107.1085 105.2839 103.3775 105.2444 123.4408 124.4931 120.4374 102.4297 111.6325 123.6495 123.2554 123.0719 122.7532 124.7669 120.7832 123.8597 122.4887 122.0894 121.3169 121.1353 121.8873 121.6834 122.4678 109.0562 122.8499 121.6892 121.9967 121.7791 121.5491 120.8736 120.2448 122.1124 122.2188 121.8849 121.8105 121.9873 122.0733 122.1825 121.7976 126.4009 119.5342 122.1520 121.2943 115.3090 105.2100
127.5300 123.9537 127.0352 121.1277 122.9396 109.3814 124.8748 123.8425 123.8095 127.5384 120.8586 103.1414 104.9538 109.2144 122.2455 123.0309 124.4658 123.6076 125.4408 126.7778 107.6657 111.3062 111.8393 128.8357 125.0924 115.1963 111.1880 120.0276 123.5301 124.0255 123.3139 123.2061 122.9431 123.1843 122.6418 123.0431 116.5574 111.1023 114.7732 122.6881 121.6424 123.8061 96.4000 119.9483 121.5196 119.6458 122.2083 122.3159 122.0229 109.7532 122.0614 118.7509 122.2149 122.9417 122.6930 122.7941 122.2401 122.9351 122.2254 124.3228 121.2628 122.2508 109.0084 113.9100
127.5600 127.5410 127.7979 127.2383 126.9011 120.4432 122.2722 122.9408 127.8829 124.1676 105.6266 106.4656 125.6838 124.4625 109.6337 99.5266 108.7542 111.9958 124.7881 125.4540 124.8491 127.2942 118.1191 118.6290 117.6164 104.4258 106.0144 111.6135 127.6563 121.5259 123.9567 123.3539 123.3381 123.2593 123.1504 123.0276 124.3475 100.0099 115.0439 122.7788 122.3876 122.2644 116.5514 123.3319 122.8253 125.2622 121.8960 117.4723 112.0838 114.8022 122.9957 122.1103 122.5394 124.4184 105.9441 124.4032 122.4312 123.0348 114.9683 123.6910 123.1182 134.0956 109.1885 102.2500
127.7000 127.3917 127.4220 127.2126 127.9026 119.7420 106.5543 122.1223 114.1280 103.4325 119.1280 126.3059 114.4974 104.8643 103.3333 110.5860 117.5176 110.3627 117.3814 122.8499 124.1857 124.4539 126.0579 125.1841 124.1799 126.8805 105.9372 119.1479 122.7727 122.4900 122.2509 123.6795 123.5708 123.4580 123.3932 123.2011 124.6696 118.3631 125.2780 122.7326 122.3427 124.9616 115.9109 123.0678 123.2567 122.7943 121.2738 119.5609 97.6706 120.6498 122.7378 122.8270 122.8804 124.4524 106.1716 124.1727 122.7258 123.1671 124.1302 110.2923 117.7861 116.8003 106.6638 101.5200
125.7000 125.7000 127.5200 127.4300 127.3200 127.2200 127.0100 126.9000 104.8100 104.6800 124.0000 125.0000 125.5900 126.1200 104.0100 127.7300 119.3200 112.5600 125.4400 125.2900 125.1700 125.0700 124.9200 124.7900 108.9300 124.5400 102.4100 113.2200 111.3900 127.4100 123.8500 123.9100 123.7300 123.6000 123.4700 123.3200 123.3600 123.2000 123.2400 123.0300 123.0900 123.0900 122.9200 122.9400 116.8500 122.7300 122.7400 122.2700 100.7500 101.7800 122.9600 122.9600 122.9200 122.9000 111.4600 123.0600 123.2400 123.2000 113.7100 112.6600 117.3800 112.1500 112.1500 109.1600
