124.8400 127.6300 122.5000 121.0300 120.8100 122.0900 108.8300 111.5500 118.7900 118.2400 118.0200 114.7800 105.7000 105.6000 109.0400 115.3300 112.7900 113.8400 114.0100 105.8300 115.5200 120.1500 117.7500 111.0500 111.3600 111.3900 109.9800 107.4000 104.7700 104.7900 110.5300 109.6200 103.1700 110.6700 114.3900 124.9400 124.8300 124.6700 124.5400 124.4100 124.4300 129.3700 124.1500 124.2000 109.2600 109.2600 123.9000 123.9300 123.7600 123.8100 123.8100 123.6400 123.6500 123.6600 123.6800 123.6800 123.4600 123.4600 103.2800 106.9700 111.2100 103.6000 123.6200 123.6000
124.8400 126.6051 115.0861 114.6249 121.9594 121.5174 114.7980 110.9129 115.5969 119.1740 118.3963 112.1133 109.1940 109.0033 111.7243 116.5875 112.2231 113.9533 117.8922 118.1900 114.0225 114.5867 114.2289 108.1611 111.6988 111.7610 111.2790 107.2959 103.8783 103.3750 103.5112 111.3896 109.6556 108.0333 105.5957 113.6842 109.9128 121.8624 121.1860 113.7310 122.3478 126.2703 123.6624 123.5704 120.0270 118.0145 125.9046 123.3695 123.6927 123.5859 123.5554 123.5165 123.4794 123.4596 123.4474 123.4715 123.4193 122.3616 104.8514 107.8203 111.7927 116.8490 126.1640 123.6000
125.0000 127.7788 135.2405 107.7833 107.1716 115.0087 123.6764 114.8248 109.1349 113.4239 109.7677 115.1460 118.0605 112.0477 114.7348 113.6215 107.3841 109.6161 116.9806 108.8072 114.6552 115.2299 116.4644 110.2982 107.1552 107.5697 109.0352 109.4894 112.1341 105.3631 104.1760 113.4153 107.4804 106.9995 104.2041 112.3543 115.1785 124.6299 125.3372 123.9144 123.8091 123.7759 123.9305 123.7361 123.7585 103.8671 112.7958 124.9808 123.4021 123.3458 123.3071 123.2627 123.2314 123.1985 123.1758 123.1499 122.4376 121.9788 100.5482 106.4744 104.7732 108.5642 124.1129 123.3600
126.3300 128.2759 126.1094 106.4383 131.7314 104.8922 128.3602 120.3995 119.3083 108.5408 111.8162 117.2003 118.9174 108.6553 114.0838 111.2306 111.3184 108.5526 119.5873 109.7615 112.1525 105.0504 106.1357 120.0263 102.6157 106.1509 106.8395 116.9406 117.4277 103.0379 114.9214 120.3366 121.7516 106.4810 104.1690 121.2194 125.2875 125.6862 123.6953 124.9251 124.6016 123.7317 123.6769 123.5902 124.0768 117.6183 114.1343 123.9009 123.1012 123.1268 123.0476 123.0049 122.9720 122.9391 122.9373 123.2627 123.3225 123.8499 101.2649 107.9353 104.4661 100.6684 124.4783 123.1300
123.5500 126.6383 125.9259 118.3533 111.0980 118.8798 123.1595 126.4253 122.9565 121.1986 113.3135 105.8788 110.7202 109.1397 114.9503 112.8062 107.4854 109.9839 105.1603 117.0051 119.3106 115.3666 114.9615 114.6422 112.8981 105.3758 110.6568 108.0430 102.9841 110.9799 108.2144 120.6790 122.1608 127.1234 112.3970 108.5193 114.4646 123.9514 124.6338 122.8396 123.7004 123.5415 123.4205 123.3119 123.7096 112.3797 117.0268 119.4789 122.9467 122.8029 122.8034 122.7381 122.7026 122.6855 122.5669 121.4277 115.9999 110.8884 108.6739 115.1641 107.1805 117.8061 123.8819 122.8800
122.4100 123.2440 124.0482 122.0994 119.0137 121.4875 120.2739 120.9653 116.0244 113.5452 122.9391 117.1825 110.6929 106.0878 114.8484 114.7687 113.6311 109.0270 113.6278 112.1927 102.7119 106.4813 113.1262 112.1300 106.9570 104.6226 105.9554 104.3822 115.9546 116.9244 116.7027 107.0737 127.2805 124.6246 119.6829 120.8500 123.8159 123.8923 123.6178 123.6792 123.3701 123.2222 123.2315 123.0696 122.7171 124.6145 114.3162 122.8462 120.8808 122.4205 122.4852 122.4963 122.4202 122.4171 122.3723 117.9657 105.6317 98.5223 119.5868 121.5059 118.7974 118.4860 122.5247 122.6300
124.8800 126.2714 118.9176 121.7272 121.7325 121.7453 120.9967 118.8715 117.1745 102.7169 113.7594 107.6116 106.2313 103.8588 110.7979 112.3304 114.8725 112.3226 111.0653 116.5468 113.0342 108.3829 111.2410 106.0487 115.2590 104.7677 107.9972 114.5693 121.1602 123.1481 120.5483 102.0487 123.8285 107.5240 122.8617 124.0853 123.8178 123.4738 123.5196 123.3110 121.9789 123.5825 122.8802 122.9154 122.3867 124.4862 104.3559 116.5900 116.6699 117.4680 122.3665 122.1980 122.1447 122.1259 121.9278 121.9344 117.2792 102.3737 116.6546 119.0596 117.8025 122.0203 122.3569 122.3700
122.8800 126.5718 119.9407 120.1024 120.2656 119.8855 119.9828 121.1450 119.6223 122.0530 105.5772 104.6396 105.3921 104.4372 115.0604 111.2687 111.6653 112.4690 113.8744 111.6851 105.1595 105.3064 110.6315 113.3077 106.7983 112.8124 107.9111 106.5755 106.8103 127.2409 122.9043 126.7644 111.5096 114.6224 124.3257 126.8980 125.1010 122.9353 123.2208 123.1225 122.2106 123.0401 122.7173 122.6700 123.6083 122.1158 114.9472 114.3485 121.0186 122.3873 122.0577 121.9013 121.8459 121.7751 121.7815 121.5189 124.4952 106.4938 124.2111 122.3730 122.0750 121.9018 121.9449 121.8300
125.8700 127.2131 123.3458 121.4913 120.0073 119.4537 119.4982 121.2049 121.5926 119.2222 118.5604 109.0438 104.8577 104.6794 103.7333 114.4859 110.8546 111.0958 109.4931 111.7567 112.0063 107.5017 105.7270 106.6563 108.4449 111.2813 106.6772 110.0395 115.9379 124.1313 119.8996 125.2569 122.6475 118.9925 120.5186 123.6965 123.2126 123.2219 122.9908 122.8412 122.8883 122.5644 122.4988 121.6457 122.8061 104.6050 118.0439 120.9685 122.3159 121.5506 121.5895 121.5958 121.5492 121.8598 121.5350 121.4341 121.5525 120.2259 121.2961 121.3707 121.4707 121.5811 121.6341 121.5400
121.1500 121.3812 126.8493 128.4297 120.3224 119.2930 118.9048 119.8185 119.1949 118.3711 119.6270 119.1673 102.7602 106.7946 103.7632 113.8793 112.6372 112.3952 103.7967 111.5825 106.7679 108.0779 109.3835 105.1441 105.3338 116.8965 115.1856 117.6950 120.3147 122.1265 123.5116 124.2929 121.6745 124.5111 123.8411 123.1249 123.1472 122.9307 122.7917 122.6572 122.4554 122.1885 122.2892 124.4423 121.7732 122.7911 121.4258 119.2944 121.1535 121.4167 121.3789 121.2706 121.1914 121.2065 121.3886 121.1705 121.1227 121.2001 121.2012 121.1849 121.2177 121.2630 121.3271 121.2500
121.6400 122.3543 121.8759 124.4855 119.7528 120.4263 120.4191 120.8909 118.1828 120.2508 116.0812 119.2640 109.5985 119.7275 109.7170 113.8114 113.3517 114.7575 104.8166 111.4244 104.9546 108.9707 105.4342 107.3210 111.3937 117.1075 124.4907 125.1966 124.9095 124.0276 124.0298 125.2346 108.2466 121.2458 123.5589 123.0498 122.8858 122.6937 122.4283 122.3879 122.0311 124.0605 121.0679 106.3582 122.3368 121.5038 121.3575 121.2996 121.3729 121.0587 121.0307 121.0436 121.2767 120.8222 120.7496 120.8686 120.8764 120.8268 120.7686 120.8388 120.8845 120.9416 121.0119 120.9400
111.5100 117.1803 120.9085 114.0760 127.3240 125.7297 118.6542 121.1210 122.5353 113.1074 117.0611 116.8484 118.6715 118.6303 126.8529 120.0247 114.2110 111.9928 103.3153 114.1517 103.5147 111.6939 108.2248 105.1861 111.5473 114.8726 124.9027 124.1217 123.9446 123.8485 123.5358 125.1887 118.9298 122.1240 122.8645 122.8091 122.7080 122.3663 123.1667 121.9505 121.8193 120.3447 109.5763 116.4926 121.9827 121.2166 121.1909 120.9856 120.8569 120.8059 120.7055 120.6959 117.5977 120.9656 120.3178 119.3265 118.3876 120.2549 120.3964 120.4975 120.5474 120.5997 120.6764 120.5900
114.0000 113.9423 116.7690 110.3117 121.9558 107.4176 112.5165 122.8236 118.5070 112.9008 117.2895 110.5734 126.0647 118.4700 120.6001 116.4782 113.2705 100.8621 101.4286 100.7294 103.5914 117.1612 101.5218 114.6346 115.4879 119.3926 124.2984 123.7986 123.9514 123.7837 123.2064 123.2067 100.1399 119.0998 123.0242 122.6486 122.3813 122.9913 110.9677 121.2697 121.5600 123.6469 115.5319 103.8642 118.2359 121.4303 120.7802 120.6776 120.5729 120.4535 120.3634 120.4428 118.8760 120.1966 119.7626 119.4326 103.2230 120.7578 119.8377 120.1468 120.1891 120.2546 120.3297 120.5900
117.2000 115.4797 115.1908 119.8602 121.0702 116.1668 115.2029 110.1920 108.6924 120.4501 117.0715 109.5584 117.2969 114.4421 113.3205 118.2245 107.1465 126.8651 109.3067 116.2927 107.7214 125.8713 109.7042 107.2622 109.7417 124.2867 125.3203 124.5595 124.1754 123.4372 125.4266 110.8231 114.6581 118.9693 122.8234 122.4119 122.2297 117.6055 118.6509 123.3227 120.8841 114.5921 105.2902 124.1686 109.9993 120.7305 120.5054 120.3612 120.2314 120.1101 120.0055 119.9137 119.9602 119.8084 119.7648 119.6813 121.6301 119.5714 119.7614 119.7633 119.8221 119.8890 119.9804 119.9500
118.6600 115.5240 117.3293 120.0439 118.2256 117.4765 116.4349 111.5540 110.5426 111.9765 107.0939 120.3644 119.0910 115.4536 120.0724 114.2808 109.2146 119.3472 107.4127 112.7355 106.6996 123.9422 120.1803 117.1657 105.0870 125.3659 106.6240 117.7665 122.0745 123.3992 123.1769 111.4199 117.4342 120.7722 122.6118 122.2055 122.1949 122.0493 124.1785 120.8333 121.6327 124.3931 106.5796 120.2198 120.3621 120.7854 120.1395 120.0281 119.8812 119.7497 119.6434 119.5400 119.4397 119.3914 119.3418 119.3216 118.9723 119.3290 119.3271 119.3733 119.4416 119.5212 119.5864 119.5900
117.0200 116.1740 115.9196 123.1061 109.7718 124.8448 114.8706 112.4627 107.7224 104.6965 110.7735 109.2941 108.1551 116.1274 114.1207 121.2088 106.4215 122.3596 106.9344 119.3869 122.5508 122.6371 125.4400 125.3403 118.0271 124.1020 118.7541 121.0476 123.2321 123.1611 123.1612 123.0771 117.9009 122.9149 122.0525 122.0186 121.7717 121.4726 121.4291 121.0795 120.0995 121.2901 117.8119 120.6309 120.0979 119.9464 119.8692 119.6630 119.5174 119.3837 119.2538 119.1461 119.0589 118.9878 118.9372 118.8936 118.9472 118.8924 118.9218 118.9710 119.0478 119.0553 119.2558 119.2200
118.2200 124.7247 113.2295 117.5890 118.4553 118.3791 117.8965 116.8157 118.3460 109.0714 108.2533 112.0420 115.4935 110.7153 109.0961 118.1128 120.0604 103.4462 111.0799 130.0172 125.3920 124.7184 124.4076 124.2595 124.2516 124.8043 125.4559 124.6630 123.4635 123.0875 122.9139 122.5881 122.9052 122.4008 122.0142 121.7893 121.5835 121.3605 121.1255 120.9320 120.7082 120.4295 120.3570 120.0241 119.9008 119.6699 119.4744 119.2951 119.1388 118.9906 118.8549 118.7444 118.6426 118.5676 118.5057 118.4669 118.4403 118.4622 118.4858 118.5449 118.6184 118.7338 117.2203 113.6800
127.9800 129.8228 118.9933 122.9697 118.9128 121.0286 107.8886 116.6589 116.2955 112.3114 113.7109 115.7551 106.6749 107.6901 112.0648 106.5932 103.1202 111.9486 111.2391 111.4197 122.7938 124.5666 124.3240 124.3288 123.9151 118.1084 114.5383 123.6953 123.2308 122.9120 122.6440 122.4970 122.2916 122.0249 121.8211 121.5710 121.3522 121.1261 120.8900 120.6539 120.4188 120.1859 119.9893 119.7002 119.5146 119.2122 119.1882 118.9305 118.7563 118.5891 118.4392 118.3144 118.2021 118.1147 118.0497 118.0079 117.9982 118.0029 118.0356 118.0979 118.1796 118.2691 118.6284 118.4100
114.9900 124.7004 126.5980 120.6619 119.9140 120.2069 114.1184 113.6640 115.4648 112.2634 116.9278 116.3992 103.7254 115.3905 107.3336 109.0506 107.6732 106.4776 115.3607 101.7721 121.3746 122.9241 124.4872 124.0741 123.4152 125.8728 119.8043 123.1045 124.0009 121.9946 122.5108 122.3241 122.0773 121.8587 121.5481 121.3960 121.0235 120.8333 120.8286 120.3225 120.1399 119.9135 119.6658 119.6692 116.9301 119.2460 118.7057 118.5466 118.3541 118.1703 118.0055 117.8652 117.7479 117.6454 117.5709 117.5320 117.5101 117.5161 117.5612 117.6248 117.7131 117.8068 117.9042 117.9800
115.5700 115.0278 116.0665 118.1968 115.5644 109.8968 110.1041 108.4099 115.1278 111.5240 117.3295 114.3408 114.1756 107.2550 103.6587 106.7993 109.3024 113.6521 121.7368 116.6715 120.6748 120.4532 124.3175 123.9254 123.4800 121.3238 111.3474 120.9095 130.5395 112.8214 123.6145 122.1889 121.7583 121.4001 121.6370 121.0848 121.3786 116.3413 120.8793 120.0407 119.8671 119.5975 119.5555 119.3875 118.1479 118.8195 118.3615 118.1232 117.9321 117.7380 117.5559 117.3967 117.2644 117.1581 117.0722 117.0181 117.0004 117.0055 117.0554 117.1171 117.2350 117.2959 117.6699 117.5200
114.8000 111.6984 116.0388 115.6244 118.4884 116.8102 121.1134 109.9737 109.6105 108.0238 110.9048 115.1396 115.1359 118.2977 113.3112 107.0490 106.6645 119.3654 123.9107 122.3161 116.8494 124.4638 123.9974 123.7183 124.2103 111.8078 108.2335 103.9600 126.5401 122.4562 121.8248 122.2136 121.9525 122.9771 117.2969 115.3098 122.6638 107.8503 118.1823 119.4608 119.7445 119.0332 118.2827 116.8651 118.4287 118.1018 117.9477 117.7450 117.4963 117.2767 117.0810 116.9010 116.7500 116.6088 116.5237 116.4710 116.4530 116.4711 116.5142 116.5922 116.6083 117.3404 115.9882 117.0400
115.8000 109.5352 114.0912 112.0979 112.6924 114.9076 115.5461 110.7167 116.4563 114.2142 112.4558 111.8165 107.9199 114.6324 120.9480 116.4085 104.1918 117.9130 120.7666 118.8019 125.7678 124.6411 124.9285 124.9481 126.8520 105.9507 124.1673 116.5906 122.5926 122.3377 121.7301 122.5242 108.2061 119.2900 105.2508 119.4965 114.7516 106.8615 108.1537 119.3814 118.8699 119.3266 113.7087 112.5195 119.4490 117.8313 117.6167 117.2928 117.0476 116.7970 116.5830 116.3765 116.2119 116.1152 116.0172 115.9034 115.8753 115.8887 115.9561 116.0654 116.1307 116.0776 113.9402 116.4500
114.1500 116.0873 115.4126 116.5308 113.3105 113.2304 113.9344 105.0104 112.6655 111.2724 117.6892 119.2710 106.7692 106.7103 109.0564 110.6503 113.2164 114.9836 123.4920 121.7078 124.7803 124.0160 119.5535 114.8641 113.8054 105.3418 112.2084 124.0429 122.1407 122.3222 122.0501 122.9959 118.3518 117.1841 109.3632 106.6915 119.5520 117.4674 110.2678 107.2824 125.8036 118.9084 119.3643 113.3892 116.6400 117.5170 117.1465 116.8588 116.5784 116.3064 116.0543 115.8279 115.6342 115.2711 115.2476 115.3506 115.2571 115.2892 115.2757 115.3516 115.5547 116.0149 115.9637 116.4500
105.7600 112.9515 108.0531 113.1856 113.4383 114.8873 115.1827 114.0787 111.8653 113.6299 102.9755 109.3311 104.5871 105.0339 113.0234 111.7462 106.4115 126.3088 115.0298 121.8284 124.5367 123.8342 122.8444 105.0652 108.3206 102.0514 113.1803 122.4514 121.8225 121.9970 122.6400 113.4144 113.1895 121.4118 121.9397 114.5363 109.9906 118.6370 113.1652 99.0430 102.6243 119.8607 120.5067 109.0993 118.7197 116.4387 116.7219 116.4008 116.0889 115.7872 115.5069 115.2458 115.0370 115.2176 114.7600 113.5053 114.6622 114.5615 116.0314 114.9598 114.9903 115.1179 115.4221 115.3900
105.7400 118.7287 105.6748 116.3834 113.6096 111.7617 111.0010 111.5429 109.2496 110.6042 112.3130 118.0825 111.3160 103.7638 115.4879 117.3244 115.3330 114.4094 114.8964 125.4070 124.1482 124.0302 124.6428 114.4731 117.8177 102.5418 127.8751 119.5770 123.0370 121.9167 121.8937 109.8069 105.0186 112.1759 110.3327 105.1559 113.4455 118.0590 117.7496 118.4193 112.0432 104.4053 116.4472 117.9008 117.7739 114.5976 116.1934 115.8883 115.5880 115.2409 114.9262 114.6264 114.3818 114.9251 102.9191 97.8467 115.0215 113.8629 113.9229 114.0768 114.3334 114.5605 114.8278 114.7700
118.4000 117.4838 116.2411 116.9107 122.0565 118.2015 109.8891 104.5897 115.2323 111.0943 108.0465 106.0575 109.7694 112.3339 104.8140 109.5008 121.0328 117.2394 126.2389 124.6591 124.0856 123.8422 123.2988 123.8036 122.4924 118.2641 122.1116 119.9169 121.8679 121.7916 121.6018 121.9840 119.3571 101.9448 100.1141 107.4284 114.9263 102.9713 100.9107 111.0730 118.8489 102.7628 117.0216 116.3376 116.6121 116.3583 116.1317 115.4464 115.0655 114.6773 114.3141 113.9697 113.7380 113.1494 115.5254 106.4226 114.6156 113.1689 113.1976 113.3746 113.5984 113.8831 114.2062 114.0500
127.7200 126.0840 126.1094 124.2445 125.2368 117.7059 116.7205 104.4786 109.8787 112.8193 108.9473 107.1931 112.7193 109.2030 103.4784 115.1496 110.4101 128.0214 114.6789 124.6567 123.8721 123.7828 123.5866 123.2515 123.1218 123.1671 122.5813 122.6030 122.1692 121.7261 121.3727 120.8937 121.5402 113.5320 103.2937 108.3969 118.9557 123.7412 105.0847 116.0784 115.7799 116.7861 117.4252 116.9103 116.3549 115.8377 115.3982 114.9749 114.5224 114.0915 113.6702 113.2790 112.9020 112.6367 111.7115 114.2859 112.4473 112.2171 112.3450 112.5551 112.8448 113.1753 113.5517 114.0500
127.6000 127.4224 127.8963 117.0349 119.5932 117.9432 115.4414 104.6266 114.6197 113.0783 107.8355 110.3658 104.5462 103.9587 103.2805 103.3890 114.2456 114.7582 124.0368 124.5342 123.8812 123.7212 123.4742 123.2308 122.9718 122.6864 122.4254 122.1875 121.8818 121.6273 121.2885 120.8245 122.5594 106.2337 102.5059 99.2930 120.1706 120.5330 118.4217 118.5506 117.3409 117.4487 116.8068 116.4219 115.9445 115.4571 114.9756 114.4736 113.9731 113.4817 112.9948 112.5475 112.1308 111.6902 112.0293 108.7486 111.0855 111.2737 111.4195 111.6781 112.0125 112.4108 112.8621 113.2000
114.4600 112.1672 126.9892 114.6132 111.4000 112.9700 116.3970 113.3129 114.0641 112.4032 114.7731 108.6154 109.4348 104.2012 107.6607 102.7517 106.2051 122.2660 124.2869 124.2625 123.8534 123.5425 123.4335 123.1956 122.8045 122.7788 122.4449 122.0840 121.8102 121.5260 121.2292 120.3889 121.8231 96.7781 108.7641 101.6498 121.5815 118.7528 118.3271 117.7373 117.4913 117.0300 116.5840 116.0908 115.5844 115.0628 114.5249 113.9716 113.4100 112.8485 112.2923 111.7563 111.2487 110.8302 110.4125 110.5791 110.3152 110.1909 110.3848 110.7090 111.1193 111.5991 112.1339 112.4500
127.5800 118.3307 115.1361 113.0265 112.3685 112.1851 110.2899 110.1232 117.4967 107.4236 112.3970 109.0185 106.3448 115.9655 118.8071 108.5574 128.3419 124.4481 124.2069 124.1358 123.9262 118.2945 122.9077 122.8976 122.1881 127.1986 119.4769 122.0318 121.7622 121.4295 121.1751 120.4236 119.0236 103.8812 100.2044 106.7601 112.7084 116.5092 110.6439 118.2119 117.3997 116.7866 116.3170 115.7927 115.2532 114.6822 114.0972 113.4816 112.8573 112.2078 111.5604 110.9254 110.3119 109.7662 109.3388 108.9782 108.8681 108.9696 109.2205 109.6231 110.1485 110.7386 111.3699 111.4900
127.5700 127.9276 126.9866 121.9577 109.0350 115.3589 109.3247 108.3018 108.8807 107.8015 106.5719 110.9361 110.4816 109.7828 118.0132 124.5882 124.5289 124.2762 123.9918 124.1952 124.6855 113.3272 123.6788 124.3298 122.9669 122.3475 122.2843 121.8890 121.6659 121.3495 121.0897 120.6856 113.9603 106.1786 102.6670 112.2840 121.5275 114.4146 117.2575 117.2029 117.1465 116.5827 116.0632 115.5135 114.9325 114.3220 113.6820 113.0022 112.3049 111.5623 110.8101 110.0465 109.2988 108.6092 108.0207 107.6232 107.4426 107.5454 107.8873 108.4214 109.0899 109.8233 110.5845 111.3500
127.5600 128.1907 116.5708 115.1548 115.1788 108.9656 109.4964 109.0776 108.1370 106.3732 104.7615 105.6833 112.9457 105.4008 110.2888 111.9178 126.3216 125.1430 124.8985 125.9905 117.4238 124.5557 120.2233 128.2952 121.3548 122.6001 122.1398 121.8432 121.5934 121.2848 121.0301 120.5066 114.7513 106.4920 121.6966 119.7399 121.7465 123.0707 117.9865 117.2103 116.9273 116.3925 115.8392 115.2544 114.6466 113.9891 113.2933 112.5538 111.7662 110.9303 110.0565 109.1334 108.2126 107.3253 106.5317 105.9483 105.7029 105.8354 106.3288 107.0673 107.9508 108.8617 109.7840 110.1500
127.5500 127.9430 121.5870 114.2595 113.6498 110.8159 110.4946 110.2675 107.0349 105.8461 104.6481 110.2207 101.4953 103.4968 111.1391 124.5824 122.2997 119.5378 125.0759 112.7274 110.5510 120.8275 121.6162 119.8200 119.3109 123.6624 122.1454 121.8513 121.5447 121.2239 120.8752 120.6039 122.0329 109.1541 121.7746 118.4651 119.1515 117.5915 117.7594 117.2231 116.7162 116.2001 115.6467 115.0330 114.3861 113.6879 112.9447 112.1395 111.2686 110.3319 109.3150 108.2230 107.0672 105.8864 104.7904 103.9163 103.5112 103.7422 104.4929 105.5538 106.7245 107.8932 109.0009 110.1500
119.1000 122.9493 110.6523 111.5451 111.8479 111.0712 111.1656 106.1491 106.7433 106.3729 105.5196 103.9133 103.0723 105.7394 101.9667 104.0506 115.6048 109.6891 125.6571 111.4538 116.0417 123.9231 122.2228 123.3297 123.1160 117.7168 122.3435 121.7636 121.4733 121.1790 120.8554 120.5394 119.9129 116.5608 110.1012 120.1479 118.4798 118.3462 117.7503 117.1646 116.7619 116.1701 115.4807 114.8451 114.1705 113.4407 112.6490 111.7826 110.8337 109.7914 108.6309 107.3412 105.9080 104.3513 102.7248 101.3048 100.6164 101.0068 102.2723 103.8891 105.4665 106.9390 108.2656 108.8800
119.0900 118.4164 113.1650 114.3808 114.8971 116.6389 115.4207 110.0560 112.5823 113.0508 110.3477 105.6258 115.9185 107.5192 102.0562 100.4814 118.0491 116.5804 125.4300 125.5091 125.7537 123.0788 121.1108 122.9173 122.6491 120.3375 122.6952 121.6903 121.5294 121.1458 120.8099 120.4582 120.0100 120.5598 93.3974 117.4586 118.1711 117.7441 117.5698 117.0849 115.4433 115.1202 115.3955 114.7062 114.0079 113.2392 112.4083 111.4995 110.4716 109.3437 108.0461 106.5611 104.8191 102.7664 100.3460 97.7962 95.9856 97.0666 99.6867 102.0960 104.2499 106.0815 107.6332 108.7000
114.8400 115.6724 113.1498 111.4874 111.5326 111.7148 112.0316 111.4434 108.7049 107.3768 105.9735 102.8186 120.7675 113.0963 101.8386 121.5571 122.1451 123.1999 124.6244 123.6978 123.2655 123.4139 123.5210 122.9486 122.6152 122.2556 115.5441 119.7015 120.9291 121.1672 120.7871 120.4827 119.9836 120.8361 118.4778 120.1128 116.4586 118.0484 117.5564 117.0066 116.3736 115.5037 115.2772 114.6053 113.8925 113.1046 112.2501 111.2999 110.2382 109.0222 107.6192 105.9671 103.9421 101.3677 97.9592 92.3700 89.3305 90.8973 96.6293 100.4438 103.2660 105.4179 107.1760 108.5700
111.5200 114.1381 112.9012 114.8590 115.9019 114.1976 113.1913 110.0635 110.2659 109.3118 104.8990 106.0027 122.2748 111.8688 121.4372 125.6041 124.4076 124.3554 124.2231 123.9439 123.6871 123.4163 123.1271 122.8600 122.2769 123.8565 109.3846 119.8444 121.7335 121.0853 120.7694 120.5254 120.1042 113.2381 101.4680 104.8215 119.0295 117.6729 117.2819 116.9548 116.4535 115.9274 115.2464 114.5594 113.8390 113.0433 112.1726 111.2015 110.1145 108.8605 107.4033 105.6561 103.4682 100.5142 96.1447 88.0572 84.3146 86.5082 94.0340 99.4485 102.7156 105.0773 106.9324 107.4900
111.6000 111.3865 113.1433 114.8849 116.2239 113.8118 112.4255 110.3985 110.7847 109.2230 105.1822 104.7869 117.0410 121.9764 125.4853 125.3165 124.9081 124.2579 124.1668 123.9055 123.6529 123.4148 123.1672 122.8692 122.0836 124.1102 105.3664 123.2730 121.5153 121.0941 120.7769 120.5732 119.9546 109.9392 97.2212 97.0396 115.2879 117.4103 117.1586 116.9721 116.4433 115.8538 115.2377 114.5649 113.8456 113.0509 112.1799 111.2103 110.1256 108.8790 107.4304 105.6929 103.5198 100.6368 96.3210 89.2098 85.5199 87.2026 94.3869 99.5658 102.7842 105.1158 106.9567 107.5000
112.7200 111.4005 111.5936 111.4640 111.1032 111.7026 111.3176 111.6502 109.5948 107.2066 106.7152 116.4613 119.7927 110.2127 126.7359 101.4002 121.7579 121.1079 124.5333 123.9284 123.6577 123.4230 123.1555 122.9131 122.8005 122.4001 122.3891 121.6464 121.4364 121.1318 120.7907 120.4679 120.0800 121.3779 100.6120 121.0723 118.3197 117.9362 117.5665 117.0173 116.4804 115.8980 115.2869 114.6241 113.9110 113.1328 112.2744 111.3258 110.2761 109.0720 107.6939 106.0669 104.0925 101.6169 98.3783 93.4557 90.4863 92.1586 97.2970 100.7603 103.4469 105.5413 107.2482 108.5900
118.5800 118.5722 110.6296 111.1017 111.2388 111.1340 110.6674 109.9855 108.3328 106.7100 108.4402 122.8318 106.0176 125.9122 126.5909 109.9374 122.6236 119.6065 124.5954 123.9391 123.6709 123.4104 123.1223 122.6664 114.6508 121.1606 120.8077 121.0366 121.3718 121.1456 120.8230 120.5028 120.2017 120.2674 119.4479 118.5256 118.4827 118.9316 117.3188 117.0932 116.5511 115.9831 115.3780 114.7348 114.0361 113.2800 112.4537 111.5472 110.5452 109.4221 108.1535 106.7037 105.0381 103.0702 101.0741 98.6511 97.1910 98.0778 100.2043 102.4714 104.4985 106.2495 107.7636 108.7200
118.1600 117.6390 110.6204 111.1470 110.9308 110.1604 110.5124 111.4171 108.0120 104.9937 103.9710 116.1751 118.8766 111.1870 125.7141 125.8961 125.0608 124.7433 124.1565 123.9368 123.8412 123.7077 122.9472 124.1208 97.7593 116.6353 121.6563 120.7375 121.9928 121.0905 120.8737 120.4681 119.2487 119.0292 119.3740 119.1744 118.3121 125.8169 116.9582 117.1955 116.6643 116.0956 115.5050 114.8843 114.2050 113.4834 112.6968 111.8514 110.9166 109.8949 108.7622 107.5157 106.1415 104.6701 103.1793 101.8590 101.2487 101.6072 102.7671 104.2336 105.7268 107.1326 108.4224 108.9000
112.7800 112.3744 111.7814 111.5455 109.9890 105.3688 103.9052 108.8514 109.1167 104.5407 104.8433 118.2461 112.2822 127.8263 124.5534 124.3975 124.5925 124.3404 124.2127 124.0635 121.8311 121.7400 122.9879 125.5760 105.9746 104.6840 116.8296 119.2087 117.4302 121.2732 121.0864 121.1457 109.8310 118.5182 119.0750 118.9285 118.3496 117.5571 117.8312 117.2839 116.7756 116.2692 115.6922 115.0882 114.4282 113.7508 113.0098 112.2146 111.3686 110.4478 109.4614 108.4120 107.3028 106.2003 105.1613 104.3530 103.9856 104.2025 104.8973 105.8835 106.9901 108.0931 109.1659 109.9500
110.6800 111.8994 110.2973 109.2685 110.0088 107.5499 107.4273 107.4577 116.3773 104.9005 106.5830 113.2381 108.5459 126.2348 125.7529 125.3718 124.7460 124.4613 124.1790 124.0963 119.2467 122.7499 123.1413 123.7184 125.5423 126.0295 100.0412 116.7607 119.3762 120.3447 120.6465 120.5957 121.1355 120.5715 121.8539 119.7557 118.8439 118.4319 117.8845 117.4353 116.9478 116.2254 115.8967 115.2947 114.7040 114.0559 113.3743 112.6432 111.8733 111.0538 110.2055 109.3277 108.4411 107.5842 106.8446 106.3009 106.0676 106.2019 106.6640 107.3608 108.1866 109.0761 109.9616 111.1300
117.1500 111.1790 108.6294 107.8422 108.2611 109.9694 110.4329 107.8481 104.7422 107.6703 126.1135 121.1824 126.4104 125.2042 127.7633 124.9219 124.7651 124.4931 124.2769 124.2721 124.5200 123.6637 123.3995 122.8323 122.0589 123.6677 110.7199 126.9618 122.7438 123.6425 122.3688 120.5316 119.9096 117.6344 108.7862 119.8709 118.7530 118.4508 118.0513 117.5830 117.1363 117.5463 116.9046 115.4100 114.9554 114.3171 113.7428 113.1072 112.4069 111.6925 110.9584 110.2185 109.5136 108.8532 108.2977 107.9108 107.7445 107.8393 108.1640 108.6779 109.3150 110.0193 110.7553 111.1300
118.5600 116.5501 110.8279 109.2981 108.9156 109.5046 110.2464 107.0337 106.4159 111.5720 114.1540 126.5214 125.2863 125.3834 124.9419 124.9861 124.7220 124.5085 124.2568 123.9536 123.6936 123.3688 123.2237 123.1363 123.1669 122.4730 121.1500 104.2656 123.2332 104.7661 120.8048 120.6325 122.0570 117.1756 105.2287 120.4837 119.0480 118.6237 118.2113 117.8304 117.2255 115.0283 112.3602 115.7601 115.4019 114.9466 114.1730 113.5858 112.9617 112.3396 111.7130 111.0977 110.5072 109.9879 109.5583 109.2721 109.1538 109.2214 109.4649 109.8532 110.3541 110.9178 111.5793 112.2300
111.6200 114.3972 110.9460 113.3875 112.4207 110.9714 107.6685 107.8758 106.3290 107.6940 116.3100 129.2474 125.6296 125.4631 125.2264 124.9843 124.8601 124.6721 124.4743 124.1335 123.8533 124.8041 124.3206 123.1509 122.8989 122.5178 118.2346 114.9424 103.1223 114.9588 121.1903 121.0487 112.7911 102.9874 121.5952 119.5083 119.2006 118.7938 118.3953 118.0016 117.4999 115.5293 115.2768 116.2392 114.2894 112.2269 114.8839 114.0648 113.5266 112.9806 112.4366 111.9120 111.4350 111.0133 110.6831 110.4565 110.3635 110.4156 110.5992 110.9076 111.3050 111.7594 112.2733 112.3300
118.7100 111.1523 114.3128 112.6962 114.2859 115.7814 110.1250 112.5299 104.0299 108.7327 129.6369 125.1510 125.4542 125.4322 125.3365 125.1162 124.5945 124.1999 122.9136 124.1667 124.6406 113.5694 119.1814 123.7053 123.6355 123.0520 123.1197 123.4109 116.9715 122.5944 121.4620 120.9548 113.6863 112.1291 118.0042 120.0529 119.3049 118.9724 118.5957 118.1785 117.7988 118.2571 120.0915 102.7597 114.5925 112.0379 115.2241 114.5536 114.0855 113.6002 113.1333 112.6887 112.2925 111.9450 111.6777 111.5010 111.4285 111.4692 111.6204 111.8624 112.1888 112.5737 113.0024 113.1200
118.2900 112.3796 113.7705 113.8585 112.8602 116.6940 113.3622 112.4817 105.2602 112.3147 125.3011 122.7054 126.5636 126.0356 124.9268 124.7091 125.0315 125.0273 124.6507 123.9383 123.9744 120.2399 115.3260 124.8950 115.9116 123.5596 122.3074 122.3485 122.3602 121.4607 121.4247 121.0020 120.6283 120.8175 119.8096 119.9253 119.5577 119.1621 118.7988 118.5310 117.3074 116.9564 97.0813 98.8170 112.1396 115.8019 115.5586 115.0663 114.6292 114.2047 113.8000 113.4240 113.0824 112.7926 112.5761 112.4288 112.3747 112.4062 112.5286 112.7297 112.9951 113.3209 113.6891 113.9700
118.3000 112.1888 112.4699 112.4972 113.0847 115.1868 113.1151 105.0705 104.9153 113.1221 109.0027 108.7426 115.9264 126.4714 124.8192 126.6767 107.3252 121.0813 125.0612 124.4530 124.2601 124.4330 120.9929 124.2611 122.4088 122.9452 122.6914 122.3891 122.1100 121.9756 121.5938 120.5310 121.2864 120.6780 120.2782 120.1657 119.7004 119.3713 119.0082 118.6678 118.9381 110.6186 97.2843 117.0224 116.9397 116.2227 115.9620 115.5585 115.1633 114.7944 114.4362 114.1118 113.8252 113.5765 113.3929 113.2782 113.2248 113.2538 113.3550 113.5206 113.7456 114.0234 114.3455 114.6000
112.8800 118.2172 111.2337 112.1081 112.0327 110.3522 106.4537 104.7330 103.1027 122.8792 110.0401 110.0465 108.9442 111.0174 109.0545 105.6304 129.5633 122.9345 125.8905 100.0395 118.3242 124.6101 109.4010 121.0461 122.8206 123.2002 122.7628 122.5088 122.2380 122.0160 123.6163 113.4085 121.9923 120.6743 120.4679 118.2390 120.4187 119.5656 119.2590 118.6767 119.7627 102.2587 120.0812 116.1030 117.4522 116.6264 116.4083 116.0259 115.6838 115.3531 115.0411 114.7631 114.5082 114.3028 114.1444 114.0487 114.0290 114.0280 114.1097 114.2491 114.4481 114.6813 114.9535 115.2100
111.8400 111.1615 110.6351 111.1218 109.3811 108.2960 105.0865 105.0270 104.0927 104.5107 111.3301 106.2151 128.6242 124.8986 117.8665 118.3248 108.8865 122.0395 120.6465 125.2265 108.6585 121.9535 101.2150 117.9509 123.3566 123.1643 122.8696 122.9441 122.2977 118.1340 131.1208 121.3583 121.3239 120.8051 121.8401 121.4259 120.0173 119.7821 119.4666 119.1672 119.0818 118.4244 116.5171 107.0820 117.2906 117.1367 116.8505 116.4941 116.1820 115.8860 115.6166 115.3691 115.1536 114.9714 114.8292 114.7397 114.6620 114.7404 114.8065 114.9291 115.0918 115.2997 115.5447 115.9200
112.8200 113.2130 111.1575 109.9537 109.1879 107.5576 110.2239 105.2467 104.1611 116.2750 119.5167 107.5270 122.2759 114.6745 110.1182 103.9105 122.4981 121.2202 105.6244 106.4001 110.7899 107.7178 123.0463 124.3971 123.4187 123.2236 123.0233 121.3340 122.2973 110.0073 121.4872 119.4593 122.2356 121.3653 116.3155 120.2647 120.2195 120.2686 119.6949 119.4710 118.6622 119.3587 96.2095 108.8720 123.5338 116.8642 117.2433 116.9434 116.6705 116.4091 116.1586 115.9405 115.7565 115.6011 115.4447 115.2872 113.3637 115.4020 115.4488 115.5645 115.7036 115.8846 116.0972 115.9200
113.6300 112.0474 113.1715 109.7454 110.5896 109.4115 105.3759 105.4995 105.2232 104.5671 102.9098 109.4306 111.0122 111.0833 109.1659 106.2164 114.0855 124.0815 121.3255 118.3240 118.3203 125.5761 120.3160 124.3119 123.7941 123.2532 123.1734 119.0298 121.8873 123.3562 122.7285 116.7368 117.0385 121.9864 99.6054 120.1297 117.7116 121.1339 119.5823 119.7145 119.6376 119.1250 110.8362 111.2305 118.1293 117.2115 117.7117 117.4421 117.1347 116.8952 116.6750 116.4806 116.3210 116.2151 115.6825 112.9025 92.8584 116.4585 115.8004 116.1428 116.2858 116.4352 116.6190 116.4800
115.0800 109.9722 109.9692 109.7825 110.4795 108.7128 107.8807 119.1448 106.7470 112.3207 115.9472 108.0483 112.4203 116.9587 115.7419 125.3437 127.5616 125.9722 117.7681 124.9478 108.6041 124.1982 111.8260 124.0085 122.5607 123.8906 122.9674 117.9501 104.5557 117.9877 121.8579 122.8211 114.7960 122.3159 100.1436 111.9094 111.9131 112.3773 120.2058 120.0025 120.8211 114.4033 110.8924 107.0194 118.8057 117.9676 118.0355 117.8063 117.5864 117.3715 117.1721 117.0260 116.8133 116.8976 117.2458 113.6096 97.2855 117.3855 116.1335 116.7154 116.8197 116.9545 117.1238 117.0000
110.6500 111.1503 112.6130 109.3460 110.4947 110.1894 110.8832 120.3323 115.7327 107.6843 106.4294 118.0325 121.5426 122.3043 124.7252 125.8084 125.3432 126.1880 126.4362 123.7684 127.1006 123.4312 108.2925 123.8686 122.7542 121.2640 124.2775 103.8789 110.4928 125.9661 127.2285 120.5195 122.5953 122.0914 98.9842 97.1914 110.8211 121.2463 120.9721 120.5164 116.5876 101.3641 120.8164 118.8253 119.4813 118.6345 118.4696 118.2548 117.9847 117.8193 117.6462 117.4958 117.2214 113.7014 109.7506 117.7871 118.4821 117.6242 116.9010 117.2190 117.3305 117.4503 117.5984 117.4800
112.0200 109.0440 107.9877 107.1512 113.7943 111.2443 113.9281 115.0582 108.5201 105.6585 113.0386 126.8074 126.1262 125.8481 125.7914 125.8103 125.4135 120.9880 121.3656 123.5233 124.6101 123.8869 121.9282 123.9712 124.1400 122.5402 124.3778 111.8937 120.1607 108.6637 107.1865 120.5044 122.0777 121.8446 112.3797 109.1670 123.4752 118.1404 120.9158 120.2350 119.8965 107.1598 121.7946 120.2618 119.5805 119.0472 119.5661 118.2678 118.5591 118.2406 118.0918 117.9952 117.6249 115.6963 117.5040 117.0413 117.2503 117.4249 117.6451 117.7359 117.8080 117.9203 118.0526 118.3300
111.1200 110.4490 105.3601 104.2255 120.4397 110.9299 123.0121 105.3812 105.8219 109.9147 108.4357 120.5883 128.7783 126.7439 125.7730 125.6619 125.7689 122.2601 110.5081 126.6683 126.9632 116.7649 129.3099 124.0785 123.3777 126.9138 106.8993 106.8997 116.9602 120.1383 124.2299 123.2126 122.3269 122.2148 123.1668 123.1045 100.6734 120.0545 120.9884 120.4224 120.3119 121.7564 119.1187 118.4234 119.7778 118.9081 116.8332 120.5611 118.7055 118.6832 118.5247 118.4219 118.0640 118.2981 118.0842 118.1807 118.6761 118.0994 118.0449 118.1226 118.2760 118.3623 118.4889 118.3800
106.0700 106.6519 109.0921 104.1870 120.0011 108.3363 110.5262 110.3491 108.5699 107.3981 107.4201 115.1732 110.3966 114.6923 126.7675 126.4820 108.7695 128.4304 125.5833 120.2132 102.2437 124.7160 122.6915 122.8546 126.5712 103.4976 101.6375 101.5594 100.4295 113.9004 123.6537 122.4404 122.4696 122.1886 121.7550 121.6355 119.3851 115.5875 121.8149 121.1847 119.6455 106.7790 122.8153 119.8719 120.0939 118.6194 100.4106 118.7514 119.7391 118.9933 118.9565 118.8358 118.8008 118.6818 118.4716 118.3637 113.1026 118.8089 118.9725 118.7413 118.7046 118.7967 118.8976 118.7900
106.1900 108.6500 113.7940 114.5017 128.6716 126.2991 128.2202 110.2727 109.9541 110.0540 108.9383 108.7910 126.5476 120.5593 126.4107 126.2984 124.4339 121.2901 107.6780 103.3189 121.5070 104.3035 124.4396 104.3572 104.7775 105.2079 102.1802 107.4869 124.0898 122.6064 123.0736 122.8964 122.6582 122.4443 122.3322 122.1688 117.9568 102.7606 119.1818 121.8633 113.8457 98.0395 114.2386 122.7568 119.6880 121.3205 120.3846 115.0440 119.5184 119.3516 119.2997 119.2230 119.1181 119.0675 118.9923 117.9895 116.6491 118.8211 119.8604 111.0457 119.8008 119.1713 119.2944 119.1900
128.2100 128.5457 128.4106 127.8254 127.6939 127.1565 127.5952 110.6534 110.2499 108.2699 108.1763 110.4552 130.4895 129.2824 125.8447 125.6452 127.2849 110.3875 108.7732 126.8127 125.2598 123.6667 104.1075 120.2149 124.5626 104.4063 105.6113 108.5988 107.3574 124.9371 122.8762 123.0899 122.8361 122.6437 122.4918 122.0139 123.4982 110.0914 114.6475 122.8875 107.5871 111.0343 129.0639 117.4226 122.5637 119.7009 120.6215 120.7116 115.7553 120.0503 119.8156 119.6088 119.5303 119.4746 119.4147 119.6287 119.6028 119.4882 119.3511 119.9331 120.2311 119.5792 119.7073 119.5700
128.8100 128.0747 127.8013 127.8276 127.8103 127.7970 127.9449 127.4248 105.4055 108.2924 109.7347 110.0542 123.5357 128.9969 112.7970 125.5817 126.5130 126.0463 126.0136 125.2905 124.7781 124.3177 105.8371 127.6021 123.9372 125.6436 105.1930 126.7354 125.3293 124.1490 123.4057 123.2143 123.0359 122.8403 122.6545 122.3655 123.4963 106.7703 122.8137 121.6057 122.0610 126.1051 125.1308 98.5558 119.9310 122.2011 121.2151 121.1555 117.4262 121.4140 118.9747 120.0483 119.9011 119.8551 119.7808 119.7767 119.7782 119.7864 119.8089 119.6466 119.4388 119.4333 116.8500 116.9400
128.2500 128.2845 128.1390 127.9646 127.7564 126.8330 124.9034 114.5873 114.6094 117.8164 129.3630 125.8066 113.1920 123.2830 110.8869 114.5792 128.2825 123.9126 125.6898 125.1605 125.8490 107.7903 109.7481 118.3949 126.5920 125.3631 116.5135 123.0990 119.9686 122.7424 123.4785 123.3604 123.2249 123.0382 122.8449 122.6518 122.6276 122.2184 123.1477 121.9637 121.1129 121.7235 120.1745 121.9045 114.9720 111.5081 100.6933 104.2042 120.4831 119.5133 117.7686 120.6838 120.2998 120.1477 120.5921 120.1384 120.1101 120.1449 120.3187 120.8670 121.3462 121.3799 113.3973 98.6000
128.3700 128.2453 128.1111 128.0401 128.0226 121.4740 110.9192 117.7840 130.0566 128.0356 126.7679 118.3639 108.3659 117.3562 115.0096 106.3833 114.2109 130.9148 125.2224 125.5632 126.3874 119.0869 126.9182 108.8337 123.9032 115.1029 107.2020 105.2401 107.3115 123.9569 123.7824 123.6418 123.3942 123.2188 123.0470 122.8892 122.6198 122.4198 122.3307 122.2019 121.6211 121.3470 121.9932 122.8140 119.2160 124.3096 116.4819 99.1393 120.7862 120.2161 121.1897 120.7039 120.2250 119.8913 117.7416 120.5183 120.4205 119.7471 120.2360 115.1229 121.1059 101.0033 98.5917 99.4700
128.5000 128.2900 128.1900 128.1000 127.9000 127.8000 127.5900 127.4900 127.3800 127.1800 127.0600 126.9500 126.7300 126.6100 126.5000 111.4800 131.3700 133.8500 124.2700 125.6500 125.5300 125.4000 125.1500 125.0100 124.8700 102.7900 103.2400 110.4900 112.9700 108.9800 123.8800 123.7400 123.5900 123.3000 123.1200 122.9700 122.8200 122.6500 122.5100 122.3200 122.1500 121.9500 121.8100 121.8100 101.7400 121.4900 121.3000 121.3000 121.1100 121.1600 120.9300 120.9700 120.7200 120.7500 120.7800 120.8000 120.8000 120.8000 98.9300 99.8500 116.9900 99.0000 104.2300 99.4700
