124.4000 126.9500 124.6000 124.2000 109.2600 107.3800 123.3600 123.1700 122.0900 120.4700 120.1800 121.3300 106.1900 120.6800 110.8100 121.1500 117.7500 115.4600 115.4600 116.0600 118.8200 108.6200 105.0100 115.7400 109.1400 105.3100 104.4500 109.3100 104.2600 104.1200 103.8900 118.8300 118.1900 108.9800 108.9800 125.3100 125.3100 125.0500 125.0600 124.9600 124.8000 133.9000 124.5700 124.5700 124.4400 124.3100 124.1700 124.1700 124.0200 124.0600 123.9100 123.9400 123.7700 123.7900 123.8100 123.6300 123.6600 113.4600 102.4900 115.5300 105.2700 123.4600 123.6800 123.6800
124.4000 127.3352 125.6690 118.7539 122.5473 111.6145 118.3228 128.4753 121.9765 122.5239 125.9731 116.1179 109.8364 115.9387 115.3129 120.1468 116.5436 119.0663 122.1895 114.5198 121.2663 117.0067 110.7779 115.5828 112.2191 109.3667 103.8670 104.6436 105.2173 105.9220 107.5113 103.6520 114.0406 113.7661 108.3009 114.1186 120.1697 108.7867 123.4420 113.5060 123.7904 126.1678 123.7794 123.1626 124.1610 124.3907 128.8163 124.1788 124.0075 123.8267 123.7763 123.7118 123.6520 123.5977 123.4801 124.6826 110.9866 108.3969 103.1564 113.4877 104.8022 122.2496 123.4230 123.4500
115.7200 126.8247 125.4984 116.6184 109.9499 106.8216 106.4050 109.8671 124.8666 124.4864 111.2163 118.0818 120.5564 119.5222 116.9559 119.9238 117.1443 114.0289 125.2509 119.6536 109.5781 117.4427 104.7929 113.3469 108.3433 117.0702 117.4034 107.3449 104.2025 109.7634 105.8935 121.0545 109.6903 111.7617 111.6372 121.9495 118.8550 131.9750 124.5286 122.9445 125.6350 122.5668 124.3716 124.3821 122.4495 125.4535 123.7878 124.1907 123.5191 123.6794 123.5392 123.4713 123.3942 123.2815 123.9673 124.6998 110.2852 103.6416 102.8091 107.0707 103.7465 118.7195 122.7499 123.2200
117.0000 117.9674 114.6142 126.1981 115.6723 114.7645 109.6336 108.9849 113.7815 113.4742 117.1805 122.6666 127.2653 110.0170 114.8335 117.2163 116.6858 115.6783 120.2315 123.1438 107.5798 110.3224 107.4111 103.2129 103.9487 105.5030 109.0513 109.1792 115.6294 107.6881 105.7272 123.5923 119.9363 103.7644 124.2724 129.4051 121.5122 126.9333 124.1394 124.5900 129.2775 124.2135 123.9985 125.6182 110.5209 113.3013 114.3323 118.5355 123.5698 123.4080 123.2937 123.2291 123.1677 122.9645 123.3539 115.4639 113.7830 103.1821 103.2709 106.5915 110.0480 110.2762 123.9650 122.9800
114.0400 107.9414 115.2204 108.6164 108.9471 120.9857 116.4314 112.4490 107.3487 103.6543 110.7270 108.7173 111.8754 101.8908 114.3536 114.3186 118.0254 117.5867 117.6234 120.9172 114.3322 117.4623 113.7512 113.5832 116.0074 101.0143 109.9694 112.6728 109.7149 101.9672 107.0888 119.2387 124.5133 124.6062 119.1271 131.0146 121.9452 124.3498 124.3833 124.4765 124.0892 123.9764 123.6705 124.1015 116.8077 125.9808 111.7101 120.6206 123.7201 123.1414 123.0607 122.9660 122.9017 122.6802 126.3358 103.6681 103.2668 103.5849 108.6821 114.6412 117.4574 124.0508 122.3306 122.7300
124.1200 121.7794 114.2070 118.1042 104.6303 112.4389 120.4515 117.5357 117.3590 109.5448 109.4659 103.5050 116.5900 118.1171 119.5223 115.2516 114.2965 116.5510 119.2719 115.6487 117.1558 112.1298 121.2255 125.0915 117.2531 112.0245 102.8893 112.8799 115.7562 114.2483 117.6190 106.5669 126.6829 124.6216 105.6765 126.4479 124.3353 124.2736 124.1336 124.0204 123.9485 123.7731 123.7136 123.4894 123.6669 124.6384 104.3324 123.5852 119.5109 123.7007 122.7759 122.7096 122.6962 122.5301 113.3014 101.7341 108.3551 107.0590 113.8057 119.4784 124.7606 123.0801 122.3798 122.4800
114.2600 114.8743 115.9697 116.0869 115.2012 106.9408 110.3974 115.0052 118.3139 117.3800 113.4493 106.7336 106.5406 106.9075 116.5052 117.8991 118.1998 115.7756 116.1013 118.1996 116.0418 119.0445 109.7579 121.9413 119.2673 121.6177 118.0107 118.5529 125.4282 120.4067 120.5473 103.9577 113.0814 109.7278 122.1370 124.7775 124.2087 124.1302 123.9773 123.8389 123.7029 123.5634 123.4200 123.3517 123.8197 113.4634 116.3779 123.7331 119.8577 122.7489 122.5283 122.4441 122.3789 123.1276 120.0773 117.3811 103.3702 110.7763 118.1164 119.3433 123.0389 122.0264 122.1159 122.2200
118.6300 119.9433 116.6980 110.9822 120.1879 111.5125 110.8463 106.0646 109.5249 113.6394 116.8455 115.3851 104.7379 105.5613 108.2723 110.4490 119.0831 115.8970 119.0124 114.4449 117.4061 114.5633 114.6614 114.3962 119.0182 117.4882 114.0411 112.0963 117.9527 125.4795 125.1807 124.0233 122.6762 118.0917 123.9319 125.4025 124.8056 123.7980 123.7882 123.6520 123.2830 123.2730 123.2083 123.1962 123.7511 120.2291 115.9259 123.5344 124.0957 122.3483 122.2541 122.1318 122.2722 122.6540 109.1290 120.6267 95.9568 120.7263 122.7567 122.2839 121.8544 121.7751 121.7738 121.6700
114.5400 113.7811 119.8122 119.6210 117.5923 118.2605 120.9959 110.4106 112.5348 110.1313 112.1585 112.7490 105.2326 106.1729 115.8215 110.1811 106.8945 116.7045 113.4729 112.6423 115.6132 114.8029 112.9225 111.6122 119.7133 113.4925 111.0131 116.9203 119.6249 121.7759 121.3973 123.5250 113.9482 128.8108 123.2970 124.2255 123.9112 123.6776 123.6020 123.6940 123.0433 123.3089 122.8658 123.0876 123.8718 104.3624 122.3216 125.3523 122.2927 122.0866 121.9955 121.8886 121.9598 125.1341 103.9198 121.7031 103.2865 121.7222 121.2240 121.3621 121.4022 121.4478 121.4636 121.3800
118.4700 121.4045 112.9363 113.8823 117.7215 115.8654 117.9895 108.8411 119.5518 109.4298 109.2905 106.4522 106.0305 111.4368 114.6579 114.9924 109.1410 105.8365 111.5983 115.6330 109.2346 116.1601 116.5257 113.6726 116.2539 127.7396 124.4159 124.6289 117.6264 120.5748 124.6453 126.6969 120.0952 125.0327 124.0847 123.8903 123.5909 124.5451 120.7197 123.3305 124.0237 119.8083 124.3327 120.0440 123.7580 103.6502 117.5012 121.9573 122.0721 121.8052 121.7517 121.4571 121.5057 122.0932 125.1767 104.5144 122.6165 121.8321 121.0564 121.1373 121.1296 121.1306 121.1483 121.0900
124.8900 120.4595 113.8768 120.8734 107.8879 113.4762 117.6013 119.2700 109.7117 117.6679 107.6447 110.0659 106.2500 107.8453 106.0813 110.3391 112.3340 111.1279 107.4667 103.0490 107.6247 112.1793 112.4189 118.3594 119.3882 130.1032 129.0059 130.1967 128.9714 124.6883 124.5689 125.2362 107.0181 127.1180 123.5739 123.8041 123.1296 123.9769 102.1097 122.2386 122.2314 103.9722 109.9552 100.5332 111.9067 122.2960 120.8432 121.9777 121.6594 121.5199 121.4039 122.0637 121.7980 120.7840 123.1411 103.8629 122.8484 120.7125 120.7671 120.7968 120.7854 120.7923 120.7935 120.7800
106.9100 105.2616 108.0302 115.7706 118.9181 121.6080 108.9214 112.1071 110.2733 112.4735 109.2879 118.4547 107.6401 109.5341 107.3811 105.5567 110.4238 117.7476 112.9076 111.3056 101.9622 113.8076 109.4126 109.2380 125.1812 131.3482 119.6588 124.7047 124.7240 124.5681 124.0610 126.7598 103.0377 128.0668 123.0725 123.5121 123.7069 119.1414 107.9882 108.1942 117.7749 124.5493 97.8597 101.5324 119.5971 122.7887 121.3778 121.5185 121.3076 121.2898 121.1348 121.0019 108.5906 121.2974 123.5231 99.4298 121.5376 120.3348 120.5248 120.4422 120.4412 120.4434 120.4109 120.4600
122.2100 113.0512 114.0838 106.0874 106.5984 112.5598 106.4365 119.6298 121.1433 115.7545 110.3848 113.6939 109.5608 113.3898 111.1147 108.9340 105.6124 107.6121 108.0155 103.6144 110.1098 117.8263 110.6679 117.2747 125.6201 126.8546 125.8592 124.8973 124.6747 124.6183 124.5402 118.0135 106.6511 129.8501 123.3498 123.4348 122.9061 124.4348 123.7797 98.5422 118.1788 122.4791 101.4406 100.1530 120.2368 121.1586 121.4781 121.2428 121.2147 120.6298 121.7043 120.9391 119.8092 123.1771 108.7303 103.8293 112.7860 119.9634 120.2051 120.0806 120.1054 120.0299 120.1013 120.1300
121.7100 112.6478 123.0212 114.5116 117.2066 108.9298 104.6962 109.4199 104.9227 120.7883 105.9435 115.0604 114.7473 112.8877 114.7949 111.0828 112.3122 106.9824 105.8472 117.9679 108.7277 111.9900 103.4071 123.9662 118.2815 122.4158 125.4324 124.2703 124.4715 123.5607 125.8539 103.4079 108.1646 120.5529 123.3563 123.1847 122.9006 121.9643 114.8544 113.3379 102.8369 107.1755 108.8143 109.0011 118.3321 121.5331 121.0926 120.9514 120.8039 111.0098 118.5316 120.1245 120.1677 114.8947 98.0021 122.3464 117.1647 119.7416 119.7896 119.7084 119.7209 119.6759 114.7435 97.7900
121.7500 119.0372 118.7308 117.8865 121.0570 113.9910 114.1793 108.7165 106.3532 107.5583 104.0089 118.1254 107.2472 111.5628 106.9023 112.1563 114.7095 105.1303 107.2386 111.9840 106.2843 105.7427 117.3068 121.7756 107.5443 126.9639 110.8543 126.2786 124.5217 124.2071 121.5695 110.1326 113.0674 125.3757 123.0168 122.9573 123.1568 107.1127 119.0883 121.6218 112.4876 97.8776 114.8225 124.2162 121.0059 121.1291 120.8461 120.6661 121.3201 120.3175 120.8330 119.7856 119.8087 120.0232 106.1562 120.3223 119.4351 119.3649 119.3817 119.3131 119.3181 119.2075 119.6659 119.4300
120.9000 121.1365 120.8510 121.3289 117.7519 116.0713 116.5937 116.7594 108.1583 110.1360 108.2671 109.4790 104.5111 115.8361 108.3818 115.5571 105.7805 105.4791 105.8220 112.1682 121.2945 121.4087 123.5167 124.3586 127.2674 124.3947 120.9314 124.2325 124.0742 124.1396 105.5879 101.2787 122.5622 119.5733 123.0138 122.8200 122.8096 124.3114 122.8295 120.5387 121.9619 118.2015 117.6550 121.7865 120.7628 120.7481 120.5431 120.3744 120.1429 119.8974 119.6563 119.6623 119.5131 119.1429 119.5041 119.6405 118.9250 118.9867 118.9345 118.8975 118.9126 118.7443 117.5221 114.3600
120.3700 120.0082 119.3898 117.4808 115.8782 115.9231 114.3665 115.0255 112.9520 110.7075 109.6146 108.9153 117.4632 113.9878 103.8111 115.9129 105.5906 105.7581 115.6089 125.4533 118.2270 121.2822 120.7885 124.4338 125.1800 125.8898 124.2661 124.3002 124.2544 124.0459 125.8247 121.4530 124.1585 123.1600 122.9245 122.5645 122.2603 121.7647 122.0746 121.6665 122.8177 120.4031 122.4608 119.6721 120.7883 120.4576 120.2567 120.0498 119.8487 119.6603 119.4959 119.2705 119.1738 120.3855 117.2303 119.4441 118.5887 118.5441 118.5004 118.4651 118.4654 118.4923 116.8843 110.7100
120.4500 119.9100 119.1180 120.6405 114.4078 115.6813 112.1105 117.9182 112.3190 111.6711 113.2869 113.3523 110.3715 114.1588 106.0147 105.7026 104.5676 107.6741 120.8410 108.2459 107.9319 127.4127 125.2198 124.6833 124.1451 123.5407 110.3962 125.0792 123.9797 123.4392 123.4889 123.3801 123.0458 122.9588 122.7651 122.6759 121.5463 122.2990 121.8173 121.7654 121.5394 119.6232 122.1173 120.4676 120.3863 120.1827 119.9465 119.7308 119.5130 119.3091 119.1064 118.9134 118.7666 119.6410 100.8573 117.9906 118.1174 118.1117 118.0494 118.0109 118.0014 117.9787 118.3221 118.2600
114.7700 129.4671 119.6537 112.3372 115.4177 114.6422 113.8100 115.4589 113.2474 111.3025 114.1367 115.8753 115.1153 114.9075 107.1600 106.7969 106.5546 115.4621 117.8031 101.4799 117.4139 124.7724 125.2386 121.0638 113.1035 118.1210 118.6412 123.9892 121.8736 123.7574 123.4347 123.1771 123.0143 122.8171 122.8827 123.4898 105.4540 107.3127 122.3318 119.4632 120.9705 120.8564 120.5175 120.4182 120.1176 119.8962 119.6509 119.4143 119.1844 118.9570 118.7359 118.5338 118.3480 118.0827 118.7949 119.0626 117.6817 117.6362 117.5725 117.5271 117.5123 117.5060 117.4857 117.3800
120.2800 120.1335 121.2082 111.8587 111.6951 111.1166 112.2178 113.8797 112.7655 113.2054 113.5311 116.0900 111.7154 104.7747 103.1850 115.2805 102.6569 115.1426 115.3375 110.4621 118.8610 121.6959 124.5573 123.9037 120.0596 112.5118 101.8109 125.4668 103.6908 125.5797 122.7193 123.1893 123.0957 122.2331 120.0273 123.0074 121.1288 99.1698 110.9779 119.6627 120.7612 121.3179 121.2707 120.1064 119.8574 119.6108 119.3372 119.0844 118.8334 118.5942 118.3545 118.1368 117.9122 117.6901 117.3910 117.0937 117.2515 117.1508 117.0671 117.0183 116.9987 117.0152 117.0695 116.9000
120.5500 118.8199 119.0585 120.8916 116.5586 115.9467 113.3172 110.0057 110.2602 114.4854 115.2763 112.0173 113.4346 111.2284 106.4401 105.3336 104.8727 107.0912 117.2874 127.6571 126.4434 125.3668 124.8967 124.0568 125.1647 108.6726 100.2125 100.0090 107.4282 122.2875 123.4441 123.1427 115.6402 125.3400 106.0000 112.9720 119.3842 110.9855 113.5009 114.2957 121.2853 116.9116 120.0338 119.9144 119.1576 119.3247 119.0280 118.7521 118.4823 118.2162 117.9675 117.7176 117.4778 117.2783 117.0794 116.9107 116.7630 116.6067 116.5316 116.4752 116.4526 116.4666 116.5169 116.4000
110.3600 114.4304 115.0777 111.3364 118.3470 114.5624 118.4576 112.6788 115.7044 111.1429 110.4122 109.5737 117.2772 114.3494 112.6883 109.1420 103.2313 112.6117 118.2578 115.6768 125.2679 124.9573 126.5516 126.6352 125.6908 106.1017 101.8773 118.9384 108.3413 106.8791 124.9264 121.3028 105.3158 113.7342 103.6836 107.6016 104.8085 101.4493 104.0013 120.4677 120.1485 110.5055 116.7548 116.8936 119.9717 119.0014 118.7553 118.4181 118.1271 117.8400 117.5455 117.3149 116.8802 116.7847 116.5382 116.5380 116.0096 116.1242 115.9681 115.8964 115.8732 115.8875 115.9488 115.8600
106.8000 121.8755 119.0988 112.6432 116.7370 115.1479 112.1544 113.4030 112.3487 113.0786 115.4445 113.5210 106.1882 105.8063 110.6501 105.9062 105.4223 119.3755 117.7961 121.2132 125.4485 125.9783 112.8295 113.9965 115.1869 111.2655 105.3855 120.2448 117.1340 117.2077 121.6198 97.2417 114.1289 105.7559 107.6755 107.6757 108.9941 107.8124 103.2480 116.7084 127.7894 121.2916 118.1699 102.0243 110.2849 119.1942 118.2922 118.0795 117.7649 117.4346 117.2080 116.6719 117.6252 116.3234 115.6662 115.4115 118.0053 115.5801 115.1964 115.2909 115.2489 115.2716 115.3338 115.2900
106.3700 115.0423 112.6113 116.6326 111.0265 120.6951 116.8543 114.1813 111.6224 105.6365 112.6145 113.4845 108.8305 107.3912 106.3426 105.4497 106.4512 117.6408 112.9344 125.5780 125.0259 124.8073 113.8491 111.3244 102.2363 105.8840 103.7300 113.3061 124.0362 124.2885 114.2768 121.0548 108.6901 107.3105 115.9226 116.5199 120.0618 113.5168 113.6725 99.8680 108.8403 120.7290 122.0619 113.1286 113.0002 117.3140 118.3981 117.6990 117.3956 117.0604 116.4319 117.4290 109.7654 118.4224 116.2626 114.6118 124.7623 115.3213 116.1916 114.5783 114.5675 114.6064 114.6839 114.6800
106.3700 115.6743 104.4345 115.3550 108.7953 114.1506 109.7188 108.7469 109.3979 115.5254 112.8776 114.5957 106.5892 110.5929 104.7604 105.5143 117.9148 115.1551 123.5170 125.7698 124.9701 124.6967 125.8034 91.4220 100.7164 113.3774 115.3461 119.7028 124.0012 123.1657 115.2798 121.7503 104.8999 109.0034 107.5422 108.4534 104.9943 123.7021 116.1985 97.7064 102.1630 110.7156 119.1523 119.1696 107.7669 115.9798 117.7463 117.3625 117.0179 116.6890 116.2859 116.4944 101.5058 99.2990 115.5764 114.5639 113.5679 113.5796 114.0945 113.8895 113.8482 113.8812 113.9764 114.0200
115.8100 115.7404 112.9345 113.9881 111.8755 111.7078 109.3898 116.6577 117.0730 118.0466 108.7915 110.7766 103.0394 114.4958 102.8547 102.9169 117.3539 107.6139 122.5373 124.5701 124.8379 124.5342 124.9656 130.4024 118.6479 120.4613 117.3759 115.8376 123.3037 122.9138 123.1082 121.0044 102.1428 105.2139 100.8262 97.1014 95.0997 102.4794 99.8691 102.4009 104.8886 112.9884 118.5794 118.7532 114.0428 117.9820 117.4950 117.0532 116.6508 116.2387 115.8025 116.3232 115.5076 105.1058 112.4811 114.2059 113.7783 113.5599 113.2178 113.1266 113.0622 113.0945 113.2028 113.3100
114.0700 112.0151 120.5984 110.6364 120.5506 109.3836 109.7898 105.7913 117.8931 115.4449 109.2639 108.6178 107.7722 106.0141 108.4330 116.0446 108.1307 125.7143 125.0752 125.1542 124.7946 124.8364 126.4912 113.9704 125.6677 125.2749 114.9926 121.3316 122.7316 122.6332 122.2139 121.3520 120.7294 99.3716 100.5098 120.9198 120.1455 99.4365 96.3456 105.9337 114.0168 120.0061 117.9880 118.4712 118.3280 117.4495 117.1551 116.7095 116.2796 115.8356 115.4079 114.9532 114.5755 114.6657 113.2100 111.0047 113.4187 112.5797 112.4009 112.2495 112.1971 112.2327 112.3605 112.4600
120.4300 118.9093 124.9887 111.1385 110.9861 111.5179 111.2320 107.2031 109.6526 109.5904 106.5384 104.8263 104.7177 104.6500 110.9806 107.5268 107.3635 124.5095 122.8380 125.2473 125.0440 117.4522 112.6503 115.3272 125.8269 110.0793 115.2306 123.4486 122.7041 122.5892 122.2008 122.3783 122.2346 114.2901 99.6753 98.6083 115.9676 115.5218 118.3107 119.5335 114.7905 119.5589 118.4940 118.0819 117.6973 117.2847 116.8403 116.3853 115.9189 115.4290 114.9454 114.4345 113.8282 113.4446 118.0227 117.8602 111.6000 111.7585 111.4735 111.2967 111.2280 111.2767 111.4364 111.6700
117.5600 116.9973 117.4989 117.3670 110.6978 116.0903 108.8983 110.4349 109.9353 109.1738 109.3923 107.9285 106.3175 107.1667 103.4737 103.4237 112.3557 102.8818 126.7151 124.9014 124.7932 124.3001 122.8015 111.7248 123.9948 123.4249 123.8845 123.3907 122.9297 122.8731 109.9045 120.0321 112.7076 117.1797 101.5957 103.4437 100.0024 104.1360 121.1000 119.6447 118.9284 118.7657 118.3495 117.9027 117.4777 117.0215 116.5496 116.0655 115.5594 115.0382 114.5015 113.9348 113.3660 112.8880 111.6215 112.0395 111.2391 110.8002 110.4537 110.2252 110.1412 110.2043 110.4077 110.7200
118.7200 118.7121 113.8952 113.9214 112.1463 111.4287 110.7251 109.8279 110.8374 111.0836 105.6087 107.8118 104.7643 121.7038 115.7286 104.6678 105.9316 105.3281 121.4872 124.0892 124.2142 121.3609 114.5800 124.4737 123.5531 117.8297 123.0199 122.8983 122.8224 122.5604 123.0758 120.2122 100.0142 101.2265 101.8671 100.7448 121.5453 97.6028 119.6691 119.1160 118.9707 118.5415 118.1599 117.7169 117.2577 116.7774 116.2871 115.7582 115.2185 114.6475 114.0617 113.4455 112.8096 112.2001 111.5384 110.8737 110.2744 109.7303 109.3101 109.0124 108.8942 108.9736 109.2401 109.6400
128.2000 123.2231 123.1362 121.2524 118.0679 109.9062 109.7736 107.7326 109.8242 107.8246 109.6564 106.1672 109.3437 106.1596 118.4225 115.3804 124.6187 128.2858 126.6479 125.9505 125.7992 126.4710 103.3792 121.5679 122.1992 124.1094 123.5874 123.0325 122.7937 122.6078 121.6046 118.9108 105.5752 106.1937 100.0045 105.4852 123.3639 112.7373 121.0938 119.0026 118.8301 118.4238 117.9886 117.5354 117.0525 116.5525 116.0332 115.4800 114.8963 114.2830 113.6403 112.9604 112.2622 111.5140 110.7581 110.0031 109.2532 108.5702 107.9960 107.6029 107.4405 107.5553 107.9115 108.4300
128.1900 122.9050 123.6094 114.6111 111.5543 109.0370 108.5049 108.7123 107.7962 107.3628 106.0171 103.7919 111.0699 103.8139 108.5156 106.0416 124.1809 119.5672 120.8759 122.4787 117.6145 118.4369 126.0586 119.0151 119.0386 122.5708 123.0142 123.0093 122.6307 122.2156 122.2851 121.8840 125.6236 99.6998 108.5011 120.6700 108.4206 119.6169 119.9618 119.1241 118.7414 118.3191 117.8423 117.3694 116.8763 116.3524 115.8053 115.2191 114.6072 113.9502 113.2524 112.5063 111.7166 110.8782 109.9950 109.0753 108.1562 107.2619 106.4816 105.9237 105.6994 105.8636 106.3685 106.9600
116.6200 121.2751 117.8171 118.6409 110.0330 110.4877 110.1673 109.8148 106.7742 105.9096 106.0157 107.7844 103.3068 103.0836 116.0869 118.7805 121.4809 123.0895 115.6295 113.4310 109.7331 110.5471 125.7738 110.5452 119.9596 122.6428 123.1383 122.9986 123.2500 124.0205 122.0717 121.4523 119.3521 118.8168 120.7954 121.1996 119.7839 119.8316 119.4364 119.0058 118.3286 118.0270 117.7186 117.2359 116.7197 116.1815 115.6108 114.9947 114.3483 113.6430 112.8979 112.0891 111.2130 110.2741 109.2517 108.1583 106.9963 105.8190 104.7221 103.8740 103.5076 103.7698 104.5558 105.2000
117.8400 117.9331 109.4102 109.5290 110.2295 110.8971 110.3379 106.4036 106.6017 106.3920 105.5406 104.9671 106.1628 104.8022 103.1113 108.4911 113.6401 117.5968 127.2693 106.5314 120.6137 124.2317 124.2997 125.5552 116.6443 127.2145 122.7762 123.0082 124.7911 109.9127 123.1497 121.5735 118.6518 103.8524 112.4446 122.2129 120.1475 119.7593 119.3758 119.1047 120.0563 118.8602 117.6245 117.1151 116.5955 116.0363 115.4472 114.8057 114.1303 113.3933 112.5995 111.7276 110.7732 109.7223 108.5563 107.2560 105.8180 104.2408 102.6402 101.2352 100.6023 101.0567 102.3666 102.7100
117.8300 117.2304 117.2558 117.1652 117.1206 112.4769 113.1541 109.9197 112.0586 112.6537 111.7311 104.4696 112.5310 106.4032 105.8085 101.0891 122.9629 120.4587 124.8097 125.3777 122.7638 121.6563 122.3074 123.5882 124.0714 125.4607 124.0310 122.6218 123.5918 106.6398 123.0569 121.2008 121.7473 97.3126 95.0055 104.1434 119.4584 119.4929 119.3153 119.3600 112.4004 112.3788 117.6793 117.0768 116.4969 115.9223 115.3170 114.6661 113.9640 113.1905 112.3562 111.4377 110.4133 109.2657 107.9616 106.4580 104.7063 102.6291 100.2034 97.6491 95.9483 97.2322 99.7894 102.7100
112.5100 113.6750 113.0147 113.1365 112.9431 110.9896 112.4344 110.4964 108.4121 106.7687 107.1893 104.0154 116.5471 114.6137 105.2690 121.1667 126.1558 126.3084 125.0724 124.6860 124.8142 124.7338 124.4568 123.6878 123.9540 125.4199 108.5656 124.4684 123.6781 120.0361 122.8580 122.4886 122.8035 122.1060 116.8571 115.5205 115.2351 120.5178 119.2718 118.8748 117.3548 114.2921 117.8200 116.9833 116.4308 115.8566 115.2332 114.5672 113.8468 113.0543 112.1951 111.2384 110.1646 108.9425 107.5277 105.8538 103.8065 101.1672 97.6671 92.0225 89.0829 91.2133 96.9119 99.3200
110.4100 110.7188 110.1004 109.7606 108.9468 115.8357 108.4106 108.9158 106.9811 104.5832 104.5281 104.6021 120.6703 110.1786 123.8330 126.7025 125.2981 125.2506 125.0063 124.7542 124.5311 124.3171 123.9671 124.6478 124.8817 108.6250 108.1382 107.1499 114.4575 122.6585 121.7349 122.8023 108.5787 106.0289 102.8005 117.5782 99.0718 112.3852 119.3740 118.7941 118.5902 118.5220 117.6495 116.9556 116.4023 115.8177 115.1935 114.5179 113.7927 112.9930 112.1174 111.1388 110.0445 108.7783 107.3069 105.5405 103.3084 100.2979 95.7492 87.7232 84.3301 86.8188 94.5277 98.9900
109.9100 110.8802 110.9218 110.5511 110.4837 110.6145 109.1789 109.4060 107.3189 104.7696 104.7595 103.9601 126.7951 122.9016 123.7752 117.4910 126.5085 123.7491 125.0271 124.8220 124.5748 124.0554 125.7664 109.6257 126.7483 106.8701 121.7160 121.3767 122.3118 122.2973 121.8999 122.0141 122.3542 104.5044 97.8822 114.9324 96.9118 118.9295 119.1318 118.7558 118.3942 117.9232 117.4608 116.9499 116.4095 115.8220 115.1992 114.5231 113.7993 113.0007 112.1249 111.1476 110.0548 108.7980 107.3338 105.5704 103.3702 100.3932 96.0773 88.4446 85.4004 87.5139 94.8594 99.0500
123.4500 105.0644 105.9907 105.6904 105.6568 105.3917 105.2077 105.0915 104.8396 104.7172 103.6710 114.7548 108.9881 122.0240 104.2838 114.2697 136.3211 128.2542 125.0028 124.8012 124.5831 124.3108 124.3234 123.7352 124.4811 123.6425 123.0110 122.8431 122.5617 122.3370 122.0798 121.3307 117.2733 98.2914 101.3694 118.6722 120.3345 119.2737 119.1433 118.8808 118.4376 117.9752 117.5018 116.9843 116.4459 115.8622 115.2491 114.5827 113.8649 113.0844 112.2200 111.2651 110.2082 108.9958 107.6036 105.9586 103.9607 101.4584 97.8340 92.8720 90.4933 92.4045 97.6400 99.4900
127.3100 115.8134 105.1685 105.8255 105.8129 106.3880 105.3506 105.2649 104.8764 104.9438 108.6950 114.2461 111.9708 101.9849 126.2974 114.2639 130.1916 123.1539 124.8943 124.8913 124.5205 123.4134 123.1502 124.2691 109.4601 127.1317 121.9388 122.8479 122.4333 122.3044 122.0938 121.6322 121.8267 122.9454 121.6170 120.2540 119.9299 119.5413 118.5102 118.8739 118.4941 118.0344 117.5505 117.0475 116.5121 115.9470 115.3401 114.6941 113.9920 113.2332 112.4010 111.4890 110.4804 109.3493 108.0726 106.6076 104.9252 102.9363 100.7024 98.6379 97.1557 98.2134 100.3373 102.3000
126.3600 121.5469 105.6332 106.4274 107.9830 108.7747 108.5747 108.4342 104.9150 104.5592 103.2463 115.7006 113.3162 117.6445 124.6366 118.5132 125.0913 126.0087 120.6367 125.5581 124.3990 125.5317 118.3976 123.6115 109.8648 110.2977 130.8461 123.7336 123.5377 122.9744 122.1114 121.6851 121.4373 116.6596 120.8258 120.5655 120.1530 115.3751 118.1535 118.7916 118.5692 118.0978 117.6284 117.1434 116.6318 116.0676 115.4709 114.8460 114.1625 113.4434 112.6487 111.7954 110.8541 109.8313 108.6916 107.4362 106.0598 104.5882 103.0758 101.7927 101.2431 101.6495 102.8510 104.8200
108.3400 105.0786 108.8516 108.9872 108.4214 109.3322 109.7403 107.5329 104.8124 107.8159 105.8228 114.1291 118.5063 117.0594 126.8692 124.8455 125.4584 125.2858 125.4805 123.0014 120.8442 120.0829 125.8267 124.5728 114.5535 121.1303 128.1273 123.6143 114.7940 123.1079 122.1229 121.4226 121.2016 114.5017 121.4592 120.7508 120.1753 120.3327 119.6210 119.0823 118.6342 118.2205 117.7763 117.2267 116.7020 116.2100 115.6460 115.0385 114.3931 113.6954 112.9512 112.1631 111.3143 110.3911 109.3967 108.3470 107.2125 106.1091 105.0932 104.3211 103.9850 104.2218 104.9490 105.1200
108.6400 115.2342 111.5389 111.2969 111.6344 110.4532 109.8103 108.7260 109.5165 108.8335 111.2431 115.2284 129.3839 111.5765 127.1065 125.0961 125.5868 125.2304 125.4164 121.5402 114.2673 115.8839 116.8005 123.9150 124.1479 122.9440 106.7077 122.0387 108.3450 123.4487 122.1941 121.8084 123.2315 115.0916 122.3649 120.5575 120.2784 119.7212 119.4740 119.1430 118.7245 118.1769 117.7294 117.7723 117.0787 116.3800 115.7893 115.2722 114.6625 114.0417 113.3843 112.5958 111.8270 111.0062 110.1577 109.2434 108.5613 107.8142 106.7995 106.2718 106.0620 106.2176 106.7073 106.7200
124.3500 125.9995 116.5600 115.9364 116.6505 114.1218 111.6591 111.9618 104.9671 105.1917 112.2867 122.2880 125.4528 120.4213 127.9195 125.0110 125.5424 125.3321 125.1315 124.6641 120.8864 126.3136 119.2683 125.0948 124.4619 125.8498 114.4890 128.1837 124.7186 122.0473 122.1125 121.7640 122.6882 99.8371 126.4914 119.5916 120.2599 120.0275 119.6573 119.2475 118.8998 119.4834 118.7438 114.6164 116.9134 116.8290 115.8603 115.5865 114.9438 114.3219 113.2822 113.0805 112.3643 111.6488 110.9184 110.2257 109.5166 105.8927 108.5623 107.8965 107.7436 107.8553 108.1944 108.3700
127.9600 121.1547 117.1202 110.3840 109.5839 108.9829 106.1414 105.6900 116.2974 118.3020 123.6089 125.5858 127.5379 126.7893 125.8109 125.8967 125.5398 125.4750 125.1561 125.8767 125.3645 119.8748 125.0814 111.5239 123.2068 108.7991 110.5881 106.9171 125.3333 123.8590 122.0790 122.1008 123.7237 105.8410 109.0166 110.9753 120.7554 120.1706 119.7553 119.5129 119.4644 109.8138 116.7133 116.1944 118.6489 110.7119 116.9092 115.8428 115.2606 114.6908 113.8137 113.5620 112.9268 112.2987 111.6745 111.0260 110.9034 108.4193 109.8400 109.2510 109.1525 109.2324 109.4814 109.6100
113.7600 115.9199 115.6988 114.7372 112.9457 112.3978 110.5910 113.5255 119.3080 115.0023 123.7074 125.5723 126.1567 126.1435 125.8447 125.7560 125.7644 124.8181 124.3814 124.7993 124.6086 119.2592 123.5239 116.9301 123.8799 116.6330 114.7428 118.0584 106.7953 119.6276 122.0924 122.1428 124.3662 110.7352 111.1200 119.3512 120.5914 120.2473 119.8374 118.6135 120.3749 95.1188 119.7897 102.4241 111.0584 104.1604 117.7239 116.0628 115.6270 115.1415 114.6374 114.0348 113.4909 112.9463 112.4239 111.8791 111.3870 110.9802 110.6623 110.4509 110.3641 110.4262 110.6262 110.7000
116.8800 116.5351 118.4045 117.5875 118.8203 116.9530 115.1797 111.9031 117.0370 120.3175 136.7826 127.9288 126.8751 125.6995 126.8845 126.1360 125.1920 129.2010 126.4910 124.8497 126.6039 110.5151 130.9179 124.9228 123.5401 124.4947 125.2070 123.8766 118.3137 122.4400 122.4068 123.0160 104.2753 119.7437 121.9776 121.2260 120.6949 120.4333 120.0273 122.2421 102.1302 96.5566 101.4045 95.8608 117.4438 114.9592 116.9769 116.4330 115.9855 115.5124 115.0278 114.5450 114.0548 113.5707 113.1073 112.6728 112.2670 111.9306 111.6664 111.4888 111.4263 111.4773 111.6247 111.6500
126.6500 115.6562 117.4531 117.2954 116.5048 120.1281 114.1595 119.3807 124.9827 107.9140 123.3219 111.4673 128.1442 128.5323 106.6482 129.2117 126.5880 122.1675 119.8981 124.3441 125.0504 123.0018 121.7048 123.6654 126.4624 125.4882 123.3459 123.4452 123.5690 122.8095 122.7053 122.9816 119.4170 122.0585 121.5363 121.2987 120.7952 120.0896 121.8922 97.8849 98.0935 97.1613 100.9902 106.1415 118.9332 117.7844 117.1575 116.7895 116.3557 115.9151 115.4825 115.0410 114.6042 114.1770 113.7735 113.3980 113.0653 112.7824 112.5626 112.4274 112.3778 112.4111 112.5392 112.5100
126.6600 116.5766 117.8082 116.5172 110.9548 107.4311 106.1418 105.4612 106.0636 102.5401 118.2772 100.0726 126.5782 109.4362 112.4016 111.5023 103.7954 116.0677 120.8092 125.9902 125.1307 128.6161 108.6106 125.9766 123.7447 124.4786 123.5805 123.3569 123.1545 122.9299 121.0188 113.1310 123.1718 122.1760 114.4982 117.2132 121.0658 120.9246 121.1363 119.3545 118.0107 97.2872 96.9136 119.2473 117.5928 118.0420 117.5019 117.1184 116.7240 116.3269 115.9287 115.5342 115.1470 114.7621 114.4266 114.1056 113.8048 113.5643 113.3803 113.2726 113.2252 113.2571 113.3666 113.2900
107.3000 107.3862 107.3471 106.1350 106.9936 106.8309 105.3515 105.3837 104.9894 113.0192 114.0940 109.3892 117.9361 116.7833 107.0379 112.5318 114.5779 109.9487 124.9378 103.0668 127.0606 114.0502 111.5943 125.5500 123.8459 123.7294 123.7280 123.4458 123.1746 123.2049 121.9838 106.6645 121.3131 121.8317 121.6276 121.5135 122.1800 108.3684 120.8798 119.5578 120.3506 120.2157 115.3912 110.0253 118.4843 118.1946 117.8184 117.4594 117.0957 116.7303 116.3674 116.0033 115.6732 115.3453 114.9819 114.6491 114.4798 114.2994 114.1333 114.0440 114.0055 114.0304 114.1184 114.0100
110.1000 107.5354 107.2524 107.4947 107.4464 105.5304 106.5907 105.1702 105.2787 104.5811 107.2470 106.8896 107.8889 115.3422 108.3372 124.6129 105.5132 104.3419 123.4386 112.6297 122.9930 123.5466 108.4186 125.7617 123.8170 124.0817 123.8227 123.6798 123.2591 119.1842 122.9590 108.4910 124.2732 122.0451 120.5593 117.6508 121.2904 121.3028 120.8074 120.6021 120.7517 106.6467 110.6373 100.6560 113.1658 118.9447 118.1072 117.8067 117.4696 117.1372 116.8000 116.5141 116.1621 115.7445 115.7592 116.0179 115.2466 115.0123 114.8531 114.7443 114.7144 114.7432 114.8121 114.6700
110.0100 106.8448 107.6657 107.8507 107.0070 105.2831 112.9299 104.8119 105.7512 106.4851 119.1615 103.2975 117.5325 106.4505 105.9492 108.3137 111.7854 108.5576 106.0348 107.3123 126.0409 100.7278 116.9887 123.5997 124.1834 124.1145 123.7503 124.8102 103.7008 109.4994 122.4220 122.6402 122.8219 122.6953 118.3957 118.8677 121.9386 121.0367 120.9173 120.6128 119.7657 121.4392 96.6994 110.3563 113.7137 119.0337 118.4142 118.1362 117.8368 117.5270 117.2221 117.3558 116.7551 116.3985 115.9245 108.3865 115.9550 115.3112 115.4822 115.4064 115.3726 115.3971 115.4615 115.2800
107.8300 107.1519 107.0550 108.1079 107.3125 106.3839 104.9013 104.4882 105.1837 103.8690 108.0597 109.5141 121.0858 117.3909 117.1100 110.0251 116.3440 114.5303 118.5649 111.1383 112.7415 109.0768 111.7476 126.1799 124.2063 124.0556 123.8117 123.1201 118.5641 115.2069 123.2775 123.8433 120.1417 118.9424 115.5607 121.3717 121.3336 121.0313 121.1015 121.0931 121.0824 105.8028 101.4494 102.9295 102.6629 120.6099 118.6557 118.5228 118.1979 117.9190 117.6226 117.3639 115.6228 116.8926 117.3561 114.0508 112.7446 116.2732 116.2110 116.0129 115.9845 116.0048 116.0672 115.8500
107.8300 108.1454 106.7485 108.3124 107.7183 105.9605 106.6044 110.6050 104.8585 106.8433 105.2888 121.3528 120.4394 116.2879 118.7626 129.0905 128.0013 117.9010 112.3442 113.9320 112.2934 123.4790 116.6040 125.0971 124.9486 124.5286 123.9657 115.9731 115.6733 108.4785 119.2031 119.8096 115.6245 123.1025 118.0574 110.5767 113.4187 123.1473 121.1157 120.7520 111.9846 100.1576 95.7155 121.8341 121.5824 119.2375 119.0432 118.8070 118.5495 118.2892 118.0228 117.9588 116.9138 117.5486 116.6537 110.3395 112.2606 115.3714 116.7558 116.5796 116.5579 116.5780 116.6314 116.9000
109.6700 108.5495 107.6776 105.5754 106.2663 105.1640 103.2879 111.8745 110.8509 109.5739 109.5277 121.0905 127.6549 122.8080 120.8214 126.1630 125.7355 129.5461 120.8745 132.8791 117.5533 112.3066 115.4119 124.9602 128.5940 114.4379 125.9683 101.0160 103.1801 126.4623 119.2618 126.6442 123.7800 122.6815 99.3023 100.0587 94.9126 122.9189 120.7505 122.4674 100.3261 98.5103 110.7412 121.3636 117.9190 119.5531 119.4387 119.1769 118.9088 118.6543 118.4433 118.1866 118.0869 117.8229 117.1804 118.1176 117.8093 117.0252 117.1864 117.1424 117.1117 117.1145 117.1623 117.3700
107.6400 109.5893 106.9278 114.8616 112.6190 109.7272 121.3632 102.6484 118.1349 105.3359 110.6741 119.4323 127.6855 127.3309 124.1462 126.4470 126.8582 112.3940 114.3786 114.8061 120.3703 116.8059 126.9882 124.1037 127.0578 119.8290 124.1213 114.6708 102.8499 124.0905 123.1185 127.5289 122.7009 123.4529 104.8943 116.4725 113.4462 119.2445 121.6027 122.5642 100.8723 103.8594 124.2722 104.4446 119.3161 119.8761 119.6959 119.3013 119.2488 119.0376 118.8142 118.6123 118.4044 118.2614 118.1434 117.8072 117.7702 117.7484 117.6459 117.5463 117.5673 117.6200 117.6584 117.8300
106.5400 107.2200 106.7010 111.2307 113.6114 108.5222 119.6574 108.4812 110.5056 105.6071 103.3311 110.8312 125.3297 127.5516 127.6155 127.0734 128.2500 108.7390 129.4683 127.5327 130.5273 113.3967 130.9421 126.0713 127.0661 117.7194 109.9230 107.0316 110.3089 124.6301 120.9785 121.9105 123.3556 123.1575 121.5017 114.9272 106.6309 120.3415 121.6081 121.6609 116.4650 112.1767 113.7688 122.0637 103.0481 118.4990 119.8151 120.3936 120.8672 119.3493 119.1789 118.9963 118.8208 118.6562 118.4930 118.4093 118.3748 118.1961 118.3432 118.3905 118.0238 118.0978 118.1338 118.2500
106.6600 106.6619 107.0750 105.5729 105.9796 105.2177 107.9637 105.4105 104.6558 105.4902 119.3046 114.2878 121.3080 111.7797 128.5927 119.3890 115.4081 125.9003 130.3343 108.5967 108.2032 120.2500 130.1058 121.8432 112.4442 104.0613 109.4303 103.9003 102.1580 125.5757 126.5091 123.5219 123.3280 123.0447 122.9432 121.8903 119.6371 126.9458 121.6698 122.5842 124.4942 109.4246 122.1833 120.9003 111.9352 105.1431 101.1970 117.6984 119.8160 119.7240 119.5340 119.3735 119.2203 119.0612 118.9072 118.6306 118.0546 118.7651 115.8950 118.1099 118.4318 118.5526 118.5798 118.6600
106.6700 107.5371 107.6228 117.4742 126.9070 120.4787 126.9499 104.6591 113.6686 111.0916 114.6098 106.4719 116.6426 124.9153 126.3149 125.3851 127.0478 110.6372 107.8748 119.1228 124.9163 124.4191 110.3338 103.7685 107.5940 108.3133 102.4383 107.8108 125.1683 124.0749 123.6692 123.5846 123.4557 123.2626 123.0077 123.2367 124.2814 116.7040 121.9837 121.7728 98.2149 104.2763 118.7103 122.8040 110.5461 108.7390 112.1298 119.3493 120.0633 120.1257 119.8698 119.6988 119.4596 119.4644 119.3497 118.9349 118.9969 118.9164 118.3139 119.1227 118.9303 118.9762 119.0078 119.0500
125.3200 128.4895 125.2839 124.2916 127.4369 127.8800 129.9018 114.7193 115.4008 109.0352 105.7835 115.1308 134.6850 125.3680 128.6962 111.0785 129.1054 113.8579 125.6563 127.1385 114.0867 115.4453 102.4499 107.6853 125.9187 107.3790 125.1075 104.0006 109.7066 125.6964 123.7982 123.8184 123.6275 123.4166 123.2627 122.9096 122.8249 105.9587 124.2830 123.8464 111.4722 100.6168 109.7201 104.7799 117.7915 123.0377 122.3860 120.2538 120.4695 120.0787 120.6311 120.1597 120.6503 119.6732 119.5507 119.6350 119.8525 120.4485 119.3765 119.4033 119.4401 119.4206 119.4015 119.4200
132.0400 126.5956 128.6526 128.5855 128.4655 128.3287 127.6785 128.2859 106.0103 116.6896 112.5988 107.3120 124.8855 103.2274 116.9314 111.3249 126.3647 125.9961 126.4974 125.7795 115.4289 110.5298 111.6227 125.2871 125.8444 121.9133 102.4977 110.9975 126.3975 124.2121 124.1583 123.9469 123.7824 123.5890 123.4025 123.1201 124.0101 122.3151 123.3774 121.8540 123.2861 105.0649 101.6774 109.6929 110.3881 95.4832 119.2756 121.6261 121.3938 119.9877 114.8920 122.0647 113.9095 121.3251 120.0323 120.2797 116.1535 114.4645 120.1245 119.7192 119.5101 119.6975 119.8301 119.7800
128.8200 129.0398 128.6079 128.4161 128.3455 126.6394 125.0766 129.0995 120.9929 116.4530 129.9847 126.5527 115.9521 111.4184 123.2139 125.2328 131.1235 126.7834 127.1585 117.9132 126.5786 113.3783 123.3793 106.7588 107.6797 100.1806 114.1678 106.4448 124.7239 125.2428 124.2247 124.1470 123.9289 123.7561 123.5596 123.4449 123.1686 122.9249 122.9071 122.4118 123.8075 122.4802 102.6594 106.3666 97.4594 87.4711 104.0396 119.3020 119.8647 110.2645 119.5087 122.3503 108.7875 121.9666 120.2143 121.0606 108.3862 98.4611 121.6396 120.0855 120.6433 119.9843 120.1968 120.1300
128.8400 129.0723 128.6444 128.4832 128.5357 122.4090 129.1730 130.6473 127.9779 126.9802 127.7164 117.3346 127.0188 128.1948 108.4724 109.5464 113.1771 135.8891 127.0000 126.2001 128.1544 116.1445 113.2107 108.3200 113.5867 107.0743 105.8210 115.1022 118.9275 127.6961 124.6553 124.3795 124.0611 123.9140 123.7367 123.5561 123.3988 123.2209 122.9266 121.3092 110.0196 111.4281 99.9697 101.0215 100.0393 112.1437 119.2763 96.5154 120.1689 120.8592 121.2601 111.4483 118.2114 120.5810 120.7917 117.1177 99.0547 108.4765 120.2092 107.9446 108.3045 99.5884 121.1223 120.4600
130.8100 130.8100 128.6700 128.5800 128.4900 128.2900 128.2000 128.1000 121.5700 122.7800 119.3200 127.4900 127.3900 127.1700 127.0600 114.6900 129.7400 129.5600 126.5000 126.2600 126.1400 126.0200 125.7900 109.0500 104.2000 112.7200 114.4600 115.0700 117.8100 120.3300 124.4600 124.3200 124.1800 124.0300 123.8800 123.7400 123.6000 123.2800 123.1400 122.9700 122.8400 113.9600 104.7800 104.7800 106.5000 110.9700 121.8100 121.8100 121.6700 121.5000 121.3000 121.3200 121.1200 121.1700 120.9500 120.9800 102.1000 120.7500 104.0700 113.7900 112.8800 100.8700 101.0700 120.7800
