121.4000 121.4000 117.8800 114.1200 123.6300 119.8600 117.6100 117.2200 115.8600 105.2000 108.8200 115.2400 118.3800 117.9700 105.2900 119.9600 117.0600 117.4600 120.9300 112.8300 112.1000 101.8600 107.1800 107.1800 107.5400 108.6900 107.6400 106.4000 103.6100 102.1500 101.5500 103.9100 112.6000 107.6500 107.6500 121.7000 121.5300 121.3300 121.3300 121.1300 121.1700 120.9500 122.4100 120.7300 120.7500 120.7800 120.7900 120.8000 116.3400 120.7900 120.7700 120.7500 120.9800 120.9800 120.9400 121.1700 121.1300 121.3300 121.5200 121.4800 109.4900 121.8700 122.0200 122.0200
121.0400 120.4624 116.5982 115.6562 117.3735 119.7666 120.1484 117.4819 117.1367 112.6141 108.6495 105.6375 103.0042 112.9299 112.7584 119.3807 116.8554 117.4685 115.1419 102.4704 106.5123 109.3135 109.7840 107.7726 107.2230 105.5331 105.1950 103.6488 101.0970 101.6022 100.8300 106.9344 104.1108 103.3091 105.5389 101.8418 111.3011 110.2162 120.7146 117.5102 118.9481 120.7749 120.7172 120.5851 120.5643 120.5303 120.3976 122.1333 107.6810 122.5033 120.4367 120.5601 120.6467 120.7199 120.8023 120.8903 121.0054 121.0832 121.1575 120.2398 118.2293 121.6449 122.0502 122.0200
125.8100 116.9675 115.8724 119.7394 112.9099 113.3398 109.8617 118.3689 116.1098 115.9520 113.2722 107.3098 108.4635 114.3896 112.1863 115.6846 116.6519 116.5079 111.7656 110.6277 108.1278 107.0593 110.6146 106.3512 106.0338 103.8219 107.8357 108.5306 109.4272 102.1240 103.1192 112.8964 113.2814 107.6649 99.6006 102.3155 114.7581 128.7575 121.5208 118.3537 120.7948 120.4712 120.3425 120.2753 120.2129 120.0866 120.0941 121.7308 108.6889 121.5366 120.1694 120.2354 120.2967 120.3762 120.4681 120.5697 120.6561 120.8426 121.0420 121.2502 120.4135 122.0134 122.8950 121.7300
116.2700 119.2555 112.9621 115.3312 112.2301 110.7707 107.0686 112.3633 116.8907 116.6506 116.3634 116.1123 109.5994 113.2303 112.9748 110.4652 118.1077 117.9322 112.4714 110.2288 105.4207 105.2975 105.0720 110.7813 103.6199 103.0537 105.6742 113.1043 117.1955 109.7996 104.2888 111.0409 120.4112 109.5666 108.4685 108.4419 115.1678 122.2946 120.0573 120.6495 120.1348 120.0298 119.9859 119.9050 119.8381 119.8727 119.0542 119.4481 115.5280 120.4894 119.7408 119.8657 119.9379 120.0241 120.1009 120.2165 120.4308 120.1353 120.0099 121.6489 121.0307 119.3263 100.0904 103.1900
120.5800 109.6085 122.3803 118.4032 112.6703 110.5618 112.8917 109.9266 110.5102 109.2609 114.6612 101.3863 115.7385 103.0644 101.9734 107.5683 113.0974 114.4241 109.8660 111.7373 119.7559 116.9501 105.8205 108.7914 106.3925 102.8403 108.4116 104.8355 103.7366 101.5092 115.5286 115.4124 121.2727 111.3914 111.1107 118.1549 116.4110 120.4195 120.0766 119.8808 119.8399 119.7246 119.6030 119.5220 119.4247 119.7020 115.9267 115.0376 111.0196 117.6243 119.4602 119.5415 119.5586 119.6497 119.7939 119.7561 117.9761 121.5655 124.5701 115.5613 105.7136 113.1697 102.9361 108.5300
120.2300 121.7613 119.6074 114.3419 117.6925 109.2243 109.9272 106.3473 115.5337 104.4544 111.6886 116.6014 103.8766 110.0209 107.7734 103.4050 106.7445 107.2459 109.7658 110.0982 114.8867 110.5020 111.7444 114.0580 108.6870 107.0576 106.6098 102.4326 100.7530 116.1324 120.1176 103.6502 120.3663 124.3588 104.5525 116.2049 120.5480 119.8352 119.7244 119.5996 119.4561 119.3241 119.2263 119.1633 119.1117 118.7704 117.5072 112.3395 105.8546 114.7455 119.2484 119.1861 119.1623 119.2626 119.3777 118.0007 105.2745 119.8277 114.7360 110.6302 113.4913 110.0057 118.8207 120.7600
120.6700 122.9038 113.7484 115.1167 111.3565 110.2495 120.2471 114.0720 111.8267 107.2595 111.1032 107.8469 110.6324 107.0569 101.7802 109.7851 107.8236 106.6342 106.6651 110.1850 115.1350 102.8436 111.2422 113.2169 112.5628 105.0223 104.3457 103.9524 110.6285 120.9671 133.7832 103.4760 99.2379 97.8621 111.2443 122.2821 119.2263 119.5566 119.3923 119.2182 119.0690 118.9231 118.8015 118.7465 118.7348 119.0385 115.9706 91.7296 106.9216 119.3581 118.7081 118.6677 118.7599 118.8582 119.0523 119.5300 119.5214 118.3997 110.3343 118.9229 116.4733 120.0649 120.6849 120.4000
121.8400 125.3601 112.2948 121.7346 123.9534 122.4244 109.7103 107.5608 117.2223 112.2036 110.7443 102.0588 106.5483 109.0256 110.8541 106.0361 109.2967 108.7338 107.0971 106.4688 103.5715 110.7507 113.8022 112.9148 103.4899 104.6415 102.1364 105.7760 104.1781 121.3984 120.5736 120.7347 115.8394 104.1636 120.0838 119.2894 119.4595 119.1985 119.0070 118.8268 118.6933 118.5597 118.4141 118.4360 118.4989 110.2101 119.8304 106.0877 119.1320 116.8047 118.1922 118.2550 118.3271 118.4418 118.6296 118.6553 118.5612 119.9024 119.0153 119.3630 119.6686 122.5639 118.2825 120.3400
121.1200 122.5383 121.9299 116.4727 116.3930 116.1842 116.3404 109.6156 109.1733 110.3567 105.9262 102.5614 102.3482 103.6001 106.9477 115.4516 108.7649 108.6321 109.6104 106.9123 106.1414 102.0606 110.5971 110.6064 109.3269 108.7446 106.2007 109.8733 107.3752 117.9977 117.5611 100.2556 118.7966 105.0596 119.6322 119.2081 119.0488 118.8325 118.6386 118.4316 118.1779 117.8633 117.7696 117.5643 118.4959 106.8797 112.5584 118.3439 123.6569 117.4087 117.6864 117.7808 117.8930 117.9744 118.3119 118.5272 118.6560 118.4544 118.9836 119.1304 119.2788 112.2946 117.8910 120.0200
118.8000 120.6834 123.4960 117.0154 120.0514 115.4925 115.2969 115.1516 116.4002 108.9026 108.5702 104.0187 103.0889 115.2466 116.5671 112.2042 109.5536 109.5683 110.6283 110.1503 107.1245 104.9195 101.3754 111.1580 110.9825 116.9686 108.2236 108.8545 116.4994 123.4038 120.2361 107.0500 99.1802 118.1370 119.7930 118.9039 118.7021 118.4546 118.2381 118.0549 117.7810 118.6578 116.1446 119.1625 116.3082 116.7856 114.9162 116.8311 117.0575 117.0778 117.1886 117.2937 117.3359 117.6439 117.3668 113.7351 117.9537 118.3857 118.5595 118.8083 118.9219 116.8974 112.8985 119.6300
119.9900 119.2790 119.8707 121.2485 117.4452 115.7667 116.3862 115.3977 117.2954 112.8980 115.1214 108.2549 101.2397 108.5082 110.0916 108.2063 110.4910 108.7043 110.8151 110.2492 107.5958 103.9652 104.8309 104.8710 115.9969 118.5207 123.4703 119.4676 121.9252 120.0023 120.2000 120.1019 99.5746 108.7782 119.4988 118.6727 118.3175 118.1137 117.8168 117.5212 117.1584 118.1212 100.8041 118.8418 97.6217 117.8244 116.9460 116.6460 116.5588 116.5874 116.6633 116.5434 117.9848 115.7576 118.3449 116.3890 114.8474 117.7744 118.1751 118.4307 118.8579 114.6366 106.0203 119.5600
120.0500 119.2540 120.5162 119.5340 120.8437 114.5379 116.1845 113.9908 118.6977 114.2339 116.2535 115.2418 109.4762 107.9235 104.2000 99.6869 107.7281 109.3086 108.4978 110.7252 103.4579 105.3408 102.5381 106.8714 110.6977 112.4623 120.7817 120.7548 119.7261 119.9683 118.8110 118.3200 101.0014 108.1315 117.0400 118.0815 117.9355 117.3984 118.0605 117.4827 116.4191 118.0258 96.2481 115.1066 117.4668 117.1301 115.9769 115.9416 115.9724 116.0214 116.1045 116.1099 115.9384 105.0672 116.7190 108.4478 123.4241 117.5578 117.8786 118.0756 118.4463 118.8883 110.2919 105.3200
117.4000 118.6381 120.8621 117.8255 108.2817 115.9326 115.1672 114.4681 115.3906 116.2420 114.8767 112.4054 113.3268 112.4334 111.7361 113.4890 103.8185 104.5147 99.5305 104.4033 110.2222 114.4921 106.8349 116.5696 121.4607 115.4308 121.1837 120.2335 120.0399 120.5054 122.2611 123.6634 98.9812 117.5949 119.2745 118.1373 117.5970 118.1387 113.5195 115.9570 115.6113 118.0009 92.5251 91.8048 115.7505 115.2281 115.3741 115.3539 115.3618 115.4177 115.5120 115.5405 116.6247 116.8851 106.3531 102.5397 117.5978 116.8653 117.3873 117.6814 117.9774 117.9963 112.2916 106.1900
117.4000 114.5344 118.5588 121.8237 110.5120 115.0637 111.8100 109.2141 116.0949 118.4380 112.0912 111.2729 111.1893 111.7293 121.4966 119.4392 105.7195 105.5408 102.2324 113.8684 107.8889 107.7839 104.2054 123.4143 114.6483 120.7645 120.9767 119.9988 119.8831 119.7522 99.4562 102.0527 106.6636 116.9760 117.7725 117.5563 117.0791 116.8359 107.8525 115.7783 115.8160 114.2202 90.4237 90.3168 116.4583 114.6824 114.7143 114.6953 114.7019 114.7605 114.8773 115.0623 115.0955 115.2054 121.5605 119.4417 115.7777 116.7917 116.9715 117.3381 117.6292 121.1563 107.3233 98.9400
115.0800 113.5953 114.6132 112.5534 118.3430 115.2930 113.2827 110.9947 114.4980 117.5033 110.4080 111.6273 110.9458 113.0467 117.8364 110.1150 111.5289 105.4903 107.4856 108.3339 99.6325 117.7419 96.8154 122.0316 96.5879 121.8247 118.0656 119.7118 119.6324 119.0554 122.6493 108.8337 113.7453 110.0108 118.2357 117.0824 116.7920 116.8421 117.2443 116.6864 115.1277 116.3986 114.0041 113.3417 115.4524 114.0163 114.0195 113.9750 113.9850 114.0589 114.1922 114.3735 114.6612 114.8623 114.2440 119.1477 115.7913 116.2767 116.5746 116.8337 117.8368 110.5314 104.8843 118.2200
115.0500 116.4581 114.7055 109.3979 105.9591 113.2126 111.2397 113.0365 112.4881 112.9497 115.5019 112.8110 109.3894 109.9620 110.0328 110.7584 103.1907 104.2475 103.6324 113.1718 117.8269 125.8340 117.2060 123.8589 125.8648 121.1786 119.9231 119.5728 119.4512 118.8090 117.6678 107.6361 118.9418 115.4378 117.1133 116.8054 116.3846 115.9113 115.5736 114.9709 114.9346 113.9916 111.6145 113.9090 113.0763 113.3550 113.2407 113.1985 113.2133 113.2968 113.4540 113.6822 113.9162 114.3395 114.5830 114.9877 115.1810 115.7630 116.1428 116.5445 117.0370 115.8006 120.6565 117.8100
111.6200 112.0626 116.9820 112.4339 106.5030 109.0903 109.7709 113.6083 103.7032 106.7526 110.4041 105.0947 107.7021 110.5519 108.3896 102.7364 110.8233 105.8641 108.1769 123.3651 124.5470 120.9675 121.5112 120.9664 114.5282 119.9282 119.1807 119.5984 119.2053 118.7592 118.6601 116.6560 117.5134 117.5634 116.8095 116.4363 115.9832 115.5348 115.1402 114.6528 114.2765 113.7193 113.3809 113.1100 112.9141 112.5686 112.4032 112.3364 112.3579 112.4657 112.6558 112.9136 113.2524 113.5796 114.0087 114.4052 114.8583 115.2964 115.7321 116.1772 116.5998 117.0484 117.4087 117.7100
112.4100 111.8978 110.8925 103.7609 105.3825 107.5398 115.7295 113.8115 109.1396 110.2333 109.5559 107.5162 103.3952 103.9162 108.5661 108.3370 105.2420 104.3608 106.3015 131.3309 115.5716 122.0146 121.0577 120.5451 120.7414 120.8777 125.0298 119.2939 118.9431 118.6796 118.2227 117.7700 117.3707 116.9763 116.5297 116.0528 115.5869 115.1095 114.6218 114.1515 113.4306 113.1783 112.6989 112.3019 111.9337 111.6643 111.4737 111.3876 111.4121 111.5429 111.7796 112.0942 112.4649 112.9079 113.3591 113.8444 114.3350 114.8216 115.3153 115.7854 116.2594 116.7188 117.1615 117.2800
119.6400 119.7783 114.3244 114.4701 108.4630 103.6243 109.9414 115.7366 110.6612 105.2410 112.9864 108.4606 108.8701 108.2866 109.4988 102.4524 104.0455 108.9184 119.9248 99.2571 122.0568 121.0034 120.9281 120.8012 120.4053 112.0048 97.9104 119.3800 118.3486 118.4241 118.0256 117.6258 117.1582 116.6773 116.2116 115.7137 115.2057 114.6129 114.4639 111.7387 113.0476 112.4555 111.9484 111.4543 111.0207 110.6716 110.4319 110.3150 110.3492 110.5144 110.8092 111.1958 111.6579 112.1675 112.7072 113.2558 113.8113 114.3640 114.8929 115.4157 115.9267 116.4219 116.9396 117.1800
113.7600 113.2545 113.2963 114.1410 115.1534 116.4476 115.5751 115.0824 109.8117 105.3121 103.4684 102.8078 104.9833 101.0855 113.6093 107.0909 106.5453 108.6171 117.0901 109.6441 102.6958 118.3002 120.7850 120.4910 119.9800 121.8379 102.5453 97.0984 115.9635 118.0365 117.8753 117.3842 116.9369 116.4366 115.9255 115.3795 114.8206 114.2377 113.7336 113.0353 112.7270 111.7290 111.1412 110.5419 109.9993 109.5540 109.2477 109.0980 109.1367 109.3626 109.7317 110.2228 110.7891 111.3959 112.0347 112.6671 113.2922 113.9051 114.4929 115.0605 115.6046 116.1293 116.4260 117.0800
113.9200 113.8001 113.4301 112.8979 113.3935 114.5372 112.6853 114.8337 113.6860 111.0481 111.7609 114.0349 109.3951 106.2008 101.7080 105.2639 104.4241 109.1879 116.5456 110.2067 121.0885 122.2067 120.7955 120.3911 119.9961 120.1437 115.8620 121.0578 117.2847 118.1475 117.6448 117.0568 116.5010 116.1124 115.4729 115.0706 114.4571 113.8399 113.0601 112.4111 111.6841 111.0297 110.2816 109.5564 108.8756 108.3029 107.8820 107.6819 107.7436 108.0356 108.5333 109.1567 109.8641 110.5982 111.3435 112.0722 112.7796 113.4530 114.1030 114.7229 115.3226 115.7476 119.2954 116.6400
114.7700 114.2138 114.0505 113.8297 113.1710 112.6308 111.3546 112.1913 108.6436 112.5237 111.1629 113.7770 108.6321 103.9832 109.2918 104.3915 107.0729 120.2055 118.2376 118.1918 121.5416 120.4096 120.6970 120.2383 120.8876 115.2269 112.0392 116.3539 118.0600 117.9789 117.2902 118.0522 117.5305 116.7272 116.5503 114.7601 114.1234 113.4454 112.7380 111.9665 111.1471 110.2869 109.3975 108.5044 107.6314 106.8650 106.2787 105.9924 106.0760 106.4989 107.1694 108.0029 108.8871 109.7879 110.6547 111.4994 112.2929 113.0382 113.7439 114.4082 115.1479 115.4625 117.7722 116.5500
126.0100 117.3271 116.1027 116.2828 115.2078 112.7475 110.0433 112.6375 113.4583 111.4024 109.4245 117.6005 111.7623 113.8297 113.7984 105.9016 105.8964 121.4161 115.1980 120.0319 121.0836 121.0044 120.5476 119.7839 119.3272 103.6659 103.9162 121.2318 118.2327 117.8448 116.9123 116.6475 111.4500 117.0942 108.6995 114.8747 113.8134 113.0969 112.3087 111.4625 110.5442 109.5661 108.5117 107.3933 106.2633 105.1983 104.3263 103.8928 104.0259 104.6795 105.6432 106.7549 107.8862 108.9719 109.9983 110.9482 111.8378 112.6632 113.4156 114.1364 114.7903 115.3185 115.8073 116.4200
112.9700 111.1905 108.4830 111.6962 111.7105 111.7653 109.6824 111.7248 112.4228 110.1714 109.5015 112.9451 110.6055 109.5261 110.0958 111.4101 107.9624 119.7674 120.8150 120.0115 121.0933 120.9910 120.9007 122.0823 119.8880 105.6488 101.7728 119.5098 117.9616 117.7484 117.0072 114.7957 104.4703 115.1443 104.8086 113.3138 113.9234 112.7766 111.9522 111.0296 110.0118 108.8921 107.6435 106.2798 104.7921 103.2656 101.8715 101.1404 101.3542 102.4357 103.9298 105.4514 106.8842 108.1995 109.3949 110.4707 111.4379 112.3317 113.1420 113.8951 114.5857 115.2588 115.8179 116.3700
108.5400 119.2784 120.2441 110.4267 110.9166 110.7709 114.9531 115.0242 108.2120 113.2324 110.4013 110.1901 104.9473 105.0659 112.1076 105.3549 115.3196 115.4565 120.9353 121.7882 121.1012 120.9004 122.0756 103.0122 121.7056 121.9348 115.1716 120.8979 118.0666 117.5916 117.0845 117.0861 103.4886 117.1200 110.8268 113.9490 113.5068 112.5243 111.6600 110.6714 109.5616 108.3108 106.8781 105.2219 103.2916 101.0231 98.8007 96.9971 97.5561 99.7823 102.0501 104.1564 105.9698 107.5220 108.8723 110.0599 111.1180 112.0584 112.9207 113.7064 114.4345 115.0823 115.8285 116.3700
109.5800 105.8560 103.2313 106.8977 107.8681 107.5562 105.8575 108.7285 108.6930 113.5255 104.5698 107.1506 105.0865 102.8809 102.8697 105.6693 120.2482 116.7634 119.2019 121.3583 121.1748 120.8625 120.4435 118.2440 120.9189 101.4267 119.7550 130.3396 118.0981 117.5546 117.1094 116.5125 115.3488 115.2065 116.0742 113.9099 113.3724 112.3948 111.4578 110.4322 109.2506 107.8782 106.2790 104.3530 101.9374 98.8282 93.8443 90.3434 91.2792 96.4363 100.2314 103.0642 105.2339 107.0090 108.4944 109.7680 110.8827 111.8709 112.7699 113.5751 114.2851 115.1511 113.7260 115.8900
119.1400 118.2133 117.6080 117.3787 111.4936 112.0053 111.7802 111.7206 102.8591 120.3537 113.8515 107.0984 103.1799 101.0938 99.8339 115.9188 107.4431 122.8632 116.0650 121.6478 121.0328 120.8225 120.4242 120.3011 120.1505 117.8353 111.6487 108.3233 117.8400 117.5995 117.0592 116.5169 116.0023 115.1766 115.0796 113.5920 113.1231 112.2982 111.3407 110.2571 109.0221 107.6387 105.9451 103.8355 101.0534 97.1233 89.5038 84.9418 86.2554 93.1063 98.9960 102.3847 104.8116 106.7225 108.2793 109.6121 110.7621 111.7782 112.6895 113.5061 114.2483 114.9282 115.5041 115.8800
118.9200 118.9889 118.7487 113.0831 111.4730 110.8837 111.9370 117.2506 102.6223 113.8132 109.1095 111.5216 102.1913 108.0096 102.2507 115.1167 104.2342 123.7090 116.3354 121.3916 121.0216 120.8323 120.4879 120.0655 119.6941 119.4836 119.6386 118.6716 118.0605 117.5660 117.0549 116.5495 115.8170 115.1981 115.8738 114.2074 113.3489 112.3424 111.3230 110.3133 109.0371 107.6427 105.9377 103.8084 101.0078 97.0004 89.2357 84.8008 86.1007 92.8734 98.9376 102.3513 104.7960 106.7023 108.2704 109.6067 110.7482 111.7732 112.6748 113.5085 114.2651 114.9491 115.6184 115.8700
113.8900 113.2896 112.8556 112.6067 111.6512 111.7047 106.2638 104.1193 107.6085 107.3605 109.0854 108.0220 107.4275 106.5571 105.8062 105.7878 105.5404 124.6355 120.5310 121.5417 121.1762 120.8426 120.5362 120.1274 119.7795 119.4468 119.1095 118.5699 118.0681 117.5913 117.0709 116.2034 117.7451 94.9696 96.1038 102.5521 113.3273 112.3947 111.4670 108.4954 104.6451 108.1054 106.2654 104.2796 101.8195 98.5459 93.6042 89.6908 90.6597 96.1052 100.0750 102.9775 105.1868 106.9676 108.4670 109.7458 110.8544 111.7317 112.7721 113.5726 114.3109 114.9926 115.6235 115.8800
113.4200 119.2488 121.2760 127.7247 117.1089 118.8385 111.2423 115.0478 113.8241 112.9843 107.0984 101.8977 105.6148 103.7307 102.1302 105.7387 115.0989 121.4199 121.4785 120.7548 121.1430 120.7894 120.1515 120.6522 119.7600 118.9140 118.6289 118.4750 118.1248 117.6436 117.1312 116.5749 116.6510 116.0097 97.3159 95.7312 115.5717 112.7120 111.8801 111.0178 109.9161 108.2312 106.8074 105.1263 103.1500 100.8652 98.2789 96.3935 97.0350 99.4498 101.8775 104.0516 105.8980 107.4717 108.8358 110.0376 111.0612 111.4682 112.3669 113.6584 114.4356 115.1407 115.9126 115.9000
125.9800 126.5576 125.8070 125.6256 121.8623 112.7273 111.8730 104.5616 102.6129 108.9932 111.0135 102.3027 117.1108 115.1921 106.9024 101.7753 103.1592 121.9779 117.4514 121.0016 121.2050 117.0687 107.6707 120.7944 119.8996 112.9667 118.8883 118.4238 118.1909 117.7102 117.2484 116.6450 115.0109 115.2772 100.5667 116.4189 114.0691 111.1994 111.2769 110.8964 109.9111 108.8425 107.5709 106.1705 104.6510 103.0726 101.6119 100.8069 101.0441 102.2049 103.7650 105.3313 106.8056 108.1334 109.3396 110.4265 111.4140 112.4042 113.2341 113.8526 114.5746 115.3841 114.1698 116.3400
125.9900 125.6774 125.9813 108.7026 109.7531 111.4428 109.9825 111.3572 108.8604 111.3140 103.6666 106.2514 108.8976 115.1644 110.4861 108.0653 124.9900 121.5240 122.1955 121.6360 121.3831 111.3944 104.6324 122.3141 119.3312 120.4261 119.0666 118.7269 118.2795 117.8706 117.2091 117.2219 117.9188 113.8575 109.4925 106.7049 110.6062 102.8352 111.6081 111.3357 110.5091 109.5004 108.4287 107.2943 106.1264 104.9982 104.1174 103.6469 103.7819 104.4730 105.4914 106.6379 107.7928 108.9009 109.9455 110.9079 111.8007 112.6143 113.3614 114.0951 114.7796 115.6039 112.3875 116.3800
125.9900 126.3637 125.7763 115.9504 109.0812 110.1049 109.6228 109.5307 109.1699 109.3347 104.3695 104.8428 110.4009 104.7095 113.5443 109.2987 122.1623 122.2557 121.7867 121.8062 122.3862 122.9322 123.3235 106.8735 117.8574 118.9254 119.0719 118.8034 118.3856 117.7845 118.7546 115.8414 107.7408 104.2516 92.2662 92.2596 104.8337 110.8957 115.2375 111.5645 111.1022 110.2168 109.3159 108.3953 107.5204 106.7044 106.0957 105.8004 105.8815 106.3275 107.0348 107.8932 108.7863 109.7098 110.5999 111.4479 112.2501 113.0075 113.7246 114.3857 115.0091 115.5528 116.4471 116.4400
126.1400 120.2497 119.2442 112.8734 106.6778 105.1808 107.7257 103.8197 109.2912 107.1463 108.5960 105.1989 103.8554 110.0079 111.5923 118.4151 122.4568 120.5761 121.9017 120.7144 113.1324 120.4348 120.8750 110.9542 115.2025 119.8800 119.2438 118.9277 118.3832 119.4077 109.2402 100.5988 96.1077 94.8209 108.9129 94.4156 97.0353 93.5368 105.4760 112.7486 111.7526 110.9541 110.1668 109.4714 108.7506 108.1668 107.7280 107.5229 107.5808 107.8922 108.4100 109.0440 109.7740 110.5260 111.2777 112.0230 112.7355 113.4219 114.0725 114.6948 115.2919 115.8620 116.3911 116.9400
126.1500 119.2315 109.1300 111.0129 106.5409 105.9274 106.7961 107.3768 109.3726 109.2845 106.8219 106.3462 106.3175 108.5467 100.1164 112.2476 121.9280 117.4918 122.3607 119.0647 118.0654 121.9149 121.6299 122.0624 120.1664 120.3321 119.4215 118.9572 119.9507 106.0895 111.7973 110.4335 109.7272 94.7331 103.4263 90.1918 98.4272 119.4527 109.0546 112.9419 112.3066 111.7178 111.2156 110.3054 109.8907 109.4354 109.1140 108.9597 109.0054 109.2357 109.6205 110.1267 110.7068 111.3339 111.9663 112.6188 113.2486 113.8683 114.4585 115.0318 115.5698 116.0662 116.5803 117.0200
126.1600 125.4756 110.2794 111.2851 114.3258 115.1115 110.1854 110.3796 108.1913 110.9728 108.7782 106.2451 116.8374 108.5842 106.7349 123.1980 115.3017 121.3646 122.0719 122.5885 121.7771 121.5598 120.8245 120.3081 121.9884 122.9092 119.3785 119.1376 119.1643 113.4094 119.0586 119.1379 119.0558 91.7014 94.5188 114.9826 113.1944 115.0813 115.0455 113.5034 113.4388 111.5078 111.1630 111.3499 110.9221 110.5580 110.3160 110.1966 110.2341 110.4028 110.7091 111.1066 111.5847 112.1054 112.6509 113.2052 113.7669 114.3165 114.8606 115.3870 116.0066 116.5123 117.0176 117.0900
112.1200 114.4881 112.2728 110.1890 110.1610 108.5718 107.9858 109.6032 109.2162 109.8712 105.3285 106.8411 111.0290 122.6478 104.8435 110.4766 123.5674 122.5244 122.1820 121.7838 121.5574 121.3260 121.1086 121.0724 108.1625 117.0430 119.4258 119.4185 119.2110 119.0531 118.0192 117.6404 117.8382 113.7830 114.0309 119.8033 115.7446 115.1441 114.5709 114.0183 113.6140 110.5461 119.1065 112.7733 111.8046 111.5641 111.3713 111.2824 111.3095 111.4457 111.6814 112.0066 112.3976 112.8365 113.3041 113.7938 114.2897 114.7868 115.2789 115.7574 115.8489 116.7604 117.0663 117.5400
112.8200 112.5343 108.3508 103.1300 110.5450 110.8843 109.4264 110.1637 107.9300 106.3269 106.7991 108.7824 121.8085 115.5787 123.1341 121.8201 122.7556 122.5876 122.3078 122.0530 121.7712 121.4721 121.4167 120.7704 118.2729 120.3467 119.8568 119.5347 119.1343 118.7948 118.4436 118.0648 117.7398 117.5310 116.7765 116.4616 115.7556 115.4766 115.0712 114.4972 114.1300 115.5266 117.6043 112.3373 112.7781 112.4717 112.3187 112.2427 112.2709 112.3721 112.5653 112.8346 113.1633 113.5362 113.9426 114.3607 114.8051 115.2529 115.7026 116.1140 116.6667 118.0681 116.7188 117.6400
120.6200 115.3261 111.1733 106.8960 109.6455 109.4930 110.3762 102.9076 105.5408 105.8855 109.9304 124.4004 117.4783 120.9671 123.3704 123.0032 122.3449 124.5936 122.3094 122.1457 121.9061 121.4401 120.3127 117.3556 120.7431 120.2362 120.5859 119.5385 119.3180 119.0576 118.6686 118.3098 117.9318 117.5640 117.1438 116.7204 116.4375 116.4769 115.6902 114.4979 114.9379 113.8248 114.0114 113.7527 113.4397 113.3094 113.1677 113.0996 113.1035 113.2103 113.3757 113.6007 113.8815 114.1956 114.5513 114.9215 115.3215 115.7196 116.1176 116.5129 117.0314 117.2080 117.7323 118.0500
118.8500 115.7975 111.0441 111.0892 111.7904 110.9295 111.4136 107.0884 107.9127 109.3019 111.4768 123.2513 113.6232 121.3114 122.8369 106.5499 121.9347 122.9459 122.7517 122.2316 121.9807 121.6489 121.7658 121.4748 120.9447 118.1876 114.9451 114.8850 119.8836 119.2862 118.9063 118.5686 118.2142 117.8377 117.4945 117.0007 116.9288 111.0949 99.9983 104.1242 115.6051 115.0529 114.7103 114.4543 114.2268 114.0538 113.9424 113.9189 113.9816 114.0178 114.1263 114.3128 114.5501 114.8255 115.1312 115.4613 115.8099 116.1678 116.5343 116.9057 117.2579 117.6105 117.9734 118.1500
117.4300 116.9993 112.5928 111.0612 113.0103 113.6600 112.9835 112.8919 106.8453 103.8767 103.1024 124.7122 107.2808 117.5557 109.1104 123.8927 123.3183 122.7268 122.6132 122.4090 122.1356 121.9129 121.5824 120.9619 120.0035 109.6454 122.6219 119.9153 119.6155 119.4929 119.1660 118.8301 118.4825 118.0903 117.8276 117.3506 117.8369 95.9755 100.7269 114.9033 115.7538 115.5848 115.3050 115.0820 114.8955 114.7561 114.6579 114.5510 114.4177 114.6557 114.7951 114.9773 115.1768 115.4234 115.6926 115.9827 116.2860 116.6244 116.9565 117.2793 117.6406 118.0095 118.3111 118.5400
126.3800 113.7315 110.7276 111.9705 112.0654 104.6159 106.3209 105.3407 105.3205 102.9251 100.7318 120.6916 109.8940 124.3183 124.6938 123.9528 123.1755 123.0680 122.7405 122.4460 122.1067 121.4674 122.4000 121.1409 121.7578 120.3001 112.5230 115.2210 119.9360 119.6589 119.4238 119.1119 118.9006 118.7476 118.0981 117.7625 118.5074 117.5200 118.0267 117.1210 115.9051 116.0216 115.9293 115.6836 115.5219 115.4062 115.3300 115.1987 115.6549 115.8384 115.5466 115.5181 115.7717 115.9811 116.2248 116.4836 116.7573 117.0569 117.3498 117.7742 117.9770 118.0033 117.8627 119.0300
114.2000 109.9925 108.9474 108.6987 107.0343 109.6639 104.9733 108.2095 109.5317 104.1047 103.0357 115.6322 122.4089 128.0684 122.9270 123.5227 123.5183 123.0840 122.7721 122.8406 123.0036 120.2887 121.7593 119.0658 119.1107 116.8964 106.2994 117.1929 120.4931 120.0396 119.6853 119.2460 118.2332 120.2375 110.7019 120.1433 117.5781 107.9120 110.3746 114.8823 117.1924 116.8302 116.4562 116.2552 116.1152 116.0170 115.9574 115.6206 115.4510 103.3045 115.6073 116.1596 116.3328 116.5127 116.7323 116.9636 117.2222 117.4685 117.7799 117.8382 118.7185 119.3053 119.6403 119.0300
107.3100 108.3506 110.1567 110.4683 110.1416 109.9105 107.4454 109.8189 104.2585 105.4471 108.9255 113.9447 112.4919 121.5989 129.0143 124.7569 122.6405 122.6544 123.7651 123.0862 124.5945 124.0390 112.0831 104.1409 124.6656 123.0052 121.3541 121.4334 121.5818 119.4867 120.2044 119.8977 121.8480 120.5353 94.8085 108.2491 119.9331 116.6046 120.1785 118.7907 105.9450 117.4069 116.9669 116.7747 116.6619 116.5715 116.4690 116.4730 116.4557 117.1750 117.0079 116.7207 116.8545 117.0215 117.2104 117.4251 117.6424 117.8854 118.1659 118.3168 122.6594 102.1946 120.7360 119.4900
117.8500 115.7785 110.7592 109.8177 108.9862 109.4392 110.5680 111.3568 104.5867 105.0063 120.5527 114.0509 101.3860 124.1657 128.5446 124.3335 125.9563 116.4444 123.4020 122.8181 114.6718 114.9101 102.5785 106.0784 122.0870 120.8220 121.5173 113.1480 120.3863 122.5563 121.5492 116.3738 116.9511 105.7295 100.5502 111.6908 119.6298 105.4974 106.7596 117.7287 118.2875 117.5406 117.4570 117.2957 117.1839 117.1125 117.5000 117.1898 117.0455 116.9132 116.9704 117.2277 117.3672 117.5083 117.6427 117.8655 118.0833 118.4368 115.9902 118.0437 119.7368 105.8986 121.0296 119.8400
110.7600 113.8165 109.5316 109.4702 115.6712 110.2924 106.6586 106.3013 102.9998 104.7866 106.5993 112.9944 113.9897 125.1037 123.5249 124.9818 108.5022 104.5397 124.0376 123.1385 118.5246 117.5163 106.4227 120.5971 121.3935 123.5967 111.4624 117.5007 105.0945 105.2595 107.9892 109.5924 114.2402 114.9486 100.1782 112.4173 114.2815 120.8836 117.0332 118.3768 118.1734 118.0880 117.9251 117.7915 117.6493 117.8493 113.9370 117.7328 117.5407 117.6024 117.6755 117.7227 117.8285 117.9793 118.4028 118.3055 118.4274 118.6551 118.8755 119.5559 119.2772 115.6610 119.6313 107.3100
110.7500 109.6800 110.8276 113.6811 108.0107 108.5631 106.2685 103.4878 103.5390 101.5740 108.5303 130.7172 123.1741 124.4712 124.3540 124.0477 119.1759 109.3097 124.3327 122.9863 123.4409 123.7927 118.9868 120.7483 122.1800 122.0894 113.0864 123.4124 106.8315 95.3544 97.3207 113.1793 100.0270 99.1471 100.2404 104.8470 99.1494 118.6595 119.1731 118.8307 118.6381 118.4542 118.2970 118.0264 118.1911 118.7306 113.5452 118.1450 118.0679 118.0250 118.1013 118.1847 118.3007 118.5311 115.9835 118.8670 118.8632 119.0024 120.7019 118.2898 119.3820 119.7965 119.8533 120.2800
116.1900 116.5760 111.6185 109.2993 107.7999 107.4537 103.9952 103.2738 102.5296 114.1413 132.8869 133.6537 125.1021 125.0386 123.9366 124.1941 125.3353 123.1455 123.9030 123.2259 123.0954 121.9621 130.7866 122.1421 122.3547 121.8814 122.3237 122.8135 120.8279 118.4837 119.0972 121.2987 101.3163 105.6295 102.1563 120.1589 118.4470 120.0669 119.3984 119.1994 118.8181 119.1758 119.7026 119.6349 114.6925 113.4053 104.8122 117.8551 118.4660 118.4619 118.5624 118.6238 118.7170 119.0558 117.9420 119.3054 119.2424 119.4404 120.5131 113.3301 120.9690 120.0965 120.4835 120.5900
107.3800 106.9945 108.6659 111.5799 107.2384 104.5941 109.5876 109.2486 106.5686 111.0595 121.9977 118.0375 118.0052 121.8530 124.5261 125.6879 109.9841 101.6505 125.2209 123.3845 123.2328 123.1167 126.0185 122.1882 122.5261 122.2239 122.0431 121.6777 122.0983 119.9778 108.2869 102.5912 104.0664 96.7485 110.8635 120.7484 119.8627 119.8724 119.6264 119.5559 119.3989 119.0399 102.9467 116.4478 98.7953 120.4016 111.1671 119.4644 118.9238 118.9031 118.9862 119.0485 119.1341 119.2882 119.5227 119.4532 119.5749 119.7934 119.5525 120.1018 120.4211 120.4753 120.6901 120.9500
117.1700 115.6917 107.7393 104.3643 105.9050 110.6837 111.7558 108.3969 108.9748 103.1759 102.5291 108.1987 115.8781 105.6184 109.0789 114.0068 104.6510 126.7449 124.0763 123.7029 117.7539 124.5751 119.6668 122.1634 122.7332 122.4148 122.2826 122.0133 122.0589 121.6192 123.6759 106.6121 118.5722 111.0127 120.0789 120.4443 120.4584 120.1989 120.0470 119.9052 119.8341 120.8094 112.6563 117.4222 118.1326 120.4466 120.2530 119.3224 119.3505 119.3351 119.3871 119.4429 119.5221 119.6145 119.6987 119.8488 119.9863 120.1004 120.3303 120.4427 120.5874 120.7970 120.9564 120.9500
105.2300 104.5835 105.3311 108.9127 119.4481 111.8235 112.0375 105.1384 103.0007 108.5359 103.8622 108.3794 126.4312 127.0549 103.7026 119.4505 124.1876 120.4859 121.3198 124.5911 123.4321 122.6993 121.1613 122.1462 123.7937 122.8731 122.5002 122.1550 121.4691 105.0505 107.6150 102.7274 118.7588 122.6561 120.9177 120.7917 120.6502 120.5439 120.3998 120.2815 120.1104 119.4714 113.2264 114.6095 102.2636 121.5529 119.3894 119.4811 119.7136 119.7381 119.7767 119.8334 119.8957 119.9844 120.0872 120.1900 120.3153 120.4548 120.5942 120.7515 120.9142 121.0700 121.2518 121.3200
105.1800 108.6555 117.4843 118.9926 112.9891 112.0100 109.5431 107.4351 104.2104 103.0490 114.7215 106.0194 125.6271 125.7225 114.1315 121.4038 124.3100 120.6478 115.0183 120.2708 123.2502 107.0345 101.8775 106.6767 102.1131 122.3747 122.4181 120.7022 101.6408 109.9765 109.7005 123.3628 120.6760 115.4284 121.3790 120.7624 121.1872 120.7420 120.6396 120.4627 120.6354 120.0796 119.0729 122.3623 120.8625 119.9649 121.1171 120.9024 120.1155 120.1059 120.1548 120.2002 120.2636 120.3340 120.4125 120.5334 120.6475 120.7754 120.9100 121.0428 121.2003 121.3481 121.5143 121.5900
108.8300 115.8159 114.4777 116.2360 109.3418 109.5126 106.9622 103.1593 105.4691 105.6136 114.6285 111.4354 122.6548 123.4336 107.1936 111.1996 120.1798 122.6802 110.9475 105.6909 117.9169 107.1814 108.6024 119.5141 115.4188 126.0035 122.9240 122.5225 118.1051 123.6152 123.2215 121.9791 122.5319 124.0104 120.7858 122.2613 118.5119 122.2236 121.3862 121.4806 120.6970 120.6649 115.0885 115.6963 120.0713 122.8108 99.6397 122.6246 120.4915 120.4438 120.5120 120.5514 120.6094 120.7048 120.8401 120.8597 120.9696 121.0717 121.2129 121.3452 121.4776 121.6449 121.7769 121.9400
114.9800 112.9296 113.1129 109.3231 109.2368 106.6589 107.0149 104.4454 103.5260 109.7546 104.8946 102.8134 121.6411 119.4747 119.8732 128.1880 126.2937 120.9447 104.5481 113.2189 100.0336 104.1657 108.9315 104.1050 116.0694 122.9149 122.5289 123.3017 106.0071 122.7767 115.3734 108.8706 121.5366 121.9810 122.2462 110.2410 112.9180 122.0669 114.0250 120.4168 121.0402 121.1369 120.4916 121.1365 120.5498 122.0237 121.6147 120.7076 120.8120 120.8095 120.8535 120.8924 120.9425 120.9056 120.7171 121.2321 121.2585 121.4038 121.5134 121.6191 121.7757 121.8250 122.0593 122.2300
110.6700 112.0845 110.5878 108.0703 106.2222 104.0252 103.3399 103.6466 109.6044 104.3141 106.2312 114.7511 125.6981 115.6069 120.2970 125.4066 124.4329 126.0877 108.8316 117.2334 106.5210 106.1240 103.5829 115.5631 114.0145 123.1029 124.2401 125.2065 109.4776 123.4551 117.8508 119.8905 122.8763 122.2840 111.7679 118.9445 110.9865 107.6297 118.8710 121.0982 116.3105 121.1361 121.2560 121.1376 121.1462 120.8531 120.8744 121.1495 121.1366 121.1501 121.1786 121.2226 121.2605 121.2152 123.2659 120.7075 122.0311 121.6679 121.7688 121.9405 121.8132 122.7253 122.3298 122.2300
113.4200 111.2536 107.7357 110.1943 110.9909 104.4916 123.0837 102.5964 109.3330 117.6816 117.4984 124.2940 123.2740 125.6412 124.8366 120.2068 124.7864 120.7992 110.8602 113.8447 114.2738 108.4205 114.5979 127.5229 113.3072 122.3834 120.5817 107.7728 121.7934 124.8675 123.5271 121.5528 121.9359 124.1419 105.9996 104.2993 99.9986 95.8185 113.0506 122.4021 121.8916 121.7225 121.6441 121.5783 121.5419 121.5758 121.7370 121.5608 121.4581 121.4795 121.5020 121.5403 121.5695 121.4916 122.5996 101.4824 122.4181 121.9927 122.0499 122.0574 123.8000 119.9530 125.0351 122.7400
107.6700 108.5569 107.7381 118.5385 106.7679 109.9704 111.1250 102.9453 110.0488 108.1387 111.9208 105.6205 124.3374 122.8771 117.8136 120.6632 125.5444 121.1700 106.5431 121.2023 122.7046 124.4175 117.4594 119.6339 124.0616 126.2616 122.4096 98.4204 114.8180 123.1650 123.1258 123.0914 122.9044 125.2165 106.1556 100.3918 98.2807 123.1778 123.9092 121.7895 122.0795 121.9562 121.9259 121.8546 121.8084 121.9049 120.0922 121.9021 121.8105 121.7789 121.8070 121.8436 121.8726 121.8901 122.1606 123.2930 123.0832 122.3785 122.2071 123.2121 122.8715 103.6865 122.9716 122.7900
109.7600 114.0338 108.0998 106.0630 106.2307 109.6153 106.3267 123.9168 110.1107 118.1917 104.9528 106.2830 116.3510 103.2149 124.7405 124.3833 115.6266 124.8491 118.4733 115.2246 109.6682 108.3279 112.8145 146.3788 125.4661 122.0233 108.9052 119.4627 116.4673 124.2527 123.3558 123.2735 123.2671 117.0342 110.3872 102.0742 102.2484 121.0482 122.4910 122.3147 122.3287 122.3017 122.0742 122.1572 122.0906 122.1852 119.7653 122.1517 121.8791 122.0674 122.1253 122.1469 122.1781 122.2062 122.2991 122.2369 119.9912 122.4004 122.5429 119.6134 125.6065 123.0495 123.3921 123.0500
109.7600 113.7097 107.3836 109.0522 117.5211 117.3326 124.1180 104.7321 122.2511 107.0024 105.1126 104.4473 103.9430 118.2643 126.3617 126.3086 120.2609 124.2788 103.7579 108.9820 111.0688 101.3900 111.7601 117.3583 123.8798 119.2847 101.4807 103.7425 128.5221 122.8757 123.6388 123.2756 123.9834 114.5759 126.7019 123.3164 124.3045 121.3421 117.2349 123.2529 122.7045 122.3301 123.4938 122.5200 122.4648 122.5158 122.5883 122.3975 122.9989 122.5571 122.3394 122.3710 122.4761 122.5438 122.5822 122.6740 122.7139 123.3796 121.4820 122.8286 121.0651 123.6241 114.6340 123.3100
119.7600 128.2586 111.6181 110.7116 121.0909 127.4023 127.0032 118.7252 106.7405 106.0304 103.9630 104.5205 103.6963 114.0026 126.1452 125.4766 123.7408 121.7212 103.7757 111.6753 104.4534 106.6586 104.1947 118.9898 125.2839 124.9841 110.3707 111.9548 128.4164 123.7498 123.8382 123.6503 123.7429 116.6003 122.7558 123.8839 122.7100 123.5371 120.9275 120.1686 122.9782 124.2289 114.5147 123.5455 122.7490 122.8758 122.4482 122.2120 121.2738 117.6992 122.9900 122.9743 122.7254 122.6420 122.8157 122.8299 123.0366 123.3372 108.5593 121.7053 123.8494 125.5431 100.0575 107.1500
125.4000 126.7111 127.7104 127.7689 126.7574 125.3164 126.0978 131.9498 108.4631 132.2452 117.8480 103.5963 118.0910 115.4868 115.5010 126.9155 124.3178 117.5674 117.8017 129.2813 107.9909 103.1090 127.8148 123.9523 124.5190 124.9942 104.9053 113.1382 122.7882 124.3804 123.7407 123.8139 123.7532 124.8192 123.5739 123.5524 112.6038 106.3857 111.9874 122.1997 122.8537 123.9972 104.0461 120.4654 120.7393 119.3885 123.3088 123.9742 122.6247 108.6228 123.2552 119.4819 123.0053 123.7015 122.7341 123.7213 123.1175 123.1914 123.7124 124.0487 123.1033 101.6350 109.9552 114.9100
127.8700 127.4960 127.6714 127.5786 127.5828 124.9184 123.0873 127.7914 121.6206 122.4327 124.0441 116.8432 113.0611 119.3751 107.3962 100.5823 109.2376 114.6571 125.7851 125.8164 119.6024 126.3946 125.4885 125.2088 124.7406 127.7509 113.4815 118.8777 127.4170 122.2032 125.1778 123.7920 124.0058 123.7569 123.8281 123.9812 125.8735 100.5788 117.6581 123.6609 123.1237 123.0314 114.2410 122.7355 121.7260 121.8452 118.2667 114.8786 107.5811 122.8109 123.2676 123.3967 123.2690 125.3455 105.2220 124.3145 123.0909 123.4877 123.4058 125.3400 122.4134 122.4449 115.7315 103.9900
127.9000 127.9794 127.7520 127.6934 127.5585 126.3956 124.0730 128.2145 127.6517 124.2117 122.2391 128.4724 112.6360 106.5239 103.6638 107.7022 104.2701 117.2336 117.0275 126.7229 125.3825 125.6200 125.2953 125.0236 125.2988 116.3808 113.3612 115.1704 126.0237 112.7374 121.7853 124.3554 124.2044 124.1463 124.0497 123.6912 127.0269 102.7419 125.7522 123.4787 123.0649 125.3258 112.2774 124.3849 122.6726 123.4797 122.2273 118.0514 99.2988 114.0846 123.7089 123.6487 123.8379 125.9480 106.2303 124.0502 123.7125 123.7359 124.5824 112.2101 114.7030 112.9845 102.7288 105.7900
142.5700 127.9300 127.8400 127.7400 127.6400 127.4500 127.3400 127.2400 127.1400 115.3800 129.0200 122.7700 127.9000 126.7000 104.4000 116.1700 115.2600 112.3000 125.8400 125.7200 125.6300 125.4900 125.3700 125.2500 125.1300 125.1600 120.8000 104.9400 133.6600 133.6600 124.5300 124.4000 124.4200 124.2900 124.1500 124.0200 124.0600 123.9000 123.9300 123.9300 123.7900 123.7900 123.6300 123.6500 114.2300 123.6800 123.6900 118.5700 123.6900 123.6900 123.6700 123.6600 123.6300 123.6100 101.7900 123.7700 123.9300 123.9000 124.0600 114.4500 122.7000 122.7000 104.1100 105.7900
