123.3600 126.2500 118.1200 125.7400 128.6900 128.6500 120.6300 108.6800 120.8500 120.8500 105.2900 105.1900 117.0900 116.4800 117.6800 116.3100 116.3100 114.2700 118.0500 118.3400 114.4600 115.7000 112.0700 112.0700 111.6100 111.6100 111.1800 111.1800 108.4400 110.4900 103.0900 102.9700 102.9700 102.8500 102.7300 124.5800 124.6300 105.0100 124.4800 124.3300 124.3600 124.2000 127.6800 124.2400 124.0600 124.0900 124.1000 124.1200 124.1200 124.1300 124.1200 124.1200 124.1100 124.1000 124.0800 124.2600 124.2400 124.2200 124.3800 124.3500 112.3200 124.4800 124.6200 124.6200
123.3500 127.6644 124.2886 128.2759 128.0810 129.9056 120.7909 104.8706 109.3181 117.2450 113.0096 105.2403 108.5748 113.8824 109.8800 116.5066 111.6271 112.9422 117.8184 118.6237 116.3609 111.8436 107.1000 111.5456 107.2458 108.3594 108.4175 105.1664 108.3270 104.0739 104.4106 110.7589 106.8365 102.0629 106.0146 105.1805 111.9442 112.8560 124.3654 118.0058 121.0220 124.0324 124.7321 124.0031 124.0019 124.1649 124.7717 111.8476 124.4625 123.4607 123.9180 123.9264 123.9253 123.9458 123.9761 124.0104 124.0251 124.0888 125.4932 110.8131 103.8442 120.4157 124.5026 124.3800
125.1700 126.4858 130.1710 128.1731 123.4478 120.7621 121.8135 113.2116 105.8462 109.8344 121.8120 105.2347 102.0162 110.6711 114.3917 117.0515 113.8742 111.8417 111.1756 111.7433 115.3447 107.9333 107.4940 111.4123 103.7927 104.7678 105.6892 108.1584 116.1507 104.5888 103.6444 109.7123 111.4260 116.6593 103.2609 102.9496 117.4231 130.1729 124.9298 118.3983 123.8844 123.9921 123.7626 123.8045 123.6930 123.6624 124.1207 111.5656 124.2040 123.0364 123.6832 123.6858 123.6863 123.7103 123.7394 123.7758 123.8826 123.7353 125.5567 110.7068 99.4494 124.6206 120.0920 124.3800
122.5600 125.4000 113.7345 125.8078 126.4107 119.9970 119.4595 118.7471 114.5781 112.0732 110.9042 114.1904 104.3821 107.9587 119.1874 108.8567 112.5825 115.1770 102.3390 113.8220 110.6039 107.9121 116.1856 117.4091 108.3063 107.8982 113.5616 106.2546 117.8560 105.3532 106.5356 111.5241 120.4508 122.2755 114.2249 121.1733 109.1811 122.2850 123.8501 123.7216 123.8084 123.5782 123.6115 123.5432 123.4438 124.2094 124.5957 110.9539 124.1525 122.7030 123.4536 123.4339 123.4359 123.4613 123.5005 123.4954 123.6994 123.5246 111.0479 104.2956 102.1585 110.9876 107.0425 123.9700
120.7400 122.2616 116.3177 115.8058 121.6181 120.2696 119.0849 118.6121 119.5496 121.0766 109.7354 106.7341 111.9948 105.8405 105.8201 110.0490 111.5697 111.7024 109.4990 111.6623 112.4031 115.0567 118.6454 107.3610 112.8729 107.2554 110.8617 116.4366 108.6395 107.4814 101.8142 110.1192 123.3694 123.9624 123.6739 119.9970 119.6972 124.5354 123.6488 123.5273 123.4785 123.4375 123.3533 123.2980 123.1573 124.0983 114.1846 108.9256 119.2574 122.5179 123.0733 123.1820 123.1856 123.2237 123.1534 123.3496 123.0625 125.7706 122.2038 108.8252 112.3233 106.9582 126.7117 123.7400
120.3900 121.1712 126.3023 124.9377 120.0247 116.6652 120.1220 118.1949 116.9126 108.7883 116.7149 118.9905 103.6602 116.7878 114.3770 112.9523 110.7099 112.9572 113.7227 108.8775 105.1521 105.9800 111.7544 109.0044 113.3417 112.6368 103.9046 117.5597 109.3783 121.0874 120.9562 118.6998 125.6116 118.7634 125.6171 123.7936 124.2085 122.9543 123.4004 123.3161 123.2192 123.1558 123.1007 123.0622 123.0846 122.7517 122.2356 113.7624 111.4850 123.5026 123.0142 122.9010 122.9209 122.9560 122.9709 122.2028 127.5824 107.4937 113.8241 119.0052 121.8972 117.7639 124.6738 123.5100
121.0900 120.5257 103.9546 123.7365 126.2299 124.8103 108.8130 119.4736 118.2090 120.0019 117.6140 111.6730 103.9678 104.4984 112.9951 112.7596 115.9038 112.6313 110.6183 106.8566 113.8315 110.6545 108.8802 110.9654 102.0915 109.7881 105.3144 106.3757 102.6282 122.9988 126.7595 134.0889 124.7301 98.1517 119.8189 123.3394 123.2310 123.3422 123.1465 123.0508 122.9766 122.8979 122.8388 122.7871 122.6973 122.1338 119.3962 99.8086 122.0398 124.2584 122.5950 122.6441 122.6481 122.6954 122.6408 122.5551 124.5678 120.9303 116.4897 122.8168 120.3459 123.7187 123.1917 123.2600
118.8300 121.4016 121.4840 125.2783 123.3907 124.6924 125.3557 108.2451 120.9963 118.9582 121.4779 116.4095 103.8554 103.7721 104.9892 110.7971 116.1193 112.8507 110.6281 109.8135 112.7409 112.4489 103.1189 111.6601 108.8622 105.5796 103.9993 104.3153 103.3718 122.3506 124.2596 125.5323 108.8149 115.3332 123.6949 123.1467 123.1081 122.9604 122.8860 122.8036 122.7349 122.7105 122.5759 122.6301 122.9518 120.6916 122.3830 112.1518 119.6967 121.9549 122.3410 122.3507 122.3868 122.3805 122.7029 122.8669 122.2666 122.9887 122.8841 122.8359 123.1183 122.8223 123.0487 123.0100
118.6500 117.4924 120.6727 125.1853 120.9879 125.6381 119.0659 120.6414 109.5063 119.4996 116.8769 116.6949 117.1934 103.7995 103.6743 104.9784 109.2224 115.3848 110.8747 111.0133 109.4283 106.1418 110.0538 107.3534 105.5600 117.3395 111.7061 116.3922 113.8176 118.8605 120.5628 122.4265 112.8985 119.2765 122.9568 122.9343 122.8718 122.7348 122.6330 122.5339 122.3782 122.0651 122.3008 121.8859 122.8933 110.9203 121.5562 125.8423 122.5910 122.3070 122.0404 122.0579 122.0897 122.5607 116.7265 122.3034 122.3063 122.2908 122.3671 122.4718 122.5567 122.6975 122.7791 122.7500
119.4300 118.9155 119.5872 120.2424 117.7027 120.9375 124.9201 117.4398 118.8130 112.0999 110.1949 116.7084 119.5573 117.1845 107.0268 108.2360 110.1784 106.3525 108.0325 105.9174 106.9373 108.6944 112.1695 102.9353 109.3927 123.2545 124.7499 119.9010 125.6966 123.7254 123.3377 123.6443 122.8046 122.8522 122.8579 122.8032 122.5548 122.5085 122.3865 122.2760 121.9939 123.7612 121.7965 123.5049 122.7352 123.7008 122.9864 121.6781 121.6597 121.7278 121.7486 121.7557 121.8062 121.9680 121.8871 121.9896 121.9385 122.0584 122.1420 122.2264 122.3234 122.4209 122.5344 122.4900
120.2400 119.6724 120.5462 119.6650 117.6656 107.8243 121.0889 112.7695 114.2474 117.9840 115.6482 114.5392 116.9244 116.3064 123.4708 115.3695 111.5417 124.1747 109.6869 111.5201 104.6074 107.4138 105.9007 103.8515 113.2240 117.1205 129.6983 121.2860 120.7486 123.5227 123.1763 122.6271 123.9430 122.8669 123.5391 122.4569 122.4308 122.1017 122.0111 122.0043 121.8497 122.8106 107.5587 123.1756 102.4235 121.9140 121.1308 121.4264 121.4260 121.4562 121.4353 121.4574 121.4352 121.8479 121.6113 121.6254 121.6895 121.7667 121.8506 121.9412 122.0494 122.1565 122.2788 122.4600
120.3900 119.4480 119.2946 122.8304 122.1933 120.6143 119.8325 115.9956 106.1707 115.9376 119.9431 119.3007 110.1889 113.4605 123.2033 124.4163 114.8323 107.2277 108.9002 104.9201 118.1043 112.1028 105.0226 110.4367 111.1063 119.2302 123.7820 124.0305 123.5251 123.0878 122.9555 123.0824 121.6663 106.6847 121.9270 122.1643 122.0940 122.4747 121.7234 121.3177 121.2844 121.8514 102.9716 106.1647 122.8567 121.9116 121.2401 121.1629 121.1219 121.1144 121.1159 121.0653 121.5633 118.3581 121.3780 121.3206 121.3816 121.4676 121.5554 121.6536 121.7673 121.8818 122.0152 122.2100
117.9100 116.0043 121.7593 123.1821 120.3263 116.1718 120.4367 114.9175 105.8760 112.2613 109.6193 118.7714 114.9872 111.2369 111.9067 112.8156 115.5746 115.6390 101.3537 107.3047 116.0585 116.6954 106.8019 104.3345 114.4131 128.8879 123.4223 123.0895 123.0760 122.7284 122.7314 121.5720 121.3581 111.2150 120.8694 121.9569 121.8307 121.7954 106.5311 120.3073 120.9400 121.6222 121.2930 96.7199 123.5788 120.2144 120.7990 120.8141 120.7909 120.7742 120.7776 120.7653 120.7624 120.0318 120.9715 121.0129 121.0652 121.1601 121.2564 121.3691 121.4842 121.6031 121.7360 121.9300
120.5900 106.8950 120.5571 112.9200 113.5085 118.2864 115.6686 115.9082 109.5957 114.7531 110.0035 114.3430 114.2599 115.4935 112.0123 104.5665 124.9494 115.8455 118.1776 105.5761 102.4186 119.9277 118.6680 102.6880 121.8512 125.8309 123.0573 123.9178 123.8229 122.7219 122.7506 123.9924 118.2810 117.1223 122.4481 121.6146 121.5523 121.4551 121.6098 122.0858 120.8061 120.8116 121.8107 100.2012 123.1772 120.0189 120.5025 120.4696 120.4387 120.4328 120.4274 120.4341 120.5312 120.5896 120.5905 120.6556 120.7415 120.8427 120.9451 121.0650 121.1879 121.3153 121.4610 121.6300
120.5900 113.9416 119.4099 117.4516 116.6988 120.1282 115.4103 115.6856 115.4737 116.8037 119.7429 110.9779 112.0363 109.9099 114.7916 112.5296 117.7734 104.2055 110.6997 109.8288 112.5654 125.9131 123.0040 118.9026 124.3052 125.0822 122.9937 116.5877 119.3131 122.5082 122.0879 122.6668 116.8229 117.7622 121.8609 121.4377 121.3287 121.0668 120.9082 120.5664 120.6805 120.6266 120.7551 119.3655 121.7039 119.9205 120.1336 120.1101 120.0772 120.0684 120.0716 120.0923 120.1244 120.1637 120.2377 120.3112 120.4063 120.5074 120.6243 120.7471 120.8846 121.0217 121.1726 121.3200
110.2500 117.5269 118.1149 121.7694 123.1644 118.8629 112.8717 114.8718 113.9825 113.2927 114.8550 113.5468 112.5800 111.3981 109.5940 113.0030 119.4737 103.3528 103.6958 112.2580 112.5644 126.9642 123.9333 123.6798 122.7801 119.5076 122.7767 120.0930 122.1787 122.1347 122.0643 121.8950 118.8686 122.4367 121.2370 121.1829 120.9594 120.8147 120.6591 120.6265 120.3614 120.2263 120.1080 120.0898 119.6126 119.7119 119.7672 119.7348 119.6991 119.6882 119.6862 119.7113 119.7456 119.8079 119.8732 119.9550 120.0589 120.1634 120.2941 120.4219 120.5731 120.7238 120.8840 120.9700
115.8500 114.9715 113.4861 118.8798 118.5559 100.7831 115.6597 110.8540 113.0285 112.5874 118.5759 114.2162 115.3091 114.1981 109.9925 108.1347 103.2932 102.3395 103.0766 108.8990 127.1439 124.0319 123.2483 123.2180 123.8582 122.8215 122.6295 122.4286 123.0744 122.0081 121.8118 121.9507 121.4165 121.2399 121.0667 120.8475 120.6403 120.3441 120.3736 119.6544 120.1097 119.8762 119.7394 119.6267 119.6211 119.4858 119.3808 119.3396 119.3015 119.2879 119.2964 119.3177 119.3561 119.4213 119.4912 119.5873 119.6943 119.8117 119.9456 120.0938 120.2460 120.4105 120.5793 120.6600
115.8000 114.7185 114.9840 118.9213 116.7721 122.9941 103.1423 108.8163 109.0683 112.6882 114.7049 114.2283 113.7481 113.3113 109.9834 109.3619 107.7853 105.9053 103.7312 113.1021 112.3440 123.5173 122.8861 123.1562 122.8190 122.6545 122.4559 122.3337 121.8988 121.8244 121.5974 121.3773 121.1869 120.9664 120.7824 120.5487 120.2682 121.3543 121.2168 122.4511 118.5984 119.5421 119.4325 119.2752 119.0677 119.0489 118.9848 118.9302 118.8869 118.8769 118.8802 118.9056 118.9518 119.0150 119.0948 119.2013 119.3212 119.4517 119.5918 119.7529 119.9177 120.0947 120.2797 120.3400
115.9100 115.4407 114.0363 110.9538 117.5334 120.0392 116.6022 109.3748 110.9019 112.6840 112.3247 111.0096 111.4751 115.0187 106.4215 105.1525 117.4308 109.1256 115.3005 112.9871 101.6112 112.2859 123.0588 122.9220 122.6890 122.1104 122.8501 120.5686 121.8710 121.4124 121.3917 121.1434 120.9106 120.7329 120.3223 121.5740 110.0668 113.9758 120.4692 108.1060 119.4312 119.1661 118.8420 118.7704 119.3264 118.5763 118.5572 118.4990 118.4564 118.4375 118.4467 118.4687 118.5243 118.5970 118.6868 118.7950 118.9226 119.0635 119.2289 119.3950 119.5812 119.7641 119.9704 119.9500
115.0400 114.7556 114.6481 110.0536 104.8289 115.0797 112.4077 113.8939 114.1047 112.8001 111.6261 106.6927 125.9645 108.3079 112.8668 103.3115 105.6950 107.0221 118.4948 117.1986 111.2640 120.1736 114.4936 123.9112 122.1240 119.7004 117.4835 112.2427 119.1322 121.6443 121.1018 120.8961 120.6915 120.1546 120.8656 118.4684 113.9246 106.9007 115.6169 120.4980 118.9093 118.7516 118.4280 119.2693 112.9960 119.0913 118.1091 118.0442 117.9966 117.9817 117.9872 118.0176 118.0765 118.1494 118.2557 118.3787 118.5134 118.6742 118.8438 119.0281 119.2254 119.4455 119.6470 119.8900
115.6500 114.4883 114.7421 115.2397 112.5992 111.3670 106.4624 111.1518 112.0042 113.6578 113.5316 108.2303 106.1711 105.5861 122.2681 115.9331 107.9078 113.7923 122.7525 117.7935 124.0068 124.6562 122.8765 122.5141 124.1671 119.8926 119.3404 105.2286 108.2602 121.9214 120.7174 120.6754 120.4514 120.4444 120.4806 100.1632 115.9746 107.3551 116.4301 118.2644 117.7381 118.2379 118.2296 119.7180 106.1371 117.9889 117.6477 117.5608 117.5215 117.4962 117.4988 117.5406 117.6018 117.6889 117.7968 117.9356 118.0844 118.2596 118.4477 118.6577 118.8703 119.0781 119.7129 119.5600
117.7100 110.2416 113.6163 112.4241 114.0979 115.9071 114.9624 110.3281 109.3126 109.8382 111.2393 108.4051 123.1491 108.2239 110.4678 112.3312 103.6639 116.2530 120.5168 119.1824 123.5262 122.6140 122.9233 124.9945 114.0387 112.3774 119.9411 106.5571 120.9992 120.8837 120.7249 120.3332 119.9030 118.7159 114.1703 112.8799 110.4380 97.2055 110.6257 97.2355 119.0249 117.9221 115.1557 116.6876 118.6601 117.4120 117.3327 117.0491 117.0030 116.9865 116.9866 117.0331 117.0943 117.1991 117.3240 117.4727 117.6477 117.8429 118.0652 118.2497 118.5088 118.7131 118.9935 119.0600
126.8300 127.5427 117.4858 113.3306 112.9560 113.0896 108.4004 111.8264 112.0595 113.7506 112.4837 102.1892 104.2400 105.8389 112.6756 104.0946 111.6338 116.4355 118.5374 118.3216 123.1835 122.6557 121.8306 111.7367 100.8562 113.2918 119.3667 122.9457 122.6698 120.5381 120.4002 120.2316 121.0553 120.7181 107.5631 116.9359 122.7973 111.1627 103.9768 104.1958 119.8340 118.8894 108.7828 114.7549 116.6836 116.6841 114.9776 116.7057 116.4649 116.4330 116.4510 116.4930 116.5705 116.6796 116.8396 116.9745 117.1610 117.3091 117.5531 117.8921 118.1237 118.3810 118.6539 119.0600
104.7900 108.9235 107.3556 125.6722 122.8362 118.1143 120.2902 111.2315 110.8921 108.9099 112.7861 107.0896 105.3083 107.0649 107.4306 107.9707 124.5283 122.2774 116.3711 120.1213 123.4708 122.4110 122.7252 112.4730 97.2195 102.2432 116.2309 102.5490 120.9448 120.9458 122.6084 111.7255 116.4144 111.8378 112.6576 110.7460 115.6583 113.2219 115.0533 105.5962 118.5698 108.6935 100.9397 113.4296 116.4359 113.1124 112.9186 115.9883 115.8950 115.8549 115.8694 115.9176 116.0077 116.1294 116.2932 116.6411 115.6393 117.8026 117.2389 117.4123 117.7461 118.0149 118.3043 118.6800
104.7900 117.7602 112.9274 119.4499 119.1042 124.2728 112.2925 109.5973 110.3280 112.1848 111.9573 109.9187 107.7617 110.4914 106.5590 105.2631 116.3910 113.9387 117.6596 123.8517 122.7552 122.2493 124.1489 109.0118 118.3470 114.7129 122.1170 122.8532 121.4954 120.2560 112.5795 108.2528 102.2060 115.0108 104.3892 100.5808 112.7718 111.8200 106.2553 97.0365 113.1450 105.8167 114.2818 114.0078 115.6665 115.8384 116.1539 115.3992 115.2691 115.2346 115.2505 115.3039 115.4054 115.5532 115.7345 116.0391 111.9744 104.3584 117.0428 117.0283 117.3301 117.6408 117.9580 118.1600
119.7400 120.2247 120.0820 117.0530 123.8314 118.7062 115.7464 103.7285 103.2840 111.5120 110.9902 106.7190 110.9389 104.3334 102.3919 107.9325 124.3754 117.6354 120.2384 122.9071 122.6476 122.1452 122.1746 114.7993 122.5639 122.8301 112.4774 118.1770 120.0654 120.2373 120.5439 118.6956 102.2841 112.6256 101.5085 115.8826 116.7346 103.8599 105.6851 101.3162 118.5852 110.4201 127.1093 115.6484 115.1701 115.0100 114.7493 114.6928 114.6110 114.5638 114.5810 114.6476 114.7622 114.9294 115.1364 115.2143 117.7240 106.3672 118.3578 116.6142 116.9153 117.2648 117.6079 117.7700
114.6800 114.4048 114.9684 110.0002 126.3437 108.0979 117.0967 100.9630 111.0615 108.6697 109.3900 104.4323 106.3819 102.1814 105.6895 114.9252 109.2203 117.0147 114.3513 123.6206 122.5305 122.2893 122.0722 122.6155 121.3190 120.8354 120.4720 120.2059 120.0991 119.9123 119.3823 119.7831 104.9628 100.9968 102.4351 107.3504 120.3153 114.8903 107.9145 115.9740 117.4769 119.9119 117.4904 114.1539 114.6418 114.3945 114.1806 113.9983 113.8812 113.8410 113.8525 113.9331 114.0733 114.2652 114.5172 114.7482 116.4663 107.0861 116.4988 115.9813 116.5260 116.8803 117.2519 117.3000
114.6700 113.9494 113.3276 112.7284 114.6037 110.6528 112.7773 107.4924 108.5333 110.7136 110.2157 110.2198 113.9769 101.2245 104.8244 102.4375 115.8598 113.4782 117.5004 123.3131 122.2765 123.6522 103.6178 122.5775 120.7816 121.0352 120.8261 120.5561 120.0002 119.6860 119.3596 119.0771 119.6372 113.1117 98.5061 101.6586 119.4020 113.7153 116.5558 115.7398 115.4726 115.2874 114.4856 114.4740 113.9161 113.6909 113.4266 113.2356 113.1038 113.0457 113.0607 113.1595 113.3224 113.5544 113.8238 114.1201 115.4625 115.2982 115.3536 115.6487 116.1017 116.5000 116.9062 117.1800
118.0600 117.5641 113.5153 111.4905 111.6655 111.6924 111.1388 110.2381 110.1619 114.3338 104.1756 102.5743 108.0882 109.7366 103.9465 101.2568 111.2730 123.4010 122.7283 122.6900 122.4985 118.6274 122.7807 122.3401 121.0228 120.5494 120.6008 120.1892 119.8530 119.5173 119.1557 118.8505 117.9441 119.1103 101.0467 107.1424 110.5028 96.5606 116.7917 114.8602 115.1045 114.4941 114.1327 113.6738 113.3102 112.9453 112.6382 112.3986 112.2416 112.1691 112.1915 112.3064 112.5076 112.7870 113.1103 113.4707 113.8695 114.2882 114.7788 115.2398 115.6668 116.1175 116.5557 116.7100
126.5700 124.3875 118.0390 116.5753 116.0861 107.1090 108.7254 109.7887 107.2689 110.0463 105.8046 106.3999 105.1546 107.8295 104.0753 111.0242 118.9794 122.3644 122.6522 122.3934 122.8641 117.7945 123.0661 120.4722 120.9519 118.4337 119.4391 119.9461 119.7255 119.3417 118.9908 118.5646 118.6213 118.5497 115.7987 118.0710 98.0024 121.4810 114.4239 115.1620 114.3720 113.9840 113.5077 113.0318 112.5570 112.1386 111.7730 111.4853 111.2895 111.2015 111.2290 111.3703 111.6179 111.9493 112.3414 112.7921 113.2650 113.7514 114.2634 114.7591 115.2527 115.7428 116.2141 116.5900
126.4300 126.6107 124.5475 112.5874 111.5112 108.1443 108.2159 108.1706 106.2864 105.9744 102.4877 101.7904 107.8153 106.8255 123.4446 113.6920 123.7929 123.9216 123.3519 123.4043 123.0717 119.1719 107.0206 122.7228 121.6900 120.9310 120.1572 119.8251 119.5493 119.1808 118.8109 118.5103 113.2763 112.9888 117.9117 118.2903 118.2918 115.0939 115.6228 118.8478 115.8431 113.4272 112.8866 112.3278 111.7799 111.2790 110.8312 110.4691 110.2246 110.1085 110.1423 110.3255 110.6376 111.0460 111.5187 112.0517 112.6056 113.1697 113.7366 114.2963 114.8453 115.3752 115.8876 116.0200
126.4200 128.7458 110.9920 112.4329 113.9489 110.9043 110.5198 111.1045 107.1049 106.9214 107.2844 102.9213 106.1629 105.3830 112.5092 102.4978 125.3494 113.9191 117.7033 116.1381 114.5495 119.9867 123.4568 117.8450 125.2367 120.3611 119.8933 119.5478 119.4140 119.0307 118.6594 118.6436 109.3857 99.7694 117.3473 114.5535 111.3797 114.1728 114.7576 113.2579 113.4255 112.9726 112.2553 111.6087 110.9632 110.3426 109.7919 109.3308 109.0084 108.8567 108.9127 109.1455 109.5476 110.0619 110.6410 111.2776 111.9307 112.5810 113.2177 113.8398 114.4386 115.0210 115.5704 115.9800
126.4100 120.1420 112.0786 111.2773 112.5365 111.0859 109.3663 107.1010 102.3148 106.3858 104.3096 105.6206 101.6647 102.1021 112.6532 116.6974 116.3807 114.1082 102.7363 106.5022 105.5552 108.8476 121.4638 93.9741 121.0782 120.6810 120.0715 119.7788 119.2891 118.8983 118.4709 118.0974 119.1705 119.1286 114.1863 116.3631 115.2266 115.7395 114.7297 113.8681 113.1966 112.3983 111.6235 110.8612 110.0992 109.3411 108.6420 108.0376 107.6049 107.4006 107.4749 107.7910 108.3213 108.9822 109.7152 110.4776 111.2442 111.9867 112.7132 113.4011 114.0615 114.6823 115.2761 115.8700
126.3900 119.2751 110.6609 110.8255 118.3295 113.6157 110.4806 107.1863 107.2005 107.1971 106.9085 103.8589 106.9924 102.5304 100.5098 113.6126 111.9969 122.4392 124.2476 111.5516 122.8379 106.7082 122.0364 109.0335 119.0616 118.9418 119.6473 119.3884 119.1814 118.7890 118.3437 117.8852 118.6218 103.4176 115.0543 116.5869 115.1474 114.4349 114.0056 113.3317 112.1359 112.2135 110.9331 110.1290 109.2090 108.2745 107.3712 106.5535 105.9421 105.6537 105.7460 106.2150 106.9366 107.8133 108.7432 109.6617 110.5635 111.4251 112.2317 112.9934 113.7057 114.3778 115.0128 115.2600
120.2200 128.9881 111.4827 110.5721 107.7999 111.7564 110.2673 110.6875 110.4011 110.0276 106.9667 105.3362 117.7272 102.3074 101.1537 99.4280 118.9310 119.4176 121.9698 123.7251 121.9088 117.8218 120.9012 121.9821 121.4574 116.6120 120.6462 120.1685 119.1542 118.6744 118.2462 117.8118 117.4913 109.0203 115.5127 106.0098 117.3955 114.3921 113.7391 112.3910 117.2320 108.3640 110.5314 109.4116 108.3087 107.1626 105.9626 104.8446 103.9240 103.4501 103.6164 104.3414 105.3853 106.5594 107.7466 108.8680 109.9160 110.8940 111.7902 112.6225 113.3947 114.1064 114.7784 115.1800
110.5500 115.1318 111.6765 110.9084 110.9424 110.7527 109.0428 109.1706 106.8391 105.0609 102.6884 102.0766 118.9285 111.0558 99.1372 120.1100 118.7478 120.9577 122.7203 121.8299 121.6526 122.0449 121.5495 120.7026 120.2130 121.2101 118.0194 114.2330 118.7924 118.6767 118.1513 117.6822 117.1974 117.5517 118.8859 91.0710 109.7340 114.3016 113.7074 112.6667 113.8222 109.7114 109.9934 108.7424 107.4563 106.0337 104.4690 102.8296 101.3439 100.5414 100.8226 102.0470 103.6523 105.2704 106.7585 108.1110 109.3283 110.4214 111.4097 112.3037 113.1293 113.8803 114.5772 115.1100
119.2600 113.0853 112.6134 114.6090 115.9407 114.2540 112.3253 109.1258 109.5572 108.7833 104.0453 103.6837 121.6150 110.5704 122.8928 125.6273 123.8824 123.1532 122.4988 122.1414 121.8418 121.4295 121.1373 120.8109 120.1043 121.6770 104.1556 115.9384 119.0096 118.5683 118.0963 117.6029 117.1602 117.0000 116.7426 112.0793 112.1791 113.8620 112.2225 112.5218 111.4278 110.5412 109.4471 108.1857 106.7032 104.9864 102.9610 100.5331 97.9874 95.8718 96.6840 99.3076 101.7850 104.0126 105.8819 107.4708 108.8339 110.0314 111.0993 112.0538 112.9196 113.7071 114.4337 115.0600
108.9500 111.1728 111.3279 110.8348 111.2392 111.7592 110.8393 109.9043 109.0277 106.0854 106.4977 115.9527 119.0112 109.0500 124.5430 99.3278 118.8408 117.3483 122.7416 122.1109 121.7854 121.4693 121.1853 120.7223 120.3818 120.1029 118.0140 119.7337 118.9369 118.5163 118.0524 117.5389 117.0704 118.4585 97.6400 117.7470 114.8666 113.9505 112.9862 112.3250 111.4053 110.3490 109.1463 107.7717 106.1384 104.1586 101.6350 98.3028 92.8144 89.1261 90.2903 95.9545 100.0632 102.9824 105.1968 106.9896 108.4842 109.7632 110.8871 111.8834 112.7748 113.5861 114.3243 114.5600
118.0100 118.5265 109.9433 110.6193 110.5696 110.8890 109.8502 109.3020 107.5351 106.2594 108.6175 122.2437 103.8488 125.3086 124.2960 107.4634 125.3866 126.9552 122.0557 122.0657 121.7939 121.4916 121.7168 120.6673 113.7491 121.8099 118.9976 118.9415 118.9130 118.4889 118.0306 117.5474 117.0323 116.4742 116.1667 115.8919 114.5564 113.9094 113.0386 112.2754 111.2911 110.2310 109.0003 107.5710 105.8552 103.7193 100.8732 96.7505 88.8431 84.4773 85.9474 93.0737 99.0213 102.4169 104.8525 106.7514 108.3141 109.6335 110.7890 111.7981 112.7084 113.5204 114.2639 114.5400
117.5300 117.0214 110.0891 110.6561 110.6361 110.6127 109.7969 109.6746 106.9889 106.3630 107.6368 121.1012 119.1208 108.4086 124.9685 107.6373 122.5538 127.0273 121.9106 122.0491 121.7797 121.4322 121.2442 120.6150 112.5264 121.3542 121.0272 119.4991 118.9163 118.4121 118.0351 117.5505 117.0367 116.8443 115.9350 115.2393 114.6176 114.2249 114.9547 112.2978 111.2938 110.2437 109.0243 107.5953 105.9011 103.7899 100.9896 97.0787 89.5683 85.7090 86.9516 93.5348 99.1974 102.5168 104.9055 106.7871 108.3377 109.6594 110.7997 111.8043 112.7415 113.5862 114.7114 114.5300
119.3100 111.6859 110.9356 111.1634 113.1705 111.9450 110.9467 110.1238 106.2881 103.2051 103.2389 111.3868 117.7297 111.1056 125.1444 124.3407 122.9295 122.3754 122.3849 122.0908 121.8654 121.6120 121.2990 120.5173 114.1620 100.4212 120.8821 119.9063 119.5694 118.4980 118.0496 117.5680 117.2172 111.6972 116.8947 115.4205 114.7781 119.0914 117.6751 112.5387 111.3695 110.4013 109.2183 107.8617 106.2638 104.3499 101.9497 98.7508 94.0020 90.7595 91.9867 96.9279 100.4802 103.2274 105.3533 107.1014 108.5626 109.8313 110.9309 111.9086 112.8298 114.2607 110.9210 115.0100
119.3200 109.3639 111.3361 109.8152 108.5859 108.8925 109.9367 109.0057 104.6316 107.4976 101.9631 109.0942 116.2757 110.2556 123.9246 122.7813 122.9822 122.7489 122.3872 122.1123 121.0172 120.9384 121.2949 120.5429 115.6358 102.7597 100.2588 113.7430 116.5491 118.4468 118.1309 117.1505 118.7745 102.9474 116.3493 115.4597 114.8241 112.9818 112.7500 112.5190 111.6678 110.6618 109.5610 108.3145 106.8854 105.2529 103.3412 101.3301 99.0881 97.4123 98.0063 100.0486 102.3003 104.3305 106.1053 107.6232 108.9549 110.1300 111.1717 112.1000 113.0577 114.1200 108.0234 115.0400
109.3400 112.5849 106.5397 107.0413 108.4677 109.0732 110.6674 110.1794 104.8870 108.7991 109.5581 107.3570 123.0130 114.3281 125.1015 123.5025 123.0314 122.6884 122.4176 122.1135 118.8177 121.4254 121.1802 120.6171 121.1982 124.8087 106.2047 108.4423 114.7069 118.5632 118.1053 117.6041 118.4148 118.8935 117.5371 115.7237 115.1179 114.6233 113.7678 112.7954 111.9485 111.0346 110.0201 108.9107 107.6841 106.3350 104.8752 103.4005 102.0565 101.3668 101.6151 102.7002 104.1341 105.6190 107.0219 108.3072 109.4818 110.5331 111.5053 112.3847 113.1776 113.8661 115.7214 115.0800
116.6900 118.7823 113.4936 108.2739 110.3888 110.0018 109.5306 107.0933 104.8450 107.4238 124.4302 121.5033 123.8962 124.8992 127.3493 122.9353 123.0370 122.7630 122.4903 122.2368 122.1864 121.5914 121.3073 120.8578 120.2487 120.9501 122.7500 124.1220 120.9448 118.3017 119.4811 117.8269 117.1065 115.1612 106.2889 116.6786 115.0770 114.4514 113.7840 113.1063 112.3171 111.4765 110.5614 109.5881 108.5275 107.4149 106.3473 105.3075 104.4748 104.0695 104.2178 104.8705 105.8148 106.9028 108.0072 109.0773 110.0942 111.0356 111.9046 112.7186 113.4747 114.2256 114.7232 115.1500
117.8700 119.1942 112.6347 110.2702 109.5375 109.8112 109.5202 108.3027 105.0388 113.4435 115.9157 124.8140 123.8317 123.4911 123.1156 123.3491 123.0125 122.6968 122.3968 122.1416 121.8832 121.5572 121.2740 121.0145 120.8987 120.3880 112.7995 102.6148 117.6441 100.0316 119.2081 117.8048 117.3850 115.4826 110.1122 117.1944 115.5371 114.7723 114.1368 113.4480 112.7330 111.9807 111.1801 110.2695 109.4313 108.6409 107.7072 106.9515 106.3948 106.1311 106.2260 106.6503 107.3239 108.1344 109.0207 109.8845 110.7496 111.5735 112.3576 113.1041 113.8007 114.4501 115.0758 115.7200
111.3500 113.3441 110.1556 113.4515 111.7193 109.7501 108.3648 107.4089 104.5858 106.4347 120.1947 125.9596 124.2381 123.9677 123.6558 123.3556 123.2345 123.1612 122.8792 122.2374 121.8776 122.3351 121.8317 121.5434 120.5891 120.5478 113.2596 111.5901 113.2442 102.9521 119.0150 118.0762 119.1212 107.2935 119.8941 116.5035 115.6596 115.0749 114.4704 113.8442 113.1953 112.3340 111.7350 111.1100 110.4902 108.8916 109.2564 108.3307 107.9934 107.7980 107.8612 108.1564 108.6882 109.2702 109.9692 110.7100 111.4244 112.1495 112.8560 113.5251 114.1482 114.7713 115.3544 115.8200
117.8400 110.3309 113.6370 111.5965 113.9030 113.2671 110.4991 105.5005 102.9296 109.3677 128.8056 123.0380 123.7472 123.7374 123.6377 123.3863 122.5740 120.9156 121.5729 122.2031 123.4062 111.6191 123.1797 120.3838 121.1023 120.6636 121.4444 120.5087 118.9217 119.2518 118.6248 118.1900 116.3781 97.1805 118.2261 116.0319 115.8905 115.3875 114.8335 114.2470 113.6780 113.3085 112.8253 112.3725 107.1657 99.6738 111.0432 109.4702 109.3334 109.1981 109.2427 109.4630 109.8321 110.4764 110.2215 111.5146 112.1136 112.7381 113.3540 114.0803 114.5652 115.1153 115.6543 115.9000
117.5500 111.1705 112.8257 112.9214 111.9948 115.7777 109.9818 108.0786 104.7141 109.0000 124.3955 122.9645 124.4750 123.7931 123.4325 123.6760 124.5116 123.3741 122.5781 122.4579 122.3137 114.7939 110.8665 123.3461 110.3905 121.7797 120.1102 119.7685 119.7888 119.2836 118.7402 118.7901 118.1520 115.8597 117.1876 116.7088 116.2161 115.7255 115.2078 114.7014 114.0070 114.4302 106.1581 122.9703 100.3979 92.5870 110.1171 110.7196 110.5066 110.4003 110.4362 110.6091 110.9086 112.2590 112.2384 112.2131 112.7790 113.3298 113.8821 114.4166 114.9528 115.4740 115.9772 116.4100
117.5600 110.4728 112.1197 111.2218 111.9873 111.2032 109.4102 106.3341 104.0176 103.3295 122.2648 98.2843 124.3069 110.8426 125.1019 122.2604 99.5330 117.6230 123.2263 122.4268 122.6547 123.2915 117.4165 122.4477 120.5133 120.6581 120.4605 120.0884 119.7004 119.5133 119.1453 115.2166 116.2380 117.7833 117.4175 116.9824 116.5323 116.0754 115.5969 115.1483 114.5453 114.6291 106.8728 115.6693 103.6250 111.7044 112.7413 111.6777 111.5448 111.4602 111.4890 111.6186 111.9115 112.1107 112.5157 113.0116 113.4352 113.9094 114.3964 114.8852 115.3719 115.8465 116.3057 116.5200
116.7900 111.5359 111.3112 111.4845 111.3017 110.2463 107.5595 104.0852 103.1322 109.3940 105.4697 111.8960 106.3029 112.3788 105.6324 109.0721 127.6482 122.0794 121.0384 98.0048 121.9205 115.4910 97.6543 122.3083 120.7999 120.9380 120.5773 120.2791 119.9785 119.5221 121.2750 111.2623 119.7062 117.9508 117.7047 117.2750 116.8638 116.4360 116.0020 115.5675 115.1246 114.3532 114.4785 107.0135 114.4039 113.1259 112.6040 112.6749 112.4663 112.4015 112.4240 112.5400 112.7197 112.9860 113.3180 113.6675 114.0660 114.4820 114.9137 115.3432 115.7846 116.2249 116.6525 116.9900
111.3600 110.9199 110.4102 110.6766 109.5840 109.2970 104.7399 103.1644 103.5262 107.7090 109.6873 105.1659 113.3391 122.8947 115.0612 120.5586 104.7205 111.3735 118.6896 121.1417 119.8659 120.0296 116.5146 122.6070 121.2552 121.0347 120.7074 120.9383 120.7465 117.4117 132.2075 118.7041 118.7720 118.3199 117.9454 117.5089 117.2022 116.8033 116.4144 116.0125 115.5940 114.6034 114.2945 101.5920 114.7804 113.8966 113.6720 113.4222 113.3120 113.2568 113.2718 113.3639 113.5233 113.7450 114.0112 114.3282 114.6711 115.0346 115.4216 115.8112 116.2119 116.6057 116.9978 117.1000
112.8500 112.2942 111.7652 108.9997 108.2354 105.4722 112.0669 103.7156 102.2848 117.6850 121.2099 101.3891 119.9982 117.8864 102.5381 101.2773 119.3204 117.2678 105.4858 103.6730 102.3223 105.1518 105.1364 120.9271 121.3607 121.1519 120.9742 118.2825 116.4357 105.9141 119.5797 117.8949 118.7806 118.4618 118.3476 117.9266 117.8127 117.0031 116.8431 116.3741 116.0564 112.9224 103.8961 103.3566 115.5108 114.5488 114.3391 114.1797 114.0774 114.0248 114.0469 114.1180 114.2523 114.4464 114.6728 114.9435 115.2412 115.5687 115.9057 116.2620 116.6234 116.9866 117.3492 117.5500
110.2000 110.6062 113.2761 108.9852 109.1208 109.0102 104.5876 104.1703 103.7223 102.6046 112.7365 107.7210 113.1159 110.0931 113.3964 108.7242 113.6682 106.0058 114.8190 115.1805 100.0831 127.5703 121.9531 122.9039 121.8462 121.3672 120.9944 112.6587 118.4199 121.2757 109.3567 114.6758 118.2478 119.2795 111.3646 118.2217 116.4991 118.6356 117.2010 117.1064 116.8759 112.7769 106.9976 117.6693 115.3785 115.1098 115.0097 114.8656 114.7838 114.7429 114.7502 114.8169 114.9347 115.0978 115.2918 115.5345 115.8012 116.0809 116.3876 116.7076 117.0351 117.3658 117.7094 118.1000
115.3600 109.4763 109.6349 109.6540 110.0103 109.2243 110.0218 110.8188 104.6049 107.9417 111.4727 113.3548 121.1559 110.9681 115.7373 125.7548 123.9407 116.2624 111.5893 121.4810 110.3835 121.6084 119.0814 118.7340 121.3949 122.0699 121.3231 117.6169 102.7152 113.9217 105.9581 121.4535 120.4961 111.2580 101.2346 113.5476 107.6100 116.0600 117.3123 117.6818 114.1095 117.4808 111.5597 115.8936 115.9910 115.8002 115.6241 115.5062 115.4322 115.3951 115.4046 115.4681 115.5667 115.7050 115.8828 116.0886 116.3235 116.5829 116.8407 117.1612 117.4347 117.6577 118.0941 118.5000
114.9300 109.8422 111.4263 110.9528 107.0130 110.1697 108.4493 120.2768 113.0745 104.9580 105.4863 114.1884 111.4697 119.9963 117.5094 124.5612 123.5488 127.3594 112.8049 124.9474 124.7334 119.9290 111.0914 118.8243 120.9773 119.1921 121.8422 104.4225 104.6028 124.4224 120.5394 116.3820 120.3275 108.8985 102.0761 103.7239 106.3884 111.8067 118.4880 112.6125 115.1659 117.4015 116.8702 116.7407 116.5215 116.3462 116.2126 116.1066 116.0357 116.0123 116.0223 116.0638 116.1606 116.2796 116.4243 116.6241 116.8399 117.0431 117.3192 117.4981 118.1320 118.1985 118.5088 118.5000
111.0600 112.3776 108.3434 106.7936 112.9409 111.6250 113.3612 110.8094 105.8904 106.0404 111.6615 116.6560 121.2233 125.3240 118.2488 124.4589 123.7021 114.9328 114.2591 122.7659 122.2230 120.9750 115.4033 121.4861 121.8864 122.4545 119.4129 97.8112 115.0478 116.7659 122.0259 117.0095 119.9608 120.0746 100.0342 112.2377 97.0401 114.0891 118.8811 117.9224 117.9917 117.5338 117.4430 117.2028 117.0354 116.8812 116.7584 116.6670 116.5989 116.5709 116.5848 116.6309 116.7075 116.8164 116.9850 117.0818 117.2430 117.5552 117.6425 117.9731 118.1863 113.5455 119.2515 119.0100
107.6000 107.1192 104.5713 105.2754 118.4051 105.0162 121.1152 110.0150 104.1124 115.3262 105.5478 118.4218 126.9344 125.6900 125.1968 124.1797 124.1380 120.2375 124.2301 124.4521 125.0265 124.4872 127.3338 123.2279 123.0459 111.9520 106.6040 99.0232 113.9192 114.0174 117.3413 120.4760 120.1684 120.2077 109.2070 121.2580 119.8225 116.6728 118.2977 118.6019 118.2641 118.0580 117.8448 117.6760 117.5153 117.3839 117.2718 117.1954 117.1830 117.1763 117.1172 117.1601 117.2339 117.3283 117.4628 117.7798 118.5633 118.4692 118.4346 118.3461 119.0247 119.0657 119.9050 119.3700
104.9500 103.8139 108.1938 103.9258 119.0761 109.5259 109.3597 119.9093 110.1608 108.6896 108.8397 124.2317 103.7994 113.3187 122.6882 124.2994 123.8507 124.8127 115.3740 119.0892 103.3021 105.9276 124.4573 119.5366 121.7198 118.8887 99.4386 101.6015 96.8731 120.1143 120.5833 120.7420 120.5290 120.5044 121.1064 119.5161 119.6006 119.4685 119.1473 118.8107 118.6307 118.4641 118.2826 118.1180 117.9823 117.8637 117.7613 117.7079 117.3445 117.3687 117.6504 117.6718 117.7276 117.8063 117.9235 118.1431 109.6898 117.8120 118.0003 111.6451 118.8862 118.5044 122.6397 97.7800
109.6600 108.1764 114.6294 115.7043 126.3443 113.4714 123.8651 106.5957 110.5617 104.2450 110.1739 104.3464 121.5221 124.6637 125.0327 124.3119 124.2036 125.0507 114.2551 102.3225 100.8129 103.7518 120.4456 123.0750 122.4951 111.6970 99.8939 104.7055 121.2477 121.7358 121.0635 120.9631 120.7285 120.5234 120.0249 120.0011 119.7734 115.3722 118.6141 119.3330 118.9408 119.9398 118.7257 118.5828 118.4024 118.3156 118.2360 118.0661 119.9041 119.1044 117.9870 118.0765 118.1880 118.2947 118.4053 118.5958 118.1907 119.6710 118.8206 117.8563 120.6269 118.3775 112.6224 97.7800
116.5200 115.9163 115.8148 115.4376 119.4425 127.0431 126.6862 114.3533 107.4589 106.5444 107.4952 109.7487 130.6595 126.2299 124.0606 124.2423 126.0031 108.2801 103.0398 117.5236 103.9850 123.5035 99.5994 120.7274 122.9651 104.7367 108.6248 120.5453 122.1554 121.7282 121.4000 121.2021 120.9930 120.7723 120.5277 120.5775 117.3920 107.0967 120.2573 119.4480 120.3325 110.6135 117.4104 118.3905 118.8281 118.7538 118.4381 120.5033 102.4899 121.7754 118.9411 118.8850 118.6335 118.5586 118.5729 118.8903 119.0471 119.0317 119.0194 120.2473 120.5413 105.8530 100.9100 105.9900
128.0100 122.0623 127.7452 127.4711 127.1122 126.3668 125.9138 125.3706 105.1757 107.2904 109.3664 101.7956 121.7615 115.9926 112.2010 124.0529 124.5054 124.2344 125.2052 123.8817 123.4013 125.2414 124.7068 124.1466 106.2194 114.6711 98.5113 120.7460 121.7710 121.8827 121.5476 121.5003 121.2414 121.0311 120.8851 120.2239 107.0343 103.0362 121.4542 120.0120 120.6449 113.9305 119.8551 118.5832 119.2044 119.0154 119.5803 122.3216 95.4321 120.7669 118.7488 114.8923 119.3396 119.9117 120.3474 119.3703 119.3297 119.5842 119.7063 119.4522 120.3733 119.9874 111.0829 98.5000
127.1600 127.5493 126.8760 126.5924 126.5712 127.1773 122.6875 123.8461 109.4088 109.0872 126.9130 106.5329 114.8323 117.8566 103.3249 107.1396 118.0302 121.5446 124.2183 123.9154 123.7386 123.5927 119.7463 113.2345 104.1887 114.0637 106.8924 123.6300 121.1225 116.0485 122.0382 121.5914 121.5072 121.3037 121.0537 120.2477 123.1885 113.3230 111.8571 120.2564 119.9794 120.6795 119.8271 119.7134 119.3297 120.9077 112.7732 104.3902 119.4610 119.6823 119.4325 118.9306 119.5814 121.5585 101.4260 120.7655 119.5392 119.8021 119.9953 121.8627 120.1927 119.0281 115.5304 98.5800
127.2900 120.3292 126.8750 126.9691 126.5617 126.6607 110.8890 111.6646 125.1633 128.3649 128.0365 119.3900 112.2946 115.6764 116.7189 106.3724 105.7616 129.6939 124.3432 124.2415 123.9611 124.9921 112.2575 108.4990 114.5694 116.4133 103.8833 116.9859 116.5003 113.5470 122.8846 121.9683 121.7394 121.5620 121.2847 120.4644 120.3976 123.0004 120.7789 120.6662 120.4553 120.1873 120.2170 120.0826 119.9549 119.3282 104.6056 109.1572 98.3099 121.8934 119.7792 119.7578 119.9363 121.0932 100.2000 122.1357 119.9618 120.2294 121.2979 107.5349 120.5026 116.8687 99.8870 104.2900
136.1100 132.4000 127.1000 126.8800 126.7700 126.6500 126.4200 126.3000 126.1800 125.9500 125.8200 125.6900 125.4300 111.5800 125.1700 125.0400 114.8300 132.4700 124.4800 124.3400 124.0700 123.9100 123.7500 123.6000 123.2800 101.1300 105.7100 112.6000 105.9600 108.0700 122.3000 122.1300 121.9500 121.7900 121.5900 121.4100 121.2700 121.0300 120.8600 120.8600 120.6700 120.4600 120.5200 120.2900 120.3300 120.0600 120.0900 120.1400 120.1500 120.1600 120.1500 120.1500 120.1100 120.0900 120.0500 120.3200 120.2700 120.5000 120.7100 114.0700 122.2000 107.6800 103.5800 103.5800
