110.4900 104.5300 104.5400 109.2900 126.5400 121.9700 121.9700 121.7200 126.5200 126.5100 126.4900 126.6300 126.6200 126.6000 126.5900 128.8700 135.2400 126.8200 126.8000 112.1500 113.9000 113.3000 127.1000 127.1000 127.2000 127.1700 127.2600 127.3500 127.4400 127.5600 127.5300 127.6400 109.4500 117.9400 109.8300 127.9900 127.9900 128.0700 128.1700 128.2400 128.3400 128.4200 128.6100 128.6100 128.7700 128.7700 128.8400 129.0200 129.0100 129.1700 129.2700 129.3300 129.4100 129.5000 129.5700 135.4300 108.6000 108.7000 110.8800 109.1900 108.2000 108.2000 135.9000 135.9000
109.8900 104.7124 110.9349 109.9935 126.1175 121.9367 121.5345 121.5709 124.3713 126.4970 126.3515 127.1080 121.2718 126.4978 126.4037 127.6305 125.6548 126.7003 129.0422 109.5905 115.9230 112.7633 132.6394 126.1903 127.0334 127.3383 127.3689 120.6490 128.0505 112.9032 117.9974 126.4063 106.6413 112.2126 112.2835 118.2410 122.7001 123.0899 128.4830 129.3004 122.3930 123.1704 128.7629 128.5235 128.7452 128.7399 128.8196 128.8992 129.0039 129.1094 129.0595 126.9414 132.2745 132.1063 130.2488 122.5686 112.9017 109.2639 110.2056 110.0320 115.6034 127.1514 134.9737 135.2100
112.5600 110.0930 112.4867 106.7932 121.8331 122.3713 123.3023 122.4517 126.0650 126.1596 126.3006 124.2997 125.1724 126.5100 126.4202 125.7677 126.3313 126.3135 133.0728 125.7145 112.6636 117.6802 126.4564 122.8985 118.2203 125.6447 128.8777 113.2578 114.1673 120.2410 108.4805 109.3474 106.8214 108.1344 116.2265 111.2605 108.0057 118.3918 130.1421 128.0914 128.3675 126.8655 128.4438 127.7551 128.4993 128.4211 128.8149 128.9545 128.8067 128.9873 129.1146 130.1358 131.2563 134.8331 137.8463 106.2494 108.9359 109.9403 106.7788 105.1828 114.8089 133.9743 135.4066 135.2000
108.7900 113.7200 119.7516 108.3453 118.5057 122.7424 122.3638 120.9409 126.1572 125.8594 126.1380 126.2869 126.2432 126.1640 126.1216 126.3072 126.2150 126.2310 126.2036 111.1286 111.2707 116.7813 110.5953 116.1330 114.8482 117.6850 127.1447 123.2984 121.5608 107.8869 117.5608 106.8573 106.3824 112.0390 118.0347 113.2781 103.8029 116.9503 116.8381 127.2201 120.5848 127.9828 128.4947 131.3837 129.9159 129.7900 127.2799 127.8480 129.1863 128.4129 128.5736 128.6298 133.1498 127.3125 104.5019 106.6869 111.5506 106.8764 108.8738 118.1554 130.4589 131.0780 131.7070 131.0800
108.1300 108.1645 114.0725 107.0640 106.3314 119.9863 119.5943 118.0967 125.9797 125.8748 125.6965 127.7159 126.2182 126.0931 126.0500 126.0423 126.0698 126.1488 127.6980 115.4865 114.2873 133.1780 111.3695 121.1959 111.4084 128.2498 125.8816 130.7043 127.8010 125.5306 105.2864 109.6084 106.1958 118.7829 119.6893 108.1555 120.0784 126.5145 129.1178 128.1201 129.5029 128.1908 126.3349 120.6093 120.6526 124.2283 126.8878 127.3378 127.0319 127.5823 129.1888 131.5213 120.7783 110.7742 105.7478 108.4286 116.3707 116.6403 113.4875 109.0840 112.2185 131.8119 130.7765 131.1800
107.5500 107.7689 112.5735 106.4665 115.0892 120.6765 118.6466 117.8015 121.0085 125.9592 126.4223 126.9123 125.8734 125.6206 125.7459 125.8699 125.9217 125.9554 126.2953 125.4214 121.5980 123.6869 115.0419 130.1399 125.0887 126.8277 126.7518 126.5003 126.2196 127.7961 122.4607 122.9768 105.2706 117.2210 123.6332 115.1552 128.1083 126.3380 130.8414 108.5819 121.7366 128.2699 127.7218 127.5843 128.5718 124.3965 125.5710 127.4075 126.2470 127.5930 132.5589 112.4306 107.1748 112.9063 112.5297 118.5973 107.4430 107.3845 107.1292 105.7488 110.3762 129.7885 113.9085 131.1000
107.3000 107.5073 111.0708 104.6503 121.1111 116.9004 118.0177 116.8682 123.5454 125.6039 117.1067 120.8325 125.0620 126.0996 125.7187 125.6727 125.7271 125.7934 125.5020 126.0126 126.1513 126.3487 124.2050 119.3616 125.9850 126.3058 126.4452 125.9573 129.2402 127.7420 108.1359 108.1341 116.9049 105.4061 104.0442 125.7545 128.0159 127.1916 130.3234 126.3982 130.8037 128.0247 127.8782 128.0475 126.9664 125.2542 126.7860 127.0435 127.3641 127.8788 129.9970 104.1593 108.8172 120.5970 109.8211 118.2078 118.9702 104.6782 121.2853 131.6178 127.4155 117.1550 117.5931 107.9300
106.7200 107.3206 110.3508 105.0671 119.7305 117.0854 117.3255 117.3195 111.5305 132.0358 122.9389 124.2991 115.3119 126.1920 124.7857 125.4675 125.5475 125.5932 125.7316 125.7111 125.9367 123.4474 120.5946 122.5972 125.7739 126.2885 126.2366 126.1125 120.3223 118.2005 122.4463 128.2301 120.1895 105.0941 106.2421 128.3319 122.9019 127.6880 126.9236 129.8296 121.9267 111.7607 128.1809 126.4351 126.6826 126.2087 126.4819 126.9751 128.8579 121.8477 107.2807 105.9402 109.0750 129.6224 126.8342 117.1217 106.3726 105.7326 129.9987 128.7963 131.2505 132.1831 135.2957 131.9800
106.7000 106.9589 111.6541 104.9483 120.3976 115.9474 116.3946 118.5707 110.8776 124.0844 125.9194 124.1478 118.2537 134.5173 124.7932 125.2659 125.3552 125.4107 125.4457 125.5348 126.1509 123.1031 124.4342 122.4044 125.7041 126.0180 126.2759 126.2049 119.6035 106.3577 116.3970 121.4185 113.9057 123.8597 118.8103 124.7355 126.1357 127.9021 122.7508 121.1574 127.8488 126.3492 125.6493 124.0130 125.7954 125.9443 126.5221 127.1244 128.9890 120.3131 109.8265 109.7998 129.3342 127.8773 115.5344 107.7311 110.2265 117.6450 129.7405 129.6765 130.5715 128.1501 105.2997 107.7900
105.5700 106.6919 111.0838 105.1912 123.1046 118.3075 116.4283 113.6339 110.4468 107.4526 112.4790 114.6351 105.6709 121.8564 125.1537 125.0279 125.1646 125.2083 125.2659 125.3405 125.5729 126.2618 122.6988 125.7828 125.5025 121.4803 127.6067 125.8446 122.4861 127.4806 119.9301 125.8820 123.4528 124.0594 126.0554 127.7799 124.3922 126.5334 107.4977 101.9979 124.7621 124.3689 122.7065 125.3474 124.3443 125.3861 125.3599 126.7254 127.1009 106.4362 106.0846 122.7686 126.7803 127.1778 105.8127 108.2093 122.3619 121.9504 130.0283 131.5364 131.1504 134.2444 108.5078 131.6000
103.7700 104.9019 105.0912 104.3945 103.7680 112.5350 116.3576 108.6152 113.5135 108.4472 106.4457 115.1110 116.8627 126.1200 124.4165 124.8988 124.9116 124.9899 125.1252 125.1238 124.4640 124.7124 123.6166 125.6930 126.7426 113.4338 125.1994 125.8410 125.9644 129.1356 126.4722 125.5199 126.9993 127.4639 120.1098 124.1220 123.2534 119.4392 104.3239 111.3669 125.9655 121.2394 122.4200 123.7104 124.7399 122.7156 127.3142 126.7926 127.0687 130.3845 130.2215 110.9986 125.9476 118.9713 108.7816 121.4907 120.5691 122.4152 133.3920 130.7477 130.9145 132.2094 108.0497 107.6400
113.8700 102.9181 109.9912 103.8390 101.6465 113.6993 129.4699 110.3427 113.7445 113.1214 107.9509 115.6489 112.3025 129.5917 124.1611 124.6578 124.8531 124.8786 126.4323 125.6705 124.1314 125.3762 125.4043 125.4603 125.2671 126.9323 125.9893 125.6767 125.7128 125.5970 134.6720 126.8121 121.9512 123.2643 120.4389 121.3671 110.8174 114.6529 102.0114 119.1688 120.5273 122.7296 121.9184 122.7469 123.9349 121.6818 126.6502 126.2838 125.9159 124.1484 125.0794 120.1269 114.5144 103.8072 106.4096 115.1788 116.6127 133.3365 129.6125 129.9075 131.2094 133.2837 110.5525 107.6000
113.5900 102.2402 106.0694 104.7038 106.4162 103.8134 116.2734 104.6729 124.0849 110.7162 110.8410 115.7505 118.7589 125.3142 124.2835 124.5354 123.3554 122.7298 117.7273 123.8867 124.7749 124.8554 125.3611 125.3115 125.1712 125.2492 125.1446 126.5383 126.0765 125.2597 125.5211 126.1909 120.6193 120.0362 119.0632 120.9467 121.3636 125.7599 119.0979 122.0365 120.9273 121.5639 121.1627 121.4170 124.5882 125.5911 125.0500 125.2721 126.5066 125.9584 125.3811 120.4223 123.2819 106.1886 104.7311 110.9595 103.6346 128.7892 129.4894 131.2134 133.3674 136.7761 126.7440 107.6000
101.8800 100.7369 120.6560 101.6309 113.5012 125.6478 113.4504 104.4702 123.7745 112.6568 113.8066 112.1677 125.4474 123.9973 124.2013 124.3377 121.8188 109.5789 126.5629 124.8047 124.7815 124.7436 124.7930 124.2688 125.4861 125.3897 125.3654 119.6501 125.6030 123.9265 127.0993 125.7154 119.2425 120.2215 120.5487 124.1278 125.2884 118.2160 112.8933 120.0137 119.7415 123.6874 120.8484 122.1611 123.8867 124.6375 124.2440 124.1764 123.3799 116.1810 125.1899 125.3755 125.3831 107.0431 119.5164 121.3239 117.2666 124.5312 131.5644 134.1403 134.7415 138.0363 113.6351 107.4700
101.6600 101.0105 122.7409 110.7630 115.3793 119.2091 114.0864 109.4125 110.7751 124.2529 114.3656 108.8864 122.3150 123.9633 123.9588 123.8997 125.2238 124.3461 120.8347 124.1355 124.4145 124.5273 124.6172 125.3370 119.0202 123.5794 125.5479 125.1255 126.3333 117.3087 123.3212 119.7234 118.6036 119.2286 120.7005 123.9014 121.6387 120.3045 114.8035 118.7433 122.1320 119.9456 121.5491 124.0336 124.3035 123.6411 123.5452 123.6590 123.2892 123.3553 127.4844 125.8226 126.0945 122.0469 124.6947 117.8835 125.2480 132.0883 133.4237 134.6517 134.2802 132.0500 111.6744 133.3200
114.3000 113.6965 124.2544 115.4591 114.1004 119.4688 112.3611 107.9461 108.8668 125.6293 124.7911 116.4142 123.0259 123.4886 123.7276 123.8495 123.6674 125.7724 124.8650 125.0720 124.3118 124.3336 124.4397 122.9430 106.8051 103.9242 125.1272 125.2211 125.2323 126.5842 116.7366 117.8689 119.5018 119.3046 125.1107 122.0895 118.6900 118.8890 117.8787 119.2015 123.8328 123.4397 123.0681 124.1705 122.7808 122.6469 123.3275 123.7648 124.3713 114.7830 106.9975 123.5460 124.0653 126.2759 123.4346 122.5625 133.1698 132.7319 133.6234 133.2613 134.2944 135.2223 127.1445 123.5100
111.8400 122.9518 120.4832 121.2932 114.7845 114.9170 112.5752 117.1130 107.8847 125.6116 123.2251 123.5776 123.3635 123.3789 123.5051 123.5842 123.3788 123.5014 125.8000 114.3033 120.2849 124.2157 123.7058 125.3563 117.9581 101.8914 107.9396 107.9200 124.6266 117.1856 118.1919 117.6701 118.4095 120.0652 121.3922 118.6522 117.3769 117.3646 121.3325 124.8696 121.0856 121.6902 122.9927 121.4701 122.2017 122.6181 123.0052 123.4643 123.5075 123.4455 122.8426 124.3709 124.2936 123.0032 104.1328 116.8637 134.2005 133.1022 133.3356 132.9210 133.3201 127.6821 127.2584 126.0000
122.9600 124.2636 125.1383 107.8632 113.2341 109.4437 117.4897 109.4525 102.5371 122.4930 122.9892 122.9734 123.0734 123.1688 123.2265 123.5257 124.0890 123.6230 124.4051 125.8930 122.8712 125.2005 125.6266 120.0471 112.4737 106.5919 102.9188 105.5202 110.9972 114.3421 117.7235 117.7888 117.9604 117.2227 117.5661 116.8671 117.6858 105.9879 123.5906 106.3892 121.3886 121.8120 119.8013 120.4417 122.0891 122.3381 122.3787 123.1145 123.6762 124.3579 123.5356 121.1263 124.2635 123.0284 134.9319 109.2010 131.7952 133.4497 131.7916 126.3919 126.0477 126.3768 136.4623 130.4000
122.7100 114.9415 114.9264 101.0933 111.7690 110.0085 113.9631 110.6662 109.9467 124.3466 122.5916 122.6378 122.9879 122.8194 124.5199 122.3381 113.8252 123.0869 124.0148 123.0184 123.5411 123.1678 106.5446 108.4444 110.8770 116.1099 105.0718 106.8381 108.5332 104.8368 114.3010 118.2054 114.7587 115.3523 116.1628 116.3279 117.4669 117.9353 104.6639 105.8643 107.4155 118.7719 119.2946 120.0054 121.0680 121.5018 122.7982 123.6230 123.8987 123.4567 123.0949 124.1714 123.5634 129.6487 127.7531 126.5434 130.6290 127.3492 121.1095 124.3335 124.5339 123.2187 130.3970 131.0600
122.4600 108.6960 108.1312 116.8460 106.8275 117.8973 106.4189 121.1872 113.1546 123.8674 122.8753 122.7962 122.5236 123.8838 115.2761 120.0422 127.2258 115.6543 122.9998 123.2972 123.5055 123.2276 114.7262 121.9752 106.1174 113.8068 109.7260 104.5986 104.5968 110.3790 118.1060 116.0736 115.9835 116.5158 114.8608 113.4544 110.5671 109.5668 103.4751 108.4200 121.1253 119.2631 119.3501 119.9036 120.9067 116.2380 123.1228 122.7410 120.2504 123.9847 128.1684 125.3875 113.6246 128.6968 126.3594 125.7365 125.3234 106.6415 123.9905 121.6840 123.8291 131.7169 128.3118 130.8100
106.8000 104.5445 114.5297 101.3447 108.2988 114.6797 106.2083 123.3441 122.8878 122.8855 115.7173 121.1018 125.8955 117.2232 114.4701 118.5632 107.3374 123.4934 122.8291 123.2332 123.0496 123.5657 122.7590 120.5401 120.6438 107.8767 100.4887 102.2255 106.6959 112.4486 115.9979 115.7445 108.8787 116.5619 113.3636 116.1228 102.6520 102.8505 104.2745 107.9636 118.3199 113.3225 118.4321 119.1034 120.5995 108.5732 119.2690 116.1884 115.5058 122.7828 125.3980 125.2657 121.0691 115.9884 105.5457 116.4519 119.4331 115.9342 121.3071 123.5607 122.8545 127.9199 123.2505 124.2700
121.6400 107.5359 115.0669 113.1970 123.4205 122.6300 106.0796 123.1970 121.6379 122.2496 120.6454 121.6664 122.9573 106.2606 109.6769 120.8645 106.7815 123.2082 123.1161 119.9304 121.4744 122.5251 123.6564 112.3548 103.9156 100.6168 101.5919 110.7663 116.1729 116.7867 113.1482 114.2999 107.5292 100.9481 101.5106 100.7513 103.9478 103.0953 104.1310 102.8047 112.6234 108.1004 118.2800 119.0252 120.5215 115.3039 116.8541 123.2939 107.7077 111.3888 115.0316 116.7461 102.4903 105.8733 106.8862 105.2687 103.3764 115.7438 115.1745 122.6075 124.1307 124.4664 122.0437 121.0900
105.8900 106.8729 102.1098 102.8909 122.2343 121.6060 121.6712 121.5384 121.5629 121.4392 121.7410 120.9580 123.0396 111.5233 110.7881 118.7744 111.5655 122.5518 123.5446 117.2385 118.7510 123.7674 124.5826 104.1571 108.3019 103.0858 100.8522 105.6296 107.0048 106.3409 113.5805 112.6223 110.8430 102.2758 102.9368 102.9751 102.7762 106.1742 109.1618 114.4970 112.8107 115.1456 120.5411 121.1585 113.7099 117.6815 123.5794 123.9027 111.1584 112.4243 112.9505 103.8794 105.7597 105.8418 105.7232 105.8676 106.2486 105.1143 110.4274 122.8538 121.0169 120.2494 123.9654 123.7600
101.6600 105.8600 100.9337 115.0186 121.5761 121.2731 117.8926 121.3706 121.0643 121.3326 121.0869 121.4854 122.5243 102.9379 105.5245 109.3727 122.2569 116.2133 107.2006 122.0736 123.1010 118.2401 105.7522 100.3589 112.1459 101.0513 105.2984 100.9978 107.6181 107.9078 112.2382 111.6860 114.4284 102.6429 103.1246 103.3615 101.5559 116.6329 117.6784 118.7889 116.7701 116.2076 116.6522 112.0246 116.3437 121.3814 121.9566 122.2759 122.8998 119.5759 112.8644 104.9692 105.4643 105.4816 105.8773 105.9636 105.0744 104.7859 112.2828 118.4049 121.4111 121.4375 121.4610 120.8100
116.4200 105.1287 101.6228 103.0061 120.8590 120.8393 121.0675 120.5692 120.4691 120.5425 121.2980 102.8304 120.0841 113.7941 112.0721 112.9620 112.3638 108.9364 114.9028 121.9990 122.1846 122.8204 114.3671 123.8096 108.5674 105.7001 113.4546 102.4747 108.2863 111.6411 115.4001 115.3516 112.4201 108.6725 105.1508 102.5673 101.5102 116.3332 116.3483 119.0870 114.0708 111.9597 113.2238 103.2292 118.2968 118.1699 121.0957 118.8886 106.3247 115.6673 102.6654 105.5121 105.5048 105.7718 105.1180 104.5265 113.6797 114.0931 122.3889 120.7806 120.9867 120.5066 119.4122 120.8100
103.4000 107.2171 109.6940 119.9472 121.2253 120.1328 117.3867 113.9767 122.3369 120.5477 130.7569 114.0580 122.2317 108.0024 123.9139 117.3533 120.9484 117.7620 108.8619 121.5231 121.8521 122.0386 121.4737 111.0590 112.1853 113.3359 109.2147 110.8092 109.2328 111.9669 116.0872 115.8059 116.2209 106.5372 102.1542 107.0132 114.5399 116.0708 117.1711 106.2403 103.9477 117.9079 102.1930 116.4572 119.8051 117.2522 111.6196 124.8890 103.2726 109.9338 104.9960 104.9880 104.9398 104.2052 114.8545 113.9546 115.9875 115.4346 119.4632 119.9133 119.2872 120.2828 119.9327 120.6800
98.0900 100.7487 105.7440 121.0478 119.7669 119.8637 120.5955 126.2979 119.6971 120.4808 122.4895 119.7266 121.1713 119.7987 126.0942 124.9771 124.1821 117.6398 124.7530 122.0478 121.6902 122.2008 111.3621 111.1652 104.3422 112.6518 108.3695 104.4363 108.8277 112.3491 106.7726 113.9220 113.5431 113.3744 104.9163 106.2432 105.2960 120.2861 110.6285 106.7873 119.7858 110.6402 116.6865 118.5873 120.7151 123.1813 103.2519 104.4631 104.4034 104.3715 104.9426 104.1734 114.5595 113.7960 116.2200 116.7298 116.5084 117.3272 118.4648 119.0627 119.5168 119.6339 119.9669 120.2600
119.7500 121.2868 122.1457 119.9493 119.6663 119.4902 119.3037 121.1885 120.1992 119.0189 119.8184 119.9262 120.1688 120.5836 120.8755 119.9911 120.7439 121.3660 114.3172 108.3644 122.4372 119.2682 105.0751 103.5945 112.3638 110.7850 108.4634 113.9572 114.8654 113.8067 113.6706 112.6030 113.1844 113.5667 113.2469 102.9064 103.8675 106.3746 108.7027 117.5280 116.6249 117.9466 119.8690 120.4899 120.2546 116.7328 106.4392 104.5781 104.4349 103.9774 114.3048 113.9557 113.9137 115.3685 116.4832 115.9703 116.9224 117.6042 118.9045 119.1879 119.4014 120.0176 120.3633 120.6100
119.3900 119.0813 116.9996 119.1615 119.2229 119.2628 119.2383 119.2664 119.3819 119.4855 119.5868 119.6643 119.7713 119.8773 119.9450 120.2479 120.4516 120.3806 122.6957 124.2328 105.3593 103.9379 104.0337 108.4786 107.3868 107.1575 108.6762 113.7775 112.1852 112.0279 111.6796 112.2538 112.9545 113.8164 115.5770 102.5115 104.4421 112.3699 117.2141 116.6324 116.2857 118.8694 119.7346 120.5555 116.8786 102.9188 104.0065 104.4092 105.3037 114.6067 113.3467 112.2789 110.2664 115.4916 116.1738 116.7516 118.4182 118.6523 118.4107 116.8353 118.1716 119.2929 119.3234 119.9200
119.0100 118.9513 119.1942 118.9233 118.7963 118.7890 118.8497 118.9290 118.9663 119.0561 119.1197 119.3292 119.3850 120.2286 119.7403 119.8904 120.1137 119.7882 119.8119 120.7024 113.6013 114.4101 110.9766 99.6549 105.7139 111.2687 109.0490 109.0570 110.9467 110.6491 111.2106 112.4053 113.6585 114.0235 100.2348 102.9105 105.0055 116.0949 116.4341 115.5582 114.4576 114.9023 113.7712 113.1244 101.9244 104.1879 104.9186 103.3722 113.9457 113.5555 108.4951 112.5613 115.5241 115.0506 114.9244 117.0273 117.0428 115.9608 116.6308 109.2751 113.3903 111.5112 109.3701 122.2800
118.6100 118.4443 118.3384 118.3461 118.3561 118.3715 118.4047 118.4621 118.5118 118.6640 118.9204 117.5793 118.5615 117.4137 118.5684 119.5597 119.7681 120.7823 125.9349 113.9146 100.0351 105.7941 105.9930 101.3503 107.0368 108.4239 107.5303 110.4718 110.4244 110.9190 111.4852 111.7908 108.7244 99.3601 101.5358 103.1973 115.8841 114.1503 113.3824 119.2019 115.9495 116.4680 116.2948 108.6729 104.2986 105.1845 114.1968 107.3873 116.7206 111.4719 112.4806 111.9232 112.7703 108.8575 114.6163 112.9664 108.3799 105.8469 109.5398 112.2743 117.1050 112.9493 107.6205 117.2600
118.2000 118.0112 117.9526 117.9077 117.8965 117.9073 117.9409 117.9932 118.4243 117.9811 118.6739 111.1727 115.6613 116.7894 119.2147 119.2424 119.8890 119.4809 109.2667 99.9810 103.4901 107.8486 101.1047 101.3815 99.0181 100.8476 103.0156 108.9082 110.1261 111.2693 112.3257 103.6872 100.9564 103.3874 105.3723 109.6614 113.2895 113.3868 112.1143 116.3738 117.8455 116.7042 114.3226 110.0089 107.7342 105.6771 113.1015 112.2668 101.6724 107.7597 111.0534 109.6199 103.5994 105.1200 108.7900 105.3833 109.1575 110.9826 116.9010 118.9426 116.3791 118.3576 118.2179 117.5900
117.7700 117.5250 117.4625 117.4138 117.4077 117.4110 117.4396 118.0135 114.9101 118.3240 116.9994 105.7874 116.8991 118.1722 118.3469 118.5197 121.0253 109.2279 95.6460 101.4260 106.4444 105.3681 104.2514 107.6346 106.0781 110.3805 108.7631 108.8224 111.0050 112.6083 112.9806 105.4209 107.5483 106.6621 107.3090 111.5703 113.6270 108.2495 111.9257 110.1110 112.5159 110.8471 109.8491 110.5684 111.8666 113.0172 109.6880 111.1909 104.0201 103.9978 103.3823 104.0650 105.2966 103.6301 108.0669 108.6588 116.7456 116.9264 116.0459 117.0017 116.4627 113.7961 119.6194 119.9100
117.3100 117.0307 116.9472 116.8995 116.8888 116.8923 116.9220 117.2217 106.6257 118.4398 118.3056 117.6906 117.6402 118.0826 118.3364 120.4580 105.2965 108.0987 105.2013 102.5433 112.5380 104.3326 102.2646 106.4274 102.4954 104.3936 106.2819 109.6284 111.5068 110.9549 102.3313 111.2792 109.7664 108.1524 113.6817 104.2596 104.7317 105.7270 110.6738 110.7643 108.7202 112.3452 104.8869 111.5530 110.4360 113.7365 102.5652 107.6040 103.8749 104.4013 104.8712 104.4845 103.5962 110.1411 114.8726 112.2535 115.5288 112.8049 114.1226 113.1768 120.1248 108.3028 121.2563 112.0200
116.3100 116.4347 116.4129 116.3546 116.3354 116.3449 116.3981 116.9564 117.6784 116.6529 116.8632 117.2760 117.3714 117.6229 117.9325 113.1599 97.0803 93.1046 117.2702 119.3568 103.0356 105.7691 100.5807 101.2894 102.7704 104.4428 111.1145 111.8667 109.1437 109.6236 105.0693 111.7988 107.1914 108.2845 106.8340 99.6119 102.0270 107.4672 108.1907 109.8671 108.1362 118.1781 105.0122 111.1361 112.1854 106.4621 103.2373 103.3175 104.0684 104.0144 102.6774 110.5528 107.8414 115.3153 114.2112 111.0805 120.6407 112.8530 109.9031 109.6317 112.8221 119.2944 120.0128 118.0500
115.7700 116.1955 115.7972 115.7731 115.7491 115.7705 115.8418 115.8351 115.9094 116.2685 116.4669 116.6651 116.8861 116.0658 117.5221 117.7498 96.2011 104.3434 97.0187 100.0013 100.6960 100.0325 102.7886 99.9052 101.4543 102.0524 103.3841 104.9923 108.0817 106.3742 111.0085 104.3142 107.1013 109.6083 99.7710 109.7599 106.1081 106.9226 107.4471 107.6467 107.7506 110.2930 110.3442 105.2842 103.8059 103.4823 103.7591 103.5347 103.8087 104.3322 111.6568 108.1190 109.2004 109.0420 107.8918 106.8735 110.5798 117.3245 108.2915 115.5294 115.5611 118.5421 117.4126 118.0500
115.1900 111.1332 115.5841 115.0970 115.1182 115.1390 115.2134 115.3493 115.5199 115.6867 115.9158 116.1549 116.5680 116.6235 113.1790 117.5703 113.8294 106.1222 121.6963 101.0665 106.2682 115.5178 100.2544 102.2472 107.7716 109.2517 105.8093 100.4917 103.2546 102.1730 114.1522 106.5687 108.4518 103.7177 100.5674 102.9205 104.5486 104.9844 107.2521 107.3260 110.3754 110.6794 114.0255 117.7248 103.8066 102.9349 102.7434 110.5297 104.4442 105.9584 107.2347 104.9416 106.0205 105.1828 107.2639 109.9826 114.2814 115.9134 115.9991 116.9172 116.7166 116.2623 116.5787 118.5100
114.5600 114.4666 114.8509 114.4428 114.4351 114.4709 114.5544 114.6923 114.8718 115.1000 115.3624 115.6464 115.9244 116.3744 116.6030 117.8850 112.6353 93.6268 101.6871 117.7218 117.4729 108.0688 101.9401 104.2020 106.3973 102.0830 111.1573 109.0520 110.5929 104.3128 112.4407 112.6883 107.7731 100.0830 100.6635 102.9000 103.9337 105.2001 105.4158 112.1049 104.8916 120.6977 109.0319 116.6611 121.8991 102.6744 103.7121 103.8978 103.8168 104.0543 104.4395 104.6728 112.6936 113.0394 113.9240 114.7375 115.3321 116.0664 116.3317 120.0819 117.7367 119.3760 121.1780 122.0700
113.8800 113.9696 113.7420 113.7091 113.7006 113.7339 113.8375 113.9969 114.2139 114.4679 114.7704 115.0908 115.4486 115.8430 116.0302 118.5130 97.8911 117.9648 98.4559 120.3030 118.6743 100.3784 102.2888 115.6085 106.7662 107.0646 117.3892 111.0052 102.8304 111.5126 103.3763 119.5333 106.6256 100.3528 101.2336 101.6551 103.4862 102.1867 101.5263 104.6318 105.5705 107.8734 103.7702 102.7763 102.5386 103.1042 103.5091 104.0282 104.6598 112.4127 112.6245 112.4514 112.9036 113.5775 114.2763 119.0523 119.3024 118.6734 118.9760 119.8881 118.9437 119.1751 118.3948 121.1900
113.1500 113.2292 113.0601 112.9312 112.8924 112.9354 113.0572 113.2480 113.4992 113.8015 114.1487 114.5163 114.9090 115.3167 115.7405 116.3030 115.8143 118.3479 117.9695 99.6652 99.4575 98.2711 97.2895 102.7564 104.8147 108.5327 99.0125 96.7941 108.6882 109.2219 113.0209 112.1553 112.2283 100.1323 115.6987 98.1662 108.0480 101.6913 106.2751 103.3379 112.6968 117.2068 100.8992 115.1741 103.0516 102.8067 110.9814 111.1469 110.0628 109.7279 110.8888 111.6540 115.0758 117.5038 118.5120 119.3794 118.7601 117.4499 119.1540 119.1024 118.5827 120.1192 105.5282 120.0100
112.3400 112.4052 112.1739 112.0407 111.9996 112.0548 112.2020 112.4336 112.7380 113.0900 113.4878 113.9184 114.3680 114.8076 115.3335 115.6903 115.5497 116.2954 115.8027 97.7667 101.6463 102.2554 102.1067 105.9661 106.4497 113.7906 104.3608 101.3240 106.8211 111.6412 110.0722 111.5680 112.8484 113.4250 117.4584 103.8784 103.4061 116.7402 115.1481 113.1636 112.0226 111.6921 105.2375 111.9401 107.3180 110.6962 108.4048 108.1821 106.2623 106.5489 113.1437 116.5884 116.8960 116.1802 117.2659 119.2051 118.2113 118.6245 119.4328 121.1607 120.4706 123.4955 110.8461 106.1400
111.4400 111.5113 111.2372 111.0629 111.0137 111.0785 111.2619 111.5421 111.9115 112.3364 112.8020 113.3034 113.8101 114.3207 114.8214 115.6049 116.3248 115.3338 117.1183 102.3827 110.3493 98.7229 101.9248 103.6386 104.2009 107.3364 109.5635 112.3789 107.5871 111.0337 111.4528 112.3809 111.8119 113.0401 112.1973 109.7264 109.1532 112.0819 110.4816 101.1008 107.4656 104.5715 101.7379 102.2767 102.0779 101.5129 106.3395 107.6699 115.5496 118.3410 113.4087 111.3688 111.8572 118.6214 119.3120 119.0375 120.1960 120.0512 120.5098 121.9502 118.9512 114.7132 116.6692 120.1100
110.4400 110.5288 110.1820 109.9596 109.8915 109.9824 110.2107 110.5717 111.0159 111.5302 112.0856 112.6577 113.2330 113.8508 114.1984 114.4780 109.9642 119.4576 105.2701 95.8669 94.3574 101.4448 105.9067 104.0479 106.8428 107.7705 107.8945 115.2251 108.7718 109.4221 109.7939 110.7341 109.9231 110.9054 100.4107 103.0735 98.8397 109.6530 112.4924 110.8244 113.7799 105.5305 103.7506 101.6408 107.4762 108.8465 115.6469 115.8315 114.7922 114.5631 114.6909 101.6951 105.3575 112.5840 112.1333 110.8511 111.0142 119.2403 115.7246 107.2705 113.6662 109.9628 102.8199 120.5000
110.3700 109.4375 108.9884 108.7061 108.6065 108.7251 109.0273 109.4858 110.0460 110.6842 111.3379 112.0111 112.6687 113.3382 113.8847 114.2948 108.9690 103.5047 92.9739 98.9479 100.2242 104.3321 101.9577 112.2871 102.4926 107.5066 105.3838 105.0899 106.3603 108.0902 110.0397 107.7769 110.8657 109.6970 98.8963 114.5767 100.1069 104.7135 111.1302 110.7832 111.3092 113.5392 108.1694 109.3643 114.3499 114.0769 114.5350 115.4327 115.8993 116.7812 120.0709 104.4236 103.2122 101.3133 108.4566 110.8849 110.9283 120.0796 111.1880 112.8811 111.8231 120.4838 118.4230 120.5300
109.2800 108.2096 107.6256 107.2363 107.1015 107.2647 107.6787 108.2843 109.0068 109.7845 110.5682 111.3544 112.1255 112.7547 113.8330 112.7776 120.7963 89.7320 97.8210 93.8386 122.0395 111.5258 101.0447 102.6507 100.5294 101.4581 99.2243 115.0035 101.1420 104.1586 104.8584 102.2112 105.4795 104.5903 107.0798 113.0096 106.4141 109.2313 110.5849 111.1725 110.8742 111.7319 113.1848 112.5251 112.9555 113.1392 113.9558 114.8170 115.6813 116.2764 122.6312 102.5143 111.1070 113.0224 119.4337 120.0902 119.7488 119.1209 121.4762 120.4186 120.6631 120.0381 119.9476 120.8800
107.9400 106.8534 106.0443 105.4732 105.2828 105.5190 106.1143 106.9440 107.8833 108.8515 109.8095 110.7168 111.5777 112.3696 113.2145 113.0613 116.1697 109.4231 112.4520 108.0352 115.9330 118.9811 111.7678 116.4514 106.5788 115.0163 109.3305 121.4750 115.2508 109.8843 117.0834 99.6339 102.4286 105.0568 115.2822 109.9210 111.5824 109.7239 110.5057 110.4553 111.1934 112.0789 112.2967 112.5247 113.1789 113.9461 114.8259 115.3474 115.5677 116.0244 116.3986 113.2932 117.7325 118.1592 118.8021 117.7881 118.0388 119.2346 118.9305 121.5925 119.3554 121.0950 120.8503 120.5300
106.1400 105.3310 104.1612 103.2852 102.9615 103.3479 104.2805 105.4553 106.7058 107.9203 109.0581 110.1137 111.0829 111.9793 112.9363 113.4814 114.1095 115.7201 116.2866 116.9074 116.6798 117.2074 117.3506 125.5926 106.9349 122.1138 119.6903 120.2157 119.7317 115.9056 117.4597 112.7996 106.3813 107.2239 109.1631 110.8253 110.7456 110.4446 110.8521 111.2303 111.7244 111.7741 112.1380 116.1057 112.8551 114.3282 113.6485 114.7797 115.5355 117.4425 117.9977 117.8986 117.9885 118.2451 117.9145 118.3181 119.1613 119.5945 119.3673 121.0204 119.8991 120.3076 120.2559 121.9400
104.2300 103.6729 101.9082 100.4599 99.8483 100.5767 102.0591 103.8568 105.5162 107.0262 108.3754 109.5750 110.6525 111.6270 112.5020 113.3362 114.0578 114.6484 115.3226 115.9296 116.6833 117.1158 117.9967 115.5616 120.7326 97.6789 100.8692 122.0832 120.6362 115.0810 121.1646 104.6367 105.0107 104.8635 107.4349 110.3554 108.5999 107.5471 109.9065 110.5912 111.1777 112.4894 113.1493 121.9370 103.1470 115.4139 114.5252 115.4408 114.9723 116.7332 103.7611 107.3384 107.6153 116.9842 113.2387 118.8608 119.5519 120.5051 121.5762 106.2107 119.0197 118.1372 124.4545 123.7200
103.9200 101.9642 99.3649 96.1360 94.5375 96.4989 99.5781 102.2148 104.4138 106.2534 107.8084 109.1405 110.3147 111.3469 112.2818 113.1294 113.8980 114.6275 114.8687 116.2778 107.0595 115.4693 112.9308 94.7876 99.5412 101.8983 104.0167 103.6577 107.1244 106.3233 100.2659 115.6544 100.7876 104.3403 106.4010 108.5315 108.4325 112.6949 108.9550 111.4597 104.1505 103.1972 118.8426 110.2926 102.5258 107.9994 118.3248 116.5815 118.3199 111.8866 113.4654 113.5096 112.0558 121.0018 121.6781 122.2316 123.5253 115.6749 117.4336 122.0135 103.5703 105.6802 105.5454 105.9700
101.7300 100.4560 96.4953 90.1741 87.9872 90.6583 97.0098 100.7941 103.5693 105.6891 107.4092 108.8507 110.0874 111.1766 112.1374 112.9827 113.9978 114.5166 111.8975 114.1315 109.2528 111.2009 115.9834 116.4713 119.3074 99.8988 102.7049 104.1662 102.6448 116.6017 104.8076 108.5675 101.1668 102.0501 108.1052 105.6843 110.2656 112.7727 106.3916 111.0832 114.8764 112.7024 117.5798 111.3135 102.6350 107.5403 116.9526 117.5138 118.2175 114.9359 103.9890 120.0510 118.3354 120.7829 122.0029 122.1738 123.4391 124.4135 119.0119 117.6731 103.3422 118.7037 106.3306 105.9600
101.4900 99.7160 94.6090 86.9132 84.2354 87.2258 95.3974 100.1008 103.1854 105.4447 107.2400 108.7240 109.9882 111.0831 112.2075 113.2477 116.6884 114.5670 106.8997 89.4744 110.0918 112.4301 94.6389 98.8426 98.6941 108.8840 108.7817 109.3594 109.5459 97.4065 99.2546 99.8717 101.4831 106.4098 104.7684 109.8746 112.6742 116.7015 101.2907 116.6762 99.2930 100.2669 117.4155 109.5253 104.6458 104.5021 104.3644 104.8050 105.4132 106.2385 109.4713 110.0354 110.8241 119.3324 125.1704 119.9132 119.0102 117.6813 106.2493 107.6724 106.9858 114.7737 120.3139 105.9600
101.5000 100.0970 95.6401 88.7380 86.2670 88.9600 96.1618 100.4306 103.3649 105.5583 107.3128 108.7772 110.0301 111.1304 112.1791 112.9112 116.4582 114.1613 112.3843 95.8401 116.8874 115.3438 97.4600 101.2919 107.3862 103.6702 108.0716 104.5169 112.3195 98.9756 105.8875 103.4082 102.1849 112.9434 109.5208 109.1818 115.7264 116.6564 110.6109 117.7570 99.7248 101.2776 111.9495 107.0479 103.2753 103.2595 104.8587 106.8927 109.5388 112.3486 118.2807 119.7618 115.4558 117.0037 127.4022 114.5842 113.9480 109.3405 124.4105 125.6075 123.6179 117.0538 115.5585 105.9600
103.9500 101.3689 98.2021 93.7187 91.7381 94.3767 98.6728 101.6419 104.0610 106.0114 107.6321 109.0136 110.2127 111.2695 112.2078 113.1258 113.6875 114.6917 115.4429 113.8961 103.9194 111.6109 85.7178 96.2866 113.8035 113.5004 111.4288 106.7534 118.5316 101.0385 105.8537 107.9841 104.6220 106.0742 106.7466 108.2448 117.2478 109.6551 115.3197 111.1082 103.2270 105.9000 107.2817 100.4919 105.9525 107.6569 108.9102 111.6827 120.5707 124.6728 124.8644 124.0225 117.1449 109.9206 127.5431 108.6671 108.4352 117.5005 126.8879 127.1261 123.6086 123.8897 103.7472 105.9600
104.1300 103.0281 100.9714 99.0687 98.2197 99.2495 101.1574 103.2235 105.0900 106.7169 108.1458 109.4033 110.5122 111.5148 112.4130 113.0631 114.0174 114.6428 115.4066 119.1149 110.1092 97.9622 151.3707 105.3854 102.0678 109.0991 116.2076 106.4575 117.2346 111.8972 99.6441 102.4327 106.3850 107.6232 104.7717 111.8797 107.7746 98.9911 107.4686 101.8876 103.4467 115.3959 118.1702 114.0985 117.3291 112.9141 117.2974 117.4144 119.3298 119.6971 120.0510 120.7490 123.0354 127.3464 118.2489 129.1554 105.2603 101.7847 102.9148 126.7682 127.6809 129.0996 107.3612 118.8300
104.4100 104.7236 103.3719 102.2915 101.8770 102.3539 103.4833 104.8592 106.2491 107.5734 108.7961 109.9059 110.9004 111.8302 112.6875 113.4263 114.1686 114.8188 115.7572 114.1272 126.8808 105.0872 92.8187 96.9865 103.3360 102.7749 106.2001 108.0273 106.8230 111.6023 108.2650 107.2726 111.8220 112.3910 111.5516 114.6066 112.7645 108.3136 100.8665 102.2211 106.1707 106.7698 110.7542 104.6312 105.6688 109.5974 115.3407 116.0391 116.2217 117.0446 118.1934 118.5849 119.4062 119.6217 117.7645 122.0258 120.9998 115.0145 115.6330 123.4763 124.6543 125.5274 116.1027 106.7000
107.6500 106.2994 105.3673 104.7049 104.4614 104.7360 105.4477 106.4120 107.4408 108.4918 109.5179 110.4696 111.3849 112.2473 112.9571 113.6526 114.3650 114.7316 115.1808 118.9678 103.5415 106.2832 111.6813 108.0887 101.4804 116.3194 111.9862 118.0045 106.2588 105.9049 110.1678 113.3194 113.1756 113.5953 114.4187 109.4245 117.5987 105.1522 99.4646 112.0687 117.1762 114.5996 114.7233 107.4755 115.0370 114.7451 118.1066 114.7281 120.0565 120.6759 116.8960 118.0225 118.3580 120.5609 120.3447 121.1885 120.7251 123.1403 123.9042 123.5807 122.8427 124.2201 113.2310 105.9700
107.6500 107.7223 107.0562 106.5968 106.4471 106.6152 107.0823 107.6704 108.5175 109.4336 110.2846 111.1276 111.7760 112.2935 113.5386 114.5193 114.5100 115.7445 116.9992 124.6470 114.5872 102.5374 112.4091 112.5369 100.0275 104.0169 102.4613 119.9049 103.2106 102.9848 101.8062 105.3018 105.3788 109.1913 110.5509 117.3960 103.6072 100.4379 100.2376 118.2289 118.2050 106.1322 105.4542 102.8406 106.2699 110.5043 113.8587 112.8237 122.1596 123.3720 122.3245 122.6042 121.6306 110.4784 122.4085 123.2716 124.0162 127.0709 121.9406 122.7630 122.9807 122.9698 104.0115 105.9700
109.2100 108.9897 108.4966 108.1685 108.0583 108.1807 108.4969 110.4289 109.0032 110.4261 110.9417 111.7870 112.3564 113.8137 110.3433 113.6585 115.6553 103.6433 115.6364 96.4822 104.3612 98.8491 106.2179 111.2321 104.0966 99.5573 99.8575 104.2535 104.7671 106.4336 106.5744 107.0356 105.0939 105.8740 112.2197 104.6869 101.9739 103.9222 101.0797 115.3913 118.1024 109.6724 112.5473 116.4465 105.9741 102.3463 100.6898 120.5215 121.8989 123.2517 123.2154 122.6141 124.4695 123.9437 125.0080 126.2571 125.4302 126.8884 128.1491 121.8654 122.1709 127.0678 112.0502 106.0800
110.3800 110.1230 109.7424 109.5013 109.4207 109.5145 109.7180 112.1747 88.1372 100.0909 111.7627 112.1401 115.1921 94.0610 114.1158 113.7803 112.8187 115.8591 115.0110 96.5059 100.9118 101.7583 102.7502 106.2234 98.6126 102.8145 104.1226 106.9837 107.0061 111.1213 106.4798 110.4124 111.2156 109.1805 118.5855 101.4041 110.7665 110.0701 114.0933 102.2025 105.2432 106.2914 108.3945 104.2411 107.5363 118.9740 119.3570 120.2921 119.8861 122.6301 122.7203 122.9622 124.7832 125.5110 124.2193 126.6363 116.0546 115.0934 128.0289 112.0450 127.5561 128.1610 111.1608 106.0900
111.3700 111.1480 110.8508 110.6574 110.6010 110.6582 110.8112 112.8002 90.3490 98.4717 112.0009 113.0495 114.2448 115.3007 115.2405 115.5165 116.1704 126.7435 113.7754 99.2769 100.2406 100.6658 104.1027 103.1417 106.5900 108.2944 108.5482 108.4270 109.2934 108.0379 107.4246 110.4467 111.2270 111.7195 111.8558 100.6271 101.7354 101.3266 108.7754 105.5660 106.6603 103.7767 103.0917 106.6414 109.4459 116.4390 116.1759 119.2686 119.6503 119.8565 121.4111 124.0445 124.3795 123.8834 125.5408 125.7628 125.3546 126.1191 127.2764 127.6564 128.0998 128.4652 112.2865 112.4800
112.2400 112.0766 111.8373 111.6840 111.6345 111.6965 111.8971 110.4198 105.3264 90.6225 90.4130 113.9528 113.7855 114.4793 114.8159 116.0686 115.9593 113.3693 106.0173 110.6571 98.6100 95.1423 102.4284 99.9195 106.5814 109.2671 109.7645 111.2896 109.0204 105.8143 106.5816 107.1016 111.4415 112.1841 118.7562 113.6683 112.1712 114.4834 105.5859 106.8403 107.1067 109.2227 110.5813 106.3429 109.8477 109.3597 116.4405 117.5573 117.8604 118.5185 118.8235 121.0801 122.2205 122.7515 127.5216 125.0730 127.1813 127.2678 127.7131 127.6634 128.4350 117.7389 114.0708 106.1000
113.1100 112.9228 112.7235 112.5984 112.5577 112.6218 112.7803 112.5082 111.1543 92.7242 92.5050 108.1110 114.7841 115.2969 115.4623 115.3617 113.1576 93.5322 107.4363 97.9470 114.7983 108.8241 118.0232 101.4828 106.4444 103.4881 109.4541 111.1682 111.0194 108.8802 111.2482 108.8917 109.8243 109.4384 116.7657 105.7562 99.0083 104.8515 104.6890 108.6984 107.9091 105.7442 107.0213 108.5540 110.7472 110.5797 110.7285 115.9587 117.1657 117.0117 119.6736 120.1629 120.7683 121.3622 121.4478 121.9406 129.5187 128.8376 129.8128 127.3502 123.8486 113.5932 109.0769 114.5100
113.8600 113.6951 113.5293 113.4271 113.4011 113.4362 113.4047 113.2184 115.0548 114.3643 97.6895 108.2993 116.0979 115.5631 116.1691 109.6434 110.3023 101.0004 99.4835 106.0551 115.9319 117.6559 119.1507 100.8495 103.8733 110.6846 107.4403 108.7936 113.0491 111.4889 112.5477 109.8249 111.3261 111.3573 117.2486 114.1831 102.0528 100.4531 102.3937 102.4688 102.9693 103.6747 103.5441 102.0787 107.9434 109.2631 113.0875 113.1317 111.5206 111.8696 117.6714 118.3574 119.1660 119.5605 122.0159 122.2437 122.1126 122.8436 122.5601 122.8596 107.7940 105.6021 107.4413 106.1200
113.8600 113.9500 114.0300 114.1200 114.1300 114.1000 114.0500 112.7900 114.4700 94.1600 94.1000 95.6000 115.5500 115.9500 116.2500 116.5900 116.9200 117.2400 117.8500 118.1600 112.8000 117.7100 109.3500 100.9500 110.3200 104.9100 106.5000 111.3800 117.4900 109.6900 112.5500 110.3700 110.7900 114.3800 113.0400 113.2400 101.2800 101.4500 101.6200 101.9500 107.5600 108.7300 108.7000 102.7200 103.0100 103.8300 119.6600 121.9700 111.9400 112.8600 113.3400 114.3600 114.8900 115.8700 121.8900 121.8700 123.0500 123.1100 123.9700 124.1300 114.2400 105.9200 106.0300 115.9300
