123.5400 125.7800 124.2400 131.1000 132.7100 132.3000 123.5200 120.2600 117.1300 116.5300 105.4500 105.2400 122.3800 121.3400 123.2600 121.1200 111.9400 111.6000 109.7200 114.5500 110.0500 118.0300 106.8100 116.6700 108.3400 108.3800 104.8500 102.6200 116.7100 115.0300 115.3300 118.8900 105.1200 111.9600 111.4700 123.1000 122.9300 106.3100 122.6000 110.4400 119.1000 121.4400 121.7400 121.7400 121.3700 121.3700 120.9400 120.9700 120.7900 120.6000 120.6000 120.4000 120.1700 119.9200 119.9800 119.9800 119.7400 97.7600 103.9100 105.4200 101.3400 119.4600 119.7900 119.7900
123.5400 127.2695 125.1690 113.7724 125.5532 130.2553 128.6911 125.5908 119.0298 115.3492 110.3134 102.8002 118.8347 118.2199 121.3510 116.8209 115.8872 110.6651 110.5543 110.4820 108.4507 113.0328 109.6536 112.6212 105.2912 112.3778 106.8386 104.6292 102.5130 109.0005 114.2169 117.3630 105.5111 105.1678 106.0332 123.3042 119.1186 118.5092 117.7936 109.7849 108.5692 122.8821 121.4802 121.1822 121.2454 120.4849 106.4242 120.8392 120.5007 120.3791 120.2180 120.0738 119.9473 119.8686 119.4488 117.7795 110.0929 98.6244 105.7401 105.2217 100.4722 118.0571 119.1957 119.4300
108.6400 118.0891 121.0511 124.6047 125.4502 127.1584 128.1409 123.9976 129.4806 125.5354 119.9958 112.0648 110.6666 119.2375 120.4172 112.4287 118.5572 113.4740 106.1230 110.2066 109.6278 109.7128 106.3591 107.4273 104.6165 108.9783 103.1723 106.3463 103.1069 102.6984 108.0754 109.5852 110.3496 110.4470 111.7182 113.7027 114.3624 110.8143 123.2566 119.8831 107.2691 114.0529 123.5389 121.9165 121.2952 120.3675 119.8831 121.2945 120.2241 120.0502 119.8897 119.7211 119.5603 119.4453 118.7166 116.9224 100.2797 96.8335 103.9734 102.2405 101.8353 112.6897 118.6719 119.0500
126.0200 125.9865 120.0831 116.0625 116.5951 120.7127 124.0233 118.8845 125.1380 119.0076 127.4389 127.5775 118.7109 121.3401 110.0252 113.6353 121.4802 109.1223 109.4997 107.7964 104.8321 108.4472 103.9827 104.9135 104.6889 102.5721 113.0494 115.6575 104.9065 105.4127 108.5006 112.4124 109.8286 113.2847 119.8478 121.7101 126.7680 117.5379 122.6678 121.9899 116.9308 109.7295 113.1236 108.5183 124.3949 122.3688 121.4738 119.5779 119.9979 119.6988 119.5419 119.3627 119.2474 118.8515 119.4452 115.2089 100.8757 99.4163 104.7485 98.8832 106.7165 101.5867 120.9016 118.6600
107.5900 112.7633 117.5358 123.8101 126.4426 117.8767 115.1337 110.4419 122.0147 120.7843 124.0145 109.1096 116.5066 126.5970 115.9760 113.3988 112.1537 111.6384 114.2197 106.8553 107.1041 115.6833 102.8965 107.3812 104.9278 116.4298 115.7128 108.1679 104.5828 102.8489 106.9079 117.3310 118.0555 107.8057 125.9046 123.4108 123.6457 120.5127 122.3752 121.9626 122.1190 113.8003 107.5795 102.5376 98.3258 103.9183 114.2971 120.1698 119.0339 119.3562 119.1831 118.9844 118.8769 119.2963 120.0605 102.1067 100.4093 101.8301 112.8230 114.3897 117.2713 116.9612 117.9294 118.2600
122.9800 115.2952 115.9360 114.1535 112.6159 124.2550 108.6338 118.6407 114.2932 109.3999 106.6803 114.3928 117.7649 114.6972 113.2781 120.8373 108.8688 114.9548 112.4112 110.3953 110.8904 109.5102 110.9481 110.2071 106.4200 104.7118 103.7024 103.3130 101.5620 114.5223 100.7161 110.0399 103.1064 120.2021 110.2825 124.5322 121.9840 121.9545 121.5268 121.3632 121.2360 120.4193 120.2925 105.9199 105.4724 100.6202 114.2961 118.5601 120.9359 118.8829 118.8111 118.6011 118.4193 118.9014 101.6111 106.7731 102.2562 104.2508 117.9980 122.5489 115.8057 113.3633 118.1888 117.8300
124.2400 124.7687 121.4987 118.2148 123.6036 124.2875 109.5217 107.9717 109.9091 120.8340 104.1608 106.1978 105.2286 108.5347 120.6466 114.7837 113.2903 115.3112 116.2238 114.6726 110.7047 111.1226 111.9818 103.0713 110.4634 105.5028 104.7306 115.3608 120.5535 120.5441 112.0013 104.2509 108.8204 117.8435 107.9510 105.7746 123.7427 121.3195 121.4892 121.2130 120.4493 122.4822 107.3968 96.3612 103.3223 117.0700 118.2798 118.9385 116.9832 118.6660 118.4332 118.2054 118.0376 118.1023 108.5015 102.0396 103.1981 106.6234 110.2001 115.7628 115.9578 117.6612 117.0978 117.3800
125.3100 121.6355 121.7958 119.4025 118.9473 118.3044 117.4780 123.5252 113.8807 107.6566 104.3483 112.5759 119.8816 104.7389 104.2075 111.4232 118.5731 116.3482 114.0425 111.5688 102.4000 109.0744 112.9394 115.9956 111.6373 102.9267 104.3231 104.3404 106.6444 125.6906 122.8072 123.6144 109.5449 116.5382 112.0370 119.2573 120.0763 121.4622 121.2365 121.3296 117.3714 120.4833 118.8536 122.0407 112.3340 102.0178 129.7356 111.0883 118.5002 118.2922 118.0482 117.8023 117.5360 117.5246 118.2443 98.4880 99.0480 118.8940 117.9582 116.8959 116.7846 116.5019 116.6342 116.9000
126.9200 121.1920 120.1512 119.0345 118.9844 118.3205 117.7741 119.7314 119.3041 116.8306 111.7273 103.9179 103.9939 102.9432 116.4614 118.5706 106.3179 108.7739 110.4168 106.9663 115.4824 104.6703 102.7500 106.3943 109.3909 116.3644 109.1215 107.9662 117.2555 123.6091 119.5492 98.8969 126.7547 123.7867 123.0053 122.2213 121.9851 121.3058 120.9315 120.7836 120.4209 120.1791 120.0388 119.1092 116.3134 104.6156 118.4977 115.1273 119.3011 117.6823 117.6572 117.3847 117.1586 116.7045 116.4074 119.3684 98.0316 116.2497 115.3553 115.9458 115.9651 116.0092 116.0626 115.8600
125.3200 125.5658 125.8822 120.4820 120.1119 116.2058 116.9656 118.2538 117.9326 116.2725 118.2779 107.9422 108.7680 106.6198 110.2914 105.9205 106.6495 112.8407 103.9086 108.9859 111.3131 114.3410 111.1996 112.0393 110.6444 118.7138 114.6188 125.5065 124.7400 125.0053 125.9273 106.0106 125.3873 119.7388 121.9575 121.7521 121.3684 121.1455 121.3293 120.0052 120.3132 120.4592 120.0695 120.3125 106.1084 111.9006 117.8703 118.8997 117.4175 117.5861 117.2016 116.9215 116.6765 116.3588 116.0432 115.6213 98.7518 115.7493 115.2555 115.4264 115.3815 115.3931 115.4547 115.2900
126.0200 118.3830 122.9594 117.6980 116.4303 117.6821 116.5521 110.0019 114.2746 115.3396 112.5128 117.3534 117.9367 118.1209 122.0037 113.1104 113.0561 107.2513 109.3854 111.2599 111.0267 101.1148 107.9275 117.7071 125.4233 129.4857 122.2146 126.1044 122.9186 122.9260 122.4025 122.7919 123.4021 116.7791 122.4782 121.5375 121.7408 114.2672 114.2134 122.9904 119.9106 120.7853 112.9347 119.6515 116.4767 117.1479 117.2889 117.9274 117.4944 117.1254 116.8235 116.3946 116.1737 116.0067 116.1657 115.9398 115.3250 116.0821 114.6484 114.7558 114.7204 114.7395 114.8144 114.6800
125.8900 115.5166 115.4781 114.8793 113.0048 107.3788 109.3013 116.2377 106.8118 111.9173 105.0138 107.5480 109.2929 113.4692 115.6028 111.9013 113.1723 116.4548 116.4252 113.3296 104.9720 107.3588 111.3698 106.8827 116.0636 121.3011 124.3848 122.6163 123.4208 122.9126 124.0584 116.4747 117.3727 122.6686 121.7490 121.3621 121.3752 109.9107 96.8534 108.8719 119.6805 114.3376 107.1503 121.7656 112.8050 117.8859 117.9517 117.4210 117.0778 116.7192 116.3677 115.8772 119.0169 116.0969 103.8854 114.8311 114.1652 113.9778 114.0899 114.0396 114.0061 114.0259 114.1181 114.0200
119.1900 119.1929 122.7182 121.3639 114.3041 113.4050 114.9075 113.8776 114.8302 109.7667 107.3536 107.1335 105.3934 105.7589 103.4533 104.1411 107.5482 110.8428 109.1751 109.7267 108.3016 110.6293 109.1485 104.1163 124.0959 117.7565 124.1320 123.3583 122.7209 123.1105 126.3107 104.2114 109.8057 119.8231 121.6085 120.5750 121.3799 124.2762 123.3505 107.5824 120.7245 118.9575 105.1021 113.4563 119.0142 118.0732 117.4978 117.1318 116.7334 116.3266 115.9435 115.1730 115.3625 116.6241 102.7202 114.9291 113.7936 113.6411 113.3956 113.2686 113.2261 113.2528 113.3584 113.3100
106.2400 117.1311 121.6255 123.3646 118.0588 119.9475 117.8013 118.5936 117.3096 106.1228 111.1932 113.6835 114.2448 109.4801 107.7209 109.4244 103.0841 102.7780 106.5611 103.2848 117.2694 103.3771 120.0466 117.8908 126.0027 118.9027 123.7337 122.9870 123.8892 126.0455 109.0264 99.5070 117.6408 113.8659 121.6795 122.5188 115.0872 115.7377 102.3100 122.7771 120.6777 104.2457 102.6202 109.4548 118.3987 117.4851 117.2122 116.7789 116.3521 115.9209 115.4767 115.0455 114.5657 114.1461 109.5387 114.1832 113.0173 112.7730 112.5656 112.4284 112.3767 112.4076 112.5272 112.5300
117.8000 114.2083 117.2067 120.7796 123.9247 123.1796 120.4159 114.9763 115.9728 116.0523 110.7905 115.6646 114.1055 113.8068 109.9033 116.0457 108.2620 102.6701 107.8207 107.5008 110.0829 104.1179 109.4005 125.5816 106.3737 125.7683 124.1070 123.3762 112.8453 104.6930 96.6885 112.7242 114.9115 116.0780 121.7405 115.4550 104.5740 105.5554 99.8417 119.6141 118.1780 110.8488 115.9547 117.0683 117.7641 117.3230 116.9002 116.4544 115.9837 115.5145 115.0343 114.5386 114.1237 113.5642 113.7051 111.9321 112.2644 111.9278 111.6586 111.4916 111.4269 111.4645 111.6347 111.6700
118.9100 126.1299 126.4230 118.2043 120.2560 121.5437 122.3373 120.6289 119.6660 114.4097 119.7046 113.4126 113.4555 112.9789 111.0827 110.9136 102.6464 115.7339 103.1998 102.7313 104.6698 101.7819 107.2595 125.6766 102.4234 126.4560 119.4545 123.4388 121.8311 118.6850 116.2435 120.2004 118.3324 120.4453 121.1506 120.0947 117.0225 97.3829 117.9762 103.6117 122.7761 120.5191 116.2620 118.1563 117.5510 117.0777 116.6092 116.1326 115.6314 115.1157 114.5853 114.0418 113.4957 112.8833 112.3971 111.7983 111.4207 110.9841 110.6672 110.4446 110.3493 110.4606 110.5985 110.7200
117.5000 128.2797 128.9066 119.8693 121.1498 123.9806 123.4007 108.9055 115.7568 112.0405 118.4771 115.8990 115.2087 116.8068 112.6577 110.8974 108.6253 112.4102 97.8468 114.2115 126.3610 122.7955 124.1114 107.8964 101.4726 114.4819 122.5930 123.3454 122.5741 116.8413 116.9598 121.6950 121.3785 121.5484 121.1307 120.8295 121.1352 120.3871 107.6350 97.1192 99.1175 103.4521 119.3295 117.7732 117.3147 116.8295 116.3445 115.8223 115.2839 114.7277 114.1452 113.5408 112.9559 112.2631 111.8572 111.4659 110.4633 109.9609 109.5402 109.2632 109.1456 109.2243 110.5641 114.5100
128.2000 128.5473 121.1271 118.7941 118.6584 110.9880 123.5225 112.2975 116.1507 114.5047 114.0411 109.2142 110.5839 107.6644 109.2339 110.4436 107.1413 103.9940 103.2712 124.4064 117.3084 124.2804 124.0187 124.2026 123.9137 122.3809 133.7214 122.2223 122.7626 122.9314 121.7232 121.7977 121.6899 121.3425 121.0576 120.6943 117.6472 101.4030 100.9593 99.2357 119.6272 116.9863 108.2712 118.6459 116.9385 116.5974 116.0773 115.5330 114.9605 114.3582 113.7263 113.0639 112.3167 112.1335 106.1183 108.9669 109.5476 108.7982 108.2688 107.8975 107.7375 107.8474 108.1473 108.4100
116.5300 121.5333 117.7782 111.7382 111.1924 109.8183 111.4466 108.4013 108.4929 117.8910 108.3449 109.5169 109.3417 109.2456 114.6050 112.7468 103.3492 109.4299 120.3977 107.1078 126.6450 124.6080 124.1937 123.8096 123.1321 125.0412 106.3982 124.5701 122.1187 122.2136 122.0177 121.7890 121.6042 121.2889 120.9491 120.5137 120.8304 120.8475 111.9791 119.6303 103.4679 123.6533 118.3077 117.6782 116.4388 116.3572 115.8738 115.1470 114.6740 114.0077 113.3243 112.5999 111.8305 111.0179 110.0508 109.7997 108.2415 107.5623 106.7946 106.2784 106.0647 106.2306 106.7435 106.9600
116.5200 113.8464 112.4415 110.8241 106.0176 110.4305 110.2486 110.3634 110.3919 109.2717 110.3728 110.9600 110.1605 108.6777 106.5880 105.0620 106.5855 113.5276 119.3294 113.9139 125.8196 121.3117 124.4835 124.0719 123.5478 123.7953 101.5388 119.1230 104.2895 124.0667 122.2384 121.8216 121.5174 121.2144 120.8125 120.0603 121.5013 102.0302 126.0195 119.2424 118.3435 117.9912 117.8424 117.0896 112.0513 116.7097 115.5775 117.1270 114.3299 113.7100 112.9669 112.1670 111.3192 110.3302 109.3553 108.3626 107.2457 106.1096 105.0949 104.3165 103.9819 104.2070 104.9237 105.2000
108.3400 107.0762 107.4810 106.9238 107.4782 106.9389 106.6179 103.8909 103.4425 104.4031 104.2740 108.6314 109.4286 109.9824 109.2953 108.6591 107.9745 113.8150 118.6208 111.5507 120.2156 124.4396 124.2576 123.5773 122.9092 123.7029 108.7920 118.0219 115.0717 123.2632 122.2095 121.8554 121.5395 121.2245 120.9663 121.8019 122.5279 104.3602 117.0428 118.8459 118.4259 118.1199 117.7463 117.1321 117.4321 116.0753 115.3746 119.8841 114.3265 113.6917 112.6383 111.7999 110.8599 109.8432 108.7078 107.4391 106.0487 104.5642 103.0701 101.8114 101.2359 101.6435 102.8184 102.9500
120.6500 118.9886 116.2568 116.7271 115.2131 115.0842 114.1610 109.3696 109.5995 108.9838 106.2257 107.6470 103.0639 103.8059 103.5230 106.3299 107.4412 116.9412 120.3158 118.6994 124.0633 124.0087 124.7813 125.9102 126.3124 124.1394 125.7810 123.5689 123.5807 122.3466 121.9783 121.2913 121.1485 120.8961 120.7363 112.9748 113.0187 117.6422 112.9014 119.7176 118.5290 118.0301 117.5507 117.0519 116.4198 115.9202 115.3466 113.9779 113.3063 113.2887 112.4098 111.4873 110.4789 109.3497 108.0712 106.6114 104.9100 102.9486 100.7022 98.4822 97.1548 98.0848 100.2981 102.6900
120.8500 118.2430 116.2390 113.5595 112.7227 113.7583 112.5642 115.1102 117.6996 114.4971 112.0685 116.9717 108.9092 109.6516 112.4733 110.8587 106.2542 117.7098 120.7607 118.0381 124.9220 123.9193 124.5293 112.3565 111.8030 110.2797 112.1081 121.8782 122.3402 122.3417 122.1590 123.8747 122.7490 122.4746 121.2086 116.3396 110.2504 109.3334 118.1174 123.0785 118.1338 117.9599 117.5068 116.9986 116.4745 115.8873 115.2508 114.7330 114.0286 113.1019 112.2285 111.2746 110.2110 109.0042 107.6050 105.9631 103.9594 101.4346 98.1604 93.2579 90.3066 92.4402 97.4617 99.3000
106.1700 117.6265 110.9808 123.9442 116.4702 113.7638 115.3754 112.5595 113.5090 112.9287 114.0495 115.8020 112.1002 114.6179 115.4261 110.3955 110.1878 118.1066 124.8694 120.3651 124.8382 124.3983 125.0199 113.6174 112.6240 111.1851 105.7972 126.8765 121.6782 122.3501 122.2961 111.3708 110.4037 113.9525 116.1785 119.3227 122.4077 121.4577 126.7047 119.6736 118.2224 117.9266 117.4773 116.9477 116.3762 115.8103 115.1972 114.5015 113.7652 112.9940 112.1323 111.1537 110.0628 108.8028 107.3403 105.5834 103.3838 100.4165 96.0075 88.3124 85.0931 87.3688 94.8187 98.9900
106.1700 117.0762 113.3722 122.4297 118.2099 125.3818 113.7599 111.8580 116.0837 113.3864 115.6478 112.6037 117.9652 114.1336 117.5189 122.4773 116.0008 116.5111 116.6159 125.8977 124.4618 124.2227 124.2194 125.1448 127.0171 122.4749 114.0932 125.3546 122.4217 122.3859 123.0841 103.8650 98.2466 106.5505 108.5538 119.2470 119.6413 119.3206 118.0717 118.7416 118.5230 118.0355 117.4618 116.9203 116.4935 115.8028 115.2020 114.5229 113.8010 112.9985 112.1189 111.1462 110.0458 108.7868 107.3141 105.5501 103.3319 100.3142 95.8748 87.9469 84.7462 86.9173 94.5020 99.0700
120.1500 120.6860 108.5166 114.6001 113.4541 117.8029 115.6404 115.7334 113.6598 119.4800 119.2051 116.5855 112.8864 110.1141 107.9716 108.6627 110.5569 119.3943 116.6521 125.2834 124.5439 124.3992 123.5060 122.2604 112.9676 125.1523 122.5660 122.1305 122.5954 122.3212 122.4810 119.0184 97.3850 112.7995 121.7007 118.6465 120.3073 119.7410 119.4964 118.7104 118.1669 117.7689 117.4403 116.8449 115.4015 115.8672 115.2472 114.5669 113.8500 113.0648 112.1971 111.2476 110.1705 108.9547 107.5438 105.8690 103.8189 101.2038 97.2976 91.9050 89.3836 91.2181 96.9565 99.5200
106.1700 108.3623 105.9090 106.7311 105.8475 104.9538 106.6668 105.4879 107.0062 105.6394 105.9355 105.2081 104.0394 105.0959 103.7013 106.3241 122.5515 118.2071 124.6138 124.8304 124.5915 124.4102 124.0510 121.6720 125.5493 105.0751 124.3173 122.4368 122.4799 122.3695 122.1571 122.3675 118.8970 121.1895 120.6753 120.2483 119.9328 119.6802 119.1551 119.4110 119.4341 119.6097 116.0402 116.9006 116.5026 115.9225 115.3188 114.6694 113.9647 113.1986 112.3605 111.4436 110.4177 109.2805 107.9734 106.4710 104.7269 102.6365 100.2316 97.7425 95.9834 97.2551 99.7959 102.3200
106.8600 105.5212 105.4148 104.7634 112.8342 111.9425 114.0428 116.6398 108.2834 118.7750 109.7105 110.6894 103.7003 104.2165 103.9938 117.9915 108.5048 123.5766 118.7134 125.5450 124.5201 124.3946 124.0941 124.0541 123.8828 122.9387 122.8410 122.9603 122.6598 122.3657 122.0520 121.7682 121.6650 121.6304 120.5379 121.1500 120.0548 119.2765 121.7662 100.1789 110.4442 118.3879 117.1979 117.1386 116.6009 116.0397 115.4513 114.8111 114.1326 113.4016 112.6032 111.7316 110.7822 109.7362 108.5666 107.2688 105.8323 104.2594 102.6628 101.2453 100.6116 101.0621 102.3781 102.8400
119.8600 119.8960 119.2533 119.1500 115.3376 117.8875 112.5395 117.1902 113.2180 108.4230 107.5627 109.2550 108.6310 108.6411 106.7178 107.4002 109.4052 113.3710 122.8438 125.3166 124.6019 124.3686 124.1437 123.9613 123.7100 123.4587 123.2656 122.9274 122.6795 122.4073 122.1182 121.9447 121.5099 113.6365 99.5203 105.8105 114.3182 117.7165 120.7247 119.5875 113.8746 117.4249 117.5187 117.2577 116.7277 116.1890 115.6066 114.9967 114.3518 113.6547 112.8999 112.0963 111.2356 110.2938 109.2596 108.1600 107.0016 105.8530 104.7325 103.8796 103.5142 103.7716 104.5659 104.8300
113.7400 113.1817 111.6453 111.1479 110.4517 110.6961 110.3141 105.4701 105.1705 108.2343 109.7350 108.5377 106.8321 107.8136 105.9043 102.4631 121.7740 119.3658 125.5166 123.3432 124.8160 124.9797 124.8626 124.2119 123.7542 122.7383 123.1297 122.9518 122.7228 122.4660 122.1997 121.9574 120.7681 114.3074 98.4665 100.3659 115.1401 95.8388 121.9222 118.7816 118.8506 118.4296 117.8639 117.3681 116.8804 116.3616 115.8057 115.2237 114.6077 113.9513 113.2532 112.5133 111.7274 110.9803 109.9629 109.1068 108.1406 107.2729 106.5006 105.9313 105.6974 105.8591 106.3845 106.7400
128.1800 121.9567 115.8551 115.2314 117.8186 114.4805 116.5623 124.2061 106.2652 103.9482 113.4501 108.0883 105.1236 122.0641 117.5296 104.9599 107.8079 108.6034 127.5761 115.2375 125.7756 123.8238 117.0077 124.2739 123.3877 114.7467 123.7717 122.8809 122.7771 122.3658 122.0338 121.9832 112.3978 105.5799 107.0712 124.1349 114.3354 101.3494 120.4326 119.0379 118.7242 118.3671 117.9887 117.5343 117.0552 116.5619 116.0371 115.4781 114.9012 114.2929 113.6513 112.9619 111.6029 107.7397 111.4670 109.9857 109.3151 108.5835 108.0044 107.6053 107.4439 107.5580 107.9201 108.3700
128.1900 129.2333 129.6268 128.1175 120.1255 116.2955 112.9838 113.1568 112.5918 110.4698 116.8060 111.3685 110.7449 117.2813 116.9220 109.7791 128.8708 126.9055 125.3948 126.0057 125.1584 110.0644 111.9018 125.6825 124.2735 124.4294 123.2771 123.1124 122.8314 123.4127 124.1187 123.7521 112.5875 114.6240 111.6103 113.4623 123.6274 113.0522 119.8629 119.2282 119.0027 118.5894 118.1512 117.7208 117.2599 116.7802 116.2820 115.7633 115.2268 114.6524 114.0789 113.2519 113.4346 102.5461 111.7606 110.8141 110.3216 109.7459 109.3084 109.0105 108.8960 108.9798 109.2441 109.6100
128.2000 127.5166 127.5905 108.7545 113.4151 114.7189 111.1512 111.9624 111.2093 114.3684 113.2779 107.1513 106.9030 108.0874 112.8902 112.7384 123.9698 125.1509 125.0521 125.2164 126.5599 127.1760 127.1715 111.0060 122.2128 123.3718 123.3130 123.1545 123.0418 117.2536 113.8382 113.4064 112.3004 98.0161 100.5326 96.8856 123.5690 117.1509 120.1977 119.5276 119.1313 118.7486 118.3407 117.9150 117.4815 117.0267 116.5583 116.0672 115.5615 115.0409 114.4936 113.9775 113.4870 112.7487 112.7518 111.6872 111.2431 110.7983 110.4539 110.2260 110.1444 110.2030 110.4143 110.7000
128.2000 128.4949 128.6456 113.8906 111.9686 107.0441 106.8980 106.3122 110.1260 108.9435 109.9037 105.4542 105.2795 107.0246 113.6713 123.2564 124.1472 123.5882 125.0830 123.0736 118.2586 124.0143 124.2418 115.1600 121.2323 124.0550 123.5157 123.3142 123.6704 108.3522 115.5450 108.4392 103.7525 101.9186 102.9892 99.1472 108.1584 119.6253 120.1043 119.6326 119.1842 118.7969 118.4964 118.1313 117.7196 117.2834 116.8451 116.3896 115.9172 115.4339 114.9432 114.4573 113.8604 113.3425 112.9920 112.5247 112.1080 111.7519 111.4791 111.2978 111.2280 111.2829 111.4358 111.6500
128.3200 125.7085 118.1440 111.4774 108.6999 106.3708 107.1813 108.4593 110.2358 105.6962 110.5299 107.0258 105.0853 107.4571 100.9653 116.8606 122.4314 120.4937 125.6323 119.5929 121.4624 124.0842 123.6025 126.1086 123.9648 123.3742 123.4455 123.0986 123.9253 107.6099 122.5538 120.1674 102.2782 103.2523 105.1843 111.0666 117.3629 120.4935 120.1708 119.8249 119.7607 119.4287 118.6364 118.3760 117.9632 117.5564 117.1435 116.7154 116.2825 115.8425 115.3991 114.9482 114.5192 114.1395 113.6607 113.2644 112.9176 112.6235 112.3940 112.2517 112.2010 112.2356 112.3621 112.5100
128.3300 122.7173 108.6943 111.7960 116.1325 116.9787 114.3259 110.8147 109.1973 109.2397 110.3295 106.3784 121.1119 111.0214 107.4282 111.0227 121.6294 120.0951 125.9148 125.7026 125.2365 124.3260 124.0052 123.8291 126.0300 124.7495 124.2203 123.7500 124.3784 105.1894 124.2234 121.9669 117.5955 118.0177 118.5064 117.4320 118.0203 120.4699 120.4222 119.8566 119.3611 115.0810 119.2553 118.6022 118.2119 117.8441 117.4512 117.0568 116.6560 116.2473 115.8367 115.4406 115.0400 114.6697 114.2911 113.9653 113.6639 113.4220 113.2333 113.1154 113.0667 113.0987 113.2093 113.2900
128.3400 119.1091 112.3624 108.8524 110.0543 109.9261 109.4204 108.2523 110.7267 107.2295 106.0624 103.7716 112.5270 106.5356 104.2231 103.4031 127.7810 124.8003 125.3079 125.0270 124.9430 124.8786 124.7326 125.6513 106.5001 123.3128 117.6827 123.0487 123.7213 120.1065 122.7225 122.7957 122.7425 122.5544 122.1452 120.1229 120.5996 120.7337 120.5011 120.0923 120.2084 116.0993 119.6971 118.7479 118.4879 118.1230 117.7653 117.4006 117.0253 116.6551 116.2840 115.9204 115.5646 115.2265 114.9065 114.6164 114.3647 114.1551 113.9916 113.8983 113.8582 113.8840 113.9763 114.0100
114.0000 113.2511 111.7049 114.8868 107.3074 112.7145 110.4265 110.5751 109.4600 112.4206 105.7953 109.0425 123.2058 117.4078 125.4059 124.0730 125.6095 125.6330 125.4739 125.2529 125.0620 124.8356 124.5997 124.7534 122.1960 125.3029 104.4466 124.5653 123.4115 123.2426 122.8031 122.5184 122.3583 121.9720 121.7298 121.6083 121.2794 120.7881 120.6219 120.3666 120.1736 119.3196 119.4430 119.0813 118.7602 118.4247 118.0804 117.7342 117.3931 117.0528 116.7163 116.3919 116.0697 115.7722 115.4923 115.2350 115.0147 114.8338 114.6915 114.6130 114.5821 114.6088 114.6806 114.6700
119.9800 115.8215 111.8418 107.0889 111.3189 111.6000 112.2817 106.3221 108.4858 105.9871 114.7298 125.6847 119.6380 125.4744 126.2176 125.2531 130.3055 127.7505 125.3954 125.3022 125.1122 124.9048 125.6098 117.9738 125.1320 124.4612 123.8796 123.6596 123.3995 123.1835 122.9541 122.6996 122.4383 122.1269 122.0011 121.4219 120.6235 121.0664 121.2653 120.3888 120.2579 119.9474 119.6222 119.3478 119.0332 118.7040 118.3944 118.0786 117.7680 117.4452 117.1442 116.8506 116.5605 116.2943 116.0424 115.8177 115.6248 115.4678 115.3582 115.2825 115.2479 115.2731 115.3388 115.2800
113.6500 116.9956 115.6137 112.8685 111.0120 111.6946 112.9647 107.1141 114.6714 110.6012 117.4805 117.9863 113.0961 126.3779 126.0180 109.8002 129.8633 128.2193 125.4793 125.3822 125.1865 125.0181 124.8585 124.6545 124.3467 123.0409 114.7154 123.8669 123.2461 123.3174 123.0576 122.8277 122.6461 123.0850 121.8391 122.6207 98.9583 101.2135 116.6383 120.7781 120.5252 120.1715 119.8913 119.6034 119.4018 118.9551 118.7551 118.3978 118.1482 117.8465 117.5792 117.2729 117.0354 116.7945 116.5675 116.3702 116.1982 116.0640 115.9607 115.8994 115.8753 115.8900 115.9533 115.8500
118.8800 110.9583 112.2373 115.2250 114.2560 115.5284 113.8217 111.6257 103.8996 105.4379 107.9080 116.7328 117.8297 115.2174 114.3851 128.9405 125.8478 125.6405 125.6481 125.4585 125.2495 125.0801 124.6905 124.6215 125.6402 120.6915 122.8542 122.3071 123.6850 123.4416 123.1759 122.8805 122.5019 117.8808 121.1670 118.3036 125.1360 109.1642 123.5888 120.5015 120.7388 120.4041 120.1299 120.0215 120.1499 119.8580 118.9390 118.7545 118.5322 117.7919 118.0583 117.7044 117.4893 117.2697 117.0643 116.8939 116.7409 116.6302 116.5324 116.4820 116.4523 116.4685 116.5237 116.3900
128.5000 116.3095 114.9137 111.4938 114.8766 106.2839 107.0241 107.7399 109.4320 104.5241 113.1947 123.5158 110.6353 128.9085 126.2180 125.8728 126.0395 125.9494 125.7013 125.4922 125.4380 125.1042 126.4039 125.0507 120.1805 114.6110 124.2127 120.0615 123.9631 123.5044 123.3347 122.7827 123.7500 102.9315 118.6689 122.1676 119.5196 121.6280 118.6101 121.8094 120.8738 120.6407 120.2515 120.3888 105.6777 117.2938 119.4460 119.7313 118.7385 116.6469 118.4254 118.1207 117.9224 117.7219 117.5482 117.3839 117.2581 117.1265 117.0384 116.9509 116.9807 117.0137 117.0588 116.9000
115.8300 113.6256 109.5442 106.1710 110.6286 110.1858 110.7837 105.5359 113.0906 104.5966 109.0003 119.7592 122.2804 127.8188 126.6457 126.1276 126.2549 125.9446 125.8169 125.4167 125.4400 125.2284 114.8188 126.7559 107.4754 126.7113 124.7655 121.1034 124.2435 123.6947 123.4684 123.0197 122.8135 116.8671 116.2995 123.5190 122.0332 121.9957 109.4425 122.4476 121.1006 120.8732 120.6808 120.2174 120.1285 112.5096 119.7461 118.7194 118.7855 119.1756 118.7518 118.5169 118.3409 118.1609 117.9959 117.8598 117.7235 117.7599 117.7353 117.9544 117.4625 117.5280 117.5617 117.3700
121.0800 114.8903 111.0035 110.6215 110.1788 110.5644 110.9226 113.0698 109.4902 104.5035 102.2609 114.4991 115.9616 126.2647 122.0543 126.3153 126.3695 126.0193 125.9522 124.2587 126.5435 129.5427 113.1863 125.8080 125.5415 124.2606 124.4444 124.3877 123.7014 123.5104 123.6694 123.1888 125.0185 123.2502 110.2075 112.3223 121.4184 122.4813 121.9725 121.5000 121.3238 121.1079 120.8837 120.4504 121.3081 120.4297 120.0508 119.8557 119.5871 119.2730 119.0969 118.9323 118.7435 118.5780 118.4364 118.2901 118.3250 117.6422 115.6180 116.7313 117.8825 118.0137 118.0446 118.2500
120.6300 114.9795 110.0550 108.9180 109.2022 109.5775 109.7948 110.7295 108.5431 106.5668 128.2243 118.3237 110.2877 126.3135 127.7322 126.6083 126.4249 126.1012 125.9585 125.8921 123.4522 110.1985 125.5857 128.9042 124.3876 124.6049 124.4238 123.8254 127.3763 124.8427 124.1284 123.3387 122.9729 98.1658 111.5813 116.0708 122.9855 122.1652 121.9421 121.7917 121.5801 121.3391 121.1043 120.9155 120.3129 120.2181 121.3196 120.1837 119.8252 119.6570 119.4721 119.2962 119.1363 118.9903 118.8436 118.7907 118.1252 123.6834 109.4581 119.2386 118.0671 118.4930 118.4981 118.6600
110.4800 108.4650 111.7688 116.0156 116.8857 114.9794 106.7781 105.6940 105.3612 106.9362 110.6576 119.6912 123.5792 127.8412 127.2917 126.4954 126.3845 126.2289 126.0683 125.7665 123.9741 116.5300 125.6846 127.2036 124.9994 124.8361 124.5753 122.9741 106.2501 105.9124 124.3670 118.9431 113.2070 103.0805 104.2780 110.9051 122.2814 122.3996 122.2077 121.9888 121.7812 121.5764 121.3885 121.0874 122.0874 122.9940 118.4697 120.2254 120.1840 119.9830 119.8193 119.6656 119.4972 119.3545 119.3099 119.1147 118.8322 119.0250 118.8975 119.0768 118.6574 118.9027 118.9220 119.0500
119.7300 117.1702 108.2180 111.4732 109.8818 106.8099 105.9363 105.2710 105.2542 106.4600 110.2630 133.1707 129.6323 127.0935 126.7181 126.5212 126.2573 126.1365 126.1303 125.9309 126.1272 127.1821 125.0785 124.8547 125.4633 125.4253 124.5397 124.0981 116.8660 119.0561 125.6005 109.3500 102.4212 103.4106 112.6875 125.9142 123.0273 122.6080 122.4091 122.2035 121.9218 121.4107 121.3039 120.5844 110.5133 116.1410 122.6549 121.3972 120.4439 120.3328 120.1573 120.0271 119.7984 119.5186 119.1518 119.5211 119.6780 119.6769 110.1618 118.0818 118.9657 119.3334 119.3409 119.4300
111.8100 110.0605 106.8862 108.4139 106.9333 108.7536 106.4714 111.5615 108.0112 117.6076 125.4475 129.5573 127.6059 126.9777 126.7210 126.9858 127.3688 126.3022 126.1129 125.9977 125.8355 126.0401 126.4356 125.9082 121.9498 123.9143 124.8478 124.5371 125.1549 125.4728 124.0644 101.6380 99.5283 120.5658 123.0418 122.9433 123.0070 122.7905 122.5943 122.4506 122.2049 122.9067 122.3194 104.8895 103.0032 103.9094 117.3373 120.7948 120.8127 120.6800 120.2033 120.9267 120.5104 118.7650 119.5458 119.8808 119.8865 119.8339 116.8183 120.1121 119.6468 119.7331 119.7293 119.7800
118.5700 108.6239 108.2394 108.4374 107.7097 114.8044 113.1284 112.2939 113.6874 106.8374 118.7075 101.9912 127.8877 127.3317 128.1685 125.9320 108.7420 123.3370 126.2920 126.2773 126.0726 126.5110 127.6781 122.6048 125.3850 125.9027 124.5791 124.8885 124.5257 118.4584 110.4134 102.5313 124.0632 123.7035 123.7128 122.7886 123.6091 122.9615 122.8049 122.5682 122.6821 119.3589 102.2336 103.0992 99.0949 112.4917 122.1924 121.2366 121.0762 120.9895 120.9151 115.1400 117.7027 120.4083 120.3845 120.2633 120.2608 120.1092 120.3415 120.0208 120.0786 120.0771 120.1052 120.1300
108.7300 109.2594 108.0580 118.8429 113.9915 114.1653 114.2163 106.2183 106.0897 103.0162 123.0925 111.3411 112.0086 118.6291 112.2105 124.9654 108.6211 128.9956 126.0331 126.2160 120.7225 127.9738 125.7642 125.7078 113.7691 129.3655 124.4686 125.2531 124.4368 125.1327 124.9943 124.6167 124.6487 123.6825 124.7646 112.9728 124.0173 123.0405 123.0574 122.6312 123.3292 110.3706 101.9193 102.8158 115.4294 122.9976 121.6246 121.3964 121.3739 121.2794 121.1671 118.3928 120.8247 120.5918 120.7144 120.6206 120.5507 120.5334 120.4815 120.4509 120.4427 120.4435 120.4646 120.4600
106.9600 118.6129 117.6099 120.0811 113.7928 114.1386 107.3635 105.8344 105.8296 110.3511 109.9647 111.4342 128.6677 129.4591 119.7488 124.7275 126.8338 127.3365 123.8653 126.9944 125.4392 123.2101 125.2377 105.0907 126.7606 125.9426 124.7992 125.1485 124.8896 119.6536 113.9464 125.2636 124.2452 124.4947 119.3109 119.5681 124.2295 123.2220 123.2471 122.9570 123.9545 105.5731 106.7091 111.9174 125.6470 121.7569 121.9279 121.7818 121.6562 121.5585 121.2159 121.5688 121.0822 121.1092 121.0228 120.9661 120.9674 120.7657 120.8298 120.7967 120.7821 120.7936 120.8123 120.7800
116.3800 116.3828 115.9235 119.4359 109.4846 109.7846 111.9451 105.9406 105.8380 105.0146 123.3687 121.5744 127.3318 122.8461 124.2252 122.6207 129.0688 130.6780 114.3033 127.0958 120.4607 107.4563 101.0091 113.7545 127.5455 125.5313 125.4130 124.2695 115.0210 126.7316 125.6833 123.8291 122.0752 126.0369 110.1968 120.1785 124.4225 123.7907 123.3561 123.2543 123.1453 104.6566 105.9113 109.7111 122.0747 122.4336 122.2233 122.0676 121.9380 121.8097 121.7734 121.5572 121.5306 121.4168 121.3408 120.5648 119.1228 121.0308 121.2075 121.1242 121.1221 121.1320 121.1467 121.0800
116.5900 114.1400 107.8978 108.2764 109.3989 108.5661 109.2331 106.1826 107.1482 104.1597 120.6434 125.0152 123.5057 111.3046 126.6152 115.4615 117.6722 109.5861 111.1637 120.5110 115.7806 113.8437 110.0937 123.0095 125.2420 125.6473 125.2308 127.1576 108.8627 126.8828 118.2227 123.2666 119.7489 124.3882 126.1241 121.3891 119.8255 124.0401 123.3722 123.4541 121.5512 111.3623 106.8456 121.4395 124.5283 122.3574 122.4243 122.3273 122.2072 122.0976 121.9802 121.8944 121.8118 121.7563 121.3394 117.6512 111.6954 121.4622 121.5607 121.4518 121.4374 121.4497 121.4640 121.3800
110.0500 113.1331 112.8630 110.7582 109.7969 108.1655 105.6832 104.7585 110.0053 109.6692 121.1704 114.4619 117.5806 114.8915 122.7106 129.7932 129.0900 116.8403 107.6191 124.0338 110.1487 101.1781 125.8602 129.2507 125.4003 126.2364 125.6720 126.9022 126.6578 125.3508 113.4694 107.0840 124.6338 119.2125 113.5705 120.9996 105.5228 117.9556 124.1019 125.2670 116.8080 109.9000 118.0938 107.9128 123.8057 122.6492 122.6974 122.5818 122.4663 122.3624 122.2641 122.2015 122.0209 122.1918 121.9317 117.2305 111.6540 121.6488 121.8584 121.7699 121.7590 121.7630 121.7786 121.6700
112.4000 116.2897 112.1491 110.0873 107.5824 104.7599 105.1308 112.6927 114.4740 120.1992 117.4146 124.1503 127.7075 115.1081 112.5176 128.6711 126.4635 126.1133 123.0468 113.8728 127.0695 115.6925 112.1171 114.2439 126.5465 120.4484 127.2285 113.1954 116.4799 127.1347 124.9345 123.2050 126.6375 106.9861 103.3366 100.5134 101.9658 118.0109 123.8221 121.1145 107.6816 120.5138 125.2293 116.2883 123.8006 122.9447 122.9386 122.8404 122.7212 122.6274 122.5350 122.4613 122.3710 120.1002 118.9028 122.3564 122.2150 121.9221 122.0835 122.0420 122.0524 122.0577 122.0800 122.2200
113.3000 112.5097 108.9001 109.4534 117.9806 114.6479 117.1580 114.9575 123.6542 109.0119 122.1416 123.7477 122.2019 125.7962 116.4143 124.0051 126.9812 119.7172 113.1731 117.5704 126.7041 130.0644 130.6685 117.1824 125.7897 122.6646 122.6365 107.6503 110.9768 125.4057 126.8130 123.6786 125.1274 115.5988 111.8975 108.7972 115.3488 127.2327 124.9061 125.3993 119.2319 122.3706 125.4254 124.0362 123.4887 123.7086 123.2836 122.9930 123.0028 122.8843 122.7990 122.7266 122.5867 122.0907 122.3504 122.1068 122.4107 122.4287 122.3930 122.4490 122.3858 122.3497 122.3707 122.4800
110.6400 109.8454 110.4218 106.3548 113.2464 112.8785 124.8570 118.1346 110.5315 123.9017 111.1926 112.2507 129.1697 127.7979 125.8956 122.2536 127.7968 126.5540 115.7995 127.2402 130.1393 111.8414 128.0060 123.7021 127.0364 127.9814 119.5019 107.3910 123.5103 126.3454 111.8012 125.7144 125.2991 116.8286 122.4807 125.2473 118.9063 118.9825 123.8125 124.0975 121.3002 104.0161 122.5939 124.3678 123.5937 117.3350 123.3061 123.5821 123.1600 123.1386 123.0402 122.9799 122.8020 122.8479 122.7862 122.7769 122.7450 122.6216 122.4484 122.2774 122.7070 122.6248 122.6467 122.7300
110.5500 110.7532 107.3061 115.4357 119.4137 123.1342 124.6197 124.9978 107.5313 127.6866 120.7908 115.9967 111.8428 109.2831 127.5199 123.3301 127.5027 127.7588 131.4183 122.0275 109.7891 115.9813 116.0188 118.3201 126.7823 126.2310 106.0667 106.8969 118.3146 113.7853 127.7988 125.6039 125.1293 124.2938 123.7013 125.3844 125.1055 125.8605 125.1341 125.5583 123.9323 124.6094 115.2154 124.4879 112.9631 122.9196 122.1159 122.0622 123.4311 123.3642 123.3300 123.2283 123.1929 123.1356 122.9313 123.0295 122.2852 122.8359 125.7841 123.4272 123.0501 122.9033 122.9192 122.9800
107.4200 107.0527 109.7874 119.9652 127.4804 128.6021 130.6793 107.4871 130.0383 114.8660 106.6713 106.8083 108.5193 120.0742 127.7553 127.2041 128.1366 120.1082 105.3096 120.3160 109.6384 110.8069 105.1692 126.2601 124.1730 108.2082 104.0726 103.6691 124.0678 124.5041 126.4276 125.6639 125.4169 125.7295 125.0144 124.7772 122.8067 109.3528 115.5262 124.9276 127.0421 107.3181 124.3874 123.7566 124.4383 123.7376 123.8356 123.1283 124.5081 123.6788 123.4211 123.4671 123.4148 123.3627 123.2861 121.7653 121.9496 123.0902 124.4276 123.0299 123.1709 123.1515 123.1782 123.2200
129.4400 131.1650 114.5226 129.0144 127.1770 129.2019 129.5356 118.6406 108.6829 120.1939 105.0331 106.3229 113.1572 127.9263 126.6597 128.1287 127.5909 126.5909 124.4117 120.7132 105.4492 104.7255 110.1809 128.7473 126.9511 127.7828 105.9528 106.0628 126.5081 125.3319 126.0318 125.7532 125.6550 125.4592 125.3473 125.8715 127.4490 110.9215 120.2928 126.6140 120.6478 103.6417 120.7243 122.7639 124.4437 124.3544 123.8250 124.3691 116.2867 123.9318 124.4118 123.7680 123.6182 123.5958 123.5494 123.7316 123.5174 123.4854 123.3263 123.4245 123.4577 123.4522 123.4252 123.4500
129.5500 125.5291 129.5206 129.7407 124.4145 130.2647 128.1494 125.3348 112.7481 117.4580 106.3881 116.4063 121.7677 130.5565 115.2888 128.0336 126.8918 122.4015 126.3599 127.3361 128.9613 128.3787 127.7466 126.8040 126.7810 124.3252 114.3975 115.2781 129.8703 126.0052 126.0794 125.8924 125.7735 125.6657 125.4623 126.1631 109.9676 104.3783 122.6977 125.2590 126.5847 122.5515 115.9852 123.9594 115.9122 120.9033 124.7177 125.5904 122.7806 125.4021 119.0261 124.1039 123.8601 123.8385 123.7881 123.7110 123.7170 123.6208 123.7243 123.6884 123.5402 123.6122 123.7236 123.6800
129.5700 129.2160 129.3744 129.5490 129.1396 129.2918 125.1296 130.2106 130.6568 128.9711 121.8589 114.0583 124.0796 114.7693 111.2715 112.4994 109.2132 122.4884 128.5302 127.2585 126.9373 126.6779 126.7403 127.7461 127.2117 117.6235 106.0058 120.5386 125.4131 123.7189 126.4001 126.1033 125.9327 125.8262 125.7199 125.6861 126.8708 113.5729 121.7178 125.2123 124.9573 125.2961 123.3580 126.1619 115.0551 107.3206 106.3930 101.5303 124.6042 129.3685 121.6384 124.9795 124.0620 124.0657 124.0339 123.9887 123.9359 124.6023 124.1529 123.8410 124.2908 123.4201 123.9267 123.9000
144.2400 129.0879 129.5167 129.3527 129.1569 131.0051 125.7632 124.8287 123.7791 122.1126 128.7675 129.6532 108.4687 116.3970 106.4674 109.5241 106.5722 122.6095 129.4576 127.5868 127.5548 127.4180 127.1239 126.2131 114.3677 128.5864 116.7488 110.4267 119.2575 119.1730 126.2963 126.1317 126.0646 125.9587 125.9013 125.5208 124.9713 126.1845 120.6228 125.3889 125.3703 124.6986 124.9637 125.5928 125.1941 115.5090 122.8198 99.8989 124.1480 124.1278 124.6825 124.3506 124.3536 124.3076 124.2416 124.2269 124.8006 119.0835 132.6037 113.1840 117.4791 101.4626 125.2817 124.1200
140.0100 127.7600 129.5400 129.4600 129.2900 129.2100 129.1300 129.0400 116.2100 128.7800 128.6900 128.5300 128.4300 128.3300 128.2400 122.6200 110.5800 135.4000 127.7700 127.6800 127.5900 127.3800 127.2800 114.3500 114.3700 126.9800 106.5400 109.1900 104.6700 118.6100 126.3500 126.2500 126.1400 126.0400 126.0400 125.9200 125.6300 125.5800 125.5800 125.4900 125.3400 125.2400 125.1300 125.1300 113.4400 124.9000 102.7800 124.8100 124.6700 124.6800 124.5300 124.5900 124.5900 124.4300 124.4700 124.2800 124.3100 104.1600 110.4500 119.3200 120.4600 103.9600 102.3300 124.3300
