108.1800 114.8300 122.5100 121.2300 119.9000 122.4500 121.4700 130.0200 128.9200 127.2400 103.4500 103.1800 112.7900 121.7900 118.8700 116.2400 117.4400 117.4200 110.4800 102.1800 101.5500 109.3600 109.6000 109.1700 103.2800 106.8000 105.8500 103.3500 103.5100 100.2500 120.6100 111.1400 111.1400 110.0800 110.0800 99.3100 119.9500 119.7900 119.7900 119.2700 119.2700 125.5000 119.1100 118.8400 118.5400 118.5900 108.0800 118.2700 118.2900 118.3000 118.3000 118.2800 118.6500 118.6100 118.5800 118.8800 118.8200 119.0900 119.3400 119.2700 113.2900 119.7600 119.9600 119.9600
113.8100 114.9282 123.3005 116.7789 121.4698 122.3920 119.8198 124.3909 123.4255 129.7962 117.3818 101.2100 109.1503 117.4188 113.9069 118.7093 118.3606 118.5464 106.3934 102.3046 106.6683 108.9386 109.7680 108.5537 105.4540 106.1576 104.6893 104.7385 103.1384 97.8545 99.4013 110.0078 107.1268 107.3975 104.9908 99.1134 107.4462 100.7985 112.6378 112.4804 116.8521 121.6919 118.4916 118.5278 118.2846 119.2281 106.2832 114.3188 118.3653 118.2189 118.1210 118.1470 118.1993 118.2705 118.3750 118.4917 118.6294 118.7738 118.9508 119.5751 120.5680 119.3067 119.7324 119.9600
113.8100 125.1372 123.8965 114.2639 116.1932 116.1574 119.1456 121.6689 119.2456 124.0131 123.6023 119.3390 117.3864 114.3858 110.5043 110.2739 112.1260 116.3700 104.2659 108.4263 102.9567 108.2869 105.9437 109.6222 109.6868 106.2861 100.8643 106.7353 105.6872 103.1968 102.1484 101.9333 107.2702 104.0798 105.3398 106.3539 116.0802 123.9091 120.3628 117.3007 116.6656 118.3493 118.2945 118.1508 117.6465 119.5259 108.4732 117.3867 117.2441 117.6288 117.6053 117.6635 117.7328 117.8176 117.9173 118.0702 118.2041 118.3583 118.7398 118.2557 119.6995 119.1142 119.5975 119.4900
113.1600 119.4724 122.0359 126.7781 125.3690 114.9648 109.6467 108.0833 114.3682 121.2663 118.2403 120.8234 119.0372 124.2646 117.7603 112.2041 109.3468 109.7580 112.4736 107.7230 105.0833 101.0052 102.9804 101.1699 104.9689 106.9493 104.7352 102.4463 107.8919 100.1369 108.3082 113.9695 105.1074 100.0154 115.3825 116.3889 118.0788 116.5412 118.5623 115.4276 120.9938 117.9541 117.8653 117.6676 117.4729 121.6081 95.9237 108.4181 119.5449 116.9310 117.2220 117.1856 117.2308 117.3166 117.5268 117.5829 117.6467 117.9240 116.8239 119.5607 117.5926 120.1529 111.7057 99.4800
117.8700 119.7727 110.9619 117.2218 117.6329 119.8274 125.4644 114.6244 108.8597 108.5265 116.6819 106.0865 116.9547 116.1043 111.6747 117.9903 109.1060 111.9485 105.5601 113.1076 118.0686 111.8456 108.6443 109.1048 102.0291 102.8680 113.8165 100.2385 102.4219 105.5714 105.1652 116.1055 119.1295 115.2387 107.5508 117.3900 118.2707 117.6719 118.5155 116.1809 118.2038 117.6207 117.4230 117.1348 116.2568 110.0865 95.3358 104.3211 104.0772 117.1042 116.4220 116.6726 116.7104 116.8067 117.0129 118.3079 113.0948 117.1573 121.0716 131.4112 102.8597 115.8448 107.1569 100.1100
122.5500 122.6742 123.9141 125.5342 115.6719 121.8989 105.2491 121.0394 124.7167 117.1500 105.8028 102.4693 112.1834 117.3873 115.1692 111.6514 111.5587 112.4588 112.1049 116.9463 107.0633 112.6341 114.5259 110.3811 100.0057 104.8841 100.5763 99.7099 100.6170 110.4353 102.6387 102.3197 119.6251 116.9309 100.1978 117.1221 118.6845 118.2384 118.1697 117.6510 117.5253 117.1787 116.9600 116.7344 115.9645 117.9821 96.4182 100.9909 115.7179 119.6658 116.3397 116.1304 116.1553 116.2776 116.5225 114.1751 115.0489 114.9027 110.5510 96.7947 110.7167 120.7293 104.7627 118.6300
122.2500 122.7327 119.9385 119.1737 118.5619 118.0786 123.6766 107.1314 107.3534 115.4660 116.6890 119.9795 109.7221 103.0558 106.9689 115.2590 115.4029 113.0203 112.1926 106.6042 116.3543 101.9523 109.0102 109.9525 107.0850 106.2214 102.3731 113.0644 112.5364 108.7415 111.3296 98.6991 112.0259 99.5057 110.2224 119.4183 118.4758 117.8157 117.5862 117.3559 116.7029 116.7727 116.4352 116.2425 116.3658 118.5351 96.0958 114.5712 112.4517 116.2348 115.3876 115.4643 115.5736 115.7051 115.9633 116.1984 117.0832 110.5751 106.1406 109.2212 112.4386 113.9701 116.2597 116.0100
122.6800 124.6372 121.0044 120.8013 117.9533 116.6916 116.0758 115.7993 117.3904 120.7933 102.7867 105.1729 102.9336 108.0203 101.4974 106.7582 106.1222 108.4003 116.9354 113.2795 110.8397 99.1476 100.4332 101.0573 106.7639 105.0272 100.4566 112.7324 118.6247 120.8503 120.4815 119.5553 99.0742 103.0809 105.1352 116.5816 115.9742 117.6960 117.1927 116.8675 116.6480 116.1094 115.6481 115.6417 116.1740 99.4595 97.6393 115.0885 114.7441 114.9787 114.7569 114.8297 114.9378 115.1043 115.2854 115.4990 115.4209 117.7665 116.2184 117.9032 116.9830 117.3265 117.6554 117.8200
118.4600 117.4795 117.5857 117.2208 116.7270 116.4499 116.0607 118.6926 116.9836 113.2420 108.0922 103.1346 102.1165 102.1070 104.5502 118.3060 110.8300 107.7827 106.2961 105.4006 112.7289 113.3851 111.2127 98.1889 117.1359 112.3935 106.6264 106.3449 124.6021 121.4132 119.6610 109.0918 106.9174 117.6155 118.3142 117.7860 117.9329 117.0812 116.8371 116.4172 116.9165 110.6146 116.8806 114.8532 113.9396 104.5801 100.1160 116.3335 114.0574 114.0842 114.0525 114.1297 114.2617 114.3878 114.9546 115.1123 115.3512 115.1790 115.8399 116.0412 116.7111 115.3798 119.3023 117.6900
122.1500 124.0967 123.2264 118.2511 116.5615 112.9592 115.0926 117.0100 115.7003 114.1794 115.6441 106.2874 107.5330 104.2542 109.5246 104.8359 104.2442 107.3922 106.0782 103.1435 105.8843 105.5233 111.9188 110.5669 116.0825 112.0359 107.7080 120.5093 121.1264 117.1520 119.2596 120.9782 120.1811 131.1073 116.1354 117.7164 117.1210 116.7322 116.3661 115.7449 118.1352 100.1774 115.2557 115.4098 113.7517 113.4422 108.9022 114.3353 113.4068 113.2635 113.2815 113.3759 113.5316 113.6984 113.9554 109.2216 114.8431 115.0745 115.4220 115.7778 116.3411 110.8329 111.0163 117.2500
123.4500 122.9379 122.7051 118.7590 118.8899 118.5198 115.0775 108.9203 111.5119 113.1253 110.2015 114.1131 114.6035 114.6297 120.5420 110.8552 110.4440 111.5488 108.0201 107.9308 106.4143 101.6970 99.7920 106.7025 122.8427 127.7449 125.6241 128.6547 118.7772 119.8178 119.3890 115.1969 111.1667 115.9809 117.7132 117.2597 116.6863 117.2416 116.7624 115.4363 114.4924 89.6221 91.1281 111.6169 113.1737 112.5357 110.2298 112.7515 112.4686 112.3765 112.4337 112.5579 112.6827 112.9209 113.8319 113.1239 114.6214 114.4799 114.9217 115.2918 116.4902 118.9808 99.3095 117.1200
115.6300 116.4653 115.7399 113.3148 112.9574 112.2585 108.7304 113.3609 107.3936 111.3395 104.4928 106.3289 105.7213 111.6566 114.5467 107.5455 112.8046 111.1153 112.3882 112.0328 107.4476 103.7116 106.8313 106.7508 113.8510 116.1811 120.1771 118.3118 119.4724 119.5247 119.6038 110.5761 101.4741 120.6144 117.4110 116.8396 116.7684 108.4864 116.6351 116.5510 116.6378 97.8112 92.6710 107.5423 111.8821 112.3836 111.9694 111.8524 111.5637 111.4737 111.5002 111.6280 111.8921 111.2128 112.9979 112.8521 113.5887 113.8876 114.3961 114.8713 115.2457 115.6783 116.7350 105.8400
117.6200 119.3879 115.7755 112.6615 113.8155 109.7944 113.5750 104.8363 111.3859 107.5929 103.2828 102.5679 101.4026 104.6374 102.0487 101.5891 109.3052 107.8188 108.1789 107.1876 104.8143 106.8865 109.4125 105.0832 122.5244 119.7114 120.4974 120.0250 119.7501 118.9270 122.1900 107.2695 115.7033 114.5097 117.2922 117.4763 118.9507 107.1384 103.2881 113.3623 114.3163 108.9886 101.1341 84.9737 108.4644 111.4567 111.1039 110.7507 110.5363 110.4109 110.4478 110.6157 110.9332 111.6648 107.5909 117.6247 111.9778 113.4112 113.8716 114.4273 115.1052 116.3731 117.6702 105.8400
104.7500 123.4258 117.0836 120.2288 116.5865 119.3080 118.7303 114.6984 113.5185 112.8027 111.9895 110.3068 105.8814 107.8098 104.9647 107.7326 100.5669 100.1242 105.1421 101.6250 115.4795 102.0208 117.2942 117.7452 132.7198 120.1933 120.1446 121.1726 120.9548 123.1959 105.4510 95.2239 116.1894 116.0424 116.9690 116.6359 101.3229 105.7597 99.3320 99.9996 109.2390 102.7007 112.7241 105.5880 102.9053 110.6837 110.0892 109.6527 109.3508 109.2120 109.2616 109.4784 109.8501 110.4769 108.7094 116.6925 112.1216 112.7302 113.3480 113.9534 114.5201 108.3651 98.2079 94.1400
115.1400 114.0199 116.0836 119.1556 117.7250 115.1763 113.5642 114.4376 114.3707 116.7746 118.5996 109.9760 112.3083 114.1366 112.8067 113.5054 106.3974 101.6527 105.5703 107.0348 108.0171 102.1072 106.8087 122.8414 107.9259 121.3060 119.6131 118.5202 103.4944 99.9790 92.0128 111.9767 108.2067 112.2473 116.8594 116.1482 110.1304 104.4179 108.8818 87.3761 93.4947 92.5067 112.1487 112.0248 106.5536 110.3018 108.9583 108.4017 108.0078 107.8172 107.8791 108.1755 108.6658 109.2999 109.7664 110.6995 111.2383 112.1486 112.8371 113.5437 114.3018 115.0497 103.0991 104.2000
114.6100 124.6636 111.3810 115.8736 117.2982 118.4627 116.6089 114.0285 115.1467 110.4163 117.5725 109.3628 110.3199 111.2243 108.5773 114.6119 106.0777 103.6001 103.6024 108.9444 100.7078 101.2477 106.0516 124.2330 103.6456 127.1366 118.4483 120.0906 113.7655 114.9761 112.8484 117.7199 114.0664 116.1737 116.5283 116.0557 116.0703 104.5540 98.0117 89.1862 100.1914 97.1122 112.3192 110.7182 109.6145 108.6549 107.7673 106.9727 106.4231 106.1592 106.2413 106.6668 107.3319 108.1255 109.0535 109.9042 110.7417 111.5660 112.3538 113.1021 113.7539 113.6496 114.4551 112.5500
126.3900 126.2129 125.6547 116.9267 117.5857 118.3123 117.7241 111.7551 111.6264 111.4718 112.8795 115.0115 111.2382 109.3642 105.2875 111.3759 102.5685 103.7008 119.0196 116.1887 122.1736 119.4267 115.4963 98.4095 100.3999 110.0054 119.7389 119.6153 119.2111 113.4381 107.6932 117.9945 117.0090 116.9627 116.3075 115.7066 114.7075 118.1699 92.2224 114.4406 115.1870 90.3267 113.8829 108.4206 108.6064 107.4800 106.3555 105.3298 104.5104 104.1020 104.2348 104.8777 105.8074 106.9040 108.0047 109.0642 110.0860 111.0264 111.8990 112.7127 113.4611 114.2329 114.8072 115.2300
126.3800 126.2248 126.8737 118.2913 115.9250 118.8113 118.1493 107.4422 112.5841 112.2836 109.7764 107.5013 110.2993 105.6293 111.3042 104.2025 103.9120 104.1642 100.7699 123.7764 117.7749 121.2540 121.3687 120.2563 120.7072 116.0154 119.9744 119.5581 119.0183 119.0317 117.8911 117.7085 117.2319 116.7089 116.1723 115.5817 114.7122 115.4717 91.7860 89.7868 112.4344 109.8691 110.6560 109.1192 107.6063 106.3332 104.8847 103.4081 102.1036 101.4001 101.6375 102.6914 104.1359 105.6045 107.0108 108.2996 109.4715 110.5326 111.5013 112.3778 113.1864 113.9362 114.6168 115.1500
126.3700 125.7695 126.0740 115.6067 115.0883 114.5159 114.1761 107.9615 106.1493 113.4728 108.9694 115.1001 106.2457 105.9342 102.9711 101.0670 102.5953 107.6381 121.0799 106.5098 123.5951 120.8655 121.0156 120.9076 120.1624 122.0773 95.1958 111.9902 118.0739 118.4123 117.8933 117.5139 117.1403 116.6068 116.0480 115.4451 114.8666 113.8458 114.0405 114.0713 112.3694 105.2892 109.6801 108.0456 105.9575 105.2490 103.3771 101.1839 98.9821 97.4789 98.0553 100.0489 102.2708 104.3190 106.0908 107.6149 108.9490 110.1252 111.1651 112.1079 112.9593 113.7427 114.4626 115.0900
126.3700 113.3044 113.8302 114.3880 115.3482 111.1238 109.3993 109.3611 109.6177 112.2226 108.3867 108.7216 108.4121 107.9596 108.1375 106.5269 105.5679 110.6015 119.3902 112.6411 123.5681 111.7294 122.3420 120.7783 120.4533 119.3257 116.8400 114.1657 97.4631 120.8731 118.1476 117.5940 117.0799 116.5427 115.9682 115.3368 115.1216 110.2292 113.3893 111.7545 111.2083 110.9564 109.4920 108.7053 97.9378 105.3249 101.9256 98.8814 94.3815 90.7450 91.9847 96.8213 100.4623 103.2076 105.3420 107.0901 108.5578 109.8193 110.9279 111.9182 112.8004 113.6135 114.3517 115.0500
114.8300 111.1306 110.6774 109.9995 107.5939 108.7929 106.9223 108.7387 108.3609 108.0142 108.2796 108.3835 108.2463 109.0009 107.0510 107.1706 106.2292 109.6238 118.9303 111.8971 116.4675 122.5911 121.5530 120.8237 120.3579 122.0682 101.2915 119.3184 114.1061 119.9788 118.0619 117.5070 117.0418 116.4952 115.9114 115.3036 114.6173 114.0761 112.9201 112.3777 111.4209 110.1200 108.9383 107.3648 106.3679 103.9793 101.0335 97.0418 89.5779 85.7950 86.9575 93.5143 99.1712 102.4917 104.8966 106.7810 108.3312 109.6528 110.7972 111.8095 112.7152 113.5422 114.2531 114.5500
109.5000 103.9801 105.6441 103.8874 105.1974 103.0611 104.1197 102.2845 100.9770 104.7341 102.4636 102.2921 100.6726 105.9879 100.9481 104.8792 104.8524 110.6983 119.5243 114.2629 119.7386 121.1748 121.1272 120.6529 120.0489 119.6985 120.3846 119.2249 119.2419 118.4450 118.0762 117.5480 117.0138 116.5081 115.9693 115.3297 114.6045 115.1871 114.8692 112.8215 111.0993 110.2506 109.0258 107.6245 105.7715 103.6756 100.8989 96.7476 88.7979 84.9660 86.2379 92.9618 98.9999 102.4086 104.8410 106.7485 108.3062 109.6335 110.7780 111.7983 112.6986 113.5079 114.8861 114.5300
109.4900 114.2624 111.2097 108.2721 109.4393 107.9607 108.6107 107.4297 108.0903 110.0596 108.2239 107.7753 105.9349 104.6443 102.4490 104.6729 105.3194 111.6807 120.4458 114.2218 121.9520 121.4781 121.1645 121.6597 123.4241 120.2901 122.0853 120.4336 118.8300 118.5593 118.0459 117.5737 117.1982 116.4363 115.7435 115.3027 115.2505 103.9180 103.1679 112.6384 111.1023 110.3689 109.1491 107.7796 106.1705 104.1672 101.6463 98.3788 92.8637 89.2466 90.3423 95.8960 100.0396 102.9760 105.1904 106.9835 108.4785 109.7597 110.8831 111.8747 112.7760 113.5869 114.5079 114.3100
119.4500 121.3769 116.5225 113.4517 112.0614 112.7428 112.0224 109.2388 113.1129 115.1642 112.5430 110.5035 111.3592 108.5616 108.1198 107.8500 106.6412 108.6526 121.6219 116.3898 122.2376 121.5618 121.3629 114.5265 104.2544 109.1299 104.9338 114.4699 119.0369 118.6038 118.0891 117.5953 116.5251 117.3577 116.9847 114.9686 115.1068 105.6068 104.3195 112.7907 111.4472 110.5863 109.4621 108.1754 106.6986 104.9861 102.9218 100.5303 98.0050 95.7692 96.5989 99.2338 101.7710 103.9974 105.8702 107.4557 108.8350 110.0307 111.0960 112.0535 112.9032 113.6790 114.3852 115.0600
104.3700 113.1728 112.6233 114.0524 117.7496 110.4830 110.3783 109.3374 113.2606 112.9200 108.5161 109.2820 110.1666 110.2593 106.5111 108.4722 108.8400 116.9534 117.5993 120.7625 121.8957 121.2153 120.5372 110.6668 114.5062 104.9102 106.7451 119.1499 118.9128 118.6610 118.1875 117.6560 120.1434 104.7794 108.8675 117.4764 115.4339 116.1446 114.3021 112.6720 111.8941 110.9257 109.8906 108.7388 107.4576 106.0379 104.4719 102.8302 101.3096 100.4993 100.7821 102.0074 103.6371 105.2571 106.7530 108.1086 109.3213 110.4158 111.4052 112.3060 113.1226 113.9661 114.7171 115.1100
104.3800 117.6639 104.3538 117.3212 112.5688 117.4087 110.0682 110.5728 109.7784 109.3125 109.9459 108.2544 103.9416 103.9683 105.6223 102.4044 119.0751 115.6100 125.7625 122.1083 121.8811 121.6465 119.2553 112.1546 123.1607 117.3362 121.1052 112.3787 119.9572 118.7613 117.8468 117.8867 96.6799 95.7439 104.9876 118.4154 115.0138 114.0745 113.5406 113.0023 112.2146 111.3515 110.4199 109.3988 108.3143 107.1585 105.9423 104.8298 103.8987 103.4194 103.5832 104.3180 105.3764 106.5613 107.7345 108.8636 109.9089 110.8875 111.7848 112.6226 113.4444 113.6178 114.1601 115.1800
113.1100 113.6833 111.8569 111.3116 110.9837 110.6064 113.5732 109.5248 116.9721 113.8644 109.2730 110.1785 108.8232 105.8570 107.4000 105.3801 121.2367 114.4472 123.6882 122.1327 121.9383 121.6117 121.5601 119.3195 102.6132 106.0051 115.2329 107.0647 120.2506 118.7774 118.2491 117.6733 114.6955 115.2349 115.6768 115.5901 115.3488 114.7373 114.0840 113.3659 112.6189 111.8360 111.0043 110.1271 109.2131 108.2767 107.3715 106.5417 105.9189 105.6225 105.7271 106.1978 106.9283 107.8032 108.7375 109.6662 110.5680 111.4264 112.2334 112.9584 113.8800 115.1091 120.0097 115.2600
119.0000 118.5528 117.8289 114.3763 116.8481 111.2311 107.2801 114.3764 115.6399 116.4602 109.9790 106.0545 103.9950 103.3071 106.7934 115.6566 104.0897 114.9804 119.1433 122.6841 121.9792 121.6025 121.7710 117.5384 120.1999 120.2473 120.0270 119.3945 119.1731 118.9113 118.4676 118.0912 117.8363 116.8767 120.4415 115.7870 115.7023 114.9652 114.3557 113.7471 113.0519 112.3548 111.6324 110.8627 110.0917 109.3402 108.6233 108.0256 107.5897 107.3809 107.4485 107.7729 108.3102 108.9761 109.7101 110.4827 111.2436 111.9900 112.7117 113.4026 114.0752 114.5244 115.5337 115.7700
118.0600 118.4196 109.3643 108.4752 107.3166 107.4412 103.6877 105.0194 103.9576 103.0430 113.6928 111.1752 108.0180 102.8233 101.7498 100.3239 107.1047 111.5538 117.8362 123.0891 121.9599 121.7332 121.6818 121.2653 120.6682 120.7211 111.0770 116.7140 119.3453 119.0710 118.6363 118.2446 117.7386 117.7015 117.1657 116.2754 115.7976 115.1355 114.7348 114.0986 113.4708 112.9342 112.2457 111.6077 110.9569 110.3396 109.7833 109.3165 108.9911 108.8400 108.8897 109.1327 109.5320 110.0452 110.6474 111.2880 111.9228 112.5421 113.2107 113.8511 114.4306 115.0876 115.5974 115.8600
110.9300 110.8260 110.9678 109.3054 116.6651 117.3497 113.4948 115.2784 112.3890 111.4259 109.7935 110.8149 103.7857 104.2928 103.3441 104.4240 101.9637 107.0878 123.6803 122.2759 122.0764 121.8727 121.0033 121.2641 120.9259 120.6782 120.6486 120.3039 119.5130 119.1819 118.7882 118.3818 118.0129 117.8465 114.9734 110.6567 108.4486 110.9248 117.9486 111.7300 114.8129 113.2929 112.8879 112.3671 111.7308 111.2813 110.8219 110.4550 110.2059 110.0929 110.1298 110.3165 110.6236 111.0434 111.4951 112.2262 112.6798 113.4588 114.0430 114.2946 114.8414 115.3029 116.1426 115.9700
117.8800 118.2199 118.0618 119.3150 116.0553 109.6621 109.7252 111.4464 100.9064 110.1548 104.7887 104.1714 103.6845 107.4840 109.2680 116.2459 120.8871 103.0146 119.4959 122.3653 121.8831 121.1750 118.1080 121.4026 121.2074 117.0856 118.8086 120.3462 119.6593 119.3557 118.9649 118.5862 118.0920 116.9836 96.6269 119.2086 120.9055 112.4269 112.7648 91.5868 114.3913 113.6117 113.6079 112.7003 111.6683 112.1575 111.7658 111.4750 111.2774 111.1877 111.2175 111.3613 111.6080 111.9435 112.3485 112.6850 113.0111 109.9799 114.0442 114.6928 115.2432 115.8488 114.2400 116.4600
118.0100 117.6846 116.0015 113.6409 106.5811 105.5138 107.3708 104.1531 105.1894 103.9534 105.1323 104.2039 109.5903 109.6413 118.3876 111.3916 126.1454 123.4726 122.8935 122.4847 123.2097 123.3241 122.8792 122.7818 119.1163 120.9838 120.9439 114.0113 119.9785 119.5692 119.1608 118.6867 118.9808 99.7737 102.2121 118.1308 116.5934 115.8930 118.3776 114.5505 117.1592 115.2704 114.0631 113.6419 113.2344 112.9913 112.6312 112.3892 112.2293 112.1568 112.1810 112.3019 112.5023 112.7720 113.1045 113.5031 113.6861 101.1010 115.0649 115.1880 115.6911 116.6218 107.8939 117.0400
126.5700 118.4767 115.3781 109.9449 109.7664 107.7321 111.8755 110.1906 105.5783 111.3083 105.7762 108.5033 114.3614 110.8189 126.9615 105.2608 124.1438 122.0735 122.7663 124.3005 119.9683 110.6656 121.4182 119.9679 110.9693 120.1018 119.3562 113.8643 120.1322 119.7463 119.3850 118.8555 118.3591 97.6769 105.4904 121.5337 108.9451 109.3882 116.3836 109.9875 115.4308 114.8235 114.6940 114.3285 113.9866 113.6731 113.4232 113.2217 113.0907 113.0345 113.0504 113.1494 113.3142 113.5419 113.8272 114.1569 113.7604 114.9660 115.8422 115.6486 116.0945 116.3586 117.8696 117.0400
119.1600 122.9119 124.1209 119.4404 108.9042 113.7059 108.6543 110.6544 110.2365 111.9645 110.4751 102.5374 101.7613 102.6459 110.8125 110.4338 116.1840 119.6139 124.0793 110.3683 110.6740 107.8015 119.4003 121.8676 116.0908 122.3250 122.2648 122.0568 120.0790 119.8926 119.5463 119.1433 120.4657 109.3194 111.3627 106.7483 95.3005 113.2590 113.8576 107.1090 116.4732 115.6166 115.2789 114.9333 114.6247 114.3796 114.1569 113.9855 113.8787 113.8248 113.8449 113.9203 114.0591 114.2606 114.4978 114.8172 115.1038 115.5018 115.7953 116.1685 116.5203 116.8901 117.2184 117.6100
126.7300 125.4042 119.9420 113.4283 108.9010 110.1420 109.5341 110.7517 114.4635 104.4600 104.7424 104.2415 101.2520 101.4195 98.5979 125.2915 119.6383 119.8280 124.1194 112.5746 120.8915 123.6990 123.3203 122.5601 121.9775 120.4550 120.3855 120.5973 120.4320 120.0849 119.7545 119.4022 119.8522 120.3128 104.4072 93.2990 107.3219 91.5940 106.4615 117.4644 116.1355 115.6767 115.7866 115.5072 115.2844 115.0189 114.8363 114.6881 114.5987 114.5533 114.5643 114.6341 114.7547 114.9251 115.1316 115.3741 115.6471 115.9278 116.2653 116.5843 116.9234 117.2674 117.6168 118.0300
126.7500 125.0930 110.0062 110.2303 112.1853 116.8626 105.6845 104.6577 105.4761 110.1708 108.3251 103.2738 115.9083 100.5549 118.6743 123.0990 122.7151 124.8085 123.1167 123.9990 122.8269 122.0538 122.0419 122.9577 123.7166 123.8829 122.7733 120.9054 120.5908 120.2753 120.0564 119.6761 117.8750 98.7836 107.1404 96.8548 96.0474 115.6732 118.0023 117.7163 116.8032 116.2021 116.2958 116.1841 115.6620 115.6453 115.4648 115.3389 115.2622 115.2281 115.2418 115.2966 115.3995 115.5448 115.7239 115.9409 116.1805 116.4481 116.7274 117.0074 117.3174 117.5908 117.9939 118.1400
119.8600 114.5952 113.8464 107.9039 104.1127 100.6541 110.7047 110.7540 106.9591 111.3969 103.5105 103.2966 123.1089 115.0551 104.6005 104.5160 121.0545 123.9283 123.3444 122.9017 122.8146 122.7650 121.9628 120.1959 100.5514 97.9746 112.2261 122.0181 120.6686 120.5055 120.2277 119.8403 119.3243 114.6467 123.4931 99.6608 97.8648 120.7602 117.5971 117.3984 117.2818 116.7127 115.3616 115.1088 116.4033 116.2092 116.0580 115.9477 115.8767 115.8503 115.8621 115.9064 116.0041 116.1250 116.2894 116.4774 116.6881 116.9292 117.1720 117.4742 117.7398 117.9827 118.7005 118.5600
107.8400 107.2000 104.7429 109.9503 114.7722 108.9378 110.5397 113.3458 105.9752 107.7200 104.8556 102.5464 102.4554 118.2575 120.5673 101.4451 126.1280 123.2383 123.4188 123.2408 122.9853 122.7459 122.9033 122.2983 120.3971 123.6692 120.4138 121.3366 120.9932 120.7147 120.4281 120.2011 120.1539 118.0694 95.7465 104.7275 117.2594 118.6194 118.3286 117.8626 118.3399 113.6839 123.4399 116.7681 116.8895 116.7486 116.6163 116.5168 116.4550 116.4300 116.4440 116.4869 116.5661 116.6741 116.8128 116.9792 117.2120 117.3782 117.6370 117.8604 117.7317 118.7038 118.4761 118.6000
118.9600 112.3637 114.5320 103.9373 110.1832 109.2931 110.4465 110.2299 109.1990 105.6829 107.3180 106.4243 120.9321 124.4360 124.9962 124.3256 123.9998 123.5177 123.6050 123.3387 123.1434 122.6644 122.7056 113.8207 123.1118 121.8874 121.7423 121.3568 121.2081 120.9257 120.6558 120.9944 112.7485 96.4449 100.4742 115.5757 120.9494 118.7187 117.8925 114.4912 118.8625 117.9136 118.3959 117.7122 117.3235 117.2669 117.1366 117.0588 116.9928 116.9707 116.9805 117.0199 117.0940 117.1941 117.3167 117.4864 117.5227 117.8510 118.0280 118.2813 118.0748 119.5348 118.2040 119.0400
126.9400 126.1343 112.9275 110.5143 109.7920 110.6165 109.9451 110.0924 104.6760 105.9299 113.2518 124.2525 125.7152 124.8078 121.7546 114.7985 122.1635 124.1148 123.9635 123.4192 123.2353 122.9364 123.0404 122.4391 122.3916 124.1814 121.5632 121.7238 121.4022 121.1297 120.9852 120.1713 122.6714 101.9481 120.8084 120.0694 120.8438 118.6564 104.9556 110.4864 118.2060 118.4833 118.0985 118.0114 117.8786 117.7298 117.6337 117.5602 117.5619 117.5751 117.5058 117.5344 117.5909 117.6853 117.7898 117.8694 119.1197 117.8215 119.1966 118.6563 118.4503 121.3188 119.1389 119.4300
126.9700 115.8172 111.2758 110.8654 109.7951 109.9961 106.8499 108.2657 112.1297 110.3305 113.6592 124.1731 126.1514 122.1135 104.2984 122.3339 125.2751 123.4660 123.8207 123.6574 123.3725 123.3346 123.0493 122.8270 121.8671 111.1802 117.1830 122.4460 121.6051 121.3774 121.1191 120.9946 120.6227 120.6477 121.0188 120.3328 114.3452 95.6997 101.0194 118.9160 119.2086 118.6866 118.6027 118.4418 118.3057 118.1972 118.1034 118.0282 117.4857 117.5493 117.9021 118.0459 118.0671 118.1428 118.2441 118.3325 118.4845 108.8148 118.7208 118.9831 119.2878 116.2446 103.2471 119.7900
119.2400 119.0409 111.9528 110.8065 108.8658 110.5656 115.1638 112.4309 101.9746 104.5251 105.0075 113.4426 115.6960 120.3774 125.8017 106.5480 120.4754 124.0668 123.9836 123.5945 123.8385 120.6817 122.3528 122.5640 125.7627 123.8247 123.4454 121.8336 121.6220 121.6314 121.3615 121.1740 120.6927 120.7232 121.3820 120.4910 121.6965 123.8159 113.6752 118.6404 119.1282 119.2839 118.9604 118.8575 118.7377 118.6434 118.5598 118.2503 122.8069 128.1783 119.4374 118.5235 118.5015 118.5941 118.6758 118.7122 119.3678 119.1707 119.9316 119.4001 119.5492 121.1352 120.9031 119.8400
119.2400 114.0642 117.9195 110.5008 113.2830 110.3933 109.1010 104.8673 117.1976 108.1403 102.4482 112.9244 117.4035 117.0740 125.7518 127.6812 125.5839 124.2613 123.9098 124.5031 121.2007 119.8000 128.1829 123.4216 120.1064 115.7810 118.7162 103.8359 121.5340 121.6911 121.6077 121.4143 121.3693 121.6754 116.4547 118.7900 122.3176 120.4838 119.1708 119.2027 120.5386 118.8631 119.4090 119.2549 119.1428 119.0377 118.9461 119.6093 115.8762 117.4358 117.7020 118.9320 118.9477 119.0111 119.0888 119.2102 119.2053 119.4553 119.5947 119.8642 120.3461 120.1692 120.2039 120.2300
117.8100 113.2049 119.6360 108.9621 110.9483 110.8561 103.3439 104.6154 103.9371 103.2169 103.0862 114.4876 125.3133 123.7396 126.9467 126.8292 124.0014 124.5183 124.7678 124.1438 109.8667 126.2181 117.8864 120.7527 126.6319 129.1541 121.0692 118.8146 125.3692 123.1308 121.7594 121.3815 121.3173 119.0437 97.9369 115.8979 120.6311 120.5469 120.6521 120.9064 119.7658 120.1039 119.7012 119.6322 119.5281 119.4268 119.3546 119.3472 110.9945 119.0483 119.7172 119.1522 119.3627 119.4231 119.4972 119.5823 119.7364 119.7439 119.5764 119.1695 117.7901 119.4324 119.7525 120.8700
115.7800 111.0002 111.6482 110.3481 112.9247 111.6949 107.4927 108.4779 105.9931 103.6980 112.4926 117.0357 111.4336 123.7654 127.3265 127.0845 125.1389 123.8614 120.2420 124.5724 124.1598 121.2124 112.9956 120.5039 118.0851 105.7702 122.3356 122.6222 115.3588 119.0285 121.9966 121.6718 125.0859 113.9049 108.0852 117.5821 120.1125 119.1614 109.7864 120.2502 120.4387 120.1580 120.1078 119.9919 119.9331 119.8746 119.8525 119.8508 121.1986 108.0761 118.6769 119.6787 119.7547 119.7697 119.8067 119.9679 120.0320 120.2119 133.5966 123.5772 109.6783 118.7548 122.3868 120.9200
108.6900 111.7019 112.1506 110.4635 109.6214 108.6186 106.9248 106.9751 104.3564 103.5695 112.8268 120.0851 108.3811 127.3435 124.8315 124.7609 121.3286 124.3270 122.1921 124.1986 123.8139 123.9645 104.8976 106.7877 112.6399 122.5788 127.4934 109.4787 107.4048 109.8930 117.4740 118.1476 107.1141 100.5432 100.0336 104.3400 119.8411 117.6562 121.2344 120.8573 120.6882 120.5963 120.4853 120.4012 120.1021 120.1935 118.9701 120.3035 119.2163 119.6236 120.5630 120.0662 120.1240 120.3535 120.6488 120.2818 120.4281 120.3636 108.2686 113.4975 118.2856 101.6879 120.8048 121.2500
110.9700 112.3451 110.7950 109.0674 108.7073 109.0916 108.0233 104.7641 104.2074 103.9813 111.3856 113.5672 118.7121 125.1913 125.3741 125.1550 123.7936 125.0040 125.2014 124.3806 124.2197 125.1857 118.4207 110.7823 125.1519 125.1562 122.0401 116.7297 115.1133 117.4338 104.2305 126.1969 101.2624 112.9646 99.0293 100.3183 101.3449 102.5918 122.6617 121.0461 120.9788 120.7650 120.5971 120.4800 121.1182 121.9872 112.0328 121.3894 120.6083 120.4131 120.3481 120.4455 120.4793 120.7207 116.6379 121.0401 120.6699 121.0405 122.3007 102.5811 126.5399 117.9279 123.0811 121.5700
109.7400 109.5793 109.4261 109.3418 106.9134 105.3161 104.5948 104.0617 105.4030 102.2748 117.0896 104.2431 128.8487 125.1160 125.4138 125.0996 125.5456 125.1749 125.0100 124.5078 124.5357 123.5203 128.9703 124.2271 123.8409 123.5414 123.9236 123.1132 124.4739 126.6087 108.1726 104.6886 101.1798 102.3837 102.3606 111.0354 120.3424 122.8016 121.1256 121.5028 120.9196 121.9803 121.7429 123.3688 106.9890 118.6128 110.7440 120.4878 120.7942 120.7521 120.7820 120.7853 120.8401 120.8888 120.5373 121.2226 121.0380 121.1202 121.9820 106.9709 109.1787 122.3607 121.5260 121.8600
110.4000 109.9583 109.6133 109.5816 109.0909 104.9434 106.9467 110.5937 104.0810 104.7707 125.0038 114.7450 125.6823 121.5010 126.1457 125.0064 125.4512 114.7361 119.7708 125.4932 124.2971 123.8191 129.2950 123.6405 123.7425 123.8090 123.5847 123.2743 123.5289 118.6261 109.0457 103.0405 99.5830 100.7499 106.0862 116.2017 122.6016 121.9252 121.7000 121.6759 121.5473 120.6199 106.7304 128.2230 119.6276 122.7015 97.7892 122.8386 121.1686 121.0646 121.1159 121.1295 121.1504 121.2039 121.2679 121.2637 121.3515 121.4153 121.3234 123.9011 120.3119 122.3467 122.0499 122.1200
117.6200 108.2306 112.2737 108.9681 106.0830 108.3082 108.5282 105.7518 107.2602 106.9556 105.2245 107.5303 115.1383 115.4891 126.0374 116.7619 126.6131 125.3910 125.0708 124.9956 117.2471 127.4922 126.0260 122.2218 123.9470 130.2652 123.8590 123.7159 123.5000 123.7802 108.5086 102.4176 106.9759 123.1001 109.5300 123.6561 121.7582 122.2053 122.1066 122.0036 121.5160 124.7261 119.7138 115.2353 120.5175 122.8911 111.0888 122.2155 121.4901 121.4118 121.4322 121.4509 121.4774 121.5128 121.5630 121.5989 121.6469 121.7713 121.8148 121.9060 122.2949 122.0112 122.3539 122.4300
112.7000 111.7092 109.6102 110.2070 109.3101 108.3440 108.0757 108.4862 104.5488 112.5034 113.1411 100.2891 122.9193 127.6799 116.4558 117.1807 126.0474 127.5716 123.1867 126.2539 124.7031 121.8192 121.9580 123.6217 122.5634 123.7740 123.7331 123.7212 123.0814 117.9746 101.7450 104.6886 107.7133 123.7211 123.6252 123.1872 122.6439 122.4866 122.3944 122.2906 122.0558 120.7612 100.1755 97.7950 103.7585 124.9752 123.9376 121.4441 121.7348 121.7503 121.7462 121.7561 121.7769 121.8075 121.8585 122.0649 122.2701 122.0527 122.1147 122.2095 122.3007 122.4743 122.5200 122.7000
122.8200 120.9757 113.0123 109.0233 108.0801 109.0096 114.4236 105.6453 104.4329 104.0388 106.1918 113.2693 130.8671 126.8877 118.3707 107.1502 126.2277 128.7265 119.1186 118.6603 121.2660 105.1576 104.6592 107.0609 122.9401 113.6577 125.3091 123.2140 113.6623 108.4509 121.4128 130.4804 116.9183 125.8997 123.0007 122.6422 122.9832 122.6559 122.5100 122.4546 122.5171 123.9203 116.0453 102.6498 126.6667 107.0609 123.3507 121.5630 122.0545 122.0527 122.0417 122.0575 122.1081 122.1540 122.1505 122.2551 118.8258 122.6519 122.3321 122.5181 122.5722 122.6736 122.7887 122.9600
127.3300 108.2556 106.1412 105.8059 108.7608 117.3582 104.1180 105.8926 104.7366 105.5835 120.8631 121.6751 123.2645 121.0026 123.1754 108.9478 121.8513 120.3689 107.4897 106.0660 102.5525 108.3595 110.5512 102.2355 105.5119 125.6811 124.7261 115.0018 109.5792 118.3930 126.8993 127.5861 126.7669 121.6108 122.6384 123.3006 122.1146 123.7680 123.2609 123.1785 122.6595 122.1044 115.6363 111.6945 124.7656 103.6275 123.0838 121.9458 122.3326 122.3408 122.3338 122.3436 122.3928 122.2953 122.7240 122.1608 124.0360 119.9631 123.4169 122.7044 122.8381 122.9373 123.0378 122.9600
127.9600 106.5623 111.5193 108.7037 108.6278 112.9247 106.5182 107.7716 103.7383 113.1149 118.9342 108.4449 122.4927 108.2781 118.6693 129.9409 126.3000 114.2033 109.3620 114.9890 107.3037 108.3842 103.6301 106.7693 112.8249 124.8111 124.6917 128.8023 107.2200 127.8061 123.6869 120.4988 122.1048 123.5127 124.8598 114.3453 115.5491 116.8520 113.3427 123.1265 122.4309 122.8834 122.4449 123.7513 122.8072 122.2990 122.8872 122.6212 122.6097 122.6218 122.6193 122.6162 122.6895 123.1545 119.4802 124.6607 124.6658 103.3435 123.1516 123.0155 123.0990 123.1773 123.2716 123.2200
127.9600 109.3964 113.7833 111.0477 106.6834 110.9332 106.1155 104.7307 110.4746 119.5086 108.6674 109.1166 125.5974 116.7614 120.0923 126.3877 126.6485 128.2269 106.9894 123.4270 114.0711 116.8013 107.6402 118.8511 139.1760 131.1506 124.5876 112.3601 104.7807 123.1736 124.1447 124.3754 124.2149 123.9618 114.6933 114.2423 112.2177 105.5821 102.5698 121.8701 116.4264 123.2135 123.0700 122.8711 122.9369 122.9059 122.9389 122.9142 122.9008 122.8863 122.8924 122.8831 122.9508 124.3832 108.1992 113.8737 124.0408 124.9102 124.3075 123.2601 123.3331 123.4244 123.5115 123.4600
110.5700 112.6757 112.1927 107.8764 111.1694 108.0798 122.8110 110.4302 108.8905 103.9264 104.4938 122.9898 125.8780 126.4107 126.8066 126.6962 118.6675 121.9198 110.8398 121.6506 121.4863 112.1221 121.8748 123.3449 126.4506 124.5641 127.6250 112.9957 116.5200 126.9641 124.3535 124.2133 124.1657 125.7223 106.2557 107.1483 100.9688 99.3064 116.1935 124.1709 123.8805 123.3849 123.4038 123.3361 123.2952 123.2555 123.1904 123.1369 123.1659 123.1514 123.1541 123.1751 123.1698 122.8875 126.3095 115.0993 123.6006 123.1214 123.2375 123.5273 123.5787 123.6628 123.7474 123.9000
111.3100 112.8002 114.3890 107.1442 116.2076 119.6509 128.2549 107.0888 105.4948 110.4737 116.8353 107.3668 114.4604 129.8331 122.5267 122.3326 122.3213 117.5807 118.0356 117.2310 117.1117 119.9940 116.6178 125.5298 125.9573 125.5985 125.1496 101.2693 111.7695 124.9328 124.5182 124.4680 124.4576 127.0780 102.8928 104.9731 100.8445 123.5648 125.5325 123.4334 123.7421 123.6559 123.6037 123.5284 123.5010 123.4842 123.1901 123.5769 123.4138 123.3939 123.4107 123.4212 123.4391 123.4863 123.1266 124.4471 123.6611 123.6682 123.7191 123.8793 123.7746 123.8517 123.9613 123.9300
118.7300 113.3502 113.0690 105.2397 121.1967 108.0850 124.7148 103.8971 105.1894 117.0457 116.5637 106.1246 111.6947 105.0681 121.6609 125.6456 122.9523 121.1474 120.4824 115.4526 120.5437 119.4828 124.1450 125.6561 120.8397 122.6104 110.0560 101.2263 113.8208 125.1625 124.7803 124.6713 124.6696 118.3491 112.5682 105.5050 106.8011 125.4530 123.5644 124.0940 123.9115 123.9378 123.6944 123.8107 123.6882 123.8971 119.4994 124.1112 123.6944 123.6828 123.6583 123.6729 123.6849 123.7093 123.7941 123.8309 123.2078 124.0926 123.7933 122.8416 124.3851 124.3533 124.4561 124.1500
114.1200 114.4381 104.8873 128.9016 129.4475 126.2906 125.5744 110.7968 120.0378 114.7999 105.6834 105.1705 104.2538 117.5402 127.4957 127.3521 126.0739 110.7448 111.8239 115.7239 111.3128 103.9604 117.7639 105.1976 122.0867 128.5706 104.8971 98.8741 127.8801 124.0667 124.9773 124.8871 124.5451 124.8079 126.9763 124.8056 125.4282 119.9069 124.7331 124.4873 124.3379 123.9024 125.1569 124.0049 124.0635 124.2431 124.2538 123.9217 123.9261 123.8630 123.9053 123.9155 123.9249 123.9471 123.9706 123.9501 119.9193 124.1211 124.2408 122.2122 123.5308 123.4672 119.6249 124.3700
128.4900 128.5375 127.9952 128.9881 127.9717 127.8488 128.8586 125.2848 120.8122 120.9905 105.9638 106.3007 125.3120 126.3939 125.6370 124.1963 126.9879 107.2382 117.8260 122.9387 103.9874 112.8507 103.6840 117.6582 126.0949 128.4858 101.9979 109.1662 124.1457 125.2522 125.2162 125.0795 124.9882 124.7972 124.3806 124.9124 124.4104 123.6283 122.0801 120.8453 124.4339 125.8548 115.3683 124.6530 124.1312 124.4572 124.1204 124.1727 122.8535 124.5578 124.1758 124.1411 124.1758 124.1847 124.2009 124.2150 124.7277 125.4188 106.8874 123.8536 124.3922 127.9322 118.7817 102.5800
128.5200 128.0707 128.3243 128.1889 128.1516 128.2589 127.6110 121.6862 121.5756 119.4584 112.9269 104.4679 118.0567 110.3477 124.6692 122.2833 121.7643 120.2129 125.8449 127.9888 123.6866 110.1110 111.9295 129.1808 125.3366 122.7972 105.2980 126.0619 125.6355 125.6341 125.1722 125.2868 125.1684 125.1011 125.0716 124.8807 118.5158 105.8018 121.3094 122.9825 124.3905 125.3249 104.1895 122.1948 123.1533 120.6662 123.8010 126.8257 102.6361 126.1655 124.0940 124.0412 124.3727 124.4303 124.4331 124.4519 124.6249 124.4331 124.5826 126.7528 124.8938 110.1604 104.7284 104.4000
128.6400 128.6327 128.5282 128.4378 128.1150 128.7452 123.0062 121.2778 124.6555 128.6655 123.7151 111.7741 126.1988 104.1115 120.2641 104.6929 103.3115 108.5760 118.0370 119.0533 120.4302 118.0711 124.1332 127.2627 125.8555 113.5204 104.5096 122.3774 126.2306 123.7133 126.1492 125.2482 125.3534 125.2694 125.1846 125.2186 126.7654 101.6503 116.1638 125.2625 124.4746 124.5186 113.5724 123.7253 122.6290 122.0616 127.7517 122.8300 108.9045 126.0232 124.9704 119.6846 124.8575 124.6437 124.6466 124.6822 124.7611 125.3903 111.3452 117.1791 126.8073 119.3802 113.4640 105.1300
129.2100 128.4649 128.4564 128.4439 128.3875 127.6546 126.6929 125.4768 127.6886 124.9782 111.6313 109.4536 110.8016 123.5423 105.7775 116.1209 104.6628 115.1658 119.5620 130.2232 126.6745 127.2489 126.4149 125.1145 124.9029 117.6474 114.4891 122.6501 128.9286 117.5261 124.1049 125.6235 125.5432 125.4645 125.4320 125.2579 126.9671 101.2996 120.1477 125.2162 124.5041 126.9096 115.0813 125.4044 124.7312 125.4160 126.4723 109.7344 121.2971 124.7619 124.8230 125.4266 124.9743 124.8697 124.8724 124.8664 124.8619 125.2581 119.4222 117.5735 117.4141 121.8393 104.3923 103.4400
143.9600 128.7100 128.6200 128.5400 128.3700 128.2700 128.1800 128.0900 125.8400 125.9000 127.1800 127.6300 127.9500 105.4300 125.9400 125.1400 127.0400 117.2100 126.9400 126.8500 126.7400 126.6500 126.5400 126.3100 126.3100 126.2200 117.8800 109.5200 129.8200 129.8200 125.8000 125.7000 125.7000 125.5900 125.4800 125.5200 125.3900 125.2700 125.2900 125.2900 125.1800 125.1800 125.0500 125.0600 114.8000 124.9100 124.9200 102.9300 102.9400 124.9400 124.9400 124.9400 124.9200 124.9200 125.0700 125.0700 125.0600 125.1900 125.1900 119.1000 120.5700 117.7800 103.5600 103.5600
