119.8300 104.6800 104.6900 126.7000 126.7000 123.5000 123.5100 126.6900 126.6900 126.6800 126.6700 126.6600 126.8000 126.7900 126.7600 129.3800 126.8700 126.8500 126.9700 110.7000 111.4400 128.8600 127.1700 127.1400 127.2400 127.3400 127.4300 127.4300 127.5200 127.6100 127.5900 127.7000 111.3400 111.1600 110.3900 128.0400 128.0400 128.1200 128.2200 128.2900 128.4000 128.4600 128.5700 128.6300 128.7300 128.8000 128.8900 128.9900 129.0500 129.1400 129.2100 129.3800 115.0400 130.5200 130.3900 130.6000 130.4400 120.2100 120.6500 120.6500 109.9200 132.4500 131.5000 136.7300
117.7800 104.4266 103.3249 119.7653 122.2002 127.2227 122.9223 125.6975 126.5084 126.6028 126.5888 126.6083 126.6319 126.6371 126.6306 126.8083 126.8346 126.5294 129.6714 114.2143 109.5500 112.8791 128.5647 126.9130 127.5135 127.2328 127.3806 127.6534 129.7624 112.0742 121.7448 124.6593 106.8255 112.2642 111.4429 110.1004 113.2696 122.6261 128.6979 126.9201 122.7298 121.5217 127.6404 128.5867 128.7109 128.9016 126.9101 127.0481 129.3114 128.9663 129.2044 129.1037 131.4603 130.8420 131.6022 117.6038 118.9598 117.1413 109.4344 105.4129 119.0215 132.6589 131.4134 136.7300
104.3500 116.1750 112.4534 106.1739 122.8845 122.6746 120.5738 124.4580 126.3297 126.4491 126.4098 126.4123 126.4467 126.4841 126.5460 126.5530 126.5807 126.3561 130.9843 121.6941 116.1075 125.2242 129.3731 126.6765 122.1056 127.2977 126.8662 127.9648 111.1729 122.1781 106.2766 108.7084 107.1542 108.6901 116.6656 111.7654 107.9356 125.6152 125.0825 129.4589 126.6474 129.4151 128.6488 128.4736 128.3562 128.4332 129.0030 126.7532 128.9082 128.9621 130.0006 129.9997 128.4554 123.7155 115.0055 108.4086 110.1891 110.1932 110.0369 124.1253 127.0588 132.9678 132.1283 132.4900
115.5100 107.7651 118.0419 105.5373 122.7725 120.5853 119.5356 124.1172 126.1121 126.2444 126.2205 126.2669 126.2853 126.2977 126.3317 126.3750 126.3815 126.3521 127.2808 114.4164 115.1621 115.9233 112.6614 110.5283 123.3776 129.9818 126.7977 133.0263 125.3047 117.6648 118.4323 106.4024 110.4066 111.1407 118.6702 111.7849 117.5402 121.6669 121.4234 127.9714 110.9299 127.4676 129.1720 128.4445 129.2384 129.6482 128.6247 127.9904 128.5624 128.7434 129.0558 129.0327 130.4152 109.1745 121.8103 114.6436 108.2361 106.9154 108.4864 108.9341 132.5245 130.9049 133.2753 132.4700
114.3800 115.9381 116.2297 104.9772 122.6088 120.5672 119.0475 123.6058 125.9312 126.0170 126.0492 125.9519 126.0604 126.1218 126.1509 126.1947 126.2165 126.2815 126.3560 131.3831 132.2086 137.7769 117.3204 123.3502 127.0340 126.5827 126.9445 127.3024 127.7723 123.0939 106.9961 107.7639 108.6212 120.6758 116.0518 117.2891 113.6818 128.0995 127.9275 128.3812 124.0772 127.2818 126.8842 126.4169 123.9328 126.5822 127.5152 127.6931 131.7453 128.8582 131.4150 131.1095 132.1091 106.8942 114.8242 107.2036 106.4128 107.5830 107.5463 107.0245 123.2237 132.7545 135.8190 108.0900
113.8300 113.4448 124.2703 111.0412 121.7512 122.2589 119.3365 119.5161 125.9595 125.7599 125.8480 126.3277 125.9844 125.9326 125.9703 126.0042 126.0443 126.1151 126.1995 125.0227 126.2599 122.2058 112.7998 127.0771 125.8220 126.6929 126.6909 126.8828 125.7189 128.5713 122.2838 121.6137 108.0281 116.9454 120.2982 129.2982 127.4338 127.6909 127.6733 128.1364 128.1046 128.3571 127.9286 127.8746 127.9507 126.8881 127.0583 127.1980 130.8682 126.1084 128.7316 119.9370 110.4647 108.1041 106.2075 120.3187 120.0788 106.6792 106.3853 120.3777 107.3015 109.4831 107.0495 107.9900
116.8400 116.0680 119.3562 114.7145 119.9598 117.9605 118.3262 120.2328 125.5252 125.4078 125.6878 119.7813 126.4053 125.7988 125.7760 125.8205 125.8667 125.8956 125.9679 126.2455 127.2201 115.0594 117.1694 125.2305 125.9416 126.4793 126.5149 125.7678 129.7164 127.8207 106.6211 110.9906 117.8508 106.0886 104.3509 123.6259 127.5204 127.9404 122.5431 124.4529 128.1922 127.9163 127.2647 127.3729 107.1146 125.5693 126.2157 129.2487 129.5211 121.8506 104.0273 110.2793 113.3439 106.5923 125.0713 112.3026 111.5972 115.4551 107.0129 118.7240 131.9766 138.9139 114.6516 131.2100
117.7700 110.1877 111.3170 104.1898 119.4762 117.2823 118.3235 116.4477 122.1218 129.0592 125.4448 125.2412 121.4818 126.0991 125.5277 125.6661 125.6742 125.7372 125.7768 125.7777 126.2529 119.4370 121.4945 126.8017 126.0039 126.3415 126.3275 126.1835 110.7277 117.7524 119.8930 129.2490 118.5446 107.4486 121.9880 128.2203 127.2294 126.8374 127.5185 127.7782 127.5167 125.7083 125.4750 121.5676 116.4904 126.7070 127.2501 128.4573 128.8300 113.8807 106.9032 115.2801 131.8350 130.7159 129.9105 110.4222 107.0181 112.3801 132.1653 131.6312 135.3483 131.3344 129.6783 130.4300
114.2800 109.2043 119.8690 104.1150 123.1746 116.6571 115.5607 122.4501 119.9512 123.5955 115.8442 123.4142 118.1421 121.9681 125.3682 125.4795 125.4812 125.5327 125.5859 125.6602 125.8381 122.1194 108.6006 127.0220 125.8095 126.0508 126.1358 126.6446 117.5719 107.4935 107.1475 111.4662 118.0970 121.9588 112.0280 127.9186 127.0217 127.3224 136.0538 128.8421 127.1171 125.0162 127.0626 126.3567 126.5494 128.7146 126.7546 125.7052 125.7357 126.5331 110.9101 106.6959 124.3667 128.6599 122.8056 102.6125 109.1518 122.2755 131.3260 135.2636 134.7954 118.0377 109.1722 107.8200
118.8700 111.8911 109.1974 108.5556 129.9987 116.8070 119.8824 118.1083 113.5986 112.5089 113.9100 122.7834 113.5926 113.1315 126.2432 125.2529 125.2887 125.3465 125.4048 125.5280 125.4800 126.8226 125.1131 126.3623 125.8444 125.9264 125.9814 126.1373 123.6942 128.0294 125.6530 125.5928 124.7838 120.2157 124.9637 126.7702 126.6307 126.9198 120.4374 105.6355 112.8067 125.6448 125.7991 124.3629 126.7094 126.8087 125.6966 125.3974 125.8436 125.9125 115.5619 126.0120 128.8893 121.4878 108.6595 108.6203 128.2413 131.1207 133.5043 131.2285 131.5757 134.0466 134.7690 131.9400
113.2600 114.2697 104.7343 104.3689 111.3916 116.8710 124.1931 105.8815 114.1362 110.9597 107.4834 119.3235 123.8103 121.4778 125.3908 125.0635 125.0865 125.1499 125.1429 125.0135 125.0593 124.9085 126.0220 125.6266 125.6684 125.7504 125.8221 125.9231 126.0548 129.9699 126.5683 124.8924 123.5041 127.4828 126.8315 126.7363 126.8698 126.0821 115.4412 115.1659 125.4779 125.0834 124.7579 124.0105 124.1472 124.2900 125.2509 124.9409 128.2686 127.7871 127.6709 120.1904 132.7093 106.9485 111.0857 117.5417 104.4443 127.1873 124.7131 129.3580 133.2889 130.2198 124.2677 131.6900
111.8500 113.5173 112.4637 103.8053 106.8309 123.1850 114.1050 107.4662 124.1893 122.5767 112.7621 120.7215 124.2473 127.1863 124.7354 124.8105 124.9420 124.9312 125.1282 126.0806 124.9948 125.4083 124.1190 119.5236 125.3429 125.5625 125.7644 125.7833 125.7034 125.7718 115.8130 126.7493 120.4341 122.9162 125.3978 126.7476 126.3828 124.1913 107.3492 121.7856 125.8122 125.1337 124.0280 123.5551 123.4361 123.8694 124.8209 125.9398 127.5967 125.7674 127.7577 118.6376 119.0121 110.3583 110.8411 108.6470 118.4852 137.0914 129.6984 131.7278 130.5475 130.9114 112.8530 107.5500
115.9800 110.2348 107.9296 102.7877 116.0931 103.2505 119.6102 106.4091 117.6669 117.9808 120.9432 110.1700 122.9677 125.3377 124.4352 124.6006 121.0351 126.0788 113.0403 123.6295 124.7090 124.9225 125.4061 125.7209 125.2648 125.3939 124.6831 127.3850 126.3553 126.3687 125.1788 128.9255 121.5206 120.6473 125.5134 127.0310 123.7455 123.2742 125.2791 109.4291 125.3112 124.2174 124.6970 122.8985 122.9995 123.3601 123.5172 124.7877 127.2203 127.2134 128.5402 122.8493 126.8477 109.3858 107.3631 108.3285 106.1436 116.0860 130.8884 129.9457 130.9731 132.0819 118.4905 107.5500
102.0800 107.3518 118.9185 112.9108 116.3317 117.4934 117.7629 109.9760 116.1305 116.8545 118.6862 108.9392 122.2952 123.8219 124.3931 124.4618 125.8040 112.5944 124.5218 125.8829 124.4126 124.8907 124.9368 124.1619 126.1232 124.9867 127.9202 116.2821 125.1110 121.5298 120.0016 119.7455 121.5977 121.5213 127.6182 125.3867 122.6816 110.3637 106.7573 101.8866 121.9231 124.5618 123.5709 122.3587 122.5333 122.4946 124.1817 126.7606 127.8623 111.2903 110.9285 127.6627 123.2707 120.2077 128.0604 120.7249 126.7832 118.8403 129.9862 131.1683 130.9895 133.6605 104.4624 107.4100
101.8700 103.2235 128.9671 116.0007 112.5522 112.4227 115.0684 116.6386 124.5635 120.5549 122.3191 111.7015 122.4698 123.6758 124.1488 124.0862 125.5729 121.2275 126.5187 124.1624 124.5372 124.6056 124.5991 125.5456 118.7677 105.2627 123.9478 125.4242 123.7822 115.4130 118.6364 120.7359 121.1733 121.2973 108.1184 120.8698 120.9156 114.2962 116.0458 114.0551 121.1486 121.6265 121.6248 122.1692 121.8599 123.6844 125.8830 126.6724 126.6957 121.5397 119.0510 128.8996 128.8647 129.9057 124.2715 120.0200 125.7068 128.9736 131.1167 131.1029 131.1157 126.1771 122.9900 107.4100
123.6400 122.7525 123.8380 125.2647 112.1444 113.9459 118.9949 113.4957 123.6421 123.5061 124.3965 117.1264 122.6279 123.8238 123.8878 123.8744 123.7618 128.0352 127.0316 125.6092 124.1454 124.4027 125.4102 120.8247 103.6972 105.9877 126.4107 124.9327 126.0772 120.5634 116.7395 121.2666 120.5472 123.4190 123.4926 118.7016 120.6031 125.6558 107.3136 119.2910 120.7794 121.5930 121.0758 120.8687 123.9909 125.3281 125.8405 126.2348 125.0592 127.2389 107.6051 130.2329 128.9359 126.7174 127.0544 123.4218 127.2973 125.9805 125.7354 131.7146 131.0133 130.8776 130.1514 107.2700
123.4100 123.3511 123.6887 120.3794 119.1881 115.1675 112.5886 118.2665 111.3781 124.8116 123.2587 123.9331 123.5966 123.6299 123.6601 123.7305 123.8799 123.8108 123.4278 125.2458 121.4170 124.2721 115.3714 123.9991 117.1727 105.1318 110.2736 113.5514 115.6083 124.0026 121.4896 120.3321 120.7386 121.0755 117.9635 116.9200 121.3308 121.6428 110.5683 119.1588 119.7491 120.5507 120.5881 121.7147 125.1460 125.2008 125.6480 125.8615 124.5770 125.6417 123.0334 124.8960 125.8682 119.9061 103.3522 118.3027 123.0367 124.2202 128.7666 131.5650 131.6477 132.8636 126.8044 125.8600
123.1800 123.6705 125.4781 106.6127 115.2325 107.9007 112.5639 113.0138 119.8518 123.0280 123.1856 123.1411 123.3082 123.4403 123.0492 122.9125 123.1397 123.6327 123.7337 123.8346 123.9749 125.0121 128.1905 108.4367 104.8812 106.5215 102.8240 109.8208 117.3213 118.6384 119.8799 119.9144 121.1124 118.6959 117.0171 121.5372 121.4605 116.1505 119.6592 119.2029 118.0677 119.3403 119.7224 122.8225 124.3372 124.4830 124.0033 124.6407 124.7303 125.4132 125.6350 122.6654 114.5713 118.7428 121.8276 122.4224 120.5949 130.8349 130.9324 131.4092 132.6078 125.0654 126.3918 127.4400
122.9400 120.0880 119.0435 103.1523 111.2618 116.6427 113.6813 117.1750 111.1674 123.4646 122.9556 123.0100 123.0574 122.9435 123.7961 135.8469 120.5871 122.9817 123.5380 123.4746 123.6965 124.0936 114.2492 111.6196 109.9738 112.6781 102.7587 103.6094 105.5998 110.2268 121.5418 119.5682 118.3331 115.0035 119.5331 117.3993 116.7960 116.2407 115.9200 117.3338 109.7836 119.0539 120.4994 121.8897 123.6433 123.1625 123.1848 123.2959 125.7111 123.8273 124.2603 123.2421 121.6404 121.2371 120.1466 121.3212 128.3773 118.7268 121.9751 122.6111 124.2222 125.0496 125.8932 126.1200
108.4000 109.2600 109.1678 107.2385 111.4968 118.8525 106.5756 127.0914 123.5561 122.6447 122.6780 122.7428 122.6885 123.2962 124.0672 113.3127 124.6857 124.0874 123.0807 124.0682 123.3759 123.3905 117.1387 129.8467 111.4383 105.2047 103.1333 104.6057 109.3761 113.3630 121.6261 117.1049 113.8572 120.6490 121.2073 119.0503 109.8667 117.8579 101.2787 112.7623 118.4986 119.4640 121.4250 121.7338 120.7159 123.1031 123.4391 121.6989 121.3812 123.2910 124.0566 118.2931 107.9570 116.7701 117.8519 109.8044 108.3935 110.8823 124.4113 124.1275 124.6937 125.3963 125.8727 124.9800
109.2400 108.9424 113.0389 100.2149 116.1648 103.1561 107.2946 123.8407 122.2147 122.3494 122.4051 122.2286 122.7142 119.5925 114.1855 116.7351 114.4003 122.2054 124.9041 118.7817 124.4674 123.4753 122.9732 120.5695 123.2223 107.2532 101.7731 102.6536 111.2078 104.9871 116.5934 113.6400 114.8616 114.0471 110.2471 108.6194 104.0732 115.2363 103.4767 112.5905 117.1386 112.1043 120.2552 121.9324 124.3948 124.3560 123.4988 115.6299 108.6339 117.6290 120.0340 114.8864 106.0598 112.1493 103.6712 106.9333 120.6296 118.2748 121.9238 123.8119 124.1289 125.2478 121.6361 124.9600
122.1700 108.9156 106.1761 108.8850 123.0045 121.7480 107.2582 123.4210 122.0602 122.0644 122.1078 121.9992 121.5811 107.9865 116.6360 113.0603 119.2744 122.7181 120.8821 115.8653 122.8135 122.9097 124.1371 107.3582 113.6157 105.8167 100.7674 103.7037 117.6950 115.2083 112.8915 116.4030 108.8029 100.6216 101.8576 103.3005 102.5832 100.0371 103.1668 102.9796 109.9843 111.3298 120.8240 116.3731 128.7735 119.5679 120.7452 120.4169 103.0962 103.4546 111.4307 103.7474 105.1258 105.1698 106.4625 105.6099 105.3859 103.1311 113.2490 124.3298 124.4777 123.8325 118.3775 119.0600
107.7800 110.4272 102.9479 118.2142 121.3233 121.7147 125.2512 121.2619 121.7679 121.7878 121.8585 121.7101 123.4763 117.9398 105.0420 107.0003 117.9853 123.3574 118.5443 121.2439 122.6332 124.0686 125.0562 109.9138 100.7484 100.9445 101.5918 103.3674 103.2736 113.7500 116.5368 119.6435 113.4306 102.0651 103.2412 103.2069 103.3732 103.3886 110.8797 111.1045 112.2289 120.3199 125.5808 114.7589 107.1842 106.9761 108.7655 120.6562 106.5419 115.5691 104.5052 105.7882 104.7722 103.0702 104.3764 105.4817 104.6797 113.7642 113.2517 123.4058 121.4668 120.4693 121.5890 121.5900
100.4100 107.5505 100.9754 117.3849 120.7660 121.1696 122.0531 121.3378 121.4152 121.3408 121.3111 121.3110 121.5339 105.9134 109.1417 106.2674 122.4615 114.7693 104.5380 122.3775 119.5794 116.8033 104.4082 101.8174 109.5901 102.3964 100.7113 106.5638 99.8187 111.7340 112.6927 114.4773 116.7961 105.8156 102.8556 102.7256 101.5524 106.7686 120.6388 119.2832 111.3734 113.4897 116.0222 117.9410 121.3338 112.4097 110.3657 119.9584 115.5605 108.7337 105.0131 105.5450 105.6977 117.0497 105.5939 107.1983 113.2040 118.6036 119.0433 120.1678 119.8761 120.5949 120.7512 121.1500
114.8000 117.1232 104.6598 102.7885 121.9951 121.1947 121.0862 121.0195 121.0715 122.4990 124.5477 113.0683 124.2717 102.6646 116.0795 113.7464 109.2705 113.6993 104.1143 122.0485 120.8638 121.4259 112.3529 106.9230 106.8619 105.9742 111.2306 113.9939 108.8238 115.8736 117.4900 114.2463 114.4586 114.9122 102.3322 102.1962 112.8433 117.3806 120.5656 107.6635 107.3886 109.4230 108.4281 107.7843 121.2507 108.7922 118.6449 113.3226 106.6993 118.3994 102.8705 104.8786 104.9483 103.8048 103.9473 116.5871 117.7401 117.4292 119.4180 119.8536 120.4101 120.3619 120.3579 121.1500
120.7100 103.5977 101.7343 118.3565 121.2723 120.6888 120.7031 121.0501 120.7792 125.4745 129.3601 113.0680 121.5318 108.5294 127.0586 114.0875 108.9088 112.5086 118.8825 122.5873 122.6484 121.1398 108.7624 122.1496 112.4561 109.6769 110.5654 110.5348 116.2309 117.6368 117.4282 113.4820 113.7542 110.2865 101.6726 102.9777 102.2461 119.1303 111.8721 105.9981 107.7196 113.7152 101.7874 115.7739 120.3783 107.9490 114.3125 119.1968 102.9670 107.1809 117.8666 104.1476 104.2618 113.6873 114.9326 117.1693 116.9473 116.6494 119.2995 120.2109 120.3221 118.4872 120.3612 120.8000
120.3900 119.1466 107.0632 121.6909 119.8705 120.3643 120.7860 121.6566 115.6418 125.2538 121.6838 121.9756 121.3510 123.8140 120.6904 109.4145 121.2145 123.2320 120.8183 122.6181 122.2456 108.6551 109.0655 107.4898 107.0288 113.0134 109.1656 114.5589 113.0872 115.2186 111.5002 113.1049 112.8362 116.8256 106.2121 104.6127 111.8592 111.0007 107.3523 106.6205 111.1509 104.9973 119.4490 118.6251 121.4146 124.2780 115.2379 104.8891 104.5687 104.2588 106.4343 103.9735 115.4559 116.5178 117.4270 117.5596 117.1296 117.7725 119.1605 119.6958 119.6013 119.7887 119.5682 120.3300
120.0500 119.8874 120.4806 120.1575 120.0130 120.0249 119.8806 120.3826 120.2031 119.9946 119.9626 120.1703 119.8917 120.0762 121.2920 119.6675 121.4864 120.5578 116.1592 112.5430 117.3918 106.9694 105.4212 100.6894 109.1794 107.1052 99.2965 107.1122 113.9540 111.9184 111.9745 113.0074 113.7258 116.7830 118.2724 105.8095 105.7018 106.2562 111.3236 116.6055 115.9971 116.9904 114.3964 123.0261 115.5639 118.4902 105.6612 104.5892 104.6058 103.9567 114.9699 115.6359 116.1909 116.1925 116.8111 116.7438 117.6115 117.8511 119.1670 119.5663 119.2706 118.3545 120.4360 129.0400
119.7000 119.2093 127.4395 119.1343 119.6542 119.6144 119.6347 119.6206 119.6971 119.7487 119.9019 119.8770 121.0961 120.6323 120.1601 120.2115 120.5557 120.0980 110.0900 114.1300 103.8698 102.9025 109.2971 108.0389 105.1276 106.0075 111.0413 115.1493 111.4651 110.7285 111.3395 113.9835 116.0684 116.4418 114.5744 103.5846 105.2833 112.2515 113.9323 115.2099 120.3932 113.6884 122.3921 116.3123 118.6623 102.3789 104.4649 103.4912 114.2607 114.9644 114.6989 112.8424 110.5015 116.2486 116.8739 117.1842 118.8486 117.4463 117.4423 116.1809 108.6288 111.8554 113.1690 111.8100
119.3400 119.4030 118.6802 119.0102 119.1953 119.2080 119.2232 119.2528 119.3063 119.3373 119.5009 121.0846 108.7086 115.7461 115.7337 120.0318 119.5572 120.6452 121.9788 110.1658 105.4146 102.8913 110.3283 107.0463 105.7725 106.4257 109.5347 107.8795 110.8852 112.0923 115.4798 115.4437 114.7217 109.9559 102.5584 105.4637 112.3739 114.9748 111.6808 113.0059 113.2016 115.0154 116.3531 114.0723 108.4160 103.0177 112.6860 104.5754 113.8403 114.2019 108.4604 113.4603 116.2766 115.2867 114.9125 115.1891 116.1875 105.4495 107.3816 110.3215 113.7371 117.9704 115.7491 119.2800
118.9600 118.9267 119.0055 118.8915 118.7966 118.7883 118.8053 118.8504 118.8030 119.1152 118.6803 119.8353 114.2005 122.8899 119.6967 119.5543 125.3783 115.8103 113.0099 106.7978 110.7835 104.8783 102.6981 103.3419 105.1915 106.5272 109.1221 109.2528 110.2828 109.8612 114.7604 110.6112 104.4907 99.9523 103.9258 112.6533 113.9595 116.5099 111.4701 116.2622 115.9699 114.3700 115.2671 105.0534 103.9016 108.7975 113.6485 118.8004 113.5019 114.5740 113.1829 108.5853 112.9925 109.6935 111.6598 103.9828 105.6027 110.5165 112.5964 118.0642 116.3113 122.2290 114.0736 117.9600
118.5600 118.5299 118.4228 118.3800 118.3557 118.3539 118.3653 118.2608 118.8452 117.3095 119.5036 112.5888 116.0042 120.4966 118.7386 118.9104 116.4564 118.4364 96.5414 101.1667 110.5678 103.2642 101.2009 106.2233 98.4349 107.1279 109.2503 110.9409 113.3596 104.4182 113.6896 99.7199 102.0730 105.1682 106.5627 105.7877 109.9297 115.0943 114.3363 114.2270 111.6738 113.5739 109.6421 111.1202 106.7627 112.5613 112.5945 112.4339 102.6581 110.0429 111.4633 103.5224 103.8184 103.9239 108.4184 110.0852 110.0734 115.6692 115.1554 123.9442 123.0410 134.9315 127.5058 133.7300
118.1400 118.0827 117.9929 117.9376 117.9025 117.8938 117.9092 117.8820 117.0103 115.0517 108.8484 117.9050 118.9040 118.7428 119.1483 119.8545 113.8097 104.9549 107.0503 114.5152 111.0187 105.6479 106.0811 109.9475 104.5605 105.7945 108.1168 111.8755 113.3560 108.3109 110.3110 104.9916 108.7757 110.4252 108.8666 106.7296 106.0538 96.9698 111.5949 110.8265 108.0616 109.4985 111.8755 111.0845 112.0059 112.8128 109.8675 111.8553 103.1233 103.1488 103.8776 104.7831 104.2694 104.6646 116.7996 110.6651 121.4086 125.0509 124.6459 125.9279 122.5015 102.4056 109.6750 129.0200
117.7000 117.5708 117.5232 117.4485 117.4107 117.3995 117.4162 117.4290 117.8924 118.6813 113.7744 122.2239 116.9706 113.3509 114.3911 112.2424 95.3501 109.5787 107.9987 121.6397 105.5702 105.2306 102.8286 105.1482 105.8734 104.1888 110.9342 111.4437 110.8290 114.1621 110.2865 109.4746 108.1976 107.4395 103.2171 105.2550 104.0419 107.1698 106.5899 108.5371 109.6123 114.0205 103.8171 110.9747 111.5838 114.5651 102.3931 107.7803 103.7922 104.4522 104.4535 104.3014 108.9945 111.1957 110.6048 106.4775 129.4161 118.8240 118.5202 107.4478 119.9796 113.6424 116.2441 117.4900
117.2300 117.4307 116.9700 116.9461 116.8947 116.8799 116.8985 116.9327 116.9241 116.7918 118.0738 117.1681 119.2363 122.4791 119.5289 113.9478 103.6410 110.4204 106.4005 106.2893 97.7708 106.2329 100.5581 100.4168 104.4983 111.0844 112.4916 109.6265 111.2758 106.1695 104.3124 105.9341 106.5148 110.3304 102.7537 103.6249 103.7752 107.3671 107.8527 108.3965 109.2866 117.1067 105.4182 112.1111 110.7797 105.3910 102.9779 103.5061 103.9596 103.9193 104.1704 103.9606 110.1455 124.9682 107.6868 109.4963 112.3223 114.1250 112.1869 113.8977 120.1203 120.4930 120.3400 117.4900
116.7400 114.2717 116.9031 116.3486 116.3385 116.3272 116.3443 116.4050 116.5231 116.6701 116.6806 117.2831 116.3012 124.6034 115.9376 122.0887 117.9863 120.2279 100.1142 96.6155 100.6614 102.2080 104.5555 105.3738 109.0695 105.1741 101.5873 105.8843 105.0372 100.4612 101.2409 106.0120 109.2691 105.2880 101.7980 104.9000 105.5786 107.6482 108.4079 108.4771 108.4225 109.2911 115.8381 106.3152 102.9774 103.2692 103.5808 103.5365 103.5460 105.4738 105.2013 105.8683 106.4348 111.3155 106.8720 105.1328 112.9158 115.2246 115.6538 120.0487 119.5082 121.0730 119.6463 120.5100
116.2200 113.1549 115.9121 115.7990 115.7518 115.7392 115.7594 115.8227 115.9233 116.0556 116.2488 116.5241 116.1132 117.1045 117.3784 117.0657 115.7164 117.2308 117.8425 99.2475 115.7319 106.8857 103.7562 107.3683 103.7466 102.7032 98.4872 100.6288 98.7669 106.8539 107.6486 106.2526 108.7631 101.5406 101.1219 103.5674 105.4865 105.5276 107.9199 107.8632 109.7391 119.1483 113.5593 117.1059 105.1584 102.6990 103.1902 105.4488 103.8575 105.5755 105.0760 104.6778 105.6462 107.8080 113.7547 118.0700 117.0500 120.1133 120.2325 119.9307 120.0635 118.2826 119.5044 120.4100
115.6600 115.8214 115.3855 115.1802 115.1269 115.1016 115.1328 115.2034 115.3301 115.4866 115.6831 115.9101 116.2539 116.4576 116.6748 117.1693 115.2238 90.7421 106.3959 119.9698 113.5656 102.3991 102.9061 99.8299 103.8550 98.7390 112.2349 103.0438 105.2287 102.6647 102.3882 112.0561 100.0396 100.9755 100.8925 103.6737 104.9028 104.8269 115.7158 107.4502 107.3903 119.8260 109.3667 115.0272 118.4936 103.6028 103.5561 103.6991 103.7767 104.4086 104.6139 113.1288 113.2857 113.3132 113.7291 119.3672 120.5013 119.1887 121.2675 120.1594 118.6189 119.3713 120.7810 122.4700
115.0300 114.7829 114.6547 114.5327 114.4525 114.4239 114.4558 114.5430 114.6847 114.8697 115.0893 115.3579 115.6263 115.9246 116.3931 116.0582 119.5025 106.2430 114.3600 115.3895 103.5146 99.7445 103.5407 115.6221 102.9697 110.7698 119.6963 99.7508 104.5189 114.3932 113.9198 120.8913 107.9676 100.1411 101.4573 102.5124 100.6112 100.5071 102.9506 106.5905 106.2937 114.6524 114.4456 102.9241 102.7327 103.2246 103.6261 103.1756 110.9322 112.1177 111.8741 112.3167 116.0123 117.7857 117.9569 118.2140 118.5753 118.4820 118.6565 119.9728 120.1988 120.0920 118.8833 121.0600
114.4100 114.1816 113.9695 113.8059 113.7138 113.6824 113.7262 113.8218 113.9878 114.2079 114.4668 114.7628 115.0892 115.4404 115.7746 116.2450 116.2370 116.8459 91.2971 99.8158 98.1035 95.1455 105.4618 100.3480 105.7257 111.0291 98.1185 98.9826 109.0506 107.0144 110.7233 112.9530 113.9363 99.6797 115.6799 98.8549 102.6997 102.6451 106.9885 103.7452 115.5424 103.9632 102.8200 103.0697 104.5075 105.8657 110.9522 110.2560 110.3397 107.7977 109.8014 116.6204 116.3187 116.7371 117.4372 119.4346 119.3806 118.5416 119.4468 119.4673 118.6651 120.0369 108.5143 120.2400
113.7200 113.4528 113.2106 113.0307 112.9152 112.8786 112.9290 113.0449 113.2434 113.4952 113.7985 114.1431 114.5192 114.9331 115.3147 115.6368 115.8697 117.1193 107.2469 97.1575 98.6485 100.2152 101.3118 110.8649 109.8870 115.8380 103.3224 110.5651 107.0265 111.8803 109.0418 112.2980 112.5777 117.0302 104.2885 106.6823 115.1710 115.4128 115.7634 113.6053 112.4119 110.9038 107.7843 108.8458 108.7601 106.4156 104.9473 102.8414 117.0812 106.0964 111.0126 115.9741 117.9994 117.3632 118.0352 118.4425 119.0907 119.5822 119.5688 120.9137 121.1196 121.2757 115.7718 105.9500
112.9500 112.6848 112.3877 112.1665 112.0284 111.9906 112.0426 112.1922 112.4227 112.7293 113.0832 113.4851 113.9199 114.4005 114.4785 115.1208 117.3893 115.1879 113.2670 96.3642 95.7418 101.5266 104.5541 115.2636 107.2708 106.3274 107.7559 111.6967 112.3072 110.5415 111.4601 110.7596 110.4221 111.5686 112.2836 109.2933 108.4069 110.8681 112.7850 100.4698 107.2681 104.3912 101.5802 102.2452 101.8736 101.2858 107.4188 106.0818 116.4949 117.5544 111.2755 111.7661 111.5795 118.1523 118.5174 119.2184 117.2533 112.1581 121.1805 114.4484 121.9212 116.5425 111.1002 105.9300
112.1100 111.8473 111.4913 111.2214 111.0456 110.9931 111.0645 111.2485 111.5408 111.9061 112.3308 112.8025 113.2904 113.8091 114.5420 112.9542 111.6353 118.4225 94.7566 93.5661 105.1008 102.4260 102.3948 99.8482 105.4737 113.4314 108.3374 111.7831 108.1150 107.9434 108.8836 111.1308 111.5277 112.5018 105.1099 102.2338 99.7620 104.6611 111.2227 107.6595 114.6920 106.1036 106.1415 101.3381 107.9540 107.3292 116.4139 115.5388 114.7815 115.6820 103.7565 103.5077 103.2585 110.7279 111.1067 110.6572 105.0514 112.4494 114.7512 110.5648 121.9795 105.5331 115.6147 121.0600
111.1600 110.9478 110.5069 110.1583 109.9463 109.8774 109.9643 110.1952 110.5533 111.0105 111.5292 112.0809 112.6532 113.2950 113.6712 113.0474 110.5406 102.6799 104.1555 107.8806 118.1674 101.7791 98.5378 113.1056 103.5100 110.1924 105.2438 105.3686 107.1378 109.5104 105.9115 107.8720 108.3015 108.8174 101.3046 110.5765 102.3730 108.2008 110.7869 111.5259 112.3997 113.7302 108.8635 107.1969 113.8681 113.7353 113.6891 114.9566 114.9690 121.6238 108.5192 103.6760 102.0961 111.2326 109.7444 111.2901 119.5452 119.8465 117.1378 120.8968 120.5033 113.3490 122.2875 119.2600
110.0500 109.9624 109.4137 108.9606 108.6772 108.5894 108.7096 109.0183 109.4750 110.0384 110.6771 111.3441 112.0126 112.7242 113.2846 112.1319 109.4980 121.7911 118.3132 118.0951 117.7599 113.0873 115.1380 117.5409 100.0511 110.8698 100.5958 103.5165 104.4270 104.1841 103.6132 102.5458 104.0725 105.4245 109.9339 110.9445 107.0202 111.2395 110.5534 110.5544 110.5048 110.6121 112.2494 112.8876 112.9484 113.6529 114.5940 115.5048 115.4206 120.0232 109.8285 112.3732 112.1022 119.1390 118.8471 119.6761 118.1012 119.5196 120.0681 118.7891 119.7576 119.7063 120.0661 105.8900
108.8300 108.9017 108.1859 107.5976 107.2026 107.0802 107.2421 107.6678 108.2701 108.9965 109.7841 110.5771 111.3530 112.1497 112.5980 111.7257 113.4415 116.2321 115.1502 115.4966 116.3357 117.4926 119.5232 125.6491 104.7531 121.2093 113.8722 117.2487 110.6670 115.3959 104.6045 101.3233 102.8081 106.8092 114.9500 109.6009 109.5979 109.9949 110.2782 110.5935 111.2625 111.6816 112.3409 112.7607 114.2663 114.6355 113.9568 114.3868 115.2675 116.8680 112.8562 116.7699 117.2184 117.2011 117.3454 117.8888 118.8751 119.5070 119.3367 119.8181 119.9877 118.0774 119.1225 119.0700
108.8300 107.7549 106.8194 106.0042 105.4430 105.2482 105.4939 106.0968 106.9377 107.8842 108.8545 109.8012 110.7219 111.5881 112.3647 113.8582 114.4672 114.3697 115.2137 115.7824 116.1851 116.9743 120.5641 108.1065 118.7978 117.6178 120.4729 114.5455 117.7365 103.4748 117.6753 101.0309 109.7788 104.4048 107.4206 108.9101 110.2540 110.1782 110.6224 110.9771 110.3384 111.1732 112.3418 114.3396 105.1497 115.5072 113.7722 114.9477 116.2040 115.7040 119.9387 117.8998 118.3427 119.0165 115.9892 116.7261 118.7512 115.1028 118.5156 123.1756 112.0079 120.8697 123.9248 125.0400
107.2700 106.5506 105.2865 104.1327 103.2315 102.9263 103.3273 104.2585 105.4586 106.7039 107.9207 109.0604 110.1235 111.0845 111.9758 112.7473 113.5589 114.2905 114.9297 115.4500 116.3023 116.6106 116.8935 91.4207 119.0057 114.8247 104.3604 120.2239 109.1668 115.6787 119.1423 104.8129 103.8080 104.2231 105.2602 105.4614 110.1315 108.5959 109.5255 110.8515 111.8545 112.7226 112.5252 119.7511 104.7514 115.0150 116.5485 117.9605 108.9469 119.1217 102.2556 104.0807 106.6144 114.1395 121.4579 122.2704 118.5156 119.9391 117.1459 113.8735 118.7388 115.1469 118.9388 121.9500
105.7500 105.3101 103.6275 101.8357 100.3809 99.7973 100.5309 102.0730 103.8505 105.5190 107.0396 108.3860 109.5894 110.6592 111.6350 112.5162 113.3110 114.0050 114.4346 116.7649 106.3105 118.1980 117.5856 100.0496 96.2383 103.7236 100.4255 119.0929 101.3255 103.4587 99.9504 117.7801 101.7422 104.5188 107.1828 104.6967 105.7396 114.1728 109.3648 110.4566 101.3969 110.9926 112.0961 114.8567 101.8818 103.6253 114.4674 114.2370 113.9877 115.3736 107.0493 116.7768 116.6310 117.4935 118.0429 118.6421 119.5051 121.1733 115.4512 111.9092 105.2706 104.8455 106.0925 105.8700
105.3900 104.1658 101.9052 99.2115 96.0443 94.4609 96.4717 99.5852 102.2235 104.4311 106.2708 107.8174 109.1576 110.3275 111.3581 112.2943 113.5198 114.8195 106.7647 116.4416 116.4817 116.1739 116.8107 117.2044 122.3366 119.5150 106.8109 102.0751 103.4995 115.4703 111.3144 107.5526 100.0300 101.3010 102.6640 104.6111 107.1261 106.1198 108.3579 105.0179 109.5744 109.3942 112.6328 115.7574 102.4502 103.9885 114.6992 114.4403 114.5449 113.9529 107.4765 117.8485 114.3888 119.4950 119.7115 120.0575 119.7827 122.0359 113.2961 116.6383 108.4786 112.1969 110.7356 105.8600
105.1400 103.2927 100.3959 96.3756 90.0806 87.9699 90.7077 97.0272 100.8248 103.5974 105.7118 107.4282 108.8610 110.1033 111.2498 111.5879 117.4168 113.8241 115.1699 114.7833 113.4132 117.5989 101.3330 98.9836 97.5723 116.2401 111.9163 106.8962 110.1560 97.8977 105.3737 101.4429 101.4438 109.5876 110.8395 108.5229 116.5406 113.3516 110.2776 116.6659 102.2963 100.8513 109.1643 114.4725 104.3117 106.5647 104.2090 108.3162 108.8015 109.5987 111.0982 118.8757 112.7318 120.4067 122.4850 122.3925 112.7934 112.4396 107.2418 116.9547 118.3834 116.0053 122.0140 105.8600
105.0000 102.8985 99.6821 94.5622 86.7234 84.2155 87.3743 95.4912 100.1588 103.2241 105.4747 107.2605 108.7388 110.0099 111.0916 111.8852 112.4981 113.8436 114.2180 106.2223 102.9931 119.2651 98.6594 94.4601 112.0423 117.6866 107.9105 114.0499 111.2023 108.0225 102.1130 103.7536 104.2146 109.1543 109.4152 109.8356 110.0939 111.8660 113.4927 114.2229 101.7267 101.3310 106.8109 112.3041 101.6174 103.3869 103.5500 115.5036 118.3454 119.7722 120.2946 121.6393 119.7926 111.6390 122.9384 117.5417 110.5324 121.2003 127.6948 126.9062 127.1065 116.2214 115.4267 105.8600
105.0000 103.1005 100.0486 95.1200 88.5041 86.6232 89.1533 96.2806 100.4895 103.4145 105.5884 107.3446 108.8011 110.0592 111.2065 112.3325 113.0756 113.9066 114.5649 117.4653 109.2461 118.2043 103.3526 98.7516 104.6878 113.2819 110.4865 101.0712 111.0402 108.1753 100.5896 101.1745 104.7974 105.4701 107.4943 108.1533 111.4999 107.7870 112.6157 114.7507 108.1081 104.8812 104.9662 102.8449 107.1549 108.1200 109.6131 108.6533 118.0876 118.5139 118.9313 118.8326 119.9432 109.3126 121.8372 116.5692 109.4102 114.7326 115.9087 123.7354 123.9932 126.6074 107.1103 105.8600
105.1200 103.8275 101.4219 97.7887 93.8753 91.8970 94.3631 98.6763 101.6991 104.1013 106.0445 107.6596 109.0325 110.2172 111.4454 110.7554 113.1969 113.8370 114.7193 116.0926 117.4099 97.6506 101.2494 103.7068 106.5377 106.5709 111.3778 110.5400 117.8479 113.0036 105.1052 106.4849 107.4216 108.7670 108.9708 112.3718 100.8667 105.8564 104.9844 106.2955 108.8404 115.9909 119.9388 113.1481 108.8994 114.1118 115.7840 116.7849 116.4126 116.6718 117.7123 121.3992 120.0538 120.5022 116.9785 119.6020 121.2932 107.1201 101.8165 123.5125 124.3449 123.3195 109.7717 105.8600
106.8900 104.9058 103.0285 101.0334 99.1378 98.2911 99.3733 101.2101 103.2867 105.1337 106.7464 108.1724 109.4300 110.5791 111.6188 111.4057 113.3345 113.9612 113.8850 116.1733 117.7769 104.8278 94.9987 99.8135 98.1118 102.0366 102.0288 103.6527 103.6801 110.5460 106.6311 113.7706 114.7327 115.1119 115.8322 115.9080 108.6206 101.4281 99.8778 108.8686 105.0212 115.2912 106.9528 102.3284 102.1490 107.0066 117.3239 118.7086 119.9939 120.7308 123.5746 124.3179 124.0463 118.0232 119.0633 114.5985 120.0555 113.2541 115.5015 123.2646 123.5771 123.8250 122.8811 117.8300
107.2300 106.1185 104.7393 103.3852 102.2944 101.9249 102.4660 103.5306 104.9033 106.2821 107.6146 108.8174 109.9221 110.7038 111.4636 112.7919 113.5936 114.2060 113.0257 111.7510 107.1450 113.6515 108.0725 101.9573 105.6438 108.9821 111.1106 109.3970 102.7934 102.0017 108.2041 110.6478 110.6279 110.8229 111.9845 107.8268 113.0673 104.1632 103.3564 114.4664 116.8322 114.8740 112.8428 110.8948 115.9033 113.2669 117.5766 120.6064 123.1434 123.3222 122.8036 123.2154 124.0790 126.1250 123.4397 122.7453 124.2716 126.3398 126.9763 126.7843 126.2932 119.9779 110.5596 105.8600
108.5300 107.3478 106.3253 105.3815 104.7197 104.4866 104.5968 105.8361 106.1817 107.4706 108.5256 109.5743 110.1822 112.0281 113.5540 113.1541 113.7553 114.3529 114.6011 113.5818 109.9867 118.5628 114.2493 120.0206 97.9650 103.9817 106.4228 112.6419 101.7297 100.0317 102.4378 103.7767 105.1042 107.2950 108.8643 116.6792 102.7610 100.4782 104.8483 115.4631 113.1566 110.8679 103.9638 104.5080 106.3605 105.4119 109.9168 113.1805 123.4404 124.2761 123.7042 124.0558 126.6208 105.6513 126.6635 125.4290 126.7759 127.5867 127.9728 129.2800 128.8530 115.3608 105.5015 115.1100
108.7300 108.5213 107.7257 107.0701 106.6108 106.5099 107.1727 104.7786 109.3348 108.8821 109.4601 110.3164 111.4021 107.6480 101.3135 113.6051 114.0087 114.6845 115.7204 122.2360 106.1226 104.1155 97.9818 106.3484 106.3488 101.5586 100.8269 105.2677 105.8672 106.5571 107.6940 107.5273 107.3539 102.7617 115.8808 99.6230 106.9325 99.7195 105.6874 112.4757 111.7881 111.7572 109.0723 105.3144 106.0281 101.3281 102.0507 119.2774 120.1175 120.7139 121.1964 121.4045 124.1314 122.9810 126.6384 127.0768 125.5951 127.6887 129.3853 112.5436 130.4888 130.1445 104.7753 105.8700
108.9000 109.6002 109.0006 108.5030 108.1801 108.1217 108.6970 95.3294 104.0942 110.1347 110.2857 111.0864 111.7571 112.3738 112.7961 113.8809 114.6665 115.6436 109.7706 95.5462 95.4986 99.4500 102.6819 105.1611 107.1417 102.0352 107.2968 107.0480 108.5152 107.4030 111.9773 112.4591 113.4676 112.4924 112.5659 112.9358 98.7590 110.2285 114.2749 100.8842 105.4931 107.7689 108.5666 102.9947 115.1338 115.6173 118.3053 119.3448 119.4755 120.4383 121.0807 121.5141 122.2191 122.9069 123.0846 123.5875 108.4397 124.0488 114.9440 124.5058 108.8084 130.5854 104.0402 105.8700
111.0800 110.6126 110.1342 109.7595 109.5072 109.4819 109.3873 110.8605 94.1892 113.2281 110.8664 111.8238 112.4636 112.7768 113.5878 114.0734 113.7713 119.7068 116.1349 110.3314 98.2900 100.4756 100.3131 106.3294 105.7404 107.5929 109.3216 110.3397 108.6223 107.7211 107.1068 107.1510 108.9752 119.6355 100.1473 114.4370 101.8340 101.4182 101.2079 112.3911 105.8672 106.0498 101.6576 104.9631 107.1389 114.5264 116.3500 117.1580 117.7730 118.0950 118.7970 120.1734 122.2516 122.6827 123.2108 123.6636 125.0100 125.2914 125.7712 125.6829 125.4356 127.8054 108.0495 112.0700
112.0400 111.5433 111.1626 110.8576 110.6752 110.6445 110.6371 113.3795 105.9690 113.1848 112.1112 112.5723 113.0853 113.6009 114.6020 109.4933 112.9497 113.4403 102.2423 99.9389 99.7899 100.8232 110.3929 103.0918 101.7397 105.0648 108.1729 112.7568 110.8023 110.3569 109.6235 108.3484 116.6001 112.4660 118.6014 109.7000 111.1527 103.1511 106.6629 104.4486 106.0598 108.0569 109.7489 109.6712 109.8843 108.8613 111.6874 116.6949 117.0832 119.2560 119.3068 119.7364 120.4573 120.6186 121.4454 121.7607 122.1270 124.2301 124.6381 125.2703 125.7962 126.6078 109.5150 114.6300
112.9000 112.4013 112.0841 111.8423 111.6919 111.7008 111.5729 111.8364 94.5131 99.0439 112.9243 113.2540 113.6776 114.1701 114.5288 115.9651 111.8916 95.4013 90.4722 99.2584 102.4011 105.5656 120.2337 114.5737 106.5291 103.2746 105.3488 115.2092 110.1542 107.2195 120.0086 108.9493 111.1922 109.2475 119.8768 105.6805 99.8491 100.2194 104.0653 113.7160 106.3206 106.1510 105.4661 109.2055 110.1479 112.4036 112.7821 110.1086 110.5662 118.2557 117.1774 118.2931 119.0981 122.4433 122.0784 122.3821 123.2174 123.2235 123.6480 124.8963 120.3800 121.3098 105.4633 106.0100
113.6700 113.1963 112.9261 112.7314 112.5980 112.6969 113.5519 118.1750 105.8176 112.6198 113.5558 114.2880 114.3110 114.7246 115.0590 115.9189 118.7380 100.0652 94.2066 114.5134 102.8501 109.5665 95.0989 102.3161 102.3418 102.0833 109.1036 107.0062 110.7571 108.6127 111.1646 109.8609 110.7242 111.5796 117.7747 95.2158 104.5134 101.0110 102.8888 104.1893 101.5886 105.1865 102.6420 106.3951 108.1194 117.8049 122.2453 111.9720 114.8021 114.3554 112.5755 113.1447 113.5736 119.7825 120.0462 120.5173 121.2139 123.5557 123.9033 121.4853 111.6204 108.1214 107.1743 106.0100
113.6700 113.8100 113.2800 113.3600 113.4100 112.6800 113.4100 113.3700 113.8300 113.8300 114.1500 114.6300 114.5600 114.9500 115.3600 115.7100 116.0800 116.7700 95.1000 117.4100 112.7300 106.0300 102.8800 103.9600 103.0500 108.6000 108.4400 103.6800 118.4100 109.8600 108.4300 108.3100 109.0900 111.8300 112.4700 114.4000 114.8700 101.0700 102.6600 104.5600 109.0400 109.2800 109.2300 110.4100 103.1100 110.9500 123.2700 123.1700 120.9400 121.5100 113.3500 113.8800 114.8700 115.4000 115.8100 116.7300 117.3100 125.6000 123.8400 111.4600 114.3000 105.7000 115.5700 106.0200
