118.5800 112.1700 120.5600 117.6400 111.1400 111.5900 109.9900 107.8700 113.8800 118.4800 113.6000 103.8500 113.4400 113.4000 122.3300 119.9900 112.2300 111.6100 111.1500 110.4600 110.6800 117.7100 110.1700 111.8100 111.2000 109.5300 111.0700 107.7000 107.1100 106.4700 108.0400 105.6200 104.0800 104.3500 112.9400 119.9900 119.7400 111.6400 97.8700 100.5000 121.5700 115.8300 117.4500 117.1500 116.5300 116.5300 115.7000 115.4500 114.9700 114.6400 114.6400 114.2600 113.8100 113.2800 113.3500 113.4000 112.6800 113.3900 113.3900 113.2500 106.4100 113.6900 114.2100 114.1300
118.5800 112.3650 123.0620 112.6756 110.7453 109.2317 111.4749 109.4547 111.9550 110.2027 108.2266 107.7827 117.9160 114.2205 115.8260 115.4970 112.6375 111.8085 110.5723 109.9541 111.0766 115.6994 110.4780 110.9490 110.0171 109.6845 108.9487 104.6600 106.9162 106.5653 108.3681 109.6183 104.9113 105.1745 106.1912 115.8259 120.6758 113.8733 105.0839 103.4268 122.2311 116.8024 117.5783 116.7472 115.1951 96.2058 113.4231 113.1390 114.8257 114.3152 113.9211 113.5458 113.2180 112.9394 112.7281 112.5919 112.5224 112.5544 112.6874 112.9204 111.8061 113.3913 113.6754 114.0500
115.7500 110.8696 117.9129 110.2601 109.1932 109.2433 109.9104 107.2004 111.3798 105.6467 103.2834 106.3408 118.9476 119.7477 114.3454 112.7406 113.2966 111.9091 110.8940 109.8337 106.0291 105.5383 109.0550 110.0027 110.1970 111.0445 108.2348 104.6694 106.2157 106.9472 104.4783 110.0456 105.6595 100.7119 98.0536 111.9838 107.2968 119.4474 114.1091 115.1623 122.4698 112.9581 117.0461 116.5146 116.9530 107.3872 112.4639 114.5872 114.1340 113.7144 113.2579 112.8270 112.4391 112.1043 111.8429 111.6730 111.6090 111.6349 111.7767 111.9437 112.4244 112.5109 113.1617 113.2000
108.5900 112.2454 113.5802 110.6399 110.7190 111.8192 107.7287 109.2126 107.1153 107.1166 109.4498 104.2666 113.6166 125.6223 107.0866 115.1841 115.1009 115.4891 105.5697 107.6513 106.3831 101.9261 101.8528 104.0032 103.0944 102.6022 101.6823 105.9418 102.9185 100.8706 102.2957 102.2644 102.8273 98.0252 121.7874 122.0366 107.3207 117.8587 118.6603 112.8552 117.6176 114.5759 117.2271 116.2484 114.4185 116.7597 115.1175 114.1891 113.6209 113.0963 112.5596 112.0555 111.5961 111.1856 110.8662 110.6521 110.5580 110.6680 110.5508 111.6850 111.7216 112.0226 101.8364 91.9000
117.7700 112.7974 113.2441 106.3660 114.1296 111.2237 108.2582 109.5726 107.4938 105.8352 106.3144 105.7846 106.9973 111.3610 106.4316 109.4843 110.8987 107.2141 101.9451 101.9170 105.4397 101.7962 102.0343 99.5010 105.9716 106.6154 108.2686 100.4835 102.7864 100.1419 114.7359 111.6795 107.0218 99.0402 110.7900 116.0850 119.0495 119.4507 117.8351 115.8510 117.1561 117.1865 116.4979 115.8065 116.1070 107.5868 106.8444 114.2268 112.9993 112.4508 111.8440 111.2446 110.6783 110.1801 109.7707 109.4953 109.4972 109.1879 109.9683 109.8616 97.2386 112.3249 86.4359 103.5100
121.3000 121.9449 106.3859 106.0249 106.4535 115.8699 103.5224 114.6876 104.4178 106.9132 106.5917 105.4186 106.2102 104.9596 107.8736 107.8261 108.2648 107.4645 106.4739 102.2817 124.5310 106.3416 101.4689 99.6313 117.1643 113.8087 109.2733 107.7533 107.5886 103.1495 120.7831 101.7617 105.7178 114.7869 115.1132 115.6769 119.5232 109.5514 119.3747 118.7942 117.4040 116.1650 116.2660 116.6786 115.8235 112.4917 112.3000 113.3154 112.5311 111.8026 111.0966 110.3840 109.6950 109.0672 108.5312 108.1809 107.9171 108.9832 106.7884 108.6619 98.0976 107.0406 91.9043 111.3500
121.6000 122.4864 111.2185 123.3935 109.3976 108.5101 120.8715 121.6059 104.3449 116.4547 114.7353 103.1333 102.4421 119.3753 111.8561 111.4036 108.8446 106.5313 107.0018 105.8653 102.9013 105.4168 103.7150 100.7976 101.3248 107.2305 109.1522 113.4905 114.8413 103.8156 103.8216 101.2896 100.3824 104.1592 120.2560 104.1333 117.9786 100.7628 105.4235 103.6218 116.1023 117.7859 102.4656 94.2268 101.2335 115.4390 114.5743 112.5472 111.9415 111.1765 110.3464 109.4892 108.6369 107.8269 107.1235 106.6156 106.3364 105.7648 114.3091 109.6634 103.2428 102.4809 110.1615 110.4100
121.4200 121.5515 120.1303 121.6200 120.4604 121.5956 121.5748 110.2759 109.4800 104.1657 103.9343 103.5762 103.5998 103.7965 101.8443 116.2993 113.7001 110.9055 110.6751 110.6607 103.4113 109.6061 104.1209 101.9853 100.8152 99.3907 109.5697 113.9667 117.4508 116.0192 115.0685 114.5527 103.7944 102.3823 110.7726 114.6076 112.5970 104.9680 105.6149 100.4729 101.4588 95.3600 97.8311 93.1027 92.0851 92.3941 106.8814 110.5460 111.3620 110.5877 109.5945 108.5773 107.5150 106.4481 105.4723 104.7394 104.3692 104.5580 104.6046 105.9714 107.4796 108.1266 108.8639 88.1500
119.5900 121.0213 122.5486 122.3675 120.7006 120.5668 119.9845 119.9933 123.0073 119.5998 119.3971 103.4842 103.5544 103.2909 103.8940 120.6900 114.9809 113.5818 111.1357 108.9896 108.6844 115.8878 112.0055 108.6854 108.1720 103.0393 100.7583 104.8662 119.7598 117.0864 111.4541 105.4343 113.1685 104.5456 114.0218 107.1898 107.3885 104.9364 105.1662 105.4888 114.2269 94.6192 94.3454 93.7053 93.4938 117.4374 117.9942 112.3150 110.9558 109.9948 108.8898 107.6712 106.3493 104.9463 103.5550 102.3631 101.7861 102.1595 103.2303 104.4964 105.7852 105.2454 89.4903 89.8100
118.1300 118.5207 119.4968 120.7719 119.4129 118.8445 118.0615 117.3099 120.6325 115.3043 111.7907 106.5554 104.0412 107.5923 121.1679 114.3229 108.2181 109.9218 110.0475 110.4771 107.8011 105.7546 105.1640 104.6123 110.4722 122.8930 102.2599 104.0126 103.0738 121.3687 121.5498 116.6437 120.0313 119.9029 120.0356 119.4352 108.1471 108.4118 106.0389 104.5581 107.5657 103.1230 106.4669 97.9334 99.4279 106.8307 112.1799 110.5973 110.6473 109.5079 108.2593 106.8461 105.2221 103.3763 101.2784 99.2796 98.1047 98.8172 100.6087 102.7622 104.3974 106.3397 104.8123 88.1400
115.4100 115.4495 114.8989 115.9730 117.1493 116.5058 115.6033 115.0338 115.0401 113.7529 114.1544 106.1991 107.6377 109.4158 119.9066 112.5038 110.1427 110.4767 113.2162 115.7007 110.0940 109.6971 108.9390 107.7574 114.3550 120.1692 110.8187 124.6394 124.4974 121.8367 120.8231 120.3337 124.5573 120.0446 118.9736 118.6834 119.3033 116.9632 104.1454 119.2259 112.0381 94.4985 101.0729 99.3637 103.1256 109.7828 106.6581 108.5835 110.2957 109.1622 107.7687 106.1733 104.2473 101.8660 98.8529 94.6040 91.5974 93.1802 97.7304 100.9933 103.6124 104.5119 104.2028 108.7000
113.1100 116.3462 112.1644 116.0003 117.2769 117.2376 117.2358 114.1614 114.6017 116.7776 113.8125 113.4124 113.0923 106.0292 114.8882 104.2854 109.7976 112.2363 116.5212 115.9211 109.9027 110.9549 110.0693 108.6779 116.9029 121.8976 122.2803 121.7176 120.6671 120.7819 120.6489 119.8469 119.0910 119.0664 119.3175 118.9044 117.9498 116.9364 104.8428 117.4387 116.6909 104.0415 99.4276 96.5710 117.1293 113.0813 112.6734 111.7350 110.1188 108.9345 107.4734 105.7437 103.6010 100.7576 96.6865 89.2684 85.7659 87.6523 94.6860 99.6579 102.7908 105.3339 107.1285 107.5700
125.9200 120.8703 118.3213 119.3994 118.5402 118.1504 116.5475 114.4768 113.9961 115.4254 113.5532 112.8281 113.8909 105.1570 108.5559 105.9568 105.2730 110.3992 120.0851 114.9204 108.7184 108.4500 107.7725 108.8068 124.4435 118.1927 122.3848 121.7108 121.5974 121.2452 120.9964 122.1620 120.9076 120.4767 119.5724 118.8632 118.5345 118.5110 119.4442 116.8796 115.7311 116.6940 90.1408 93.4494 105.9577 113.9648 112.0845 111.0511 110.0897 108.8672 107.4018 105.6557 103.4606 100.5041 96.0442 88.3649 84.3842 86.1594 93.7291 99.3337 102.6191 104.9425 107.0656 108.1700
114.2900 114.4140 115.2251 114.9359 120.2310 117.7625 117.4648 116.8843 113.6791 114.5092 115.1779 113.5004 106.8500 104.8110 111.5141 105.8448 101.6479 109.2906 117.7231 113.8256 110.3411 108.9608 109.3427 107.3208 125.4308 117.2337 122.2977 121.7190 121.4408 120.5801 120.5877 103.6719 107.6216 120.2664 117.3218 118.7451 118.4521 117.7175 120.8264 117.1439 116.3907 114.8334 107.2879 107.2714 113.4478 113.1469 112.2955 111.3091 110.2150 108.9883 107.5800 105.9060 103.8420 101.2059 97.5169 91.7792 88.5027 89.8727 96.0280 100.1813 103.1568 105.4564 106.0580 113.0800
114.2900 113.8140 115.3639 111.7166 115.8269 113.7030 113.9146 113.1256 113.2527 113.0220 115.8610 113.9296 111.6449 113.2332 115.2793 114.1812 113.4773 114.3356 108.9175 108.9843 110.4100 108.2145 103.5215 119.4077 121.9592 119.1441 121.8844 121.7261 121.3956 122.2752 121.6379 111.9480 113.2620 116.2502 119.3986 118.8799 118.4247 118.5543 124.6145 116.5442 116.3568 117.9830 117.8180 115.8721 114.0679 113.2382 112.3708 111.4560 110.4365 109.2825 107.9691 106.4506 104.6649 102.5159 100.0861 97.0443 94.8176 96.0231 99.1932 101.7696 104.0207 104.7201 111.2126 111.5700
119.0100 117.9727 117.7011 116.3542 119.0592 119.0608 121.0276 120.2413 114.6278 114.7337 114.6162 116.8116 116.1009 115.3145 118.7628 116.3187 110.2446 102.3640 100.5059 110.9334 111.3026 109.5971 100.6125 120.0308 122.0401 123.0148 123.1671 121.8876 121.9076 101.4670 103.9119 104.5867 119.5171 120.1274 119.2775 118.9994 119.8035 108.7433 106.9402 118.0894 116.7863 103.2071 116.3528 114.1069 114.1175 113.4201 112.6108 111.7338 110.7741 109.7139 108.5275 107.2061 105.7295 104.0834 102.3777 100.7868 99.9877 100.4579 101.8271 103.5709 105.2998 108.8789 117.7840 118.7200
118.4700 117.9264 117.3628 117.6976 116.2392 104.4426 106.4714 112.5384 115.6867 116.1326 121.3052 114.7046 115.4295 114.6280 113.2268 117.6879 115.7198 114.5404 113.5932 118.6526 104.5018 105.6208 109.5359 125.2169 103.0825 123.8932 110.7823 122.6899 122.6492 96.4374 115.9748 116.5690 117.6821 119.7926 119.5874 118.7903 112.4559 112.3280 108.9029 110.5161 117.1532 110.2696 115.2355 114.7806 114.4014 113.6493 112.8946 112.0853 111.1947 110.2371 109.1998 108.0786 106.8760 105.6565 104.4680 103.5070 103.0530 103.3036 104.1156 105.3429 106.7790 100.7872 91.0945 102.5600
119.9900 119.4385 119.4931 123.0907 123.6215 116.5986 116.5098 114.1866 115.2095 115.9824 120.0010 115.4384 107.2032 108.8115 109.7930 109.4979 107.1513 101.8156 117.2411 109.2082 108.3914 109.5499 100.7637 102.0160 100.5735 115.5859 123.1423 121.9061 121.4362 118.4432 113.9110 120.4875 120.5027 119.8858 119.3830 120.0895 101.1988 100.9085 98.6162 101.4241 114.7172 116.1394 114.1342 115.1704 114.6805 113.9339 113.2412 112.4849 111.6861 110.8355 109.9267 108.9907 108.0305 107.0852 106.2547 105.6205 105.3471 105.5035 106.0632 106.7223 107.8145 108.9382 100.8951 103.1500
119.3700 119.0246 120.8382 121.8154 120.8570 114.0456 121.4335 118.1674 119.4775 119.5542 117.2125 106.8515 116.8537 114.5754 112.2211 113.7515 110.4068 101.5874 108.1097 114.0903 107.3282 118.8497 103.0586 101.1294 122.2765 107.5284 118.0566 121.8301 121.5365 121.5610 121.6140 120.6503 120.2974 119.9966 119.7284 120.5755 110.8813 105.2292 102.7647 100.8133 95.2557 137.8393 114.0866 117.5310 115.0774 114.3440 113.6061 112.9304 112.2128 111.4592 110.6815 109.8956 109.1319 108.4029 107.7851 107.3453 107.1575 107.2595 107.6205 108.1817 109.0759 111.8154 99.1895 111.1300
118.7300 118.4035 117.9808 119.0847 120.0858 120.9702 119.6486 114.0451 116.3765 119.7780 112.3820 107.0260 105.1613 105.3527 105.0853 104.8246 103.4617 111.7199 105.6095 113.9415 125.8298 124.6420 125.0034 123.6412 109.0028 122.9662 98.0984 120.7852 117.7914 121.6376 120.9425 120.7875 120.4717 120.0749 118.8147 112.5776 103.9494 106.0876 105.0884 100.9199 97.6154 108.6555 117.9294 114.9313 114.9852 114.0239 113.9339 113.4563 112.7861 112.0915 111.4361 110.7831 110.1529 109.5825 109.1098 108.7886 108.6525 108.7257 109.0036 109.4236 105.4255 107.3133 103.7504 111.3700
119.0500 120.0289 119.8515 120.1213 123.9668 125.2169 126.2939 112.6840 118.8850 118.7117 113.1628 110.5307 106.5261 106.2684 104.3577 108.3554 110.9925 122.6684 131.6135 116.2564 124.0517 122.5577 122.9250 122.9627 123.0097 123.6663 101.9365 124.5659 109.4774 122.3036 121.2565 120.8543 120.5815 121.0561 112.1428 105.2740 107.9431 109.5573 102.6311 99.5837 104.0473 120.6535 117.7477 116.0719 116.6980 112.9843 114.5381 113.7071 113.3590 112.7313 112.1393 111.6206 111.0989 110.6453 110.2797 110.0330 109.9309 109.9861 110.1972 110.5196 110.9577 112.0613 112.4616 93.8300
121.4700 121.9919 121.9067 122.1808 122.7950 122.2094 125.6051 123.9713 123.6721 112.3098 113.4226 112.1690 111.0601 115.0175 127.3588 106.5892 100.9347 108.7268 125.5535 120.4397 124.4799 123.8842 123.5558 123.0970 122.4441 124.7751 105.9500 118.7824 123.8053 121.4967 121.2770 120.9500 120.6251 117.9713 113.6148 106.9291 107.5148 109.3999 104.0388 108.0276 113.2576 114.7181 107.5000 100.7222 123.1434 115.5916 114.8840 118.6871 113.5185 113.5381 112.8466 112.4083 111.9820 111.6035 111.3216 111.1235 111.0467 111.0883 111.2447 111.5132 111.9375 112.1891 109.8530 113.1400
121.4800 125.2257 124.1807 120.8410 125.5117 119.4041 128.9479 110.0746 110.3716 120.3180 108.2046 107.5745 101.5947 119.1484 122.8475 106.7449 104.5507 115.7309 117.2781 116.9981 124.5139 123.7207 123.5183 123.2909 123.1873 123.3593 112.3278 114.2214 121.8136 121.7637 121.4089 121.2646 122.2181 110.1230 107.4196 106.7487 110.5954 105.4183 104.4277 114.2306 119.1985 112.9536 107.7002 102.4263 117.2116 115.1415 114.8848 117.2729 114.2522 113.8549 113.6234 113.1586 112.7949 112.4896 112.2501 112.0952 112.0300 112.0660 112.1963 112.4169 112.6938 113.3223 102.8875 100.1900
127.7100 127.7579 129.0505 123.3543 128.1599 117.2258 119.7301 111.3315 104.2701 110.8304 117.6358 119.6746 115.5463 106.8988 110.0004 102.6274 103.9075 119.9564 117.7255 129.2627 123.8509 123.7971 123.6207 123.3285 123.1999 122.2239 125.8585 124.7393 121.9048 121.8399 121.3612 121.1800 115.6189 113.8166 116.0631 116.1562 118.2609 115.4760 124.7345 106.2683 118.6793 117.5225 119.6129 117.9711 116.9432 116.1953 115.8212 115.2380 114.4816 113.9810 114.2274 113.8652 113.5576 113.2986 113.0967 112.9686 112.9191 112.9445 113.0525 113.2319 113.8059 112.5291 111.9134 114.6000
129.9000 128.1218 109.6287 129.9658 122.3705 121.2661 115.4913 117.9191 113.2451 111.8677 114.4999 117.7184 117.5006 102.9181 110.4128 117.4401 109.9764 113.4349 108.9828 126.7687 123.9707 123.8941 123.6936 123.4519 123.2640 123.8177 108.6137 114.7748 122.5074 121.9640 122.3147 113.4933 118.7978 119.3987 121.3896 120.5298 120.1439 119.9265 108.8706 113.3630 118.6066 117.9003 117.2615 117.3703 116.6666 116.6387 116.2297 115.8466 115.4608 115.1277 114.8181 114.5244 114.2609 114.0384 113.8715 113.7683 113.7261 113.7469 113.8314 113.9799 114.2704 110.4468 114.7445 115.2100
122.5000 124.4914 104.5554 118.5322 118.4449 117.4959 116.8033 115.3128 117.6606 116.0517 117.1817 115.5089 112.5427 117.1467 103.9290 105.9580 124.9399 119.9379 111.2183 124.6412 124.1157 124.0072 123.7776 123.5449 123.2592 123.1262 118.6188 116.0194 122.8751 122.0342 121.9423 119.6026 122.4431 121.0101 120.4083 121.5412 119.8301 119.7324 120.2367 120.6610 118.7881 118.4139 118.0908 117.7686 117.3534 117.0049 116.6606 116.3301 116.0210 115.6850 115.4070 115.1481 114.9177 114.7323 114.5846 114.5003 114.4585 114.4756 114.5497 114.6867 114.8572 115.3731 115.4672 115.3200
121.6300 119.2103 116.4633 117.0321 117.5840 119.6974 115.5050 116.5461 116.9725 117.3820 118.9445 116.5581 115.2558 103.6295 115.0224 100.9309 106.4959 114.9989 124.9648 124.3848 124.2957 124.0833 123.8613 123.6388 123.4088 123.3008 124.9262 122.7854 122.5023 122.1871 121.9238 121.6562 121.2905 121.0914 120.6513 119.9744 120.3104 119.9037 119.6582 119.0337 118.9941 118.6758 118.3582 118.0322 117.7129 117.4028 117.0926 116.7812 116.4904 116.2194 115.9599 115.7334 115.5359 115.3645 115.2532 115.1676 115.1371 115.1561 115.2198 115.3259 115.4887 115.6255 115.8553 115.9200
117.5800 117.4039 116.8049 118.0280 118.6689 120.8832 116.0649 118.2694 120.3108 113.4943 113.7095 113.9251 117.7557 103.9476 106.4371 107.5659 113.2739 122.8506 125.1001 124.7231 124.3660 124.1695 123.9625 123.7427 123.5267 123.2007 124.2642 122.6692 122.5866 122.3205 122.0637 121.8032 121.5523 121.0964 123.3784 120.8386 120.4988 120.1316 119.9280 119.5734 119.2728 118.9753 118.6776 118.3811 118.0841 117.7874 117.5034 117.2299 116.9658 116.7207 116.4874 116.2840 116.1102 115.9686 115.8611 115.8002 115.7803 115.7839 115.8284 115.9386 116.0653 116.2380 116.4276 116.4800
127.8800 118.2466 121.1816 120.9207 122.5331 118.1122 116.4614 114.0665 115.9583 115.8125 114.3818 112.8443 109.0540 116.4863 116.0911 106.2710 109.1577 127.6535 119.2048 125.1429 124.3647 124.2722 124.0664 123.8410 123.6256 123.3929 123.2090 122.9658 122.6977 122.4647 122.2210 121.9709 121.7013 121.4810 121.0737 120.8616 120.6093 120.6016 120.0958 119.8052 119.5645 119.2652 118.9877 118.7151 118.4422 118.1655 117.9097 117.6620 117.4185 117.2006 116.9919 116.8143 116.6574 116.5279 116.4378 116.3464 116.3192 116.3735 116.4147 116.5001 116.6206 116.7590 116.9309 117.0000
127.9000 119.9441 128.1395 118.7551 123.3737 128.0369 118.8800 115.3710 120.1613 119.1906 113.6024 112.5395 114.8626 110.8205 105.6151 105.4844 106.0156 120.7855 125.1799 124.8702 124.6246 124.0405 123.9448 123.9380 123.5633 123.3893 123.2058 123.0720 122.8482 122.6053 122.3731 122.1311 121.9097 121.6613 121.3896 121.6304 121.5724 128.6328 119.1199 120.4496 119.9684 119.5536 119.3056 119.0553 118.7817 118.5479 118.3056 118.0702 117.8575 117.6528 117.4701 117.3075 117.1671 117.0612 116.9741 116.9380 117.0200 116.9135 116.9577 117.0273 117.1322 117.2744 117.4572 117.4800
127.9100 127.8184 128.1665 127.7633 120.0451 118.9396 115.8548 109.9617 115.3005 110.8599 119.7176 115.6353 115.3015 117.4825 105.5620 106.1892 105.9664 122.2665 124.7424 124.8570 124.5888 128.0184 124.1782 124.1056 125.4489 124.9857 123.8829 123.2274 122.9259 122.7779 122.5270 122.3015 121.9863 121.7169 121.4431 114.4183 120.4159 119.7412 120.5301 120.2694 119.6754 119.8350 119.6187 119.3125 119.1598 118.9275 118.6896 118.4756 118.2782 118.0946 117.9299 117.7821 117.6615 117.5113 117.7478 114.5684 117.6559 117.4340 117.4671 117.5343 117.6574 117.6499 117.6878 117.9400
128.0300 128.3347 126.3655 123.7375 118.3308 114.6632 114.3943 117.5073 117.6002 117.2759 109.8950 118.0033 107.7713 104.0510 117.2554 120.8858 128.6857 126.2943 125.1835 124.9961 124.2622 134.2579 123.6352 124.1532 120.0537 121.9660 117.3551 120.7011 123.3887 122.9305 122.6805 122.4434 122.8677 120.1516 123.8293 122.5599 121.5834 121.3029 121.4330 118.6813 120.9616 120.3528 119.8981 119.7049 119.4981 119.2647 119.0541 118.8646 118.6815 118.5187 118.3636 118.2370 118.1220 118.0434 118.0506 120.3076 117.7079 117.9220 117.9557 118.0129 118.1236 118.3114 120.1626 118.3300
128.0500 125.0278 121.8794 115.6217 120.2083 115.0044 116.2537 114.7408 117.0635 113.0365 106.7332 113.9828 105.8297 115.4731 127.2419 128.5884 126.2242 125.0482 125.2524 124.9968 124.8481 124.2497 124.4488 124.4679 122.0241 125.6388 113.7219 116.4909 123.9116 123.0512 122.8443 122.5591 123.3521 108.9515 121.3135 121.7530 115.5905 120.7140 121.2423 121.4650 120.4546 120.4091 120.2165 120.0028 119.8025 119.6033 119.4168 119.2426 119.0805 118.9264 118.7890 118.6697 118.5680 118.4582 118.2660 115.7387 118.5645 118.3744 118.4062 118.4638 118.6016 118.3674 119.7313 118.8000
128.0700 113.5570 114.5469 116.5177 121.2907 116.4884 118.3285 118.4046 112.7978 112.5801 116.4264 110.2924 110.4320 111.7657 113.1931 112.9756 125.3532 125.7087 125.3746 125.1521 125.0877 124.7670 124.7076 124.3966 123.6602 121.8055 125.1113 124.0924 123.3447 123.2386 123.0011 122.8601 122.2075 122.0421 120.8200 123.8582 124.2612 118.0076 119.2808 122.1855 120.8424 120.7108 120.5154 120.3122 120.1254 119.9426 119.7730 119.6064 119.4520 119.3144 119.1895 119.0771 118.9814 118.9093 119.1376 119.1017 118.8050 118.8299 118.8487 118.8937 118.9566 119.0924 119.0328 119.1900
128.2100 125.1656 115.6506 117.0741 118.2218 116.7846 117.6921 115.0847 120.6091 112.9184 113.7249 117.8529 103.5279 104.1830 118.6363 115.2726 125.3291 124.9801 125.3243 125.2839 125.0707 124.8926 124.7017 124.3882 124.4054 124.0614 123.4244 123.5009 123.6235 123.3729 123.1850 123.0045 122.5636 123.9988 114.8867 112.9627 132.6343 101.7961 114.1290 121.6412 121.2029 121.0058 120.7998 120.6190 120.4368 120.2668 120.1058 119.9581 119.8134 119.6895 119.5688 119.4737 119.3850 119.3096 119.2085 119.1955 119.2277 119.2361 119.2612 119.3063 119.3699 119.4424 119.5597 119.5700
116.6600 121.7508 120.3346 121.3554 118.2199 111.8815 115.8356 113.5558 123.5592 117.6984 112.1143 116.5300 115.9642 106.3621 126.0870 126.3771 124.9389 126.1309 125.5632 125.3716 125.1853 125.0025 124.8315 124.8458 123.8275 127.2507 125.2186 124.1431 123.6940 123.5462 123.3488 123.1507 123.4285 114.7921 106.2202 115.3882 102.6072 119.2614 122.3642 122.0190 121.4573 121.2792 121.0860 120.9049 120.7564 120.5783 120.4421 120.2942 120.1665 120.0529 119.9397 119.8511 119.7765 119.7157 119.6775 119.6459 119.6284 119.6326 119.6586 119.7010 119.7560 119.8300 119.9158 119.9300
118.3500 117.9492 123.4042 113.0298 118.2872 115.3782 115.8295 118.7935 118.0894 117.4916 113.7627 106.6241 120.5997 121.7860 127.3855 128.4424 122.9881 117.4234 126.5877 125.3476 125.3036 125.1558 124.8188 125.3600 112.7468 108.6597 116.0129 123.5005 123.8925 123.7121 123.5064 123.3788 122.9604 122.6234 120.9451 119.0926 117.5462 122.6807 121.9886 121.7887 121.6485 121.4112 121.3047 121.2241 121.0210 120.9395 120.7581 120.6251 120.5029 120.3985 120.3026 120.2135 120.1475 120.0908 120.0442 120.0205 120.0126 120.0166 120.0346 120.0714 120.1328 120.2027 120.2779 120.2700
118.9900 112.4490 117.2018 122.8073 117.8129 116.5405 113.7350 119.0043 118.1530 113.8494 106.6773 110.1491 105.8037 106.6506 123.1245 103.9861 128.2354 124.3857 125.8152 125.5776 125.4084 125.2810 125.0353 124.8526 125.0422 120.0109 123.7954 124.2469 124.0125 123.8705 123.6876 123.5141 123.2824 123.5131 122.7917 123.5575 123.6816 122.1960 122.5089 121.7652 123.3354 121.9244 121.7272 124.6754 121.0201 121.2239 121.0644 120.9422 120.8321 120.7302 120.6457 120.5646 120.4954 120.4501 120.4088 120.3848 120.3788 120.3798 120.4017 120.4303 120.4642 120.5048 120.6108 120.6000
128.4000 123.9932 118.9676 120.3624 117.1371 116.2334 114.3591 116.9591 106.4235 112.8526 108.1668 126.9166 112.8695 126.4739 127.1508 125.4631 126.3116 126.9771 125.6377 125.7300 125.5314 125.1977 126.7946 106.1993 124.9910 124.4915 124.4732 124.3754 124.2004 124.0259 123.8629 123.6834 123.5449 123.2786 123.1411 123.1076 122.3607 122.4768 124.0492 116.4231 121.8278 122.0153 121.7157 123.9421 121.0540 121.4876 121.3719 121.2483 121.1634 121.0425 120.9728 120.9007 120.8379 120.7932 120.7603 120.7386 120.7225 120.7274 120.7473 120.7774 120.8896 121.0579 121.0011 120.9200
128.4200 123.0627 118.9571 125.2664 115.5803 117.9867 105.1524 113.7466 122.5084 116.4236 114.3334 125.3994 121.7999 127.5692 126.5523 126.8075 119.8463 120.5639 126.0649 125.8319 125.6073 125.8685 125.2256 125.2262 125.8436 124.7987 124.6803 124.5226 124.3985 124.1888 124.0269 123.8595 123.6976 123.5347 123.3703 123.2644 123.9911 122.4513 106.9232 116.1095 122.5589 122.2984 122.2097 121.7917 121.8864 121.8276 121.6549 121.5877 121.3841 121.4398 121.3085 121.2248 121.1652 121.1278 121.0906 121.0691 121.0647 121.0725 121.0869 121.1086 121.2247 120.5492 121.1839 121.2300
128.5400 127.3600 122.2501 124.6291 106.8099 119.3248 115.5894 103.6256 105.6572 111.0420 106.8968 123.4784 125.0169 125.8183 126.6093 126.2504 123.9565 126.2555 126.0101 125.8866 124.3543 125.2526 125.1632 125.1590 124.9450 125.1420 125.3832 124.9608 124.7241 124.3553 124.2001 124.0478 123.8789 123.7406 123.5402 123.6243 119.3868 104.1981 113.1035 126.1339 122.6202 122.5616 122.4070 122.3063 122.1583 122.0378 121.9760 121.6630 122.4338 121.3078 121.5888 121.5335 121.4826 121.4473 121.4145 121.3966 121.3888 121.3888 121.4139 121.4494 121.5827 121.5496 128.7095 121.5300
128.5600 122.1824 122.3520 117.8907 118.3366 113.5947 107.6149 114.9041 118.4186 105.8379 106.7498 110.6262 122.3931 122.5617 126.6742 125.1774 114.6361 127.0134 126.2285 126.4235 121.6317 122.4009 126.1108 125.4854 125.2331 125.9288 114.2567 114.9064 124.1615 124.3973 124.3769 124.2055 123.9632 123.9088 123.6755 123.4704 124.9743 124.5033 122.3304 123.7780 122.2112 122.7944 122.6858 122.5388 122.4310 122.3205 122.1278 123.1337 121.3656 124.2049 121.8567 121.8345 121.7943 121.7539 121.7211 121.7050 121.7011 121.6923 121.6280 121.6014 121.8014 121.7440 121.4998 121.8100
128.6800 128.0145 123.5733 116.5681 119.9767 110.9629 115.2356 109.2946 115.2035 115.2961 107.6227 116.5535 119.3781 129.2417 126.0680 129.3292 128.0893 126.4246 126.3761 125.7550 126.4770 111.7101 126.5378 125.4058 125.4335 124.8072 119.8855 111.5843 125.5968 124.7513 124.5707 124.4779 124.3558 124.4524 124.2944 124.0003 123.8358 123.6188 123.4805 124.7910 123.6488 123.0336 122.9163 122.7928 122.6859 122.5878 122.4484 122.2761 110.8015 123.4364 122.1650 122.1196 122.0956 122.0540 122.0253 122.0127 121.9998 122.0343 122.6067 123.2016 122.0308 122.1240 122.2261 122.0900
128.7100 128.2211 119.5580 111.5942 114.4107 115.9000 110.9343 108.4078 107.4374 118.2768 106.2516 105.5141 116.1631 117.3886 126.8212 124.7232 126.4275 126.4255 126.3893 126.2432 125.4048 125.3576 127.4797 125.6960 125.0654 127.5793 107.9583 122.9908 125.7811 124.6297 124.6861 124.1481 124.3884 119.8440 122.1322 120.9480 121.4202 125.6760 123.3096 120.7451 117.0904 123.5543 123.1384 123.0448 122.9386 122.8579 122.6731 123.2881 123.6551 122.4768 122.4917 122.4098 122.3773 122.3453 122.3155 122.3017 122.2744 121.9128 122.4563 113.3753 123.3399 122.3354 122.4340 122.3600
128.8500 118.1700 118.5239 115.2567 112.8633 112.8736 113.7187 112.9863 110.0942 104.4163 108.0480 104.2837 129.4438 120.6300 124.7739 124.4945 126.9034 126.7182 126.5148 126.3605 127.0391 122.9607 122.9883 118.3116 127.3374 114.6783 118.7038 124.9622 124.8073 125.9121 124.7951 125.8963 128.3313 116.8290 113.6166 110.1333 115.1577 123.9652 123.4276 123.4163 123.6287 123.2643 123.4292 123.2766 123.1802 123.0350 123.3275 122.7959 122.6882 122.8158 122.7370 122.6941 122.6590 122.6210 122.6007 122.5872 122.5276 123.1632 122.9724 116.4529 122.6880 122.6617 122.7161 122.8700
115.2100 115.5291 114.5007 113.6397 112.5379 112.5783 118.3156 113.5352 109.6373 105.5914 107.5697 116.0617 114.0946 128.3884 118.7720 128.9253 126.7733 126.8439 126.6446 126.5240 126.4293 123.3815 124.8208 123.1164 118.8677 107.4887 125.8834 128.0651 107.6290 128.4815 119.7831 123.0770 111.5416 105.4494 107.1603 105.8038 110.2759 124.4105 123.8024 123.9405 123.9601 123.7569 123.5916 123.5628 123.4532 123.7995 121.0462 123.4293 123.1589 123.0566 123.0064 122.9613 122.9205 122.8946 122.8704 122.8501 122.9566 122.6565 127.5462 114.1414 124.4379 122.8569 122.9708 123.1200
114.4600 114.1898 111.8087 112.9944 112.8859 113.5769 107.6271 109.5616 106.3658 105.6423 107.7426 110.4087 122.5199 127.2238 120.9106 127.1246 126.9828 126.7203 126.7077 126.6291 126.3703 127.3943 124.4219 124.0343 126.4468 119.2547 126.3137 125.9431 117.2513 118.1552 123.5239 127.3081 106.8479 113.2958 101.0292 105.1586 114.1307 125.3296 124.2198 124.1454 124.0327 123.8694 123.3953 123.8326 125.0268 123.4405 122.5587 123.6104 123.3553 123.3167 123.2600 123.2244 123.1904 123.1646 123.1564 123.1232 123.0887 123.1021 124.1368 106.6708 125.0062 123.0810 123.2309 123.3600
114.7400 113.8708 113.0179 113.0610 112.9273 112.8132 111.5078 107.6760 108.2897 108.5869 120.9457 119.1241 128.2150 127.8018 127.6714 127.0701 129.5965 127.7826 126.8274 126.7145 126.6328 126.4089 126.3720 125.9114 126.2487 126.1022 125.7158 125.6493 126.4974 128.0324 117.9470 109.7103 108.7238 110.1004 99.7395 113.7297 118.1589 125.6964 124.4139 124.3355 123.9821 125.4021 126.2863 125.7816 118.5418 112.8875 124.6535 123.3065 123.6385 123.5581 123.5095 123.4746 123.4383 123.4249 123.3982 123.3848 123.3673 123.3779 123.5045 121.8466 123.8605 123.4147 123.4851 123.5700
113.5200 115.6712 115.2573 113.1274 112.2443 112.2322 114.2329 110.3960 108.4147 108.4539 112.2566 113.4510 128.8310 127.4285 127.1542 127.2828 122.6066 111.3916 127.1976 126.8748 126.7545 126.5570 124.7197 126.6048 126.2837 126.1435 126.0107 125.8109 125.7060 127.1245 111.5650 108.8276 121.6582 121.5751 110.6630 120.5481 126.2968 124.9611 124.3565 124.5427 124.5736 122.1693 114.3352 108.9035 121.3535 123.4479 124.5419 123.7863 123.8461 123.7991 123.7561 123.7182 123.6871 123.6577 123.6414 123.6322 123.6296 123.6258 123.6503 123.7506 123.6146 123.7065 123.7357 123.8100
113.7000 114.7370 113.1666 112.5226 112.4343 112.7488 113.8293 111.6775 107.1864 106.8052 105.0445 115.5528 129.0765 127.7029 127.8772 125.4682 116.0644 124.0055 127.3677 127.1863 128.8200 127.8075 122.7830 124.6832 126.9651 122.7297 126.0626 126.2963 125.9311 126.0782 110.8001 115.3415 122.9490 125.5599 125.6166 125.3069 125.0411 124.9123 124.8487 124.7425 124.6893 127.3124 102.7466 111.6150 122.2673 116.8130 124.2161 124.1852 124.0859 124.0396 123.9937 123.9602 123.9255 123.9099 123.8841 123.8785 123.8617 123.8735 123.8812 123.9001 123.9470 123.9538 123.9744 124.0300
114.3600 113.5632 113.3765 113.7295 113.5220 113.5664 113.5467 111.2643 108.3894 112.2775 108.4275 106.6998 129.2535 127.4204 129.4631 128.2375 128.5411 122.2054 125.4409 127.3309 129.0552 123.0207 125.0969 126.9517 123.8381 126.3201 126.2281 123.9785 121.0067 124.3434 109.4698 116.6013 127.6358 125.6238 125.3731 125.1565 125.2206 125.1512 125.0213 124.9367 124.6836 124.1044 105.5109 106.1744 115.6196 125.0843 124.1300 124.4247 124.3119 124.2597 124.2204 124.1907 124.1618 124.1343 124.1273 124.1143 124.1002 124.1109 124.1199 124.1313 124.1495 124.1755 124.2155 124.2500
114.5900 114.1113 113.8759 113.4595 113.5009 112.9080 114.1969 113.9152 107.2073 113.7372 105.1513 114.1323 129.1070 127.7803 124.4511 105.7678 129.5018 120.4843 121.0132 122.8464 125.7339 119.2990 104.6250 130.9122 120.6649 112.9722 120.5842 128.8044 118.7658 121.6266 127.4185 125.6386 126.2428 125.7195 125.6662 125.6476 125.4406 125.2007 125.2462 125.1378 124.9641 126.1810 120.9790 114.2305 110.6089 125.7998 124.6484 124.5747 124.5356 124.4844 124.4453 124.4168 124.3855 124.3802 124.2680 124.1819 123.3866 124.3869 124.3281 124.3635 124.3872 124.4065 124.4444 124.4600
121.1600 117.1802 114.5199 113.4273 112.6108 114.4787 111.8191 108.3154 106.7437 106.5250 114.9405 130.0589 128.0295 128.6318 131.4268 118.4113 126.6035 129.7733 118.8840 105.6309 108.1423 116.3519 104.2531 115.5176 108.0080 129.8460 109.4896 125.6683 121.4950 125.6459 125.8727 126.0033 125.7810 125.9097 126.0115 125.0830 124.9896 125.7731 125.3935 125.2977 125.2920 124.8674 122.1250 125.0830 123.5035 124.6995 124.8821 124.7812 124.7489 124.7055 124.6707 124.6325 124.6491 124.5733 125.2050 125.1379 115.8234 124.9324 124.3399 124.5920 124.6105 124.6341 124.6588 124.6600
121.1600 114.3633 113.1734 113.3341 114.4963 114.8771 109.7328 107.5299 108.9363 111.3925 128.7902 128.7242 127.7142 127.1793 120.2540 129.8381 128.0481 127.9109 110.5046 116.8184 112.4585 106.1310 106.3888 105.7688 107.9794 124.8520 129.0047 129.4146 124.1012 127.3620 126.2334 123.2081 127.4480 125.5098 128.2544 118.8627 121.7882 126.3533 125.2791 125.5400 126.3964 121.4495 119.6248 125.0293 126.5322 125.0639 125.0367 125.0024 124.9607 124.9173 124.8859 124.9073 124.5179 124.3565 120.3694 122.9954 114.9723 125.3539 124.4982 124.8033 124.8291 124.8440 124.8754 124.8600
115.9100 113.8244 113.2771 114.0682 114.5314 113.2426 107.0245 106.9930 110.6218 109.9462 116.6518 129.0855 127.9110 127.6361 117.0373 128.0292 127.8134 129.8414 113.6169 124.0661 132.6724 111.1212 106.3267 108.4727 120.8475 115.2197 126.9477 125.5163 109.0020 127.0546 126.7009 114.3426 123.4002 128.6381 111.4827 113.7050 120.5960 124.6194 126.6588 125.7146 126.4414 115.0118 126.1576 114.0933 125.3310 125.2281 125.2477 125.2061 125.1647 125.1232 125.0910 125.0958 125.0669 118.7237 124.1971 125.0986 125.7138 125.2217 124.9244 125.0476 125.0359 125.0600 125.0817 125.0600
115.9100 115.6505 115.0061 113.3263 113.0288 114.8503 121.5438 121.8343 126.0052 118.7276 117.0041 130.2243 127.7664 128.5648 128.6138 128.4524 127.7430 122.4591 105.0398 110.0209 128.0459 113.1690 116.1354 118.9594 124.9593 124.3891 126.9202 118.4392 127.8106 128.7826 128.7854 126.2837 126.3292 128.4718 116.0752 126.0001 113.0002 107.8115 127.9533 125.8356 126.0186 121.7514 126.7254 126.0327 125.8595 125.3894 125.4500 125.4065 125.3670 125.3363 125.2948 125.2898 125.2201 125.9862 125.0741 125.0907 125.0296 125.1071 125.0105 125.0288 125.2554 125.2665 125.2855 125.2500
120.2100 114.6588 113.6590 110.0925 119.3378 118.8599 131.4311 117.1621 114.4075 131.9112 114.4358 123.3347 129.6207 130.4066 128.9119 127.8070 128.3426 126.3073 122.9563 117.3037 129.5489 106.9971 111.6576 130.2100 128.0006 127.3910 125.6007 103.0984 111.0919 129.4911 127.1183 126.7061 126.3880 121.1745 101.6472 110.9918 102.5485 108.4068 127.6382 126.0626 126.0223 126.1838 125.6232 125.6179 125.7866 125.7004 125.6411 125.5971 125.5580 125.5248 125.4952 125.4771 125.4144 125.2904 125.4584 125.4661 125.6767 125.3784 126.2188 126.5879 125.3598 125.4675 125.4888 125.4400
114.5100 116.6694 117.7815 104.2435 108.1155 117.4841 131.7663 127.2022 126.8169 117.6602 111.3857 109.9245 124.6231 108.6134 126.0634 128.6508 118.4853 131.4806 129.0420 117.3841 117.1003 120.1413 120.2038 121.8574 124.8430 126.8721 128.3836 128.3674 113.9815 126.5572 126.8959 126.8705 126.7036 116.5826 103.2292 134.5224 119.7925 127.3662 125.8471 126.2096 126.2120 126.7643 126.6913 126.7281 125.9377 125.8699 125.8302 125.7868 125.7504 125.7247 125.7044 125.6775 125.6521 125.6516 125.6474 125.6456 122.2150 126.0294 126.7153 114.7694 126.8579 125.5925 125.6705 125.6200
120.8600 120.2101 107.9012 130.8183 128.2292 128.6784 129.8078 118.7258 128.5709 117.0788 111.7594 107.6493 108.8545 128.1247 128.3619 128.6132 127.8504 116.3715 114.9979 117.6886 113.8500 105.0001 122.5815 106.2554 124.6919 127.3892 131.0031 108.3177 121.3421 128.5586 126.8338 127.0501 127.4077 126.5147 126.1863 126.5543 127.3871 126.4770 125.9338 126.3996 125.9475 126.1188 111.6948 126.4388 126.1935 126.0391 126.0202 125.9827 125.9482 125.9099 125.7893 125.7946 125.8424 125.8153 125.8286 126.1485 123.2205 125.5803 125.7725 124.2576 126.1097 125.8332 125.8630 125.9700
129.8800 131.4093 128.9719 130.0233 129.4600 129.4599 129.8793 123.5239 116.4147 117.3072 105.4412 110.3371 131.6877 127.9983 125.6308 128.6924 129.7573 109.6841 114.8107 117.5459 105.3626 105.4826 108.9132 128.5488 128.0556 127.6096 127.9521 103.7619 117.1085 126.9056 127.2474 127.1825 126.7991 126.9750 126.8496 126.6918 127.2041 123.7986 126.0514 126.7010 127.4826 125.2063 123.1496 127.3012 126.4395 126.2236 126.2001 126.1143 126.0544 126.0779 126.6961 126.4386 126.0123 126.0097 126.0070 126.1173 126.2749 126.1917 126.0081 126.1048 125.9822 126.0746 126.0787 126.1500
129.9900 129.6934 129.7262 129.8077 129.6767 129.6866 129.0653 130.1301 117.2339 117.7243 124.2693 111.8156 109.8911 112.9456 127.3294 127.5881 129.5380 128.0278 120.6945 129.3095 125.8426 105.6077 109.9862 130.2189 127.8511 127.3140 106.3549 117.2595 128.3351 127.2744 127.3890 127.2182 127.2427 127.1066 127.0621 126.9617 127.1019 113.5876 127.1117 126.3721 128.7984 107.6409 131.8404 127.6980 126.5937 126.4093 126.3598 126.7137 126.7581 126.9144 120.7610 126.3997 126.1748 126.2018 126.2007 126.1777 126.1506 126.1520 126.1443 126.2459 126.1621 126.0090 126.1275 126.3200
130.0100 129.9055 129.9276 129.8201 129.7374 129.6326 129.5448 129.7663 129.9176 128.8628 132.8012 120.3045 122.5200 108.1505 115.6177 119.8808 105.5877 111.8981 125.6308 121.7709 115.9133 130.8941 128.4798 128.2568 128.1664 124.7205 104.2878 124.8210 127.7506 128.6838 127.4833 127.3713 127.3293 127.2606 127.1976 127.0792 128.1472 126.2953 123.3779 127.0213 127.1773 110.7768 129.7032 126.7428 126.6938 126.6400 127.0847 121.1099 126.0776 126.3276 124.0568 126.6436 126.4133 126.3338 126.4949 126.3354 126.3681 126.3449 126.5251 125.6226 126.5242 127.5071 127.0038 126.4800
130.1200 130.6574 130.1484 129.9206 129.8300 129.7246 129.6950 129.5082 129.3044 128.3482 115.1218 112.2790 111.4302 117.3362 106.2208 115.9499 113.9434 125.1318 126.4731 132.2801 129.0704 127.6250 128.2113 126.4259 127.2962 129.6682 127.6477 123.0050 112.3939 131.1215 127.2387 127.5842 127.4739 127.4150 127.3435 127.3016 126.9740 125.1926 118.9258 127.3694 127.3239 128.5831 126.6697 126.8828 126.8084 126.7876 127.6494 111.1285 126.9444 126.0155 126.9964 126.5902 126.3902 126.3572 124.9995 126.5117 126.5490 126.4907 127.3468 116.6594 122.0091 122.1664 116.8069 126.6400
130.4200 126.1100 130.0800 130.0000 129.8500 129.7800 129.7000 129.6200 129.5600 129.4700 117.2200 129.2400 129.1500 107.0800 119.8400 119.3600 119.9200 120.8700 128.6700 128.6000 128.5000 128.4300 128.3400 128.2700 128.1700 128.1700 120.0600 125.7200 123.9700 124.0600 127.6500 127.6500 127.5600 127.4800 127.4800 127.4000 127.3100 127.2100 127.2100 127.1200 127.1500 127.0400 126.9300 126.9600 126.8400 126.8600 126.8800 104.7500 126.7700 126.7900 126.7900 126.6700 126.6700 126.6800 126.6900 126.6900 126.7000 126.6900 126.6900 106.0500 125.6000 117.2500 105.4500 126.6400
