122.83 122.03 114.83 121.17 120.56 120.25 119.63 119.32 119.01 118.35 103.75 103.48 116.98 116.14 112.52 106.23 114.22 114.0 101.98 101.82 101.48 101.3 111.59 110.34 100.38 108.69 107.55 105.72 106.05 102.99 102.55 101.69 100.77 100.63 112.44 99.04 96.21 118.2 95.23 94.87 117.77 115.9 93.29 92.85 91.9 115.77 120.05 114.95 112.64 99.36 120.07 120.38 106.81 106.98 105.74 105.83 105.82 106.92 106.92 107.8 106.19 91.04 110.29 110.99
122.83 123.117 118.0513 123.0164 123.7468 122.8274 122.8215 121.7465 121.532 121.4509 113.3835 113.6656 116.9244 117.1658 111.9902 111.7802 113.577 113.634 108.9154 102.5435 105.221 107.1738 109.0603 108.5822 103.281 107.99 102.3085 108.602 104.3307 103.2259 101.8964 103.2591 99.8505 99.2413 104.0539 96.7633 92.3294 104.262 95.7082 98.1472 117.9224 103.3331 91.5275 100.7762 109.62304657201679 99.2788 104.7751 119.1125 105.7402 95.7772 115.9632 118.7063 107.8874 103.5981 105.0539 104.548 104.7752 104.8501 103.7966 107.7072 104.7474 106.6994 111.7933 110.78
120.87 122.1528 109.5869 118.3592 110.6567 111.8986 110.0443 110.1322 110.093 109.4732 110.196 108.3513 108.6229 110.0195 116.6275 112.9194 114.9568 114.5825 114.7393 113.3582 109.9735 110.5871 111.8776 107.5816 106.3294 108.8767 108.5589 110.3584 103.3813 105.3865 102.2137 102.9407 99.9196 98.9329 96.1717 93.2386 108.8864 97.773 96.4185 105.6736 102.2862 105.3801 97.612 107.5534 117.7228 94.562 98.7288 101.1559 98.4519 108.22 123.1996 117.7199 125.8699 100.7403 101.2135 102.0505 102.3253 103.2876 101.0341 107.2693 90.3538 109.5666 109.1745 110.78
120.87 120.748 115.8909 107.9719 115.2789 111.1128 112.3263 110.9803 110.6653 110.5783 110.7345 111.7061 109.7055 109.5227 114.6645 113.7831 112.9714 112.6293 112.3558 112.0485 111.9267 106.842 109.18 105.0359 110.9279 109.5919 102.9298 103.6834 107.9622 105.8739 102.1583 97.5244 98.9342 98.1406 95.5829 104.6079 113.7627 98.0997 95.6928 111.2765 97.6799 102.8941 93.1088 96.2838 85.8977 89.7519 91.3918 93.4022 115.7316 112.0301 102.3715 110.3198 117.4863 101.845 100.1812 98.5246 99.0236 100.9403 104.3432 106.6913 97.5417 108.4442 109.1483 109.7
121.75 119.9537 119.895 110.1115 110.7235 121.1477 117.9524 118.7768 119.3166 118.935 110.5992 107.0183 113.7154 105.9683 114.9807 112.5784 111.6113 111.2831 111.4594 111.9067 106.1156 109.1787 109.2204 107.7836 109.4127 106.551 112.1298 98.6097 101.8385 101.134 107.348 111.6337 96.0995 94.8802 103.3494 116.3562 97.502 100.3288 111.897 98.2335 94.4109 92.8972 91.887 91.0251 89.2936 104.6524 90.1161 107.2565 125.9189 113.5721 104.7618 117.5634 100.3555 99.9105 94.8819 92.2425 93.7923 98.1463 96.8449 103.0324 106.3269 107.2699 108.7768 109.53
121.57 120.9585 119.067 108.1856 106.2158 108.8703 118.3185 116.6579 107.891 105.9924 114.9449 102.4336 103.4756 101.9143 113.6741 111.6536 113.5401 110.8437 109.9918 104.9498 103.6039 101.0889 107.8606 109.0587 107.2619 102.8989 104.7163 101.7245 98.9882 98.7666 110.1379 100.0315 95.9545 114.522 112.3482 101.9253 97.8588 98.7175 101.9598 96.433 96.342 93.3961 92.7446 90.5027 103.5305 102.5917 101.278 100.3822 93.1378 124.9688 118.2505 116.0096 106.4819 96.8002 89.8673 86.6403 88.0314 94.8606 100.4822 102.8201 105.0754 106.9564 108.4414 109.45
121.71 121.8319 118.6401 118.1472 105.1529 121.8443 116.6925 116.7364 115.4081 113.5496 116.5051 103.7086 103.0026 108.9382 112.5484 113.9067 111.4515 113.2726 109.6755 110.4254 101.1119 101.0836 101.2664 104.4928 114.1731 103.8489 103.9151 105.7645 98.583 99.3625 104.5732 98.0519 96.7616 107.5822 114.1543 103.2603 97.8384 96.0151 97.9361 93.3726 96.5782 92.482 92.3323 90.8321 103.9695 100.8681 102.1927 98.45 89.0727 125.6612 118.437 115.491 107.6076 95.8717 87.8917 83.9848 85.9036 93.5291 99.2151 102.5821 104.994 106.909 108.4927 109.43
121.82 118.569 115.4744 115.5702 114.8924 114.5391 113.9593 113.3421 112.9036 113.6645 107.8395 103.3913 102.5168 109.4276 108.2234 108.3586 107.9494 106.6319 106.7707 107.59 107.7295 105.9717 102.3489 102.0595 100.6861 104.0532 103.4598 105.6891 98.4511 98.7629 98.2203 98.0746 97.9489 95.9286 115.6121 109.9634 105.1559 107.8587 108.3473 107.8856 107.0387 107.1883 98.3475 95.3374 103.1144 90.2514 90.2734 116.2238 105.2703 117.1624 104.4651 103.5731 100.9146 97.4413 91.5248 87.6904 89.2678 95.6472 99.9879 103.0305 105.1596 107.334 108.8935 108.51
122.06 116.3284 118.3368 115.5319 115.3085 114.5894 116.1722 103.6736 113.1063 104.2279 110.6089 103.2548 103.0436 102.8422 102.4713 102.0677 110.6113 108.6464 109.2872 109.357 109.3918 108.1996 106.845 104.6838 100.9213 99.4146 108.7139 109.766 99.7716 98.8796 98.5832 98.1802 97.8012 98.7233 100.247 115.3889 106.5436 107.5444 108.3714 105.4898 103.2737 100.0717 99.4845 98.0042 94.4163 96.6532 95.8995 95.7738 98.8558 111.1438 106.823 104.7097 102.3927 99.8369 96.7036 94.1366 95.5068 98.8809 101.5686 103.8288 107.1378 112.0637 119.8733 122.31
119.29 118.7736 118.1989 117.6444 117.1467 116.6493 116.1595 117.2833 119.0991 115.3163 110.6684 103.0385 103.205 103.6641 106.5299 105.8524 111.6317 109.8002 109.499 108.6774 106.1333 100.011 103.2908 100.3078 101.1293 104.1209 103.7653 102.9238 100.7866 98.715 97.8575 97.9499 101.617 100.4741 107.0022 110.0043 107.7458 109.1327 107.1202 109.6839 108.014 101.5955 99.7912 98.5905 94.7998 113.6235 107.5208 127.6775 109.2602 106.8102 107.6138 105.4754 103.8657 102.1835 100.5361 99.6493 100.135 101.5732 103.4014 104.2563 114.5519 111.6633 119.1947 122.48
119.28 119.8392 119.2385 118.7785 118.7727 118.4995 117.9477 115.473 112.5265 111.6792 112.3469 103.0115 103.0039 109.4883 114.0966 109.3534 114.576 114.036 106.4971 103.3886 100.9758 101.9623 100.9155 100.3736 109.5336 105.992 98.8248 100.236 101.3633 103.3262 101.1864 101.1615 98.9854 103.5229 109.7609 110.934 109.426 104.9568 103.058 102.4973 104.4902 99.2482 96.3207 96.9983 96.3795 108.5861 107.7989 114.6014 125.1252 91.8271 110.7291 106.8355 105.7299 104.2216 103.3033 102.8154 103.054 103.9504 105.1111 106.531 109.2723 105.0445 109.1658 95.17
122.86 122.9693 122.6036 122.1621 117.9819 118.6092 115.0686 113.2033 105.2602 107.3273 105.4337 105.1371 102.6332 108.7734 114.3123 105.3796 107.7268 105.7163 106.8759 106.7036 101.1442 100.787 101.9692 100.94 102.3318 106.0387 106.9982 102.8987 104.0504 111.278 108.0884 106.3126 107.0413 102.3643 109.1517 107.1383 106.3734 107.53 100.2484 103.4171 103.4959 103.5221 99.797 97.0422 101.1699 116.8275 112.9862 109.2995 105.5562 114.8447 98.9414 105.0796 108.9586 105.9496 105.4758 105.1531 105.2669 105.8481 106.7439 107.6544 106.6015 96.2106 97.8269 106.91
122.81 121.509 121.0286 120.1308 115.2333 111.1383 107.9058 110.0816 108.4051 104.5222 106.3809 107.604 104.3039 103.1011 112.2226 103.5293 104.2145 103.7485 111.646 107.4476 104.657 103.3319 104.2827 100.3419 103.5434 101.478 102.9963 104.3133 97.4844 111.9549 109.1494 107.4365 104.3256 110.9271 106.5706 105.0491 105.7275 106.5547 106.4065 105.6148 102.8623 102.0478 101.1484 104.7826 105.6024 110.1896 117.3364 99.3729 91.7272 89.8468 88.5591 99.3939 108.3117 108.5603 107.1695 107.0449 107.2237 106.9815 108.6859 102.0854 111.123 102.3455 92.8976 101.89
112.52 114.5753 114.0082 113.657 111.0634 111.5895 108.7593 109.5282 109.5104 108.6579 105.9057 102.2177 107.6665 107.2012 105.6599 106.1124 106.7374 115.3273 106.7049 106.027 102.8153 103.05 101.7101 103.8964 104.118 99.9067 103.5368 105.7606 106.5497 111.9474 113.2635 101.8044 103.1051 103.4418 106.4833 105.8459 106.0893 105.4608 104.3856 102.5481 101.3921 104.2809 109.1088 109.8538 104.4951 97.0442 97.2645 89.9783 93.6446 90.6007 88.2999 104.5176 99.5209 109.0983 108.5322 108.4683 107.8057 112.6295 110.4837 95.7751 104.5436 92.7752 85.5346 90.66
105.47 112.8142 112.7653 111.836 112.3043 112.5846 111.8832 111.5451 111.6659 109.7993 114.2447 110.7482 110.0423 109.2545 109.0929 106.5119 104.6985 108.3829 105.157 102.1344 104.2368 100.8229 100.5578 113.2854 103.715 112.2182 108.9269 113.0738 113.8059 113.173 101.5963 97.6832 109.4033 105.9016 107.3458 106.0752 105.3451 105.7593 110.9758 116.0547 114.6631 114.7315 106.4964 104.6784 96.9562 97.8971 94.7385 98.7563 108.9285 90.2258 101.5715 112.5012 110.0033 108.2442 107.1642 109.8068 106.0243 128.0275 111.5511 102.4942 92.4054 93.4057 111.8271 111.08
114.54 114.2859 114.887 114.4429 113.708 113.0249 112.3147 112.035 111.5314 111.0874 110.7571 106.7175 107.8773 107.3199 106.9487 105.1669 104.3271 104.4425 102.7382 111.0455 102.9652 101.7098 101.5161 102.0685 101.3521 114.3608 114.4405 103.3197 100.9723 100.9089 98.6725 97.8997 108.7003 107.5254 105.5711 105.0522 107.4795 108.4088 116.0839 113.0743 118.3784 108.3171 103.5799 93.3121 98.345 99.6053 107.4605 105.759 101.3349 98.1614 113.9542 111.7842 111.3416 104.3802 107.6767 110.3951 113.0364 105.3459 104.0801 105.0466 92.1934 105.6288 112.1047 97.92
115.35 114.9051 114.6302 114.321 113.8455 113.3763 113.2101 112.6707 112.4026 108.992 108.3849 106.5063 106.0627 105.7175 105.3117 105.0027 103.0945 103.0211 102.5205 103.3316 102.1453 101.6329 100.5685 107.7816 100.7139 112.5172 110.2903 111.9333 110.8421 107.778 97.9745 104.166 103.3313 106.3679 108.8766 123.3562 120.2596 113.1117 113.2574 127.296 105.9818 108.5461 95.6292 102.1455 101.0209 101.547 107.3275 99.2132 92.0188 101.6385 112.1019 112.9391 106.6257 113.1583 111.9622 111.8976 114.0887 92.8941 91.3971 92.5882 100.0483 112.0166 100.8559 98.49
115.27 115.2061 114.7628 114.7422 114.4503 111.0402 110.9385 108.9319 109.6528 110.7768 107.0935 106.5744 105.9838 105.6141 105.3549 104.9502 104.7465 101.5298 112.8802 111.7584 104.6356 101.4701 100.7809 107.5138 100.9217 111.2112 113.6562 112.7753 111.8631 99.3075 98.4314 108.2951 104.4122 116.06 118.3461 122.2557 116.3422 116.3402 104.28 106.5566 104.2025 98.9146 104.6981 103.0208 108.7636 111.2258 107.6769 97.0354 94.8427 107.6071 113.8714 114.0739 110.2544 111.0959 113.6697 112.8562 112.3688 90.3665 99.1664 97.8006 109.6837 101.84 97.6913 99.57
115.94 115.5339 114.3744 113.6061 113.2474 112.6932 112.3708 109.7576 108.7922 107.882 107.5028 106.5722 106.0816 105.9141 103.6207 102.9592 103.0083 103.1599 109.565 101.8789 101.4318 101.8114 101.2514 101.1931 100.024 105.6829 106.1949 111.4306 98.1775 100.7476 101.7795 116.5408 119.4861 118.3611 118.2846 115.5407 111.2865 93.8574 106.7967 96.4477 101.3567 95.5412 104.9349 111.7619 109.4846 105.1632 103.4112 105.6264 89.646 98.0766 114.9354 114.0379 90.6786 99.0212 114.3455 114.0623 110.4104 94.0384 97.986 98.9648 112.2241 100.076 99.0106 98.14
115.05 114.0197 113.9676 111.1496 110.5729 110.2378 110.6929 114.2492 110.0373 107.3698 107.1416 103.2658 103.4484 103.2783 103.223 103.0855 102.2877 110.6863 107.9658 102.5589 103.3701 101.2513 104.2511 103.0973 103.1918 99.8889 100.3495 100.5166 103.1855 117.0497 119.0311 116.0732 118.8284 117.3223 116.506 121.1289 109.2607 97.5639 97.5516 97.188 96.1484 99.0509 109.4851 101.7307 97.2317 100.2757 108.9197 104.0609 91.5272 106.9876 115.8764 107.5916 91.2967 115.18 114.1824 115.3903 104.1299 97.6716 108.6175 98.4119 101.1831 99.9875 97.7488 97.49
112.68 112.2731 111.9838 111.591 111.1974 109.2845 109.0435 105.7865 103.7276 104.8297 104.0293 103.9941 103.7551 103.5674 103.3434 103.0388 102.8278 108.1585 107.0808 105.8684 109.5574 105.8206 117.0143 115.1668 113.5136 103.6029 105.5032 118.3225 117.3128 118.6429 118.2443 117.9254 116.5918 117.3761 116.0233 108.7771 104.9615 99.6959 99.7192 96.9333 96.606 97.0119 98.8409 95.1985 105.0118 106.4105 95.1962 105.8532 94.2056 122.7965 108.9107 97.6998 92.5208 117.3417 114.8946 115.4749 100.8742 101.9269 114.0824 100.4037 97.0266 97.1858 100.908 101.53
112.8 112.6316 111.4367 110.6638 109.7187 105.5041 106.4238 104.4978 104.4343 103.6214 103.2342 103.9305 103.7399 103.5647 103.3769 103.1406 103.2834 103.2758 105.7348 104.6088 117.6079 116.1776 113.7285 113.5662 118.0839 118.5204 120.7185 118.7284 114.2557 119.3831 118.2224 122.6645 111.8382 122.9347 121.5441 106.2997 107.7908 104.24 100.9807 97.192 97.3153 97.5241 96.9993 97.2505 112.6349 108.0437 93.9651 100.0715 108.5821 117.2421 97.8826 96.493 92.9984 117.8219 115.3784 119.5738 101.6812 97.3749 95.9999 100.8123 99.8193 101.7332 98.6674 106.03
110.68 109.3178 108.2193 107.8653 106.2986 105.3775 104.5277 104.5163 105.9607 106.9211 106.0676 104.0531 103.8203 103.6479 103.4551 103.2437 103.096 103.4406 102.3913 110.7996 115.6018 114.0498 119.7335 118.9542 122.5659 120.6541 120.3033 120.0618 120.7218 114.7936 123.7953 128.6115 114.8232 109.0723 108.8158 103.8847 103.9903 103.4761 101.7806 99.6191 99.3908 99.5871 97.9201 96.2502 108.8751 106.2407 100.2116 98.2818 113.8778 103.9952 95.7798 98.7725 97.3246 117.8664 117.5705 95.4816 99.2901 94.7561 99.2997 103.5525 102.1345 103.7103 102.9697 104.14
108.68 107.8837 110.2652 106.0258 106.889 106.8516 107.7978 106.8903 107.4507 109.1374 105.5279 104.1208 103.8887 103.7176 103.5343 103.3824 103.4962 105.3373 104.4887 103.6605 122.8587 121.0861 123.9881 122.6784 121.6263 116.6814 121.4066 120.4108 114.7182 120.5472 128.8433 117.7012 112.6487 110.4279 108.3253 105.3553 103.8773 102.8032 103.6451 103.3935 99.8135 101.1587 96.6288 96.0411 97.1642 105.4577 107.394 96.8721 116.6952 92.4553 96.1185 99.0146 97.868 117.2009 117.3245 115.0949 100.9415 95.7622 99.4057 103.4219 105.5543 103.0414 104.137 103.67
108.0 109.129 106.1861 109.3456 110.3496 108.9326 106.9462 105.8237 105.7121 104.0253 104.2501 104.1252 103.9513 103.778 103.5949 103.5904 102.2052 101.4418 102.6099 119.6564 125.9179 124.9381 123.0999 121.9801 122.0276 118.6579 119.279 116.9183 127.7617 130.0525 115.8344 110.5182 109.1942 106.7128 106.8526 104.8633 107.8384 104.9693 103.539 105.3291 103.2538 103.4416 97.584 97.5357 100.8134 107.1822 108.9544 97.4567 106.2857 110.4549 100.8553 98.0451 116.7711 100.0251 120.7235 94.8925 100.7054 101.1503 101.2469 99.6584 107.2717 103.589 106.2554 106.24
111.68 111.4764 110.5312 111.1 103.5496 123.6877 103.097 104.7283 104.639 104.4521 104.3645 104.1869 104.0901 103.8946 103.7554 102.2801 115.2136 114.9394 122.3337 126.7096 125.1997 124.7829 124.4929 123.1627 122.2826 121.4983 130.7615 109.9415 119.1961 115.6982 112.8579 109.329 108.654 107.9255 106.8135 104.7009 103.7453 104.2487 105.0629 104.7757 104.6681 100.5525 97.3962 103.667 106.1163 104.7493 107.1314 110.1566 100.2693 99.0471 102.2361 102.7058 117.3184 113.9128 119.3052 96.365 102.8495 105.4156 102.2139 107.6471 106.4375 109.0896 106.5214 106.72
112.14 110.2005 105.7893 105.1541 111.7132 111.5187 105.3508 105.0721 104.1427 115.931 103.0481 104.3056 103.9526 104.1405 103.9511 109.6018 111.095 120.7987 121.8523 126.4239 125.8205 124.8519 124.6009 122.2607 123.7772 131.94 133.2346 111.4984 114.1001 112.8585 109.7138 108.3336 108.2887 106.7557 106.8494 99.9619 106.1612 105.8328 106.234 104.9069 105.1257 102.6447 99.9755 110.0353 105.6586 104.8085 117.688 98.9048 99.9414 106.7208 105.7945 105.3129 115.2905 100.4999 105.4128 96.678 102.9602 104.3292 103.6645 111.4202 109.6491 108.2315 105.7743 108.52
127.31 126.9826 126.2341 123.9217 125.1015 115.5753 104.6434 105.1199 103.397 117.2512 111.3207 103.9723 104.3338 106.8243 108.9979 108.5348 102.3605 115.6183 127.4536 126.7052 126.2579 125.0095 126.183 132.9581 129.1681 127.3733 109.7955 113.6254 114.6093 110.5701 109.5944 108.979 107.3705 104.0706 101.8771 106.7641 106.4401 106.5875 105.6897 105.692 102.3186 108.2895 107.8121 105.9599 105.9024 103.9575 110.0365 119.2126 105.5706 107.2074 106.5166 108.7255 120.6928 120.6177 121.784 97.8366 103.9839 102.2743 104.9047 112.7539 110.0764 108.1022 106.5988 108.0
125.94 125.4661 125.0382 125.82 108.8436 106.9518 106.4166 105.5894 105.1445 104.6484 104.5345 104.5229 103.8311 106.7972 103.996 104.453 105.4534 120.5176 115.4044 127.5234 125.6105 132.3452 134.485 132.0106 122.2703 116.0959 116.0915 117.3925 115.1769 110.5931 109.8059 111.3239 115.7389 100.7986 105.0426 107.6581 107.6192 111.8906 117.0963 115.1875 102.3335 110.9108 110.165 106.835 104.1638 110.4838 100.252 99.0797 104.8238 104.483 106.3097 109.948 119.2617 118.2164 120.6795 98.0267 102.2009 102.9042 108.0305 104.1094 112.1343 108.682 108.5511 108.61
125.87 125.2772 126.7192 106.7045 107.6416 107.1728 106.7197 105.6646 104.9718 106.6952 104.5492 104.4868 104.3349 104.0446 104.1373 103.7555 103.2413 101.0831 124.8449 118.4701 132.9951 133.5199 132.8464 120.1025 117.8961 115.3362 118.7714 120.2289 119.6198 117.8394 114.6379 120.2055 113.4183 109.4699 108.865 106.095 109.8274 110.1807 108.7339 114.5823 110.3499 109.8509 107.8071 107.3446 113.4305 105.3778 117.7632 100.3082 108.1829 103.8975 104.457 111.5388 121.4584 120.583 120.8133 109.7141 106.47 102.8066 101.748 104.9499 115.1183 109.4726 110.1563 112.23
124.81 124.9308 126.2403 114.5847 107.4585 105.6865 105.2433 105.8973 103.9144 117.314 103.4307 106.1785 104.8045 107.6637 102.9824 104.499 111.7636 107.843 122.0927 137.5547 132.7768 132.6293 115.1643 117.5074 118.2444 114.7143 110.6142 116.7006 118.6748 118.8677 119.7006 116.936 107.427 109.2572 110.9027 106.1579 111.0707 110.2584 106.7875 109.2416 110.9942 109.2979 108.9829 110.3843 106.3508 100.44 104.9026 103.1072 107.0115 105.9866 105.1032 116.5576 106.8311 120.5182 120.5697 113.6386 111.6861 104.8384 99.2193 105.5406 115.4579 109.9764 110.3223 110.2
124.85 125.6057 124.0588 126.1449 117.8267 107.7196 105.366 105.2928 104.9268 105.9987 105.6941 107.5347 107.856 123.4061 110.6781 108.725 121.6246 137.672 135.7269 133.5683 129.321 115.3978 112.4542 118.2403 113.0424 120.3811 107.8168 112.5762 122.1003 119.6614 116.9662 108.9088 109.9634 110.7222 115.9535 111.4882 110.1154 108.6267 106.6012 113.9484 112.7515 111.7432 110.2063 103.6879 102.4993 124.2923 103.7444 108.7873 106.0303 107.6357 106.8571 121.5617 119.4705 120.3951 121.2905 111.2227 104.6517 104.1001 108.7076 110.0042 116.922 110.964 111.5472 110.92
124.49 120.4 129.0175 128.9891 124.6667 110.9443 106.3988 105.234 106.0248 106.2969 107.6427 110.1945 106.4403 114.326 112.8912 114.4315 142.4529 135.4653 131.8225 126.6593 114.4476 121.0032 121.0488 109.8357 97.8472 118.4233 106.0747 106.169 121.7584 116.2958 111.0539 110.9692 112.1352 111.0603 109.9995 103.056 104.1676 107.4095 108.5615 112.6926 115.4705 104.6606 105.4549 99.0763 105.0841 123.8635 103.8806 107.0175 107.0668 107.4752 106.3377 121.8634 120.3598 118.4473 117.3607 101.0879 109.4877 109.8128 109.3723 110.3083 112.3536 100.1815 111.7722 110.94
123.72 138.1231 135.3655 135.3122 106.2338 104.0217 106.4591 105.6164 108.2806 105.5488 105.3828 111.2062 103.8062 99.9541 144.1351 116.569 119.043 130.736 124.1597 120.1208 109.1265 120.9735 120.5337 115.9306 113.2381 123.5157 119.2738 123.465 124.2729 111.7646 111.8501 112.0286 115.5779 114.4453 108.484 110.0259 103.7302 100.5507 98.8123 101.9309 113.5604 104.2989 109.7348 114.7539 122.3437 120.3713 118.2218 110.1245 108.3993 107.9397 108.0393 121.7538 120.9109 120.0603 123.0624 95.4718 113.9394 110.7943 110.3618 111.3985 114.3555 100.2619 113.8824 112.42
135.5 134.5699 134.0926 137.3253 106.8561 106.3642 105.5208 105.8634 106.3268 105.3986 104.5067 103.5079 105.1289 102.9863 91.6406 101.148 99.1888 109.2843 121.429 120.293 121.044 122.5565 115.0179 116.1818 121.2552 121.2417 122.6457 115.2752 114.4357 112.5518 112.7766 115.3984 117.0997 105.6256 105.05 101.0967 101.526 112.5115 100.3151 112.4219 107.347 111.3151 113.9506 122.9965 116.5387 106.8527 112.0283 109.4275 109.1413 107.8834 118.4955 121.6864 121.0733 114.7318 116.131 96.4564 115.902 111.4585 111.9682 112.6718 113.4342 101.0509 113.9851 112.53
135.56 135.2686 124.782 121.2357 106.801 105.8539 105.79 105.6908 106.1074 105.9369 105.1654 105.0609 104.9051 103.6124 98.7887 102.7866 121.0847 111.201 115.5981 118.9692 118.7704 115.4685 120.8764 111.8401 115.9943 121.3523 112.4815 109.379 115.7873 115.796 116.5134 117.9433 115.284 108.2544 106.6955 101.9434 100.1829 114.779 121.2511 115.1755 101.6332 112.5056 121.7135 122.6629 119.0468 111.6904 111.3591 110.0287 109.9568 107.6345 121.4435 121.5197 121.5635 121.342 123.8049 96.8975 115.6613 112.1359 112.8849 115.0826 114.3434 119.9645 115.589 113.53
135.23 138.235 114.6027 106.5909 105.8622 105.8464 105.8127 105.7555 105.7433 105.6003 105.2837 105.1055 105.1724 106.9868 127.6874 120.8713 107.1261 113.2218 113.9891 119.0244 117.8833 112.363 118.3501 119.2347 112.6051 109.3758 104.6898 105.7448 121.5279 117.1164 119.4685 116.607 115.0908 121.5083 107.5102 99.8435 100.6979 106.7751 120.7557 114.0932 114.8074 106.8555 118.1107 118.221 122.2094 111.5328 112.7063 109.9518 110.3996 108.5111 121.6101 121.7922 121.6849 121.3579 122.6239 97.2044 115.4308 112.656 113.6498 115.7089 111.2278 117.5508 118.0584 114.44
135.56 111.3635 108.8874 107.345 107.512 107.3091 105.8609 105.8462 105.6803 105.4524 105.3763 105.237 104.7077 107.9132 116.2057 118.3054 110.3473 122.8021 121.139 120.3478 115.9775 119.4588 113.9213 125.6043 117.657 101.0736 106.6968 116.974 117.0808 112.1745 117.3692 117.7234 115.4927 119.2146 105.3302 107.5491 109.4254 112.4269 120.6412 121.8367 115.6214 110.9538 109.4774 112.7465 102.5611 115.6223 115.9424 111.9156 114.728 111.1924 121.8162 122.1541 122.3744 114.7399 121.7388 96.7101 115.5556 113.1163 114.5072 114.306 112.3513 119.1313 118.2477 114.6
135.76 117.1675 106.6078 108.6456 107.449 106.1354 105.9077 106.2573 105.6034 105.5859 105.457 105.4713 104.2376 114.9861 112.9052 102.7991 120.9647 122.0309 125.3415 120.2474 117.7319 119.8947 115.5533 105.2384 115.5196 116.5299 115.1657 114.9684 120.0506 112.479 117.6771 118.7479 117.215 101.73 102.0915 102.2391 114.5741 119.4767 109.9249 115.5495 124.5867 121.5488 106.5028 105.4283 115.9028 114.7766 117.6712 117.0038 117.2204 114.6343 122.7263 122.4862 122.472 122.9292 124.4484 104.8148 116.5006 113.6657 114.9189 113.8665 112.6244 119.7411 120.0958 116.07
136.22 137.0728 120.2262 105.8657 106.055 106.1955 105.0127 116.1141 104.6825 105.8792 105.5224 105.581 109.9661 117.5742 126.996 124.8745 124.7697 124.4418 125.6398 124.9751 121.9338 123.8884 118.0501 111.8517 116.2355 116.1335 115.5539 113.0759 113.2298 120.4112 118.6152 117.8286 120.1072 104.2512 110.2619 106.6078 106.6237 115.6916 111.4511 120.3132 122.4751 126.1341 112.7432 103.7934 122.7793 116.8622 117.9552 117.5878 117.5231 120.5138 122.9081 122.9201 122.7283 122.5195 123.781 117.4155 120.1485 114.8963 115.5364 114.6564 113.8431 117.7048 121.9823 120.92
136.37 135.46 105.1688 107.3228 106.5309 107.5471 106.2445 105.8604 105.8597 105.7858 105.2191 109.4748 111.3461 127.5579 127.7695 126.8677 127.5083 125.5937 118.4325 125.9185 123.7805 129.751 112.4586 114.8778 116.6029 120.4314 110.047 114.4352 117.0051 118.5579 118.3184 113.4672 108.8552 99.5894 106.4566 117.2663 114.876 101.7683 98.9434 123.8739 125.0336 122.6136 108.2572 126.5412 121.4606 118.1549 118.8546 118.0978 118.5626 121.241 123.2779 123.2287 123.1683 122.9264 123.0692 105.2967 108.3733 115.2903 116.1162 115.4014 118.1039 112.0414 116.7077 121.69
144.94 140.8238 114.937 106.0927 107.8055 111.5859 106.1403 106.2611 106.1162 105.8568 105.7896 104.9914 112.2193 130.25 129.4979 128.1282 128.3915 127.8086 125.8153 124.8692 106.9465 117.0665 114.6474 116.5147 115.7599 117.5285 108.0011 105.0562 115.5537 121.4263 120.2679 119.8036 115.6287 107.2632 113.0654 119.997 122.8118 124.3561 120.9739 121.7476 111.2299 125.1019 122.6626 120.3686 118.3635 119.7377 118.8827 119.4391 108.8188 117.7823 123.7309 123.4837 123.3739 123.3295 124.1879 126.0526 111.3435 116.8044 116.4792 116.3066 119.1336 114.2068 121.0507 122.35
144.95 141.275 101.8509 107.2409 105.5809 105.3393 106.4485 106.181 106.0571 105.9768 105.8635 105.0843 113.7764 131.5269 130.9673 130.6076 130.0842 127.9527 127.6296 130.3353 121.3315 112.8512 111.2914 116.8565 117.1068 116.3611 113.0503 106.0561 108.3997 121.7075 119.6271 118.7725 115.0276 113.8036 114.8646 115.5883 122.4345 120.0448 116.8057 123.4629 126.2213 125.351 122.285 116.6291 118.652 120.8784 119.9971 121.1898 101.4103 112.9529 123.7376 123.73 123.6243 123.5349 124.1576 109.8405 116.974 116.5572 116.7635 116.9796 119.3881 113.8223 124.0607 122.84
145.13 134.9876 104.0815 107.0386 106.6334 106.5913 106.3637 106.2882 106.1645 106.0641 105.8967 103.6465 118.2737 131.0191 129.3024 128.0704 131.3515 129.7871 133.9242 119.2242 111.0335 115.7871 110.4293 117.7984 116.6636 111.3418 121.0307 112.32 122.1714 118.5065 119.8471 119.5862 114.9296 110.0748 101.822 115.3022 125.3566 121.6551 129.0345 103.0308 121.7364 110.4014 119.0491 107.1724 119.7272 119.7655 120.5141 121.6146 102.8816 125.8085 124.2534 123.8675 123.8705 123.7127 125.1216 101.8033 110.921 117.9216 118.638 116.4366 121.422 116.382 124.3328 122.96
145.13 143.7711 105.8913 107.0682 106.7114 106.6302 106.6532 106.3727 106.2597 106.0896 106.6321 105.3106 133.3574 132.9295 133.7474 118.6092 129.442 131.0185 117.9478 116.6932 111.7462 117.4634 118.3331 107.7894 115.2979 106.1272 100.3092 118.7079 120.8395 111.0795 115.7778 117.019 116.3962 113.7911 102.261 109.368 119.17 118.9873 115.3007 125.0765 128.6498 103.5739 121.754 120.7261 122.4401 122.369 124.2865 123.806 121.5791 118.4488 122.8003 123.9436 124.1417 124.0923 123.8903 119.1933 118.0064 116.1609 112.1016 103.9681 112.3039 104.4046 119.3622 123.64
107.23 110.7684 106.6197 106.7864 106.8024 106.7251 106.5558 106.4617 106.3464 106.3069 105.8799 108.9714 133.5571 134.1251 112.7679 122.281 117.0052 123.7651 114.043 117.9581 116.9258 112.0436 119.2245 116.453 120.7772 102.3209 117.0279 124.4221 108.9791 109.7101 112.4924 105.016 104.9563 103.3917 103.4794 109.5994 102.569 107.4736 99.8311 125.1635 125.8898 119.8014 121.6917 120.3696 117.3165 117.6377 121.9726 111.8136 125.2993 112.4424 122.6814 123.9868 124.365 124.0241 126.0595 110.0351 119.6344 118.3824 114.6244 116.7736 120.2491 114.6593 118.4157 124.31
107.26 107.5107 108.1798 106.9533 106.8801 106.7693 106.6628 106.5563 106.4511 106.0674 105.0615 120.5578 110.4018 139.5025 118.9301 134.3804 118.1988 105.6596 118.7725 115.6854 115.7837 121.327 115.5387 105.0966 126.9823 125.1944 127.2145 115.1988 106.8753 110.3767 101.4504 102.5248 104.1799 104.8485 103.3563 103.5769 103.6827 111.848 113.8971 125.2938 124.9467 125.4022 123.9786 123.7797 118.7062 115.7753 119.4641 113.745 123.8909 122.9717 125.1051 124.409 124.5075 124.2968 125.703 106.3167 114.9765 119.4673 121.54 100.602 118.5999 120.4469 118.3044 124.77
107.37 107.4631 107.7285 107.0282 106.974 106.8611 106.7518 106.6242 106.6763 106.0688 115.7983 119.9403 102.8031 123.5631 125.6869 135.4657 117.559 118.7331 120.2295 115.613 116.8002 119.7686 113.4282 120.675 127.2508 123.4511 124.7665 124.0588 118.8767 118.471 107.5788 104.4895 102.0634 103.7899 104.4989 103.2249 120.2954 112.1405 127.0221 125.4448 125.5743 124.9539 115.2135 114.412 100.9741 107.366 121.8966 117.7181 125.368 124.6941 124.7358 124.8948 124.7195 118.5329 122.4474 124.9418 125.9423 119.9783 120.9553 101.3442 111.1861 120.825 118.0548 125.05
108.32 107.6992 107.2565 107.1577 107.0404 106.9469 106.8435 106.7369 106.6507 106.6497 105.9035 106.2484 130.6184 106.6768 134.2773 120.1112 111.9993 104.9102 114.3744 118.9518 117.5931 119.9655 105.1707 126.5511 125.3157 125.8703 125.8236 125.5285 124.4624 105.5905 101.4761 103.8774 108.0667 116.9202 102.0 105.7428 125.3519 121.001 125.5117 125.6268 125.4135 125.9824 114.0755 102.1143 108.2318 110.0978 104.6198 124.9942 125.092 125.0911 125.0617 125.068 124.8768 125.5251 124.8757 124.7932 124.9848 120.0338 121.2934 113.3497 118.2823 121.5049 118.3867 118.35
107.52 107.4394 107.3458 107.3409 107.2205 107.0292 106.9327 106.8236 106.7337 106.5114 107.448 106.0653 107.276 108.915 112.7803 113.032 110.3285 120.1099 121.1453 120.8993 118.2434 127.5401 118.4138 129.0587 126.8331 126.6229 126.3523 125.9923 124.9985 119.5079 104.4708 103.7856 122.527 134.4153 110.5921 111.4307 127.8063 126.3793 125.8268 125.7612 126.5527 110.7168 101.2594 104.1297 107.8288 118.3229 120.7387 124.1915 125.3655 125.2876 125.2574 125.2489 125.1026 125.0373 125.2338 125.1748 125.5913 121.775 121.6653 122.5397 124.0168 121.9269 124.0209 118.67
107.55 107.5318 107.42 107.2756 107.1749 107.242 107.0093 106.9299 106.8187 106.6803 106.5656 105.8735 118.2362 120.8059 108.815 107.7511 119.1125 114.4228 120.408 117.5757 131.9362 125.5758 130.4377 128.1087 127.4986 127.4228 131.3664 127.2649 122.9298 117.0137 104.0766 114.473 132.8559 126.0508 118.094 126.0619 127.0685 126.1005 126.0192 125.9265 125.9208 118.098 103.8038 102.6515 105.2646 120.3144 124.9593 121.1876 125.5585 125.5029 125.4538 125.4386 125.4556 125.4402 125.3676 125.4405 124.2799 125.053 121.421 117.1634 123.9451 123.6737 123.4969 119.75
107.66 107.6107 107.5973 108.481 107.3793 108.1328 107.3621 107.0223 106.8897 106.8587 107.578 108.231 124.5264 117.6703 107.5531 109.2832 121.9864 118.097 118.2195 102.7474 127.2368 105.323 100.235 124.9543 122.1394 121.7145 107.1071 118.6516 108.9827 107.512 98.2265 111.8328 124.8217 126.7479 123.4214 111.219 126.8097 126.33 126.196 126.0856 121.2 123.9506 105.7335 102.1274 124.8359 124.9728 121.0081 126.3943 125.6376 125.6898 125.6494 125.6328 125.6077 125.6076 125.5386 124.0359 131.2598 123.6725 115.0316 115.7321 118.6438 121.0335 121.7352 120.05
107.69 107.6926 107.4888 107.4103 107.4431 107.6609 107.4931 107.1089 107.0657 106.5473 107.8229 120.4662 121.2039 120.7813 125.0298 112.1451 114.3189 120.1991 109.8342 111.3938 114.2981 105.8864 109.416 131.1542 100.1124 103.0779 118.4188 105.7337 97.1805 123.3429 126.2274 117.9132 101.5596 126.7966 129.1596 124.7227 126.776 125.5126 126.025 126.1269 122.5238 127.1173 116.6218 111.2346 120.3198 105.8496 113.5553 127.2417 125.9047 125.858 125.8446 125.8258 125.8025 125.8124 125.7465 126.5051 114.1279 128.7312 116.1 116.5594 118.2173 122.0762 123.5177 120.64
107.8 107.7649 107.6885 107.5805 107.4773 107.4224 107.3371 107.1653 107.0866 106.8767 118.5282 120.472 124.2056 122.3106 118.8751 126.9867 127.927 124.9252 108.7956 108.7255 102.96 106.204 111.3921 105.2953 107.1006 125.7161 130.2965 121.0335 118.5233 131.5632 126.1446 108.1732 121.8375 122.9712 125.8346 128.9011 127.3765 123.3028 122.7908 128.4792 119.9788 113.5262 98.7646 123.7866 106.4682 116.6271 123.1901 126.5919 126.0937 126.0576 126.0396 126.0155 126.0317 126.0631 126.4729 126.9476 109.2582 108.3793 112.56 116.8249 118.4447 122.6023 125.0236 126.64
107.93 107.8456 107.7501 107.6699 107.7566 106.5021 107.108 107.227 112.2688 105.3875 115.0642 114.3726 124.9288 126.1169 103.7476 125.3387 127.4381 133.8625 113.5726 103.0243 112.1926 106.4569 106.5652 102.5969 107.8989 113.9515 130.3443 114.1775 105.3918 130.4788 130.1993 127.8179 128.2479 127.8686 109.4346 127.8474 126.6298 126.0149 107.3648 124.1013 109.2921 100.1007 114.7922 127.7315 113.2554 128.5916 126.4622 126.3276 126.2685 126.24 126.221 126.2843 125.8821 123.2157 121.6971 126.0619 124.9525 122.5905 117.1054 117.4606 123.423 122.9265 124.0187 127.04
108.04 107.9323 107.848 107.7503 107.3829 102.9479 129.905 104.4599 111.731 107.2268 113.3992 114.8838 124.5166 125.8324 122.308 124.7681 128.0168 114.1393 106.12 110.2668 134.3264 103.0728 105.8925 122.6553 124.8398 114.1431 122.9467 107.7189 132.0648 131.9505 129.665 119.5176 125.8941 127.1364 112.5778 110.9743 110.6536 113.2311 128.2404 127.7645 127.2021 123.1086 122.8356 126.5118 113.8858 127.7282 126.2004 126.3884 126.4493 126.427 126.4059 126.4229 126.2654 125.6593 126.4194 126.3552 126.253 126.004 117.7338 118.9342 117.3247 123.8552 124.2252 124.38
108.07 107.9976 107.8308 107.8531 108.5487 118.1367 122.8231 113.4195 106.9853 107.0036 106.8568 104.8902 126.8795 125.6697 118.2393 131.3895 133.9073 109.0814 114.8688 110.6075 135.228 114.3741 106.9132 126.0156 127.7249 131.631 119.6825 103.135 133.229 131.1807 129.7719 128.3975 126.9381 125.4466 113.579 112.8382 113.35 109.6382 126.9742 126.8544 126.0982 124.6016 124.2464 127.0264 111.6934 127.4404 127.8946 126.5413 126.6201 126.5936 126.5709 126.5758 126.4799 126.5162 126.5068 126.5276 126.556 126.5792 127.0579 128.3246 122.1216 124.7516 125.2165 125.34
108.18 108.0446 108.0553 108.548 106.6038 109.294 106.8793 109.2356 107.4184 107.309 107.1274 111.435 119.1398 106.1878 119.9836 109.163 107.309 119.0035 119.4451 117.7528 117.4579 118.632 113.712 121.1741 112.7986 120.8108 115.6119 125.6631 107.1262 131.4469 131.0655 128.2136 127.6433 122.1096 107.0048 113.7191 112.344 129.0809 126.557 127.1141 125.4655 109.0004 127.251 126.9175 120.6737 108.0266 126.4436 126.6761 126.7836 126.7939 126.7762 126.7737 126.7723 126.7436 126.7167 126.6942 126.7958 126.768 125.4144 121.6905 123.5484 126.3853 126.0166 125.81
108.19 111.553 107.0027 105.7527 130.9699 121.3341 119.4667 117.3881 106.8011 107.5437 107.507 107.2303 106.3761 125.7216 129.3654 131.0012 105.5477 106.5092 106.6327 106.6771 106.3152 106.3294 106.0249 105.6331 111.9512 127.5869 102.5008 123.0218 132.8693 133.135 130.202 127.6356 127.3988 123.9319 125.2755 130.1927 128.0859 127.6107 131.2694 127.2136 119.2493 105.0689 121.9442 127.8868 127.9173 125.9488 127.5207 126.9546 127.1487 126.9504 126.7864 126.7379 126.8669 126.8765 126.8814 126.8331 127.6017 127.0672 123.7562 117.6842 119.4371 124.8256 126.9432 126.78
109.03 134.5968 108.9986 125.5057 124.6278 123.636 132.7352 116.3045 106.2251 107.7716 107.51 107.275 108.1019 124.7171 124.086 110.2729 133.9594 125.288 104.1244 107.1968 106.5265 106.6885 106.1643 111.8939 127.3728 135.7623 114.7231 101.2854 130.3476 131.6079 127.8762 127.8877 127.6824 128.0332 127.6541 126.7698 130.0401 122.6946 124.0985 127.3521 128.8824 105.7176 106.3544 115.0961 128.4415 127.2686 127.1272 127.2445 125.2266 127.2717 127.934 127.8137 127.036 127.0543 127.0483 127.0319 126.7976 126.7986 123.4316 128.5024 126.4175 122.1323 128.3644 127.24
134.16 132.6874 135.032 130.011 122.1985 126.0118 129.7484 130.2425 107.757 107.2328 106.0905 107.0241 109.0408 116.9978 114.7975 106.6633 103.3114 107.0535 106.5144 111.2061 103.9728 107.1531 106.887 115.7925 126.7756 135.3888 127.0997 126.5957 135.6711 131.6612 128.3275 128.0075 128.0249 127.9025 127.822 127.7013 121.6914 105.8514 120.4041 127.6296 128.2888 125.505 104.0934 105.8225 126.5647 126.4326 127.2728 128.5071 118.5116 130.1862 115.8957 128.1331 127.1296 127.2237 127.2138 127.1588 127.8575 128.8725 126.7796 126.515 127.5762 122.2582 129.5279 128.42
135.59 134.327 134.5146 133.9467 135.5506 134.126 129.6482 124.9569 108.323 105.4286 127.1293 113.8992 107.1265 107.1507 105.378 119.4408 108.0671 109.4207 106.9768 130.6355 109.6233 106.2739 117.1167 122.7104 137.833 142.1026 101.0172 130.9346 125.556 128.7275 128.222 128.2249 128.1017 128.0678 128.0044 128.15 123.2825 113.1425 121.6148 127.8203 126.6754 128.2552 113.1006 125.1795 126.047 127.5 127.2238 117.3032 128.1952 116.6539 125.3594 127.0524 127.4392 127.3885 127.3718 127.2582 127.7207 116.901 123.1612 128.6505 128.942 122.4477 128.8273 129.16
134.07 134.4671 134.5374 134.4551 134.7463 121.6473 119.8972 131.7113 134.1855 107.9334 125.6321 109.7898 107.441 109.1781 107.3584 106.6629 106.9769 121.2578 135.1993 128.1146 108.8649 110.6679 124.3981 128.7792 136.3293 134.2934 106.8364 111.9569 114.4791 133.6738 127.9851 128.2225 128.274 128.1896 128.1604 127.8159 129.1332 110.4698 127.7262 127.9267 128.0897 128.3542 115.996 126.3376 128.7581 127.813 127.1723 112.3103 121.5052 127.8344 127.6417 127.6041 127.5395 127.5472 127.5418 127.5138 127.9038 118.7296 120.0999 119.1546 112.5285 105.0762 105.9524 129.41
134.7 134.7 134.8 134.59 133.89 134.2 131.96 132.6 130.87 107.94 107.86 107.79 107.72 131.42 107.57 107.51 107.42 107.36 121.7 107.21 107.12 124.22 124.22 136.34 135.49 135.49 111.7 111.7 106.58 131.38 128.42 128.43 128.35 128.26 128.27 128.18 128.1 128.12 128.02 128.03 127.95 127.95 117.75 127.92 127.77 127.79 127.8 108.45 108.27 127.71 127.72 127.59 127.6 127.6 127.61 127.61 127.61 127.6 127.6 117.7 114.22 105.71 105.71 105.7
