121.0800 106.8800 116.7100 116.3200 113.9000 107.3300 119.3100 118.9600 118.4300 117.5100 115.2400 117.3200 116.4500 120.0400 110.0300 120.6800 110.0700 117.8700 117.8700 122.0400 115.5900 119.3000 116.9900 112.4100 111.9500 111.9500 109.1500 104.5800 105.0100 105.7200 103.1800 103.0300 113.8400 102.7800 103.7800 124.5100 124.3800 124.2500 124.2800 124.1600 119.8400 131.0800 123.9000 123.7500 109.3000 109.3000 123.4400 123.4700 123.3000 123.3200 123.1300 123.1700 123.1900 123.2000 122.9800 122.9900 122.9900 122.9900 103.5900 110.3300 110.3300 116.4600 123.1500 123.1300
121.0800 122.5332 120.9389 117.6560 119.0825 107.9571 112.7027 117.8250 119.2507 117.7909 116.7623 113.4178 107.1371 112.0572 113.8425 119.5609 111.5806 113.1177 119.4362 122.5313 105.1358 112.3343 109.9237 108.5567 112.0663 112.4438 108.1756 104.5703 104.3289 104.8576 104.1363 102.2037 108.1770 103.3728 105.3157 120.1682 111.2995 113.2025 124.3313 115.7777 123.2109 128.8642 123.0231 123.3033 119.2405 118.9272 124.3229 123.2183 123.1961 123.0947 123.0597 123.0129 122.9802 122.9472 122.9609 123.0315 122.7391 121.2274 99.3929 105.7144 108.6224 121.0254 123.7749 123.1300
124.4000 122.7013 123.6897 120.6841 117.6981 114.1165 109.3961 107.6786 113.7832 119.0389 108.3860 113.9216 110.4942 118.8256 116.2704 111.8442 112.4800 114.9859 112.1116 123.8187 98.9809 113.2732 112.8952 106.8081 106.1455 107.1430 108.3776 109.2574 106.8846 106.8056 105.2698 114.9169 119.4943 104.6024 103.3821 109.8726 117.6618 125.7272 125.1239 122.3020 124.3285 124.0972 123.3970 123.4536 124.3776 113.4045 113.5735 124.5358 122.9246 122.8373 122.7999 122.7457 122.7108 122.6741 122.5849 122.4890 122.1267 120.8526 100.2257 105.4300 101.0162 103.6150 122.4918 122.8800
124.4000 125.4936 128.3430 125.1505 123.9272 121.8723 117.2658 112.0804 109.8207 112.4151 118.0467 117.4774 116.9904 110.1599 109.6080 112.3605 110.5615 114.8293 109.7135 112.9782 113.5635 110.8633 116.0228 111.3559 105.5783 106.5285 107.0001 116.6620 109.7790 101.3408 108.6965 128.7893 119.4077 105.2422 107.7478 118.8134 130.8327 121.7445 123.4270 121.8254 125.3099 123.2662 123.2167 123.0314 123.4893 113.2921 112.1556 123.7221 122.6119 122.5926 122.5270 122.4769 122.4313 122.4082 122.4128 123.1242 123.1255 123.9050 104.1096 107.4163 105.7524 99.5735 122.8213 122.6300
121.8700 126.4401 130.3862 132.2002 114.0869 111.4526 121.5754 118.1434 111.8249 108.7930 107.9870 111.1434 117.6540 104.4948 112.2439 108.5564 112.0488 110.7377 113.7140 112.9099 113.8954 117.4494 117.7947 110.1245 111.9742 102.3831 109.8317 110.6028 106.2287 105.6227 108.7599 126.8884 121.3086 115.6536 118.7936 116.3917 124.1935 121.3827 123.8718 121.6079 123.4280 123.0566 122.9742 122.8252 122.9117 119.2602 112.0625 119.7172 122.2868 122.3127 122.2538 122.1927 122.1491 122.1309 121.9788 117.9432 112.6341 106.6045 109.9262 115.8729 109.7538 120.1481 123.2852 122.3700
121.8400 121.6227 127.9990 123.3216 114.1978 106.8738 107.1080 125.7076 115.7698 119.4255 110.8226 109.6951 112.2524 116.1577 114.9540 111.8646 107.2003 110.7456 110.4731 113.8777 116.5399 109.3388 115.4832 115.8827 108.9754 112.0077 108.2611 106.6568 111.8143 117.9083 104.7955 111.7551 128.8533 126.0938 110.4730 119.5643 124.2377 123.4551 123.1891 123.1878 123.2641 122.8204 122.4769 122.5895 122.3865 123.9538 116.6269 122.9484 122.8073 122.0034 121.9445 121.9133 121.8545 121.8502 121.6992 118.5442 103.9535 100.4593 117.4161 119.5856 117.5421 113.4817 122.3697 122.1000
122.7300 125.1370 118.1413 120.0501 121.6815 107.4285 119.2657 124.4666 119.0775 116.1582 118.7178 106.9376 107.2843 107.6505 110.8826 111.9421 112.1994 108.6057 109.9726 114.3260 111.4396 114.0717 106.8650 115.1524 115.8830 108.2485 101.1703 116.6095 125.4726 124.2761 121.9072 124.6726 117.3900 107.5473 121.4443 124.3600 123.0204 123.2382 122.9039 123.2741 121.3415 123.0809 122.4775 122.4119 122.0468 122.0987 118.6683 117.3218 120.7007 119.9189 121.7092 121.6082 121.5541 121.5202 121.4135 121.3426 121.6492 100.6898 116.5943 119.1169 116.7946 121.2937 121.6906 121.5400
121.0200 122.3299 120.2993 123.9066 128.1965 118.2051 119.1532 118.9679 118.5865 109.3598 116.4086 118.8432 103.3692 104.5022 110.9025 112.2529 112.5891 110.4257 111.7920 109.0104 107.8476 109.9616 110.9209 108.0530 113.9889 112.2978 111.2642 102.9864 114.0943 124.9512 123.7905 123.8770 123.7727 119.5053 123.9470 123.0727 123.1174 122.9201 122.7928 122.6182 122.8469 121.4389 121.5237 122.0570 123.1383 122.2421 116.3892 112.9389 121.1836 121.5108 121.4027 121.2986 121.2342 121.1941 121.1321 120.8729 124.4387 99.2715 123.8746 121.5978 121.5146 121.2130 121.3831 121.2500
123.4400 125.5463 127.8109 127.2358 124.7473 118.7853 118.0560 117.6486 117.2160 117.6335 118.9097 109.4098 104.6798 104.7744 104.4320 110.3464 110.3105 110.6792 114.6531 110.7659 108.5167 109.3846 111.0407 104.7351 114.1035 112.3153 108.6676 109.1117 114.2483 113.6258 123.6233 125.2578 110.9753 116.2698 122.9774 123.0490 122.8821 122.7139 122.5517 122.4032 123.3827 109.4023 123.4368 121.5998 120.6016 102.3582 114.9339 120.9583 121.5561 120.9870 121.0211 120.9819 120.9235 120.9017 120.8379 120.7728 121.3522 120.9237 120.6655 120.7909 120.7805 121.0324 121.0994 120.9400
122.0800 122.0684 125.9204 127.6606 125.6102 117.8075 117.7674 118.1924 121.4980 118.1739 121.3134 106.1290 105.4415 112.1490 116.4102 113.7050 111.0220 110.7229 111.4447 108.9028 113.0986 106.9348 108.4363 109.0019 112.6095 122.1009 113.1991 125.9106 115.6814 117.0667 122.8439 125.4537 116.7886 119.0376 123.2389 122.6501 122.6891 122.4932 122.3467 122.0975 123.6142 117.2369 123.1726 121.8772 119.8063 118.0333 114.9988 117.9741 120.5693 120.7522 120.7221 120.6114 120.4803 120.5323 120.5075 120.4000 120.2446 120.2480 120.5651 120.3961 119.6885 123.4338 123.3782 120.6200
119.9300 119.5094 122.0199 124.2805 120.7658 118.9944 117.1171 118.3362 122.0759 119.8980 118.0027 117.2865 105.9864 107.4417 108.8730 107.0016 109.8877 112.3209 108.9010 104.8584 107.8739 104.4589 105.9952 107.0968 116.5759 118.3911 126.6408 124.8976 125.1318 124.5889 123.4968 124.3158 104.1707 106.9544 123.8621 122.5687 122.4713 122.2829 122.0889 121.7241 121.2457 121.9295 121.5898 120.9606 123.3415 120.0507 114.9542 121.5608 120.7594 120.3863 120.3814 120.4559 120.8026 120.1057 120.1146 120.6727 120.7166 120.4006 120.1020 120.1728 118.8542 112.1269 128.1500 120.2900
109.1900 111.1284 113.6109 118.9032 125.4210 120.9736 114.4911 117.4782 120.3099 113.7762 115.7692 116.6137 118.3548 117.5713 111.6234 105.6655 110.1433 115.9763 102.1497 110.6320 103.3968 106.5168 107.6478 104.1790 116.4712 122.6484 124.6792 123.6897 123.7205 123.3480 122.8791 125.2911 109.1161 124.2301 120.3379 122.5066 122.2668 121.9134 122.2048 122.1440 121.4406 119.2163 108.9920 120.7986 120.0178 120.4988 120.9485 120.3414 120.1924 120.1329 120.0262 120.0948 114.8543 120.4986 119.5995 117.4246 113.9296 119.3150 119.7198 119.7676 118.5747 123.7275 119.7467 119.9500
109.9400 112.6994 117.5973 114.7212 117.5798 121.3266 121.0052 121.0291 116.8987 121.1507 109.1745 112.4487 117.6256 113.6941 121.2726 114.9267 107.7866 109.6716 100.5629 105.8719 112.4737 120.8417 102.2822 111.9908 118.4761 115.9934 123.8735 123.8039 123.5903 123.5334 123.3105 118.3212 100.1836 121.6695 120.5625 122.3953 121.9889 121.9998 119.9993 120.2480 122.3458 124.0270 118.6313 104.6036 120.9942 120.2186 120.1092 120.0415 119.9064 119.7503 119.6561 119.6903 118.4631 119.5897 119.0387 119.2814 106.5134 120.0765 119.1828 119.3735 119.3861 118.9861 119.7407 119.5600
117.4800 110.9616 112.8329 109.7271 121.2454 113.3535 115.5898 117.9336 119.8544 117.4818 108.9133 117.0577 115.4805 118.5990 116.1076 118.9468 116.6175 113.3181 110.3651 121.2531 108.0013 110.8792 106.0187 109.7305 110.4500 123.1987 125.8300 123.2800 123.3224 122.9704 124.7622 102.5093 104.5326 121.6989 122.6860 121.9207 121.8039 122.0807 111.7890 120.7771 118.7986 96.7120 113.0198 117.8194 114.9781 120.0329 119.8435 119.6784 119.5281 119.3952 119.2669 119.1599 119.1562 118.9611 118.9868 118.8665 121.7112 118.7347 118.9651 118.9858 119.0548 119.2124 119.2116 119.2200
116.9900 115.8053 114.8824 114.5376 110.5883 112.1228 113.6357 112.9218 114.3360 113.8793 115.3196 118.3318 113.6183 114.7531 105.9643 114.2615 107.8515 104.3193 107.6644 114.6245 103.2620 118.3356 118.0165 114.6804 109.6901 125.1796 108.1599 124.0484 123.7756 123.0229 123.1349 111.0030 115.3396 122.1377 122.0024 121.8285 121.3479 121.2168 113.2564 121.9559 121.1360 117.1532 121.6374 120.4163 115.7260 120.5602 119.4712 119.3139 119.1514 119.0027 118.8681 118.7534 118.6475 118.5935 118.5190 118.4995 118.0647 118.4966 118.4976 118.5578 118.6248 118.7111 118.8351 118.8200
116.2000 118.8700 115.6131 116.1169 116.5313 116.2703 111.8709 112.0314 107.2804 111.3404 111.1806 109.7075 108.8747 122.1480 110.1393 119.1249 106.9693 104.1926 123.0848 116.3377 122.5012 122.7539 126.0062 125.4492 110.9085 125.0255 118.9260 120.8341 123.0574 122.8144 122.7991 121.9279 121.7084 122.1794 121.8185 121.5910 121.3595 121.8930 120.7043 120.5194 120.5901 114.2261 114.4887 120.5207 119.5820 119.3580 119.1725 118.9353 118.7673 118.6024 118.4517 118.3235 118.2139 118.1241 118.0618 118.0178 118.0832 118.0151 118.0493 118.1117 118.1875 118.2948 118.4091 118.4100
120.1800 120.0655 114.3037 117.1735 117.4270 119.5442 117.5963 118.2504 110.4464 105.9754 106.7475 115.3555 115.6180 108.0191 110.1719 112.9731 104.9238 103.4556 113.5694 114.8135 121.8717 123.4862 124.2124 124.1032 122.6003 124.6514 126.3111 123.2884 123.3136 122.8128 122.5665 122.3616 122.3189 121.8590 121.6251 121.3734 121.1430 120.8642 120.6344 120.3984 120.1274 120.5452 119.5270 119.4627 119.2563 118.9706 118.7611 118.5494 118.3687 118.1836 118.0192 117.8801 117.7570 117.6601 117.5871 117.5475 117.5140 117.5312 117.5758 117.6392 117.7307 117.8395 117.9765 117.9900
120.2100 119.4472 116.8203 116.5592 115.9475 122.1026 115.4534 118.7611 116.9979 116.6433 113.9175 109.0537 105.6640 114.3357 106.1463 108.3520 109.5555 107.0372 117.6951 105.5912 117.0566 125.1043 124.2068 124.0390 123.3229 120.7823 110.7070 123.7690 122.9391 122.4496 122.4248 122.1592 121.9132 121.6785 121.4225 121.1725 120.9147 120.6443 120.4281 120.1444 119.8742 119.6271 119.3592 119.1158 118.8570 118.6113 118.3800 118.1538 117.9442 117.7482 117.5697 117.4114 117.2745 117.1622 117.0843 117.0335 117.0175 117.0210 117.0697 117.1343 117.2371 117.3655 117.5166 117.5200
117.4400 128.4000 119.2514 115.8910 115.4193 116.7153 118.2106 115.0725 110.3935 114.4329 113.4349 116.4819 114.0188 107.4877 103.3582 107.3962 106.0311 115.9256 115.2427 107.3530 127.2703 124.6537 123.9567 123.8858 123.7593 121.6078 122.3957 123.1434 120.2496 122.6650 122.2552 121.9877 121.7490 121.4821 121.3033 120.9582 120.6063 120.4195 119.7582 118.9958 119.6816 119.3273 119.0392 118.7732 118.5057 118.2463 117.9839 117.7451 117.5085 117.2911 117.0952 116.9173 116.7662 116.6405 116.5540 116.4898 116.4694 116.4878 116.5321 116.6139 116.7227 116.8917 117.0154 117.0400
120.0500 115.1062 116.8985 117.6978 110.8688 114.1254 115.7635 113.3872 113.4752 111.5238 112.7360 118.4077 113.1262 107.3260 103.8741 113.5284 105.3418 117.6398 117.4400 109.7793 125.9672 121.5029 124.1741 123.7212 123.7894 125.0744 112.6716 125.7917 111.0301 124.5067 121.6917 121.8763 121.6017 121.2317 120.9145 120.9548 121.3736 116.9937 122.5833 119.7884 119.3331 118.9892 118.8308 118.4214 118.1391 117.8696 117.5859 117.3146 117.0563 116.8142 116.5985 116.3984 116.2256 116.0849 115.9862 115.9220 115.8941 115.9083 115.9618 116.0510 116.1908 116.2298 116.6755 116.5200
115.4500 113.5724 115.4552 115.3398 117.7112 111.2661 110.3875 109.7583 110.6610 112.6466 115.3869 115.7691 116.4241 114.9167 105.9864 109.4381 107.3359 112.0984 124.6320 119.3143 123.6139 124.1309 123.6601 123.2073 122.9571 116.1803 103.5634 103.6002 120.0209 122.1775 121.9680 121.6796 121.2641 121.2475 118.5030 113.4596 118.0870 105.0655 114.9611 118.8450 119.0195 118.8133 117.3415 117.7986 117.7956 117.4894 117.1796 116.8713 116.5888 116.3215 116.0702 115.8487 115.6540 115.4965 115.3786 115.3000 115.2752 115.2927 115.3490 115.4466 115.4208 116.7143 115.5635 115.9700
105.8400 109.3707 113.8001 110.6197 112.8014 115.2410 114.5630 116.7480 111.4712 110.6377 109.1046 115.8602 121.2842 115.9922 117.0702 109.9798 106.5283 117.4900 121.9338 119.4414 123.2565 124.1803 125.9363 124.8054 122.0503 112.7545 101.4358 126.9943 122.8664 122.1168 121.6594 122.2101 122.5152 117.7165 119.1664 105.4204 105.0174 115.5437 105.3464 119.5598 118.5180 118.9817 114.4005 117.7849 117.2873 117.2358 116.7406 116.4167 116.1049 115.7968 115.5232 115.2690 115.0453 114.8686 114.7256 114.6417 114.6064 114.6221 114.7111 114.8688 114.9469 114.7675 117.7226 115.8900
113.7800 114.7642 113.7693 108.8433 110.3863 110.2760 110.3794 113.7855 110.5416 116.2467 116.6885 112.7145 106.1544 106.4581 108.7103 105.0199 105.6383 125.5155 119.1986 121.7289 124.2924 124.9742 112.3179 114.1550 112.9833 122.2026 108.8693 123.4186 122.3524 121.9666 121.6664 118.2837 113.8192 110.7782 110.8090 114.3658 115.2064 106.2347 106.7347 112.5303 121.7159 117.3146 118.4430 110.4778 109.3709 116.9115 116.2896 115.9104 115.6028 115.2523 114.9455 114.6537 114.4007 114.1908 114.0282 113.9226 113.8744 113.9228 113.9843 113.9691 114.2848 114.8710 114.7416 114.7500
105.7300 115.1017 111.1737 114.2696 112.0322 111.7835 109.6364 111.8152 105.0991 103.4063 111.0727 112.5438 105.4667 111.0027 107.8189 106.1873 109.0137 121.1974 131.2715 124.3070 124.0046 124.1650 112.5061 94.3551 110.3484 112.5519 104.3067 125.9975 121.9736 121.8336 121.8731 114.3002 112.8263 111.5844 121.3266 119.3013 122.2187 119.3018 114.6800 100.4902 108.6249 120.2319 118.0454 110.0947 111.0313 113.6780 115.9159 115.4825 115.0885 114.6898 114.3364 113.9964 113.7021 113.4555 113.2662 113.1458 113.0874 113.0476 115.5167 113.6398 113.6197 113.8806 114.2443 114.7500
115.5700 114.5783 105.9085 115.4865 112.1890 112.5053 111.6372 116.5028 111.0073 113.4307 108.1983 112.5277 106.0788 112.1918 108.1454 108.4489 112.3439 114.7347 109.4697 123.2228 123.6518 123.6015 126.2402 100.2010 139.5526 112.6927 121.9094 122.7756 121.6692 121.7501 121.2756 118.8856 104.2181 120.2817 108.1220 102.7221 119.3536 118.9893 115.5620 114.0682 106.6755 105.9260 116.3868 117.3891 116.9976 113.1320 115.5295 114.9093 114.5449 114.1029 113.6953 113.3039 112.9535 112.6604 112.4177 112.2542 112.2195 112.2225 112.2680 112.5308 112.9214 113.1965 113.5731 113.2900
117.2700 116.8265 112.4960 114.2079 109.9413 115.9200 107.0126 113.8770 116.8357 115.9664 109.3088 112.3462 103.9680 109.8011 104.0726 108.6813 122.6748 117.2614 123.3375 125.4412 123.8899 123.7697 123.4025 119.9632 106.8200 118.1034 129.3608 124.8909 122.0072 121.5507 121.3265 122.2133 103.0675 103.8846 95.4889 113.1025 116.0764 101.3807 106.6792 108.4693 119.3337 121.3210 112.7189 116.8739 115.7504 115.4525 115.0147 114.4957 113.9875 113.4990 113.0205 112.5678 112.1531 111.7994 111.5202 111.6228 111.2463 111.3204 111.4768 111.7147 112.0292 112.4353 112.8801 113.1700
115.1100 112.8985 127.2134 119.2689 125.6715 112.1220 109.9730 107.8559 113.7033 113.8175 111.8228 111.0023 108.5316 110.1181 106.7636 114.5323 114.6019 124.3494 121.5840 124.2423 123.7946 123.6384 123.4385 123.7327 124.7225 123.2381 122.9794 123.2527 121.8606 121.5031 121.2187 120.9580 119.7990 112.6409 108.7353 127.7523 122.3110 96.8976 96.7307 108.7530 115.6888 118.7752 115.7060 116.2012 115.6137 115.0809 114.5270 113.9881 113.4300 112.8690 112.3120 111.7803 111.2818 110.8450 110.4470 110.5659 110.1597 110.2173 110.4134 110.7325 111.1470 111.6211 112.1590 112.4500
127.5700 126.1739 125.6244 114.0489 117.5099 117.8283 113.5760 107.6654 108.8142 109.0560 106.8686 105.1621 104.4391 104.7837 105.5314 108.3495 108.7274 123.7313 122.5153 124.3072 123.8648 123.6129 123.3577 123.1089 122.7468 122.5041 122.2972 121.9873 121.7595 121.4212 121.1187 120.8771 121.0397 107.8298 101.0737 99.7882 118.2638 114.5655 118.0883 116.7877 117.0880 116.8200 116.3251 115.7655 115.2705 114.6967 114.1061 113.4990 112.8708 112.2241 111.5776 110.9508 110.3430 109.8040 109.3657 109.0234 108.9190 109.0097 109.2593 109.6562 110.1718 110.7674 111.3941 111.5700
127.5700 112.4292 125.5562 113.4646 115.0779 112.9708 112.6443 109.1817 114.5672 112.8987 116.5227 110.6845 106.5902 104.1189 104.5242 103.0385 112.3744 123.9433 123.9902 124.1151 123.9546 123.5902 123.3139 123.0520 122.7698 122.3668 122.2389 121.9368 121.6577 121.3515 121.0520 120.7619 119.2672 121.6000 100.0897 100.9807 118.4137 112.0634 118.2604 117.5189 117.0289 116.5810 116.0733 115.5167 114.9399 114.3316 113.6952 113.0155 112.3141 111.5878 110.8326 110.0747 109.3320 108.6429 108.0631 107.6674 107.4891 107.5911 107.9316 108.4599 109.1239 109.8532 110.6116 111.3100
127.5600 122.8837 114.7027 112.5281 112.6379 111.5159 115.6753 115.6156 112.3495 106.2683 110.6771 102.6635 116.6235 114.2224 124.0033 104.8697 127.8678 124.4888 124.1294 124.0084 124.0471 118.7229 123.4324 122.9804 122.8085 121.8323 122.0272 121.8416 121.6041 121.2893 120.9960 119.6442 110.1138 96.7605 100.6497 119.5756 116.6909 101.3102 117.9535 117.3036 116.9369 116.3994 115.8496 115.2676 114.6506 114.0037 113.3007 112.5683 111.7858 110.9547 110.0750 109.1699 108.2480 107.3650 106.5779 106.0029 105.7598 105.8913 106.3770 107.1082 107.9805 108.8916 109.8105 110.3900
127.5500 126.4456 128.4111 116.0233 113.2608 111.4520 111.7515 107.7650 110.6382 110.6463 106.9977 109.5367 115.0162 109.2541 113.9724 117.8892 122.4564 124.0243 124.1817 123.8756 125.6412 109.6221 125.4717 123.3381 122.4123 122.4942 122.2680 121.8203 121.5459 121.2440 120.6186 119.7662 100.8211 102.2337 97.5258 112.8424 116.4148 119.8609 118.1272 117.2361 116.7409 116.2155 115.6449 115.0426 114.3907 113.7030 112.9551 112.1484 111.2837 110.3515 109.3330 108.2514 107.1062 105.9345 104.8425 103.9832 103.5861 103.8129 104.5575 105.5957 106.7628 107.9192 109.0286 110.1100
127.5500 127.9067 128.3379 117.8092 112.2625 111.5546 111.4992 112.1520 111.0403 111.6688 104.5884 103.5316 113.3283 108.7476 110.4033 103.9788 120.9338 123.4413 124.3362 124.8964 115.3083 125.3230 124.7967 116.7402 118.2778 122.5350 121.9891 121.7923 121.5003 121.1716 120.9284 121.0196 107.6542 110.4530 103.8598 102.8747 109.8348 117.7036 117.3344 117.1570 116.6407 116.0914 115.4889 114.8521 114.1795 113.4423 112.6555 111.7933 110.8510 109.8005 108.6555 107.3683 105.9431 104.3984 102.8016 101.3997 100.7156 101.0970 102.3336 103.9440 105.4974 106.9623 108.2856 109.0600
127.5400 125.5226 127.3658 113.0943 110.8947 108.9051 109.0043 109.1912 106.2855 105.1364 105.0079 105.6613 102.1801 101.3994 111.1528 116.3035 117.8942 121.1457 124.2992 121.4311 102.2653 121.9878 122.6770 110.8411 120.4430 120.1926 122.1036 121.8159 121.4645 121.1452 120.7998 120.2902 122.2827 120.5596 116.3718 121.4072 120.1353 118.1576 117.6806 117.0628 116.4426 115.8869 115.3638 114.7081 114.0119 113.2429 112.4139 111.5046 110.4925 109.3553 108.0643 106.5789 104.8495 102.8142 100.4195 97.9046 96.1854 97.2294 99.7518 102.1362 104.2824 106.1051 107.6535 108.8400
127.5300 125.0568 116.3086 110.9807 111.0541 110.9711 110.3737 106.3743 107.0141 106.8202 105.2636 104.8093 102.6715 104.9263 102.1395 100.1617 115.9355 111.0043 124.9161 123.8525 121.7048 123.9967 122.1694 125.3187 110.9556 123.2985 121.9613 121.7097 121.4401 121.1309 120.8084 120.1503 118.7715 109.8966 116.6228 118.7596 118.3371 117.7440 117.5264 117.0029 116.9575 116.3978 115.2693 114.6100 113.8942 113.1114 112.2511 111.3047 110.2418 109.0284 107.6312 105.9797 103.9618 101.3943 98.0561 92.5545 89.4608 91.0718 96.6660 100.4837 103.2954 105.4391 107.1802 108.6700
118.5300 121.3527 114.7372 113.3758 113.2990 113.7164 113.2992 111.9913 109.6328 109.8736 108.6590 105.7013 114.2702 103.8287 103.0758 101.7247 117.7617 124.3053 125.2710 123.9177 123.6140 122.5768 121.1242 122.5848 123.1295 122.4412 122.2870 121.8294 121.2499 121.1170 120.7743 120.4335 120.6693 102.0356 101.4745 115.0970 115.7159 117.3575 117.6038 117.0416 115.3461 111.4675 115.6363 114.5651 113.8318 113.0478 112.1722 111.2031 110.1117 108.8669 107.4138 105.6610 103.4722 100.5341 96.1874 88.2786 84.9876 86.8356 94.0406 99.4531 102.7239 105.0774 106.9334 107.4900
119.4300 119.2681 116.7111 115.5020 115.6325 116.5807 115.2359 117.0736 114.2199 111.8506 109.6147 105.2963 124.4675 104.5539 103.3920 103.2038 122.0692 119.2270 124.6453 123.8816 123.6521 123.5828 123.3092 122.9647 122.5234 122.2407 120.8615 119.0374 121.2124 121.2114 120.7789 120.5547 120.0556 112.3478 92.1030 112.8506 114.6713 117.2916 117.4710 117.0442 114.9771 107.8477 115.9856 114.5243 113.8349 113.0495 112.1749 111.2138 110.1203 108.8801 107.4280 105.6889 103.5100 100.5997 96.2885 88.6583 85.4099 87.0541 94.3094 99.5366 102.7676 105.1113 106.9512 107.5100
114.7500 114.8363 113.1466 111.2179 111.1738 111.0612 110.6761 110.7102 109.2314 106.8311 104.8440 103.9150 104.6025 110.2362 102.5277 123.3295 123.9124 123.2110 124.2523 123.9257 123.6546 123.3827 123.0834 122.8016 122.6764 121.6141 118.6278 113.5763 121.3060 121.2206 120.7867 120.4946 119.8533 117.4326 117.5861 118.3643 118.7941 119.2021 118.2431 117.0678 116.2176 115.0186 115.2861 114.6211 113.9060 113.1249 112.2732 111.3195 110.2663 109.0644 107.6841 106.0490 104.0711 101.5775 98.3413 93.4068 90.3427 91.9401 97.1395 100.7068 103.4116 105.5183 107.2425 108.6000
117.7300 117.1505 113.4642 113.2382 113.1540 114.8102 109.4551 111.5102 107.5889 104.4725 106.5298 103.4079 120.5774 122.8398 121.6822 125.0801 124.7228 124.1646 124.2004 123.9226 123.6806 123.4516 123.4388 123.0418 122.3540 124.6235 101.1198 124.7264 121.4998 121.1013 120.8161 120.4763 120.5942 117.0212 98.2878 100.2665 123.0964 96.3621 119.9963 117.0267 116.5947 116.0579 115.3853 114.7241 114.0256 113.2756 112.4456 111.5390 110.5376 109.4092 108.1376 106.6807 104.9983 103.0335 100.9769 98.5223 97.0319 97.9285 100.1262 102.4164 104.4639 106.2230 107.7421 108.7400
116.9900 117.9384 113.7415 112.4853 111.7810 111.6057 110.5544 109.8140 109.8311 105.7768 106.9899 114.0447 119.4660 110.4638 128.0811 107.4925 124.2049 125.2652 124.2535 123.9440 123.7409 123.2539 119.4398 119.8743 121.1204 121.4702 122.3436 121.6389 121.5023 121.1684 120.9282 121.7787 103.0109 99.6795 114.1329 119.0788 119.1547 118.1814 117.5224 117.1836 116.6471 116.0975 115.5040 114.8812 114.2085 113.4832 112.6956 111.8349 110.9098 109.8820 108.7452 107.4867 106.1065 104.6274 103.1190 101.7771 101.1520 101.5104 102.6918 104.1894 105.6931 107.1025 108.3996 108.9400
111.1600 111.4717 110.8181 110.6660 110.5297 110.6140 109.0312 108.6123 105.8385 105.5415 121.1053 112.6975 122.0042 126.6002 110.4835 108.9133 126.9435 124.4068 124.1972 123.9816 124.3127 123.1728 123.1615 125.2435 104.1342 123.7734 118.0914 122.4764 121.5396 121.1928 120.9714 120.7742 121.0775 121.0401 119.5980 118.9560 118.5937 118.0656 117.7797 117.2594 116.7762 116.2392 115.6733 115.0680 114.4294 113.7427 113.0008 112.2092 111.3536 110.4321 109.4399 108.3831 107.2691 106.1654 105.1074 104.2896 103.9174 104.1309 104.8434 105.8355 106.9489 108.0645 109.1386 109.9800
117.5400 111.9566 110.6449 110.7627 109.2166 109.2375 109.3035 109.4288 107.3037 103.5200 104.1747 125.6626 105.0744 126.6656 126.1481 125.9894 124.5538 124.4658 124.2497 124.0800 119.4589 123.9002 123.0374 125.7411 101.6534 110.1434 116.6264 120.6661 122.4271 121.2503 121.0241 120.4487 119.7505 117.1598 119.4121 119.3172 118.9431 116.0283 117.9189 117.3469 116.9373 116.4147 115.8731 115.2988 114.6925 114.0493 113.3580 112.6252 111.8579 111.0405 110.1821 109.3009 108.4088 107.5544 106.7966 106.2462 106.0121 106.1507 106.6150 107.3207 108.1512 109.0428 109.9337 110.2300
117.5500 111.1169 110.8146 111.2446 106.2063 106.7055 105.8712 109.7025 107.4163 106.2419 104.5991 115.8510 114.7375 124.6585 124.2943 124.4432 124.8086 124.4562 124.0863 125.9498 108.3537 123.3379 123.5584 124.6813 110.2259 104.6588 120.7012 118.1680 115.3422 121.8655 121.1878 120.6122 116.1529 120.5372 119.2619 119.4248 118.8138 118.5624 118.0514 117.5998 117.1173 116.6334 116.1011 115.5652 114.9828 114.3820 113.7515 113.0856 112.3924 111.6770 110.9452 110.1963 109.4777 108.8071 108.2586 107.8694 107.6977 107.7879 108.1206 108.6426 109.2792 109.9893 110.7280 111.1700
110.3900 110.4947 111.9935 113.3600 111.7803 109.4193 110.1393 106.9501 117.6772 107.8297 106.5268 109.2465 113.4320 122.6242 126.0340 128.6740 124.7229 124.4938 124.1928 124.3844 113.7832 120.6942 123.1290 123.8500 113.5411 125.9864 121.2061 118.2700 112.5880 121.5697 121.2216 120.5089 122.3048 110.7845 121.4286 119.4100 118.9824 118.5722 118.1806 117.7687 117.3226 116.8510 116.3510 115.8420 115.3198 114.7575 114.1683 113.5714 112.9526 112.3207 111.6882 111.0715 110.4811 109.9533 109.5231 109.2358 109.1215 109.2224 109.4475 109.8159 110.3273 110.8910 111.5143 112.2700
116.8200 113.5554 107.8171 110.5891 107.3431 105.5431 108.5366 107.3670 103.8546 104.8983 122.3995 114.2999 104.3222 116.5334 127.6693 126.2389 124.8734 124.6077 124.3588 119.4551 110.9346 126.8423 124.7098 123.0843 123.3276 121.5624 117.6655 123.7002 124.1757 123.0147 121.1481 120.6799 121.4593 98.2978 121.2005 119.5661 119.4042 118.7422 118.3990 117.9761 117.5402 117.1011 116.6640 116.1576 115.5917 115.0983 114.5740 114.0651 113.5084 112.9631 112.4180 111.8967 111.4076 110.9830 110.6505 110.4183 110.3205 110.2219 110.4373 110.8983 111.2816 111.7429 112.2622 113.0400
117.7400 114.9349 107.5666 107.8598 108.1865 107.5959 108.0929 104.5695 103.2940 106.1352 115.2755 118.5831 117.7920 123.7586 124.3960 124.8867 124.8077 124.6457 124.3206 125.1228 125.7725 110.8889 124.2258 122.8194 122.9994 123.5864 113.2253 109.5547 115.0072 120.0601 121.0683 120.8416 122.6593 115.3791 120.5288 120.5918 118.8101 118.9580 118.6042 118.1909 117.7761 117.3377 116.7546 116.5657 116.0613 115.6676 115.1047 114.5703 114.0769 113.5823 113.1191 112.6729 112.2687 111.9145 111.6510 111.4788 111.4294 111.9574 113.2076 111.7819 112.1520 112.5509 112.9829 113.1200
117.5000 119.1515 112.9048 108.4347 109.2178 111.6687 111.4617 112.5999 111.8104 108.2737 106.2882 132.5888 127.2055 125.7761 125.4958 125.1124 124.9164 124.6198 124.3341 123.9061 124.5852 115.8093 124.4656 123.5384 122.7209 122.0476 93.8710 116.7850 94.4674 117.4837 121.2553 121.5384 120.4390 105.0144 117.2061 119.9046 119.3504 119.1280 118.7983 118.4140 118.0341 117.3956 117.5650 117.4899 114.3338 113.0927 115.3810 114.9950 114.6072 114.1924 113.7810 113.4030 113.0596 112.7718 112.5595 112.3641 112.4097 112.2784 112.9184 112.7032 112.9650 113.3000 113.6665 113.9900
117.8500 113.8751 112.1379 111.5758 112.2911 115.1383 111.5192 111.1633 113.4270 117.3189 123.5081 130.5130 124.5583 125.2645 125.2934 125.2993 124.8418 125.4454 124.4407 124.4346 124.2353 124.9373 121.1013 123.9474 123.0408 122.1138 118.4073 122.8557 117.9100 121.6157 121.2547 118.9515 110.5252 98.5627 110.4319 120.6921 119.8008 119.3546 119.0159 118.6345 118.2549 118.7326 112.5136 104.0831 105.8841 104.6182 117.3568 115.4590 115.1553 114.7731 114.4168 114.0921 113.7552 113.5138 113.1484 113.2247 113.2105 113.2540 113.3075 113.5295 113.7257 114.0028 114.3255 114.6800
118.6400 113.9018 112.6389 112.5369 112.5327 113.8360 111.8375 111.8687 112.6748 119.7238 122.5615 128.1267 126.6039 125.5569 125.0007 124.6618 125.5959 125.9981 124.6310 124.2081 124.1560 123.8811 120.4291 122.7900 122.8526 122.1908 123.2206 122.7143 122.0633 122.0081 121.4733 121.4418 120.4002 119.2339 119.7057 120.3735 119.9011 119.5678 119.2376 118.9952 118.2354 119.3145 101.5751 100.1840 96.0672 106.8438 117.3510 115.7293 115.7153 115.3255 115.0247 114.7449 114.4659 113.1947 113.6220 113.9827 113.9990 114.0043 114.0863 114.2159 114.4269 114.6623 114.9411 115.2400
115.6300 113.7999 112.4079 112.6903 112.5981 114.6113 110.8986 104.8107 105.3760 107.0884 119.5661 100.7918 124.7165 115.6729 125.7293 127.7754 105.7566 123.8040 121.6563 125.3754 124.5941 123.3207 117.7798 124.1211 123.2967 123.0744 122.8245 122.6061 122.3492 122.1361 122.1274 116.9389 120.0801 120.8693 120.6659 120.4791 120.1045 119.7795 119.4524 119.1716 119.0547 116.0019 104.0358 96.3518 114.7065 115.2050 116.8640 116.4757 116.2396 115.8729 115.5998 115.3561 115.1150 115.0626 114.8265 114.7291 114.6852 114.7145 114.7886 114.9128 115.0809 115.2817 115.5225 115.9200
116.2300 119.0345 113.5447 112.3840 110.5603 110.8960 107.8664 105.0134 104.8279 103.4302 117.3728 108.7720 107.5898 107.2386 110.0591 108.4027 109.8006 124.6616 126.5188 112.3545 125.6757 112.6793 122.0094 123.2256 124.1612 123.1942 122.9930 122.7493 122.3906 122.2773 122.7044 114.7637 122.5830 120.9158 119.7154 119.3327 120.5898 120.0071 119.7172 119.1050 121.1357 101.5507 109.0975 111.3329 118.6117 117.6302 117.1042 116.8561 116.6475 116.3912 116.1429 115.9291 115.7357 115.5535 115.4583 115.3887 115.3501 115.3666 115.4414 115.5420 115.6841 115.8668 116.0819 115.9200
110.5100 109.9901 110.4540 110.8543 110.3259 108.8829 108.7469 105.3803 104.5352 111.3603 113.5935 106.7137 114.0295 129.2762 111.6156 124.0208 125.5593 115.0480 121.4876 124.2801 121.5590 122.1445 106.8197 123.2908 123.2651 123.3667 123.1100 122.8273 122.2873 121.5506 124.2918 123.1038 121.6155 122.2480 104.0744 119.7130 120.1859 120.3178 119.9544 119.6282 119.4634 102.1851 107.2352 121.6714 129.5461 116.5609 117.8697 117.3364 117.1205 116.8857 116.6641 116.4663 116.2982 116.1668 116.0724 115.9509 116.7445 115.9994 116.0219 116.1388 116.2630 116.4189 116.6080 116.4800
111.3700 111.7330 110.9349 110.6111 109.2745 107.9195 112.0714 104.3635 103.7411 118.4251 120.7888 105.7994 125.0330 123.5837 104.5237 108.4945 121.4482 119.8696 98.7501 115.0330 108.9384 104.5917 109.2404 125.6956 123.5861 123.4066 123.2797 122.7449 119.9191 117.3417 122.4407 118.7120 121.3676 122.8911 110.1464 118.6432 121.4272 120.6643 120.1326 119.8695 120.7564 114.4836 111.6888 115.0714 119.4034 118.9918 118.1915 117.8140 117.5704 117.3535 117.1626 116.9889 116.8375 116.7245 116.5713 117.2984 116.8194 116.6661 116.5416 116.6796 116.8038 116.9403 117.1095 117.0000
111.9600 114.1832 110.9784 109.3799 109.2711 108.9247 105.2240 105.0199 104.7245 103.4873 109.8338 115.8382 109.7047 106.1285 125.8746 109.8454 110.1443 115.8364 101.5182 112.4066 103.4503 119.7116 122.8671 124.7132 123.8712 123.5455 123.3654 123.7838 122.3311 123.0473 114.4989 116.8438 122.6955 121.4832 115.6356 122.0032 116.2598 120.9349 120.3770 120.2951 119.2436 118.5123 91.8732 117.1951 119.0080 118.3090 118.3432 118.2143 118.0019 117.8035 117.6303 117.4690 117.3500 117.2366 116.7133 112.9378 89.9652 117.3117 116.8040 117.2040 117.3208 117.4346 117.5864 117.4900
114.7900 114.4963 110.0140 109.8740 110.0609 106.6331 103.5371 107.7669 106.5658 112.8412 106.8328 110.7328 116.0950 109.6923 124.6616 128.3030 124.8186 117.3270 113.6942 121.8071 112.1174 123.9054 122.0061 116.2886 124.0596 124.0669 123.4329 118.2572 106.5823 122.3645 105.6294 124.4429 115.9878 121.3642 107.8380 107.2450 99.5354 118.4203 120.3858 120.3744 121.0685 120.9182 106.6271 120.8615 118.2820 118.7205 118.8443 118.6095 118.4154 118.2404 118.0783 117.9659 117.7489 118.0674 118.3598 114.7253 102.4702 118.1914 117.2704 117.7126 117.7987 117.9060 118.0388 117.9400
114.7900 109.1597 110.1600 109.8177 106.1412 108.3620 109.3329 117.7130 109.7722 108.8585 106.9168 111.6631 119.4813 117.2803 115.3964 125.9403 125.5029 129.0944 118.4890 125.3935 126.2732 119.8809 120.8636 116.0979 123.3409 122.1458 126.2940 106.0024 103.3230 125.8875 111.6057 121.9652 122.3413 125.0807 105.5565 102.7086 119.9942 124.7297 120.7086 120.6980 120.0468 107.9315 121.3997 119.2741 119.5208 119.3517 119.1843 118.9981 118.8192 118.6581 118.5118 118.4029 118.2383 112.3521 110.5162 118.8045 119.6723 118.5633 117.8866 118.1708 118.2551 118.3565 118.4763 118.3800
107.2900 108.8218 107.2959 111.9901 112.7361 113.2508 117.3795 110.8630 107.1751 105.6436 116.8057 116.9964 112.6434 126.1538 120.7270 126.0290 125.6047 115.1549 122.5136 124.1070 124.5152 122.0625 124.0848 125.8490 124.0151 123.2883 116.1794 103.5496 113.8874 123.9396 114.2110 121.4414 122.4121 120.9668 101.0697 117.2303 122.8451 119.6445 115.8163 121.2174 121.8032 98.5315 120.7224 119.1298 119.9506 119.7372 119.5412 119.3560 119.2038 119.0552 118.9305 118.8483 118.5206 118.0651 118.5837 118.1356 118.0992 118.3862 118.5652 118.6245 118.6709 118.7658 118.8925 119.1400
114.7900 105.7068 105.5738 108.1077 118.1197 105.7405 119.8100 107.9652 106.8536 113.7902 105.1963 115.7683 125.6812 127.8141 126.5785 125.8788 125.9156 121.3643 127.6730 126.2099 126.3347 124.9806 127.4344 124.5057 123.7685 127.4176 104.0442 102.4959 116.5611 103.0255 122.4547 122.8759 122.4756 122.3703 117.4661 123.1902 123.6443 124.5606 121.2063 120.9967 121.0472 106.4979 116.9371 120.7836 120.2310 119.7391 119.9120 119.6770 119.5766 119.4463 119.3189 119.2280 118.9025 118.9629 118.9755 119.0146 119.9165 118.9263 118.9362 119.0529 119.1738 119.2719 119.2860 119.1900
106.2100 106.0524 108.0406 105.0331 106.0944 110.9974 120.7079 118.3477 108.0455 117.3839 118.7714 121.4984 107.2829 117.7559 125.3482 125.9335 125.5414 126.0258 123.1426 116.9687 111.2996 110.1978 122.7680 123.6539 125.5956 102.6164 104.9440 104.9169 104.2507 124.9827 122.9568 123.0340 122.8453 122.9135 122.5540 122.6245 111.7156 122.3088 121.4086 121.4903 122.0061 121.5507 121.4497 120.6246 120.6526 119.9829 120.3367 120.4144 120.0050 119.7917 119.7165 119.6045 119.5905 119.5341 119.2234 118.8629 109.1285 119.8728 119.6218 118.7961 119.3819 119.2074 119.7281 119.5700
109.6600 107.7402 113.9763 116.7511 122.8577 119.4278 114.4931 107.7309 123.4995 109.7958 108.2113 108.2530 128.3253 120.1663 127.0054 125.9538 125.8705 125.7091 130.2253 103.2237 104.4294 101.4086 123.9193 120.8705 115.5285 111.1660 107.2546 106.6701 124.9441 123.9328 123.2229 123.2112 123.0410 122.7854 122.7803 122.1047 124.1051 116.4881 121.5782 121.5616 122.6955 106.2455 120.5922 121.1834 120.4317 120.7757 121.2705 119.4803 120.5683 120.1394 119.9772 119.9823 119.9009 119.8435 119.7337 119.0306 118.4064 119.6223 120.7871 111.3042 120.0872 121.2160 118.4855 119.9300
117.5000 121.6804 123.6947 121.5433 121.5141 128.1343 127.9489 125.0956 114.2283 119.0996 113.4532 111.8194 131.9959 126.2161 126.1994 125.9597 127.3794 107.4562 119.9829 129.2950 106.3244 123.8569 101.0393 122.1527 113.3184 104.8053 112.1752 116.8373 123.8575 123.7510 123.6350 123.3624 123.2192 123.0247 122.8842 122.7530 122.1216 102.2051 118.8259 122.8295 116.2359 102.2353 119.7907 120.0102 122.0964 121.2247 120.9700 120.7925 116.6716 120.7792 120.9472 120.3121 120.2468 120.2188 120.1417 120.1982 120.1983 120.1578 120.0873 121.0082 120.1590 121.5023 103.4628 120.2700
133.7000 128.3950 128.1164 128.1693 128.6001 127.5787 127.6254 126.4010 112.5439 110.5910 112.9225 102.5963 125.9691 116.9107 122.3140 126.0567 125.9314 126.1888 125.7710 125.4045 124.9276 127.2214 126.0445 122.4808 116.6636 127.5202 104.6865 128.1481 120.7774 125.9577 123.4903 123.5994 123.3943 123.2233 122.9791 123.1912 115.5681 106.7519 124.4371 121.4230 108.1698 114.9338 117.8512 98.5879 116.0470 113.5152 121.8760 122.2643 117.1807 122.9223 116.3426 120.9254 120.5958 120.5707 120.5559 120.5255 120.5201 120.4863 120.5450 120.3519 119.2353 122.8300 123.6973 109.1100
128.3900 128.0380 128.1912 127.9961 127.8394 127.7355 124.2487 125.4387 112.4764 109.3665 128.6310 106.3432 115.3422 124.1836 112.4747 112.4655 124.1177 128.0967 125.7049 125.6875 125.4001 121.7969 114.2292 111.9317 118.5348 125.1903 111.1756 121.3285 103.8665 122.0398 123.9131 123.8077 123.5661 123.4119 123.2643 123.1431 123.7983 122.8044 122.5221 123.2442 122.6342 123.5472 118.6455 95.8732 115.8240 112.7552 103.3163 107.4381 121.5515 121.2504 115.4459 120.7984 120.9709 120.9060 120.8580 120.8500 120.8099 121.0625 120.8587 121.1576 121.2468 122.1423 98.4679 99.2300
138.1100 128.1563 128.3880 128.2083 127.8080 129.2566 114.1534 114.7338 127.8671 129.9063 129.6719 113.0900 114.6477 112.4709 110.3900 107.4187 116.4373 129.9009 126.2861 125.8443 126.2035 119.0178 117.3170 104.4577 103.1661 115.2380 104.1391 111.3643 121.3937 119.0997 124.3923 123.7359 123.7798 123.5945 123.4302 123.2787 122.9366 122.8885 122.8197 122.9766 122.3816 121.6115 124.6737 121.6767 122.5400 124.5841 114.0093 98.5886 120.9895 121.0913 122.0376 121.2942 121.2796 121.2453 121.2091 121.1998 121.1006 119.5093 120.3990 119.9047 118.9795 106.1316 99.4959 103.7800
138.1100 127.4300 128.3500 128.1500 128.0500 127.9600 127.7600 127.6500 127.5500 127.3400 127.2500 127.1300 126.9100 126.8000 126.6900 112.3900 116.7200 126.8600 126.7700 125.8700 125.7500 125.6200 125.5100 104.6600 125.1200 102.9900 102.8700 103.9300 114.7400 111.8800 124.1700 124.0300 123.9100 123.7400 123.5900 123.4600 123.2900 123.1700 122.9900 122.8500 122.6600 122.5200 122.3600 100.3800 112.0200 122.0700 121.8800 121.8900 121.7000 121.7500 121.5400 121.5700 121.6000 121.3600 121.3900 121.4000 121.4000 121.4000 99.3900 119.2000 116.3400 102.0000 104.4300 103.7800
