126.4100 126.1400 120.9400 126.4800 120.1000 119.6200 120.0500 118.1100 116.3200 113.2500 115.8800 103.9200 120.7600 113.0900 116.1600 115.4100 115.2100 115.2700 118.1800 119.6300 102.0400 118.5200 115.3500 113.1400 101.1900 112.5100 110.7400 111.9000 111.3400 109.3200 115.9600 105.0000 124.1800 119.4000 113.4000 119.7900 97.5300 96.9900 118.7000 118.4100 123.2700 122.0000 107.1500 116.4200 116.0400 115.6500 114.8200 114.3800 113.9100 113.4300 113.0500 112.3800 111.9700 111.2200 110.5900 110.7400 109.8800 109.9100 109.9000 110.8000 110.6800 111.3400 111.8700 111.8700
126.4100 122.7867 123.0790 127.1592 126.8025 123.0151 119.3352 110.8128 111.8108 108.4278 115.0373 117.0641 114.9246 114.2302 110.8461 112.4715 113.9616 117.8344 114.7303 112.5475 116.4907 117.0134 115.9524 116.3408 105.9069 112.1833 108.5106 110.8764 109.9136 109.2730 110.8854 106.5514 105.3609 112.5011 102.6061 109.8590 102.4836 93.5312 102.8394 114.8830 116.1868 120.6342 113.1027 116.5625 115.6457 117.2116 104.7338 114.8906 113.4470 113.0872 112.4776 111.8611 111.2760 110.7138 110.2143 109.8175 109.5511 109.4298 109.5030 109.7340 110.0939 110.5687 111.1128 111.8700
126.0900 120.2787 123.6555 123.6554 121.9642 122.0836 115.6393 108.0230 115.6234 102.8972 107.5406 110.0759 109.8916 112.0928 109.9296 110.0125 112.7074 115.3749 105.5173 106.7417 109.4430 118.4130 117.5409 115.6064 111.5259 110.4648 107.4232 101.5801 115.0004 110.0313 112.0656 109.6011 108.4497 107.0965 103.5571 103.0083 116.6937 111.5318 107.5355 113.0637 111.4965 115.8178 116.7512 116.1697 115.5554 115.4273 101.3124 116.0451 113.1252 112.5320 111.8313 111.1187 110.4130 109.7281 109.1097 108.5922 108.2369 108.0841 108.1711 108.4696 108.9517 109.5504 110.2120 110.9100
126.0900 121.7956 118.4401 115.0262 119.7137 120.4311 120.2050 119.9995 120.6115 104.6506 106.3031 106.2939 108.8225 119.0702 112.1093 112.7147 114.9340 110.7119 107.9115 108.2004 104.1265 103.7676 109.0434 103.3961 110.2736 111.2699 110.1924 99.6689 110.7113 103.6471 109.3167 101.0625 104.6794 102.0482 103.6043 113.6229 116.9107 107.9523 121.1257 114.9038 117.7948 114.8437 116.4166 115.8945 115.2963 116.4010 104.7852 113.9521 112.6052 111.9697 111.1905 110.3652 109.5153 108.6684 107.8720 107.1785 106.6885 106.4734 106.5950 107.0141 107.6668 108.4432 109.2727 109.6000
126.5200 118.5708 117.3810 112.7257 117.6203 115.0053 113.7894 110.2545 109.0041 106.2710 104.9084 105.3673 104.7451 107.2344 109.4271 116.7320 116.2549 112.0225 110.1899 103.4255 100.3417 107.6297 107.7850 108.1528 108.6893 109.2725 115.6763 103.3934 104.1136 103.6300 118.5272 116.1151 116.0809 114.6053 115.4954 116.1512 120.4289 112.8234 118.7178 116.1665 117.3631 117.1446 116.2337 115.7051 115.0862 114.9291 109.4550 114.0284 112.2441 111.4515 110.5743 109.6140 108.6006 107.5445 106.5016 105.5460 104.8295 104.5065 104.6865 105.3173 106.2199 107.2481 108.3023 108.4400
125.4100 118.9438 117.2664 116.4757 112.7158 117.7577 112.5938 106.0071 106.0615 105.5976 107.1882 103.4057 105.5974 101.6242 108.2989 110.1198 112.0479 109.8285 109.1488 101.7477 115.4479 105.8644 112.4916 109.9038 109.1020 107.6924 107.3143 106.7060 103.4450 108.4289 126.4101 105.9819 124.3623 121.3396 118.2834 119.3458 118.7809 119.1753 118.2240 117.8646 117.2160 116.6183 116.1323 115.5818 114.9342 114.2550 113.3546 113.3110 111.9330 110.9905 110.0003 108.9023 107.6993 106.3852 104.9949 103.6491 102.4862 101.9399 102.2524 103.2738 104.6038 106.0034 107.3346 108.1300
115.5700 110.0286 118.4888 121.8066 115.8976 123.4474 110.9558 109.6413 105.7477 119.2149 112.0264 103.5072 102.3342 117.1465 110.6515 111.4407 111.0844 111.6499 110.5022 108.0128 107.6676 106.4250 103.8327 102.3143 102.0819 109.2841 115.3452 106.3942 104.9196 102.2124 101.9513 99.0321 99.7373 107.5722 120.2339 119.4505 118.9133 118.5246 118.0905 117.6779 117.1786 116.5350 115.9551 115.2600 114.7583 114.0515 113.3128 112.4867 111.6049 110.6098 109.5084 108.2702 106.8575 105.2486 103.4249 101.3646 99.4923 98.3142 98.9746 100.7902 102.8543 104.7573 106.4260 106.8100
112.6500 111.8085 125.6606 103.6701 110.9257 110.7734 111.3998 106.1438 112.7469 103.6609 103.5809 103.7970 103.7031 103.1012 108.8262 112.1407 111.7514 111.0803 110.8391 110.3415 109.7470 109.7422 109.0971 105.9714 102.4154 102.7054 117.5975 118.7460 104.9774 119.1494 112.8106 100.2527 102.9636 100.8961 111.9049 113.6491 119.5431 118.5105 118.1530 117.5624 117.1560 116.4997 115.8773 115.7369 114.2256 113.7950 112.8630 112.2804 111.3712 110.3133 109.1269 107.7663 106.1772 104.2612 101.8999 98.9486 94.7425 91.9074 93.6163 97.9315 101.0937 103.6493 105.6630 106.5700
110.2400 113.2256 113.4419 112.5741 110.4164 109.5910 109.5437 112.6698 109.2595 111.0763 107.3907 104.0029 103.6071 103.8725 110.3089 110.6269 109.8384 109.2899 108.8244 108.5860 110.1824 111.3356 105.8844 103.3747 103.2306 108.4615 109.1495 107.8287 120.1028 120.0150 98.9845 102.8544 116.6504 108.6769 122.0044 119.7045 119.2281 117.6857 117.2876 115.7104 127.4125 112.5745 113.8687 101.3904 106.0897 113.5615 106.3128 112.7806 111.1208 110.1367 108.9025 107.4573 105.7401 103.6003 100.7546 96.7171 89.6016 86.1789 87.9837 94.8875 99.7435 102.8856 105.1863 106.4000
130.6300 124.0620 123.7915 123.4753 123.5115 123.0307 122.8105 113.0673 109.9366 107.9159 107.3670 104.5313 103.9590 104.7770 122.7974 106.9398 112.8360 114.1398 106.6098 104.0011 118.0980 102.4785 100.8182 101.8854 120.5315 113.9756 124.3821 112.3759 119.2710 134.4514 121.7112 122.4763 120.4852 120.1408 119.7164 118.9870 120.0903 106.9947 108.9767 100.1137 107.2300 95.6476 92.9839 96.5069 110.8362 116.1488 116.4803 112.4582 111.1779 110.0946 108.8435 107.3824 105.6283 103.4249 100.4424 95.9960 87.9532 84.2638 86.0979 93.8903 99.3901 102.6899 105.0590 106.3300
122.8500 124.3341 121.5470 122.1569 122.0271 122.4316 113.0261 111.7337 111.3001 108.9531 108.6035 102.9797 103.0107 109.4514 119.8410 108.9251 115.4899 107.6059 107.6363 116.5170 111.8536 104.5325 102.1855 102.0822 116.9744 117.6851 119.6733 121.9723 120.7593 120.5770 121.2201 121.3748 122.7001 121.4068 120.6889 120.3469 115.4918 105.9915 107.5794 101.0934 107.5844 99.1310 96.8202 99.2773 106.5783 116.7335 114.4592 111.8183 111.1797 110.1939 108.9659 107.5487 105.8626 103.7860 101.1010 97.4629 91.2911 88.1142 89.7179 95.9767 100.1784 103.1197 105.3299 106.3600
129.5300 130.3974 121.2948 121.9805 121.7594 122.0980 125.2809 124.2778 117.7298 121.0475 112.8333 109.8376 109.7218 120.7835 119.3833 116.7768 114.3542 111.2257 110.4810 120.8639 108.6206 107.3067 106.5341 107.9045 117.6690 114.7958 121.2338 123.4323 118.5328 118.2167 117.4936 115.5690 121.0401 115.1487 115.4060 115.2207 102.7351 106.2315 104.9370 102.8478 100.7088 101.9093 99.2600 100.2198 103.5472 118.0938 107.1056 113.0026 111.3907 110.4081 109.2596 107.9288 106.4046 104.6021 102.4370 99.8137 96.7166 94.4184 95.9418 99.1336 101.7447 104.0285 105.9352 107.8000
127.6500 128.0951 120.8493 121.3483 120.9704 120.9785 121.8476 120.5205 117.6186 117.0197 115.2636 122.5533 120.5085 118.3714 122.5195 121.5414 118.0134 112.3922 118.0537 114.7328 108.9750 104.4666 104.9741 105.1999 118.9030 114.8134 119.0669 116.0478 112.3469 110.0545 106.9697 108.5081 110.9393 107.8574 105.9458 106.5791 102.5198 106.7232 113.3890 110.6982 109.7566 109.4705 103.9492 101.3455 114.6463 113.6949 113.8864 112.4980 111.7189 110.7433 109.6746 108.4887 107.1529 105.6579 103.9741 102.2624 100.6374 99.8626 100.3357 101.7393 103.5111 105.2011 106.7534 107.8000
125.1900 127.8338 121.3695 121.7939 121.9563 123.1351 122.7153 123.4780 114.2991 112.3158 110.8912 108.6088 111.4103 108.5485 111.2049 111.7708 105.0174 116.2396 109.9054 103.4300 99.7476 100.5857 100.8920 102.8948 105.8089 109.0529 115.1619 115.0462 111.2211 107.5124 108.9049 105.7055 101.7516 114.2418 115.7355 116.1113 112.9904 114.1323 122.7657 118.5431 118.7205 115.2155 117.2756 110.4099 115.3363 114.3730 113.5613 112.8719 112.0641 111.1678 110.2059 109.1542 108.0295 106.8138 105.5671 104.3610 103.3881 102.9264 103.1924 104.0617 105.2156 106.4853 107.6929 108.2000
118.3000 119.1254 118.1096 114.5896 112.5181 109.9880 112.0412 109.7547 106.2867 105.1274 109.4847 107.8826 103.5033 102.3955 103.8639 102.5595 104.9324 108.7353 101.6320 101.2257 115.3771 101.1817 101.5481 112.4608 109.5304 114.2742 114.3497 110.9834 109.9389 120.0957 102.4196 106.1347 117.6743 121.8474 120.6456 120.2883 120.4939 118.7924 122.2297 117.2221 116.9248 117.3304 116.8375 116.5448 115.1293 114.5764 113.9407 113.2122 112.4174 111.6573 110.7165 109.8908 108.9285 107.9606 107.0201 106.1671 105.5404 105.2606 105.4108 105.9497 106.8120 107.7108 108.4511 109.5000
117.4000 116.7272 116.5848 112.6951 110.5939 111.8477 108.1096 104.8986 105.4885 106.3422 110.5765 106.0547 104.1885 103.5199 103.8287 103.2265 106.3113 107.0468 104.9383 117.5602 109.9188 99.7465 97.7273 123.8227 119.9158 122.5306 120.3158 120.1536 121.4994 123.5004 105.8082 103.2050 122.5886 119.9944 119.9365 119.4974 118.4987 123.9500 117.6925 118.2436 117.5397 116.6766 116.1935 116.0074 115.4501 114.8590 114.2426 113.6038 112.8667 112.2348 111.7259 110.6232 109.8461 109.0636 108.3377 107.7136 107.2707 107.0828 107.1832 107.5804 108.1883 105.5170 109.7068 110.5300
115.1000 131.2592 120.1035 113.1488 111.4198 107.6095 106.1099 105.0042 108.3806 107.8808 105.5484 106.5428 106.1834 103.5292 102.6656 102.1887 100.7951 107.2723 112.3238 133.7431 108.4671 122.0709 111.3392 131.2087 117.2724 116.1927 122.2117 122.5081 121.7509 119.5841 128.5301 126.1734 122.1769 120.4061 120.0770 119.7713 119.1453 124.7444 118.6041 117.9804 117.8119 118.4285 119.6034 116.2171 115.7005 115.1822 114.5978 113.9633 113.8408 108.4897 111.8648 111.3921 110.7262 110.0989 109.5211 109.0514 108.7282 108.5912 108.6608 108.9858 109.9711 108.8619 110.6916 110.7500
131.6700 131.2527 132.0403 113.7580 111.7805 106.9043 108.8083 106.1286 107.3001 109.2235 105.3123 105.8595 107.7327 110.9788 119.0099 115.1997 133.3837 118.3160 106.3997 116.4607 107.5315 102.8332 112.8231 111.5793 106.3968 116.8210 122.9418 122.1843 123.3425 107.0232 110.8463 121.1262 120.4255 120.5934 120.2583 119.3191 119.5167 108.6027 123.0467 118.0884 117.9142 117.3122 116.8131 116.5992 116.0179 115.5073 114.9772 114.4300 113.8621 113.3410 112.5703 112.1422 111.5736 111.0536 110.5937 110.2228 109.9834 109.8753 109.9421 109.8773 110.7386 107.6391 112.3602 111.6900
131.1600 130.8381 125.1556 112.7272 112.1606 109.9146 107.3234 107.9854 105.4551 120.5942 122.4471 132.7252 126.2926 124.3596 122.4577 115.1689 107.4932 102.0699 117.8499 109.0831 102.7467 118.2451 123.8143 107.4770 109.4614 110.1140 111.4924 108.1122 114.3531 122.5179 121.8221 121.6093 121.0469 120.6202 120.3600 121.2610 107.1931 111.9586 108.3415 101.3875 118.7012 123.6027 118.2115 116.7100 116.2510 115.9281 115.3646 114.8718 114.3553 113.8598 113.3470 112.8190 112.3639 111.9403 111.5645 111.2729 111.0794 111.0000 111.0814 111.5836 115.7991 107.7065 113.2375 112.5600
130.9000 130.2071 131.3060 133.2746 123.0013 122.2756 118.3883 113.8243 117.6002 118.2123 120.2722 125.6100 99.8002 103.8342 101.9958 102.7233 102.2317 110.7054 103.2338 115.0629 115.1915 115.6415 123.3314 122.9111 112.6347 123.9354 113.4172 122.7843 123.2873 121.6807 121.3881 121.2632 121.0911 120.7964 120.4387 119.9650 114.2423 107.2568 110.4523 115.0147 103.2990 120.4884 125.0134 116.9585 117.8468 116.1554 115.7248 115.3297 114.8596 114.3879 113.9522 113.5299 113.1197 112.7517 112.4429 112.2077 112.0535 111.9862 112.0944 111.9178 110.3861 112.1136 112.8071 113.4800
127.8100 127.5907 126.2054 122.6359 122.0623 121.6882 121.4995 111.8442 119.1980 119.9820 114.3592 116.2971 108.5297 102.7311 103.4437 102.7149 105.4647 110.4527 113.9584 127.1185 125.0204 124.0472 123.9386 123.7462 123.8958 123.5742 121.0099 116.8959 121.8464 122.2560 121.8827 121.5638 121.2205 120.9174 120.9547 120.0195 122.1262 110.2417 108.9245 103.7230 100.2675 105.6908 116.5761 117.2122 117.9495 115.3833 116.2783 115.7515 115.3339 114.9742 114.5144 114.1636 113.8283 113.5170 113.2582 113.0585 112.9328 112.8814 112.9127 113.0124 113.2891 113.5987 113.6763 114.2200
131.0700 125.6750 123.2689 122.8637 122.1210 123.1542 123.0619 125.1406 121.5237 120.0058 102.7597 103.3032 120.5841 109.1542 105.9572 114.5805 116.4188 116.2097 133.2186 128.6681 123.9976 124.1390 123.8233 123.5130 123.2136 122.9370 124.7371 124.2103 122.2277 122.1253 121.9122 121.6280 121.3585 121.1015 119.4779 119.8076 120.5735 113.8166 111.3859 107.7018 109.5181 121.3424 114.6046 108.3753 113.7841 117.0007 116.5031 116.6823 115.8807 115.0865 115.1121 114.7969 114.4908 114.2242 114.0082 113.8352 113.7326 113.6902 113.7108 113.8094 113.9309 114.1058 114.4265 114.2200
131.0700 126.8361 121.3645 123.0151 124.1004 122.8355 126.4031 122.2997 111.1273 129.0164 110.9485 107.3025 119.7551 122.7446 115.2167 117.4467 117.1434 118.9334 126.6097 123.7105 124.5601 124.2211 124.0159 123.7927 123.5889 123.0907 124.8930 122.5106 122.8867 122.2979 122.0499 121.7763 121.5211 121.2441 117.2251 110.2539 111.0277 120.1458 112.3730 122.6641 119.9713 119.3473 108.2947 116.0204 118.5339 117.5775 116.9317 116.9680 115.1701 115.2663 115.6516 115.3773 115.1119 114.8826 114.6942 114.5516 114.4635 114.4278 114.4492 114.5233 114.6569 114.8414 115.0450 114.8900
127.9500 129.0522 124.9535 126.0278 127.9664 123.8555 127.3790 125.6568 111.3874 124.4131 120.5820 118.9496 114.8701 117.6068 118.0442 113.9325 113.7241 125.2926 126.2817 124.9754 124.4519 124.2957 124.0743 123.8523 123.6201 123.1854 124.2011 123.0291 122.4648 122.4071 122.1768 121.9141 121.6741 121.2642 121.2232 118.0127 115.2440 115.3928 115.4840 122.9109 117.7133 118.9926 119.4217 119.6969 117.7893 117.6723 117.3985 117.0346 116.6700 116.4818 116.1854 115.9361 115.7023 115.5031 115.3364 115.2144 115.1380 115.1126 115.1221 115.1931 115.3030 115.4575 115.6487 115.5100
134.8000 129.1564 124.6477 127.6599 127.0794 126.0462 127.7282 127.3753 121.7563 113.8864 114.4088 118.4146 118.1965 120.2971 113.2145 113.5769 110.5718 123.6325 129.4935 124.9353 124.6764 124.3682 124.1671 123.9450 123.7621 123.8030 116.3038 130.8388 121.7082 122.6776 122.3199 122.0597 121.7935 121.5178 121.6564 121.8567 120.7459 120.0916 120.5643 126.7899 119.4381 119.3994 118.7828 118.5703 118.4415 118.0641 117.7705 117.4867 117.2180 116.9563 116.6883 116.4609 116.2583 116.0843 115.9398 115.8306 115.7663 115.7442 115.7547 115.8157 115.9076 116.0434 116.2101 116.5500
127.9900 128.1116 126.6939 130.5156 127.1839 128.0011 122.0901 123.4843 133.6898 118.7889 118.2310 118.3569 122.4281 116.4560 122.7346 111.4240 113.5883 129.1876 124.6078 125.0971 124.6927 124.4617 124.2555 124.0443 123.8538 123.7010 120.1518 126.0796 122.6273 122.6969 122.4535 122.2040 121.9597 121.6005 121.3251 112.0388 121.6843 120.6348 120.2167 119.6621 119.7324 119.5048 119.2957 118.9705 118.6890 118.4068 118.1489 117.8843 117.6358 117.3958 117.1766 116.9709 116.7837 116.6304 116.5045 116.4121 116.3492 116.3259 116.3440 116.3937 116.4795 116.5969 116.7461 116.6200
128.1100 128.0453 127.8060 128.1318 128.4880 119.9312 118.0919 128.8788 136.2691 125.7991 119.5308 119.3857 120.3062 119.7183 116.2333 118.3461 120.9298 128.9052 124.6506 125.0982 124.7366 124.5583 124.3548 124.1466 123.9557 123.6149 124.4428 122.6095 123.1823 122.8105 122.6001 122.3697 122.0873 121.8122 123.6720 122.8253 121.1041 120.8370 120.5965 120.4050 120.1795 119.8074 119.5467 119.2813 119.0222 118.7667 118.5241 118.2826 118.0473 117.8347 117.6331 117.4528 117.2837 117.1484 117.0353 116.9506 116.8982 116.8797 116.8899 116.9361 117.0074 117.1189 117.2458 117.1300
128.1200 128.0104 128.6154 121.4927 122.3627 122.0270 120.2668 131.2899 130.6817 120.5411 120.4581 117.9120 118.2297 113.2160 112.6300 118.7242 114.2896 131.6888 127.2057 125.0779 124.7958 124.6650 124.4574 124.2643 124.0188 123.6320 127.4251 124.6164 123.2780 122.9415 122.7490 122.5224 122.3040 121.8693 124.2979 121.7186 121.3629 121.0720 120.8551 120.5797 120.3360 120.0894 119.8363 119.5934 119.3530 119.1179 118.8911 118.6675 118.4508 118.2567 118.0708 117.9097 117.7576 117.6375 117.5356 117.4660 117.4182 117.3983 117.4132 117.4447 117.5183 117.6143 117.7252 117.6000
128.1400 127.9339 126.8900 121.0872 120.9698 119.0992 119.4649 128.7997 115.8078 129.4484 115.2319 116.7399 114.5093 115.8988 115.6314 117.7442 117.8195 111.4730 130.8695 124.6970 124.9391 124.7640 124.5613 124.3663 124.1527 124.0027 123.7023 123.2644 123.3659 123.1137 122.8951 122.6755 122.4620 122.2559 120.9031 119.2417 121.6598 121.4751 121.0611 120.8221 120.5932 120.3589 120.1267 119.8990 119.6738 119.4533 119.2443 119.0389 118.8451 118.6632 118.4971 118.3487 118.2119 118.1045 118.0118 117.9465 117.9019 117.8913 117.8926 117.9293 117.9801 118.0690 118.1843 118.0500
128.1600 128.0997 128.2111 126.6719 119.3559 128.1040 117.0904 127.2803 115.5348 121.4422 119.0359 117.0567 115.4170 115.9447 118.2579 110.6935 114.8500 131.5403 125.3587 125.8546 124.9875 124.8607 124.6777 124.4690 124.2385 124.1089 123.9303 123.7296 123.4682 123.2647 123.0521 122.8380 122.6265 122.3708 122.4141 122.2091 122.0668 125.4893 120.7418 121.1640 120.8367 120.6309 120.4126 120.2008 119.9916 119.7874 119.5834 119.4033 119.2211 119.0540 118.9068 118.7657 118.6427 118.5476 118.4652 118.4084 118.3691 118.3517 118.3607 118.3924 118.4753 118.5693 118.5950 118.4800
128.2700 128.1403 127.9119 128.1903 121.8959 126.0691 120.7835 138.0395 118.5814 119.7255 120.7902 119.5477 113.8790 117.9576 110.1578 108.1996 110.7203 112.4693 126.5843 125.2478 125.1377 124.9564 124.6531 124.5202 125.0424 124.3118 124.0153 123.7956 123.6138 123.4147 123.2126 123.0024 122.7932 122.5859 122.3217 121.1097 121.6142 121.6150 121.5007 121.3005 121.0975 120.8977 120.6967 120.4908 120.2953 120.1081 119.9200 119.7517 119.5811 119.4351 119.2961 119.1651 119.0610 118.9741 118.8843 118.8469 118.6994 118.7946 118.7946 118.8305 118.9082 118.7931 119.4435 119.2700
128.2900 128.2222 128.0541 128.4668 118.1037 118.3490 120.8299 126.0651 131.6776 124.5425 117.0153 115.9359 112.1685 114.9535 119.1281 115.9797 129.7384 127.0811 125.4617 125.4487 125.2417 124.9876 124.5790 124.8069 119.9500 124.2238 123.9822 123.9861 123.7653 123.5677 123.3730 123.1756 122.9780 122.7686 122.8361 122.4720 122.4010 122.2524 121.8265 121.5555 121.3775 121.1704 120.9686 120.7804 120.5986 120.4214 120.2485 120.0902 119.9366 119.7971 119.6673 119.5530 119.4512 119.4115 119.0710 120.9731 119.1097 119.2067 119.2173 119.2447 119.3550 119.1270 122.5650 119.6400
128.4300 128.1794 128.0140 128.4804 119.1595 119.3258 120.0693 122.3740 123.9158 135.7328 107.1149 111.6601 124.2997 106.7449 124.0924 125.7178 124.0317 126.5863 125.6242 125.5329 125.3566 125.2317 125.0620 125.2904 116.2414 124.0025 124.2329 124.1319 123.9095 123.7154 123.5314 123.3358 123.1567 122.9240 123.1759 122.6077 118.9913 122.8850 122.0624 120.4798 121.8273 121.4161 121.2467 121.0655 120.8959 120.7236 120.5713 120.4224 120.2786 120.1510 120.0303 119.9247 119.8344 119.7724 119.6893 120.3153 119.5994 119.6066 119.6194 119.6453 119.6770 119.7664 119.5150 119.9900
128.4300 129.0075 128.4875 128.1445 119.4048 120.2375 120.8478 123.7247 115.2938 129.0904 115.5403 118.2165 110.6859 115.4921 127.7940 110.6688 117.4260 122.5777 125.9049 125.6792 125.4486 125.2848 125.1517 124.8637 125.8151 125.2444 124.4122 124.2352 124.0597 123.8764 123.6970 123.5036 123.3226 123.2458 123.2589 123.8581 113.9824 122.7367 122.8297 120.2473 121.7503 121.6748 121.5028 121.3485 121.1853 121.0249 120.8745 120.7418 120.6125 120.4956 120.3802 120.2842 120.1946 120.1338 120.0422 119.9718 119.9925 119.9948 120.0012 120.0222 120.0600 120.1029 120.2072 120.3300
128.4700 124.0631 129.0624 127.5555 120.2289 119.6676 121.3482 129.1248 118.0648 119.6044 112.0823 118.3674 107.7997 111.5062 107.2276 114.2638 127.2209 123.9093 126.1155 125.7462 125.5677 125.4159 125.2311 125.0170 124.6200 124.6687 124.5387 124.3799 124.2087 124.0347 123.8549 123.6737 123.5435 123.2436 124.3263 117.6241 112.8551 123.7888 122.1670 122.5594 122.2180 121.9372 121.7961 121.5835 121.4699 121.3233 121.1838 121.0543 120.9328 120.8172 120.7144 120.6265 120.5476 120.4821 120.4306 120.3959 120.3635 120.3622 120.3645 120.3852 120.4164 120.4654 120.5217 120.6700
128.4900 123.5715 123.6318 122.3471 120.5865 120.1106 119.5304 117.0538 122.1641 119.5234 122.4814 120.0531 122.1608 112.2724 120.8475 126.4399 129.6485 125.0971 126.0087 125.8430 125.6767 125.5245 125.3559 125.1276 126.0807 124.9770 125.2863 124.5260 124.3633 124.1854 124.0225 123.8428 123.6277 123.7600 113.5204 119.0132 115.7860 120.9560 122.7272 122.4796 122.2979 122.1046 122.1692 121.8977 121.6938 121.6075 121.4760 121.3522 121.2416 121.1354 121.0389 120.9600 120.8845 120.8237 120.7759 120.7409 120.7164 120.7070 120.7177 120.7374 120.7632 120.8138 120.8723 120.9800
128.6100 128.4363 125.9445 120.9740 118.9980 114.9012 120.6690 117.5366 115.7195 121.0224 118.4941 112.0994 126.6747 117.2927 127.1774 126.7016 126.1496 126.3264 126.1077 125.9497 125.7951 125.6342 125.5957 124.8757 123.6671 112.2921 120.8499 124.7894 124.5031 124.3404 124.1818 124.0137 123.8908 123.6709 123.9153 123.1074 122.4603 121.9866 122.8545 122.7062 122.5751 122.0267 121.2855 121.7355 122.0449 121.8766 121.7629 121.6450 121.5440 121.4444 121.3523 121.2727 121.2121 121.1517 121.1099 121.0803 121.0594 121.0487 121.0514 121.0670 121.1000 121.1439 121.1935 121.2800
123.4600 123.9026 123.1074 111.9677 139.4650 123.1909 125.5076 116.2396 136.9332 126.1636 127.3695 112.7201 112.5845 119.1440 127.0570 126.7026 126.5393 126.3732 126.2101 126.0618 125.9101 125.7822 125.6888 125.0952 126.5070 120.8678 124.6302 124.7691 124.6824 124.4982 124.3395 124.1816 124.0288 123.8600 123.6434 123.5291 123.4741 123.6452 123.0442 122.9355 122.7861 122.6464 124.4896 122.7986 122.2656 122.1548 122.0421 121.9283 121.8334 121.7454 121.6565 121.5870 121.5285 121.4684 121.4336 121.3962 121.3789 121.3688 121.3775 121.3944 121.4245 121.4632 121.5069 121.5700
128.7500 126.5699 120.0515 121.4989 115.7566 146.4711 119.2482 125.9967 123.9754 127.3766 112.6948 122.0428 122.9224 127.5808 126.7317 126.7760 126.6147 126.4646 126.3219 126.1775 126.0409 125.6341 127.3807 108.3963 126.0100 125.0457 125.1084 124.9385 124.8140 124.6621 124.5090 124.3568 124.2004 124.0526 123.9022 123.7068 123.7408 123.3710 123.0640 123.2041 122.8583 122.7974 122.8226 122.7171 122.5304 122.4132 122.3126 122.2088 122.1010 122.0220 121.9569 121.8891 121.8264 121.7820 121.7443 121.7119 121.6963 121.6871 121.6882 121.7095 121.7296 121.7708 121.8106 121.8600
128.7700 129.1745 119.6578 127.4279 121.3144 119.5928 122.8153 109.0948 105.4637 110.1861 110.7045 123.1464 134.5117 126.5474 126.9988 126.8583 126.7127 126.5681 126.4282 126.2901 126.1241 126.0612 125.7558 125.5057 126.4562 125.3507 125.2652 125.1306 124.9721 124.8133 124.6725 124.5211 124.3767 124.2319 124.0866 123.9194 123.7967 125.2180 114.7742 122.9934 122.9992 123.1941 123.0050 122.9032 122.7913 122.6782 122.5708 122.4594 122.4666 122.3618 122.2262 122.1781 122.1179 122.0797 122.0359 122.0163 121.9936 121.9925 121.9935 122.0044 122.0324 122.0685 122.1093 122.1300
128.8000 129.8503 122.4411 120.5825 120.8771 119.4489 124.9767 109.0016 113.9426 119.6500 122.6128 128.6341 131.0529 126.8232 127.1825 126.9525 126.8214 126.6810 126.5391 126.3980 126.2162 126.1253 125.9317 125.7529 125.7260 125.5984 125.3863 125.1890 125.2566 124.9352 124.8383 124.6859 124.5521 124.4077 124.2759 124.1494 124.4562 109.6916 110.7850 123.6690 123.4442 123.3503 123.2521 123.1333 123.0262 122.9222 122.8414 122.7264 122.0858 122.2960 122.5288 122.4565 122.4040 122.3621 122.3280 122.3081 122.2891 122.2861 122.2846 122.2966 122.3220 122.3516 122.3936 122.4000
128.9100 126.9703 122.2547 121.7846 122.0006 110.5572 106.7395 116.3446 121.8355 114.4084 127.3576 119.0233 128.3912 127.2818 127.1595 127.0516 126.9210 126.7851 126.6510 126.5272 126.3964 126.6120 126.2413 125.9802 125.8305 125.7640 124.6314 126.3070 124.1283 125.1546 124.9890 124.8730 124.7253 124.5558 124.4695 124.2912 124.3180 124.4716 122.9896 124.3401 123.7161 123.5864 123.4746 123.3705 123.2715 123.1757 123.0873 122.4675 128.8149 123.1487 122.7854 122.7278 122.6842 122.6427 122.6130 122.5870 122.5691 122.5166 122.5619 122.5799 122.5998 122.6336 122.6722 122.6400
129.0500 125.6303 123.1515 121.2563 128.1749 122.6742 110.0025 114.7220 113.1951 115.0359 114.3870 125.2946 118.3308 127.8249 127.2263 127.1485 127.0221 126.8968 126.7608 126.6258 126.4893 123.3286 126.4237 126.0113 125.9198 125.8513 123.5452 122.3426 125.5820 125.4913 125.1301 125.0271 124.6903 124.7549 125.4306 124.4514 123.5459 125.8295 125.2542 124.0108 123.8636 123.8092 123.6985 123.5980 123.5017 123.4054 123.3208 123.4271 117.2098 122.9902 123.0647 122.9873 122.9518 122.9133 122.8809 122.8566 122.8511 123.1567 122.8802 122.8657 122.8736 122.9058 122.9405 122.9100
129.0500 129.0532 126.0265 122.0530 122.7665 126.2976 116.6489 120.1305 117.2223 118.8386 109.8568 119.1276 123.7570 127.9968 127.4237 127.2558 127.1314 126.9976 126.8721 126.7465 126.7189 126.0573 126.2051 126.2216 126.3072 125.9016 125.0353 115.8635 126.2797 125.3487 125.3429 125.1603 125.2964 125.5894 118.2817 124.2956 124.2420 124.7765 124.8965 124.2232 124.1308 124.0209 123.9234 123.8322 123.7307 123.6498 123.5634 124.2336 122.0443 123.7193 123.2752 123.2482 123.2102 123.1736 123.1447 123.1307 123.2052 120.7853 122.7660 123.0778 123.1439 123.1673 123.1982 123.1500
129.0800 130.0500 124.2497 118.4113 117.8362 120.9620 118.6433 110.4899 117.5730 109.0155 106.5193 109.9721 127.9339 127.0949 127.5011 127.3563 127.2353 127.1160 126.9825 126.8518 126.7121 127.3817 126.3791 123.3007 126.5046 125.8371 126.9771 125.8516 125.6968 126.3665 125.3687 125.5302 125.0794 121.0115 111.8931 128.5416 128.8971 124.6900 124.5859 124.4265 124.3339 124.2264 124.1426 124.0339 123.9785 123.8696 123.7693 123.6024 123.7834 123.5940 123.5513 123.4989 123.4671 123.4229 123.3958 123.3512 123.3515 123.7529 122.6282 123.4727 123.3897 123.4185 123.4568 123.3900
119.2200 123.6009 118.7907 122.5192 129.1241 133.8652 118.1988 117.8861 110.3015 107.4373 118.5842 122.6162 128.6867 127.7199 127.5926 127.4673 127.3387 127.2179 127.0982 126.9958 126.6333 126.7652 117.9674 124.7645 126.0597 126.2467 125.8246 127.1504 119.8772 121.6168 125.9060 125.4835 124.9081 120.2307 118.9436 113.9341 114.5562 128.0509 124.1374 124.6373 124.5164 124.4588 124.3483 124.2826 124.0481 124.1194 124.0616 124.0923 123.9025 123.8395 123.7927 123.7444 123.7050 123.6823 123.6625 123.6599 123.6838 124.5295 124.5063 123.3881 123.6629 123.6639 123.7019 123.6200
122.9000 121.3541 120.0452 118.7439 122.4560 136.4446 127.7145 107.5622 106.6642 104.8753 112.9167 118.2918 128.6077 127.7079 127.6838 127.5674 127.4491 127.3263 127.2136 127.0907 126.9106 127.3911 128.8380 126.5288 126.8884 126.3342 126.2806 126.0777 124.4023 124.2177 126.0216 128.3739 126.2858 109.5243 104.9807 120.1895 113.0599 124.1212 124.8536 124.8221 124.7254 124.6364 124.3614 124.4642 124.9765 125.4836 121.2000 124.9949 124.1401 124.0605 124.0262 123.9747 123.9871 123.9209 124.0062 123.9091 123.7913 123.7417 124.3933 124.8152 123.7848 123.9169 123.9334 123.8400
119.8000 119.2387 119.6489 118.7162 118.4871 124.9330 110.0076 105.8420 106.0283 113.2038 118.2700 125.5034 128.6254 127.9320 127.7770 127.6760 127.5546 127.4314 127.3244 127.2004 127.0910 126.9970 126.7866 126.5669 126.6260 126.4994 126.3987 126.2515 127.3019 125.7294 127.4256 125.4201 126.7522 123.1954 115.1024 123.4221 124.9946 126.0087 125.0699 125.0312 124.7913 124.8040 126.5613 116.1990 128.6649 123.4262 112.5126 124.8240 124.3558 124.2911 124.2489 124.2037 124.1730 125.4513 124.8168 124.1860 124.0722 124.0456 125.9693 109.1350 125.9118 124.0252 124.1622 124.2700
121.2000 120.3043 119.4835 118.4102 114.3452 112.1827 106.6946 107.4014 112.7436 108.7952 115.4273 123.2767 128.3403 127.9956 127.8837 127.7810 127.6602 127.5681 127.4536 127.3223 127.2067 127.0960 126.9838 126.8696 126.7616 126.6433 126.5300 126.3500 127.2348 119.0199 121.4522 113.8541 123.2796 126.6018 120.2475 126.4171 125.4928 125.2447 125.3175 125.2019 125.0929 125.3154 114.4003 112.8449 126.1378 117.3961 125.5235 124.5786 124.5768 124.5154 124.4725 124.4444 124.4179 124.2503 124.3443 124.3371 124.3331 124.3342 124.2516 124.6735 125.0313 124.3475 124.3870 124.4800
129.4900 120.8290 117.8338 110.9178 111.3368 107.1422 112.3124 117.6272 106.9694 109.9886 108.8053 121.0455 129.0109 128.1054 128.0474 127.8793 127.6725 127.9222 127.5130 127.4452 127.3133 127.2294 127.1305 126.9935 126.8759 126.7779 126.6677 126.6418 126.1872 126.4818 126.5884 125.0426 126.3157 127.0461 124.5607 126.0406 125.5500 125.5710 125.4788 125.3910 125.3243 125.1676 113.5272 117.2238 124.9449 125.7502 124.9122 124.8117 124.7781 124.7377 124.6948 124.6586 124.6463 124.6390 124.5792 124.5665 124.5674 124.5525 124.5772 124.4017 124.4132 124.5766 124.6170 124.6900
119.6000 112.7133 111.7837 117.2577 110.4023 126.0894 117.9354 112.2830 114.7330 111.7970 107.2968 109.3054 129.5402 128.1112 128.1483 127.0415 127.8638 130.6186 127.8992 127.7348 127.3100 127.6432 127.7340 127.0296 127.0783 126.8995 126.7804 126.5535 127.1830 126.7574 116.1190 125.2705 126.1582 125.9567 125.9774 125.7383 125.8685 125.7466 125.6545 125.5819 125.3578 125.2703 115.5408 118.2701 125.3431 126.1740 125.1501 125.0180 124.9899 124.9492 124.9076 124.8747 124.8375 124.8107 124.7928 124.7851 124.6177 124.7166 124.7619 124.8254 124.8433 124.8241 124.8348 124.8800
122.8000 113.2594 119.2661 112.6029 121.1770 122.1493 112.8413 111.3118 119.0257 109.0463 107.4182 114.8798 129.7512 128.1396 128.4645 122.3485 128.5410 127.9487 126.6357 124.9250 128.8343 127.1910 124.3419 127.3065 126.9946 127.0356 126.8957 127.5509 122.9444 126.8192 126.6037 127.6068 126.4731 126.3292 126.1569 126.2129 126.1462 125.8990 125.8144 125.7334 125.8292 125.3511 122.2227 124.1480 106.3954 127.0423 125.3193 125.2241 125.1979 125.1537 125.1170 125.0789 125.0514 125.0310 125.0777 125.0226 126.3116 125.2410 125.0060 124.9855 124.9968 125.0188 125.0466 125.0800
124.1400 118.5865 118.0959 117.4138 113.5233 113.0228 128.9551 115.3882 105.3197 114.8304 120.8621 129.8817 128.4673 128.5057 128.5211 128.2713 128.0092 128.1216 114.7102 112.5907 119.4210 131.0061 109.9708 131.8667 127.1932 127.2762 127.0782 127.7902 123.9531 127.4998 126.7494 127.3375 126.6495 126.3549 126.3891 124.4133 124.8723 126.2816 125.9908 125.9906 125.9019 125.7207 120.2980 122.7825 126.6155 125.4978 125.6017 125.4173 125.3973 125.3556 125.3208 125.2903 125.2484 125.2363 124.9518 125.4929 120.2020 124.9508 125.1125 125.2055 125.2196 125.2309 125.2530 125.2700
125.2700 118.0811 117.0454 113.9849 115.9855 118.2145 114.1969 109.0269 119.2538 131.6016 128.8674 128.9721 128.3022 128.5208 128.3358 128.2495 128.0946 127.9022 130.4806 127.2165 113.1997 107.7409 114.7825 118.2366 116.4117 128.4152 127.0030 126.9071 118.8138 128.7389 126.8668 126.7628 126.6030 126.8447 126.7241 124.7825 123.9192 126.3347 126.4440 126.0509 126.0449 125.9826 125.9507 125.9409 125.3476 125.8153 125.6586 125.6332 125.5848 125.5479 125.5205 125.4837 125.4831 125.6220 125.6571 122.1998 108.8695 125.6819 125.2811 125.4148 125.4218 125.4370 125.4592 125.4600
124.0300 119.1090 113.4558 116.8372 117.7322 113.2221 117.0472 107.1995 124.1249 129.3845 115.6685 129.2256 128.4820 128.6616 128.5248 128.4172 128.2236 129.8179 119.1027 128.4855 130.3944 121.5761 106.8556 115.9405 115.2950 127.2225 127.6723 128.9180 119.9634 126.1943 126.9095 126.9082 126.9635 126.6018 119.4759 125.4042 123.2119 116.7885 128.7352 126.2505 126.2084 126.1136 126.0486 125.9677 126.0303 125.9059 125.8765 125.8192 125.7771 125.7394 125.7101 125.7547 125.4104 122.0924 120.6702 122.2349 126.0273 125.4811 125.5424 125.6034 125.6191 125.6352 125.6548 125.6400
124.0300 114.7471 117.5482 120.1936 117.5578 124.7774 131.4845 124.8743 123.3116 129.8066 121.0983 129.5256 128.5544 128.5594 128.5125 128.5486 128.3562 125.4672 119.5137 129.1702 128.1806 129.4249 120.1514 130.7002 127.0813 128.8720 128.1325 117.1712 125.9307 129.3517 127.2906 127.0279 126.8581 128.0037 112.6192 114.0219 118.7093 111.2130 128.0878 126.4620 126.3603 126.3259 126.2884 126.1945 126.1334 126.0997 126.0479 126.0022 125.9634 125.9309 125.9079 125.9194 125.7068 125.3228 125.7901 126.1032 125.5672 125.8005 125.8667 125.8166 125.8088 125.8310 125.8490 125.8200
125.5700 123.6209 116.6115 112.8570 123.5626 118.4372 129.4369 129.3730 130.4749 129.4051 129.5860 128.3621 128.2181 130.0985 129.1506 128.5712 128.4505 129.1602 124.7713 128.8038 128.3363 115.3971 127.7280 128.1781 127.8335 127.5564 128.2642 112.5756 126.4788 129.8472 126.9958 127.2423 127.2616 127.5911 112.5171 118.8990 113.3046 124.8496 126.8946 126.6571 126.5296 126.5022 126.3077 126.3899 126.3191 126.2736 126.2375 126.1855 126.1885 126.1281 126.0826 126.0819 125.9186 125.9778 125.9639 125.9402 126.0211 125.9816 125.9151 125.9167 126.0107 126.0165 126.0328 125.9900
125.8200 125.1278 123.6682 114.4884 120.3063 131.0321 129.4643 129.4420 129.1583 129.6729 129.9570 131.2456 129.3522 113.2860 125.3922 128.9831 128.5403 128.6344 128.5375 128.4967 115.6467 112.3447 133.1188 128.4184 128.1914 127.9284 126.3321 124.1504 123.7082 127.3755 127.4397 127.3338 127.3034 119.9232 125.8583 127.9787 130.6930 125.8328 126.9455 126.7115 126.7495 126.6218 127.3229 126.5623 126.5694 126.4345 126.4012 126.4003 126.0994 126.2048 126.2816 126.2501 126.2729 126.2354 126.1954 126.1919 126.1673 126.1588 126.4047 126.4602 126.1533 126.2063 126.2166 126.1600
123.4000 129.5073 123.2776 130.0940 129.1710 129.8545 129.5523 129.5402 129.9057 123.6494 122.3995 122.1290 113.8514 125.4669 128.8418 128.6902 128.7732 128.6601 128.4332 128.5470 127.9543 118.4703 118.4074 129.3976 127.8776 127.8970 127.9734 128.3363 127.0752 127.8941 127.5517 127.5082 127.0602 127.6538 127.0038 127.1036 126.5167 129.4553 129.7119 127.0079 126.9066 126.8969 121.0503 126.7658 126.5745 126.6099 126.5958 126.3984 128.0593 127.1100 126.4368 126.4134 126.3886 126.3784 126.3760 126.3631 126.3538 126.3434 126.9932 121.0611 127.0010 126.3478 126.3973 126.3300
130.2000 131.2640 129.3811 130.0333 129.9161 129.8300 129.7310 129.6967 129.3117 130.4805 129.1941 129.1897 127.3942 122.1896 119.3581 129.9839 128.7331 128.8989 128.4939 129.1709 117.7873 109.1882 106.1238 121.7283 128.3739 127.7067 130.3747 128.8860 127.7902 127.7564 127.6904 127.6174 127.5765 127.3396 127.4946 127.3619 127.5499 117.1968 120.5058 127.0513 127.0093 129.7569 129.3259 129.7273 126.8427 126.7776 126.6568 128.5181 113.7927 126.8282 126.6156 126.5932 126.5876 126.5670 126.5506 126.5469 126.5344 126.5330 126.4992 126.7537 126.8096 126.5679 126.5813 126.6600
130.3100 130.2587 130.1615 130.0564 129.9964 129.9196 129.8162 129.7256 129.6599 129.2919 130.1664 123.6533 106.6747 122.3294 125.6448 129.6330 129.0569 128.4580 128.2514 128.0121 105.7096 127.5264 131.8689 128.3139 128.4138 127.8855 129.3708 128.2739 127.7522 127.9398 127.8187 127.7486 127.6766 127.6351 127.5382 127.4693 127.9707 112.0212 133.0612 127.0112 127.9162 110.3600 122.1664 123.1449 127.1066 127.0485 126.8107 127.7989 122.7958 127.2199 126.7929 126.7596 126.7559 126.7436 126.7271 126.7222 126.7112 126.7067 126.7148 126.6340 126.5407 126.6236 126.7677 126.8200
130.4300 130.2503 130.2405 130.1480 130.0723 129.9925 129.9025 129.8025 129.7897 129.4384 131.5698 112.9760 105.4552 129.4529 130.2703 122.8225 123.1459 119.9333 124.9954 129.2758 113.9972 130.0676 127.0309 128.5997 128.2236 128.3556 126.8799 127.6174 129.2250 127.7639 128.0029 127.8907 127.8223 127.7583 127.6908 127.5406 127.7106 121.2636 117.3322 127.4816 129.0005 125.5029 129.2175 127.3950 126.8619 127.2705 127.5760 112.6953 127.7835 126.6820 126.9649 126.9573 126.9304 126.9117 126.9003 126.8946 126.8848 126.8822 126.8950 126.9413 127.5847 127.6908 126.8545 126.9700
130.4300 131.1267 130.5285 130.2472 130.1583 130.0714 129.9921 129.9128 130.0113 129.8348 126.7999 109.4624 122.0678 129.2673 118.9479 110.5598 125.1953 125.2515 121.2588 123.2834 133.9696 130.6694 128.6288 128.9282 128.4733 128.4198 129.8246 124.4686 124.7602 129.0227 128.0064 128.0284 127.9598 127.8993 127.8217 127.7656 127.5680 129.0339 127.7334 127.4842 127.2436 127.7239 127.0703 127.3212 127.3590 127.2923 128.1369 117.8919 127.1705 127.0175 127.1402 127.1186 127.0954 127.0799 127.0701 127.0569 127.0580 127.0544 127.0670 126.8785 126.0331 120.1114 128.6500 127.1300
148.9800 125.5900 130.3900 130.3200 130.1800 130.1000 130.0300 129.9600 129.8900 129.8100 107.7400 129.6700 129.5900 107.4400 110.1600 129.2800 129.3000 109.9400 129.0500 128.9700 128.9000 128.8100 128.7400 128.6500 128.6500 128.4900 128.5100 130.3000 116.7500 128.2600 128.1500 128.0800 128.0800 128.0000 127.9200 127.8300 127.8300 127.7500 127.6600 127.6900 127.5800 127.5900 127.5100 127.5100 127.4100 127.4300 127.3300 127.3500 127.3500 127.2400 127.2500 127.2600 127.1300 127.1400 127.1500 127.1500 127.1600 127.1600 127.1600 126.4800 126.4200 112.1400 127.1400 127.1300
