138.8600 128.3400 117.5600 120.4500 127.0600 129.5400 129.5600 129.9200 129.2100 127.3000 125.8800 125.8800 125.8800 124.8100 118.5400 121.9200 129.4400 126.9600 125.5900 126.4700 126.4700 120.8000 121.0500 121.0500 124.9200 117.6700 106.8000 106.8100 114.6600 112.1600 128.6600 109.2700 128.5800 116.7900 128.5000 128.5200 128.4200 106.4300 128.3200 128.3400 121.6600 121.6600 128.2500 128.2600 128.2700 128.2800 128.2800 128.2800 128.1600 128.1600 128.1600 128.1600 128.2800 128.2800 128.2700 128.2700 128.2600 128.2500 128.3600 118.0500 120.5200 128.4400 128.4300 128.4100
137.9700 127.5025 123.7120 123.7343 123.8401 131.0457 128.7911 128.7777 128.3855 127.2249 126.0884 119.8711 119.1824 109.2846 134.8494 117.4007 123.7953 127.5408 126.1750 129.2340 120.7391 135.5094 127.3406 121.1691 129.6159 121.1091 105.7723 106.5765 113.9838 113.2320 125.8968 107.8234 114.0014 111.1090 127.9405 105.7274 113.1217 110.5830 130.8444 129.1955 132.3150 128.0504 128.3563 128.2062 128.1472 128.3698 128.8404 112.5807 128.0870 127.4687 128.1694 128.1426 128.1401 128.1504 128.1557 128.1532 128.1596 128.1399 128.7571 130.5629 117.5199 126.7409 127.6029 128.2800
137.9700 126.4204 129.0564 124.0118 115.1040 122.0777 127.0006 126.5213 126.8549 125.9571 125.5029 118.1692 123.6117 125.6999 130.7884 123.6946 129.7943 121.6192 132.2085 131.5201 121.7488 120.2550 124.7667 126.2855 127.8518 120.4930 105.3519 111.8001 115.0777 116.4371 121.7372 136.0191 125.3132 127.5842 115.8958 114.3751 105.2038 133.2022 128.3839 128.3516 128.5694 127.9762 127.9713 128.0196 127.9842 128.1513 128.4114 118.3792 128.1487 127.2482 127.9831 127.9983 127.9971 128.0002 128.0128 128.0316 128.0376 128.0102 119.9468 116.8736 112.5601 126.7804 129.0606 128.1500
137.8100 124.6181 129.7215 128.4624 113.6106 110.9402 129.8141 127.3966 126.2467 125.3829 124.8824 125.0256 124.8616 103.6399 123.2880 129.6421 129.1624 126.8041 123.2547 144.5751 119.5794 115.0427 120.6934 121.0703 119.2519 118.8953 109.5766 106.4532 113.7322 109.9371 111.0417 119.3346 127.2379 123.7981 129.2295 116.4476 121.4043 129.0614 127.1133 123.9921 128.3723 127.9346 127.9022 127.8902 127.8585 127.8980 128.6765 122.2795 129.7023 127.4337 127.8254 127.8280 127.8435 127.8476 127.8619 127.8905 128.0446 129.7648 129.0575 113.9222 122.7175 109.7354 130.3729 128.0100
137.2500 125.7898 129.2506 128.7229 119.8719 115.3527 114.3424 126.2827 124.0283 124.3733 124.0249 123.6491 122.9207 118.0500 124.4396 127.9809 129.0405 127.2051 119.7713 119.1726 119.3375 123.2900 115.4350 118.4074 127.3685 118.0368 116.6713 112.3605 106.3699 105.6629 109.9738 119.3588 127.0923 129.5694 113.1944 129.0534 127.4070 128.0479 127.8647 126.7131 127.9659 127.7429 127.7340 127.7269 127.7086 127.8021 129.0797 110.9303 125.8110 126.8931 127.7921 127.6822 127.6888 127.6883 127.7456 127.9798 123.7772 117.7980 116.0002 119.0655 123.1408 113.0053 129.9865 127.8600
126.8300 125.6911 127.0902 128.6586 129.8710 122.4346 113.8839 121.6764 125.2572 123.7283 123.0367 124.0402 122.4077 124.9104 121.8395 125.2221 131.2454 127.0205 124.3188 121.8162 130.0626 121.6414 117.8674 114.7088 122.8850 118.6476 110.2528 108.4999 119.3736 119.1096 124.0449 129.5556 128.1211 123.8333 125.3764 128.8619 127.6568 127.6816 127.6188 127.8179 127.5904 127.6170 127.5960 127.5804 127.5223 127.4286 125.7701 113.5865 137.7428 129.4890 127.2159 127.5024 127.5291 127.5181 127.6693 128.5151 121.5261 116.6537 126.8617 130.0576 123.4639 125.0646 128.2465 127.7200
126.8300 126.7994 127.5192 129.8855 128.0194 128.5051 121.9106 113.9416 120.7539 126.1316 124.1235 121.9919 115.8433 126.9363 125.7215 122.6224 129.3543 128.5227 129.6419 114.7806 119.0077 120.9702 122.1683 119.0016 117.3986 116.0300 110.2353 107.3710 123.2321 130.0057 128.1536 127.5168 127.6767 127.5072 125.2633 127.1824 127.5266 127.5904 127.5570 127.5032 127.4962 127.4646 127.4302 127.4357 127.7276 128.1435 125.2959 106.6272 135.4382 130.1499 127.5451 127.3840 127.3649 127.3690 127.4708 127.5346 126.0439 133.9563 131.5593 126.3943 126.2900 127.7475 127.5207 127.5800
129.8900 130.6239 115.7934 126.1306 126.4650 126.7025 124.8476 124.9118 114.7034 116.5432 115.4063 124.5753 124.3677 123.0833 122.6216 126.1396 123.8504 129.8738 128.3680 125.8276 122.5388 114.5837 131.8737 127.8037 120.6666 118.7336 128.8980 113.5642 107.0771 117.5786 128.1559 127.7761 127.6375 128.1312 128.3929 127.4008 127.4966 127.4144 127.3816 127.3561 127.3210 127.2972 127.2667 127.2727 127.6758 119.4222 128.6882 120.3483 127.6437 124.3844 127.1948 127.2188 127.2046 127.2093 127.2242 127.0525 128.6433 118.8474 129.2134 127.3757 127.4281 127.3562 127.4451 127.4300
135.4200 130.8804 127.2649 127.2321 125.9952 124.8957 125.1994 124.8091 112.3580 114.4427 123.6955 121.4294 128.8530 128.6312 120.2417 143.1946 129.6352 124.7090 118.5557 123.5182 122.6744 116.9093 114.7427 115.4831 114.5281 121.9805 115.5138 116.6931 131.3619 126.1439 127.6720 124.5044 127.5338 127.1016 127.5377 127.4169 127.3003 127.2680 127.2268 127.1963 127.1616 127.1432 127.1014 127.1531 127.0323 125.6796 126.9238 118.5444 127.7853 126.9390 127.0483 127.0442 127.0310 127.0195 127.6865 127.1090 127.6684 125.3284 127.1994 127.1870 127.1836 127.2496 127.2863 127.2800
113.5100 136.1132 126.9134 126.2898 125.6622 124.5246 123.9931 124.3845 117.2082 114.9803 120.0259 127.5297 133.3851 122.2263 133.8410 131.9679 121.1009 125.9283 117.8907 120.9105 128.5453 115.6330 117.9065 115.6620 117.2230 130.9039 124.9327 124.0290 127.0972 125.5805 127.2495 127.4410 127.4017 127.2748 127.2258 127.1947 127.1404 127.1027 127.0658 127.0356 126.9981 126.9626 126.9496 126.9327 126.9221 127.3372 127.3158 126.5370 126.6919 126.7385 126.8599 126.8695 126.8604 126.8405 128.2890 126.6909 126.8157 127.1215 127.0383 127.0050 127.0474 127.0837 127.1225 127.1200
112.6500 115.0738 125.7160 127.3007 125.3581 124.5654 124.2570 123.3778 124.3524 129.1440 115.7031 126.9166 124.7068 133.0610 130.2406 126.8658 121.3208 135.7847 116.5019 127.8858 128.6459 114.8686 115.7749 120.1406 116.8533 128.5651 127.0301 127.3909 127.9277 127.3839 127.3855 127.2071 127.2050 127.0543 127.0930 127.0140 126.9809 126.9378 126.8977 126.8653 126.8283 126.8081 126.7360 126.5656 126.7698 126.6787 126.6166 126.6675 126.6494 126.6436 126.6934 126.6860 126.7247 126.4941 126.4486 126.7974 126.8435 126.7429 126.7260 126.8480 126.8799 126.9216 126.9626 126.9700
125.4700 128.7893 116.7530 113.4587 114.9663 126.3396 118.9908 121.5005 123.2541 122.1780 113.5238 112.4404 126.3662 122.0979 122.2748 122.4000 124.0930 126.6201 120.2098 119.5821 130.3189 121.1776 134.6604 114.3088 117.6536 127.8586 127.1632 127.4198 127.1916 127.1418 127.0991 127.2064 126.5834 127.7214 126.6734 126.8713 126.8124 126.7583 126.7259 126.6979 126.6588 126.6396 126.8762 127.8410 126.3072 126.5514 126.5362 126.5276 126.5409 126.5212 126.5069 126.5844 126.2846 129.3613 126.3869 126.5851 125.7720 126.6211 126.5600 126.6779 126.7112 126.7546 126.7934 126.8100
125.4700 126.4296 121.5985 103.0541 109.0995 110.5508 123.8112 118.7646 123.1855 126.1926 124.4691 113.5334 119.6633 122.7585 122.5038 119.1221 118.4967 122.4928 115.2551 112.7663 114.0080 126.1229 131.5448 117.9070 128.6030 122.0456 127.1879 127.0951 127.1816 126.9979 126.9810 126.9106 125.8311 131.4225 126.8897 126.6675 126.6500 126.6559 126.5817 126.5199 126.4817 126.4699 126.7124 119.4869 128.8444 126.1100 126.3421 126.3438 126.3232 126.3215 126.3314 126.3672 126.2113 126.3131 126.3852 126.7740 119.4569 127.0417 126.2697 126.5086 126.5399 126.5787 126.6230 126.6500
107.3300 115.7343 122.3002 115.7749 109.3934 106.6811 113.7019 112.2288 112.7302 127.9594 122.6497 126.0296 115.4514 116.0342 127.9294 127.6147 138.3316 122.4610 120.9969 109.6898 113.9131 127.4140 127.2139 128.3722 126.8081 126.4726 127.5557 127.3630 126.6038 127.2175 126.8025 126.8532 128.2127 133.1755 126.5002 126.5228 126.5091 126.1933 126.2643 126.3716 126.2885 126.3247 126.3182 122.4974 113.4169 127.2109 126.1932 126.1353 126.1485 126.1434 126.1432 126.1677 126.2009 126.1999 126.1909 126.3616 128.8813 125.9748 126.3719 126.3207 126.3731 126.4066 126.4451 126.4800
107.2100 119.7697 126.6745 125.1644 117.7201 108.6484 109.7943 121.0915 121.5908 125.4010 134.4578 149.8860 120.6796 114.8453 126.7755 120.4149 121.6104 119.9394 117.3579 111.8291 114.3448 123.3187 127.0359 126.9200 127.1257 127.1098 126.8028 126.8125 121.7803 126.7723 126.6521 126.6111 126.5498 123.7106 126.3998 126.3438 126.3355 127.0633 127.9193 126.1244 126.1326 126.0692 126.0562 126.8042 124.2837 126.3559 126.0139 125.9577 125.9600 125.9545 125.9572 125.9613 125.9593 125.9827 126.0034 125.9043 125.6918 126.1335 126.1012 126.1499 126.1885 126.2328 126.2508 126.3100
107.2100 129.7013 128.2792 126.5445 125.7544 105.6007 107.8332 109.4122 124.6624 119.9171 123.9021 126.7184 125.1502 115.0638 118.1576 118.9927 122.1821 118.4773 113.0784 118.1412 114.3751 114.4597 128.5433 126.9331 126.9754 126.8507 126.7975 127.1748 126.6538 126.7315 126.4799 126.4358 126.3495 126.5540 126.2589 126.1676 126.2363 125.9775 126.2133 125.9820 125.9394 125.9118 125.8632 125.7943 125.9205 125.7317 125.7954 125.7708 125.7695 125.7695 125.7671 125.7776 125.7859 125.7979 125.8145 125.8597 125.9182 125.8845 125.9324 125.9623 125.9992 126.0462 125.9051 128.5800
129.0600 129.7082 128.8823 123.8734 124.3452 121.9405 114.1946 104.6772 121.0616 127.6998 118.9768 121.4762 120.9650 120.6669 117.3311 114.4766 123.2327 112.8803 116.3982 121.4747 124.9526 124.7594 115.0937 126.8850 126.8146 126.7495 126.6346 126.5093 126.4842 126.3472 126.3288 126.2588 126.1822 126.0897 126.0691 125.9432 126.0083 125.7941 125.8701 125.7517 125.7540 125.7256 125.6999 125.6658 125.6373 125.6821 125.6382 125.5795 125.5704 125.5667 125.5671 125.5770 125.5848 125.6074 125.6244 125.6451 125.6649 125.7052 125.7377 125.7770 125.8277 125.8577 124.8141 122.8300
128.9400 128.6988 129.5020 122.7601 122.3968 122.4560 118.0773 109.5475 112.3003 120.5423 146.3719 119.4447 119.4631 119.6237 123.2920 118.0375 110.6592 115.9762 117.6433 114.5240 111.8937 126.3829 125.7804 127.5224 126.6381 126.3122 126.5229 126.7507 126.3800 126.2010 126.1959 126.0681 126.0062 125.9071 125.8805 126.3050 125.0743 126.6026 125.4087 126.1334 125.9681 125.4723 125.4568 125.4495 125.4015 125.1835 125.2098 125.3785 125.3780 125.3686 125.3711 125.3803 125.3875 125.4058 125.4242 125.4507 125.4761 125.5053 125.5462 125.5877 125.6398 125.6841 125.7848 125.7800
128.9000 128.4657 127.8527 119.6438 122.0895 121.1850 122.2728 125.3306 105.4031 108.5570 110.1028 120.4946 120.9137 123.4309 109.4609 114.4761 114.9307 122.9575 123.6005 122.0797 117.1911 119.4070 127.3175 126.8169 126.5874 126.0805 123.7304 124.4685 124.7336 126.3365 125.9150 125.9113 125.8483 125.6736 125.9299 122.1615 121.5582 120.7815 126.3894 126.4860 125.2352 125.4515 125.3803 125.1032 125.2979 126.2006 126.3310 125.1468 125.1601 125.1651 125.1650 125.1740 125.1863 125.1974 125.2182 125.2475 125.2787 125.3082 125.3561 125.3891 125.4486 125.4847 125.5241 125.6000
122.5000 123.7384 125.5801 113.8664 121.8075 109.2028 122.7316 124.5002 112.9450 109.4979 105.2532 105.7250 120.7675 120.4812 115.0093 126.5446 119.9878 112.6086 128.6793 122.9771 129.3630 130.9230 126.4520 126.3302 126.9174 125.9643 124.1837 120.8447 112.8093 127.3175 125.8192 125.7371 125.6274 125.7439 126.2459 114.1396 112.7016 115.1886 120.1676 118.1743 119.9771 123.4985 126.5580 113.6193 124.0835 125.2063 113.8052 125.8774 125.0075 124.9357 124.9573 124.9656 124.9768 124.9921 125.0128 125.0394 125.0668 125.0957 125.1403 125.1900 125.2384 125.2991 125.3580 125.4200
128.7500 118.1787 122.9219 120.3070 120.2803 118.0675 120.8087 121.0956 125.8050 117.1972 103.3434 103.0227 116.6028 123.5771 120.5806 132.0881 111.5768 111.8870 118.3355 130.1134 131.7044 124.5272 126.6867 126.0900 125.3093 115.0368 115.0030 121.2694 119.8109 127.2895 125.6260 125.5483 125.4568 124.8154 123.6017 106.5491 103.8942 108.6602 119.5158 121.5087 122.8688 124.3499 120.3862 110.5679 118.9560 125.3718 120.8968 124.9420 124.7517 124.7252 124.7388 124.7501 124.7623 124.7772 124.8031 124.8180 124.8714 124.9446 124.9685 124.9911 125.0705 125.0998 125.1541 125.2200
133.3000 112.1822 122.9488 125.3411 123.8352 116.2181 123.8031 117.6860 128.2336 132.7145 124.3015 103.5015 104.9163 113.7033 118.0167 121.7734 117.6505 120.1259 115.1401 128.9352 125.5287 126.4326 126.8331 126.5158 126.2654 113.3415 111.0497 121.9095 125.2199 125.6013 125.3871 125.3698 125.2592 124.8453 134.9375 114.0080 110.2634 114.1350 117.1646 122.9224 125.1220 125.4370 121.6010 107.8264 131.8457 123.7475 124.5230 127.2522 124.5526 124.6040 124.5183 124.5301 124.5444 124.5598 124.5832 124.6737 124.6197 124.4800 124.6270 124.7804 124.7121 124.8916 124.9574 125.0300
128.3400 124.0341 118.8426 108.0018 124.5680 115.3280 112.1952 123.1038 127.0847 124.0534 127.7657 115.7739 102.4353 105.3746 122.3696 115.7013 119.4190 118.7412 119.4924 121.3097 126.5666 126.2896 125.2944 104.2053 121.7981 115.3438 118.1737 130.8167 125.2754 125.0922 125.5749 124.4971 125.2414 125.2404 128.6506 117.3766 116.9975 115.9607 121.8834 115.7385 118.1712 116.1831 126.3745 123.0556 121.5686 126.0454 126.4500 123.9834 124.1728 124.3346 124.2984 124.3000 124.3145 124.3254 124.4308 124.2707 124.2267 125.2135 124.1827 124.5243 126.0586 124.6767 124.7427 124.8200
106.4300 112.9042 115.4993 114.2303 123.6038 120.4475 117.1959 109.5928 113.0369 124.7627 115.2517 121.7428 115.8937 103.2492 111.6678 121.8394 116.7780 125.4745 133.0009 127.4081 126.1553 126.1510 121.7776 109.5183 114.4987 115.1973 119.9967 128.2890 125.5003 125.2614 132.3598 124.6883 125.2958 115.8221 112.9360 110.8395 115.2279 121.6401 124.1011 111.3243 123.4142 109.1751 113.0832 125.8624 113.1302 122.1152 121.1784 124.2585 124.1087 124.0818 124.0658 124.0708 124.0860 124.1250 123.9726 126.3148 112.3973 124.6777 122.6170 124.2968 124.6135 124.4386 124.5420 124.6200
106.3100 112.3756 122.3752 120.8761 115.7098 121.9629 122.3286 118.9061 104.5396 121.9374 119.2863 121.8053 124.2320 120.9508 101.6677 111.0005 116.2623 129.6641 127.4139 124.7271 126.1052 125.9476 125.7716 129.7111 121.0677 123.5471 123.4362 126.8803 124.5535 124.4355 125.3347 124.3009 125.0533 116.5596 126.0841 110.3518 122.2535 110.4065 110.4197 111.8115 105.5151 108.6202 125.0044 125.0441 120.0285 124.1307 124.2294 123.9660 123.8206 123.8128 123.8241 123.8343 123.8542 123.8946 123.8373 125.5943 112.9460 124.5748 123.9534 124.1327 124.1802 124.2606 124.3315 124.4100
121.6300 121.4072 120.1468 111.8827 116.0720 124.9806 108.7026 134.1778 110.0430 120.5107 119.5636 122.7108 118.1534 109.7620 110.8695 113.4557 115.3608 132.3230 125.8217 126.3401 125.8956 125.5267 125.4539 125.9107 125.3151 126.0115 123.3233 117.5274 125.1351 124.7784 124.7275 124.6046 125.2718 124.4539 124.7043 127.6141 125.5187 113.7076 123.2844 106.4412 117.0954 130.1803 129.5359 123.1875 124.1502 123.6341 123.5353 123.5223 123.5849 123.5820 123.5793 123.5897 123.6015 123.6255 123.6996 122.8059 118.8780 123.9447 123.7935 123.8962 123.9682 124.0321 124.1158 124.1900
107.5900 115.1720 119.6403 120.9770 120.1810 119.0089 118.5807 109.7140 115.5163 124.8082 111.0501 106.5959 121.9959 110.4683 115.4165 120.2130 106.4298 104.9643 125.5847 125.7541 125.6804 125.9306 124.7561 128.1651 125.4761 124.9571 124.1291 124.8888 124.8723 124.5853 124.5252 124.3950 124.2561 124.4287 113.9884 120.0516 125.7991 110.2166 119.4918 109.7776 127.1573 125.3642 122.2255 123.3223 123.3782 123.4088 123.4009 123.3615 123.3362 123.3234 123.3261 123.3386 123.3510 123.3779 123.3615 124.2522 123.1532 123.5502 123.6046 123.6626 123.7374 123.8116 123.8930 123.9400
119.9900 120.0376 120.0862 119.2991 122.7821 119.7326 119.0496 119.9161 108.4869 106.6320 119.4648 101.6024 105.3229 113.1524 113.8389 111.7400 108.3738 109.2042 123.3980 125.6058 125.6282 125.4685 118.4347 110.2453 126.4089 124.8900 125.1409 124.7367 124.4676 124.4834 124.3195 124.2112 124.1246 124.9752 114.6197 113.6102 119.3963 111.7636 119.0994 122.6359 124.7227 123.0214 123.5657 123.3398 123.1821 123.1312 123.0943 123.0769 123.0729 123.0640 123.0672 123.0813 123.0969 123.1301 123.1620 122.6720 123.0138 123.2638 123.3686 123.4236 123.4993 123.5808 123.6657 123.7400
119.8500 110.6557 117.8998 105.5759 119.9269 119.8899 118.4493 121.3787 115.1849 108.1840 114.4838 117.7015 103.4004 107.8885 120.4035 111.6612 110.9481 112.0363 128.0699 122.7834 126.1678 124.6415 127.3751 111.7584 122.2986 125.1343 125.1423 124.3508 124.3604 124.2420 124.1120 123.9782 123.9047 123.7893 123.0589 124.7289 124.0305 119.3284 125.3425 111.8862 123.5835 123.0389 122.9456 122.9745 122.9080 122.8785 122.8472 122.8244 122.8044 122.8017 122.8053 122.8106 122.8276 122.8543 122.8656 123.0098 122.9902 123.0550 123.1106 123.1778 123.2609 123.3454 123.4338 123.5000
127.9400 120.9940 115.9682 107.3548 103.5984 116.2520 118.9901 122.0116 124.3259 127.8702 108.8077 114.9599 118.5435 105.6005 105.3793 125.8089 115.8987 119.6256 126.9199 104.8262 126.4641 124.7484 125.0533 124.1158 126.8110 119.5476 116.2551 124.8460 124.0384 124.0558 123.9494 123.6103 123.9280 119.8030 123.8051 123.3679 124.0621 109.8716 125.0039 122.5081 123.6415 122.8273 122.5812 122.4691 122.6528 122.5978 122.5753 122.5434 122.5302 122.5258 122.5241 122.5384 122.5553 122.5934 122.6361 122.6666 122.7215 122.7844 122.8532 122.9312 123.0127 123.0955 123.1961 123.2700
127.8100 126.0491 128.0316 116.5857 108.3447 104.7899 116.5154 121.5372 125.4596 127.6217 130.3219 101.7883 102.1196 106.8434 106.4998 114.7976 126.0674 126.7341 125.3196 125.1148 126.1659 124.9347 124.8190 125.7185 121.5838 123.8831 123.3705 123.0757 123.9388 123.8680 123.7198 123.5655 124.5630 109.3926 119.8375 123.3301 123.5944 120.3852 123.5420 122.6605 120.1981 122.5622 122.2674 125.9014 122.0970 122.3791 122.2899 122.2595 122.2467 122.2402 122.2392 122.2560 122.2768 122.3025 122.3421 122.3960 122.4470 122.5212 122.5863 122.6710 122.7567 122.8492 122.9491 123.0100
123.7900 118.3986 117.6194 117.5066 120.8661 111.0298 110.2677 112.8842 120.3555 124.8021 106.5774 116.9499 107.4504 110.4018 107.0416 113.7097 121.8709 125.2340 125.1859 126.1369 120.7078 118.7732 124.2054 123.4184 110.4899 125.5186 124.1948 125.2222 123.7717 123.6541 123.5113 123.2417 123.5182 109.2444 114.0104 122.8537 115.6664 119.8980 113.4209 122.4801 122.5812 122.3490 122.1139 122.2325 121.8449 122.0752 121.9991 121.9674 121.9517 121.9502 121.9433 121.9610 121.9848 122.0149 122.0597 122.1084 122.1658 122.2384 122.3162 122.3986 122.4981 122.5946 122.6985 122.7500
127.7500 122.2682 116.8424 119.2765 108.8055 114.4102 124.6937 111.3773 103.0541 113.3534 104.9605 112.9301 117.5234 116.5337 106.0588 123.0834 124.6552 118.3664 125.0435 124.0964 104.4786 112.0729 126.4161 108.9607 117.4174 125.6661 123.5380 123.5991 123.6450 123.2801 123.3773 122.7650 123.7518 125.1023 116.0102 108.4401 121.4799 124.3974 124.2923 122.2737 121.8431 124.9261 121.9021 121.8787 121.7732 121.6580 121.7050 121.6672 121.6452 121.6411 121.6452 121.6541 121.6817 121.7114 121.7499 121.8140 121.8825 121.9578 122.0400 122.1272 122.2314 122.3329 122.4508 122.4900
124.7600 121.9524 117.6491 117.5397 115.5459 107.7510 113.2153 126.5297 115.5165 106.0420 106.1824 108.7983 117.8872 100.6327 111.9827 102.7604 108.6120 111.3609 125.9569 121.9978 123.7701 124.3832 123.9020 116.0011 120.1463 123.2270 123.6506 123.2887 123.5164 127.8368 123.1288 122.9689 122.9074 123.1959 114.4447 106.6332 119.6668 121.9676 121.7754 121.8261 121.8469 121.5828 121.3835 121.5269 121.9506 121.7955 121.3559 121.3606 121.3344 121.3222 121.3269 121.3481 121.3660 121.4082 121.5246 121.5565 121.5727 121.6658 121.7517 121.8453 121.9590 122.0624 122.1815 122.1800
124.7600 121.4514 111.1797 114.7358 116.6298 105.1051 106.8378 113.4362 113.1178 115.6030 106.7110 102.0477 111.8031 126.2950 113.6770 115.2094 114.4428 110.7114 125.4108 125.0384 124.7113 123.9223 124.5171 123.8104 125.4105 125.7135 124.3269 123.6553 124.5032 120.4151 123.9492 122.8245 122.3189 122.7769 123.7013 118.7995 116.1509 122.1005 121.7777 122.6955 121.4635 121.4328 121.4011 121.1915 119.0523 115.5516 121.3307 120.9412 121.0086 120.9992 121.0037 121.0132 121.0542 121.1575 120.3983 121.1712 121.2639 121.3624 121.4491 121.5658 121.6598 121.8037 121.9451 121.9200
121.1100 117.1824 116.5676 111.7058 109.8253 106.4022 107.5501 106.2380 104.5553 108.3654 114.0138 116.1111 103.8041 112.4779 106.7745 116.3434 113.5239 115.2135 125.8401 124.4891 124.2591 124.3500 124.0004 123.8901 106.4969 111.6249 121.6406 113.0856 122.5530 125.7451 122.2395 122.5237 122.1740 121.3679 121.9125 122.5472 121.8937 121.4783 121.3528 121.3976 121.0210 121.1040 120.8665 120.9348 120.8866 119.2480 120.9238 120.6782 120.6631 120.6594 120.6578 120.6754 120.7145 120.7750 120.1151 121.0294 120.9256 121.0531 121.1534 121.2728 121.4763 121.3313 121.5530 121.6300
121.2000 117.2025 120.1396 127.8746 116.3438 101.8864 109.6674 108.3182 105.3385 103.7829 105.9012 119.9045 125.1458 109.4027 125.1671 112.8494 121.4989 124.1938 124.4059 124.4109 124.1628 124.0232 124.0616 122.0103 127.0768 113.0279 118.6910 106.2795 123.3504 122.4271 122.4303 122.2915 122.0679 121.9801 122.0063 122.1429 121.4645 121.1919 121.2430 120.9917 120.8973 120.7857 121.2716 118.9092 122.1379 116.0110 119.7374 120.2091 120.3441 120.3058 120.3098 120.3262 120.3632 120.4101 120.5540 120.5220 120.6291 120.7264 120.8670 120.9024 120.8459 122.4097 121.2980 121.3200
116.5400 117.0742 123.6966 133.0861 121.9549 120.4000 116.2409 107.5350 106.6017 103.9130 113.9176 116.9010 123.1088 123.8370 126.7423 116.0088 125.5878 123.1386 124.4711 124.2443 124.1213 123.3546 129.2344 119.4809 123.7059 106.0455 110.8648 120.9223 122.1179 122.3901 122.2252 122.0151 121.8150 122.0472 115.4021 120.8301 121.0725 121.1134 120.6361 120.8225 120.5560 120.4607 121.2956 110.5815 117.3934 110.2789 110.6498 120.6233 119.9211 119.9386 119.9399 119.9581 119.9968 120.0475 120.1039 120.1930 120.2889 120.3922 120.4775 120.7708 113.6557 118.2135 121.0887 121.0000
116.0500 120.1024 105.8132 107.9075 120.0425 115.4618 111.5371 104.3549 106.6951 105.6464 104.3322 107.8248 119.6765 125.1498 125.0620 124.2786 124.9700 124.4876 124.2443 124.1131 123.8753 123.6288 122.8056 122.9640 122.9032 123.4150 122.7850 122.3760 122.2760 122.1835 121.9662 121.7889 121.5501 121.7190 120.7006 121.6330 120.6575 119.8659 122.2681 120.3664 120.2144 120.1314 119.8708 120.8678 122.3302 109.3075 122.1430 119.9427 119.5883 119.5484 119.5510 119.5914 119.6260 119.6786 119.7452 119.8309 119.9368 120.0431 120.1557 120.0845 118.8064 122.7998 120.5177 120.9500
114.9100 116.1317 122.7374 119.7766 110.4469 111.0978 119.7764 109.2202 120.7874 113.4680 103.4994 118.6851 117.4436 111.7660 125.7949 124.5823 124.4216 124.3667 124.1351 123.9478 123.7423 123.7081 123.3597 123.1712 122.8767 122.8920 122.4677 122.3740 122.1541 121.9506 121.7403 121.5459 121.3087 121.1684 120.9113 120.6877 120.8123 121.2973 117.8597 119.9356 119.8937 119.7541 119.4054 119.8410 113.5785 105.3287 113.8156 117.2610 119.0306 119.1981 119.1769 119.1163 119.1797 119.2947 119.3520 119.4586 119.5629 119.7027 119.8471 120.0182 119.3031 119.1648 121.1141 120.6600
116.7000 117.1671 118.6529 130.0808 120.3827 120.8499 111.1119 119.1349 111.2192 113.1437 111.7815 120.5251 122.3579 124.4042 124.6457 124.7064 124.4161 124.2111 124.0283 123.7761 123.3742 122.9219 123.1938 122.9938 122.8280 122.5873 122.4008 122.1641 121.9289 121.7271 121.5132 121.3022 121.0963 120.8791 120.6803 120.4698 120.1756 120.1683 120.0275 119.7786 119.5172 119.3880 119.1395 119.3945 113.0418 113.5763 108.7199 112.4749 118.6799 118.8101 118.6521 118.9569 118.8991 118.8881 118.9555 119.0519 119.2157 119.2275 119.2905 119.6361 120.0385 120.5265 121.1233 120.3200
116.7500 114.2876 122.4487 128.7040 119.8313 117.2029 120.2304 118.2154 107.9872 114.3805 117.1289 124.0371 124.0955 125.0746 124.4485 124.4787 124.2602 124.0440 123.8513 123.6496 123.3242 120.9635 122.9260 122.7439 122.4937 122.4051 122.1634 121.9522 121.7335 121.5072 121.2900 121.0507 120.8343 120.6190 120.3912 120.1730 120.0063 119.7120 119.5606 119.3392 119.1884 118.9979 118.6068 120.7064 122.6447 114.6967 121.1785 120.0577 118.2128 118.2397 118.5810 112.1147 118.7914 118.4477 118.5416 118.7158 118.5829 119.3769 119.0406 119.5912 117.0017 120.1957 120.4259 119.9500
123.5800 110.8833 112.6779 121.0289 121.0121 117.0288 112.1674 120.6754 116.1781 118.0234 126.6947 128.7255 125.8571 124.9627 124.5733 124.3713 124.2957 124.1219 123.8625 123.5411 124.1842 124.8243 123.5219 122.6772 123.5759 122.1483 122.0561 121.7685 121.5282 121.2667 121.0171 120.8438 120.5075 120.2588 120.1092 119.8805 119.6463 119.4220 119.2071 119.0039 118.8078 118.6256 117.8488 122.7622 119.9446 117.8657 119.9995 118.1271 117.7692 118.2268 112.9614 115.2105 118.0104 118.0473 118.0902 117.9748 118.2329 116.5291 114.2313 117.4948 112.8857 111.3680 119.1232 119.8700
124.5400 112.8202 109.4932 109.1042 112.0280 110.1685 102.0170 111.9019 112.1033 129.1322 119.0198 123.6323 124.4335 124.5985 124.4767 124.2911 123.7361 123.1749 123.4760 123.6637 113.8764 116.1287 115.9975 115.1296 121.5049 122.2606 121.3438 121.5550 121.3263 121.0806 120.8362 120.7736 120.7187 120.3375 119.7408 119.5769 119.3136 119.0850 118.8533 118.6263 118.4138 118.2044 118.0627 117.4004 117.2974 117.7016 117.2122 117.2922 117.3352 117.3028 109.8797 118.4340 117.3859 117.4340 117.5810 119.5625 117.6326 116.6972 112.7698 110.5883 116.9377 118.5225 116.9517 119.5200
117.1200 118.8128 112.6631 109.6487 110.2014 110.2143 110.7135 109.3432 105.2415 110.3284 116.3394 127.2985 124.8993 124.4186 124.3645 124.0241 125.6092 132.1475 124.2450 123.4154 117.5697 111.4294 111.0859 107.3568 121.1455 119.7169 122.0465 121.3983 121.1077 120.9501 117.1866 120.8537 120.7574 111.8919 119.1904 119.3610 119.0471 118.7421 118.4938 118.2475 118.0192 117.7898 117.5712 117.4533 117.2957 117.0562 117.0231 116.6677 116.4469 110.1671 107.3961 117.9080 116.5967 117.1856 106.8629 107.4528 111.4274 107.4530 102.8986 108.9838 103.3680 117.5344 109.1781 110.0700
108.8500 112.7235 110.8704 107.2710 106.8941 108.8171 108.0673 101.4452 103.1369 111.4009 117.2322 124.8163 124.8282 124.4476 124.2916 124.2304 124.0351 108.5785 123.2516 123.0792 124.2435 124.1209 113.4113 119.6601 122.2911 115.0104 121.1558 121.1160 120.9002 120.7551 121.9548 115.1452 109.2948 104.1482 110.7947 116.6828 118.6651 118.3881 118.1198 117.8520 117.5978 117.3498 117.1326 116.9090 116.7181 116.5738 116.4300 116.3157 116.6624 102.9207 102.1952 117.2600 115.9507 111.5931 118.7134 110.9353 110.6397 117.3038 104.4818 109.5619 118.7872 111.9405 109.0458 106.7300
114.4000 112.0228 107.1074 108.1284 105.9589 105.9332 104.8686 107.9601 103.7751 105.8050 116.7836 122.2443 124.5925 124.1580 123.9433 123.9973 123.9822 125.5617 123.4742 123.1434 122.6713 122.9190 118.3313 122.4571 122.1183 122.8071 121.6479 120.9941 120.7193 120.1463 120.0957 104.9597 107.4021 108.3334 110.9871 117.8086 118.4555 118.0345 117.7399 117.4490 117.1531 116.9494 116.6189 116.4313 116.1955 116.0134 115.8708 115.3144 108.5888 102.4901 99.3336 119.1085 115.0276 113.2190 112.7521 109.7425 117.5734 119.9983 111.0444 106.9911 110.7067 111.2835 113.7397 118.2700
111.0100 121.0832 116.5902 113.8339 109.4511 108.1260 106.0209 103.2956 107.5642 117.5694 116.6129 111.6974 125.3637 124.9977 124.9344 124.1790 133.4556 102.2210 125.9436 122.6841 122.7907 122.8847 116.9318 122.2644 121.5853 121.2683 121.0451 120.7875 120.5468 120.2856 119.1130 109.3732 118.7277 103.3529 118.6066 121.1250 117.6992 117.7103 117.3472 117.0226 116.8100 116.1478 116.2116 115.8605 115.7767 115.4243 115.1994 115.7282 111.7669 100.8027 105.4490 107.9832 102.4188 115.4811 124.3300 116.0469 113.3456 112.2355 118.1286 117.8243 122.4610 105.5578 117.3015 117.7700
119.4900 119.5755 108.6825 110.1767 111.0089 127.4242 119.3572 104.5832 104.7060 105.7654 114.0777 121.7271 118.4620 116.7678 122.7825 110.2456 136.0577 121.0336 123.7198 122.7907 120.9559 122.4417 121.9345 121.8961 121.4917 121.2290 120.9287 120.6449 120.2804 120.5273 110.8225 108.9368 121.6592 106.7721 115.4070 118.1187 117.7131 117.2910 116.9573 116.6372 116.0683 117.3220 109.0016 116.7612 114.7582 114.8322 114.7153 113.7463 122.6038 117.8415 121.7342 107.2267 117.5585 113.7918 114.6584 114.4641 116.3116 115.4004 116.2175 117.9066 117.3067 105.5778 117.8975 117.7200
110.6600 110.4032 109.8090 109.3736 108.1348 106.4755 105.7208 104.6244 112.1719 114.3770 105.8401 118.0698 125.3971 124.3655 124.1751 123.7965 123.1033 122.7264 122.9616 122.8550 122.3914 122.2974 121.9393 121.6515 121.3681 121.0896 120.7808 120.6177 120.5629 119.2671 126.7872 121.5987 119.8401 118.5821 118.4051 117.0609 117.4259 116.9437 116.5540 116.1514 116.1063 113.9358 104.0327 114.5033 115.1773 114.1836 113.9112 113.7458 113.6820 115.9258 116.2417 113.9010 113.4339 114.1060 114.3529 114.6885 114.6456 115.2848 115.7946 114.6828 116.4843 116.8067 102.7221 103.1200
115.3600 114.5876 113.6718 110.5343 107.3965 108.2285 105.9074 103.3752 102.8927 111.1808 122.0415 124.9258 124.0953 123.8477 123.5930 123.3657 123.3287 123.2566 122.9400 122.6730 122.3148 119.6491 121.6539 121.5156 121.2288 120.9276 120.9485 117.6260 119.6115 113.9321 111.5767 118.6640 118.2902 118.1905 117.1236 116.1581 117.0294 116.5694 116.1431 115.7388 115.3211 115.2100 115.8721 104.5808 113.0700 113.4208 113.1601 112.9521 112.8179 112.5033 112.4670 112.8209 113.1328 113.2736 113.5861 113.9372 114.3365 114.7382 114.9598 115.8695 115.6968 113.1483 115.9253 112.8800
114.7300 116.6299 111.6339 118.0163 102.2012 103.0980 103.9425 106.2253 104.4657 100.4463 118.6813 115.9901 124.4213 124.1349 123.8292 123.6042 123.3306 122.9152 122.3778 122.4421 123.6846 114.8774 123.1125 121.1941 121.1089 120.7426 121.8551 102.8460 112.2023 115.9764 123.5114 118.6229 118.3293 117.9199 117.4312 117.2147 117.0278 116.1184 115.7493 115.2465 114.9503 114.3490 113.1605 113.0232 114.1998 112.4815 112.3464 112.0914 111.9221 111.8493 111.8911 112.0045 112.1990 112.5110 112.8620 113.2551 113.6817 114.1348 114.6176 115.0373 115.2373 117.2502 96.9704 109.5400
115.6400 108.3287 109.1824 104.6658 106.0419 103.5170 104.5863 119.0973 107.2807 114.1328 127.5922 124.8874 124.0602 123.9832 123.7002 123.4625 123.1852 123.5584 125.2676 123.0948 123.2940 123.2886 116.0879 121.1465 120.9914 120.7442 120.1046 126.9109 111.8559 119.8012 128.4763 117.6177 118.1172 117.5825 117.8860 116.9722 110.9993 119.7548 115.7525 115.0742 111.0038 114.4911 113.2760 112.8110 112.1055 111.8978 111.4486 111.1446 110.9380 110.8475 110.8718 111.0232 111.2945 111.6448 112.0649 112.5445 113.0389 113.5595 114.0822 114.6347 115.1662 115.3293 98.7814 109.5400
104.4100 111.2539 111.2141 112.2985 104.0264 104.6385 109.1466 113.5746 114.3130 114.6409 123.3441 124.0062 124.0304 123.9106 123.6608 123.4365 123.1590 124.6031 110.2459 119.5538 121.9037 121.4238 122.2762 121.4080 120.8415 120.4943 119.6312 121.4258 121.4586 119.4479 118.1693 118.5349 117.8763 117.5463 112.3071 109.3732 112.6627 118.7729 112.5554 114.6044 113.3485 113.3177 112.2863 112.1319 111.5240 110.9489 110.4836 110.0910 109.8218 109.6962 109.7363 109.9388 110.2783 110.7094 111.2259 111.7965 112.3804 112.9733 113.5565 114.2397 112.7578 103.4954 99.5475 111.1800
104.9300 108.2209 115.4314 118.4794 115.8746 119.1191 122.1745 108.2842 121.3463 113.8359 116.3389 124.3426 124.0677 123.8010 123.6062 123.3611 123.7572 116.4546 111.9486 114.6599 122.2364 121.7278 121.0151 120.7312 120.0705 120.6205 122.6926 123.5661 119.8161 118.9815 118.8155 118.2474 117.7333 117.3088 114.4828 106.7780 116.4366 114.6544 114.6119 113.9437 113.3905 111.1306 111.6140 111.3578 110.6783 110.0061 109.4095 108.8985 108.5486 108.3808 108.4456 108.7036 109.1450 109.6980 110.3368 111.0071 111.6997 112.3748 113.0629 113.7163 111.9802 108.2673 108.8286 105.1400
104.3900 103.5291 106.1493 110.2195 124.6636 125.7248 127.7475 102.7334 127.3249 125.5570 128.3835 125.0018 124.6320 124.1052 123.5187 123.3287 123.0574 120.1766 124.5441 123.6563 121.9466 122.0727 122.1303 122.4322 122.7107 114.1719 133.0206 112.0089 120.8248 118.7745 118.3921 117.9821 117.5413 117.0814 117.1632 117.2393 111.3336 115.3492 114.5202 113.5316 112.9098 112.4424 111.6640 110.5829 109.7901 108.9807 108.2068 107.5419 107.0631 106.8370 106.9174 107.2783 107.8651 108.5953 109.3904 110.2090 111.0135 111.7952 112.5647 113.2318 114.2575 116.1768 115.9902 105.1400
104.3800 111.9033 108.6643 108.1870 111.2225 109.7701 110.4642 120.3703 107.1986 130.0984 107.1316 117.5866 121.1479 120.0142 123.8345 123.3130 123.0172 123.1901 122.5754 121.9912 122.4498 118.0382 116.2213 111.3817 107.3762 110.5215 105.0906 104.7824 105.7751 119.8369 118.1939 117.8610 117.4001 116.8994 116.2887 115.6789 115.3420 114.4162 113.9427 113.2390 112.4663 111.6346 110.7520 109.8740 108.8909 107.8869 106.8983 105.9826 105.2921 104.9531 105.0701 105.6040 106.4400 107.3984 108.3982 109.3947 110.3430 111.2391 112.0763 112.8376 113.6304 113.9271 114.5053 100.8700
106.1600 103.8639 113.0813 124.1809 124.3567 106.2668 103.8429 105.3623 102.8220 105.2019 103.3526 106.1341 122.6354 114.2988 121.8103 123.0014 123.0600 122.6474 122.4248 122.1270 123.0129 109.0815 118.1177 103.7995 102.9541 102.8535 106.6841 104.6450 104.1219 119.7151 118.1002 117.7335 117.2725 116.7515 116.2205 115.6168 114.9937 114.3627 113.6700 112.9048 112.0890 111.1979 110.2286 109.1573 108.0062 106.7635 105.4489 104.1865 103.0957 102.5292 102.7353 103.5996 104.8165 106.1270 107.4001 108.6065 109.7104 110.7255 111.6488 112.5153 113.3142 113.8914 114.3745 103.7600
126.3700 125.3431 124.8557 125.9822 125.9511 125.3404 123.7974 126.3899 103.3402 126.7931 106.5117 101.8718 122.8981 123.1890 122.8938 123.1666 122.9060 122.7405 122.4004 122.2216 116.1502 113.2598 111.7056 103.8073 123.3409 103.6982 107.3105 109.0454 120.1199 118.3752 118.1216 117.6616 117.1655 116.6425 116.0851 115.4893 114.8612 114.1708 113.4342 112.6296 111.7548 110.7961 109.7177 108.5267 107.1769 105.6518 103.9395 102.0541 100.3020 99.2314 99.6555 101.1419 103.0256 104.8304 106.4436 107.8860 109.1489 110.2809 111.2937 112.2243 113.0305 113.3602 120.8973 129.2800
123.2700 114.8730 127.0935 125.8292 125.6840 125.4021 125.1624 124.7700 124.8527 124.8598 124.5245 124.4523 124.0213 123.9649 122.8063 122.5901 122.1794 122.6104 122.2907 122.0245 123.1513 113.3755 109.5091 120.3423 106.3707 107.6839 109.3337 120.5816 119.3345 118.3168 118.0750 117.5953 117.0903 116.5628 115.9891 115.3833 114.7291 114.0251 113.2623 112.4277 111.5097 110.4812 109.3329 108.0115 106.4742 104.6522 102.4446 99.7144 96.3700 93.5011 94.5644 98.2251 101.1667 103.6272 105.6279 107.2872 108.7004 109.9329 111.0187 111.9976 112.7704 113.0643 117.2139 103.5800
125.4500 127.0284 125.9616 125.8841 125.6457 125.4879 125.3187 125.1701 124.7866 124.6400 124.3381 124.1770 121.6509 123.3963 100.2146 119.3391 102.0978 125.8585 116.6400 121.8868 123.2496 105.5453 106.5086 101.8982 104.0435 102.3792 114.9961 114.6784 118.8897 118.4336 118.0195 117.5565 117.0463 116.5074 115.9306 115.3180 114.6577 113.9353 113.1586 112.2959 111.3518 110.2801 109.0773 107.6668 105.9980 103.9355 101.2638 97.6332 91.0507 87.1307 88.4215 94.7605 99.5896 102.7306 105.0459 106.8850 108.4094 109.7155 110.8492 111.8736 112.7527 114.3389 115.0087 118.6600
105.4400 125.6657 125.8055 125.8460 125.6647 125.4350 125.2216 125.0404 124.8609 124.5834 124.3598 126.5551 103.4970 106.1770 103.5661 109.9977 126.9287 117.2526 120.8943 121.8472 121.8201 122.5996 124.1154 106.1833 111.1128 122.7377 116.9766 99.2056 120.0348 117.9767 118.0303 117.5548 117.0319 116.4882 115.9131 115.2957 114.6285 113.9040 113.1246 112.2581 111.2966 110.2143 108.9836 107.5455 105.8181 103.6644 100.7935 96.5720 88.7204 84.1896 85.5864 92.8264 98.9561 102.3894 104.8304 106.7444 108.3076 109.6335 110.7844 111.6398 114.2265 119.7523 99.1724 97.0500
105.4400 123.8167 126.0397 125.8493 125.6504 125.4630 125.2625 125.0523 124.8292 124.5963 124.3538 124.1809 127.1052 113.9371 125.4936 120.5955 121.2631 117.9440 121.6948 122.0359 121.6177 120.9019 122.3321 108.5375 110.6680 120.0020 112.8742 101.3334 120.1751 116.7853 117.9820 117.5657 117.0483 116.5055 115.9317 115.3134 114.6534 113.9345 113.1578 112.3007 111.3481 110.2814 109.0691 107.6617 105.9861 103.9238 101.2558 97.4384 91.6899 87.8420 88.6081 94.5771 99.5545 102.7277 105.0395 106.8820 108.4120 109.7030 110.8314 112.0356 114.8444 118.2443 101.4727 99.5000
128.1800 123.4800 126.1000 125.8400 125.7100 125.4300 125.2900 125.0100 124.8600 124.5600 124.4100 124.0900 123.9200 123.7600 123.4200 123.2400 130.1900 119.4100 122.3000 122.1000 121.6900 121.4700 121.2500 120.8000 104.8000 120.0600 107.4800 104.8000 124.5100 118.3800 118.0600 117.7300 117.0400 116.6700 115.8800 115.4600 114.5500 114.0500 112.9700 112.3800 111.7400 110.3100 109.4900 107.5900 106.4500 103.6400 101.8100 99.5000 91.3300 91.8500 91.3300 96.7100 99.4900 103.6300 105.1500 107.5800 108.5800 109.4800 111.0500 111.7400 118.3100 113.5300 101.7400 99.5000
