116.5100 119.7300 117.6300 113.4400 112.5500 111.8300 122.0000 112.7900 119.2200 118.8000 107.2700 118.1400 107.0200 116.6500 116.6500 120.2500 116.8000 119.3900 119.8000 125.9100 125.9100 109.5300 119.3400 119.3400 113.0000 117.0400 116.9600 105.6100 105.4900 114.0700 114.0700 119.0900 119.0900 109.8400 106.5900 126.9300 126.8400 126.7500 126.7500 126.6500 126.5500 126.5500 126.4400 126.3300 116.6400 126.2500 126.1000 126.1300 126.0000 126.0200 125.8900 125.9300 125.9300 125.8000 125.8100 125.8200 125.8400 125.8400 103.6800 111.7600 113.8000 125.6800 125.6800 125.6800
116.5100 114.5727 116.9611 113.6944 115.2552 107.1114 109.6215 111.6385 113.2968 116.5247 107.1966 113.4790 116.9820 120.6430 116.0304 118.3898 116.8732 119.3685 122.9752 123.9887 116.2982 111.1388 117.4284 110.1886 107.1570 114.8451 112.2433 104.6324 107.6176 111.0803 118.3457 110.7159 117.4057 111.4149 107.4083 113.7878 117.4015 126.8698 125.4061 120.2216 126.0542 129.1862 126.1447 126.3737 125.4554 121.9555 126.4260 125.9597 125.9291 125.8743 125.8341 125.7940 125.7579 125.7125 125.8271 126.7726 112.7474 106.1153 102.4154 112.3553 111.1763 124.9652 125.4552 125.6800
116.5600 115.6988 113.8342 113.4037 117.9376 116.2874 113.3566 116.1540 113.8389 121.3992 118.9362 104.4909 111.7746 110.5225 109.0107 115.7162 118.4625 115.4699 117.3396 118.5865 111.2932 112.9486 122.7620 108.8214 105.5731 108.6851 112.4915 111.9959 106.9810 121.2477 108.9784 116.1285 107.7621 116.6873 115.5588 116.2910 122.1524 131.3722 126.9992 124.8934 126.6449 126.0163 126.0875 126.0271 126.5362 125.5084 124.3050 126.1033 125.7371 125.6908 125.6442 125.5999 125.5695 125.5772 125.6177 126.2351 113.1626 104.8747 102.9823 111.5575 110.9886 117.5331 125.4081 125.5000
121.9100 116.2484 111.6158 112.4969 114.1491 116.6450 118.7799 113.5018 107.4863 111.7670 119.0522 115.1026 106.1605 108.5731 120.9216 120.0359 118.5984 113.2397 117.0234 114.5921 108.3746 104.4548 115.2904 116.8932 102.6811 107.3434 116.2539 114.2507 113.1557 104.3832 104.6110 125.5550 130.0411 112.7091 109.9558 124.6553 129.1637 126.3727 126.3751 123.2384 129.5966 125.9345 125.9356 125.8517 126.6441 117.5864 117.9590 125.2554 125.4369 125.5409 125.4476 125.4145 125.3712 125.1902 124.8341 125.5515 112.6620 103.7319 101.4896 106.8298 109.9377 115.4647 125.8886 125.3100
114.3500 113.7215 120.9654 113.4791 112.4214 112.1463 118.6087 118.5223 107.4431 104.9682 111.1889 107.9515 113.8883 105.9671 110.4168 118.3087 118.0673 119.4097 111.9160 113.9172 115.7593 120.0684 115.8407 120.4944 120.4463 110.4383 111.0428 106.8077 116.8232 117.5974 105.9473 124.6888 129.3320 127.9849 112.5813 121.2658 118.1723 126.2065 126.7808 123.8478 126.1196 125.8414 125.7551 125.7235 125.9641 111.1340 107.3692 121.1920 125.6978 125.3092 125.2566 125.1960 125.1799 125.4196 125.8701 122.4721 102.0824 107.5458 111.9524 118.8761 125.0668 125.7654 124.9315 124.9300
114.1000 108.6558 121.6462 119.0422 114.4931 109.2826 110.4385 112.7017 109.2405 113.9813 106.9350 106.3707 110.3655 111.3489 105.3271 110.3492 119.9062 118.4997 113.6756 110.0020 114.2515 113.6216 115.9829 115.6926 115.4517 111.6500 116.3643 110.4829 124.4766 110.5452 115.6797 115.2679 127.9467 126.0648 121.7418 126.8205 125.1927 126.0288 125.9313 125.8576 125.9447 125.7036 125.6480 125.4882 125.5577 125.2223 122.0850 125.9448 122.6887 125.6706 125.0399 124.9853 124.9755 125.9893 113.7502 101.4693 104.9728 113.0651 112.8533 121.4461 124.6485 124.5627 124.8402 124.7300
124.9500 114.0764 112.1376 120.8470 120.8509 119.1915 111.7660 111.1891 110.5094 107.6921 111.3130 108.0253 106.4427 106.9896 112.2815 113.4251 107.0153 112.3734 119.2308 115.6346 116.0544 117.0685 115.1509 122.1888 119.4131 120.5938 114.3703 124.2706 128.4753 123.4729 126.3181 127.0889 123.5891 110.9732 127.9094 126.2114 125.9974 125.7637 125.8570 125.8421 121.7707 125.8574 125.3065 125.4112 125.1330 126.0088 116.9790 119.8228 119.2797 125.4632 124.8289 124.7764 124.7864 125.2570 114.8335 106.6458 107.2810 118.9629 121.5698 123.6761 123.5306 124.6256 124.5889 124.5300
118.9800 121.4154 119.8997 116.1120 115.7199 116.2971 119.1325 109.3462 110.6983 110.3820 106.5375 106.8001 105.9838 106.5329 105.8655 112.3209 110.6634 109.0117 111.2923 112.8197 115.5577 115.2820 115.3427 120.6685 107.6964 117.1279 115.8047 113.9491 109.2983 125.7055 126.3958 126.4164 126.0769 125.0451 125.3679 125.7823 126.1322 125.6896 125.5465 125.4956 122.1378 124.7519 125.9458 125.0332 125.7438 126.1762 122.1453 124.3706 121.6037 124.8864 124.6230 124.5747 124.5617 124.1803 126.9558 112.9312 110.2425 124.3996 124.2240 124.4739 124.4177 124.3461 124.3498 124.3300
125.0600 125.7951 121.6204 120.1270 112.1469 116.4093 116.7492 119.9590 108.8270 110.1371 107.5369 117.2008 107.5361 105.6187 105.8561 104.8227 111.4123 111.1390 110.4534 112.8591 115.3762 115.3198 109.6108 114.6818 109.1895 123.6410 119.4819 127.0979 117.2925 123.3466 123.9971 126.8000 104.7011 120.2416 124.3683 125.7130 125.7019 125.4595 126.3292 125.5136 124.9908 116.7009 124.3282 124.9864 124.5347 105.6030 121.7620 126.1036 125.6986 124.2895 124.4099 124.3763 124.3167 123.9914 124.1063 126.3226 122.9098 123.9240 123.9514 124.1404 124.1366 124.1250 124.1388 124.1200
125.0200 124.5485 118.8948 120.1504 119.5153 113.1243 112.7969 113.5459 120.6186 113.3893 109.8264 107.5108 112.4320 112.4927 109.5048 110.9454 110.2140 110.3187 113.3176 106.0395 109.0294 114.0108 116.3122 114.1082 118.8327 119.4160 133.4534 121.6829 126.8061 131.3338 125.1498 128.6510 115.7836 125.1080 124.9393 125.5254 125.4479 125.9585 119.5665 123.6888 125.4350 123.7340 127.3204 121.0533 125.8098 123.5308 123.2432 121.9811 123.8775 124.2336 124.2253 124.1157 123.9387 123.9952 124.1895 115.5438 124.5650 124.1321 123.7886 123.8682 123.8669 123.8790 123.8921 123.9000
119.1400 119.3058 118.6511 118.6582 118.7350 119.0121 118.2775 112.0840 115.7756 119.1559 113.4909 112.4241 105.2769 106.8932 113.8808 109.7114 110.5683 107.0190 114.2072 111.1035 106.8614 104.7557 109.4878 115.7543 113.4883 128.3335 130.4669 131.1050 124.0390 125.6235 126.2144 126.7427 126.8575 111.3135 126.5115 125.3042 125.3023 124.9884 130.0192 124.9739 124.4902 127.2022 114.3898 98.5104 110.1059 124.8530 120.7152 124.5489 124.3244 123.9972 123.9821 124.1619 124.7492 123.7564 123.5315 107.7568 124.4323 123.7169 123.6440 123.6412 123.6384 123.6345 123.6589 123.6800
124.5000 126.0472 118.5868 118.3559 118.3224 117.8717 119.3237 117.7792 112.2932 112.9937 112.4328 120.3691 110.9316 107.6752 107.0021 111.9847 109.6315 106.8109 112.2468 104.2701 110.4918 111.0124 106.0644 113.0542 116.7971 123.6974 125.3172 126.0791 125.8715 126.1229 125.8263 126.2877 123.2285 126.9334 125.9007 125.3091 125.1803 125.1881 124.0376 124.5302 125.4645 110.8517 101.2984 103.3517 125.3542 124.8895 124.4364 123.9609 123.8338 123.8164 123.7578 123.8230 115.6934 124.5834 124.3592 121.2058 124.3293 123.4256 123.3684 123.3868 123.3755 123.3945 123.3928 123.4500
116.6100 119.6981 117.1609 118.6355 117.8960 117.7042 117.7046 116.9140 117.7475 109.8149 108.0958 106.9704 113.4670 109.3866 111.5826 104.9591 110.7324 110.7330 105.2892 106.0313 109.1356 119.7310 108.3095 118.8637 127.0895 124.1338 126.2495 126.1342 126.0084 125.8833 125.4611 129.0710 109.5728 116.7965 125.2212 124.9950 124.9609 124.9484 110.4571 126.0219 125.0072 114.2984 104.0743 102.2099 118.9784 123.7884 123.8320 123.7394 123.6802 123.5727 123.4963 123.8129 121.6436 124.2162 119.0538 120.1202 115.3250 123.1974 123.2323 123.1280 123.1644 123.0288 122.8010 123.2200
116.6100 113.7433 115.9494 117.3990 118.5783 117.6861 117.5313 117.5731 116.0712 116.9387 117.4408 110.6453 109.3959 110.1113 114.0228 107.7371 104.0294 109.2119 106.3309 104.7009 112.5382 111.0726 115.8432 109.1730 124.7539 127.9587 126.5373 125.8283 125.9094 125.6065 126.3192 115.0685 120.2801 126.4232 125.3036 124.9307 124.7745 125.8350 119.1527 124.1876 125.0737 116.6555 99.9458 104.3484 115.3794 123.9107 123.6087 123.5110 123.4214 123.3321 123.2742 123.1505 123.3648 123.5998 106.7581 124.7606 122.0740 122.7960 122.9410 122.8628 122.8972 122.8640 119.5454 107.2900
121.8300 111.0068 113.8046 107.9868 114.2683 114.3090 116.7827 116.4096 116.6725 118.4246 115.5214 117.3802 111.3665 110.6892 104.6213 109.0754 112.2527 104.3049 104.9334 106.4300 116.6528 101.7006 125.4610 115.3746 124.4077 122.6460 123.0608 122.0367 125.7600 125.4874 125.3065 123.0652 117.7292 115.6649 125.1021 124.6924 124.5741 124.2088 123.5113 124.4219 123.6650 106.9191 101.3083 115.9966 121.7681 124.0076 123.3942 123.2793 123.1882 123.0971 123.0102 122.9139 122.9431 123.8441 120.4366 122.5394 122.3429 122.4666 122.6418 122.5888 122.5689 122.6512 123.5928 122.7300
107.2100 119.2368 119.3849 112.3456 106.6500 112.6034 112.6521 116.5843 115.4985 116.6298 115.1490 114.9214 113.8370 106.4998 114.4567 108.3853 106.4758 105.1870 105.0641 105.0251 107.2415 124.9284 121.0598 126.7702 127.6444 125.4260 124.2823 123.8116 125.6233 125.3480 125.3231 125.5424 119.7848 125.1688 124.5933 124.5906 124.2409 124.3008 123.8946 123.9691 124.8886 124.6660 119.4539 121.7393 123.5043 123.1764 123.1716 123.0387 122.9406 122.8451 122.7518 122.6862 122.6868 123.8280 108.1860 124.2664 121.9287 122.3899 122.3535 122.3085 122.3175 122.1809 123.2978 114.6600
115.9800 116.5821 121.0317 121.3745 109.9208 106.8223 108.8879 113.8387 111.4620 114.8496 117.5216 114.0133 117.4889 114.0347 111.2451 109.4119 104.2783 104.6051 106.6022 105.0459 106.0458 108.0121 124.4956 124.2676 126.1695 127.8475 125.8891 125.6619 125.4898 125.2713 125.0694 124.7369 125.3878 124.8622 124.5179 124.5421 124.1363 125.1348 124.5029 123.7163 123.8065 123.1075 122.6101 123.6490 123.0980 123.0526 122.9040 122.7967 122.6862 122.5872 122.5210 122.2423 122.3777 123.2093 104.0883 124.4101 121.5590 122.0378 122.0390 122.0143 122.0243 122.0201 120.4195 121.9500
120.8900 116.7417 113.1954 108.5477 115.7057 113.6809 111.5374 115.2879 113.8420 111.1361 111.2347 112.9470 113.7583 112.6941 109.9303 110.5283 110.6407 107.1910 106.6087 114.5894 108.2467 128.9319 125.2670 126.4819 125.7312 124.6058 118.3788 125.8528 125.0741 125.1695 125.1974 123.4306 125.8820 124.4428 124.0811 124.9206 112.1528 113.9862 123.5658 123.5372 123.4595 123.4086 123.2192 122.9777 122.9176 122.7674 122.6859 122.5564 122.4296 122.3202 122.2504 122.9783 122.3749 122.3720 120.8591 122.5353 121.4575 121.7526 121.7433 121.7210 121.7136 121.7223 121.9158 121.6700
114.4800 120.3695 120.5037 110.8305 109.8166 106.7875 114.6270 114.9136 112.1915 109.8723 113.4096 110.2413 115.8769 108.6199 108.7313 106.7298 104.8808 107.7742 117.5923 105.8531 105.2230 120.4151 125.6682 124.8517 115.9489 128.5414 120.8808 125.4427 123.6883 125.2791 124.5860 126.1013 125.1377 121.8408 124.7742 124.1188 115.1367 107.2925 120.7509 123.7374 123.3046 123.0587 123.0872 122.8940 120.8490 122.7712 122.3333 122.2885 122.1672 122.0522 121.9587 122.2546 108.6943 121.7906 121.5707 121.4693 121.4009 121.4474 121.4159 121.4032 121.3942 121.4017 121.3996 121.3800
121.4000 124.8770 112.4883 120.8727 115.8393 113.1933 107.6760 106.7807 114.8532 111.3241 108.9223 109.9507 110.4393 115.6815 118.3163 108.8380 106.7688 109.4197 107.9320 111.8425 109.9439 122.8867 120.5340 126.8264 114.3146 111.2048 99.3612 118.5107 108.6669 125.6243 124.7413 124.5523 125.0240 111.7174 124.0343 108.9023 120.7521 110.3303 111.3934 121.8082 122.8070 122.7955 123.4586 120.0620 122.5757 122.0508 122.2293 122.0197 121.8938 121.7767 121.6444 121.6872 121.3435 123.4251 121.4102 121.2622 121.1915 121.1410 121.1028 121.0508 121.0706 121.0786 121.0942 121.0900
113.2600 114.1389 111.6211 117.8203 110.1234 116.4028 114.4776 108.1742 106.5159 115.5604 112.0213 110.1205 108.4506 108.7101 108.8605 116.4312 106.4830 117.4409 123.0396 118.6337 123.5644 125.1326 126.3288 126.5775 119.0009 112.2605 102.6220 101.2904 115.3722 126.2435 123.5427 122.6354 120.4607 123.1488 108.3575 110.7244 105.0572 119.0459 113.3362 106.7050 120.7758 121.9018 103.1999 99.4457 109.9995 123.7686 121.8850 121.7650 121.6224 121.4793 121.3902 121.1722 121.5052 111.1536 118.0956 120.7933 120.8715 120.7970 120.8647 121.2087 120.7351 120.7509 120.7561 120.7800
125.3500 116.6394 112.9971 113.2896 111.6143 113.9271 110.3413 115.3671 108.1695 120.9390 108.4906 110.3944 105.7783 110.4311 105.6427 107.5132 106.3831 116.5605 121.8993 123.1546 126.5959 125.9130 126.1494 127.5706 111.0222 112.8768 110.8639 105.6046 112.3919 123.6052 108.2360 119.3540 103.9245 107.2493 102.9043 102.3625 107.8889 111.1601 104.1648 112.1024 98.7829 120.9523 114.8570 106.1867 104.5153 121.0558 121.1826 121.5090 121.3330 121.2042 121.0580 120.9026 121.9761 102.0567 116.2681 120.3956 120.5601 120.4396 120.5856 116.1189 120.5552 120.2770 120.4045 120.4600
106.7600 118.4562 112.9131 112.8990 115.5525 111.1504 108.9899 112.4917 110.8043 110.3278 111.3683 106.0981 107.4562 113.2051 108.1725 109.0017 107.8957 113.5550 118.1237 120.4543 125.9756 125.9017 125.0546 114.4506 103.2517 106.8144 103.9700 106.0076 109.5250 129.9969 115.5783 120.7190 106.7930 105.9642 106.7418 104.3428 105.4475 110.9309 100.8965 105.6144 112.1896 120.3374 126.5387 103.9566 103.3190 117.7260 121.8457 121.1850 121.0483 120.8906 120.7636 120.6261 119.9096 115.3610 114.8654 119.4953 120.1871 120.0400 121.1269 108.9902 121.1026 120.0029 120.0247 120.1300
114.4800 111.7214 106.4448 119.4108 117.1498 110.4471 110.1880 109.5270 109.2995 109.7241 110.0319 109.3889 107.7978 108.0879 111.4740 112.9789 116.1190 123.0150 119.9101 122.2751 126.2075 125.4055 125.3079 103.7368 103.4218 102.9167 112.7765 101.0040 116.2486 113.2807 115.1548 109.4213 103.0482 107.6781 101.9458 114.2520 107.1562 124.6259 113.2466 100.5765 106.3813 102.1896 107.1545 110.6746 116.6605 117.4903 120.1812 120.9361 120.7314 120.5802 120.4561 120.3383 119.8311 114.3147 113.5171 121.3755 119.9539 119.6848 119.2140 120.9852 120.5917 119.6395 119.6692 119.7900
114.1200 113.3335 110.8851 116.2304 119.2741 120.5268 110.3298 111.3946 109.4523 106.9711 109.2675 109.7401 111.3345 108.1017 108.1582 105.8446 114.9794 119.5630 120.1511 126.5165 125.6973 125.4629 126.4504 101.4402 116.2819 120.7038 126.1586 108.7981 125.1519 118.4102 112.6525 108.1931 109.6462 103.7256 102.4158 111.6091 114.2051 127.6032 100.5700 102.7350 102.8295 104.0437 105.6265 122.9100 120.7674 117.1034 121.5440 120.5905 120.4406 120.2764 119.9506 119.9903 119.6437 118.3159 112.1547 114.4893 115.1187 119.3411 119.3760 119.0463 119.0147 119.2496 119.2726 119.4300
116.0800 118.2477 107.1534 112.7663 109.2597 115.8009 109.7618 107.0829 109.5669 119.5872 107.9309 107.1881 109.9817 105.3485 111.8974 103.2818 124.8709 115.1079 125.1164 125.4989 125.5638 125.2718 124.9719 121.4585 103.7576 107.9416 105.9807 108.8013 125.0951 124.9213 123.3345 119.5762 105.2685 108.0176 104.1914 108.5063 105.1494 109.7513 105.4754 109.1223 104.5396 107.7290 119.6683 120.9606 121.1711 121.1857 120.4435 120.3086 120.1279 119.8066 121.3500 119.4992 119.2689 119.9939 104.5493 119.8284 117.8964 118.8753 118.8941 118.8609 118.8688 118.8351 118.8645 119.0600
122.0600 121.6790 119.0190 110.4541 116.8341 105.6306 109.4740 108.0335 113.6712 120.0461 112.9287 108.0258 108.0016 104.7893 104.4057 114.2005 108.3501 116.2650 126.7964 125.8758 125.5655 125.2466 128.9674 106.8083 124.0677 121.2247 117.4891 117.3326 124.8877 123.7264 123.5957 124.7845 103.4653 110.9367 103.9255 116.9897 119.3561 129.6028 110.4505 108.7398 114.5880 117.1316 120.9437 120.8404 120.5887 120.4157 120.1995 120.0023 119.7928 119.5257 120.4886 119.0346 119.0802 118.6864 119.9710 116.1169 119.0239 118.3449 118.4522 118.3936 118.3769 118.3916 118.4296 118.2600
122.5300 115.5101 117.1948 121.0516 121.8920 112.4769 113.9849 109.4026 109.4584 108.8140 107.1958 105.6459 106.9676 107.7295 104.1858 103.7826 119.0575 114.9445 121.8530 125.6372 126.3690 116.3935 112.5289 109.4662 128.7946 104.3131 126.9143 123.3466 123.8902 123.7896 123.6295 123.5901 114.7513 105.6332 104.3703 104.8754 100.5091 114.3559 122.1468 121.6031 121.3827 121.0000 120.8939 120.5841 120.3713 120.1387 119.9103 119.6858 119.4578 119.2599 118.9193 118.8782 118.6902 118.4947 118.7938 115.7303 118.3632 118.0975 117.9891 117.9408 117.9281 117.9351 117.9684 117.8300
113.2800 113.2414 118.0693 120.9572 109.5269 118.4870 117.3678 109.0606 109.9863 114.4808 106.2088 104.8813 106.7398 104.7798 113.7597 103.9500 106.0290 110.3599 124.8740 125.6176 124.2110 125.2611 111.6526 109.8667 122.6205 107.8557 124.9789 124.2580 123.7763 123.6102 123.4343 123.0694 122.3150 121.8290 103.6602 108.9092 107.8078 102.6597 123.7569 121.1151 121.1336 120.8229 120.5890 120.3388 120.0883 119.8486 119.6029 119.3602 119.1272 118.8988 118.6752 118.4721 118.2719 118.0932 117.8839 118.1410 117.6272 117.5504 117.4897 117.4521 117.4360 117.4464 117.4845 117.3800
120.1800 117.2093 112.2144 112.5325 114.5279 109.9895 109.5126 109.6214 108.9626 112.2607 104.1807 105.5258 105.6597 104.1191 118.1373 104.2425 112.6707 108.6163 105.6135 121.4381 107.1329 123.4571 108.4003 127.1383 124.2151 111.8195 123.4724 122.9794 123.6161 123.8007 123.0651 123.2568 121.7223 115.1177 116.2230 112.1272 110.5745 112.6457 98.6158 120.4505 120.5926 120.5746 120.3532 120.0790 119.8133 119.5579 119.2891 119.0399 118.7857 118.5338 118.3023 118.0710 117.8551 117.6508 117.4763 117.2664 117.1953 117.0853 116.9898 116.9390 116.9196 116.9321 116.9765 116.9000
118.2400 118.5508 117.2429 116.6153 112.3454 110.9681 110.6625 109.8743 108.9142 107.0854 104.8079 105.0666 110.2928 110.0637 121.8885 114.1128 124.8663 116.7435 112.4498 125.3129 125.7446 114.5140 109.1658 122.7825 112.8902 126.8319 116.0142 105.9096 120.9448 119.8277 124.4424 124.4506 110.7295 106.0104 104.1668 121.8037 123.7507 107.2102 117.3441 114.1787 120.1868 120.3155 120.1269 119.8192 119.5364 119.2597 118.9839 118.7024 118.4277 118.1655 117.9037 117.6565 117.4157 117.1921 116.9939 116.8209 116.6592 116.5372 116.4473 116.3906 116.3684 116.3830 116.4364 116.4000
115.8000 121.7505 112.4858 117.3719 117.9112 115.2030 113.3210 112.9641 113.2935 108.4847 111.3694 105.0614 111.7298 104.9926 111.5926 102.5945 127.6323 114.0515 119.7032 120.2754 115.9304 118.7841 117.1946 99.9349 126.3277 115.3897 122.0024 117.0545 112.5488 103.9851 120.2446 107.3559 99.1348 103.1791 98.1195 122.2972 115.2611 122.3393 121.0309 121.1399 121.0422 120.1119 119.8509 119.5529 119.2635 118.9637 118.6651 118.3680 118.0743 117.7773 117.4923 117.2207 116.9569 116.7120 116.4870 116.2881 116.1186 115.9804 115.8757 115.8073 115.7814 115.7977 115.8597 115.8600
123.3800 122.7610 111.1334 111.8164 111.0129 108.5174 112.2690 109.0080 115.3756 113.5835 111.6619 109.5945 110.2368 100.9805 114.9389 115.0284 119.7687 118.2812 105.5744 112.2792 114.3014 110.8734 112.5045 103.0737 116.1529 110.6844 124.8884 123.8220 123.0463 115.9472 105.5867 102.4157 104.1454 101.3159 105.8644 122.5093 111.6376 121.0189 120.3787 120.4785 120.0105 119.9367 119.6073 119.2961 118.9850 118.6621 118.3423 118.0265 117.7010 117.3844 117.0738 116.7753 116.4874 116.2097 115.9557 115.7319 115.5360 115.3786 115.2589 115.1854 115.1507 115.1746 115.2396 115.2900
122.2700 122.3132 116.7558 114.2726 110.7639 109.9833 109.3586 108.1296 107.5187 106.2809 103.2490 104.0823 108.6410 116.1503 103.8299 117.8991 114.7002 119.0388 127.6028 117.3709 109.0794 122.2733 127.3601 114.7496 113.3449 125.5255 124.2016 123.2475 126.9536 111.4026 117.1755 113.6287 100.0082 102.1021 106.1307 110.7098 127.2818 121.3381 120.6554 120.1155 121.9376 120.0461 119.3602 119.0446 118.7089 118.3729 118.0285 117.6830 117.3311 116.9902 116.6499 116.3103 115.9914 115.6849 115.4030 115.1419 114.9211 114.7364 114.5920 114.5132 114.4763 114.5013 114.5823 114.6800
122.2700 120.8496 112.9439 112.0537 107.9268 108.7734 108.8421 112.3241 108.9766 108.2117 107.2767 104.5777 110.3144 115.1238 105.3281 116.0125 124.1860 124.5084 125.3767 124.7529 125.3551 120.2028 123.8814 125.0399 127.9951 125.9782 125.6667 124.9542 108.3531 100.8696 124.5277 124.6248 115.4449 100.8290 96.6905 96.5105 102.0786 123.4566 120.4109 119.9935 120.7773 117.4855 119.2337 118.7927 118.4339 118.0781 117.7162 117.3393 116.9605 116.5904 116.2125 115.8403 115.4835 115.1389 114.8197 114.5170 114.2571 114.0477 113.8861 113.7816 113.7419 113.7675 113.8640 114.0200
109.9000 110.4709 109.3144 108.6974 109.4321 108.9887 108.1285 109.0435 106.2766 106.1857 106.1961 103.9482 107.3137 103.9686 102.2535 111.6330 117.4470 110.5104 124.9347 125.3972 125.8614 125.6869 124.4108 123.8117 115.8355 108.7045 109.7407 123.4832 117.2444 117.7441 123.7526 121.9288 122.5964 119.0637 117.5497 117.6401 94.3866 111.1698 120.0582 119.9103 119.3258 118.1973 118.9331 118.5581 118.1726 117.7881 117.4000 116.9993 116.5914 116.1811 115.7672 115.3584 114.9532 114.5618 114.2001 113.8554 113.5486 113.2968 113.1189 112.9851 112.9432 112.9696 113.0864 113.3100
110.2800 109.9849 110.1456 108.2413 107.6896 110.4238 108.3690 108.0995 105.6844 104.7112 104.0712 105.0678 116.7613 108.8724 119.2120 104.6379 108.5172 118.8549 124.6002 118.1814 110.7335 125.8392 126.7110 125.3193 125.8540 98.8959 105.6613 100.9336 125.4774 123.6418 122.3639 122.3191 121.8626 116.6280 101.6063 122.8548 117.6857 117.9264 120.0311 119.7801 119.5016 119.2217 118.6816 118.3165 117.9267 117.5081 117.0887 116.6661 116.2216 115.7759 115.3206 114.8664 114.4140 113.9695 113.5423 113.1479 112.8008 112.4918 112.2065 112.1289 112.0584 112.0975 112.2332 112.5300
111.0700 109.2220 108.6734 109.2881 109.5760 109.1891 106.7618 106.8722 105.1710 105.1467 103.9087 119.5247 105.7448 127.0351 113.8927 116.0280 133.9291 125.3523 126.5079 113.5140 108.1210 128.5309 103.5530 113.9405 106.5967 122.4271 122.6432 121.6564 123.0519 122.6315 122.8814 122.3404 121.5499 121.4132 119.2272 116.4353 118.0483 120.3098 120.0641 119.6199 119.2532 118.8713 118.4923 118.0896 117.7261 116.8226 116.8407 116.3229 115.8594 115.3674 114.8691 114.3618 113.8534 113.3533 112.8646 112.3938 111.9789 111.6079 111.6970 111.0808 111.0844 111.1212 111.2903 111.6700
109.7400 109.4297 110.3719 109.9348 109.9042 109.1379 108.9071 108.3551 107.1049 104.9396 105.8582 112.6456 122.5397 127.2710 111.5991 105.3369 118.2257 125.0703 126.3122 110.3788 127.3345 112.2305 106.7055 127.0754 106.4786 110.5927 117.2276 123.8724 122.7332 122.5152 124.5867 102.7623 123.5783 121.2439 121.6379 120.1167 120.6219 119.9402 119.8851 119.4830 119.0999 118.7078 118.3037 117.8767 117.4452 116.9694 116.5184 116.0126 115.5036 114.9745 114.4304 113.8688 113.2907 112.7143 112.1511 111.5973 111.0919 110.6654 107.1194 110.2273 109.8333 110.0415 110.2423 110.6100
126.8800 126.9654 113.5637 110.2487 109.7863 110.0952 110.3194 110.2702 107.6169 105.0175 104.5285 112.9769 118.0264 108.5378 127.8722 126.5419 126.4881 125.7363 125.0387 124.9241 124.5912 126.9010 108.3711 127.4315 100.5046 119.4741 123.3357 123.4556 123.0839 122.5826 122.2313 123.2672 108.6253 101.0344 111.3994 101.7504 123.0932 117.5917 119.7666 119.2030 118.9032 118.4324 118.0088 117.6452 117.2129 116.7369 116.2354 115.7182 115.1676 114.5890 113.9981 113.3712 112.7265 112.0662 111.4028 110.7502 110.1251 109.6896 108.5496 108.6169 108.6427 108.7777 109.0540 109.6400
122.8600 121.8405 112.9071 113.0987 110.9486 108.2533 110.3398 109.9868 108.9562 105.2712 105.1414 111.6180 118.0452 117.6074 125.6568 123.8606 123.2545 125.0136 125.1117 124.8691 125.5140 124.1905 125.1748 123.6142 122.5419 103.7189 101.6466 123.5204 121.4802 122.4212 122.3279 122.5752 108.4662 120.7709 121.5519 122.1864 121.3269 120.1411 119.4953 119.5346 119.0445 119.3105 118.9284 117.9157 117.0762 116.5323 115.9972 115.4385 114.8455 114.2248 113.5805 112.8945 112.1750 111.4215 110.6447 109.8601 109.1227 108.3606 107.7850 107.3850 107.1622 107.3255 107.7000 108.4100
127.0300 123.0037 113.3270 111.7410 111.6523 113.0306 111.4946 110.7193 106.0091 108.2676 111.7235 110.1693 127.3534 114.9789 128.0664 126.0789 125.8402 125.2561 125.0793 124.8285 126.3456 125.2680 119.2613 124.3347 123.8571 125.1380 123.8069 117.5284 112.0938 126.0683 122.1323 121.9034 123.1285 116.4199 121.5100 121.0726 120.0104 118.5860 120.1448 119.4497 119.0691 114.2913 113.2075 113.7378 116.6493 116.3013 115.7684 115.1863 114.5885 113.9382 113.1999 112.4436 111.6408 110.7833 109.8810 108.9316 107.9809 107.0611 106.2250 105.6464 105.4186 105.5825 106.1209 106.9600
110.3700 108.7815 108.6656 108.1895 107.5848 108.2421 107.1583 106.5005 105.9111 104.5336 115.1986 123.0674 123.4872 122.7513 130.6484 125.1268 125.3501 125.2558 125.1106 124.8651 124.5377 124.1510 119.5332 123.5171 123.3997 122.9836 122.6231 123.4957 123.2395 125.0099 121.9833 121.9122 121.4835 107.2273 116.6654 110.7406 119.8615 119.4584 102.1132 111.6836 99.2667 102.9963 94.8588 109.8815 118.6274 116.0233 115.5663 114.9819 114.2158 113.4325 112.8239 112.0224 111.1410 110.1708 109.1369 108.0091 106.8106 105.5903 104.4280 103.5172 103.1161 103.4092 104.2429 105.2800
116.3700 116.8800 113.2985 110.5204 112.1940 108.9984 110.6290 108.1416 107.0925 107.3267 123.0420 121.4684 126.9158 126.3277 125.0686 125.4141 125.4959 125.0340 124.7706 124.8011 124.4853 124.3946 124.7846 124.7897 123.5771 123.5403 123.3226 122.7181 122.2723 124.4263 122.0371 121.9146 121.5224 118.0038 119.1538 107.3899 118.6900 119.4920 112.6989 92.0587 93.1481 95.7677 98.0720 104.4000 118.4256 115.8436 115.4045 114.8266 114.3413 114.5711 112.4829 111.6773 110.7347 109.6668 108.4602 107.1239 105.6355 103.9925 102.2764 100.7771 100.0714 100.5817 101.9829 102.5900
115.8500 117.0713 118.9804 122.2332 118.9399 114.6837 115.0646 113.5766 109.5121 116.6449 120.7357 126.6743 126.5720 125.7126 125.8404 125.7297 125.3356 125.7653 127.0989 124.4218 125.0732 124.9786 123.3443 123.6326 123.4602 123.3946 123.1280 122.9372 122.6991 122.1209 121.7991 121.5186 121.5768 120.5994 121.8879 121.6368 120.8112 119.5661 120.8540 110.6338 110.5736 109.8714 111.4351 108.1073 114.2501 115.9511 115.2774 114.6383 115.1880 101.2633 113.5058 111.3290 110.3460 109.0640 107.8986 106.3503 104.5389 102.3824 99.8314 96.9391 94.9523 96.4362 99.4729 102.5900
110.0700 112.2725 112.1813 112.9289 113.0907 110.0353 105.7816 106.6328 105.6960 107.9257 122.1997 118.3224 127.1672 126.3963 126.3315 125.6868 125.6929 122.0645 109.7187 125.5529 126.8766 116.9572 128.3235 124.3259 124.4382 123.4221 123.1326 122.8667 122.5068 122.1741 122.0910 121.7687 119.4748 127.1940 119.3201 120.2280 119.8115 119.6050 119.0793 119.7874 119.7728 119.8676 120.6322 119.6263 117.2417 115.8620 115.2225 114.5824 113.8430 109.5552 112.2551 111.0627 109.9732 111.0033 107.2769 105.8139 103.6893 100.9751 97.3141 91.2850 88.5417 90.3925 96.4834 99.2200
109.2500 109.2432 109.3430 109.0691 108.1459 108.3723 105.8323 104.9863 104.7213 104.2742 119.9178 120.0643 122.5251 121.8871 122.2112 124.6811 120.8599 117.7520 110.4305 127.0337 112.3390 107.5897 113.3786 125.5577 117.7710 123.7679 123.0555 122.8705 122.5935 123.2876 122.3589 121.3260 118.3531 119.3331 118.2385 120.6326 120.0554 119.6903 119.2863 118.7138 118.1743 118.6587 103.7150 104.9143 116.9425 115.8617 115.1728 114.5121 113.7888 113.3789 112.5149 111.0715 110.0133 108.9647 107.3234 105.5377 103.2716 100.2355 95.6023 87.4496 84.0561 86.5765 94.3937 98.9700
109.2500 109.8160 109.6317 109.3475 108.2649 108.0638 105.9086 104.8454 105.4438 104.2449 118.8751 124.2319 123.1949 123.5648 120.4220 121.0672 105.0080 121.5144 112.7471 127.1946 123.8111 121.1769 109.0816 125.4982 122.2893 123.4092 123.1338 122.8822 123.5789 111.8632 123.8437 122.4348 122.3211 122.0091 121.0186 120.2712 119.9766 119.6957 119.2673 118.8398 118.5899 119.1985 102.3799 99.8040 117.6666 115.8658 115.1901 114.5254 113.8123 112.9449 112.1077 111.1638 110.0662 108.7606 107.3434 105.6006 103.4208 100.4856 96.3128 88.9274 85.9669 88.0084 95.2114 99.1100
108.3700 108.5593 108.6796 108.6677 107.1966 107.1922 111.3734 105.2505 105.5320 103.3669 117.0908 104.6459 118.6383 104.3898 105.6849 110.2861 103.5058 102.6164 109.2256 103.7025 104.0540 124.3181 110.1396 124.8396 123.4985 123.4025 123.1490 122.8827 122.3831 123.5579 102.6068 112.8192 119.1947 95.2955 120.6651 115.2840 120.0503 119.7700 119.2852 118.9588 117.9700 113.2974 108.1773 121.5127 115.8963 115.8643 115.2755 114.5895 113.8834 113.1002 112.2437 111.2932 110.2320 109.0389 107.6529 106.0323 104.0769 101.6388 98.3862 94.1976 91.3731 93.4102 98.0534 99.6200
111.7400 111.4944 108.2921 106.9421 106.0604 105.4465 105.4282 105.0323 105.1419 118.2714 103.1866 104.3853 103.6053 104.0345 104.2199 101.7214 120.0943 119.5647 126.7953 110.6448 123.8779 124.3423 124.3920 123.8922 123.6757 123.4259 123.1680 122.8686 122.1920 124.9060 102.8841 111.4438 117.8577 99.0204 117.8213 118.3495 120.2287 119.7635 119.3133 118.6705 120.3478 94.0619 106.5123 119.1299 115.4570 115.9812 115.3577 114.6963 113.8117 113.2907 112.4006 111.4688 110.5250 109.4044 108.1482 106.7756 105.0658 103.1533 101.2080 99.1050 97.9397 98.8138 100.7315 102.4100
112.2100 110.4423 110.8285 109.2631 108.1217 108.1375 105.8284 105.8743 104.5162 104.0996 106.6103 105.8169 107.3242 105.7101 117.2188 119.3716 105.8207 124.8284 125.3402 125.7694 124.1934 124.1817 123.6810 123.9237 123.7381 123.4536 123.2002 123.4518 119.7739 107.0662 107.8697 102.7953 102.7714 123.3626 122.1667 114.3215 120.3581 119.8231 119.3407 118.8478 121.0517 100.1805 98.8897 114.9849 112.4473 116.8333 115.7054 114.8778 111.8474 113.6778 112.6655 112.3508 111.1016 110.0141 108.8702 106.2619 106.4109 104.6142 103.3926 102.2309 101.7009 102.0842 103.1928 104.8100
110.7300 110.2730 109.1752 108.5441 108.5567 107.5956 110.5893 105.5617 105.4502 104.8995 120.7486 113.3399 129.5356 127.1802 123.9134 120.8402 127.5417 125.3901 123.3230 125.0531 125.5759 125.4564 124.4332 123.4404 123.2213 123.5029 122.8414 120.4797 101.6211 101.5359 118.7629 102.7094 117.1315 115.6364 121.1630 117.6466 120.2512 119.8933 119.4621 119.0659 119.9327 103.1268 104.0931 118.4827 110.4017 116.8034 114.1546 115.9844 114.6567 113.9875 113.4714 108.2196 108.8130 110.3834 109.9201 101.4558 106.1876 106.2136 105.3434 104.6381 104.3289 104.5517 105.2323 105.1500
129.1700 106.3463 108.1397 107.3706 107.0159 106.5279 105.3866 105.0691 104.5992 116.5087 112.2598 114.0186 123.6630 125.6532 126.4562 123.4181 125.2260 126.0963 108.3906 123.2063 116.6191 119.7853 127.6600 126.3715 123.8325 123.4018 121.2644 107.1450 113.5575 102.1319 95.7165 107.6803 104.6991 122.2702 118.9271 119.9141 120.2198 119.8031 119.3494 119.3873 121.0617 112.2563 110.2331 120.5013 100.9813 103.9337 102.7379 113.3237 114.0797 109.8016 104.4822 95.8650 107.5987 111.3297 110.8657 108.3754 99.7884 107.7825 107.0409 106.5400 106.3364 106.4831 106.9424 106.9100
108.0500 111.8414 109.3499 105.7999 105.7034 105.7036 105.6636 105.2901 104.2599 112.0168 117.2904 100.8714 127.1364 126.0090 128.3914 126.0537 125.6479 125.7628 112.9671 110.4658 99.0633 105.4121 123.8632 126.3965 123.0595 124.1914 125.8342 106.9554 100.5215 102.7677 114.0697 125.5989 120.2775 121.7079 110.1712 119.8590 119.7377 120.8147 120.2005 118.2556 109.8678 118.4845 100.3070 118.1267 108.2338 99.1026 105.5978 115.3135 115.2448 110.5994 104.6944 98.8114 113.9377 111.7229 110.9446 92.7296 105.9048 109.0370 108.4912 108.1136 107.9710 108.0775 108.3972 108.2400
109.0800 115.1050 109.9920 109.2547 104.2559 105.0742 104.3417 105.3655 111.4400 104.2964 120.8368 121.9592 127.2427 126.9462 121.1970 125.7575 125.5101 126.3597 119.6184 119.5178 118.9492 113.8063 123.4309 122.2517 124.4829 114.5175 113.2320 113.5084 104.8144 116.2882 122.6825 121.2885 121.7119 120.6383 123.7447 123.8041 119.0646 114.2125 117.1903 117.7053 98.2248 106.9798 93.1694 105.1266 96.4310 119.1697 109.2123 117.6163 115.4437 115.7270 114.9811 113.4699 112.8658 112.3678 112.3128 110.6137 110.7208 110.0534 109.7255 109.4414 109.3470 109.4214 109.6575 109.4600
106.2000 107.3818 107.1922 115.8800 111.4386 111.0642 107.5895 104.9588 111.1436 103.8464 120.0451 108.9438 127.8291 126.5046 127.3032 125.8697 124.9958 119.3310 130.0056 128.3909 126.7640 115.4263 126.9196 123.7570 124.8645 101.7342 100.0081 123.1317 117.2360 123.4778 122.1217 122.1869 121.8046 123.8396 105.5734 122.6586 109.4882 117.3628 119.9785 112.5265 101.4463 106.8932 114.6401 94.9433 96.2106 121.0978 110.1662 107.8805 115.9612 115.1377 114.3210 114.1404 113.5807 113.0110 112.4145 111.9498 111.5486 111.2048 110.8126 110.6235 110.5328 110.5849 110.7798 110.6900
106.2100 105.7119 105.2220 107.6536 118.1777 115.6006 114.3019 105.6172 105.1184 108.6939 108.9150 118.1683 128.9048 116.6030 110.9092 127.8639 128.8189 114.9901 116.3987 108.7993 126.2089 110.1412 119.5379 125.8632 125.1727 122.0152 102.8042 124.4835 106.4861 124.7466 122.8107 121.9566 123.1954 101.6545 106.4898 108.9498 116.3764 119.3530 119.6335 102.2433 116.3195 101.6647 106.9636 95.2282 96.6997 105.2369 90.8340 114.4099 115.6614 115.6205 115.0852 114.6336 114.1203 113.6515 113.0719 112.7782 112.4716 111.9049 111.7852 111.6026 111.5937 111.6268 111.7696 111.6500
106.3200 106.2861 110.3299 111.1169 115.7752 105.2827 116.5011 112.7820 113.5626 114.3581 116.0186 105.1265 120.6079 108.5991 124.1770 120.8478 104.3078 124.7559 123.0208 123.6945 125.4133 124.4676 111.2909 109.2495 114.3977 113.9592 101.4540 103.0026 101.5109 124.6829 122.2296 122.2455 122.9841 118.6115 122.0673 103.6426 117.2383 110.2820 121.2327 117.5734 106.4049 98.2385 101.4700 101.8409 99.2688 100.8681 100.8451 117.3670 116.3423 115.9944 115.5299 115.1387 114.7017 114.2653 113.9659 112.9120 111.8778 112.8916 112.6630 112.5507 112.2055 112.5374 112.6676 112.5100
106.3300 105.0923 113.1279 115.1170 125.5828 119.9438 120.0117 106.9975 104.6988 105.3374 104.5352 107.0760 133.0579 121.0906 125.5383 125.0595 124.6347 125.9691 125.5794 125.1750 122.2385 105.7673 111.0681 102.8702 107.8149 103.2826 118.6627 104.0627 123.4184 123.2374 122.6113 121.9271 119.5529 110.2915 122.0508 120.3486 121.6512 113.2103 106.1998 108.4964 103.6662 112.7903 103.1954 96.8079 96.2644 103.0141 99.8577 116.4208 117.4588 116.2691 116.1188 115.3207 115.1818 114.8372 114.6690 113.1572 112.5315 115.7726 108.7478 113.5973 114.0822 113.3637 113.4701 113.2900
126.2800 125.9085 116.1019 122.3928 125.8721 124.4472 127.2978 119.9686 118.1535 124.9035 114.1923 111.8012 130.7196 125.4232 125.5709 125.9702 125.6381 125.5658 125.3252 126.0922 112.1971 114.3719 110.9751 108.8022 105.2118 104.9595 104.3831 104.1802 104.7519 118.5230 122.5983 122.4018 122.6733 122.7059 121.4477 121.3163 117.8559 107.5910 113.5799 103.8134 102.7984 115.5108 108.5897 98.3524 98.0612 100.4810 117.3370 115.1643 111.9476 115.2816 114.8456 118.3138 115.3229 115.5736 114.3989 113.9732 127.9216 117.5884 116.3591 92.2208 116.6543 113.9941 114.2258 114.0100
127.7500 122.7900 128.9840 119.2793 116.1812 118.3301 118.7352 116.8711 115.3040 108.1692 112.0612 115.4040 115.9489 118.5255 116.3508 126.7033 126.7971 126.0315 125.4083 126.7442 113.0602 103.4376 108.5860 108.1703 111.2429 114.8849 108.6951 121.8580 124.6087 123.7097 122.7069 122.6004 122.1960 122.2589 123.0037 122.7849 110.8394 106.7647 110.1625 108.6954 103.9853 102.2531 103.0686 116.5190 110.7995 119.2835 116.3492 119.0897 115.7509 117.8166 110.4238 108.3519 114.5214 115.7557 117.2222 111.8779 93.7808 114.4604 117.2280 116.7329 114.7324 115.3047 114.7313 114.6700
122.6000 127.6719 127.9898 129.9558 118.6684 122.1052 124.7331 113.1473 115.7172 114.2714 129.2045 128.1900 123.8429 122.4824 123.7561 114.8547 124.2306 136.1745 125.3314 120.4785 119.2151 109.0474 114.0223 119.8773 118.3512 115.1764 110.4369 126.3125 121.8201 124.5033 122.8835 122.8133 122.8334 119.0188 117.2214 120.7007 117.8042 108.5524 109.6289 104.4153 103.8634 102.4084 103.1972 99.0203 103.3880 113.9281 108.8633 94.5408 96.3406 120.5901 116.7489 105.7963 116.3915 117.8134 111.8498 96.0119 94.2333 116.8239 102.8961 113.9036 115.1034 111.1986 116.9620 115.8500
145.0300 128.6878 128.2021 128.3565 127.9738 124.1414 123.1677 129.5841 129.3059 128.2929 126.2754 127.1370 115.0409 107.0731 104.5195 107.1280 111.5241 119.3523 121.5535 112.8310 120.2634 121.3558 120.8473 101.6965 100.9307 103.7748 108.2043 125.0964 125.5041 129.1413 123.1064 122.8399 123.6119 111.7133 124.0438 117.6744 112.0369 109.2056 107.6403 105.4155 103.9073 103.0550 102.9780 99.8291 123.2779 122.0246 117.0417 100.2062 110.5708 117.5145 118.6984 106.8575 114.9956 110.2579 92.8757 100.3841 92.9477 114.4505 90.6434 113.7195 116.1222 94.7563 113.4802 94.3900
145.0300 128.9500 128.1800 128.0800 127.8800 127.7700 127.6700 127.4500 127.3500 127.1200 127.0100 126.9000 126.6700 126.5400 114.3400 107.9600 138.1300 109.7400 117.7700 119.1300 120.3600 117.0700 124.8400 106.8000 105.5800 107.4800 109.4400 112.9100 128.2900 123.4500 123.1200 122.9400 122.7700 122.4000 122.2200 122.0500 114.9700 110.8900 106.3400 105.1800 104.1300 102.4900 99.9200 103.2600 116.9300 119.1900 118.9400 118.6900 118.4100 118.4100 111.5100 95.6000 117.3200 117.3500 96.1800 98.3500 116.7900 116.7900 117.8000 117.9400 118.3600 96.2700 116.4300 94.3900
