121.8300 122.9500 108.5400 120.1900 112.5100 114.1300 119.5900 119.1600 118.6200 123.7800 119.8300 120.9800 105.8000 105.7000 121.0700 119.2900 118.4200 118.7900 114.9500 114.4500 114.4500 120.3500 109.2600 105.5800 110.8900 110.4800 106.0700 112.1200 108.9200 108.9200 107.9400 112.4500 105.6700 113.9300 125.0500 125.0800 124.9200 124.8100 124.7000 124.5300 124.5800 125.2600 124.3200 124.3200 111.6800 124.0400 124.0700 123.9100 123.9400 123.7700 123.8000 123.6100 123.6300 123.6500 123.6700 123.6800 123.4600 101.4700 105.7500 111.5200 111.5200 107.0400 123.6400 123.6200
121.8300 122.9593 116.3029 120.7881 116.2896 112.6346 114.6802 114.7853 119.5701 121.6021 119.4803 111.0665 109.0270 112.1565 115.5103 118.4702 118.9362 113.2783 120.1537 124.0370 111.7067 117.5110 110.9500 107.3644 108.3353 111.1709 110.6589 107.9149 104.2759 106.8513 124.0951 107.5601 110.2503 108.6951 109.5042 113.5697 111.9123 124.6845 126.5286 123.6919 120.5118 121.1000 124.0335 125.2165 118.7051 116.2238 124.1368 123.6710 123.7129 123.6615 123.6017 123.5520 123.5115 123.4896 123.4161 123.2394 125.1770 101.1497 104.2811 105.6436 110.5487 118.6376 123.0002 123.6200
122.8800 123.4543 126.4612 123.1202 119.8767 121.5091 114.1346 109.6709 110.9519 118.9120 113.1132 114.2081 114.0860 116.3749 119.3039 115.6790 116.7446 114.0339 107.7185 119.9134 108.0139 107.0294 112.8685 103.9923 106.0598 105.6554 108.2211 105.5504 111.4400 106.2955 108.6138 113.5222 105.3932 110.1925 114.9854 107.6660 118.0578 125.1752 124.3239 123.9731 125.0584 123.6624 124.2172 123.3753 122.3622 110.1870 124.4467 123.7271 123.4667 123.4050 123.3586 123.3063 123.2681 123.2712 123.1118 123.2627 124.9326 100.0890 102.1157 104.1472 104.9808 123.2314 124.2714 123.1600
121.5000 122.7654 126.0259 111.3111 126.4681 119.3948 117.5304 115.1161 114.2364 111.9020 114.9344 117.0536 112.5819 120.0944 106.8938 108.8997 112.0383 114.0646 114.1639 114.5911 104.7950 107.4775 109.9108 113.3180 101.2129 102.5406 107.7874 112.5042 116.9495 103.6571 117.5605 129.0609 119.4774 105.1807 118.0646 122.2235 125.2468 124.0509 124.1923 119.3538 121.6731 123.7835 123.7366 123.7091 119.8968 109.1415 104.3798 123.4172 123.2168 123.1626 123.1046 123.0495 123.0100 122.9648 123.0336 120.5291 125.3802 100.0972 100.2140 105.8874 106.9345 103.2341 124.2916 122.9100
121.9900 124.0632 128.3794 117.8504 109.7656 126.6034 123.3219 119.6906 115.9086 114.2811 112.2006 116.1841 114.1382 109.4715 114.8962 110.4514 110.9443 117.8363 108.0455 115.9529 118.2328 117.7437 113.7429 118.1164 113.2323 105.4604 109.1136 104.3696 107.8100 112.8642 116.3150 114.2042 122.9648 126.9893 119.7198 118.9686 113.3851 124.7123 124.1362 123.7282 122.8838 123.7515 123.5274 123.2205 124.4132 113.3609 112.3954 121.5576 123.1792 122.8926 122.8422 122.7961 122.7254 122.6693 122.3057 115.6177 103.9611 103.8009 107.6561 114.3270 117.9953 122.6223 123.0706 122.6600
119.7300 120.8321 124.3808 130.9417 102.8144 117.8431 121.9804 123.9967 120.3659 118.4236 114.7857 111.1011 115.3545 105.7285 113.0529 112.5011 111.4397 108.5265 111.0372 111.5489 115.6535 115.2522 118.3184 116.9231 112.5766 108.2490 110.2371 101.6865 110.7651 121.1036 103.2204 108.2765 127.1983 123.6135 124.0121 120.9962 124.1120 123.9339 123.7652 123.6320 123.5217 123.3990 123.3112 123.2872 123.3909 119.8991 109.1786 111.8890 122.1821 121.6113 122.6554 122.5343 122.4565 122.1463 124.1825 102.0145 102.9490 109.2610 115.1518 118.9176 127.5577 117.5618 123.2484 122.4100
120.1200 121.4338 116.1903 120.5048 127.5226 121.7297 119.0020 123.9575 126.8392 112.5356 117.0654 109.3535 110.9970 107.0940 113.8835 111.4303 111.1740 111.7512 109.6313 112.4574 107.2123 115.5063 114.4760 115.3891 114.1991 107.1642 107.3322 113.9978 118.2614 121.8910 122.6420 104.4490 123.1260 111.2438 122.9159 124.6740 124.0032 123.6221 123.6083 123.4348 123.3162 123.1936 123.0456 122.9579 123.0409 120.1429 108.6021 111.3476 123.3685 120.6013 122.3401 122.2565 122.1760 122.0985 122.4041 120.5689 104.8584 117.3555 115.3828 118.5150 118.0761 122.4785 122.0235 122.1400
120.9500 126.0394 117.4695 124.9579 124.4748 125.5588 126.3072 119.7933 117.5579 116.3992 117.3429 105.0869 105.7162 104.0773 110.9544 114.2717 112.2332 111.1520 111.5494 111.6605 109.0617 105.4806 116.5173 112.4601 102.6269 110.1369 112.2831 112.3036 110.5846 127.3723 124.0780 125.5430 114.8435 117.8560 125.4406 127.2912 125.2275 123.1280 123.3775 123.2106 123.1479 122.9352 122.7712 122.7540 123.7466 109.1506 105.0530 118.5143 119.6617 122.0645 122.0012 121.9505 121.8966 121.8001 121.8952 122.8345 106.0724 113.0619 122.9665 122.4459 122.1829 121.7263 121.9028 121.8700
120.8700 121.6575 123.8639 124.9148 124.1662 125.1649 125.3833 117.0600 115.5769 116.1783 115.3154 103.8656 105.1915 104.7996 109.5711 113.6727 110.5879 110.9157 111.3202 113.7043 112.8603 108.8464 106.2984 113.9996 113.2071 109.4674 112.4836 117.6940 116.3179 124.3910 120.3198 124.7003 122.8132 111.0073 116.1307 124.2469 123.3634 123.3695 123.1729 123.3207 122.5261 122.9135 122.7800 122.5895 122.8387 116.2207 118.9586 122.9344 122.6544 121.8571 121.7394 121.6817 121.5975 121.8071 121.5402 121.4005 120.7858 120.1868 121.2431 121.3496 121.4173 121.5456 121.5708 121.5800
118.6300 115.9891 120.8333 123.1411 124.8273 123.6355 122.9614 118.7808 118.1042 116.1674 118.6539 108.4870 107.5808 104.0965 114.0558 115.2106 113.4679 110.5540 105.2229 114.8023 110.1133 108.4242 104.5926 109.2282 115.3151 114.2833 120.1609 117.0582 124.5381 124.5501 122.7938 123.9219 123.1448 125.5073 124.8802 123.1518 123.2826 123.7772 118.7482 122.1407 122.4158 122.7439 107.6804 122.9501 119.9519 121.7982 116.4147 121.3916 121.6907 121.4286 121.4261 121.2786 121.3832 121.3115 121.5504 121.1056 122.1004 116.9732 121.9628 121.1481 121.1620 121.2072 121.2653 121.2900
111.7000 113.9495 113.8804 118.4294 122.3296 124.6575 120.0203 118.1579 118.4636 117.6272 116.8087 116.7670 117.2010 109.1025 109.3000 113.1173 115.2027 110.2044 110.1515 111.5493 109.1375 107.6132 109.7511 105.8653 119.0676 115.4072 126.2367 126.0568 119.9386 124.0873 124.5810 124.7026 105.7155 112.1325 123.4460 123.2433 122.9189 122.7906 105.6952 122.5305 121.9732 122.9362 110.8759 124.4111 122.1728 122.1580 120.9741 121.9576 121.2778 121.1819 121.1171 121.4581 119.8646 120.6865 120.5190 120.6277 122.4138 106.6629 122.2186 120.7876 120.8164 120.8828 120.9461 120.9900
124.3300 113.1186 114.7554 110.1742 116.6357 122.1244 117.5794 124.5997 118.0454 114.9192 118.6869 117.8959 115.6649 115.3629 106.2512 115.3274 110.2387 107.1650 108.2605 110.0299 105.7102 106.5202 111.5829 111.3989 111.7252 124.0974 124.4590 124.7364 124.1148 124.2766 123.8525 125.0659 120.3991 110.2797 124.7387 122.9412 122.8808 123.9383 124.4085 123.9599 111.9939 125.0202 98.4419 99.9288 121.6491 121.2887 121.3815 121.0321 121.0178 120.8876 120.7824 121.5654 113.5039 121.2360 121.3848 120.2862 120.4671 121.4234 120.4056 120.4623 120.5030 120.5426 120.6070 120.6800
122.6500 106.8698 115.3971 111.9256 116.0570 111.2275 114.9117 119.3233 117.4581 117.4525 115.0204 108.4372 112.5356 113.4505 114.7205 114.1023 106.6394 103.0325 103.4027 103.7250 103.6710 113.3697 111.8267 115.2439 114.6458 119.4967 123.8186 124.2237 124.0253 123.9131 123.3853 124.1957 100.8021 114.9749 122.0367 122.8673 122.3224 122.8544 114.0323 118.7420 113.8476 111.4513 98.7256 98.8618 122.4571 121.7726 120.9186 120.8228 120.6806 120.5528 120.4890 120.2980 120.9095 121.9603 105.0635 121.4047 116.9825 119.8661 120.1028 120.1038 120.1336 120.1906 120.2562 120.3500
117.5800 109.1948 115.0398 115.3983 117.4386 106.4496 116.5338 110.4810 113.3446 116.0056 117.7629 109.9623 118.6361 111.7245 116.7631 115.3880 114.5898 108.1553 106.9292 118.2641 103.6032 104.7676 100.4610 106.4719 125.5079 121.8946 125.1702 124.1397 123.9544 123.7750 124.3020 115.7905 114.7241 128.9244 122.8121 122.7098 123.0287 117.0830 110.7003 122.7164 122.8668 114.3434 107.2478 113.2273 114.0567 120.8471 120.6338 120.4861 120.3497 120.2305 120.1008 119.9999 119.8951 119.6263 120.2338 121.5102 126.5561 119.7495 119.6729 119.7279 119.7672 119.8230 119.8972 120.0100
116.7600 119.0436 119.0104 116.8642 110.3848 114.4341 109.5044 105.2145 113.8629 108.8721 107.8504 110.5217 115.5781 111.5877 115.7121 112.3003 108.2994 114.2530 102.8056 112.1657 106.4497 118.9000 119.4387 105.7429 121.0942 123.7033 106.3142 122.4201 123.7651 123.6017 123.6167 116.3123 116.5342 112.0615 122.6613 122.4005 122.1779 115.1206 110.1070 121.9964 120.8792 102.9705 101.8909 115.1324 120.7816 120.5826 120.3296 120.1609 120.0174 119.8773 119.7491 119.6368 119.5420 119.5130 119.2545 119.1192 118.5587 119.2822 119.2930 119.3318 119.3715 119.4494 119.6239 119.6600
120.6300 121.8387 114.9368 115.8438 116.2901 117.1881 114.5051 114.6607 107.3367 104.5007 115.3781 108.0943 106.0852 106.0692 112.0811 113.5669 103.6815 109.6033 107.0363 117.3772 122.7429 125.0018 126.0139 122.0634 114.6354 124.8345 126.5169 123.2559 123.6176 123.4645 123.2200 123.3089 122.4485 122.7724 122.4415 122.2802 122.0007 121.9884 119.8054 121.5100 123.2216 121.7432 110.3704 120.2409 120.0643 120.1508 120.0042 119.8201 119.6686 119.5131 119.3784 119.2536 119.1514 119.0506 119.0266 118.9928 119.0978 118.9906 118.8929 118.9241 118.9197 119.2272 120.5664 123.2900
120.5900 120.4014 118.6373 115.5676 115.7660 118.5969 115.4767 118.3271 113.2656 113.3522 104.8123 104.9024 120.1253 112.9060 110.3372 110.9382 106.6469 103.5409 111.7993 126.3623 119.0854 124.8017 124.9003 124.6635 122.9651 124.4786 124.0512 123.4791 123.6013 123.2935 123.0705 122.7734 122.7224 122.5048 122.2064 122.0395 121.7200 121.5018 121.5375 121.0450 120.9161 120.6669 120.7207 119.4838 120.1381 119.9358 119.6607 119.4760 119.3063 119.1385 118.9883 118.8605 118.7404 118.6421 118.5503 118.4892 118.4220 118.4198 118.4626 118.4881 118.5148 118.6579 122.0800 135.5100
128.1800 128.2354 120.7109 115.1941 114.2212 117.9060 105.2673 116.5349 114.2326 114.5420 112.4996 112.7364 104.1984 103.6006 109.8604 107.1525 104.1088 111.1996 118.5054 105.8982 108.1549 126.3281 124.5784 124.4331 123.5925 124.3310 105.4696 125.2211 123.2739 123.1023 122.9534 122.7104 122.4905 122.2285 122.0433 121.9067 121.5305 121.3459 121.1725 120.6330 120.8386 120.3643 120.2119 119.9450 119.7314 119.5319 119.3184 119.1120 118.9293 118.7505 118.5890 118.4439 118.3090 118.2007 118.1156 118.0527 118.0173 118.0037 117.9985 118.0366 118.0748 118.1856 117.7939 118.5000
120.7400 122.5953 118.9707 113.2929 115.1636 111.9998 115.4204 115.6890 113.1104 113.3154 115.6457 114.0872 119.6268 111.7571 112.2508 103.1667 105.7656 114.5070 117.9442 103.1288 118.9538 124.2416 124.6074 124.3062 124.0776 117.1122 105.2541 122.4682 121.9860 123.0590 122.7593 122.5325 122.2370 121.9111 121.3574 121.7755 120.9537 121.6443 121.5190 115.7931 120.6073 120.0775 119.9031 119.6734 119.4150 119.1855 118.9649 118.7458 118.5412 118.3451 118.1687 118.0072 117.8631 117.7388 117.6436 117.5701 117.5260 117.5095 117.5215 117.5630 117.6135 117.6996 117.9353 118.0700
120.0700 118.0298 114.8592 115.8962 112.9142 111.6480 111.0647 110.3317 116.3173 113.9466 110.6399 116.4080 117.6284 108.3983 104.8075 107.5884 105.3364 103.0935 119.1228 107.7085 127.5260 120.5821 123.0566 124.1038 123.8522 127.8273 102.2476 113.2930 106.6896 123.4849 122.1827 122.6946 122.8523 122.6169 113.6934 115.0981 118.6291 118.0371 121.8138 117.2428 120.4984 119.8406 119.5963 119.2981 119.0990 118.8311 118.6016 118.3610 118.1422 117.9324 117.7308 117.5479 117.3998 117.2569 117.1534 117.0711 117.0182 116.9988 117.0130 117.0471 117.1267 117.2314 117.3255 117.5800
106.0300 114.4706 112.6571 112.6520 113.3532 115.1154 115.0746 111.1770 109.8918 110.0398 110.3839 113.5796 114.0719 119.6852 115.1069 108.8466 107.5750 114.6273 125.2592 120.9772 118.5185 123.1087 124.4587 123.7223 123.6505 116.6441 96.6302 106.8007 110.5845 124.4272 122.7696 120.2906 116.1255 117.2692 117.9319 111.4299 110.2485 101.5268 119.3269 111.4394 120.6906 119.4936 119.3000 119.1197 118.5351 118.7663 118.2262 117.9870 117.7284 117.4936 117.2727 117.0783 116.8850 116.7491 116.6154 116.5369 116.4758 116.4517 116.4736 116.5256 116.6127 116.7155 116.8653 117.1600
107.6200 109.5333 108.1060 103.7905 104.0641 110.9646 109.6558 115.8134 114.9175 116.1739 110.8313 112.8275 110.2962 111.9222 116.3078 112.4840 106.4159 118.7098 121.1419 119.0199 123.8170 124.9531 125.8697 124.7781 122.1827 100.7597 111.1026 126.5275 123.5771 123.1838 111.6129 120.2590 104.1963 100.2276 104.2828 111.2417 107.0174 106.3964 96.7423 114.2589 119.9167 119.1349 119.7487 113.2105 114.2980 118.0100 117.6776 117.5805 117.2901 117.0365 116.7958 116.5730 116.4434 116.1765 116.1160 115.9467 115.9043 115.8794 115.8797 115.9107 115.9971 116.1720 116.3340 116.6500
120.1600 118.8328 118.2768 109.7318 109.2318 108.0912 104.3341 106.4700 110.3320 108.1906 109.3968 113.9410 107.7377 107.3916 108.4679 107.6583 105.2065 122.3141 118.0924 122.8327 124.4939 124.8195 114.8722 115.2629 113.7105 109.4788 123.1468 123.1148 122.5521 122.4131 122.4140 121.3756 109.0794 105.5422 111.9196 112.5528 115.0669 112.2847 106.7942 111.7441 122.1309 119.1486 118.9035 103.4340 103.1750 118.9084 117.4365 117.1803 116.8634 116.5706 116.3039 116.0682 115.5502 115.9201 115.1975 115.4274 115.2666 115.2627 115.1938 115.3303 115.3812 115.5923 115.7774 116.1200
112.2300 108.3431 110.8826 112.9725 112.3112 113.5012 113.4057 110.1539 110.0677 108.1240 102.7570 108.7212 103.6019 102.7557 116.0499 104.9604 107.8145 120.0421 108.9299 124.2752 124.1124 124.4837 114.1797 101.3280 97.5648 112.7473 105.6817 125.0320 122.3962 122.2390 122.2963 116.9451 105.9325 108.5729 113.9517 115.4848 111.4745 122.2270 110.2493 105.0961 103.9932 117.2911 119.4095 119.8713 110.1905 115.2417 116.2150 116.9754 116.3790 116.0878 115.7785 115.5212 115.2271 112.7447 115.2024 114.2776 114.7314 114.6618 111.4132 114.6736 114.6970 114.9788 115.1832 114.9400
116.1000 116.5376 105.9127 113.5420 111.9409 111.1105 106.7184 110.7388 107.2833 114.0339 105.6731 109.0918 105.3914 103.4438 112.7275 113.8547 109.4634 116.0815 114.8108 125.1129 124.0872 124.1047 124.9448 110.5568 107.9905 102.7534 116.5214 118.6565 122.4205 122.3538 121.7816 117.7586 100.0190 110.2973 108.5083 106.6935 113.9238 106.2107 116.2421 120.6307 98.2125 110.2691 112.1706 117.6559 118.0689 117.7901 116.2140 116.3199 115.9415 115.5737 115.2329 114.9191 114.7302 112.1037 96.4395 114.8594 113.6795 113.8786 114.1366 113.9378 114.1137 114.3116 114.5551 114.9400
114.2000 115.3558 111.9998 116.4400 113.9582 110.9207 108.6888 103.3169 115.1325 112.7339 106.9740 109.5181 109.2143 108.5012 103.9433 109.0589 121.5383 116.5964 124.2780 125.0367 124.1913 124.1445 124.0149 122.5051 121.5002 105.8262 123.4412 119.7175 122.3264 121.9680 121.4522 122.7458 104.9054 102.8274 98.4806 114.6106 104.5383 101.5814 99.6379 105.6085 105.3641 104.7275 99.0596 118.3438 117.0412 116.4386 116.4214 115.8520 115.4654 115.0436 114.8164 114.3012 113.6884 114.4718 111.4735 114.3826 112.9841 113.0246 113.0447 113.2085 113.3675 113.6045 113.8896 114.2700
127.8200 112.4428 119.7097 114.1755 117.4806 114.9912 111.7649 106.5248 105.8799 115.4384 107.3846 106.0477 114.3769 108.0367 112.3772 114.4824 117.6343 119.4222 120.8890 124.7058 124.2448 123.6680 123.0687 122.9827 123.8946 121.9129 111.2203 122.4301 121.6707 122.8314 122.6953 121.4282 119.9220 111.8730 101.0775 130.3091 117.1664 114.1300 97.1673 115.5203 117.8441 117.6104 115.6441 117.3805 116.7114 116.2992 115.8534 115.4158 114.9118 114.7457 111.9266 113.5989 113.4081 112.8866 111.9394 121.5281 111.4854 112.2018 112.2462 112.3574 112.5591 112.8448 113.1752 113.4400
127.8100 127.1557 128.6809 113.4245 112.5193 112.6562 111.4509 105.7920 110.5349 110.2992 108.3352 108.6653 105.4486 104.0667 103.5885 102.5616 100.7026 125.4916 122.6047 124.4934 124.2872 123.6161 123.6248 125.2359 123.2145 122.9790 122.7887 122.7259 121.6257 121.3667 111.5427 121.6499 121.5990 112.5029 101.9195 94.2892 117.1061 118.6273 117.5004 118.3987 118.1349 117.6674 117.4141 116.8471 116.4210 115.9351 115.4499 114.9689 114.4551 113.9771 112.8826 113.2450 112.4876 112.2373 111.7055 111.4457 110.7492 111.2261 111.2758 111.4253 111.6797 112.0167 112.4202 112.7500
112.9300 118.9660 125.0143 109.8099 112.5056 109.6363 110.7680 110.7971 110.7474 110.4437 110.4228 108.6216 106.3879 104.7837 104.7500 103.2323 103.2445 115.3015 115.2277 123.9753 124.2262 123.9615 122.8728 119.3592 122.6265 122.9809 122.3167 122.2895 122.1070 122.0386 121.4092 121.4278 110.5515 98.1705 105.3830 107.8168 96.9319 105.9848 119.3222 118.3742 117.8918 117.5208 117.0213 116.5823 116.0890 115.5841 115.0591 114.5148 113.9659 113.4010 112.8305 112.2820 111.7522 111.2277 110.8020 110.5205 110.3029 110.1440 110.1966 110.3922 110.7107 111.1290 111.6092 111.8800
127.7900 118.6813 112.2235 112.2262 110.4210 110.4414 109.9923 109.8217 115.5623 110.1499 105.9855 107.9411 104.5159 111.3210 113.7718 103.5540 106.1887 109.5704 127.1045 113.4658 124.9129 122.5449 114.8229 122.3913 123.0181 120.5320 113.4431 123.1812 122.0274 121.6250 121.4365 121.6107 107.7778 106.0422 103.3350 100.6653 118.4602 96.4510 119.3327 117.9223 117.7310 117.2612 116.7994 116.3089 115.7796 115.2454 114.6767 114.0881 113.4707 112.8478 112.1948 111.5552 110.9067 110.3100 109.7594 109.3061 109.0074 108.8925 108.9708 109.2278 109.6362 110.1570 110.7498 110.8700
127.7800 128.1898 128.6542 122.0091 112.9011 112.5143 107.9695 105.6973 107.9607 108.3702 107.5977 108.0494 111.3147 107.7754 123.0965 112.0124 126.5089 125.5214 123.9726 125.9421 125.4811 122.7106 102.7038 124.3810 123.2706 122.9659 123.1963 122.3650 122.0041 121.7135 121.3804 120.5979 121.6497 106.6183 97.1654 103.4219 121.2461 111.6909 120.1854 117.8928 117.5403 117.0836 116.5783 116.0588 115.5058 114.9234 114.3140 113.6712 112.9970 112.2934 111.5521 110.7989 110.0355 109.2932 108.6024 108.0188 107.6173 107.4414 107.5385 107.8869 108.4357 109.0987 109.8352 110.6900
123.4000 125.1041 121.3784 112.7729 112.7508 108.6717 108.7319 108.9911 108.1716 106.9941 106.5410 102.2816 116.8385 108.3457 105.6417 102.9131 126.1962 121.9802 125.3198 119.7272 115.2272 121.5408 125.3017 120.8962 117.0338 123.0963 122.3133 122.1157 121.7010 121.3545 121.3340 120.4275 121.0869 99.8433 106.1248 123.6558 118.6261 118.5903 118.4801 117.9055 117.4009 116.9025 116.3756 115.8308 115.2452 114.6364 113.9739 113.2839 112.5409 111.7540 110.9169 110.0404 109.1236 108.2065 107.3044 106.5180 105.9408 105.7019 105.8413 106.3404 107.0876 107.9512 108.8818 109.7100
123.0600 119.3765 113.7795 114.0386 111.4727 110.7895 110.3075 108.9223 106.2641 105.2975 106.5460 105.2934 102.1485 101.8439 116.8518 115.7487 119.9783 123.7530 122.1911 109.2740 108.6080 111.3709 124.7116 100.0456 117.8872 122.5229 122.3114 122.1397 122.9099 122.9501 121.3262 120.9249 114.3625 114.0520 121.6811 119.2295 121.1498 118.6153 118.2099 117.7121 117.1161 116.7122 116.2059 115.6376 115.0233 114.3764 113.6877 112.9338 112.1277 111.2566 110.3208 109.2998 108.2049 107.0474 105.8751 104.7659 103.8986 103.5138 103.7412 104.5137 105.5658 106.7450 107.9053 108.3200
117.5000 118.1642 115.5890 111.6519 111.6397 111.5730 109.8889 107.4232 105.9322 105.8783 105.3016 104.3128 109.4895 103.5751 102.2919 108.5486 112.7672 118.4547 123.9407 112.3610 124.7089 123.0325 123.4596 123.3955 120.2430 123.2344 121.9880 121.8916 122.6019 111.0670 121.6108 120.9049 110.1628 108.4705 116.4458 121.2965 118.8584 118.3784 118.1080 117.8573 117.8185 116.7310 116.0681 115.4735 114.8354 114.1600 113.4280 112.6366 111.7694 110.8192 109.7677 108.6127 107.3216 105.8865 104.3227 102.7008 101.2893 100.6123 101.0278 102.2933 103.9035 105.4839 106.9629 107.9300
117.8900 119.6001 115.4718 113.1079 113.9175 113.1432 113.0519 110.8490 115.4117 114.1908 112.8756 106.8480 108.9484 103.0119 105.1694 104.5634 119.1378 122.2987 124.1006 125.4001 124.4849 122.1182 123.0592 122.8818 123.4372 123.1016 124.4851 122.0004 122.1595 113.1007 121.9668 120.4015 120.4117 94.6841 106.7313 105.0517 119.0889 118.4789 117.9856 117.8594 113.4322 115.8070 115.9335 115.3556 114.6968 113.9973 113.2271 112.3956 111.4814 110.4614 109.3244 108.0266 106.5296 104.7883 102.7234 100.3157 97.7479 95.9943 97.1195 99.6644 102.1319 104.2768 106.1069 107.9300
114.0300 115.7492 111.1509 111.1462 111.3891 111.1889 110.7028 111.0214 109.1994 107.5009 106.2717 105.7194 111.2522 117.4391 112.0109 122.4356 125.8368 123.9099 124.3375 123.9672 123.6819 123.8051 123.6605 123.2629 122.6682 125.6420 104.4318 123.4408 121.6840 122.5246 121.6058 121.3078 121.6616 118.2710 116.2037 116.0662 119.5033 118.2979 118.0120 117.5359 115.6334 115.3974 115.9019 115.2666 114.5974 113.8812 113.0920 112.2365 111.2842 110.2164 109.0015 107.5968 105.9375 103.9097 101.3198 97.9449 92.2142 89.3138 90.9699 96.7001 100.4769 103.3037 105.4445 106.4200
111.9900 111.6563 114.2132 114.3173 110.8698 115.2150 112.5384 110.1816 108.7952 105.9331 104.8884 113.6599 123.1613 117.4513 125.8973 125.0488 124.8371 124.6281 124.3491 124.1757 123.9326 123.6112 123.3204 123.1573 122.8151 113.6840 115.2461 122.1421 121.6600 121.3561 120.3904 118.8529 114.5430 101.0458 100.9783 119.8970 96.7374 116.2881 117.5689 117.5284 117.1131 116.6486 115.8508 115.2270 114.5491 113.8276 113.0308 112.1589 111.1859 110.0975 108.8401 107.3794 105.6283 103.4214 100.4588 96.0360 88.1448 84.5372 86.4454 94.1736 99.5006 102.7558 105.1066 106.3300
117.0600 113.2273 115.3989 114.1043 117.0935 116.1035 113.0984 110.7400 110.1847 106.8361 104.8453 108.3326 128.3677 125.0011 125.4962 125.4849 125.3939 124.7740 124.4142 124.1217 123.9012 123.6016 123.5191 123.4491 122.4360 112.4669 118.8172 121.4145 121.8077 121.4737 120.9488 119.7038 121.1939 96.8561 94.7672 118.4628 91.5430 113.6135 117.6630 117.5483 116.9596 116.4217 115.8480 115.2288 114.5544 113.8341 113.0384 112.1662 111.1947 110.1078 108.8589 107.4065 105.6640 103.4816 100.5539 96.3593 88.6884 85.3854 87.2871 94.5079 99.6234 102.8233 105.1457 106.3400
109.8700 110.2821 109.7538 109.4269 109.8740 110.2035 109.9212 109.0041 108.0635 104.5604 105.7455 121.7957 111.7886 125.1412 119.1936 112.3679 132.7245 124.9877 124.4237 124.1345 123.9108 123.3900 123.2642 115.9721 123.3130 119.4471 122.4541 122.1917 121.7089 121.4487 121.0646 120.7527 120.1994 120.7086 104.1903 120.2211 119.0228 118.5854 118.0096 117.5234 117.0074 116.4701 115.8892 115.2777 114.6137 113.8996 113.1207 112.2608 111.3110 110.2588 109.0537 107.6715 106.0403 104.0601 101.5857 97.9889 93.0473 90.4913 92.2561 97.3879 100.8079 103.4807 105.5653 106.4500
117.1600 112.6354 109.6685 109.7961 109.9350 109.7554 108.4688 108.5593 105.7390 105.3364 116.1704 116.4476 104.5443 124.0530 118.0626 123.5282 125.2163 124.8696 124.4081 124.1876 124.2386 123.0470 123.7678 125.7130 101.6694 121.6008 114.9095 122.7277 121.6167 121.4308 121.1704 120.8729 120.1948 120.7834 120.5106 119.0963 118.6631 118.2318 118.0504 117.5783 117.0725 116.5377 115.9742 115.3685 114.7250 114.0245 113.2681 112.4406 111.5321 110.5287 109.4038 108.1339 106.6788 104.9990 103.0352 100.8801 98.6110 97.1711 98.0350 100.2341 102.5075 104.5295 106.2729 106.6600
117.1600 112.3063 109.9644 109.6581 110.3760 110.4455 110.4506 109.2221 106.5811 103.5800 102.9623 122.2790 108.5390 123.0329 124.8741 124.3434 124.7662 124.5233 124.4148 124.1551 121.4261 123.8160 123.2628 124.9860 104.6371 105.0091 116.6235 121.9144 122.5746 121.5983 121.2287 120.7621 120.3281 116.7324 119.6072 119.4854 118.8668 117.9375 118.1124 117.6724 117.1644 116.6517 116.0921 115.4956 114.8742 114.1950 113.4721 112.6854 111.8357 110.8988 109.8715 108.7451 107.4992 106.1243 104.6507 103.1208 101.8532 101.2500 101.6143 102.7930 104.2609 105.7406 107.1505 107.9700
119.2200 109.8559 110.8643 110.9110 110.4757 110.5613 111.2039 108.3333 105.3536 105.2060 103.0537 115.5705 114.8345 121.7992 125.2411 114.9824 125.8567 124.5158 124.3819 125.7376 112.0954 124.2086 124.0496 125.3622 109.2989 109.1273 119.8341 118.8318 114.5320 122.1131 121.2662 120.6554 116.2944 118.5097 119.3979 119.4495 119.1760 118.7494 118.2182 117.7567 117.2716 116.7488 116.2371 115.6818 115.0701 114.4229 113.7396 113.0042 112.2046 111.3552 110.4340 109.4494 108.3937 107.2903 106.1824 105.1452 104.3471 103.9878 104.2014 104.9051 105.8668 107.0025 108.1132 109.4200
109.6900 112.0236 110.2015 109.5631 110.2271 110.3456 108.3139 106.7049 112.0051 104.4250 104.7546 107.7246 120.1802 118.2360 127.9525 125.1225 124.7874 124.6808 124.4868 124.6195 126.2354 122.3818 121.0846 122.4206 124.8858 124.8117 113.6122 119.2148 111.6635 122.7445 121.2069 120.8013 121.5600 121.7174 120.2807 119.2959 119.1844 118.7391 118.3337 117.8963 117.4478 117.0272 116.3369 115.7235 115.2970 114.6851 114.0439 113.3593 112.6307 111.8616 111.0491 110.1937 109.3128 108.4243 107.5864 106.8289 106.2922 106.0700 106.2014 106.6713 107.3683 108.2084 109.0806 109.4200
116.5000 115.2707 110.1304 110.0598 110.3536 110.3550 104.7796 105.0831 103.5463 103.1988 114.9980 112.8166 120.6982 123.4384 128.2537 124.6766 124.9366 124.7097 124.4992 124.1364 123.9151 124.4261 112.4746 123.7004 122.5976 122.1168 118.6952 123.9005 122.9288 110.7891 121.8537 121.0146 120.9224 110.7059 112.8876 119.8417 119.4556 118.8744 118.4699 118.0249 117.5118 115.6806 116.7948 116.1013 115.6335 114.9929 114.4135 113.7483 113.0862 112.3960 111.6851 110.9487 110.2150 109.4984 108.8392 108.2850 107.9049 107.7457 107.8406 108.1754 108.6848 109.3226 110.0340 110.7500
117.1900 117.3294 116.5260 105.6653 106.8132 107.6330 107.5359 104.7445 108.0822 106.5155 115.9266 124.1970 126.7800 125.3325 125.0803 125.2795 124.9527 124.7475 124.5901 124.3391 124.1191 123.5007 124.3621 123.3198 123.2459 123.4945 109.7791 113.0376 125.3724 104.4726 122.6784 121.1214 121.2099 114.4277 106.2954 120.4672 119.4546 118.9766 118.6303 118.2029 117.9967 129.9932 106.3140 116.7418 115.9480 115.4218 114.6748 114.1757 113.5793 112.9537 112.3289 111.7016 111.0847 110.4957 109.9775 109.5594 109.2685 109.1522 109.2256 109.4724 109.8595 110.3560 110.9315 111.6600
105.7900 108.4950 106.9398 110.9604 110.6990 112.8773 105.6423 112.0727 111.4942 106.3573 108.2547 123.8616 125.3450 125.5684 125.3336 125.0756 125.0670 124.4919 124.2522 124.3826 124.1068 124.4854 123.4085 123.4973 123.1282 123.5673 113.3448 119.1065 103.2680 116.3629 121.2936 121.0866 120.1520 107.8176 117.0987 119.6967 119.5772 119.1727 118.7825 118.4237 117.4971 102.1307 114.3827 118.3597 114.1930 115.8496 114.8902 114.6580 114.0570 113.5182 112.9694 112.4311 111.9068 111.4264 111.0068 110.6729 110.4544 110.3672 110.4200 110.6098 110.9117 111.3141 111.7637 111.7700
118.9100 115.5813 114.3325 120.5213 113.2558 114.3010 109.6361 109.7126 106.6047 119.0466 126.0065 136.3678 124.4812 125.4815 125.8339 125.4077 124.7914 127.8279 124.9000 124.0606 124.5586 110.8988 124.0140 123.9928 123.1744 123.2906 124.1454 122.1626 116.5003 122.6975 121.5546 120.5952 120.7654 91.3012 119.1827 120.0523 119.6228 119.3408 118.9636 118.5766 119.4418 120.1667 99.0747 104.0898 102.1740 105.5642 116.6475 114.9515 114.5696 114.0734 113.5953 113.1323 112.6850 112.2845 111.9428 111.6739 111.5055 111.4287 111.4697 111.6213 111.8647 112.1946 112.5794 112.6800
119.1800 120.6200 113.0919 113.9735 113.0586 113.4890 110.8042 113.5966 114.0939 110.8455 121.7730 128.3624 126.0722 126.9444 116.2098 125.6951 125.8386 121.9657 124.3274 123.8578 124.2752 124.4892 123.2635 123.7241 123.1118 123.0844 122.6157 122.7727 122.5612 121.9218 121.9477 121.8615 121.4890 124.1064 120.5751 120.2046 119.8575 119.4996 119.2333 119.0096 111.6556 96.1195 97.4277 96.9695 108.9697 114.3834 116.0426 115.5086 115.0604 114.6286 114.1974 113.7967 113.4136 113.0775 112.7904 112.5714 112.4335 112.3758 112.4078 112.5333 112.7280 113.0000 113.3246 113.5100
119.1100 120.0451 113.5164 120.4984 115.1022 108.5218 107.6721 104.8384 105.6785 104.9927 117.2093 101.4484 126.7540 116.3089 125.9080 127.4886 103.5649 121.3707 123.3472 124.7181 124.6198 124.3433 119.2705 122.5074 123.1917 123.1616 122.9132 122.6151 122.4252 122.2468 119.3366 111.7288 122.1436 120.4839 120.6755 120.4115 120.0176 119.7007 119.4599 118.4980 118.7508 98.7028 99.0656 113.6826 117.1204 116.8444 116.2663 115.9624 115.5444 115.1636 114.7809 114.4315 114.1079 113.8154 113.5775 113.3921 113.2734 113.2236 113.2548 113.3528 113.5243 113.7535 114.0309 114.2200
115.4800 108.7130 109.1982 109.2657 110.0007 109.4205 106.2504 104.8373 103.7144 117.5804 113.9406 108.6028 111.0477 105.0056 110.3937 106.9383 124.8423 117.1617 116.9820 110.9846 126.0116 118.2339 113.0851 112.6266 125.6619 123.1316 123.0146 122.8005 122.9447 122.1652 121.1188 116.1925 121.2009 121.1957 118.9482 120.1552 120.1130 119.9328 119.5540 119.0860 119.9169 108.1214 98.9573 120.2892 116.8358 117.1814 116.7349 116.3899 116.0245 115.6877 115.3452 115.0400 114.7541 114.5075 114.2978 114.1435 114.0606 114.0305 114.0279 114.1168 114.2533 114.4504 114.6879 114.8900
110.0500 109.9432 109.6274 110.3735 109.2316 108.0057 106.4833 104.6134 104.5362 107.1199 107.7905 103.9511 122.7292 108.1706 110.9430 125.6080 115.7025 107.5878 122.8690 123.5438 123.7774 125.3990 111.5385 126.3063 123.2577 123.3485 123.1049 122.5912 119.3343 123.0843 117.5079 122.3830 121.7843 121.2127 117.6946 116.4326 120.5316 120.1168 119.7517 119.5855 119.0201 116.8585 105.6170 115.3193 117.3367 117.5089 117.1357 116.8229 116.4622 116.1866 115.8920 115.6090 115.3681 115.1471 114.9726 114.7704 114.7575 114.6494 114.7531 114.8109 114.9304 115.0943 115.3058 115.4300
110.0400 110.6052 109.6380 108.7012 107.7953 105.3292 113.3181 104.7120 104.6568 119.1534 119.6689 110.1935 124.1120 116.3088 99.8040 108.2465 124.5392 110.2878 105.3081 109.0534 123.7909 122.0103 111.7251 123.2722 123.7393 123.4562 123.0912 119.9982 98.8851 122.7797 114.2947 121.6057 121.9399 121.6685 120.1758 119.0862 120.7661 120.3076 120.0270 119.7329 119.0134 120.3515 109.5710 113.6576 114.0523 118.1682 117.5336 117.3128 116.9175 116.6384 116.3811 116.1662 115.9315 115.8561 115.2715 115.1209 113.2877 115.2565 115.4560 115.4574 115.5633 115.7111 115.8889 116.0800
113.0900 112.0873 111.2580 109.5834 109.6373 107.2420 104.6175 103.5496 103.1902 102.0442 103.2491 115.3154 120.5719 118.6294 109.3532 109.3707 119.5948 114.7408 123.1410 106.0536 122.2186 125.0697 128.2939 124.6533 123.6237 123.5654 123.1489 122.9477 114.9796 115.4158 114.5342 121.6092 120.3848 120.9327 120.0900 121.3488 120.2497 120.5128 120.2719 119.9654 120.5450 119.9967 107.7032 120.1876 118.2166 118.4132 117.8934 118.2116 117.9222 117.1141 116.9502 116.6822 116.5079 116.3880 115.6596 111.3374 107.6865 115.7162 116.1609 116.0550 116.1475 116.2794 116.4376 116.6200
109.2200 108.7718 108.6253 109.7210 108.5264 106.5925 105.5345 112.4507 107.0549 111.0524 115.3837 108.7831 124.8065 117.8698 123.1004 127.5909 126.6723 113.5294 122.4384 111.4227 109.9664 118.7704 111.5553 125.6766 123.8259 123.6893 123.2361 115.3524 111.0246 110.0801 107.0126 122.4485 120.3539 119.0513 117.2010 110.4553 110.4499 120.5713 120.3606 120.2953 114.1490 103.5691 104.6597 108.2161 118.8529 118.4423 118.3091 118.2391 117.0163 113.5351 117.4036 117.2133 116.8401 116.9893 116.7977 113.0241 113.8780 116.3580 116.7124 116.6238 116.7051 116.8203 116.9621 117.1300
109.2200 110.2444 110.0487 106.8142 112.4150 108.1770 106.4195 112.7353 104.6874 113.2328 123.0526 125.7614 123.1779 119.8639 125.2944 125.3418 125.9289 127.6426 126.1646 131.2347 128.1508 123.7502 111.3429 126.5487 121.2822 123.7941 125.3318 101.0142 111.5208 122.3472 125.1886 120.6044 122.7850 124.7408 98.2018 98.0310 114.5450 121.2490 120.7279 120.7581 113.1390 100.6319 123.0046 119.6133 119.8484 118.9408 118.5840 118.3202 118.4522 118.0962 117.9051 117.6757 117.4903 114.5683 114.6357 117.5708 117.1698 117.1177 117.1530 117.1568 117.2245 117.3306 117.4511 117.6000
112.1300 112.5971 107.7898 110.4225 115.6563 112.7199 124.9180 102.4149 111.2277 102.2697 118.8414 125.1387 127.1846 127.2594 126.1638 125.9031 125.1752 125.2045 116.7753 126.7021 120.9010 125.9415 125.8527 124.8271 122.0398 123.2449 128.0243 108.1310 126.2663 120.2001 122.4859 120.6544 122.3031 122.2995 101.9350 117.9422 128.8670 115.2915 121.1513 121.0770 113.6923 107.9888 121.7766 120.0421 119.6156 119.2595 119.0265 118.8353 118.5896 118.4138 118.2410 118.1021 117.9419 118.0492 117.7920 117.5176 117.5962 117.5878 117.5952 117.6335 117.7149 117.8111 117.9232 118.0500
106.1500 107.3181 105.6910 112.5056 112.0892 110.2060 120.4273 105.2276 111.3800 111.4551 112.5014 111.3146 124.0986 125.2276 126.3023 126.0558 126.4722 126.0295 118.6494 125.6515 129.2735 109.6603 126.5351 123.5920 123.8483 120.7908 104.9156 121.0794 109.8992 126.2555 122.9721 122.8483 122.4261 122.0802 115.4033 122.1224 95.5317 108.4343 122.2006 120.3271 119.6403 118.4618 115.5551 120.1857 119.8129 119.8921 119.3768 119.1878 119.0041 118.8227 118.6736 118.5297 118.3718 118.2153 118.1972 118.1641 118.2426 118.0882 118.1681 118.2325 118.1792 118.2482 118.3519 118.4800
106.2700 106.7574 106.6604 106.4887 108.5235 106.3962 108.9314 116.7321 114.1925 114.5536 105.3927 117.1884 126.9063 122.2873 127.1245 124.9667 104.6947 127.7163 135.1502 111.7915 114.2989 118.7768 119.4275 122.8486 127.6643 103.5262 104.1912 118.3133 100.5585 124.5953 122.6135 122.9431 122.6986 122.8102 122.3514 122.1237 118.0220 119.9535 121.3798 121.9592 120.4608 104.7610 123.2203 119.8472 119.6953 120.0250 119.7005 119.5054 119.3693 119.2301 119.0621 118.9359 118.8297 118.7535 118.5757 118.3906 117.1451 118.4910 118.6434 117.6072 118.7480 118.7783 118.8589 118.8900
106.2900 110.2702 112.2476 112.7029 127.7182 126.0927 127.4981 106.8157 118.7936 116.1133 115.0353 107.8752 133.1793 115.8884 126.1294 125.6758 123.8928 118.5318 112.9289 109.7683 124.4423 105.2735 119.6075 105.5195 106.1856 109.7809 103.1739 104.2971 124.8467 123.3241 123.2781 123.0753 122.8766 122.6280 122.4773 122.1928 122.2044 121.7477 119.9851 117.1221 98.7036 100.1280 112.7884 122.2305 120.5099 120.4117 117.8909 116.9450 119.7101 119.5615 119.4502 119.2965 119.2243 119.1440 119.0340 118.7229 118.9278 119.0931 119.0011 118.8659 119.0273 118.7450 118.8633 119.2700
125.7500 128.0988 128.1351 128.1546 127.8532 127.5537 128.9080 120.0142 115.8671 104.8091 106.8484 105.9122 137.8860 123.6203 127.8729 125.5915 126.3647 118.5995 125.1590 125.2551 126.7273 115.5452 109.0491 120.4211 108.6419 124.1618 103.9297 105.1916 122.3764 123.5456 123.5049 123.2139 123.0467 122.8435 122.5888 122.9993 113.8896 97.7960 114.2192 125.4675 102.4383 119.3195 115.4782 111.0043 122.9204 118.1800 114.1312 109.7240 120.0921 120.1057 119.9778 119.9214 119.6046 119.5349 119.4426 119.4341 119.4216 118.7896 119.2710 119.4221 119.3876 120.5947 120.9754 119.6400
124.4800 126.1199 127.9660 127.8599 127.8840 127.8828 127.8552 129.5309 109.0652 109.7282 130.2194 113.9038 123.2734 105.1423 136.0321 119.7644 126.9949 126.0304 125.7812 125.3042 124.6502 112.4997 110.5085 125.6368 124.9148 110.6789 100.7606 124.2196 122.3490 125.1426 123.4525 123.4153 123.2206 123.0374 122.7369 123.6846 109.5719 101.4199 120.8089 121.8209 122.2091 121.4499 102.7021 103.7403 114.1684 107.7256 123.0131 121.6426 120.7130 120.0365 116.5890 120.0778 119.9729 119.9129 119.8562 119.8374 119.5870 121.6061 120.4378 119.8083 119.4993 119.7422 99.2417 97.9900
128.4400 128.6942 128.2805 128.0980 127.8952 127.6990 124.9284 122.7154 116.4513 119.9872 129.1814 109.5512 102.7239 111.5007 120.9080 123.8004 132.5770 121.6091 126.6008 125.4211 127.9116 114.6019 118.1078 122.0944 112.1558 101.8894 108.6319 110.3314 106.1045 125.0021 123.5871 123.6472 123.3865 123.2059 123.0866 122.7322 123.0435 121.3835 106.4660 122.8707 121.9139 122.3048 126.0867 106.6246 115.9891 117.0026 104.7574 103.4114 120.1670 118.6603 120.0061 120.5643 120.3223 120.2778 120.2127 119.9678 122.2889 96.6657 111.2209 120.1542 120.4092 122.3614 102.9623 120.3300
128.4600 128.3863 128.2424 128.1758 127.9054 125.5222 116.0961 117.4706 130.1257 127.7625 126.9699 119.0405 108.8788 126.0666 121.4680 102.7354 130.9546 130.6410 121.4769 125.7159 123.7309 119.9117 127.3045 101.9655 106.4626 105.0061 110.6099 112.5525 120.6217 127.4092 123.6894 123.6986 123.5713 123.3988 123.2250 123.0601 122.2360 124.2275 122.5947 123.5432 121.0290 107.9524 108.0940 122.7762 122.9066 123.3580 108.9801 105.4293 121.8257 121.0168 120.9196 120.7462 120.6912 120.6307 120.5619 120.4844 120.9800 120.3559 121.2850 117.1467 115.4029 112.0178 99.8954 98.6600
128.9100 128.9100 128.2900 128.2000 128.0000 127.9000 127.8000 127.7000 127.4900 127.3800 122.8200 127.0600 126.9500 126.7300 126.6100 105.5800 137.2800 130.0500 126.0200 125.9000 125.6500 125.5400 125.4000 112.3500 125.0100 102.8700 102.7500 108.3700 116.8800 114.0300 124.0400 123.8800 123.7400 123.4400 123.2800 123.1200 122.9800 122.8100 122.6700 122.4800 122.4800 105.1200 99.9800 105.5900 100.7200 121.6900 121.4600 121.5200 121.3400 121.1200 121.1400 120.9600 120.9900 120.7400 120.7600 120.7800 120.8000 102.1000 120.8000 103.7200 119.7400 104.8600 102.3200 102.3200
