134.6000 127.4600 128.4700 127.3700 127.1300 127.1500 126.5700 126.3200 125.1900 125.1800 110.2800 123.4100 110.6700 124.5900 119.2500 123.6000 118.7300 120.7000 120.3700 125.9800 124.0300 122.6700 119.7400 108.7200 118.5900 116.8800 114.9800 110.3500 110.7100 114.6700 106.7800 109.6700 128.6000 113.9600 113.9600 128.4400 128.3600 128.2700 128.2700 128.1800 128.2100 123.3000 128.0200 128.0400 127.9400 127.9600 127.8500 127.8700 127.8700 127.7700 127.7900 127.8000 127.6800 127.6900 127.7100 127.7200 127.5900 114.4500 113.8600 112.9700 130.9400 127.6000 127.6000 127.5900
134.6000 127.1748 129.1566 127.1577 126.7403 129.1451 127.1668 126.1928 125.2958 122.5862 112.1309 112.0164 110.5383 126.4021 118.5726 119.3442 120.9565 120.4504 122.7198 124.2277 125.3048 123.1004 120.5800 119.2290 110.7477 111.4881 118.8180 106.5279 118.4967 112.0022 103.8159 113.1309 117.9239 111.5784 105.4254 109.5119 117.8477 127.8805 128.2630 127.4200 124.2775 127.6565 128.2253 128.0374 128.1129 114.7802 128.2848 127.6167 127.7446 127.7002 127.6654 127.6458 127.6194 127.5964 127.5434 127.4592 128.4389 116.7404 116.7033 120.2018 117.5596 124.8247 126.3350 127.5900
127.4000 134.5678 128.7425 128.2377 131.2892 127.8619 128.8308 125.1965 125.5887 120.7370 112.8508 110.3149 112.7148 111.1207 117.8492 120.0915 120.7970 120.8738 127.5286 137.3107 140.0232 115.0584 127.5223 121.0893 106.2018 105.5905 109.8056 116.1223 116.4446 108.4909 113.8805 123.9360 120.7860 127.1201 110.7317 108.6069 117.0478 124.8691 128.3880 126.5193 128.1207 128.0223 127.8056 127.7680 128.1447 112.5161 126.7738 127.7979 127.5680 127.5453 127.5151 127.4876 127.4630 127.4584 127.4133 127.1764 128.4970 117.4056 119.1778 118.5737 113.2197 125.9123 126.8004 127.3000
127.4000 132.3624 127.9304 129.4276 130.3146 128.8987 127.8772 126.3377 124.3804 124.9711 120.0599 121.6750 109.1297 109.8622 113.3203 120.8593 120.1839 120.2400 123.9755 135.3918 118.3924 115.8713 113.4537 117.5669 105.9710 108.4654 106.8336 118.0834 113.4191 116.1707 110.1957 121.9206 130.5774 125.0120 107.4371 118.9054 125.6518 127.6371 128.3509 125.4417 127.8882 127.6724 127.7017 127.6553 127.4157 129.5047 114.8108 128.1061 127.4267 127.3783 127.3565 127.3348 127.2980 127.2597 127.2876 127.8469 129.1538 114.8814 116.1361 112.6168 111.8900 124.4648 126.6786 127.1500
136.7400 126.1528 129.8252 129.5789 129.4132 127.8861 127.3984 127.3707 125.4794 125.4694 125.8529 125.6065 114.1071 107.9548 114.1294 126.8105 120.6755 121.0348 124.3694 136.3287 121.3685 114.2913 119.9588 123.8400 114.9489 106.4495 107.1416 117.5668 110.1312 114.9923 108.3294 113.3930 128.5224 131.6323 123.7479 129.0920 112.0270 127.7881 127.7931 127.9316 127.6770 127.5808 127.5233 127.4692 127.2825 128.5030 118.4203 128.2083 127.1773 127.2215 127.1973 127.1740 127.1315 127.0536 127.1657 122.8939 118.8083 119.2858 128.1996 117.9014 115.2054 126.1406 126.9676 127.0000
137.1700 129.4651 128.5148 127.9092 127.9185 125.7035 126.2320 125.7997 125.1495 122.6835 126.4271 122.0897 107.5073 110.6969 116.0959 110.3228 123.1365 124.0897 133.5880 132.7259 120.1440 118.9776 119.6679 115.4838 119.6500 115.3399 105.9579 107.0743 124.7920 120.5909 121.2104 143.8533 128.3863 129.0797 127.3594 127.6710 128.3756 127.4587 127.6693 127.5182 127.4856 127.4445 127.3776 127.3347 127.1745 127.7189 119.8326 122.0708 127.2697 127.1162 127.0345 127.0026 126.9759 126.7617 127.7943 112.2551 111.9010 125.2425 128.7824 127.5434 126.5067 123.1436 127.3021 126.8500
139.4300 125.6243 127.8641 129.0690 126.6314 126.3652 125.5326 125.5246 124.5645 124.0167 123.2743 122.7008 106.3006 107.3017 126.3965 131.4210 128.6244 124.6715 125.5006 122.5614 121.1295 122.6261 119.4376 127.0101 128.4446 111.0952 108.0797 108.0570 117.9765 130.6817 127.2973 128.9523 127.6496 113.0907 122.6694 125.9586 124.0182 127.4541 127.5527 127.4045 127.3437 127.2861 127.2290 127.1741 127.1037 127.0940 107.8406 125.9856 124.9032 127.3805 126.8410 126.8319 126.8001 126.7024 127.3467 122.6893 113.7297 129.4507 126.7060 122.6592 120.9335 125.8924 126.5073 126.6900
126.8200 129.9157 115.0494 127.9967 126.0192 125.9082 125.1559 124.2645 124.1866 124.0581 122.3493 132.0850 136.1876 113.1963 104.7169 128.2403 128.6618 130.1382 126.0037 119.4653 119.9542 119.8809 118.6185 116.0014 112.6926 113.0525 109.5757 106.1696 113.3112 129.9193 127.8859 127.8079 128.9458 121.5374 128.0227 127.3215 127.7853 127.3916 127.3194 127.2596 127.1913 127.1185 127.0774 127.0210 126.9293 127.7817 118.5816 128.3834 122.7263 126.7142 126.6966 126.6620 126.6506 126.5450 126.6351 127.8406 114.1416 127.6583 125.9264 126.6536 126.7767 126.5407 126.5473 126.5300
126.2500 126.3655 120.6774 128.0773 126.6278 124.7040 124.5573 123.8871 123.3974 123.3325 122.9071 125.9861 122.0416 115.5366 107.9399 111.1208 115.6485 124.5242 113.3812 120.5889 110.3022 122.3352 123.6776 112.3179 121.7728 124.1716 118.5049 116.8004 123.9819 127.3501 127.6835 127.3169 127.5713 116.8869 126.4195 127.4555 127.2579 127.2043 127.2016 127.0944 127.0309 127.0315 126.8978 126.8540 126.8599 126.3287 132.3717 121.1764 126.5187 126.6628 126.5177 126.4817 126.4643 126.9295 126.4753 126.3393 126.0059 126.5272 126.1738 126.2945 126.2483 126.3473 126.3414 126.3600
125.7500 126.2758 131.4126 115.7073 123.3699 124.7556 123.7506 123.5574 124.1658 123.1270 125.2528 120.8491 169.8884 127.7301 123.6979 117.3115 118.4548 126.8146 119.3442 125.0269 120.5155 115.9346 117.1021 116.4826 120.3512 115.5451 122.7671 118.5814 127.6921 123.1353 126.6921 127.1158 129.1238 127.9676 127.7644 127.1763 127.1711 127.0973 127.0184 126.9604 126.8849 126.5199 126.8682 126.7087 126.7155 125.6108 132.2464 126.4337 126.8461 126.3628 126.3655 126.3388 126.2672 126.3892 127.0406 126.2695 126.1742 126.0614 126.0939 126.1640 126.1829 126.1528 126.1658 126.2000
125.6800 125.6484 127.7520 129.3594 120.7402 122.4129 124.7040 123.1414 125.6306 123.8641 122.8660 116.3883 137.8950 140.9834 124.8157 125.0380 128.5408 124.5288 116.6930 115.8289 123.2893 120.8796 119.0518 111.8346 128.3208 129.0526 127.5730 131.9576 128.5535 127.5924 127.7700 127.2724 127.3256 127.1719 127.1037 127.0993 127.0143 126.9488 126.8603 126.7738 126.4981 128.4174 126.3794 126.2970 126.7234 126.4181 125.6387 126.2408 126.1553 126.2142 126.1691 126.0087 126.3289 125.9272 125.6939 125.9516 125.9802 126.0421 126.0089 125.9680 125.9603 125.9694 125.9783 126.0300
125.0500 125.2890 125.5172 126.0180 126.9128 120.0824 114.6093 122.1416 118.8609 136.0203 128.5165 129.1524 120.7821 133.9429 121.4078 126.0727 119.4858 119.6347 121.8462 118.6894 128.5893 119.6864 120.7748 123.0744 135.5746 127.4182 127.0299 127.6707 126.9652 127.6308 127.1286 127.5050 127.5758 127.0489 127.2172 126.9477 126.8931 126.7261 127.0773 126.7078 126.3867 123.2313 114.5726 127.7108 122.7242 127.1205 126.3153 126.1216 126.0840 126.0406 125.9895 125.6880 128.2896 126.2655 126.6204 125.7384 125.8256 125.7029 125.7794 125.7805 125.7776 125.7787 125.7874 125.8500
124.2200 123.4901 127.1036 125.8545 120.9116 114.8300 111.2585 118.5394 123.8858 135.7222 113.5620 137.7345 127.4004 128.8104 121.8188 122.2563 119.9187 121.1992 122.1988 120.3212 122.2445 133.7127 121.8806 129.0383 125.6992 130.2432 128.1211 127.5464 127.5370 127.2830 127.8783 123.8477 123.1876 125.5036 126.7869 126.7900 126.7197 126.8125 124.0838 126.2621 125.8659 128.3108 123.3963 117.5948 115.1081 126.3608 126.0169 125.9411 125.9024 125.8499 125.7940 125.7591 125.5528 126.9268 113.7902 125.0223 119.8246 125.6765 125.6358 125.5802 125.5763 125.5809 125.5876 125.6800
125.2300 119.8579 125.1022 125.1185 120.6506 114.8908 126.9996 113.2641 124.7087 131.7628 122.8741 132.1878 127.6724 123.4203 117.9564 119.5669 120.4760 116.9909 118.2484 110.4807 115.4702 127.6291 128.3253 112.4272 124.9047 129.5929 127.0935 127.6361 127.2335 127.1160 127.0309 120.1541 113.5994 127.5255 126.7348 126.6580 126.5495 126.4336 123.1239 126.1143 126.0775 125.1131 108.7075 122.4949 127.9896 125.9250 125.8135 125.7604 125.7074 125.6611 125.6139 125.5426 125.6368 126.5467 111.3318 127.6591 127.2049 125.3401 125.4111 125.3857 125.3806 125.3807 125.3941 125.3100
118.1300 122.3961 123.3195 124.8582 123.3012 125.1386 126.6079 120.3769 120.0236 113.4312 141.7260 136.2308 120.3622 121.9237 121.2034 122.3947 137.5554 120.0760 119.4065 120.0459 114.7777 129.7596 128.0630 128.2261 128.5453 127.4960 126.9649 122.8640 127.6109 127.0501 126.9343 128.9328 125.1438 128.4982 126.5026 126.4957 126.4043 126.3221 126.6442 126.2428 125.9635 127.0233 126.1645 126.7385 125.1098 125.6951 125.6700 125.5760 125.5209 125.4667 125.4162 125.3608 125.3878 125.2758 125.3603 125.9800 124.7240 125.1227 125.1959 125.1794 125.1666 125.2040 125.3453 127.4800
132.2500 126.8673 129.4307 125.1058 122.2594 119.6810 117.4920 122.5538 122.3114 122.2832 121.1778 113.3918 109.9566 124.3145 119.7871 120.5202 126.4731 113.6088 111.8880 122.5477 128.9755 118.9136 127.6021 127.3159 127.2744 127.3601 127.3351 126.9577 127.0744 126.8962 126.7872 126.6271 126.7790 127.1718 126.2899 126.3398 126.2526 126.1520 126.0434 125.9542 125.9173 125.7295 125.6498 125.5019 125.7735 125.5131 125.4339 125.3859 125.3293 125.2692 125.2182 125.1808 125.1269 125.1190 124.9782 124.8259 125.0026 125.0375 124.9803 124.9728 124.9630 124.9743 125.3816 125.1100
129.8200 130.0052 129.8573 123.3812 124.3160 109.9022 123.1587 110.0115 123.3393 124.1046 137.5085 115.4335 117.0665 122.8174 119.9629 119.2126 123.7626 112.0187 120.2358 118.7948 126.9132 127.5055 127.4840 127.4355 127.3242 127.2703 127.0886 127.1807 126.9615 126.7846 126.6996 126.5921 126.4394 126.3729 126.2885 126.1417 126.0642 125.9760 125.8944 125.7916 125.6918 125.6690 125.5617 125.4936 125.3615 125.3250 125.2628 125.1862 125.1257 125.0706 125.0203 124.9684 124.9276 124.8847 124.8717 124.8731 124.8104 124.7679 124.7625 124.7543 124.7478 124.7530 124.7219 124.7300
129.7900 129.6885 129.7319 134.5181 123.2306 123.7657 113.1482 116.6687 118.5640 122.5274 127.7496 116.4445 115.7800 116.3232 119.3986 119.1279 113.9911 123.1453 117.6151 117.5761 112.0959 123.9537 127.8078 127.2804 127.1970 127.0971 127.0208 125.9191 126.8312 126.6654 126.5394 126.4453 126.3244 126.2574 126.0326 126.2028 125.7932 126.0956 126.0413 124.2605 125.4792 125.3751 125.3883 125.2848 125.2188 125.1307 125.0600 124.9883 124.9311 124.8608 124.8152 124.7560 124.7202 124.6725 124.6328 124.5903 124.5814 124.5578 124.5468 124.5353 124.5293 124.5327 124.5466 124.5300
129.6900 128.8764 129.9175 124.1225 117.3178 121.2324 123.2733 123.1355 117.5525 122.6950 140.9708 127.9895 121.4059 118.5670 121.5182 122.4508 114.4903 117.3769 124.0587 122.5332 117.2187 122.2459 127.5974 127.1637 126.9339 127.7548 122.0630 125.9958 126.6435 126.5248 126.4024 126.2879 126.1841 126.0252 126.0599 125.8635 120.4122 128.6264 125.4080 122.7305 119.1966 125.2935 125.1942 125.0982 125.0177 124.9355 124.8645 124.7863 124.7213 124.6595 124.5983 124.5475 124.4998 124.4551 124.4215 124.3859 124.3596 124.3379 124.3211 124.3153 124.3097 124.3147 124.3165 124.3300
129.6600 122.5034 128.6377 121.7058 124.1570 120.6409 115.8375 122.5944 123.2738 132.2999 130.4240 120.5079 113.8365 121.7761 113.9571 127.3725 120.8079 119.6798 124.9051 121.0610 121.3684 128.2021 127.1368 127.1102 126.5701 130.5236 113.8140 120.5914 128.5048 126.4256 126.2649 126.1449 126.1123 125.8749 126.1311 122.6276 125.6753 126.5415 126.1976 123.9697 125.4728 125.0689 125.0089 124.9023 124.8114 124.7427 124.6597 124.5808 124.5071 124.4416 124.3810 124.3275 124.2790 124.2312 124.1937 124.1542 124.1285 124.1084 124.0857 124.0831 124.0765 124.0815 124.0872 124.1200
123.8400 122.0562 125.2988 117.4104 121.0143 116.4927 122.3193 122.2951 109.0608 118.2425 120.4316 121.6103 134.2596 112.9480 120.9028 114.6196 114.4699 116.0191 134.3786 125.5527 126.7479 127.6328 126.8805 126.9716 126.8722 126.9933 107.3230 114.9318 118.1475 126.5207 126.0064 125.7477 126.3544 125.9201 121.5326 119.4964 120.4497 116.7861 116.5906 116.2302 125.2228 124.8949 124.7822 124.6674 124.6350 124.5338 124.4349 124.3703 124.2977 124.2248 124.1628 124.1073 124.0511 123.9950 123.9433 123.9197 123.8959 123.8619 123.8536 123.8416 123.8353 123.8406 123.8511 123.9000
129.5200 124.0378 123.9477 118.6584 118.1773 116.7730 122.0913 126.2800 128.7200 123.1201 116.1763 125.7134 129.1336 122.9692 125.3460 124.4254 114.1011 114.6431 130.3661 129.0777 126.9589 127.0202 126.8830 127.7006 123.2887 126.4922 124.2307 129.3258 127.1144 126.0217 126.0528 126.1520 120.9383 127.9123 112.1282 111.6279 117.7699 119.5433 121.9362 125.6839 124.1606 125.7467 119.6071 125.4141 124.2507 124.6074 124.1486 124.1787 124.0751 124.0040 123.9380 123.8731 123.8129 123.7786 123.7730 123.7006 123.6495 123.6837 123.6125 123.6033 123.5901 123.5952 123.6040 123.6800
129.5000 133.5117 119.6901 122.3274 120.4718 120.3309 122.4704 121.8782 129.9448 129.4499 109.0034 105.4384 116.4065 121.3641 129.0038 120.9836 119.6255 119.5898 108.7995 126.9118 126.8479 127.1672 126.3549 122.4553 114.7506 116.9117 113.9602 119.5014 126.8414 125.8595 125.8016 125.4713 119.8905 117.1565 112.8697 119.0319 130.6852 128.3532 117.5641 114.1095 118.3447 125.3626 111.9368 118.5358 116.8458 126.1236 124.2850 123.8922 123.8495 123.7746 123.7023 123.6333 123.5920 123.4581 123.2355 123.4100 123.3547 123.0890 123.1349 123.3205 123.3436 123.3423 123.3590 123.4500
107.3700 115.3734 106.6829 130.3117 127.6603 121.1691 117.8287 121.5901 124.0213 119.4409 124.7209 114.3692 115.0799 121.4534 117.1452 118.0482 119.4991 123.5134 129.3828 126.0196 127.1188 126.4745 126.2074 111.4034 117.9759 123.6454 123.3727 120.4251 126.4847 126.4010 118.5562 126.8875 125.6773 117.4258 116.2049 120.7116 120.8836 124.6789 125.0565 110.1358 117.7501 123.3209 108.2676 113.1412 124.9272 121.7355 123.5424 123.6825 123.6192 123.5391 123.4671 123.3921 123.3591 123.7288 124.0762 122.9985 123.0907 123.0530 121.4655 123.1250 123.0848 123.0843 123.1016 123.2200
107.3700 108.1099 109.6772 119.6577 114.2048 125.4325 131.5512 124.6568 126.7757 118.6066 114.8611 122.6940 125.7176 123.2887 108.2006 113.9181 126.6666 125.8553 128.0102 126.6037 126.8919 126.7671 127.4155 115.7939 122.9551 109.6344 131.4312 128.4546 125.7533 125.3882 121.0739 125.6584 125.0372 113.4906 118.1740 116.2305 124.1059 124.9664 120.0253 105.8455 115.0316 120.4188 116.1724 125.0583 126.6589 123.2802 123.8319 123.4411 123.3870 123.2983 123.2226 123.1361 123.1053 123.5629 112.9876 122.7272 118.0154 122.9205 123.0685 122.8259 122.8225 122.8229 122.8321 122.7300
121.7300 119.7402 119.2700 107.2369 125.9560 113.2338 115.2892 103.8396 109.7908 125.7327 117.1546 119.6273 115.7610 111.0884 109.0737 108.8958 132.0155 129.6026 126.5378 127.1406 126.7156 126.5185 126.4752 127.9621 126.7343 116.5294 115.0469 124.9185 125.5938 126.3889 125.3467 125.1597 126.3136 113.6773 114.8687 111.3089 125.5818 129.3498 123.4777 111.1439 112.5477 121.6021 130.2528 122.6060 123.9426 123.2624 123.2675 123.2477 123.1504 123.0533 122.9687 122.8832 122.8700 122.8762 121.1768 111.6780 123.8969 122.5429 122.5464 122.5346 122.5381 122.5429 122.5595 122.4800
129.2000 129.1206 119.6082 119.9729 115.0540 105.3292 105.9226 108.5535 123.3202 122.0986 121.6869 117.6809 115.0871 105.3502 115.4603 123.7293 107.1821 118.9240 127.1155 126.8970 126.6627 126.6440 126.2827 125.8620 125.9725 127.2054 125.7764 127.4693 125.3327 125.3794 125.2201 125.0440 124.8117 123.8531 114.7356 114.9603 117.9686 116.9793 126.2111 127.8461 121.1382 123.4004 123.6213 123.4629 123.2561 123.2394 123.1042 122.9998 122.8955 122.8060 122.7164 122.6348 122.5558 122.5543 122.2583 125.6769 122.5337 122.2536 122.2819 122.2627 122.2508 122.2580 122.2788 122.2200
129.0900 128.7056 129.3001 121.5738 119.3440 120.4863 107.8597 107.1518 107.7465 106.5247 105.8466 114.8695 112.4298 111.7251 108.2840 118.0116 110.8087 120.2516 127.0162 126.7958 126.2204 127.8303 113.3144 127.3774 126.9096 113.8006 124.6317 125.4641 125.5073 125.2202 125.0956 124.9549 124.7555 124.4420 116.3097 111.0760 107.3768 114.9998 123.7270 123.7009 124.0734 123.4573 123.2860 123.2695 123.0968 122.9895 122.8689 122.7513 122.6446 122.5450 122.4474 122.3630 122.2907 122.1859 122.3188 120.3668 121.8961 122.0213 121.9907 121.9658 121.9678 121.9638 121.9851 121.9500
125.7400 129.9304 127.4370 120.3912 122.5234 119.9960 120.7061 106.8428 107.5766 106.3357 105.8233 106.0881 108.6489 121.4202 115.3392 109.8237 113.5999 119.9131 127.1819 126.5656 126.4270 125.5450 126.3935 126.0854 125.8202 125.5304 126.4266 125.1802 125.2769 125.1035 124.9570 124.6817 124.7688 124.5403 129.3993 133.7372 111.7090 124.5620 123.2920 123.7247 123.4264 123.3089 123.1488 122.9946 122.8828 122.7461 122.6168 122.4953 122.3854 122.2791 122.1837 122.0834 122.0039 121.9257 121.8441 121.9801 121.8938 121.7103 121.6838 121.6693 121.6582 121.6667 121.6786 121.6700
123.6000 125.9874 123.5463 109.4129 121.2030 119.3989 113.7558 115.0727 133.6202 117.7622 107.5843 105.4098 106.1857 102.8077 127.4583 127.4496 121.4748 124.3639 126.8182 126.4606 126.8475 119.2126 125.0530 125.9618 125.3924 125.4159 125.3849 125.5911 125.0529 124.9658 124.8039 124.5973 122.6034 124.5477 120.9474 124.0816 123.1517 123.1469 127.9924 125.3537 122.1807 123.1366 122.8993 122.7809 122.6327 122.5031 122.3655 122.2477 122.1215 122.0093 121.8962 121.7979 121.7081 121.6272 121.5589 121.4586 121.4102 121.4008 121.3676 121.3498 121.3399 121.3485 121.3623 121.3800
123.5900 122.3847 124.9742 117.7370 122.1784 108.4061 118.4181 104.5896 107.6434 113.7224 122.5918 107.5020 113.2970 107.2727 110.9076 106.9602 125.7339 126.6759 126.1572 126.4787 126.7884 125.8510 121.8222 122.8920 126.4029 125.9340 125.7005 121.4347 124.9891 124.8184 124.6361 124.7582 125.5412 111.7202 106.9949 124.2585 123.2005 122.7933 123.3922 121.0472 121.1280 122.9681 122.7064 122.5424 122.3954 122.2555 122.1106 121.9788 121.8488 121.7274 121.6186 121.5072 121.4107 121.3208 121.2463 121.1856 121.1273 121.0788 121.0442 121.0219 121.0184 121.0273 121.0432 121.0900
128.9100 124.7399 124.5689 117.8120 117.5835 121.0986 125.8473 114.1031 113.0689 105.1019 115.4758 108.0198 110.6963 111.8286 105.0509 104.2708 130.9827 126.9451 126.6597 125.4007 124.4859 125.9260 127.3776 108.3732 113.2086 122.3448 124.6720 115.7347 125.9173 124.5785 124.5258 124.2981 121.9665 112.3124 109.5055 123.0305 124.4553 123.8089 123.1646 123.2214 122.8489 122.5716 122.4855 122.3077 122.1501 121.9947 121.8494 121.7106 121.5673 121.4434 121.3145 121.2055 121.1010 121.0017 120.9202 120.8528 120.7901 120.7435 120.7096 120.6880 120.6776 120.6838 120.7019 120.7800
128.8900 114.8195 115.6377 117.4225 107.4207 115.8472 104.9368 116.0794 108.0366 105.3220 103.3640 103.1515 104.6026 112.3597 106.0396 102.9453 111.9315 122.8011 126.5130 105.5316 107.5982 126.4584 126.1423 115.0277 114.8132 119.8670 125.8991 125.5564 124.6059 124.5084 124.3680 124.1821 125.2158 123.4074 127.3079 117.1362 108.7668 123.6402 124.2785 122.7556 122.5796 122.4072 122.2318 122.0710 121.9052 121.7405 121.5845 121.4273 121.2855 121.1452 121.0133 120.8959 120.7891 120.6835 120.5977 120.5094 120.4508 120.3958 120.3571 120.3316 120.3295 120.3293 120.3499 120.4600
128.7500 120.0509 120.3305 118.1030 127.6429 114.6590 107.4990 104.4914 105.1594 106.1848 115.7413 112.8413 105.0442 105.9380 113.3963 116.3687 122.4552 122.9257 127.1871 131.7575 120.4364 126.8814 125.3286 126.6940 126.5315 125.3238 124.8452 124.2584 124.3008 125.4687 124.1301 123.9231 124.0542 113.1901 116.5698 112.1858 121.4887 113.8248 122.1195 122.3326 122.4450 122.2158 121.9775 121.8264 121.6447 121.4747 121.3079 121.1495 120.9944 120.8405 120.7048 120.5813 120.4387 120.3237 120.2350 120.1660 120.0857 120.0354 119.9934 119.9650 119.9619 119.9623 119.9849 120.1300
124.2100 125.2644 110.3077 111.6712 116.6361 121.5617 117.9034 120.9400 107.9791 104.7118 112.4738 109.6551 114.8768 111.3997 107.9527 119.1578 131.8314 127.1632 126.0034 124.8205 125.8693 125.8304 127.0430 127.7191 126.5574 125.3481 126.9108 126.6799 124.9470 124.7736 124.0191 123.6824 124.0996 109.1105 105.3191 124.7290 122.5366 125.0954 122.8373 122.3817 122.1425 122.0755 121.7699 121.5857 121.3938 121.2071 121.0257 120.8575 120.6886 120.5312 120.3825 120.2488 120.1112 120.0505 119.9210 119.7482 119.7297 119.6535 119.6069 119.5888 119.5738 119.5831 119.6103 119.7900
118.1100 119.8969 118.6069 106.9868 106.6416 106.5154 112.0324 111.5947 116.7160 113.7383 105.2662 103.8720 119.6494 109.3222 107.3866 109.9795 125.8547 126.1968 126.1368 125.9451 125.4794 126.6339 108.8371 110.3579 111.9289 113.3917 111.1259 110.5259 123.1802 123.9519 124.0082 123.7715 123.9418 121.2545 118.5841 122.9103 122.9683 122.7016 121.9123 120.2012 122.2646 121.6792 121.5006 121.2872 121.1286 120.9387 120.7440 120.5617 120.3813 120.2137 120.0479 119.9022 119.7480 118.6663 118.6200 119.4100 119.3346 119.2673 119.2219 119.1798 119.1719 119.1848 119.2056 119.0600
119.3800 120.0925 111.1213 107.2951 106.0430 118.3787 105.6090 105.5329 108.0773 107.3144 113.3236 119.0158 135.2095 118.5108 113.5314 109.7368 128.2652 125.7229 125.9544 125.8128 125.7805 125.8345 122.8029 109.6089 113.4175 116.2759 126.3528 121.1865 124.7681 123.8428 123.7968 123.5988 123.2005 124.3725 124.1070 122.3918 122.6649 122.2907 122.0684 121.1636 121.7181 121.4788 121.5865 120.9169 120.9545 120.5955 120.4550 120.2591 120.0702 119.8794 119.7112 119.5452 119.3380 119.2787 119.1958 119.0160 118.9337 118.8335 118.7635 118.7709 118.7449 118.7623 118.7956 118.6700
124.1200 120.5581 105.4380 106.3749 106.8645 111.6323 109.8514 107.3124 105.7089 105.0460 110.9628 124.5885 126.7503 124.1452 127.3157 105.5353 126.8262 127.1232 126.2109 125.6958 125.5046 124.9852 129.5945 125.1985 115.2643 108.6374 112.4496 125.5587 124.0810 123.8463 123.6452 123.4675 123.2016 120.7394 112.6770 123.3379 122.2690 121.9358 122.0689 121.7595 121.4827 121.1374 121.0994 116.8803 120.9698 120.3221 120.1630 119.9455 119.7384 119.5481 119.3531 119.1754 119.0160 118.8516 118.6889 118.5870 118.5100 118.4351 118.4616 118.3090 118.3129 118.3176 118.3559 118.2600
115.8800 119.1282 112.9138 117.5084 106.5676 108.6908 110.6335 109.7873 109.0789 106.3785 105.1077 114.6715 121.2040 127.3461 126.6347 126.2684 126.1860 122.5139 126.3103 125.6846 125.1147 134.9273 124.3125 124.5066 126.4678 112.3371 131.7768 124.1546 123.9657 123.7365 123.5204 123.3165 123.0058 122.8489 122.4565 122.6819 120.9368 122.5440 121.0405 121.5214 121.1829 121.2993 120.1686 120.3361 120.3001 120.0548 119.8578 119.6214 119.4040 119.1988 118.9916 118.8030 118.6182 118.4469 118.2999 118.1725 118.0598 118.0426 115.7408 117.7927 117.7762 117.8608 117.8913 117.8300
114.9400 115.7132 121.8241 127.1094 116.6760 111.3922 110.2148 107.2461 105.3624 107.5632 105.7429 112.3506 110.9971 126.7194 125.7316 126.1024 125.9456 125.8705 125.7130 125.6011 125.4144 125.4276 125.3475 124.9682 124.7588 123.9564 123.8889 123.9746 123.8305 123.6011 123.3864 123.2316 122.7180 120.7449 112.7337 123.0563 123.0866 122.0080 118.9224 121.6951 120.8894 120.6407 108.0673 121.6679 120.1338 119.7864 119.6536 119.2836 119.0822 118.8392 118.6129 118.4045 118.2061 118.0217 117.8541 117.7106 117.6013 117.4698 117.4432 117.4446 117.3188 117.3647 117.4035 117.3800
110.8900 111.7891 110.8942 113.8618 121.7465 114.6387 106.3781 114.9178 110.0033 107.3153 106.4227 115.9459 124.7456 111.2324 127.2948 126.2854 126.0446 125.8319 125.6638 125.5083 125.3647 125.0838 124.8783 124.7023 124.5504 124.4148 124.1948 124.0155 123.6984 123.4840 123.2638 123.0284 122.7910 123.2573 122.9159 121.9606 121.7624 121.8006 121.5420 120.9735 120.5990 121.9396 109.6393 119.1349 118.9794 117.8941 119.3940 118.9211 118.7426 118.4699 118.2375 117.9997 117.7819 117.5794 117.3922 117.2331 117.0975 116.9920 116.8851 116.8138 116.8103 116.8443 116.8900 116.9000
115.2200 116.9223 120.6399 125.8798 110.8998 112.0512 105.7425 112.8860 109.9239 111.5620 119.0119 110.7897 114.4814 118.1128 126.3164 126.3264 126.0069 125.8140 125.6087 125.4325 125.4370 125.2146 124.8889 124.6469 124.4354 124.2163 123.9946 123.7849 123.5905 123.3651 123.1348 122.9038 122.6758 122.2403 121.9980 121.8431 121.7110 121.4254 121.1321 120.8806 120.7877 120.7690 116.6750 110.5935 111.3188 108.0827 119.2187 118.6184 118.3332 118.0687 117.8168 117.5803 117.3356 117.1171 116.9328 116.7369 116.5696 116.4461 116.3621 116.3062 116.2836 116.2895 116.3446 116.4000
114.2200 117.2876 117.1305 125.1774 121.6149 123.3753 114.0966 120.4542 108.8195 109.2418 120.0343 129.4689 127.2631 127.2721 125.9320 126.0604 125.7455 125.6356 125.5932 125.3652 125.1468 125.0148 124.5087 124.6087 124.3649 124.1469 123.9390 123.7119 123.4847 123.2484 123.0269 122.7970 122.5432 122.3175 122.0640 121.7655 121.4914 121.2342 120.9692 120.5708 120.4284 119.6532 109.7349 112.7541 119.8499 116.0060 118.5085 118.3270 118.0229 117.9616 117.4698 117.2519 116.8973 116.5814 116.2267 116.1524 116.0200 115.8908 115.7364 115.7146 115.6761 115.6987 115.7606 115.8600
116.2000 118.1813 115.9815 123.6688 123.6354 118.8026 116.0912 120.7185 117.4489 115.0675 120.5447 124.1033 126.4048 125.9399 126.1554 126.0357 127.0346 126.3493 125.2584 125.3298 125.0852 123.1170 126.7191 124.2367 124.1989 124.0625 123.8279 123.6065 123.3765 123.1286 122.9107 122.5931 122.4349 122.0628 121.8605 121.5926 121.3446 121.0591 120.7898 120.3170 120.2074 109.1915 120.4504 126.3587 119.4788 118.3625 118.1677 117.7538 118.2282 114.6479 116.8686 116.5794 116.0900 116.4588 117.0292 116.0524 115.4558 115.2647 115.4971 115.0174 115.0477 115.0654 115.1367 115.2900
111.8900 112.6607 121.7388 123.2121 117.8961 119.9093 103.8821 105.2121 109.7102 120.6303 114.4725 132.3268 126.9042 126.4868 126.1294 126.5373 117.1480 119.2377 125.9467 125.1972 125.2644 125.9817 110.3327 124.9567 124.8014 123.8970 123.7460 123.5166 123.2875 123.0147 122.7051 123.2904 122.8621 122.1045 121.3943 121.6501 121.1695 120.8904 120.5928 120.3172 120.1875 120.2714 119.0114 117.5898 118.1240 118.3121 117.9698 117.6006 112.3014 104.3643 116.4380 116.2277 117.4846 109.5762 112.3194 105.9155 115.2855 114.6967 111.6810 114.6399 114.2685 114.3949 114.4711 114.6800
111.8900 110.9441 114.1533 112.6691 114.7914 113.7533 116.3718 112.6022 112.3295 120.5933 122.1142 127.7185 126.4221 126.3887 126.2073 126.0641 123.2129 115.1592 124.0081 124.8185 127.1132 109.9727 119.0968 124.8656 124.3983 123.8684 123.6626 123.4211 123.1815 122.9905 121.9675 122.5017 115.5402 115.0584 126.2453 120.5928 121.0355 120.7383 120.4277 120.1072 119.6385 118.9061 119.4094 119.0595 118.3440 118.0322 117.6689 117.3717 116.8914 107.6485 113.6277 115.7370 110.4682 104.4540 109.3703 108.5920 115.3701 114.1261 106.6276 113.5564 113.3580 113.6675 113.7427 114.0200
118.3000 111.8321 109.7431 109.9587 109.8125 109.1674 108.1288 107.1915 107.9219 112.1617 129.4017 127.9445 126.0721 126.1275 125.8579 125.7901 126.0333 125.9512 123.6647 125.0979 124.8745 115.0194 106.3081 124.6004 123.7699 123.8099 123.5757 123.3363 123.1155 122.9157 122.2061 121.0147 110.0770 108.3587 132.3343 121.5176 120.9506 120.5666 120.2597 119.9423 119.4341 119.7480 116.0733 114.8430 118.2429 117.8274 117.3280 117.1306 119.6750 116.0209 98.4027 109.6885 118.5201 116.9389 116.1476 116.3819 113.5522 112.7994 110.8830 112.2746 112.7504 112.8385 112.9562 113.3100
110.9000 111.4460 110.4857 117.5509 106.8008 106.6455 108.5699 104.6482 104.3301 110.3935 115.3049 111.3963 128.0171 126.0312 126.3575 126.0115 125.8092 125.4212 125.4632 124.9215 124.7872 130.6990 119.5029 124.7113 123.8128 123.7427 123.5065 123.3137 122.9263 122.8573 122.6357 114.2213 120.0588 118.2290 129.2722 120.3180 120.9948 120.4229 120.0795 119.9056 119.3559 114.0366 112.4328 103.8667 119.1794 117.4065 116.9500 115.0309 102.8652 102.8629 101.8955 110.7727 115.1189 113.4792 113.4946 113.9302 112.3546 112.7726 109.7571 112.1450 111.8945 111.9470 112.0830 112.5300
116.3300 115.2388 116.6954 111.7745 109.3247 107.1360 106.4569 104.5910 109.4303 123.4541 105.5435 129.6786 108.8234 128.0446 111.4441 125.4396 124.6500 125.3843 125.1890 125.0158 124.8350 124.3777 124.5127 124.2998 123.8856 123.6664 123.4385 123.1666 123.2168 123.1087 109.4745 110.7305 122.7208 120.7619 132.1978 124.1426 120.4674 120.2859 119.9307 119.6075 120.2751 102.5135 115.1575 120.2224 117.9433 117.2207 116.5296 117.6064 105.8834 114.0729 108.7847 114.3930 118.0733 113.8894 112.7769 112.0589 111.9088 112.7030 115.7945 111.0197 110.9114 110.9536 111.1259 111.6700
115.8600 115.4719 115.2287 130.8241 120.2992 115.8377 120.1215 112.4685 105.1420 107.2360 107.3568 112.1615 128.0502 126.8190 126.6610 126.0894 134.3712 125.8721 125.7645 124.8377 124.7342 124.5794 124.3878 124.1576 123.8723 123.6229 123.3611 123.0089 123.6492 105.9269 110.9581 104.8795 103.3452 118.5221 120.8957 120.7071 120.5281 120.1634 119.8224 119.4401 119.1682 111.7622 102.0512 111.3500 114.7899 117.0732 116.6563 116.1801 117.3330 115.3932 114.1782 113.1603 113.5039 112.1727 112.1376 111.4131 111.0268 110.4703 109.5248 109.8550 109.7709 109.8382 110.0558 110.7200
121.9200 115.6038 112.4585 116.5313 114.8692 110.7498 109.0117 112.7751 108.0135 113.5795 128.6296 125.1706 126.1775 126.0137 125.6158 125.4765 124.6344 124.9439 122.1137 125.6973 125.0397 125.3326 124.2924 124.0416 123.7958 123.5817 123.3903 124.2297 110.4050 115.0000 129.0375 123.5381 123.5416 122.0537 129.0798 120.8313 120.4177 120.0550 119.6991 119.3626 118.8079 116.9551 108.9117 107.4366 121.4325 116.6928 115.7933 115.6395 114.9124 114.4014 113.8670 113.3724 112.6777 111.9403 111.2686 110.6133 109.9571 109.3808 108.9935 108.5763 108.4518 108.5599 108.8413 108.4100
121.9200 115.4003 113.8551 111.1301 108.6638 107.4308 107.0478 103.6230 105.8707 115.2149 124.8823 126.2182 126.1898 126.1593 125.9554 125.7648 125.8291 125.8443 114.5185 122.4717 117.8496 118.6817 123.7227 123.9834 123.7672 123.5986 124.4169 118.3086 127.6349 123.8357 120.8813 121.5896 121.0070 120.8757 120.2576 120.4370 120.3025 119.9155 119.5929 119.1271 118.7194 118.4318 109.3355 119.2710 116.5032 116.0046 111.5656 115.5031 114.8509 114.2046 113.5186 112.8098 112.0498 111.3104 110.5123 109.7071 108.9125 108.1719 107.5345 107.1122 106.9332 107.0588 107.4569 108.2900
115.1100 114.0306 115.7450 113.2125 114.2820 110.6193 105.0365 113.4398 105.8100 118.2198 127.1820 126.3680 126.2849 126.0553 125.8505 125.6800 125.3358 125.0821 125.9754 125.3526 107.6589 108.8749 118.9296 124.0510 123.7768 123.4676 123.9606 102.0012 120.7807 113.2845 124.7469 122.0528 121.7472 121.4154 121.8330 121.0911 119.9693 119.9963 119.4913 119.1719 118.2235 107.8714 115.8153 115.0282 117.1023 116.5043 116.0509 115.0565 114.5240 113.8310 113.1216 112.3674 111.5528 110.6787 109.7506 108.7832 107.7929 106.8165 105.9567 105.3219 105.0656 105.2604 105.8349 106.9600
121.6800 107.7709 109.5029 107.8367 104.6862 110.8375 103.3423 116.0203 109.9244 115.7057 124.5977 126.5141 126.2597 126.0667 125.8573 125.7111 125.4385 126.3682 125.1574 124.4791 126.2954 127.5316 125.3229 123.9300 123.7804 123.4637 123.6482 119.3153 112.4262 110.6342 125.7507 121.1078 121.3756 120.4259 119.6404 115.5653 122.2161 118.2264 119.3139 119.0207 112.6636 100.7187 111.2279 107.7001 117.5009 116.0401 115.4546 114.8673 114.2646 113.5652 112.7977 111.9657 111.0628 110.0837 109.0162 107.8602 106.6125 105.3275 104.0926 103.1087 102.6619 102.9936 103.9191 105.2200
109.2900 116.5453 115.5936 114.7564 122.7748 118.6762 122.0267 105.7334 118.5813 120.6308 118.9461 126.4316 125.9840 125.8721 125.8416 125.7065 125.7126 115.8620 125.3214 124.6082 124.3272 123.5504 123.6732 123.7351 123.4783 123.7269 113.1322 130.7396 123.4881 124.3020 122.4938 121.5714 121.7026 123.7346 123.0827 113.6926 124.6530 118.7082 118.7115 119.1096 120.4567 107.3976 119.8325 113.5185 112.3620 115.0433 115.1414 114.7630 114.0640 113.3203 112.5030 111.6220 110.6424 109.5569 108.3501 106.9730 105.4458 103.7271 101.8690 100.2515 99.4794 100.0617 101.5801 102.5200
106.6300 108.1444 109.0731 112.0020 126.3511 117.1477 128.6272 121.0031 113.1246 127.5751 128.3418 128.4642 126.4369 126.8562 125.7564 125.6251 125.3379 123.5918 125.6515 124.6326 124.2642 124.4551 124.6145 124.5582 123.9922 123.7036 119.7594 116.5321 118.3214 121.8330 121.8670 121.7676 122.3779 107.5533 108.2928 108.5339 128.7744 117.9370 119.4165 119.6277 109.7142 120.2501 116.9278 114.7599 104.1138 121.9780 115.8885 114.6435 113.9044 113.1363 112.2958 111.3552 110.3150 109.1363 107.7942 106.2339 104.3704 102.1172 99.4060 96.0399 93.7825 95.4870 99.0605 99.7900
106.1600 112.1395 110.5235 109.5957 124.2247 111.3200 130.0965 128.2786 122.0884 127.6216 121.0213 108.5537 126.2748 119.2674 126.7169 125.5821 125.4466 125.3294 124.9390 124.9149 125.3414 123.9606 125.3167 114.1887 127.0688 110.0798 109.2018 107.4573 104.0298 122.8558 121.6419 121.7484 121.3960 119.5836 116.2255 116.3317 121.4814 118.7934 119.3145 118.2255 121.9836 116.9859 117.5400 117.1542 101.9244 118.8863 115.9916 114.5185 113.8197 113.0235 112.1502 111.1871 110.1029 108.8589 107.4238 105.7059 103.5804 100.7781 96.9283 90.4123 87.6861 89.5010 96.0565 99.1800
106.1600 112.8154 116.1071 111.5362 111.9286 111.4457 111.9481 111.7589 107.3448 107.0962 106.2456 108.2154 124.5613 115.7276 126.4846 125.4400 125.4046 125.1824 125.0296 125.3201 116.0966 109.9585 109.9653 114.3878 111.0417 106.2239 111.2615 103.2689 102.0461 121.0294 121.6563 121.7537 121.4232 121.2404 121.3557 120.9091 120.1065 119.5668 119.2675 118.8851 118.7055 115.1015 116.0227 117.4456 116.3814 115.6375 114.7935 114.5069 113.7778 112.9770 112.0977 111.1267 110.0193 108.7589 107.2740 105.4910 103.2489 100.1918 95.5146 87.2526 83.8612 86.4176 94.3499 98.9700
111.5500 108.6909 108.7326 109.2948 108.3382 108.2277 108.1399 105.0274 108.3491 104.3352 106.0501 104.3190 125.1244 125.3316 125.7972 125.6738 125.4504 125.2247 125.0381 125.4843 117.5568 109.4319 112.8583 113.0927 112.5660 106.7280 111.8180 103.4098 110.7557 122.6251 122.1111 121.7312 121.4123 121.0993 120.7210 120.3462 120.0354 119.6621 119.2663 118.8242 118.8959 118.1080 117.2805 116.5745 116.4894 115.8410 115.2224 114.5293 113.8051 113.0083 112.1333 111.1681 110.0795 108.8284 107.3844 105.6431 103.4799 100.6168 96.5637 89.5122 86.5347 88.6959 95.6556 99.1700
128.1600 128.2828 127.9007 128.1944 127.4412 127.9213 127.1366 127.6695 127.1068 126.5278 119.1267 121.8710 125.1498 124.3158 125.8167 125.6403 125.5438 125.1811 125.0787 125.6911 112.1864 111.8358 111.0574 104.5706 102.7528 112.6217 115.3317 115.7314 128.6042 122.1058 121.9752 121.7473 121.4335 121.1045 120.7689 120.4268 120.0590 119.6721 119.3320 120.0875 104.0641 103.7964 116.8106 115.8031 116.3730 115.8991 115.2726 114.6082 113.8858 113.1168 112.2586 111.3191 110.2705 109.0806 107.7180 106.1239 104.2176 101.8712 98.9358 95.1194 92.5451 94.5143 98.5138 99.6600
128.1600 122.5152 127.9137 127.5281 127.4382 126.9740 127.0933 126.8438 126.6987 126.4964 126.3354 126.5419 126.3374 126.6402 123.6326 126.3453 124.0346 124.7419 124.3907 125.5149 116.9726 108.8855 109.1135 107.7304 106.0799 101.4952 116.8864 119.7122 122.5711 122.3168 122.0610 121.7699 121.4540 121.1402 120.8121 120.4644 120.1052 119.7167 119.3801 119.2433 119.0990 116.6753 105.0630 101.4228 113.3497 116.0131 115.4032 114.7268 114.0318 113.2785 112.4643 111.5659 110.5789 109.4767 108.2387 106.8401 105.2570 103.4355 101.5895 99.6393 98.6779 99.4406 101.1723 102.4900
128.1600 128.8116 128.0048 127.8347 127.6237 127.6652 126.2548 127.3653 127.0300 126.7507 126.5398 126.4132 121.4613 124.5086 101.4711 110.6460 114.0093 125.0749 122.6638 120.6352 122.6053 106.2257 107.1692 106.5198 105.0102 108.5885 113.0737 120.9991 122.6701 122.3639 122.0956 121.8063 121.4992 121.1764 120.8452 120.5071 120.1482 119.7749 119.4189 118.9173 117.9980 118.6493 119.3458 118.8669 117.0557 116.1662 115.5108 114.8957 114.2240 113.5159 112.7340 111.8994 110.9866 109.9852 108.9002 107.7040 106.4255 104.9180 103.7336 102.8533 102.4055 102.5392 103.5598 104.8000
118.0200 127.8044 127.8859 127.7141 127.4356 127.2377 124.4662 127.1145 126.9461 126.7653 126.4727 128.0883 108.1895 109.9104 108.2402 110.6375 124.5956 128.9477 123.4854 122.8499 124.5822 109.3658 113.8788 108.4439 108.3204 123.5813 102.3443 112.0354 123.3998 121.4061 122.1623 121.8356 121.5382 121.2278 120.9046 120.5644 120.2151 119.8581 119.4846 119.1393 118.6927 117.9114 117.2137 117.7559 116.3436 116.2863 115.6933 115.1013 114.4690 113.7905 113.0648 112.2915 111.4607 110.5757 109.6213 108.6237 107.5761 106.6270 106.0642 102.9371 104.0541 104.8786 105.5112 105.2300
136.2000 125.7800 127.8600 127.7500 127.6400 127.4300 127.3200 127.0900 126.9700 126.7400 126.6200 126.5000 126.2500 126.1200 125.8600 125.7300 125.4600 120.8400 125.0300 124.8900 124.5900 124.4300 124.2800 104.5400 105.2600 105.0000 102.9300 109.5100 123.3900 118.6000 122.1500 121.9500 121.5300 121.3100 120.8600 120.6300 120.1400 119.8900 119.6200 119.0800 118.7900 118.1900 117.8700 120.2400 114.4300 116.4700 115.6800 115.2600 114.8200 113.8700 113.3600 112.8600 111.6300 110.9700 110.2700 109.5200 107.7000 106.8800 106.8800 101.4400 103.9300 105.7100 106.9100 106.9100
