125.3400 124.0000 114.3500 119.7100 119.1600 121.2800 121.6000 116.6500 116.0400 115.5900 102.4400 102.2900 114.9600 114.3200 118.0700 115.8900 113.7100 115.8200 114.7000 115.2200 111.2100 112.5900 106.4700 109.6300 102.9000 107.9200 111.5400 103.5500 106.5100 101.8600 109.7800 106.9400 103.3400 96.7100 96.4400 118.1500 117.9200 117.6800 117.6800 117.4000 117.0900 117.0900 116.7400 116.8000 116.3900 116.4500 116.4600 116.4500 116.4300 116.4000 105.4100 116.7500 117.1000 117.4100 117.4100 117.6900 117.9400 117.8900 118.4900 118.4400 118.9900 119.2900 119.4800 119.4800
125.3400 127.4622 122.6705 122.2343 120.4766 119.9714 120.6045 119.5044 116.9877 114.7545 109.3367 106.6701 106.6981 114.1814 117.3448 107.9962 113.2936 113.0894 112.2904 113.9361 106.1767 112.3847 107.3000 113.3172 103.6512 105.4357 110.4080 105.5133 104.3488 96.5556 102.2119 104.6040 104.6931 95.9975 97.4124 106.8501 102.9688 115.5061 108.2165 107.3288 116.6308 118.1325 116.4887 116.2656 116.1522 116.0867 116.0455 116.1124 116.2904 111.1743 115.2619 116.3543 116.5790 116.8351 117.0690 117.3168 117.5613 117.8484 118.1019 118.4113 118.0462 118.8698 119.2547 119.3700
117.3000 124.3898 126.4134 129.0485 126.4943 124.2242 122.3237 121.9476 119.2625 118.8447 114.9840 112.8571 106.3087 114.3423 113.3613 107.5914 113.6573 107.8393 107.7209 117.1845 102.5506 106.5464 112.0581 111.6325 106.4161 99.1366 104.1122 103.9522 107.6182 103.0977 107.3865 100.9187 106.5566 102.0192 98.6503 100.5032 107.5873 119.3597 118.2307 114.5998 116.9850 115.9582 115.7154 115.6937 115.5626 115.4904 115.4613 115.1399 115.8113 99.1995 114.6490 115.6025 116.1720 116.3459 116.6002 116.8874 117.1757 117.4716 117.7562 118.1119 118.2828 118.7234 118.9633 119.3700
121.1600 123.6696 123.7174 123.9360 122.8272 125.6480 126.4776 124.6758 116.4735 115.3908 114.9629 113.2398 117.3067 117.0322 112.6948 112.3664 112.8343 113.3669 109.1291 112.3286 102.4536 108.5109 106.5154 101.2710 105.1971 103.5104 105.8689 100.3391 98.8561 102.7479 105.2479 115.8704 107.4544 102.0523 109.8684 118.2494 108.4623 107.2689 116.3992 107.6503 117.2685 115.4042 115.2609 115.0614 114.9225 114.8449 114.8165 114.3587 114.3415 94.8465 114.5632 114.9096 115.6045 115.8053 116.1281 116.4214 116.6568 116.8822 117.3881 117.6481 118.0548 118.3695 118.5653 118.9100
115.5000 122.7237 125.9222 125.2257 119.4508 123.5721 119.8520 114.4332 122.7429 121.0234 122.1833 103.3925 111.9426 111.0533 108.1108 111.1268 110.4612 112.7580 110.4323 104.1421 108.5757 113.3748 109.9357 104.3414 103.5528 112.6016 107.4784 104.6830 108.0667 105.5266 103.7262 100.7486 116.2718 119.4616 112.6826 117.3395 114.7708 112.5909 116.3270 109.7832 116.3841 114.8204 114.5947 114.4054 114.2340 114.1341 114.1040 113.6506 113.9989 97.7398 113.3698 114.5069 114.9966 115.2845 115.6671 117.1799 116.3144 117.1805 117.3533 117.3452 117.7018 118.0073 119.0532 118.5300
121.8800 114.4882 119.0268 120.5010 113.7082 104.3914 117.6003 115.8086 118.8127 118.2010 112.6888 110.9965 126.6542 117.0536 110.2685 110.0934 112.7058 111.2551 110.2758 109.4179 112.0193 111.0235 108.6557 112.3150 103.2959 109.3284 98.5611 98.1207 95.4082 100.0053 97.5082 105.4239 117.8486 117.9562 98.5694 110.3819 117.0441 115.7953 115.2350 115.7402 114.4610 114.2352 113.9282 113.6907 113.4981 113.3799 113.1954 113.3283 113.5130 108.7192 113.4129 113.9059 114.3413 114.6827 115.2545 108.1704 103.9148 116.4336 116.3328 113.3634 117.6771 117.4294 119.7565 96.4300
122.1300 118.8977 116.4392 123.4281 118.6267 121.7147 113.9911 111.3743 114.9575 112.5743 112.1070 115.5504 97.6426 101.6641 113.5851 108.9626 107.5322 109.1198 112.1821 110.6060 108.4882 109.5539 112.5280 107.7393 104.5314 105.6599 100.4322 112.6314 117.4001 116.0346 115.7229 117.5084 118.1138 106.9457 91.0066 115.6534 115.6555 115.1747 114.7200 114.3050 113.9269 113.5483 113.2043 112.9199 112.6899 112.5342 112.8737 113.4583 93.8441 112.4636 112.5192 113.1519 113.7540 113.9550 114.7704 119.8659 114.1143 116.1533 116.3282 116.7263 117.1029 117.8881 110.1734 96.9700
118.3500 118.3192 122.4417 117.6285 116.4527 116.7911 116.6588 118.4667 112.9222 110.8784 105.3012 113.5121 114.1128 116.1783 108.3909 109.0514 112.1858 110.4018 107.7448 109.8815 109.1307 110.0829 110.2936 106.8701 105.1867 104.2814 98.2911 104.6319 120.0376 118.0428 117.7574 117.1508 117.8671 104.9431 116.1182 107.7819 113.0350 114.7948 114.2126 113.7305 113.2719 112.8326 112.4316 112.0831 111.7971 111.6958 111.5345 101.1858 96.3665 111.5560 112.0937 112.5420 113.0343 113.4972 114.7268 114.3556 114.7708 115.4190 115.8243 116.2856 116.8031 117.0535 117.9861 117.9400
118.4200 118.4911 118.6910 118.5496 118.7390 119.7792 118.8039 120.1799 118.3349 117.6384 114.6241 112.6211 106.0798 106.1415 109.4534 117.4118 113.6221 111.6216 111.5142 110.1869 108.3662 109.4467 108.7229 109.0309 113.8183 110.6261 98.5108 100.3337 117.0995 117.5692 117.9094 116.8489 125.0927 114.3056 115.3379 114.7878 115.4814 114.0910 113.6959 113.1213 112.5844 112.0739 111.5893 111.1709 110.8323 110.6091 110.4771 111.9165 106.7203 112.0207 111.3497 111.7444 112.2663 112.1426 118.3103 114.5694 114.4328 114.9242 115.4610 115.9908 116.4454 115.1880 115.9729 119.0100
118.2300 118.0348 118.2563 118.1694 118.1078 118.2265 118.5949 121.4932 115.3361 115.5071 107.0360 103.7226 100.4422 102.8205 113.7959 109.3641 110.0210 113.1772 108.5259 105.7159 112.1752 111.6427 107.0511 106.2392 117.4962 107.9798 117.9296 125.3843 119.8177 116.4670 117.2545 116.6689 115.4668 115.9149 115.6142 114.8744 114.2322 113.7334 113.1045 112.4955 111.8741 111.2655 110.6907 110.1718 109.7438 109.4289 109.2779 109.5929 104.0333 110.5004 110.3641 110.9098 111.5044 112.1405 112.4933 113.0040 113.9926 114.5395 115.1039 115.6458 116.1777 116.4789 114.1964 97.4100
118.2000 117.8743 117.1266 117.5583 118.4691 119.0456 119.5639 121.1276 114.5197 114.7145 115.6907 117.8043 108.2347 115.4563 109.2146 114.8835 112.7817 110.3012 107.4660 110.0887 108.5137 108.2702 108.0891 108.3719 117.2677 114.6084 119.6816 111.0369 118.3904 117.8510 117.9923 118.6769 117.0321 115.8959 115.1150 114.5445 113.9176 113.2611 112.5738 111.8672 111.1492 110.4294 109.7197 109.0634 108.5115 108.1110 107.9068 108.4102 108.6364 108.7258 109.2828 109.9184 110.6246 111.7376 112.0960 112.8728 113.5085 114.1509 114.7544 115.3594 115.9748 113.6039 119.0626 117.3600
118.1300 118.3318 119.6771 118.6012 118.9469 119.4939 120.7362 120.3119 115.9057 114.6832 113.3170 114.6053 118.0665 117.4740 118.9730 120.8738 117.6908 111.8140 115.7724 109.5798 103.7062 106.9306 108.7072 106.4415 126.3961 126.8833 118.1025 118.4272 118.3438 117.4250 117.4701 107.3422 114.7950 114.9031 114.8879 114.1851 113.5109 112.8004 112.0393 111.2426 110.4100 109.5464 108.6780 107.8390 107.0993 106.5455 106.2742 106.1912 106.6714 107.3865 108.1873 109.0405 110.0490 107.3267 112.1360 112.3471 113.0847 113.7875 114.4406 115.0766 115.6054 116.2283 118.2053 100.1400
125.8700 119.7891 122.7784 119.9133 119.1797 118.3413 118.6613 118.5492 118.8065 115.9717 119.2738 115.4487 116.4046 116.7680 116.3525 115.1608 110.0210 111.9152 104.4083 104.5424 105.2515 107.7980 114.2969 101.4713 122.0935 112.4351 118.6360 118.0826 117.7547 117.1267 117.0713 103.4338 103.5071 118.5464 114.4514 113.8750 113.1386 112.3569 111.5809 110.6582 109.6862 108.6674 107.6040 106.4984 105.4797 104.6762 104.2480 104.3749 104.9616 105.8610 106.9325 107.9169 108.9654 106.5018 111.2148 111.8765 112.6992 113.4577 114.1638 114.8175 115.3885 116.0924 116.4080 119.2600
119.2800 117.1022 119.8322 118.6005 119.2089 118.9157 120.0500 109.0535 117.1792 120.4965 124.6439 122.7144 120.7313 114.4044 115.7051 113.8333 103.0717 103.6814 100.8874 104.3437 112.1609 102.8232 101.5618 115.4944 119.2092 120.5191 119.7528 118.1562 117.6940 117.8496 118.5028 118.2654 126.8641 123.8491 113.9060 113.5811 112.8326 112.3748 111.0267 110.1114 109.0041 107.7558 106.4213 105.0435 103.6057 102.2938 101.5976 101.7770 102.7733 104.1817 105.6202 107.0230 108.5000 109.8426 110.5110 111.4783 112.3565 113.1696 113.9157 114.6098 115.2381 115.6997 119.6270 122.4400
119.2700 117.6376 119.9011 118.7915 119.2069 119.4691 120.1765 116.6701 110.9379 105.2090 109.4773 108.0114 111.3296 107.8842 109.4255 110.0448 104.4907 98.5830 98.0966 110.8870 109.7842 111.8401 101.8699 128.9522 119.3517 118.3391 118.2996 118.1148 117.3025 118.5038 103.9663 104.3982 117.8409 116.7462 113.9418 113.4116 112.6202 110.1342 110.3270 109.5490 108.4020 107.2682 105.8773 103.5323 101.4040 99.3956 97.8051 98.2460 100.1343 102.2987 104.3124 106.0730 107.5575 108.8731 110.0951 111.1439 112.0783 112.9382 113.7224 114.4182 115.1139 116.8494 106.3989 101.9200
125.8500 124.8317 124.8931 117.1050 118.2079 118.8421 119.6857 121.0943 119.2852 117.1818 105.4007 101.5921 101.8200 105.3861 106.0595 107.6093 106.0794 105.0329 105.8291 107.8286 103.1084 104.7852 102.3525 123.4222 105.9716 121.2925 118.5597 118.0017 117.1319 117.8762 104.9903 112.4456 113.1551 114.1640 114.0797 113.2209 112.3830 113.6159 108.8571 109.4928 107.8567 105.8350 103.0768 102.1670 99.2352 94.8025 91.2553 92.1934 96.9133 100.4237 103.1712 105.2989 107.0529 108.5254 109.7848 110.8932 111.8850 112.7738 113.5794 114.2784 115.1317 118.1586 117.9990 105.4700
125.8500 125.6864 125.9463 119.8508 121.3243 124.0393 124.2191 113.1436 116.8202 116.0508 116.3915 103.1021 106.2140 103.8509 119.4666 106.1278 100.2182 99.3976 110.0008 100.8101 106.6738 106.6957 118.5231 121.0214 105.7650 104.3983 120.0467 118.3497 117.2928 117.6049 108.7490 117.0581 115.1099 114.7198 113.9628 113.1844 112.3359 111.3694 110.4576 109.1159 107.6811 106.0339 103.5891 101.1832 97.4110 90.0788 85.9010 87.0032 93.2518 99.0644 102.4073 104.8165 106.7160 108.2748 109.6056 110.7543 111.7692 112.6792 113.5025 114.2350 114.9818 116.2455 116.7001 116.6700
125.8500 125.5554 125.9605 121.7892 122.3287 123.4478 120.5237 112.7788 116.2761 114.9406 116.0830 102.2150 114.8626 116.5063 114.5568 122.2249 99.2723 98.9318 110.5872 98.3697 101.7044 121.8169 121.7455 99.0289 101.3871 114.0516 114.7878 111.3334 118.0965 117.4633 108.7969 116.3731 115.4051 114.6457 113.9528 113.1709 112.3098 111.3643 110.2895 109.0754 107.6383 105.9341 103.8290 101.0113 96.9685 89.0251 84.2211 85.6298 92.4818 98.8019 102.2646 104.7312 106.6617 108.2360 109.5764 110.7301 111.7546 112.6645 113.4905 114.2484 114.9313 115.5952 116.2100 116.6600
125.8500 125.6286 125.6172 125.3694 125.1168 124.1419 120.1866 111.4658 128.0470 128.5626 119.4039 114.2983 110.7620 113.6943 109.0629 117.3339 106.8418 113.8223 106.4308 129.2963 124.5021 119.7939 120.8851 121.0698 119.7260 119.1468 119.3768 118.3760 117.4818 117.3783 116.9357 115.9673 115.3700 114.7067 113.9995 113.2198 112.3800 111.4401 110.3895 109.1955 107.8294 106.2007 104.2284 101.7163 98.3746 92.8074 88.8895 89.8095 95.4692 99.7948 102.8108 105.0744 106.8871 108.4056 109.6939 110.8221 111.8322 112.7263 113.5419 114.2913 114.9793 115.6079 116.1957 116.6700
125.8500 125.6893 125.4452 125.2821 124.6263 124.2147 120.4380 129.6312 122.4896 123.1041 119.7525 115.7080 110.6556 114.2537 103.7807 103.1060 105.1231 115.7102 119.6923 113.8794 120.9705 120.2743 119.9047 119.3154 119.1794 118.8658 118.3929 117.9050 117.4747 117.0489 116.5023 116.0465 115.4443 114.7980 114.1033 113.3517 112.5314 111.6216 110.6211 109.4914 108.2156 106.7423 105.0127 102.9816 100.4975 97.8967 95.3810 96.2350 99.0282 101.5462 103.8358 105.7428 107.3631 108.7470 109.9627 111.0374 111.9961 112.8644 113.6632 114.3885 115.0681 115.6919 116.2811 116.6800
125.8500 125.6752 125.5051 125.2458 124.8693 121.3949 123.9162 121.4042 118.8854 119.0780 110.4485 123.7711 117.3239 106.7853 112.1125 108.1476 105.4280 111.2790 117.8717 113.9198 121.8518 119.3120 120.3581 119.9853 119.5138 119.0957 118.6698 118.8862 117.7838 117.2917 116.7247 116.1449 115.5654 114.9380 114.2590 113.5401 112.7531 111.8868 110.9534 109.9112 108.7581 107.4787 106.0375 104.4500 102.7660 101.1994 100.3061 100.5434 101.8070 103.4563 105.1039 106.6378 108.0086 109.2421 110.3461 111.3365 112.2409 113.0736 113.8304 114.5358 115.1952 115.7930 116.3740 116.7100
125.8600 125.7785 125.5256 125.7608 126.8236 113.5250 123.6635 112.2331 121.1873 110.9556 106.2969 103.9692 103.8918 108.6894 117.2760 110.8736 104.5917 107.7771 117.2836 111.3467 121.4788 120.7650 120.2093 119.8521 119.5084 119.0323 118.5190 122.6086 117.4312 117.3799 116.8188 116.2858 115.7166 115.1170 114.4621 113.7721 113.0306 112.2331 111.3683 110.4253 109.4134 108.3110 107.1458 105.9319 104.7696 103.7919 103.2688 103.4162 104.1513 105.2211 106.4268 107.6240 108.7630 109.8314 110.8180 111.7279 112.5616 113.3354 114.0573 114.7365 115.3610 115.9495 116.2515 116.7500
125.8600 125.4123 125.5937 121.7014 125.6941 124.0655 116.9264 115.9329 115.7622 103.7958 103.4715 114.4886 108.9922 109.7730 103.7312 101.3837 101.5899 107.4193 116.8055 116.5017 121.0921 120.6761 120.3279 119.9890 119.5689 120.0525 118.5071 117.8860 117.9973 117.4517 116.9690 116.4547 115.9023 115.3252 114.7388 114.0831 113.3696 112.6275 111.8471 111.0023 110.1213 109.2051 108.2559 107.3100 106.4851 105.8352 105.5165 105.5987 106.0641 106.8043 107.6983 108.6334 109.5785 110.4827 111.3458 112.1693 112.9349 113.6502 114.3286 114.9686 115.5675 116.1520 116.4734 122.2400
125.8800 126.9568 124.5792 122.1577 126.5641 115.9219 114.3249 108.6402 109.2730 120.4025 133.5155 117.3069 115.8785 105.7207 104.1310 102.1036 103.0385 119.7091 120.7087 121.0691 120.9762 120.7558 120.4022 120.0735 119.7806 119.6027 119.8857 118.5679 117.8223 117.6230 117.1424 116.6452 116.1199 115.5738 114.9030 114.2196 113.6499 113.0702 112.3580 111.6204 110.8559 110.0784 109.3130 108.5919 107.9729 107.5131 107.2861 107.3467 107.6703 108.1990 108.8792 109.6224 110.3923 111.1633 111.9273 112.6515 113.3427 114.0039 114.6361 115.2358 115.8038 116.3428 116.7623 117.2800
106.4900 119.5794 112.9616 121.1736 118.8394 116.3398 117.8918 114.7334 116.2710 115.4436 121.8560 114.4600 119.8741 111.1581 112.3514 112.2676 106.8823 120.6731 122.5278 121.2215 121.1545 120.8399 120.5075 120.1770 119.4987 119.7773 107.0365 120.0533 118.0712 117.8849 117.3369 116.8583 116.3626 115.8540 115.3859 115.0328 114.2211 113.5704 112.8937 112.2469 111.5918 110.9371 110.3112 109.7417 109.2661 108.9231 108.7701 108.8052 109.0464 109.4413 109.9618 110.5547 111.2078 111.8543 112.5118 113.1554 113.7848 114.3885 114.9704 115.5310 116.0595 116.5714 117.0642 117.3500
117.4900 117.5384 101.9090 109.0441 114.6407 123.1537 117.2917 113.5597 118.8111 120.0503 116.3516 115.4817 124.5109 123.6061 109.1266 117.7234 126.4420 119.6413 120.3460 121.5496 121.2554 120.9331 120.6089 120.2754 119.8684 119.4572 115.9078 117.8872 118.4653 118.0061 117.5459 117.0980 116.6346 116.0116 116.1566 106.6191 115.3201 113.8591 113.4680 112.8792 112.3067 111.7567 111.2362 110.7828 110.4131 110.1444 110.0295 110.0552 110.2395 110.5484 110.9579 111.4459 111.9810 112.5407 113.1047 113.6773 114.2412 114.7883 115.3235 115.8438 116.3357 116.8205 117.2845 117.7600
117.9000 125.7668 122.3138 121.3972 123.5205 114.5259 114.9514 125.1269 129.9802 119.9893 115.5948 110.9191 115.3913 115.9345 114.2235 105.3835 120.5317 120.9327 120.7627 121.6392 121.3671 121.0363 120.7291 120.3979 120.0499 119.6143 123.7662 118.2364 118.8411 118.1658 117.7802 117.3511 116.9076 116.4086 116.1270 114.4289 115.2362 114.4864 113.9929 113.4971 113.0069 112.5358 112.1080 111.7282 111.4249 111.2161 111.1234 111.1519 111.2916 111.5424 111.8745 112.2727 112.7165 113.1988 113.7010 114.2051 114.7030 115.2052 115.6922 116.1718 116.6405 117.0877 117.5212 117.8400
126.0600 126.0336 125.6465 124.7355 121.7789 119.2579 115.4198 109.7065 104.4426 113.7342 113.7289 114.8979 118.1389 106.8363 100.6219 122.4382 107.7801 121.1428 121.9404 121.8024 121.4639 121.1613 120.8481 120.5380 120.1454 119.8322 123.5911 121.4081 118.8099 118.3606 118.0308 117.6114 117.1692 117.0097 113.9026 115.9436 115.3826 115.0131 114.5368 114.0982 113.6758 113.2704 112.8980 112.5994 112.3558 112.2035 112.1172 112.1243 112.2366 112.4391 112.7173 113.0523 113.4273 113.8406 114.2807 114.7272 115.1709 115.6303 116.0728 116.5150 116.9449 117.3752 117.7731 117.9000
126.0700 125.9711 125.6715 125.8338 125.1264 125.3637 123.7735 120.4598 129.0321 121.3877 112.3500 112.8989 112.1493 119.7798 108.2601 106.8621 112.7692 126.0552 119.4979 122.1395 121.5516 121.2696 120.9740 120.6765 120.3447 120.1543 119.5033 119.0695 119.0426 118.6464 118.2703 117.8823 117.5286 117.0997 115.9382 114.3960 116.0078 115.4542 115.0764 114.6816 114.3054 113.9596 113.6638 113.3757 113.1300 112.9490 112.9856 112.9968 113.0970 113.2607 113.4859 113.7688 114.0946 114.4524 114.8388 115.2265 115.6417 116.0487 116.4621 116.8634 117.2637 117.6612 118.0527 118.3200
126.0900 125.9520 125.6342 125.1193 115.0296 121.7163 113.9612 112.9247 115.8860 118.5564 117.2773 112.0239 111.9325 106.7534 105.1654 112.7672 103.3008 128.8696 122.3952 121.9704 121.7116 121.4718 121.2468 120.8608 120.4826 120.2405 119.9462 119.6213 119.2211 118.8905 118.5331 118.1761 117.8135 117.4193 117.1139 116.6881 116.2993 115.9460 115.5880 115.2424 114.9100 114.6038 114.2426 114.3026 114.0989 114.2669 113.7971 113.7894 113.8730 114.0164 114.2059 114.4510 114.7304 115.0397 115.3753 115.7305 116.1014 116.4668 116.8422 117.2184 117.5982 117.8986 118.6354 118.4000
126.1100 125.8347 125.3808 117.4732 116.2781 116.7528 114.6770 117.9703 120.6373 110.8945 122.4248 114.4953 110.2431 112.5849 104.3195 111.8538 103.1950 122.3936 121.8859 122.1149 121.8194 121.3806 119.9598 120.8070 121.3509 120.5300 120.0844 119.7533 119.4503 119.1264 118.7923 118.4600 118.1192 117.7914 117.4192 117.0851 116.7361 116.4147 116.0832 115.7724 115.4927 115.2272 114.9424 114.9953 105.6891 115.2935 114.5104 114.5206 114.5868 114.7080 114.8745 115.0850 115.3281 115.6029 115.8996 116.2153 116.5500 116.8874 117.2269 117.5726 117.8886 118.3740 117.1801 118.8000
126.2700 126.0584 126.3332 125.4253 115.2964 114.8480 114.1558 115.1091 115.1171 117.9554 117.4708 111.5484 102.0617 114.7004 113.8603 125.1927 124.5093 122.8530 122.5730 122.2235 122.0014 122.1183 127.7841 121.2185 116.1857 120.4199 120.1291 120.0290 119.6893 119.3837 119.0653 118.7549 118.4324 118.1110 117.7931 117.4768 117.0700 116.8876 116.5720 116.2984 116.0365 115.8017 115.5692 116.0597 115.6652 115.1860 115.2000 115.1898 115.2540 115.3539 115.5001 115.6794 115.9007 116.1395 116.4058 116.6864 116.9842 117.2920 117.6033 117.9269 118.2428 119.0440 109.7341 119.2600
126.2700 126.1622 125.5708 122.5319 117.4804 115.1228 115.0991 115.0395 121.9459 120.2191 107.0832 114.5411 108.3746 119.4792 132.2550 126.2046 122.3361 122.5512 122.6011 122.3708 122.1481 120.9521 119.8451 121.9571 113.2996 120.3861 120.4519 120.2496 119.9223 119.6395 119.3445 119.0433 118.7388 118.4489 118.1681 117.8190 118.0320 117.8050 116.9254 116.7885 116.5512 116.3522 116.1571 115.8647 115.8305 115.8592 115.8077 115.8213 115.8753 115.9556 116.0864 116.2426 116.4327 116.6487 116.8917 117.1398 117.4073 117.6873 117.9786 118.2705 118.5660 118.7242 120.1566 119.2600
126.2900 126.2500 126.3030 119.2341 118.5538 115.6277 117.3367 117.4064 122.9727 138.3930 114.7176 109.7671 110.6253 107.3999 114.3675 102.8730 113.5724 123.7016 122.6832 122.5332 122.2710 122.1210 121.9594 121.4670 122.1565 121.5779 120.7118 120.4655 120.1729 119.8917 119.6130 119.3352 119.0573 118.7556 118.5622 118.2558 110.9092 120.4174 117.7976 117.3769 117.0630 116.8731 116.7217 116.6231 116.5126 116.4237 116.3952 116.4031 116.4511 116.5246 116.6410 116.7804 116.9429 117.1402 117.3539 117.5819 117.8265 118.0850 118.3418 118.6202 118.9253 119.2028 119.4011 119.7100
126.4600 126.3164 126.3052 124.2827 115.9517 115.5757 115.4757 117.1180 115.3232 128.6893 124.6076 110.6210 110.1856 113.5474 108.3218 120.3104 125.0607 118.9494 123.6709 122.6094 122.4082 122.1378 121.8746 121.6297 121.1813 121.1148 120.8914 120.6167 120.4186 120.1484 119.8852 119.6242 119.3585 119.0260 118.8081 117.1730 100.2631 118.2861 117.7866 117.7576 117.5171 117.3731 117.2251 117.0956 117.0009 116.9685 116.9459 116.9518 116.9910 117.0599 117.1555 117.2815 117.4358 117.6074 117.7971 118.0060 118.2278 118.4665 118.7068 118.9560 119.2051 119.4706 119.7247 120.0500
126.4800 126.0239 123.9020 122.0235 108.9445 119.8360 125.5003 119.4081 114.6539 112.1763 124.8045 110.5390 114.9183 109.7298 118.3523 126.0590 126.5636 120.7460 123.2120 122.8090 122.5796 122.3516 122.1115 121.8186 122.6460 120.8467 122.2967 121.2333 120.6327 120.4132 120.1646 119.9114 119.6877 119.4296 119.9775 115.8958 116.2368 117.9187 118.4298 118.1479 117.9924 117.8187 117.7271 117.7048 117.6450 117.5035 117.4609 117.4656 117.4980 117.5607 117.6463 117.7646 117.8969 118.0502 118.2288 118.4180 118.6152 118.8375 119.0628 119.2946 119.5322 119.7692 120.0179 120.1200
126.5100 128.6830 109.5675 118.3067 116.0590 123.8020 115.5940 120.2490 116.9557 118.0772 124.7045 119.0502 105.8708 105.7387 125.1992 123.2852 123.2349 123.5653 123.1429 122.9591 122.7296 122.5087 122.3778 121.6866 120.8205 106.1453 111.2056 120.1747 120.9087 120.6666 120.4345 120.1977 119.9554 119.7385 119.0316 109.4620 114.9806 118.9201 118.7559 118.5750 118.3944 118.3785 118.0905 117.6157 117.6089 117.9290 117.9495 117.9529 117.9818 118.0352 118.1133 118.2170 118.3371 118.4805 118.6387 118.8093 118.9961 119.1964 119.4050 119.6146 119.8355 120.0693 120.2920 120.4700
120.6200 119.3608 115.2618 121.2431 123.1503 130.2733 120.3901 114.7879 115.3665 111.5768 110.4022 108.5960 102.9208 119.4027 124.5933 124.0673 123.7524 123.5266 123.3144 123.1065 122.8847 122.6970 122.5158 121.8752 123.1183 120.0542 120.7052 121.3939 121.1429 120.9144 120.6969 120.4857 120.2607 120.2889 120.1380 119.9099 119.5551 119.1179 119.1614 119.0206 118.8314 118.4909 119.6043 121.9422 119.3079 118.3681 118.4023 118.4144 118.4449 118.4894 118.5554 118.6535 118.7601 118.8931 119.0325 119.1914 119.3670 119.5463 119.7434 119.9401 120.1427 120.3532 120.5681 120.7800
126.6800 126.8124 122.6384 107.0246 105.9209 116.5398 114.4568 115.0820 119.8530 113.7807 111.8777 119.8192 109.6088 125.9930 123.7432 124.1251 123.8651 123.6679 123.4611 123.2651 123.0644 122.7179 123.7263 110.3995 121.7995 121.8935 121.8309 121.4993 121.3894 121.1635 120.9659 120.7605 120.5709 120.3525 120.1750 119.9987 119.8229 119.5821 119.3983 119.1368 119.2392 119.2282 117.0249 106.7399 118.9601 118.7236 118.8397 118.8360 118.8443 118.8993 118.9820 119.0665 119.1655 119.2833 119.4127 119.5623 119.7183 119.8856 120.0620 120.2504 120.4461 120.6412 120.8493 120.8400
126.7100 127.3872 117.6226 121.0404 117.8301 116.5735 110.1874 103.7308 107.2198 101.4807 108.8513 114.3022 126.2410 124.8240 124.4026 124.1788 124.0083 123.8082 123.6192 123.4241 123.2217 123.0792 122.7489 122.7496 122.5988 122.1498 122.0097 122.2291 121.5522 121.3991 121.2255 121.0339 120.8532 120.6670 120.4824 120.3100 120.2008 120.6039 123.3017 120.8575 119.6487 119.4577 119.8233 118.3126 119.5117 119.2643 119.2500 119.2936 119.3707 119.3980 119.3957 119.4605 119.5496 119.6619 119.7843 119.9203 120.0694 120.2247 120.3826 120.5535 120.7371 120.9214 121.1098 121.1800
126.7400 123.6039 119.3955 120.7828 119.2753 114.5271 115.2125 102.3771 106.4457 113.5586 119.1027 119.5390 120.0314 125.0958 124.4428 124.3322 124.1441 123.9576 123.7682 123.5801 123.4748 123.4340 122.8443 122.8033 122.5876 122.4778 121.9683 121.7804 121.8683 121.7576 121.4843 121.3110 121.1157 120.9541 120.7836 120.6349 120.4118 120.2033 117.6343 120.4416 119.9221 119.8645 119.6317 119.7803 119.6987 119.6650 119.6602 119.6153 119.5005 119.5302 119.7023 119.8775 119.9217 120.0237 120.1416 120.2618 120.3966 120.5398 120.6952 120.8578 121.0266 121.1992 121.3827 121.4600
126.8800 125.1461 117.3471 119.6653 113.6018 109.8072 122.2054 109.1276 116.5122 109.4406 107.7000 106.0980 125.7449 124.5709 124.5967 124.4572 124.2838 124.1091 123.9343 123.7461 123.5404 120.6328 123.6310 122.9754 122.8132 123.0585 122.0835 120.4209 123.0993 121.7742 121.6328 121.6010 121.4082 121.3385 121.0861 120.8529 120.9462 120.1752 118.6181 120.1372 120.6232 120.2716 120.3058 120.1374 120.0729 120.0504 120.0435 119.9838 120.2577 123.1301 120.7709 120.1603 120.2931 120.3800 120.4842 120.5922 120.7212 120.8618 120.9940 121.1548 121.3142 121.4743 121.6376 121.8200
127.0500 122.3478 121.2821 114.6255 116.4207 111.6802 102.7269 112.0523 112.1294 112.0973 112.4430 107.1756 117.7173 126.0533 124.5258 124.6164 124.4232 124.2522 124.0849 123.8107 124.1384 115.4095 123.8143 123.0297 122.9749 123.0884 115.9290 117.1665 118.5924 122.2290 122.2024 121.7972 121.8578 121.1908 121.1735 121.7412 120.8265 121.1918 121.1817 122.3681 118.3571 120.3866 120.1738 120.4439 120.4423 120.4128 120.4031 120.3170 120.1883 108.9997 119.0769 120.5285 120.6338 120.7158 120.8082 120.9181 121.0359 121.1560 121.2877 121.4163 121.5268 121.7166 121.8798 122.1200
127.0500 128.1860 124.5421 116.9184 115.4807 119.3629 109.8105 110.7216 107.4774 110.0159 107.4876 111.6762 121.0448 113.1995 126.4058 124.7565 124.5656 124.4101 124.2273 124.0794 124.0125 123.9143 123.4727 123.1044 123.3355 122.8879 125.2221 123.2107 123.0642 122.1066 122.3392 122.1193 121.5645 122.5154 124.9037 116.1080 122.1122 121.5195 108.4249 118.7770 118.2665 124.0057 121.7822 120.7897 120.7793 120.7647 120.7761 120.7694 120.7825 121.3156 121.5005 120.8571 120.9663 121.0471 121.1355 121.2285 121.3439 121.4465 121.2208 121.5369 122.2335 122.2189 121.4487 122.3700
127.0800 124.6945 121.0201 115.8531 113.9992 114.9369 123.4878 105.7762 110.8113 105.4817 107.4624 105.4792 128.2605 114.4785 127.1995 124.3819 124.7805 124.5451 124.3895 124.2358 124.0209 123.7411 124.4033 125.1356 123.1573 123.2854 122.7312 121.4316 124.2388 123.4265 122.1063 122.2796 122.6217 121.5106 110.5970 114.3494 122.0497 121.2167 115.6610 122.1794 122.3684 110.0514 121.5966 121.0422 121.1037 121.1054 121.0480 121.0336 121.1092 120.9986 120.9366 121.2168 121.2874 121.3550 121.4394 121.5339 121.6316 121.8481 121.7211 122.7128 120.8515 121.3615 122.7854 122.4100
121.2400 116.0432 114.9166 114.6927 114.9772 115.4291 123.0333 127.7460 110.0801 105.3110 114.7595 118.5152 126.9814 124.5529 115.5455 126.0933 124.8253 124.6976 124.5504 124.3818 124.2431 124.1364 124.2968 125.5016 123.6167 123.5102 123.2998 123.9881 121.4261 120.6257 121.9797 122.4279 122.3734 104.4766 105.5347 125.6190 118.9798 120.8765 114.9212 121.7147 122.4719 121.2190 121.6513 121.5404 121.5125 121.3273 121.0900 121.4026 121.4199 121.4762 121.5442 121.5617 121.5938 121.6772 121.7223 121.8351 121.9206 121.9371 123.4653 119.9971 119.2968 118.4096 122.7385 122.6900
115.8400 117.0875 115.7525 118.1267 113.9799 115.6546 113.0732 108.3501 106.3982 108.2503 108.9628 113.6630 126.5405 125.0597 117.5108 125.3399 125.0357 124.8480 124.7027 124.5499 124.4003 124.2503 123.9908 123.6741 123.7620 123.6351 123.4545 123.3425 106.6057 120.6488 113.6315 122.3923 122.3147 114.8398 106.5780 107.8322 109.5281 108.8609 120.1839 122.1004 121.8162 121.8468 121.7714 121.3453 121.3920 122.6685 118.2191 120.6131 121.7002 121.7890 121.7830 121.8379 121.8981 121.8735 122.1813 121.9914 122.2336 122.2778 122.9839 108.1382 124.0561 123.6555 122.5509 122.9700
121.3200 115.5850 118.4803 118.7720 118.1902 113.9979 110.1455 107.2946 106.0212 107.8895 113.3614 119.9919 125.6573 125.8926 125.7837 125.1638 125.1583 125.0035 124.8571 124.7164 124.5691 124.3956 124.6103 124.0967 124.0467 123.8270 123.6660 124.2935 122.2823 126.3945 123.1908 106.5274 112.8554 113.0849 107.0880 110.0710 113.1970 122.4708 122.5766 122.2616 122.2649 122.1754 122.6642 126.0870 121.9134 117.7060 123.1722 126.7594 122.1171 122.1593 122.0876 122.1333 122.1831 122.1219 123.9166 122.4484 122.4845 122.4991 123.0149 117.6274 123.0583 122.7089 123.1769 123.2100
116.6300 116.1105 117.7070 115.8055 114.1797 112.5382 104.7442 108.3685 108.4380 108.0699 111.0884 109.7830 127.4588 125.3090 125.6034 125.4462 125.2998 125.1539 125.0133 124.8763 124.7465 124.5683 124.5037 124.2858 124.2562 123.3671 126.2024 121.7444 125.0181 119.9037 109.7781 113.2968 123.8529 116.9540 104.4710 110.9745 124.2967 122.6170 122.5360 122.5577 122.4994 122.3914 123.2586 125.6726 117.2397 121.5978 107.4114 115.6454 122.1661 122.4394 122.3789 122.4232 122.4625 122.5332 122.4686 122.5223 122.7396 122.8287 122.7943 122.9946 123.4050 123.2466 123.3225 123.4300
119.9500 114.9629 114.3296 113.0860 112.1703 106.7444 112.9090 112.0389 105.8176 106.8423 105.8150 114.2695 127.4476 125.7616 125.6913 125.5347 125.3715 125.3773 125.1553 125.0278 124.9399 124.7195 124.8563 124.4700 124.3984 124.7173 113.5357 119.8837 126.2933 114.8130 103.2617 125.9221 123.1930 124.3896 120.2017 125.0452 122.7683 122.9505 122.9004 122.8272 122.8094 122.7617 117.1530 118.0087 123.1197 123.5659 124.2880 124.1372 122.6833 122.6887 122.6555 122.6900 122.7427 122.7855 122.8714 122.9481 122.9932 123.0688 123.1849 123.2602 123.3330 123.4594 123.5619 123.6600
121.2200 121.1544 112.8196 115.3193 111.5035 113.4330 113.9546 112.2324 108.9159 108.4531 105.1515 125.2859 125.7143 126.2093 124.7906 124.6615 126.3837 125.3030 124.9672 125.2291 124.9864 124.9100 121.0721 124.8029 121.8209 123.5586 122.9880 124.3568 119.1909 128.1151 117.7665 125.9335 123.6838 123.2775 123.7751 123.1277 123.2993 123.2095 123.1606 123.0910 123.0627 122.8359 122.7050 123.0120 122.6518 122.5934 122.4932 122.5913 122.7906 122.8969 122.9278 122.9606 123.0029 123.0556 123.1074 123.1723 123.2419 123.3231 123.3993 123.4892 123.5861 123.6848 123.7842 123.9400
127.7600 112.2256 117.0554 112.9069 113.7863 113.4554 114.0336 113.9773 112.4960 114.4010 109.2042 111.6744 127.2467 126.3086 122.1458 115.8807 123.6903 125.5391 122.5010 127.3391 116.4761 126.6891 119.0631 114.9898 121.2713 111.3747 127.8425 125.4863 113.6391 117.2884 124.6188 123.9906 123.8031 123.8234 123.6681 123.5799 123.6239 123.4667 123.3241 123.3418 123.3077 123.1034 123.1186 123.1454 123.1943 123.2241 123.2083 123.1946 123.1792 123.1774 123.1892 123.2276 123.2611 123.3108 123.3634 123.4263 123.4817 123.5613 123.6384 123.7244 123.8147 123.9038 124.0082 123.9400
115.9400 116.0714 117.9004 113.6913 113.5706 113.4108 112.7636 109.7815 107.1512 110.5895 112.0851 125.0480 126.4484 126.3250 126.7959 123.9824 113.2809 118.8191 120.2401 112.8740 100.7703 113.2295 113.1362 121.2516 108.5781 121.6761 124.7364 110.8554 127.3587 120.3409 124.5414 124.2088 124.0917 123.9760 123.9206 124.0558 122.6318 123.6903 123.6828 123.5810 123.5551 123.5774 123.5195 123.4419 123.4073 123.3861 123.3794 123.3849 123.4005 123.4211 123.4488 123.4763 123.5098 123.5554 123.6079 123.6666 123.7252 123.7923 123.8683 123.9509 124.0306 124.1218 124.2143 124.1800
115.9400 114.6485 113.7220 113.8084 112.9348 112.5481 111.1933 111.5984 109.2920 105.1013 129.2583 127.7099 126.5720 126.3718 123.9171 127.5017 127.1925 111.5676 110.7109 128.8764 120.8160 103.4850 121.5724 105.9896 104.6267 123.5579 126.1631 122.4326 122.3757 125.7025 124.2858 124.4005 124.2900 124.2589 123.7594 122.8036 121.7490 124.4394 123.5300 123.9070 123.6668 123.5725 123.7256 123.6815 123.6662 123.6527 123.6482 123.6503 123.6535 123.6750 123.6887 123.7232 123.7554 123.8003 123.8476 123.8996 123.9614 124.0284 124.0945 124.1697 124.2540 124.3375 124.4211 124.3900
115.0300 114.7886 114.4825 113.7167 112.5952 114.2345 119.7950 106.2433 110.8214 105.5044 114.3580 127.7249 126.3436 126.7408 124.3896 126.0611 126.0384 124.5417 117.9955 122.9815 124.6815 111.2186 107.9071 105.4517 118.3818 123.1849 125.0841 125.1482 108.0497 124.7990 124.6313 124.5953 124.4783 124.1228 126.1650 121.4030 118.8576 123.5059 124.4921 123.8272 124.0590 124.7726 123.9737 123.9195 123.9053 123.8947 123.8795 123.8858 123.8923 123.9138 123.9349 123.9562 123.9970 124.0346 124.0795 124.1296 124.1857 124.2480 124.3168 124.3881 124.4640 124.5446 124.6313 124.7900
115.0300 114.8287 113.3914 114.7818 117.7740 119.3606 130.1489 106.4352 122.9294 121.0528 117.9752 127.7352 127.2075 126.5117 126.7664 126.3463 127.0370 123.6513 108.4847 121.4152 126.3988 130.7106 120.2366 123.8549 127.7078 119.2766 125.9768 121.6390 125.9236 124.0690 124.9413 124.7893 124.8156 126.1162 111.8643 111.8903 107.6608 108.6512 125.7629 124.4220 124.5043 124.1317 124.2315 124.1532 124.1396 124.1201 124.1208 124.1417 124.1316 124.1431 124.1643 124.1923 124.2235 124.2608 124.3088 124.3512 124.3999 124.4604 124.5363 124.5991 124.6677 124.7527 124.8361 124.8200
115.0700 115.0378 117.6030 118.8656 121.9465 118.3394 127.8387 122.0705 110.0150 115.9760 113.9008 114.2518 124.9413 126.9130 126.6018 126.5176 126.4207 121.8679 123.0141 129.6643 125.8339 116.3352 116.6443 113.1357 124.7589 125.6828 125.9700 112.1909 125.3696 124.9901 125.0602 124.9820 124.9639 126.8676 109.7247 112.0941 103.7934 114.1011 125.3226 124.5467 124.4508 124.4462 124.4050 124.3827 124.3547 124.3723 124.7357 124.2870 124.3769 124.3771 124.3999 124.4204 124.4506 124.4853 124.5238 124.5726 124.6268 124.6855 124.7224 124.8096 124.8849 124.9395 125.0149 125.0300
114.9900 114.5656 116.1335 106.4612 126.2382 124.9310 127.9345 129.4232 113.8735 116.8479 126.2467 111.5658 117.8968 123.2418 127.1298 126.8275 126.1808 128.2074 123.8538 108.1853 121.6623 110.8622 119.5581 131.4349 126.2784 125.6905 125.7922 118.5410 126.1041 125.2251 125.2653 125.1713 125.1227 125.5737 119.1174 113.5800 120.3651 126.5482 124.3492 124.5713 124.6315 124.6603 124.6303 124.6610 124.7071 124.1715 128.4226 124.0528 124.4729 124.5908 124.6034 124.6427 124.6659 124.7089 124.7463 124.7827 124.8385 124.8787 125.1198 125.0121 125.0336 125.1955 125.3109 125.2300
115.0500 126.3995 127.3247 127.2021 128.4752 127.8533 129.3349 111.1045 127.8113 105.8181 112.0830 105.9732 104.3114 115.8102 128.2190 126.5836 126.4463 127.0139 125.0827 130.7057 112.1917 106.9946 99.3522 107.7528 126.9534 125.8611 125.6555 125.6871 125.4840 125.6105 125.4558 125.3641 125.2869 125.0471 126.6666 125.7907 125.3822 125.5166 124.7496 125.6167 124.8620 124.8709 124.8119 124.5739 124.7175 124.5615 124.4680 124.5784 125.3825 124.9212 124.8763 124.8477 124.8829 124.9199 124.9522 124.9919 125.0554 125.1157 123.5860 125.3181 125.3285 125.2263 124.9511 125.4200
128.4600 129.3791 128.1562 128.3724 128.0470 128.0782 128.2812 122.7581 112.5348 128.8176 116.6530 102.4121 106.8476 123.4283 127.4573 127.0364 126.3778 127.8645 124.9746 118.1672 107.8799 108.2947 105.5140 112.4112 126.1154 125.9688 126.3504 126.6398 125.5657 125.7654 125.6379 125.5587 125.5138 125.4935 125.1488 125.3343 126.1119 119.3193 109.7135 123.9535 125.0506 125.1221 125.5605 126.0660 124.8878 125.1332 125.0982 124.8835 123.2263 122.4448 124.9595 125.1632 125.0850 125.1152 125.1605 125.1944 125.2473 125.3483 124.9956 125.3962 125.2515 125.9115 128.4612 130.9600
128.5800 128.7816 128.4484 128.3681 128.2642 128.1237 127.9984 128.2813 127.9721 126.8625 129.4334 128.4662 125.9590 126.0561 125.2265 126.9652 128.2797 126.2831 129.1961 127.5794 115.1227 106.9463 125.1902 127.2347 126.1427 126.2647 122.2180 120.4031 125.9637 125.9385 125.8198 125.7704 125.6837 125.6086 125.5994 125.2996 126.8691 105.2796 117.7198 125.8497 125.3396 125.1133 120.1699 120.5551 125.1364 125.2729 125.2509 125.0739 125.6734 117.5795 125.4303 125.3064 125.3122 125.3539 125.3672 125.3949 125.4374 125.4787 125.1830 125.6141 125.5029 124.7412 109.9500 111.8500
128.7100 128.6041 128.5537 128.4233 128.3452 128.2140 128.2250 127.8937 127.9265 127.9150 127.3778 124.0385 133.3244 112.0511 118.5204 111.8053 120.3574 105.8810 121.6119 127.2286 112.8562 106.8491 128.4101 126.2330 126.3777 126.3452 125.2488 125.5743 126.3649 126.1438 126.0434 125.8311 125.8709 125.8124 125.7486 125.6655 125.3700 116.6304 117.4977 125.4863 125.6803 125.3649 124.6355 125.5619 125.3571 125.4347 125.4209 125.4320 125.3126 126.4467 125.5540 125.4976 125.4267 125.3933 125.5234 125.5959 125.6441 125.6638 127.1308 125.4624 128.7869 122.6132 117.3412 107.6300
128.7400 128.6795 128.6254 128.5356 128.4361 128.3384 128.2320 128.1442 128.0507 127.8750 127.5046 104.4722 111.1117 110.6198 117.9019 115.5999 104.2299 101.0072 117.9806 120.8611 106.2921 123.3874 128.3308 126.6993 126.6778 126.3639 125.6863 125.0665 121.8925 124.9755 125.7406 126.1089 126.0533 126.0020 125.9362 125.8949 125.9777 123.5454 116.7625 126.0353 125.7844 125.5215 125.6206 125.5999 125.6408 125.6295 125.6202 125.6127 125.6467 125.5032 125.6346 125.7195 125.9014 126.3323 125.8076 125.9789 125.7494 125.9134 127.7205 103.9361 116.7767 111.8245 118.6222 112.8600
131.2000 128.7800 128.6900 128.6100 128.5300 128.4400 128.2600 128.2800 128.0900 128.0100 127.9100 127.8200 127.7300 127.6400 106.7000 127.4500 127.3700 119.2000 119.2000 109.1100 109.1600 126.8900 126.8900 126.8100 126.6800 126.5900 123.2200 123.2200 107.2900 116.9800 126.3300 126.2200 126.2200 126.1300 126.1300 126.0100 126.0300 125.9000 125.9400 125.9400 125.8100 125.8200 125.8300 125.8400 125.6700 125.6800 125.6800 125.6800 125.6800 125.6800 125.8400 125.8300 125.8100 125.7900 106.2900 125.9200 125.9000 126.0300 126.0100 108.3800 116.6100 109.2800 109.4300 109.4300
