113.91 121.55 119.85 106.43 130.17 119.82 123.62 122.34 128.76 128.27 118.55 103.09 114.12 104.13 122.62 120.27 107.77 116.71 103.26 101.55 107.87 116.6 114.4 108.21 111.53 111.53 104.78 102.45 102.76 99.45 117.66 115.54 108.64 109.05 109.05 120.02 120.02 119.5 119.53 119.31 121.4 121.4 118.87 118.87 118.56 118.64 118.64 102.92 118.3 118.3 118.28 118.63 118.6 118.56 118.86 118.8 119.06 119.3 119.3 119.52 119.73 120.0 120.18 120.18
113.91 128.3388 121.5164 112.5737 119.6008 110.5884 123.1807 122.7474 124.354 128.2066 127.5025 116.653 117.6794 106.4062 112.7973 116.7299 115.7727 115.4349 111.22 105.5229 103.3606 112.2979 111.0027 106.7969 103.1713 110.4858 101.6165 103.9907 104.0612 97.012 95.9426 100.9671 104.2126 110.3564 102.1466 105.3126 109.8513 103.4277 119.3085 110.2936 124.4242 118.2479 119.0959 118.3887 118.0577 120.3738 104.2249 117.0914 117.2117 117.2168 118.094 118.2183 118.2629 118.3695 118.4904 118.6255 118.827 118.958 119.0461 118.0632 111.6909 119.3957 119.9089 120.18
113.58 127.2952 123.6964 125.2481 123.2227 110.2631 117.4915 109.8898 119.6794 120.7725 123.8963 128.5181 124.8592 116.8997 111.9392 109.9425 113.381 115.497 117.8972 101.1746 105.1549 103.8737 108.51 107.9925 108.4991 100.9861 100.0934 104.4675 102.0049 100.7746 102.8767 98.4634 113.1039 109.7092 105.6009 124.1533 111.5098 123.863 119.1743 118.8584 119.296 118.2518 118.0302 117.9997 117.6436 118.2514 116.0548 114.8418 119.565 119.4923 117.509 117.686 117.8096 117.9184 118.048 118.2426 118.1483 118.5524 118.6362 119.0628 118.1204 119.2719 119.665 119.73
108.05 117.0708 120.6558 122.4274 126.9696 128.926 124.054 108.0772 112.7704 113.2284 118.1503 120.2848 122.5332 123.6618 119.372 114.2155 112.666 112.332 112.3715 108.5329 105.9297 100.541 99.6026 101.9229 104.3738 104.6021 106.594 105.5341 107.4471 105.7725 104.3416 113.1497 104.6168 97.1033 112.1293 115.9701 121.6088 117.2338 117.7228 118.3077 119.3337 117.8282 117.6735 117.5124 116.9964 119.7976 95.0889 109.121 102.816 106.6428 118.5148 117.1982 117.3377 117.3915 118.0722 114.8788 119.2205 118.0352 118.147 118.7284 118.9336 120.9893 119.2826 119.4
122.11 124.1865 120.2281 118.6853 118.1558 117.3386 121.4348 118.5841 122.5579 115.8295 115.888 104.1628 113.8658 119.0524 114.2026 117.611 108.1717 113.4028 110.8065 109.3923 109.7408 112.1582 113.3796 98.5746 108.7104 101.4096 114.1498 100.471 99.6168 105.4389 102.8338 116.8481 115.6185 118.5659 117.8513 119.2601 118.1093 116.8305 118.6518 117.7728 117.6193 117.4006 117.22 117.0071 116.5756 118.9432 104.6688 105.8581 96.7653 100.2842 114.3166 116.7212 116.8106 116.8947 117.6138 108.4173 108.0931 118.6189 117.2296 118.5372 99.6497 115.9736 107.7055 99.19
121.74 122.1575 124.8993 127.6578 110.1106 122.0585 109.4986 112.8964 115.8345 121.2122 122.0269 109.1214 102.9482 106.1486 111.5625 115.4944 113.4299 111.5002 111.9803 116.9293 110.7562 112.5384 114.6427 108.34 114.6363 101.6146 101.1953 100.8251 100.3516 107.6887 106.4264 100.4695 119.7215 119.796 104.5272 107.0665 119.692 117.7686 117.8295 117.267 117.0283 116.9874 116.763 116.4986 116.1872 117.1236 102.528 103.3771 114.1774 112.6489 116.7017 115.977 116.3033 116.2563 117.9192 109.3853 113.2276 113.4324 115.8379 117.5893 110.239 119.8271 103.1589 96.9
121.92 120.0045 124.1539 122.5915 117.0208 117.04 122.406 119.4432 110.2475 117.3939 101.9637 117.5222 100.7591 101.9645 108.1352 108.0595 112.4215 112.4731 111.1368 110.1934 104.2295 113.9445 112.6409 111.1674 104.3734 112.564 102.8388 102.4973 108.5366 100.5689 108.9223 98.3996 104.3 98.1497 98.3214 119.5684 117.3746 117.7786 117.1266 117.3988 117.2118 116.4496 116.0645 116.0241 115.3908 118.6263 92.0314 100.3466 110.9149 113.0734 115.4612 115.6119 115.734 115.959 115.914 109.4993 117.8995 116.9853 117.7247 119.5272 117.566 120.9042 112.3234 97.55
121.86 121.2429 122.4369 123.2663 121.0659 121.4423 121.0683 114.5113 113.4675 123.2639 112.157 109.803 103.9431 102.3772 105.207 106.4668 111.1785 106.4323 114.0001 112.0269 109.5117 102.9395 114.0219 96.9994 109.0587 105.5064 107.5226 104.3474 105.216 120.8289 119.2086 119.8012 98.5275 110.9036 103.8421 118.238 118.2589 117.2506 116.8561 116.641 96.8747 115.3999 115.6028 115.3088 115.0931 110.7139 93.5823 116.6376 114.9673 114.8551 114.8295 114.9409 115.147 115.3761 101.5265 113.3252 116.2525 116.364 116.542 116.9671 117.5137 116.967 119.895 103.7
123.27 120.6265 106.4915 117.4297 116.254 121.6679 115.9554 116.5583 115.0918 111.7573 116.5904 101.3641 102.0359 104.1866 108.4547 116.1875 115.61 115.1274 110.4915 107.1849 112.8057 115.51 108.2202 100.8827 114.3894 107.3993 108.2537 103.8826 111.6799 120.3087 107.441 100.5487 105.0323 109.1575 119.074 118.8711 117.0124 117.141 116.6265 115.4105 117.3985 103.59 115.8574 115.5473 116.0327 108.3293 113.3292 111.4984 113.7632 113.9398 114.1378 114.2981 114.5714 117.2128 112.1183 117.0135 115.5464 115.9035 116.2645 116.6198 117.0759 115.9072 117.4491 117.99
123.44 123.3591 125.0025 125.8387 112.6293 108.917 109.9244 111.7974 112.7621 112.3519 116.3369 109.9214 104.2082 107.4306 102.6786 115.211 106.9074 108.857 108.3374 114.1666 110.4399 107.5766 109.9234 115.0969 118.514 117.434 115.247 127.3321 126.7439 118.3746 121.1164 110.4018 118.6545 119.1315 117.744 117.0452 113.6408 116.5047 108.5787 115.91 119.4905 96.6512 108.9573 108.8952 98.041 112.2327 115.1563 113.1403 113.5498 113.2789 113.3621 113.4851 114.3151 92.8051 108.3347 114.7228 115.1969 115.4226 115.8023 116.1894 116.6759 116.9944 120.504 117.56
123.07 119.5867 119.3456 118.2389 120.6973 124.1712 114.6144 104.5688 103.4424 105.6931 109.6391 111.0279 102.9795 117.9608 120.5531 112.8209 108.7376 112.4928 109.9902 111.5799 105.0951 108.2019 107.0036 111.4813 126.7156 124.8941 127.7541 126.3078 118.0877 119.1087 119.0155 114.3959 104.7552 111.3843 113.8906 117.3948 105.0048 116.8229 105.9944 116.8848 114.6844 93.0217 93.3871 95.9009 98.5814 114.9727 112.4742 112.5163 112.3399 112.4296 112.5602 112.8803 114.4632 102.3791 113.691 113.9076 113.2807 114.8616 115.3276 115.8022 116.1113 116.5377 92.4256 98.39
114.34 117.3548 114.3477 112.8998 104.4047 107.4002 109.0169 114.7071 107.1424 107.6021 101.7095 102.4746 103.6087 107.893 115.2798 108.5758 110.7067 113.3703 115.0505 111.813 105.4005 106.1031 110.4564 111.7757 121.0312 120.3364 118.6505 118.6237 119.4595 119.1079 118.7624 104.0438 104.8865 118.2952 109.4828 117.7472 110.1694 96.8738 91.4694 93.3692 107.6594 96.0506 96.6897 90.0016 119.1769 111.34 111.7593 111.542 111.4795 111.4753 111.6528 112.3402 93.0682 103.2547 113.6971 109.6755 116.8582 114.7312 114.8836 115.3457 115.8853 117.2297 112.8719 105.61
114.98 120.4958 118.304 120.0292 113.5919 112.4197 112.2267 113.3544 98.4507 107.7754 104.5113 106.88 102.965 104.4547 103.395 103.1327 107.1675 106.4616 105.3206 107.9652 105.8336 108.145 110.5649 107.1736 125.5336 122.887 119.6391 119.78 119.0675 118.3164 119.1395 114.0995 116.8128 124.7651 117.3159 117.3266 98.9936 99.8823 104.0214 94.7198 114.4216 114.6129 94.8697 92.5219 104.2369 110.9921 110.7481 110.5247 110.418 110.4321 110.6433 112.0317 93.1847 112.4094 112.126 110.1996 110.7704 113.5165 114.4192 114.9334 115.5043 115.2726 119.0078 120.8
115.05 109.1171 116.8034 114.4229 113.9268 114.1166 114.6551 111.8969 124.9998 112.0091 113.7514 111.9018 110.6042 107.1951 105.2763 105.4579 109.1049 103.7872 102.0665 111.43 111.3852 103.8381 109.6945 121.5157 135.0349 120.8302 119.8561 119.5358 120.4298 121.4626 113.9884 100.2167 115.6614 118.8558 116.1088 116.73 102.1553 98.8872 101.2269 93.1696 95.1969 103.1821 108.3335 100.5521 111.5727 109.8953 109.6519 109.3587 109.2175 109.245 109.5221 110.3769 110.0296 113.4378 109.0908 111.1562 115.8529 113.3537 113.9553 114.5576 115.1295 115.889 116.8808 120.8
114.88 110.4305 117.4301 113.6893 114.5455 114.3056 105.7778 108.2077 109.7702 110.3723 112.2301 111.9779 110.3374 107.2504 112.7447 111.8301 106.9537 106.2625 101.1679 112.9279 106.4658 99.203 100.8107 122.1144 93.9134 114.3148 119.1061 118.3306 119.5625 101.0629 103.9887 115.5551 113.366 117.3391 116.1821 115.2888 110.3808 101.0225 114.0699 91.3632 90.7622 100.5177 115.2595 106.2143 109.8429 108.8717 108.4115 108.0144 107.823 107.8674 108.1896 108.5868 109.2431 109.9745 110.0154 111.5427 111.9389 112.8084 113.4869 114.1616 115.0754 112.044 110.1633 94.22
114.51 115.2912 113.1482 113.1564 114.5102 115.6018 113.6241 114.732 111.6478 112.6775 109.5097 115.1243 102.6021 108.5455 108.1695 107.3918 102.8388 106.1821 99.3431 109.2908 103.7887 105.5103 102.2501 122.2306 118.0568 117.9439 123.6768 122.3108 119.2055 114.2666 109.56236825889829 117.8374 115.5673 116.134 115.941 115.3476 116.8881 100.8841 119.1605 93.5907 93.714 86.9461 115.0998 109.2285 108.515 107.7339 106.9876 106.4308 106.1568 106.2347 106.6466 107.3146 108.1406 108.9672 110.0451 110.6907 111.579 112.3413 113.1033 113.5532 114.833 105.1869 115.8015 110.24
126.26 125.0544 126.6439 113.413 111.8072 114.6538 114.1036 110.4872 112.9503 112.1214 109.0133 113.6438 113.1987 108.5732 110.5514 107.2046 110.1569 101.5216 115.6392 117.3077 118.5657 118.0572 118.7891 98.2438 106.9925 100.2158 120.6479 120.0235 118.4283 121.3752 104.0504 115.9982 116.6017 116.3787 115.7671 115.2331 113.7798 113.5747 97.075 112.5746 111.4682 107.6879 114.0731 108.4241 107.5084 106.3768 105.3384 104.5251 104.103 104.2351 104.8624 105.8105 106.8768 107.9927 109.0554 110.0738 111.0091 111.8886 112.7035 113.408 114.2342 114.5231 115.6502 115.65
126.25 127.2088 114.5916 114.7127 114.0216 116.3141 117.4402 106.6392 115.4294 112.8111 109.1386 102.0725 110.375 107.0925 105.5624 103.5343 103.3972 105.6758 100.2398 125.3563 116.9328 121.6731 120.5413 120.2092 119.7805 118.9278 114.8889 119.0854 118.6899 118.0574 116.9611 117.3202 116.7219 116.1583 115.5899 114.9137 114.3345 113.8393 111.5644 111.6269 97.0987 112.4171 95.5113 109.3874 106.107 104.9212 103.4362 102.1216 101.404 101.6283 102.6791 104.1091 105.5868 106.9904 108.2822 109.4588 110.5164 111.489 112.3616 113.174 113.9358 114.6172 115.275 115.58
126.12 125.8915 119.8122 113.6889 113.1901 113.1007 112.2458 106.1821 107.8689 110.2898 110.3356 107.5742 105.5385 110.4856 101.5949 101.5367 103.1939 115.1507 116.5881 109.6935 121.846 121.3432 120.8691 120.4546 119.4986 116.6832 94.1474 118.4912 118.102 118.0944 117.4992 117.0204 116.5948 116.0576 115.4737 114.723 113.6661 113.125 112.7915 108.1103 113.3213 86.7176 105.0986 107.2391 105.2746 103.4534 101.2042 99.038 97.4791 97.9789 100.0295 102.2426 104.296 106.0612 107.6012 108.9282 110.1079 111.1499 112.0938 112.9565 113.7419 114.4565 115.1162 115.53
115.17 113.8721 111.9765 112.9365 113.1748 109.0104 108.4652 109.5038 108.9925 111.0771 108.1158 108.5164 108.2505 106.6444 107.5942 105.1463 105.422 116.4152 116.1043 113.2935 122.015 114.408 121.0857 120.6504 119.7715 114.4753 98.7231 118.328 107.4152 118.1599 117.7928 117.1638 116.58 115.9852 115.3942 114.3371 113.3786 104.2776 112.5305 111.6186 110.0201 110.244 108.6072 106.2174 104.244 101.8513 98.9103 94.3264 90.7759 91.9565 96.766 100.4139 103.1672 105.3143 107.0658 108.5371 109.8017 110.9123 111.9036 112.7836 113.5959 114.3363 115.0077 115.49
110.51 108.5245 109.3871 108.5453 105.6384 108.4392 105.6372 109.5089 108.5121 109.5957 108.9869 108.8989 108.5648 109.9163 106.7866 106.2185 105.1523 115.2652 115.2215 103.8305 120.4226 121.3198 120.8837 120.613 119.8075 117.8854 113.8729 116.16 115.9777 117.889 117.648 117.0211 116.4963 115.9367 115.3138 114.7004 113.6376 113.3301 111.9927 111.3472 110.3595 108.8047 107.4197 105.9343 103.9126 101.1777 97.0695 89.646 85.6788 86.7821 93.4165 99.104 102.4514 104.8647 106.7556 108.3102 109.6346 110.7814 111.7953 112.7037 113.5307 114.2828 115.091 115.46
104.67 110.2031 112.4712 109.6095 111.3104 107.9156 111.6963 105.4129 104.8881 111.7107 109.2249 108.1394 110.0007 113.0873 103.4932 103.0429 104.096 116.205 115.2269 119.5309 122.5824 121.0179 120.7765 120.2645 119.7374 119.5545 119.1312 118.2988 118.3828 117.8988 117.5694 117.0528 116.5007 115.905 115.3132 114.6071 115.5384 114.9998 113.2997 111.5357 110.2248 109.105 107.6915 105.9164 103.7382 100.9266 96.8375 88.949 84.6057 85.8856 92.8691 98.9407 102.3653 104.8093 106.7227 108.2843 109.6145 110.7613 111.7838 112.6879 113.5045 114.4166 113.5628 115.45
118.98 117.0429 114.6565 110.232 114.8859 109.725 111.4168 107.8776 109.0729 112.8429 109.2396 109.23 104.4044 106.847 104.3524 104.1665 104.5596 116.2793 115.6867 116.9163 121.3357 121.1954 120.7627 122.0889 122.3728 122.2527 121.3639 120.4084 118.5555 118.0897 117.5747 117.0741 116.5962 116.0909 115.2382 115.2623 101.4248 103.1127 107.9465 112.1701 110.3462 109.1594 107.7776 106.1707 104.1932 101.6842 98.3845 92.8369 89.1102 90.2517 95.8279 99.9765 102.9372 105.1616 106.9596 108.46 109.7444 110.8708 111.86 112.7602 113.5718 114.3534 113.2074 115.97
120.08 120.2441 119.6297 118.3653 119.0472 111.3329 110.8819 108.345 112.6366 115.4879 113.2794 109.5751 106.9208 107.1562 106.017 106.7225 101.3609 112.9632 116.0628 124.2436 121.3768 121.1117 121.8097 106.6809 108.0328 102.2253 106.3143 115.1848 118.4502 118.0918 117.6207 117.1394 116.2642 115.4169 116.4004 115.7109 103.4834 106.1908 109.4049 109.7007 110.8031 109.4785 108.1988 106.737 105.019 102.9806 100.5955 97.9671 95.7921 96.5757 99.2629 101.7344 103.968 105.8438 107.4331 108.8079 109.994 111.0624 112.0396 112.8999 113.6921 114.4152 115.3514 115.5
104.25 115.4369 113.1995 118.6061 118.1769 109.9454 113.4455 108.1133 111.2589 115.451 111.991 110.8279 109.3909 110.8489 107.5714 106.1753 105.8735 115.9255 114.2747 122.3699 121.4875 120.9793 122.6372 95.5695 114.4098 115.254 96.9423 117.5171 119.4415 118.1024 117.6894 117.1563 118.3574 119.4197 103.634 123.2133 114.5075 114.3959 113.2121 110.9308 110.9488 109.9097 108.7561 107.4824 106.0521 104.4754 102.8626 101.3568 100.4904 100.7793 101.9811 103.6119 105.2343 106.7332 108.0903 109.2903 110.4877 111.4736 112.2879 113.1056 113.8459 114.5204 115.2131 115.54
104.25 120.8909 106.8603 118.7829 110.9417 123.8167 109.0417 109.4956 108.6065 109.7379 110.072 108.7566 107.7863 107.7872 101.1276 102.6137 114.9506 115.2438 123.4558 121.2777 121.7167 121.0996 121.3267 118.2289 105.539 103.5982 120.9454 106.0134 119.1328 118.0316 117.8179 118.3165 102.9425 101.0946 92.7577 115.8244 113.6299 113.5353 113.0834 112.3746 111.3537 110.4323 109.4139 108.3279 107.1764 105.9904 104.829 103.8986 103.4196 103.5702 104.2993 105.3519 106.5344 107.7154 108.8517 109.8966 110.5265 111.4602 112.6064 113.3911 114.0544 114.8567 115.482 115.61
113.4 113.9061 110.4795 111.7054 117.0294 112.6976 110.3631 115.3477 116.7731 117.7336 109.2425 110.8465 110.0293 101.4216 108.7314 101.394 116.0981 112.7761 119.3853 121.7835 121.6739 121.3235 121.2159 121.0902 125.6458 105.0287 116.6361 113.6671 118.9623 118.4044 117.9452 117.9862 113.8891 114.4493 113.5069 115.0997 114.7308 114.1061 113.363 112.6192 111.8548 111.0176 110.1398 109.2186 108.2942 107.3707 106.5553 105.9277 105.6242 105.7177 106.1886 106.9185 107.7937 108.7179 109.6546 110.5485 111.4451 112.1849 112.9789 113.7078 114.414 113.3287 115.2926 116.08
118.26 117.9602 117.3532 116.7987 117.6246 116.9984 110.4846 106.8241 105.0899 120.0255 115.0751 109.9559 108.8488 107.7918 106.1445 115.5182 109.9174 124.4893 121.6084 122.0306 121.7383 121.2735 120.1071 118.3955 118.3388 119.7492 119.756 119.6651 118.8388 118.4856 118.081 117.628 117.6702 114.641 131.297 113.821 115.0896 114.3938 113.7458 113.0815 112.3698 111.6301 110.8827 110.107 109.2938 108.6079 108.0321 107.5844 107.3842 107.4436 107.7712 108.2995 108.9642 109.7011 110.4675 111.2317 111.9735 112.7145 113.3867 114.0477 114.6596 115.3097 115.8927 116.16
117.93 117.7077 116.4602 117.0101 111.8897 111.5029 110.4134 110.6394 104.9154 106.0879 109.3219 110.1699 111.5019 103.4111 103.9271 104.543 102.4565 120.251 118.4273 122.4005 121.782 121.4242 121.2356 120.8421 120.0741 119.8449 114.1487 119.7635 118.892 118.6436 118.2334 117.7209 117.2983 122.4803 122.446 116.0608 114.9638 114.6836 114.1804 113.5133 112.9004 112.2641 111.6204 110.9995 110.4016 109.7532 109.3309 108.9923 108.8447 108.885 109.1272 109.5264 110.0396 110.6211 111.2818 111.8868 112.6223 113.1799 113.8333 114.4413 115.0135 115.5448 116.0605 116.25
115.24 114.7607 114.4632 113.4035 113.3344 116.4013 111.0335 112.405 108.9509 110.7984 109.7275 108.1382 103.7784 105.4641 103.0464 102.8498 105.2266 120.1619 122.6078 120.568 121.9921 121.5769 120.7988 120.8372 120.7838 120.5096 119.0274 119.6068 119.2145 118.7926 118.3989 117.999 117.591 117.233 117.6223 115.3944 112.3918 112.238 114.9539 113.801 113.9266 112.8669 112.3273 111.3301 110.7294 111.0417 110.4607 110.2043 110.0939 110.1327 110.3095 110.6202 111.0272 111.5195 111.9896 112.5372 113.1587 114.1262 114.5613 114.6953 115.3714 115.8515 116.5661 116.71
117.33 117.6489 117.2538 117.8423 115.7742 112.9212 109.9064 107.9037 101.3457 110.6535 106.1235 104.6465 106.3072 112.1054 113.9374 107.6517 125.7907 122.3908 122.7566 114.9319 122.2031 121.338 117.6939 120.9858 120.8584 120.8161 116.4427 120.768 119.1653 118.966 118.5849 118.0458 119.5029 111.8602 102.2222 110.4583 116.5101 115.5834 115.3145 115.2513 112.2959 113.4014 112.8603 112.3842 109.6928 111.7877 111.4792 111.2812 111.1851 111.2157 111.3559 111.6031 111.933 112.3363 112.7725 113.2385 108.6754 108.3494 115.4474 115.2066 115.7512 116.4749 111.7985 116.82
118.17 117.1252 114.4837 110.8524 106.9554 105.7839 106.2472 103.9716 106.413 102.8128 106.8617 103.3529 119.2151 107.0773 122.0051 117.7594 119.3167 122.4829 123.259 123.1755 122.6178 123.2449 121.942 121.3622 118.2028 121.1487 118.2516 120.1933 119.0853 119.221 118.786 118.2242 113.3808 92.6774 114.3444 118.8082 117.1053 115.7624 117.2407 106.7006 114.4055 114.4514 113.5121 113.592 112.9243 112.6389 112.3949 112.2305 112.1609 112.1855 112.2969 112.495 112.7721 113.102 113.4959 113.9037 114.9813 104.5305 112.4646 115.4726 116.0904 116.6998 110.2925 117.26
118.17 117.2313 111.6454 111.1553 108.1002 108.424 110.9995 110.1023 110.3714 108.1377 105.5194 102.5652 116.1454 109.8975 122.137 113.3965 122.9392 123.0749 122.404 122.673 111.8534 110.9916 121.948 122.5599 113.6884 119.9165 111.8855 121.0637 119.6491 119.525 118.747 118.9877 96.9647 109.959 121.5281 116.9962 102.2356 111.4031 116.1154 111.1422 115.336 114.4386 114.3653 113.9308 113.6912 113.4193 113.2292 113.0943 113.0317 113.055 113.1488 113.3063 113.5435 113.8198 114.1487 114.5111 114.9158 116.0759 115.7675 116.1605 116.4418 116.8321 117.956 117.8
126.46 122.886 122.6989 124.0859 110.609 112.5609 112.5253 111.7006 111.3182 110.6836 106.7842 101.839 102.7113 101.111 106.509 103.6745 125.3504 116.4945 123.0377 123.6695 108.0877 114.32 121.7214 123.2289 119.6674 119.9523 121.9455 121.0494 119.9197 119.5358 118.9588 121.3504 105.1995 121.089 118.835 120.3592 101.3392 110.6666 103.2003 103.1581 116.9567 115.3805 114.9247 114.6586 114.3793 114.1731 113.9818 113.8653 113.8253 113.8438 113.9177 114.0596 114.2511 114.4981 114.7782 115.0782 115.4214 115.7168 115.9743 116.4871 117.8284 119.7582 117.5469 117.8
126.49 122.9898 120.7739 119.9422 110.8617 111.9478 111.6589 110.0858 110.3485 107.0991 106.4895 103.3965 103.8835 107.4063 103.1149 102.0574 117.807 111.7409 123.8625 122.7135 123.027 121.7726 121.6961 121.2415 121.1526 120.6362 120.3677 120.3085 119.9408 120.4473 120.1435 118.6784 119.093 105.1393 118.8564 104.4153 95.4028 92.5159 104.844 116.2495 115.9575 115.794 115.518 115.2305 114.9898 114.7534 114.6859 114.6148 114.5524 114.5653 114.6373 114.7527 114.9226 115.1287 115.369 115.6422 115.9432 116.2535 116.6016 116.6143 115.2264 115.8995 117.7768 118.32
126.51 121.0731 112.173 110.2077 110.7476 110.239 110.6396 106.5341 105.7816 108.6842 107.276 103.8952 105.1775 110.1072 109.2033 120.4226 121.4239 120.545 123.171 122.5734 122.3365 122.2418 121.9107 121.2237 123.9208 123.0668 118.9397 121.1873 121.3341 110.4242 119.3889 118.9382 121.1823 101.7352 101.9044 96.2599 95.9974 94.248 118.7163 117.425 116.6543 116.0845 116.4529 115.7091 115.5623 116.3767 115.3465 115.2946 115.2216 115.2378 115.2907 115.4009 115.5435 115.7224 115.9358 116.1758 116.4421 116.7208 117.0136 117.1617 118.2527 118.3763 118.2858 118.39
119.84 118.4203 110.1186 112.8842 109.8711 104.4339 105.4545 110.9713 109.1896 110.1393 107.2292 104.847 113.5162 121.3139 102.1078 126.5926 125.1445 128.4923 122.7994 122.8585 122.6277 122.4891 122.271 114.3534 100.6697 103.1044 115.0004 118.1218 120.6606 117.2766 119.8435 119.2369 119.8306 112.2523 115.2085 96.4246 99.2506 116.0782 117.4675 117.4405 117.0693 120.187 110.8348 114.7397 112.1086 107.9666 115.9147 115.9263 115.855 115.8559 115.9086 115.9985 116.1238 116.2819 116.474 116.689 116.9221 117.1769 117.4474 117.7532 117.8896 118.3303 118.5972 118.82
118.24 119.2342 105.9713 107.6849 113.183 109.4058 109.9421 109.1949 108.4972 107.4602 102.579 103.1679 105.0673 113.9429 122.2116 124.1618 123.4699 123.73 123.2762 122.9725 122.7443 122.3835 123.2632 121.8121 119.1936 119.9758 120.9718 120.9225 120.5391 120.907 120.4775 119.8989 120.0165 123.4813 106.0117 103.9467 118.9685 116.9587 113.9381 117.9983 117.0292 116.7724 109.1092 111.9141 116.4623 116.1204 116.1417 116.5433 116.4288 116.4384 116.4805 116.5568 116.6758 116.8169 116.9805 117.1693 117.3849 117.6123 117.8608 118.1126 118.3696 118.6495 118.9451 119.19
111.36 118.4703 112.6395 102.6125 112.5528 110.5715 108.9761 109.0317 106.6293 105.9589 102.9702 101.8634 111.6939 112.9275 125.4623 123.8797 124.5223 123.5349 123.3331 123.0937 122.9979 122.5867 117.1782 111.9713 122.2967 121.6306 121.342 121.2616 120.916 120.6758 120.4301 120.005 121.4732 104.8187 98.2961 96.0255 116.0574 119.2224 109.2283 116.1621 117.9057 116.7609 105.6611 99.5067 119.0453 116.6961 117.1125 116.9955 116.9756 116.9854 117.0202 117.0948 117.1869 117.3149 117.4637 117.6361 117.8326 118.0383 118.2646 118.4804 118.7955 118.6534 120.8335 119.28
126.71 121.2073 113.5019 111.4137 109.1578 107.0821 109.7111 110.772 104.9062 104.8859 104.2293 110.2138 129.9865 124.9078 123.3822 109.818 133.6357 128.104 123.131 123.2721 123.0628 122.5995 123.858 123.3618 121.9759 121.9555 121.657 121.4578 121.1837 120.8933 120.6448 120.4655 119.8477 121.2905 102.9033 122.2986 118.5837 110.7392 109.9317 114.7957 117.3231 120.9216 107.3021 104.7233 119.0178 117.4796 117.5327 117.5149 117.5007 117.5121 117.5317 117.5944 117.6863 117.7963 117.9283 118.0866 118.2587 118.4442 118.6473 118.8713 118.9239 121.0318 104.5486 119.66
126.85 122.6701 110.6794 111.0451 110.1801 109.55 107.4037 108.4127 105.7593 104.3015 117.4267 121.9982 124.7221 126.9593 106.088 112.1928 124.8849 123.3409 123.6041 123.29 123.032 122.9736 122.5203 122.2516 122.2515 122.2154 122.1712 120.8433 121.1153 121.1657 120.8965 120.9345 122.2338 121.1447 118.7036 120.3923 115.5326 96.4409 93.4687 119.0498 118.7997 117.5604 103.5658 120.4385 117.6582 118.1738 118.0285 117.9928 117.9226 117.8534 118.0278 118.0607 118.1429 118.2515 118.3691 118.5082 118.6707 118.8357 119.0341 119.2184 119.4438 119.3596 116.92 120.0
126.88 113.6978 111.3973 109.8842 108.5434 107.6109 109.8831 108.0248 105.5141 109.7399 113.6012 106.429 112.7414 125.0371 116.8706 107.5479 124.6888 123.9246 123.8139 123.7702 124.4223 121.5503 124.2321 122.9852 122.4478 122.8908 112.4495 121.4878 121.8613 121.6839 121.03 121.1091 114.0535 116.8609 122.0938 119.4524 118.4976 118.4015 119.5431 119.1865 118.3059 119.8692 119.9419 118.3336 118.64 118.554 118.4908 118.4675 118.5401 119.3746 118.3524 118.5411 118.5884 118.6795 118.7882 118.9158 119.0622 119.237 119.3724 119.6141 119.7529 120.2898 120.1523 120.39
118.89 113.7529 109.8075 107.5562 107.6297 109.8715 108.0091 112.1527 109.3786 114.9327 116.8665 107.6954 116.3263 123.334 125.5434 126.2394 124.0952 123.9577 123.6828 123.3628 116.605 117.7589 114.8757 123.1313 122.6213 122.1722 119.2977 113.0216 120.1699 121.5601 121.3636 121.2098 122.101 121.2511 114.4735 118.5528 120.6222 118.5658 116.9365 119.0752 128.523 118.8315 119.2742 119.2038 119.0291 118.9806 118.9057 118.9395 117.9726 111.3908 119.126 118.6484 119.0389 119.0957 119.1903 119.3012 119.4623 119.5301 119.9304 119.6998 120.1461 120.3091 120.6714 120.44
118.89 106.9348 109.1022 112.2245 117.1716 115.2765 105.4888 102.7251 110.6705 107.3344 102.4655 112.3208 116.1527 125.9118 127.7572 123.4212 123.9257 125.5389 124.817 123.8872 114.9093 124.9165 112.4625 122.4191 122.5769 118.434 116.2907 116.7084 122.0378 122.7817 121.7011 121.1965 121.1517 118.4001 99.0181 111.3989 121.4478 121.3352 116.5572 98.7938 123.8897 119.3555 119.5954 119.5269 119.4525 119.376 119.3562 119.5172 118.7869 109.6695 117.7448 118.9638 119.4586 119.4911 119.5822 119.6746 119.858 120.1169 117.3101 120.0104 120.6459 120.4272 121.2828 121.06
108.98 113.4306 111.1549 115.0624 111.0009 111.2455 103.6408 105.9013 103.5333 103.2148 103.8952 104.5183 115.5767 126.6868 128.7381 124.0799 125.4095 117.1736 122.8688 124.7715 125.0697 119.7917 126.026 118.6947 116.5077 106.4545 126.5184 128.0202 116.4178 118.0599 121.8511 121.1714 124.6849 118.4686 110.0903 111.1994 119.374 109.4574 124.2604 120.2392 120.5741 120.0964 119.936 119.9402 119.8526 119.7872 119.5505 119.5487 119.8101 106.4004 119.022 119.0739 119.879 119.8893 119.9541 120.0398 120.2853 121.8308 123.8272 120.7873 106.8061 109.6565 120.3142 121.12
112.45 117.3137 112.7522 110.3289 106.8068 106.993 108.7712 106.208 104.1294 104.5152 105.4399 121.5179 118.0263 125.4869 114.8518 126.3257 116.1574 105.4032 124.1828 123.6015 123.6191 121.7835 106.3753 107.6882 118.2699 114.3469 114.4984 106.6432 102.5495 111.6534 122.8986 120.5899 108.5702 99.1746 104.0841 100.6673 100.9943 105.2428 108.9538 120.7779 120.5974 120.4504 120.3701 120.1593 120.1161 120.0172 120.5315 121.2045 120.0961 119.2576 118.8527 119.9005 120.1971 120.1782 120.3432 120.3425 120.7622 120.5589 114.1578 120.279 114.575 105.8251 119.23 121.46
116.52 112.1232 107.7791 106.3165 107.1114 107.495 106.5661 104.4544 103.7736 104.0695 105.1029 113.666 127.3572 125.335 122.2324 125.4533 120.9842 121.182 126.5436 124.208 123.7613 120.4215 113.9375 118.882 123.3115 123.8229 118.8012 100.0034 120.0847 112.7938 106.9478 122.8155 97.5409 96.756 99.263 99.3413 98.7863 111.9916 122.6842 121.0898 120.9002 120.7811 120.631 121.1085 120.682 122.3528 104.9832 114.4481 120.3629 120.4766 120.6002 120.394 120.5447 120.8273 120.2115 121.1295 120.7258 121.2966 116.087 101.8814 120.7166 120.5131 106.9714 121.75
109.33 115.6679 106.9774 107.6158 105.937 106.3315 104.4921 104.2419 106.2119 113.6398 107.8012 111.3321 123.1652 126.1345 116.219 125.9632 126.1362 125.7134 124.4243 124.4543 124.3489 119.7118 117.9564 123.8837 123.5394 123.1 123.4541 121.8225 121.2276 127.4134 107.4657 101.0749 100.1369 102.9098 102.734 100.2679 118.4107 107.3635 123.1239 121.2634 121.1981 121.2014 121.9631 117.9036 119.9303 115.8414 115.8923 122.5349 120.6862 120.7954 120.7961 120.8434 120.8706 121.3392 116.0399 120.8906 121.172 121.1438 122.4407 99.9866 110.0225 121.6949 121.6935 122.01
108.48 110.1598 108.1039 105.2347 108.403 104.3014 109.1596 111.0267 105.2227 104.2535 104.495 103.4429 125.6603 115.8906 122.4022 125.5508 122.641 113.0116 127.8534 124.4559 124.4164 124.2667 125.4032 124.0721 123.5864 123.7347 122.9958 125.4954 103.5073 114.886 107.9386 109.2353 117.8844 112.7105 100.9708 107.7215 121.9269 122.6444 121.7466 121.6647 121.3051 122.2302 120.8685 123.566 115.9276 120.5219 94.3253 112.6626 120.9402 121.2483 121.1183 121.1359 121.2086 121.2164 121.6829 121.8408 121.4208 121.5223 122.4955 119.9699 116.8951 122.1765 122.1703 122.34
107.8 105.7885 107.0472 104.9066 105.1965 110.5614 112.9045 106.4742 103.7562 104.245 105.0123 115.4383 107.0559 118.008 122.6934 103.4756 106.4338 121.9914 124.5324 121.0305 117.4814 125.7038 121.5675 123.6397 124.0749 123.8378 123.6465 123.5416 123.3312 123.2681 107.5156 100.5401 119.0559 109.9608 110.8918 120.0176 123.0129 121.9667 122.0357 121.8971 121.7565 120.982 112.5626 99.5215 125.1542 123.4729 103.4137 112.5884 121.3486 121.6043 121.4452 121.476 121.5087 121.5734 121.5267 121.4971 121.8198 121.8463 121.6127 122.4707 122.5307 122.2305 122.4405 122.34
105.96 109.9227 111.086 106.9635 113.142 111.8539 109.0216 106.3363 109.727 103.7516 103.4002 101.8398 122.9921 126.9295 111.5328 124.2077 127.3334 115.5982 122.0255 125.9868 125.0275 122.3644 121.6705 103.5377 124.9678 123.1015 123.7583 123.2684 122.8706 118.8613 107.5862 113.4425 123.7777 114.1835 120.3133 125.1282 122.0463 122.438 122.2569 122.1835 121.7316 123.6148 102.4743 99.1776 106.0425 124.0153 120.3454 116.5578 121.7337 121.7805 121.7615 121.7825 121.8157 121.8628 121.9443 122.2934 121.4926 122.423 122.2133 122.2499 122.3982 122.5452 122.6424 122.61
112.33 123.2041 113.2408 113.5481 110.7182 108.1953 109.2426 103.6128 104.3639 104.6829 104.5783 111.5705 122.5262 122.5995 113.0704 113.2591 127.701 116.1326 109.9282 120.9839 124.067 104.0998 102.5724 112.0798 118.3344 116.5903 124.7506 123.8654 112.5929 106.3344 101.8767 126.57 124.1952 123.616 108.3777 122.2162 122.5634 122.518 122.662 122.4157 122.2265 121.8917 111.7192 100.4404 123.3708 112.9527 124.8978 122.6871 122.0668 122.0354 122.0612 122.0775 122.1141 122.1564 122.1934 121.2396 117.9164 121.8896 122.4808 122.5997 122.6803 122.7793 122.8957 122.88
126.78 111.5234 116.6992 109.4216 110.6138 110.6659 108.6864 106.1342 104.7981 104.0139 109.3302 127.3944 109.454 116.3696 122.7991 108.7947 125.4694 124.0901 112.2353 104.9422 112.1213 119.0057 106.6704 109.0521 105.2528 118.2707 124.5823 121.2765 105.7328 108.8673 119.2063 123.7733 124.7098 117.1939 123.7892 123.3787 123.5327 122.9818 121.3069 122.7588 122.3143 122.4689 115.9186 122.3758 122.892 104.5961 109.8739 124.1117 122.3374 122.3237 122.3435 122.3655 122.4039 122.4699 122.5129 123.0835 118.3244 124.6893 122.4146 122.7892 122.9487 123.0288 123.1376 123.14
125.67 110.3408 109.2982 111.4988 113.1116 109.159 105.7481 106.9434 105.5815 107.0763 119.0719 120.545 124.2655 125.8935 119.7594 129.9093 126.9523 124.5997 106.1561 107.2021 103.2096 111.544 103.2851 106.1695 109.4954 124.3873 124.5375 126.655 108.3192 119.1177 121.8499 104.331 118.5518 127.384 123.4164 121.8338 117.9901 122.4061 115.2858 122.9771 122.9794 122.7089 123.3659 122.5284 122.8147 120.183 103.8734 124.0357 122.629 122.5919 122.6303 122.6508 122.6766 122.6734 122.2393 123.3061 113.415 121.129 119.0013 123.1337 123.1935 123.2702 123.3647 123.36
125.67 106.7275 116.9303 111.4201 106.6587 108.5163 105.7797 104.6838 104.7487 107.0428 113.9542 122.007 118.7436 127.7639 101.2814 126.5073 124.856 128.6824 110.1537 111.9475 118.0656 113.9953 103.9663 115.8327 133.0298 119.3016 124.285 120.5479 113.3101 123.7646 126.4033 120.8213 125.4376 123.5266 104.9913 116.9707 113.1645 113.2044 101.3297 123.2083 117.5967 123.0222 122.93 123.09 122.7749 123.722 120.6109 123.0198 122.9015 122.8723 122.9006 122.9229 122.9488 122.9121 123.7323 124.2683 123.7884 124.1284 123.1882 123.3891 123.4389 123.5096 123.6147 123.59
109.1 118.2376 114.1954 108.0517 104.1267 110.0481 118.0827 104.7253 117.9231 103.4587 105.2433 113.1661 115.7567 132.341 121.0428 120.4718 127.1679 120.4188 113.9058 120.942 120.451 115.1399 109.9645 120.6601 126.8563 124.2253 125.6601 120.2616 124.6665 125.2357 124.0108 124.0169 123.4719 125.5721 107.02 103.5146 106.5649 100.6438 115.4617 123.4416 123.19 123.3597 123.3461 123.2431 123.2348 123.1745 123.1969 123.1017 123.1546 123.1484 123.1613 123.1828 123.1968 123.0586 123.8331 103.4648 125.0492 123.2555 123.43 123.5272 123.6672 123.7487 123.8794 123.86
111.53 115.5668 109.8266 107.8796 114.5429 106.1698 127.8654 114.6034 108.6225 109.5125 105.6838 105.2224 110.7931 123.8674 114.2622 120.4698 127.5944 113.147 116.4476 119.2131 127.2901 111.9754 113.852 125.5558 125.6913 125.2783 124.7879 101.5437 126.0522 124.5615 124.4772 124.3791 124.1469 123.692 108.0844 101.8303 99.2974 107.1481 124.0726 123.6683 123.6641 123.6261 123.5592 123.5447 123.4586 123.4486 123.7997 123.5407 123.4023 123.4056 123.4258 123.4454 123.4366 123.461 123.9157 123.0969 125.1536 123.6592 124.1181 124.1 123.9728 123.9227 123.7651 124.09
111.53 111.5899 113.203 103.9617 121.7646 123.2214 115.6919 106.1543 119.1545 107.3366 105.6624 108.5541 109.2436 109.0141 118.3196 114.635 113.2095 117.6301 115.4537 106.0395 120.2492 117.676 125.8436 126.3409 116.5266 123.6898 98.6386 102.6456 107.7313 124.9526 124.6849 124.6232 124.6207 117.9161 99.951 109.9403 111.1388 125.9515 124.233 123.9844 123.9023 123.7703 123.7711 123.6838 124.123 118.7049 119.4999 124.0078 123.6828 123.677 123.666 123.6908 123.7114 123.7238 123.7837 123.8394 120.3526 124.3854 123.779 118.4247 124.4028 124.1783 124.9916 124.32
112.11 112.6182 105.5697 125.8388 127.8006 125.9 123.9263 121.1516 107.955 107.554 106.0166 105.0991 106.5689 114.2079 128.3886 125.0055 121.3456 120.6073 115.286 114.3288 110.8299 103.3669 116.8065 107.2603 111.7788 117.1458 95.5622 117.1673 125.2203 125.3904 124.8724 124.8053 124.4358 120.4539 123.074 127.2928 124.5955 123.5966 122.8196 124.1359 123.9834 124.7082 123.5683 124.1334 123.9546 124.5053 124.1001 123.907 123.8759 123.829 123.9069 123.9294 123.9477 123.9747 124.0244 124.1605 122.9698 124.0345 125.4886 123.5344 124.8652 124.3856 117.8981 102.53
125.31 126.8834 127.1407 128.3083 127.8732 127.665 129.4213 119.1302 107.3606 107.9092 104.8545 108.6161 117.8799 114.875 127.3453 121.3961 125.4077 121.7814 116.9441 119.0522 103.0077 114.1887 103.1444 118.7237 125.9678 121.2264 112.2566 105.1151 123.9682 125.1572 125.0766 125.009 124.6335 125.1019 124.7039 123.7385 126.4274 116.8538 115.2203 124.6079 124.0833 124.4334 105.8855 126.1041 124.2206 124.3408 124.1282 124.0285 123.8868 124.1704 124.2121 124.1823 124.1917 124.1992 124.2387 124.2729 124.4719 124.5458 114.7442 124.8861 126.3133 124.6711 113.2992 119.5
128.43 128.311 128.2726 127.7705 126.7181 125.1328 125.4453 111.1233 109.4465 107.3273 118.1287 111.9274 116.5375 113.0552 123.1696 119.3765 121.8508 119.1839 119.0948 124.2296 124.4065 109.307 106.3277 129.5889 125.5694 127.4066 121.0209 123.0308 126.3429 125.4737 125.1333 125.1394 125.1439 124.9801 124.8991 124.8388 121.1968 102.0599 116.2043 124.6678 124.5723 125.3006 103.3585 118.1683 124.2406 121.8429 124.442 124.0856 120.8135 112.0856 124.4783 123.9816 124.4006 124.4818 124.4631 124.4951 124.5947 124.9533 123.1664 124.3053 122.9645 126.5984 99.2168 102.94
128.56 128.4125 128.365 128.3671 129.1426 113.7778 112.6591 123.8173 111.5579 122.2109 127.5456 115.9125 120.9684 104.3276 119.2063 103.447 107.8062 105.4925 117.9478 118.6836 120.7991 125.0867 125.8027 127.3807 126.3956 129.5292 104.6685 126.2957 125.3389 125.1928 125.9776 125.2626 125.2759 125.2119 125.1202 124.9742 125.0516 101.8288 115.1681 124.8125 124.4111 127.059 121.7189 124.992 123.3048 126.4371 124.4664 123.1544 100.0732 114.1027 125.4143 120.6526 124.8245 124.6002 124.7418 124.6835 124.7698 124.831 114.9178 125.0846 125.4053 134.949 102.4493 103.12
128.59 128.9698 128.5582 128.3743 128.5737 122.791 122.5521 127.7575 128.4052 123.342 112.3463 114.669 124.3577 118.0761 105.4826 114.0357 115.866 117.7362 118.3263 130.0271 126.3763 126.2398 126.6219 126.0874 126.1352 121.3622 106.8143 125.1806 123.8404 124.6862 124.0732 125.5397 125.4539 125.3909 125.3092 125.0195 125.7102 111.3147 127.0187 124.9367 125.0117 122.8053 114.671 125.7502 126.4828 125.1004 124.1924 108.0831 111.336 126.4661 124.5359 125.4196 124.8913 125.0837 124.0665 125.3117 124.8749 125.0103 124.3406 114.9849 123.5179 111.1573 97.7543 103.34
130.45 125.33 128.54 128.45 128.27 128.19 128.09 128.0 120.6 122.1 110.15 125.68 125.87 105.34 123.66 122.81 122.82 116.1 126.84 126.75 126.64 126.55 126.43 126.43 126.22 126.25 118.71 118.71 113.2 123.35 125.68 125.72 125.61 125.48 125.5 125.38 125.41 125.28 125.14 125.16 125.19 125.04 125.05 125.08 124.9 124.92 124.93 102.94 124.94 105.77 124.94 124.93 124.91 125.08 112.13 125.05 125.03 125.18 125.16 117.87 128.64 112.9 103.37 103.34
