124.7800 114.4400 118.0000 118.6100 113.6200 113.0200 112.4100 106.0200 111.0800 111.0800 105.7200 105.6300 108.0500 105.4400 105.3400 121.1700 114.6300 106.9200 106.9200 112.2000 118.3100 117.9300 121.5300 115.8200 109.5600 104.2000 112.3000 116.6300 108.8900 120.9400 103.6400 108.9300 125.5500 112.0400 112.0400 122.8600 125.1900 107.9600 125.0800 125.1100 134.3800 124.9900 124.8300 124.8500 124.8700 124.8800 124.7100 124.7300 124.7300 124.7400 124.7400 124.7400 124.7400 124.7300 124.7200 124.7000 124.8800 124.8600 124.8400 105.8000 109.9100 125.1000 125.1000 125.0700
124.7800 118.4803 115.5912 118.9493 115.7012 113.6051 112.6103 112.1974 111.6507 108.8755 106.8640 106.0863 113.1487 107.7143 113.5567 120.2369 116.8155 115.0107 117.3119 112.2828 112.4673 116.7866 116.2673 115.9014 110.5478 104.7282 106.6872 114.4509 107.9899 110.9653 103.7910 106.0041 104.5405 105.7299 111.8399 124.1409 117.0952 117.6979 125.9757 125.2255 123.9154 125.6737 124.7793 124.7715 124.6919 124.7329 123.9566 121.3527 124.7839 124.5251 124.5840 124.5864 124.5968 124.6029 124.6217 124.6398 124.6301 124.8151 127.3533 103.3389 115.8904 120.5162 126.2725 125.0700
112.2200 123.9059 113.4865 115.2022 120.0333 115.8888 111.0290 111.1304 111.4533 105.2269 106.2460 104.4604 104.0385 108.1238 111.2235 115.1851 117.9707 116.6101 112.2483 108.8796 116.1115 108.7828 112.8067 115.7382 113.3637 106.0319 105.2143 110.2446 112.0002 114.1924 103.4577 109.1104 126.3178 115.4292 108.4613 118.3319 114.1622 129.0266 124.5411 124.6475 124.7898 124.5464 124.6588 124.4859 124.3984 125.0926 123.4720 121.0971 124.4653 124.2269 124.3690 124.3710 124.3711 124.3887 124.3987 124.4617 124.5229 124.3831 125.4918 102.8236 109.3819 101.6671 126.4287 124.8700
112.2200 111.0028 117.1458 111.7027 112.4935 119.6397 115.6509 110.9499 111.2743 108.4061 105.9624 105.9244 105.4438 109.8962 112.0271 108.7219 114.0445 118.9618 114.9504 107.7434 118.7516 111.4600 114.1898 118.2027 107.7114 107.6721 105.0785 114.2125 109.9811 110.5141 102.9812 104.1267 127.1360 111.1426 107.3640 126.2910 129.5681 122.7995 123.9175 128.8811 124.2464 124.4012 124.3212 124.2674 124.0644 124.9263 110.2220 114.7531 124.7489 123.6876 124.1496 124.1425 124.1394 124.1526 124.2080 123.9527 124.5506 124.3866 110.8050 104.7435 110.4571 108.2791 126.7805 124.6700
123.4000 112.8675 116.3288 119.1519 118.8567 111.9218 117.2401 116.1937 110.3668 109.8123 109.9853 103.9578 105.3675 105.0948 105.9993 111.9358 110.4055 116.9948 115.7642 111.0909 117.2204 118.9941 113.6956 118.2715 117.8335 118.0083 106.3826 104.0996 104.8887 107.7777 110.0998 103.1962 122.6734 125.5961 115.5493 125.3969 124.3466 123.5692 125.0168 124.2549 123.8744 124.1679 124.1251 124.0396 123.8723 125.2427 116.6002 114.5843 124.8815 123.2167 123.9232 123.9070 123.9035 123.9488 123.7009 125.0386 123.1358 124.9866 100.2734 120.3594 111.5025 118.2358 124.4225 124.4600
112.8800 119.0144 116.3253 117.6864 113.1427 114.9533 109.4086 113.8506 117.2742 113.3426 109.4414 108.3257 104.8265 105.0068 104.1332 110.7112 110.2403 109.2057 117.7475 110.7346 113.9017 114.3293 113.5385 109.4691 109.8234 115.2674 111.0368 107.1760 117.4446 124.0818 127.5878 116.1545 126.2215 123.9117 124.3615 125.0632 124.2828 124.3664 124.0485 124.0763 124.0713 123.9436 123.8724 123.8276 123.6831 123.3115 122.8495 107.5680 106.8018 125.0264 123.5991 123.6406 123.6467 123.5631 124.6521 113.5624 123.2700 102.3167 114.4718 122.1931 122.1466 131.1423 123.6774 124.2400
122.3500 117.5338 123.7008 116.0452 115.2198 116.5998 119.0236 113.3762 111.2491 119.2056 112.4248 106.4760 104.7298 104.5660 107.7747 106.0926 106.7381 108.1100 115.8435 113.4342 111.3584 116.0742 110.2326 111.8116 118.5422 117.5410 116.2724 109.8382 113.9428 120.5203 125.7349 124.6862 123.6660 110.7997 122.0890 124.1293 124.0844 123.9687 123.9399 123.8375 123.7531 123.7052 123.6709 123.6300 124.1772 125.2665 122.5514 109.9859 123.3485 120.1271 123.4982 123.4852 123.4477 123.2913 124.5146 123.4498 113.1760 109.1091 118.6822 123.2108 118.1502 123.3598 123.8970 124.0200
122.1700 124.6392 125.8786 119.9722 118.6960 108.5750 111.1077 118.1411 114.2362 109.8357 118.2667 107.9435 105.2862 106.5841 103.3735 107.4400 104.1692 116.6146 107.1432 108.9323 113.5542 115.9026 113.1019 109.7745 117.3127 111.1758 109.4882 113.8492 120.4848 125.2138 127.2415 125.7875 123.8870 129.1168 124.7142 123.7789 123.8807 123.7747 123.6826 123.6095 123.5246 123.4677 123.2440 123.4206 124.0994 107.3761 125.4178 117.9578 117.6131 123.3859 123.0444 122.7597 123.0520 124.6523 105.5786 124.9289 125.2538 120.8147 124.0097 123.6229 123.6021 123.4803 123.5202 123.8000
123.4600 124.3312 122.1631 119.5255 121.1485 117.6585 110.1046 108.3699 112.1483 115.7990 111.9286 114.3147 108.5279 104.6410 107.1068 110.1416 104.3509 103.7402 110.0635 107.8710 103.6141 116.2675 113.9626 113.0697 119.5338 123.9970 121.6454 122.4855 122.1136 117.0663 124.5559 123.9822 103.1120 123.2745 124.1614 123.7956 123.6352 123.5538 123.4611 123.3673 123.3377 123.1462 123.7817 122.5189 124.1567 120.5414 122.3931 123.5050 124.1020 122.8495 123.6172 125.0282 123.3336 123.9537 117.3525 123.1072 122.7150 123.1578 123.0586 123.1126 122.9684 123.9947 124.0973 123.5300
106.0700 117.2099 116.1338 118.5351 117.6179 119.0186 117.7271 107.9854 109.3375 112.1516 114.2129 108.0565 114.3547 109.0857 113.1020 108.8159 104.7128 101.6569 103.4578 104.1761 104.3483 112.8163 110.2584 111.9383 112.4381 122.6290 133.4638 131.7130 122.8107 128.3793 123.9871 123.7492 124.2437 125.0717 122.8899 123.3547 123.5135 123.3014 123.2224 123.1269 122.8774 123.3500 125.1872 105.9628 117.1156 123.1914 122.7583 120.9704 122.1279 122.1466 122.3402 108.5706 123.1781 122.3370 119.5748 122.5704 122.8728 122.8027 122.8643 122.9822 122.7660 122.8332 104.3077 123.3300
123.0800 124.5740 106.6203 112.2020 117.6582 116.5774 118.6747 117.9776 117.3660 109.5115 107.6620 116.9125 110.5674 110.4141 113.3844 106.8275 102.9750 118.2310 105.8562 107.0881 107.2771 104.5609 105.7887 108.0364 106.9950 126.9455 123.9405 122.9128 126.0115 123.6798 123.8922 123.6156 124.4657 123.9289 130.2728 123.4365 123.2076 123.1113 122.9669 122.8697 122.4507 122.6595 106.7950 119.7484 105.2888 123.6178 122.5198 122.5072 122.5847 121.9166 122.0499 121.7026 122.4936 116.4851 120.6551 122.0523 122.3966 122.5056 122.5895 122.6281 124.0043 120.7719 121.5753 123.0800
115.4200 119.4030 123.9059 109.6996 117.7906 116.4211 116.4149 115.7810 118.2531 121.0581 106.3710 108.5802 114.3599 112.6075 112.7676 113.8378 102.3410 102.3486 105.3878 111.6687 117.3517 110.1879 108.9934 109.5006 117.0324 125.3515 124.8682 124.0849 124.0025 123.8723 123.5403 125.5851 106.4944 118.7555 129.4669 121.7508 122.8821 122.6142 122.9271 122.6483 122.1202 123.0437 99.1382 100.7897 91.6213 119.9421 122.1240 122.0816 122.0208 121.5785 123.3450 105.3179 124.4767 113.0100 122.0877 121.1690 123.0062 122.4238 122.2937 122.4189 122.4412 123.6103 122.4945 122.8300
111.0700 116.9861 115.4837 117.1611 117.3998 117.1022 112.2044 116.2441 114.5745 117.8417 113.7223 111.6506 103.6938 111.3867 113.6896 111.6864 108.7546 105.0211 103.2418 105.6936 103.8809 108.3751 111.7566 112.0852 130.1357 124.1620 123.5662 123.9185 123.7212 123.6844 122.7444 110.7756 115.7041 119.3973 122.3462 122.8914 122.7118 122.9475 116.8591 122.1171 121.9042 124.7129 88.3721 99.7173 109.8390 120.8370 121.8428 121.8129 121.7670 121.5726 121.2819 120.9644 121.2877 119.8521 122.2516 107.1529 122.4108 121.9122 122.0180 122.1038 122.3993 121.9432 122.4317 122.5600
111.0700 116.4894 120.3198 116.1573 116.2829 116.8580 112.6585 110.7317 114.3420 116.7212 117.4948 112.1273 110.3468 107.2793 107.3041 111.4178 109.1744 106.0827 103.8007 104.1739 101.4620 111.5469 122.3219 106.4776 121.6677 120.1085 124.4217 124.0648 123.7470 123.5115 124.6011 110.6936 104.9621 120.1166 122.7731 122.6012 122.0559 122.0817 103.6782 121.8599 122.3552 118.2958 114.6560 106.9697 103.4557 123.1252 121.3824 121.4760 121.4514 121.4565 121.5071 121.3601 121.8019 121.6212 122.7143 122.8598 119.7591 121.7309 121.6658 121.8633 121.9272 122.0855 122.1588 122.2900
105.6800 117.5619 121.3518 111.3495 116.4091 112.6984 114.4972 116.0635 113.5398 112.4591 117.9794 113.7549 112.0601 114.0734 105.9985 106.0827 104.2344 104.8789 105.7302 109.3400 103.4001 119.4652 114.4192 116.5490 122.4596 123.9315 123.4576 119.9823 121.3966 123.5965 122.0816 119.8829 124.1608 126.6923 122.3091 122.4264 121.9821 118.5699 112.0167 121.6382 121.4919 122.4880 116.4571 113.1456 115.7995 121.6777 121.2917 121.1585 121.1312 121.1051 121.1229 121.1275 121.0849 121.0470 120.9147 121.0598 121.1414 121.4720 121.4143 121.5410 121.6563 121.7562 121.8348 122.0100
105.6500 121.5468 119.6439 118.0126 114.2313 114.0061 115.1725 111.6453 112.7080 111.9336 110.9013 117.9626 117.0311 115.0500 110.5203 109.3198 103.1150 103.3452 103.9235 110.5456 105.0636 112.9562 114.8123 113.8289 117.9084 123.8332 123.4570 123.1400 122.7218 123.1264 122.8922 123.3206 122.2059 122.9032 122.1708 121.6359 122.2229 124.0324 118.7481 123.3033 121.3125 121.6036 120.2759 122.0364 122.3673 120.7556 120.8933 120.8030 120.7924 120.7710 120.7426 120.7526 120.7819 120.8338 120.9110 120.9349 120.9887 121.0448 121.1490 121.2434 121.3552 121.4671 121.3785 127.2200
117.0100 117.2947 118.7328 120.1919 116.9246 105.0763 105.3723 113.0351 110.5349 112.1640 113.5153 116.9599 106.9818 113.6033 114.2608 111.5743 107.6939 101.5929 112.7675 110.6286 119.7633 111.5917 120.3629 123.3694 124.7772 123.2347 123.3759 123.2140 122.9391 122.8979 122.7701 122.4967 122.3172 121.9962 122.6293 123.1597 112.5338 119.6996 116.7614 121.2637 119.2733 121.0841 120.9535 120.6830 120.5312 120.6572 120.5625 120.4870 120.4447 120.4261 120.4205 120.4218 120.4351 120.4699 120.5034 120.5721 120.6473 120.7342 120.8256 120.9326 121.0503 121.1710 121.1227 121.4200
112.9600 112.0588 117.2618 107.4346 118.9526 113.2255 115.5389 115.2648 113.0152 110.2958 110.4206 116.0634 116.3820 103.3909 112.8857 108.0109 110.8833 104.4536 107.0087 101.9864 101.4491 125.1564 124.5322 118.4114 112.0928 112.8267 113.6034 124.5318 122.2396 122.6944 121.6234 122.4677 122.0373 121.7989 123.6936 112.1692 103.4830 107.2551 113.1464 114.2420 105.8397 120.7405 119.8336 120.2088 120.2043 120.3012 120.1641 120.1282 120.0842 120.0631 120.0485 120.0531 120.0702 120.1096 120.1571 120.2217 120.3045 120.3933 120.4993 120.6155 120.7375 120.8639 120.9918 121.1100
112.3900 112.3780 111.7632 111.5088 110.5366 106.5508 112.4179 113.5915 111.4639 109.8142 105.8789 109.2794 110.9238 111.0204 107.8139 105.8931 105.4301 108.0600 115.2895 111.0519 101.2201 108.7803 122.0638 122.8958 111.0532 112.5656 111.0039 110.4803 111.6226 121.4492 120.5534 122.2097 121.7534 121.3773 122.4672 115.9469 107.4676 108.5317 117.4591 118.6671 102.0697 106.7901 119.4252 121.1766 120.8437 119.7602 119.9145 119.7339 119.7123 119.6792 119.6695 119.6740 119.6955 119.7320 119.7877 119.8613 119.9438 120.0438 120.1540 120.2815 120.4162 120.5646 120.7172 120.7900
113.0300 112.7971 112.2795 111.8104 111.2032 110.5640 108.2310 108.0311 111.5775 111.7884 111.6545 111.2080 109.5880 109.5629 111.9869 110.3072 105.5777 107.6500 111.3329 112.4393 109.3468 118.9694 117.4489 124.2194 114.1701 111.9805 98.6896 106.4537 114.4026 110.1831 110.0978 122.0324 121.8880 122.0760 119.1068 106.7431 110.0395 105.6186 102.8382 113.7261 114.4218 117.9950 122.2007 120.5768 104.3042 121.8728 119.2740 119.3740 119.3137 119.2899 119.2688 119.2739 119.2983 119.3406 119.4039 119.4781 119.5719 119.6725 119.8002 119.9209 120.0286 120.2179 120.5931 120.4400
115.2900 111.3693 112.6919 111.4599 111.6922 113.6859 109.5485 109.5400 108.7474 113.9459 113.4446 113.8205 107.8612 108.6951 108.3282 109.4003 112.9027 106.6160 114.9767 122.5422 123.5501 123.9042 123.9775 123.0245 125.6320 114.2590 100.8256 107.8843 108.9339 109.1716 119.7380 118.4920 121.3462 118.5149 105.1451 104.0042 102.0088 105.8456 107.1127 101.8840 111.0846 97.1271 99.0781 105.5118 119.9677 108.7214 120.3150 118.6893 118.8909 118.8775 118.8580 118.8574 118.8886 118.9329 118.9973 119.0834 119.1711 119.3361 119.4523 119.6404 119.7138 120.4633 118.8002 120.0800
112.6500 113.3750 113.7123 110.0814 114.6107 109.4132 109.3976 108.6065 108.4848 113.6042 107.8674 115.4524 104.0348 110.3987 103.7761 105.5245 109.1884 103.4568 110.0120 116.4464 124.4052 123.8607 122.8522 123.8578 114.4503 100.2147 113.8822 102.5612 109.0975 107.8522 107.3450 105.2153 103.9612 104.6836 103.3250 104.0817 101.2155 110.0566 104.0483 102.4180 123.5669 120.1481 97.5251 98.7159 117.1840 91.3516 119.6039 118.2391 118.5018 118.4440 118.4189 118.4271 118.4512 118.5052 118.5796 118.6842 118.8188 118.6151 119.0887 118.9228 119.3123 119.2789 115.3481 120.0300
105.1200 112.7329 112.1594 109.3788 115.0384 108.6581 109.4638 108.8011 108.7878 107.9293 107.8553 106.1173 108.4882 110.5199 105.4378 107.1991 105.7736 114.7892 118.4071 113.4533 125.8444 123.2241 123.5624 114.5644 97.8517 103.5321 100.4674 104.5301 120.9436 114.0467 107.0521 105.3355 105.5691 106.0448 101.0434 113.4320 113.8305 109.3903 102.1394 98.6544 107.4313 99.2896 94.9416 97.9345 107.1870 107.8474 116.0583 117.9719 118.0106 117.9788 117.9622 117.9604 117.9970 118.0507 118.1028 118.0885 117.8708 120.0952 117.1933 119.4502 119.9402 119.7380 119.3882 119.7100
112.4200 102.1280 109.9916 120.0365 117.6983 109.4343 109.8212 107.5062 108.6735 106.8180 108.0844 107.8753 107.0698 106.6407 109.2771 111.4483 112.1084 116.6685 117.1908 121.5828 109.9581 124.2069 125.6776 104.1431 102.1584 97.2661 108.7537 110.5425 105.3113 123.6041 104.1891 108.3487 108.3196 106.9606 102.7444 115.2849 103.0009 113.5945 110.5819 98.1336 106.7098 119.7479 100.4544 98.3214 120.0618 114.0283 111.1536 118.1296 117.5364 117.4938 117.4731 117.4823 117.5191 117.6135 118.0204 118.8278 119.6840 102.0343 107.3520 118.5391 118.7690 117.7215 119.1816 119.3400
113.7400 114.6948 108.7273 114.8668 113.8033 121.1771 109.2845 110.0582 109.0876 106.4244 108.2243 105.9781 107.3297 104.0094 103.2109 103.5948 111.4397 119.7454 117.8031 123.6421 115.0142 124.1621 121.9916 97.4530 99.2339 116.0691 110.9120 110.8263 122.1208 122.2989 109.2698 105.1169 106.9211 105.6311 102.4650 101.3603 101.1135 118.4487 93.3130 96.7732 96.2193 99.6821 111.2332 108.5570 119.4332 115.5218 117.5613 117.5005 117.0395 116.9815 116.9591 116.9716 117.0065 117.3529 118.4376 100.7279 109.2006 100.5459 120.7689 117.7854 118.4139 117.9879 118.7004 118.8400
112.8700 114.0595 112.9170 110.5953 119.7901 111.1028 109.8191 109.5397 110.3234 118.4617 106.5531 106.4442 105.6799 103.1331 101.2646 113.0336 107.2148 108.5351 113.9519 124.9425 123.6151 122.6619 123.0315 118.1206 113.5450 103.9454 103.4764 108.3019 122.9271 120.5533 119.5034 116.3926 102.9221 104.3798 103.4292 97.4980 98.1036 115.2257 111.9904 107.1768 95.5135 110.0725 114.5420 119.3971 117.0374 116.8621 116.6193 116.4216 116.4963 116.4418 116.4101 116.4248 116.4590 116.3781 118.3936 116.3008 110.5538 103.8428 117.8493 117.6844 117.8680 118.1006 118.4067 118.4600
120.6600 109.2823 111.2534 110.8962 111.5643 109.2160 108.8383 102.8741 114.9779 117.3811 110.7454 107.0832 103.8708 106.1356 102.4933 113.6867 103.3274 102.5442 110.3348 122.8838 122.7675 121.9135 125.0198 107.9073 124.7697 120.0776 118.2837 108.3032 120.4465 120.5199 120.5353 121.6634 99.7218 100.7228 104.7270 100.9225 97.0369 100.2043 108.1502 105.0652 116.1221 116.9411 117.2603 116.5731 116.5945 116.3367 116.1998 116.0839 115.9334 115.8587 115.8341 115.8399 115.8891 115.8752 115.7582 116.1327 117.5919 121.2526 115.5585 117.1743 117.4391 117.7167 118.0088 117.9900
120.4200 120.4319 116.0059 119.1965 118.2813 109.6340 108.0796 107.9181 108.5506 107.9099 105.9825 107.1014 105.1655 107.1329 103.0835 101.4007 118.2290 103.8507 112.4416 110.9986 125.5672 112.9956 117.4974 109.0484 121.8855 99.5332 116.2865 121.0226 121.3429 120.4141 120.2470 120.0667 120.0919 108.2357 97.2530 95.8555 100.5556 101.1443 120.1520 115.8531 118.2739 116.6130 116.4623 116.3386 116.0331 115.8053 115.6077 115.4373 115.3201 115.2389 115.2016 115.2158 115.2714 115.4172 115.5530 114.6080 114.8002 115.3506 116.6090 116.6897 117.0132 117.3150 117.6287 117.9000
112.5500 114.1812 119.7644 118.7012 120.0392 112.0172 110.5792 109.2833 109.0504 106.8221 103.9980 103.1765 102.5131 114.7095 101.9167 102.4147 107.0762 107.2227 124.0376 117.9499 113.8084 112.0241 109.8463 109.9258 122.7494 121.4134 116.0998 121.4219 120.5546 120.3913 120.0612 119.7115 118.9833 115.3692 101.5709 109.5794 105.6349 104.6264 116.1572 117.0118 116.9115 116.3766 116.0739 115.7720 115.4851 115.2243 115.0011 114.8134 114.6657 114.5690 114.5361 114.5459 114.6204 114.7317 114.7776 115.1981 115.4614 115.6976 115.9236 116.2514 116.5784 116.9078 117.2554 117.4900
120.7400 116.7209 119.7323 109.1000 110.1657 109.4049 108.3397 108.5743 107.6992 111.8567 103.1791 105.0217 102.0695 101.5509 119.3505 110.2595 112.1118 107.2187 103.4294 121.4783 123.1709 117.9583 106.9962 112.9161 108.6198 109.4056 120.3797 118.9572 121.0323 120.3319 119.7366 119.8865 120.0615 116.1062 112.0225 109.5462 96.2617 109.6834 98.5781 107.7921 117.5087 116.0844 115.5805 115.2332 114.9055 114.6129 114.3446 114.1253 113.9574 113.8489 113.8042 113.8180 113.8967 114.0424 114.2734 114.4627 114.7643 115.0810 115.4062 115.7668 116.1258 116.4960 116.8660 116.9500
118.6800 117.9014 119.4318 109.9786 110.8871 110.8512 109.5387 108.6415 108.2770 107.0491 103.9003 102.9537 104.1136 101.4547 116.1158 109.0165 111.0023 113.0285 113.5529 122.0422 122.4285 125.7215 102.7335 121.4588 112.4146 121.4160 105.7147 107.8586 118.5024 117.7076 120.9347 115.0074 117.9693 93.7028 100.2746 111.6044 119.7936 111.2123 113.9120 109.7548 111.2396 115.6087 115.0200 114.6717 114.2980 113.9551 113.6514 113.3929 113.1939 113.0631 113.0093 113.0230 113.1272 113.2922 113.5135 113.8070 114.1379 114.4902 114.8711 115.2682 115.6759 116.0778 116.4872 116.8800
116.6900 115.8894 115.3684 113.0915 108.3691 108.5974 111.3615 109.4557 108.6176 107.4858 109.5395 103.2422 109.6791 102.7401 110.0826 101.3342 107.8847 115.0516 123.1925 114.7598 111.3829 114.1730 107.6482 101.1613 122.5795 110.9284 110.3508 116.3816 104.6674 104.4899 116.1321 101.0791 94.6094 102.0803 96.6173 105.3853 114.5451 117.4759 116.4640 116.8285 115.8274 114.9455 114.4687 114.0869 113.6598 113.2585 112.9022 112.5946 112.3620 112.2027 112.1287 112.1499 112.2756 112.4683 112.7541 113.0844 113.4670 113.8802 114.3100 114.7537 115.2108 115.6618 116.1078 116.2500
117.0100 116.0705 117.5465 113.7853 115.4491 114.3409 112.4716 107.8937 111.1731 110.4119 107.4562 105.2012 102.0863 103.1706 113.2989 114.7829 102.4014 121.6853 117.4244 99.5325 105.7802 108.8240 107.9628 101.6318 116.9751 108.4074 122.9572 121.6829 114.2475 101.1422 100.8289 99.8797 98.5999 98.1115 96.5802 110.2975 93.9902 117.1846 115.6270 115.2980 115.1001 114.5317 113.9757 113.4874 112.9865 112.5235 112.1024 111.7328 111.4354 111.2430 111.1583 111.1878 111.3311 111.5812 111.9215 112.3179 112.7650 113.2407 113.7339 114.2426 114.7456 115.2431 115.7311 116.2500
118.8800 117.4803 114.6820 110.3215 109.3345 108.4412 109.4239 108.2565 111.0369 104.6697 103.4878 102.1483 106.4877 105.0276 100.8056 110.7006 113.6866 115.3935 121.0706 111.7457 110.0456 120.3167 124.8173 111.0190 114.0452 126.5955 120.2630 120.0987 124.5022 103.1211 114.5511 110.4898 97.8066 98.7370 96.9642 91.8647 106.5246 117.0453 115.6572 115.1759 113.2334 107.2721 114.2759 112.7698 112.2832 111.7353 111.2278 110.7786 110.4119 110.1693 110.0554 110.0939 110.2913 110.5743 111.0634 111.3632 112.0443 112.5781 113.1520 113.7260 114.2830 114.8344 115.3650 115.6100
108.9600 111.4523 109.5260 110.0878 111.8909 109.8980 109.2658 108.2842 106.9365 105.2511 102.4603 103.4736 113.9823 116.6033 102.9452 115.5118 121.0654 120.3393 123.5502 124.5753 120.2800 117.5277 121.1057 122.1168 123.4668 124.7333 122.9741 121.7229 103.9641 104.4087 121.2598 120.6364 112.4753 94.2587 94.2152 92.8769 98.9820 117.1814 115.3774 114.7379 112.4791 108.4671 113.1794 112.1712 111.5611 110.9171 110.2909 109.7282 109.2685 108.9463 108.7981 108.8539 109.0966 109.7123 109.7457 111.4845 111.1601 111.9234 112.5580 113.2081 113.8271 114.4305 115.0116 115.6100
120.8400 118.1558 107.2774 107.1024 106.2599 106.8623 107.1417 108.5411 105.7985 103.6489 104.3237 103.1072 116.3748 114.7616 99.1072 105.7306 107.4382 115.0325 121.9527 121.6257 122.3948 122.9841 121.6769 121.2452 112.0563 105.5145 105.5150 104.4245 114.8842 114.1646 119.0857 118.1521 118.5220 113.4294 112.8933 112.0693 104.4585 113.5938 114.7945 114.3971 113.7740 113.3501 112.3109 111.6014 110.8460 110.0525 109.2744 108.5771 107.9730 107.5321 107.3288 107.3956 107.7471 108.3260 104.2361 108.1910 110.5325 111.2236 111.9766 112.6973 113.3886 114.0549 114.6787 114.9500
109.5900 111.5350 109.9770 108.0741 108.0739 107.8965 105.2172 105.6394 103.7845 102.8258 102.9105 101.4809 118.6306 107.5862 120.0380 106.5112 117.4672 122.2939 121.3397 122.5259 122.2261 122.1664 122.6776 121.5472 122.5857 96.1448 111.3169 116.3718 120.2720 120.1099 118.8451 118.5868 118.0438 109.3485 99.2384 115.0324 116.7839 114.4253 114.6397 114.0362 113.3405 112.5530 111.7572 110.9573 110.0458 109.1193 108.2361 107.2955 106.4682 105.8512 105.5645 105.6640 106.1333 107.0514 107.6544 108.8598 109.6700 110.5488 111.4090 112.2222 112.9836 113.7064 114.3723 114.8400
112.0300 109.3838 108.5630 108.4079 108.8450 108.9194 107.0097 107.0537 104.3377 102.9109 102.2073 117.7052 106.3303 124.6757 104.8611 114.2219 134.9828 124.9507 123.1956 111.7274 122.2546 123.8455 101.9505 116.1324 121.5342 116.1781 120.0103 120.2561 119.6612 118.9636 118.5468 117.9890 117.3534 119.8295 93.6095 113.1677 115.2797 115.0188 114.4091 113.7357 112.9925 112.1947 111.3199 110.4184 109.2090 110.1675 106.8944 105.9218 104.7400 103.8065 103.3383 103.5023 104.2768 105.3093 106.5624 107.6964 108.8499 109.9034 110.8787 111.7821 112.6185 113.3880 114.1242 114.7500
110.0400 109.1727 108.5912 108.4419 108.4075 108.2629 106.2884 106.1587 103.3771 102.6215 112.0877 113.0124 100.3304 111.8780 107.8123 100.0148 118.8043 120.7411 123.1149 111.5077 117.0206 123.5179 101.1855 125.3677 103.5172 124.8056 116.1597 120.0956 119.3831 119.0372 118.2942 117.6501 118.0455 116.8340 116.4876 116.4886 115.4987 114.6724 114.2344 113.4928 112.7002 111.8356 110.8935 109.8503 108.6511 107.5116 105.9403 104.3692 102.7070 101.1878 100.3728 100.7058 101.9246 103.6041 105.2234 106.7373 108.0974 109.3189 110.4187 111.4087 112.2965 113.1045 113.8727 114.1900
109.6000 108.9190 108.8643 108.5978 108.3500 108.3925 107.8591 106.8107 103.9801 102.6762 100.6173 118.6116 106.4929 113.8074 110.5210 122.0390 123.0050 123.7792 107.9830 124.4222 121.6923 118.6289 101.9272 121.8535 105.1504 113.8023 124.4338 120.6851 119.4073 119.0983 110.9211 96.7229 102.9410 118.0053 116.6717 115.8140 114.7647 108.2601 114.2242 113.1816 112.4705 111.5614 110.5494 109.4174 108.1556 106.6518 104.9120 102.8555 100.3935 97.6813 95.5754 96.4260 99.1598 101.7348 103.9807 105.8681 107.4620 108.8366 110.0373 111.0916 112.0647 113.1328 112.5663 114.1200
107.9400 110.8519 109.6160 109.3730 109.1651 108.9271 109.0587 105.8754 105.3403 103.5266 102.3113 119.1273 111.0774 126.1346 121.3185 110.2467 123.7139 123.0153 117.3226 124.9484 102.9267 120.0444 124.0151 123.4938 108.6778 116.4112 114.5028 124.8656 118.4073 118.8683 119.2691 120.6503 111.6484 118.3636 115.8599 116.0460 115.4079 115.1981 114.2380 113.1411 112.3342 111.4211 110.3645 109.1249 107.7266 106.0850 104.0837 101.5326 98.1196 92.5318 88.8461 90.1112 95.8297 100.0388 102.9806 105.2050 107.0017 108.4983 109.7811 110.8725 111.4908 117.6717 105.1785 97.2500
124.0400 117.0081 113.4422 111.9002 113.0009 112.0212 110.5813 107.0059 113.7953 104.7573 110.5036 112.9312 114.0280 124.1072 123.4186 125.2490 123.8217 122.6289 118.3400 116.4901 113.3249 119.9586 115.8506 119.9626 107.2663 124.5391 97.0799 114.2680 113.4221 118.5162 118.3450 117.4234 118.2175 118.1487 116.6318 115.8893 115.2712 114.4371 113.7792 113.1170 112.2512 110.9900 109.9689 108.9200 107.5269 105.8427 103.6802 100.7988 96.6256 88.6072 84.8284 86.1435 93.1613 99.0547 102.4490 104.8792 106.7745 108.3338 109.6543 110.7745 111.7549 112.7307 114.7701 114.0400
124.0400 118.2721 113.0053 113.4144 113.3376 114.3971 109.6966 107.6266 104.3149 104.2786 115.1008 114.5463 122.8122 123.7991 123.3948 122.7489 123.0362 122.3783 119.8623 120.0828 119.3573 123.2065 109.4324 120.5870 122.1886 123.3765 107.9370 123.5120 120.3285 118.7018 118.5066 118.1213 117.6676 111.6134 118.6986 115.8477 115.3053 114.6795 113.9233 113.1324 112.2240 112.2156 111.0274 109.2207 107.6287 105.7833 103.7048 100.9787 96.9660 89.8585 85.7903 87.0471 93.7703 99.2758 102.5772 104.9537 106.8291 108.3701 109.6843 110.8347 111.8531 112.7162 113.1867 114.0300
125.4000 114.2311 110.7051 107.7845 107.7887 106.3746 107.7955 104.9940 103.8733 105.0173 112.2109 112.0837 116.9443 123.9587 123.4437 123.9808 123.6936 124.4830 115.8321 121.0726 114.7123 125.5283 116.8848 113.9267 121.7771 121.0440 113.4915 119.5868 118.7169 119.3930 118.4195 118.0155 118.8437 98.1728 113.7303 116.0237 115.3377 114.6805 113.9813 113.1585 112.5787 101.9300 108.4533 106.8150 108.0173 106.9172 104.7516 101.9420 98.7925 94.7395 90.9770 92.3438 97.0989 100.6014 103.2995 105.4000 107.1439 108.6009 109.8364 110.9058 111.9141 112.8258 113.6938 114.0400
114.4400 112.6939 113.6197 106.0281 106.0015 108.0412 108.8043 105.1752 103.0925 106.2544 106.2888 116.3366 122.6908 124.0009 124.6775 119.4306 122.8471 115.0297 118.6228 115.8937 105.8911 111.7546 100.7922 108.8639 117.6080 121.5521 109.4023 120.7385 119.3920 119.2642 118.5294 118.0754 119.2864 110.3676 116.8809 115.8441 115.4383 114.8145 114.0964 113.0982 113.6101 88.1765 112.7138 109.5993 108.3970 103.1325 105.1466 103.3277 101.2825 99.0492 97.6166 98.2271 100.2395 102.3832 104.4323 106.2140 107.6661 109.0055 110.1182 111.3284 112.1886 112.9938 113.7475 114.1200
108.7500 111.2990 111.5152 109.6312 109.0907 109.0352 106.5683 105.6387 101.9693 100.4399 108.8654 110.3570 119.1617 124.3980 116.7774 117.8744 122.0611 117.8916 124.9741 125.3096 119.0174 119.9942 116.6726 115.3739 120.6512 120.7188 121.5768 119.7027 119.3988 118.9956 118.6224 118.3395 118.2246 110.5321 117.2403 116.0959 115.5946 114.9455 114.3148 113.3329 115.2605 93.5947 98.9642 100.2746 108.8668 105.1365 106.5784 104.8249 103.4617 102.1779 101.4993 101.7470 102.7843 104.8128 105.7421 106.6584 108.4108 109.5342 110.6150 109.9866 112.2357 113.1550 113.9662 114.6700
109.0500 108.0091 108.8840 109.0179 108.7729 108.1735 106.1434 103.8570 119.1719 116.9050 115.6134 114.3489 125.5860 124.6755 123.0013 124.0349 123.9878 129.2278 105.5900 125.1252 108.6230 109.1214 128.2790 122.2757 121.0676 120.7943 120.0218 119.9157 119.5197 119.1215 118.5814 118.1629 117.8248 113.9865 111.3640 116.4927 115.6642 115.1992 114.1274 115.1612 95.8291 101.8770 87.9119 99.2782 96.7604 109.8879 107.3805 106.2022 105.3754 104.5684 104.1730 104.3202 105.0007 106.3649 106.5994 109.3854 109.1171 110.1196 111.1323 111.0017 112.7270 113.4711 114.2025 114.7500
125.3600 114.4050 109.9504 107.5552 107.3667 107.7838 104.0375 103.8148 104.3233 105.5846 120.0208 110.4671 114.8394 112.6378 113.1054 116.7411 110.8575 106.0705 116.9084 122.8366 120.5586 121.6129 113.7573 120.5306 117.8363 119.3928 120.2393 119.9965 119.5962 119.1915 119.2291 118.9758 118.0495 117.4087 114.3284 116.5948 115.9278 115.2133 114.4194 116.7562 94.4989 93.3088 95.2006 90.4333 105.6753 109.1347 108.5793 107.7458 107.0166 106.4655 106.2141 106.3018 106.7221 107.4743 107.1855 108.9054 110.0144 110.7969 111.6395 112.3843 113.1584 113.8140 114.4841 114.8500
107.5400 108.3428 107.7966 107.6080 106.7690 106.9047 105.3292 103.6393 103.4154 100.5862 117.9154 99.9485 113.4932 112.8734 110.6367 101.6589 99.4135 118.7640 107.1958 123.2021 100.6375 122.1941 107.9148 120.5364 103.3564 122.5189 120.4366 120.0358 119.7469 119.7342 112.4593 105.3385 119.1973 118.1658 107.5426 116.4689 116.1858 115.0373 117.5935 91.9728 100.8630 98.8998 91.0665 112.6758 112.1823 109.7811 109.7269 108.9805 108.4380 108.0441 107.8636 107.9288 108.2489 108.7454 109.3354 110.0188 110.7182 111.5525 112.3731 112.8312 113.5472 114.1954 114.7989 114.9600
107.9700 108.1721 107.8134 107.8258 107.5875 106.8986 104.2262 103.1927 103.2031 111.7251 113.0452 101.4386 116.8507 104.4602 117.4874 101.2003 113.8466 101.0001 114.5292 100.8178 105.4046 103.5423 108.0018 103.2720 121.5727 120.2163 120.5632 120.1659 120.0614 119.8018 115.7031 109.0441 118.3894 118.1547 117.9354 114.8575 117.9639 98.1538 101.6887 111.8229 115.3653 91.8924 115.3026 113.1446 111.8687 111.1658 110.6480 110.1074 109.6784 109.3875 109.2531 109.3051 109.5278 109.9070 110.3738 110.9125 111.5103 112.0944 112.4139 113.2894 114.0177 114.5702 115.1430 115.5000
108.0200 108.4697 107.2021 106.9345 106.2757 104.2341 105.1583 102.3912 111.1668 102.3951 105.8144 102.3732 102.2168 104.9381 108.6662 117.3216 106.2332 109.5776 109.5246 109.6814 108.7187 126.5788 101.8688 124.4698 121.1427 121.0360 120.5933 120.4302 117.5180 114.9640 117.2641 94.5219 114.5136 112.0731 110.3559 115.8348 113.8583 99.6924 116.2706 115.2704 115.7592 115.5223 101.9598 112.0918 112.7762 111.7408 111.5242 111.1129 110.7801 110.5494 110.4476 110.4912 110.6663 110.9183 111.2930 112.4241 112.3273 113.8581 112.9014 114.0349 114.4536 114.9956 115.5554 115.6200
112.3800 112.6814 107.1082 107.6037 107.9039 105.3162 112.4472 102.4124 102.9299 111.0296 116.1890 106.0440 116.1145 116.1753 98.9145 108.6985 109.5676 103.9817 100.6248 102.9861 120.2645 111.9889 108.8456 121.3373 121.2407 120.9891 120.5531 120.0809 104.8868 101.3677 119.1784 121.7659 116.7126 118.7928 120.7758 111.0920 117.7938 117.7790 116.5685 115.5424 114.6886 114.2630 109.3937 100.8243 117.7438 112.7586 112.4028 112.0347 111.7623 111.5866 111.5024 111.5326 111.6763 111.9740 112.4987 105.1558 113.4866 113.4079 113.8730 114.3790 114.9158 115.3658 115.6764 116.1300
111.5900 111.0868 106.8338 107.4023 107.0037 106.2374 103.0211 102.8337 101.3078 113.5849 101.6147 117.8023 109.3997 115.8897 104.5922 115.4254 114.0170 120.6314 104.3013 115.3897 109.9870 105.9708 123.1283 122.2931 121.6093 120.9533 121.5562 101.8665 116.9768 122.8525 112.6604 108.4599 98.6964 105.1304 116.0452 118.2557 110.9212 117.4031 116.2474 116.0554 116.4220 116.4616 110.7469 102.7309 114.5923 113.1265 113.1601 112.8835 112.6553 112.5098 112.4423 112.4638 112.5821 112.9531 111.6661 113.9195 113.9954 113.6492 114.5129 114.9505 115.4168 115.7259 117.4275 116.7500
109.8900 107.9723 107.6485 106.7364 105.6337 104.5427 103.8206 109.2222 104.5215 107.1251 114.2065 109.0281 110.9222 120.8098 118.3266 125.9000 125.2871 123.2157 107.4246 125.8931 109.9196 112.4965 112.0814 123.7931 121.2494 120.4695 123.5268 101.2023 106.3679 114.4465 101.4417 108.7558 105.5749 117.1619 99.2332 111.5723 112.7242 114.2726 117.2168 116.1975 116.5802 105.7310 117.4278 105.2668 116.4237 114.0229 113.9174 113.6508 113.4682 113.3466 113.2998 113.3077 113.4118 113.4448 113.4757 106.3123 108.9163 115.1184 115.1232 115.4340 115.8348 116.7387 106.3140 116.7500
109.8900 106.8085 107.4276 104.1664 110.3011 102.2944 103.2818 112.0701 104.2274 111.9972 123.0034 123.2214 121.2657 122.4166 121.1342 123.4642 123.2632 125.1605 119.8225 115.4469 123.4592 101.4653 113.3441 123.7543 122.2739 124.8793 124.5073 103.2542 99.7639 119.9721 125.7301 116.4038 117.6416 117.1715 97.8065 99.7997 95.0618 110.4824 116.9666 116.9217 112.1256 100.0211 112.6263 105.7889 114.8875 114.8327 114.5486 114.3759 114.1980 114.1110 114.0453 114.0762 114.1568 114.1884 117.5069 112.1293 96.8328 115.2639 115.5601 115.9356 116.1944 116.6332 109.3225 100.9700
108.0300 107.6376 106.1411 107.3428 111.9029 111.4748 105.3909 102.7554 103.1362 101.5621 109.7874 124.1974 122.6806 123.0140 123.3277 124.3375 123.8922 111.2045 114.0545 117.4962 122.3674 116.0593 122.7105 122.3834 121.7383 122.6530 106.5635 112.0456 96.5916 107.1925 103.5762 108.8225 118.6355 120.7106 93.6309 111.3755 108.4932 116.9058 117.8732 117.0599 117.4608 108.5905 111.6732 116.2106 116.0778 115.4972 115.3444 115.0261 114.9356 114.8027 114.7762 114.7961 114.8367 114.9613 114.6038 110.5067 93.8430 115.7973 116.0629 116.3574 116.7107 118.2377 116.2053 117.7800
104.8700 105.7525 104.6219 110.0400 119.4498 109.1203 106.4647 104.9442 104.1793 103.1854 100.5783 111.9673 127.1416 125.8401 125.8665 113.9385 127.3755 104.2587 110.3402 124.3021 125.6607 116.3411 126.5874 123.7770 124.2157 105.1427 98.6670 105.0374 102.3066 103.9107 116.4976 123.7485 120.8148 120.5859 114.4645 122.2446 110.9619 112.3113 117.9999 117.3064 118.5073 119.6901 116.5716 116.6193 116.4509 113.5578 116.2692 115.3465 115.4163 115.5563 115.7477 115.4606 115.5291 115.6183 115.4510 116.2541 117.2630 116.7564 116.3364 117.3452 117.1401 117.9645 119.1003 117.8700
105.0000 107.3090 104.0423 105.6743 109.0991 104.3386 103.1483 103.5153 102.8511 106.6171 107.4660 121.7513 104.4629 111.0437 127.4022 103.8098 113.3257 124.2992 116.3098 105.8597 106.1059 121.3131 122.5279 106.9764 123.4929 97.8911 102.3877 99.6958 98.4903 110.9591 122.3704 120.1853 119.9290 119.4698 119.9118 118.9044 117.6846 121.7545 117.5972 118.6509 115.8986 119.2121 115.0829 116.9113 117.4189 115.5196 119.4339 116.0897 115.9754 115.7413 112.0389 115.2317 116.0358 116.2399 116.3095 116.4541 115.6270 116.9870 118.2414 112.3127 117.2672 118.2299 108.8372 99.3800
105.0200 110.0473 115.8367 111.3545 122.1891 125.7541 124.7076 118.5649 109.6574 108.2695 102.8111 103.3404 118.8441 122.5821 124.6679 123.2349 124.2614 105.3328 104.5264 121.6779 115.9344 100.9057 100.6171 101.8156 106.3110 104.6168 103.1697 108.8658 122.0616 120.4251 120.5902 120.5857 120.2558 119.9625 119.6882 119.6447 115.6664 106.9293 125.1917 116.9733 97.9979 100.0263 116.1701 116.9308 110.2107 107.9173 113.2759 106.0627 117.4213 120.2668 102.3287 103.6164 117.3026 116.7684 116.8219 117.1571 114.5655 116.9947 120.0278 104.0175 118.5682 118.0720 115.1651 99.4400
124.5700 123.8708 121.1337 106.9119 121.3956 125.4554 126.9739 109.5936 102.6795 103.7365 106.4653 114.5341 133.9623 114.8568 125.6683 108.4037 119.9446 107.8748 125.6157 124.6117 112.8106 100.7784 105.3477 105.8701 106.7187 107.5038 112.6109 102.8469 112.9144 123.3183 120.6261 120.7653 120.4924 120.2289 119.9403 120.0671 121.3880 116.4961 116.5003 121.0356 108.0373 100.4068 122.5773 118.2456 119.5683 117.6231 114.1230 110.9566 109.0984 107.3329 117.3537 119.7316 117.4987 117.2361 117.5920 117.3828 117.8966 118.2294 106.3772 109.5846 116.2838 97.3158 102.2974 105.7800
125.3000 126.2874 127.4455 127.4604 127.9482 115.2967 124.8848 126.5430 107.3299 111.3816 109.6931 100.6401 115.5032 112.0622 108.1418 110.5517 127.4038 123.1991 123.2041 122.7291 118.4277 107.6722 108.0786 106.9416 121.1591 110.6978 99.4454 113.9617 121.5540 119.3692 121.1396 121.0029 120.7170 120.5083 120.1625 120.6785 104.8248 97.4085 114.8429 120.7541 120.9800 101.5452 99.4840 116.1907 108.3194 121.0652 118.9948 105.5059 95.5948 109.8272 116.5276 116.1936 117.6469 118.0263 115.9118 118.4710 117.9075 118.5240 115.7383 120.1250 119.1606 111.3383 112.4616 111.5500
127.1900 127.1161 126.5853 126.2525 126.0753 124.2977 123.6997 128.0530 122.4601 106.0761 125.8419 105.0228 111.9747 109.0041 122.9517 122.3948 132.1106 126.4910 123.8390 111.8446 115.5850 107.9291 114.1252 106.2718 110.8271 100.6370 111.2528 119.9251 110.9161 108.0536 122.9263 121.0555 120.9727 120.7436 120.5438 120.4399 120.2644 121.2865 122.0349 119.1469 119.9282 108.9372 113.2640 117.3102 113.8972 107.9828 117.4219 101.5559 97.7489 105.4978 99.8691 109.6845 118.4632 119.2066 108.6768 120.4441 118.3095 118.6642 117.0560 106.1917 106.2920 125.7262 112.0772 104.4500
127.2200 127.1940 127.0074 126.8562 126.1463 120.0577 112.8310 121.8228 126.7318 123.1557 118.8593 117.7701 118.1599 103.5860 103.9502 110.9115 115.3278 127.9724 121.6832 118.3213 113.9865 117.7540 116.9931 101.1667 103.7841 106.6512 99.6913 107.0399 111.5318 119.8214 121.6560 121.4434 121.2175 120.9888 120.7970 120.5535 119.6701 121.2021 120.1299 119.7755 119.6231 120.0179 119.8302 119.2717 120.3842 119.3691 118.1505 105.7156 95.8647 113.7403 109.8741 110.5794 119.0843 119.6964 102.8383 109.1732 119.7145 119.0394 119.6273 117.8648 112.4117 109.8736 106.5151 102.3100
128.6900 127.1300 127.0200 126.9000 126.6800 126.5600 126.3200 126.2000 121.5500 120.4400 117.5000 125.5700 125.3100 125.1700 125.0400 115.4200 115.5400 111.1300 102.3300 110.8800 116.3200 123.7200 123.4000 116.6400 104.7000 100.9100 101.1200 111.4400 113.2700 114.3200 121.8500 121.6800 121.2800 121.1100 120.8900 120.6800 120.7200 120.2700 120.3100 119.8500 119.8500 119.6400 119.4200 119.4200 119.2400 119.2400 118.9600 99.2000 99.2000 118.7000 118.7000 118.7000 119.0400 119.0400 114.3800 119.2700 119.2100 119.4700 119.4700 103.8600 116.6100 116.6400 100.6900 103.8300
