125.8600 127.2000 128.8300 125.3100 126.3700 126.2300 125.9900 125.9000 125.8200 125.6600 125.7200 106.1800 119.2200 117.8200 127.6500 121.8600 115.2800 114.8900 101.7900 103.3100 98.8200 122.3300 98.0900 111.4000 97.2900 101.9700 100.6400 107.6700 100.2700 117.0800 99.2400 98.4900 95.5100 114.9700 111.9500 113.6000 112.4600 111.8300 110.4200 109.6200 107.7700 103.4900 93.7200 102.2800 100.6000 100.6000 97.8100 97.8300 100.6700 102.2900 104.0000 105.6000 100.9700 86.7500 87.6200 92.0700 95.2400 111.3600 116.0600 100.1900 106.3800 101.3600 116.3300 116.7100
125.8600 127.1181 131.1734 126.4643 127.5226 127.9022 128.3805 128.2358 127.5511 128.3901 127.4035 121.4631 121.7218 116.2466 124.0477 120.8377 115.3732 115.4147 100.7077 104.8978 99.7862 107.5947 108.2572 108.1229 103.4081 107.9519 99.8374 111.7794 104.9056 106.7114 100.5656 104.7811 101.4681 107.7448 103.5519 101.6421 112.1317 111.2418 109.7281 103.2847 108.5449 105.5281 100.2023 103.2178 99.6497 95.8921 92.6639 93.5548 97.6071 100.7600 103.3821 105.4515 107.7185 89.3632 86.3323 92.2545 91.3784 101.4725 108.1978 109.7136 97.3399 108.5728 115.8084 116.7100
125.8500 127.4864 123.9842 120.9266 120.6532 118.8646 118.2360 114.9058 117.2225 115.8641 116.3775 118.9847 122.6678 123.1167 116.4168 118.6600 115.0095 115.1828 110.9794 109.8170 107.8886 103.0976 106.1538 108.4513 106.5862 111.8004 109.5205 110.2360 107.8055 106.6551 103.4798 106.2293 107.5007 104.9886 99.6065 98.2841 116.5290 110.1959 111.2697 100.6033 109.3632 106.2243 104.3491 101.2285 97.7159 90.8549 86.9843 87.9512 93.8925 99.2528 102.5517 104.9246 108.5787 100.9400 101.8770 104.4339 104.6052 107.0329 111.2803 112.3107 105.7804 116.7693 116.1388 116.6700
125.8500 127.7614 115.3124 116.6751 114.5441 109.4539 113.4518 119.5029 114.9322 104.8335 103.4463 103.6452 113.8162 126.4110 115.9159 116.0703 115.3017 114.9049 116.1607 115.8310 123.3887 111.8986 109.0712 100.5568 110.0427 111.5959 109.9272 111.1889 109.6034 111.9047 104.9015 110.7373 108.9226 106.4975 104.0123 103.5869 121.6281 108.0417 110.4459 109.5765 107.7063 105.9520 103.7468 100.9751 97.0169 88.9206 84.4314 85.6175 92.2289 98.7331 102.2239 104.6003 106.2900 108.7472 111.1696 111.5853 112.9468 113.8892 113.6004 113.9800 115.6825 115.2527 116.1309 116.6600
125.8500 128.2653 116.2163 113.8651 120.3760 131.5245 128.5147 127.1319 126.0328 121.5007 118.6119 121.9285 112.7630 127.6065 118.1392 116.4330 115.1899 114.7886 115.6946 116.2373 112.0113 104.7638 101.6403 121.1907 112.0969 112.7772 107.5941 97.4109 107.1894 105.0285 103.6871 101.2823 103.6639 110.3573 98.0493 106.3832 111.9538 111.8651 109.4482 117.7639 107.1208 106.1084 104.1311 101.5089 97.6995 91.5084 87.9312 88.6387 94.5966 99.4869 102.6074 104.9732 106.8534 108.2873 109.4990 111.4632 112.2234 112.2166 113.3017 114.4211 114.8445 115.5621 116.2277 116.6700
125.8500 126.4263 116.8282 113.2381 117.1739 116.1515 131.3878 126.0092 126.2360 128.8150 106.4507 112.9641 105.3843 108.6955 108.5652 117.0228 115.3657 115.3625 102.2047 101.2362 102.1608 100.2737 96.6837 107.3800 112.7295 110.6239 107.8586 107.0037 104.4924 104.0575 123.9559 120.2461 113.4391 115.0956 112.8888 111.6353 111.9770 111.6356 110.5944 110.0481 108.1267 106.5961 104.8269 102.7033 100.0499 96.8727 93.9648 94.7215 98.5493 100.9254 103.5852 105.5819 107.2262 108.6645 110.5500 103.4218 106.3123 113.2287 114.1247 112.8949 115.0316 115.7013 116.2568 116.6900
125.8500 125.6454 127.3226 113.7024 117.8221 117.3883 125.4836 124.3618 121.5343 108.9777 126.0363 112.1559 105.9041 103.4578 115.4942 115.3489 114.2187 114.1778 113.9564 108.5756 110.8512 111.8508 104.5655 114.1690 105.6305 97.2050 110.4373 111.3680 101.6421 101.9060 126.9518 114.5837 116.2517 115.6594 112.5225 113.6270 112.7588 111.8305 110.8067 109.7110 108.6232 107.3120 105.8124 104.1330 102.2506 100.5916 99.5530 99.7116 100.4004 98.8751 105.2336 106.3784 107.8611 109.1604 110.0390 112.3436 121.5916 106.2661 97.5867 113.8882 115.0985 115.7830 116.3471 116.7200
125.8600 126.3712 117.6013 133.0535 112.4115 129.1999 123.0207 122.9569 124.8919 123.9506 124.6436 108.7523 103.3776 114.5188 115.4355 115.0964 114.5960 113.7064 115.3698 112.6081 104.5782 98.9144 119.0803 98.6512 110.1750 107.4304 123.8755 115.2381 118.2093 116.3658 117.4842 106.8804 100.7388 119.3572 114.7403 113.9915 112.7389 112.2066 111.2794 110.3009 109.2698 108.1313 106.9128 105.6392 104.3862 103.3048 102.7141 102.7982 103.0413 104.5818 106.1646 107.4300 108.5890 109.6958 110.7340 111.6216 120.8427 110.6556 110.1805 114.8860 115.3822 115.9034 116.4074 116.7600
125.8600 125.4915 125.9139 122.6935 122.8362 122.0896 121.4851 124.6844 123.5480 106.7424 127.2091 99.0774 101.2348 100.8855 100.3852 118.4918 113.4033 122.9032 127.1137 114.4856 117.5800 115.9122 109.6286 108.3487 104.9437 109.8329 127.8130 121.4837 117.0636 117.3686 117.6887 116.4533 107.8656 100.7449 119.9815 124.5673 112.6675 112.7873 111.7142 110.8649 109.9877 109.0273 108.0145 107.0383 106.1393 105.4489 105.0989 105.1020 105.8308 105.9085 107.4451 108.4215 109.3809 110.3878 112.9432 109.8906 112.5333 113.5089 114.4184 114.8322 115.5174 116.0539 117.4690 116.8100
125.8700 125.8620 122.3310 122.9740 123.3293 109.6361 111.6471 107.4397 104.8194 115.8469 122.2823 104.4847 101.8288 99.2206 117.7110 114.1385 118.0763 120.2582 114.7052 116.3596 111.7773 114.6930 112.5654 109.7118 110.2390 108.1764 109.9126 106.3097 117.0012 117.3870 117.8632 105.6300 101.6387 94.5308 128.9243 111.9332 114.0643 113.0606 110.4621 111.4487 110.6584 109.8561 109.0531 108.3458 107.6793 107.1904 106.9484 107.0317 107.2848 108.0361 108.6250 109.3869 110.0542 111.0170 110.6251 104.5975 114.5009 113.8260 114.4625 115.1646 115.7423 115.6875 119.7371 119.9100
125.8800 125.9963 123.3852 123.1562 123.9629 125.9162 116.0779 127.0510 101.2140 136.8883 106.8397 106.8234 103.7141 111.5184 122.7820 115.8484 113.6385 113.7375 114.8004 116.0503 111.4716 105.2994 108.9501 109.8998 118.6178 113.2849 120.6541 125.8168 117.9512 117.1463 117.7013 108.3288 102.0012 101.1455 111.9955 114.7798 113.6396 113.8534 109.9025 112.2371 111.7349 110.7551 109.9083 109.5164 109.0105 108.6463 108.4760 108.4192 108.9863 109.4601 108.2990 110.4387 110.9070 108.1499 101.9611 114.1175 113.4769 114.3178 114.9086 115.4555 116.0999 116.7533 117.3552 117.2900
125.8900 125.9095 125.7328 125.9258 126.6120 131.8265 114.0240 130.5394 104.2712 122.3994 107.9682 103.3891 105.9730 115.6813 121.9921 112.5392 116.2476 114.6007 116.0768 115.4721 115.7097 100.8499 101.1943 114.1938 118.5066 117.1382 118.6385 116.6049 118.3623 118.0188 117.0220 116.6646 115.1321 121.2601 116.6699 115.0985 114.5033 113.8698 113.5105 112.4071 112.7892 112.7604 110.9794 110.5789 110.1786 109.9080 109.7854 109.8948 108.8393 109.6877 107.7291 111.5757 112.0907 117.9063 109.3924 113.4938 113.9126 114.7034 115.2505 115.7409 116.4980 116.4338 123.4960 102.9800
126.0400 125.7570 125.8484 125.7043 126.6316 120.1821 127.7934 127.0136 116.7984 106.5245 101.5056 107.4399 103.4791 103.9027 112.9678 106.2367 108.2294 106.6325 114.6809 112.8140 117.7561 114.9017 115.4601 106.2601 118.7224 123.0503 119.5637 119.1728 118.5576 118.2078 117.7211 118.2969 109.4630 117.9233 115.5679 115.4179 114.9105 114.3148 113.8630 113.4482 113.0627 112.6785 111.9263 111.5396 111.2222 111.0098 110.9064 111.0079 109.6376 112.7429 113.2211 112.1480 112.5016 117.7389 112.7492 114.0118 114.8216 115.1103 115.6156 116.1234 116.4658 117.0417 112.4517 102.9800
126.0600 126.1865 124.4948 124.0771 124.5038 117.0098 122.2760 123.2314 128.9686 125.8643 115.9876 115.1119 104.8948 107.2054 99.8132 98.5413 96.5863 111.7436 113.7601 112.6433 107.2083 119.1807 108.4320 110.4492 121.5125 111.5647 120.1482 119.0001 118.7301 118.2836 118.3385 105.2549 111.2373 116.7708 116.1979 115.8091 115.4504 115.1483 114.5938 113.8271 113.4470 113.0677 112.7431 112.4225 112.1642 111.9870 111.9263 111.6659 113.6358 109.9149 108.4406 112.3359 113.5214 118.0307 116.0061 106.8866 115.3528 115.5042 116.0048 116.4386 116.8084 117.6499 114.1088 109.5000
126.0700 123.6145 125.2952 122.2240 122.3594 124.3991 122.7465 124.6929 123.8763 109.0744 122.2232 105.7885 113.0592 112.2348 113.6391 112.6571 113.0931 124.0875 104.9178 116.7361 106.3229 111.8090 100.8562 100.7205 110.0605 108.5125 120.1523 119.3575 118.9430 118.5618 118.6502 112.5282 115.6768 117.2427 116.5193 116.3555 114.4296 112.7562 112.9467 115.0206 114.0181 113.8322 113.5019 113.2298 113.0187 112.8655 112.7508 113.1896 104.6975 116.9805 97.5559 115.5595 113.8479 114.2609 111.8491 111.7956 116.1681 115.9040 116.3702 116.7912 117.1993 117.7747 120.2997 119.1600
126.0900 125.3488 125.4832 121.0724 121.1116 121.2038 121.4470 121.5957 126.7515 117.7747 120.2294 114.6998 119.6352 119.1704 117.2269 108.2688 115.7570 129.5832 114.8166 101.3588 111.3642 100.3638 99.5566 107.5653 109.4590 120.6848 119.6144 119.5568 119.1908 118.8941 118.7150 119.3043 110.3016 115.8948 116.9840 116.6164 115.7618 115.0061 113.6241 115.9312 114.7191 114.4769 114.2072 113.9763 113.7933 113.6646 113.5098 114.5636 106.4022 111.4910 98.1730 116.3149 114.4074 114.9726 114.6536 115.9979 115.8616 116.4054 116.7501 117.1495 117.5312 117.2239 111.3274 109.8300
126.1100 126.0632 125.6138 125.2081 125.3628 122.9669 130.6917 136.6889 131.8715 129.9354 117.7333 122.1439 118.3594 109.6419 116.0583 113.1661 117.4665 117.7370 99.1837 113.0054 102.6193 100.0330 96.8136 123.0783 117.6333 120.5355 120.0374 119.7146 119.4742 118.8688 117.6827 106.4959 112.0792 118.4021 117.2753 117.0050 116.7108 116.8121 116.0108 115.6686 115.3716 115.0934 114.8527 114.6639 114.5185 114.4138 114.3935 114.1939 114.9035 105.5217 104.1546 111.6970 115.3072 115.2835 115.3417 116.3097 116.4642 116.7924 117.1604 117.4706 117.9895 118.7123 108.7577 113.4600
126.2500 126.0678 125.9023 125.7084 125.5074 128.0276 125.9782 121.7503 124.9108 126.6051 117.8827 125.8553 123.3305 115.2452 119.8609 117.4706 100.1920 100.4796 124.9832 98.2766 99.8428 99.5201 109.3902 122.3748 125.0562 119.4810 122.4418 120.0221 119.5718 120.5487 108.6196 117.2549 118.4383 117.8472 117.7451 117.4033 117.0567 116.5176 116.4559 114.8185 116.2157 115.6147 115.4862 115.3085 115.1460 115.0520 115.0753 114.7731 114.9291 104.5925 109.2521 113.1550 115.9870 116.6742 121.9649 116.3797 116.8952 117.2064 117.5243 117.9368 117.2203 115.1025 106.4865 109.8500
126.2700 126.1304 125.9839 125.8103 124.0301 121.4749 122.5984 123.8237 121.7712 118.7318 125.8141 128.7026 124.8088 114.3771 125.0909 110.7269 103.3302 98.8624 116.7347 102.7279 112.5005 124.1647 122.6230 110.8917 109.9069 109.3864 131.5687 120.3623 119.2954 120.2122 112.4484 118.1394 112.8000 119.1514 117.9883 117.8414 117.3411 118.1698 116.3355 120.7889 118.4532 116.3120 116.0471 115.9005 115.8874 115.8479 115.6510 115.3952 115.5203 106.7786 106.8983 117.4039 115.9635 116.5729 116.5213 117.0293 117.3413 117.6055 117.7958 117.9827 118.3238 121.7600 114.6990 119.2700
126.3000 126.1964 125.9540 125.6754 124.8712 120.8170 120.1363 119.9530 118.0088 117.5453 119.0535 123.0098 123.5091 113.0749 100.9085 101.7924 101.4609 102.2998 119.6469 111.5471 108.3744 122.6046 122.6887 109.9364 112.9665 108.0681 112.8809 116.7499 111.4212 114.0897 109.6815 109.1454 119.8332 118.7271 118.4293 118.1434 118.7030 122.1785 110.7363 108.1647 112.9630 116.8214 116.5797 116.7640 114.1787 116.4310 116.3310 115.9794 116.1653 104.2406 107.0270 110.5826 118.3142 116.7482 117.8913 117.5196 117.7343 117.9878 117.5977 117.4713 119.5299 111.1521 109.8408 106.1400
126.3200 126.2036 126.4861 123.0551 120.5054 119.9564 122.1461 119.1667 118.9957 119.0198 120.0534 119.0889 127.1342 100.4753 102.5406 101.4826 101.0345 110.5024 115.6772 113.9595 123.0540 122.4554 122.0365 126.6268 115.2597 117.7784 116.1938 104.4368 109.0452 112.6299 110.3924 122.5915 119.2188 119.0562 118.7835 118.5354 118.3002 115.4608 104.4486 112.7240 117.0545 117.1963 117.3783 117.8111 119.6067 114.5022 116.4494 116.7707 116.5853 106.9986 108.4359 113.8699 115.5252 107.5429 117.6954 117.8630 118.1615 118.4626 118.6544 120.4311 119.0559 119.3326 120.2588 119.7200
126.4600 126.7134 127.3352 122.0045 121.9774 119.5265 119.2294 119.1935 118.9510 114.1773 115.4544 98.5685 106.4597 101.5818 101.6518 101.5048 102.2519 107.9515 126.0972 120.0712 122.6393 122.1718 121.5817 121.3620 121.9561 120.0890 121.3580 118.0426 114.5477 122.8018 120.2166 120.5085 117.3548 119.6929 119.0788 118.8820 118.5622 118.1701 112.1007 119.0998 117.7547 117.7079 116.1421 107.6940 111.0764 114.8850 125.8426 113.3283 117.6780 112.1744 104.4169 116.5771 119.7888 118.1567 118.6384 118.4550 117.1962 118.5460 118.9784 119.2003 119.5213 119.5233 122.8332 120.0600
126.4900 125.5073 124.3374 125.5207 124.5867 122.8014 121.4914 119.2709 119.8774 106.6618 100.1665 104.4737 107.6352 103.8537 107.3377 102.4223 108.6505 112.8982 133.9408 120.6135 122.8496 122.4869 122.3097 121.9531 122.2453 116.4731 114.3460 113.6857 120.9709 120.5188 120.1176 120.3711 117.8281 119.2415 119.4843 119.3021 118.9158 118.6300 116.6339 118.2501 118.4386 118.1768 114.6301 106.4905 108.5389 121.7332 118.6219 118.2198 118.1610 111.9807 110.5240 105.9285 113.4826 118.7722 118.4409 118.8205 118.1557 119.3505 119.3505 119.5446 119.8098 119.4815 124.3654 123.6000
123.0900 123.0428 125.2479 124.9247 123.9426 126.6707 120.6949 120.6129 121.8858 104.6584 111.8855 110.3356 112.4457 105.2284 106.8515 111.5483 117.1576 120.3495 128.9887 123.6825 122.9137 122.8436 119.8642 122.5051 121.5514 118.3428 121.5105 121.7073 121.4027 120.9146 120.7111 120.3830 120.4296 120.1841 119.7509 119.6051 119.3239 119.2738 119.2432 118.8513 118.7786 118.4526 118.1173 115.7542 116.4759 108.7292 119.3049 118.0651 118.3045 113.6447 112.0259 110.2273 116.1975 119.0901 118.9526 119.0955 120.4005 119.3903 119.6651 119.8692 120.0837 120.3015 120.9076 120.7900
125.0400 124.8785 121.4480 123.9968 122.9240 124.0060 120.8102 118.5426 113.4736 107.4480 109.5055 114.2693 108.2752 108.5877 116.3752 118.7172 118.2637 123.9911 117.8014 121.5200 122.9287 122.9374 120.6323 122.4869 122.2282 122.0959 121.7392 121.5240 121.2051 121.1008 120.9053 120.6953 120.5031 120.2648 120.1058 119.9301 119.7247 119.5426 119.4693 119.2539 119.1607 118.9883 119.0364 117.3076 119.6302 119.2366 118.5972 118.8260 118.8353 113.2170 108.9577 110.6329 119.8940 118.9573 119.3265 119.4767 119.5514 119.8009 120.0241 120.1804 120.3806 120.5838 120.7386 120.8400
124.3500 124.2517 122.4158 125.0674 125.6048 125.3897 122.9549 123.0956 123.5063 120.9780 109.1463 124.7430 115.0999 115.6649 127.7288 124.8320 109.5200 114.9830 120.8881 123.3315 123.1369 123.0185 122.7792 122.5998 122.3309 122.1768 121.9486 121.7855 121.5704 121.3921 121.1782 120.9743 120.7969 120.6073 120.4276 120.2490 120.0756 119.9967 119.4050 119.6863 119.5451 119.4615 119.3477 119.4723 119.0709 119.0460 119.1989 119.1907 119.0849 119.6698 106.7548 106.2600 116.9499 119.3648 119.7379 119.9293 119.6679 120.3926 120.3173 120.4995 120.6739 120.8711 121.0566 121.1800
126.7400 126.3124 126.5683 126.4882 127.6483 126.0573 125.4893 125.2490 111.3173 127.4417 109.0463 124.3565 118.9330 120.5934 121.0070 108.8704 115.8825 125.3250 125.3133 123.7264 123.3681 123.1449 122.9578 122.7741 122.5887 122.3889 122.1883 122.0005 121.8020 121.6198 121.4279 121.2517 121.0538 120.8877 120.7197 120.5897 120.3856 119.6055 118.8125 120.0566 119.9137 119.8140 119.7352 119.6596 119.6525 119.6168 119.6555 119.5736 119.6098 121.2237 108.0042 106.6147 118.8174 119.5308 120.0965 120.2702 118.2897 120.3853 120.6075 120.7933 120.9635 121.1375 121.3220 121.4800
126.8800 126.7801 126.6386 126.4230 126.3542 125.9292 127.3945 110.1378 112.4089 129.2050 118.8724 116.0318 118.6485 114.8986 113.4727 111.3689 111.0275 119.8869 123.7634 123.7791 123.4795 123.3419 123.1547 122.9686 122.7762 122.5970 122.4112 122.2263 122.0412 121.8676 121.6844 121.5140 121.3288 121.2145 121.0223 120.7506 120.7646 120.6407 120.5284 120.3314 120.2778 120.1750 120.1024 120.0409 120.0060 119.9876 119.4025 119.8489 119.9409 121.2420 108.5730 110.3076 112.4312 120.5529 120.4208 120.5301 120.6700 120.8814 120.8889 121.0869 121.2501 121.4153 121.5859 121.7600
126.9100 126.8512 126.7010 126.5454 126.3839 126.2494 126.0321 128.4362 119.6362 118.0052 125.7673 120.4494 122.2493 117.8612 118.5366 112.0444 117.8968 119.4406 130.9707 122.9057 123.7678 123.5051 123.3375 123.1554 122.9800 122.8014 122.6255 122.4488 122.2724 122.1039 121.9408 121.7783 121.6153 121.4827 120.6423 121.9857 120.5980 120.9174 120.7936 120.7062 120.6074 120.5305 120.4613 120.4152 120.3151 120.0397 124.6776 121.1176 120.4075 121.2029 114.0609 115.3735 113.0730 120.9425 120.7228 120.8451 120.9669 121.0805 121.2400 121.3816 121.5257 121.6883 121.8347 121.8200
127.0500 126.9306 126.7842 126.6356 126.4836 126.2721 126.2784 120.2349 128.3360 126.4881 120.8022 117.4174 122.4677 120.2402 114.1558 111.8388 115.0548 113.7103 109.9907 120.4061 124.1965 123.6159 123.5194 123.3465 123.1920 122.9959 122.8479 122.6744 122.5133 122.3406 122.1883 122.0304 121.8817 121.7727 121.7333 127.1593 121.2332 121.2218 121.1275 121.0303 120.9353 120.8672 120.8008 120.7302 120.9657 120.7770 123.9113 122.5064 120.6330 121.6679 112.7173 112.8491 112.0833 121.3882 121.0249 121.2713 121.3506 121.4042 121.5248 121.6464 121.8041 122.0956 122.1485 122.1200
127.0800 127.0227 126.8771 126.7245 126.5907 126.4344 125.4239 122.1327 120.7665 119.5920 124.1482 120.2237 117.5363 115.9354 113.8992 109.8124 117.7191 121.7762 114.0380 116.7999 124.2350 123.8179 123.8873 123.5064 123.3109 123.2082 123.0022 122.8880 122.7293 122.5843 122.4034 122.2809 122.1443 122.0871 121.4853 121.7939 121.6274 121.5333 121.4317 121.3337 121.2638 121.1776 121.1310 121.6141 115.2980 121.8448 120.6634 120.7094 121.0240 121.6079 115.2201 113.0858 112.6719 115.5316 121.5579 120.7951 120.8203 121.4860 121.8592 121.9326 122.2486 120.8595 125.4387 122.4100
127.2600 127.1065 126.9631 126.8154 126.6480 126.6815 126.6097 127.0000 124.2010 128.3176 117.5555 118.2443 115.6043 114.8540 117.0749 126.5390 126.4041 125.8086 125.1317 125.0144 124.2843 123.9912 124.2503 125.1022 123.2930 123.4078 123.1543 123.9536 122.7795 122.7605 122.6728 122.5282 122.4000 122.2497 122.2318 122.0255 121.9313 121.8520 121.6674 121.6522 121.5634 121.5018 121.1092 122.9342 108.1635 122.6018 121.4509 121.3831 121.3709 121.1438 122.2496 112.0586 113.1000 115.3041 122.1039 122.1952 123.2208 121.8449 122.1187 122.2017 122.4279 123.1929 132.2382 122.6400
127.2700 127.1894 127.0542 126.8785 126.7945 125.7581 124.8189 123.0707 119.8940 117.2530 115.9714 123.2875 111.1823 113.6288 112.1409 123.5138 119.2447 125.0421 124.3446 124.5374 124.1608 124.2224 123.9321 125.8086 125.3686 123.6269 123.9801 124.2075 123.7888 122.8893 122.8983 122.7696 122.6464 122.5307 122.4005 122.3131 122.2481 121.9375 122.5915 122.1336 121.9987 121.8265 121.6343 122.5842 122.2772 121.6104 121.6476 121.6576 121.6793 121.5223 121.8996 112.1790 113.7417 116.1808 122.4716 122.4077 111.5991 121.7294 122.2966 122.4555 122.5176 122.6956 122.4573 122.9500
127.4300 127.2798 127.1424 127.2104 125.8119 124.5595 121.7302 130.9080 118.8439 119.0968 125.5021 124.0434 117.6243 110.1524 118.2510 126.5711 124.3005 124.6845 124.8535 124.7131 124.5261 124.3727 124.2793 123.7550 124.5830 123.8120 123.6037 123.4223 123.2058 123.2484 123.1359 123.0125 122.8955 122.7764 122.6667 122.5702 122.3885 122.9500 122.3827 119.5943 122.1543 122.0085 121.8469 121.8122 121.8414 121.9830 121.9705 121.9774 121.9826 121.8409 122.4236 113.0386 114.1701 113.4719 121.2519 122.3374 122.6379 123.3545 122.4733 122.7133 122.8146 123.0044 123.1146 123.2100
127.4300 127.3704 127.2273 127.1565 124.0549 123.7065 121.8137 123.2953 122.8886 118.8986 125.1976 120.7034 112.7396 106.9125 126.0864 118.6820 128.3045 123.2285 125.1454 124.8078 124.7030 124.5626 124.4151 124.2861 124.0974 123.9956 123.9016 123.7982 123.5838 123.4827 123.3571 123.2446 123.1278 123.0260 122.9204 122.8245 122.6901 121.5971 120.2144 121.5360 122.3695 122.3258 122.1994 122.3204 122.2954 122.2994 122.3840 122.2330 122.2685 122.1834 122.3366 112.9271 115.2282 117.2313 121.6713 122.5914 122.6314 122.5887 122.8799 122.9665 123.0625 123.1644 123.2904 123.4600
127.6000 127.4583 127.3259 127.5974 125.2505 124.4574 122.6382 116.5844 123.8777 121.7089 118.0343 111.3506 113.6031 116.7040 124.1224 119.6368 126.9983 125.3777 125.0307 125.0109 124.8668 124.7308 124.5970 124.4623 124.3066 124.2659 123.8386 123.7095 123.7770 123.7138 123.5854 123.4770 123.3629 123.2625 123.1610 123.0746 122.8698 123.0753 123.0863 122.9184 115.3839 121.5619 122.4440 122.9478 122.5900 121.6509 122.2974 122.4491 122.5535 122.5447 122.8298 121.3113 121.0835 121.8171 122.4760 122.7773 122.9479 123.0469 123.1072 123.2067 123.3096 123.4148 123.5192 123.6700
127.6300 127.4683 127.7505 124.0277 122.5005 125.4991 118.2598 137.4879 117.2401 126.5737 116.1174 109.8222 108.9562 132.3313 124.9380 126.4218 125.6380 126.8109 125.4403 125.1439 125.0241 124.8958 124.7645 124.6430 124.5178 123.4761 129.5413 127.1703 124.0426 123.9051 123.8026 123.6929 123.5936 123.5034 123.4050 123.3258 123.2587 123.1345 123.0971 123.1424 123.5906 122.8867 122.0769 121.1005 123.6837 111.9745 124.0072 122.4364 122.8310 122.8553 122.8436 122.4514 120.9470 120.9351 122.0114 123.0997 123.2038 123.2624 123.3559 123.4417 123.5323 123.6373 123.7380 123.7100
127.7700 127.6909 127.1350 117.4121 121.8575 118.1363 126.3453 124.3450 119.7172 111.9811 121.7123 126.8423 122.4183 126.5487 125.7771 125.8333 125.7020 125.9711 125.3918 125.3460 125.1871 125.0692 124.9442 124.8056 124.7553 124.6931 134.5635 124.1909 124.2308 124.1267 124.0109 123.9185 123.8174 123.7295 123.6380 123.5606 123.4744 123.4112 123.3768 123.2609 123.1838 123.0470 127.1179 130.0459 119.0095 124.9388 122.9482 123.1072 123.0914 123.1388 123.1212 122.5451 121.6129 121.5809 122.0011 123.6132 123.3890 123.5130 123.5901 123.6760 123.7654 123.8641 123.9589 123.9400
127.8000 128.1366 123.8520 127.4180 125.1356 123.5723 122.1721 126.5521 112.7492 125.3117 127.3318 126.2036 126.3994 126.1932 126.0776 125.9885 125.8747 125.6729 125.5663 125.4965 125.3487 125.2301 125.1146 124.9891 124.9525 124.5390 124.8646 124.4485 124.3423 124.3224 124.2275 124.1343 124.0414 123.9526 123.8669 123.7830 123.7157 123.6803 123.5019 123.5480 123.5474 123.4177 120.0095 115.3307 121.6620 123.0581 123.3911 123.3084 123.3247 123.3778 123.3708 122.5573 121.0883 121.7291 120.5185 122.7265 123.6822 123.7482 123.8172 123.9035 123.9873 124.0766 124.1730 124.1700
127.9300 127.8471 126.6375 123.1847 123.9867 122.5935 123.1991 115.4111 115.4632 111.4754 125.0735 127.2723 126.0928 126.7129 126.2319 126.1202 125.9998 125.8665 125.7655 125.6322 125.5120 125.3935 125.2843 125.1703 125.0640 124.9084 124.7297 124.6513 124.6547 124.5444 124.4368 124.3434 124.2552 124.1695 124.0946 124.0303 123.9108 123.7446 124.4175 123.7698 123.5994 123.9350 109.3237 118.7154 123.6821 123.7080 123.5814 123.6291 123.6869 123.7033 123.6179 122.6954 120.8673 121.4728 121.2829 121.7381 124.0162 123.9915 124.0437 124.1255 124.2109 124.2897 124.3789 124.4000
127.9700 128.2307 124.4785 122.3761 120.4317 112.0083 116.8979 114.0577 115.3243 130.1120 130.0587 120.4090 130.8967 126.1014 126.4134 126.2497 126.1380 126.0217 125.9078 125.7903 125.6744 125.5616 125.4519 125.3378 125.2264 125.2291 125.5283 125.2697 124.6742 124.7585 124.6395 124.5526 124.4643 124.3837 124.3111 124.2528 123.9127 125.8806 117.7278 124.0371 123.7773 124.3412 114.3287 124.8404 123.8103 123.8234 123.8402 123.7757 123.6472 123.6723 123.8515 123.5782 121.4452 121.7585 120.9249 121.8309 124.4386 124.1694 124.2658 124.3347 124.4222 124.5024 124.5893 124.6100
128.1000 127.9665 126.3072 122.9756 120.3622 124.1812 115.6790 115.6978 126.2633 124.9114 125.2369 110.7784 125.1838 126.5254 126.5183 126.4128 126.2762 126.1682 126.0546 125.9437 125.8266 125.7409 125.7137 125.5104 125.3966 125.0968 121.9261 120.7884 124.9927 124.9618 124.8320 124.7551 124.6636 124.6019 124.5379 124.4711 124.1645 123.7336 123.3763 124.0287 124.2548 124.9585 122.2464 123.0226 123.9903 124.1179 124.0816 123.9762 124.3683 126.3133 124.4755 124.3752 122.1652 121.5685 121.0176 120.6989 123.3383 124.4033 124.5177 124.5987 124.5966 124.7124 124.7921 124.8000
128.2600 128.3018 125.5871 123.4358 117.8477 135.3578 119.5839 108.4823 113.5930 110.4759 109.8872 110.5536 129.1684 126.7225 126.3975 126.5254 126.4729 126.3187 126.2120 126.1003 125.9989 125.9853 125.5031 124.4219 125.6821 125.2878 121.4789 120.8286 125.1639 125.1618 125.0323 124.9398 124.9091 124.7550 124.6843 124.6920 124.3912 124.4176 124.2846 125.6396 124.1614 123.8081 124.1598 124.4590 124.2611 124.3330 124.3219 124.0949 123.8735 110.7583 123.3982 124.5015 122.4117 121.4714 121.3982 121.4004 123.6520 124.6070 124.6876 124.5076 124.8308 124.9239 125.0367 124.9900
128.2800 128.1822 128.4016 125.5660 125.8322 128.0478 111.4083 106.1965 116.7312 114.6932 109.9886 115.4961 123.8479 126.9404 126.9930 129.5433 126.0064 126.4337 126.3464 126.2457 126.1257 125.9975 122.5149 123.9993 125.8299 125.2151 126.1913 124.6181 125.1727 125.3623 125.2262 125.2375 124.9967 125.4209 124.5875 124.7608 125.4371 125.1962 122.8089 123.8486 123.3651 127.6982 125.0756 127.1024 124.2441 124.5891 124.5377 124.5447 124.5510 125.1540 125.1392 124.8309 121.8946 121.4448 121.5979 122.0022 123.9804 124.9143 124.8861 125.5937 126.8375 125.3588 125.0010 125.2300
128.4300 128.3048 128.2561 128.4707 128.6854 118.8600 109.8372 112.1281 118.4271 112.4106 110.2713 129.0062 127.2220 127.6379 126.2772 131.1937 126.6049 126.6870 126.4946 126.4048 126.2923 126.2949 126.0883 126.1906 125.9339 125.7536 123.5167 121.7023 125.5529 125.4208 125.4461 125.1694 124.5115 121.8560 111.3954 115.5582 125.8322 125.4984 114.9921 113.5700 127.3107 115.9491 124.8525 124.4198 124.7807 124.7577 124.7895 124.7687 124.7680 124.6052 124.5560 124.9115 122.1931 121.7883 122.0736 121.8579 123.4565 124.9807 125.3412 124.6762 112.1035 124.4247 125.3105 125.4200
128.4300 128.4413 128.3091 128.2741 127.4768 131.6002 126.1971 120.4627 134.4921 122.1071 119.9358 128.3660 126.7194 127.7168 114.3286 126.4302 126.6679 126.7393 126.6303 126.5513 126.4522 126.3403 126.2597 126.3852 126.0820 126.1351 124.8840 122.1427 126.7432 122.1127 125.1821 123.4368 133.5191 126.5227 115.8038 132.5429 119.6224 124.2291 112.1440 129.0480 124.8742 122.1046 125.3272 125.1091 125.0293 124.9756 124.3873 124.6235 124.9744 125.0222 125.0748 125.0047 125.0843 121.7973 122.3206 122.4516 122.1348 125.1840 127.4906 127.0268 123.9967 124.8662 125.5230 125.6100
128.5900 128.5271 128.3320 128.1668 128.3748 123.2053 123.1871 119.1824 126.3483 124.7094 117.8102 127.3493 126.8217 127.6426 124.3750 126.1768 126.9417 126.8689 126.7932 126.6987 126.5993 126.5266 126.4223 126.3162 126.3017 125.8280 126.2444 126.3297 126.9216 118.4044 125.1855 115.8782 111.4587 124.5263 110.1038 113.2465 116.6038 126.9297 112.9818 124.2168 125.3396 125.5243 125.1963 124.7742 125.0024 125.3686 123.9253 126.6070 125.0302 125.2139 125.2019 125.2185 125.2592 124.5452 125.8771 122.4775 122.6675 125.5834 125.4350 112.5612 126.6542 125.7277 125.5304 125.8000
128.7100 128.6204 128.8859 125.1846 125.3051 127.5508 119.9245 117.5036 118.4407 113.5199 117.6673 120.6785 129.1501 128.3898 127.3903 127.9647 127.0489 127.0559 126.9326 126.8428 126.7512 126.6619 126.5800 126.4901 126.3983 126.3938 126.2263 126.1663 125.8275 127.4686 126.2141 113.8065 122.2332 129.9446 115.5596 125.7785 121.8833 111.5702 117.7050 125.9729 125.3904 125.5196 126.1865 128.9810 125.3282 125.6088 121.5406 128.4161 125.5857 125.5283 125.4130 125.4413 125.6711 122.1048 123.6319 123.6733 123.7769 125.5417 126.4917 123.4992 127.0356 125.8508 125.9671 125.9800
128.7400 128.7705 128.5755 122.6768 124.5150 124.3292 120.9759 118.0862 113.9247 108.6031 112.6696 117.9837 112.0530 118.5373 128.0932 127.1501 127.2404 127.1636 127.0788 126.9660 126.8988 126.8175 126.7418 126.6511 126.5640 126.5033 126.4303 126.3464 126.3220 125.0647 122.6038 114.2772 123.9050 125.5573 119.9154 116.5744 127.7813 127.2619 125.8705 125.5387 125.6893 125.6731 126.8425 127.9113 125.2018 125.8060 114.7302 120.2370 125.2832 125.6963 125.6066 125.6411 125.5893 125.8580 125.1262 125.8267 125.9949 125.8898 125.7820 126.2024 125.7996 126.0218 126.0906 126.1600
128.8800 128.7957 128.3472 120.5155 122.6147 140.4826 114.3871 111.1237 116.9281 111.6792 114.7041 113.1862 124.2449 128.5504 127.3986 127.5294 127.3857 127.3084 127.2071 127.1760 127.0330 126.6908 126.8710 126.8015 126.7762 126.5706 126.3780 126.6241 126.1739 117.8489 110.5225 121.6135 126.8680 125.9235 127.6676 126.7911 125.6647 125.6960 125.8797 125.9131 125.9204 125.7412 120.7748 121.5860 125.6285 126.6120 127.2678 126.5915 125.8672 125.8542 125.8073 125.8233 125.8622 125.8199 125.9495 125.9159 125.9925 125.9908 126.0843 126.0770 126.2015 126.2181 126.2682 126.3100
128.9100 128.3530 118.8984 124.2889 127.3982 131.0543 125.3558 115.2395 117.1115 115.2458 106.0144 130.6642 128.2686 127.4039 127.7849 127.3241 127.5762 127.4419 127.3366 127.3378 126.9549 129.6215 127.4370 126.9594 126.8887 126.7518 127.5458 125.5385 127.9290 127.9237 120.6903 125.9558 126.1767 126.3958 126.0062 126.1075 126.2322 126.1777 126.1131 126.0739 126.0971 125.9188 125.5797 126.0798 125.9117 125.7099 125.6966 125.8113 125.9178 125.9810 125.9946 126.0098 126.0243 126.0655 126.0660 125.9514 125.5892 126.2453 126.2497 126.2966 126.3275 126.3946 126.4548 126.5100
129.0300 130.1520 124.1418 121.1499 128.0978 114.1427 111.7398 116.3434 116.9040 112.5491 104.3026 127.8558 127.3987 128.0014 127.7623 124.1545 127.9081 127.5669 127.5920 127.4851 127.4685 117.8898 115.6836 127.5836 126.8382 126.8775 123.0563 118.8605 132.8594 111.7520 113.1086 127.2223 126.4646 126.4521 126.5154 126.3506 126.3933 126.3362 126.2964 126.2371 126.2334 126.1994 126.1437 126.1460 126.1843 126.2153 126.1896 126.1787 126.1788 126.1773 126.1806 126.1939 126.2329 126.2800 126.2570 126.0960 132.1517 125.9852 126.5607 126.4566 126.5095 126.5571 126.6177 126.6700
129.1500 128.9550 130.2537 120.9401 125.1677 122.3324 120.8022 122.0544 110.9433 111.2905 120.9391 127.6250 128.3596 127.9621 128.2797 127.7806 128.0420 127.6851 126.6461 127.1457 126.3486 110.8937 128.9393 126.7564 127.5196 128.0272 120.2372 120.9969 132.4190 125.6529 126.0348 127.3656 126.6454 126.6568 126.5255 127.3606 126.3283 126.5054 126.4181 126.4928 126.4528 126.4946 126.4278 126.3679 126.3468 126.3374 126.3335 126.3375 126.3461 126.3539 126.3656 126.3768 126.4084 126.3174 126.4643 126.4184 127.1053 126.2901 126.6737 126.6329 126.6789 126.7301 126.7846 126.8400
129.3000 129.0571 126.9303 124.2083 121.0103 116.2618 128.8150 124.4267 112.3512 122.0672 129.4155 128.3172 128.2247 128.1720 128.0394 127.9568 128.1344 128.1526 127.2857 127.5163 110.9110 109.2500 116.7679 125.9904 123.8941 123.9431 122.3503 123.2460 108.6374 128.0355 127.0510 126.9012 126.8610 126.6513 128.2478 121.6454 131.9688 125.6956 127.8531 126.5498 126.5004 126.2778 126.5752 126.5327 126.5324 126.5221 126.5170 126.5182 126.5255 126.5347 126.5405 126.5550 126.6050 127.0593 125.5627 127.1344 126.5827 126.7976 126.8442 126.7993 126.8477 126.8944 126.9409 127.0000
129.4200 125.4172 120.6057 121.1355 119.7088 118.9692 122.2881 104.7693 122.9100 131.2625 128.5095 128.2920 128.3738 128.2879 128.2117 128.1593 127.8226 127.2775 131.3758 128.8212 126.9343 130.2161 123.6748 126.7029 129.7873 126.6250 126.8522 128.7569 118.4688 127.9056 127.0633 127.0823 127.0325 126.7257 127.9859 116.2934 140.4234 130.2885 130.9134 126.7613 129.1889 127.8508 126.7692 126.7025 126.7074 126.6966 126.6917 126.6932 126.7006 126.7093 126.7224 126.7266 126.7615 127.8707 115.5785 126.8418 126.7984 126.8589 126.9039 126.9663 127.0095 127.0566 127.1032 127.1600
129.4400 124.9412 124.9876 120.5285 118.2090 125.3708 119.9696 113.9057 116.1910 129.1243 128.6112 128.5503 128.4863 128.3786 128.3211 128.2306 128.1638 129.6964 115.8727 126.5241 127.6108 127.6190 128.1653 126.2409 113.6807 133.5401 127.9712 128.7492 127.9790 127.2889 127.2719 127.2508 127.1799 127.0034 127.0724 122.9803 118.0199 119.1998 126.7496 126.9734 128.0830 126.8134 126.9694 126.8883 126.8845 126.8726 126.8666 126.8656 126.8714 126.8788 126.8871 126.9040 126.9342 126.8728 127.8916 128.0127 127.0101 127.0602 127.1036 127.1267 127.1703 127.2201 127.2669 127.3100
129.5700 124.8781 121.8803 120.0621 118.0262 121.4778 130.1801 127.8558 128.7521 128.6769 128.7501 128.7076 128.5893 128.5107 128.9363 128.4089 128.3700 128.3136 118.3011 128.7110 127.8031 127.9507 127.3090 130.4712 127.3939 128.9648 127.4887 124.2210 127.1415 127.4273 127.4513 127.3948 127.3527 127.1806 128.0199 119.8685 111.5934 127.2194 126.9456 127.1908 127.0132 127.1239 127.0665 127.0269 127.0207 127.0391 127.0409 127.0611 127.0630 127.0534 127.0617 127.0738 127.0892 127.1260 126.9760 126.9346 127.1669 127.2145 127.2055 127.3424 127.3189 127.3749 127.4055 127.4700
123.6600 128.9748 120.7127 122.6922 128.5762 127.9334 128.5219 129.1503 128.9846 128.9904 128.6726 128.7429 128.6580 128.0289 126.6210 128.5318 128.4726 128.2464 128.4292 128.0153 129.5694 128.5653 128.9834 129.7680 114.2961 128.2771 128.1600 124.2619 128.1402 127.5612 127.5996 127.5526 127.5023 127.4514 127.5307 122.7344 111.0357 127.8325 127.1967 127.1550 127.2835 127.2498 127.2444 127.3453 127.2996 127.2100 127.2052 127.1348 127.0810 127.1988 127.2143 127.2439 127.2546 127.2718 127.3221 127.3598 127.3443 127.3697 127.6492 126.9507 127.6230 127.5187 127.6120 127.6100
123.4100 130.7193 125.9709 123.4701 130.7643 129.2404 129.4713 129.1928 129.1250 130.3540 122.8986 131.2897 119.4580 128.4477 124.8802 128.8188 128.5578 128.5288 128.4316 128.2554 128.6517 117.7273 108.5253 120.2880 115.4499 128.1206 127.8968 128.3106 127.7467 127.7776 127.7440 127.6974 127.6609 127.5722 127.5382 128.6220 128.3711 127.4177 125.9871 127.9865 127.3914 127.3933 127.3172 126.9108 127.3242 127.3711 127.3755 127.2527 127.9138 127.5138 127.4241 127.3929 127.4181 127.4340 127.4514 127.4716 127.5037 127.5223 127.9575 124.2919 127.7088 127.6410 127.6414 127.7600
129.8300 129.7095 129.6561 129.3648 129.6813 129.4384 129.4128 129.3128 129.1970 129.9324 127.3089 132.4407 125.1513 133.8920 129.8564 128.7622 128.7231 128.5918 128.5687 128.5263 129.6005 114.8371 106.6574 118.3126 126.4823 128.9317 128.0764 127.9750 128.0014 127.9326 127.8951 127.8535 127.8131 127.7942 127.7606 127.4870 127.7330 127.8596 126.8958 127.2084 127.4719 127.7112 129.8006 130.0504 127.4343 127.5383 127.5392 127.3529 125.8981 124.7104 127.4576 127.6433 127.5643 127.5872 127.6117 127.6390 127.6561 127.6936 127.6981 128.0450 128.0115 127.8023 128.8193 130.0400
129.9300 129.8718 129.7700 129.8361 129.5972 129.5772 129.4890 129.4289 129.3625 129.1890 129.1014 128.8098 126.2258 124.2966 129.7668 128.7337 128.1954 128.6280 127.9178 128.5310 130.2982 109.2968 107.6787 125.7838 128.6920 128.1074 128.2649 128.1883 128.1281 128.0883 128.0396 127.9902 127.9588 127.9162 127.8590 127.7721 128.7753 111.6639 118.7515 127.0569 127.4909 127.6039 123.4453 123.7888 127.5743 127.7530 127.7148 127.6155 127.9980 122.9117 127.8245 127.7473 127.7317 127.7474 127.7673 127.7918 127.8148 127.8455 127.8727 127.8549 127.9748 128.2163 123.0804 114.0200
129.9700 129.9412 129.9226 129.8100 129.7483 129.6907 129.6024 129.5301 129.4650 129.4336 129.2834 129.9900 122.7374 124.8099 124.4176 129.0088 130.4802 129.0428 123.5061 128.9126 130.2925 107.9907 118.7155 128.6690 128.3351 128.4746 128.3648 128.2141 128.3028 128.1632 128.1767 128.1562 128.1046 128.0742 128.0395 127.9448 129.3527 128.8736 123.6052 128.5537 127.7761 127.7991 127.3237 127.9673 127.8237 127.8367 127.8424 127.8396 127.7745 128.4127 127.9044 127.8870 127.8825 127.8988 127.9187 127.9425 127.9534 127.9832 127.9995 128.3242 128.0891 128.2745 126.3294 114.2000
130.0800 129.8661 129.8943 129.9245 129.8514 129.7781 129.7139 129.6388 129.5674 129.4780 129.4508 126.0737 114.6255 126.4111 127.6997 131.0011 128.9353 109.7701 120.6739 129.0296 130.1124 110.9956 133.9711 128.4140 128.5862 128.5717 128.3686 129.4954 128.0089 129.0251 128.3558 128.2568 128.2458 128.2217 128.1765 128.1169 127.7023 125.2683 117.9486 128.2786 128.1280 127.8905 127.9429 127.9749 127.9994 127.9967 127.9942 127.9909 128.0059 127.9416 128.0125 128.0277 128.0351 128.0470 128.0663 128.0940 128.1410 128.1419 128.3571 124.5872 133.7059 117.1383 120.3520 112.4100
125.3500 130.1100 130.0400 129.9700 129.9000 129.8300 129.7600 129.6900 129.6200 129.5500 129.4700 129.4700 129.3200 129.3300 129.2700 129.1700 129.1000 129.0300 123.5800 128.9700 128.9000 111.3400 128.8300 128.7500 128.6600 128.6700 128.5800 130.8600 116.2800 128.4300 128.4500 128.3500 128.3700 128.2700 128.2900 128.2900 128.2000 128.2100 128.2200 128.1100 128.1300 128.1300 128.1400 128.1500 128.1500 128.0200 128.0200 128.0200 128.0200 128.1500 128.1400 128.1400 128.1300 128.1200 128.1000 128.2200 128.2000 128.1900 128.2900 126.3100 115.9400 112.2800 115.0800 115.0800
