111.8300 122.6900 120.4900 106.1000 125.0400 124.8800 119.9500 128.9800 127.9000 126.2600 105.0500 104.9400 121.8900 120.8400 123.9200 117.2100 117.3900 110.2400 116.4500 105.2200 115.7400 115.1900 110.9500 110.6200 109.7200 109.2700 108.9000 103.2800 111.5600 111.5600 101.9800 110.9500 110.4600 104.6500 122.8500 122.7200 122.7200 112.4800 122.2000 121.9800 102.2900 110.3300 121.4700 121.4700 121.3100 121.0600 120.8800 120.6800 120.6800 120.5200 120.5200 120.3300 120.3300 120.0600 120.1100 120.1300 120.1500 101.4700 98.5700 105.0300 109.4900 99.4200 120.3500 120.3500
125.1300 125.3155 123.1859 111.5917 113.9916 123.4127 126.5539 127.8684 123.0703 129.5427 117.9128 104.8801 102.0490 122.1438 120.5416 117.8983 116.4710 110.3080 111.7234 107.1416 102.0089 114.5813 112.2211 111.6365 107.7196 105.5337 108.9411 105.3378 102.9840 104.3171 101.5977 104.2684 109.5842 105.6304 107.8644 114.4871 117.9301 111.5245 115.1218 123.4369 123.2255 110.6318 107.6746 117.3858 121.0581 120.7890 120.4233 120.5838 120.4143 120.2882 120.1706 120.0698 119.9831 119.8931 119.7733 119.5835 121.6499 100.2819 99.1970 105.8810 108.1099 111.4228 122.3954 120.0100
110.7800 117.5615 123.5709 116.3178 109.8267 109.7410 114.1371 125.0468 113.6942 122.2182 121.0622 120.5395 117.6577 122.6818 106.4873 112.3442 115.8818 112.2396 107.4658 108.1280 107.7294 112.3156 108.7388 108.3566 114.5329 102.1460 106.5891 103.6977 107.1301 104.7243 105.4732 103.0338 107.7893 104.2112 107.4966 100.4613 114.5349 118.1037 122.0228 121.3662 122.8081 121.4599 111.6061 117.3241 123.1877 121.1211 115.9856 120.7959 120.0788 119.9350 119.8153 119.7012 119.6122 119.5684 119.5026 119.1838 121.2657 96.3371 96.9046 104.2704 97.6038 110.0685 119.6600 119.6600
110.7800 115.6251 117.9847 118.4114 121.6622 116.1533 117.6243 107.4546 116.9096 115.7124 121.2058 121.1829 118.3209 124.2080 112.7306 107.0594 112.9525 110.1521 111.3005 110.1817 104.5026 106.5649 108.5653 102.0572 109.0218 109.0050 105.9506 112.3566 110.0353 102.8589 110.4708 112.4702 110.5440 103.3644 119.0086 127.0408 117.3787 119.4087 121.9394 118.6457 120.8992 120.7313 114.8769 105.0907 112.0673 121.6507 116.3417 120.2266 119.7537 119.5751 119.4462 119.3248 119.2203 119.0680 118.8526 119.5422 121.7642 96.8019 95.6624 106.1709 98.2849 98.8808 120.9162 119.2900
124.2200 119.2467 119.7905 119.7702 120.6630 115.9302 120.9655 115.4679 117.5137 104.9332 110.6658 106.1659 115.7654 118.1539 108.7950 113.4320 108.0312 108.5734 107.8397 107.3661 118.8363 114.0423 108.5752 106.6703 103.3821 106.9293 115.9078 111.0030 104.1897 106.1496 108.8637 123.9514 121.6223 103.5846 115.5430 124.5651 123.0147 121.3872 121.4027 120.1592 121.3977 121.1985 120.0309 108.3034 106.3386 102.2954 113.7117 110.1378 119.1572 119.2121 119.0645 118.9305 118.8141 118.6123 119.0130 114.6818 111.0279 99.5134 103.9611 112.5763 101.6987 98.9427 120.0571 118.9000
124.1900 125.4525 122.6384 120.6884 116.1449 119.7145 116.0753 106.6312 110.6752 115.5298 115.7999 102.7080 105.8052 104.7704 112.3398 112.2479 111.6984 111.1261 109.1890 107.2638 108.3941 113.4542 110.4835 110.3866 106.5053 104.1420 108.9856 103.4509 108.2579 104.7195 100.1388 115.9755 123.2623 119.9891 100.9564 117.7577 121.5059 121.3343 121.1862 120.8198 120.4162 119.3141 120.7679 108.5980 102.0692 97.4995 117.1565 119.2046 119.4782 118.8006 118.6613 118.5183 118.3811 118.3201 119.7822 103.6252 99.2827 109.2407 112.3782 119.5641 114.9698 116.0692 118.8176 118.5000
126.5400 119.0028 121.3653 117.1000 120.0072 119.2143 118.8445 116.5139 115.8198 117.8272 110.3716 117.6246 118.2001 103.5316 105.0742 104.6211 113.3223 114.2867 112.0249 105.6901 113.4758 108.4948 110.3853 113.3934 103.5170 115.6705 125.2486 114.8659 117.0318 114.7822 114.4089 100.0188 116.1557 104.1097 108.2008 123.7679 123.3967 121.0652 120.6494 121.4773 122.4109 120.1133 119.8385 121.1653 114.8079 105.5954 105.6366 118.8097 118.3703 118.4261 118.2404 118.0801 117.9509 117.8123 117.7258 120.2945 105.4214 113.2632 109.8772 115.6400 110.8872 117.3544 117.8141 118.0700
120.9700 120.9949 119.9056 115.2239 118.9395 118.2673 118.1422 118.1975 117.4198 117.2185 116.1053 110.0358 104.3412 104.2387 103.3003 103.8606 103.9203 104.2860 111.7567 110.0935 111.1331 108.4518 112.4489 104.3983 117.3227 109.3777 107.0225 98.8609 118.1298 123.0361 120.9613 121.8456 122.5903 108.2826 123.0851 125.8032 121.4040 121.1016 120.2389 123.1988 113.2676 119.5854 119.6895 119.3105 116.4354 105.2271 112.5701 114.5601 118.2043 117.8854 117.8063 117.6360 117.4797 117.3116 117.4125 117.5648 102.8602 117.9904 116.9942 117.7158 117.7673 117.3199 117.3937 117.6300
121.0500 120.5373 120.0411 119.9068 119.8942 115.7132 115.4809 119.8293 118.8294 116.1689 111.8157 103.7918 103.7124 108.4790 107.7634 118.6309 112.3681 110.7931 103.9093 104.9683 109.8831 111.0431 112.4152 105.6457 120.1865 115.9917 103.0555 104.7783 113.0265 125.2416 107.0532 102.2507 106.7613 129.8362 121.6933 121.2224 120.9695 120.6807 120.6795 119.9543 119.6757 119.7862 119.4067 118.4505 119.7436 110.9230 122.0855 120.1580 117.8646 117.5129 117.3560 117.1583 116.9845 116.8384 116.6027 116.4552 115.8294 116.9015 116.3168 116.4535 116.5980 116.8054 116.9477 117.1500
116.5500 115.6820 112.9292 111.8083 118.9476 118.1070 117.9385 118.7438 107.3354 107.9782 118.2910 104.1147 107.5099 107.5116 108.0497 108.7693 105.1992 111.3389 103.2070 105.9528 103.7471 102.7296 111.3548 113.1180 109.4188 118.4483 124.8650 118.7085 129.5372 125.9027 122.3578 124.2853 123.3902 119.0049 120.8934 121.1806 120.7819 120.8554 118.8904 120.4945 119.5010 119.7836 119.1399 119.4953 109.9640 104.3924 108.9801 115.0099 117.5847 117.0985 116.8867 116.6881 116.4683 116.2514 117.1463 117.4016 115.9516 116.0284 116.0207 116.0815 116.1598 116.2683 116.4254 116.6500
115.8200 121.5485 117.2654 114.2583 112.1265 108.2783 105.3153 108.5569 111.4200 111.0775 106.4991 106.9184 108.1555 118.5670 120.1271 112.8587 114.1989 113.0447 108.6693 109.6085 112.1375 103.3042 103.2279 103.8397 117.4009 122.7348 123.1508 129.9227 122.0403 121.8804 121.7027 120.3616 120.4487 125.4364 122.0893 120.9641 120.3349 121.9052 100.8637 120.8898 118.8222 120.9441 112.4673 118.5905 115.3318 117.8005 110.3423 118.6429 116.8015 116.6817 116.3975 116.0359 116.3332 115.5581 115.5092 102.6464 116.6957 115.3995 115.3569 115.4376 115.5505 115.6949 115.8766 116.1300
122.5200 123.1320 125.1685 120.9870 120.4020 113.5640 113.8098 114.6271 114.0649 109.5171 108.5454 104.1700 104.6654 103.7469 113.2097 110.2392 111.8539 110.9685 117.9895 110.0976 107.8076 111.6927 105.3342 117.0596 119.8956 117.4011 121.8514 121.8431 122.5293 122.8178 122.4837 112.1115 105.2247 121.3614 120.2329 120.5961 120.1507 121.2761 121.1640 119.2669 118.8429 108.2333 108.2233 118.9169 120.8718 118.3565 117.0061 116.5278 116.5005 116.1673 115.8813 116.0435 111.5398 115.7606 115.7952 111.2007 115.2991 114.7109 114.7203 114.8028 114.9149 115.0834 115.2897 115.5500
119.6100 119.3167 126.1635 117.6954 118.4307 118.9638 121.4000 120.6177 120.9677 109.9613 110.2266 114.9842 106.7287 108.1539 106.5311 108.2871 107.2141 107.9433 107.3699 107.6462 103.0992 98.8926 100.2708 115.7258 123.6842 120.4351 123.1586 122.9393 122.3836 121.6569 124.9588 106.6009 108.9319 115.3312 120.6776 120.7721 122.5364 120.1714 107.8328 119.4034 121.2148 122.9251 107.3703 116.9552 117.0506 116.9555 116.6445 116.4181 116.0192 115.6696 115.3428 115.6310 109.5113 114.7255 114.2547 112.3529 108.8848 113.9539 114.0560 114.0950 114.2352 114.4345 114.6710 114.9400
105.8400 124.0905 121.6535 121.4820 117.3620 117.3283 117.8510 117.8934 117.5804 117.0289 111.0472 117.5267 110.1497 113.0598 112.2701 110.0504 104.5423 104.3266 106.6171 108.0243 115.8654 102.5875 103.2658 118.5935 122.3915 119.2377 123.2598 122.5766 122.4030 123.7824 125.5654 90.0423 119.6238 117.8634 120.5366 121.1384 105.2432 114.7306 110.0361 123.5675 114.3172 97.6261 107.8619 111.7991 117.1024 117.1172 116.3371 115.9425 115.5340 115.1539 114.7415 114.4114 114.5999 113.8994 113.4061 113.4351 113.5427 113.1970 113.2507 113.3440 113.5083 113.7320 114.0086 114.2700
120.9500 127.2437 125.2855 123.3028 122.4545 116.5589 116.4525 117.3323 118.1639 117.4601 113.9291 113.4927 113.0628 115.3725 118.8558 114.2842 110.3478 106.0503 111.0335 108.1072 111.4816 105.3306 106.0939 124.9664 106.3421 124.5934 122.9856 122.4613 123.6608 105.0617 105.6515 122.1506 114.9790 117.8127 121.0576 120.5146 104.7912 113.2409 109.1733 98.7700 118.8884 114.7374 119.6639 115.0016 114.0234 116.3443 115.9563 115.4859 115.0578 114.6145 114.2209 113.8002 113.3345 113.0438 112.8099 112.5446 112.3107 112.2695 112.3901 112.5162 112.7084 112.9776 113.3065 113.4500
119.1600 127.7742 127.5001 127.4584 124.1180 118.2022 116.9133 118.1265 115.8973 115.5260 117.5621 115.3609 117.5026 118.8151 117.0873 105.9761 108.0515 103.5311 105.4960 106.6713 101.9624 104.2836 103.1872 123.7344 113.3087 127.2799 117.8443 123.1871 122.0203 118.5396 119.1934 114.0140 118.4208 119.2472 120.4292 120.1510 119.3509 117.5195 102.4857 118.7173 114.8274 104.9993 117.6172 116.7918 116.8983 115.9865 115.5364 115.0426 114.5559 114.0689 113.5833 113.1146 112.6798 112.2768 111.9226 111.6594 111.5114 111.4460 111.4546 111.5995 111.8432 112.1678 112.5595 112.7500
127.8000 128.4303 129.1316 121.0632 123.2608 117.3132 117.0509 106.2304 117.1179 113.6739 119.1627 107.7428 105.6192 119.6082 117.8405 118.2892 110.5109 104.4056 114.0083 117.9645 117.4931 122.8523 120.7025 123.8662 123.3249 120.2914 122.6087 122.3548 122.0966 121.9074 121.9616 121.2293 120.7371 120.7529 120.2512 119.8984 119.5993 121.1210 100.8406 115.2578 120.5940 99.0430 118.7646 116.3176 116.1525 115.6609 115.1233 114.6013 114.0608 113.5054 112.9571 112.4116 111.8905 111.4076 110.9935 110.6543 110.4317 110.3404 110.3968 110.5855 110.8899 111.2917 111.7559 111.8900
116.9700 116.3590 115.9070 109.4123 117.4515 109.4628 109.3128 109.0498 110.4750 112.9855 115.4189 116.1356 103.6488 111.7973 110.7122 111.0152 110.5856 104.7601 103.6466 119.1653 110.2361 124.1294 123.5068 123.3469 122.9421 123.6315 120.0266 122.4266 121.9855 121.7204 121.3965 121.1364 120.8402 120.4689 120.1276 119.7803 119.5360 118.5024 116.8144 100.2470 116.2869 120.8030 116.9310 116.3400 115.8316 115.2965 114.7480 114.1704 113.5642 112.9487 112.3232 111.6872 111.0707 110.4847 109.9569 109.5356 109.2540 109.1333 109.2044 109.4479 109.8316 110.3317 110.9071 110.8700
116.7900 128.9378 117.6087 111.7328 111.8030 109.7765 111.6457 113.2557 111.1782 111.4121 111.1262 109.1705 108.4503 105.3713 104.7870 102.7591 102.6939 110.2896 116.4905 109.2598 125.7330 124.2070 123.4852 123.3274 122.7260 123.4747 109.5730 123.4664 121.7334 121.5820 121.3426 121.0246 120.7143 120.3755 120.0236 119.6553 119.2919 119.6096 121.1154 120.1316 118.2609 114.6435 116.4073 115.7686 114.8711 115.0196 114.3848 113.7448 113.0835 112.3873 111.6734 110.9347 110.1982 109.4781 108.8197 108.2711 107.8865 107.7207 107.8122 108.1437 108.6606 109.2925 109.9450 110.7000
113.7000 111.4665 110.4032 104.8411 107.0105 110.2765 111.1825 109.3645 109.2391 109.1239 108.4386 109.1505 109.4169 110.3390 110.3712 104.7145 105.1923 115.0482 117.1500 114.6440 124.6298 119.8010 123.8155 123.3588 122.9655 121.9972 104.6830 119.7214 104.4873 122.6377 121.3814 120.9360 120.6317 120.2855 119.9254 119.3379 119.8028 117.6896 126.0828 117.1143 117.1480 116.9117 116.7106 114.3002 108.7647 115.3186 113.9613 113.3545 112.6261 111.8523 111.0314 110.1825 109.2935 108.4077 107.5528 106.8078 106.2655 106.0403 106.1680 106.6332 107.3245 108.0783 109.2485 109.7100
115.9100 114.6653 110.9603 110.4832 107.0801 111.6549 105.9875 107.2863 107.1449 107.1880 109.4415 106.7489 105.3753 110.2994 109.1459 107.8795 107.2897 116.7072 116.7686 110.8495 122.9012 123.6354 123.2926 122.8342 122.3420 121.9857 116.0029 113.2955 114.3104 121.7644 121.4499 120.9793 120.6185 120.2695 119.8412 119.8580 118.7967 115.3231 115.3997 117.9218 117.3719 116.8009 116.2022 115.9744 114.6434 114.6491 113.7458 112.9884 112.2046 111.3465 110.4237 109.4353 108.3759 107.2641 106.1448 105.1062 104.3066 103.9502 104.1536 104.8624 105.8409 107.0282 106.3407 108.3300
116.2400 115.4381 115.1806 115.7712 115.3220 115.5453 115.0087 117.0332 115.0844 118.1847 116.3197 120.5828 105.8530 108.4891 103.1052 105.9801 107.3140 120.0887 118.8696 121.0320 124.8687 123.3618 124.1252 125.3009 124.9778 124.4065 123.8809 122.9311 122.5417 121.2909 120.8906 120.3665 120.2051 119.7540 119.7380 119.0641 113.4044 100.7141 114.8198 117.8920 117.1639 116.6277 116.0966 115.4439 114.8269 114.1528 113.4812 112.6818 111.8336 110.8975 109.8726 108.7373 107.4790 106.0996 104.6182 103.1047 101.8136 101.1999 101.5635 102.7156 104.1593 105.5593 103.9810 108.2200
114.8500 114.2097 114.9208 113.8843 111.1095 114.6511 114.8202 112.4692 112.1526 114.9929 112.8442 114.9859 107.4424 109.5198 110.0013 112.0404 106.2492 121.7409 117.7601 121.6481 123.5725 123.4724 122.3810 110.8312 113.3021 115.1676 112.3026 124.1774 121.5289 121.3644 122.1687 123.0607 121.3060 122.6892 119.3292 120.2458 110.3977 109.8686 111.0742 119.0560 117.0139 116.5418 115.9859 115.3878 114.7261 114.0343 113.2717 112.4376 111.5313 110.5288 109.3972 108.1292 106.6661 104.9782 103.0136 100.7612 98.5195 97.0870 97.9701 100.1495 102.4395 104.6910 106.5955 107.9400
117.5700 118.2590 111.4367 121.7620 123.3273 117.4231 113.4482 114.9447 116.2204 114.9268 117.7925 117.7941 114.7227 126.5550 110.1257 114.3938 113.9858 121.5604 123.7247 121.3031 123.9036 123.7313 123.7523 113.6707 113.1632 104.5618 110.3001 127.3176 121.2568 121.2566 122.0493 106.1159 120.2217 105.7317 124.5209 117.5856 120.2872 119.5055 122.6853 116.8857 117.0246 116.4275 115.8760 115.2265 114.6233 113.8966 113.1200 112.2635 111.3164 110.2545 109.0574 107.6680 106.0334 104.0518 101.5581 98.3831 93.2693 90.4136 92.0566 97.2208 100.7406 103.3939 105.4971 106.4300
114.8000 117.5200 105.8112 120.4941 117.4326 113.1746 111.9590 116.7660 114.1787 118.7125 113.9280 115.0535 111.0625 112.8728 109.3100 106.1116 121.6816 116.4101 117.9237 124.6190 123.8927 123.7112 123.5139 116.9619 125.4095 122.6131 121.4970 119.6914 121.4295 121.4351 121.4224 113.6514 103.8309 115.1698 116.2894 118.8980 118.8102 118.1795 117.7782 117.2874 117.0283 116.5726 115.9551 115.8051 114.5242 113.8583 113.0408 112.1673 111.1963 110.1102 108.8646 107.4143 105.6680 103.4845 100.5659 96.2846 88.6982 85.4553 87.1252 94.4354 99.5838 102.8123 105.1375 106.3400
114.4500 114.7565 112.3011 111.8940 111.5135 114.4866 113.7175 118.2299 117.0554 115.6979 116.0939 112.0799 108.2687 110.2689 110.3466 101.6432 113.5810 121.4163 115.1371 124.9713 123.9241 123.7339 123.6100 113.4640 121.3489 123.5347 119.5301 114.5041 122.2652 121.4615 121.1733 121.7971 108.9020 120.0498 120.1719 119.5613 118.9924 118.3357 117.7370 117.4388 116.6869 115.8981 115.4960 115.9491 114.6449 113.8570 113.0308 112.1605 111.1885 110.0996 108.8482 107.3923 105.6346 103.4437 100.4845 96.1478 88.2233 84.8126 86.7485 94.1960 99.4993 102.7531 105.0992 106.3400
113.0400 112.5872 112.0324 111.5234 111.3603 110.0568 105.1388 113.0965 113.7622 109.0855 109.4145 109.6622 107.3748 105.7711 109.4416 108.8080 124.9334 118.8984 119.5837 124.5293 123.9356 123.6973 123.4253 121.3905 124.1025 108.6241 125.1344 121.6429 121.7658 121.4396 121.1218 120.9592 118.4442 119.9300 119.5160 119.0284 118.7602 119.1118 118.9876 117.4165 118.0397 121.1453 116.1538 115.5581 114.5852 113.8842 113.1048 112.2415 111.2867 110.2280 109.0143 107.6081 105.9536 103.9295 101.3567 97.8975 92.5153 89.3393 91.0977 96.7422 100.5146 103.3182 105.4555 106.4500
119.1600 118.6132 118.3592 112.3342 113.3137 112.4330 117.4827 113.8449 118.6459 112.1696 112.7735 109.6120 103.5233 106.3052 107.6619 115.1232 114.9266 123.9464 122.5262 124.3417 123.9219 123.6898 123.4378 123.2033 122.9426 122.7741 122.4889 122.0882 121.7746 121.4656 121.1677 120.8189 120.5017 120.6764 118.9346 119.7869 119.7952 106.6711 110.4827 119.8751 98.0530 119.3160 115.7876 115.3046 114.7032 114.0047 113.2343 112.4088 111.4917 110.4795 109.3410 108.0415 106.5536 104.8190 102.7730 100.4812 97.8644 96.0997 97.2161 99.7458 102.1702 104.3090 106.1216 106.6500
119.5300 118.8387 118.5648 112.5166 113.2872 113.0313 108.9079 107.3842 106.8340 110.2108 109.6346 110.4763 110.0728 109.0312 107.8377 107.1963 109.7441 121.7129 122.6857 124.4257 123.9413 123.7007 123.4425 123.1523 122.8451 122.5300 122.4223 122.1008 121.8026 121.4983 121.1581 120.8950 121.8168 104.4444 101.4533 103.6958 118.7524 101.6874 117.8883 119.1778 113.7029 117.0488 116.0462 115.4752 114.8483 114.1629 113.4352 112.6418 111.7755 110.8360 109.7902 108.6358 107.3498 105.9178 104.3686 102.7475 101.3440 100.6653 101.0764 102.3435 103.9404 105.5250 106.9824 107.9600
119.8700 117.8446 115.3304 114.8270 113.9155 113.1679 107.2558 104.7738 107.6740 109.4861 110.7520 106.4238 106.6319 107.7819 113.9080 104.8572 126.0652 123.0130 124.4781 124.2101 123.9612 123.6776 123.5876 123.2311 123.0195 122.8678 122.1434 122.1473 121.8426 121.5385 121.2537 120.9589 120.5059 122.7667 101.0548 100.2068 100.6489 110.1896 114.7455 117.1886 117.2752 116.7262 116.2003 115.6405 115.0342 114.3823 113.6893 112.9438 112.1400 111.2732 110.3329 109.3206 108.2355 107.0854 105.9148 104.8174 103.9523 103.5552 103.7857 104.5507 105.6026 106.7736 107.9349 108.2000
127.7600 128.6280 128.8671 129.0189 129.4833 116.7518 117.5320 106.7938 105.6900 105.9244 107.4943 105.4200 109.6759 116.0109 116.7097 110.4404 125.9058 124.4090 124.4696 124.2815 123.9579 123.0339 118.6136 123.0698 123.0166 123.4236 121.6228 122.1900 121.8977 121.5820 120.9433 120.6709 121.3843 113.8325 104.2138 116.9556 120.2137 115.8723 115.9354 117.8495 117.4562 116.9081 116.3850 115.8368 115.2523 114.6386 113.9860 113.2888 112.5505 111.7700 110.9407 110.0628 109.1545 108.2238 107.3505 106.5449 105.9705 105.7332 105.8716 106.3727 107.1128 107.9970 108.9174 109.4100
127.7700 127.3443 127.1724 121.7816 115.0403 116.3726 112.7136 115.4822 115.0153 121.0417 113.1130 114.9870 116.1674 113.0013 116.2183 112.3879 123.0711 123.9095 124.6108 124.0473 123.4549 121.7572 119.5713 123.9049 121.3254 123.0617 122.6329 122.2350 121.9920 121.5866 122.9460 122.3945 118.8420 108.4251 119.3153 114.2769 118.9064 116.4904 119.0980 117.9953 117.5452 117.0878 116.5840 116.0646 115.5162 114.9337 114.3269 113.6834 113.0136 112.3080 111.5729 110.8157 110.0554 109.3104 108.6266 108.0395 107.6363 107.4672 107.5663 107.9190 108.4612 109.1303 109.5326 110.7400
127.7700 127.3321 129.4293 108.8164 112.9581 112.2086 116.1778 114.6432 112.8032 115.8925 111.2593 108.0246 115.8077 110.2433 109.6676 111.1932 124.5690 123.8303 124.4925 125.9016 125.3551 124.5058 123.1893 118.4960 119.1681 123.1344 122.5804 122.3049 121.7366 122.3948 111.8877 114.8973 103.7561 100.5150 96.6422 101.2912 122.6980 120.5045 118.4346 118.1711 117.7413 117.2791 116.8054 116.3131 115.7918 115.2537 114.6835 114.1002 113.4862 112.8610 112.2132 111.5677 110.9305 110.3283 109.7831 109.3440 109.0400 108.9164 108.9928 109.2506 109.6608 110.1844 110.7781 111.6500
127.7800 129.2656 120.8892 112.1916 112.2514 109.5746 110.1869 108.4154 108.7977 108.1247 109.6309 106.8695 101.0528 103.7337 116.6063 126.4347 123.0336 124.8562 124.7143 113.9111 121.5924 123.9766 120.3316 122.2634 121.5419 123.0754 122.6383 122.3892 122.7908 108.8529 112.5146 102.0780 105.0934 100.8282 99.8044 99.9252 106.7653 120.7052 118.5404 118.3651 117.9415 117.5112 117.0584 116.5807 116.0939 115.5876 115.0663 114.5265 113.9827 113.4233 112.8556 112.3033 111.7636 111.2658 110.8299 110.4822 110.2538 110.1596 110.2160 110.4157 110.7253 111.1479 111.6362 111.6800
127.7900 119.9111 112.4509 112.1315 112.2890 109.8168 113.5133 109.2610 111.8569 110.8668 109.9419 107.1730 109.7708 103.1253 101.3536 125.2553 120.9363 123.4802 125.4504 114.3976 123.5577 121.0259 123.7197 123.6646 123.5672 122.1353 122.8583 122.4607 123.1110 105.4489 125.6182 115.5904 102.6309 106.9040 97.4016 115.0221 109.8124 119.4409 118.8237 118.5459 118.1152 117.7021 117.2903 116.8688 116.4162 115.9501 115.4608 114.9752 114.4781 113.9810 113.4853 113.0106 112.5517 112.1389 111.7843 111.5050 111.3247 111.2489 111.2902 111.4435 111.6999 112.0319 112.4363 112.6800
127.8000 116.1528 117.0596 118.1228 121.4575 111.9801 113.8746 112.4823 111.4346 111.4049 107.9649 104.6617 119.7763 120.0782 102.2917 109.5648 122.9429 124.6931 124.7431 125.7288 124.3316 121.5963 123.4894 123.4114 123.3506 122.4611 122.4874 122.5707 123.0533 113.4631 120.1842 122.6557 116.6644 117.1774 116.1417 120.7933 120.5800 119.5066 119.2333 118.7449 118.4411 118.0596 117.5660 117.1742 116.7371 116.3118 115.8674 115.4193 114.9711 114.5326 114.0994 113.6797 113.2883 112.9401 112.6428 112.4170 112.2726 112.2101 112.2439 112.3737 112.5757 112.8598 113.1940 113.5000
113.7800 113.7228 113.5362 111.8349 110.3751 108.1618 108.4106 106.4655 112.6320 106.3437 104.7850 103.9649 120.2783 108.0940 102.2145 110.4858 125.8083 125.1125 124.6497 124.3984 124.2909 124.2646 123.9220 123.4653 123.2809 124.3738 123.9309 122.4584 122.3360 120.7523 121.8173 121.4703 121.9278 121.7082 121.0207 119.8735 119.8837 119.4884 119.1414 118.8681 118.6032 116.3394 117.9892 117.4602 117.0805 116.6721 116.2707 115.8657 115.4657 115.0699 114.6832 114.3189 113.9890 113.6889 113.4414 113.2506 113.1319 113.0837 113.1071 113.2144 113.3856 113.6220 113.9067 114.2200
114.2500 113.0150 110.8646 104.8649 111.0984 113.1420 110.3412 109.7122 115.5216 114.9081 108.3139 106.0292 122.7371 113.3741 122.8855 125.0678 125.0758 125.0073 124.7969 124.5967 124.3537 124.1609 123.9876 123.7982 123.1888 116.5953 116.0872 122.5079 122.5687 122.2756 121.9491 121.6705 121.3629 120.8461 120.7538 120.5009 120.1339 120.4930 120.1302 119.3315 118.8314 118.3166 118.1458 117.7893 117.4177 117.0429 116.6713 116.3067 115.9474 115.5947 115.2494 114.9341 114.6429 114.3867 114.1775 114.0100 113.9142 113.8713 113.8940 113.9853 114.1282 114.3287 114.5739 114.8900
119.7800 118.3179 112.2354 111.3357 113.5408 114.8334 113.2999 115.2009 109.9760 106.8258 106.1758 123.5499 121.8773 126.2709 126.1484 124.5257 129.3421 125.1005 124.8692 124.6538 124.4525 123.8589 125.2387 109.5684 125.4672 116.6885 124.3400 122.7479 122.5891 122.3234 122.0716 121.8024 121.5356 121.2313 120.9578 120.8356 120.0505 117.2484 103.5476 118.8855 119.0903 118.7843 118.4301 118.1047 117.7553 117.4152 117.0765 116.7419 116.4094 116.1031 115.7966 115.5118 115.2567 115.0373 114.8514 114.7149 114.6282 114.5980 114.6155 114.6889 114.8125 114.9806 115.1946 115.4200
127.9600 119.1153 114.7283 115.5567 115.1475 112.1041 111.5644 112.2772 108.5226 109.1048 124.5997 123.6307 121.5654 125.3459 119.9311 105.8167 130.7601 125.1287 124.9247 124.7339 124.5009 124.2570 124.7590 124.5319 123.3573 123.7834 118.7145 123.5721 122.7363 122.4625 122.2077 121.9420 121.6159 121.8888 121.2201 120.7283 121.8988 102.7365 117.0285 119.6928 119.3920 119.0403 118.7371 118.4155 118.0984 117.7957 117.4636 117.1783 116.8584 116.5640 116.3126 116.0611 115.8374 115.6429 115.4834 115.3667 115.2914 115.2697 115.2777 115.3465 115.4534 115.6033 115.7894 116.0800
118.8900 113.2204 112.6072 115.9350 112.2307 113.8953 112.6740 107.1088 107.5864 106.0905 104.1118 120.9826 113.7381 118.2143 124.0502 116.9412 125.0858 125.3109 124.9929 124.8030 124.6852 124.6072 123.9071 123.9049 124.6707 121.0473 123.8716 122.1650 122.8691 122.5532 122.3388 122.1121 121.8283 117.4287 121.6400 120.5642 120.8054 97.2492 113.5966 120.2653 119.6033 119.3211 119.0303 118.7477 118.4649 118.1511 117.8541 117.8319 117.7497 117.1609 116.7920 116.5902 116.3845 116.2172 116.0787 115.9715 115.9118 115.8844 115.8982 115.9593 116.0491 116.1792 116.3382 116.6200
116.7800 113.0863 112.3536 110.4053 108.9484 108.9668 111.6273 108.4546 105.6425 107.5122 104.1081 116.5346 121.0243 117.2956 126.9191 126.4986 125.5887 125.2661 125.0863 124.9120 123.4340 122.5136 125.1907 123.7245 124.1540 104.7980 115.2782 117.5259 122.9456 122.6100 122.4869 122.2428 123.0769 108.3857 118.3197 120.7871 121.9513 122.4642 119.4817 120.1338 119.9206 119.5932 119.3150 119.0448 119.2119 119.8616 118.2035 117.9787 117.1432 114.8363 117.3215 117.0943 116.9042 116.7570 116.6349 116.5531 116.4782 116.4583 116.4819 116.5265 116.6102 116.7258 116.8688 117.1200
116.7800 110.0114 109.7151 110.3544 111.5498 111.1803 108.8083 109.6196 107.6030 108.1092 104.3994 113.5296 124.6972 128.4487 125.9001 127.4833 125.5459 125.3173 125.1702 125.2312 121.6490 121.5507 114.1651 125.1126 121.4450 121.7340 107.1797 124.7255 123.0644 122.8555 122.5622 122.4437 122.1735 114.1463 122.5059 123.1002 121.1832 121.0332 116.0959 120.8206 120.1035 119.8783 119.6219 119.4186 119.0373 118.0554 118.7347 118.2829 118.3302 117.9711 117.8475 117.5651 117.3975 117.2641 117.1602 117.0742 117.0370 117.1346 117.0141 117.0638 117.1322 117.2407 117.3632 117.6000
116.5100 112.6679 110.9925 110.6961 110.5388 110.8525 111.6300 111.6776 107.0111 105.0909 105.7023 121.5135 125.2375 121.2227 129.0358 127.5962 125.6464 125.4048 125.2772 124.9910 125.5805 125.8768 112.2645 124.7787 125.4327 125.4962 126.6190 124.7240 122.2167 122.8880 123.2190 122.6365 122.1793 110.9991 117.4364 115.5267 121.0639 121.5921 121.1745 120.5630 120.4094 120.1525 119.9054 119.7218 119.4439 119.0986 118.9187 118.7449 118.5288 118.3349 118.1468 118.0304 117.8691 117.7536 117.6424 117.5884 117.5072 116.0740 117.4393 117.5567 117.6277 117.7273 117.8374 118.0500
117.8900 115.2321 110.8224 111.0575 111.6703 111.9884 109.1415 108.3355 105.0374 104.9089 121.8629 114.1787 114.2326 126.2193 126.1641 125.6241 125.6790 125.5149 125.3467 125.5685 117.3370 125.8373 125.5209 122.3039 124.2106 124.1513 113.9366 106.9188 126.6198 120.1618 120.0506 122.4851 124.6300 112.2476 101.9172 115.9754 122.5491 121.1948 121.0592 120.9144 120.6498 120.4283 120.1996 119.9669 119.5617 119.5872 119.3321 119.1079 118.9357 118.7597 118.6013 118.4429 118.3093 118.2103 118.1371 118.0276 118.3240 117.1544 115.9301 117.9460 118.0960 118.1897 118.2883 118.4900
111.7500 111.2953 112.3009 107.8615 109.4457 107.6850 109.4859 106.3692 105.2398 105.4631 108.5218 115.6957 118.1510 127.7735 126.0589 126.0155 125.8190 125.6172 125.4340 125.5823 120.7721 124.8284 124.8926 123.8129 124.3096 124.4450 115.3814 116.7194 107.8754 101.1427 107.4929 107.5082 108.3752 102.7425 102.9309 104.1778 119.6536 121.5885 121.3558 121.1342 120.9142 120.6887 120.4598 120.2579 120.9798 119.8016 120.0471 119.4667 119.3090 119.1451 118.9996 118.8669 118.7786 118.6550 118.5504 118.5286 118.2701 123.7478 123.1618 119.6532 118.4560 118.6345 118.7070 118.8800
112.3700 114.3538 108.7417 108.0726 109.0573 109.3305 106.7489 105.3764 104.7066 103.6541 115.1624 129.5582 126.5036 126.4041 126.2714 125.9669 125.8012 125.6848 125.6368 125.3422 125.4470 125.2275 121.3239 124.6400 124.8162 124.4901 123.7265 123.6359 104.1846 119.8100 121.4036 109.1226 101.3025 103.7262 100.2176 118.2799 122.3827 121.9994 121.5692 121.3766 121.1324 121.0064 120.9782 120.3578 121.8950 115.4161 122.1541 119.6836 119.6664 119.5245 119.3934 119.2321 118.9856 119.0044 118.9867 118.9432 118.5822 118.2598 118.7723 108.6750 120.2930 118.9492 119.1232 119.2700
107.5400 109.5069 109.0632 110.3900 108.9187 105.6770 104.7766 106.8500 110.7841 114.7013 133.7901 132.6139 126.8538 126.4182 126.0785 125.7826 125.8232 126.2537 125.5859 125.3875 125.2254 125.3536 125.4564 125.3531 119.7565 124.6658 123.9973 123.7641 121.9388 124.0044 118.7650 101.0127 118.5989 100.5106 112.0409 123.6351 121.7217 122.1019 121.7874 121.6179 121.4465 121.3770 122.3695 106.1430 106.5856 111.5358 121.2342 119.9733 120.0187 119.9198 119.5720 119.7442 119.8796 118.4490 118.7031 119.3390 119.4183 119.3844 119.6407 115.9534 119.5856 119.4206 119.5141 119.6400
107.3900 113.9633 110.7510 105.9242 107.9909 110.4583 115.0258 111.0584 107.9456 109.8719 124.4524 106.2154 129.4039 126.0791 126.1637 128.4671 109.6551 132.2418 125.5874 125.8296 125.6560 122.1460 117.4619 124.9756 124.0726 124.8995 124.2543 124.2158 123.8113 124.9188 108.7359 105.2463 125.3223 121.2986 123.0999 122.5723 122.2986 122.2402 122.0459 121.8774 121.7876 122.4860 105.1665 96.4142 104.8876 120.9303 120.8183 120.4668 120.3571 120.2608 120.1625 115.1960 117.7842 119.8980 119.8301 119.7429 119.6900 119.6933 119.6898 120.0719 119.7733 119.8133 119.8900 119.9900
118.2700 105.7960 108.3381 110.4729 113.5124 113.8949 112.5871 109.6914 106.7972 107.6961 116.5913 119.9703 124.7445 114.3387 128.8227 106.2936 116.0119 126.9879 125.7990 123.0081 123.7366 125.2599 131.9630 124.7804 124.2036 131.6497 123.6656 124.3401 124.1528 123.9098 124.0052 123.2293 123.7539 122.8590 123.0388 122.9228 122.6520 122.4482 122.2934 121.9949 122.4818 111.9135 101.7792 103.7015 103.8368 121.3125 120.8127 120.7863 120.6896 120.5924 120.4795 121.1133 120.3194 120.0754 120.1662 120.1152 120.0851 120.0862 120.0907 120.0861 120.1635 120.2087 120.2578 120.3300
110.0900 110.8225 120.2772 112.6469 113.0628 113.6109 110.6972 106.1689 104.7606 109.7327 105.8405 105.8402 124.8773 127.7643 123.4553 124.4671 127.5031 126.8345 125.4455 126.2616 126.7971 127.3703 121.8359 124.0717 124.6951 124.7454 124.6013 124.4837 124.3247 123.8521 123.7821 123.6110 123.5734 123.8225 119.1538 118.8982 123.2121 122.5466 122.5139 122.0688 123.7286 113.7798 103.2277 108.3987 111.1429 121.5099 121.4048 121.0977 121.0063 120.9034 120.7428 120.6221 120.6024 120.5786 120.5044 120.4803 120.4246 120.4040 120.4600 120.4706 120.4942 120.5449 120.6117 120.6600
116.8100 116.9352 119.1071 112.3972 112.0251 110.5430 108.3078 108.0230 105.5441 104.7017 115.9862 113.4821 127.2427 127.5726 112.6517 113.8895 126.6201 128.8533 126.0982 114.9597 119.1282 110.7638 99.2722 118.5340 125.7067 124.8541 124.8568 115.0564 120.4387 124.5375 124.1101 123.9536 119.6462 126.0631 109.9955 120.1937 123.3790 123.1239 122.6823 122.6011 122.2773 118.8482 107.7097 112.1345 103.0085 122.9599 121.5118 121.4114 121.3144 121.2031 121.1333 121.0581 120.9654 120.9069 120.8675 120.2056 119.2543 120.6412 120.8521 120.8190 120.8460 120.8960 120.9501 120.9800
116.0400 112.8638 110.9313 109.4142 110.1719 109.7284 109.0820 105.3357 106.0108 105.7001 125.9530 124.7999 119.2774 128.4524 119.1198 108.5652 127.4030 113.4904 110.3875 106.2710 109.6510 105.9744 109.0752 125.5232 124.8451 125.0041 126.7691 112.6427 118.1319 125.6540 114.9674 125.9958 116.0203 123.3134 124.9325 120.1890 123.1581 122.1246 123.0103 122.7467 125.2058 121.4707 108.3572 125.5519 120.6803 123.0121 121.9265 121.7070 121.6157 121.5195 121.4217 121.3462 121.2790 121.2463 120.8720 117.7974 114.4175 120.8837 121.2540 121.1442 121.1767 121.2210 121.2699 121.2800
111.2600 107.8868 109.8127 109.4235 114.2176 107.3016 109.9799 105.2700 107.6150 112.9685 124.2807 110.3242 124.7558 125.4923 126.9585 128.3648 127.5136 112.7972 109.0475 121.2706 110.8580 105.1276 121.0746 130.8101 125.1869 124.1864 124.3477 126.6033 112.5038 128.2262 109.0895 104.3659 124.2267 119.5231 122.8409 122.9113 114.3882 122.8947 123.0481 122.8651 127.1519 108.9636 107.7454 121.3963 123.5217 122.1044 122.1012 121.9942 121.8979 121.8106 121.7323 121.6605 121.6203 121.6354 121.9289 116.5461 116.7086 121.2146 121.5957 121.4675 121.4979 121.5387 121.5807 121.5700
108.0000 107.8411 113.0335 107.7344 110.4673 106.7160 102.7559 117.3163 112.3063 117.9527 111.5000 117.5198 127.8392 124.5675 115.1108 127.3555 127.7746 130.5223 112.5935 115.1494 117.1991 113.6306 123.2175 106.3638 117.0147 122.4259 126.7877 119.7006 117.0645 125.1421 124.4634 120.3175 125.9920 115.6231 101.9660 108.8091 108.2535 121.3950 123.8938 122.2901 119.3779 107.5780 126.3405 108.7441 122.2409 122.3982 122.3537 122.2847 122.1787 122.0958 122.0216 122.0301 121.6263 119.1153 115.2590 122.4347 121.9630 121.7899 121.8235 121.7995 121.8018 121.8434 121.8821 121.8600
108.0000 113.7015 114.1053 111.7633 109.1611 110.1058 119.4528 118.0582 123.6945 105.7022 119.0684 122.2916 126.1901 124.1496 122.1463 127.4101 125.3736 115.7336 103.2545 121.1212 126.1907 127.7287 126.7571 115.1516 122.3678 125.1040 120.0968 95.6491 104.5698 124.8297 126.7138 122.4027 124.5539 119.6986 104.1605 112.5584 97.8451 123.0598 124.2608 121.9610 106.9063 111.6916 122.2350 123.9764 123.4537 122.4848 122.7788 122.4484 122.4551 122.3810 122.3038 122.2917 122.0102 120.1937 121.9477 121.6346 121.9697 122.0163 121.9420 121.9554 122.1009 122.1379 122.1803 122.1300
111.2200 110.5459 108.8768 107.3197 122.2771 115.3429 128.3919 109.1556 109.7117 120.6739 108.8284 105.9036 123.3083 119.8825 119.2298 126.0981 126.6732 123.3738 120.9410 126.4741 127.5218 109.0421 125.9358 127.3767 127.0410 127.4048 116.4681 105.8180 121.7826 125.8014 108.8033 125.3352 124.8086 114.2203 99.6377 127.8490 123.0744 123.3860 122.5568 123.5959 124.3261 122.2709 123.6970 123.0986 122.7173 123.6330 122.7309 122.7318 122.7095 122.6824 122.5780 122.5421 122.3079 122.5195 122.3734 122.3849 122.8542 122.3113 122.8703 123.1310 122.3533 122.4189 122.4605 122.4000
111.7200 111.4973 107.0576 105.4891 115.9724 114.8865 111.7662 113.6582 112.2668 110.3776 109.2533 115.1381 107.6506 107.0029 122.3735 115.1559 117.7883 127.4074 134.3460 124.7059 117.6118 105.3705 122.8387 119.8271 125.6611 124.9072 105.9134 109.8673 118.1314 115.1061 127.6386 125.4192 124.5408 125.0980 121.8060 123.9448 124.7208 119.7918 123.2084 123.7838 123.7772 123.8959 123.2862 123.6057 123.4906 121.5309 124.0234 120.7875 122.9598 122.7926 122.8461 122.8077 122.8097 122.7621 122.4310 122.2709 118.0431 122.6029 123.3115 116.2900 123.3858 122.6592 122.7267 122.6600
106.9600 106.3728 105.5357 117.7581 127.9188 127.1963 127.9892 107.5147 120.2956 106.9713 106.1070 108.1702 102.8400 120.7013 127.4615 126.7356 126.1471 114.2452 110.9798 106.8314 106.6412 105.6351 107.2836 106.1231 125.7003 119.9792 99.6094 118.3942 127.5279 123.9019 125.4758 125.0786 124.8006 124.8659 124.7499 124.5487 121.4865 117.7334 123.2529 124.1067 124.9013 113.4317 117.9444 123.5319 123.3837 123.7422 123.4204 123.0537 123.1671 123.5299 123.1074 123.0431 122.9976 122.9854 122.8939 121.1269 122.6318 122.5401 122.9763 120.7502 123.0299 122.9505 122.9967 122.9100
129.0700 129.3994 124.9994 122.6157 128.7607 128.3720 129.4441 121.2773 107.0390 116.8826 104.8415 105.8758 118.5890 133.4852 126.7420 127.4022 127.9777 119.6858 119.8378 111.4506 107.5966 104.1359 101.5401 117.1920 126.6784 126.2385 107.9648 105.2505 126.4167 125.0601 125.4566 125.2373 125.0980 124.9577 124.6261 124.9149 124.2412 108.8307 124.2284 124.2773 126.5793 106.0107 130.8512 124.0704 124.2521 123.5478 124.0442 120.8227 118.4559 123.7545 123.3583 123.3079 123.2753 123.2452 123.1807 123.4068 123.1036 124.9209 123.2058 123.4090 123.2301 123.2636 123.2831 123.3900
126.9800 127.7702 129.5641 129.3703 127.8055 129.0540 128.8493 123.1088 113.6464 122.5292 107.5109 120.8280 123.5460 125.8816 127.5101 128.1741 127.3989 114.3832 127.2392 126.1399 128.0917 128.0284 128.6605 126.1530 126.4088 124.3821 111.2232 112.3969 129.7824 125.4013 125.6313 125.4202 125.2597 125.1385 125.0527 125.7700 125.9201 100.4027 113.1095 124.4653 125.5095 115.8043 123.6542 123.9823 116.9941 121.3205 121.1928 126.9766 124.0210 123.5469 123.6186 123.5548 123.5263 123.4930 123.4460 123.2608 125.5079 104.6573 124.9303 123.3855 123.4598 123.1932 123.3634 123.6200
129.2100 129.3042 128.9754 128.7467 128.9929 125.8595 122.5499 130.4988 121.5883 117.1980 110.5778 116.8245 125.4318 111.8280 122.5199 112.2037 109.6293 112.7881 120.1951 127.2306 126.3124 126.5272 125.8748 126.7933 126.9806 118.3002 104.5862 121.6619 125.7354 122.4548 125.9621 125.4856 125.4319 125.3060 125.2649 124.4940 126.6677 117.9480 115.3593 124.6293 124.6168 125.1345 120.0766 121.8113 123.4128 122.1829 101.8162 109.1420 123.7499 123.5132 123.8675 123.8011 123.7641 123.7389 123.6655 123.3883 126.5248 101.1272 126.0239 123.6341 122.8473 125.2662 124.5016 123.8400
129.2300 128.6463 129.2137 129.0064 128.6209 131.4917 111.4940 131.5454 117.2395 112.3309 127.1785 129.7642 122.5306 115.9538 123.4731 115.4724 101.5594 125.4125 127.1643 127.3449 127.1357 126.8865 126.7401 126.5299 122.5827 123.4468 123.5881 110.1411 114.2204 118.1324 126.0971 125.7968 125.5953 125.4961 125.3103 124.7195 124.5915 127.1114 124.9617 125.0148 124.7855 124.3997 124.8856 125.8835 121.4259 124.9555 122.3778 97.7110 124.2487 123.7482 124.0078 124.0438 124.0073 123.9840 123.9262 123.8158 124.3998 124.1671 124.5491 120.4944 116.9117 115.6807 113.0501 105.6600
143.2700 126.9300 129.1000 129.0100 128.9200 128.8300 128.6600 128.5700 113.9100 112.4200 128.2000 128.1100 128.0200 127.9300 115.0400 112.2600 119.3700 133.5400 121.3300 127.2300 127.1500 126.9300 126.8200 126.7300 115.6800 126.5100 105.0200 120.4600 105.1500 124.0000 125.9600 125.8600 125.7400 125.6400 125.4900 125.4000 125.3100 125.1600 125.0500 124.9300 124.9300 124.8300 124.7000 124.7000 112.6800 124.6200 124.4800 102.3300 124.3600 124.2000 124.2200 124.2500 124.0700 124.0800 124.1100 124.1200 124.1300 124.1300 124.1200 107.3000 122.0100 102.0900 102.0800 105.6600
