123.6800 121.0900 122.9000 116.7800 119.3300 124.6200 123.8100 123.6100 122.8600 122.6000 103.9000 123.0500 115.2300 112.3000 121.7500 119.6200 111.8100 111.4800 108.9900 109.2500 109.1100 117.1400 106.0800 109.2600 109.1600 107.7700 106.8800 102.7100 104.2100 106.7000 111.3900 106.8200 108.9000 108.9400 102.3000 120.6100 120.3900 101.8000 119.9400 119.4700 119.5200 106.7400 106.7900 118.8100 118.4700 118.2100 117.9500 118.0200 118.0200 117.7500 117.7500 117.4000 117.4200 117.4300 117.4200 117.4000 117.3800 117.7500 117.7000 118.0300 103.9100 118.2400 118.4900 118.4900
123.6800 129.6073 122.5466 118.0613 115.3383 119.0420 120.8194 120.6483 123.6405 121.4469 112.3134 111.5380 115.6505 114.3155 117.0684 114.3899 111.5970 111.3314 109.7831 109.6793 110.0449 112.2537 107.7115 105.9668 104.9137 108.3353 107.7647 104.5762 102.6804 103.4598 108.0709 109.2341 100.0899 104.7749 104.4548 111.4746 110.4521 108.6588 120.5649 122.3270 120.0022 109.1007 110.5169 119.1635 118.8404 117.4214 96.3475 117.6841 117.5163 117.4154 117.2940 117.2077 117.1607 117.1395 117.1501 117.1888 117.2527 117.3455 117.4583 118.6440 98.2442 111.5070 118.3366 118.4900
130.3200 122.7155 132.1035 129.6892 126.7891 119.2858 117.1911 115.3604 119.7906 119.5874 124.9516 100.3329 112.7886 122.3466 111.6886 110.4507 114.1998 110.9321 110.4751 110.6760 104.6878 107.1662 109.9340 107.3412 99.9657 104.0263 105.3612 102.6843 103.8818 102.2651 102.7153 107.0676 107.8508 101.6491 103.2105 107.4120 108.4436 116.5849 118.4411 110.3993 117.3747 116.7990 101.9787 109.8200 114.0691 115.3298 118.1302 118.7687 117.0409 116.8830 116.7797 116.6893 116.6309 116.6050 116.6109 116.6684 116.6688 116.8281 117.7384 99.0869 106.6936 123.8297 120.3794 118.0600
123.5100 119.3977 127.0019 125.3074 120.3084 130.7012 129.4428 125.0317 118.6091 113.0942 114.2969 107.4077 113.0539 120.8736 117.6240 116.2627 112.1315 109.9566 110.6799 110.6154 106.6267 107.1134 102.5997 103.5120 102.4148 100.9244 103.0582 109.2760 100.1253 103.9887 108.6159 109.5153 108.6354 106.8936 108.3393 110.7879 124.2292 115.5718 120.9637 122.3818 117.7488 119.9549 120.1376 104.9352 111.9206 100.7903 117.1435 116.5395 116.6093 116.3505 116.2355 116.1268 116.0625 116.0294 116.0501 116.0615 116.5512 116.3711 116.8806 99.2275 97.0173 90.0535 103.1608 102.6700
106.7300 114.5089 128.7094 125.1120 122.3936 126.3237 116.3553 113.6211 126.1483 126.7183 122.1049 104.4736 111.7529 111.2014 106.2112 117.4099 117.2824 114.1947 103.5227 110.0819 111.0281 115.0476 108.8841 103.3004 110.8221 112.2930 107.4867 105.6335 106.9675 99.6835 121.8451 119.9345 114.5706 101.4242 118.3460 117.7330 120.4365 116.9405 118.7677 119.7627 118.7116 114.4469 100.3127 102.0454 105.3887 93.7648 113.8635 113.7866 115.7322 115.8819 115.6428 115.5365 115.4600 115.4421 115.2959 115.2685 113.5197 116.7464 93.9654 97.4805 102.5302 106.8083 103.7343 95.0100
106.4900 120.4532 108.0609 112.1589 114.9083 106.0808 125.1617 116.7484 119.6612 111.4805 104.9383 120.2107 116.1123 121.5568 110.1434 106.6590 109.9697 115.4853 115.5216 109.2982 100.9819 115.6730 109.8965 104.3410 105.8212 107.3626 102.0776 100.7903 97.9701 113.6016 99.7955 112.0200 119.0580 98.2381 118.7274 121.3714 119.2087 118.8671 118.5650 118.0845 117.6939 116.1331 107.8948 92.8476 101.6068 100.6376 102.5135 115.4576 116.7085 114.7415 115.0519 114.8901 114.8100 114.7760 114.7162 113.9785 115.4684 103.9158 110.2090 108.2001 116.6798 115.2732 115.3607 116.5400
122.1600 123.6749 127.5477 117.5547 109.6456 123.4308 105.5926 106.3071 108.5409 121.7156 116.2310 115.5279 103.8445 106.6618 121.3135 109.7276 117.7129 109.7496 109.7846 108.5201 106.2176 110.1539 109.3621 111.6255 105.4477 103.9976 103.4863 108.8857 121.4319 121.0625 104.2131 100.3001 112.9436 106.1819 105.8714 109.0974 119.3289 118.5691 118.2492 117.9023 117.5338 117.0976 118.1814 99.8646 114.2372 101.8615 100.2859 108.7199 117.9642 114.7579 114.3680 114.2039 114.1034 114.0659 114.0325 114.1836 115.4006 100.3737 107.0193 115.7699 110.2623 115.4017 121.6487 95.2200
111.8300 109.3801 120.9787 114.6065 120.1203 124.9800 117.1580 113.0153 103.0394 103.9878 103.6311 102.0392 113.4159 112.3772 109.0817 107.1833 106.8490 115.3573 113.9430 105.0012 108.0691 108.8539 108.8666 110.5663 103.6991 101.3175 100.6367 115.8539 111.5706 121.5051 120.2768 121.9023 99.0576 123.1551 121.6104 114.3848 118.9863 118.1971 117.9727 117.5407 115.8341 116.9720 116.3796 117.7579 105.5074 107.1097 110.6542 117.4415 107.6316 113.8455 113.6394 113.4610 113.3399 113.2885 113.3044 113.3549 114.5129 114.3147 114.3436 114.2310 114.9065 114.3998 111.8481 115.8400
125.1800 124.7125 123.7195 111.7422 111.2458 110.9749 108.8175 108.2084 115.8671 119.6223 115.2038 104.5119 102.9110 102.1596 104.7400 121.8183 110.4328 112.1275 109.7806 109.1194 108.5018 103.6927 104.4512 107.8197 108.9439 113.1767 107.0511 100.8772 144.4614 118.0627 100.3746 95.8652 122.1507 117.1907 118.4272 118.5329 118.5769 117.9175 117.6337 117.2296 116.9012 116.4171 115.9389 115.8399 113.8533 113.2168 107.2646 117.1180 113.9454 113.4472 112.8352 112.6451 112.5038 112.4456 112.4542 112.5807 112.6379 112.9581 113.2810 113.6814 114.9319 110.8975 100.1499 115.3300
123.9200 125.0625 118.5989 118.5619 118.3887 118.4309 120.7945 110.3600 110.2462 104.4942 105.1176 103.8432 105.0155 105.2113 124.1103 106.9866 102.9434 103.6104 112.7511 104.3555 111.8113 103.3542 107.7547 100.8716 108.9809 108.2240 112.9256 129.7851 123.3862 125.0559 124.3613 103.0725 121.1774 118.0725 119.1791 118.6661 118.5162 119.5059 117.3719 116.9532 116.3002 116.6330 114.9665 116.1047 97.9502 97.2738 108.9700 109.5737 112.7715 112.3147 112.0508 111.7512 111.5795 111.5028 111.5323 111.6686 111.9338 112.2274 112.5989 113.1338 113.0690 115.4215 107.2463 114.5200
124.5600 120.4759 122.0392 116.8453 117.7040 117.2757 116.5179 116.6944 118.1842 116.6584 118.9395 110.2365 107.4169 121.6283 116.4045 108.7819 110.1818 109.9022 109.0913 109.6878 100.8597 105.2924 112.5814 101.8977 113.7920 118.0380 121.4661 122.6463 120.1074 120.1642 119.4767 121.8308 121.0008 119.8206 118.9598 118.4156 117.7552 98.8157 118.3092 116.3013 116.0676 115.1460 115.4185 112.5253 111.0833 114.8281 112.8873 113.0364 111.9762 111.5053 111.0934 110.7734 110.5430 110.4496 110.4931 110.6696 110.9562 111.3441 111.8012 112.2917 112.7951 114.0582 119.1833 114.5200
116.5600 117.8871 116.5572 113.1602 116.0766 114.8357 115.7500 114.5496 114.1445 118.4090 116.1908 117.7266 118.8645 115.8557 112.7964 108.7084 108.7497 108.7943 117.0687 111.0069 106.2941 102.4445 100.8588 113.7287 113.5304 126.0739 120.4302 120.4372 121.2179 120.7059 121.4420 114.2661 114.4918 118.8395 118.7099 118.1481 118.5769 125.2347 120.3494 119.2645 116.6025 97.7358 107.9488 115.3127 114.1109 112.5672 112.1943 111.7880 111.1470 110.6060 110.0851 109.6696 109.3757 109.2529 109.3066 109.5326 109.9040 110.3874 110.9517 111.5261 112.2797 112.9613 116.2783 91.7000
123.1700 124.1854 122.4351 116.9244 115.5269 115.2260 112.8511 109.1797 112.2433 109.7793 114.4637 112.8202 113.9331 114.2587 114.9598 114.8288 113.4372 114.4557 107.6063 106.5891 101.8913 104.7396 101.3575 109.4760 116.8034 118.4445 121.3820 120.8807 120.4616 120.1972 123.3011 103.5242 108.7724 121.2225 118.4336 117.9015 117.9481 114.4066 97.2261 101.8893 115.8004 119.0569 117.8190 108.8186 113.0341 112.4185 111.8162 111.0543 110.3296 109.6144 108.9674 108.4197 108.0357 107.8583 107.9358 108.2407 108.7332 109.3431 110.0466 110.7549 111.6002 111.6712 113.3020 91.7000
116.8800 116.6803 119.4108 118.6877 119.0381 118.3833 118.5538 107.8913 118.3526 104.5652 110.4165 108.9853 107.5151 107.6598 106.3013 109.1382 104.0900 103.3838 99.6581 99.6726 115.8870 101.0933 104.0460 117.2435 118.6991 119.4749 121.4924 122.0369 121.4889 123.2550 107.6125 95.5439 118.0659 120.2429 118.3902 118.1849 109.3511 116.3106 109.2708 106.0285 112.7406 97.1766 108.7139 104.7474 113.5030 111.8604 111.1424 110.2966 109.4264 108.5562 107.7197 106.9868 106.4512 106.2085 106.3192 106.7468 107.4066 108.2184 109.0816 109.9585 110.7920 111.5692 112.6093 96.9100
119.0500 119.7443 119.1864 118.1037 117.6735 117.2167 117.3692 110.3431 111.9540 108.9007 109.1464 109.0467 106.0836 106.0849 106.3852 108.5459 106.8021 100.4934 100.2547 110.7661 105.9250 102.3288 100.8664 120.5604 113.2482 120.9238 122.7131 106.2958 117.2122 119.9754 94.7367 95.3554 112.4409 115.2579 117.9772 117.3917 117.8961 100.3851 93.1102 117.0067 115.0950 107.3209 111.5910 111.0976 112.7273 111.4468 110.5296 109.5607 108.5216 107.4376 106.3457 105.3290 104.5469 104.1647 104.3291 104.9803 105.9334 107.0101 108.0912 109.2021 110.0524 110.9459 109.1027 96.9100
118.0500 119.7892 122.4326 116.8860 117.5603 118.1110 117.9970 117.1830 114.5331 114.3128 111.6414 105.1682 105.3009 113.9079 114.0624 111.3135 108.2699 108.9107 108.6441 110.8942 106.0902 103.7753 105.6187 124.5561 105.9885 123.3751 118.0873 119.1177 122.0628 100.4832 104.7214 118.4028 116.2518 118.2652 119.2159 117.6421 120.0391 104.0865 118.1260 98.4929 117.1098 115.3400 113.7159 113.0397 111.8787 111.0150 109.9768 108.8627 107.6383 106.2858 104.8440 103.3879 102.1108 101.4817 101.7689 102.8406 104.2748 105.7306 107.1199 108.3452 110.4511 101.7693 112.2007 108.4500
127.0900 126.1154 127.4732 117.0377 119.7498 114.1931 115.2342 106.7026 113.9244 112.6715 117.4361 112.9209 110.8990 106.8379 107.7518 106.9558 104.0587 101.0813 115.8898 109.2779 104.4641 100.4820 100.1291 101.2948 100.8773 100.8786 120.4420 120.9847 121.5850 107.0942 98.5545 117.9770 118.5288 120.9931 99.8143 109.1492 101.4268 94.8146 97.5664 91.4562 110.2062 112.7042 111.2074 112.4463 111.6545 110.6173 109.5129 108.2571 106.8274 105.1859 103.2939 101.1090 99.0955 97.6021 98.2691 100.2642 102.4705 104.4748 106.2048 107.7349 109.1289 109.3335 111.1199 111.8600
127.0900 127.5442 117.1367 118.1080 117.5098 119.8460 113.6738 109.2301 113.0414 110.5869 113.3244 113.2465 108.6054 112.7699 106.3003 112.3113 105.5800 104.3202 101.2757 124.2081 116.0973 123.1980 122.4125 122.0955 121.4464 121.2730 121.2149 120.7725 120.4526 120.1952 119.5483 119.1457 118.9579 117.9190 115.5128 98.9019 98.1196 101.4666 94.6321 95.3592 90.0442 122.7872 104.9089 113.0683 111.1503 110.3416 109.1578 107.7931 106.1853 104.2483 101.8343 98.8169 94.0835 91.0185 92.4141 97.2313 100.6960 103.3781 105.4721 107.2062 108.6455 109.9044 110.9675 111.7700
127.0900 126.8492 127.0637 118.2951 119.0183 120.5795 117.2906 103.6259 110.6014 110.8063 114.4842 113.4946 104.2161 109.9246 102.6235 102.3485 102.1365 113.3460 117.1223 111.2810 123.5981 122.6583 122.1196 121.7277 120.8882 118.6827 95.5397 119.4450 119.9239 120.1481 119.5390 119.1362 118.8526 118.4970 117.8466 119.7005 101.3528 102.3804 94.1280 96.3734 95.0700 114.6059 112.4584 112.6018 111.4027 110.2193 108.9581 107.5153 105.8019 103.6650 100.8218 96.7755 89.2751 85.5846 87.2156 94.1046 99.4126 102.6679 105.0288 106.8904 108.4308 109.7343 110.8670 111.7200
127.0900 122.4445 116.6637 119.1197 120.9609 120.5522 115.9137 114.6564 114.5958 110.7862 113.0931 116.8807 112.5375 109.1229 122.9127 107.4585 111.5585 119.6619 119.7129 118.7427 123.2288 122.7536 122.5084 122.1770 121.3563 119.2767 98.6061 100.9712 114.7268 120.5279 119.8479 119.3660 118.8942 118.4391 117.9268 118.5398 102.7181 98.0519 95.8045 100.2169 95.9659 115.5197 112.7961 112.0099 109.9518 109.9892 108.8735 107.4845 105.7464 103.5777 100.6687 96.3975 88.4727 84.3280 86.0616 93.5070 99.2170 102.5660 104.9610 106.8472 108.3832 109.7894 110.9346 111.7000
127.0900 115.1802 116.1663 115.6320 117.2464 108.2541 115.5681 108.7226 115.1022 108.9160 108.7162 108.3006 107.6672 107.2873 106.3020 105.0131 105.2388 114.4567 117.4119 115.8950 120.7367 122.6016 122.3560 122.0370 121.5913 122.7574 101.8200 121.3364 108.8153 120.2848 119.8118 119.2951 118.9137 118.4704 118.0450 117.6819 117.8951 100.8503 105.2797 113.9195 97.9411 115.8402 112.9899 111.8748 104.9352 110.6283 108.9649 107.6735 106.0259 104.0076 101.4426 97.9425 92.7038 88.8188 90.2672 96.1531 100.1906 103.1008 105.2898 107.0753 108.5511 109.3684 110.1266 111.7200
116.0500 114.9307 114.0362 112.0602 111.3124 112.5280 111.8953 111.9158 107.4223 109.3423 108.6114 108.6059 108.2667 110.0949 107.2241 108.0723 107.0349 114.4410 118.2583 108.8413 121.5051 122.3860 122.4095 122.2194 121.5032 119.5903 115.5623 115.9103 118.0065 120.2033 119.7741 119.3580 118.9199 118.4923 118.0442 116.9512 117.3512 111.6464 110.8651 107.8422 116.4063 113.8979 113.2525 112.6300 112.0064 110.4510 109.3879 108.0825 106.5937 104.8445 102.7776 100.3368 97.6791 95.5180 96.6008 99.3532 101.8630 104.0883 105.9428 107.5316 109.0036 109.9208 115.8281 111.7700
116.0500 112.8204 111.4987 106.1993 110.3708 108.6269 108.5028 108.6595 101.4563 106.2595 103.0636 102.5437 102.8196 105.8126 103.1676 104.5046 106.8692 115.2669 120.4503 117.2956 123.4243 122.6705 122.3559 121.6568 121.4766 122.8032 124.4581 122.8938 120.7649 120.1875 119.7869 119.4125 119.1196 118.7186 118.2143 117.5804 117.3696 117.1288 110.2508 117.0012 114.4742 114.2363 113.4507 112.5369 111.6863 110.8650 109.8044 108.6499 107.3552 105.9163 104.3173 102.6938 101.1602 100.3624 100.7332 102.0237 103.6850 105.3180 106.8103 108.1604 109.4171 109.8495 118.6029 113.6500
108.2900 108.0654 114.1244 109.1551 109.6378 109.1968 110.3123 107.7789 109.7870 108.4050 107.3122 107.8929 112.3605 105.7167 112.0082 110.9885 106.1198 113.4891 122.8953 113.8252 123.7441 122.7282 122.5857 124.2042 121.4848 106.0284 107.4528 114.3719 120.5376 120.2555 119.8619 119.4473 118.5884 118.0510 117.9341 117.9340 117.1204 115.9712 100.5304 117.1339 114.9684 114.3833 113.7171 112.9895 112.1821 111.2876 110.3447 109.3211 108.2192 107.0512 105.8528 104.6990 103.7827 103.3295 103.5429 104.3046 105.3954 106.5848 107.7757 108.9047 109.9266 110.9785 111.3441 112.6900
105.1000 112.0118 114.5424 117.5020 112.5759 113.9106 112.0522 113.5505 114.1669 112.8437 113.3519 113.5086 112.7288 112.9923 118.8125 106.4407 111.4768 110.5914 122.3402 120.7885 123.1868 122.6356 121.5045 106.3592 118.4806 103.6785 105.5310 124.0095 120.4608 120.2728 119.9699 119.5371 120.7753 120.4572 119.4449 115.4777 117.4909 117.5048 115.5514 115.9165 115.3289 114.6523 114.0006 113.3034 112.5573 111.7710 110.9277 110.0492 109.1238 108.1834 107.2778 106.4490 105.8389 105.5644 105.6813 106.1823 106.9404 107.8276 108.7627 109.6936 110.6007 111.4664 112.4094 112.8300
105.1100 113.6071 109.6852 116.3346 108.7717 110.9315 110.6533 114.1454 114.0668 110.1352 114.7905 111.2614 114.3787 114.1154 116.6560 103.5267 119.3925 114.7255 120.6759 123.3520 123.0899 122.7768 120.8865 115.9027 122.9965 118.5175 121.8288 118.1228 121.0307 120.3846 119.6748 120.1580 99.3109 110.7128 116.3430 116.1698 117.6449 117.2880 116.7532 116.0263 115.5125 114.9423 114.3351 113.6862 113.0087 112.2992 111.5612 110.7979 110.0245 109.2669 108.5501 107.9542 107.5225 107.3276 107.4165 107.7659 108.3072 108.9795 109.7259 110.4994 111.2676 112.0043 112.7189 113.0000
119.5000 118.4233 110.8113 113.8050 125.5759 115.8386 112.5566 119.7478 113.3777 114.8081 112.7483 114.1673 106.3300 109.8444 108.3194 103.0101 123.1207 115.9571 124.4974 123.4031 123.1232 122.8473 122.8494 122.5104 123.5194 106.1675 119.9223 120.9030 120.6281 120.4768 120.0423 119.6939 116.3354 117.4002 117.9094 118.3260 117.7335 117.2944 116.8074 116.3325 115.7951 115.2516 114.6930 114.0975 113.4850 112.8523 112.1976 111.5420 110.8944 110.2756 109.7211 109.2613 108.9379 108.7969 108.8605 109.1123 109.5215 110.0549 110.6537 111.2962 111.9429 112.5986 113.2436 113.6800
127.1200 126.9113 126.6983 117.7690 111.8805 112.2699 116.3430 110.3148 115.5963 115.6856 112.1578 104.9893 102.8004 102.7865 105.9134 112.5524 110.2571 121.9336 117.7455 124.0199 123.1526 122.9155 122.6244 122.3145 122.4483 121.5807 121.1663 121.3055 120.9240 120.5674 120.2280 119.7592 120.4266 121.5003 123.0642 118.3355 117.8980 117.4712 117.0632 116.5610 116.1062 115.5961 115.0659 114.5229 113.9710 113.4093 112.8353 112.2703 111.7254 111.2184 110.7684 110.4047 110.1581 110.0603 110.1131 110.3080 110.6215 111.0327 111.5299 112.0574 112.6146 113.1882 113.7502 113.8600
119.3100 119.0756 118.1850 111.1303 112.4055 112.0063 105.7307 104.2171 104.1038 103.6897 104.3301 108.4459 110.7775 104.8298 104.0548 105.1199 101.8249 116.0320 121.1437 123.7631 123.1950 122.9800 122.7624 122.4781 122.1925 121.8857 121.6615 121.2867 121.0159 120.6952 120.3833 120.0525 119.5880 120.2717 118.4242 118.8742 117.7096 117.5554 117.3464 117.0807 116.3903 115.9624 115.4525 114.9625 114.4700 113.9586 113.4605 112.9659 112.5060 112.0880 111.7188 111.4305 111.2381 111.1536 111.1482 111.2750 111.5928 111.9499 112.3424 112.7989 113.2718 113.7657 114.2867 114.5000
119.1200 112.9779 107.6055 108.3061 106.5667 107.0011 104.3475 117.4459 116.1505 115.4818 112.3314 112.1536 106.1892 107.5773 106.8071 107.8452 107.7606 107.6972 118.1190 122.8032 123.3428 123.0709 122.2167 122.6368 122.2702 121.9901 121.2383 121.3720 121.1452 120.8276 120.4990 120.1871 120.2583 120.4964 119.0912 114.1582 110.0964 118.4585 115.0830 114.3732 116.8115 116.2732 115.8502 115.4111 114.9562 114.5133 114.0672 113.6481 113.2502 112.8943 112.5913 112.3486 112.1951 112.1390 112.1737 112.5192 112.5533 112.6882 113.1257 113.4864 113.9166 114.3250 114.7367 115.1000
118.9600 110.3507 109.5951 119.4521 113.9572 112.0996 112.8433 113.2624 113.5095 112.1187 107.7641 107.1444 107.6886 108.9742 112.3782 124.0180 125.9257 126.2456 117.2480 122.7246 122.9069 122.6764 119.2726 122.9157 122.4251 121.0393 120.5208 121.6100 121.1705 120.9955 120.6598 120.3075 118.9893 114.3054 107.5797 119.9838 121.0846 114.7907 102.5566 99.9363 118.1256 116.4466 116.2932 115.8490 115.4448 115.0474 114.6588 114.2847 113.9496 113.6438 113.3862 113.1910 113.0638 113.0125 112.9673 111.8150 110.9723 113.4938 113.8370 114.1546 114.5718 114.7085 115.0973 115.2100
119.0300 119.5689 118.4014 116.3255 114.2032 111.4129 108.1211 104.7173 109.6161 103.5227 107.0277 103.9091 112.6802 108.9597 124.5402 108.7707 125.6502 122.1280 124.2687 124.0910 124.2847 125.1630 123.2133 123.3832 119.9900 122.6899 122.3581 117.3513 121.6969 121.1369 120.8443 120.5948 114.6751 101.2136 103.6780 121.6648 115.0994 103.3944 121.6021 120.2646 117.8245 117.0649 116.6630 116.2912 115.9242 115.5662 115.2232 114.8943 114.6007 114.3385 114.1239 113.9542 113.8518 113.8217 113.7598 114.5775 113.2648 114.8459 114.4324 114.7823 114.7391 116.6711 104.7989 115.8300
119.0600 120.0418 113.0355 109.9321 112.0859 111.9336 111.2192 111.5988 115.6745 106.3202 115.2941 106.4242 114.9686 111.0051 127.6465 107.8496 125.2276 123.5611 123.7627 123.3079 123.2480 121.1221 122.6765 123.3367 118.5306 122.0859 121.7651 111.7956 121.8189 121.2677 121.0014 120.1778 121.2203 98.0750 119.1063 115.7292 99.8375 118.9746 118.1286 113.5399 117.5149 117.3954 117.0496 116.7235 116.3932 116.0653 115.7646 115.4798 115.2148 114.9908 114.8028 114.6606 114.5694 114.5295 114.5219 113.7177 106.6000 114.3804 115.0436 115.3767 115.6778 117.2663 117.8467 116.3500
127.3100 119.8697 121.4470 120.9084 113.6078 112.4839 114.5578 115.1072 113.7182 111.2354 110.4025 104.4099 103.0549 103.6794 111.3909 114.4708 112.8166 124.5768 124.5322 117.4353 113.1014 122.5884 123.0191 123.3541 123.4503 122.5451 123.5308 123.8925 121.5335 121.4390 121.1364 120.5975 124.7387 111.8658 113.6024 107.5897 105.1998 106.4383 116.3054 118.0789 118.5491 117.7976 117.4556 117.1529 116.8544 116.5584 116.2844 116.0236 115.7967 115.5998 115.4369 115.3215 115.2409 115.2123 115.2102 115.3031 115.9335 116.0150 115.6270 115.9418 116.2557 115.9723 116.6149 116.8700
127.4500 122.8599 117.6175 114.3945 112.1384 115.1298 110.4843 113.1717 111.9345 109.2000 107.8000 108.9375 111.5659 104.6695 100.8446 126.1553 116.3545 122.5986 124.8139 114.5356 122.2143 124.1032 123.3421 122.7017 122.2282 122.0540 122.2265 121.8923 121.8448 121.5570 121.2818 121.4362 111.1099 100.8041 104.1681 100.4808 110.3410 101.4104 115.9299 118.9552 118.3352 118.0617 117.7479 117.4961 117.3078 117.0295 116.7729 116.5510 116.3505 116.1724 116.0340 115.9270 115.8592 115.8261 115.8413 115.8935 115.8871 115.9613 116.2999 116.4707 116.6908 116.9677 117.1937 117.4900
127.4700 127.5687 108.8479 110.0525 111.9450 111.9931 113.6048 107.4768 108.2241 108.9319 109.9231 104.3255 119.4234 102.6574 121.1444 123.3940 125.4137 132.6323 123.3856 124.5672 123.9979 123.4142 123.4842 123.7601 125.1572 124.0885 123.8591 122.3597 122.0219 121.7374 121.5117 121.3289 118.0388 108.9917 96.7111 97.9820 104.5026 124.3534 119.1296 119.1131 119.0741 118.3720 119.3455 117.7028 117.7950 117.4647 117.2599 117.0506 116.8739 116.7182 116.5976 116.4976 116.4386 116.4113 116.4233 116.4754 116.5682 116.7040 116.8055 116.9795 117.1776 117.3892 117.6265 117.9100
127.4800 116.3895 111.9509 114.0321 105.5666 104.7917 107.2810 112.8914 109.3772 108.5934 108.1883 103.2514 124.2788 112.9751 107.1313 111.4202 118.0917 136.7997 123.2555 124.3490 123.9090 123.8316 123.0431 122.8035 103.3399 102.3610 114.7937 122.7879 122.0957 121.9215 121.6735 121.4049 121.3643 120.5588 117.8335 115.2936 109.9022 119.8129 118.9657 119.3336 119.4730 113.0458 118.5345 118.4692 117.9454 117.9483 117.7102 117.5312 117.3651 117.2257 117.1227 117.0323 116.9838 116.9605 116.9703 117.0128 117.0808 117.1781 117.3135 117.4700 117.6383 117.8319 118.0432 117.9700
114.6100 112.9668 105.9482 111.4248 113.1860 112.8592 107.2033 116.4519 105.8633 108.2828 105.4982 103.3681 104.2380 120.9038 125.7938 103.7461 126.4868 124.9071 124.4485 124.2930 124.0827 123.8739 123.8334 123.4484 121.8962 121.5058 122.1600 122.5873 122.3251 122.0793 121.8504 121.6062 121.2542 121.5381 120.8133 120.7696 121.7610 120.7077 119.9149 119.7164 119.4901 118.6545 119.1638 119.7280 118.5394 118.2693 118.1472 117.9820 117.8372 117.7178 117.6123 117.5412 117.4950 117.4749 117.4827 117.5174 117.5840 117.6726 117.7905 117.9263 118.0827 118.2609 118.4514 118.4200
119.9200 112.2950 114.8115 105.0186 111.0444 111.7038 111.2930 111.2576 108.8473 109.9632 111.0811 106.8221 121.1878 124.5637 125.4306 125.0888 124.6551 124.5296 124.6855 124.3900 124.2201 123.6976 124.5770 112.5876 124.4934 123.7064 122.6713 122.8042 122.4555 122.2739 122.0368 121.8093 121.5899 121.3714 121.0123 120.8918 120.6649 120.3545 120.3083 119.7806 119.7317 120.4731 115.8456 108.9388 119.3330 118.7473 118.5635 118.4198 118.2716 118.1681 118.0925 118.0224 117.9794 117.9635 117.9692 118.0010 118.0571 118.1403 118.2422 118.3652 118.5088 118.6671 118.8424 118.8500
127.6500 128.6346 113.3471 113.2445 110.1497 110.4249 110.9739 109.0419 104.5344 104.7326 109.6837 121.9164 129.6996 125.6847 125.5325 122.0922 118.0225 126.0991 124.9065 124.4565 124.3052 124.1012 124.0301 123.8361 123.6717 122.5256 118.0446 122.2012 122.6461 122.4772 122.2258 122.0120 121.7909 121.5554 121.3493 121.0796 121.1512 116.8815 112.0501 121.9225 120.1569 119.8311 120.1408 120.3694 118.5081 119.1369 118.9843 118.8148 118.8268 118.6502 118.5252 118.4716 118.4339 118.4175 118.4245 118.4567 118.5061 118.5779 118.6764 118.7858 118.9191 119.0630 119.2216 119.2600
127.6700 118.0970 109.7579 111.8742 111.2123 110.3980 107.4869 108.5003 112.7286 106.5334 106.3082 120.8355 122.0939 125.1539 115.1031 123.7506 126.3378 124.4935 124.8221 124.6190 124.4282 124.2573 123.9554 123.5812 124.6444 111.7467 119.9721 120.9812 123.0461 122.5841 122.4275 122.2070 122.0081 121.7830 121.5948 121.2576 121.8892 108.0629 111.6655 122.8454 119.9771 120.1722 119.9723 119.5234 119.7636 119.4966 119.3339 119.3103 118.3806 118.7608 118.9719 118.9058 118.8712 118.8510 118.8649 118.8863 118.9335 119.0035 119.0889 119.1889 119.3097 119.4455 119.5909 119.6400
127.8000 125.0159 112.4091 111.2320 110.0881 111.9208 112.3424 110.0182 114.5281 103.8759 103.3794 123.5057 114.0141 119.0832 127.3657 127.0534 125.1813 125.2231 124.8907 124.7459 124.5591 124.4285 124.1766 124.1060 126.5069 124.4506 124.4434 115.9337 122.1293 122.7996 122.6233 122.4084 122.2066 121.9509 121.7690 121.6040 121.1938 121.1920 125.7174 123.1295 119.8666 120.3161 120.3721 120.1860 120.0003 119.8576 119.7860 118.7842 125.7821 119.7978 119.3692 119.3122 119.2848 119.2697 119.2811 119.2996 119.3429 119.4119 119.4725 119.5732 119.6877 119.8092 119.9458 119.9700
127.8200 123.1510 112.3100 112.2127 115.3625 112.7344 108.1167 103.4723 115.0572 105.2807 104.2767 111.5463 116.8088 121.9770 124.8312 124.8534 125.3571 125.2215 125.0408 124.8016 125.0289 124.2972 124.2941 123.6906 121.4371 117.2527 116.4842 107.6288 119.9911 122.9576 122.7895 122.5858 122.4170 123.0109 121.4293 122.1089 122.0245 120.4848 113.5528 133.3147 120.9562 121.1848 120.6530 120.4688 120.3363 120.2106 120.0673 120.9457 113.0046 119.8500 119.7620 119.7059 119.6834 119.6702 119.6741 119.6926 119.7515 119.7627 119.8449 119.9477 120.0112 120.1591 120.3004 120.3600
115.8900 114.8773 116.9431 108.5741 109.6013 109.2032 108.0812 105.1806 104.8399 105.4736 103.9491 113.0638 122.7041 119.3960 130.6004 127.9972 125.3963 125.3096 125.2221 124.9083 125.5589 125.8409 126.5026 125.2300 126.1533 128.5992 119.8724 125.4506 123.6079 124.1457 123.0151 122.5825 123.6745 122.6990 112.6483 109.7598 122.9345 120.5116 124.3441 122.1153 103.5713 121.2569 120.9511 120.7947 120.6712 120.5376 120.3745 121.0119 117.6339 120.6003 120.1134 120.0756 120.0579 120.0513 120.0485 120.0680 120.1470 120.3983 120.1861 120.3227 119.7741 120.6075 120.6031 120.6900
117.1700 110.0073 112.3567 107.0535 106.5785 107.1244 111.5647 107.9137 106.3293 102.5656 114.6703 114.2789 125.9157 119.6055 130.3069 127.4100 127.2280 125.3401 124.9506 125.1684 124.9820 122.7681 113.3187 116.9431 123.6472 123.6268 125.0033 125.0821 119.7409 118.5651 122.2938 124.3307 121.8757 106.4584 102.6031 112.5171 117.3753 122.2771 121.5178 121.5364 121.7778 121.6953 121.2592 121.1505 120.9953 120.8866 121.2603 120.8195 120.8733 120.5465 120.4863 120.4495 120.4204 120.4185 120.4211 120.4215 120.5658 120.5548 121.7139 120.6373 117.3519 120.7077 120.9730 121.0200
106.6400 108.4012 105.7036 111.6696 108.3925 110.5204 107.3467 110.4297 105.4588 105.3284 117.4557 110.1761 112.8262 128.3691 125.7706 125.7527 118.0516 122.6608 125.3231 125.2935 124.8071 124.9812 107.0572 109.6406 125.4828 123.8495 124.8512 104.3241 103.0221 106.2528 114.5361 126.3334 117.0412 99.4626 98.8655 116.1115 121.8268 121.8904 122.4855 121.9730 121.6928 121.6193 121.6241 121.1482 121.2569 121.5118 114.5957 121.3878 120.8994 120.8791 120.8329 120.7901 120.7726 120.7462 120.7504 120.7827 120.8601 121.3800 111.2302 120.5241 111.0324 121.3183 121.2436 121.3300
106.9400 112.6155 109.8684 110.7552 110.1588 110.1027 108.4588 104.5775 104.8664 105.2780 108.2241 118.5893 120.8360 126.2054 126.2488 126.0503 123.7936 124.9599 125.5167 125.3595 125.1381 126.3039 119.7833 119.4292 124.5478 124.2899 124.6203 126.3823 114.7374 101.6681 102.4275 118.4578 108.4261 101.3015 103.5942 98.7399 124.7734 120.1478 122.4963 122.1727 122.0369 122.0801 121.1665 123.3224 121.8358 123.1435 118.5696 120.5115 121.2577 121.2098 121.1561 121.1283 121.1068 121.1641 121.0372 121.1056 121.2345 121.3823 109.8033 105.2153 123.3663 121.2953 121.5519 121.6300
111.0700 111.3599 110.9225 110.2080 110.0924 108.6827 106.7132 105.0911 105.1458 104.7061 101.7237 128.9627 126.7566 126.1558 126.2827 125.8229 126.7030 125.4908 125.3482 125.5369 125.3883 124.7804 124.9619 124.7953 124.7460 124.5797 124.1109 125.3818 117.1307 121.5933 123.6722 103.6001 112.2612 101.1789 105.2351 102.5573 131.9610 122.3368 122.5173 122.4629 122.2370 122.1144 124.4933 117.1112 105.1375 119.2853 122.7005 121.2659 121.5626 121.5353 121.4776 121.4456 121.4441 121.6885 118.4667 121.6833 121.4330 121.3453 123.2764 106.9448 122.4125 121.7293 121.8642 121.9200
111.5600 111.2889 110.7105 110.2556 108.9318 105.7872 106.6665 105.4436 105.1926 105.5136 130.6545 109.4721 126.0315 126.4785 126.6639 125.4251 126.5700 116.1924 130.4678 124.8828 125.6551 125.4784 128.5006 124.7552 124.8585 124.6752 124.5939 124.4047 125.1370 120.2500 103.7509 110.0079 121.9549 100.7363 102.5490 110.6549 123.6605 122.9057 122.8472 122.7022 122.4900 123.5728 110.2572 107.1455 125.3141 104.1575 122.3436 121.7878 121.8758 121.8288 121.7884 121.7580 121.7509 121.7138 121.9639 121.9653 121.7195 121.8511 121.9287 122.9946 122.7681 122.0293 122.1086 122.1900
119.5400 110.6877 108.6335 107.0401 107.8668 106.3480 105.9564 106.2201 106.8017 110.0523 105.8052 113.0443 109.3173 119.4496 127.6834 109.1434 128.8778 125.0773 126.1289 125.6796 131.5044 125.1126 122.3090 124.9811 125.0141 125.7101 124.3461 124.9501 124.0435 124.9826 114.9945 103.3403 118.8499 123.8140 123.6264 124.9318 123.1370 123.1747 123.0772 122.9488 122.5211 123.5639 102.0287 106.7292 121.2702 116.2852 122.1010 122.2531 122.1586 122.1235 122.0851 122.0566 122.0431 122.0472 121.9932 122.0216 122.1199 122.0835 122.1883 122.0395 122.1329 122.3383 122.4057 122.4600
110.5600 109.7308 108.8588 107.4330 105.7693 106.7173 108.5477 116.9175 106.5541 114.0666 103.5089 105.0390 123.6133 127.5423 125.9599 124.1593 126.8116 124.1916 125.7190 126.5430 126.1457 125.4061 122.3112 124.7150 124.9246 124.4563 123.9634 124.7664 122.3967 126.1171 114.4966 110.0386 120.0267 124.4190 125.0462 124.5962 123.1503 123.4213 123.2091 123.1299 122.7967 122.6676 104.0783 99.7547 122.4438 120.9452 122.3287 122.5642 122.4520 122.4117 122.3721 122.3486 122.3311 122.3130 122.3508 122.2601 122.0442 122.4376 122.4203 122.5071 122.5598 122.5930 122.6782 122.7300
118.4900 117.7232 111.1502 105.6996 108.3474 112.1858 109.5709 103.8131 104.9599 105.2146 108.4625 124.1690 130.0067 125.9618 134.8643 115.7958 126.1908 127.3439 120.7244 121.1244 123.8780 118.1508 102.1927 119.7618 114.0699 124.9906 125.3130 125.6589 112.8897 119.8125 123.7641 127.7289 123.1467 123.6696 123.6801 123.6711 123.9257 123.5752 124.4225 123.5979 123.0360 122.6823 114.4372 108.1226 124.2853 123.8814 122.8592 122.7744 122.7218 122.6833 122.6551 122.6330 122.6124 122.6384 122.7294 122.7452 124.7516 122.4620 122.7577 122.7460 122.8036 122.8677 122.9422 122.9800
128.2300 105.4077 104.9988 111.6939 114.2482 111.5106 105.4289 107.3580 108.8700 104.7880 123.7716 125.9329 127.0877 122.2745 122.7740 109.3083 121.7054 127.5159 112.5714 107.5812 124.4440 109.7928 109.7593 121.2663 122.6116 124.7596 125.0692 124.3042 109.9010 126.8866 128.0041 121.5376 119.0071 124.7167 124.3362 125.1753 120.2891 124.2489 117.3328 123.2304 123.3904 125.6630 101.5959 123.7772 103.0493 124.0733 123.1047 123.0376 122.9897 122.9534 122.9199 122.9038 122.8869 122.7647 122.5939 124.2135 110.0964 123.8017 122.5931 123.0134 123.0775 123.1242 123.1906 123.2200
108.7000 109.7439 113.6518 110.1916 109.0958 112.9625 107.7735 108.1255 105.6200 112.7823 123.1871 124.8454 128.1057 110.1267 120.8331 131.7737 128.2279 124.5412 108.1846 115.6408 105.8798 107.9611 114.3641 101.3716 130.2089 126.3047 124.5482 125.8998 124.3693 124.8649 118.1997 114.1042 126.2266 124.4678 126.3124 124.1056 114.8062 122.4063 119.7216 123.8633 124.0415 113.0136 112.7863 124.6232 123.9432 123.2246 123.3306 123.2970 123.2441 123.2129 123.1810 123.1647 123.1675 123.7266 125.0822 124.0559 105.0267 124.6344 122.5604 123.2893 123.3296 123.3758 123.4390 123.4600
108.7100 117.2831 118.4277 107.4750 107.9898 107.6132 110.8854 105.5082 110.6213 124.9464 120.2510 119.5786 127.9071 119.0763 106.6426 125.2863 126.5379 128.8368 125.9468 122.9858 125.1272 114.4768 105.4764 111.6219 128.7710 124.8125 126.7279 127.5193 124.7105 124.8440 127.4858 125.6229 125.4396 124.3002 113.8352 119.6557 107.0804 104.1500 118.1977 124.1677 125.0899 112.3875 127.6642 116.5129 123.9420 123.5098 123.5579 123.5563 123.5074 123.4663 123.4411 123.4054 123.4858 123.6581 106.2918 125.2030 123.2099 124.1898 123.0917 123.5015 123.5787 123.6237 123.6827 123.7000
111.1600 118.7538 117.2224 110.6352 112.2817 109.8188 125.5312 109.5512 115.1337 117.2396 123.0558 122.4945 125.4537 127.4859 121.8314 128.4576 126.4304 122.7527 112.7381 121.1695 123.8173 121.8872 122.7622 127.1935 130.2387 125.8742 120.3588 101.1461 127.8576 124.9028 124.9172 124.6483 125.3588 125.9784 107.6408 103.7998 99.7309 113.2891 125.1915 124.2391 124.6092 121.7483 125.2429 113.7284 125.7265 123.6077 123.9876 123.7629 123.7345 123.6993 123.6900 123.6667 123.6474 123.7097 122.6788 123.7035 123.4292 123.4491 123.7516 123.9073 123.7991 123.8682 123.9129 123.9200
118.7000 114.8546 114.9909 108.2203 110.6674 122.3269 128.4624 120.4621 123.7388 123.6501 124.4673 109.2023 128.9031 128.9258 123.2465 119.5751 127.0119 124.4272 110.7826 124.4413 125.8937 114.7329 123.7592 123.5424 125.7092 127.6809 117.9696 100.1406 122.9934 126.1927 125.2019 125.2969 125.3590 115.7876 107.0779 123.5121 99.3730 125.7879 124.3320 124.5016 124.3542 124.4453 124.2239 125.5482 123.9041 124.4583 122.7533 124.1629 124.0319 124.0086 123.9354 123.9111 123.9053 123.8796 123.9178 123.8973 124.0560 123.9937 123.5723 123.5117 124.0471 124.0688 124.1433 124.1400
114.2200 113.6600 112.7844 103.4382 121.9174 118.4679 123.0410 126.1290 105.7116 122.4398 120.4268 105.4908 120.4925 108.6609 123.4111 126.5292 115.5536 129.2914 119.7607 115.3424 116.2786 103.2533 129.6151 117.3537 125.6783 125.5519 104.1401 125.2431 105.2223 125.2797 127.7981 125.5266 124.9525 127.0512 114.3907 122.5652 118.2407 126.3253 124.7439 124.7144 124.6927 124.3958 124.8404 124.1784 124.4301 124.3087 121.3183 124.6731 123.9367 123.9325 124.1628 124.1476 124.1421 124.1292 124.1729 124.2558 122.5069 124.4804 123.6005 130.4891 123.5862 124.4450 124.3979 124.3600
114.9100 110.6131 104.8719 119.9608 130.0061 127.0986 129.7695 106.5838 124.4373 116.8675 107.0979 105.5195 106.6377 117.8305 128.5183 126.5453 126.1363 112.1679 103.6699 113.0484 105.2433 105.2225 112.0932 125.7821 127.6032 125.6874 106.3830 107.2996 119.0167 125.7831 125.7051 125.5925 125.6117 125.1752 126.2578 125.5094 125.3019 123.0660 121.9227 124.7849 124.5447 126.2104 122.4863 124.6660 124.5048 124.6548 124.8026 124.3430 125.8606 125.5528 124.2886 124.2967 124.3625 124.3527 124.3998 124.4518 121.3716 124.1815 124.3836 124.6901 123.9807 124.2177 124.5621 124.5700
129.0800 129.3547 129.8007 128.3604 129.0756 128.4621 129.1142 123.9978 122.2822 124.9310 104.0562 106.4330 110.1627 127.1324 127.4156 127.5630 127.2753 126.8740 126.0593 123.3079 101.7587 109.0114 105.5969 115.6065 130.2051 120.1315 98.8365 114.4808 128.9203 126.2710 125.8011 125.8084 125.6810 125.6598 125.4627 125.2970 127.4863 117.3709 116.4050 125.0824 124.7697 124.8410 111.3164 127.0675 124.9052 124.9139 124.4297 126.9442 104.9559 127.8817 125.0179 124.9160 124.5709 124.6325 124.5829 124.6120 124.8718 124.9799 124.5715 124.7068 124.6524 125.5928 123.9019 124.7700
128.5200 128.3572 128.7904 128.6949 128.3040 127.1809 127.9992 128.4293 124.9414 105.2736 118.2917 117.8129 117.5686 115.3815 127.9194 126.9125 122.9344 124.2691 117.5142 130.4960 115.4030 104.3289 124.5050 126.6561 126.3460 128.7008 108.5556 117.6861 130.5366 125.6297 125.9936 125.9590 125.8593 125.7568 125.6931 125.8455 119.9332 101.2134 115.7841 125.3551 125.0210 108.3925 108.9319 120.7879 122.4855 121.9885 125.2696 124.2260 102.7206 127.1658 120.6838 124.9662 124.7878 124.6472 124.8059 124.8106 124.8055 124.8091 124.9654 124.7029 124.2127 125.6762 103.0875 107.6500
129.2300 129.2225 129.1382 129.0600 129.0028 129.0018 125.4937 125.9383 131.1179 126.7454 126.7861 121.5811 121.8591 118.8639 117.5091 100.7720 108.9534 117.5919 126.9872 126.6842 115.6814 127.1450 128.4167 127.1287 127.3639 127.3611 106.1769 119.7654 136.9048 123.0413 126.5150 125.7897 126.0489 125.9479 125.8597 125.7411 129.6474 103.6076 113.1608 125.5998 126.8642 119.5027 128.4528 125.2340 123.5817 124.1313 121.9955 109.4294 126.1685 124.4816 122.2307 125.1669 125.0251 124.5366 125.1138 125.0461 125.0670 125.0019 124.6906 126.8744 125.8543 127.2911 100.8481 103.1600
130.8400 128.4708 129.0210 129.0159 128.9135 128.4139 128.1186 128.5719 128.2950 127.5266 116.9069 118.4924 119.2976 105.6379 105.2743 108.3221 113.0619 116.1204 127.8905 127.3910 128.1450 126.9615 126.4111 110.6874 127.8915 126.6781 116.5039 121.4704 128.4585 114.0534 124.8252 126.2361 126.1956 126.1177 126.0478 125.3314 124.8013 133.8067 124.3622 125.8775 125.4907 126.3148 125.0165 125.3925 125.5533 125.4524 122.6585 108.6664 125.9338 124.9565 125.6946 125.2263 125.2995 125.2805 125.1741 125.1788 125.1307 125.4214 123.8479 131.9912 120.8668 109.4918 108.5955 125.3500
143.9600 126.5000 129.2100 129.1300 128.9600 128.8800 128.7900 128.7000 128.6200 128.5400 130.3400 128.2700 128.1800 127.5900 106.0000 118.8300 116.7600 105.7200 112.5800 127.4400 127.4600 127.2500 127.1600 127.0600 126.9600 126.9600 126.8600 110.3200 116.7700 118.9100 126.4600 126.3600 126.3800 126.2900 126.1900 126.0900 126.0900 125.9800 125.8700 125.8700 125.7800 125.7800 125.6700 125.6700 125.5400 125.5600 125.4100 125.4400 125.4600 125.4700 125.3000 125.3100 125.3200 125.3200 125.3200 125.3200 125.3000 125.4700 107.0700 111.4400 115.4000 105.9300 105.9300 105.3900
