138.0900 137.6400 126.4000 126.8900 127.2700 129.5700 127.2500 126.6100 125.9400 109.4700 111.7200 107.7800 107.7800 107.6000 107.5500 121.1100 121.3700 121.3400 122.4300 117.3400 118.9400 114.9500 113.2600 111.7000 109.9100 108.0000 123.1600 119.1600 113.6300 106.3300 106.2200 128.1500 128.1500 109.6800 106.8900 127.9000 127.9000 127.8200 127.7300 105.6100 127.6300 134.2000 127.4300 127.4600 127.3600 127.3800 127.2700 127.2800 127.2800 127.1800 127.2000 127.0700 127.0900 127.1000 127.1100 126.9800 126.9900 127.0000 110.9200 123.3200 111.4500 127.0100 127.0000 127.0000
133.5000 129.1484 125.4918 125.7438 131.8253 128.1137 126.9175 125.7149 126.0955 107.6945 123.6795 111.8807 116.5907 113.0922 112.3831 121.9981 118.2934 122.1659 119.9178 118.7798 115.0325 117.3198 116.3938 114.3909 108.8465 109.0433 113.5256 118.3595 111.9808 113.4117 107.6427 106.8657 107.4702 106.3832 108.3100 121.4816 116.5519 109.0108 128.8205 111.6375 124.1423 128.6890 127.0938 127.2659 127.5373 111.5957 128.1673 126.8470 127.1205 127.0681 127.0461 127.0110 126.9845 126.9683 126.9221 126.6512 127.7048 116.5577 121.0701 118.4223 105.7065 125.3124 126.2162 126.8400
133.5000 139.0814 126.7499 127.9088 131.5666 122.2038 128.1622 125.7441 125.0220 119.4293 127.2852 112.1863 107.4553 116.6989 116.7958 120.6687 119.6572 119.6208 120.9556 117.0588 120.5431 116.1688 114.2516 108.8789 106.2607 108.6974 109.1799 110.8127 110.8957 116.1619 111.6791 124.3542 120.9382 118.4065 112.7109 110.2203 119.8395 120.9076 129.5510 127.6540 127.0963 127.3127 127.2728 127.2087 127.3361 111.3930 123.3333 126.4882 126.9745 126.9042 126.8759 126.8468 126.8173 126.8020 126.6050 126.9189 128.2527 112.3850 109.8186 114.0029 110.5063 124.4351 125.9955 126.6900
130.2200 134.0136 126.0648 126.9016 126.2165 117.6990 117.8317 125.5329 123.9605 124.0844 115.9867 117.3525 107.5526 108.5650 121.9573 120.4737 119.3325 122.7711 119.9299 109.9724 124.9975 116.7299 109.6416 114.0837 105.4899 113.3287 109.7888 119.0378 117.8823 108.1159 104.8832 122.8333 120.3765 130.0607 112.5888 119.9029 123.9574 119.3959 127.3067 121.8695 127.2610 127.1201 127.0808 127.0092 126.5754 130.2416 107.5761 127.9832 126.8155 126.7220 126.7087 126.6773 126.6452 126.6053 127.0771 124.7700 126.8755 110.0449 118.3039 110.2715 107.8901 125.1514 125.9725 126.5300
132.6900 132.5567 124.8393 126.4943 129.9644 129.2118 128.0721 119.7158 122.8872 123.5928 120.0719 120.8467 108.3794 108.4739 109.4292 120.7454 118.7494 117.4295 120.0656 122.7277 120.3229 122.0887 112.3783 115.8590 118.5184 112.9180 109.3790 118.5212 107.9345 104.7976 127.2010 124.2118 128.9839 127.7373 121.8116 124.0873 128.3188 123.9229 128.2275 127.4866 127.1869 126.9592 126.9184 126.8563 126.4808 129.0792 111.6782 129.0287 126.3352 126.6206 126.5327 126.5049 126.4607 126.4037 126.3791 118.5696 126.2414 110.4595 116.8783 126.1161 115.5488 125.2710 126.0648 126.3600
130.9200 129.2520 123.8073 126.5634 120.9793 124.8482 126.4048 126.0954 125.0370 120.4762 121.7036 125.6947 108.2552 120.7939 120.2249 115.9789 113.6661 121.6907 116.9833 119.2485 124.2252 109.6859 118.5265 120.3127 109.4741 112.4359 109.4458 107.4371 121.4435 118.4995 126.1220 127.8423 126.7075 127.9541 128.1339 126.8886 127.1173 127.2594 126.9002 126.9253 126.8581 126.8329 126.7609 126.6908 126.4880 129.1842 102.8926 120.0651 127.1816 126.3166 126.3692 126.3298 126.2827 126.1756 126.8829 116.7977 109.8513 119.6838 128.0578 133.1276 123.9126 119.0238 126.9727 126.2000
135.7800 131.0464 127.3809 125.8360 123.6876 127.1274 126.2077 125.5616 125.0059 115.4850 122.1910 115.5460 104.9403 107.5738 124.9964 123.4166 121.4430 116.7730 119.9798 126.4290 122.3771 117.8078 117.3239 116.9225 109.6158 111.2903 110.1796 109.4141 122.1634 129.9937 126.5463 127.3666 128.9229 121.0004 121.0965 126.7210 125.7756 127.0571 126.9147 126.8053 126.7343 126.6628 126.6029 126.5358 126.4964 126.4046 112.3255 114.2582 127.3903 126.1161 126.1938 126.1412 126.1137 126.1133 126.1855 126.7768 115.6976 124.9332 121.6353 119.3198 116.3179 126.3754 125.6751 126.0300
132.9400 125.7113 113.8283 127.1935 124.4798 125.2830 125.3621 124.8501 123.1854 123.6716 116.9843 127.5395 127.9672 114.1734 104.5925 124.3765 116.1606 127.4407 122.2730 119.9509 125.4367 120.3048 110.6877 116.5271 119.0328 111.4064 110.8573 112.5576 115.4813 131.2450 127.1625 127.6165 124.8291 110.7935 127.3829 128.2089 123.9352 126.8217 126.7384 126.6449 126.5682 126.5015 126.4337 126.3769 126.3500 125.8273 128.6644 119.0756 126.7702 125.8149 125.9919 125.9564 125.9224 125.6248 125.7104 126.6920 114.4481 136.2043 124.6660 126.8969 127.1781 125.6537 125.8405 125.8500
124.9100 123.6507 127.8090 127.3856 125.6450 126.1700 125.0932 124.4600 123.3813 122.2666 123.0536 118.9426 136.9115 110.7780 108.5620 120.0970 124.1365 128.1738 127.2643 121.3678 118.3065 120.7760 121.1266 109.8087 112.9536 122.3718 120.6352 119.5473 126.3357 128.1111 127.2531 127.0719 127.2375 125.9251 126.6762 126.4262 126.8070 126.4484 126.5974 126.4852 126.4115 126.3314 126.2588 126.1894 126.1311 126.1684 125.6500 127.0229 125.3413 125.5594 125.8364 125.7830 125.7186 127.1786 127.1395 126.8648 117.1425 124.8446 124.4673 125.3491 125.2197 125.6167 125.5953 125.6800
134.8000 125.5228 125.6319 126.1715 126.3228 125.3789 123.4778 123.3294 122.6294 121.7223 120.9295 119.9421 115.4707 130.6768 116.9801 115.1795 120.6652 116.0260 116.2774 116.7338 128.3973 131.6828 119.7619 111.8570 113.4774 115.1576 126.8282 126.5916 121.9678 123.3476 127.0752 127.0223 126.8550 126.9039 126.7011 126.7306 126.5435 126.5259 126.3867 126.3214 126.2234 126.1985 126.0971 126.0710 125.9558 125.7391 126.8881 119.8198 125.9411 125.4557 125.6333 125.5719 125.6934 125.3602 127.5263 110.3631 127.4823 126.2400 125.3235 125.4518 125.4621 125.3923 125.4076 125.5000
123.8300 123.7931 125.8076 124.8605 125.5279 124.2556 118.9094 121.2340 121.1834 125.4178 122.8747 125.4112 130.8920 125.6281 116.6204 117.7103 114.8253 116.2841 110.0316 124.5047 122.2428 112.6332 108.5212 113.9687 120.2221 133.8625 117.6632 121.6955 127.0297 127.5299 126.9914 126.5297 126.8107 126.7458 126.5929 126.4867 126.4149 126.2798 126.2836 126.1577 126.2234 125.7291 125.8154 125.4995 125.8983 125.7856 125.4757 126.0563 125.8924 125.4047 125.4406 125.5692 123.5604 125.6895 124.9953 126.1526 125.7988 125.0468 125.0894 125.1787 125.1711 125.1918 125.2001 125.1200
123.8300 124.9423 124.6805 126.2299 126.8027 123.0240 123.5623 122.7890 119.3372 123.5240 120.4377 124.0211 127.0116 134.2590 120.2260 121.4988 126.9873 118.0899 116.4559 117.3411 133.1662 119.5115 120.8224 109.3234 116.4968 127.6168 127.5697 127.9213 127.1553 126.8806 127.0654 127.8173 126.3781 126.5441 126.4515 126.3489 126.2753 126.3033 125.4754 125.7526 125.6174 126.5669 125.9507 128.0360 125.4106 125.1741 125.4832 125.3161 125.2518 125.2870 125.2232 125.6580 121.6137 125.2293 124.8891 122.5321 124.3170 124.8092 125.0438 124.9907 124.9829 124.9832 124.9932 124.9300
130.2500 130.2614 123.0621 123.5398 125.5284 114.1334 122.9553 120.2073 123.5027 113.6185 126.5746 126.9064 122.4390 134.3844 129.4708 122.8145 133.4112 121.5740 116.8592 114.5976 116.2586 131.5107 123.0426 120.1060 134.7820 123.0842 126.3551 126.7716 126.9562 126.6982 126.6236 114.5606 123.2423 126.5385 126.2213 126.1928 126.0477 126.0915 118.7890 125.9330 127.0741 123.1368 98.2495 107.9721 113.9977 125.4767 125.2614 125.2098 125.1551 125.0767 125.0438 124.9326 125.3346 126.1773 116.6262 126.6309 119.1954 124.9885 124.7653 124.7654 124.7620 124.7659 124.7778 124.7300
131.5000 121.1810 125.6896 121.7710 122.0110 114.9216 123.6507 122.7471 122.7985 112.4269 116.2231 126.8682 131.4717 129.7040 126.6434 121.0500 109.3447 111.6943 118.2886 119.9665 124.6259 123.1035 126.3319 115.2694 125.2159 122.6459 127.5070 127.1381 126.6984 126.6975 126.9414 124.0603 124.3900 121.9068 126.5120 126.0333 125.9457 126.6407 124.1676 125.8637 125.6010 104.9022 116.8152 121.0417 127.7909 125.2931 125.0778 124.9928 124.9338 124.8778 124.8260 124.7659 124.7058 125.4967 115.6582 125.2205 128.6928 124.5639 124.5604 124.5485 124.5427 124.5472 124.5694 124.5300
130.3000 124.6234 121.7079 123.2475 123.8396 122.7512 122.1257 122.6352 124.9243 125.0302 122.2304 111.5981 134.8090 127.8970 120.8563 122.4471 128.5159 116.4934 112.3936 121.9321 121.6427 129.8555 127.1770 130.0849 127.8548 127.3094 126.6880 122.4743 127.0458 126.3971 126.4702 127.1686 128.9207 123.2704 126.0350 125.8279 125.7853 125.5943 125.5940 125.5392 126.1148 127.9151 121.6029 126.0453 124.8236 124.8401 124.8973 124.7955 124.7317 124.6725 124.6083 124.5522 124.5445 124.4300 125.0840 125.1879 123.7318 124.3133 124.3286 124.3286 124.3225 124.3277 124.2994 124.3300
107.6500 130.2937 127.9655 123.7464 123.8208 122.1591 121.8373 121.0979 122.1104 121.5278 120.8172 125.4659 104.9078 117.2283 119.6633 119.2170 117.7729 111.0995 116.2292 120.8927 114.3434 127.6501 126.3966 126.9383 126.9979 126.7440 126.7250 126.4570 126.5728 126.3669 126.2523 126.1709 125.6169 125.0831 125.9270 125.7462 125.6125 125.4984 125.4263 125.2888 124.5693 124.9900 125.6074 124.7791 124.9093 124.7593 124.6477 124.5984 124.5220 124.4622 124.3937 124.3420 124.2891 124.2546 124.0929 123.9878 124.2008 124.1310 124.0951 124.0878 124.0873 124.1080 124.8074 127.0600
129.5400 130.1514 129.8143 121.5759 124.3047 108.9452 121.8354 120.1406 119.5432 119.2680 120.4822 125.2666 119.8230 118.0403 115.2455 118.3864 121.1121 108.0244 121.0973 116.0651 127.5464 129.6551 126.8907 126.9928 126.8796 126.7170 126.6036 126.5918 126.3377 126.2516 126.1363 125.9931 126.0752 125.8891 125.6186 125.4568 125.4593 125.4613 125.0480 125.1899 124.9132 124.9205 124.7387 124.7732 124.6209 124.5398 124.4699 124.3820 124.3095 124.2375 124.1762 124.1200 124.0635 124.0075 123.9852 123.9728 123.9068 123.8856 123.8707 123.8580 123.8488 123.8679 123.7210 123.3600
129.5200 129.4371 127.8377 121.9419 122.3500 121.7791 113.0397 115.0124 119.7871 120.5360 116.3895 111.1912 125.1952 119.2270 118.3427 113.1124 123.8141 115.7729 116.4623 113.6190 112.7647 127.7383 126.9934 126.7651 126.7393 126.5896 126.2755 126.3871 126.1726 126.1289 125.9757 125.8521 125.6988 125.6276 125.5571 125.3899 125.4737 124.8729 125.8044 124.8297 124.8861 124.7058 124.6845 124.3341 124.4622 124.3331 124.2220 124.1690 124.0920 124.0095 123.9530 123.8889 123.8328 123.7782 123.7314 123.6919 123.6675 123.6420 123.6229 123.6111 123.6088 123.6213 123.6550 123.6800
129.4100 127.5724 132.3936 106.5129 123.0712 122.4273 120.8250 120.0390 115.6785 117.7000 121.2404 122.3824 110.5155 116.7582 122.1115 121.9040 111.0709 116.0202 115.4143 115.1140 110.4343 125.9953 126.3981 126.7190 126.4290 127.0799 125.0585 125.6912 126.2042 126.0655 125.8299 125.7012 125.5948 125.2841 125.6544 125.7432 114.9377 124.8721 124.7553 110.4276 124.0548 124.6092 124.0581 125.5535 124.4200 123.9149 124.0408 123.9486 123.8632 123.7891 123.7163 123.6492 123.5923 123.5438 123.4935 123.4544 123.4168 123.3928 123.3722 123.3614 123.3536 123.3508 123.3580 123.4500
129.3800 126.1960 128.3406 109.6421 104.6236 120.2036 120.1113 121.5784 119.3574 120.7497 127.7745 130.7013 118.8311 112.4581 113.9346 119.7707 120.1504 116.8185 120.2662 122.6125 117.5122 135.3135 122.7393 126.8565 126.3048 125.9248 109.4134 120.1409 121.9592 126.0946 125.6554 125.5652 125.4933 125.2432 125.5367 112.9996 116.4966 116.3606 123.5998 115.4142 124.5431 123.8229 124.1935 122.4983 113.8778 124.3318 123.8440 123.7140 123.6332 123.5545 123.4819 123.4137 123.3520 123.2909 123.2461 123.1999 123.1603 123.1384 123.1193 123.1027 123.0956 123.1031 123.1180 123.2200
129.3600 117.9385 122.3495 132.6659 108.1425 107.1053 113.1935 117.7154 122.5547 122.9101 125.6726 122.1864 114.1703 124.3236 116.7223 113.4629 113.0990 117.7883 125.5420 122.7865 126.7615 126.5911 127.0374 127.0578 125.9428 126.8974 120.7765 117.4883 115.4801 126.7774 125.4608 125.3966 125.2829 124.5274 120.6736 120.2329 117.7959 120.0547 122.9435 119.6578 110.9988 124.3584 123.7137 125.7745 123.0369 124.6912 123.6347 123.4782 123.3984 123.3125 123.2372 123.1601 123.0942 123.0268 122.9698 122.9370 122.9038 122.8826 122.8531 122.8349 122.8328 122.8387 122.8476 122.7300
129.2200 115.7834 120.4319 120.7054 123.4064 113.7675 117.5287 110.9280 117.6654 120.7857 119.6798 117.4410 123.6209 129.3856 113.5613 112.5205 114.6164 117.5685 129.5517 129.8675 126.6307 126.9202 126.5118 125.0846 127.2483 121.7410 124.0845 114.5240 124.7454 125.4629 125.2842 125.4750 126.3200 126.3855 109.2419 108.4927 105.1323 118.8816 124.6561 118.7211 123.5901 126.2452 123.6090 124.2827 111.9844 123.7884 123.3725 123.2656 123.1622 123.0692 122.9839 122.9069 122.8375 122.8067 122.7848 122.6672 122.6280 122.5579 122.5714 122.5585 122.5548 122.5600 122.5759 122.4800
107.2000 117.7164 117.1888 120.3976 120.5337 115.3581 124.1181 110.8914 104.0737 111.4032 122.0406 115.1692 120.4860 121.9812 121.7791 119.1011 119.3068 115.1339 124.9937 117.8372 126.6748 126.0070 130.4495 122.8278 115.2451 108.9425 123.7821 118.6279 125.6504 125.2526 125.0664 125.3011 120.3252 125.2523 113.0630 124.0867 128.6994 116.9621 116.2803 112.0314 120.1679 119.7408 111.7875 123.7406 121.9293 124.9155 123.1772 123.0183 122.9116 122.8195 122.7314 122.6436 122.5816 122.4034 122.2308 122.5622 122.2717 122.4955 122.3680 122.2843 122.2707 122.2768 122.2960 122.2200
107.2000 121.6366 105.4804 125.9375 119.3878 114.7063 117.6610 117.4563 118.9273 105.0797 103.3840 112.8062 113.9600 116.2406 117.0064 116.3384 116.1517 125.2283 124.0101 114.2011 128.2299 125.9234 130.0610 113.7040 120.9325 111.4066 110.0543 119.7009 126.2359 124.6053 124.5309 116.2211 114.3249 131.0837 119.7169 126.1484 121.6223 125.6785 115.7912 104.9345 118.8539 127.1222 113.6011 122.4300 123.2070 122.2537 122.7504 122.7577 122.6616 122.5611 122.4712 122.3795 122.3179 122.6967 122.2939 120.3052 121.5895 121.3708 120.9791 121.9742 122.0043 121.9805 122.0027 121.9500
107.0600 111.0800 117.6056 114.5711 120.0577 125.2526 114.5052 119.5264 112.9793 126.1313 115.0016 102.2639 105.9336 109.1965 125.7374 108.2226 121.2639 126.0403 127.6756 127.7093 126.6811 126.3299 125.2756 120.7609 114.7708 107.9459 126.4103 127.0784 125.5341 124.9350 129.8677 122.5015 115.9278 122.0595 112.4972 117.1703 123.5100 124.1705 110.7406 105.9203 113.1059 122.7711 116.1627 118.3440 123.0329 122.0667 122.7802 122.5138 122.4015 122.2956 122.1916 122.0944 122.0400 122.6379 110.7382 120.7145 115.0499 121.8392 121.4221 121.6912 121.6840 121.6849 121.6973 121.6700
113.5200 115.9874 120.6390 121.9628 124.1804 113.0429 107.3673 111.2363 104.1413 121.1099 118.2984 115.9391 110.1672 103.1628 109.8645 113.7707 126.3562 122.2852 126.7340 126.5251 126.2404 126.2099 126.4620 126.7002 122.7896 113.3527 115.1155 130.4252 125.0854 124.8914 124.6198 125.1545 122.4477 124.4837 108.1576 119.4706 124.4758 127.0200 119.2620 116.0943 109.2081 123.8130 123.9027 124.1642 122.1952 122.6701 122.3704 122.2503 122.1398 122.0264 121.9129 121.8106 121.7829 121.5423 122.3932 114.9887 122.5168 121.4167 121.4192 121.3618 121.3621 121.3675 121.3811 121.3800
126.1300 120.5688 128.4497 118.6826 128.0140 116.2537 111.8042 105.9060 107.7100 123.7651 125.2366 118.5453 115.4399 110.4569 115.4579 110.8558 113.6067 130.4413 128.1921 126.2560 126.2732 126.1491 125.6640 128.7187 125.4624 123.1349 128.6448 123.1515 124.9512 124.9422 124.6542 124.6312 124.4502 124.3535 108.4980 113.3508 118.5332 115.1447 123.6265 122.3962 126.6578 126.2440 121.7594 122.5875 122.4482 122.2524 122.1324 122.0008 121.8628 121.7460 121.6320 121.5326 121.4119 121.4495 120.6106 125.9718 121.2111 121.0809 121.0749 121.0474 121.0399 121.0474 121.0631 121.0900
123.6100 125.2340 124.3358 118.5275 111.5889 119.3985 122.9898 113.0199 109.8364 105.9452 106.0333 107.7634 109.1557 106.6350 121.5000 111.7688 113.2939 116.3500 127.2473 126.4199 126.0098 125.9828 125.7906 125.8838 125.4258 125.3999 125.9300 124.4956 124.9236 124.6785 124.5144 124.2827 124.7881 116.5251 109.9197 115.8862 109.5119 107.4308 125.4473 122.7124 123.2845 122.2697 122.6606 122.2839 122.1669 122.0141 121.8669 121.7242 121.5890 121.4580 121.3327 121.2229 121.1301 121.0084 120.9987 120.4407 120.5503 120.7629 120.7265 120.7061 120.6965 120.7044 120.7226 120.7800
128.8800 125.7530 119.8116 117.1824 118.8723 120.4848 109.9687 111.5073 115.4397 113.9684 110.6661 105.3800 105.0274 117.1181 112.6044 103.4911 123.3871 113.6664 128.0123 125.5140 126.0304 125.1596 126.1916 125.4900 125.4013 125.2725 124.8984 124.9440 124.7296 124.5428 124.3531 124.2352 124.0545 121.4096 115.7150 122.5792 112.4060 111.0490 122.4407 122.9818 122.6521 122.4502 122.2700 122.0839 121.9176 121.7553 121.6002 121.4461 121.3039 121.1627 121.0318 120.9157 120.8062 120.7055 120.6007 120.6037 120.5081 120.4143 120.3809 120.3540 120.3516 120.3507 120.3712 120.4600
128.7700 128.3862 116.2789 113.8477 115.8494 118.1868 119.3785 110.8298 110.0352 114.4836 115.2250 111.4452 110.6225 105.4297 126.4182 111.1440 126.9011 125.7897 127.6629 118.8160 127.6799 114.9926 122.5626 124.9120 125.2205 125.1682 125.1895 124.6227 124.5725 124.4178 124.2382 123.8161 124.2942 121.1177 130.3525 119.2978 120.2882 115.9936 128.0703 124.4848 121.6066 122.2226 122.0061 121.8451 121.6603 121.4905 121.3227 121.1673 121.0085 120.8609 120.7244 120.5962 120.4729 120.3619 120.2626 120.1748 120.1042 120.0593 120.0160 119.9872 119.9843 119.9846 120.0071 120.1300
118.1600 118.4188 128.6503 123.3455 114.0169 109.5716 113.0742 117.6934 119.2387 110.5556 105.6887 105.9934 122.0290 121.1140 119.3561 112.3304 128.7076 126.0663 125.9293 126.7332 125.8096 126.5983 107.4635 124.9081 126.3399 124.8725 116.9856 121.8004 124.5169 124.2745 124.1088 123.7852 120.9645 110.8095 109.8881 123.0843 123.8202 123.8105 122.5582 120.9190 120.5932 122.1883 121.7524 121.5902 121.4054 121.2244 121.0485 120.8759 120.7098 120.5523 120.4013 120.2614 120.1281 120.0165 119.9111 119.8163 119.7443 119.6771 119.6316 119.6116 119.5981 119.6060 119.6333 119.7900
118.1400 119.4644 118.7100 122.2034 119.6324 119.8339 107.0298 106.4180 104.4284 115.1774 103.7296 110.6095 110.1607 106.6396 105.0791 123.3244 126.7414 126.0643 125.8864 125.9047 124.9603 128.5992 115.7447 108.1741 119.7119 125.1946 125.5852 117.4268 124.9441 124.1054 123.9464 123.9844 122.8684 121.1156 116.9289 127.0862 112.6238 122.9278 122.1326 122.4071 122.1517 121.7582 121.5616 121.3420 121.1439 120.9516 120.7632 120.5808 120.3999 120.2315 120.0728 119.9225 119.7791 119.6488 119.5367 119.4373 119.3517 119.2852 119.2398 119.2061 119.1951 119.2100 119.2306 119.4300
128.7100 119.7282 121.2576 120.6150 114.3495 119.2379 118.7721 113.3615 105.8046 104.3978 104.6110 115.4860 113.2382 114.3259 107.1909 113.0795 125.3899 126.5506 126.0091 120.3037 109.2317 128.1969 124.2792 119.0035 113.8809 125.1709 124.2747 124.7200 123.9471 123.6957 123.8538 123.4985 122.8309 124.6899 117.5292 114.3130 108.6602 123.4684 122.0192 121.9386 121.6573 121.1933 121.2631 121.0662 120.8790 120.6683 120.4724 120.2783 120.0889 119.9047 119.7335 119.5659 119.4134 119.2729 119.1505 119.0402 118.9537 118.8812 118.8184 118.7917 118.7777 118.7896 118.8208 118.6700
121.0500 121.9348 119.8791 115.5954 109.2231 109.2991 114.5184 116.2124 105.7250 108.0236 115.0310 103.4196 102.2078 123.5569 107.1384 124.9236 125.2641 127.5715 126.0402 123.1331 115.8022 125.1494 125.1880 126.2042 126.0522 124.3935 124.2963 124.1083 123.5525 128.2057 123.2738 123.5274 123.3053 122.3752 123.1526 114.7089 116.1672 122.4808 121.8681 121.6884 122.7142 119.6630 121.1992 120.8156 120.6158 120.3879 120.1756 119.9702 119.7580 119.5631 119.3755 119.2006 119.0266 118.8606 118.7333 118.6303 118.5265 118.4460 118.3874 118.3488 118.3375 118.3438 118.3824 118.2600
120.5100 116.4804 111.6800 118.6196 116.5845 120.7310 110.0170 109.4855 108.8853 108.4728 125.6064 114.3930 106.4784 107.4999 104.6118 123.0858 126.8171 123.7827 125.9955 126.4226 127.4024 125.8113 125.0709 124.3579 126.0523 126.3667 125.3847 125.7385 123.8918 126.7144 123.2417 123.2847 124.3626 108.9704 120.6937 123.3378 118.3761 121.8298 121.6160 121.5383 120.9392 119.2763 120.9489 120.5441 120.3420 120.1069 119.8794 119.6489 119.4310 119.2198 119.0136 118.8197 118.6313 118.5364 118.3623 118.1414 118.0938 117.9909 117.9293 117.8912 117.8778 117.8861 117.9186 117.8300
124.3900 117.0255 109.8134 112.4947 114.1479 113.6311 117.7034 120.3351 123.4359 106.6771 107.6982 109.8653 120.4345 116.7149 105.0454 106.7623 128.1665 124.6976 125.7935 125.4611 125.1698 125.0241 125.9144 126.4342 120.2975 108.9484 129.0970 111.4350 124.6071 123.4467 123.3875 123.1664 123.2946 116.6023 123.0616 122.0825 119.4243 122.2904 122.2570 117.5348 121.2568 120.7305 120.5815 120.3082 120.0286 119.8197 119.5671 119.3321 119.0951 118.8603 118.6378 118.4274 118.2114 117.0880 116.9657 117.7247 117.6225 117.5182 117.4422 117.3996 117.3831 117.3935 117.4329 117.3800
117.5700 114.3716 111.0425 109.2389 109.4677 109.7823 110.9997 110.8675 115.5473 113.4703 111.2755 117.8028 122.6142 117.2353 124.0605 107.1598 122.5437 126.1714 125.6955 125.5273 125.3890 124.6890 126.9722 109.9963 124.1723 119.6925 119.2967 121.4492 123.8924 123.5520 123.2886 123.0481 122.5681 124.1349 123.2645 121.8222 122.3307 121.7842 121.4535 119.7020 120.9171 120.5205 120.2949 120.0906 119.9762 119.6122 119.1849 118.9929 118.7455 118.4950 118.2532 118.0266 117.7945 117.6422 117.5132 117.2650 117.1275 117.0161 116.9372 116.8832 116.8632 116.8761 116.9215 116.9000
114.7000 113.8169 110.3247 109.0705 110.7081 111.8880 109.2275 108.2518 105.9547 107.9007 116.5438 124.1886 136.3564 124.5497 125.5614 103.7282 125.3321 120.5762 126.0843 125.4367 125.2520 124.9572 118.8566 116.9184 103.3911 125.2549 125.0116 124.1789 123.6017 123.3698 123.1446 122.9932 122.4540 121.1750 109.5599 124.2371 122.8458 121.2854 121.0388 120.9729 120.6391 120.3318 120.2881 117.7539 119.6270 115.6787 119.1406 118.6261 118.3972 118.1182 117.8581 117.6086 117.3675 117.1250 116.9121 116.7489 116.6098 116.4833 116.3902 116.3308 116.3094 116.3238 116.3779 116.4000
116.0400 118.1886 113.6105 110.6106 111.6606 111.9808 112.5922 112.4034 109.1700 104.8643 118.7621 118.7146 116.3286 126.7977 126.5657 125.7708 125.3199 121.9008 125.6753 125.4132 125.1599 124.9690 125.1363 123.9564 118.8891 103.3091 111.5726 124.6972 123.4074 123.2529 123.0279 122.7834 122.5036 122.7896 121.7917 120.3452 110.3588 125.9234 120.8326 120.7792 120.3975 120.1098 119.8411 119.3897 119.5826 118.5289 118.6309 118.3306 118.0347 117.7382 117.4490 117.1719 116.9086 116.6617 116.4377 116.2346 116.0523 115.9180 115.8128 115.7440 115.7165 115.7345 115.7965 115.8600
118.1000 119.5697 112.4110 112.4818 116.9639 110.6492 112.7234 108.5471 105.3668 109.1980 107.3845 110.7774 124.5384 125.8395 126.0587 125.8282 125.7698 125.6660 125.3779 125.3220 125.1032 124.9206 124.5071 124.2822 125.9071 111.7627 110.1169 124.9323 123.4125 123.1299 122.9121 122.6616 122.4703 121.8879 123.0829 120.2539 121.4069 119.9883 120.5378 120.5088 120.0555 119.9224 119.3275 119.4749 119.0715 118.6813 118.2139 118.0007 117.6634 117.3435 117.0285 116.7253 116.4363 116.1554 115.8967 115.6728 115.4706 115.3125 115.1914 115.1173 115.0820 115.1067 115.1727 115.2900
128.3700 119.7715 115.9221 117.1877 114.6358 111.7604 111.1326 110.9056 109.1971 108.8361 108.1517 113.1257 124.2623 109.9991 127.6376 126.1112 125.7584 125.5504 125.3929 125.2318 125.0147 124.5816 124.6604 124.5008 123.9264 124.3760 124.4280 123.3809 123.3611 123.0363 122.7961 122.5494 122.2853 122.0310 121.7531 121.7750 121.3986 121.0302 120.6464 120.3021 120.9158 119.9578 119.7996 119.1862 118.7456 117.0937 117.9821 117.6455 117.3020 116.9499 116.6047 116.2613 115.9396 115.6304 115.3414 115.0797 114.8518 114.6660 114.5198 114.4390 114.4029 114.4274 114.5112 114.6800
119.7100 118.9375 112.5159 111.3647 113.3027 116.7216 104.4961 105.1775 105.4643 108.0815 111.7196 107.3936 126.3547 115.8931 124.9546 125.6396 125.6938 125.5678 125.3710 125.1666 124.9437 125.6685 124.5557 124.3133 124.1557 123.7302 123.4022 123.3302 123.2120 122.9472 122.6924 122.4349 122.1685 121.8924 121.6201 121.2993 120.9795 120.7450 120.4144 120.0024 117.1217 110.3645 98.2854 116.7182 114.4270 112.2146 116.5338 117.2975 116.9209 116.5440 116.1656 115.7878 115.4318 115.0774 114.7470 114.4495 114.1843 113.9715 113.8095 113.7010 113.6606 113.6865 113.7842 114.0200
118.6400 117.8161 117.7003 118.9181 124.0927 111.4737 114.3690 114.7112 110.3585 112.2157 114.8721 125.9987 123.5335 126.9308 123.1322 122.8756 125.7968 125.5806 125.3001 125.1064 124.9130 124.5082 124.4157 124.2789 124.0455 123.8741 123.6684 123.3465 123.1029 122.8490 122.5842 122.3365 122.0497 121.8085 121.4926 121.2085 120.9191 120.5909 120.2844 120.0552 121.3882 111.2174 113.6789 121.7127 116.7553 118.0261 114.5776 117.3335 116.5277 116.1497 115.7204 115.3086 114.8936 114.5046 114.1324 113.7823 113.4733 113.2165 113.0236 112.8993 112.8543 112.8897 113.0018 113.3100
114.7200 116.2323 121.0191 117.9697 119.8717 119.8559 120.3624 117.0055 116.4823 109.1386 125.1796 125.7935 126.7357 126.0709 126.1998 126.1808 125.4619 125.1709 125.2835 125.0526 124.8643 124.6410 124.3680 124.2083 123.9813 123.7337 123.4895 123.2642 123.0172 122.7708 122.5221 122.2311 121.8931 121.5889 121.3977 121.0592 120.7578 120.4358 120.0960 119.7964 118.2322 122.0355 123.2376 122.6728 116.2673 116.8763 117.1686 116.5638 116.1644 115.7236 115.2762 114.8056 114.3359 114.0399 113.4327 112.9836 112.7117 112.4067 112.1701 112.0200 111.9623 112.0022 112.1364 112.5300
111.6900 112.3635 118.8470 116.7977 117.6134 115.7103 109.9499 119.0118 112.3813 106.8522 121.5872 121.4647 126.4319 126.1781 125.9516 125.7068 126.3751 127.4227 125.1156 124.9920 124.7659 124.8014 124.7933 124.1503 123.9177 123.6896 123.4472 123.1963 122.9382 122.7079 122.3777 121.8190 122.1160 121.8974 121.0583 120.9689 120.6359 120.3021 119.9590 119.6568 119.6720 120.9431 117.9174 117.2176 117.5134 117.2816 116.7330 116.3558 115.9965 115.4630 114.8247 114.2750 114.0695 110.7303 113.3907 112.2146 111.9094 111.5165 111.2245 111.0328 110.9623 111.0156 111.1859 111.6700
115.8700 114.7703 118.4842 117.4687 119.1577 113.2269 106.3217 105.3383 108.8252 107.9788 124.6554 121.5679 126.8404 126.2615 125.9419 125.7408 127.3868 110.6559 126.1924 124.9405 124.5017 126.1599 120.4992 124.2541 123.8775 123.6204 123.3829 123.1352 122.8501 122.5496 122.9356 122.8640 118.3096 115.6086 122.1819 120.8228 120.5010 120.1757 119.8279 119.4558 118.9964 118.5970 118.3120 117.6629 117.4891 116.9172 116.4850 115.9080 114.9123 114.4160 114.1654 113.9249 110.7577 106.3095 110.7927 111.7877 111.0043 110.5343 110.1720 109.9301 109.8429 109.9091 110.1235 110.7200
119.0800 113.0638 113.4694 113.3685 113.7008 110.2932 112.7958 118.1198 107.1717 110.4886 142.9210 122.4372 125.2020 125.5995 125.4637 125.5413 125.3162 121.5624 125.9822 124.9613 124.2076 124.9699 110.5273 124.5495 123.8816 123.5543 123.3264 123.0678 122.8391 122.3911 123.4601 114.3433 111.0546 109.0604 116.2270 120.7190 120.4738 120.0594 119.6992 119.3616 118.8548 119.8473 110.1418 121.6755 116.7045 116.7191 116.2156 115.7912 117.6783 117.6816 114.4784 113.3415 111.5046 109.0517 112.4835 110.2892 110.2641 109.4548 108.9853 108.6730 108.5522 108.6419 108.9205 109.6400
119.0800 110.4582 111.1240 109.7018 108.7654 110.5902 111.5909 106.9580 105.4745 105.6059 126.7053 108.5015 128.4236 127.6598 127.4674 126.8329 125.0800 119.5082 119.5695 124.5061 124.7593 124.6556 114.2120 123.8180 123.6064 123.5340 123.2783 123.0597 122.7601 122.5790 119.4771 108.8182 121.0270 112.2375 121.0079 120.9405 120.2804 119.9610 119.5748 119.2794 119.4315 109.1493 110.9009 120.3740 116.8318 116.5027 115.7103 115.5677 102.5908 107.7694 102.5179 113.1946 112.1457 111.6051 110.7037 106.0102 109.1197 108.2354 107.6249 107.2022 107.0340 107.1558 107.5443 108.4100
118.5800 115.2026 112.9720 112.2051 109.5460 109.5602 106.4176 105.4628 106.8245 121.9890 117.5439 106.6148 106.7787 103.8419 103.9561 113.8880 125.0929 125.7346 124.1043 124.7360 124.6786 124.4173 124.3710 123.9251 123.6920 123.4969 123.2540 122.9776 122.8366 122.6723 117.8902 107.7141 120.9565 119.4702 132.1949 117.3636 120.5903 119.8904 119.4794 119.1077 119.1451 110.0555 110.9108 122.7257 116.9868 116.1959 115.7522 115.1156 104.7380 101.8493 105.2410 115.2455 111.6521 110.6189 109.8658 108.6914 107.9346 106.9096 106.0640 105.4416 105.1918 105.3801 105.9437 106.7300
114.4500 115.4468 113.1152 112.9937 111.6108 111.0098 109.6274 107.6609 106.2124 110.5777 106.3512 106.0826 128.5959 127.1610 123.3125 122.3555 125.6907 122.8101 125.3317 124.7702 124.5270 124.3639 124.1087 123.8832 123.6688 123.4528 123.2507 122.9682 122.3310 108.9295 99.6094 114.7916 121.7122 121.0300 121.3305 120.1787 120.2158 119.8109 119.4055 119.0095 119.0296 109.7449 98.5326 120.6504 115.5249 116.3021 115.5466 114.9164 114.7095 114.2797 112.5821 111.5817 111.2066 110.0942 109.0591 107.9143 106.6646 105.4300 104.2207 103.2555 102.8428 103.1467 104.0528 105.0400
118.1900 114.2872 113.9474 117.8721 117.7582 116.9310 109.9185 119.0742 112.9940 111.4046 124.0370 126.6193 126.2986 125.5738 125.4606 125.5207 125.2798 125.9958 122.3999 125.2757 125.3272 124.7903 124.1826 123.9518 123.6896 123.4384 123.2460 122.3912 122.2185 101.6592 121.6526 119.9107 121.0937 119.6471 135.1659 118.1015 120.1814 119.7775 119.3551 118.8854 117.9504 118.3105 102.8414 101.0574 110.5476 116.0443 115.1561 114.7326 113.9762 113.0680 112.3904 111.6282 110.6726 109.5996 108.3840 107.0374 105.5204 103.8250 102.0058 100.4611 99.6761 100.2631 101.7330 102.9500
117.3700 118.5366 112.0047 109.9335 109.0768 108.6711 106.8197 103.3249 106.2933 119.7755 110.0206 121.4695 125.7398 126.3507 126.1809 125.6534 125.4216 127.2139 101.1722 124.0317 118.0959 120.7297 123.9990 123.8772 123.6083 123.3546 123.2752 123.0496 123.4834 125.2156 122.7359 121.6363 121.3151 121.2888 119.4998 119.8764 120.0391 119.7067 119.3046 119.1863 119.8974 119.1607 104.8614 119.3813 116.8923 116.0912 109.9755 114.8381 113.9798 113.2266 112.3757 111.3735 110.3227 109.1625 107.8253 106.2723 104.4262 102.2124 99.5851 96.3037 94.2353 95.8093 99.1237 99.7900
114.7200 113.1469 113.2852 108.5814 109.0839 107.8383 104.2824 113.1391 108.0404 112.9110 120.9620 128.2748 126.2458 125.9736 124.2422 125.6949 125.3999 127.3967 111.4627 125.4044 109.1894 111.3373 122.7733 123.7984 123.9172 123.6794 123.2538 119.0169 110.7058 115.2912 122.4048 121.7115 121.4044 121.0809 120.8684 120.3445 120.0455 119.7466 119.2374 119.8707 112.2294 119.0516 116.2597 118.4514 115.8760 115.7192 115.5982 114.5316 113.8415 113.0064 112.1350 111.1962 110.1129 108.8828 107.4393 105.7274 103.6186 100.8547 97.0210 90.5842 87.9969 89.8840 96.1903 99.5200
113.3100 113.8277 113.4106 110.0872 104.8079 109.9295 108.3923 115.9841 105.2071 122.8287 118.6353 125.7582 125.9894 126.4149 120.3021 126.2404 125.4206 125.5983 126.3276 125.0435 126.7062 125.5625 124.4081 123.8339 123.6603 119.7978 124.3697 115.3860 106.4928 109.7837 126.6490 121.2869 121.3844 121.1195 121.1256 121.2423 119.7789 119.2350 119.5744 120.1786 102.8883 101.7177 115.1473 122.3026 115.9940 115.6431 115.1262 114.4835 113.7914 112.9847 112.1044 111.1292 110.0194 108.7622 107.2835 105.4968 103.2606 100.2073 95.5484 87.3615 84.3432 86.6228 94.3510 99.0700
111.9900 113.3720 112.8203 110.1403 105.8037 105.6967 118.0103 106.6362 119.0430 107.7257 112.0555 128.6301 126.3052 126.2520 124.3523 125.7068 125.4602 116.4455 125.1268 124.7361 124.0805 125.8015 123.9354 123.8597 124.1371 119.5483 123.4444 124.9199 120.0278 124.1503 123.2098 121.4790 121.3951 120.7263 119.9344 112.9650 121.0911 122.7583 118.5602 119.8976 102.0293 99.6125 119.1270 106.2747 115.8985 116.3399 114.8073 114.5381 113.7914 113.0033 112.1287 111.1632 110.0700 108.8225 107.4070 105.6412 103.4553 100.5592 96.3975 89.1960 86.6093 88.5009 95.4913 99.3000
106.1800 108.2090 108.4431 109.6311 117.4330 113.6617 131.5551 108.3012 112.5250 105.8070 110.7115 116.3272 127.3905 125.6008 125.7853 125.7918 125.5359 113.6894 122.5503 124.2798 126.2677 112.0500 125.8558 123.8539 123.4858 125.0412 120.6013 115.9225 124.6912 121.6645 121.9422 121.7634 121.5014 121.9191 121.4489 122.3597 123.5670 116.4157 119.5232 119.7714 115.3874 115.5697 116.8469 111.5526 105.6063 115.5188 117.8093 114.5116 113.8846 113.1136 112.2525 111.3072 110.2543 109.0713 107.5275 106.1177 104.1348 101.7875 98.8193 94.6578 92.0728 94.1165 98.2573 99.6600
107.1400 104.7083 104.9380 106.6129 119.7686 110.5934 132.7820 105.5026 120.1177 119.8773 110.7549 121.9781 127.2057 127.2869 125.9210 125.6957 125.5571 120.2241 125.2063 124.6232 124.5362 122.1491 123.7045 124.3233 125.1435 110.1349 107.6414 118.1469 109.3017 124.0116 121.8750 121.8708 121.5426 113.1750 107.0110 104.1464 121.4712 117.5889 119.5194 119.2114 115.1014 118.9188 117.8711 117.6961 95.7645 115.7433 113.2495 114.9790 114.0336 113.2440 112.4638 111.5469 110.5630 109.4582 108.9418 107.1072 104.6668 103.4855 101.3693 99.5072 98.4485 99.1942 101.0121 102.6900
106.1700 115.9373 112.8755 113.2726 122.2778 112.2553 112.0936 105.0920 107.8026 108.5302 107.1349 105.6170 128.4211 121.0714 125.9366 125.4586 125.4060 125.8265 124.9850 124.7532 124.7038 124.9856 125.8639 115.2178 115.9387 105.4892 107.5070 103.3646 104.2503 116.9967 121.8111 121.9465 121.6011 117.8403 118.2060 117.5727 120.5574 119.6727 119.4363 119.0039 115.8956 110.8404 118.2884 117.9537 98.6631 110.2765 115.1931 114.9425 114.2055 113.5522 112.7895 111.8738 110.9800 109.6797 107.7132 96.8881 110.0624 104.3683 103.7390 102.4891 102.0075 102.3813 103.4394 104.8000
106.1700 105.9993 113.0558 120.2590 113.2281 109.8626 107.3142 110.2331 109.0957 104.2955 104.2024 105.2815 123.7505 114.6275 125.2698 125.5328 125.5213 125.2571 125.0798 124.8380 125.8956 113.6060 108.3853 107.9598 104.8291 104.8112 109.0788 103.1298 105.0493 114.1652 122.1497 121.9557 121.5357 121.5015 121.1157 120.7026 120.1738 119.8615 119.2048 119.7562 106.0170 110.1179 118.5480 117.0931 116.0267 116.4086 115.6924 115.0987 114.5344 113.5888 112.7034 112.3994 111.5433 110.3378 110.6106 106.5092 107.7851 105.6899 105.5975 104.8572 104.5630 104.7751 105.4180 105.1200
117.1400 117.1443 116.6283 117.6312 113.1935 109.1308 129.9285 110.5616 105.6094 104.6661 105.8553 106.4212 126.9583 123.3753 126.1147 125.9094 125.6207 125.2936 124.8785 124.6485 109.5252 108.9643 113.0141 109.0978 108.7806 103.9935 107.1990 104.3507 122.8201 122.4727 122.2001 121.9044 121.6210 121.3050 120.9594 120.6371 120.3123 119.9262 119.4504 119.9325 112.5368 99.8919 119.8036 115.9188 117.2925 116.4140 115.8843 115.3906 115.0319 113.0734 113.6694 110.6608 110.2803 111.3039 110.3530 109.5613 108.1210 107.8857 107.1996 106.7181 106.5112 106.6660 107.1095 106.9100
128.1300 122.2319 129.1655 128.4252 128.6412 127.9822 127.0707 129.3256 111.7265 112.0475 109.7277 128.6741 126.5640 126.8505 123.8769 123.9713 122.6942 125.3352 124.8879 125.8619 108.5643 108.5057 115.1049 108.1377 122.4350 100.6460 126.6656 122.7839 123.2479 122.4057 122.2638 121.9628 121.6518 121.3404 121.0298 120.7184 120.3768 120.0232 119.6702 119.0358 119.9930 100.5075 113.8396 107.5717 120.4433 116.5578 116.1571 114.9010 114.2363 105.6073 106.5445 113.7845 112.6469 111.7807 111.1998 110.1863 109.7779 109.1128 108.5969 108.2821 108.1849 108.2297 108.5405 108.3700
128.1800 128.2794 127.6730 127.4965 127.3356 127.2982 127.1916 127.4008 128.4633 128.4400 127.3259 126.1926 121.1789 118.2361 102.0360 101.5222 118.1116 121.1999 125.4137 124.0926 123.3208 101.9941 109.2200 102.7049 102.8893 107.4724 113.4027 118.8776 118.4578 122.8089 122.3351 122.0282 121.7480 121.4552 121.1414 120.8151 120.4821 120.1375 119.7998 119.3738 119.4279 120.5311 118.2911 118.0272 116.9469 116.6561 116.1980 104.0919 108.0613 95.1743 114.0183 113.1090 113.1461 112.4480 111.8945 111.2926 110.7181 110.2325 109.8487 109.4090 109.1205 109.5537 109.7857 109.6400
128.1900 128.4899 128.0720 127.9593 127.8416 124.3651 127.3072 127.0031 126.5339 126.4797 126.1846 123.8507 106.2475 104.1851 108.8676 110.4384 128.4919 117.2440 126.3835 111.1609 120.6013 111.7820 108.1758 110.5428 105.4800 102.0521 102.9500 99.0833 113.6439 121.9358 122.4752 122.1124 121.8255 121.5347 121.2295 120.9215 120.6018 120.2615 119.9187 119.5842 119.0218 118.5879 118.2557 118.9003 117.0584 117.3732 110.4653 101.0699 116.5315 117.2518 115.7684 114.1682 113.6285 113.0974 112.5727 112.0792 111.6135 111.1647 108.5838 113.2410 111.3601 110.7390 110.9262 110.7000
131.5700 128.0900 127.9900 127.8900 127.6800 127.5700 127.3500 127.2400 127.0100 126.8900 126.6600 126.5400 126.4100 104.1600 104.0400 103.7800 127.1500 125.3700 125.2300 125.0900 106.5300 124.6500 124.3400 103.2000 123.8700 101.7000 102.4800 106.9300 122.3800 122.6400 122.4600 122.2600 121.8700 121.6600 121.2300 121.0100 120.7800 120.3100 120.0700 119.5600 119.2900 119.0200 118.4500 122.7400 115.6000 117.2000 116.8600 116.5100 115.7600 115.4400 114.9800 114.5400 114.1000 113.6900 112.6700 112.6700 112.2400 111.6300 95.7800 95.7800 111.6800 111.7500 111.7500 111.6500
