135.9100 127.5900 121.6400 121.6400 127.6600 127.6600 126.3600 126.3600 125.4700 125.4700 126.4600 126.5500 123.0000 107.4600 109.4700 119.3900 129.2300 121.1300 121.1300 123.7600 122.3800 106.9100 124.7100 117.2500 117.7900 117.7900 116.4200 111.3900 111.3900 128.5300 128.5300 107.3000 107.3000 117.4300 117.4300 128.2700 128.3000 128.1900 128.2100 128.2200 128.1000 128.1100 122.8500 128.1300 128.1400 128.1500 128.0200 110.1200 128.0200 128.0200 128.0200 128.0200 128.1500 128.1400 128.1300 128.1200 128.1100 128.2200 128.2200 111.3800 114.1800 128.2900 128.2700 128.2600
135.9400 129.3989 125.1002 119.7764 127.4100 129.1875 126.9249 127.2006 126.6734 126.8784 126.7025 115.6714 106.4194 113.2117 121.4691 118.8200 127.8931 127.4379 126.3694 120.9665 125.5706 105.7665 127.1905 119.0727 121.5630 121.6187 115.6434 106.6760 106.5147 105.7216 125.7478 110.3234 115.5447 117.2314 120.5916 117.3013 106.4983 125.5478 123.8810 127.8653 123.4279 128.5395 126.7427 128.0974 127.9901 128.1125 128.4508 116.4903 127.5171 127.7622 128.0243 127.9975 128.0042 128.0114 128.0306 128.0581 128.0685 127.9992 129.3443 115.0925 116.9820 125.6053 127.4743 128.2600
135.4500 137.0658 128.7662 121.3019 124.7255 122.4151 128.4272 127.0916 127.4211 126.6074 126.0149 126.7021 123.5383 105.1600 110.7204 116.9175 126.7473 127.6354 132.7475 136.1854 132.2313 110.6474 108.1328 126.9633 127.8321 122.4431 109.7424 107.4341 123.2068 109.8959 119.7563 127.7027 138.6595 126.5526 118.5436 110.5966 107.0427 131.1100 119.4494 127.9993 128.2585 127.9524 128.0439 127.8986 127.8528 127.9766 127.9978 123.9823 129.1734 127.8965 127.7667 127.8468 127.8500 127.8675 127.8759 127.8939 127.9219 127.8377 126.7103 114.5662 116.1768 128.8351 129.1684 128.1200
134.9600 129.9038 127.4042 129.9195 123.4522 110.0895 128.5068 127.4027 126.7049 124.7211 125.3521 124.1548 121.6853 107.4253 107.2925 130.8641 128.4442 121.0124 124.8191 128.2872 126.1805 103.9164 121.4044 118.7149 110.1869 116.2313 110.0106 110.2739 108.5988 106.0814 112.4691 127.2566 121.1241 126.4810 127.7372 114.2428 124.8253 128.5385 129.2923 120.4673 128.4541 127.6767 127.7084 127.7159 127.7000 127.6991 128.4832 122.0754 119.8506 130.2309 127.6721 127.7022 127.6960 127.7144 127.7142 127.7686 127.8194 129.0540 121.6324 111.9980 112.7201 109.2502 129.2619 127.9800
136.3600 125.3485 127.6810 130.3067 128.3788 123.8337 118.7668 126.4161 125.5123 124.5476 124.2194 123.2128 124.3639 116.5985 108.9000 128.9869 123.5197 128.5253 115.9903 123.3137 118.6536 125.6562 113.4509 117.9689 116.4090 113.9450 112.0373 105.9605 106.5809 107.2701 115.4160 119.1757 129.6233 127.3783 122.2496 121.1871 128.4135 125.0350 127.9006 128.0814 128.1764 127.5870 127.5759 127.5671 127.5827 127.5451 128.6394 115.3614 104.6590 121.0935 127.7175 127.5354 127.5388 127.5348 127.7082 127.9247 125.8490 121.7538 113.0766 131.0725 120.6428 108.2072 129.5767 127.8400
136.3600 135.5435 125.5423 129.0176 128.7725 124.8187 116.3237 120.8065 124.7323 122.6774 122.5281 122.9886 122.8884 119.5436 121.8273 119.3118 127.2527 127.8060 122.3632 116.1457 143.5892 120.1783 117.6155 122.6726 125.2651 117.2644 116.2325 109.0423 115.4010 115.8182 128.7045 125.2307 127.2652 127.6170 128.3470 128.5918 128.1948 123.6448 127.6040 127.3874 127.3269 127.4194 127.4123 127.3994 127.3015 127.0273 125.8184 114.7402 108.9637 128.6692 127.2252 127.3786 127.3796 127.3746 127.5324 128.1190 115.9059 112.9999 129.9662 128.2735 129.1216 121.2149 128.5151 127.6900
126.4400 126.6334 128.4727 126.4561 127.7653 126.5107 122.0119 119.1716 123.7110 123.0711 123.2417 121.9995 122.0685 122.7114 121.3136 122.1130 128.5736 128.5021 131.0485 121.3661 115.2132 118.8011 118.2037 113.9438 115.0218 112.1102 111.7798 107.9439 109.5932 119.3515 127.8792 128.1000 128.4481 123.6297 122.3428 127.1549 127.3961 127.9087 127.4084 127.3488 127.3238 127.2881 127.2472 127.2570 127.7241 128.6427 125.3536 111.0046 118.2762 125.3660 127.3005 127.2085 127.2123 127.2189 127.3277 127.4481 123.4640 128.0420 125.4203 125.6255 132.6938 128.2552 127.7116 127.5500
133.3300 128.5227 127.8948 127.9623 127.7225 127.2020 125.8822 113.4774 114.3427 122.8942 123.3538 123.1683 122.2907 121.6387 126.0783 119.9747 120.1116 127.7516 120.1805 114.5292 120.1196 118.7389 120.8724 120.1598 120.7695 114.3267 113.8552 121.5414 106.5522 127.7887 127.5878 123.9152 126.6479 114.3914 124.2347 127.4448 127.2836 127.1490 127.1916 127.1732 127.1298 127.1098 127.0910 127.0657 127.5137 114.8040 128.8798 121.5589 120.6403 127.7932 126.9880 127.0300 127.0534 127.0607 127.0752 126.9617 129.0764 120.4453 127.6704 127.3898 126.7429 127.2922 127.3796 127.4000
115.8100 113.9738 128.6580 119.9845 128.0149 125.5522 125.1437 125.1511 114.5274 117.6605 125.0643 127.7995 124.4120 124.6808 126.1065 122.9451 131.1457 128.9930 119.4199 120.9094 116.6916 119.1560 114.4860 118.4885 112.1731 123.8158 120.6571 114.4578 121.8018 115.0091 125.8773 125.4495 128.4044 128.2572 130.7015 127.1405 127.1188 127.0806 127.0363 127.0015 126.9736 126.9499 126.9123 126.9280 126.2162 135.6826 125.9515 120.9272 116.8359 127.8494 126.8297 126.8669 126.8767 126.8847 127.2765 126.9234 126.9736 120.7764 127.8266 127.0226 127.1591 127.1202 127.1577 127.2500
115.8100 132.9190 130.6708 128.1086 125.5798 125.0306 123.9271 125.3634 119.0896 112.7856 114.7755 148.3124 123.7545 127.6984 122.9242 122.1899 129.3639 117.6068 111.7908 118.3484 125.3453 122.7766 113.9599 111.1906 121.0958 112.1580 132.0306 125.4472 127.3604 126.5394 127.5211 127.3248 127.0802 127.1522 126.5244 126.9609 126.9307 126.9008 126.8667 126.8343 126.8053 126.7789 126.8116 126.7967 126.8118 127.1616 126.7454 126.9313 127.0471 126.6106 126.6936 126.7048 126.7073 126.6423 128.5273 126.4665 126.9479 127.5851 126.8764 126.8903 126.9100 126.9618 127.0045 127.0900
133.4500 110.6897 108.1763 123.5912 116.8703 124.2666 123.4508 123.0194 123.8433 124.6518 114.8398 127.9057 133.6089 152.5067 122.4266 142.6831 138.3538 121.8589 110.8257 117.1284 130.2119 120.7231 119.9904 112.8502 117.5525 129.1881 128.9787 125.1709 127.0343 127.2902 127.0149 126.9738 126.8944 126.9488 126.9939 126.8429 126.7587 126.7378 126.7004 126.6632 126.6360 126.6037 126.3637 126.0783 126.3626 126.5504 126.5857 126.4841 126.3283 126.5119 126.5173 126.5230 126.5633 126.2907 126.2512 126.6555 126.5737 126.3408 126.5882 126.7178 126.7574 126.7948 126.8414 126.9400
133.4600 121.2346 114.6789 110.5623 118.9668 114.4537 118.2559 124.3367 122.1103 127.9619 114.8306 116.5536 137.1701 124.7914 121.6882 130.4881 121.9977 119.7505 119.4007 120.4750 126.9316 126.7107 126.8436 121.4162 125.6200 126.6080 126.5471 127.3581 127.1504 126.8619 126.9171 126.7400 127.5072 126.6269 126.6823 126.6503 126.5909 126.5528 126.5243 126.4961 126.4560 126.4351 126.7643 128.4889 127.1119 126.2885 126.3071 126.3312 126.3929 126.3475 126.3402 126.4061 126.1012 128.7795 126.2888 126.4031 126.4101 127.2579 126.4179 126.5396 126.5812 126.6267 126.6767 126.7800
124.7700 131.7697 118.3485 109.5310 107.3941 104.0350 103.7055 122.6879 120.9157 127.2450 127.3541 116.6212 125.1871 126.9134 125.7735 121.3474 119.2553 120.0148 120.9788 112.4946 108.2910 126.4366 120.2892 126.7213 128.0949 126.3880 127.1025 126.8719 126.8485 126.8348 126.7566 127.3232 121.1832 127.6424 126.5078 126.4657 126.4872 126.4359 126.3629 126.2995 126.2851 126.2358 126.7486 116.3661 111.6229 127.3295 126.2093 126.1357 126.1294 126.1436 126.1546 126.1894 126.0964 126.2376 126.2134 126.7038 116.6924 126.2566 126.2242 126.3716 126.4100 126.4521 126.5019 126.6100
124.3100 116.6004 122.2229 109.9066 108.1320 107.6413 120.4384 122.0830 122.5939 123.6513 123.9985 134.5706 113.4962 117.4944 121.7863 120.4690 118.3499 133.7193 127.3827 110.6605 115.3161 125.4073 127.4367 127.3176 126.7717 127.0555 126.7179 127.1620 126.5731 126.6775 126.5827 127.2514 121.6210 128.0009 126.2343 126.3010 126.3239 126.1864 126.3853 126.1901 126.0578 126.1005 125.7096 127.0038 110.1967 127.8503 126.0121 125.9299 125.9605 125.9603 125.9689 125.9890 126.0245 126.0177 126.0411 126.1900 130.1578 125.9474 126.2250 126.1843 126.2334 126.2873 126.3270 126.2800
107.0100 109.7681 128.5784 120.3322 108.9252 106.8179 105.9477 114.6765 111.0850 127.8247 128.6573 126.6818 128.0799 115.9863 118.2509 122.0241 121.2653 132.6378 116.9125 112.3817 116.1536 126.9319 127.3005 126.9278 126.9663 126.7607 126.6531 129.1102 123.6941 126.7109 126.4539 126.0685 127.7330 123.3919 126.1649 126.1281 126.1293 126.5587 129.6896 125.9313 125.8974 125.8644 125.8824 125.7537 126.1660 126.2306 125.8321 125.7540 125.7667 125.7686 125.7773 125.7824 125.7883 125.8112 125.8350 125.6657 125.4970 125.9451 125.9637 126.0143 126.0519 126.0841 126.2394 126.1000
132.0300 127.5087 127.4328 124.5683 110.9836 106.0058 105.7601 118.2449 122.8453 116.2530 125.4021 137.6192 128.1477 117.4213 117.7153 118.9833 113.1269 109.3049 115.1745 115.7145 116.1274 128.1422 120.5327 126.9268 126.7306 126.6372 126.5447 126.7474 124.8913 126.7338 126.2472 126.2031 126.4459 125.7112 126.3262 125.9454 125.9098 125.8237 125.4373 125.7200 125.7236 125.6943 125.6525 125.6648 125.4770 125.4964 125.6111 125.5657 125.5684 125.5704 125.5801 125.5956 125.6050 125.6200 125.6442 125.7286 125.7867 125.7310 125.7799 125.8208 125.8726 125.9304 125.4361 122.3700
128.8400 129.2192 128.8205 125.2642 121.9627 118.7383 105.0135 115.4182 110.8745 121.2182 113.4526 124.9589 121.6897 118.5997 117.2133 111.9580 114.6395 114.4863 106.4747 120.3479 125.9824 111.3176 122.6513 127.4021 126.5379 126.5025 126.3978 126.3488 126.4801 126.1188 126.0944 126.0140 125.9033 125.9116 125.7910 125.8119 125.6872 125.6433 126.1069 125.7410 125.4690 125.5139 125.4514 125.4472 125.4577 125.4632 125.4118 125.3736 125.3714 125.3730 125.3835 125.3913 125.4066 125.4250 125.4498 125.4707 125.4964 125.5485 125.5893 125.6347 125.6847 125.7269 125.4335 125.7400
128.8200 128.7033 129.2932 125.5987 122.8043 121.9289 118.4039 107.1876 114.1126 111.9696 131.9289 126.0243 119.5853 120.6441 118.5544 111.9958 116.8646 114.4378 118.8647 126.9259 115.0189 119.8680 129.8495 125.7046 126.5736 126.2190 126.1910 126.1397 125.8266 126.0572 125.9190 125.8358 125.7809 125.6946 125.6399 125.6581 123.3928 125.2807 125.8212 120.1258 126.2353 125.1883 125.2799 125.0681 125.1068 125.0473 125.0636 125.1846 125.1692 125.1707 125.1791 125.1864 125.2067 125.2260 125.2451 125.2810 125.3115 125.3571 125.3952 125.4426 125.4908 125.5224 125.6664 125.5600
128.6900 128.7065 128.4311 121.3872 121.3183 120.8639 124.0569 109.1160 105.5004 111.4466 107.4730 123.5687 113.5691 119.4475 120.8200 115.4741 113.1608 111.6557 124.8866 117.8550 114.2513 118.1146 127.5123 126.5519 126.0729 126.3369 126.5545 126.0915 126.1996 125.7012 125.7309 125.6693 125.5617 125.4952 125.7712 125.8317 121.7658 117.6305 124.9946 125.1000 121.8705 125.0673 124.7812 126.1459 125.5454 125.5586 125.5784 124.9080 124.9492 124.9526 124.9713 124.9776 124.9968 125.0208 125.0398 125.0748 125.1097 125.1531 125.1950 125.2451 125.3013 125.3659 125.4039 125.3700
131.2500 128.6722 123.0850 113.6395 120.2680 104.4711 120.4649 122.0961 113.7577 109.9394 106.0273 115.3022 120.4582 113.3259 122.0914 111.1529 114.0490 114.5119 127.8055 132.9533 135.6357 125.4171 122.5921 126.1564 126.2807 126.2418 114.5869 108.0133 118.2371 126.4745 125.5592 125.4735 125.4716 125.1783 126.6657 116.4225 110.1979 114.7691 125.3756 116.9160 118.5574 123.3057 124.8268 120.8533 119.1063 125.7434 117.1564 125.4556 124.7544 124.7441 124.7533 124.7629 124.7849 124.8064 124.8318 124.8619 124.9019 124.9337 124.9948 125.0415 125.0953 125.1515 125.2284 125.1800
121.6800 120.3206 122.2890 122.3661 114.2979 114.7162 117.7132 120.4144 123.3730 119.8700 107.7591 101.6768 104.5450 115.1332 120.2557 127.4241 111.7689 110.8147 119.5803 128.5516 125.2138 126.5879 126.2994 126.0549 126.2804 112.8110 106.6814 117.6148 121.4577 125.6067 125.3600 125.2891 125.1971 124.8005 129.0787 102.4391 106.8994 102.6284 114.5521 123.4864 120.3350 123.3744 122.2207 114.8564 120.8808 124.6003 124.2753 125.1933 124.8992 124.4769 124.5379 124.5475 124.5680 124.5826 124.6170 124.6435 124.7032 124.8011 124.7760 124.8617 124.8867 124.9704 125.0215 125.1500
128.3700 117.4084 125.5114 121.0735 122.6525 110.5094 123.8884 122.9905 115.9758 121.0267 126.7125 103.9622 108.5284 111.1731 111.4186 124.3270 114.4364 118.8957 123.5265 130.0482 126.2176 126.1137 126.0016 125.5911 120.3641 106.1428 114.2424 127.7288 125.4233 125.3185 125.2036 125.0754 124.9898 125.2207 110.7177 102.6525 114.0195 107.6262 117.2125 114.3433 120.3478 124.2729 123.1950 107.6475 116.5877 124.9182 124.2886 127.5590 131.1365 123.9281 124.3045 124.3312 124.3394 124.3658 124.3821 124.4662 124.3695 124.1338 124.6047 124.4672 124.7921 124.7207 124.8212 124.7800
128.3700 134.3333 109.7446 106.4881 123.7313 116.9637 109.8711 127.3138 120.9623 121.6387 125.8622 112.5924 105.5789 104.7819 110.7936 112.2524 112.7557 125.6361 123.9192 126.7511 125.6897 126.0031 125.9074 121.8806 114.9889 118.3100 111.3880 125.4924 125.4756 125.0326 124.8820 125.1583 125.0260 125.7000 121.5278 116.7324 116.0871 112.5573 113.3706 107.1643 124.7620 108.0267 124.8600 112.4541 113.3895 126.6203 126.3130 123.5721 122.9762 124.0908 124.0769 124.0921 124.1130 124.1308 124.2481 123.8913 124.8330 126.5629 124.2817 124.6637 125.9090 124.5411 124.6129 124.5700
121.3700 116.4037 118.9106 119.0877 121.0628 120.1148 114.8992 106.6936 116.9375 118.4645 122.0459 120.1174 106.8951 102.6833 103.6969 118.8375 117.8927 129.2659 132.3045 129.1744 125.7258 125.7905 126.5794 111.4001 110.1037 128.0085 112.1959 121.8305 124.9884 124.8704 125.9258 121.4024 123.3110 122.3625 120.4966 103.0385 119.7444 126.4075 113.5242 112.6250 112.1541 109.7540 114.1293 122.6446 111.4878 122.9920 120.6468 123.9897 124.0558 123.8261 123.8384 123.8514 123.8773 123.9298 123.3668 126.8360 116.2641 122.3119 121.9184 124.0291 124.1598 124.3336 124.4116 124.3600
121.3700 113.0831 113.9197 125.9723 112.7217 125.9085 120.1101 118.2027 106.5130 108.9633 120.5163 114.8461 120.0110 116.7218 102.0780 108.1646 107.9723 130.8690 128.2191 125.4140 125.7868 125.6225 125.3082 121.9895 121.8801 124.7761 123.3144 122.4847 125.0387 124.7030 125.4095 123.5828 124.7958 123.3265 125.9696 127.8533 126.3678 119.1365 123.9781 115.6339 109.3276 114.3795 119.9647 124.0570 128.5140 123.6737 124.2739 123.7468 123.5378 123.5808 123.5908 123.5968 123.6744 124.3118 124.7300 129.9736 113.4493 126.8557 122.6354 124.0285 124.0682 124.1128 124.1949 124.1300
128.9500 127.7001 116.6303 115.7754 113.6843 110.6808 110.6809 107.5629 104.1392 115.7979 121.9011 120.6052 125.4289 112.4359 116.8811 117.0930 110.8756 127.0086 124.6084 125.4825 125.6440 125.3134 126.1603 123.8525 127.4094 124.9921 120.4271 125.4051 124.1946 124.6059 124.2099 124.3716 124.1853 124.8587 114.4646 116.6848 124.7218 108.5871 114.7439 119.7358 116.5048 132.4695 128.4124 123.4670 123.3032 123.0622 123.2169 123.2629 123.3331 123.3311 123.3406 123.3505 123.4095 123.5059 123.1497 123.3758 117.4403 123.4378 123.4643 123.7128 123.8321 123.8917 123.9784 123.9100
127.5000 127.6637 125.5403 118.9549 120.2203 113.0795 104.5626 107.6973 121.9627 123.7112 110.3971 105.0301 117.4009 110.7247 112.0092 117.8104 109.9856 104.7334 125.2073 125.5647 125.3391 125.5282 127.4878 107.5778 125.4072 124.6930 120.2391 121.0942 124.9293 124.3745 124.2513 124.0569 124.0067 124.8233 112.7167 124.3401 126.4916 105.9629 119.1344 112.5592 124.9490 122.6430 121.6400 123.0961 123.1890 123.1922 123.1261 123.0986 123.0698 123.0716 123.0839 123.1011 123.1468 123.1573 123.2925 124.2321 124.2353 123.6843 123.2842 123.5136 123.5831 123.6651 123.7563 123.9100
127.2400 121.0300 126.0614 117.5976 119.9358 120.4321 117.1058 102.8292 104.6863 130.0974 122.4705 103.2602 103.7304 112.2592 112.7862 114.6022 103.6077 100.9759 113.5924 126.2061 125.2011 126.5111 116.4185 121.0654 125.0171 124.2107 127.1415 125.0417 124.0132 124.1591 124.0121 123.9081 123.7905 123.2290 114.0964 114.7425 118.6672 110.3743 122.5912 124.2785 123.1046 123.0761 123.2014 122.9309 122.8574 122.8258 122.8116 122.8105 122.8037 122.8057 122.8186 122.8345 122.8511 122.8945 122.9339 122.5853 122.6629 123.0970 123.1880 123.2559 123.3447 123.4342 123.5280 123.6800
118.4500 123.0065 112.7684 117.3792 120.3263 118.4593 117.3334 119.9503 104.8231 104.6181 114.6964 122.4093 104.6268 105.6496 116.1363 111.7551 123.3816 115.6017 125.1116 113.8729 126.1211 125.3551 124.5933 124.4178 125.4495 120.0491 125.5655 123.9441 124.1201 123.9155 123.8090 123.6853 123.4625 123.3702 125.0056 127.7558 126.7405 113.5802 126.0744 123.9297 125.3664 122.6130 122.6746 122.6510 122.6183 122.5840 122.5551 122.5352 122.5342 122.5253 122.5448 122.5639 122.5872 122.6273 122.6820 122.7979 122.8174 122.8494 122.9358 123.0135 123.1043 123.1987 123.2956 123.4100
127.7000 120.2804 119.6803 107.9693 114.2281 119.2981 117.6093 118.6625 121.2122 106.8090 109.1409 117.5767 119.1598 106.1875 108.9992 125.7276 121.0933 113.8620 112.8199 123.8792 125.0731 122.7413 127.6563 124.2273 124.6965 121.6017 125.8697 123.9202 123.8424 123.7243 123.5899 123.3737 124.0631 121.4755 123.3578 122.0733 122.0718 121.3031 120.7044 122.6543 120.9310 122.4686 122.4092 122.3726 122.3236 122.2893 122.2710 122.2517 122.2391 122.2428 122.2628 122.2802 122.3101 122.3484 122.3990 122.4389 122.5209 122.5890 122.6713 122.7564 122.8538 122.9528 123.0583 123.1900
127.6800 128.2730 127.2567 119.6339 105.7960 106.8406 113.0708 116.6738 119.1347 130.7357 112.4183 104.9171 102.8174 108.6338 110.3308 111.8488 122.7758 126.4524 126.4236 125.1887 125.9478 120.2608 120.5186 126.6650 114.4918 125.6968 123.5426 122.2975 123.6493 123.5662 123.3775 123.0033 124.1519 111.1196 109.9925 123.2515 122.5819 122.1905 122.6738 122.7384 122.0662 122.4325 122.2260 122.0749 122.0419 121.9974 121.9798 121.9559 121.9537 121.9522 121.9683 121.9887 122.0227 122.0626 122.1162 122.1760 122.2411 122.3224 122.4056 122.4958 122.5960 122.7019 122.8163 122.9400
123.1800 123.1641 118.0380 115.6443 109.6746 113.1967 107.6996 109.1871 117.8169 111.0741 101.4021 117.7914 101.9234 113.3324 108.2107 107.7451 118.2650 125.7045 124.6861 125.6768 121.1659 112.8703 114.5803 121.8928 123.0949 126.0587 120.6297 122.3993 124.5148 123.3716 123.1728 123.0377 120.0921 100.2778 111.8128 122.4326 126.8117 122.4735 122.1429 121.9994 122.0378 121.2990 121.4239 121.8439 121.7351 121.7189 121.6716 121.6560 121.6447 121.6500 121.6625 121.6853 121.7237 121.7643 121.8172 121.8825 121.9581 122.0396 122.1303 122.2345 122.3342 122.4501 122.5662 122.6900
119.6400 121.3020 119.6274 116.1941 106.0997 116.6010 113.6730 105.9064 105.0895 104.2739 101.8634 116.6037 119.7397 112.0170 102.1350 106.0564 123.4935 124.3205 124.8544 124.4148 109.7038 109.8411 122.1551 100.6079 113.2151 123.7036 123.9516 123.7872 121.0786 123.0273 122.6476 122.8383 123.2751 120.1116 119.7597 112.7231 123.1830 122.0862 122.4029 121.8570 121.7724 121.8596 128.3341 121.0194 121.3678 121.3760 121.3494 121.3353 121.3262 121.3318 121.3450 121.3741 121.4155 121.4563 121.5195 121.5885 121.6646 121.7559 121.8485 121.9568 122.0716 122.1836 122.3086 122.4000
120.4100 116.8094 115.1481 117.0535 108.8839 106.7666 104.7595 109.7628 122.9887 108.8035 105.0167 104.7823 115.6787 109.7732 111.1197 105.8013 107.1023 125.6193 123.9204 124.1426 119.3515 125.0683 125.9840 118.0939 125.0555 123.4448 123.0075 123.0037 122.4152 125.7101 123.3795 122.5265 122.7504 124.2594 104.7512 110.7218 121.1513 122.0314 121.8238 121.1908 121.3311 121.1977 121.5036 120.9395 121.3279 120.8613 121.1925 121.0121 121.0037 121.0124 121.0253 121.0474 121.0935 121.1394 121.2068 121.2841 121.3698 121.4542 121.5615 121.6708 121.7949 121.9204 122.0475 122.0800
123.7400 119.5554 118.0532 119.0126 114.8112 109.4763 109.8144 110.6094 120.6725 108.1893 103.4150 102.1060 107.1894 110.0000 118.9232 104.8269 115.1404 131.6979 125.8163 124.1819 124.9268 123.4552 123.0829 123.7925 124.4034 121.0539 123.4095 123.7794 125.7822 127.6790 121.3982 122.3921 121.2053 122.2356 120.8627 121.6652 107.5211 120.9753 121.0523 122.7607 121.9890 120.9758 120.9570 120.9451 121.2835 114.3630 120.1081 120.3105 120.6491 120.6750 120.6817 120.7166 120.7576 120.8058 120.9151 120.9347 121.0561 121.1545 121.2642 121.3803 121.5133 121.6502 121.7883 121.8300
123.7400 114.2416 116.8869 105.2076 110.1285 106.3340 108.8587 107.2810 104.7438 107.4670 108.7992 104.9167 107.4503 115.7308 111.3046 104.9239 110.4490 102.0995 118.3553 124.4137 123.8649 123.8369 123.7324 124.1529 113.6214 105.4852 109.0833 105.9002 126.2938 120.0916 122.3316 122.1996 121.9458 121.6995 121.8502 121.2851 116.6601 122.0413 120.8158 122.4240 115.9685 120.8170 120.5886 120.5026 120.6137 119.3968 122.0223 118.4067 120.3261 120.3529 120.3278 120.3659 120.4143 120.4610 120.8953 120.6013 120.7311 120.8360 120.9565 121.0921 121.2173 121.3652 121.5246 121.5300
112.3500 112.0027 115.8103 118.7290 103.2697 115.8741 110.3619 109.9544 107.7199 104.0335 105.3408 101.5775 116.9640 111.1108 120.0809 101.4973 117.0161 123.4616 123.5872 123.7356 124.5526 123.6944 123.5253 123.2661 122.5289 115.1377 115.1516 102.6854 120.7072 122.0955 122.2179 121.7985 121.6759 121.4993 121.2830 121.1138 122.0059 120.7873 120.6194 120.0229 120.4751 120.4522 120.2524 120.1880 120.6450 111.0981 114.3599 118.8172 119.8648 120.0069 119.9623 120.0020 120.0493 120.1010 120.1681 120.2885 120.3963 120.5166 120.6512 120.7357 120.9397 121.0778 121.2271 121.2100
115.6900 116.1808 111.5359 112.7064 111.6364 113.8777 108.4649 109.6322 108.9354 107.0215 108.7917 122.9388 116.6028 123.8454 118.7112 106.4449 109.3997 124.8891 124.5357 116.8321 124.1708 123.3775 122.8696 123.5229 122.8503 119.6051 117.2230 121.6332 124.5037 121.6096 121.8263 121.6010 121.4067 121.2269 121.0253 120.9770 120.2752 120.4897 120.8566 120.4435 120.0186 119.9781 119.9169 119.8660 120.1934 116.0244 111.3729 115.4810 119.5942 119.5672 119.5810 119.6189 119.6697 119.7558 119.8437 119.9380 120.0522 120.1796 120.2646 120.7090 120.5686 120.8597 120.9939 120.8800
116.6300 117.4423 105.3415 106.7717 110.3603 110.3799 113.1130 108.3899 108.4401 106.3004 103.5178 122.5537 107.4884 127.1658 124.8100 124.6600 123.4508 124.3233 123.9223 124.0955 123.3999 123.3646 123.1628 123.0534 122.4268 122.9887 122.1784 122.1632 121.9196 121.7302 121.5415 121.3488 121.1489 120.9561 120.7649 120.6013 120.7373 126.0763 119.0656 119.5629 119.7478 119.6359 119.4695 119.2260 119.5611 111.7799 109.0358 120.8199 119.2044 119.1673 119.1794 119.2461 119.2950 119.3656 119.4601 119.5710 119.6956 119.8312 119.9614 119.2161 124.3704 121.7887 120.5982 120.8300
113.0500 114.1995 119.6734 129.4362 106.1169 108.7293 108.4023 103.0928 107.0566 105.9506 106.0156 117.0648 115.9068 124.2429 124.0864 124.2263 124.4185 124.0806 123.8789 123.6188 123.5069 123.3043 123.0058 122.8069 122.6069 122.4068 122.1535 121.9575 121.7185 121.5241 121.3106 121.0943 120.8848 120.6792 120.4740 120.2909 119.8030 119.7519 117.8677 119.8523 119.3916 119.2469 119.0730 119.6846 118.2001 115.1866 105.6351 115.7206 118.6822 118.7910 118.7730 118.7041 118.8286 118.9740 119.0683 119.1849 119.3229 119.4657 119.6884 119.5306 121.3305 115.5508 113.3715 120.5400
112.4400 114.5189 115.6390 127.1930 120.7746 120.2693 115.2942 110.1973 104.5614 104.3283 107.5831 119.2671 122.6414 112.5801 125.0980 122.9556 120.3829 123.9225 123.6759 123.3252 123.1498 122.6511 122.8214 122.5714 122.4525 122.1865 121.9644 121.7520 121.5101 121.2870 121.0700 120.8412 120.6206 120.3954 120.1918 119.9656 119.6894 119.6434 119.5775 119.0570 119.0340 118.8656 118.4895 119.2120 111.8166 125.3668 106.2871 113.9229 118.2417 118.3745 118.2727 118.8573 118.6412 118.5610 118.6572 118.7921 118.9309 119.1174 119.2239 119.4704 119.5297 120.9897 118.9352 120.2000
114.0000 113.5889 117.7139 124.0325 115.8646 117.0625 126.7344 127.1711 106.2048 104.6297 105.9017 117.9316 118.0528 124.8806 124.0128 125.2314 124.3621 123.7678 123.4049 124.0078 123.3165 120.2921 123.6223 123.0379 122.2273 122.0091 121.7727 121.5258 121.2942 121.0595 120.8090 120.5808 120.3477 120.1374 119.9069 119.4571 119.4016 119.2056 118.9975 118.8450 118.6375 118.4493 118.3217 121.1574 115.3281 129.2801 118.6293 121.5588 117.7372 117.7283 118.2121 111.5144 118.2851 118.1211 118.2144 118.3801 118.5427 118.7104 120.4378 118.9339 119.2174 120.0582 120.1191 119.8000
110.9800 111.1123 115.1599 120.3625 116.0135 116.0390 116.9049 120.5502 112.7952 112.5527 129.3637 122.8249 120.0553 125.1988 124.1144 123.7232 123.4283 123.6608 123.6079 116.5661 123.9126 123.1892 117.6158 123.9074 121.7164 121.6676 121.5678 121.3234 121.0776 120.8319 120.5936 120.3495 120.0035 119.6301 120.2955 120.4521 118.9986 118.8749 118.6414 118.4260 118.2207 118.0316 117.8078 114.8690 117.6956 118.3520 117.5096 117.0724 117.1427 117.1745 117.5834 114.8381 117.7923 117.6660 117.8447 117.8257 118.2519 118.2891 115.9314 109.4636 114.7108 112.2117 118.4762 119.7500
115.4800 109.7857 110.7560 110.3689 110.7066 107.9640 106.8761 115.0638 105.6590 114.7431 121.1186 127.5184 125.0498 124.5778 124.1712 123.8003 124.6607 123.6429 123.4873 116.5608 118.7128 117.9964 103.8431 110.0356 120.7283 122.1158 121.3600 121.1125 120.8567 120.6462 120.0721 119.5046 119.9154 119.7607 116.2499 117.7567 118.6970 118.4882 118.2458 118.0193 117.8026 117.5981 117.3810 117.1940 117.3676 116.9257 116.9095 116.9862 116.9288 116.9817 108.6889 107.3696 115.8962 117.0664 117.2629 117.7649 118.7192 113.5551 127.0866 107.5068 102.6023 107.8662 113.1872 119.4000
115.4800 115.2682 114.7540 110.6834 110.1961 112.6534 112.4611 105.3509 103.6606 106.6599 106.4383 124.5010 124.1920 124.1966 124.1370 123.8391 120.1092 121.3815 123.0286 124.1925 120.8089 100.4076 102.5163 113.6453 115.4749 119.1418 121.3639 120.9056 120.6414 120.2190 121.8756 120.3061 120.6229 109.0976 116.3751 118.9809 117.8420 118.2064 117.8412 117.6036 117.3586 117.1352 116.9220 116.7531 116.5257 116.4285 116.3180 116.1636 116.1530 109.8021 106.4255 109.0817 116.2405 116.9881 114.6333 116.1687 110.2796 113.3168 112.8601 103.7680 104.8712 120.2513 116.8380 109.5800
110.5400 112.9438 112.9231 110.2348 114.4022 107.2366 108.1892 105.1803 105.0981 106.2187 118.3464 125.2644 124.3856 124.1827 123.9055 123.6065 122.4693 121.7458 123.0216 122.6729 124.5238 117.0232 110.8066 123.9760 121.1429 119.8608 121.0950 120.7181 120.4239 120.2678 121.1237 118.1049 112.3982 107.6583 112.3167 120.6418 119.5753 117.2419 117.4522 117.1779 116.9091 116.6522 116.4193 116.2063 116.0380 115.8700 115.7320 116.3147 116.8073 111.3170 100.7087 108.5296 116.0454 112.7589 104.7034 104.2367 101.3608 103.3235 105.0858 106.2465 99.9565 121.2237 113.9683 108.0100
117.6700 113.2020 108.3417 111.3507 110.1719 105.7814 104.6036 110.3122 105.4015 108.7148 120.9292 125.7561 123.9450 123.9221 124.0753 123.5075 124.4218 123.9598 122.8022 122.7488 122.1940 123.2799 120.0777 121.7090 122.0472 121.1448 120.8197 120.5253 120.2251 119.5470 120.9404 105.3115 103.5555 109.0149 116.7570 116.3377 118.1977 117.6716 117.0139 116.7313 116.4309 116.1602 115.9057 115.6485 115.4276 115.2724 115.0960 115.4576 106.0377 100.8586 103.4989 110.2999 117.4952 111.8012 113.6376 110.2550 114.6098 119.9315 117.1633 112.1633 107.8769 104.8490 105.6566 118.4100
113.7800 117.3240 124.1056 115.2205 103.1051 107.7022 106.2299 101.5456 120.3504 112.5072 107.8731 108.1141 126.3025 125.0304 122.5203 123.1433 119.7684 116.7437 122.7678 122.6677 122.3474 122.1816 117.5363 120.8364 121.2632 120.9214 120.6301 120.3382 119.9113 120.2742 120.3352 105.5801 101.0893 102.6233 126.7141 121.0651 116.4913 117.0498 116.6013 116.2703 115.9587 115.5649 115.1973 115.0620 114.8945 114.6007 114.5225 113.8203 115.9866 112.6529 104.1312 113.9322 113.6442 106.8192 117.8024 107.8193 110.5992 113.5933 118.5812 118.4126 103.8114 104.9403 118.1323 118.0400
114.5300 112.7895 111.6451 126.8741 115.1163 118.0771 111.4292 102.7109 103.7917 103.1786 117.5519 110.4774 125.6144 107.8008 126.4872 123.8541 111.8063 123.1135 122.7590 122.4743 122.2096 121.8804 121.7317 121.4482 121.0255 120.7790 120.4600 120.2433 119.7190 117.2612 105.1485 103.9770 119.4933 110.2782 103.9366 114.7894 117.0217 116.5831 116.1843 115.8164 115.4136 115.1823 115.2301 114.7794 114.1165 113.9250 113.7444 113.5322 118.4578 113.9962 110.7368 106.6490 112.8664 114.5571 114.5077 114.9078 116.2060 114.3835 116.5627 119.9549 104.2854 113.0453 117.1999 105.5900
111.3100 110.8828 110.1930 110.3257 108.1361 108.2479 116.0560 109.5575 107.1157 111.6635 106.2110 102.6868 125.0514 123.4544 123.5848 123.1593 123.1178 129.2820 121.8754 122.3772 122.0673 121.9932 121.5489 121.2440 120.9269 120.6296 120.2762 120.1202 120.0337 119.0343 125.1840 119.9293 117.9433 118.5796 117.9862 117.2278 116.5819 116.1761 115.7485 115.3346 114.9202 114.7597 105.0472 114.4468 113.5298 113.1761 112.9707 112.8195 112.6940 113.3801 113.9307 113.4768 113.3039 113.3506 113.9399 114.2657 114.5692 115.2734 114.9253 117.0967 111.9019 125.9017 113.5928 103.6500
115.3700 112.9309 109.7386 111.8256 108.8338 108.4176 103.9134 103.5925 104.5568 109.3408 122.6511 125.8460 124.6762 123.5684 123.3455 122.8500 122.5711 122.5678 122.5315 122.2327 121.7921 120.6048 121.0999 121.0729 120.8010 120.4920 120.2437 117.1939 124.6173 120.5235 106.3866 120.1271 118.3832 117.2368 120.2877 116.9793 116.2700 115.7558 115.3024 114.8485 114.2905 113.8352 114.6006 113.4444 112.6668 112.3643 112.1109 111.9382 111.8615 111.8330 111.8051 112.0810 112.4939 112.8874 113.2512 113.7068 114.1435 114.5864 115.1375 115.4320 116.1490 113.8308 118.4853 104.9500
113.9300 113.5960 111.6557 116.7666 103.5395 103.5236 104.5508 105.2116 107.9124 109.1930 109.4497 124.2542 123.2492 123.8107 123.5605 123.4334 123.2184 122.7993 122.3073 121.9402 122.6286 118.0822 115.6160 120.9083 120.7638 120.4029 119.9172 110.0285 107.7988 107.3480 119.9588 117.6254 117.6382 117.2106 115.9886 115.8212 115.8792 115.4211 114.8743 114.3221 114.0270 113.7850 111.5223 111.7242 111.9026 111.4839 111.1637 110.9531 110.8507 110.8836 111.0760 111.3216 111.6614 112.0723 112.5472 113.0749 113.7005 113.9972 114.6497 114.8656 116.3739 106.4997 118.3139 114.9400
110.2000 110.6282 109.7767 105.8818 106.3367 105.5004 102.6322 109.7408 109.7308 116.8640 128.5947 125.7746 123.8088 123.6376 123.4004 123.1126 122.7844 122.3894 124.0747 123.5648 124.4518 120.3674 121.7637 120.5884 120.6129 120.3707 118.8961 124.4947 108.3418 106.0030 119.5934 116.3247 117.5227 117.6065 118.6616 116.2716 116.1216 115.3587 114.7350 113.8713 111.0598 111.8386 112.1036 111.7653 110.9325 110.5071 110.1081 109.8391 109.7220 109.7638 109.9448 110.2780 110.7203 111.2337 111.8002 112.3816 112.6418 113.1459 114.1310 114.7710 115.4239 116.6259 122.3463 104.0200
112.6800 107.9315 112.5432 107.4521 108.2586 104.8312 104.7673 111.8480 108.3738 106.6850 115.3046 124.0624 123.8662 123.6051 123.3760 123.1327 122.7264 123.5970 113.3610 110.6517 121.6818 121.0640 121.0533 120.8000 120.4926 119.7851 119.8348 126.9317 117.1243 120.7914 118.9503 117.7519 117.0579 117.1364 105.2246 118.2973 114.8680 114.7900 113.2169 113.5904 109.1903 112.1643 111.3621 110.6616 110.0371 109.4284 108.9229 108.5735 108.4079 108.4555 108.7163 109.1497 109.7099 110.3377 111.0173 111.6677 112.4238 113.1669 113.6681 114.3380 114.8895 109.3863 105.3388 104.6000
107.3100 112.5944 112.8071 110.2161 122.3396 118.8863 118.1517 105.3957 117.6093 121.3663 111.4011 124.9433 123.7530 123.4526 123.3244 123.1412 122.7838 116.5464 120.7400 108.9632 123.3743 123.2047 121.0508 120.2696 120.3268 121.4945 118.7885 117.4577 119.5147 117.6593 117.8681 117.5449 116.9912 117.2130 107.2123 104.0516 124.5127 113.4238 112.5719 112.9154 112.7083 112.0949 110.5049 109.8216 109.0078 108.2454 107.5783 107.0934 106.8646 106.9348 107.2941 107.8744 108.6003 109.3917 110.1985 111.2162 112.0269 112.6855 113.2630 113.7060 115.0888 101.8629 110.9772 99.4700
105.7700 109.2428 104.6983 108.7064 125.8401 118.6772 126.0470 117.7939 119.9632 124.1498 128.1437 126.0707 123.8803 124.0816 123.2331 123.0280 122.5843 121.9314 119.9781 124.0937 123.6286 109.9649 119.8121 122.0236 123.2740 109.9174 110.1711 109.9824 110.5467 118.7617 117.9696 117.4048 116.9190 116.2951 117.2399 110.6275 123.0812 113.2936 113.4209 112.4655 111.6188 110.7419 109.9024 108.9218 107.9257 106.9304 106.0255 105.3286 104.9841 105.0978 105.6286 106.4388 107.3933 108.4130 109.3359 110.1855 110.3646 111.6280 112.8411 113.5278 113.8409 114.5796 120.9489 99.4700
104.2500 113.1133 112.5631 107.7088 111.1895 113.1510 127.6909 128.1370 106.8828 127.3016 116.1653 107.2913 124.3298 116.4384 123.7474 122.9157 122.7334 122.4483 122.3494 120.9739 122.3455 106.1103 110.8858 109.8193 105.7612 102.6196 102.7552 110.5736 98.3190 117.5725 117.5268 117.2901 116.7635 116.2122 115.4727 115.0293 115.9161 113.7234 112.8523 112.1014 111.2303 110.2619 109.1859 108.0396 106.7914 105.4981 104.2111 103.1585 102.5828 102.7656 103.6245 104.8214 106.1147 107.3974 108.7638 108.0716 125.8191 109.9772 112.7152 113.2612 114.5137 114.6198 112.5452 99.9200
104.2400 108.1047 116.2211 108.5643 106.9254 107.8571 105.3977 108.5829 105.0407 104.0433 105.5711 105.4671 122.1573 112.9112 124.1317 122.8792 122.7031 122.4011 122.0757 121.5273 121.7230 109.1707 105.0957 100.6806 116.8347 101.5848 102.3914 100.0120 97.5432 116.6398 117.2028 117.2075 116.6622 116.0990 115.5384 114.8891 114.0992 113.4781 112.6442 111.7799 110.8184 109.7448 108.5519 107.2113 105.6947 103.9793 102.1304 100.3642 99.3133 99.7038 101.1585 103.0193 104.8207 106.4480 107.8719 108.9229 112.2167 111.3127 112.1926 113.0266 113.6304 115.9982 97.1177 97.8600
126.2300 125.4217 124.7937 124.6400 124.8562 124.2485 123.1320 120.6937 114.6049 122.3324 99.3612 104.3867 125.5384 122.9719 123.0848 122.8132 122.5375 122.4000 122.0995 121.9262 122.1015 113.5109 105.4701 120.2497 122.3192 101.3956 122.0826 104.2596 120.0707 117.9562 117.4473 117.1140 116.5705 116.0023 115.3952 114.7411 114.0514 113.2860 112.4487 111.5230 110.5012 109.3571 108.0364 106.5077 104.6968 102.5095 99.7999 96.5027 93.6495 94.6616 98.2353 101.1499 103.6094 105.6077 107.2543 108.6667 109.8097 111.0127 111.9857 112.8535 113.6517 114.0522 120.3757 124.3800
120.5700 123.2705 125.7762 125.6485 125.4828 125.1264 125.0203 124.7253 123.9951 124.2720 124.2670 124.0885 124.0644 123.4403 123.2494 123.1887 122.6624 122.4259 122.0696 123.0302 106.1811 110.0390 108.4234 113.9426 117.4969 96.9308 119.9341 118.4798 118.7575 117.9845 117.5056 117.0580 116.5175 115.9397 115.3265 114.6694 113.9505 113.1750 112.3141 111.3669 110.3052 109.0959 107.6926 106.0307 103.9846 101.3331 97.6979 91.1567 87.2635 88.3756 94.7021 99.5664 102.7025 105.0255 106.8566 108.3724 109.6752 110.8179 111.8300 112.7274 113.5416 114.5508 116.2022 118.5600
126.1000 126.2797 125.9052 125.7031 125.4998 125.3291 125.1110 124.9265 124.6230 124.4226 123.8618 123.8379 120.8460 124.2112 105.2658 104.7526 105.2905 119.9168 122.4169 121.3590 122.1733 108.8920 104.4967 99.1804 107.8995 100.8911 112.5735 119.7996 118.4445 118.1103 117.5521 117.0391 116.4991 115.9232 115.3013 114.6398 113.9155 113.1377 112.2729 111.3123 110.2318 109.0008 107.5722 105.8529 103.7086 100.8430 96.6913 88.6079 84.1073 85.5086 92.7003 98.8961 102.3425 104.7991 106.7211 108.2970 109.6203 110.7707 111.7801 112.7485 113.5508 114.2383 116.8108 120.2300
126.2300 126.2263 125.7444 125.6316 125.4285 125.2249 125.0373 124.8284 124.6487 124.4228 123.8550 123.9422 98.7985 119.2163 101.0269 101.1172 111.0728 120.2399 122.2904 121.1365 121.0016 112.0854 108.1173 99.5447 109.1992 102.3981 108.0596 117.4894 118.7976 117.9766 117.5564 117.0551 116.5131 115.9405 115.3271 114.6630 113.9444 113.1669 112.3094 111.3579 110.2965 109.0799 107.6756 106.0087 103.9454 101.2651 97.6087 90.7958 86.9332 88.0728 94.4194 99.4826 102.6624 104.9887 106.8421 108.3778 109.6820 110.8191 111.8234 112.6811 113.9884 110.2371 115.9343 120.2300
105.1100 127.3360 125.9826 125.6724 125.4748 125.2719 125.0630 124.8443 124.6293 124.4144 123.6814 124.7533 107.6070 104.5442 122.2147 109.6479 126.7241 116.6452 122.5059 121.5775 122.1546 122.2450 122.8344 103.8775 116.6400 117.8910 98.3148 109.3938 119.2770 118.1778 117.5927 117.0943 116.5650 115.9933 115.3892 114.7379 114.0374 113.2714 112.4314 111.5125 110.4851 109.3295 108.0101 106.4734 104.6408 102.4113 99.5942 95.6275 92.9412 94.0397 97.9917 101.0130 103.5457 105.5575 107.2378 108.6631 109.9047 110.9909 111.9702 113.1466 114.2170 109.3502 105.0990 102.2500
134.0100 123.8400 125.8400 125.7100 125.4400 125.3000 125.0100 124.8600 124.5600 124.4100 124.2500 123.9300 123.7600 123.4200 123.2500 122.8800 122.7000 122.3100 122.1100 121.9100 121.4800 121.2600 120.8100 120.5700 120.0700 119.8100 101.5000 103.8400 119.2700 118.0800 117.7500 117.0600 116.6900 115.9100 115.4900 114.5900 114.1000 113.5800 112.4400 111.8100 110.4000 109.6100 107.8300 106.7200 105.4500 104.0300 100.6200 100.6200 97.8400 97.8000 100.4800 102.3400 104.0200 105.4400 107.7600 108.7100 110.4000 111.1300 111.8100 113.6000 117.0500 114.5800 95.5500 101.8900
