123.0400 109.2400 125.1700 121.7800 122.2300 122.0100 121.5800 124.7500 104.2200 119.1200 125.0500 124.5300 118.1600 116.9200 109.3800 119.5100 116.9900 115.5600 109.6500 111.0200 116.2700 115.5800 107.8500 107.9500 105.8900 112.3200 105.3600 101.8300 102.8600 100.6800 100.5600 100.3500 101.1800 105.2200 105.2200 121.6500 121.6800 111.8400 121.3100 121.3100 121.1500 121.1500 120.9700 121.0000 120.7400 120.7600 120.7800 128.3300 120.8000 120.8000 120.7900 120.7800 120.7400 120.9900 120.9600 120.9300 121.1500 121.1100 121.3600 121.3000 109.9000 121.6700 121.8300 121.8300
124.6100 112.5757 116.0967 118.3758 123.7082 120.9957 121.2421 123.8778 122.8163 116.5281 119.1752 118.8184 120.9653 117.2886 114.5118 117.7462 113.4684 111.9105 112.3802 110.2846 117.9063 112.5138 107.2640 104.4132 109.4219 110.7622 103.3149 102.5724 99.4612 100.4568 99.8665 99.3521 102.0509 104.0818 103.9217 105.6203 105.3726 112.3814 121.6427 103.2354 120.7718 120.6430 121.4083 120.6635 120.4791 120.4675 113.9367 124.6474 120.4735 120.6292 120.4931 120.5382 120.5873 120.6475 120.7131 120.8097 120.8785 120.9883 121.4018 121.4898 114.6628 121.4595 122.0287 121.8300
114.3100 117.6407 115.0105 111.2640 109.1853 122.3804 122.4579 120.4999 122.4986 123.5663 100.3530 106.5553 113.4652 117.7452 116.5463 115.4884 115.4153 112.1598 119.6173 114.0251 108.2582 117.4487 110.4722 101.3454 104.0800 101.6769 104.2474 108.7451 107.9489 101.1161 101.6094 115.0431 110.0704 101.4783 107.3152 104.6986 117.5205 121.6022 121.3593 120.5126 122.2395 120.4868 120.3509 120.3197 120.1101 121.6385 120.5904 118.9969 120.0613 120.0108 120.1624 120.2055 120.2363 120.2969 120.3802 120.4372 120.6586 120.6597 120.6121 120.8561 117.0201 121.4652 121.1973 100.8500
116.4400 113.2331 115.1994 120.5809 109.0765 119.6083 111.7813 122.0013 119.6174 121.0353 123.2871 116.3242 116.4092 108.4778 117.6056 113.7936 114.5664 115.4538 118.5229 122.3180 103.4059 103.7553 107.7354 100.5462 100.6925 100.8756 106.4057 109.8985 114.3666 106.9149 101.8054 115.6666 117.1014 101.6264 106.4931 114.0455 119.4298 124.1066 119.8654 124.3714 120.5901 120.1745 120.0807 119.9685 119.6216 122.1678 100.8871 111.4755 120.4518 120.3424 119.8670 119.8493 119.8595 119.9401 119.9978 120.2974 120.1534 120.4026 116.6443 122.2539 118.3013 113.7550 103.6779 107.8300
116.4400 111.4002 112.5938 106.7091 115.0611 110.4953 117.4938 110.0285 124.4751 121.9865 116.4913 105.4103 114.5871 101.9462 105.5180 117.0440 113.6620 113.4516 115.0583 116.8096 112.5233 115.0512 112.1713 115.9208 111.7418 103.5383 104.9149 102.9985 100.9973 107.3420 114.0501 112.3572 121.9351 113.4723 102.7065 114.5153 115.5749 120.5047 119.9676 120.2840 119.5767 119.8105 119.7192 119.5781 119.4577 120.0698 112.3078 107.1281 115.1887 113.4729 119.6382 119.4900 119.4761 119.5327 119.8869 118.1874 120.3340 121.0758 109.5438 97.6207 101.0943 120.8793 101.7409 102.8500
123.1000 119.7261 119.3950 114.0145 106.3697 123.1438 116.9632 104.6651 114.1613 105.7864 118.5230 111.7183 112.3551 102.2832 108.9097 109.1270 114.3013 115.8272 116.4843 117.9413 117.0246 113.3246 113.0657 121.3820 113.4292 109.8954 108.3518 104.2446 104.3751 109.8676 117.6867 105.0110 120.9755 121.7423 105.8549 116.2116 120.3998 119.7781 119.9435 119.7157 119.7364 119.5079 119.3071 119.2258 119.1954 118.9010 118.1487 110.4686 98.7716 112.5190 119.0946 119.1572 119.0707 119.1621 119.2959 117.1436 108.1896 114.7155 118.2058 113.9918 121.4097 121.0592 115.8217 120.5500
115.9500 115.9005 116.1191 114.4871 117.7810 112.6520 108.2229 110.5747 108.3456 116.4869 115.9283 112.1594 112.5936 104.2036 111.5399 115.5851 111.7617 105.0280 115.2846 114.4484 114.1961 116.2538 100.9940 119.6000 113.4431 110.1007 110.8966 111.1617 102.5332 112.3569 119.8241 108.1908 102.4288 124.7662 129.6300 116.4602 120.7236 119.8091 119.5501 119.4056 117.6560 118.6315 118.9075 118.8829 118.6643 118.1385 116.0390 99.6203 111.8085 112.1035 118.7425 118.6189 118.6656 118.7469 118.8417 119.5166 119.5924 105.0057 115.0726 113.0521 118.4409 119.9428 120.8203 112.3300
113.9600 111.9537 114.1141 111.6785 107.2037 105.0120 117.9580 108.7540 107.3466 109.2246 105.0514 103.0070 104.3895 111.5531 102.4825 111.1453 114.8434 113.7297 110.9610 110.9137 113.7801 112.1073 116.3488 113.0113 115.5229 112.4469 108.1203 113.9498 118.9459 121.0673 120.9681 116.5003 101.8040 122.9256 121.7714 120.0256 119.6100 119.4183 119.2029 118.9207 119.0552 118.9117 118.4392 118.1484 118.7029 116.4704 118.3742 110.1810 111.5210 116.9491 118.0562 118.1988 118.2207 118.3377 118.4594 118.4309 118.7917 120.0545 119.8450 120.4236 119.0301 120.5375 116.5405 120.1200
107.8800 114.1776 110.1026 107.4780 108.6847 109.2580 107.0001 106.5595 122.1671 110.8400 111.7328 102.3380 102.8969 103.1800 109.9576 112.3501 110.7116 114.6972 113.9483 113.1116 105.7881 111.2466 108.3887 114.8225 110.6719 104.4410 109.3645 112.7956 106.1592 118.1638 119.5803 96.0722 135.5956 122.6476 119.5954 119.5472 119.2824 119.0461 118.9084 118.4028 111.8820 117.9683 117.1075 119.8950 120.0017 103.8100 118.3348 115.8263 119.0070 117.6334 117.6516 117.6795 117.7631 117.8540 118.2621 118.7940 118.2577 118.3221 118.6938 118.7443 119.1027 118.9050 113.5191 97.8000
116.8600 117.0961 117.7336 117.9881 110.7176 110.3574 108.8543 107.3885 111.2776 108.5424 113.5934 105.4536 105.8276 109.6642 115.1803 114.2228 107.7299 108.5796 110.3943 108.7416 112.3568 109.1202 112.3702 113.3394 117.8083 119.7554 113.2969 120.0794 119.5487 124.4505 121.1678 117.7059 113.0238 117.4194 119.4241 119.1723 118.9223 118.6865 118.5252 118.5598 107.9899 113.5840 120.6673 109.4319 105.6354 115.2985 120.0959 116.4118 116.6138 117.0501 117.1192 117.1934 117.2752 117.1812 118.6609 110.9126 105.9514 118.1322 118.3043 118.5754 118.9403 118.2799 122.8365 119.3200
116.6000 116.2415 116.0016 116.7042 118.0839 114.8083 107.0507 112.0173 102.9090 108.9713 106.5131 105.1551 116.7870 108.7781 109.9327 110.1799 107.4909 108.3289 111.6158 106.6949 105.7497 111.7428 104.0843 113.9292 114.1268 124.1501 126.4793 120.5997 124.1182 120.1503 119.8461 120.2530 104.4905 116.7917 119.2895 118.8946 118.5697 118.3673 118.0831 118.3444 116.3019 101.6367 111.3159 101.2202 98.3600 118.7777 116.3566 116.3741 116.6461 116.5584 116.5875 116.6383 116.7720 117.4592 119.7051 94.9893 107.8724 117.6999 117.8990 118.1938 118.5351 116.8644 100.7037 119.3200
115.7600 116.0908 113.3502 114.4783 116.1147 119.6179 118.5891 117.9174 109.2185 111.9941 107.3469 107.0464 106.7711 108.3753 112.0367 109.5929 112.4098 107.5801 111.0728 110.7290 105.6557 109.3412 106.0895 107.6682 117.6681 125.4773 117.4225 120.3323 120.1569 120.2124 119.4050 121.4476 102.6549 108.3647 118.3124 118.5268 118.2466 117.5785 117.8288 118.1133 116.1701 97.0158 93.0517 110.1131 97.7292 118.1088 116.1586 115.9884 115.9613 115.9723 116.0168 115.9572 116.8155 109.1429 105.6693 100.7686 119.0628 117.3659 117.4978 117.7969 117.9337 118.1463 109.2022 104.1700
115.3100 116.3935 112.2269 115.2853 117.6870 112.0698 118.4267 116.0599 114.5843 113.8799 109.2224 110.6509 108.4487 107.7974 105.4513 106.7155 105.4963 99.8692 104.8190 99.4646 108.5874 104.9556 122.1427 114.1463 131.1171 120.4691 122.4857 120.8229 120.5320 120.1553 121.0021 120.2581 103.7866 118.5418 118.5181 118.1755 117.8681 118.8853 111.5014 113.7380 118.2901 117.8901 100.3773 95.6583 113.2604 117.3276 115.4834 115.3680 115.3445 115.3622 115.4154 115.4194 116.3355 116.1455 119.6489 104.2990 116.2501 116.6758 117.0909 117.4125 117.7059 117.9035 106.7232 96.4500
115.3100 108.5373 114.3627 114.4821 118.0220 103.2927 112.2664 115.9483 110.5280 112.4239 113.5466 111.7951 114.1237 111.3747 108.4441 107.3465 104.8207 102.5254 104.2430 113.1448 106.7814 104.4195 106.8972 120.9705 123.0094 118.4242 118.8432 119.9310 119.7891 120.5028 104.9245 102.2168 107.6748 116.8999 118.1652 117.8649 117.3757 117.1513 104.5029 117.2198 114.8733 96.7653 96.3809 101.9271 117.9689 114.4731 114.8098 114.7251 114.6847 114.7039 114.7626 114.7850 114.9880 115.0666 111.7914 122.0312 115.5095 116.4137 116.6652 116.9888 117.2479 118.5028 115.2704 96.4500
113.7700 107.3717 120.8916 114.3941 112.2289 113.4712 111.8133 116.6694 103.9818 111.4345 107.4251 108.7756 113.3578 113.5197 111.4950 107.6079 109.7732 106.1413 102.2284 116.4234 101.5503 99.8696 97.8315 122.9441 100.6928 117.9703 142.8542 121.1026 120.1453 120.3671 108.7452 106.8310 113.1434 111.7763 118.3810 117.4497 117.1613 116.9120 115.2449 117.0221 117.2689 92.4697 111.2956 105.6849 115.1395 113.9802 114.1397 114.0173 113.9720 113.9882 114.0620 114.2085 114.3861 114.8043 114.7294 114.9397 115.3897 115.8301 116.2189 116.5281 117.2772 114.8886 115.8989 117.9300
112.0700 111.5713 111.6178 113.7945 105.4654 109.8399 115.8791 110.7808 109.7201 112.2431 108.5180 108.8793 108.2766 107.8762 111.7424 105.7454 105.5730 107.3822 102.7075 119.3391 106.2262 120.7127 120.4843 111.1294 110.9793 120.2957 126.0202 119.2138 119.6674 118.9635 118.2266 97.1500 113.4236 116.2728 117.8143 117.1922 116.7768 116.3243 115.9931 115.3000 115.2693 107.2515 115.7394 114.8824 113.4619 113.7344 113.3741 113.2496 113.1893 113.2103 113.3053 113.4590 113.6903 113.8952 114.3148 114.6239 115.0073 115.3688 115.7582 116.1616 116.5936 116.5856 117.7659 117.5100
115.4300 114.4814 117.5406 106.0044 103.2898 110.0048 109.8425 112.1468 104.1397 111.9314 111.7840 103.5327 106.1754 113.9361 107.8049 105.0962 104.7310 104.9824 105.6649 123.4831 115.5818 122.5117 119.1032 120.9166 120.2399 117.5275 119.0943 119.8786 119.6566 119.1879 119.0620 117.0114 117.7651 118.0111 117.1956 116.8510 116.4139 115.9971 115.7336 114.8947 115.1650 116.0098 109.5931 109.6894 112.9797 112.8414 112.5584 112.4082 112.3386 112.3585 112.4682 112.6524 112.9122 113.2491 113.5967 114.0057 114.4232 114.8589 115.3002 115.7417 116.1605 116.6187 117.0297 117.3900
115.7200 115.3831 112.3851 110.6726 106.3941 112.1785 112.4871 113.2786 106.0576 109.3121 109.2766 105.7382 103.8129 104.8158 107.1020 108.4322 102.1998 106.3539 101.2779 124.9151 117.4272 122.0921 121.0760 121.0532 120.6307 121.3378 115.8978 120.5037 119.3763 119.0416 118.5577 118.2246 117.7564 117.3884 116.9630 116.5178 116.0612 115.7264 114.6925 114.3958 114.1127 113.8309 112.3175 113.1333 112.3075 111.9492 111.6646 111.4706 111.3825 111.4076 111.5437 111.7824 112.1029 112.4790 112.9079 113.3710 113.8504 114.3370 114.8343 115.3180 115.7970 116.2678 116.7398 116.9400
119.4200 118.6143 118.1867 118.7161 112.9182 102.5093 117.5003 114.5202 110.6138 108.2416 110.9210 107.9444 108.9263 107.6189 106.9907 102.2652 103.6170 117.7551 114.5445 96.7252 121.5944 121.1203 121.2553 120.9925 120.1104 118.7978 95.5664 115.2726 118.8148 118.8040 118.4578 118.0070 117.5900 117.1385 116.6689 116.2257 115.7347 115.4525 116.9024 120.4392 112.9592 112.9459 112.4531 111.8424 111.3300 111.0510 110.6612 110.4249 110.3154 110.3525 110.5253 110.8100 111.2069 111.6656 112.1764 112.7129 113.2717 113.8209 114.3717 114.9011 115.4249 115.9343 116.4185 116.8300
119.4000 119.3215 119.5515 112.2029 111.8183 113.5984 112.2260 112.3334 110.4241 105.7876 108.3525 102.8199 107.6063 107.2688 112.8754 107.2633 105.8426 116.6594 114.0134 104.0048 104.2362 121.7726 121.2057 120.9238 120.2912 116.2802 120.3806 98.4374 110.1177 119.1289 118.3860 117.8208 117.4142 116.9528 116.4312 115.8748 115.4624 109.9107 113.3988 113.4191 113.1065 112.3579 111.7882 111.1135 110.5633 109.9846 109.5528 109.2424 109.1009 109.1408 109.3615 109.7392 110.2332 110.7983 111.4077 112.0433 112.6751 113.3012 113.9133 114.5015 115.0688 115.6034 116.0957 116.3600
119.3900 119.6468 119.6975 113.9038 112.7898 112.5142 110.7347 110.9601 110.8547 111.4081 115.3722 111.9745 108.6984 108.0293 101.5388 103.5162 105.8584 109.2944 113.5419 113.6792 110.7654 122.2557 121.2328 120.7611 120.3667 120.6155 125.7182 113.6811 118.3055 118.1566 118.1979 117.5815 116.7267 116.3948 116.0218 115.2785 116.3102 97.3591 106.6789 114.1163 112.4407 111.7425 111.0090 110.2635 109.5443 108.8702 108.2944 107.8782 107.6856 107.7410 108.0416 108.5404 109.1713 109.8731 110.6104 111.3534 112.0822 112.7905 113.4633 114.1131 114.7308 115.4064 114.7776 116.2600
119.3800 116.6104 116.2277 116.5745 114.1655 110.6957 110.6336 110.6721 111.8836 112.4497 114.4487 108.6153 111.1548 103.7701 106.5100 103.6838 105.1295 111.8261 118.4270 114.0782 123.2623 121.1360 120.8827 120.5133 121.0921 119.6039 114.3753 110.8824 119.0540 118.3331 117.9725 117.9692 119.2785 117.9409 118.0176 116.7633 115.5125 107.2886 115.1239 112.0178 111.9852 111.1297 110.2717 109.3950 108.4333 107.6215 106.8534 106.2704 105.9905 106.0748 106.5057 107.1878 108.0059 108.9022 109.8007 110.6721 111.5098 112.3049 113.0489 113.7518 114.4130 115.3133 113.0419 117.2000
126.2600 111.9052 113.0414 110.5512 109.9671 110.4439 110.3955 110.7478 111.5424 113.2879 111.1972 109.7253 110.4869 113.9146 109.3308 107.1427 101.4457 112.5453 117.4517 118.8252 121.9020 121.0584 121.8456 121.5712 120.9552 105.9593 94.9666 118.1979 118.4028 118.3079 117.6981 119.4524 105.8871 107.5695 105.6489 108.1621 114.9837 103.3356 113.7739 111.3092 111.4577 110.5390 109.5479 108.5023 107.4450 106.4892 105.2026 104.3123 103.8923 104.0327 104.6884 105.6546 106.7776 107.8963 108.9837 110.0139 110.9676 111.8495 112.6676 113.4251 114.1522 114.8335 115.5915 115.6100
104.2500 116.4431 110.3306 116.0287 114.6392 111.3796 110.2430 109.4395 109.8600 108.4453 108.5768 108.1612 108.2061 109.4430 106.0294 107.3843 105.3738 113.1612 113.7298 124.6197 121.5036 120.7909 122.6043 111.6532 121.2625 108.1930 106.2126 114.6573 118.6162 118.1811 117.4069 118.1998 95.4511 91.7813 94.1357 105.2248 114.8537 115.0911 113.5733 112.0808 111.0078 109.9950 108.8849 107.4685 106.4100 101.1642 103.8494 101.8797 101.1322 101.3645 102.4444 103.9528 105.4662 106.9093 108.2153 109.4081 110.4835 111.4492 112.3424 113.1535 113.9088 114.5429 115.1706 115.5500
104.2500 119.5501 104.3402 115.8882 116.8880 114.6901 114.6072 109.9018 112.7394 109.0071 110.2657 108.2263 106.0326 103.4789 103.6244 101.0964 116.1538 115.0892 123.9636 121.7149 121.4189 120.7598 121.5762 92.4328 124.1899 108.9165 108.9817 111.6156 119.1390 118.1054 117.7238 117.6916 102.1529 114.1054 117.3445 118.5063 113.4548 112.7036 112.2360 111.5560 110.4369 109.5785 108.2896 106.8094 105.1799 99.6479 101.0811 98.6333 96.9948 97.5867 99.7814 102.0820 104.1839 105.9946 107.5485 108.8918 110.0766 111.1337 112.0717 112.9324 113.7239 114.5706 115.2594 115.5100
114.1400 115.8644 111.2716 113.2251 112.9075 112.1743 104.9320 113.4477 112.7341 115.9961 108.1827 109.4882 107.9815 101.1568 101.3629 102.4792 118.8752 110.8568 124.2636 121.6951 121.4979 121.1047 121.3981 117.0068 99.5470 99.9777 112.3768 107.8315 119.0988 118.0803 117.5592 116.9209 117.1696 112.9893 114.9594 111.2587 114.3511 115.0339 113.5351 111.9433 111.6413 109.0879 107.8528 106.2672 104.3487 102.1022 98.7328 93.8038 90.2448 91.3416 96.5082 100.2680 103.0989 105.2641 107.0315 108.5143 109.7849 110.8951 111.8799 112.7932 113.5831 113.2985 114.8186 115.4700
117.8000 117.0713 116.1443 116.6392 114.6968 114.8784 109.3935 112.5118 113.8297 116.6429 111.8895 110.8435 102.0900 101.7391 105.4424 113.2393 112.2614 121.0079 120.4560 121.8405 121.4817 120.9023 120.7910 116.2805 119.6798 117.2504 118.9076 117.9524 118.7668 118.0383 117.5481 117.0641 116.3299 116.1668 111.8581 112.4657 110.3857 93.1774 97.0358 114.7417 94.0946 111.5052 107.5623 105.8717 103.7938 100.9651 97.0054 89.3994 85.0649 86.1629 93.2960 99.0536 102.4208 104.8429 106.7401 108.3036 109.6332 110.7879 111.8038 112.7145 113.5342 113.9936 114.9796 115.4500
117.3600 117.7167 116.3889 117.8073 117.6620 115.9518 110.1719 113.7510 111.7676 117.0515 110.6751 110.1215 112.1661 102.0723 105.9138 106.8013 112.2591 123.0238 120.4562 122.0559 121.4833 121.0489 121.2630 121.0753 120.0619 119.7960 119.9305 119.1203 118.4469 118.0401 117.5579 117.0546 116.7188 116.5664 112.8586 114.6383 110.3918 91.1599 95.0470 115.0938 92.4114 111.1605 107.4998 105.8649 103.7777 100.9553 96.9550 89.1329 84.9911 86.2454 93.0059 98.9954 102.3927 104.8277 106.7266 108.2960 109.6342 110.7469 111.7849 112.6587 113.5188 114.2758 114.9677 115.4500
110.5500 109.9485 109.3455 108.4633 106.9111 107.4356 105.3627 102.7386 102.3254 104.9750 104.0829 104.9938 103.9538 104.7718 102.7770 103.8242 108.6418 122.5110 117.6630 122.3028 121.5055 123.4430 99.3643 122.5585 122.0049 99.8445 114.6151 119.3551 118.4058 118.0567 117.6628 116.9275 110.7025 98.3292 97.5736 99.2027 93.9664 100.2075 113.2224 108.4590 104.3282 109.6493 107.7771 106.2087 104.2526 101.7777 98.5669 93.2774 89.6760 90.7573 96.1788 100.1137 103.0166 105.2164 106.9896 108.4901 109.8150 110.6364 111.2832 112.8090 113.5823 114.3167 114.9883 115.4600
110.5500 119.1171 126.8418 112.9553 107.9178 113.8106 107.9080 108.4033 107.3645 106.9636 105.7874 102.5112 101.7572 103.8043 101.8550 98.8935 118.0818 117.1712 122.5078 120.3853 121.6493 121.8208 121.4632 120.5852 121.1224 120.6918 119.1986 118.8538 118.5140 118.1109 117.6352 117.0386 117.8931 101.9854 97.0530 101.6355 101.8037 101.1828 109.1137 111.2639 110.8781 109.4953 108.2405 106.7852 105.0982 103.1092 100.8375 98.3619 96.3779 97.0781 99.5194 101.9066 104.0825 105.9226 107.4913 108.8443 110.3155 109.1403 107.4989 110.7751 113.5138 114.4740 115.2919 115.4800
126.2400 126.1153 126.5774 112.5264 109.1872 108.9258 109.8342 105.1995 103.8330 109.7605 108.6344 103.0446 108.2162 114.6853 110.4067 103.5976 103.3194 115.6105 121.9773 117.0645 121.5852 120.0854 106.6719 120.4164 119.7874 116.5254 118.5124 119.5326 118.5784 118.2393 117.8322 116.9717 115.9018 95.4371 100.7717 113.4206 115.5314 90.3194 110.0756 111.6723 111.0435 109.9448 108.8122 107.5563 106.1559 104.6251 103.0389 101.5840 100.7896 101.0547 102.2075 103.7952 105.3464 106.8219 108.1527 109.3463 110.5064 111.8645 105.3978 112.9635 113.3208 114.5182 112.5679 115.5200
126.2500 125.8168 125.4925 121.4006 109.2685 110.1981 109.5880 110.3721 109.0893 110.1753 102.8993 104.2184 108.2589 105.9357 113.5531 105.7192 124.5744 121.0840 123.0038 122.2759 121.3291 119.4286 105.1494 123.3464 120.9054 119.7662 119.2342 113.2112 118.5189 118.1398 117.4212 116.3805 113.9643 103.4374 113.7777 113.3647 112.6360 103.8954 115.3655 112.8815 111.3976 110.4839 109.4854 108.4094 107.2695 106.1069 105.0009 104.1028 103.6441 103.7945 104.4852 105.5006 106.6580 107.8081 108.9151 109.9598 110.9122 111.6771 113.7202 114.2986 113.8437 115.0590 112.9928 116.0500
126.2500 127.3186 116.0832 118.3049 106.8638 108.7098 111.0961 108.2413 107.9621 107.5474 103.9016 105.2821 110.9504 107.6321 107.3480 105.4228 122.4475 120.4970 121.9899 123.6734 120.7895 121.5085 121.1132 108.7715 118.4201 119.2974 116.0336 116.9087 118.7639 119.5059 119.4898 120.3773 96.7273 98.8296 95.9535 94.9971 117.2726 113.1454 107.6451 112.1333 111.7963 111.0763 110.2063 109.3013 108.3876 107.4998 106.6913 106.0915 105.7962 105.8889 106.3350 107.0499 107.9073 108.8079 109.7257 110.6146 111.4526 112.3144 112.9077 113.6538 115.0007 109.2092 116.4421 116.0500
126.2600 122.1154 108.5474 115.0925 106.9287 105.5706 107.8457 103.1467 108.0333 107.8471 106.9220 106.6038 99.4962 104.4951 114.2293 122.0232 118.0426 123.1236 122.4947 110.3005 119.2588 120.7812 116.5558 106.7294 120.9908 119.6983 120.9874 119.8214 119.6162 108.7339 107.3442 106.2163 96.8889 92.9452 92.3058 95.3452 108.9846 104.2195 115.2046 113.3044 112.3883 111.7266 110.9538 110.1900 109.4484 108.7447 108.1548 107.7212 107.5256 107.5852 107.9003 108.4196 109.0672 109.7867 110.5403 111.2895 112.0328 112.7430 113.4495 114.1113 114.8387 103.6689 116.3269 116.1200
117.3000 111.7008 108.6693 112.1810 108.5059 105.4987 106.4662 106.9509 110.2396 105.1965 105.9155 105.0777 108.1343 101.2901 97.4387 121.2847 112.4600 121.2320 123.4554 112.1021 121.8809 123.1125 121.8516 122.2460 119.9334 122.2450 118.8870 119.2599 119.9335 100.3116 111.4175 104.8152 96.9625 101.5830 99.2827 96.0929 107.5547 104.2531 114.3609 113.0657 112.9387 112.2875 111.6151 111.0422 110.4314 109.8863 109.4283 109.1085 108.9639 109.0070 109.2422 109.6301 110.1294 110.7187 111.3403 111.9806 112.6260 113.2564 113.8705 114.4575 115.2117 118.5993 117.1601 116.6700
126.2900 113.0415 110.3942 113.4520 113.3547 112.0724 110.4767 105.6859 105.3511 105.5138 102.8036 103.1132 117.2055 117.3525 98.0477 123.7091 120.5485 123.8716 122.5171 123.3736 122.0175 120.8362 120.9109 120.7413 121.1194 125.6961 119.1999 119.5989 119.6099 115.9483 120.3470 114.4574 100.1890 96.9854 96.0120 110.2308 117.9132 115.9902 114.7352 114.1583 113.8376 113.3518 112.2870 112.3028 111.3527 110.9269 110.5554 110.3066 110.1979 110.2302 110.4087 110.7167 111.1116 111.5840 112.1081 112.6566 113.2171 113.7764 114.3340 114.8584 115.4294 115.7259 116.2691 116.7700
117.6800 113.8355 111.0800 104.3540 104.5611 103.7452 103.9034 104.8893 107.0662 103.9000 102.8007 101.9167 117.0723 105.8319 100.7573 121.4083 123.8391 123.1217 122.4149 122.1218 121.8057 121.6287 121.4815 120.7218 118.2828 109.1343 121.4881 120.3534 121.0472 101.8531 120.1942 118.0914 115.9413 112.3347 113.0446 116.6775 115.5812 115.2657 114.9597 114.5248 114.0374 108.2753 112.3784 113.1051 112.1835 111.8333 111.5649 111.3713 111.2752 111.3072 111.4442 111.6913 112.0132 112.4055 112.8441 113.3182 113.8064 114.2955 114.7940 115.2741 115.7887 116.2843 116.6529 116.8700
107.9200 106.5963 104.4439 103.3140 110.8069 112.4705 107.5998 108.2618 108.5173 109.8739 109.3285 105.4669 119.5370 115.4462 121.9866 124.0358 123.0742 122.8425 122.6705 122.3311 122.0401 121.7821 121.4907 121.0081 120.6229 117.2587 101.1074 119.5926 119.4452 117.8752 118.8476 118.5112 118.3643 117.5982 117.3278 117.0492 116.6613 115.7654 115.3596 115.0104 114.9659 111.8006 113.8407 108.4041 113.1933 112.7146 112.4729 112.3117 112.2554 112.2703 112.3780 112.5696 112.8448 113.1701 113.5454 113.9500 114.3663 114.8181 115.2559 115.7326 115.9661 118.6247 116.8756 117.3200
117.4300 117.5840 113.0171 109.5337 109.2233 111.2310 118.1941 112.5748 102.4051 109.8386 104.3360 123.8178 124.6417 118.8298 115.9624 111.4736 127.5576 123.6028 122.8077 122.3862 122.1484 121.7212 122.2812 114.3088 121.6339 120.8622 120.4508 120.2123 119.6683 119.3671 118.9555 118.6758 118.2821 118.3252 112.2957 116.8943 116.2292 117.6455 114.6465 114.4349 115.1364 115.1365 114.5823 114.8237 113.3875 113.5216 113.2931 113.1668 113.0489 113.1133 113.2218 113.3773 113.6106 113.8834 114.2045 114.5508 114.9254 115.3219 115.7251 116.1187 116.4980 117.0038 117.2502 117.3800
117.5200 109.0653 117.4554 117.5370 110.9437 109.1059 108.7066 108.5697 103.3690 107.0325 122.5252 117.9755 116.3712 122.9341 104.3919 110.7060 134.2935 124.8784 122.7485 122.4901 122.2409 121.9462 121.8141 121.2215 121.0041 121.3731 116.7045 120.5150 119.8670 119.6161 119.2626 118.9059 118.6073 118.1510 117.8755 118.2256 110.1987 94.3600 93.2137 112.9373 116.1328 115.2257 114.9714 114.5132 114.4867 114.2167 114.0488 113.9329 114.1360 113.9979 113.9832 114.1280 114.3149 114.5557 114.8328 115.1405 115.4717 115.8145 116.1841 116.5407 116.9011 117.3190 117.6729 117.8500
116.4400 118.1398 108.1438 111.4770 112.7081 112.4707 112.4112 113.0135 104.1509 102.0251 110.0110 119.9128 114.2503 104.6151 106.5307 115.8339 122.6148 122.8825 122.8868 122.6433 122.4200 122.5220 121.7997 121.4579 121.7278 123.2956 128.5105 120.4143 120.0992 119.7759 119.4797 119.1539 118.7297 118.4646 118.2095 117.3450 119.3836 98.9995 101.0835 116.4618 117.6841 115.8484 115.5670 115.3288 115.0867 114.8929 114.7430 114.7076 113.7138 114.2248 114.6920 114.8098 114.9799 115.1867 115.4232 115.6888 115.9896 116.2831 116.6270 116.9558 117.2953 117.6324 117.9785 117.9700
113.7300 115.9595 119.7913 114.1771 112.2839 113.3537 106.9328 104.5121 102.8185 105.9663 104.3169 114.6597 112.7774 118.1029 124.6763 124.7541 123.5460 123.3431 122.9176 122.6278 122.4411 118.4210 122.9051 122.6427 115.6480 119.8362 140.3274 123.8558 119.8434 120.1142 119.7177 119.4473 119.1808 119.4390 118.5989 118.3429 118.5197 117.9172 115.5543 116.5336 116.8457 116.3380 116.1340 115.8770 115.6910 115.5126 115.4331 114.9717 119.4395 118.1919 115.4832 115.4546 115.5986 115.7762 115.9871 116.2291 116.4796 116.7820 117.0541 117.3448 117.6564 117.9586 118.3026 118.3800
114.2700 110.3866 114.8344 106.6259 107.8085 108.0474 105.6598 104.8935 104.3694 112.8114 102.2878 109.1428 112.5300 126.0226 123.0229 122.8098 123.6908 122.9177 123.3295 122.5438 127.1014 124.3782 115.0532 123.1167 105.5269 120.9015 108.1137 128.8075 120.5740 120.5768 119.9602 119.5895 119.3036 112.3414 120.2782 105.3858 118.8408 112.3432 108.7471 118.0506 117.0577 116.9263 116.6414 116.4281 116.2591 116.1041 115.9151 117.5043 100.0210 98.9700 114.6608 115.8845 116.1914 116.3325 116.5214 116.7303 116.9800 117.1583 117.5426 117.6984 118.0795 118.5026 118.6392 118.7600
108.7800 111.1800 106.7089 106.6883 107.0931 106.9073 106.3158 105.2769 102.2871 109.8246 102.7025 122.2551 109.7238 122.0523 126.6617 128.1800 122.7675 125.8462 114.6453 124.1396 128.2734 125.5161 106.5602 108.0231 124.1656 117.6465 125.1495 122.3641 119.4745 120.1250 120.2151 119.9488 120.9709 104.7789 110.7905 100.3501 120.2213 120.0728 117.9003 116.6941 110.5635 117.4788 117.1441 116.9476 116.7882 116.6746 116.4141 116.8346 116.7710 116.2741 117.3063 116.3849 116.7435 116.8626 117.0243 117.2148 117.4281 117.7905 117.5787 117.8494 117.3254 118.7614 119.5831 119.2500
126.9400 122.3219 107.5894 107.2967 106.0360 105.5385 107.6599 105.5391 103.6889 100.3635 114.6911 113.8763 113.9057 107.8922 128.2591 128.2993 124.3488 118.5660 111.1679 123.0077 119.2504 112.9804 108.7923 107.8264 116.4068 117.1672 124.2985 111.8308 123.0390 121.3610 121.5656 115.5264 119.8183 103.2774 102.2003 106.9229 116.6606 118.3493 117.8132 118.3398 117.9505 117.6756 117.5836 117.4416 117.3198 117.0723 118.0574 117.9582 116.9550 111.1074 115.2898 116.9175 117.2434 117.3817 117.5091 117.7001 117.8730 118.0902 112.8843 121.1720 121.5911 109.6468 119.8324 119.6000
107.7000 110.8411 106.3085 105.7327 107.3335 108.0061 110.3078 104.3118 103.8454 103.5540 119.3170 113.9390 114.9208 118.7261 113.2198 116.7508 114.6197 122.1621 124.7660 123.0983 121.0953 113.4645 101.0258 119.4734 120.7647 119.7353 101.6073 114.3810 104.1568 105.2736 114.3262 115.3489 118.9563 102.2348 102.0203 117.5167 109.7615 118.9885 118.6164 118.5781 118.4722 118.1941 118.0555 117.9218 117.5345 118.7567 109.4258 113.8248 117.5537 117.9993 118.2568 117.5842 117.7404 117.7420 117.9582 118.0681 118.3082 118.5716 119.5799 108.2376 118.9247 113.4384 120.1031 109.3300
106.7300 105.7369 108.2465 107.7814 111.6976 105.5466 103.1653 102.9928 103.5640 104.1950 107.8887 122.9375 123.2975 125.6155 120.8104 122.6729 120.7272 115.4205 121.0291 123.2429 123.9349 120.0167 107.7495 124.7813 122.7742 120.4730 117.2521 122.2376 109.5376 97.3382 101.1096 101.1569 100.5859 101.4535 100.5557 100.4295 104.7917 119.7799 119.1844 118.9705 118.7842 118.6506 118.3511 118.2570 119.0826 117.6761 110.2067 116.6368 117.9510 118.0343 117.8495 118.0160 118.2022 118.8335 118.3388 119.1805 118.4698 118.8495 120.2356 101.8180 121.9652 120.0564 119.7723 120.0600
108.8100 108.2586 111.8789 105.4004 105.5540 104.9176 108.4201 107.8013 102.1256 111.8978 134.1575 119.7948 120.7813 124.5156 124.0387 125.4098 124.0344 121.7385 121.9601 123.6160 123.2960 122.3288 123.2992 122.9677 122.4286 122.5617 122.4944 123.5918 103.3305 118.3096 118.8924 107.6622 105.7477 100.9158 98.4255 110.8733 123.0852 119.6841 119.4716 119.3414 119.1496 118.9860 119.6257 118.5990 111.2621 120.6367 101.3625 111.2895 118.4113 118.5765 118.5443 118.5733 118.6440 119.2369 109.2602 118.6467 119.0013 119.1718 119.9206 112.6967 120.3676 119.9464 120.1847 120.3800
127.1200 110.6648 108.0118 111.8083 114.1559 111.2403 106.3479 112.3338 116.7645 105.2267 119.9742 120.0788 121.3399 113.5219 128.6473 124.4315 98.5784 112.0166 123.9501 123.2009 124.1798 122.6959 129.9261 122.0107 122.7699 122.4364 122.2482 122.0322 118.8408 120.9594 108.8783 104.1908 107.6479 102.6800 110.0190 124.1147 119.4746 120.0917 119.9135 119.6981 119.3372 120.8172 107.6880 115.1636 100.0106 115.4542 92.6017 109.6275 118.8583 119.0149 118.9256 118.9689 119.0869 119.1566 119.2124 120.2727 119.3837 119.6435 119.8400 120.4988 120.1358 120.3194 120.4969 120.4300
122.5500 120.5324 117.1562 109.8281 110.2670 107.7129 111.7163 123.1726 102.0536 101.7378 118.4778 100.8604 114.4112 115.8710 99.1688 112.0401 103.2204 125.1761 124.2898 116.7930 124.0679 123.2197 123.4947 122.5156 123.0086 122.6509 122.4476 122.3397 122.1508 122.8133 113.2772 106.4879 119.3192 121.8688 118.7908 118.5779 121.4113 120.3284 120.2114 120.0595 119.5930 119.9626 102.4330 108.0307 123.6202 119.7372 114.7806 106.8327 119.2909 119.4458 119.3429 119.3882 119.4432 119.5572 119.5776 119.3883 119.8249 119.9586 120.0870 120.2761 120.4520 120.6169 120.7761 120.8100
112.7700 110.2950 111.8767 107.5367 112.8076 115.6012 106.4865 104.1696 104.1265 103.2423 106.1198 104.1443 127.6694 125.0658 110.2834 111.0644 115.1251 122.6258 122.2473 120.6788 115.4381 122.0567 99.9388 106.7561 123.8780 122.2855 122.5526 122.8332 120.4549 107.1364 108.5262 105.6129 103.6407 120.5846 115.6436 113.3208 120.9805 120.7430 120.4933 120.3949 119.6917 122.2185 98.7388 98.3147 110.0304 118.7739 119.3124 119.0108 119.6656 119.7677 119.7374 119.7773 119.8385 119.9142 119.9682 120.6939 119.8471 120.4943 120.4268 120.5879 120.7512 120.9083 121.0772 121.1200
124.0800 109.9377 115.3053 114.9810 108.7340 108.8972 106.2577 104.2944 103.9365 103.5833 121.9721 104.6081 124.4797 117.4887 103.4127 118.7736 122.4592 110.5814 109.5686 108.2778 111.1348 102.6408 102.7748 111.6111 104.5741 118.6020 122.8979 121.0843 107.9423 113.2341 103.8323 110.6165 122.5358 122.4287 121.4399 122.1741 121.2144 120.4783 121.0411 120.7434 120.2834 119.7257 113.9738 107.3847 116.1943 100.9392 122.0442 119.4662 120.0897 120.1254 120.1142 120.1456 120.1938 120.2654 120.2972 117.6320 113.2508 120.0791 120.8340 120.9090 121.0552 121.1978 121.3598 121.4100
121.5100 120.6333 116.7625 108.2500 108.7492 107.2949 107.4517 103.9537 105.7659 102.6572 114.4242 103.6905 122.9273 131.6027 109.5565 109.4446 117.6671 119.0037 106.1069 102.3115 105.9633 109.3799 106.5600 120.1513 109.0792 128.2680 123.0794 119.5524 109.0416 115.2397 125.0568 120.6153 113.9626 120.7714 123.2818 120.4913 119.3595 125.1429 119.0873 120.9607 120.4118 121.1658 113.4465 115.8212 123.2644 104.5631 119.3316 120.3257 120.4569 120.4603 120.4757 120.5029 120.5527 120.6920 120.2874 121.3662 118.5568 123.0320 120.7953 121.2058 121.3554 121.4827 121.6302 121.6900
109.6000 107.4084 107.3554 109.0717 109.9730 105.6060 107.0254 103.9496 106.7383 104.0406 105.6215 102.8113 114.2423 119.8457 121.4982 121.9947 119.2985 107.5394 106.6991 112.5213 104.7450 109.3167 108.2585 104.2253 124.9488 123.3987 123.1744 115.7631 105.0033 123.3474 121.8027 116.9000 102.6582 122.7613 112.4963 114.1145 113.1337 125.2675 112.2478 121.0654 121.1889 121.1172 121.5211 121.3088 121.2712 122.6131 120.8941 120.8209 120.7991 120.8062 120.8239 120.8493 120.8872 120.8232 121.9135 122.5837 110.1144 118.7674 118.2692 121.5083 121.6365 121.7485 121.9156 122.0700
109.6000 110.4373 109.5455 108.6751 107.7278 105.0090 104.4840 104.3304 104.6189 104.1049 104.7816 106.5465 105.6823 111.8933 111.0128 108.8965 117.2713 117.8076 112.6693 110.8156 109.1817 110.3067 113.2177 101.1230 124.3224 123.3044 124.6607 115.3136 105.6106 123.4494 122.7836 124.9652 120.4921 124.6841 103.3844 107.2778 106.6658 106.8499 107.2169 121.6939 121.3743 121.4474 121.2503 121.2692 121.1341 120.8519 121.0587 121.1139 121.1375 121.1394 121.1504 121.1831 121.2109 121.1300 121.1022 109.4561 123.8380 123.2167 121.4046 121.8099 121.9092 122.0975 122.1361 122.3400
112.0000 111.5875 109.9081 111.9422 114.1362 108.2100 107.9700 105.8666 105.7057 104.6091 112.1617 112.7546 122.5578 114.7418 110.4112 110.9168 124.7971 122.0911 116.8372 111.0607 115.4171 107.8628 115.0732 117.4174 124.9072 124.7249 116.6267 105.9206 111.3305 124.9642 122.8446 123.0561 123.1089 124.7156 109.5825 102.7604 103.4941 101.7071 124.3722 121.8977 121.7464 121.7683 121.7294 121.6238 121.5741 121.7983 122.1102 121.5879 121.4492 121.4612 121.4780 121.5044 121.5344 121.2455 123.7687 113.6923 122.7599 121.6510 121.8751 122.0738 122.2265 122.1218 122.8981 122.6100
112.0000 112.0164 107.6818 105.8266 116.2449 107.6029 107.2741 107.2646 103.9936 111.8968 105.7197 105.6904 117.7183 115.7569 114.6369 119.5081 127.6190 114.0237 113.5020 113.1256 130.2300 122.7537 134.7560 126.0655 124.1426 125.3600 112.2706 99.2862 123.0021 123.5942 125.5219 122.9317 123.4605 110.4174 100.9165 99.5062 98.3341 108.1509 123.3408 122.2032 122.1075 122.0624 121.7722 121.8261 121.8546 119.8069 119.1103 121.8932 121.8148 121.7732 121.7829 121.8107 121.8421 121.9219 121.7178 123.0808 121.8783 122.1753 122.6577 122.3512 122.5742 122.5905 120.0890 112.6500
108.4500 108.8451 107.0885 105.2372 107.4736 105.9033 108.1986 117.8256 110.7753 105.3577 104.1408 103.6810 109.5791 102.7834 120.6021 120.5022 120.0280 115.1993 116.9279 111.6907 118.4828 105.0644 114.8487 113.0190 114.0207 123.5549 105.5574 114.0388 113.7467 112.1749 123.8377 123.3474 123.6060 106.4150 104.7223 115.5110 119.3647 125.2917 122.4353 122.4756 122.3797 122.2839 123.4821 122.6987 122.2339 120.2766 120.6213 122.1215 121.7694 122.0608 122.0967 122.1125 122.1377 122.1758 122.2656 122.1451 122.6520 122.4307 122.4515 116.7632 122.7465 122.7997 115.7159 100.8800
108.8500 105.9539 107.3553 110.4715 123.7455 115.9410 119.2655 110.4467 105.9628 104.7790 103.8921 104.6420 102.9207 121.4271 126.6644 122.3115 116.2338 107.0598 101.9939 116.1328 119.8682 104.8287 108.2815 108.4329 117.4682 119.8701 96.9326 104.0526 114.8900 119.5436 124.1742 123.3117 123.4740 122.6664 124.1498 123.3909 123.0004 120.7948 123.7542 122.7780 122.4310 123.4872 107.8639 123.6528 122.4561 122.6958 122.4920 122.4149 124.0004 122.5099 122.2983 122.3393 122.4230 122.4560 122.4942 122.5464 122.9295 122.5900 124.0171 122.3435 123.9367 122.3994 120.9099 123.1300
120.1800 125.3027 114.1810 110.1381 115.3975 122.8285 122.2627 105.7234 104.4240 116.3829 107.6916 104.6347 108.5947 127.8516 121.8982 118.7953 119.7807 123.9495 120.1709 111.9175 103.5603 117.9791 111.0316 117.5048 125.3243 126.7990 108.2587 105.7051 122.2181 124.0976 123.6888 123.8876 121.1646 109.1748 123.7218 123.0631 124.5269 117.4583 114.4999 123.0766 122.5599 124.4940 105.1712 124.5243 123.2339 122.6449 122.6469 123.0700 108.7921 120.2004 122.9857 123.0240 122.6837 122.7678 122.8177 122.8285 122.9099 122.9564 115.1876 123.4374 125.0089 124.1789 112.7919 108.4800
128.4500 114.3549 129.5412 126.7107 123.6924 118.7569 121.0067 126.9586 124.1964 122.3477 116.3167 108.3980 118.2388 108.8988 116.6804 119.7700 120.4403 122.3209 123.1403 129.2135 109.2484 105.0739 128.7239 123.7724 124.4950 124.9005 110.5315 123.9495 128.2972 124.0476 124.1602 123.6763 124.8884 124.4103 123.7443 123.7814 118.6444 105.9506 114.7934 122.9281 122.7488 124.3736 100.3711 119.8377 118.0269 121.3425 122.9588 123.9135 117.0085 110.7712 122.9266 119.3058 123.2040 122.8732 122.8470 123.1088 123.1536 123.5225 120.4624 123.5042 122.0074 121.0522 105.8699 112.5600
127.9600 127.7380 127.7632 127.4230 126.8123 113.0733 122.0054 123.7134 123.5372 127.5816 112.8716 114.9181 125.2037 121.0133 111.9722 101.7654 117.2299 115.0330 123.3654 125.8120 109.5708 118.4286 126.3774 124.9108 124.8465 127.5914 100.7115 108.5587 123.2519 124.1798 124.2804 124.2567 123.8505 123.9911 123.9123 124.1602 124.3844 99.8345 113.7180 123.6233 123.0624 124.8910 120.8041 123.4773 116.7191 126.0630 122.7895 108.6187 126.3038 119.2971 123.5355 123.0097 123.3017 124.0038 124.4128 123.2713 123.4637 123.4070 120.3680 102.9516 124.5899 133.4866 111.8793 102.3300
128.0900 127.9972 127.7349 127.6402 128.4461 121.7763 109.1041 126.1416 123.7512 124.6917 107.1184 128.7098 126.2781 111.1411 104.2075 109.5299 115.9584 115.0601 113.0844 126.2232 126.3286 126.7990 125.3509 124.4227 112.9434 123.1166 100.8717 119.5360 107.4037 121.8910 124.4793 124.3932 124.3492 124.2030 124.1448 123.6869 124.3309 109.5229 125.1245 123.5474 123.5961 122.3971 108.6610 125.4676 124.1113 123.3843 123.9999 109.4414 104.2865 116.5915 123.6143 123.5920 123.4403 124.6433 107.9970 125.0811 123.3299 123.8168 122.4176 113.1122 122.9309 108.0186 107.8380 102.0900
128.1300 128.0300 127.9300 127.8400 127.7500 119.7300 127.4500 127.3500 118.6900 120.8100 126.1700 124.1200 123.1200 125.1000 104.5100 124.6100 124.5100 107.9700 104.0900 125.8400 125.7400 125.6100 125.4900 125.3700 125.2500 125.1300 111.7800 111.7800 124.2900 124.2900 124.6800 124.5100 124.3900 124.2700 124.2700 124.1400 124.1800 124.0400 123.8900 123.9200 123.7600 123.7800 123.8100 123.6200 123.6400 123.6700 123.6800 123.6800 101.8000 102.7500 123.6800 123.6800 123.6500 123.6400 123.6200 123.8000 123.7800 123.9200 123.9200 117.4600 117.4600 111.2300 103.3700 102.2800
