115.7600 125.8000 126.7200 125.8300 125.8400 125.6800 125.6800 125.6900 125.6900 125.6900 125.6800 125.6800 125.8400 125.8300 125.8100 125.7900 125.9400 125.9200 125.9000 108.5400 114.4400 126.1400 126.1200 126.2400 126.3500 126.3500 126.4300 126.4300 126.5300 126.6300 126.6300 126.7300 110.9300 126.9500 109.9800 127.1100 127.2400 127.2100 127.3100 127.4000 127.5100 127.5900 127.6900 127.7800 127.8700 127.9800 128.0500 128.2600 128.2300 128.4200 128.5200 128.5900 128.6800 128.7800 128.8400 128.9300 108.4000 112.4000 118.2300 109.6700 116.7900 107.5100 132.8400 132.8400
115.7600 125.4490 114.1365 120.4021 126.1093 125.5174 125.6366 125.6355 125.6260 125.6227 125.6506 125.6603 125.6560 125.6740 125.7012 125.4665 125.5050 125.8557 126.9047 110.9390 109.5935 124.7381 125.7859 125.2630 125.5513 126.9890 126.5353 128.1734 110.4079 105.2297 125.7507 120.8615 107.2060 108.2001 107.6490 110.3639 114.6311 108.1313 126.2649 124.8553 120.4833 123.7965 127.8616 127.6925 127.8602 127.9172 128.0194 128.1025 128.2159 128.3235 128.4067 128.4935 128.5601 128.6838 128.7355 120.8549 114.8661 113.9945 113.0314 106.7104 119.5235 125.2004 133.0193 132.8800
108.6100 118.1758 101.2256 118.3652 120.2147 125.7548 125.4687 125.4159 125.4167 125.4112 125.3144 125.3658 125.4533 125.4806 125.5026 125.5657 125.6012 125.6623 118.0975 113.5653 115.2621 125.5188 126.6519 128.6145 105.4644 124.0776 124.0632 121.1160 120.8363 115.7625 127.9144 115.7739 108.7490 106.7227 114.3967 108.7940 109.4614 127.9482 130.1864 127.4214 124.2732 126.8240 127.8132 127.4081 127.7065 127.7442 127.9191 128.0452 128.1338 128.1654 128.2940 128.5001 128.5203 130.5341 118.3469 114.8215 112.7336 108.4567 119.0551 104.9536 124.4078 132.5307 132.5962 132.8800
114.7000 120.7946 107.4222 117.5052 120.0282 126.1300 125.0394 125.2093 125.2164 125.2728 125.8651 125.4549 125.2438 125.2732 125.2998 125.3240 125.3463 125.5010 127.7417 108.0321 116.4363 120.2479 112.7963 114.3767 114.8277 129.5863 124.3681 129.4530 126.8716 123.9673 119.3737 105.3089 109.3519 111.4346 117.4138 113.0854 101.4545 117.1737 114.4244 126.9650 119.2988 127.1259 127.3605 128.5297 127.5894 128.3648 127.4310 127.9101 127.8327 128.3336 128.1799 127.7349 128.4638 134.8804 109.0351 115.2892 109.8893 106.7917 117.1438 123.4506 126.0753 131.5454 131.8094 131.9000
125.2300 124.8314 104.5233 116.5639 118.6550 121.3759 126.9649 124.9757 125.0226 123.9281 120.8433 125.1358 125.0301 125.0636 125.1046 125.1338 125.1656 125.0973 127.0473 113.9856 125.7942 135.8324 108.1277 110.6897 124.2676 125.3125 125.9041 127.0442 127.2309 122.4485 107.7438 108.7030 107.4140 118.8295 117.8292 120.8001 129.3833 125.7410 128.0903 127.1760 127.7622 127.5132 126.0653 120.3261 125.1034 124.3140 130.0942 130.5845 127.9795 127.3046 127.2078 132.0149 126.1743 112.1979 115.0388 111.7916 115.8020 106.2267 106.5772 106.9886 108.6782 132.7910 132.1352 131.5900
113.6000 129.3914 116.0917 116.9004 121.7829 128.3757 123.9345 124.8838 124.9147 119.7616 121.9723 124.7427 124.8758 124.8780 124.8887 124.9201 124.9390 124.9716 125.7736 125.1162 124.1809 110.3548 102.1807 125.2368 126.0053 125.6233 125.5409 125.7398 125.7958 114.6747 114.8485 117.2491 107.7995 108.9353 123.5578 112.3963 127.4199 126.2563 127.7557 119.1541 124.0365 127.2928 126.8182 127.0897 127.9090 126.3035 129.8668 127.5241 127.9127 131.8028 134.6618 115.5327 107.3814 112.2649 110.2833 128.0467 110.9383 106.6840 105.9981 106.8575 120.9375 131.1930 131.3232 107.3500
115.1400 118.6188 104.5223 121.7324 118.9663 127.5442 124.8863 124.5671 124.6920 123.5272 125.0791 124.4743 124.4629 124.5246 124.6711 124.7018 124.7524 124.7883 124.8274 124.8734 126.8213 113.8642 116.3591 122.7270 125.1141 125.4398 125.4303 125.5192 125.0769 127.9582 118.0231 104.7725 115.5254 105.9553 104.5868 124.7895 126.9579 126.7885 120.3496 124.2851 128.8196 126.2652 127.0557 127.1411 127.3805 129.1300 127.9519 130.9901 130.4136 131.9037 130.9223 105.6726 111.0073 119.0917 111.7719 115.4017 118.1527 104.3363 120.0470 131.4400 130.5174 132.3237 122.2872 107.2300
107.7600 103.0824 117.7182 117.3584 118.0040 133.2936 118.5649 124.9417 124.4704 120.9158 124.1460 124.1628 125.5131 125.0381 124.4082 124.4906 124.5325 124.5846 124.6301 124.7228 125.8678 112.3511 122.1091 120.1048 123.9232 125.2182 125.2634 125.0726 123.8012 104.5592 113.0723 128.8045 117.4175 106.1161 108.2484 127.4816 126.1472 126.4759 126.2847 127.0486 125.8101 127.7111 126.6922 127.5040 129.0027 129.1350 129.8755 130.5932 129.3711 106.6666 116.0020 109.8668 108.5241 130.4869 126.8042 122.3049 103.5761 104.1039 129.5340 129.5199 132.1309 132.4084 129.3525 107.2000
106.2500 101.4343 111.5658 106.0904 121.1257 124.6171 123.7536 124.0903 123.4417 110.4713 123.9271 124.6722 114.4516 125.3095 124.3129 124.2820 124.3117 124.3682 124.4144 124.4580 125.4471 124.5636 122.4739 120.3438 124.1529 125.1758 124.7969 125.7417 124.2311 114.6223 116.1717 118.0310 118.2229 119.0755 116.5201 125.6707 125.5470 126.1922 123.5276 117.9151 128.1318 126.0641 125.3746 128.2834 129.6841 129.6721 131.1843 130.3483 126.9529 124.0345 126.4057 109.8005 129.9553 130.4427 118.5834 107.9429 109.9313 114.6183 131.4841 129.8812 130.4488 126.0337 106.5496 107.0900
105.6400 104.0572 107.4583 114.6000 121.8458 120.9338 122.6585 118.9337 123.4014 112.4891 123.3538 124.3941 120.7666 116.9161 124.2966 124.0596 124.1056 124.1627 124.1540 124.3331 124.3860 124.2262 121.1283 126.8054 127.5877 121.3139 125.2710 124.5373 118.5863 126.4442 122.7496 126.1015 122.5927 124.2003 124.4662 126.4426 125.6316 128.2679 111.1202 115.8567 119.5063 121.7688 128.0649 128.3969 128.2971 128.4564 130.7848 128.7574 126.4788 132.4841 106.9037 121.9572 127.4277 123.6858 106.0440 103.5594 118.0252 122.8173 129.3501 129.6671 131.5547 134.7838 108.2563 131.1100
111.8600 113.3435 115.7014 123.1726 130.9895 119.0662 117.5292 119.2282 123.8166 121.1631 105.6079 117.7174 124.0399 120.9292 123.7454 123.8252 123.7117 123.8011 123.9905 123.8616 121.9828 124.2412 124.8560 116.8740 124.4106 121.0682 126.0612 125.3604 124.9525 131.0056 125.0460 125.0679 125.5527 122.9156 122.3813 125.4794 125.9939 122.9777 110.6606 110.6209 131.2467 126.9881 121.9952 124.0502 124.3792 123.2777 128.6890 128.3047 127.3461 121.6590 125.7483 111.5036 127.6597 104.9548 109.1927 114.2385 119.6859 114.2648 130.2470 130.1240 130.7791 122.2327 108.4441 106.9200
108.6500 112.0255 111.9117 107.5735 116.8902 112.0318 116.5027 130.8122 123.3526 122.2567 108.3310 114.7512 128.0535 126.8786 123.3131 123.7405 124.2843 124.1531 123.8370 124.1109 123.6336 124.0359 126.4934 119.5746 125.6755 124.4191 123.3619 124.6756 124.5303 124.6240 124.7960 125.4326 122.6793 121.9483 124.5064 126.2317 122.0892 124.5154 106.4561 119.6434 122.1865 122.0973 121.9843 121.7788 124.7722 127.5966 128.6271 125.6198 127.1472 126.7954 127.2732 123.7204 118.2308 110.5845 104.3011 117.3026 113.0050 131.7373 129.1688 129.2697 130.9110 117.3665 107.9879 106.8800
110.0900 103.7925 114.3909 102.9305 115.8760 113.8664 113.9714 121.5352 123.1993 115.6851 108.3163 122.8447 123.1858 123.3026 123.2422 119.8915 114.7106 120.8345 121.7961 123.1088 123.6108 123.7434 122.3532 124.2236 123.8823 123.9073 124.3132 124.2021 124.1791 125.2424 125.1818 123.5346 122.9500 123.7490 125.2941 125.3611 123.7671 126.7465 118.4959 108.7280 121.8349 122.0343 122.1027 121.9876 127.7649 128.3347 126.8561 128.1875 129.0539 126.4032 125.8868 115.7811 111.9783 109.3769 101.9175 104.0413 102.7071 128.6485 129.0231 131.1361 133.4648 135.1017 122.8453 106.8800
110.8600 105.0496 121.2951 106.4436 116.7817 115.9913 120.0577 117.5201 123.1027 117.9884 112.4259 117.3640 121.5631 122.6292 122.9432 123.3124 121.6959 114.7146 122.0811 123.7911 123.2913 123.5257 123.7190 123.6716 124.2753 124.5613 124.4891 123.7613 124.3140 118.9509 121.7586 120.5789 122.3708 116.6398 118.6404 124.9329 126.1746 121.5211 112.1508 107.5639 121.1188 120.8473 121.6911 128.3864 127.5032 126.3209 125.6118 125.1772 123.8856 113.8588 125.8868 125.9757 127.9921 106.9514 119.7015 114.5375 118.3504 125.6246 129.6952 132.1152 130.9743 131.0460 122.5122 106.7400
108.9700 108.3167 123.8430 111.6768 113.7571 119.4387 111.9926 119.7951 122.4946 122.6576 121.1183 112.1242 122.2046 122.5043 122.6064 122.6061 123.2577 124.1122 122.8770 122.9105 123.2239 123.4002 124.1308 116.0300 106.8996 104.2572 123.8396 124.7380 109.9287 110.1193 120.5988 122.9404 117.1978 115.9684 122.5458 126.2041 119.9384 123.4163 110.8779 118.6465 119.8885 122.0164 126.8228 126.5022 126.3065 124.4742 124.7261 124.9061 124.4461 123.7996 128.4291 125.8261 123.9415 120.9081 124.1613 117.2116 127.7549 125.0954 129.2447 129.3044 129.0201 127.4700 121.6222 130.6900
106.6500 123.0722 123.0592 122.4547 120.4138 110.0176 123.7618 118.1183 122.2909 122.4133 123.0217 123.1907 122.3664 122.4350 122.5272 122.5843 122.5845 125.1630 127.2153 123.2697 122.8203 122.3893 124.7799 109.3489 102.1300 107.4070 124.1733 118.5934 124.6099 121.0068 116.7335 117.5197 115.8946 121.0666 124.9424 125.4702 118.7262 117.7802 116.8434 118.6524 120.6783 126.0089 125.6499 125.1258 123.4399 123.5401 124.0571 124.4281 124.0948 115.1627 103.6182 122.8863 124.7423 126.4357 124.3389 124.1577 125.3108 128.8229 129.3891 128.8377 128.6938 129.6345 130.2911 122.4600
122.3200 122.3411 122.7134 120.1307 121.4041 117.2528 110.3119 119.4352 121.9580 122.0683 121.8246 121.9206 122.1048 122.1444 122.1790 122.2743 122.3111 121.9506 122.4627 124.7349 122.5871 123.5778 107.2348 128.6331 111.0401 100.6006 111.9103 108.6356 117.7475 118.4152 115.6026 111.6811 115.9661 116.6069 125.1564 119.3363 118.7217 117.1544 119.1540 121.0718 120.2360 124.7804 124.4577 121.6558 123.2532 123.2277 123.5235 123.8316 123.4476 123.5646 122.6900 124.2882 124.7754 123.8413 104.5492 102.7016 126.6592 128.7755 129.3287 129.1387 129.3469 129.6429 134.8516 126.0000
122.0500 121.9299 124.5416 100.3414 117.5909 112.2434 119.4956 116.8761 121.6055 121.7881 121.7671 121.7827 121.8020 121.8522 121.9051 121.7492 122.0942 122.2447 122.1519 122.2427 119.9754 121.6648 118.9119 119.4881 104.2378 108.4914 101.4536 104.8934 114.0690 109.8910 114.7834 114.7679 115.7260 115.8093 116.6912 116.1875 119.7892 115.6600 114.3571 120.0600 123.4044 126.5396 121.8986 121.6206 122.3252 122.9128 122.5855 123.2173 123.0657 123.6243 123.6504 122.4408 119.5838 106.5920 129.8189 109.0240 131.1348 128.6652 128.4887 129.7077 129.1215 134.2729 127.7111 130.6400
121.7700 121.5078 123.7484 103.8630 114.5870 106.4910 115.3585 124.4874 121.4129 121.3849 121.4208 121.4400 121.5152 121.5270 121.6573 122.8433 121.5036 121.6732 122.0029 122.0352 122.3410 122.8685 121.0861 106.9714 110.8641 111.6808 103.5037 103.0408 104.8960 107.7980 116.2245 114.3921 115.1062 118.1613 116.4738 115.9549 114.2274 102.3027 102.3972 104.9361 106.3191 118.5726 119.8136 120.4038 121.4088 121.9024 122.8429 122.9563 123.1041 123.2394 123.3820 120.9599 121.4966 131.2295 129.8328 128.4815 128.0834 129.1416 129.6669 133.8804 123.4075 126.1915 128.4647 129.1900
121.4700 123.1375 122.4153 110.8919 109.0743 103.6289 121.9599 120.9326 121.0961 121.0749 121.1031 121.1777 121.1236 121.6832 116.4079 114.3636 118.8658 122.2075 121.5758 121.7662 121.9098 121.3456 115.7936 120.5535 105.1417 107.5315 106.0819 103.9990 103.6221 110.9452 113.5192 114.1861 114.4177 115.3752 115.4643 116.9906 107.9071 112.2749 103.8818 107.9317 121.5632 120.9726 119.7084 120.3277 120.8611 115.7988 122.1032 122.0516 121.8658 122.6656 124.3385 117.4996 115.8638 112.0829 126.2543 128.8895 130.8751 127.8712 130.6352 123.9179 126.7585 128.8940 129.6670 127.9900
121.1800 106.8024 123.0096 116.2141 115.6869 105.4130 122.2149 120.2226 120.7632 120.7526 120.7607 120.3214 120.5810 118.4428 109.6024 116.5173 108.7625 120.4417 121.4930 121.5289 121.4952 122.9295 120.0150 119.1564 120.3361 111.3648 99.2210 102.1861 103.1951 103.7286 113.7188 115.1972 105.7435 110.9058 109.6539 113.2472 101.8198 101.2766 102.5553 99.6654 114.8348 110.5644 118.1093 118.1606 120.9346 107.7227 122.2260 121.0217 118.2096 119.2825 128.5554 117.0486 123.3546 116.9635 114.3375 122.1957 122.3307 114.3342 124.6089 126.8252 126.6855 126.6363 123.0713 126.1700
120.8700 114.0018 120.7903 114.3892 121.6712 108.0305 121.4953 119.8632 120.3659 120.4085 120.3931 120.3038 120.8039 119.8621 106.2784 111.4501 115.3506 121.4099 119.5493 121.1101 121.2987 120.4842 122.4568 111.4152 97.9749 101.7842 98.5034 108.5163 113.0241 115.3096 111.5003 112.4465 102.4165 101.0345 100.6180 99.2157 103.0385 102.3808 100.8962 114.1821 117.7024 108.9785 118.5533 117.2395 120.6504 120.7253 119.7265 116.7933 105.9114 105.7448 116.4801 104.3999 102.2548 103.4275 104.1889 102.9293 103.5720 105.8297 125.0215 124.2744 125.6127 125.9331 118.7189 118.5700
108.9200 114.8060 114.8462 117.0454 120.3857 121.1677 120.9642 119.8513 120.0149 120.0015 120.3646 119.4479 119.6800 121.7176 119.7967 115.7985 115.9206 122.1583 115.3789 120.9088 120.0288 122.9511 120.5640 96.3207 99.3418 100.5649 99.8465 102.4231 103.0310 107.2109 112.1437 113.0727 105.5613 100.7264 101.6521 101.6855 101.7651 104.1451 108.3106 114.7341 115.7117 113.6198 119.4139 120.9067 113.1388 114.0111 114.5783 122.9979 109.7991 115.4634 118.1362 103.4275 105.1527 104.9196 105.5371 104.9303 117.2023 103.3322 121.6168 121.7795 123.5248 126.2725 127.3287 117.9300
107.2500 117.4149 108.3390 121.7436 120.2213 116.1340 119.3335 119.4652 119.6453 119.4241 119.5338 108.6928 124.4063 115.1664 105.5473 111.2286 113.3079 101.2830 112.2055 120.2470 119.3724 100.2918 103.1000 101.0540 106.6786 100.5713 100.1290 99.4597 108.5318 112.5519 112.0457 104.8152 113.8621 101.2059 101.1126 102.4503 100.4379 117.5348 117.4885 115.2108 117.3949 113.1930 117.8152 111.2425 116.7308 110.0022 115.3455 120.4804 123.5073 114.8142 112.8681 103.7677 104.4110 104.6369 104.8026 104.5012 112.6701 102.9990 116.6713 121.0977 124.1243 120.0762 123.4048 122.6900
111.8100 107.2524 107.9060 121.1995 119.4288 119.5861 119.6359 119.2637 119.2211 120.0091 118.6863 116.1579 120.9523 123.1872 109.9095 107.0681 113.5216 109.5634 120.1560 120.0158 121.0411 115.8235 108.6606 105.6135 106.4144 106.7778 109.9312 101.5816 105.0727 109.6405 111.1717 110.5361 111.5880 105.5947 104.1188 101.5908 100.9341 116.5530 115.7902 117.8319 119.2312 116.8011 113.5450 108.4327 124.8132 120.8503 121.8335 117.0924 107.8481 121.2607 101.5828 104.4651 104.4254 104.7714 105.2889 104.0428 102.8126 119.0279 123.5060 124.7819 123.9972 120.5831 123.6346 119.3600
99.6900 96.4591 122.0302 119.2634 119.0615 118.8298 119.2669 118.8227 118.7998 127.2498 118.9593 114.3077 119.2341 119.7055 126.9039 118.3608 118.1981 112.3375 117.9769 120.8244 119.7889 105.3415 102.8512 104.4439 108.3932 111.3863 107.1363 110.1422 109.1908 110.6487 113.3035 112.3166 112.8190 100.7710 101.5452 100.3890 110.5015 115.8057 114.3398 105.2758 108.2265 108.1911 100.4593 119.0062 123.9896 124.1999 119.5982 124.5342 100.6412 107.2945 103.6770 104.2556 104.4226 103.9928 102.4374 114.4896 119.2753 120.5727 125.0397 125.9275 126.3036 119.1749 117.5993 119.0600
119.1100 114.3970 112.7838 118.6549 118.5823 118.4155 118.8812 118.4169 118.6048 119.7552 122.0888 119.4837 118.4318 119.2040 120.6073 119.9097 119.7545 120.4168 119.3914 108.2099 117.8022 103.1197 108.1247 108.3078 111.4496 109.9024 108.8016 106.4256 104.3188 111.3576 99.6247 112.2894 114.1841 113.7707 104.9672 100.3700 116.3807 116.6918 109.9487 105.7497 111.8665 120.0296 120.3195 122.2532 118.7604 122.2322 117.7917 103.8552 103.6023 103.5430 104.3073 103.6945 102.3592 115.4154 120.3331 120.7459 123.7557 115.5184 117.4436 122.9048 121.5295 118.0177 122.4920 122.2100
118.7100 119.5156 118.4523 118.4391 118.1150 118.0306 117.9050 117.9012 117.8612 117.6313 117.3818 117.9624 118.1541 118.1251 118.3560 117.6289 116.6855 118.9692 109.1572 123.1710 110.9589 102.9784 103.2545 101.6368 111.0579 108.3729 108.4141 109.3958 110.7453 107.7321 107.7084 105.2378 114.0984 113.4076 113.1830 100.4986 113.5043 105.5568 106.9452 114.5841 119.6824 121.6564 117.5972 121.1641 121.0778 124.1275 103.8044 115.5108 102.4906 103.6046 102.9474 116.1741 121.2418 118.0068 116.1608 115.9389 116.2787 116.7201 119.7273 122.0693 122.3621 120.0602 120.3449 120.1600
118.2500 117.8465 116.7150 117.7487 117.6572 117.5493 117.4874 117.4511 117.4395 117.4777 117.5864 117.5706 117.6546 117.6717 117.8080 117.1735 116.1397 117.5928 117.6954 109.5028 104.5896 103.8695 101.3220 108.0412 105.0907 105.5505 108.1162 110.6127 107.0528 109.7127 112.6830 112.3030 112.6806 113.5175 114.1026 103.3894 104.3580 107.7154 106.4527 121.7008 120.8465 112.0607 122.0233 122.1563 121.8171 117.4515 100.2180 102.7816 103.7551 116.2972 122.0830 111.4938 113.3078 114.3973 115.9396 115.7476 120.8705 117.2164 116.7166 116.4069 118.1169 119.1722 119.6317 119.3400
117.8200 117.7451 117.5018 117.3385 117.1465 117.0498 116.9736 116.9310 116.9226 116.9442 116.9997 117.1175 117.1820 118.8640 117.4795 117.8058 117.9476 117.9209 119.4710 100.9220 111.2648 101.7776 102.3427 104.4147 104.7184 108.0232 105.7963 103.9726 110.3402 110.7701 110.8686 112.1904 113.5877 111.9737 98.9331 104.9775 103.5836 121.5099 120.9999 118.2651 115.0586 116.7853 121.5402 118.9517 108.2933 102.9549 106.0233 101.1987 121.9519 118.1475 102.5331 112.4240 115.5838 105.1249 115.3081 115.1775 115.2328 116.0718 117.1848 117.5956 118.6448 117.3674 116.0485 118.7400
117.3700 117.1263 116.9440 116.7716 116.6361 116.5173 116.4343 116.3898 116.3658 116.3836 116.4025 116.4897 116.5921 113.8260 117.3543 117.1774 117.0358 117.3837 108.2365 100.4862 102.0135 100.2018 101.4946 106.3015 101.8275 106.4191 106.7290 109.7948 110.5266 110.5886 111.6574 111.7270 106.7007 98.3618 102.8354 99.2041 110.8100 116.8979 115.6732 119.8744 121.3590 116.6159 121.1295 104.9224 101.0115 111.6718 123.2989 108.1459 120.0580 108.5419 106.0662 101.9402 115.6977 111.5718 113.2382 115.9046 115.9790 116.3735 114.6781 116.7739 115.5878 105.5540 105.2420 109.1000
116.8700 116.6691 116.4445 116.2564 116.0847 115.9491 115.8606 115.8031 115.7918 115.6375 115.7919 115.7796 116.4158 116.7522 117.0695 116.6649 118.1059 120.2385 105.2138 101.6467 112.6698 103.7269 99.6731 101.0275 101.1390 104.7181 109.0995 108.6928 109.1272 110.6425 108.1222 102.3351 98.4153 99.3801 99.0937 104.5605 117.1319 111.6367 118.8136 119.4450 120.0651 121.7770 113.2522 121.5784 105.8433 107.5918 119.7158 112.7446 107.1382 102.5716 109.7690 101.5584 110.4126 102.0182 116.2954 111.1187 112.1299 113.5795 108.2805 106.3903 110.5972 112.0077 113.4279 107.9100
116.3300 116.1550 115.9122 115.6854 115.5037 115.3497 115.2399 115.2039 115.2425 109.6877 115.1155 116.5652 115.4425 115.6064 115.9012 115.8116 116.8015 93.1900 96.5750 105.0368 101.1262 106.0264 101.2433 101.2853 107.1405 107.7891 105.8095 107.7091 109.1338 113.0248 102.0426 101.8853 104.6927 105.7410 105.3831 116.5279 115.2394 111.0761 118.5644 119.4469 120.0163 121.1673 111.2052 114.0728 111.0545 114.5467 107.1205 111.1266 101.9784 102.9202 102.0218 109.8441 102.9030 105.6372 110.2863 102.1234 103.8342 111.3186 111.5969 112.9601 118.3867 118.9127 118.0615 118.6600
115.7600 115.6247 115.3452 115.0910 114.8784 114.7066 114.5757 114.5081 114.5056 114.9944 114.4705 114.6802 115.2781 115.7892 115.6645 117.7286 106.8822 106.6914 113.1071 119.1350 112.1711 104.9911 98.3534 100.9727 101.6773 104.5167 106.9141 108.0287 112.2052 109.9537 107.6078 108.5770 109.8256 115.0137 113.4012 106.0511 111.1311 110.8860 120.2945 111.9526 117.4225 117.7091 102.4369 109.6024 109.6695 112.7685 99.9461 103.0142 103.2537 103.2871 103.2157 107.1563 103.2125 102.0384 110.9380 111.0603 113.8667 116.5459 117.0700 116.1319 115.5684 114.0503 116.4284 116.9600
115.1200 115.0715 114.7521 114.4594 114.2078 114.0069 113.8621 113.7692 113.6919 113.7047 113.9220 113.9488 114.1712 103.8438 115.1003 111.6990 95.0200 100.3522 113.0798 117.1317 117.7960 115.8248 95.5669 101.1955 99.2714 103.0207 106.1312 107.0211 105.4138 105.2414 108.9765 112.2341 113.0920 111.7448 116.6452 97.1232 102.5264 108.3536 108.4584 111.2789 107.5045 119.7237 102.0189 111.7336 111.8193 110.3143 116.4325 102.4569 103.3616 103.3030 102.8935 109.1603 103.1756 111.9285 115.2492 108.6496 115.4128 114.4950 114.2305 115.0444 115.6953 116.6846 117.5069 117.3500
114.4600 114.4907 114.1305 113.7910 113.5018 113.2616 113.0822 112.9727 112.9609 113.0047 113.1001 113.3086 114.4956 112.4806 112.3011 115.0641 109.2555 116.6239 89.2899 97.0518 116.7411 106.4022 100.9266 101.6311 102.1471 101.9472 102.5730 104.8705 109.6128 110.5528 112.4077 111.5748 115.3588 115.4675 109.2109 102.3530 101.8208 105.4243 106.1589 108.6705 107.7207 110.9613 101.7050 102.0848 102.9941 104.4393 107.9116 102.6800 102.6099 102.4704 102.4797 108.6070 110.0143 112.0487 112.7511 111.2462 113.6659 115.2828 115.3871 116.5409 117.6681 117.2037 118.2092 117.8300
114.4600 113.8862 113.4647 113.0761 112.7312 112.4418 112.2271 112.0955 112.0526 112.1117 112.2752 112.4166 112.6895 118.2656 107.9283 114.2780 114.6062 116.1141 116.5291 112.7909 112.4116 114.6101 100.1233 98.4641 101.1410 102.0207 101.7602 103.0026 103.6040 108.9821 113.7211 113.8695 115.2245 101.2446 100.0367 101.5089 103.1367 104.4896 105.6740 107.4720 106.7063 116.6731 109.8021 115.5326 114.1745 101.7390 101.9792 102.1599 109.0561 108.9410 108.7452 111.8855 112.6639 112.7018 114.9564 114.4032 115.6115 116.4294 116.2061 109.8794 109.3716 108.0762 109.5915 110.7500
113.6400 113.2520 112.7630 112.3087 111.8935 111.5511 111.2840 111.1165 111.0781 111.1452 111.3309 111.6176 112.2326 112.1687 112.8497 114.0471 104.4863 101.8489 116.5663 115.5453 115.2969 107.7989 103.5172 98.5945 119.3730 100.2875 109.3227 111.1972 111.1443 112.5600 112.0808 111.5891 100.1637 102.3315 99.8367 100.3958 103.7484 105.3540 105.5843 107.9240 110.5272 108.4038 108.1860 120.3797 103.0330 102.2663 102.4353 101.8828 109.9193 110.9054 111.2796 111.2556 103.8553 104.0398 105.6469 106.1181 107.7372 106.9143 120.5420 119.1517 117.8513 119.1127 120.2745 121.5000
112.8900 112.6053 112.0404 111.4960 110.9906 110.5678 110.2322 110.0282 109.9623 110.0641 110.2982 110.6409 111.0936 111.6619 112.2063 112.7222 113.5741 115.5636 92.8858 116.2450 117.3850 94.6389 100.4669 113.6059 107.4657 109.4682 111.7772 109.1600 102.2838 108.6049 108.3346 114.1462 100.2060 100.2495 98.8557 101.7968 103.0345 104.8736 106.4368 107.4846 108.1490 108.6599 108.7168 109.0618 102.1348 105.9354 102.1426 102.4436 102.6915 102.7349 102.9453 103.7579 103.5889 103.8874 109.7720 118.5462 118.5670 118.0862 118.0464 120.5564 115.0437 115.2194 115.4592 117.4400
112.1400 111.9393 111.2766 110.6221 110.0169 109.4756 109.0449 108.7730 108.6908 108.8170 109.1238 109.5883 110.1511 110.7767 111.4167 112.2257 112.2655 114.0204 115.7407 101.7376 115.6041 106.4293 101.2031 104.2023 105.6912 105.8644 103.3237 99.0453 99.0623 108.5434 108.1270 115.7677 102.9961 100.4359 100.0978 101.0709 100.1797 100.7205 100.2516 105.2145 103.9550 107.5243 106.7159 107.6721 101.4657 101.7304 104.3335 102.6142 102.6603 103.0468 101.7954 116.3069 103.3411 104.9473 107.2076 113.5094 113.6835 113.4567 114.8837 114.9985 115.2199 116.7202 106.4820 116.9400
111.9100 111.2710 110.4937 109.7086 108.9428 108.2547 107.6861 107.3174 107.2002 107.3797 107.7947 108.4002 109.1184 109.8806 110.6426 111.6463 109.7387 112.7418 113.0973 114.9838 99.6031 99.9377 102.8134 100.6340 104.3372 106.7265 101.3090 101.0802 99.4369 109.3505 105.8335 111.9896 102.5641 112.7212 108.1878 98.5723 105.9976 104.8183 104.8238 117.3029 104.9410 116.6632 100.5890 101.1653 102.0649 104.5921 104.8018 102.3278 104.5191 103.1104 107.0952 110.2768 112.2661 112.4099 113.7406 114.0657 114.4351 114.5995 116.3090 119.0494 118.5893 118.9063 110.0171 105.4600
110.8200 110.6109 109.6992 108.7514 107.7991 106.8891 106.0992 105.5736 105.4047 105.6594 106.2610 107.0795 108.0128 108.9651 109.9307 110.8310 111.8110 112.1679 113.7724 108.7652 98.3691 101.2290 99.0664 102.6468 103.3639 112.6639 107.8087 108.1085 108.8681 108.9024 110.0299 109.6834 111.3688 108.7972 108.6193 101.0618 109.2431 113.1064 116.4564 106.5290 113.7335 104.7143 101.3775 101.5387 101.8881 103.4429 103.9912 103.7958 109.0570 103.7515 108.1305 109.3564 110.0666 114.8697 113.9544 114.2221 111.6291 117.0943 121.2819 127.3226 121.1315 122.6567 106.9331 119.3300
110.8200 109.9853 108.9197 107.7848 106.5792 105.3501 104.2236 103.3944 103.1239 103.5436 104.4729 105.6143 106.8582 108.0479 109.1205 110.0676 109.6295 114.7748 105.6045 91.3404 93.9525 95.7259 95.6556 97.3832 97.8407 105.0953 105.4475 106.8621 108.4742 108.1913 108.7804 110.2465 110.4502 112.0116 103.7512 105.5493 104.9881 108.1827 108.7727 103.1736 112.2123 100.8494 101.9937 101.5717 101.3495 105.7445 111.4921 113.0778 113.4158 110.2855 113.2617 104.1289 107.2203 113.9941 121.9882 122.8281 116.8560 124.7285 124.0857 123.2118 112.9890 111.6889 106.5164 121.0400
110.6300 109.4218 108.2039 106.8534 105.3232 103.6643 101.9527 100.5857 100.0743 100.8224 102.3210 104.0605 105.6813 107.1745 108.4906 109.8473 109.7601 98.6114 88.6419 92.9370 91.7784 93.4579 95.0131 111.3673 97.5168 101.8632 106.6229 106.3181 105.1947 110.0083 111.1479 109.7912 111.0176 108.2625 106.7920 110.1415 98.9171 97.4306 98.3508 98.9263 99.0203 100.5922 101.2656 101.3851 103.1540 111.9468 117.9616 121.9752 120.7806 116.6045 119.5551 102.7691 101.5351 108.2811 110.8958 110.5421 112.1935 111.4643 116.7062 107.7817 101.8584 104.6787 103.9800 105.3200
109.5500 108.9617 107.6017 106.0291 104.1525 101.9166 99.3357 96.3603 94.9834 97.0287 99.8891 102.4532 104.5955 106.4213 107.9402 107.6169 106.3606 100.3600 88.5297 91.2133 92.1967 93.8298 95.3402 106.1570 99.0258 102.5116 100.2203 112.4820 100.1199 102.0150 100.4476 111.1138 106.5850 111.4530 109.9706 114.7189 105.2919 106.3229 106.1870 107.9987 107.9837 108.8922 109.4606 110.2279 115.5737 117.1897 114.7989 115.5290 115.2015 114.9527 120.2311 101.8237 111.0415 110.7972 111.1283 111.3126 111.1164 113.1663 113.2727 113.7304 115.1317 103.4073 106.9076 119.8600
109.4600 108.6404 107.1717 105.4099 103.2374 100.3366 96.2696 90.2121 88.3876 91.3011 97.4959 101.0667 103.7540 105.8491 107.5513 106.8128 109.8834 108.6802 107.5717 90.3889 91.8510 89.9360 92.6029 93.0107 101.3480 101.5018 103.2622 108.5417 103.6708 105.5221 113.7854 101.7502 100.8208 102.1044 117.4368 108.4955 109.1946 108.7937 109.4924 110.0082 110.7007 111.1584 111.5570 112.0162 112.1545 112.6026 112.7102 113.1918 114.2430 114.3279 114.9435 104.8378 116.8319 119.2968 116.4958 118.3865 119.2564 119.0439 121.4202 118.7961 121.0875 118.1164 118.5720 119.8500
109.4200 108.5032 106.9807 105.1271 102.7741 99.5101 94.1215 86.4586 84.4504 87.7890 95.8057 100.3418 103.3469 105.5870 107.3414 109.1181 109.9451 111.5150 115.5854 89.3716 101.1884 111.6939 101.1234 116.7626 97.9963 113.4894 107.7006 105.5021 104.0854 110.8488 117.1636 97.7562 98.4100 107.4344 102.1459 101.8728 108.5053 108.1586 108.8411 109.1345 109.4902 109.9249 110.5897 110.9728 111.5518 112.3544 113.1012 113.5626 114.0187 114.0914 113.8089 113.5687 115.8698 117.0798 111.7155 115.6824 118.0228 118.5449 118.8171 119.0344 119.8864 120.8322 121.1663 120.8700
109.4400 108.5543 107.0449 105.2237 102.9358 99.8019 94.9880 87.9158 85.6328 88.9715 96.4310 100.5942 103.4916 105.6665 107.4013 108.8329 110.0969 111.1105 115.6955 92.3099 113.9944 114.2223 92.5169 119.1798 105.1830 100.4200 116.1339 119.8202 103.4575 111.7452 114.0932 106.6757 105.8168 104.7639 104.7165 106.1983 108.3385 108.1148 108.7369 109.0305 109.4944 109.9999 110.6999 110.6837 113.4785 112.2959 112.9203 113.5931 114.1792 114.5311 118.4103 116.0467 116.4532 117.4985 116.7343 117.2792 118.4136 118.9480 119.0729 119.5998 119.6304 119.6794 120.7202 120.8700
109.5100 108.7859 107.3626 105.6866 103.6541 101.1035 97.8438 93.2212 91.3620 94.2126 98.6697 101.7191 104.1426 106.0865 107.7042 109.0489 110.3105 112.8050 93.9957 95.6824 115.5145 114.7644 116.2928 108.9243 116.2486 100.4254 99.6096 115.4206 118.0855 115.3379 113.6176 110.4262 102.7416 102.6370 105.1083 108.0434 109.1800 107.9932 108.7826 109.6584 109.7948 110.7991 111.1904 115.4083 110.8686 111.8065 113.6461 114.5505 114.6978 118.4125 102.4310 101.9155 116.1743 108.0225 117.8318 118.0633 118.6214 119.7292 115.7644 116.8381 113.4623 120.2967 120.7874 121.6100
109.6300 109.1852 107.8927 106.4237 104.7320 102.8033 100.7528 98.7652 97.9428 99.1489 101.1358 103.2731 105.1292 106.7629 108.1939 109.4482 110.5369 111.5175 112.9954 114.9260 108.4472 108.6119 117.9881 93.9796 100.2054 99.5307 99.5333 116.0109 100.4401 104.9256 98.8385 111.9944 101.3112 101.6262 104.6547 106.4884 108.1034 109.3274 109.2133 106.5604 104.0064 111.4762 112.2000 117.2760 100.1430 111.7095 113.7821 114.5371 115.1342 114.7592 104.2613 118.8969 117.4390 117.7612 118.5285 119.1576 120.0228 121.1293 115.6272 115.9430 103.0033 104.6170 104.1201 105.3100
110.5600 109.6957 108.5610 107.3178 105.9544 104.5482 103.1042 102.0507 101.7002 102.2482 103.4501 104.8536 106.2709 107.6029 108.8294 109.9421 110.8124 112.3959 106.8063 108.9536 113.8485 112.4041 112.0654 115.7316 120.5673 116.0901 93.6474 95.1734 104.4324 110.9180 113.4065 105.0473 98.5211 103.5482 104.2684 105.8824 109.1830 108.0776 108.8690 104.1723 111.0320 111.5783 112.9069 116.5209 101.4269 101.4412 116.5130 115.5063 115.4894 114.4717 117.9481 117.5404 118.3193 119.1727 119.3383 120.7088 118.1210 116.1351 121.0290 121.8674 113.2847 107.9673 116.4714 105.4300
110.7600 110.2971 109.3167 108.2800 107.2086 106.1566 105.2122 104.5408 104.3289 104.6531 105.3954 106.3742 107.4419 108.5101 109.5365 110.5058 111.4227 112.2868 114.4091 95.5412 107.0366 88.6905 91.1124 102.8862 96.2133 111.3706 97.7097 101.7343 108.7630 99.5897 107.0376 104.1692 100.9044 108.7672 112.1077 107.1838 114.6829 112.3311 108.3953 114.9831 100.3881 99.6059 105.5616 111.4900 100.3561 103.0446 112.6814 112.5145 114.5907 117.8694 118.4149 119.1029 118.2059 114.2949 121.7568 115.9171 114.5893 115.9095 120.7098 121.9068 124.0400 117.3646 115.9248 105.4300
111.8400 110.9447 110.1020 109.2412 108.3809 107.6009 106.9224 106.4740 106.3384 106.5481 107.0538 107.7578 108.5723 109.4329 110.2947 111.1262 111.9255 112.6332 113.1343 115.7986 106.9597 104.3212 101.5067 96.6829 95.9135 98.7131 103.8884 116.3137 118.8546 105.4953 109.3778 108.1245 109.1308 111.1590 110.8065 112.8231 112.5380 106.9889 115.1992 117.9943 105.5834 111.2908 106.2317 100.0183 105.4538 101.8717 107.5475 104.9753 112.9839 117.0233 117.4476 118.1536 116.4974 107.6986 119.7379 112.6797 120.2297 111.4040 116.5662 123.2539 123.3378 124.6159 105.7179 105.4300
111.8400 111.6132 110.8946 110.1829 109.5020 108.8843 108.3832 108.0653 107.9692 108.1149 108.4818 109.0125 109.6406 110.3339 111.0513 111.7684 112.4783 113.1389 114.1840 113.0424 118.1659 124.8500 97.2320 97.9077 99.9131 101.2584 99.7361 95.5260 109.5341 109.6640 106.4345 105.7774 112.0882 112.6176 111.8974 113.9851 109.4657 99.4158 108.6748 106.2160 116.4518 115.5794 118.6231 116.8389 115.6075 109.1018 115.4047 111.5509 118.7877 120.4451 120.5990 123.5383 121.4893 122.3419 113.6156 121.7715 116.2835 115.1738 109.3135 122.4542 122.0657 124.7705 111.9480 117.9300
112.8300 112.2778 111.6637 111.0750 110.5212 110.0281 109.6557 109.4165 109.3431 109.4536 109.7276 110.1251 110.6529 111.2147 111.7964 112.4032 113.0345 113.5582 114.2602 109.1542 102.2759 101.5399 112.7345 113.6365 94.2844 103.0740 105.5483 102.8416 112.1293 116.4084 103.0844 100.9462 105.4497 109.7561 108.7352 117.6143 102.2435 100.7436 100.5089 99.7409 113.9177 111.8592 112.6405 117.6407 111.0508 119.0376 119.1196 119.9926 119.8304 120.1644 121.1806 121.8053 122.1938 121.4678 122.5332 122.8402 124.4902 123.1902 127.1727 124.9714 125.1430 114.1036 110.1910 115.4100
113.5500 112.9409 112.4124 111.9119 111.4535 111.0688 110.7692 110.5851 110.5347 110.6192 110.8275 111.1825 111.4166 111.9858 112.3871 113.0583 113.6062 114.3194 114.2755 118.8741 108.0569 107.6805 115.0716 105.9332 111.7107 118.7861 105.5419 108.4156 101.5076 109.7294 103.4176 104.1127 105.6233 110.6089 109.9333 107.5524 113.8541 99.7540 100.7640 114.2573 107.1734 106.9809 110.0313 103.0631 115.2602 119.3175 119.1316 119.5241 120.6458 121.4288 120.9254 121.3503 121.9414 122.6242 122.4451 123.8768 124.0416 124.8512 124.7866 125.0557 128.7132 113.9023 104.0111 105.4600
113.6200 113.5781 113.1174 112.7023 112.3241 112.0056 111.7685 111.6153 111.5758 111.6464 111.8081 111.9036 112.9984 113.8665 113.3638 113.8852 114.1576 114.6070 116.0416 111.8986 117.2200 116.9920 111.2177 118.0574 105.4985 106.7344 110.6316 125.3436 107.0938 106.4689 105.4603 107.5544 112.2268 113.4818 112.1249 114.0192 112.9211 99.1430 99.4175 114.0400 116.3971 106.4281 116.6077 106.8645 111.9414 111.6499 115.3624 119.3556 120.7361 121.6304 122.0258 122.4367 122.9025 123.1834 123.3337 123.4180 124.2844 125.0242 124.2230 125.3046 125.8213 124.7359 105.7677 114.7900
114.3700 114.1990 113.7999 113.4442 113.1267 112.8575 112.6643 112.5404 112.5069 112.5659 112.6895 112.4832 113.7319 98.1786 103.0210 112.8837 114.7172 115.9577 116.0425 106.5338 103.9668 109.3663 117.1787 107.9738 103.8170 100.0775 114.0356 103.4122 98.3859 105.6619 111.5155 110.7805 111.8966 112.4946 113.6233 115.4300 105.8607 99.0997 117.3717 110.1934 109.6010 112.3475 102.0284 102.4115 101.8565 103.5887 108.4960 119.7918 121.0289 121.5370 121.9592 122.0998 123.0876 123.4750 124.3231 125.1860 125.6587 126.4218 125.8596 122.4555 120.7715 127.7868 116.4032 105.4800
115.6100 114.7877 114.4484 114.1340 113.8628 113.6436 113.4764 113.3754 113.3527 113.3953 113.4994 113.2317 115.0627 94.7853 115.1577 116.1920 115.2795 116.4361 104.7066 97.1415 94.9775 102.3247 105.3418 105.6789 101.9353 101.8114 104.2316 101.4324 105.0590 97.6522 96.1896 121.1170 121.2180 110.9551 114.6667 114.8109 115.4880 116.4539 109.4814 102.7304 107.5631 108.7446 109.6494 109.1965 114.8643 115.6333 119.6838 120.3033 120.5966 122.8852 123.0905 123.2286 124.3949 123.8931 122.6890 125.3894 115.9902 114.9318 126.4233 126.9291 126.1022 122.9218 104.1646 105.6000
115.6100 115.3643 115.0496 114.7892 114.5490 114.3622 114.2206 114.1371 114.1145 114.1614 114.2346 114.1070 116.3632 112.6931 116.8019 112.3017 111.6779 116.4634 110.2103 107.6109 105.9093 95.3736 104.5175 103.0872 102.9947 106.4065 104.0453 107.8473 107.8415 106.4720 109.2184 123.3223 105.8792 107.7881 118.2540 102.8665 102.8622 106.4650 105.5929 100.9608 103.4803 105.0306 113.5392 102.4481 105.6637 112.7348 116.0745 118.7296 119.5606 118.8604 122.0431 124.7871 124.7885 124.4253 125.8823 126.2342 125.7874 125.9037 126.2684 126.5447 128.0240 127.8080 112.4202 111.5200
116.2600 115.8963 115.6427 115.3974 115.1948 115.0241 114.9405 114.8556 114.8252 114.8526 114.9255 115.0788 115.0419 115.8321 115.4609 116.9067 114.6054 115.7896 116.9721 117.3460 118.1177 111.9172 104.4730 106.1435 108.2674 102.5795 105.9880 110.2506 106.6690 106.4624 113.7630 120.0055 122.9211 114.8636 109.9248 109.8908 100.7431 101.7201 106.8619 107.3410 103.9534 104.6353 101.5810 101.9888 109.2142 107.8279 124.3090 117.3437 123.9789 120.2933 119.8051 121.2926 123.6906 124.5293 125.7584 126.0769 126.6906 126.6440 127.3250 127.8798 129.3725 114.9769 113.7651 105.6200
116.8100 116.4232 116.1613 115.9826 115.7893 115.7007 115.3030 115.3610 115.4685 115.5028 115.5738 115.6801 115.8274 115.9333 116.6261 116.6768 104.6913 99.8874 110.9898 117.6730 117.9444 101.0562 115.2794 97.6402 108.5392 112.2094 105.8410 111.1082 106.6051 109.6299 107.2082 110.0551 115.9860 122.8157 117.0786 108.6145 108.7175 112.3466 104.8793 106.3853 106.4547 107.1232 106.6053 103.5635 108.6308 111.9698 119.1025 122.3419 122.3985 124.2737 119.1458 123.9898 122.6239 122.9523 125.7452 125.2773 125.9481 127.0319 127.3301 128.3302 124.4320 112.3331 108.3181 105.6400
116.8100 116.8517 116.7540 116.5092 116.4299 115.7077 118.2816 116.0365 116.0848 116.1042 116.1587 116.2657 116.3852 116.5296 116.5944 110.3433 103.3123 102.2978 98.3150 117.9375 112.3601 115.5000 101.5431 103.0200 102.7520 109.7862 110.7539 110.1671 109.2409 112.2013 109.6717 110.0136 111.9068 117.8148 115.3738 122.4012 101.2413 108.9516 113.9538 109.0910 106.1679 108.9102 109.5827 110.3441 110.5528 120.9380 121.0907 123.0334 122.9120 123.7468 124.9500 125.0080 125.4323 126.0942 126.1195 123.9218 124.4130 124.9058 127.1536 124.6461 114.1417 107.7270 107.4607 105.7700
113.4400 113.4400 117.1100 117.1100 116.7700 116.8300 121.7100 116.4600 116.4600 116.4600 116.4000 116.8100 116.7500 117.0900 117.0300 117.3900 100.9200 103.4300 105.2400 103.1500 116.5000 116.4300 97.6200 106.2700 101.7000 109.7500 108.4400 111.5600 111.9800 110.5600 113.7500 111.1100 111.8900 111.9600 112.5500 112.6300 103.0800 100.9300 104.6300 101.4500 101.6100 101.7700 108.9700 109.8700 109.5300 110.0000 110.2200 122.5900 123.5200 123.8300 124.2400 124.7900 125.5800 125.5200 126.0300 126.6300 126.7400 124.6800 124.9900 125.3100 113.9200 105.4500 115.4600 105.7700
