128.3000 128.4300 106.4300 121.7200 128.4200 128.4100 128.4000 128.3900 128.5000 128.5000 128.4800 128.4700 128.5700 128.5600 128.5400 132.5400 134.9100 128.7200 128.7000 116.1400 119.1200 119.0600 128.9500 128.9300 129.0300 129.1100 129.0800 129.1600 129.2300 129.2300 129.3000 129.4000 121.8800 124.0500 124.0500 125.7400 129.6900 129.7500 129.8100 129.9000 129.9600 130.0500 130.1100 130.1900 130.1700 130.3300 130.3100 130.4600 130.4500 130.5900 130.5900 130.7200 130.8000 130.8600 130.9300 131.0100 119.9300 125.6100 126.8100 131.2600 131.4000 131.4600 131.5100 131.5100
128.3000 129.6206 104.3812 116.6774 132.2844 127.9203 128.3420 128.3649 128.3655 128.3819 128.4072 128.4235 128.4506 128.4423 128.3716 129.8016 128.8072 128.7051 129.8774 120.1576 117.7646 125.0116 129.3450 129.5809 129.4079 129.2829 128.7576 129.8633 129.4064 125.0730 127.9019 131.8624 119.6022 116.5085 120.4838 121.0137 130.1839 129.3695 129.5193 129.8290 129.6429 129.8792 130.0183 130.1075 130.1537 130.2189 130.2999 130.3697 130.4375 130.5083 130.5799 130.6493 130.6370 130.8840 131.6746 134.6588 135.5365 129.2814 124.3878 125.8855 116.2024 130.4168 131.2892 131.4800
139.7200 134.3748 119.0372 117.1805 126.7325 128.3451 128.0975 128.1489 128.2010 128.2339 128.2585 128.2824 128.3142 128.3613 128.4549 128.2506 128.4606 128.4074 131.3113 134.9769 117.2601 130.4058 128.7880 126.7644 119.1866 128.2793 128.9043 128.4884 118.6798 133.7451 123.2502 114.4758 110.0202 118.3666 132.9178 122.3792 128.5468 130.7452 131.8670 129.6954 129.2455 129.7597 129.8379 129.8391 130.0890 130.1339 130.2057 130.2728 130.3382 130.4101 130.4785 130.5502 130.8679 131.4267 125.6327 127.3718 135.9786 131.0954 129.8176 131.3693 130.3917 131.8936 131.4475 131.4800
128.0200 127.0244 123.1926 117.9611 124.3900 127.7139 128.1911 128.2322 128.0600 128.0970 128.1132 128.1392 128.1659 128.1921 128.2090 128.2866 128.2768 128.3034 128.1670 119.8104 117.9712 121.5317 114.6760 118.4533 130.3340 126.8360 128.8917 129.2949 131.7724 114.3119 130.2553 112.3951 115.0098 119.1529 129.5578 118.2629 129.1060 129.1641 129.8490 129.6609 129.7573 129.7510 130.4732 130.0188 129.9679 130.0305 130.1068 130.1830 130.2802 130.3411 130.5515 130.3997 130.5311 122.6119 122.5837 123.8689 130.3494 131.6991 130.8443 131.2378 131.4589 131.0239 131.1686 131.3600
127.8900 128.2046 124.6784 120.2944 125.3663 125.3486 127.1680 126.4525 127.9091 127.9332 127.9779 127.9928 128.0201 128.0503 128.0866 128.1262 128.1487 128.1964 130.2767 115.9912 138.2118 123.8309 113.7083 123.4063 129.5319 128.1945 128.6502 126.2575 130.0638 127.7347 129.4413 112.2005 120.9845 130.0738 128.1126 122.1420 129.7159 129.3711 129.3421 129.4897 129.5774 129.6676 129.6896 129.8182 129.8673 129.9426 130.0185 130.0852 130.1802 129.9730 130.3426 132.8099 125.2113 119.1655 122.0829 120.9284 128.7120 128.7404 130.4305 131.0216 131.0369 131.2704 131.6961 131.2800
127.7500 127.7728 129.5025 115.4390 124.2841 130.3101 127.7863 126.3288 127.8867 127.9644 127.8072 127.8458 127.8457 127.9326 127.9429 127.9756 128.0181 128.0032 129.0784 126.9628 127.5645 130.2768 122.7469 128.9970 128.3523 128.4509 128.4636 128.7793 128.4260 127.2566 129.2869 121.2233 117.4708 130.4043 129.7175 129.3382 129.1694 129.2516 129.3247 129.3911 129.4688 129.5383 129.6128 129.6952 129.7687 129.8480 129.9214 129.9918 130.0732 130.1136 128.8205 115.8254 132.4676 122.5857 128.5995 124.7895 125.6883 117.2594 124.4671 128.5652 131.4713 128.0449 121.1502 118.1500
127.4600 128.1522 122.7690 117.5334 129.9216 111.7458 127.2019 127.5722 126.0886 126.8410 127.6422 127.7036 127.8924 127.6830 127.7868 127.8245 127.8597 127.8892 127.7572 128.1291 128.9648 120.6592 119.5774 128.3889 126.2627 128.4547 128.4802 128.2499 129.3453 124.1639 128.0768 108.3005 123.8464 107.8866 119.2638 130.3451 128.8723 129.1352 129.2157 129.2912 129.3572 129.4392 129.5199 129.5886 129.6687 129.7530 129.8301 129.8899 130.0733 128.5956 120.1275 117.5704 115.5798 128.5742 119.3735 131.6899 127.8058 119.4606 124.6173 131.6264 131.1445 127.2934 129.4068 131.1500
127.3100 123.8014 118.6099 126.4011 123.8334 127.6876 127.8913 127.3442 124.5807 126.8589 127.4839 126.7809 125.9490 127.7876 127.5479 127.6866 127.7196 127.7740 127.8552 127.8403 128.6577 120.9953 128.8496 125.9393 127.2640 128.3929 128.3486 127.5665 130.3729 114.3961 129.6517 122.0154 128.6037 115.5015 134.4961 128.7126 129.0484 129.0130 129.0829 129.1942 129.2581 129.3336 129.4144 129.4934 129.5778 129.6556 129.7307 129.8412 129.5786 131.4898 117.4371 120.7823 130.9137 131.3020 130.8032 126.7435 129.2554 131.5692 130.7881 130.6583 130.9030 131.0742 129.7827 124.0300
127.1600 117.7583 121.9181 121.9636 121.5160 125.6645 133.4529 127.3460 123.5104 129.2324 127.3492 123.8693 120.8969 127.9461 127.7215 127.5254 127.5799 127.6148 127.6568 127.7103 127.8610 126.1614 124.3508 128.0778 128.1660 128.0611 128.1887 127.4524 136.5038 117.5138 125.3586 123.2476 129.8204 126.3902 128.6044 128.1361 128.8442 128.7059 128.9956 129.3655 128.9311 129.2609 129.3049 129.3912 129.4730 129.5585 129.6470 129.7219 129.5837 130.5269 120.9200 124.0186 130.6899 129.6253 133.9308 123.1630 130.7704 130.4066 130.6361 130.8215 130.4353 133.5600 121.9427 131.0300
127.0100 122.0055 116.9587 122.7057 116.8899 127.3788 126.0769 123.9681 122.2579 125.6623 126.8373 124.4025 124.7930 121.3398 127.6478 127.3893 127.3987 127.4647 127.5068 127.5763 127.6471 128.2801 127.1214 127.8087 127.7705 127.9258 127.9584 127.8745 132.8330 128.7365 128.2177 128.3460 128.3167 128.3986 128.6702 128.9923 128.8191 130.5159 128.1488 127.8769 129.0966 129.1367 129.2125 129.2969 129.3733 129.4578 129.5405 129.6815 129.1636 132.2666 133.3468 129.9345 129.8187 129.2789 124.9329 117.7082 128.4237 130.4663 130.4369 130.6196 130.6631 131.2319 131.4838 130.9100
126.8500 116.8411 122.6351 115.6015 125.0571 117.8790 121.6666 123.3626 122.5323 123.4585 117.8087 119.8222 124.9250 127.4282 127.0747 127.2265 127.3279 127.2766 127.4844 127.4183 127.5028 127.2447 127.5253 127.6532 127.7745 127.7804 127.9041 128.0271 124.5474 127.9817 128.0462 128.2441 128.3006 128.3661 128.4464 128.5379 128.7892 130.3394 141.9307 129.7616 129.0275 129.0176 129.1059 129.1888 129.2751 129.3592 129.4528 129.4635 129.7848 129.2352 129.1743 129.8834 130.0254 129.4311 118.2151 120.1760 122.5400 130.6331 130.4125 130.5920 130.6474 130.4912 124.0513 130.9100
126.6900 127.4374 119.2958 119.4925 114.3286 115.0189 123.1735 122.6747 121.9051 119.9628 118.9192 123.3228 115.6565 128.1607 126.8437 127.5382 125.1395 126.9345 127.2062 127.2861 127.3203 127.3903 127.8215 127.6633 127.5826 127.6494 127.6880 127.9342 127.8534 128.1746 128.0307 128.0956 128.1588 128.2566 128.3334 128.4072 128.5869 133.1750 126.7735 125.5937 129.4393 128.8470 129.0035 129.0858 129.1752 129.2669 129.3457 129.4447 129.5032 129.6664 129.7172 129.8599 130.2040 133.5797 116.3265 117.1569 126.4292 130.3881 130.3763 130.4481 130.6514 130.3809 134.1497 115.8100
126.5300 126.2281 114.1609 119.7425 116.8644 122.5447 120.6341 122.7722 127.0153 125.7136 125.6715 114.1240 121.6069 127.9189 126.7882 126.6527 131.3824 125.9185 127.9958 127.1425 127.1817 127.1863 128.0478 127.7538 127.4777 127.5225 127.5722 127.6205 127.7323 127.7400 127.8662 127.8483 128.0877 128.1218 128.2039 128.3224 128.0828 128.0174 128.0186 128.8855 128.7570 128.8308 128.8976 128.9883 129.0799 129.1635 129.2533 129.3431 129.4294 129.5149 129.5793 129.8603 128.0416 122.5532 131.0206 117.3946 123.0230 130.9878 130.3332 130.4011 130.6004 131.0260 129.0145 115.8100
126.3700 111.7340 117.7224 115.8748 130.5116 120.0276 124.2157 123.1227 123.8918 123.3512 120.7338 120.5832 125.7992 126.5461 126.6877 126.6917 126.1533 114.7834 127.6071 126.7978 127.0334 127.0875 127.1036 127.1922 127.5057 127.1941 127.5493 127.4996 127.5961 128.3655 127.6866 128.4400 127.7766 128.0222 128.0929 128.2046 128.1868 129.8794 136.4462 122.8710 128.9608 128.6262 128.8036 128.8812 128.9815 129.0690 129.1580 129.2460 129.3388 129.4305 129.5671 129.3546 129.6258 120.9891 135.2532 129.1278 127.9755 130.1640 130.2190 130.3470 130.2807 130.7466 120.3362 119.9800
126.2000 119.6781 120.1371 129.4742 124.4865 124.5891 126.5749 124.2271 126.0242 137.1079 118.0068 123.2985 125.5333 126.2135 126.5453 126.5260 127.6256 127.3702 123.6280 126.8070 126.8674 126.9566 126.8626 127.3496 126.3395 128.1579 127.0512 127.4302 127.4847 127.0439 118.2233 127.6916 127.7859 127.8905 127.9714 128.0379 128.2026 128.1162 126.9247 129.1007 129.0242 128.5877 128.6911 128.7812 128.8770 128.9693 129.0578 129.1527 129.2449 129.3949 129.5026 129.5217 130.8087 131.4305 129.8195 121.1293 130.0700 130.1532 130.1769 130.2624 130.3233 130.7304 128.2917 130.5600
126.0300 129.7230 126.1156 125.6136 126.0136 126.0393 124.1575 119.0142 123.5813 128.0857 127.6803 119.4240 124.1225 126.0392 126.3845 126.4154 126.3606 129.5455 125.6408 126.5078 126.7736 126.6932 126.1318 133.0043 112.6625 125.1629 127.6450 126.9001 127.0664 128.1825 126.5360 127.7113 127.6493 127.7505 127.8309 127.9346 128.0270 128.1408 128.1719 128.7370 128.3896 128.5659 128.5716 128.6887 128.7753 128.8705 128.9597 129.0634 129.1484 129.2065 129.3533 129.2453 129.5137 130.3832 130.7477 130.3440 129.9325 129.9946 130.1014 130.1857 130.3099 130.3002 130.6640 122.1400
125.6800 125.1285 125.7644 125.7063 126.6847 125.5449 125.0549 119.7512 112.4881 127.8442 125.6380 126.0409 126.2368 125.8860 126.1894 126.2181 126.0534 126.5281 127.0071 126.5152 125.1310 126.9133 125.5774 128.4406 115.3962 115.4802 126.7371 122.9569 127.1225 127.1903 127.4966 127.4030 127.5445 127.6211 127.7244 127.8047 127.9520 128.0737 127.8528 128.3338 128.4856 128.4655 128.5027 128.5690 128.6715 128.7709 128.8634 128.9617 129.1276 128.7752 131.7185 129.4197 129.9338 122.6588 123.8635 130.1510 129.8251 129.9210 130.0230 130.1172 130.2166 130.2718 130.5806 130.4300
125.5000 125.6681 125.6517 125.5692 128.2194 125.6794 124.7614 121.6554 115.9058 126.8971 125.7350 125.7496 125.8121 125.9640 125.9611 126.1615 126.1737 126.1490 126.1580 126.3349 126.4447 129.2306 126.7120 121.3011 112.9105 115.6291 114.6596 120.9190 127.4950 127.8045 127.0671 127.3073 127.4622 127.4910 127.6028 127.6154 127.6713 127.6916 127.7113 129.6526 125.6997 128.5169 128.3552 128.4729 128.5663 128.6653 128.7824 128.8706 128.9714 129.0770 129.1635 129.6165 129.5281 130.0258 129.8216 129.5607 129.7837 129.8553 129.9489 130.0489 130.1430 130.2446 130.3133 130.4000
125.3200 125.3768 125.2464 125.4495 121.0237 122.5195 110.4687 122.2479 120.7360 126.2866 125.4459 125.5850 125.7172 125.7333 125.9935 125.0512 126.1907 126.0107 126.0894 126.1224 126.1257 126.4268 125.4283 117.8377 117.7309 132.4821 116.5662 120.9597 117.9220 126.7282 127.0594 127.2499 126.9653 127.0297 127.6324 127.4528 127.7633 104.4102 121.9944 126.3406 114.4160 129.0087 128.1209 128.3676 128.4254 128.7818 128.5938 128.7684 128.8829 128.9890 128.7611 128.6096 128.4848 130.4197 127.6067 129.6506 129.6709 129.7767 129.8823 129.9731 130.0721 130.2088 130.2478 130.3100
125.1300 125.0604 125.6277 125.2342 118.5046 113.2030 117.7197 120.2372 125.7189 125.3648 126.3492 126.0561 125.3642 125.4429 126.7239 121.0160 126.4534 125.7674 125.8278 125.9467 126.0766 125.8639 134.8890 128.8553 123.2021 124.2569 123.8516 115.0775 126.8095 129.6048 126.8976 126.8551 127.5838 129.8909 125.9340 124.8430 116.3211 111.9347 107.8938 121.1831 131.5093 130.3998 127.7363 128.3043 127.4525 128.2843 128.5677 128.8050 128.8431 128.9722 129.7080 129.7354 129.9855 132.7971 124.2501 130.3032 129.5346 129.7191 129.8060 129.9060 129.9901 130.0058 130.9127 130.2800
124.9400 125.5727 117.3572 125.9195 127.6804 126.6062 108.7803 118.9869 124.9586 126.5358 114.9310 125.0168 125.0762 122.9589 116.5755 124.5286 123.5541 126.2791 125.6150 126.0100 126.0542 125.7976 125.5200 125.8921 127.6547 118.2385 115.1701 112.3145 123.9955 121.4951 126.9367 129.0694 114.5871 120.1023 115.3510 104.6712 108.5848 119.3994 112.1189 118.1977 124.5529 120.8387 128.2177 129.0795 123.9869 124.7766 128.4824 128.3813 127.8724 128.1399 128.2912 118.2757 119.3729 121.1793 126.4824 128.0938 129.5707 129.6268 129.7299 129.8362 130.0006 129.9275 131.1220 120.0600
124.7400 124.8767 124.9597 125.1771 126.5813 125.5275 117.2249 126.0240 124.8008 125.8276 122.6065 125.6557 125.8887 123.0458 116.6174 116.1578 113.3032 125.3615 125.9641 123.8390 125.9812 125.8722 126.1342 125.9062 120.0370 112.3817 111.6032 121.2475 125.0670 126.7699 123.5825 120.4755 116.5596 116.4961 102.6777 105.2192 103.6757 103.5328 105.2581 104.4433 121.7580 121.2619 129.1108 128.7258 129.8625 128.7641 128.6371 130.1041 116.6211 118.1294 120.4636 112.6446 112.8267 124.4544 123.4109 127.2370 129.6017 129.5451 129.6582 129.7499 129.8749 129.7745 132.0045 131.3800
124.5400 117.4581 118.8826 116.0966 117.8155 125.4897 127.3525 124.2115 124.5844 124.5401 125.0628 124.6834 124.6702 121.8437 122.7463 127.1510 125.1181 125.8323 117.5337 122.6293 125.4860 126.1650 124.9929 125.6143 124.1349 117.8218 112.9630 112.8520 113.6900 127.9601 125.7202 119.8930 125.0659 103.6312 105.4501 106.7278 109.6530 113.2163 112.7829 116.2043 124.9411 126.8578 127.6430 127.9097 121.3943 118.8967 122.1036 127.9288 108.9982 117.8555 110.8398 113.3149 119.9025 130.4112 127.8703 129.5257 129.3332 129.4769 129.5795 129.7226 129.7518 130.5156 129.9847 130.1300
116.5800 113.2448 115.4860 113.2261 125.0469 123.9747 123.7172 124.6616 125.0608 124.2885 124.6831 124.7126 124.6858 124.7077 117.3865 123.3852 125.9270 117.8713 116.6885 125.0394 124.9272 131.8217 116.8391 135.1284 137.7376 126.4317 115.5648 114.2513 113.9427 122.2021 119.7600 123.6010 123.7449 111.7197 106.3386 104.9913 103.9339 123.4920 125.6255 126.3049 122.5924 128.0874 130.7397 119.6678 125.4238 123.3973 123.4237 127.7054 126.9768 113.2622 113.4416 120.6730 128.3683 128.3160 128.9435 130.0360 129.0724 129.2123 129.5219 129.6233 130.0572 125.3535 129.7598 130.0000
125.3500 123.4500 114.8022 114.9209 124.6371 124.1426 124.7330 113.3943 125.2822 124.6366 123.8601 118.9159 122.8097 120.5087 113.9586 114.2919 120.5556 114.1904 124.7445 125.1844 123.9982 128.8564 124.5276 126.4993 123.7031 126.1168 119.5157 121.0507 114.5093 125.7791 126.3558 124.9888 107.1365 122.7196 105.9489 105.1549 106.7999 129.2436 122.5070 122.7208 125.4037 129.2665 115.6556 116.7467 128.6024 128.0530 128.0539 123.8913 119.4128 114.0209 122.2161 109.5867 118.0217 131.7045 108.5057 120.8210 130.1517 128.9861 129.5377 129.5563 129.7982 126.7019 129.3770 130.0000
114.0100 116.2558 125.4491 124.2855 123.8365 123.9663 124.4576 116.4247 114.9406 129.4466 139.1083 125.9964 124.1501 124.2003 113.5610 132.3226 112.1321 119.0403 125.3638 124.7810 125.0096 125.0475 125.2553 125.0188 125.6215 124.4151 109.5930 117.2334 121.8283 126.1962 126.5021 127.6829 119.4456 103.4311 103.1863 105.4821 126.8311 127.5010 135.9270 121.7952 125.6744 116.5588 124.3479 126.5312 126.9670 122.9298 129.7330 127.9896 127.7548 123.4770 117.2547 119.9547 126.8882 129.4192 128.7189 127.0452 127.1105 123.1661 129.2205 129.4930 129.3285 132.8462 129.9712 129.8700
123.4600 124.3996 123.3205 123.3813 123.6332 123.6899 124.1195 116.9073 123.2729 128.9864 135.9801 124.1501 124.0438 128.5489 122.3778 122.0004 123.3310 126.8825 124.0171 124.6804 124.7677 124.8988 124.9863 127.2177 124.7215 125.7615 125.3508 123.4406 118.2219 119.7159 119.7723 125.6043 127.5821 117.7273 104.1024 120.2087 119.7023 128.6344 134.2050 121.8736 128.8996 127.5825 127.9347 127.1402 126.3110 127.9646 108.5725 122.2043 127.7841 127.6655 120.7355 120.8164 128.9057 128.1824 128.7199 129.5020 128.2310 126.0433 129.5908 129.3998 129.4919 129.2035 129.6920 129.8400
123.2300 123.2899 123.6175 124.2033 123.3867 123.4264 123.6007 123.8186 123.4436 122.3814 123.6869 123.5220 123.7263 123.4459 124.5447 124.3194 124.4085 123.3328 124.4849 124.4974 124.5806 124.6662 115.6555 115.8181 120.6222 126.7041 121.3600 117.3381 123.0713 124.5445 125.3454 127.4406 126.2650 123.6354 123.5687 113.7771 126.3199 128.1238 122.5286 127.3120 127.0255 127.2944 127.2485 127.3585 127.5391 128.2631 123.2640 124.6682 127.7400 123.8888 111.9274 126.6785 128.1205 129.0245 124.3148 124.6682 127.7843 129.9060 129.2180 129.5188 129.4050 129.5908 129.5686 129.7400
122.9900 123.0692 124.5224 123.1576 123.2025 123.1518 123.1683 123.1773 123.3206 123.5729 123.4640 123.5078 123.6579 123.5474 123.7586 123.8308 123.9408 124.8968 125.5161 124.2305 124.4949 124.6636 125.3534 123.6767 125.0460 125.4675 120.3526 115.1164 126.3286 125.4376 125.6472 125.2847 120.8589 123.3481 115.7054 125.3706 125.9941 141.3612 121.6946 126.8879 126.6206 127.5807 127.2363 127.4548 126.5774 117.4679 107.6742 128.9730 127.3792 115.1249 128.3441 127.0855 128.3450 123.7228 123.0952 129.5532 128.9910 128.1000 129.7738 131.4692 129.3681 129.8883 130.3343 129.7100
122.7500 122.7942 122.6230 122.8531 122.8507 122.9005 122.9542 123.0064 123.0518 123.0732 123.1936 123.3487 122.8842 124.8803 123.2751 123.6508 123.7629 123.2109 124.0467 124.3638 125.5616 124.5743 121.4413 112.3341 124.1286 121.8751 117.1563 117.2549 134.9147 123.3890 125.7364 126.6545 122.4242 125.2424 116.7943 121.0420 125.7306 126.4571 127.1336 121.4598 123.2323 128.4327 126.7131 127.8259 118.9828 137.1624 125.5433 116.3254 115.4343 126.8954 116.0421 121.3941 120.1788 124.1121 106.7315 131.5761 131.0982 113.5560 132.1234 130.9384 133.1831 133.8973 126.2422 134.5400
122.4900 122.5297 122.5622 122.5560 122.5904 122.6307 122.6796 122.7284 122.7957 122.9218 122.9645 123.0118 123.3211 126.0389 123.1415 123.4189 123.5774 123.5941 123.7311 123.6921 123.8138 124.2297 124.4759 124.1417 114.4399 116.4044 123.8727 121.0098 120.8411 111.0874 123.0364 121.3259 112.5806 119.5772 121.7878 117.5828 123.0297 126.7064 123.6543 126.8803 125.1324 126.3948 127.5400 123.5801 130.8393 114.1036 127.9529 126.9527 134.6506 123.8943 121.5886 120.2512 104.3459 106.2134 121.0265 122.5933 127.9510 129.8568 130.3327 132.2173 131.8492 133.8432 119.4809 129.5800
122.2300 122.2377 122.2461 122.2726 122.3114 122.3497 122.4022 122.4926 122.4830 122.2743 122.5734 122.9253 122.7192 121.6099 123.1634 123.2085 122.8444 123.7590 124.2524 123.4512 123.8238 130.0335 111.3233 119.1140 115.3707 113.8388 121.4580 118.4724 118.7047 124.0780 127.2779 110.2781 119.7030 119.7751 110.7017 111.3204 117.1331 121.5100 127.1771 128.5899 125.7493 125.9893 128.3392 116.8770 102.1304 120.2134 126.0072 127.8398 111.2244 122.1291 116.5674 102.1600 115.6335 111.6245 127.4081 117.8915 127.4224 129.8159 129.5380 131.2336 131.4976 131.8530 130.8755 129.5600
121.9600 121.9429 121.9540 121.9855 122.0218 122.0698 122.1154 122.2068 122.6282 127.5290 122.7284 122.5092 122.6684 122.8550 122.7685 122.9714 119.6769 111.9239 120.9552 124.3894 125.7402 124.6086 106.5804 113.3357 111.4400 112.3650 121.6750 124.7929 125.4429 121.9960 130.4222 115.2051 125.4009 119.8089 109.4794 122.9383 120.3904 119.8133 129.2565 121.5123 119.8355 129.7114 118.9046 113.3823 127.9540 124.4176 119.9699 120.4593 117.0392 112.3374 109.6268 106.7774 120.2960 106.7125 127.7024 127.5512 129.5896 129.5001 129.8479 129.2610 129.9736 127.3589 129.1583 129.4300
121.6900 121.6304 121.6701 121.6764 121.7119 121.7627 121.8208 121.9165 121.7255 124.8348 122.1524 122.2950 122.3834 122.4344 122.4330 122.8858 120.1875 122.8966 118.4473 123.1683 123.7289 124.4715 106.1939 108.2641 116.8091 119.3807 124.3357 123.7197 124.4976 124.3172 116.4127 120.1638 123.0860 112.0601 115.0514 120.3905 118.7625 117.5188 126.0013 125.7584 124.3161 113.4501 106.1941 123.1388 120.0911 116.9038 119.3882 110.0899 103.9098 109.4421 112.9614 108.2253 108.0939 121.2382 128.2592 127.4246 127.9093 128.5094 128.9746 128.8781 129.0668 132.1728 129.2947 129.4100
121.4000 121.3680 121.1804 121.3671 121.4074 121.4647 121.5249 121.6537 121.8003 121.6732 121.8868 122.0856 121.4176 122.1167 122.7500 124.8572 129.8124 122.9126 123.1826 123.3588 122.4738 123.4344 108.5514 113.4011 125.3284 128.1505 114.1966 127.1910 125.3711 121.5091 108.0591 124.1676 128.2621 113.8243 116.4946 115.0739 117.4823 121.0869 124.2088 126.3150 127.1476 109.5136 103.4903 127.3582 120.9786 106.0695 122.8686 104.4787 109.1012 106.2194 107.6944 121.4267 122.3811 126.8468 126.7560 127.1226 128.3774 128.5559 128.7929 128.9339 129.0069 128.9625 129.2610 129.4100
121.1100 120.6415 122.5812 120.9916 121.0764 121.1519 121.2176 121.2652 121.3444 121.4823 121.5755 121.7818 122.2708 125.6968 128.0981 116.8545 121.3187 122.4152 122.5179 122.4271 128.4283 127.7606 112.4705 121.5243 112.7980 110.4997 110.7834 119.4967 109.6270 117.2423 112.1306 119.3195 107.2239 110.9971 111.7854 118.0034 117.0288 124.5733 125.7881 126.7191 126.0999 124.4568 123.3165 123.0914 109.5862 104.5983 103.2423 109.9460 108.2617 114.2714 124.0705 125.5148 126.2253 126.2304 128.2864 127.7517 128.5380 128.6199 128.7269 128.8395 129.0101 129.1469 129.2243 129.2800
120.8000 121.1916 123.0795 120.6187 120.7349 120.8244 120.8884 120.9755 121.0766 121.1709 121.2829 121.4730 121.5890 121.4046 123.1475 124.4891 121.9343 122.4485 122.3935 123.3397 120.3647 116.2740 114.5270 125.6068 113.3558 120.2158 118.1779 121.9198 114.8640 121.2563 124.0509 126.0246 112.5846 109.5705 111.6757 113.2837 126.3077 127.2854 118.9304 125.9086 125.9392 126.7449 119.8861 120.1911 112.8902 106.1052 106.6413 109.7733 122.8683 125.0090 125.9830 125.9512 126.2969 123.9739 127.9660 128.1533 128.4086 128.5361 128.6828 128.8368 128.9263 128.9719 129.1175 129.2600
120.1600 119.9785 120.1640 120.3568 120.4196 120.4814 120.5624 120.6454 120.7476 120.8578 120.9795 121.1087 121.2467 121.3067 121.6194 121.5989 121.8700 122.0549 122.1393 122.8723 117.4156 116.2127 121.7679 127.2316 113.0556 124.5670 122.2306 124.5773 124.0179 120.6144 124.6474 120.5813 113.5807 110.3685 117.4110 122.1865 104.1674 111.6055 126.9591 121.8591 128.2683 126.0939 120.1251 122.0715 105.2252 103.1931 123.9498 106.2445 129.0707 126.3805 125.8770 127.7820 127.7601 127.8544 128.1518 128.2242 128.3559 128.5084 128.6237 128.6961 128.9142 129.0743 129.0565 129.2400
119.8200 120.0269 119.9859 120.0032 120.0530 120.1279 120.2127 120.3108 120.4148 120.5389 120.6625 120.8083 120.9444 121.1273 121.2554 121.4594 121.6141 121.7756 121.9775 122.0844 122.4451 122.7374 122.6878 123.5160 122.4491 125.7061 111.9294 123.1623 123.7149 124.3553 121.2784 126.2792 117.1536 115.9877 116.7502 110.8392 114.2338 122.5626 125.5344 102.7201 118.7859 137.3427 103.7616 105.1822 116.4776 128.6453 115.0870 129.5545 125.2881 126.7154 127.3642 127.6469 127.7500 127.9490 128.0065 128.1595 128.3550 128.4829 128.6070 128.4413 126.2638 124.8226 124.2101 129.1300
119.4600 119.5327 119.5741 119.6207 119.6855 119.7608 119.8518 119.9558 120.0701 120.1989 120.3428 120.4950 120.6564 120.8123 120.9857 121.1713 121.3512 121.5355 121.7381 121.9137 122.0522 122.2922 122.4997 122.6327 122.6617 123.2395 110.9985 125.8572 123.3976 123.8567 123.8524 123.2521 123.0893 119.7501 109.4083 117.9865 123.7256 125.3464 107.7298 120.1928 126.5069 112.5646 140.0939 120.2722 122.4866 135.9019 121.3907 129.1139 117.6363 129.1640 128.2645 127.4727 128.0124 125.8130 128.1294 127.9881 127.0285 127.1929 124.6746 122.3892 123.2833 134.2840 117.9692 129.1100
119.0900 119.1490 119.1802 119.2259 119.2919 119.3800 119.4749 119.5879 119.7168 119.8550 120.0130 120.1732 120.3401 120.5231 120.7074 120.8937 121.0876 121.2870 121.4865 121.6963 121.8925 122.1249 122.3018 122.5347 122.6506 123.5964 122.9934 123.1955 123.5782 123.9719 121.0469 123.9488 124.4510 121.6263 105.0819 120.1394 125.8259 127.2292 126.0321 123.2558 126.3320 124.9434 123.0064 106.6556 130.5151 117.1316 116.1367 122.7812 124.4637 127.1622 124.1903 115.1793 125.8921 120.4311 127.2324 126.3320 119.7527 121.6902 129.4226 129.1644 128.9259 132.4784 118.7052 117.5100
118.7000 118.7327 118.7574 118.8136 118.8877 118.9763 119.0849 119.2052 119.3456 119.4987 119.6677 119.8397 120.0197 120.2143 120.4120 120.6105 120.8222 121.0299 121.2465 121.4540 121.6657 121.8869 122.0915 122.0958 122.3825 122.5113 122.8802 122.9894 123.1384 123.4089 124.5297 124.7700 124.3943 117.7154 116.5141 109.3459 119.3274 123.2060 115.7635 118.2498 116.1043 119.8278 117.5910 126.7463 119.0920 131.8494 123.4999 125.3580 130.1321 123.2058 115.6745 114.6611 118.5858 123.7372 121.7104 121.2581 124.3015 128.9279 128.1511 128.3116 129.8132 129.0812 120.5393 117.8000
118.3000 118.2858 118.3241 118.3728 118.4596 118.5601 118.6774 118.8124 118.9636 119.1348 119.3122 119.4961 119.6962 119.9026 120.1170 120.3281 120.5526 120.7732 120.9997 121.2253 121.4446 121.6667 121.9370 122.5693 122.8451 122.4970 122.7479 123.4304 123.8234 124.6562 124.9353 120.1580 125.6989 124.4515 117.9449 125.3688 114.6015 121.4630 117.6049 118.4672 115.6926 118.8494 113.0286 125.0691 130.7350 123.1056 124.2708 128.7614 131.2272 135.5652 137.0152 122.6483 115.9986 119.7012 127.2534 127.8699 128.7357 128.6874 128.5533 128.5938 132.9794 129.7711 130.0849 128.9500
117.8700 117.8240 117.8577 117.9203 118.0123 118.1256 118.2518 118.4035 118.5709 118.7463 118.9433 119.1516 119.3640 119.5820 119.8115 120.0404 120.2798 120.5169 120.7485 120.9849 121.2245 121.4968 121.0724 121.8461 111.4601 123.2238 123.2980 117.3364 115.0353 120.0923 109.9101 111.1112 115.7842 124.4880 111.7183 121.7005 118.8420 118.2600 120.1202 118.7644 119.9724 120.8809 120.2793 128.7721 128.1498 126.2627 126.8034 126.2602 126.3132 131.9139 126.4112 113.6203 116.8883 128.4349 127.0355 127.3362 126.0054 125.7860 126.6055 127.5234 127.5910 120.6153 128.3958 116.3800
117.4300 117.3287 117.3687 117.4433 117.5393 117.6633 117.8097 117.9724 118.1566 118.3532 118.5702 118.7907 119.0202 119.2579 119.5067 119.7542 119.9985 120.2464 120.5036 120.7497 120.9915 121.3106 121.4388 122.9027 116.8690 122.5543 125.4897 110.7411 115.6725 126.7221 125.3517 107.1568 113.9530 118.8205 115.4700 121.2723 117.5041 118.7413 119.4693 120.0195 117.9086 121.2056 121.4258 121.1008 129.2474 124.5264 127.5408 126.8734 125.2601 119.1254 117.2280 117.6210 123.6865 128.0140 123.8957 133.7047 137.7197 124.1492 127.4080 129.7524 129.2481 122.1161 129.2806 112.7900
116.9600 116.8076 116.8574 116.9377 117.0484 117.1847 117.3406 117.5316 117.7295 117.9490 118.1799 118.4218 118.6703 118.9294 119.1899 119.4503 119.7222 119.9843 120.2515 120.5200 120.7955 120.8488 122.6866 108.2135 123.0568 121.1570 123.3137 123.9546 126.0822 128.2862 132.2633 118.8895 118.3548 129.0660 113.0634 118.9031 119.7353 123.3130 119.8576 119.6487 123.1904 110.8551 110.7368 104.1006 108.9264 116.8091 123.2338 121.7549 122.2855 124.1851 106.7086 121.7923 123.2108 124.3718 123.5304 128.6897 130.2550 128.2193 128.1137 126.3174 123.6932 130.8577 129.9978 112.7900
116.4600 116.2498 116.3066 116.3973 116.5198 116.6739 116.8508 117.0583 117.2835 117.5318 117.7799 118.0442 118.3157 118.5927 118.8775 119.1533 119.4693 119.7251 119.9986 120.2937 120.5516 120.8451 121.2577 117.7781 121.8856 121.8263 129.6110 121.4672 122.7008 127.9959 121.8133 108.1887 116.9381 116.2424 117.0490 124.9829 116.8443 125.4503 122.9298 130.6197 117.8253 121.7225 108.3079 121.7085 119.1023 118.9352 123.7668 126.7439 127.9817 127.6794 105.7068 127.9747 123.4748 129.8585 110.5914 121.9704 127.7272 128.0839 127.7154 126.6357 115.4003 114.2968 129.7203 121.8000
115.3700 115.6573 115.7238 115.8272 115.9626 116.1403 116.3461 116.5635 116.8161 117.0865 117.3775 117.6557 117.9490 118.2502 118.5550 118.8616 119.1196 119.5080 119.7620 120.0544 120.3495 120.6585 120.8881 121.3806 121.5471 121.4230 122.5387 122.3645 122.1743 123.7294 110.7348 132.2829 117.2065 113.9936 124.6762 124.9623 124.0006 124.6128 124.4078 128.6355 124.8493 128.2744 109.9290 127.0199 113.6747 116.7960 118.8246 125.4724 130.8449 111.2682 108.5519 105.2694 105.2674 113.4961 127.2441 127.7173 127.8137 127.9851 131.3338 118.3423 116.8236 120.5114 120.9015 115.8300
114.7700 115.0246 115.0940 115.2129 115.3754 115.5745 115.7870 116.0769 116.3437 116.6301 116.9488 117.2576 117.5861 117.9101 118.2360 118.5448 118.9785 117.0815 119.6780 119.7730 120.1465 120.4304 120.7470 121.0235 121.2894 121.5893 121.7829 122.1302 122.4288 122.0939 131.0519 127.6300 115.2551 124.1463 123.6920 118.4668 117.8187 124.8927 124.7145 131.5526 113.3895 123.5633 119.3520 131.0966 112.3035 123.9418 124.1711 126.5685 126.8060 114.3027 105.2900 118.8691 134.3556 128.4728 127.3014 127.6504 128.0290 127.4218 143.1047 122.2057 114.7189 117.0353 120.1863 129.0500
114.1300 114.3377 114.4209 114.5578 114.7513 114.9722 115.2826 115.8502 115.4202 116.5751 116.4187 116.9358 117.1874 117.5709 117.9115 118.2702 118.6336 118.8958 119.4074 119.5761 119.9402 120.2446 120.5491 120.7964 121.1507 121.4236 121.6991 121.9413 122.1817 121.9466 122.6407 123.2455 110.4003 124.7966 114.0772 124.2975 133.5817 123.3330 124.4315 125.9644 124.7915 124.7303 126.7730 119.1471 113.2754 123.4122 126.0824 126.1259 126.6708 119.8181 129.0938 127.5201 125.9970 127.2621 127.7897 127.6169 127.7694 127.5431 125.2072 123.7467 115.6398 127.5300 119.4292 119.5700
113.4300 113.5907 113.6957 113.8545 114.0703 114.3316 114.4694 119.2714 117.0656 114.9257 115.5844 116.5983 116.9368 117.2078 117.6005 117.9739 118.3152 118.7105 118.9876 119.8252 119.5038 119.9361 120.4062 121.4587 120.9971 121.3105 121.6054 121.9806 122.5393 127.0037 118.7093 114.2671 113.4889 124.8147 124.3695 124.9948 124.1535 124.9906 125.6394 129.1919 123.5194 113.3751 117.8110 114.6828 111.6065 126.9148 126.0821 126.2282 126.9153 127.0457 126.4728 127.1909 127.5210 127.0546 127.3334 127.6174 129.4071 122.8644 129.9793 129.1383 129.7245 131.4339 144.1700 129.6300
112.6800 112.7777 112.8976 113.0892 113.3468 113.6538 114.1238 113.9269 113.9211 106.0740 115.8426 112.1079 116.6310 116.7944 117.2909 117.6836 118.0745 118.4999 118.6205 123.3594 119.4914 120.2220 119.5666 115.9550 121.2206 121.1182 121.1218 121.3998 122.9559 133.2382 110.6171 126.2865 123.0282 123.2897 120.9769 123.0634 127.1263 120.6740 119.7920 122.8187 117.8599 125.0732 111.2215 119.9985 122.8690 125.9834 126.0570 126.2231 126.3312 126.5597 126.7989 126.9346 129.1978 116.8033 128.2682 128.6443 124.9638 132.4783 122.5301 127.8271 127.8868 128.3319 117.0860 111.0700
111.8500 111.8844 112.0338 112.2684 112.5890 112.9615 113.3171 112.1731 112.2537 114.2492 114.8556 115.7865 116.2234 116.5465 116.9787 117.4004 117.8258 118.2174 118.3785 122.8949 119.3058 121.1337 117.8202 111.5178 121.1064 121.0803 123.1956 124.3046 125.9606 112.1347 115.5034 115.2274 125.2826 122.6125 121.2173 125.9536 121.3852 108.8585 108.0744 112.5677 127.2436 111.2137 121.5938 122.8622 116.3084 124.7223 125.7179 126.2170 126.3818 126.5306 126.6800 127.0175 126.8689 127.9171 127.9929 121.6135 120.9140 125.5317 118.3086 128.7763 128.4206 128.8926 126.6143 118.9100
110.9300 110.8807 111.0637 111.3340 111.5977 111.9779 112.6255 111.6381 115.6454 111.3156 114.8787 115.1356 115.7114 116.2073 116.6751 117.1315 117.5773 117.9691 118.3696 118.5435 119.1957 119.3580 120.0948 121.0393 120.5254 120.6849 111.7873 106.7751 117.8741 102.2469 105.8131 117.5413 123.2600 123.7784 124.3986 127.3365 122.3173 112.4063 111.9527 112.0924 125.0032 114.6659 128.4313 111.9541 119.5832 126.3635 126.1626 126.0548 126.3223 126.5105 126.6821 126.9069 127.0010 126.8050 127.2348 122.6500 128.4483 128.4419 129.0667 128.0247 128.2275 127.5097 131.6435 134.4600
109.9100 109.7367 109.9636 110.4744 111.9447 112.2552 112.0302 110.6094 117.3645 114.2951 114.2439 114.8426 115.3754 115.8906 116.3925 116.8789 117.3394 117.8111 118.3541 121.2380 118.3397 119.1474 121.3688 121.8704 120.6230 120.4807 110.9792 113.8619 116.1045 116.4554 120.5860 123.3802 122.7749 122.9878 123.2236 124.5728 132.4472 118.9618 114.2984 119.4365 123.7382 126.8588 111.2614 117.1246 127.5153 117.1499 126.5895 126.1443 126.3045 126.4762 126.6541 126.8290 126.9987 127.1012 128.1742 128.2937 127.4629 127.5979 127.7822 128.0675 128.1639 133.2928 121.7331 114.3100
108.7500 108.7078 108.6614 109.7613 100.5204 103.8162 111.1869 112.0093 112.2622 112.7513 113.8139 114.4150 115.0103 115.6005 116.1495 116.6309 117.1009 117.5404 118.9024 121.1474 121.1035 120.5763 109.7689 114.7268 118.8884 120.9571 123.6352 126.3722 133.4405 115.6734 122.5173 122.5037 122.8049 123.0966 122.1722 125.8711 115.9256 113.4528 113.4267 126.4838 126.0732 131.3926 112.6545 116.6305 117.0465 117.2024 122.0880 125.8761 126.2733 126.4467 126.6291 126.7919 126.9567 127.1068 127.1122 127.3114 127.6639 127.7295 127.8770 128.1281 128.0585 122.9506 121.8204 130.5200
107.4100 108.7750 107.0572 107.4114 112.3895 106.2935 110.8585 111.1633 112.0318 112.7502 113.4974 114.1850 114.8090 115.1814 115.7434 116.4069 116.9547 117.7612 113.2138 108.4149 102.0362 119.3702 115.1068 119.6162 120.3781 119.3668 121.3210 121.5617 123.5748 121.3365 122.1029 122.4746 122.6597 122.9334 128.4461 123.8570 116.1947 107.4750 117.6071 116.4025 113.4657 115.9119 122.1132 116.5088 114.7503 117.2277 120.9851 126.2975 126.2229 126.4206 126.6049 126.7788 126.9438 127.1232 127.2982 127.5184 127.5847 127.9465 127.7617 128.2040 128.3688 126.2660 115.0935 117.2700
105.8200 104.3766 105.8414 109.7315 102.9320 107.4800 109.4205 110.6157 111.2527 111.9729 112.7251 113.5117 114.2664 115.5265 115.8594 115.9431 116.9184 115.6739 117.2708 117.0163 118.3027 113.9872 115.2989 107.0790 107.5321 116.3334 111.5574 122.1091 120.7330 121.5360 122.1471 122.4165 122.6658 122.4762 131.7248 114.0762 119.0905 111.9288 116.5278 112.8175 115.3197 104.7588 108.1993 117.9668 130.9763 124.8731 125.5789 126.0352 126.2261 126.4015 126.5829 126.7595 126.9200 127.0992 127.3721 126.8820 128.5715 124.6454 127.6669 128.1767 128.3537 122.4937 111.9836 112.9300
101.3600 102.9493 103.7420 105.1783 106.1815 107.7564 108.7393 109.8896 111.1516 111.8336 112.9652 113.9221 113.9730 110.7962 111.6717 116.1253 117.0106 116.9963 115.5017 117.0349 115.8466 108.9298 111.9309 105.1847 119.8858 120.4912 121.0304 109.5499 119.4954 121.6500 122.2223 122.3880 121.8795 128.5465 117.6197 122.5801 123.4413 121.0496 123.9560 110.4001 105.2720 112.4895 108.5809 123.0020 117.3272 121.6835 126.0139 126.0564 126.1989 126.3857 126.5701 126.7422 126.9153 127.0821 127.2919 127.2859 127.2387 127.8470 127.8819 128.0620 128.2012 127.5864 133.1756 135.1600
97.8100 99.8344 101.5474 103.3593 105.2349 106.7929 109.1184 107.8245 110.1126 94.9961 98.1832 98.0198 106.4273 102.7926 103.4647 101.9433 118.1020 116.4809 117.0634 117.6339 118.3489 114.9916 124.7505 121.4632 118.7309 119.7344 114.3416 114.9177 114.6398 115.8909 122.1122 122.3846 122.6259 121.7600 128.6531 123.5886 122.9681 116.4070 121.0087 113.4613 116.7534 125.9294 129.5338 119.8903 117.4874 118.1779 121.9303 126.1069 126.1748 126.3874 126.5561 126.7265 126.8992 127.0762 127.2524 127.3844 127.5409 127.6834 127.8682 128.0330 128.0159 127.7990 132.6786 124.9400
91.7300 95.3332 98.8711 101.7754 104.2619 104.8198 122.1232 92.8645 105.6758 93.8860 99.3297 98.8179 98.3523 103.3442 110.3044 102.9274 114.1845 107.0012 105.9862 108.7599 108.7801 109.5281 110.9147 93.6603 95.9477 96.7121 100.0210 97.6090 110.9536 120.9285 118.2770 122.1072 122.7417 122.4922 131.7298 116.1489 125.0570 124.9349 114.4792 117.3318 107.1056 103.1574 122.9848 113.3744 115.8239 118.5985 122.7903 126.1580 126.0904 126.2926 126.5467 126.7220 126.8923 127.0618 127.2302 127.3960 127.5695 127.7196 127.8692 127.7225 129.7078 125.9787 140.0469 144.5000
91.7300 89.3465 96.1601 100.3978 103.2322 104.1965 114.4534 107.3597 95.6321 90.3278 94.6258 97.6954 99.5742 101.9256 107.3023 106.0117 104.9214 105.7084 106.6979 108.1482 111.3170 113.3265 101.1428 102.3111 101.8592 103.9131 117.9611 99.5779 112.3626 115.2121 114.4598 122.0651 122.4527 122.7807 122.4153 123.8173 123.2554 124.4727 106.4653 104.4085 104.1681 104.0711 102.1000 105.9090 127.0862 126.1601 125.9727 125.7792 127.5460 126.3753 126.5780 126.7076 126.8853 127.0590 127.2207 127.3865 127.5404 127.7188 127.9267 127.1995 142.4611 122.3129 125.8122 123.0300
89.5600 89.5600 94.8631 99.8645 102.9128 104.1788 104.1505 109.4895 85.8098 91.6163 96.7857 99.8805 100.9925 105.4612 103.8876 104.9556 104.4118 104.9154 106.3302 107.8545 112.8225 112.2866 115.5290 114.7826 111.3829 112.6707 115.6204 101.2505 97.0463 115.0327 114.8700 121.9423 122.4717 122.9775 123.3950 123.3822 123.8348 124.0468 132.9156 113.0200 111.5703 112.8419 114.4818 122.8534 113.8355 124.4697 125.9555 125.9573 128.2214 126.6607 126.6453 126.7058 126.8865 127.0517 127.2224 127.3807 127.5407 127.7128 127.8673 127.3330 136.6697 130.0080 117.4855 118.5100
89.7300 89.7300 95.5700 99.0300 103.4300 105.0000 107.4900 112.3800 89.2900 91.3800 94.4900 99.6700 99.1300 105.1500 103.8900 104.6600 104.3200 105.2000 106.4600 110.7100 112.7000 113.4300 113.1200 113.0900 109.1400 110.9200 114.6200 115.1600 99.4700 115.9800 115.8100 122.3000 122.5000 122.8800 123.0600 123.4100 123.5900 123.9200 129.9900 110.2400 110.3600 108.8200 113.0100 125.5500 115.4400 120.2300 125.8400 125.9700 126.2300 126.3500 126.6000 126.7200 126.8400 127.0700 127.1900 127.4100 127.5200 127.7400 127.8500 128.2400 132.1500 120.4000 120.5500 118.5100
