112.8400 112.2600 99.1500 110.2800 109.7100 109.7100 107.7300 106.8100 105.6800 105.8000 105.8300 105.7500 107.0000 107.9000 107.9000 108.7000 110.3400 111.1100 111.6500 112.2700 110.2000 116.4400 92.3900 96.0300 115.7200 116.5200 116.8800 117.2300 117.9000 118.2200 118.8200 119.1100 119.6500 119.9200 114.7300 120.6600 120.8900 121.3400 121.1900 121.9800 122.1800 107.9200 128.1000 122.9500 123.3000 123.4800 123.8200 112.5300 124.3000 124.4600 124.6100 125.7700 130.0900 112.4800 113.3900 115.1900 116.1000 126.3700 116.4500 104.4000 113.2000 104.7700 114.9100 127.4900
112.6900 111.8356 106.1628 111.2063 109.3507 108.3467 107.2881 106.2765 105.3818 104.7609 104.5851 104.9205 105.6303 106.5896 107.6562 108.1363 108.7801 110.5994 111.5840 112.1402 108.1918 96.2991 106.6291 106.2871 115.5084 115.8496 116.7405 116.9545 116.6314 118.2708 118.7274 119.0062 119.9639 119.1206 119.1721 120.6068 120.8677 121.2284 121.8742 122.3131 118.6045 121.5353 124.7153 122.8207 123.3419 123.0978 126.5772 129.2227 119.8040 117.2217 125.7985 121.8661 125.3865 117.5385 111.5132 113.8388 116.7899 119.2515 117.4371 112.7262 110.0524 113.4608 117.9884 127.4900
112.6900 111.7174 110.9495 109.5194 108.6186 107.3597 106.0394 104.6659 103.3490 102.3594 102.0675 102.6048 103.7389 105.0871 106.3522 107.9796 109.2000 110.0373 111.0090 113.5289 93.5460 91.3538 104.4684 119.2103 117.9595 117.4681 116.5882 116.5045 117.5370 118.1118 118.6392 119.1875 118.7448 120.0157 120.2760 120.5753 121.1707 121.3954 121.4141 122.0556 119.4447 122.1934 122.3749 122.5269 122.7196 127.8228 117.8771 121.8236 109.2141 108.3117 125.5020 113.8692 117.4594 116.4247 106.2932 107.3965 107.3318 109.1080 109.5276 110.3968 104.2821 108.7756 116.1809 105.1000
111.8500 111.2890 110.1958 109.1430 107.8995 106.4547 104.7854 102.9017 100.8675 99.1598 98.5177 99.6672 101.4888 103.5229 105.3263 106.8926 108.2812 109.5097 110.5375 113.6053 89.0756 91.3520 92.4985 99.5785 98.3011 115.9438 116.1029 117.2388 117.6161 118.0896 118.5478 118.3666 118.9533 119.7435 120.0801 120.3518 119.5203 120.7048 121.4998 121.7780 128.3238 122.9344 123.0329 126.2450 123.2944 114.9674 100.8990 103.0954 105.7045 107.9403 112.0872 109.1068 103.4453 110.3424 102.5063 102.9942 102.6141 103.2143 103.2773 103.9084 104.0781 102.9940 104.8105 105.1000
111.7700 111.0856 110.0184 108.7845 107.3476 105.6816 103.6626 101.1355 98.0704 93.7940 92.2395 95.0781 99.0800 101.9836 104.3251 106.2272 107.8147 109.1935 110.1826 109.9390 105.5542 96.5818 97.1524 90.8393 110.9685 116.8237 116.7723 116.9924 117.5301 117.9845 118.3633 123.3929 119.1700 119.9291 120.1825 121.8276 130.9324 120.0185 121.5274 122.0826 113.2908 123.2110 116.6514 117.4889 112.5139 102.7799 100.5842 102.6172 104.5524 104.8179 104.5104 104.6534 104.5076 104.7957 106.3560 102.1283 111.0983 102.6513 104.3930 104.4864 104.5273 112.5308 110.3170 122.6000
111.7200 110.9256 109.7607 108.4453 106.9807 105.1684 102.8860 99.7550 94.8935 88.3544 86.3752 89.7299 96.8936 100.8265 103.6443 105.7756 107.4848 108.9308 110.1550 110.1844 112.2817 110.4171 88.7192 114.3190 116.3562 108.1228 117.6522 116.9260 117.4994 117.9840 118.3106 119.9421 119.1468 119.5097 119.8535 124.8221 122.7914 121.3091 121.0946 119.8157 101.0735 123.1499 103.1153 114.6744 105.3454 103.7908 114.1054 104.9806 117.5179 119.8042 113.0500 125.8434 103.3953 125.2096 124.1919 101.0505 112.4886 112.4278 103.9045 104.3711 104.2438 106.0051 129.7248 130.1600
111.7100 110.8809 109.7450 108.5440 107.0539 105.0277 102.6404 99.3316 93.7358 85.8052 83.9455 87.9029 96.0543 100.4700 103.4491 105.6473 107.4038 108.8713 110.1151 111.3499 111.6292 110.2458 87.1295 115.0819 115.9596 106.9987 117.3851 116.9307 117.4800 117.9871 118.4686 118.6797 119.3444 120.1429 120.4626 125.7157 121.5615 121.3451 121.4155 118.7290 102.9615 104.4370 111.0305 115.7955 110.9969 104.3055 115.0628 119.3722 122.1510 105.7801 117.4177 110.9219 105.0909 114.7899 103.9893 107.0145 116.6744 113.6328 103.5858 104.4504 102.4875 127.7366 129.5975 130.4400
111.7200 110.9247 110.4242 103.6879 107.6290 105.2527 103.0443 100.0727 95.7729 89.6328 87.9095 90.9795 97.4426 101.0919 103.7875 105.8753 107.5537 108.9841 110.2068 111.4758 112.3182 112.7229 96.7487 115.9137 113.2459 116.1729 116.7032 116.9869 117.4922 118.0020 118.4966 118.4369 117.6908 113.7553 104.7160 102.4192 118.7437 120.4046 122.7555 107.7202 104.6093 100.4944 100.1923 100.2275 100.9496 101.3787 101.7685 101.9464 102.1394 104.7164 104.6926 104.1747 105.6126 105.4642 106.6248 112.9707 115.4122 102.2404 104.8660 111.0395 109.6325 109.1926 109.3463 110.9500
111.7700 111.1456 110.1072 108.9116 107.4458 105.8823 103.9553 101.5777 98.9418 95.4218 94.1820 96.6021 99.7385 102.3922 104.5803 106.3953 107.9245 109.2676 110.5320 109.5138 112.9218 113.1598 100.0763 99.9332 101.5360 116.4879 115.9128 117.0761 117.7126 118.0153 118.4676 118.9399 119.5952 120.0503 119.3316 110.1781 108.4090 112.2024 122.0370 105.7121 114.7424 100.0725 100.9894 101.0523 102.8692 101.4114 102.3930 107.7883 107.0146 113.1188 114.8305 116.6619 115.5278 108.5244 103.6104 103.2488 102.9754 102.6622 120.0197 120.7176 112.6263 110.1549 110.8733 113.2400
111.8600 111.4333 110.4224 109.3097 108.0876 106.6860 105.1414 103.3926 101.5840 100.1698 99.6399 100.5268 102.1432 103.9532 105.6306 107.1330 108.4687 109.7091 110.9948 103.9347 103.7244 112.5311 102.1535 104.8501 117.9312 117.5251 116.4612 117.2532 116.0959 118.2263 118.6072 119.1901 119.4769 109.5106 102.9035 114.8351 117.4558 117.9320 111.8925 109.2613 100.8000 99.8210 100.3552 100.7507 105.4653 101.4402 101.9266 102.5005 106.4604 101.2396 106.3309 110.6727 100.7925 102.8423 105.2240 110.3205 104.1507 103.9058 107.4206 107.4421 110.9600 111.7460 113.5965 105.0900
112.7000 111.7874 110.8763 109.8859 108.8061 107.6295 106.3830 105.1112 103.9492 103.0662 102.7845 103.2925 104.2717 105.5185 106.7712 107.9930 109.1377 110.2086 111.0615 113.4737 114.3114 114.6931 111.2004 115.1020 114.8305 115.9499 116.7197 117.2969 114.8132 118.2248 118.3813 118.3894 120.4670 120.2745 120.0690 111.9743 98.2619 107.8102 106.8431 107.0200 100.5437 101.4985 101.7281 101.0862 100.5663 100.5893 100.4926 100.9383 114.7460 102.7019 113.1753 103.6021 103.1109 104.8339 104.6107 109.1217 103.7942 103.9464 103.9861 103.9718 107.9116 109.5042 113.3623 105.0900
112.7000 112.2006 111.3753 110.5039 109.5753 108.6131 107.6301 106.6853 105.8732 105.3362 105.3278 105.4452 106.1030 106.9645 107.9303 108.9089 109.8568 110.7818 111.8701 108.3146 112.9854 114.2762 110.0421 114.3197 116.4487 116.4287 116.8787 117.3670 118.3077 118.7079 119.0636 122.7644 124.8365 127.6899 111.7231 104.0359 100.6567 113.4667 117.3048 100.2928 100.4239 99.6404 103.5318 104.6885 104.3259 104.2581 108.8634 108.7098 116.6198 105.3082 108.1394 103.4265 102.6210 103.1166 105.2655 105.5309 104.5693 104.0320 104.3296 104.3923 104.0782 103.7516 108.1551 105.1000
113.5300 112.7247 111.9544 111.1698 110.3754 109.5774 108.8010 108.0759 107.4972 107.0446 105.7737 107.3514 107.6436 108.2844 109.0322 109.8231 110.6363 111.3389 112.8891 111.0756 113.4432 115.2400 102.3238 109.1037 117.3797 116.4651 117.0125 117.4805 117.9923 117.9990 117.7276 110.4758 127.9243 121.8273 110.7113 113.3834 127.0285 111.0756 100.6171 113.2619 96.9942 108.7499 106.6292 111.0700 106.3535 107.1538 109.1842 118.7190 111.0711 106.7935 106.7545 102.4934 102.4554 111.7316 101.1045 102.6174 104.1704 106.1932 105.1419 105.5967 106.4231 107.4642 110.5894 105.1100
113.7000 113.0832 112.4393 111.8468 111.1614 110.5072 109.8746 109.3146 108.8809 108.5843 108.3556 108.6898 108.9909 109.4738 110.0512 110.7075 111.3635 112.0819 110.9633 111.9242 114.2754 114.1886 110.6817 114.3851 115.9894 116.7794 117.1992 117.7839 118.2493 117.6796 128.8733 124.3479 123.9016 107.4796 112.9264 115.2326 109.1864 111.0660 115.4338 106.1204 108.7972 118.0054 118.5662 113.5054 113.9355 115.4663 114.6107 117.3242 116.0312 115.8601 107.2986 105.9642 101.1178 108.9576 110.5689 115.2027 103.0376 111.1738 123.2062 122.7783 122.5918 126.9582 109.0684 108.8900
114.3400 115.0208 114.1206 112.3786 111.9343 111.3757 110.8679 110.4283 110.0875 109.8828 109.8346 109.9230 110.1773 110.5528 111.0165 111.5478 112.1015 112.8163 112.5591 114.0536 114.2863 114.7976 114.8178 116.4654 116.6519 116.9877 117.5503 116.6922 117.4037 125.1620 132.2312 113.4602 115.9565 115.7873 103.2750 105.4518 109.2623 110.4406 103.0412 99.2275 101.3668 103.7735 103.3444 117.9103 116.5426 117.0313 118.9832 119.3958 119.9797 120.7271 118.2395 116.6305 122.6029 106.8032 102.2570 106.6757 102.1706 111.8363 130.4604 129.0730 129.3994 133.7684 108.2845 114.4300
114.5200 109.0624 113.9263 113.0875 112.6723 112.2055 111.7819 111.4245 111.1607 110.9978 110.9561 111.0292 111.2285 111.5219 111.8990 112.3311 112.9134 112.8270 114.0085 114.3743 114.8328 115.4857 115.8362 116.2702 116.7909 117.2376 117.6978 117.8723 124.7715 113.4423 106.6467 112.9575 108.1620 109.7309 105.6578 107.5073 112.3641 114.0952 98.6978 98.9136 114.0809 111.7704 100.8938 105.1517 119.0505 120.9635 122.8037 117.7656 119.0325 121.0056 113.2882 122.4601 121.6808 116.4084 119.0760 113.5004 126.9436 127.8957 131.0472 129.1477 129.0692 132.1867 107.1092 105.1300
115.1100 114.7928 114.1897 113.6972 113.3826 112.9760 112.6280 112.3313 112.1141 111.9766 111.9445 112.0158 112.1638 112.4134 112.7448 113.0865 113.5892 114.1055 119.3845 114.2804 115.3925 115.7482 116.2174 116.6488 117.0264 117.6195 117.8975 118.3891 118.6547 117.8901 104.4415 103.7113 115.2401 112.0177 107.2394 107.8586 111.5032 113.5563 98.4548 100.4364 104.2395 114.9952 113.9550 112.7351 121.6980 118.0454 117.9893 118.5735 116.8455 103.1501 103.3364 103.6544 106.7643 107.7228 104.3467 104.9152 104.5348 122.3772 117.9756 123.9165 125.2790 130.0894 110.4407 114.8000
115.1700 115.1880 114.8170 114.4114 114.0388 113.6990 113.4058 113.1593 112.9782 112.8790 112.8536 112.8991 113.0240 113.2088 113.2837 113.7788 114.2212 114.4211 114.9729 115.4458 115.7257 116.1717 116.5859 116.9415 117.3705 117.8170 118.5705 116.2813 119.0876 120.8663 116.1456 122.3946 103.1355 108.3731 108.2655 114.1956 116.6893 109.8392 107.2467 106.0161 99.0282 112.9885 110.7069 110.1253 114.6989 116.1213 117.9179 121.7578 118.4482 115.8002 102.3034 103.2720 129.9446 104.9575 116.9641 103.0011 104.8419 118.3712 118.2284 119.3129 122.5169 121.4295 120.5217 119.6800
115.8400 115.6922 115.3008 114.9954 114.6754 114.3810 114.1253 113.9138 113.7780 113.6031 113.6053 113.6997 113.8007 113.9352 115.2175 113.7436 114.4716 115.5944 115.4871 115.8123 116.1936 116.5639 116.9667 117.2260 119.1708 114.4099 115.0198 114.3964 115.6269 111.6611 114.4045 118.4777 103.2649 98.7002 109.0018 112.3730 120.0365 103.5119 99.8163 99.7616 100.2064 105.8414 100.7396 101.4695 120.6862 118.8583 114.8950 113.2861 114.7295 115.0791 104.0138 102.7434 101.3992 102.9645 103.9075 104.0854 103.3335 125.6816 128.3917 133.7509 122.5698 122.9084 125.1090 125.0600
116.4000 116.2209 116.3202 115.5984 115.2892 115.0124 114.7993 114.6311 114.4413 114.8485 114.5791 114.4392 114.5198 114.6248 115.1218 111.6252 119.8683 115.5136 116.1908 116.1998 116.6379 116.9705 117.3393 117.5001 116.6159 109.0066 99.2664 100.6466 97.6684 97.5810 100.6100 97.2139 101.9174 108.1117 108.7871 104.7743 113.8674 110.3405 100.1122 100.3677 104.1307 104.3537 106.7001 105.8772 116.8015 122.9500 121.6920 122.6921 103.4623 100.5029 115.6388 100.6246 107.9117 104.1915 104.2568 103.6788 123.5502 116.8021 129.8154 127.5230 131.1697 137.0148 134.3099 133.0200
116.9500 116.4726 113.8248 116.3447 115.8306 115.6193 115.4261 115.1346 115.2849 111.7015 114.3626 115.1470 115.1856 115.2939 115.4402 111.6163 110.8017 109.9296 101.7620 116.5627 116.9613 117.3538 117.7451 118.0178 121.8280 103.6571 99.5323 99.0832 98.5725 98.6694 97.5800 99.7644 107.7701 102.6275 99.5041 105.1355 112.3635 107.6355 100.5004 101.4554 116.7941 115.1986 116.3662 110.6149 102.8879 103.7915 114.6804 119.7555 116.7980 105.1904 103.6159 107.3250 119.1915 110.9251 103.4560 105.8723 125.8246 114.1948 117.1823 126.4766 120.8887 122.6790 128.3113 135.0100
114.8300 112.7390 114.7989 116.5671 116.3749 116.1856 116.0211 115.8023 115.3936 116.9831 120.1247 115.4703 115.8222 115.9516 115.7042 118.9361 102.5556 97.2477 106.0946 118.4270 117.3155 117.7922 117.9757 118.5701 118.0416 114.7008 108.2787 100.2727 100.7710 99.7164 99.6253 99.8538 100.2532 115.4723 108.9503 105.4713 105.6533 117.8085 104.9191 107.8891 107.9660 112.4391 115.4938 117.6708 110.8182 114.2681 109.7303 102.5201 109.1969 103.7465 119.1708 115.2664 112.2467 102.6821 104.2121 107.0490 111.6311 107.2257 127.1245 126.4351 137.4937 121.5958 119.4458 122.4900
95.5900 91.4936 118.1222 117.0026 116.8908 116.7264 116.5950 116.0564 116.3050 109.5553 118.9464 116.6206 116.3814 116.5225 116.3619 113.0043 108.4386 94.8006 111.4231 117.5215 117.9608 118.1212 118.5034 117.5840 118.1988 132.4599 120.5846 101.8786 100.8819 99.5648 99.3393 102.1694 100.9992 104.1295 108.3039 105.4012 102.4909 105.9323 106.1833 116.0004 111.3716 109.1020 109.5865 116.0755 118.8823 117.2592 119.9963 115.0757 109.8285 109.9999 107.7065 104.1772 109.5430 104.0132 102.5582 102.2394 102.3169 101.0195 106.4938 112.0029 124.6693 129.4208 122.1861 122.4900
96.3900 111.9479 116.8543 117.5595 117.3787 117.2255 117.1510 116.3121 116.3475 95.5217 97.6602 118.5982 116.7751 117.0325 116.9299 116.8081 117.0345 97.5358 120.6598 117.8778 118.2529 118.4786 118.8092 119.3489 121.5297 110.6437 110.0338 101.5621 103.1952 103.9578 120.5507 102.1856 103.2490 109.3850 102.4423 102.1025 99.0263 110.8562 107.8334 104.2934 107.4836 116.8477 109.1877 112.2983 102.7652 119.1862 119.1930 118.7002 120.5604 119.1308 118.1330 121.6007 103.2611 105.9524 107.5017 111.2937 101.7453 118.5825 122.8098 129.5103 105.6250 105.7265 114.7773 119.3500
96.3900 112.9422 117.9780 118.2373 117.9368 117.7596 117.5764 117.1355 116.6162 95.2599 98.9776 119.0020 117.2931 117.4874 117.6373 117.5043 119.3893 102.7252 124.7369 118.4129 118.7302 118.8879 118.8173 123.9547 110.5216 105.4229 107.6320 104.9846 101.1811 100.5279 98.6191 106.0130 105.6235 110.9409 101.9890 102.0695 99.8939 108.6164 113.2426 113.6406 109.4105 106.8318 116.8415 116.5412 114.9230 109.4063 105.5864 121.7303 118.8115 119.4701 124.1627 127.2319 122.6387 124.9050 104.6932 111.3832 119.7085 110.5641 125.2767 127.9643 123.3188 126.6003 128.0404 127.2300
96.8200 118.0403 118.4968 117.8400 116.6109 118.0207 117.8162 114.5443 119.1690 107.1261 95.1600 120.3252 117.6424 117.9850 118.1076 118.8195 117.9483 118.8315 110.0871 118.6345 119.0291 119.2260 119.3203 120.7120 104.3550 105.5041 101.0929 100.4317 105.1240 122.5452 101.1635 109.7304 105.3373 103.2692 100.1203 100.3060 103.6762 105.8483 108.2556 104.9765 115.8432 114.0182 105.7186 107.7336 117.5190 114.4984 113.6628 110.5547 112.6850 126.6145 115.8861 112.7391 119.9842 123.9302 125.1999 128.7948 106.0621 104.7996 117.3522 117.5281 121.1987 129.1173 128.0621 135.9200
119.2300 118.9812 119.1847 111.1284 118.5378 118.7139 114.0885 114.9744 113.2957 97.1416 103.9468 102.6350 118.6170 118.4277 118.5642 118.6619 119.9571 119.0210 118.8358 119.3232 119.3940 119.5404 119.4317 122.4460 109.8340 105.0863 102.9686 104.1619 102.5732 102.6543 108.5530 111.4730 112.6095 104.5431 100.1816 100.1438 100.9981 108.3255 103.0673 103.7482 112.5148 110.4302 118.1976 104.9072 106.7097 115.0022 117.4614 117.3256 113.1581 116.7675 112.4900 129.3123 121.1833 121.3434 123.1736 123.7450 130.8887 132.3788 122.1754 117.3101 116.7285 119.7870 125.0571 123.9700
119.6200 119.5364 119.6150 119.6385 119.4903 110.8968 118.5870 103.6266 106.6481 102.7446 107.1151 121.2362 119.0896 118.8775 118.9469 119.4272 119.1211 119.1559 119.4164 119.5496 119.5693 120.8220 119.7359 118.7091 109.2235 102.4598 111.7308 106.8294 104.0140 106.6760 111.2741 105.6965 106.3983 108.0681 111.1916 99.0281 106.9308 108.0358 108.1255 108.2433 108.7290 109.4044 106.2026 117.8742 116.9335 116.2955 106.0694 118.0987 114.6122 111.5535 103.0213 103.6054 118.5953 122.8559 123.5409 122.9020 123.6561 123.7700 130.2044 130.5305 125.6034 124.4859 125.1640 125.6500
119.9700 119.9152 119.7199 119.5421 119.6093 114.9801 118.7125 112.3813 107.3457 99.4412 106.5169 120.6567 118.9126 119.2666 119.3564 119.3934 119.5360 119.6860 119.7638 119.6574 119.4157 117.8213 104.5816 110.7997 110.6706 103.8841 105.9048 118.8682 106.4935 104.2955 99.9545 100.8257 108.4928 117.3089 104.6871 101.7756 104.0731 109.0230 108.9251 117.6520 115.8003 109.7922 117.4007 118.9103 117.8971 119.6750 104.1624 111.8201 117.6698 103.9243 104.9433 116.1902 111.8360 107.7313 122.4274 121.9558 123.9194 124.6256 124.8983 124.3304 131.6250 132.2980 126.6833 124.5000
120.3000 120.2161 120.1134 119.9582 118.5525 118.9234 120.3221 104.7111 103.0734 120.1662 120.8902 120.2988 119.5817 119.6852 119.7558 119.8130 119.9162 120.0177 120.0158 121.7318 120.1574 126.5611 109.5310 114.6712 98.7335 103.2712 101.7414 116.5138 116.2894 109.2765 107.6355 108.7465 110.2983 111.6360 106.4088 107.8244 100.9786 104.6386 109.7966 112.9833 119.7042 118.8936 119.8200 116.4910 119.1023 112.0781 112.0038 105.2706 101.9713 103.8972 120.2102 102.5715 111.1380 121.3944 109.8808 107.1818 119.7966 122.2803 125.2773 125.8250 125.6967 125.0198 132.7720 134.8300
120.6800 120.5699 120.4372 120.2772 120.2758 121.2303 120.4349 116.9660 107.3408 112.8559 119.7553 119.7957 120.3329 120.1529 120.0382 120.2459 120.2568 120.3714 120.3214 118.8791 108.2678 118.4299 108.7330 101.6145 109.9963 118.3872 105.5265 108.1919 115.6802 112.3758 107.8495 104.2341 107.4852 111.1105 108.6754 100.0312 109.7318 115.5167 114.0515 110.8259 111.6043 115.9764 119.9724 121.0466 111.5091 103.5964 102.9012 112.1734 102.7417 103.3203 101.2108 101.8005 116.2945 104.5029 113.9256 126.2430 113.1625 108.8499 116.0641 127.2349 130.0593 128.8953 124.2426 127.2100
121.0000 120.8670 120.7990 120.6013 118.3605 109.5124 117.9610 121.4844 115.1138 120.0312 120.6573 120.6456 118.9692 114.9979 121.3530 120.2932 120.6627 120.7064 120.4421 121.7458 120.9080 101.9804 104.0947 112.4391 101.0529 104.0378 112.6027 106.1177 112.1728 108.8296 110.0904 110.1140 106.3683 109.3546 103.4272 101.1254 114.7517 118.4090 119.6995 116.6105 122.5862 121.1199 118.1081 105.8433 107.4867 105.6747 109.4254 103.0167 103.8183 103.9175 104.2337 104.5487 103.1279 110.1879 120.3131 121.2852 125.7678 115.0956 114.9635 116.9171 124.7793 115.6210 131.4566 127.4100
121.3100 121.2137 120.8978 121.4961 120.3398 103.0760 100.7225 121.9775 122.6181 112.2435 121.0114 115.1060 120.9860 98.2415 115.7878 120.8778 121.0056 121.2420 121.1031 121.3243 121.3730 123.9536 103.2388 106.4567 97.9745 110.8483 100.1205 110.6951 113.8164 113.1862 118.5087 113.5140 102.9374 107.3340 104.0711 100.9943 110.3203 103.5648 120.8765 120.2576 111.7857 108.8620 112.5712 108.4521 102.5574 105.7151 106.4569 103.8447 104.0722 104.0157 104.1493 104.1091 104.5350 102.7518 105.0847 108.6600 119.7773 125.2623 125.3311 117.8463 113.9408 122.3280 120.8369 127.4100
121.6100 121.1018 120.9998 121.4762 101.8401 101.2906 98.7031 118.1310 105.2943 114.8374 122.4081 100.8820 119.0402 121.1507 122.4172 121.1746 121.3016 118.7335 121.9499 121.0483 126.6893 113.4489 103.4212 107.8765 112.3742 108.0459 108.8223 114.4766 99.5548 106.2055 104.1163 114.9809 108.9699 101.3255 103.2383 110.5555 117.2315 108.8450 116.2231 119.8475 115.0478 107.0344 104.1279 103.9983 104.9361 106.5891 103.7747 103.6808 103.9373 104.0974 104.6565 105.2010 104.0771 116.0048 116.1744 104.6666 109.5948 119.7692 126.4413 125.3607 127.1161 105.3607 114.6960 112.3300
121.9000 122.7558 124.5613 124.3432 105.9785 103.7063 110.6816 113.3710 110.8606 107.1182 121.9757 105.9035 121.9121 121.1605 121.1401 121.4072 122.0091 118.3692 118.4970 121.5696 126.5191 102.1427 110.5991 106.1640 110.8351 120.2366 102.6063 106.4155 118.6018 111.5851 106.2208 112.4354 112.8884 111.1446 101.4233 106.5582 107.8819 113.5904 110.5036 120.1326 121.2323 124.0519 100.1247 102.2460 103.3651 105.4331 103.8572 103.8263 103.9760 104.6696 104.8770 105.5795 105.9719 114.7095 129.0113 101.1874 101.2469 106.3630 113.0016 124.9328 127.1672 125.5206 126.8512 126.9300
122.1800 122.1561 106.1764 117.9201 116.9335 98.5404 125.2047 111.4088 122.6083 121.5101 121.6836 120.8816 121.7747 121.7143 121.8526 121.8568 121.6670 119.1823 110.6630 122.5389 122.7199 121.5241 125.7794 105.2849 107.8385 112.2803 109.8264 112.5678 111.0060 114.1613 101.0369 113.9917 113.1736 117.4235 99.9072 110.1007 108.8324 114.4369 115.4540 120.3658 121.7851 114.6940 121.4883 117.7798 103.3430 104.0899 108.2860 103.9737 104.2892 104.9640 105.4326 104.9624 105.9321 106.1977 111.8529 126.1903 123.4475 122.9485 101.5429 104.6462 112.5164 130.1643 128.1989 127.0200
110.9100 114.6068 121.0706 111.7968 101.2956 99.9580 123.4122 122.1091 121.6298 121.8879 121.9880 121.9541 121.9895 122.1247 122.0523 122.1521 121.8324 122.7009 122.4866 120.7689 122.7313 122.3837 123.2324 113.9119 114.1482 108.7337 103.7452 108.7288 100.4569 111.4207 104.0106 116.2012 114.3489 114.4436 114.9095 116.7793 114.3301 105.3764 113.9603 117.7635 112.9552 116.7728 118.8202 110.1337 102.9253 104.2346 105.6112 103.6274 104.2901 105.3328 105.6216 105.9866 106.1314 106.4100 106.7251 106.2297 109.7025 129.4340 129.6053 106.8289 125.2075 110.8300 115.0861 127.9100
116.4900 98.4054 100.6215 109.6813 112.9530 100.2674 122.4144 122.0811 122.3671 122.2934 122.2755 122.3077 122.3196 122.3175 122.3459 122.3927 122.4627 122.3849 122.7558 122.0738 122.7942 122.8803 123.4973 113.4393 116.8207 115.1246 100.2812 108.0851 110.5326 108.8329 110.8842 113.6906 115.0479 115.0586 116.1086 117.5094 115.8126 115.2148 115.9814 115.7817 118.1648 121.3021 113.3757 104.9749 109.4989 103.3449 104.1124 104.7175 105.2163 104.7510 105.7492 106.1255 105.9252 106.5743 107.1289 108.1219 108.5476 108.6684 128.5363 126.3508 130.7528 109.4306 109.6984 114.1500
122.9700 120.4864 99.3649 99.9342 101.8877 116.6507 122.8709 122.7453 122.5746 122.5686 122.5544 122.5479 122.5648 122.5977 122.6309 122.6728 122.7131 122.7899 122.8467 122.7437 123.8578 122.8773 122.9577 124.6583 108.4720 116.7772 99.9044 119.2260 120.5042 113.7538 123.6309 116.0576 115.4513 116.2073 116.0070 116.9480 118.6995 117.7155 117.7397 115.4716 114.3948 121.1022 118.2530 104.0336 103.8044 104.1450 104.1447 105.3501 105.9560 106.1176 105.6492 105.9852 106.8512 107.4308 107.1242 108.3184 108.8774 109.3290 108.4173 125.0749 128.0841 129.0726 130.2453 129.6100
123.2100 124.8678 98.8395 101.1944 104.6089 117.8154 122.3522 122.7100 122.7305 122.8421 122.8558 122.8407 122.8503 122.8709 122.9028 122.9399 122.9790 123.0335 123.2144 123.3538 116.5902 122.9581 119.7115 123.2099 122.0854 120.2820 111.8968 117.8530 122.5360 118.2328 109.7771 116.0186 104.0555 111.5078 117.2198 117.3089 119.0954 118.7946 116.7637 111.0357 107.9516 117.4050 103.7590 103.9482 104.0857 104.3251 104.3794 104.6531 106.0250 106.0490 106.5885 106.4549 107.0841 107.8231 108.4052 107.5927 109.4849 109.7452 110.6939 110.1151 121.5518 126.6110 125.4918 129.6400
123.4500 123.6451 102.3679 100.5771 107.8483 118.2933 123.5591 123.8953 123.1270 123.1444 122.9601 123.0996 123.1148 123.1327 123.1614 123.1985 123.2396 123.2937 123.3590 122.3976 120.6901 122.0564 123.5717 123.5820 124.6595 122.5600 121.5815 120.5528 120.4102 127.2895 115.7035 106.0872 99.1322 102.6253 111.6617 117.8670 118.3167 119.8566 112.0535 115.2818 112.1012 114.4315 117.8797 103.5520 104.3238 104.2994 104.2028 104.6887 104.6669 109.0620 107.7037 107.9659 107.8195 108.0862 108.6995 109.4165 108.6055 111.3899 110.7064 111.7604 110.5419 109.3559 103.6488 113.2600
123.6900 126.3343 110.2056 102.1854 107.7611 105.2305 122.4109 113.3428 123.3821 123.5725 123.7972 123.3460 123.3738 123.3953 123.4128 123.4547 123.4972 123.5293 123.6589 123.5343 119.6013 106.5197 124.8667 123.6336 124.2317 116.5996 120.3751 117.9999 122.0791 126.7700 115.9285 113.6567 126.3896 116.2670 103.2463 119.3567 118.9210 119.3310 121.7418 122.4063 108.8997 107.0757 103.8455 103.9167 104.2557 107.1137 105.2932 104.7152 104.8420 102.4702 106.6757 108.2886 108.6106 108.5075 108.7395 109.5281 110.1703 111.8291 111.6397 112.9105 116.4683 114.4245 109.9343 113.2600
123.9100 122.8960 104.4907 106.4607 111.4532 123.3574 123.3150 124.0393 123.3256 121.4780 122.8370 123.4393 123.6279 123.6360 123.6828 123.7251 123.6780 123.7805 123.4553 123.9870 109.3234 113.6778 131.2694 123.4215 125.5579 124.9568 122.9936 118.6631 123.3272 111.4413 112.4296 113.2236 107.6958 106.6353 102.5582 106.5784 119.0830 119.5513 121.4337 118.9250 109.9006 116.0715 103.4257 104.6237 104.0615 108.8206 104.6334 104.9813 105.7356 105.7563 105.1070 107.3404 108.2360 109.2215 109.6602 109.6350 110.5083 110.0873 117.9167 114.2648 111.4603 109.1632 108.8276 113.9900
124.1300 125.7409 114.0557 108.5324 110.4592 123.8051 120.4017 112.8727 124.0830 120.7592 123.7397 123.8623 123.8758 123.8888 123.7311 123.6595 124.2183 123.9898 125.6314 124.6720 110.7709 121.7861 124.7129 120.8854 126.0139 125.3146 126.4648 124.6650 124.5159 124.1899 120.9910 103.7088 119.2492 109.1082 102.2423 107.1736 115.8869 120.3629 120.7315 108.7098 103.8764 106.1589 108.6124 104.4001 103.7608 112.6918 115.4400 99.3737 106.9636 105.0435 106.4424 105.0233 105.4092 110.9290 110.3853 110.3915 110.6346 110.7832 116.6944 109.9597 109.0272 112.3127 112.1714 106.8200
124.3500 125.0316 119.8789 124.7088 124.3215 124.4208 124.8002 124.5798 124.1019 124.4706 124.0970 124.0469 124.1010 124.0940 124.9156 125.9603 124.0464 125.5661 118.8583 108.3150 122.5199 121.4194 106.5316 122.2073 123.1307 115.0223 125.6682 123.2582 126.0004 123.0888 119.9989 105.0958 111.4173 109.9787 104.8112 106.5931 107.9354 111.9005 122.6697 108.4520 104.4833 104.2617 103.0471 104.6223 105.3922 119.1310 125.3042 124.7585 123.0438 105.6098 107.4814 107.3610 103.5903 105.4907 111.0349 110.9867 111.1710 111.3935 111.0960 109.8153 105.7268 109.2368 113.4166 106.9400
126.9200 118.9027 120.1303 110.6538 114.4531 125.4570 124.1097 124.2336 124.3227 124.2973 124.3100 124.3254 124.3240 124.2491 124.0192 109.7400 123.2562 126.3846 119.1073 123.9948 123.5250 112.8183 113.9808 108.4525 104.8983 107.0642 121.4253 104.4557 122.4930 117.9355 119.5668 117.6820 104.4861 114.1482 103.4231 103.0619 104.4985 105.2981 113.4668 102.2054 103.3041 116.7848 105.6697 104.6351 105.1185 108.0629 120.9949 118.6731 105.4591 104.9341 105.8071 107.7286 110.6302 126.3669 105.9070 112.0824 111.5627 112.3686 113.0104 107.9664 111.4474 110.8432 106.9172 106.9700
124.7600 119.5178 119.3044 112.4122 112.2140 125.4386 124.7022 124.5326 124.5495 124.5389 124.5552 124.5591 124.5461 124.4014 126.3072 115.8233 124.1741 111.3975 107.6942 124.6422 125.4162 113.5001 108.5827 105.6260 119.8640 121.4032 120.8171 119.3308 101.7940 122.3982 120.0778 116.6283 103.3404 107.9062 107.6376 104.0102 104.7448 106.7864 108.2073 104.0421 104.5786 107.5135 103.4672 105.2840 105.0987 104.3242 117.8478 109.2267 106.4271 105.8231 105.3341 108.1623 107.1999 130.8389 111.6815 112.2782 113.1475 112.9315 113.2362 111.8411 113.6663 114.8670 113.9537 107.0900
107.0300 120.1096 104.1847 123.2398 124.8829 124.8041 124.7782 125.0499 124.7801 124.7915 124.8849 124.7693 124.7959 124.5343 126.2135 116.6356 126.4102 121.1667 104.1551 124.5594 126.4126 111.9484 115.4936 108.6017 127.1673 119.7101 126.2221 127.1889 110.7160 128.4268 128.6130 110.4994 103.4290 103.4932 104.0821 104.4987 104.0446 106.4445 108.7998 115.3471 120.1435 102.5063 104.4699 105.8847 104.4817 104.8463 106.2815 112.3769 106.4933 105.5804 105.8806 106.8786 110.8002 132.5364 109.6364 107.6596 107.7529 113.3206 113.3418 114.3100 106.3414 114.9408 115.2657 115.6700
125.1600 120.4527 113.8375 111.0588 126.1198 124.7892 125.0365 122.9895 125.0447 124.8369 124.5610 124.1338 124.8445 128.6354 118.4975 110.6111 122.4256 104.0996 112.2211 118.3963 127.9687 112.4245 114.5155 106.5174 127.2342 121.2292 125.9765 125.7558 125.9336 113.4665 106.3775 114.4972 102.8917 104.2857 105.0106 104.0913 104.9441 122.8525 123.6276 111.0901 122.7018 125.8666 105.0049 105.7285 104.4191 106.9927 125.8669 122.8422 114.3478 105.1374 105.7467 106.2546 103.1242 124.5907 124.2349 131.7584 132.3412 132.9348 113.5421 114.6575 114.7397 115.3891 115.5208 124.5700
125.3500 125.3993 122.0449 126.1236 124.9433 125.2594 124.4475 124.6166 125.0531 124.8228 125.5522 111.4799 125.9336 122.9161 114.5304 102.2681 112.2077 118.4415 105.7378 115.3860 118.9438 113.6489 112.9419 113.5722 124.3830 122.2875 116.4200 123.4324 123.9068 128.5049 128.3351 115.3443 106.1262 104.1044 104.9529 104.6188 102.1477 123.7149 110.0729 107.4337 122.3149 123.1057 113.3145 117.6256 106.7667 104.1885 126.1648 123.3570 123.8861 110.7157 107.7938 108.7224 108.4502 119.6503 123.8281 131.9855 130.4109 133.5302 123.3031 118.0375 115.8283 115.3096 116.2419 115.8300
125.5400 125.0716 125.7725 125.2450 125.5063 125.5246 125.0999 126.2555 125.3839 125.2464 126.0248 127.2002 125.5842 119.2061 122.2170 112.7496 111.7560 129.6385 116.4660 125.1814 113.9196 124.6195 116.2026 114.0128 121.4943 116.7158 124.5286 127.6553 133.1687 117.8855 111.2437 101.2413 106.1096 105.0554 106.4386 105.2733 104.4676 108.8752 106.5321 124.8067 126.7812 123.5174 108.4717 105.3833 104.2003 114.3332 126.9775 125.0438 124.1741 110.0488 126.4833 125.8557 122.7908 117.0387 129.9324 132.0470 127.1173 127.6919 121.0177 134.0579 122.0443 117.0683 116.4715 116.5000
114.9300 125.6090 125.5683 125.7473 125.7235 124.9239 126.1619 115.3610 125.8089 125.5037 125.9108 121.4976 125.3020 121.5880 108.7310 111.0169 113.6921 129.0687 122.9816 114.9386 117.7082 112.2992 110.0325 112.5603 121.4655 113.6487 125.4224 111.0511 110.7879 112.0176 103.6813 103.1454 123.2050 133.6772 111.7731 106.6223 104.7094 113.2140 111.0728 113.1124 108.5635 112.0425 106.2884 105.5098 101.5628 114.5240 127.2825 126.2924 128.8676 126.1966 127.7743 126.2303 123.3681 129.9041 127.9905 115.1429 109.0280 133.8528 138.5379 132.0674 125.0936 112.2124 112.2063 117.3700
125.9000 125.9146 125.9294 125.8689 125.6068 128.0427 102.8929 127.4908 125.5959 125.5077 126.0206 112.5783 126.4999 127.2712 132.4664 112.6643 108.7795 116.2624 122.4839 119.9210 116.2800 113.6233 107.6473 112.6794 112.0513 108.6271 115.7301 102.6138 113.3977 130.5075 104.1885 125.9122 128.7215 125.0954 124.0645 106.2892 107.2403 114.1962 114.4687 122.1664 113.8515 115.7671 104.8751 104.9412 128.6950 127.3037 126.8902 113.0670 126.8149 128.4783 127.0408 126.0665 114.4212 124.3785 128.9423 113.6712 117.3159 114.3852 127.1698 131.8502 137.5400 123.3961 120.0828 117.3700
126.2400 126.1626 126.1022 126.0937 125.9540 127.0516 126.1836 125.8916 126.0500 125.7414 126.0234 123.1188 126.6336 124.4802 120.2101 113.8588 119.9118 122.1410 115.4417 115.1766 111.0149 105.7608 102.6043 112.4596 122.6950 105.6937 116.9361 103.6545 104.4687 112.8550 116.5945 105.1599 123.8857 122.0816 133.4009 106.1671 109.0800 108.6611 112.2152 105.7775 117.8583 105.6945 106.2456 105.0116 126.0986 127.8438 128.0433 129.7805 129.0655 127.4292 125.5655 127.9900 128.8206 130.3178 126.5152 132.0569 119.6483 115.7817 129.1836 133.4712 132.5348 135.1675 119.9537 107.6700
126.4100 126.3039 125.8305 126.2491 126.1338 125.9734 126.0502 126.2200 126.1778 126.2523 126.3134 126.4956 126.3119 126.8826 119.0975 115.4425 116.1430 121.4056 115.8417 118.1325 109.6344 107.3177 103.3836 105.1619 109.0412 111.5909 125.3109 107.4848 104.6750 109.7679 120.9270 106.6342 129.9790 134.8203 126.1723 106.2426 109.6244 104.8942 110.5451 105.7627 104.7238 111.4454 107.8183 105.9987 109.2050 127.1895 128.4690 128.5673 129.3006 128.0012 129.0213 125.9807 130.0106 125.5821 123.4222 125.6813 118.6865 119.2143 129.8636 133.2560 134.5640 121.1631 127.7525 107.7700
126.5700 126.5072 126.5274 126.5200 126.4146 126.4642 126.4090 126.3830 126.3599 124.4913 126.1360 126.1649 126.4015 126.8886 119.0887 118.0458 113.8464 119.6761 115.2680 107.8301 102.9868 122.5847 102.3723 108.6061 116.7916 108.5908 121.9289 110.8108 105.1163 102.7182 122.6837 112.2155 103.7646 124.9331 122.2963 115.2169 115.8643 104.8124 107.1320 105.4012 107.2083 105.1635 104.4057 124.1615 121.5881 127.6223 128.4560 129.0771 129.2619 129.7794 129.9497 129.3873 130.0128 127.2158 131.1920 128.0140 131.7277 134.0575 131.7347 131.7718 134.8240 121.0891 115.6068 134.7000
126.7400 126.6785 125.2084 125.7821 126.5637 126.5700 126.5469 126.5595 126.5384 126.3780 126.5431 126.4280 126.6664 127.2213 116.8003 122.8682 114.5193 119.9666 116.2362 111.9961 114.8001 125.0683 102.4937 114.6344 124.7455 118.0845 103.6009 108.7283 104.7959 105.4391 110.6219 114.5185 103.4926 135.8029 120.1863 103.4933 103.1145 107.4513 110.1400 108.9016 110.9026 106.8388 110.4782 117.3980 121.7851 123.2948 127.4273 129.8729 129.5880 129.8150 130.5243 127.9751 128.2048 107.2508 129.8161 129.3036 130.2470 130.4818 130.6225 133.8817 134.1310 133.2918 131.6360 107.9200
126.9000 126.8352 126.9014 126.8259 126.7601 126.7527 126.7372 126.7253 126.7004 126.7191 126.7454 126.4786 128.1884 112.9590 119.4757 119.8879 114.3087 120.9414 117.6964 117.6017 117.1063 115.6909 103.7933 106.0979 106.2747 115.1684 114.6515 110.4549 105.4414 105.8965 104.0266 120.5894 106.7410 128.0324 115.5052 133.8048 125.2119 119.6015 109.9544 111.8023 109.7064 106.3685 116.0857 117.1424 123.9685 111.4878 122.0028 128.2351 130.1019 130.0054 130.5401 130.8709 129.6069 129.0089 129.8259 129.8115 131.6662 130.8175 130.2899 114.0344 107.5709 125.6861 139.7282 107.9300
127.0600 126.9869 126.9474 126.9541 126.9395 126.9152 126.9099 126.9064 126.8949 126.7655 126.6392 127.6857 123.0443 112.1595 116.7573 128.4911 124.6058 106.8543 114.2598 118.1779 113.4395 112.6302 103.4635 110.7122 105.3556 106.9758 108.0798 111.9412 106.1030 118.6604 105.6104 110.8675 126.8069 106.1099 117.3037 135.4137 136.0612 130.1544 109.7330 111.6494 110.4991 105.9954 107.3112 108.7905 130.2256 128.1140 128.8720 128.0206 130.2230 130.4498 130.7324 130.8290 129.7475 129.3198 129.3663 130.7653 131.2562 133.0724 116.2674 131.0171 133.7336 105.3615 108.6865 111.5100
127.2100 127.1787 127.1561 127.1260 127.1040 127.0907 127.0403 127.0299 127.0610 126.6966 127.7241 110.1275 104.7627 118.3833 117.4260 115.0626 116.1612 116.6795 112.2249 118.3108 117.2208 109.5877 105.4282 104.8059 105.1173 105.4662 104.7807 112.0926 105.4729 116.4319 112.4459 106.4814 118.7630 102.9035 127.6149 135.5415 135.9550 125.9614 107.6258 111.9800 111.2431 106.4242 106.4926 105.0612 116.4014 124.1983 130.7001 129.7859 130.3200 130.0533 131.1762 129.8366 131.4282 131.7244 130.6607 128.2537 131.9171 131.9664 132.1029 137.0910 131.6882 138.4148 108.5642 108.1600
127.3600 127.3309 127.3070 127.2880 127.2705 127.2311 127.4105 127.3709 127.2175 127.1193 127.1291 126.3315 113.4076 115.9216 117.0222 117.4504 116.2421 118.5417 112.1595 119.4806 120.3463 106.4444 105.7545 105.4361 105.5750 105.5243 105.7390 106.7215 116.4750 107.1164 119.0763 124.6762 112.9770 113.8429 119.0512 137.3181 137.7040 109.6470 106.1507 114.3730 112.4959 107.1692 106.9199 105.8286 106.4742 118.5573 118.2539 131.4750 125.2205 130.4091 131.9489 130.7813 131.6695 131.3762 134.0238 107.0291 128.7571 132.6586 133.0299 131.3421 135.4795 120.5476 104.9127 108.1900
127.5100 127.4938 127.4673 127.4473 127.4173 127.5347 126.4584 126.8279 127.3840 127.4532 127.3710 127.1908 129.1713 122.3022 116.6355 104.7922 105.1724 115.2181 109.3218 120.8398 121.6421 106.5207 105.9343 106.3206 105.4947 105.7558 105.9092 104.1673 117.2252 115.6696 122.2162 125.9721 120.9693 114.6435 102.6816 127.9434 130.1467 122.7613 130.8586 129.3431 111.6665 113.2887 108.8184 108.3255 113.3653 121.4886 128.6756 117.1714 111.3815 132.0832 129.6645 131.5005 131.5759 131.2601 133.4259 133.1812 134.8945 138.3493 134.8330 134.2579 131.5630 105.8693 109.0116 108.3000
127.6500 127.6444 127.6255 127.6004 127.7892 126.0500 138.8830 126.0990 127.5572 127.5175 127.5695 127.4816 126.8163 114.8874 105.6129 105.0305 109.6563 110.6428 103.7089 123.0833 121.7795 106.9158 109.1840 106.7970 105.6660 105.8826 105.9768 105.5133 118.7699 123.7457 108.1856 118.9922 108.9599 115.7713 104.1948 115.2801 135.2594 133.9479 117.6912 129.6863 118.1475 114.1184 107.0983 106.8430 112.5245 130.0958 128.6231 130.2848 129.0299 131.9964 130.8864 131.6020 132.4829 134.0575 127.3070 131.3797 129.2897 114.1040 135.4359 125.1702 114.4370 107.1188 110.7333 108.4300
127.8000 127.8000 127.6900 127.7000 127.7100 127.7200 127.7200 127.6000 127.6000 127.6100 127.6100 127.6000 127.6000 115.1100 105.7200 105.7200 105.7100 105.7000 105.6900 122.6800 113.3300 105.7600 105.8900 107.3000 105.9500 105.9500 106.0300 106.0300 107.0900 119.2400 115.1800 112.0700 112.0700 119.3500 120.3500 131.8900 131.8900 137.3400 128.9100 129.1300 116.0100 114.2300 114.8600 106.9600 113.1000 119.3300 129.3400 129.7100 130.2000 131.1400 131.7100 131.8400 132.6600 133.0500 110.9600 133.9300 133.3400 133.6000 133.6700 108.1400 108.2200 108.2900 108.3600 108.4300
