113.2500 112.6800 117.3600 110.7200 110.0100 109.2100 107.5400 107.5400 105.0800 105.3100 103.8000 103.8900 103.7000 105.4100 106.4600 104.5500 108.3400 109.2300 110.0900 111.5000 110.1500 99.0400 95.9600 95.1800 115.2100 115.6300 116.0400 116.8100 117.1700 117.8500 118.1700 118.7800 119.0700 119.3500 115.0800 118.1700 120.6300 120.8600 120.8200 125.0900 121.7500 102.5400 123.6200 122.7400 122.9300 123.2900 127.4600 104.8700 123.9700 124.2900 124.4400 124.3400 114.2800 114.7100 112.4000 116.0500 119.8700 119.2100 118.9500 104.2600 116.1700 113.6100 113.1600 125.3900
113.2500 112.5476 112.7331 110.4428 109.5955 108.5707 107.3618 106.0268 104.6583 103.3529 102.3707 102.0822 102.6459 103.7530 105.3061 105.8759 107.8299 109.0020 110.0294 110.5452 109.3427 107.6224 97.3749 108.1212 115.1064 115.5650 116.1391 116.8733 115.1174 117.9304 118.1683 118.6771 116.5546 123.2122 117.4774 119.8507 120.5447 120.9748 120.8863 123.0762 120.1531 114.0528 125.0659 123.0316 122.9936 122.7956 131.2454 122.6442 118.0618 117.7796 126.9316 118.7106 122.8635 110.5837 109.3996 114.6716 116.5274 117.9837 111.8458 111.6493 106.4271 115.5676 114.5910 113.9300
113.1400 112.2661 111.3311 110.4622 109.1218 107.8962 106.4350 104.7798 102.9089 100.8954 99.1809 98.5876 99.6715 101.5637 103.5312 105.4556 106.8783 108.3276 110.0602 105.1754 107.6798 102.2983 101.0731 115.8956 114.6548 115.4359 115.9924 116.7032 115.7737 117.6474 118.0601 119.0172 117.1108 120.8110 120.0427 120.1903 120.5487 120.5300 120.7910 121.2942 120.5470 122.8533 121.7554 122.0742 123.6134 123.7270 119.5903 112.9402 109.2954 115.6817 117.1341 113.4389 116.2053 119.4625 105.8440 107.1040 111.9334 112.2472 113.4083 114.0505 115.3599 109.1817 115.2928 107.2100
112.4000 112.0377 111.0744 109.9698 108.7454 107.3275 105.6576 103.6474 101.1151 98.0291 93.8544 92.3461 95.2690 99.1719 102.0469 104.3750 106.2691 107.7884 109.2525 108.7879 102.0879 94.9487 99.3079 110.4594 114.4540 115.4544 115.9316 116.6443 117.2415 117.5510 118.1755 117.7375 118.6988 119.0575 119.7921 119.8212 120.2197 122.4167 122.0247 120.9799 128.8356 122.0656 124.3288 127.7314 113.4893 109.5748 104.8590 108.7051 120.5553 109.8452 111.9897 104.0970 103.4428 107.7411 103.3801 103.4792 107.0376 104.9945 105.6646 105.6738 106.1748 105.9276 108.2600 107.2500
112.3600 111.9041 110.9117 109.7919 108.4995 106.9742 105.1427 102.8523 99.7143 94.8584 88.1464 86.2815 89.9529 96.9938 100.8932 103.6901 105.8025 107.5338 109.4101 107.4472 105.1253 99.0676 90.3342 107.7703 114.3340 115.2631 115.8827 116.4322 116.9934 117.6746 116.2588 129.0338 117.4108 119.2453 117.9931 122.5330 122.8946 106.0137 122.8361 121.9410 115.8141 123.8301 103.5482 119.3226 100.7577 103.1776 102.5941 103.1547 108.3651 106.6971 104.3096 102.4887 103.2382 103.4636 104.9592 102.6895 108.6233 104.5042 104.0841 103.9889 105.1603 109.6417 109.6986 110.2500
112.3500 111.8718 110.8583 109.7042 108.3955 106.8790 104.9936 102.6004 99.2571 93.5443 85.9246 84.0057 87.9491 96.1363 100.5263 103.4839 105.6668 107.4286 109.2785 106.3661 105.1512 100.2074 88.7162 107.0586 114.6799 115.8280 115.8842 116.4408 116.9971 117.8147 116.7436 131.2997 117.6964 118.9687 118.5721 122.8898 122.0885 119.4161 121.3928 123.0096 114.0440 125.0775 103.3033 116.0314 100.2674 101.1377 100.8254 99.8987 101.1964 101.9518 101.5485 104.0355 103.6011 105.5062 103.5246 109.4351 116.2182 104.9774 104.4758 104.8287 105.5083 108.5245 108.9766 110.3000
112.3700 111.9420 110.9560 109.7669 108.5358 107.0503 105.2396 102.9998 100.0267 95.6585 89.3659 87.6412 91.0011 97.4393 101.1150 103.8200 105.8880 107.5778 108.9631 110.2049 112.8330 95.8132 96.0202 114.2951 112.7402 109.0154 115.7931 116.5503 117.0098 117.4902 118.0740 119.3660 118.4337 119.0829 120.3289 123.6498 119.9818 120.8180 122.1314 107.6581 110.0262 103.2068 113.6626 116.0114 101.8033 113.8497 103.3942 121.2429 121.3586 102.5844 122.3171 99.5289 119.5752 101.2207 102.3803 114.4526 119.8908 104.6230 104.2265 104.3056 109.0508 127.8555 128.3684 129.4200
112.4100 111.9505 111.1419 107.3488 108.9791 107.4749 105.8349 103.9091 101.5849 98.7486 95.2646 94.0676 96.6050 99.7467 102.4139 104.5954 106.4134 107.9426 109.2954 110.4813 110.8559 113.4110 90.8037 111.8096 114.6768 115.5565 115.8708 116.5516 117.0581 117.5505 118.0983 119.9567 101.4635 117.4267 107.8749 99.9852 121.6371 120.4524 121.7807 129.4946 106.6392 105.9761 106.8539 119.2258 111.7930 112.8769 112.3776 113.2882 113.7652 115.6024 114.2070 115.1881 116.6297 119.2354 111.9682 116.6304 110.4916 103.7268 109.4933 125.7613 127.5026 128.5910 128.2408 129.1300
113.0700 112.3311 111.0828 110.6943 109.2561 108.0569 106.6556 105.0997 103.3313 101.5575 100.1061 99.5758 100.4813 102.1493 103.9646 105.6340 107.1489 108.4868 109.6838 111.1374 109.8727 109.3025 86.8533 111.7887 114.1585 115.3858 115.9898 116.6216 117.1278 117.6355 118.0867 118.4191 120.4594 118.8124 118.3874 103.9301 100.3776 105.8756 123.0654 100.4135 125.4160 106.0064 113.5538 110.3116 115.6304 116.1587 112.1378 112.4097 113.1414 114.1430 114.6247 114.0095 116.5191 102.8417 105.4505 103.5477 103.0046 103.9489 112.1539 121.8948 122.8481 123.4740 122.5134 113.8000
113.1600 112.6084 111.7636 110.8275 109.8663 108.7694 107.6055 106.3523 105.0915 103.8905 103.0357 102.7781 103.2674 104.2790 105.5137 106.7806 108.0063 109.1332 110.2638 111.3859 101.8972 109.3484 96.7278 96.6307 116.3563 115.6529 116.1938 116.7287 117.4051 117.7416 118.2495 118.9094 118.4923 113.2312 108.7708 103.7974 100.6183 116.1090 110.1804 110.8422 105.9562 99.4325 99.1032 99.8640 100.9179 102.3387 100.1076 100.6316 101.9469 117.1834 114.1879 103.0489 102.3417 102.7467 102.3275 116.4019 103.2442 103.4180 114.9005 123.8775 124.5663 124.9985 122.5207 113.1600
113.2700 112.9604 112.1880 111.3638 110.4851 109.5464 108.5808 107.5277 106.6020 105.8260 105.2385 105.1121 105.4329 106.0858 106.9522 107.9253 108.9171 109.8056 110.9409 110.0643 110.3372 114.6001 115.6768 112.4391 115.3107 115.8580 116.3288 116.8768 117.5745 117.8772 118.1182 117.8693 119.1031 121.5429 126.4239 118.5163 99.3519 120.8434 109.3483 106.0534 103.6563 100.8747 100.8195 100.9458 101.8985 102.1563 103.3465 104.8464 110.5483 107.5044 109.9438 108.9920 103.0219 104.2578 103.7469 113.2007 105.2820 104.6560 109.6622 116.5256 115.4746 117.0493 118.9962 111.4800
114.0400 113.3613 112.6584 111.9220 111.1405 110.3519 109.5430 108.7576 108.0332 107.3864 107.2154 106.9701 107.1900 107.6453 108.2776 109.0246 109.8199 110.7346 110.0946 111.9629 109.3028 114.0382 107.1887 111.3681 115.4317 116.0556 116.5421 117.0452 117.4481 117.8533 119.7900 121.1231 124.5829 130.1802 102.4460 110.7516 105.1665 109.0847 114.8224 98.9702 100.2540 99.3133 98.7953 101.2345 102.8320 104.6681 104.2148 102.4205 113.6732 110.5272 110.7396 105.7313 102.7407 102.3342 106.4094 104.8100 105.1408 104.9668 102.9861 101.7070 103.2546 103.1284 107.2592 108.5500
114.0900 113.7859 113.1500 112.4988 111.8202 111.1472 110.4718 109.8535 109.3251 106.0069 108.2925 108.4461 108.6608 108.9879 109.4693 110.0446 110.7065 111.4179 109.7304 104.6371 96.2203 115.4732 99.6807 106.1095 115.9096 116.2091 116.7568 117.2110 117.7936 118.0910 116.8632 114.5322 128.3073 127.7061 111.9522 108.1158 107.7069 112.8453 107.2406 112.5777 97.2485 105.9863 111.7119 101.7284 99.8181 102.0555 100.5951 114.0249 105.0273 108.2568 109.4286 101.6216 102.3691 111.9824 102.8626 104.2022 105.5152 108.0040 109.1047 106.8496 104.0717 104.4573 109.2527 105.0000
114.8000 114.2329 113.6561 113.0778 112.4900 111.9162 111.3623 110.8518 110.4252 110.2165 109.8727 109.8023 109.9154 110.1658 110.5458 111.0126 111.5374 112.1258 112.3142 111.4830 100.6571 113.2684 110.7322 113.2699 116.0931 116.5026 117.0051 117.5250 117.4097 117.1083 123.6341 122.1514 122.0774 114.8350 113.7802 109.0409 111.1395 113.1248 105.2215 109.2978 110.6863 111.5782 118.7983 100.9817 118.2123 116.4417 114.5127 116.6011 106.0713 106.7993 107.1755 105.5149 102.1341 106.9791 106.6444 117.2907 105.1113 104.3272 110.5060 110.9382 109.0522 111.4762 107.3919 112.3000
114.8400 114.6926 114.1726 113.6570 113.1446 112.6547 112.1841 111.7753 111.3946 111.1055 110.9782 110.9352 111.0190 111.2143 111.5155 111.8965 112.3390 112.8127 113.3540 114.8953 115.7507 115.0408 116.1343 116.3389 116.3072 116.7891 117.2115 117.6789 117.6142 123.5610 127.5054 114.3796 119.1300 110.1091 106.3236 108.6153 111.2004 115.8181 109.0710 99.5964 103.9716 117.6199 115.4691 113.5325 118.1577 117.8335 119.2095 120.0364 117.9063 122.9076 111.5698 104.3073 112.1327 100.4493 111.3151 106.2749 104.1945 107.2911 128.2388 125.5139 125.3928 114.2712 105.6939 109.4900
115.5300 115.1551 114.6924 114.2307 113.7839 113.3602 112.9623 112.6060 112.3199 112.1055 111.9655 111.9325 112.0021 112.1623 112.4074 112.7152 113.0838 113.4925 113.9489 114.1396 114.8710 115.2191 115.6993 116.2015 116.6543 117.1007 117.5346 118.0560 123.7645 109.8590 104.0385 107.7570 107.3120 98.9563 108.0816 106.1857 108.4059 113.6840 101.8859 107.1701 98.5247 101.3949 100.5205 118.5431 117.6607 116.1549 116.8280 117.9376 119.7477 121.8997 112.4501 126.5712 115.7876 115.2792 113.0284 115.4963 106.4005 107.9630 123.1288 132.5022 133.8912 116.1904 104.0190 105.0300
116.0500 115.6098 115.1982 114.7841 114.3921 114.0264 113.6801 113.3909 113.1403 112.9644 112.8542 112.8301 112.8812 113.0146 113.2159 113.4823 113.8115 114.1465 114.5271 114.9225 115.3450 115.7361 116.1619 116.5810 117.0069 117.3637 117.8536 118.0996 118.4799 118.0026 113.2875 112.9961 105.6150 108.4839 104.5279 107.5963 115.2789 115.7064 98.6286 100.2223 113.3493 114.2013 115.3318 115.2901 120.7836 119.2304 119.8406 119.0678 115.5129 103.8945 103.2236 105.6442 106.7192 109.0624 118.9819 103.0964 102.1433 120.0203 110.2092 110.6884 135.2939 112.5509 112.7812 105.0400
116.1500 116.0550 115.7027 115.3290 114.9974 114.6576 114.3623 114.1139 113.8994 113.7565 113.6686 113.6433 113.6964 113.8000 113.9613 114.2001 114.3623 114.7717 115.0964 115.4527 115.8172 116.1888 116.5735 116.9471 117.3086 118.1520 117.4533 118.1892 119.0101 114.3845 121.5990 112.3818 114.1558 113.8600 111.8974 112.7329 111.6986 111.8480 98.8499 100.1720 100.2541 108.6217 112.3140 117.2026 117.6626 117.3412 120.3993 120.8834 118.6357 118.5713 101.5827 103.3723 106.8243 106.5897 118.7785 101.9537 103.2532 123.2018 121.9680 124.1531 126.7673 122.8851 112.7053 112.7800
116.7300 116.6214 116.0553 115.8281 115.5454 115.2568 114.9996 114.7863 114.6048 114.4571 114.3865 114.3811 114.4151 114.5216 114.6337 114.5889 115.4012 115.2723 115.6722 115.9530 116.3075 116.6189 116.9812 117.2261 117.6117 112.6680 113.2106 108.0591 97.7152 104.4773 113.1552 129.5370 97.9359 100.7629 108.4016 121.8755 112.4510 104.8685 100.1051 99.4924 107.4603 101.3123 103.2307 109.4371 115.1526 121.6564 110.1820 119.5937 114.5293 111.4510 98.3224 102.8883 102.7807 103.2647 103.6788 103.3096 107.2574 109.0722 120.2996 116.8819 118.5160 123.6511 123.1666 134.2200
117.1800 116.5845 116.7029 116.3230 116.0897 115.8251 115.6038 115.4038 115.2715 115.2503 115.1102 115.0789 115.1018 115.3165 115.0264 118.0219 111.5298 115.8102 115.8557 115.9148 116.7676 117.0495 117.4078 117.5623 121.1955 101.7803 100.4090 106.0288 104.0483 99.5553 100.3513 98.2838 100.0071 99.2266 99.7707 111.9889 101.8491 113.1387 99.5104 100.8269 105.0910 102.2052 112.7653 106.2620 116.3055 109.3644 116.2689 125.1585 105.2696 115.4115 127.4392 101.8540 102.8879 103.6489 104.3995 104.5803 137.9132 104.7753 119.5647 116.3566 120.5811 108.0616 115.8794 117.9700
110.9600 112.9903 117.0515 116.9526 116.6038 116.3703 116.1662 115.9967 115.6573 114.2905 115.7374 115.6977 115.7134 115.6937 117.2661 119.8627 112.4766 118.4121 101.8166 116.9600 117.0397 117.4679 117.7601 117.8111 118.5813 108.6103 94.4749 99.6304 99.9176 106.4434 100.1014 104.2057 100.2356 99.2007 102.2577 102.7758 106.2352 111.5520 101.9845 104.3429 108.4924 107.6129 104.8835 109.4292 112.0675 103.8458 114.9717 114.1902 116.0577 99.8269 123.1938 106.4727 106.7195 103.3177 104.1204 109.6968 130.2715 112.4698 129.9796 134.8863 121.5241 120.4564 121.9987 121.8900
114.8600 98.4001 112.1472 117.3572 117.0794 116.8852 116.7435 116.3761 117.2198 115.4084 116.2703 116.3250 116.3124 115.8166 122.1760 117.1087 97.1137 99.7441 111.0084 118.5378 117.4726 117.8666 118.0885 118.7669 118.1867 117.4461 97.9398 98.1866 97.2375 110.3979 100.9005 101.5901 106.1241 106.6839 107.5881 105.8674 108.2757 104.6032 98.7265 107.4404 106.3595 115.4163 112.8213 114.2443 108.2640 109.2883 112.5014 119.2721 125.0959 107.5262 106.4452 113.3190 116.2456 103.6139 103.5289 104.9729 108.7197 134.2987 128.3068 128.0049 135.3891 137.5950 128.2836 124.1200
118.3500 111.4781 118.7996 117.9454 117.5719 117.3570 117.2340 116.8256 111.1057 102.3299 116.2414 116.7362 116.8732 117.0620 115.9544 114.1246 100.4067 105.4695 119.3787 117.5982 118.0609 118.2765 118.8039 119.0114 108.9738 108.2898 115.9596 104.8685 104.1377 101.9940 101.5785 101.5901 104.5665 106.9920 106.3832 99.1742 106.1777 104.4827 105.8846 104.8954 108.3301 112.2227 116.0807 116.9948 115.8901 114.3082 106.5553 113.0375 108.4927 113.0027 113.1269 118.2709 108.2910 102.2371 101.8502 114.3947 100.6302 103.8189 110.7165 123.4452 131.6120 120.9096 133.0123 120.3700
118.7500 119.4756 118.2604 118.1561 117.8077 117.8938 117.6995 117.3760 99.0971 101.7523 117.3022 117.1787 117.4093 117.4619 117.4020 115.0577 99.0880 100.6736 118.8609 118.1503 118.4533 118.9333 119.4020 107.5266 109.6458 115.5106 113.4494 106.7553 103.4542 104.1271 111.0613 105.7372 104.6098 109.4443 99.2605 98.9034 105.3179 106.0751 106.7142 106.9144 107.6789 104.0883 110.0852 115.9740 118.0271 118.6888 118.1495 114.8132 107.4129 107.4727 115.0163 115.2949 116.5611 120.4010 119.9211 112.2621 109.3417 122.1570 117.3220 111.7283 115.1950 122.6530 132.6200 120.4700
119.0900 118.9653 118.7987 119.1187 119.4174 118.0608 118.0979 118.7304 118.8615 95.9012 116.8621 117.0817 117.9072 117.9473 118.0277 119.2378 107.5210 96.2150 120.7656 118.7379 118.8515 118.8379 122.2402 108.4029 112.5799 101.3177 106.0179 99.9796 101.5664 103.6091 117.8128 105.2844 106.3917 106.7263 101.1057 100.3791 102.4109 106.5547 111.4109 112.7829 107.0416 110.8787 101.4481 107.2488 113.6984 118.5680 119.0370 119.4378 118.2812 116.9983 114.3546 106.9049 112.1308 126.5859 130.4567 123.3933 127.1658 95.9841 117.0902 112.6014 119.4298 128.1034 114.8997 126.1200
119.4900 119.3295 119.5530 110.0679 115.2361 119.4750 118.7560 118.7874 120.4659 107.7512 116.4047 116.5116 118.4259 118.3757 118.1550 118.8867 108.7473 105.6995 110.0404 119.2489 119.1489 119.4029 118.6102 107.2131 105.9730 100.7973 100.1351 99.1112 101.9949 100.8785 116.0106 119.4043 108.7471 98.9823 100.7846 100.0943 101.1751 108.3146 112.6570 108.4586 103.1301 116.3487 110.9057 107.7780 103.2496 112.2085 116.7680 118.5684 120.3656 121.6720 116.0258 109.8095 120.4162 107.9503 108.6530 124.6398 129.2497 128.7831 126.0060 114.2858 122.1960 115.0255 120.0631 126.3500
119.8500 119.6868 120.2719 117.5467 112.8981 116.7022 117.8687 108.5562 110.0858 103.1540 97.5831 103.3870 115.9197 118.7053 118.8408 124.8887 117.3885 115.7305 111.4329 119.2841 119.5903 119.9758 119.8857 125.5627 97.3756 101.2507 101.1944 100.9491 101.5624 103.1565 113.3566 122.6974 123.4205 100.6197 100.1870 107.7519 103.8553 108.3017 101.6552 105.6603 109.5569 111.9067 109.9456 117.0362 114.2509 104.6066 109.9484 118.4972 115.9696 115.1837 115.0024 127.3957 127.4126 120.5201 116.2036 120.3582 114.4018 123.9065 124.4998 129.3182 127.8978 118.2994 125.0744 113.5700
120.1900 120.0497 119.5616 120.0551 120.5851 115.7468 116.7364 102.7695 108.1655 98.5901 120.9062 119.9379 119.9315 119.0662 119.2832 120.1626 121.0970 120.0370 119.9156 119.6954 119.7361 120.2006 118.4220 113.3777 107.8978 115.7040 102.3963 101.6457 99.5008 103.9760 102.7979 104.0442 108.1971 109.1524 105.6068 100.2794 109.4146 109.2366 109.4402 111.0306 111.9394 114.8437 114.7023 111.9039 116.3610 113.1593 107.9793 105.1186 113.5185 109.2085 101.6706 109.9799 122.6435 128.9692 128.2506 119.1534 122.3999 123.1509 119.0363 125.5974 124.3126 133.9241 134.6468 134.8500
120.5700 120.3451 120.3080 119.7035 118.2433 117.2674 117.8350 104.7418 106.0118 109.9702 119.1272 119.0969 119.3816 119.5362 119.6880 119.7180 119.7325 119.8367 119.9679 120.1653 120.1600 122.2412 108.1091 112.1664 119.3018 103.2962 106.6909 110.8123 102.2815 101.8676 110.4858 104.0007 122.8969 107.1514 107.1386 99.9672 106.7354 109.8271 110.5484 110.6156 112.9156 112.0438 117.1008 115.2791 119.3007 118.4409 106.7715 118.1763 110.3892 103.4584 102.6660 116.8385 121.4122 111.2848 127.9355 130.1069 125.3388 121.9553 116.2847 118.8284 120.6219 125.8769 125.1072 126.5200
120.9100 120.6875 120.3201 122.3452 114.0861 120.6515 121.2108 109.1393 118.4821 120.6734 120.0776 120.0028 119.9006 119.9548 120.0598 120.1088 120.1962 120.2752 120.3754 120.4410 111.4095 112.9509 104.1538 98.3075 103.6318 103.6534 104.7635 106.0450 108.2031 105.0071 105.5101 110.7906 107.8917 118.9988 110.8755 100.4404 105.3736 107.2684 112.4102 111.0810 117.3488 112.5646 113.1427 116.2458 112.7085 104.6190 119.9622 101.6830 101.9134 103.5927 105.2820 108.5818 113.3032 121.8915 123.2116 122.7862 122.6862 127.7704 126.6010 125.5999 122.2261 123.2354 122.4024 126.7600
121.2200 120.9934 120.7659 120.3901 109.7615 122.1566 120.0484 109.2436 120.4349 119.8556 120.2121 120.0629 120.9082 120.9503 120.3761 120.4570 120.5044 120.6080 120.7265 120.7776 120.8986 115.4126 108.6931 98.9810 101.3197 104.5892 104.3785 112.1208 118.6001 107.2221 109.3537 105.1207 112.3537 109.6618 112.3357 100.8206 112.1354 111.1496 110.2631 115.0745 109.9480 117.6803 114.3967 116.2231 106.6093 100.4561 100.7128 103.2602 103.6667 103.6898 106.1885 108.2702 112.8730 100.6603 117.8123 128.7973 125.2397 121.5206 121.3164 132.2787 129.9976 125.4731 122.9002 122.7300
121.2200 121.3037 120.7943 121.7465 122.2408 116.3213 123.8864 122.0126 120.7105 120.7107 121.3510 121.0897 120.9786 111.0724 120.8713 120.7737 120.9710 120.9237 120.9174 121.1483 123.0428 104.2160 103.4712 98.9016 98.0505 110.1929 107.4903 108.2964 109.3176 110.4383 112.8157 102.4939 110.7656 114.6988 100.3220 100.9705 110.4641 113.2260 112.5305 124.3829 119.1612 120.9347 120.4666 115.1442 101.7472 108.4051 108.1910 102.7984 103.3759 103.8686 103.0912 103.7997 115.8246 104.0178 111.1291 115.4041 128.8407 129.0264 126.7219 124.8456 128.3383 123.3352 134.6129 126.0100
121.8200 121.5585 122.6460 120.9067 124.3341 106.0351 106.9803 116.3628 120.9482 121.8682 113.9338 113.7470 121.3186 98.0757 116.7654 121.0599 120.8255 121.4391 121.7672 121.2514 122.0710 114.8054 113.4196 102.8795 100.0546 109.8735 105.8547 107.8274 114.8629 110.4431 111.1059 88.8844 102.4700 114.2526 103.4569 100.7994 107.2964 106.8543 112.5175 116.1101 115.9147 117.1224 111.9442 113.3413 101.3965 111.3116 115.9441 107.9752 104.1978 104.0696 104.2322 103.5689 103.3193 102.4706 116.6328 102.0747 115.3591 130.5815 128.4970 129.3316 122.6720 109.7619 114.2777 135.6200
122.0900 122.7654 111.0913 126.6410 119.1769 101.2184 112.2857 119.7001 116.6101 123.3497 104.3236 99.2456 119.4963 120.6052 122.1695 121.3204 121.9316 119.4137 120.2692 120.9233 128.2649 107.9879 108.7549 106.7382 99.3655 103.9843 106.4539 109.6568 109.7544 109.7585 112.3270 107.7474 101.4011 100.9697 101.0194 112.2323 114.5370 102.5144 114.4162 112.5267 109.6432 111.6736 106.0832 109.0559 108.9522 104.6006 104.5337 101.2490 103.5238 104.2077 104.2215 104.6348 104.4373 118.8101 107.1352 113.0303 117.9115 110.3916 114.6336 130.0322 133.6617 132.3321 130.3844 128.1100
122.1100 124.0105 105.8847 122.5756 129.2804 100.3644 123.6492 121.3616 121.6280 115.6440 99.9025 122.8688 121.0824 121.4104 121.5027 121.6520 121.6395 109.5682 114.0571 121.3559 120.8032 103.6058 107.0986 114.0582 108.3768 108.6084 110.9851 108.4113 119.1637 110.9058 100.8749 113.0754 108.8213 105.0853 101.6396 109.6916 112.0205 108.9814 119.0997 114.6681 120.4107 112.1771 100.7964 102.7849 107.3890 113.3317 104.6182 104.1134 104.0355 104.1485 104.3314 104.6573 103.9940 109.9260 121.4484 108.2604 123.9246 119.8801 104.3126 110.1433 122.9487 134.2247 129.8637 128.1200
122.3800 123.2461 117.2902 124.9602 103.3285 96.3719 123.4441 121.1394 122.5029 123.2334 122.2524 121.8456 121.8718 121.9339 122.1241 122.2628 120.6050 130.4393 116.4276 122.3239 121.7721 125.8227 113.5607 114.2186 113.4168 108.4225 107.5616 107.8044 114.2602 109.1684 105.7835 114.7856 111.9141 116.7262 109.2051 107.4951 120.4522 118.9447 115.7822 120.7343 120.7524 110.4503 111.0598 110.5620 102.3102 102.8667 108.6083 103.4964 104.5182 104.1711 104.7715 104.5532 105.3910 107.2549 112.0520 107.0634 118.6277 118.8648 123.7917 106.7297 105.4711 119.1489 132.1029 127.9200
122.6500 122.2278 120.3692 113.9590 110.5679 98.4311 124.0975 121.6460 122.1187 122.0517 122.0777 122.3441 122.3379 122.3196 122.3126 122.3130 122.5003 121.3955 122.8998 122.6204 122.7371 121.8007 121.0750 119.2715 116.2289 109.0324 114.4563 115.9247 111.8272 112.2158 110.0480 113.7848 114.1138 114.9673 111.3884 109.2157 111.3876 120.0722 114.4784 119.0835 122.4634 117.7030 104.1220 109.4814 103.6560 103.9777 104.5431 104.0500 104.3137 105.8268 104.7265 105.1838 105.7366 105.7990 106.1300 107.3727 129.4055 120.3219 118.4652 121.3458 127.2776 108.1853 109.6362 110.3100
112.1200 105.2067 108.3250 104.7035 116.0941 100.4375 124.0961 122.1695 122.6234 122.6236 122.5989 122.5403 122.5297 122.5485 122.5927 122.6413 122.6352 122.9018 122.6564 123.6634 122.9033 123.0740 123.3216 121.3886 119.1963 111.7818 102.6895 113.6350 114.5163 105.6395 114.8296 114.2008 114.4495 115.1710 116.3156 117.2152 109.3308 118.2037 118.0716 120.5292 123.1763 124.9547 119.9908 107.9928 103.9415 103.9482 104.2097 104.2056 104.3360 104.9366 106.0473 105.9802 106.1002 105.8171 124.6317 104.9181 120.5129 128.0069 128.4572 120.1682 116.8286 126.9056 114.8475 108.1100
101.1600 124.1553 99.3477 100.6556 109.0620 108.3234 123.8132 122.6880 122.8891 122.8437 122.8204 122.8269 122.8359 122.8536 122.8676 122.8924 122.9405 122.9460 123.0334 123.0534 123.0961 123.2306 123.4021 117.5631 111.3366 114.3841 101.7619 113.4667 123.1701 111.9271 115.2567 114.7239 115.7388 116.6472 116.6166 119.0692 111.4060 109.7488 117.5466 119.7808 115.3960 122.5701 110.9692 108.9616 102.6499 105.2319 104.1631 104.5254 106.4119 105.7046 105.5330 106.5284 107.0777 105.3199 105.3330 126.6549 110.3216 112.7775 124.5929 118.7532 129.4793 120.8074 126.5002 128.0900
123.4000 124.2145 99.4000 101.2985 106.0871 119.0426 123.1607 123.0466 122.9862 123.1265 123.0934 123.0866 123.0965 123.1045 123.1291 123.1624 123.1953 123.2423 123.3307 123.1433 123.4574 123.5451 124.8645 121.9102 120.9432 115.9714 107.3712 106.6659 124.3916 116.6125 114.0750 117.3608 105.1459 110.4944 117.5871 117.6387 117.2407 112.7415 106.6185 113.2604 121.6126 118.0411 108.1035 103.7333 106.0399 114.3423 102.9934 105.3655 106.2752 106.5391 105.8509 106.4852 107.5589 108.6059 107.0015 109.1075 118.6573 109.6855 110.0758 117.6080 127.5488 127.1302 122.3533 119.3400
123.6300 125.0300 99.1895 101.1350 108.2695 118.2070 123.4117 123.4819 123.3594 123.4292 123.3486 123.3520 123.3544 123.3701 123.3811 123.4129 123.4413 123.4769 123.5036 125.2201 122.9736 123.1981 123.7681 124.2816 123.3064 122.3796 114.8471 111.4480 125.0394 125.5452 116.2171 109.0581 98.0659 119.4757 117.6804 118.1869 118.4353 119.9974 106.1997 116.1282 122.6029 120.2430 116.1019 105.8370 103.5825 104.3684 105.1135 104.5062 105.5481 106.9541 109.3836 107.2709 107.5415 108.3989 108.3901 122.1419 109.7617 108.6053 109.6606 114.2577 115.8932 116.2344 104.0325 129.0300
123.8600 124.9776 104.9218 108.2325 110.4807 119.0543 120.3405 115.9368 123.5907 123.7284 123.5974 123.6022 123.6106 123.6216 123.6381 123.6599 123.6948 123.7210 124.3249 125.8012 123.7781 127.7278 123.0544 124.1127 124.6040 123.5194 125.4636 109.0095 115.1171 124.6091 113.7285 116.3140 122.6480 115.6290 114.4821 118.2391 118.9638 119.6014 117.0862 119.7839 116.0057 119.5976 120.4542 102.5908 104.3189 110.5952 105.1506 105.0272 104.7535 104.6973 110.6549 108.0865 108.4359 108.4470 108.8050 105.9948 110.2548 112.9416 118.2906 130.6260 126.4457 112.1220 111.5653 130.4700
124.0900 124.5878 118.4857 107.4761 114.7392 122.2827 125.0130 122.6765 123.7853 123.9127 123.8469 123.8413 123.8484 123.8477 123.8758 123.9254 123.9450 123.9384 124.0032 124.5422 108.4082 119.0260 120.4862 121.9662 124.7159 114.7453 123.9459 119.9719 115.7387 106.4578 111.2195 118.2297 118.9977 107.4273 114.5198 121.2632 119.5373 119.9307 121.2066 113.2328 111.0117 107.5706 110.4966 105.4046 104.6910 106.1509 103.5736 104.9174 105.2614 105.5559 106.6056 109.0556 108.7875 109.1775 109.4287 110.8151 111.4823 116.9479 114.8412 120.9772 119.5711 103.2963 109.3883 112.8200
124.5100 123.8514 121.4776 114.8362 111.6881 125.1001 120.4097 118.1653 123.9965 124.2062 124.0823 124.0826 124.0923 124.1185 124.0676 123.9406 124.1086 124.3238 124.1608 120.1571 108.6200 108.0494 124.8823 125.8500 124.5867 125.5506 125.2079 119.4673 112.8309 116.7141 117.8944 107.9844 117.3546 106.1498 102.4626 112.7167 120.6532 120.6622 121.2107 121.6086 106.9605 104.1863 108.8389 104.1628 104.3388 107.6029 107.6862 105.5814 106.4295 106.1724 106.3027 107.1306 108.4767 109.9495 109.9361 110.1989 110.8246 110.7749 114.4115 111.6330 112.8261 122.7549 111.2530 106.8600
136.5300 125.5169 125.9196 122.6529 125.1161 124.2100 125.2011 124.6831 124.3701 124.3154 124.3217 124.3256 124.3166 124.3004 124.7248 125.4368 125.5873 123.8740 125.4793 121.0573 120.6083 112.6178 111.7140 122.7845 132.2727 124.6011 112.7193 115.6494 115.1186 117.5191 104.7394 115.6395 111.8859 113.8737 104.1652 105.4950 108.2934 122.6552 113.9325 111.4203 103.4545 104.8377 107.3075 104.5619 102.6343 120.3812 117.8703 117.3894 99.8298 108.8793 107.4997 107.2257 105.9916 110.8591 111.4771 111.3658 111.2862 111.4160 111.0660 111.6042 109.5152 106.4038 113.5510 106.8900
124.9200 124.1327 124.8065 114.9512 126.1052 124.3506 124.4009 124.5648 124.5625 124.5572 124.5394 124.5366 124.5343 124.4540 124.0998 113.7679 123.9721 126.6482 121.1938 125.7989 125.2845 111.7155 106.2876 103.5859 111.8246 109.6461 101.3119 110.3133 116.7055 113.7256 108.5775 103.9643 102.6838 115.0891 109.1536 103.9656 102.9853 112.2666 116.3256 104.3676 104.7901 104.4646 104.7373 104.3063 118.4237 127.5271 126.4536 117.2426 106.7913 111.6143 107.0077 107.9439 111.6259 109.8094 111.4948 111.6324 111.6641 112.1388 112.9895 106.7017 112.8224 107.6234 113.7306 107.0100
104.9000 122.4634 120.9210 122.7231 124.7314 124.8945 124.8695 124.7492 124.7668 124.7656 124.7424 124.6115 124.7435 124.6555 127.4151 111.4565 120.7419 113.4186 109.6760 124.4640 118.5467 109.1182 117.9770 110.7605 103.2524 127.2744 117.8959 109.2122 114.3555 107.4805 105.7821 104.8181 105.0725 107.3770 108.0258 104.3394 106.1561 109.3518 102.6488 104.9028 103.6408 104.5422 104.7511 103.2226 104.6543 107.4963 119.6337 112.9411 103.9429 106.5351 105.4824 109.1906 111.7793 121.9884 112.1490 113.0009 112.5430 113.0862 112.5156 112.8554 114.6008 115.3825 113.8775 107.0400
125.3100 122.4804 116.4442 125.8438 124.8557 125.1135 125.0025 125.2850 124.9883 124.8771 125.5573 121.2582 125.2208 124.3482 124.3434 115.3280 128.7778 112.3022 106.9141 124.8229 126.4651 112.3313 110.2555 114.7805 125.2457 126.3749 125.7982 126.0116 123.9591 117.7566 120.0576 118.9505 102.7049 106.0503 103.5501 104.3643 104.8922 108.6371 121.8138 121.3688 121.4829 103.9184 125.8278 104.5768 104.6734 105.4884 107.8592 128.3700 117.7650 105.2834 105.5952 107.4835 107.7601 130.2017 108.1773 107.7862 113.5417 113.6028 113.7134 112.8579 108.4696 114.1909 114.9864 116.4200
125.5000 120.9997 116.1382 125.8298 125.3859 125.1510 125.0096 122.4501 125.3270 124.9894 123.9247 123.8167 125.1595 127.6094 128.9069 117.4066 127.2361 112.9697 114.8835 125.1845 126.9815 112.9111 111.6955 114.5798 126.7023 126.0981 126.1640 126.4456 118.6290 109.7855 103.8720 108.2146 105.2636 114.8272 103.7845 104.0633 104.5273 120.6745 122.0432 124.0716 123.8356 122.7643 104.9757 113.5642 107.0084 104.5502 125.2986 126.9249 106.2617 107.3087 105.4467 105.5517 107.2337 109.2309 130.2021 131.2632 114.3751 124.2122 114.4024 114.9869 114.7815 114.2422 121.3513 125.4900
125.6800 118.4161 127.3747 125.3679 125.5395 125.4782 125.0317 125.1242 125.1754 126.1177 114.8741 114.7525 125.8898 123.2185 120.6479 114.9981 109.0836 116.8906 113.6219 125.7703 111.7451 111.6304 113.1442 109.3055 127.5936 112.3379 126.5963 110.5731 122.6581 123.3783 120.8698 109.4106 106.1417 110.5398 105.8364 104.7794 106.4968 123.3205 113.3483 118.3280 123.6477 129.2294 117.6212 112.6618 104.1570 103.5391 114.5407 125.7295 129.0072 109.7173 108.8725 106.5179 105.8433 112.4069 133.8245 130.5616 130.4043 130.1123 115.0205 114.5066 115.1649 115.4280 124.7748 126.1100
125.8700 126.6273 125.5011 125.7700 125.6744 125.6630 125.8271 126.0113 125.5608 126.0302 127.9625 116.5139 126.2489 121.3707 110.3666 104.1760 122.4712 113.6700 119.9378 125.7371 120.3112 123.7987 122.1900 111.6487 127.7593 124.6114 127.3758 127.3316 115.1519 113.9551 114.6996 105.5670 98.8176 108.7740 105.3679 105.7032 102.5007 124.2221 106.4643 125.5497 124.1793 123.6163 109.0070 104.8588 103.3627 111.9057 108.1188 118.4271 130.4983 130.3152 127.0335 128.3780 114.9065 110.0393 129.2143 132.3894 130.4543 134.7192 129.3655 118.9968 116.4134 115.8279 115.5877 116.3700
126.0400 125.8729 125.9938 125.8931 125.9473 125.6122 121.1647 114.9936 125.9820 125.8341 118.6715 122.6097 125.6831 119.0451 124.0161 101.2602 108.4965 113.0652 115.9478 113.8522 121.0524 115.6122 103.8861 116.3514 126.6303 120.3146 124.6148 133.8563 96.0919 109.5986 112.6583 103.0766 124.9124 120.2958 117.7985 103.3562 117.3471 121.2150 107.7330 126.1058 124.5864 126.4276 104.1563 105.3758 105.8911 118.2780 107.5032 120.2174 123.6645 128.3588 126.9252 129.3278 130.4281 125.9937 129.6077 113.3729 106.3481 128.6716 130.7844 134.0448 123.6572 120.3529 116.5238 116.6700
126.2100 126.1689 126.2014 126.0933 125.8761 126.8813 107.1791 128.4566 125.8856 126.5118 114.0624 116.9568 126.1831 123.8031 111.4144 103.0602 116.7918 111.8720 117.2179 119.3688 107.6100 116.1594 110.4635 115.9861 110.3716 112.1715 104.6129 109.3635 122.0132 109.3985 106.4087 121.3801 121.4652 104.1245 105.7987 113.5073 110.2824 119.9656 124.8166 121.9527 128.7754 126.3624 105.6866 105.1134 124.5210 104.3955 126.4584 121.9792 119.4327 127.5333 123.2414 129.4822 129.1483 126.9833 132.6101 122.7528 111.3363 132.8709 133.0837 131.7481 133.1859 133.0016 111.9357 117.9600
126.3800 126.4628 125.7992 126.2939 126.1760 127.6446 127.6224 125.9676 126.1660 126.4970 124.8464 124.9451 126.5014 123.2433 110.6931 118.6966 115.9204 119.7371 114.4898 104.6900 109.5796 109.6755 102.5924 115.0130 117.4259 107.0612 124.7113 102.7830 112.7141 110.5759 104.0607 111.0143 124.9091 120.8999 117.6673 112.7509 109.2403 107.8910 109.5838 105.9287 114.1928 108.7979 105.1220 106.4445 112.7926 127.9243 130.0433 123.1347 127.4197 126.2023 125.1330 126.2422 128.9291 130.5336 127.5188 118.3661 107.7882 110.1274 140.7223 132.6798 133.2497 136.4128 105.9221 117.9600
126.5500 126.5007 126.0040 126.5710 126.3228 126.1168 126.1619 126.4175 126.3626 126.3602 126.5777 126.5088 126.2982 127.2292 115.9616 106.1170 110.9170 126.6279 112.7365 121.5894 106.8003 104.1508 103.8171 104.8870 120.5923 114.7218 110.1019 105.6205 109.6980 107.6678 104.7500 107.9808 127.1970 122.6790 124.3438 111.6285 105.2139 104.8489 111.8190 105.9701 105.0512 106.2118 104.7494 116.0731 122.7789 128.7237 128.2568 128.6014 126.8940 126.3332 128.4449 125.8836 129.4009 130.1909 128.9882 132.9488 119.9944 115.5614 121.5118 132.7941 133.7452 134.3203 125.4579 107.7300
126.7100 126.6147 126.5073 125.8746 126.5599 126.6645 126.5992 126.5482 126.5460 126.5318 126.5211 126.6116 126.2623 123.0062 112.8310 115.4552 112.8251 121.5465 114.4890 117.9902 113.6701 122.0729 108.4683 103.3510 123.3222 108.2658 112.3518 107.1915 104.8262 112.3533 104.5749 103.2046 121.4926 116.0936 123.4452 110.2863 106.0457 104.4517 105.9438 105.7724 108.2289 106.0854 109.0957 126.9109 111.1722 129.1863 128.6594 128.8705 125.6651 127.8629 130.5716 129.5390 130.6986 128.6182 128.9080 130.8175 129.1415 133.2895 132.6941 133.4681 133.8050 137.1896 113.7068 135.3000
126.8700 126.8452 124.2471 126.4644 126.6541 126.7784 126.7353 126.7284 126.7218 126.7034 126.7062 126.7033 126.5619 124.1122 112.0108 125.0809 117.0154 120.6063 116.4151 107.1671 118.4597 128.2602 102.6916 120.2557 119.9792 115.3344 106.2216 111.9740 105.5935 115.2900 106.1337 105.6130 120.2626 128.7685 116.6223 104.0941 101.8079 121.6356 110.4625 117.2140 105.5883 105.4797 113.1637 131.5042 127.3132 127.9169 129.1012 129.3525 126.0204 126.8830 127.7685 127.9677 128.5168 129.1378 129.9340 128.8611 132.4463 132.8869 129.9869 129.6174 131.8053 137.5051 113.5148 107.8600
127.0300 127.0366 127.2567 126.9597 126.9679 126.9318 126.9155 126.9003 126.8951 126.8767 126.8606 127.2246 127.1769 121.7407 114.8634 119.7578 121.2086 108.9801 117.4669 116.8753 105.6742 120.9669 107.5537 105.1936 119.4310 112.6328 114.1595 105.4473 104.3590 110.5759 105.3517 103.7902 104.2738 127.7056 101.3851 112.9628 111.3638 113.5187 111.3387 120.4061 103.6616 106.1504 118.9454 126.9485 128.0143 127.6034 129.4888 129.5385 128.9899 127.5018 127.6234 130.3661 128.9046 129.6391 129.3326 130.4080 131.2700 133.4178 120.3069 116.5237 114.8005 134.2235 107.4629 109.5200
127.1900 127.1986 127.1251 127.1495 127.1141 127.0956 127.0874 127.0770 127.0561 127.0246 127.4337 127.1072 123.6805 107.4212 114.8839 129.0415 117.4073 119.2234 119.7368 118.6065 113.4120 113.9617 104.3854 106.2260 106.5785 105.8791 112.6258 105.3045 105.9609 114.3056 111.9270 105.3485 129.0583 113.0224 122.2670 126.5010 125.6613 112.9345 117.0538 109.6171 110.5732 106.0847 111.9113 130.0408 127.3702 129.5515 129.4752 129.8962 131.1377 128.3193 127.9498 129.4635 129.4197 130.0766 129.5822 130.4867 130.9250 133.4613 123.4998 122.5857 133.3294 117.1323 106.3985 108.0900
127.3400 127.3582 127.3436 127.3024 127.2885 127.2741 127.2149 127.2061 127.2242 126.7787 127.1605 108.1508 109.9481 116.1515 115.7578 126.1794 116.0471 122.8966 116.1024 118.7660 113.8164 104.0409 105.1051 105.3729 105.6179 105.3475 105.1594 105.5925 105.9354 106.1136 116.3672 111.1199 127.7788 108.5523 128.8520 125.5744 121.0539 127.6373 113.7659 112.7628 110.3624 106.3811 106.9783 105.1959 128.6985 130.9126 131.6758 129.2258 130.2437 130.7446 127.0262 118.4843 130.6990 130.4463 130.5155 132.3212 131.9304 131.6627 133.1361 135.0663 133.1808 131.6536 123.1996 112.0000
127.4800 127.5195 127.4868 127.4644 127.4444 127.4067 127.5249 127.5223 127.3945 126.9760 127.9110 117.2645 118.6179 113.2215 115.6479 131.5509 112.8539 122.3667 112.1244 119.0341 121.0312 107.6769 105.6735 105.5963 105.5876 105.6407 105.3975 105.9872 104.9758 112.9073 113.9048 116.9707 121.0643 102.9598 122.9260 126.5376 129.0573 112.2249 108.2882 122.9874 114.3511 106.7045 107.4384 104.0243 114.8429 112.8499 114.9224 131.8539 127.4285 131.5781 130.8021 131.1821 129.7326 131.7859 125.1218 117.8232 133.5598 132.4025 133.0010 133.0834 134.0871 110.8279 111.3694 108.2300
127.6300 127.6772 127.6443 127.6332 127.5855 127.6144 127.4012 127.0436 127.5408 127.3479 127.8628 128.5293 129.4112 113.3922 115.4168 120.2206 104.2324 112.8179 111.7954 120.5153 115.7132 104.8714 106.1015 105.6411 105.8583 105.7825 105.5957 115.6257 107.6548 107.3630 126.7390 129.0403 107.3665 110.8332 109.6985 126.3212 122.0797 126.5019 116.6646 123.3139 120.4238 114.7895 105.8678 107.5455 119.1952 132.7832 132.4207 129.6753 105.5848 132.6734 131.7493 131.7484 130.3998 130.6878 132.1543 135.1316 124.5455 133.3415 133.0718 134.6690 129.6264 116.2353 107.8221 108.2600
127.7700 127.8246 127.7950 127.7747 127.9479 126.5498 140.0261 126.3754 127.7444 127.6962 127.5518 127.3502 127.4178 113.9401 105.8821 115.9212 111.5376 105.7652 108.7033 123.5034 124.7460 108.3380 105.3776 106.5449 105.2751 106.0998 106.0228 106.2274 99.9734 108.5182 113.9209 122.3860 107.8123 116.2751 106.6475 124.9926 126.5686 123.5873 107.4435 116.7351 114.4647 115.3617 107.0497 107.9139 116.0371 127.5629 128.5434 132.9285 129.2105 129.2384 131.7818 131.4765 131.2254 131.6420 130.5035 134.3610 119.9582 133.0460 133.7227 126.5035 105.2060 107.2272 108.5606 108.3700
127.9200 127.9300 127.9400 127.8300 127.8400 127.8500 127.8600 127.8700 127.7400 127.7500 127.7500 127.7500 127.7500 118.9300 105.7400 105.8700 105.8600 105.8500 105.8400 111.7600 111.7600 105.9300 105.9100 120.8600 106.0700 106.1000 106.0800 106.1800 122.2900 106.2500 108.2300 124.8500 120.3300 107.6500 108.9100 132.5900 132.5900 128.2100 128.6500 116.4600 125.4100 114.7500 116.1400 107.0100 107.2200 120.0300 129.2900 130.0100 131.1200 131.0400 131.5200 132.0100 131.8200 131.8200 107.8400 109.1500 133.7500 133.7100 133.8000 108.1900 112.4600 111.1500 108.4000 108.4700
