127.0400 127.0400 126.9300 126.9400 126.9500 126.8200 126.8300 126.8400 126.8500 126.8500 126.8500 126.8600 126.8500 126.8500 126.8400 131.3900 126.8200 126.9600 126.9500 115.4300 118.1300 127.0500 121.7200 127.0100 127.1300 127.1100 127.2200 127.2000 127.3000 127.4000 127.3800 126.2100 126.2100 127.5700 105.6600 127.7400 127.7400 127.8300 127.9100 128.0200 128.1000 128.0800 128.2800 128.2800 128.3500 128.4200 128.5200 128.5900 128.6900 128.7600 128.8500 128.9200 129.0100 129.1000 129.1700 129.2600 129.3500 129.4100 129.5900 129.5700 129.7300 129.8100 129.8700 129.8700
126.8800 126.5354 126.7651 126.8204 126.7935 126.7713 126.7552 126.7344 126.7273 126.7184 126.7149 126.7142 126.7194 126.7339 126.7241 128.7796 125.8058 126.7253 128.5675 113.4364 112.4293 126.4319 126.9531 127.2965 127.5675 128.3770 126.9883 127.8602 116.7949 106.9183 127.0156 124.0145 105.4553 120.4157 107.2283 114.8373 128.5627 127.5932 127.8014 127.9259 121.1475 126.7503 128.1256 128.2186 128.2915 128.2964 129.4371 131.0589 128.5917 128.6767 128.8655 126.9095 128.4299 129.0961 128.9920 121.2572 114.0605 129.8004 123.1940 135.3451 118.0411 128.8448 129.6432 129.8500
129.6100 128.3603 127.6326 126.5655 126.6275 126.5982 126.5823 126.5612 126.5545 126.5395 126.5412 126.5378 126.5450 126.5494 126.4813 125.8047 126.5005 126.7558 121.8555 119.0036 127.6065 126.4351 121.6928 124.2738 113.3104 122.5046 126.8948 124.2991 114.9597 117.7008 124.6514 114.0869 107.9453 111.7522 124.8237 117.3553 128.0723 127.8957 127.9896 128.7803 127.0856 126.8846 127.8079 128.0673 128.0926 128.4094 128.0354 128.1290 128.4866 128.6019 128.6588 128.2794 129.2860 125.5249 120.3635 121.5322 125.5672 129.5794 127.4267 129.3101 125.7106 130.2592 129.7601 129.8400
126.5600 130.7623 128.8883 126.5993 126.2216 126.4490 126.3857 126.3851 126.3678 126.3718 126.3872 126.3543 126.3548 126.3660 126.3833 126.4915 126.3987 126.4291 127.8906 111.9771 130.7102 118.5713 117.4965 126.7508 129.2329 127.0366 126.8149 128.8558 127.1296 126.1644 106.2975 105.0395 116.0184 107.7916 127.0959 126.9601 127.8995 127.3810 127.5215 125.4837 115.1073 127.5671 128.5091 127.9398 128.0774 128.1200 128.1911 128.3545 128.3907 128.3916 128.5624 129.5158 131.2086 112.7632 116.8238 117.0535 129.0041 130.5786 129.1713 129.3742 130.3091 129.2706 129.6070 129.6900
126.4000 125.7013 119.8851 124.1222 127.8332 126.5066 126.3450 126.1760 126.1898 126.1980 125.8253 126.2256 126.1637 126.1817 126.1931 126.1868 126.2267 126.2261 125.7591 134.0548 126.9087 117.9937 117.6881 123.7011 125.6892 126.4996 126.6776 123.5800 127.1816 124.2458 113.5820 105.2014 108.8868 135.0980 126.3585 128.3831 127.2171 127.3752 127.2277 127.0598 127.1747 127.8429 126.6652 127.2351 127.8559 127.9975 128.0874 128.1835 128.2364 128.3363 128.9091 129.4487 111.1014 119.6532 119.4524 129.9249 121.5006 126.9081 131.3030 129.6255 129.6671 129.5586 129.5791 129.5900
126.2300 126.9367 127.5868 126.3345 126.2618 128.1403 126.0512 126.0006 126.0072 126.1550 124.3054 126.0608 125.9864 126.0134 126.0093 126.0161 126.0428 126.0763 125.1187 126.2271 127.1824 110.0900 116.7279 127.3831 126.4425 126.4641 126.4614 126.6193 126.6686 117.0814 108.5160 123.2841 109.4170 128.9598 126.8452 126.7561 127.1044 127.1339 127.4159 127.4477 127.5608 127.4760 127.7157 127.8504 127.8031 127.9159 127.9593 128.0422 128.3026 128.1164 125.6523 109.2749 115.2545 112.1132 127.0585 124.7643 115.3323 114.1432 116.7975 124.7027 127.2089 129.9026 123.5114 129.5500
126.0600 124.6648 108.5822 119.7528 125.7739 125.6766 125.8590 125.7726 125.6822 125.7844 125.9831 125.8553 125.7034 125.6776 125.7940 125.8297 125.8509 125.9091 126.0931 126.0011 126.4220 118.5356 121.5951 126.4085 125.5167 125.2215 126.4024 125.9555 128.7129 104.9145 113.5428 113.5722 115.3015 113.4501 122.1433 126.7626 127.0158 127.0370 121.5832 126.2023 127.4715 127.3676 127.5161 127.2298 128.0250 127.5236 127.9047 127.8079 128.9482 119.6190 117.0995 108.3769 131.5064 127.8069 128.5658 126.9890 122.6057 117.3261 124.1494 129.9175 129.1955 126.6450 127.9034 129.4400
125.8800 117.2428 119.9440 127.3286 125.7263 125.7409 125.6655 125.5901 126.8376 125.6127 125.5934 125.5895 126.2680 126.2164 125.5629 125.6316 125.6563 125.6681 125.6455 125.7157 126.3364 129.7979 123.7007 125.6045 124.5971 126.0425 126.1556 114.6569 124.1671 105.6733 126.7542 111.3597 117.8345 124.9846 125.0771 126.7657 126.7797 127.0694 126.9560 127.1165 127.1671 127.2727 127.3802 127.2265 127.7370 127.5780 127.7326 127.8603 127.9224 127.6244 115.6226 112.5689 129.4257 127.6921 129.4021 126.1513 129.0833 128.2488 128.9342 128.8122 129.2969 128.7372 130.1580 115.2300
128.4900 116.0475 126.6502 125.4220 125.2905 125.4795 125.4859 125.0813 127.5044 124.4816 125.4056 125.6939 119.5674 125.6587 125.2963 125.4340 125.4603 125.4928 125.5190 125.5460 125.5400 123.2118 135.1309 125.2751 125.7417 126.0945 126.1292 125.6036 132.9538 116.6536 127.6901 127.7329 123.6524 128.2012 126.0928 126.5448 126.7006 126.2822 127.9452 127.2586 127.1527 127.1005 127.2019 127.3196 127.4244 127.4960 127.5770 127.6939 126.5645 126.2004 121.6404 124.4007 129.9912 127.9007 129.6145 127.0819 128.5327 119.6936 129.7118 128.8049 128.9738 129.4867 127.9116 129.2900
114.6900 113.2312 116.2270 123.3350 125.9459 125.2164 125.2578 125.1101 124.7450 122.4592 124.9835 125.6693 120.5623 125.4804 125.2062 125.2513 125.2660 125.2876 125.2971 125.3882 125.5392 125.0839 123.4356 126.0722 126.0556 123.5375 126.1857 125.0013 127.0530 125.5473 127.0739 126.1984 125.7124 126.7779 126.3275 126.3104 126.3808 127.8350 116.6438 111.5127 127.6181 126.9132 127.1076 127.1766 127.2778 127.3788 127.4524 127.9815 124.8467 125.8220 129.3851 127.4978 127.8864 128.2146 126.1443 114.7052 126.5868 128.6369 128.6034 128.8212 128.8782 129.1595 132.0461 129.1400
116.7100 117.1012 116.9158 125.1905 124.4242 125.1312 125.0468 124.9021 124.7857 114.6497 125.9040 124.9619 125.5811 124.9882 125.0188 124.8619 124.9746 125.0724 125.0769 124.8549 123.4924 125.1082 126.2923 121.2389 125.7094 119.7835 125.9754 125.8004 124.8771 125.6443 125.8272 125.9786 125.9872 126.0824 126.1349 126.2896 126.1498 125.0903 124.7536 127.2475 126.6669 126.6984 126.9485 127.0435 127.1461 127.2476 127.3807 127.3210 128.0838 127.7169 127.5587 128.5030 128.1407 128.4801 114.4301 116.9002 117.6666 128.7499 128.5674 128.7836 128.7543 128.7918 113.1416 129.1400
114.8000 109.8578 127.9443 108.0050 127.1155 123.9369 124.9818 124.5187 124.6889 116.2572 114.9194 125.6587 124.6686 124.7869 124.6948 125.9816 125.1421 124.8838 125.1016 125.1036 125.1068 124.9865 120.6237 118.1410 126.0630 126.1166 125.3068 125.3245 125.5958 125.5598 125.6593 125.7352 125.8283 125.9230 126.0099 126.1091 126.0496 126.5127 126.6004 126.0866 126.6310 126.7132 126.8030 126.9139 127.0205 127.1245 127.2229 127.3570 127.3769 127.5408 127.6621 127.8330 128.3426 131.2641 114.4192 115.8087 124.4983 128.8085 128.5575 128.6098 128.8161 129.0041 130.9037 121.3500
124.9400 113.8557 121.1934 112.1742 127.5148 115.8140 124.5506 124.2484 124.2995 115.0774 108.9639 126.3642 124.4185 124.3748 125.8582 115.5827 123.1684 124.7843 126.5147 124.7485 124.8308 124.9010 123.4690 124.7648 124.7065 125.0492 125.1749 125.2405 125.2776 125.4056 125.4743 125.5946 125.6516 125.7511 125.8432 125.9470 125.8653 126.2758 126.1563 126.3164 126.5218 126.5620 126.6657 126.7790 126.8886 126.9984 127.1043 127.2201 127.3258 127.4413 127.5377 127.7660 123.9292 118.9884 129.9836 121.9334 123.6830 128.5928 128.4297 128.5233 128.6810 129.0200 127.9507 121.3500
113.1100 117.7750 127.5901 124.9281 120.0112 125.2049 124.8118 124.1307 123.3795 105.0481 133.7175 122.9637 124.2068 124.2356 124.2809 122.0747 124.7553 124.1193 126.1425 125.6355 124.6617 124.3423 125.1527 125.3600 123.5901 125.6207 124.9482 125.0504 125.1850 124.8577 125.2961 125.3139 125.4844 125.5762 125.6817 125.7831 125.9023 127.0725 127.2050 126.2098 126.2923 126.4137 126.5291 126.6440 126.7515 126.8696 126.9762 127.0976 127.2001 127.3199 127.4537 127.4679 127.7179 124.1433 131.8859 117.4265 121.5018 128.1010 128.3412 128.4717 128.4091 129.0485 118.4846 117.6100
132.7100 108.5508 126.2027 125.9330 116.9153 124.8444 123.9958 124.1359 124.1860 127.3979 114.6047 114.1589 123.5789 123.9079 124.2655 124.3219 123.9392 126.6953 131.2061 130.2834 123.8712 124.9990 116.2706 114.8620 111.9640 123.9981 124.6450 124.8461 124.9108 125.7721 125.3685 125.2149 125.2998 125.4026 125.5037 125.6249 125.6756 125.8405 126.5150 126.1770 126.1695 126.2828 126.3931 126.5113 126.6255 126.7360 126.8557 126.9750 127.0867 127.2981 127.4053 127.4347 128.6964 127.8430 127.6190 127.5878 127.7595 128.1430 128.2764 128.3665 128.4045 128.7446 127.3502 117.6100
124.1100 123.7690 125.1794 123.8862 124.1370 124.2757 123.9699 123.8982 123.8761 123.5198 124.5739 125.0788 123.8533 123.8920 123.8948 123.9299 123.8595 127.4954 117.2137 126.7513 125.5008 122.9663 115.3194 111.5696 116.3839 119.4108 124.0756 124.7547 124.6912 124.7453 124.8756 125.0429 125.1237 125.2257 125.3357 125.4424 125.5660 125.6581 125.7869 125.8622 126.0193 126.1301 126.2482 126.3705 126.4949 126.6100 126.7291 126.8503 126.9680 126.9669 127.2923 127.0031 127.4188 127.9136 128.2531 127.8054 128.1041 128.0548 128.1626 128.2703 128.4221 128.4518 127.6807 117.9600
123.8900 123.9645 123.6784 123.8164 123.6182 123.4960 123.7508 123.6708 123.6349 123.7004 123.5168 123.3616 123.6175 123.6186 123.6535 123.6944 123.3271 123.1017 117.4345 125.8553 128.9963 129.2475 121.1009 108.6701 111.0721 118.9930 124.2408 123.8280 124.4513 124.7088 124.7240 124.8234 124.9408 125.0455 125.1648 125.2822 125.3794 125.5117 125.6318 125.7515 125.8749 125.9901 126.1135 126.2303 126.3582 126.4830 126.6063 126.7109 126.9403 126.4383 132.5846 127.1693 127.8723 122.7537 124.6153 127.9654 127.8424 127.9403 128.0687 128.1895 128.3115 128.3438 128.8353 128.5700
123.6600 123.7034 123.6704 123.5937 124.0942 124.7262 123.2520 123.3942 123.4009 123.3609 123.3707 123.4011 123.3696 123.3843 123.4050 123.4270 123.4733 123.0516 117.7529 123.3343 122.3204 125.9182 121.0172 112.7352 109.8721 111.7751 118.7126 124.5717 124.7801 124.1856 124.5632 124.6464 124.7625 124.8716 124.9889 125.1140 125.2026 125.3865 125.4913 125.5885 125.7246 125.8530 125.9882 126.0988 126.2215 126.2972 126.4978 126.6077 126.7242 126.8333 127.0643 127.1141 127.2641 127.6646 127.6915 127.5699 127.7377 127.8513 127.9787 128.1031 128.2151 128.3539 128.5346 128.5300
123.4300 123.4656 123.3948 123.2340 122.7323 111.7305 125.0175 124.5824 123.1118 123.1060 123.0924 123.0762 123.0943 123.1089 123.1258 123.1143 123.5373 121.9967 117.2006 122.2968 123.1998 123.3169 109.8705 118.2542 131.1217 128.0208 125.1687 113.7961 123.9431 123.9817 124.2484 124.5775 124.5370 124.5733 124.8245 124.8175 125.0645 124.4555 125.3870 125.6389 124.9617 125.7998 125.7917 125.9097 126.2844 126.3049 126.2971 126.4699 126.6121 126.7676 126.7892 126.3857 127.1247 126.5610 127.4369 127.4918 127.6372 127.7706 127.8919 128.0149 128.1357 128.2652 128.3623 128.5000
123.1800 123.2218 123.2290 122.9705 119.7256 110.2171 123.7523 122.5184 122.8771 122.8385 122.8813 122.9185 122.8804 122.8565 123.0175 123.1788 120.5460 120.1083 119.5700 123.2557 123.2476 123.4589 118.2163 123.7808 122.1458 123.8457 115.8802 125.2208 121.5369 116.0127 124.5874 124.2465 124.2370 124.4081 125.9718 124.3755 125.6667 122.8140 124.7212 125.3676 125.4437 126.8380 125.6669 125.8653 121.6913 125.9012 125.9582 126.4143 126.6497 126.6990 127.1567 123.1552 123.1844 121.5209 127.4864 127.1379 127.5835 127.6657 127.7988 127.9275 128.0468 128.1773 128.2628 128.3900
122.9400 123.2530 122.4899 123.0003 122.8984 120.2848 122.7893 122.5038 122.6034 122.5438 122.5354 121.6490 122.4623 122.6716 120.7867 122.5216 108.4222 105.6173 116.3058 116.2605 123.4970 123.0497 123.3934 123.2034 123.3536 121.6744 110.3479 135.0076 123.1041 113.6196 123.4481 125.0654 124.6516 124.1225 115.1059 119.4333 118.9256 125.2914 116.3188 124.0952 137.2174 121.7222 125.6026 126.7926 121.4926 123.2568 126.3012 126.2306 124.8057 128.6237 126.6399 124.7734 119.9721 114.7021 126.9362 128.5527 127.4264 127.5747 127.7163 127.8440 127.9615 128.0922 128.2744 128.3500
122.6800 122.7822 122.0998 128.8682 122.9441 111.4851 122.8962 122.0922 122.3216 122.3462 122.3590 122.0420 122.3162 122.7449 112.6198 122.6002 103.8021 114.1420 115.2812 117.6944 117.3282 122.7720 122.9890 122.2848 123.4914 116.9285 120.2566 126.1580 123.8036 124.2929 121.3337 123.2992 122.1875 115.2069 108.9661 110.1597 115.8006 122.2085 114.1508 116.6158 116.0012 120.8002 125.3866 126.5137 127.0914 126.5110 125.8505 126.4401 123.5845 125.1475 121.9748 118.1646 111.8108 116.0071 127.2190 129.2402 127.2822 127.4769 127.6258 127.7610 127.9049 127.9959 128.4373 128.1900
118.7400 121.7555 122.8148 122.0432 122.0778 124.1146 122.9272 121.9796 122.0170 121.8592 121.8051 122.0401 122.1015 122.6828 116.9321 123.6412 104.4343 103.9982 107.7537 116.4828 114.3704 122.6614 122.3617 123.1759 128.4041 103.4295 111.3574 111.9462 117.6087 125.0816 123.3967 122.0382 110.1938 108.2275 110.4831 119.6059 112.4951 125.0725 115.8853 121.6153 128.7076 125.3936 125.3768 125.2993 118.6089 125.2396 125.6842 125.9049 121.8972 112.3188 115.0253 109.2348 124.8937 127.8150 122.6517 127.0828 127.4825 127.6257 127.5381 127.6435 127.8716 127.4777 127.8040 128.1900
114.4600 109.1642 121.8318 121.9686 117.0027 122.0046 121.4064 121.6820 121.7931 122.0585 121.6106 121.3890 121.7227 120.0732 121.1241 111.1783 103.4398 100.7325 108.0108 121.7881 121.5995 126.7390 121.9840 125.5897 127.0652 118.9995 113.1684 106.2502 105.5072 126.1282 123.3315 122.8666 123.7664 113.5300 110.4307 105.7243 110.7017 123.9975 124.9352 133.5546 129.1313 124.9969 129.1073 116.5223 121.9363 125.7747 126.1317 123.7603 123.6934 107.8476 117.8760 111.7368 121.6186 126.1024 124.5009 127.0752 126.9105 126.8118 127.5702 127.6034 127.0557 134.8483 127.4708 128.0500
108.1500 121.5199 122.4656 123.0583 115.0441 121.8692 121.6892 121.5688 121.2325 122.0909 108.2549 122.6368 122.6413 119.3509 116.4913 116.1675 108.3588 120.1110 109.7894 121.7751 121.2322 123.8011 121.7226 121.2276 115.4170 117.2489 118.8247 119.3078 111.8016 123.3355 123.0501 123.3020 122.9142 124.0093 118.0062 104.2771 116.7766 123.2005 109.8883 122.8491 123.8308 125.4106 114.4362 121.1093 125.6777 117.7836 125.8591 119.3725 122.3088 123.2496 133.5760 123.9081 122.7178 124.4902 125.0641 126.5784 126.9407 138.1045 126.3766 127.5188 127.3560 131.0586 127.6515 128.0100
121.5700 121.4161 121.3196 121.2575 121.9646 121.2578 121.1694 120.9702 121.3516 126.5097 113.2937 124.0514 120.8495 118.4124 105.8937 116.7982 117.1857 118.3903 114.0556 121.4062 121.4605 121.7350 121.7146 121.6903 122.3763 116.9367 106.4361 111.4673 123.4698 122.8126 123.6440 122.1993 125.0997 111.9782 107.9185 102.3630 118.1661 124.5634 121.9363 125.1464 124.3895 117.6562 112.4038 126.6872 125.7503 116.4848 128.3450 126.1970 125.9040 121.3362 112.8544 122.8659 123.2720 126.0658 126.0691 126.8130 126.1353 129.5536 127.3020 127.4043 127.5611 127.4456 127.8825 127.8800
121.2700 121.2950 121.0236 121.1469 120.8969 120.9415 120.9568 119.8901 131.0423 126.7996 124.4639 120.4434 120.6141 125.6493 119.6155 134.1499 101.8362 119.6923 122.0200 121.1161 121.1854 121.3424 121.2689 122.4947 122.0703 121.0290 122.7749 122.8879 122.5831 120.6291 122.3957 120.8895 122.4474 126.1534 107.8997 112.0500 115.7122 123.8827 123.9452 124.6745 124.8646 125.8008 125.9554 122.9780 123.8170 123.6775 126.1674 121.3279 124.2275 121.1091 120.8371 123.0969 125.8172 126.4199 126.7534 126.8265 127.1295 126.8037 127.2393 127.3547 127.5121 127.6289 127.7737 127.8500
120.9500 121.0534 121.8490 120.6472 120.6932 120.6001 120.4996 120.4954 119.9459 119.4261 119.7321 120.2079 120.2106 120.1455 119.6136 119.6898 118.1467 113.0863 123.3533 120.8061 120.8462 121.0251 121.0806 119.6832 114.9278 121.7731 112.7085 122.1073 122.0804 122.2829 122.3157 122.6800 122.8504 120.0379 112.2161 113.8719 119.0544 124.5037 123.7350 124.0305 124.2126 124.4369 124.7148 124.6867 125.7577 125.0384 120.3679 115.5110 123.6996 123.6278 122.5009 126.1997 126.0365 126.3897 126.5007 126.6427 126.7072 127.5230 127.2681 127.2608 127.4209 127.5786 127.7079 127.8300
120.6300 120.5724 121.7140 120.3859 120.3353 120.2465 120.1775 120.0889 120.1702 120.2349 120.1578 120.0335 119.9856 119.4284 116.7394 112.4860 111.9690 122.5512 120.2139 120.6557 121.4054 120.6008 119.7704 124.0300 117.1842 122.9465 121.2463 122.2387 121.8225 121.8343 122.2897 122.1035 123.2607 117.8851 111.8569 119.4864 107.0098 123.8194 123.5961 123.8824 124.1122 124.3223 124.4488 124.6153 124.9850 108.9069 125.9878 122.7302 120.6923 123.0548 124.0944 126.9991 119.7013 127.0995 122.9566 126.8152 127.0985 122.6501 127.2653 127.0783 127.3555 127.4991 127.8843 127.7000
120.6300 120.3670 120.0831 120.1372 119.9898 119.8906 119.7991 119.7375 119.6654 119.5821 119.5764 119.5432 120.9931 126.3542 111.4228 109.8392 107.8111 121.3625 119.7131 120.1137 120.4715 120.1205 117.2545 129.6681 118.6091 119.3505 119.7286 121.0313 121.5922 122.2458 122.6888 122.1315 123.3326 119.9651 121.6468 121.7217 126.0749 123.8947 123.5471 123.8262 122.3355 124.5925 123.8021 123.8111 112.3574 123.7989 123.9428 123.2951 110.5548 129.2990 105.5328 122.7132 126.5472 122.1794 109.7070 129.6512 126.5804 126.9648 126.9991 127.1453 127.2859 127.4600 124.8954 127.6700
120.2500 120.0321 119.8870 119.7416 119.6256 119.5185 119.4195 119.3286 119.1724 119.2204 119.2130 119.2624 120.6159 127.7705 109.4400 124.2486 103.3269 118.7350 119.7838 119.7968 119.8915 121.9090 115.2047 107.0665 104.7449 113.4804 121.2785 120.5845 114.7149 120.0400 119.9736 116.2091 118.4874 107.9181 116.1197 112.9407 123.5714 120.9674 115.0151 124.4424 123.7870 124.1152 123.7391 114.5996 131.3133 126.0677 124.2833 122.6344 115.4524 120.0482 115.9263 106.9044 124.2529 120.7746 121.4835 126.8159 126.4016 126.6540 126.9221 127.0527 127.1712 128.5611 115.6244 127.6500
119.9200 119.6940 119.5324 119.3868 119.2528 119.1219 119.0267 118.8969 119.3161 119.0428 118.8161 118.8035 118.1830 119.0110 106.5655 108.3632 109.4095 120.8559 118.6885 119.4205 111.6079 107.4589 110.4209 107.3474 112.8003 106.6146 123.1736 121.9203 105.7008 116.1315 130.9740 105.4701 109.9364 114.4919 99.7581 99.6063 120.2018 116.2846 118.4589 121.5642 121.0751 123.2277 125.5364 121.2327 123.8990 118.6014 124.8294 123.0908 101.4492 111.1409 120.5152 121.6567 119.7504 123.5044 122.7411 126.2456 126.4484 126.6876 126.8281 126.9858 127.1822 127.3858 127.9245 127.5000
119.5600 119.3335 119.1600 118.9993 118.8512 118.7208 118.6170 118.4449 117.5596 114.7742 118.3537 118.4781 118.3126 117.2085 112.7987 102.1944 108.0321 114.1783 120.9432 119.0466 121.9403 104.0875 104.5640 112.9344 122.7212 125.3680 118.4855 120.3911 120.9454 121.7233 124.7922 118.7015 111.0799 109.3463 102.9701 121.6041 113.9862 114.0641 114.8190 114.8201 121.1948 124.7337 115.3606 124.7424 119.2786 128.6703 113.5963 133.0942 109.6550 116.8449 125.7474 120.4895 129.2046 124.8496 126.9409 126.5984 126.3937 126.5951 126.7707 126.9237 127.1010 127.1130 127.2704 127.4700
119.1600 118.9719 118.7833 118.6052 118.4395 118.3000 118.1941 117.8821 118.1451 115.8909 117.9355 117.9460 117.7290 118.3647 104.7777 108.5510 104.2236 98.0126 115.1435 118.6429 119.3908 112.0622 100.0814 117.8248 119.1189 118.9132 120.5447 119.9990 120.1119 120.6690 120.9715 115.8618 119.0906 117.2194 105.8617 112.9445 119.3678 112.5179 122.0778 115.2321 123.3337 123.5812 109.2663 124.3519 124.4166 124.5347 108.3367 120.6301 118.4026 123.8868 116.2270 125.9209 124.4392 122.4279 124.4080 127.6335 126.1569 126.5518 126.6976 126.8625 127.0258 127.2055 127.3465 127.4400
118.7500 118.5914 118.3851 118.1894 118.0105 117.8565 117.7078 117.6029 117.4531 117.6247 117.3808 117.2139 118.1484 102.7620 112.0813 121.5930 112.0237 120.3317 117.8672 118.1850 118.2489 119.5061 112.4583 120.7200 120.0017 120.3642 113.6430 121.0607 121.3681 114.8581 100.5180 117.7834 121.0245 113.0394 107.5140 109.9426 115.6557 118.7435 116.0923 122.0923 122.9412 127.3655 110.2255 125.6608 116.4317 112.3390 116.7188 112.0754 114.6427 122.4365 119.1982 119.9977 120.6733 124.0582 125.1275 127.0032 126.2365 126.4805 126.6331 126.7973 126.9459 127.1110 127.2866 127.4400
118.2900 118.2005 117.9784 117.7663 117.5671 117.3859 117.2382 117.1025 117.0049 116.9256 116.8888 116.6045 117.8805 111.9254 120.1643 113.2062 117.4501 116.6887 117.8092 117.8568 117.8167 118.8223 116.5092 119.1532 109.5599 113.2156 106.6526 112.8640 104.4125 119.8941 114.8840 119.4223 106.3042 102.1898 120.9064 109.5466 112.9238 123.6922 116.5636 123.1019 122.8122 123.5796 117.5369 129.8383 109.7361 111.3209 110.5957 119.2538 114.3902 119.4888 128.1598 118.4324 120.1025 126.6289 126.0218 123.8899 126.3188 126.4234 126.5755 126.7600 126.9390 127.0557 127.2192 127.2900
117.8500 117.8006 117.5556 117.3153 117.0971 116.9014 116.7249 116.5792 116.4647 116.3816 116.3247 116.1595 116.6491 118.4347 117.1315 117.5074 116.6156 117.0507 117.1685 117.4119 117.6502 117.8896 118.0666 119.1303 106.4609 116.6836 101.5128 110.6725 104.2877 113.4730 120.4028 121.9924 108.8824 118.8548 109.3217 112.1256 111.5578 123.6293 123.8520 123.7575 123.1305 122.8225 123.5889 135.1985 112.9995 105.8886 114.0341 115.4041 119.6515 115.9588 122.1717 115.3021 124.9162 124.3570 125.3461 125.9862 126.1660 126.3086 126.4920 126.6062 126.7256 125.8202 129.0286 127.2700
117.3600 117.3854 117.1097 116.8563 116.6095 116.3920 116.1918 116.0276 115.8964 115.7981 115.7466 115.6929 115.8400 115.8288 116.0963 116.0634 116.2291 116.4651 116.7004 116.9944 117.1011 117.5304 117.3367 117.9341 115.5895 119.1466 117.5396 119.7663 120.5253 119.6145 120.4213 114.2942 103.8366 118.2808 106.7954 117.0861 120.5448 109.3180 115.6952 120.3223 122.8528 122.9695 123.7613 123.3073 119.2000 115.8380 116.6747 120.5393 103.8805 124.8503 120.8464 125.9771 125.3299 125.1145 121.0838 125.8106 126.0660 126.3192 126.4800 127.7234 129.4341 129.0898 127.2887 127.2500
117.2800 116.9651 116.6636 116.3744 116.1019 115.8536 115.6299 115.4431 115.2836 115.1803 115.1170 115.0890 115.1610 115.2417 115.3303 115.5012 115.6955 115.8815 117.3394 104.9011 117.9337 117.0881 116.2578 116.8904 117.7550 119.4935 117.4316 118.9914 119.2980 119.0882 124.4777 120.3104 109.0222 115.9495 117.4626 110.1938 117.9273 106.4332 123.2289 118.1729 121.9935 123.8143 113.2010 108.4703 110.3078 111.3752 103.0362 123.9970 121.3253 124.9681 121.7226 120.4569 120.6427 121.3037 122.6768 125.9197 125.5967 122.9929 123.6788 129.6618 128.8536 129.2649 129.7745 127.2300
116.8100 116.5266 116.1933 115.8737 115.5701 115.2866 115.0257 114.8113 114.6402 114.5120 114.4368 114.4127 114.4418 114.5308 114.6862 114.8785 115.0978 115.3525 117.1665 113.8530 117.2488 116.4062 117.0457 117.4156 117.4765 118.0505 105.4691 119.9108 118.8865 119.4772 119.4362 114.1183 120.9016 125.5129 128.0957 105.2967 122.4056 122.0774 123.2626 127.5783 121.5278 126.1146 119.1434 105.1907 104.1694 101.6147 103.4948 122.8526 121.3975 120.6316 121.0609 120.4458 120.9831 121.0123 121.1331 121.6149 122.6529 122.5409 127.6386 128.3976 129.2501 128.1415 117.7630 106.1600
116.2600 116.0775 115.7082 115.3449 115.0066 114.6838 114.3919 114.1421 113.9337 113.7881 113.6968 113.6810 113.7219 113.8337 113.9944 114.2173 114.4826 114.7773 115.0037 115.3360 115.8836 116.2244 116.5625 116.9421 117.2054 118.5410 118.1803 118.4208 118.8142 119.5432 116.4196 120.6280 120.4711 120.6720 128.2569 116.9493 121.9283 121.2871 121.5931 119.6251 124.4395 112.8568 119.5400 107.2110 126.7422 105.7462 124.0694 125.6763 122.4367 124.0909 123.8010 121.5128 120.7363 120.2357 121.3644 123.2959 123.4830 123.8604 125.3793 126.2775 126.4823 121.1157 104.6746 125.0200
116.1500 115.6277 115.2154 114.8108 114.4184 114.0582 113.7151 113.4217 113.1781 113.0008 112.8911 112.8669 112.9193 113.0502 113.2482 113.5093 113.8063 114.1733 114.5576 114.9442 115.3343 115.7602 116.2219 116.2845 116.8347 117.2619 117.6498 118.0402 118.5904 118.8777 119.2241 119.4883 119.8827 117.8425 122.1615 120.9279 116.7397 122.9990 120.4223 115.6487 116.2487 118.8072 100.0632 119.4234 115.8260 119.7141 122.1818 125.6776 113.0731 114.2397 114.3017 113.0414 116.8712 123.5670 119.5281 119.8853 121.6368 125.9421 126.4343 126.3501 129.4702 129.0890 111.3902 124.8500
115.6200 115.1694 114.7136 114.2572 113.8111 113.3806 112.9901 112.6401 112.3509 112.1382 112.0054 111.9731 112.0388 112.1956 112.4368 112.7476 113.1111 113.5088 113.9477 114.3982 114.8546 115.3259 115.7051 116.9145 117.1549 117.0398 117.6034 117.9585 118.1069 119.7896 119.4482 120.0631 119.4224 120.4639 130.3508 110.6317 100.3913 118.5565 120.5532 109.6319 106.9487 113.6963 90.0626 120.6349 115.0306 126.3028 119.9283 120.1689 106.2828 107.0458 105.8276 109.3625 118.3388 119.5329 114.3629 119.0127 121.3023 125.7645 126.1752 126.0223 130.9558 118.4568 126.9626 127.0600
114.8900 114.7103 114.2055 113.6870 113.1673 112.6700 112.4172 111.7985 111.4495 111.1807 111.0202 110.9823 111.0635 111.2567 111.5527 111.9268 112.3598 112.8357 113.3381 113.8487 114.3603 114.7335 116.1966 106.0989 111.2774 117.0910 116.8883 117.7699 113.3612 116.9244 118.2469 116.4104 120.4965 113.1339 111.7271 112.3409 107.4865 113.7797 112.3460 113.5041 114.6250 118.9236 126.7524 117.4941 119.5611 119.3429 120.8850 121.4622 123.6201 131.4893 128.7722 121.6979 106.6187 118.8703 120.8358 126.1868 126.3590 126.0591 126.2016 126.0994 126.0004 122.0881 125.9822 127.0300
114.8900 114.2527 113.6761 113.1083 112.4938 112.2811 109.3224 110.9494 110.4548 110.1187 109.9092 109.8585 109.9648 110.2121 110.5819 111.0458 111.5623 112.1233 112.7007 113.2836 113.8608 114.3575 115.7034 110.3456 112.6064 116.9879 120.2546 119.3412 116.3709 121.9267 107.7299 107.2186 116.8010 111.1514 107.7979 117.9744 112.6215 112.9300 112.9714 112.0269 114.3160 115.5234 115.5573 117.1026 125.6650 123.8727 124.1278 124.3292 124.1173 129.6408 131.8060 110.9147 120.8876 126.1455 126.0931 126.0659 125.6314 125.9711 126.1583 126.4426 126.3282 127.1151 126.8662 127.0200
114.1300 113.8111 113.1694 112.5258 111.8431 111.0581 108.9820 110.2643 109.3432 108.9082 108.6462 108.5673 108.7086 109.0305 109.5046 110.0825 110.7189 111.3847 112.0620 112.7268 113.3681 114.0096 114.5458 115.7737 116.2363 116.5407 117.1395 117.5917 117.2561 125.4223 118.6238 109.2905 112.7726 108.9993 103.5226 106.6520 117.3469 116.9413 119.1073 113.5380 114.0813 116.0430 115.0328 117.6742 120.4796 124.6811 123.9235 123.7111 123.7549 124.0371 120.3745 119.8590 125.5289 124.8828 123.6413 121.9357 125.9762 125.9568 126.1527 126.6381 128.8354 126.6046 126.8357 126.8900
113.4900 113.3838 112.6771 111.9471 111.1618 110.4853 109.5924 108.8392 108.1202 107.5308 107.1628 107.0565 107.2503 107.6921 108.3145 109.0562 109.8420 110.6333 111.4202 112.1745 112.8975 113.6028 114.2521 114.8710 115.4225 115.7679 116.3054 117.2322 116.6728 118.7686 114.0518 112.2899 106.9155 110.4014 108.2849 109.8565 123.3922 113.7465 111.9995 111.2708 118.0536 121.1996 122.1043 110.8345 123.3382 114.3314 124.9985 123.6748 124.1880 121.3961 117.2086 126.8119 125.1607 125.2342 124.7585 125.3706 125.6911 125.9182 126.3984 125.9811 126.0219 126.6070 126.7520 126.8800
113.3500 112.9872 112.2080 111.3912 110.5129 109.5842 108.6137 107.6544 106.7169 105.9107 105.3804 105.2266 105.5096 106.1486 107.0008 107.9565 108.9291 109.8781 110.7940 111.6495 112.4588 113.2104 113.9213 114.5805 115.2199 115.8112 116.3702 116.8836 117.6228 115.8522 124.3202 119.7746 106.0150 106.1040 108.2572 110.8872 112.1971 120.8482 120.2695 120.9279 122.5147 122.5169 123.0030 119.4539 121.6130 111.4866 123.8178 123.6461 123.9249 128.8309 111.7667 111.9450 123.8563 117.0129 125.9594 125.5627 125.6871 125.8977 124.5729 135.1062 126.2166 126.6432 127.0867 126.8700
113.2200 112.6293 111.7875 110.8776 109.8928 108.8137 107.6470 106.4137 105.1608 103.9829 103.1459 102.8920 103.3531 104.3325 105.5438 106.7991 108.0205 109.1571 110.2008 111.1671 112.0519 112.8735 113.6334 114.3354 114.9949 115.6092 116.1845 116.7367 117.2976 117.3759 117.4292 116.7286 111.1108 108.5082 106.1550 106.5903 117.5268 120.6701 121.1396 123.0693 113.7284 121.7707 112.8395 124.9905 119.1700 117.7993 123.2851 123.9613 124.1280 119.5432 123.5298 124.0993 125.2029 125.2569 125.2303 125.4680 125.8604 126.0117 138.8881 117.1133 112.3195 116.3802 120.1757 111.9700
113.1200 112.3271 111.4234 110.4317 109.3325 108.0912 106.7123 105.1521 103.4319 101.6686 100.2123 99.7597 100.6007 102.1825 103.9805 105.6468 107.1518 108.4880 109.6808 110.8082 111.7454 112.5924 113.3933 114.1336 114.8156 115.4480 116.0454 116.6307 117.1667 116.1315 117.8736 114.0046 111.2480 109.5272 120.2534 121.0729 120.6839 120.9352 120.9082 121.8548 121.4760 117.4900 125.3357 115.5587 108.8831 117.6908 122.2102 123.6788 123.9293 110.1763 123.7395 124.3620 124.7248 125.1581 125.4506 125.4737 125.7178 125.5852 125.5683 127.7353 110.4212 134.3844 117.5634 116.5800
112.4500 112.0911 111.1458 110.0736 108.8762 107.4930 105.8844 103.9755 101.6565 98.9410 95.7283 94.3759 96.6754 99.8046 102.4185 104.5932 106.4152 107.9412 109.2618 109.8943 111.4812 112.3748 113.2201 113.9736 114.6830 115.3470 115.9485 116.4151 117.2329 117.9401 104.6456 112.9789 119.8796 120.8959 119.5764 121.3518 120.2057 120.6840 122.2506 127.0876 111.9355 110.9042 121.8504 110.8785 121.3925 118.6546 113.6716 124.2669 124.5428 125.1489 124.4929 124.2516 125.5163 122.0857 125.7084 125.3349 128.5427 126.3658 126.0502 126.7321 121.9951 128.2160 122.0124 111.8600
112.3900 111.9450 110.9553 109.8475 108.5672 107.0809 105.2836 103.0623 100.0902 95.8060 89.6322 87.9650 91.1555 97.3929 101.1072 103.8019 105.8785 107.5679 109.2739 107.6848 111.5243 112.1205 113.0994 113.8726 114.6011 115.2690 115.8834 116.2672 120.9823 111.5580 115.7370 116.0662 115.8494 114.3267 120.0902 119.9223 121.3777 121.3492 120.7247 120.9794 124.1470 113.6533 113.3703 111.2697 121.1469 113.7613 124.5698 123.7810 123.6323 123.9523 124.3100 124.2527 131.6726 108.8572 126.2706 125.4394 125.8727 125.6136 125.8068 126.2033 126.0633 131.6579 122.0155 138.2500
112.3500 111.8830 110.8847 109.7426 108.4297 106.8976 105.0276 102.6488 99.3215 93.6576 86.2827 84.5165 87.9741 96.0924 100.4814 103.4523 105.6526 107.4032 108.8544 110.2812 111.2377 111.4539 113.1116 113.8301 114.5704 115.2325 115.8539 116.3309 118.8279 105.1364 98.9122 106.9181 104.1127 109.6330 119.6588 120.4830 128.1642 115.5994 122.7315 122.8675 122.6444 119.7555 119.8347 108.8162 124.5949 123.6159 123.1828 123.6303 123.9692 124.2078 124.3471 124.5159 126.2808 116.3415 128.3718 125.4779 125.1922 126.2201 126.2106 126.1704 126.2283 127.6375 136.3010 125.2400
112.3500 111.9150 110.9200 109.8266 108.5336 107.0084 105.1690 102.8692 99.7467 94.9027 87.9989 86.0688 89.6330 96.7694 100.8224 103.6378 105.7768 107.4918 109.0487 110.2710 111.2145 111.9973 113.0931 113.8103 114.5797 115.2683 115.8930 116.3660 119.8551 111.4938 110.5045 113.4591 112.9499 121.2554 119.1324 120.6556 114.1923 106.7173 115.7636 113.1524 114.8731 106.5173 116.2844 116.0258 120.6294 122.6536 123.4082 123.6786 123.8991 124.1264 124.3752 124.5701 124.8654 126.6854 117.5063 126.3174 116.2237 125.6297 123.1740 126.1667 126.5767 126.7187 119.7694 115.3100
112.3700 112.0401 111.0953 109.8403 108.6763 107.3668 105.6643 103.6484 101.1114 98.0187 93.5420 92.0416 95.0132 99.0655 101.9756 104.3054 106.2262 107.8387 108.4608 109.4931 111.4115 112.3445 113.2548 114.0972 114.7090 115.1382 115.8054 116.3159 118.8167 123.4915 119.7009 119.6092 119.6669 119.5601 119.0481 125.6371 121.9136 104.4677 116.9463 114.8263 114.3069 117.6751 111.7809 110.3881 109.7512 123.2762 123.3798 123.6884 123.9184 124.1555 124.3851 124.6027 124.8463 124.8183 123.3751 124.9397 124.0618 125.1350 119.1113 126.6341 125.9341 125.6739 131.2055 131.4900
113.0800 112.2492 111.2371 111.3708 109.8639 107.8649 106.4256 104.7730 102.8687 100.8538 99.0988 98.3743 99.5111 101.4418 103.4867 105.3084 106.8845 108.5094 109.5951 115.9799 111.4824 112.4843 112.9893 113.4011 114.6653 115.2887 115.5855 126.3248 107.8526 105.5370 106.0752 119.3999 118.8287 119.2488 119.8445 121.0847 129.4729 109.7433 112.7128 123.0315 121.7300 124.4799 125.3788 121.5742 119.1670 125.2399 123.8876 123.6063 123.9533 124.1681 124.3931 124.6192 124.8353 125.1019 125.3960 125.9831 125.6751 126.3683 126.8795 126.3357 125.1462 136.8022 116.2810 112.0900
113.1700 112.5412 112.1291 101.7183 110.1077 108.3351 107.3800 106.0156 104.6133 103.2953 102.2811 101.9724 102.5371 103.6901 105.0574 106.4362 107.7420 108.9950 109.9649 113.4598 111.8631 112.8966 113.1401 118.1520 115.3995 115.4350 107.1708 118.7281 102.4500 99.3624 112.7615 115.2570 118.8879 119.5309 119.6621 121.9290 116.1107 105.3410 107.7646 121.5931 122.0307 121.7171 121.4181 111.1446 109.7073 109.0096 120.2162 121.5368 123.7541 124.2284 124.4165 124.6338 124.8520 125.0615 125.2219 125.3755 125.5405 125.5595 125.9762 126.1699 125.9597 128.1617 108.6454 117.8500
113.2800 112.8949 112.1590 109.3757 110.4205 109.3058 108.3203 107.2753 106.2427 105.3316 104.7194 104.5319 104.8639 105.5956 106.5591 107.5945 108.6481 109.6188 110.5822 111.5197 112.3088 113.2884 114.7917 110.5846 105.3815 117.0807 117.3793 96.0751 110.6269 116.5631 119.0473 117.4285 119.0506 119.7803 120.0100 121.5638 120.4382 119.2066 120.3710 122.7535 121.2417 118.1617 128.7432 121.1631 120.4735 121.4688 121.3046 122.6308 123.9557 124.2264 124.4432 124.6577 124.8753 125.0993 125.2644 125.1841 126.0313 126.8394 125.9066 126.2960 127.6091 126.5890 122.9412 122.7300
113.9200 113.2738 112.4389 112.0818 110.9558 110.1557 109.2798 108.4557 107.6877 107.0410 106.6195 106.5027 106.7143 107.2135 107.8606 108.7176 109.5370 110.3668 111.3115 112.0157 112.7481 113.4497 114.4847 114.5625 112.2539 112.2586 103.0536 117.5727 114.6937 117.7752 118.4292 118.8213 119.0197 119.8706 122.0783 108.3381 121.9414 120.1059 121.6656 104.0697 118.8479 134.7292 111.9781 115.3547 124.1356 123.3473 123.3970 123.8093 123.9882 124.2493 124.4740 124.6872 124.9026 125.1297 125.3156 124.2374 136.3258 113.4101 126.5613 130.0144 126.2249 126.7500 120.7119 113.7800
114.0800 113.6692 113.0188 112.3359 111.6239 110.9339 110.2268 109.5755 108.9621 108.4924 108.1872 108.1039 108.2620 108.6301 109.1729 106.9251 109.2574 112.0851 111.9873 111.9058 113.2379 113.6069 115.1995 104.3671 117.2685 116.1433 117.1500 109.0517 117.9724 117.5732 118.5691 118.9582 119.1319 121.7143 121.1523 104.9732 124.5709 105.2867 112.2808 118.3801 115.8512 106.9720 105.2499 104.7028 118.9290 123.2211 123.8299 123.8659 124.0506 124.2804 124.5065 124.7199 124.9348 125.1403 125.3479 125.6420 125.2627 125.5369 126.2454 126.3488 126.4326 126.3420 128.4141 130.1800
114.2100 114.0804 113.5334 112.9180 112.3145 111.7066 111.1253 110.5863 110.1090 109.7507 109.5207 109.4607 109.5748 109.8400 110.1759 111.8992 107.0858 97.2135 112.2849 112.1308 113.8420 114.2676 115.0287 115.7096 115.8522 116.3748 116.7291 118.5236 118.3187 118.1818 118.6458 119.0579 119.5246 120.3381 119.9010 121.2638 122.1302 113.6369 115.3249 116.7370 111.0025 112.9283 113.6910 110.2651 112.6244 123.6906 122.2928 123.8880 124.3106 124.3194 124.5395 124.7578 124.9717 125.1788 125.3809 125.5488 125.8852 125.9341 126.0742 126.2637 125.7935 126.8661 132.4241 116.6400
114.8400 114.8134 113.9871 113.5028 112.9718 112.4491 111.9640 111.5182 111.1385 110.8501 110.6778 110.6339 110.7207 110.9264 111.2960 113.6008 95.8984 95.1359 104.8902 104.2648 114.3607 114.8431 115.2925 115.5389 116.2330 116.9081 117.2715 121.5259 117.7107 118.4616 118.8385 119.2169 119.5425 120.0331 118.8539 120.8645 120.8243 118.5217 116.5957 128.1942 115.8552 111.8330 113.9826 116.3837 116.1368 124.9581 119.3097 117.1036 121.8408 124.4576 124.5947 124.8045 125.0171 125.2155 125.4132 125.6210 125.7791 126.0152 126.3039 126.1395 129.5994 124.8279 129.7498 139.7100
105.5500 115.1121 114.4227 114.1013 113.6142 113.1657 112.7584 112.3824 112.0711 111.8428 111.7006 111.6581 111.7365 111.9060 112.2221 112.4141 108.6678 93.6519 97.0914 109.4816 114.5390 112.2413 115.3779 116.1085 116.5592 116.9746 117.1832 117.8621 118.3912 118.6163 119.0224 119.3858 119.7775 120.1192 120.5752 120.8934 121.1945 116.1522 103.7232 110.6689 108.7932 109.3772 114.2144 111.9751 123.1901 123.4866 123.8267 121.6462 116.4218 125.0491 124.5912 124.8497 125.0612 125.2655 125.4622 125.6526 125.8391 126.0183 126.4372 125.3176 135.4419 123.0490 111.4349 108.3900
105.5500 115.1500 114.7500 114.3200 113.8900 113.4100 112.9700 112.9700 112.4400 112.6200 112.6200 111.8500 112.6300 112.5700 112.4700 113.0200 113.4600 96.0200 95.0600 114.7400 115.1200 107.7600 115.9100 116.2800 116.6300 117.3000 117.6200 117.9400 118.5300 118.8100 119.0900 119.6200 119.8700 120.1200 120.6000 120.8300 121.0500 121.4800 104.1700 100.1000 111.0600 112.1900 122.8600 107.1200 118.8000 123.5600 123.7200 124.0500 124.2100 124.5200 124.6700 124.8100 125.1000 125.2400 125.5200 125.6500 125.9200 126.0500 126.1700 122.7500 136.6400 109.9300 120.9100 113.9500
