121.7900 121.7900 121.6500 121.6500 121.4500 121.2300 121.2700 121.3000 121.0500 121.0800 121.1000 121.1100 121.1100 121.1100 121.0900 124.8900 116.4300 121.3000 121.2700 109.4900 109.4900 121.6100 121.6100 121.8000 121.9700 121.9700 122.1300 122.2800 122.4900 122.6300 122.6300 122.9500 122.9500 123.2600 104.8400 123.5600 123.7200 123.9000 111.4000 124.1600 124.3200 123.2900 124.7200 124.8600 125.0100 125.1200 125.2500 125.5100 125.6400 125.7600 125.8800 126.1200 126.2400 126.3600 126.6000 104.7100 126.8200 105.0400 105.8400 107.6700 105.4800 127.5800 127.6800 127.7800
121.7700 121.5258 121.4174 121.3202 121.2168 121.1239 121.0511 120.9829 120.9288 120.8869 120.8549 120.8364 120.8302 120.8573 120.9337 120.6378 120.4569 120.9262 121.3797 100.7370 108.0487 119.9313 122.5124 122.6836 120.4447 122.7904 121.4981 122.3542 123.3859 123.2822 121.9411 112.2971 105.0316 100.6515 107.5364 105.9371 116.1558 116.3484 110.6049 118.8190 118.3291 123.4223 122.0929 124.6825 124.8976 125.3220 112.7047 115.9291 126.3417 125.6854 125.9524 125.8162 126.6358 115.6967 130.3529 113.2444 110.7453 116.8677 106.1921 105.4724 109.0884 122.0916 128.6095 127.7500
121.4800 121.2701 121.1861 121.0225 120.9000 120.8041 120.7226 120.6474 120.5923 120.5438 120.5080 120.4912 120.4910 120.5005 120.4540 120.6066 120.5823 120.6729 121.4997 114.9125 101.8892 101.7236 122.0753 122.2352 108.4826 121.4090 123.6655 121.4222 115.7197 106.9783 124.0296 97.6360 99.7926 113.2194 110.0210 107.5396 109.2396 109.4049 108.3223 122.8866 120.5505 123.2921 125.5371 124.8806 124.0322 125.4070 127.5510 118.0934 125.6915 125.6565 125.5670 125.6923 122.7789 116.0326 121.3861 106.7620 114.9812 117.6687 103.8926 108.7640 114.6644 117.3886 121.8144 127.7500
121.1800 122.7574 119.5039 120.5607 120.6611 120.4729 120.3856 120.3032 120.2371 120.1894 120.1486 120.1296 120.1285 120.1351 120.1662 120.1912 120.2513 120.2710 120.8201 103.7185 106.1147 112.2564 111.7891 110.4846 124.2813 107.8588 120.0119 121.5408 120.9284 109.0112 112.8145 101.0580 100.1948 109.1320 117.8462 110.3318 105.9107 110.5728 101.7038 123.6208 120.4868 124.4494 108.2634 122.4072 126.9562 125.2586 124.9264 123.5143 126.5910 125.4353 126.0143 126.7200 125.4977 124.5358 123.8070 108.5285 111.1730 105.1539 112.8431 112.6605 116.8167 115.8251 125.7803 126.5900
120.8600 120.7142 118.2275 122.4225 119.4641 120.2033 120.0184 119.9414 119.8716 119.8123 119.7765 119.7550 119.7526 119.7586 119.7911 119.8404 119.8846 119.9330 120.7760 114.2826 119.5386 127.0993 122.5773 122.2210 121.3134 119.1307 122.2922 117.8525 119.6178 124.7109 102.5581 110.6900 104.7738 102.8410 107.1767 111.7955 108.9452 108.4866 121.3517 124.4868 123.5890 126.2969 118.3596 106.9667 105.8574 118.1157 124.8903 105.6204 125.4350 125.2000 122.1199 121.0806 126.2978 127.5595 129.8215 104.5660 113.1539 111.7195 111.5988 115.5875 119.4529 115.6571 126.7820 127.5700
120.5300 120.2946 119.9596 125.4629 120.7890 120.8413 119.6799 119.5581 119.4890 119.4260 119.3829 119.3653 119.3530 119.3732 119.4001 119.4517 119.5120 119.6007 119.8258 120.2139 119.0874 120.2444 119.7081 119.2535 120.1293 120.7291 120.8259 120.9820 121.4161 112.8368 119.2513 106.5902 103.8852 102.8391 105.2488 104.7423 117.2694 124.7352 123.3811 121.3044 114.9141 118.0426 123.6056 123.0622 122.2817 124.0496 118.2040 120.2358 128.3683 109.7191 127.1165 125.0192 127.7609 103.6073 107.7943 113.6265 117.0773 109.6786 114.3228 114.1448 112.3733 108.5654 128.8776 127.4300
120.1400 119.9965 119.8196 118.9640 119.2735 119.3835 119.2819 119.1711 119.0838 119.0253 118.9753 118.9460 118.9447 118.9587 118.9955 119.0435 119.1096 119.2043 119.2716 119.3573 119.6486 119.7188 119.8010 120.4150 113.0516 121.4105 120.6066 120.7954 121.2543 120.6723 121.4979 111.6330 107.7809 111.3832 102.4163 107.2833 105.9176 123.3442 120.2657 126.7609 123.9715 124.6681 125.6443 111.5971 117.7078 120.5316 114.1745 108.4634 119.1100 107.1191 124.4891 121.5144 102.8264 103.2100 110.4561 115.0631 115.4280 113.9668 114.1397 108.0866 128.6742 127.1412 127.6303 130.8100
119.8000 119.6364 119.4638 119.3002 119.1789 119.0114 118.8760 118.7629 118.6717 118.5944 118.5476 118.5205 118.5140 118.5263 118.5686 118.6245 118.7011 118.8024 118.9276 119.0612 119.1959 118.9628 120.2442 116.3181 111.2515 122.3428 120.0473 120.6865 120.6903 121.6117 120.0973 115.2488 102.1863 102.1162 106.3012 99.8171 113.7492 123.1735 123.1770 124.2369 114.2329 102.5059 115.3737 115.7714 114.7933 115.7699 117.5104 111.4467 123.2425 124.6678 119.5468 125.1996 107.7962 109.9993 113.5836 112.8966 111.6935 104.6969 117.4466 127.5466 126.7227 126.9280 127.7324 122.1200
119.4300 119.2967 119.1040 118.9242 118.7475 118.5745 118.4559 118.3228 118.2345 118.1649 118.0966 118.0669 118.0593 118.0738 118.1166 118.1804 118.2663 118.3760 118.5047 118.6457 118.8479 119.0759 114.5133 117.3442 120.2056 119.7050 119.7486 120.3681 114.6336 120.5316 103.2901 103.1633 115.5735 114.7170 105.8751 118.0218 123.1830 122.9939 123.7496 121.3480 121.6125 108.7047 114.9741 109.8038 106.7669 122.4325 109.9475 108.7805 126.2249 124.7052 121.2588 112.4815 110.0109 109.2137 110.0284 104.0144 114.3289 114.7529 127.9793 126.2698 126.8748 126.2337 126.0222 106.6300
119.0200 118.9475 118.7330 118.5301 118.3376 118.2594 118.0123 117.9335 117.7744 117.5532 117.6462 117.5838 117.5795 117.5933 117.6419 117.7206 117.8190 117.9386 118.0721 118.2345 118.5139 118.2492 117.9775 119.3752 118.8141 119.5100 119.7857 120.3594 112.3212 106.2438 115.0675 124.9387 119.9733 105.6312 119.6472 123.2624 121.9596 116.4537 119.6092 105.3800 98.2052 99.2939 104.9250 115.2929 106.0332 103.8962 102.0975 110.2428 125.2850 127.0734 129.9843 110.3056 103.8519 103.8582 114.3227 104.9890 109.2362 114.6304 126.9784 126.8127 126.8651 126.3549 119.9374 108.6900
118.6000 118.5545 118.3430 118.1136 117.9350 117.5563 117.7183 117.4764 117.3347 118.1087 116.9717 117.1063 117.0693 117.0911 117.1401 117.2265 117.2970 117.4134 117.6267 117.7954 118.0833 118.1204 113.2841 118.8708 118.9972 119.1428 119.3616 119.8667 119.6507 120.8184 120.8270 119.1352 121.0932 113.1184 105.0678 116.1792 123.2451 106.9626 102.0546 101.1571 105.3620 101.7683 102.9285 103.9544 105.4388 113.0351 131.8721 123.6413 125.0400 118.8155 123.0494 109.2391 111.5511 118.6540 109.4103 102.9366 103.9050 111.9070 126.6870 126.6804 126.9531 119.0522 110.4728 129.2400
118.5600 118.3025 117.9799 117.7283 117.3518 117.3126 117.0286 117.9721 116.8985 109.5282 116.9870 116.2291 116.5407 116.5544 116.6248 116.6825 117.0149 117.2290 117.1137 117.3466 117.6554 117.9476 117.8963 119.1480 118.5297 118.8320 119.1004 119.2747 119.5975 119.6958 120.0048 121.7784 122.9992 104.7267 99.9721 109.1740 123.1815 112.2675 106.0963 100.8848 106.9330 100.6619 102.9539 110.5756 110.3029 120.2658 120.3586 123.6167 124.8912 119.8907 124.2629 113.0785 121.3546 117.8319 102.7057 102.8133 102.9164 123.8808 125.6146 126.6852 126.9072 119.8850 115.0230 105.1800
118.1500 117.8743 117.4541 117.2208 117.1492 116.8722 115.2740 102.9295 115.6707 114.7357 114.8878 115.8604 115.9696 115.9797 116.0508 116.3513 113.2417 116.4588 116.6193 116.8749 117.1160 117.4097 117.6283 114.7303 118.2164 118.4656 118.7829 119.0804 119.4044 119.6513 119.2211 118.3231 107.1227 101.1521 99.7670 116.6057 122.2634 112.7599 105.9186 100.2829 100.8679 108.3682 112.0181 113.6564 112.7155 119.8140 122.6904 124.4586 125.3212 121.5548 124.6256 102.9454 100.1171 107.5752 103.7914 110.6401 103.8091 113.9469 127.6327 126.5575 126.8820 128.3631 124.3851 114.8500
98.6400 114.0893 117.2271 115.1849 116.5665 116.0469 116.7276 103.2577 105.4602 116.1675 115.5771 115.2994 115.3416 115.3693 115.4492 115.6888 115.4814 115.7362 116.1723 116.3837 116.6466 116.8941 117.1937 118.0507 117.9566 118.1617 118.4704 118.7628 118.9995 119.6431 122.1893 108.9789 97.0083 99.3935 104.0655 118.2264 120.5816 113.8469 111.6691 100.8951 104.5475 112.1640 112.9358 116.7869 119.6506 123.9015 124.7389 118.6278 120.4583 105.4833 107.8348 111.3700 101.8588 106.9834 103.3656 107.4362 105.3947 107.8330 119.0539 127.6105 128.2903 131.1110 107.8872 109.3800
113.8800 114.7760 117.0580 116.6648 116.0321 115.9188 116.0775 113.5232 116.8340 115.4681 114.7184 114.6624 114.6794 114.7140 114.8013 114.9201 115.0696 115.6985 115.5161 115.8771 116.1625 116.4799 116.8439 117.1749 117.4994 117.8411 118.1996 118.4928 119.4260 113.5716 114.9881 99.8456 99.4377 103.5377 104.8902 122.7149 123.6277 102.7573 108.2438 101.3699 111.2653 114.3687 120.9720 124.7239 125.8972 116.6384 122.7601 115.2951 117.1501 114.6491 101.7811 113.7007 105.0257 104.1083 108.5231 113.5233 104.1747 117.7177 127.2970 127.6131 127.8550 122.1980 104.0130 104.9900
116.6600 116.6640 116.2101 115.8489 115.5346 115.1721 114.8741 113.7487 115.5830 113.1700 114.0717 113.9599 113.9592 114.0016 114.1053 114.2830 114.3652 116.0123 116.3610 115.2696 115.6658 116.0179 116.3688 116.7160 117.0885 117.4356 117.4023 118.0272 118.5692 115.7307 111.7009 104.6619 105.3884 103.4604 118.0987 107.3241 108.9364 105.1925 112.7334 102.2811 113.9686 123.6198 118.9032 104.2745 116.2591 114.2828 115.2743 116.8108 109.7305 112.3335 102.2279 104.8628 102.4216 103.6741 115.1939 104.8081 107.6957 124.7436 123.6210 126.6988 127.8471 118.7043 107.9150 104.9800
116.5100 116.1926 115.7922 115.3879 115.0098 114.6357 114.3388 113.4308 123.6883 113.4642 113.2964 113.1922 113.1768 113.2335 113.3478 113.5445 113.7801 113.1533 112.1645 114.7952 115.1450 115.5373 115.9414 116.3288 117.1224 118.1430 117.9214 118.4545 118.6720 120.4245 105.8972 107.1194 104.1854 103.3107 105.4017 106.1236 105.8106 111.9142 101.0752 113.1472 106.6075 113.8674 113.1592 112.9192 113.3645 114.1909 115.1210 116.8357 104.2515 101.9039 102.7639 102.4731 119.0290 104.1616 117.6281 108.0323 105.8251 123.2252 122.9071 120.1611 125.6443 123.8521 123.9618 116.6300
115.9700 115.7799 115.3270 114.8907 114.4580 114.0340 113.6058 113.1136 112.4286 112.1296 112.4884 112.3668 112.3227 112.3839 112.5328 112.7523 113.0574 113.6210 113.6706 114.4348 114.5850 115.0376 115.5455 115.7656 116.4499 97.6927 98.1526 98.8633 103.6391 97.4554 101.3759 104.4782 105.1516 105.3529 106.4878 113.0008 114.9436 114.3950 102.6873 112.8511 113.4388 113.6804 114.3340 113.9493 112.8410 122.0727 109.5379 116.4624 116.4639 120.7270 110.0180 113.9228 101.0816 102.7855 102.9603 104.1776 103.5240 109.9185 125.1281 121.6895 122.3688 124.7646 126.9098 128.0500
115.8600 115.3649 114.8646 114.3816 113.8784 113.4357 113.0561 112.5089 112.1141 111.8875 111.5300 111.4058 111.3645 111.4440 111.6300 111.9127 112.2370 112.6069 113.0922 113.5752 114.0678 114.5498 115.0401 116.0987 108.1587 102.8918 98.9731 105.7919 102.8150 103.8272 102.6014 103.8098 105.6069 111.4975 119.9064 119.0507 109.2427 109.7358 96.8642 111.7137 100.3138 116.0819 114.8801 114.9417 113.8069 114.8936 119.7034 120.7508 117.3288 115.2764 114.2823 103.3897 105.2165 103.3694 103.8252 120.1065 116.3463 124.5346 126.0322 128.3253 126.8011 129.2526 124.2941 121.6800
115.3000 114.9452 114.4093 113.8431 113.3684 113.0292 112.2444 111.6845 111.2336 110.8186 110.5378 110.3471 110.2960 110.3941 110.6190 110.9686 111.3994 111.8832 112.4036 112.9570 113.5090 114.0511 114.7162 114.6989 116.8946 109.8479 124.1535 104.0912 102.3631 104.5606 101.8580 101.6376 104.8991 104.3797 108.2637 109.8196 110.7199 105.8778 99.6192 104.8345 115.1001 112.9203 112.9452 113.7904 114.5836 113.9827 115.8053 118.6714 112.0370 105.8673 120.5521 114.6541 116.3075 105.1680 120.1664 123.8309 125.3233 125.6302 128.1413 128.7002 128.8438 129.0870 130.6028 130.0100
115.1700 114.5396 113.9674 113.3494 113.0072 106.2035 111.4411 110.8261 110.2602 109.7677 109.3769 109.1373 109.0782 109.2054 109.5016 109.9324 110.4621 111.0525 111.6795 112.3201 112.9479 113.5695 114.2013 114.4695 114.7472 109.7755 113.1330 103.1885 101.5510 101.9483 103.7511 101.6587 103.8625 107.1852 109.6620 107.8549 101.9902 111.5551 105.1116 107.8708 115.5585 112.3607 110.7141 112.1534 114.3206 114.5209 114.8560 118.3901 123.8682 118.5254 118.9598 118.2554 106.2782 122.9348 117.4382 120.7824 122.8967 121.8192 129.1457 128.6736 129.0111 129.0271 124.3388 130.3400
114.5500 114.1259 113.5179 112.4160 112.4113 111.6056 110.6675 109.9355 109.2138 108.5722 108.0693 107.7340 107.6585 107.8305 108.2324 108.7929 109.4667 110.1892 110.9336 111.6743 112.3974 113.0852 113.8455 114.3771 107.1700 105.0056 95.2550 102.1684 100.8539 102.8705 100.6373 102.7583 103.5711 106.1457 111.4738 95.6146 97.7093 98.4353 108.9790 108.6048 114.8676 110.9224 113.0566 115.2869 116.7536 116.1012 117.8212 117.5142 120.5742 117.6651 115.3413 119.6843 120.4209 120.4550 121.2134 121.1773 121.8259 121.7141 125.9397 129.0401 128.7431 130.2605 120.3036 118.8500
114.4700 114.1235 111.9614 113.8700 111.5147 110.6418 109.8072 108.9725 108.0762 107.2390 106.5385 106.0813 105.9559 106.2082 106.7709 107.5312 108.3904 109.3010 110.1799 111.0416 111.8631 112.6262 113.1340 116.4911 104.6322 111.4520 94.5367 98.3329 103.2678 101.3767 104.3212 106.5787 109.1814 109.2822 110.1015 101.7906 101.5934 99.9783 101.5303 104.7308 107.7766 112.6817 113.1503 114.5933 107.5245 107.3807 116.1037 116.0528 117.0072 118.3668 108.7887 118.3564 119.1578 119.5129 121.7281 120.9882 123.0630 123.7745 123.7642 129.9652 129.9043 130.0810 131.8019 130.3000
113.7600 113.9013 108.1934 111.9592 110.8699 110.1090 109.0770 107.9864 106.8613 105.7277 104.7458 104.0346 103.8463 104.2377 105.0701 106.1266 107.2593 108.3793 109.4448 110.4397 111.3501 112.2715 113.2143 101.6728 100.6320 93.8682 99.9368 99.8141 107.8823 105.6017 110.6137 110.0883 109.9080 99.6161 103.9953 103.0253 99.9181 110.4313 109.4830 113.2099 108.6740 112.5893 114.1940 105.3266 107.8179 112.9453 115.8904 116.6395 117.0457 117.5135 120.4430 119.5820 121.2505 122.7700 109.9947 125.1159 109.7342 110.8366 122.7657 125.6162 129.7290 129.7140 130.4659 130.6300
113.6600 113.3872 110.6614 111.8587 110.5747 109.4950 108.3211 107.0216 105.5812 104.0688 102.5458 101.3923 101.0676 101.7254 103.0754 104.6138 106.1126 107.5024 108.7613 109.8938 110.9551 111.5266 111.2182 89.7016 104.6241 107.5249 102.7241 102.7494 101.7705 108.4200 103.4962 106.0323 103.2186 106.1379 99.5541 99.1158 105.3850 107.8581 109.9059 112.1219 113.5003 113.3921 113.1874 112.7757 115.2479 115.5062 114.8968 115.0789 116.3614 116.6453 104.2224 106.9308 107.0520 107.7061 104.9109 107.5814 101.1267 100.7951 126.3494 127.8362 129.6380 130.8534 131.1488 130.9600
113.5900 112.9786 112.3514 111.2545 110.1710 108.9973 107.6632 106.1403 104.3438 102.2673 99.9391 97.6960 96.8581 98.4742 100.7548 103.0594 105.0152 106.7059 108.1599 109.4392 110.5822 111.0084 116.5211 111.1822 108.3743 97.8940 111.2456 102.0912 99.5942 101.7177 101.0331 105.4335 104.9734 107.0107 98.7159 103.2254 97.5738 111.3426 106.2945 104.4731 102.4186 114.0537 114.2892 114.5077 113.4518 114.3371 115.2137 116.2230 115.6775 117.2217 100.2089 101.6949 101.8278 102.3377 102.3704 112.7836 103.8676 102.7126 123.2694 123.1184 123.1018 123.0303 123.4419 124.5800
113.5400 112.8601 111.9520 110.9766 109.8887 108.6303 107.1739 105.4389 103.3062 100.5393 96.9642 91.5872 90.1211 93.2655 98.4412 101.6202 104.1116 106.0880 107.7126 109.1026 110.2910 111.1684 114.3751 110.1562 91.7244 94.4932 94.8281 95.2906 101.4703 98.3935 101.4292 100.9532 103.0860 108.2997 111.1243 108.6486 111.6719 109.4108 111.6702 112.6966 111.1095 111.9633 112.6843 112.3092 112.8247 112.8153 110.0224 104.4191 102.0577 103.1262 102.1670 102.5094 102.6495 102.7932 102.7610 104.9133 103.2559 103.7736 105.4925 124.5351 123.0280 119.9825 107.8832 108.3300
113.5100 112.7751 111.8759 110.8727 109.7374 108.4261 106.8948 105.0370 102.6704 99.3927 93.9203 86.9140 85.2453 88.8410 96.5396 100.6792 103.5832 105.7399 107.4753 108.9271 110.1393 110.9913 113.5913 105.5699 99.0789 92.7586 93.2152 94.7492 93.9121 116.7115 94.4337 115.5371 99.7053 103.1304 108.7878 102.9264 98.2678 107.5801 105.5746 109.4487 109.0018 110.9235 110.5212 112.0031 112.3975 112.9166 106.3135 101.4145 101.3631 101.8999 102.1327 102.5876 103.8769 104.3145 104.8207 105.4885 105.6917 106.6756 107.5006 108.7005 108.4923 109.3548 110.0953 110.5800
113.5100 112.7774 111.8689 110.8679 109.7330 108.4225 106.8862 105.0241 102.6520 99.3659 93.8732 86.4052 84.7314 88.6345 96.4426 100.6574 103.5654 105.7250 107.4646 108.9156 110.1321 111.0675 113.3240 105.0872 101.5111 94.3080 94.3802 95.8036 95.0986 116.6151 95.1659 115.8402 100.5840 105.8498 99.7544 104.9417 98.4002 106.7017 111.3888 110.1902 109.3890 111.4676 110.9422 110.4188 112.6972 113.5681 105.8640 111.8585 100.1555 101.7710 101.7867 102.0025 102.9833 104.0243 105.8305 104.9924 106.5478 107.4529 108.2356 107.9713 108.4768 110.0590 121.8749 110.7900
113.5200 112.8509 111.9621 110.9805 109.8758 108.6089 107.1510 105.4004 103.2411 100.5386 95.9460 91.1859 89.6445 92.9003 98.2450 101.5413 104.0601 106.0556 107.6903 109.0820 110.2919 111.3528 112.1929 113.3642 114.9638 116.6035 115.6945 117.9628 118.0145 117.7267 118.3257 118.2844 119.4554 116.3734 118.8176 116.8538 100.6777 101.9745 107.7143 108.1104 109.1559 113.3197 112.9111 114.1512 112.8824 110.3555 107.3572 100.2910 101.9299 103.4351 104.3393 107.2384 104.7570 105.8836 105.8335 110.4651 119.5089 106.3854 115.4297 102.8864 106.1590 124.0947 122.3429 124.5600
113.5600 112.9949 112.1424 111.2018 110.1537 108.9729 107.6309 106.0830 104.2798 102.1699 99.7709 97.3782 96.4106 98.1593 100.5930 102.9598 104.9464 106.6581 108.1256 109.4065 110.5051 111.3917 112.4296 111.5484 114.0132 115.3498 110.8610 117.3723 115.7269 115.2519 116.8746 118.3332 120.2896 100.6028 97.5596 100.5121 99.5786 109.1253 104.9799 111.8005 108.5889 123.4292 122.4889 116.9604 113.9164 119.7581 103.6829 104.6036 108.4306 112.6616 109.7796 119.1706 114.4767 117.5085 105.7902 107.4654 106.9733 109.7491 108.8213 109.5806 122.7770 121.9961 117.2410 124.4600
113.6400 113.2111 112.3929 111.5085 110.5370 109.4664 108.2781 106.9637 105.5112 103.9494 102.3686 101.1777 100.8301 101.5272 102.9455 104.5094 106.0385 107.4403 108.7176 109.8505 110.9795 112.2615 112.7387 112.8795 114.3456 105.7671 116.5050 116.4270 115.9195 115.7971 108.1717 116.3676 113.3945 106.4419 101.0923 97.7805 107.4754 111.8465 109.5031 116.8148 124.4092 119.7604 124.4536 106.8212 108.9800 103.8752 104.6185 109.6094 114.2498 110.3831 105.7537 105.8427 105.9572 112.2917 116.1434 115.9087 116.8176 117.7421 120.1476 120.4550 116.1937 111.2676 108.1895 118.8400
114.3000 113.4795 112.7252 111.9134 111.0121 110.0589 109.0249 107.9254 106.7737 105.6300 104.6100 103.8748 103.6702 104.0748 104.9474 106.0306 107.1922 108.3234 109.3938 110.5027 111.1474 109.7196 109.7145 112.8541 102.5480 89.7436 116.1474 115.8179 116.1746 117.4347 132.1619 117.1517 96.8994 101.0843 98.3143 104.2375 100.5731 105.0284 109.8967 119.8852 116.6756 122.4273 118.9463 116.5658 101.8833 103.5109 100.7381 107.3242 112.8205 108.6200 115.1148 113.8164 114.0563 113.5264 116.2040 116.5031 115.2936 114.9139 114.9058 124.7356 118.3246 109.7926 118.1404 111.5500
114.3000 113.7913 113.0351 112.2874 111.5468 110.6969 109.8248 108.9067 108.0035 107.1362 106.4250 105.9395 105.8173 106.0767 106.6579 107.4402 108.3211 109.2287 110.1358 110.8555 112.8878 95.1411 111.2029 112.8802 104.7358 92.9738 118.3649 116.2907 116.8804 116.9474 109.6429 115.8611 115.7973 99.1938 106.3748 104.3616 105.3497 107.8059 107.1769 132.4967 115.8993 123.6429 110.8916 110.9547 112.0833 103.8365 108.4400 106.6645 106.0541 107.2561 109.1318 114.5228 113.2163 113.8036 115.4973 116.6484 114.5815 114.9882 116.2974 116.9213 116.1811 119.8166 126.3858 124.4700
114.4100 114.1282 113.8780 113.2571 112.0689 111.3832 110.6152 109.8652 109.1506 108.4921 107.9578 107.6261 107.5435 107.7181 108.1314 108.7034 109.3942 110.1272 110.8896 111.5839 113.1718 104.2766 114.8009 114.3681 116.9785 108.2050 117.0472 116.6040 118.1586 119.1123 117.2046 120.2031 104.8561 98.1280 103.2366 99.6359 103.5728 108.2619 116.6302 108.7901 121.7229 121.5067 111.4395 109.5511 125.1147 112.1069 104.3674 106.4689 101.1556 101.3345 101.3051 104.1201 115.3262 107.7988 110.1737 110.0904 118.5501 114.8841 115.4321 114.7755 119.2705 121.7107 123.4906 125.2800
115.1000 114.5562 112.9730 111.6569 112.7517 112.0380 111.4046 110.7919 110.2020 109.6844 109.2883 109.0410 108.9806 109.1092 109.4113 109.8568 110.4014 111.0012 111.6159 112.3743 112.7936 113.8968 113.9270 114.7899 114.9056 116.3452 116.6378 116.2468 116.8998 105.4276 116.7585 96.6522 96.8835 97.5754 98.8096 100.6714 104.8360 103.8269 123.4062 123.9424 124.6601 121.3297 112.5706 121.9359 123.8547 125.0438 104.2109 102.7584 101.9022 102.0185 102.3890 109.7797 117.8266 114.4813 118.4151 104.1662 122.1285 123.3499 123.5075 124.0780 120.9121 126.6210 126.6560 126.2500
115.2400 114.8454 114.2882 113.6395 113.2947 112.7254 112.1689 111.6364 111.1658 110.7622 110.4468 110.2627 110.2126 110.3092 110.5418 110.8893 111.3243 111.8238 112.3549 112.9085 114.0653 113.4144 115.6782 115.1052 115.6512 114.8758 114.4957 114.9684 114.4803 95.6453 105.4778 107.6465 95.5559 96.3701 97.6469 99.7514 101.3099 102.9021 109.0231 118.5902 106.6816 108.0341 118.7328 114.1337 104.1523 112.8278 106.7500 107.1597 109.3546 103.2522 102.7123 101.7583 106.1349 113.5987 119.5274 101.5414 117.1589 125.3868 125.9733 126.4064 125.5694 126.7922 127.3789 127.4200
115.7800 115.3299 114.8942 114.3375 113.8453 113.3697 112.8953 112.4524 112.0611 111.7295 111.4762 111.3299 111.2906 111.3743 111.5589 111.8341 112.1955 112.6036 113.0509 113.3921 114.9904 92.9394 116.4841 115.4791 115.7012 116.1036 116.0265 99.2730 98.6141 98.2840 119.3348 118.3761 119.4206 112.7118 98.2268 99.5964 104.1866 103.8782 105.9833 120.1716 120.6727 123.2514 113.4587 117.1247 101.3784 104.5250 109.8735 111.0418 118.1960 112.8439 105.4021 110.8137 120.4594 107.4544 104.8530 106.5432 108.3454 126.6285 125.7755 126.3925 127.2656 127.3442 126.9171 127.6800
115.9200 115.7530 115.2891 114.8596 114.4270 114.0195 113.6333 113.2016 112.8852 112.6051 112.4047 112.2870 112.2562 112.3146 112.4695 112.6912 112.9907 113.3386 113.7431 114.2068 115.1764 114.2038 116.4016 111.0863 110.4334 113.7599 118.6891 117.5590 115.1012 105.4015 119.0632 114.8631 111.3302 107.1780 97.8154 97.8286 106.0611 105.1024 102.4022 106.1780 106.8828 121.9894 106.8667 107.8368 101.8663 101.1398 101.3982 104.5341 104.2609 113.3065 111.0577 110.9377 116.5530 106.0747 113.9420 112.4722 119.0878 109.2011 125.7113 127.3090 106.2584 110.5056 127.4225 127.7000
116.4300 116.1694 115.7620 115.3622 114.9591 114.6773 114.0310 113.9895 113.6333 113.4143 113.2438 113.1464 113.1162 113.1684 113.2968 113.4843 113.7375 114.0295 114.3259 115.0983 113.7639 115.3345 110.6528 90.3570 112.5401 121.7531 119.1217 117.9303 118.4940 119.1527 119.7514 107.4904 95.6564 99.8579 99.3872 98.8260 109.4814 109.4349 109.1414 107.8517 106.8748 109.9887 105.4822 115.4731 109.6486 100.7331 103.4019 104.1273 106.2600 104.9790 105.9426 107.1196 115.3646 118.1725 117.8436 115.6291 115.2314 119.9476 118.5933 116.0879 118.8690 116.3554 109.7046 127.7400
116.5800 116.5862 116.2149 115.8536 115.3390 115.8744 115.4263 114.2683 114.3471 114.1541 114.0044 113.9281 113.9036 113.9449 114.0497 114.2116 114.4268 114.6804 114.9345 115.2193 117.2123 114.7053 117.1014 119.1648 120.9352 117.2543 118.3675 116.4669 118.0888 119.6297 119.4480 113.7130 100.4563 102.4083 99.7769 98.5277 104.4442 110.3272 102.1121 112.8277 108.3375 105.3391 108.5788 108.1329 102.9114 103.1833 102.5757 102.5548 102.7654 107.4339 108.9252 108.3555 106.3058 106.5942 103.5605 115.3006 117.8630 115.0179 115.1395 119.2383 121.9309 117.7747 120.4638 118.2800
117.0600 116.9946 116.6478 116.4599 114.9053 104.6067 115.1240 115.1682 115.0002 114.8364 114.7175 114.6408 114.6240 114.6647 114.7457 114.8891 115.0746 115.2901 115.6390 115.7610 116.9651 96.3041 106.0737 116.3113 115.0869 110.0934 110.2463 110.5784 120.5354 113.1598 116.0857 123.7527 107.9911 97.5131 97.9295 103.9653 104.6552 114.1579 109.5099 122.2450 115.1708 107.9331 110.7536 104.2735 106.4934 103.3814 106.5620 107.8796 104.6734 103.9531 112.4784 106.7138 107.9442 109.1474 111.5358 112.7537 119.1588 109.4333 117.0888 125.6371 121.9578 118.0871 108.0024 126.9700
117.5600 117.3966 117.1018 116.5987 117.8744 112.1643 117.0209 115.7338 115.6200 115.4772 115.3650 115.3104 115.2862 115.3229 115.4168 115.5153 115.6757 115.8771 116.1782 116.4149 119.0159 102.8123 107.7255 117.4009 109.2566 105.0369 106.1674 114.6231 104.2822 109.9440 114.1568 116.5742 108.6637 108.0304 117.7200 102.5737 104.6773 107.2077 109.5630 113.1272 113.2417 108.8254 105.2510 100.5724 101.7660 101.0608 100.5267 103.9048 106.1045 104.3888 107.0121 106.9231 112.5597 105.6449 106.9640 108.0234 108.5066 110.5202 117.9911 117.8442 115.1592 119.7447 121.7642 114.4000
118.0800 117.7857 117.5502 116.7489 116.7796 117.3731 116.4563 116.3206 116.1987 116.0684 115.9764 115.9238 115.9041 115.9256 115.8532 116.0414 116.2401 116.2477 116.2829 116.8323 104.4776 99.0103 96.6425 108.4375 109.9238 120.8277 112.1239 102.7001 110.4979 121.4778 111.6910 118.6018 113.5144 117.6121 108.5857 102.9122 104.3868 105.9966 109.3033 111.0797 107.8477 101.0578 100.3780 102.5545 101.4666 101.7421 100.9237 110.5629 106.8802 116.1221 110.7471 107.8902 113.6811 111.7521 116.7404 115.2400 113.4375 117.1746 109.5038 111.8867 113.5478 106.4049 116.4299 114.5900
118.5100 118.1759 117.9805 117.6698 117.5018 117.1478 117.0607 116.8832 116.7426 116.6228 116.5427 116.5017 116.4803 116.4812 117.4753 117.6532 116.7463 118.3425 120.3023 116.4737 108.2355 97.3027 98.7348 95.6199 101.2230 105.6140 100.0237 104.8513 108.0132 108.2435 104.2845 106.6231 113.2835 122.5166 112.2231 107.4803 105.0177 104.4612 109.6087 111.9604 101.2561 101.0101 101.2437 101.9419 102.6887 110.8726 101.4479 120.6833 108.8308 108.7920 110.0123 103.2495 107.1188 115.7525 112.9685 115.2256 118.6130 122.5631 110.7634 110.8932 108.9328 102.5244 115.0865 114.1800
118.8800 118.5401 118.3189 118.1010 117.8909 117.7047 117.5262 117.3773 117.2498 117.1536 117.0909 117.0663 117.0340 116.9020 116.5787 104.7714 120.1231 106.2532 109.3581 123.4948 117.5574 116.2007 100.4570 100.8831 102.3549 99.8702 104.3872 111.2699 107.7814 100.6260 110.1606 108.7022 105.7805 104.4316 119.2352 112.9681 106.1873 107.0505 108.5720 109.1767 102.6334 107.7243 101.4114 101.4857 109.6466 108.0376 104.3117 119.0066 107.2066 112.9899 105.3203 103.3070 102.9946 116.0747 114.9417 117.9510 113.1024 121.7988 121.1742 112.0874 118.6148 117.4780 111.9658 112.6500
118.9400 118.9193 118.7061 118.5037 118.3175 118.1468 117.9888 117.8544 117.7347 117.6527 117.5053 117.4224 117.4822 117.3398 119.9005 109.8577 110.0827 113.0050 97.9828 95.5440 118.9444 115.8068 96.9719 102.6778 99.9846 104.0249 103.3847 118.7026 110.9547 106.0222 106.9440 107.5509 99.9240 101.8718 111.6282 110.2195 104.2313 103.8000 109.3996 109.6601 111.0530 108.4902 102.2197 101.7947 103.8049 107.9776 107.5108 108.7327 107.4719 113.3849 102.4816 103.3254 103.9938 121.7775 116.2455 118.2677 120.0532 121.5901 120.7355 114.8087 123.2796 123.7538 122.6743 113.4700
119.3500 119.2828 119.0845 118.8967 118.7266 118.5690 118.4256 118.2964 118.2009 118.1713 118.3956 119.2504 118.0098 118.1395 119.5148 100.2821 120.3439 98.6420 123.0205 95.8656 120.3335 120.9096 112.7315 101.6172 107.9230 109.5046 109.6661 116.6939 120.8299 121.3563 109.3649 108.5134 107.1680 100.2289 100.4541 102.0368 99.5389 101.9356 103.3942 109.0196 109.9123 111.3911 112.1865 111.8588 100.1240 104.0991 106.3577 113.8156 108.4572 107.9889 105.4558 107.7455 102.9493 102.0111 104.6870 105.7333 121.5719 122.2509 122.3012 122.7712 123.8123 123.6690 124.2236 123.8200
119.7300 119.6284 119.4427 119.2790 119.1194 118.9689 118.8451 118.7381 118.5920 120.2474 103.0682 119.3323 118.2219 121.4580 104.4681 119.4999 116.0539 110.8286 96.9799 99.9606 124.4122 119.2873 117.0172 100.9583 116.2041 102.8857 108.5492 113.3399 121.1709 107.5741 112.7158 104.3351 110.3756 107.0340 100.9121 106.6803 105.3514 122.5769 98.8807 105.9284 111.0576 111.1963 111.6851 113.2461 115.7368 115.9039 115.2940 117.7285 111.3823 112.1840 109.5744 110.7111 104.7222 109.4120 103.2083 105.1708 106.2031 129.5423 113.0464 115.6007 123.7343 123.4547 123.8859 123.6500
120.0800 119.9661 119.8004 119.6453 119.4965 119.3703 119.2242 119.0425 119.0116 119.3103 111.2598 119.3494 118.7376 115.1142 99.8613 98.7163 99.0807 104.0925 98.6847 98.1726 115.4794 100.0035 105.8526 104.9207 114.7255 112.6721 107.5325 111.4992 109.6647 103.6856 107.1065 105.4340 98.3788 109.7568 104.0220 103.9656 107.8851 112.9940 104.7837 103.7265 106.1727 111.2845 111.5589 111.5349 113.7767 112.8105 112.9440 117.9982 119.7516 111.8644 107.4404 113.4288 112.1392 116.1890 122.9969 128.6758 127.8555 128.8555 108.2194 120.3785 122.8947 123.3000 121.9175 124.0200
120.4600 120.2905 120.1369 119.9948 119.8890 119.5786 119.7009 119.9578 119.5109 119.5017 120.2775 119.3970 118.9068 111.6403 115.1643 97.0810 111.0308 101.2677 102.1108 101.3208 103.3774 118.4438 124.7559 106.6409 105.4703 103.2061 114.2929 111.8845 114.0618 112.7741 106.2771 109.0819 101.7631 107.2287 111.9221 108.8175 105.2807 114.4333 113.9790 109.9312 108.3631 107.9983 109.4962 101.7529 101.9389 113.4270 112.7006 112.2154 116.0116 110.4944 120.1214 119.8486 121.4229 121.5575 122.2284 121.9147 124.3419 126.2758 130.4051 131.0224 105.8660 105.2420 103.8689 126.6900
120.8000 120.6114 120.4733 120.3386 120.2306 120.0833 118.2012 113.6877 119.9324 119.8197 119.7112 119.8780 119.2258 113.5726 116.9753 97.5381 106.2592 108.7248 102.8635 109.0614 99.6547 103.9757 108.9557 110.8178 107.6330 101.2874 107.4146 103.5204 101.7998 105.1211 109.3613 102.2991 109.6011 111.2425 114.0417 112.3943 111.6056 123.0559 113.7835 116.0006 113.9981 108.5673 109.6855 101.7099 107.6978 114.5491 113.7966 113.5724 115.1786 116.2788 118.3800 122.8258 119.7165 120.5034 126.7450 122.6164 112.6138 116.6573 126.5593 127.7781 133.7574 109.3854 104.6046 105.5100
121.1300 120.9200 120.7888 120.6650 120.5600 120.3721 120.6014 120.1833 120.0459 120.2816 119.3396 120.2752 119.8251 115.8807 102.0366 104.7032 109.8267 106.3920 105.4631 119.0901 111.1366 108.7037 114.3387 113.4782 117.7651 109.0397 97.2233 111.7180 104.8900 119.8465 100.2646 100.7125 102.6776 101.2827 109.5853 115.7860 114.1386 115.2962 109.4218 103.6977 111.4399 113.0167 104.7860 101.9157 113.2535 113.7133 114.9345 114.2780 114.3595 116.4558 115.6110 121.9486 121.8142 120.9116 124.9620 120.7499 117.6063 116.1013 125.4647 127.7444 126.2032 129.2852 117.8084 105.6400
121.4400 121.2316 121.1010 120.9892 120.8909 120.6699 120.5780 120.5943 120.5964 120.5455 120.5003 120.5310 120.2193 116.2126 102.1598 118.9796 121.2818 118.7692 107.9485 106.7860 104.6074 108.0068 108.4009 97.7306 104.4054 109.4007 122.7365 101.5718 102.5935 105.3581 99.7004 104.9707 101.9237 112.0141 112.6325 110.3487 111.9248 102.3648 108.8039 100.8253 105.1193 106.8904 110.2452 102.5908 102.0969 112.1881 113.7066 116.2724 116.0469 116.6908 121.0297 119.3000 123.1660 119.5626 112.5167 122.4383 123.3910 110.7957 105.7062 124.5899 125.5491 127.9460 126.6927 105.6600
121.7200 121.5177 121.4014 121.2930 121.1915 121.1316 121.0530 120.9596 120.8982 120.8456 120.8249 120.8347 120.7811 121.0398 110.0050 104.4188 108.3247 120.9989 108.1584 109.6673 110.7940 100.0269 100.3115 98.7793 102.7261 101.9040 111.4093 101.5468 100.3951 100.1814 101.5662 103.5592 104.6589 110.1360 106.4655 106.7945 103.5421 100.5864 101.0146 106.1995 101.2597 101.2755 104.2182 102.4647 106.4364 112.6610 110.7043 113.9104 119.0426 117.7052 119.7989 124.1830 123.6955 118.3628 111.4976 121.3725 121.8825 126.9981 128.3416 128.2165 125.3110 121.8911 120.6814 105.8200
121.7400 121.8083 121.6954 121.5942 121.5027 121.4110 121.3363 121.2762 121.2310 121.1906 121.1623 121.2219 120.8721 117.3211 104.2860 115.0866 110.4455 111.2936 113.8378 112.8442 111.6705 109.3350 107.4081 107.6063 96.0381 101.5233 109.5330 106.0400 105.7303 100.8867 102.8347 103.0769 106.6242 106.1115 108.4385 103.0914 103.9184 102.6403 100.8068 114.6888 114.6795 109.6318 102.9809 113.0741 116.0877 105.5509 113.3486 111.0712 123.7869 119.4921 117.7582 120.4085 122.1054 123.6029 124.4067 120.1977 125.2527 126.6669 125.1284 126.5781 127.2471 125.1890 106.1906 105.8400
122.0300 122.0892 121.9863 121.8899 121.8023 121.7248 121.6506 121.5993 121.5467 121.5079 121.4775 121.5645 121.1577 117.6996 105.9409 116.9948 111.2756 114.1851 111.6410 101.7430 111.2933 110.0433 103.9467 114.6329 118.3243 112.3415 105.1603 100.6361 101.5123 104.6773 108.2450 106.3401 105.7855 85.1632 106.7237 102.1369 107.2352 100.0627 109.0831 118.7036 117.0412 109.9469 102.3259 107.4438 114.6448 119.0059 106.3137 113.7772 127.2302 125.5639 122.3166 119.0555 119.7561 120.5091 125.2761 124.5207 126.7635 127.3683 128.1235 128.9513 127.2540 128.4721 113.0624 107.1200
122.3100 122.3545 122.2601 122.1701 122.0871 122.0123 121.9514 121.8977 121.8515 121.8140 121.8231 121.8063 123.4605 117.7404 106.5213 110.7143 114.9131 112.3859 112.3920 111.4980 111.8147 110.3223 118.3073 113.6737 107.2801 111.8246 108.7695 101.8591 101.5514 103.8615 108.8635 108.0010 120.6886 112.7691 108.6782 108.6816 110.0286 110.9315 118.7338 119.0245 118.3276 108.9475 103.8529 103.9366 106.1770 111.8021 119.7330 120.1710 126.3345 125.4615 119.8199 122.1662 123.2002 121.1764 125.5333 125.4237 126.3162 126.4656 123.3347 113.5751 129.3578 125.3283 127.6611 117.6400
122.5800 122.6152 122.5256 122.4443 122.3672 122.2960 122.2397 122.1862 122.1457 122.1484 121.8809 120.7262 111.5731 115.0855 110.8569 122.1284 116.9720 112.0242 105.1188 112.5555 114.3934 117.3054 111.9138 104.8254 100.5794 103.5149 102.3382 103.9020 104.0173 106.9178 107.8669 119.3202 115.7107 107.2047 108.9534 109.2437 109.2301 111.4432 112.0144 118.5397 118.8596 101.4555 103.1163 103.5642 105.0510 106.4466 107.6604 122.7181 120.5220 125.1706 126.6831 121.9112 126.2366 124.6467 126.8919 124.5724 124.0605 126.3635 125.0370 120.0961 110.0675 105.7359 110.4465 122.9700
122.8400 122.8773 122.7887 122.7145 122.6378 122.5715 122.5052 122.4590 122.4273 122.4297 122.4737 114.4949 111.0292 115.5522 112.2111 112.0833 116.7634 117.7152 105.1591 113.8889 117.4693 103.0719 107.9154 108.8294 117.6252 98.4718 102.1270 101.2647 104.9442 103.6329 105.8759 118.2013 117.6742 108.3745 109.0670 109.5362 110.6364 106.7597 104.0558 117.2771 107.5702 103.7250 103.3177 103.5090 106.6774 123.6409 108.8618 119.4568 121.3404 121.9906 124.1271 126.4278 126.6353 122.8755 125.4012 127.1193 114.6587 124.6486 128.0984 127.5963 129.0233 116.2748 105.4913 111.2400
123.0900 123.1295 123.0449 122.9717 122.9003 122.8376 122.8504 122.7968 122.7086 122.6989 122.6610 124.3817 124.5239 106.6856 110.7588 116.9322 114.0187 120.7119 103.3783 114.6368 114.5802 102.9371 100.6817 101.6135 114.4260 110.7449 101.4401 101.1064 111.2214 116.1969 112.9928 111.9662 115.5652 112.1633 101.5879 109.2471 109.1779 106.4663 104.1501 115.8135 120.9040 112.7616 107.5147 102.6254 103.7466 107.5113 110.7569 124.0095 117.2465 123.1490 122.1244 123.2559 127.5048 127.2987 127.2425 126.3170 127.2165 127.5898 125.3309 125.8941 123.6639 114.6576 116.7328 118.6500
123.3400 123.3710 123.2921 123.2219 123.1556 123.1399 122.6688 122.7286 122.9779 122.9536 122.8567 122.3465 123.3119 108.3533 111.5272 103.2123 101.3622 116.7069 103.6517 115.7901 110.4112 117.0636 101.2309 101.7457 113.0207 107.4429 102.2524 103.6681 111.2992 118.4811 117.0413 114.5475 113.9091 124.8907 105.8200 111.1314 132.3203 112.0478 110.8810 111.5135 113.6411 113.7993 121.5054 111.7311 110.7870 124.6336 121.8523 123.5787 108.6213 119.6699 123.1269 122.5696 121.7678 125.2782 127.3427 127.3683 125.7146 119.1440 107.3452 125.7385 121.3024 120.5702 112.6585 106.3100
123.5700 123.6130 123.5372 123.4714 123.4014 122.8282 127.7908 123.0602 123.2379 123.2112 123.2091 123.1843 123.3759 109.3994 100.6362 101.8372 109.1777 111.8320 103.0216 116.8642 111.8869 117.9571 97.3303 103.5608 109.3124 115.1113 109.9639 103.4786 106.4017 111.3122 122.3991 112.7739 110.7319 117.9105 104.9102 122.8620 115.2928 111.6302 106.9671 112.7385 114.9208 114.2547 121.0286 101.7097 104.7179 125.9806 122.4017 123.5390 115.1235 115.0451 124.6376 122.8847 124.3736 125.8936 126.5367 127.4643 125.9590 129.9898 132.2206 120.0911 112.8242 110.6572 110.2589 106.3400
123.8000 123.8000 123.6900 123.6900 123.5200 123.5700 129.0400 123.4100 123.4200 123.4400 123.4500 123.2300 123.2300 114.3400 115.1700 101.4400 101.4100 101.8900 101.5800 117.3900 116.9400 118.0000 101.6600 116.7400 111.8800 117.7800 119.2100 106.0400 106.7200 111.1000 123.4400 111.5700 114.7800 122.8900 122.8900 124.6400 124.5800 125.8500 113.2600 113.8500 114.0800 114.5500 115.5400 114.6900 108.7000 104.2800 123.6900 119.4400 124.4800 126.7700 126.8800 123.3500 127.0900 123.8400 124.5600 127.5000 127.6000 125.2500 127.6900 113.8100 111.7200 106.1800 106.3700 106.3700
