118.3200 118.0500 118.0800 117.8200 117.4900 117.6000 117.2000 117.3100 117.3100 116.9400 116.9500 116.9600 116.9400 116.9200 116.8900 116.9900 115.6700 117.5500 117.8400 107.7400 100.8900 97.7100 100.4400 118.8800 119.1000 119.3700 119.6500 119.8300 120.0700 120.3300 120.5200 120.9500 121.1700 121.4000 116.8500 121.9600 122.1500 122.3400 122.7200 122.8800 123.0500 123.2200 101.5500 123.7200 123.8800 124.1900 124.3400 124.5000 124.7800 124.9200 119.8900 107.5400 103.4800 103.7400 103.8700 104.1300 104.2500 104.5300 104.6100 104.7300 105.3400 132.7300 125.3400 126.5100
118.3200 118.0100 117.7930 117.5480 117.3484 117.1555 116.9965 116.8601 116.7434 116.6681 116.6259 116.6087 116.6370 116.7040 116.7438 116.5256 116.1101 117.2110 117.9766 109.2317 99.2866 97.4752 99.4090 117.3390 118.3848 118.9839 119.2041 116.4908 109.2559 121.3077 120.1608 123.4105 119.4788 116.0389 120.9129 122.3193 121.7279 111.6190 110.6584 114.2284 119.2389 116.3193 114.4852 123.5443 123.3961 119.5950 125.6307 115.1113 113.8309 119.3572 119.7564 115.5299 107.1595 106.3632 103.0367 104.8829 103.9413 110.7160 113.0019 106.8566 108.4889 127.0739 124.9153 127.0800
117.8500 117.5290 117.2337 117.1090 116.8654 116.6562 116.4765 116.3161 116.1995 116.1105 116.0590 116.0452 116.0747 116.1394 116.1877 115.9719 116.2287 116.6581 117.6537 106.7602 102.2606 100.7039 97.2971 108.7659 118.7411 118.9169 119.2626 118.6916 118.7300 122.3475 107.5277 110.0471 109.9687 108.8692 118.8033 109.5067 111.1062 105.7319 111.1075 118.2133 120.3644 118.3766 126.2535 125.7496 125.2346 121.0455 126.0773 110.4561 119.2998 118.0858 116.7547 119.8012 110.3428 102.5229 111.0635 101.7159 103.4386 107.7784 110.0268 105.5586 103.4963 130.5335 132.1097 134.9300
117.3100 117.6620 116.9663 116.6303 116.3990 116.1903 115.9309 115.7557 115.6103 115.5052 115.4529 115.4370 115.4638 115.5416 115.6307 115.8771 115.9911 116.1901 116.1709 109.3738 96.2516 100.8058 95.7202 113.9101 115.7418 117.8463 118.7473 119.7616 118.4948 107.7985 100.6512 124.2426 103.0636 100.7856 119.5347 117.7103 111.3569 100.0467 112.5043 123.5570 129.7721 119.1427 111.6686 115.0001 117.0900 107.3652 123.4412 105.1302 121.8235 105.5241 119.6134 119.4425 120.0399 120.9535 114.9439 115.4643 102.7890 103.7330 103.7869 104.4385 108.7513 128.0608 125.9408 126.5100
116.8300 113.8873 116.4900 116.2720 115.3760 115.6675 115.3290 115.1555 114.9822 114.8677 114.8017 114.7821 114.8145 114.8978 115.0462 115.2021 115.4202 115.6396 116.3547 119.6879 107.3639 102.2904 94.8894 114.2973 117.2660 118.1412 118.4934 119.2410 115.1050 116.5025 115.3476 113.1365 114.9442 119.2897 122.8546 115.6363 102.8840 118.2369 118.9846 121.6722 121.4441 122.5170 112.2765 112.5278 101.5799 101.1653 107.1969 103.8962 115.8815 119.9315 123.8675 125.8414 125.5436 119.0630 130.4941 116.0651 112.7673 113.3374 103.7840 104.5559 105.6026 117.2938 126.5204 126.1400
116.3500 116.7611 115.9586 115.9533 114.2894 114.2580 114.7352 114.5044 114.3096 114.1727 114.0919 114.0728 114.1120 114.2139 114.3686 114.5763 114.8084 115.1552 114.9725 113.6308 96.3522 100.0728 118.5825 117.0039 117.6475 117.7970 118.2314 118.5681 117.2038 120.1815 118.5548 137.0316 126.1549 120.2925 121.3378 109.5815 115.8247 121.7153 123.0250 118.9238 112.5178 115.4314 102.0482 103.1272 101.8126 105.0001 108.7625 120.6656 123.0627 110.2160 119.2145 126.5747 119.4082 126.0167 121.4912 112.1547 117.6669 117.8437 103.1308 104.2435 107.8889 105.9492 129.3509 126.1000
116.1900 115.8594 115.5189 112.1032 114.5434 114.5006 114.0109 113.8047 113.5800 113.4220 113.3223 113.3040 113.3486 113.4684 113.6486 113.8856 114.1820 114.4958 114.7232 114.9491 116.3784 114.3611 117.1528 117.2359 117.0013 117.4786 118.0588 118.2395 118.6753 119.0572 119.0813 120.1210 126.3153 120.8466 110.5102 99.2972 114.9852 122.9529 109.4164 111.8733 116.8814 98.6968 101.2743 101.3340 99.8042 119.6809 113.2447 112.7351 122.7749 101.5578 103.4981 123.8354 111.4835 110.1725 108.7927 117.0007 111.2140 104.2228 105.2864 107.2097 107.2158 106.7462 108.0750 108.6000
115.6300 115.3697 115.1390 114.2257 114.3242 113.6950 113.3851 113.0582 112.7923 112.6000 112.4793 112.4529 112.5144 112.6559 112.8724 113.1563 113.4878 113.8604 114.2972 114.5653 115.0531 115.1390 99.2242 116.1289 101.2238 118.6294 117.5542 118.0495 118.5421 118.7969 119.4276 117.6418 120.8841 103.0778 110.7071 109.7844 107.4150 107.1834 113.7636 107.8023 118.2730 101.9992 105.4490 116.9900 111.6987 120.4919 119.7301 97.7220 125.0948 105.1942 110.1199 111.7335 105.2795 103.1321 103.2862 103.4366 108.2028 108.6272 108.0865 106.6145 106.3297 118.0803 118.2091 113.8300
115.1000 114.9338 114.4633 114.0217 113.4594 113.0560 112.6193 112.2451 111.9300 111.6900 111.5510 111.5170 111.5870 111.7630 112.0306 112.3735 112.7606 113.2001 113.6554 114.1599 114.6310 114.5481 109.6274 113.9063 116.9971 116.8440 117.4327 117.7963 117.1955 118.1461 120.4182 96.1899 102.9025 115.2644 111.9952 100.6732 107.9666 105.4582 106.1887 116.3748 114.3782 116.4738 110.8938 119.5357 111.1779 110.0350 105.7537 107.4053 118.1538 117.4338 109.9053 114.5711 101.3985 104.8448 110.4656 110.3380 111.7842 117.2929 115.2906 116.6293 115.9878 116.6372 116.0725 105.0500
114.9300 114.4869 113.9575 113.4129 112.8668 112.3258 111.8322 111.3729 110.9861 110.6928 110.5075 110.4641 110.5621 110.7773 111.1066 111.5231 111.9897 112.5033 113.0421 113.5844 114.1432 114.5506 116.7389 102.1070 117.4019 116.4485 117.1361 117.8937 113.5571 116.5470 114.4621 98.7467 104.2073 106.4864 107.7839 107.6133 109.6662 112.9780 109.2495 111.6258 109.0259 97.4882 102.5504 103.4572 104.8985 109.3483 109.2485 110.9121 125.4366 117.9007 119.9337 108.4900 109.9831 115.0430 116.1948 114.2173 114.6408 112.2435 106.4929 119.4030 111.1273 118.0656 113.8579 105.0400
114.1700 114.0122 113.4397 112.8178 112.1974 111.5802 110.9798 110.4242 109.9381 109.5607 109.3306 109.2679 109.3907 109.6698 110.0882 110.5988 111.1714 111.7787 112.4041 113.0229 113.6462 114.5727 110.2526 113.7249 115.9710 116.4883 116.8990 117.2934 117.8884 120.0604 119.3138 107.4689 121.4717 125.4194 106.8347 115.2768 99.6992 113.9302 118.7571 106.5881 102.8464 105.7704 105.3002 102.2934 104.7381 114.6484 113.6821 113.6400 114.9530 117.0034 131.7068 115.1538 111.0247 102.4292 108.2049 104.3200 105.8815 102.9052 123.1652 125.2075 122.2844 125.7137 119.5587 105.0300
114.1700 113.6653 112.9147 112.2364 111.5224 110.7950 110.0782 109.3900 108.7670 108.2754 107.9700 107.8784 108.0476 108.4216 108.9582 109.6111 110.3104 111.0379 111.7621 112.4702 113.0959 114.4036 108.2897 113.1436 115.5879 116.1281 116.6569 117.1051 117.6271 117.8280 118.4303 122.5475 126.3663 122.2897 97.1256 104.2773 102.1105 103.3650 110.9638 103.2690 107.8704 107.6178 110.8664 104.5009 105.9541 106.6149 106.0190 108.9370 112.0599 108.8616 108.9124 98.8714 100.7057 103.7254 104.7375 103.3720 104.1360 114.8317 122.0210 123.5830 123.9057 124.7717 126.1257 115.5600
114.0200 112.6490 112.5200 111.6391 110.8534 109.9964 109.1264 108.2624 107.4600 106.7886 106.3555 106.2331 106.4593 106.9932 107.7120 108.5536 109.4145 110.2875 111.1230 111.9244 112.7163 113.3948 114.6182 115.0186 115.3662 115.9112 116.4544 116.9762 117.5269 117.6280 116.4246 104.4957 117.0324 120.3568 102.4278 113.4186 115.1293 104.9013 113.8092 99.7318 99.8190 99.2459 100.5319 104.7716 106.6511 106.7409 105.8528 119.6791 116.9375 114.7622 115.1510 112.9404 109.1357 108.0466 102.4086 111.9386 108.2103 111.8477 124.5900 123.3472 123.8261 124.5890 123.3319 106.8500
113.2500 120.1905 111.3331 111.1653 110.2015 109.1979 108.1442 107.0555 105.9818 105.0417 104.3839 104.1931 104.5516 105.3251 106.3341 107.4179 108.5020 109.5396 110.5129 111.4230 112.2791 113.0593 113.6368 114.4093 115.0992 115.6957 116.2597 116.7352 117.4393 119.3122 102.2661 98.1618 103.8412 108.0967 102.0722 107.9398 115.2734 111.5263 117.8340 113.1087 100.1540 100.2534 101.6298 104.8643 105.6736 113.3111 113.4348 114.5753 116.5927 119.9012 109.4622 123.5235 115.7952 101.7596 109.5512 107.3146 103.5396 118.2951 119.5094 124.6962 125.2110 122.3462 111.9780 113.5300
113.1400 115.7365 111.3514 110.6429 109.5965 108.4457 107.1798 105.7948 104.3340 102.9279 101.8469 101.5304 102.1345 103.3769 104.8225 106.2608 107.6075 108.8389 109.9511 110.9683 111.8929 112.7484 113.5491 114.2584 114.9157 115.5972 116.1631 116.7834 117.2657 119.6964 100.8792 97.0676 101.5055 100.5932 101.5496 105.4460 106.6353 118.4407 104.2662 104.6501 100.0721 101.5517 103.6775 110.5991 115.5181 115.9070 115.7936 116.2124 112.0551 108.9386 102.9885 114.3509 107.5390 102.4543 111.1668 111.3262 103.8873 111.4569 118.7476 124.0715 119.3100 119.1890 104.9240 104.8700
112.4700 111.7787 111.1413 110.2280 109.0816 107.7781 106.2740 104.5413 102.5621 100.3799 98.3911 97.6811 98.9617 101.0863 103.2476 105.1467 106.7924 108.2232 109.4800 110.5955 111.5882 112.4873 113.3005 114.0572 114.7540 115.1850 115.9976 116.1317 116.8405 116.9744 113.5988 116.5766 109.0058 99.8533 98.2797 102.1044 120.1107 104.9631 102.6474 102.6937 101.5920 101.8209 105.2674 108.6524 106.6600 107.4901 107.9713 112.4249 109.7998 113.9887 101.6790 102.3651 103.2992 102.7505 104.1184 105.9488 113.4371 106.4745 112.5920 125.7211 125.9665 114.6540 113.5978 104.8600
112.4000 112.0346 111.0449 109.9310 108.6875 107.2548 105.5441 103.4669 100.8135 97.4398 92.6090 90.9902 94.1638 98.6883 101.7765 104.2036 106.1479 107.7511 109.1211 110.3139 111.3605 112.3088 113.1562 113.9382 114.6498 115.8814 116.8328 117.4215 117.2537 117.7228 112.9358 112.7617 98.1395 102.4547 96.8336 104.5678 103.1905 107.4396 102.1284 102.8878 108.5912 106.8432 107.8876 107.8639 114.2932 114.8191 115.6841 117.6493 117.4905 100.8423 102.5139 102.5507 102.7308 103.5423 107.2099 103.2676 106.0959 105.5469 105.8131 121.8517 111.0014 113.8664 109.4806 111.8500
112.3600 111.8939 110.8981 109.7650 108.4701 106.9384 105.0972 102.7599 99.5428 94.3511 87.3675 85.5004 89.1231 96.6589 100.7338 103.5946 105.7497 107.4742 108.9187 110.1502 111.2405 112.2001 113.0761 113.7860 114.3704 99.4821 93.4667 91.7916 115.4622 119.1833 98.8036 121.2765 102.9352 118.9391 98.5466 107.3417 104.3813 116.0831 101.8134 101.4293 102.7990 112.8549 113.2811 112.8623 123.4775 112.6994 122.8805 108.3972 101.4965 102.2821 101.4957 111.1142 102.0618 105.1193 106.8270 107.0528 106.9471 107.1717 107.3863 108.4603 108.6107 109.7347 110.4942 110.9200
112.3500 111.8804 110.8714 109.7391 108.4292 106.8942 105.0206 102.6478 99.3354 93.7486 86.2107 84.2276 88.1440 96.2069 100.5587 103.5002 105.6856 107.4324 108.8865 110.1267 111.2179 112.1879 113.0679 113.7652 114.1829 101.1271 96.1692 93.0636 112.9184 118.0536 102.7376 122.4186 102.8004 119.9385 101.3469 108.4673 100.8189 115.0757 97.2739 99.5771 99.1597 108.2976 112.8953 112.7927 122.8007 115.0753 111.4439 111.9285 103.5447 104.4434 100.9494 110.2807 102.7755 105.3396 106.1174 107.4343 107.3311 107.1144 106.8874 108.1618 108.5923 109.0782 112.4571 110.5000
112.3600 111.9518 110.9673 109.8601 108.5883 107.1130 105.3433 103.1961 100.2772 96.2658 90.3958 88.8847 91.9843 97.8817 101.3232 103.9305 105.9675 107.6219 109.0327 110.2434 111.3062 112.2573 113.1169 113.7916 114.4643 108.4037 113.3399 91.6402 93.8110 98.1271 116.4160 115.9665 103.8927 119.2982 116.7408 117.8318 96.8834 109.6919 97.5413 99.7227 101.5005 101.7185 103.5058 109.2479 122.0201 117.4619 125.7923 120.7066 117.7597 118.6298 109.0856 104.2373 102.7251 102.9473 103.1909 102.0855 114.1723 103.5540 103.8056 104.3515 106.4527 109.4593 126.0168 124.9100
113.0600 112.1228 111.1708 110.1126 108.9219 107.5697 105.9825 104.1261 101.9285 99.3420 96.4979 95.4067 97.4518 100.2039 102.6971 104.7792 106.5353 108.0358 109.3356 110.4800 111.4949 112.4163 113.2722 114.0615 114.7301 113.5348 97.6455 98.5669 96.9150 97.6734 95.9742 95.7222 104.1237 114.2617 97.9707 98.4111 102.5563 110.5948 97.1718 99.0004 106.1726 111.9861 115.4855 115.7166 111.6710 115.2741 119.9999 114.4480 112.6926 105.7995 120.6053 106.4022 104.8944 102.7155 101.4316 109.4268 109.3909 110.9690 111.4035 112.3135 117.3116 126.0021 118.3129 108.7300
113.0600 112.3635 111.4714 110.4870 109.4044 108.1936 106.8384 105.3442 103.6522 102.0577 100.7352 100.3117 101.0687 102.5871 104.2378 105.8483 107.2985 108.6062 109.7712 110.8222 111.7697 112.6380 113.4487 114.0214 114.6825 116.7260 122.5541 111.2842 104.1112 96.8208 99.5743 101.0921 114.5267 101.3747 103.5029 102.3003 104.5210 97.4223 99.2874 100.4348 99.5122 109.3364 99.8974 108.2613 108.2729 113.5659 116.6242 110.2852 108.5890 122.6744 121.2951 107.1451 106.5949 105.6997 110.4515 125.1110 125.6802 126.9384 125.5575 125.8891 126.4432 124.9530 109.1090 108.7900
113.1500 112.6715 111.8432 110.9499 109.9773 108.9247 107.7983 106.6082 105.4046 104.3039 103.5173 103.2911 103.7324 104.6490 105.7964 107.0071 108.1778 109.2757 110.3063 111.2531 112.1209 112.9295 113.6583 115.8814 114.5324 113.9211 106.5237 105.3246 99.0734 104.5510 101.7035 104.6269 102.3968 107.3185 107.1457 101.4662 99.1323 99.2857 102.5646 104.5333 110.0030 107.1902 110.4802 112.4351 108.3256 110.4281 114.1143 118.6422 112.1405 113.6860 114.4148 116.1745 111.5826 111.9026 123.4934 124.7496 118.3065 119.5298 123.6680 123.2935 124.0703 123.9082 126.2699 125.1700
113.2600 113.0347 112.2735 111.4699 110.6069 109.7057 108.7666 107.8376 106.9395 106.1759 105.6684 105.5279 105.7972 106.4040 107.2291 108.1428 109.0870 110.0106 110.8987 111.7445 112.5225 113.2957 114.0853 113.1568 111.6967 112.1241 99.0106 100.9412 96.5415 101.7099 99.7472 102.2246 105.9713 110.3709 107.3490 106.1268 104.8154 104.9710 105.5941 102.9930 108.9094 107.9243 110.8206 112.5131 110.3538 105.9491 111.9614 116.9129 117.3123 112.9308 113.6937 110.8750 111.1512 118.6525 114.3658 119.7049 113.6638 119.7771 123.9164 123.8902 124.6088 124.6777 124.4485 125.2000
114.0400 113.4478 112.7597 112.0345 111.2861 110.5356 109.7190 109.0025 108.2996 107.7608 107.3966 107.3047 107.4929 107.9288 108.4755 109.2223 109.9948 110.7481 111.5293 112.2730 112.9879 113.4930 114.2221 113.0191 117.8767 102.9901 102.1555 100.8667 101.2279 101.6386 99.5913 100.8863 108.8170 98.5270 101.8398 100.6630 109.4622 107.8260 108.5475 106.7651 109.4261 102.4769 110.6275 107.0097 110.0053 109.0994 109.9088 107.9823 111.9910 107.9827 118.0710 116.8688 118.0452 120.9033 116.1382 119.5695 124.2041 121.6318 123.6355 124.1325 124.5137 124.9629 125.4390 125.5200
114.0800 113.8642 113.2643 112.3126 111.8743 111.2531 110.8193 110.0202 109.5409 109.1274 108.8546 108.7778 108.9123 109.2307 109.7214 109.7083 111.1411 111.5106 112.1784 112.8134 113.5068 113.9669 115.1910 115.8747 113.1203 94.0205 97.2003 95.5469 99.4942 100.4667 105.3744 104.6966 106.7135 109.8202 101.6035 97.1772 100.9839 105.2351 107.9549 111.4253 112.0735 108.4449 100.8637 110.4160 111.6783 109.0749 112.9541 112.2128 109.3003 110.6921 103.2463 104.9947 105.6405 105.5166 105.3409 105.9189 106.3505 115.3623 121.0194 122.5911 122.6014 122.3748 125.8628 125.7900
114.7900 114.3223 113.7603 113.7054 112.0459 112.5770 111.7040 109.6270 110.5625 109.5464 110.1008 110.0405 110.1392 110.3891 110.6879 110.1523 111.2934 112.3197 112.8068 113.3862 113.7619 116.2728 100.0221 115.6638 115.8124 118.3689 96.7221 101.6379 98.5358 100.9454 103.7410 104.4149 104.9873 102.7641 99.4194 109.4434 100.0628 102.3757 99.9937 101.7579 100.9645 100.4586 112.0637 113.2489 112.0908 111.2051 112.6922 114.9039 110.4230 111.8144 101.7738 102.6546 103.0621 102.6934 101.3462 116.4287 106.0302 123.4151 111.3744 115.2711 117.4157 116.9319 122.4649 122.5700
114.8400 114.7935 114.1907 114.2513 110.2347 112.9690 112.5238 110.5036 111.7015 111.2204 111.1739 111.1532 111.2207 111.4149 111.6064 112.1628 112.6266 112.9208 113.4606 113.9509 114.3891 114.9562 112.6637 110.5674 111.3214 118.1628 109.2913 95.0214 105.1909 104.4393 112.2612 106.9749 107.3887 106.8863 116.2431 104.4638 98.9816 109.8189 111.0852 99.6762 102.1922 105.2454 102.6628 107.6254 106.8446 115.5000 108.9030 105.8549 111.1779 101.3839 102.6524 103.0914 103.3317 104.0421 107.6892 114.4079 102.0508 103.3666 116.8195 111.3628 119.1673 122.3909 122.4839 123.0000
115.5300 115.2425 114.7954 114.3536 113.8911 113.4872 113.0605 113.0049 112.4542 112.2775 112.1483 112.0846 112.1657 112.3414 112.5868 112.8593 113.2034 113.6305 114.0613 114.4748 114.7146 116.4372 102.8674 97.2794 98.7782 95.9779 101.5865 99.2818 99.5644 100.4373 104.0819 106.2056 107.2460 97.3592 105.4062 99.4835 102.2348 110.6486 110.6322 111.1911 112.0180 111.2114 107.2796 109.7187 109.3839 108.0704 106.0984 112.6079 101.3638 102.4301 103.0666 100.8157 114.5463 115.6880 107.7816 105.6812 120.3566 120.3186 108.9527 117.8704 117.3081 120.5979 116.2433 120.7000
116.0500 115.7013 115.3076 114.8712 114.4418 114.1538 113.8278 113.4974 113.3017 113.1249 113.0269 113.1267 113.1632 113.1320 113.3175 113.6305 113.9308 114.2654 114.6351 115.0432 114.8238 110.7007 111.1033 99.3850 99.7009 96.5457 99.6345 97.8269 101.4262 101.6278 103.9481 104.5692 106.5892 106.9312 109.8227 102.5771 101.0052 110.3762 110.7159 110.9345 111.5067 112.6371 113.9291 115.1571 108.6304 105.7443 101.3743 101.2944 101.8789 101.9387 108.4020 103.0205 102.7172 102.0803 102.7379 113.2641 115.8028 113.4132 109.6220 122.3477 120.1409 116.1725 117.7322 123.0400
116.2000 116.1477 115.7812 115.3887 115.0986 114.7880 114.5072 114.2572 114.0438 113.9081 113.7343 113.0426 113.1162 114.2963 114.0148 114.1093 114.5963 114.9048 115.2112 115.5482 115.8297 118.3874 104.3527 104.5985 98.3074 95.5614 101.1115 105.2541 107.7137 106.7617 105.7340 104.1231 106.1339 106.2880 109.2901 109.9840 102.0752 112.1730 111.0973 111.6472 112.1752 111.4697 113.6341 115.2110 105.0058 108.5853 100.4930 101.8193 101.8683 102.7274 102.5547 102.8071 103.2185 103.7615 103.9915 103.1824 103.4056 103.0657 114.2166 118.9307 100.3893 106.3677 107.8967 105.1800
116.7300 116.5954 116.2257 115.6516 115.5956 115.3540 115.0264 114.8877 114.8003 114.5954 114.9240 114.3185 123.0886 107.5626 113.0243 114.7171 115.3250 115.3775 115.7385 116.0335 116.4199 116.6047 121.5406 100.0479 99.3934 99.6589 99.1899 101.8857 103.3695 104.4185 110.3568 104.4814 108.0435 113.7433 113.2670 97.7545 109.3665 110.8160 111.7985 111.9769 112.5693 110.4944 112.6302 111.0699 112.1491 103.9209 108.3071 102.5456 106.7681 102.2069 102.8881 103.1676 103.2805 103.6974 104.2023 104.6316 105.5200 112.6533 108.8368 120.7935 112.8984 121.3246 110.9099 105.1800
117.2600 117.0391 116.7242 116.6107 116.2637 115.7505 115.8464 115.8782 114.7239 115.7920 111.2019 108.0713 116.2589 94.6714 111.3087 115.5471 115.4951 116.2278 117.0949 116.7638 116.3928 118.0673 112.8377 97.4250 99.6123 103.4453 101.6234 100.8088 103.4115 101.7221 103.4040 103.8786 102.5869 109.7861 103.1517 97.6785 109.6534 106.9771 111.0245 112.5466 113.1568 113.9736 109.7467 103.0628 103.1777 100.9151 119.7641 102.9097 115.8632 102.7103 103.1543 103.0779 103.3252 103.3548 103.9821 105.4912 106.7001 105.4954 115.3629 112.5103 117.5017 107.8915 115.8042 107.9700
117.7700 117.4329 117.1860 116.8665 114.0435 113.1358 115.2667 113.3930 113.5881 116.2990 114.8295 114.5251 115.2466 116.2718 117.1864 116.1646 116.7971 115.2601 110.4745 116.9013 120.0750 109.8950 114.9167 121.2101 97.1834 100.1749 103.7639 102.3055 104.3301 107.8198 104.2853 109.4686 98.6892 99.8850 99.6379 99.4071 106.4227 101.3428 111.3852 109.1630 113.0167 113.7984 106.8095 102.4488 100.7033 102.1975 106.3480 101.7782 103.9190 103.7930 103.1600 103.6150 103.3863 105.1853 104.5511 103.5052 119.7433 107.0754 114.1953 113.4550 106.3863 124.5341 115.4496 123.0900
117.7700 117.7731 118.0470 117.3350 117.2650 117.1300 116.8250 116.7838 116.6427 116.4400 116.5264 116.5071 116.4876 116.3069 116.2765 116.5698 118.6590 106.2729 112.5703 117.6538 117.2515 107.5331 119.9629 118.3226 121.0058 105.7084 101.2131 103.0542 106.8757 109.0598 104.0579 104.5148 106.4030 99.8303 107.3550 103.6635 107.6770 107.6449 112.2886 111.1977 113.4002 114.0223 109.4932 108.7987 113.8454 101.1539 101.0371 101.8958 103.8283 103.0571 103.2262 103.6152 104.2398 105.7138 106.0815 103.7398 122.9828 107.4699 123.6857 115.1651 118.1084 101.5891 117.9009 120.8700
118.3400 118.1029 115.3879 117.2364 117.8945 117.4417 117.2953 117.1536 117.0672 117.0283 116.9628 116.9537 116.9800 117.0853 117.1645 117.0969 117.6832 95.9366 119.5132 117.6422 118.6864 118.2308 119.4799 118.8450 119.3251 116.2958 105.3652 102.2499 105.9574 112.8929 112.1184 105.4557 108.7057 106.3277 110.3603 108.1261 106.8076 110.3667 110.7807 112.8979 114.0571 109.0474 115.5841 116.8383 116.0472 109.3140 114.2623 102.2574 104.1927 104.8255 104.7222 105.6295 104.6151 104.9029 105.7822 107.2492 124.1104 123.1823 114.4436 110.2019 110.2888 123.3617 125.4871 122.5100
118.7400 119.0760 116.8523 113.5028 119.8238 117.7635 117.7887 117.6711 117.5765 117.5093 117.4675 117.4646 117.4760 117.5178 117.5849 117.5388 118.6393 117.9438 119.3559 118.4135 118.4249 118.7391 119.3178 98.6322 119.9577 112.0087 115.0073 107.5602 105.8434 106.3960 100.6280 104.4002 99.8799 110.8488 109.8738 110.7714 108.7580 108.3753 111.8683 111.6175 113.9113 114.3540 106.4682 103.6375 108.5453 114.1904 103.9452 103.2262 101.9528 104.7353 105.9926 106.0248 106.3162 108.1261 105.7319 105.9733 106.2530 122.3187 113.2366 123.1589 122.0859 125.6683 127.7374 131.8500
119.0900 106.2228 103.5727 104.0459 110.1628 118.7448 118.2305 118.1274 118.0506 117.9962 117.9624 117.9548 117.9700 118.0155 118.0722 118.1670 118.2572 118.3991 118.3323 118.8213 118.4203 119.1019 118.8709 118.7898 118.3192 120.8284 103.3458 99.4163 104.9345 106.4457 107.6316 108.6996 108.0721 99.9936 116.9586 111.0819 111.4012 113.0279 111.0401 112.6219 116.2222 115.5046 103.2835 106.2028 104.2313 102.8204 102.0787 103.1155 104.4274 115.0458 105.1294 106.1980 107.0976 107.2043 107.9591 107.9304 122.3733 123.9807 122.8852 123.6750 125.6650 110.9470 121.5343 125.1400
119.4900 113.4138 96.5165 101.6512 112.0926 119.7722 118.7699 118.5728 118.5183 118.4565 118.4228 118.4106 118.4283 118.4669 118.5258 118.6050 118.7145 118.8324 119.0326 119.1514 116.7570 118.8965 120.1715 119.2587 115.4705 123.5978 112.4114 125.7078 112.1956 111.2647 114.5836 114.8032 109.9244 105.1788 100.2204 108.4403 112.6090 112.5878 114.1200 112.2708 112.7678 113.5948 116.2184 117.3040 100.7174 102.9284 102.6491 102.8163 103.0229 102.4304 118.6653 112.2274 107.7355 108.2589 108.2170 108.6070 109.4225 110.3465 112.0607 126.4989 106.0050 114.8593 125.5967 126.2100
119.8400 118.6924 118.4206 120.2833 120.5176 118.8568 118.6566 119.0333 118.8818 118.8978 118.8565 118.8518 118.8599 118.8972 118.9507 119.0202 119.1158 119.2269 119.1602 119.7526 118.0323 118.7449 117.9818 102.3608 122.5342 119.9023 121.1318 115.6214 104.3191 116.1723 112.1233 108.3172 112.9392 100.5791 108.6866 103.0868 117.0490 116.6028 112.8686 109.0040 114.4038 114.4919 108.7595 107.6315 105.6070 102.5606 102.8015 102.9808 104.2467 105.2905 110.0208 102.4877 119.9447 111.5701 110.8153 111.4521 109.4003 110.4317 110.5282 111.0174 111.6155 117.0321 109.7989 125.9500
120.2300 121.7582 120.6409 118.9773 119.7238 119.4963 120.8810 118.6754 119.3219 119.3183 119.2742 119.2651 119.2765 119.3090 119.3605 119.4220 119.5062 119.6104 119.6764 121.3271 119.9298 121.0060 119.7123 121.6666 122.2955 108.7118 122.6521 121.8302 119.9478 122.3859 124.6775 107.8917 113.4559 107.2831 103.2509 104.6406 109.5010 121.5653 114.1519 117.7990 114.2287 113.9616 116.8727 104.1015 102.6958 102.8860 102.2705 103.9534 105.1169 107.6395 106.7459 104.4623 102.6655 104.8091 123.3116 122.3306 113.5816 110.0233 110.4999 111.6331 111.6263 112.0491 107.8440 125.6300
120.5700 120.3016 120.2747 120.0222 111.7921 107.7039 113.8729 117.9134 119.7369 119.7208 119.6675 119.6429 119.6764 119.7047 119.7479 119.8125 119.8954 119.9816 119.9003 120.6266 121.6540 110.0418 120.2898 120.5776 121.0503 111.3846 114.4305 104.2701 119.6061 107.6031 125.7813 117.2690 119.4261 111.2372 105.0270 107.6777 107.7301 112.8329 117.5967 123.1942 104.4888 109.1445 100.8577 104.6332 105.6306 103.6453 105.0466 105.3652 103.4033 112.5386 112.4309 106.5445 105.0478 105.6736 121.9495 110.2194 126.4579 119.8474 116.6581 117.2766 111.9344 113.2543 108.9666 105.7400
120.9100 120.7394 120.6667 120.3588 121.5828 120.4092 118.8524 120.2336 120.1022 120.0727 120.0305 120.2185 120.0585 120.0674 120.1335 120.2114 120.1757 120.3305 120.0894 119.8992 101.8063 97.2736 110.9580 121.1233 120.7863 101.6941 114.5202 118.2661 128.5577 111.1338 123.7165 123.2880 106.7529 115.8551 107.0739 103.6591 110.3189 115.8141 106.7085 113.0248 106.9155 111.8207 101.3538 101.7592 102.7052 103.8036 104.1242 104.2226 105.3442 105.4810 106.2710 107.0634 107.3394 112.0972 118.6631 110.5960 113.0564 120.2404 124.8169 125.3171 114.7701 117.8948 108.6960 105.7400
121.2200 121.0587 120.9730 120.8607 120.4180 120.6122 120.7095 120.4812 120.4608 120.3555 120.6283 118.3121 120.4564 120.4829 120.3157 120.2332 120.7605 120.3590 122.2344 118.6400 90.6968 102.1937 103.8937 103.2241 120.5370 121.1539 121.2447 118.3921 118.0457 122.2372 114.9640 105.1649 116.4323 120.7174 100.2730 100.1052 106.4545 110.0664 115.8393 102.2094 105.9885 102.1433 102.9506 102.9984 102.4200 99.4225 110.3529 113.7801 101.4570 105.7766 107.3054 107.6634 106.9551 117.1618 110.2992 114.2174 112.3375 122.5714 111.6319 114.4217 120.6659 110.3293 114.4875 114.9200
121.5300 121.3672 121.2343 121.1399 121.1192 120.9948 120.9027 120.8588 120.8081 120.7589 120.6974 120.3699 120.8052 120.7665 121.5398 122.9853 120.6080 122.6149 125.9626 100.1266 110.8962 102.7169 106.1980 106.9920 109.5842 123.1324 104.9269 108.8134 108.1436 127.5960 118.2938 109.7695 112.2265 108.9755 109.8028 102.5377 102.3473 104.1963 109.1787 104.5752 101.6703 102.0155 103.0434 102.6126 102.5790 117.9875 121.3753 126.0720 121.3890 105.1613 106.1849 106.3961 107.9622 106.9454 108.6971 114.5418 122.9396 115.4261 105.7111 123.2035 110.7149 102.7964 106.6235 105.9200
121.8100 121.6543 121.5561 121.4567 121.3665 121.2990 121.2389 121.1851 121.1417 121.1024 121.1119 121.0982 121.0964 121.0308 120.6107 104.9002 125.3747 121.2806 113.8725 123.2308 123.5513 107.1568 111.3704 112.5437 103.2771 115.6480 105.7549 105.3382 101.7129 118.3284 118.0463 96.5622 108.5224 116.1932 109.3541 100.7556 102.0423 105.6067 105.9357 102.6628 102.5554 103.2905 101.1162 121.0516 100.7692 106.1727 113.5412 119.8783 110.8647 105.6952 104.5393 105.6170 106.5481 109.5149 108.4896 107.8483 113.6790 118.4743 121.2007 111.9633 118.6070 121.6146 109.2696 105.9400
122.1100 121.9431 121.8411 121.7609 121.6838 121.6092 121.5489 121.5047 121.4647 121.4413 121.4375 121.3257 121.4085 121.2192 123.7319 113.7429 121.0138 111.3434 112.7113 117.4786 125.4018 107.5807 101.0796 116.4552 114.4766 109.9623 103.3419 112.5975 100.5504 103.9628 111.3195 102.0326 102.5727 104.8724 115.3463 101.0363 102.1019 103.0377 107.8749 102.2132 108.9042 103.7159 102.0762 107.0849 102.5842 104.1357 105.1451 108.6694 101.6940 104.1949 104.2068 108.8013 110.0761 107.8176 115.4230 113.4863 110.0359 111.5443 114.0787 114.4571 115.2294 124.6253 124.4239 127.0000
122.3800 122.2192 122.1332 122.0488 121.9758 121.9119 121.8499 121.8036 121.7676 121.6076 121.7218 117.6602 121.9899 121.9102 122.7699 104.5096 118.4786 118.4157 100.4050 100.2475 125.0828 108.6407 107.9697 113.0877 111.5295 117.0413 125.3594 123.4644 119.2411 102.4078 104.8668 101.2383 105.9512 102.3170 103.1677 102.9411 101.9748 103.0099 107.9961 106.0078 109.3639 111.5241 112.8856 102.8664 104.4392 109.5139 103.4227 104.7953 103.8643 104.4602 104.2199 104.8098 106.6562 114.5199 108.5467 108.8161 111.2368 110.6699 111.1752 114.3203 109.3179 123.4954 122.7312 126.0300
122.6500 122.4880 122.4089 122.3269 122.2626 122.1977 122.1558 122.1284 122.1348 122.2341 118.2929 121.2380 121.9760 125.2727 111.0703 117.6635 118.1564 102.8195 106.9451 105.2791 124.1883 112.8103 118.4379 112.5589 110.8806 112.5902 123.5293 122.8584 127.2588 108.3621 100.6904 106.9316 105.9299 102.0489 109.0806 109.6958 109.3571 105.5953 101.4057 108.2525 108.2254 108.0618 112.8962 116.6761 105.6975 105.3266 129.1656 119.5941 104.1801 105.4296 104.1759 104.0386 104.7870 104.0442 124.8057 120.6176 120.8217 112.1567 112.6669 112.5145 114.4532 114.4381 121.7661 126.3800
122.9100 122.7492 122.6774 122.5976 122.5408 122.4826 122.3402 122.2707 122.1803 122.9963 113.9996 109.1749 122.9667 119.0272 103.8152 105.4524 99.6514 102.9998 106.7003 104.2515 114.8411 108.7390 121.7878 113.8872 113.6128 114.5382 107.2774 113.8625 123.4431 107.9951 108.5630 112.6279 113.1772 100.9340 103.6599 106.8019 113.6415 109.8736 110.8493 109.3849 115.4631 111.1763 111.2012 111.9299 102.2962 103.3078 113.5366 128.4714 108.5539 113.0983 112.1427 106.9600 110.5261 114.4088 132.7012 130.9045 125.5409 130.5868 108.0343 115.3207 113.5256 112.8818 123.6072 126.6500
123.1600 123.0107 122.9389 122.8720 122.8284 122.5561 123.0107 122.8167 122.5893 122.7714 123.8152 111.2030 123.3499 116.8230 118.3713 102.5853 105.9262 104.4290 107.2420 107.2006 114.3736 119.1174 124.6562 115.5726 115.1504 115.8217 111.7530 125.8391 120.3246 108.6205 107.8842 100.3987 101.8279 104.1526 104.7544 114.4780 113.2980 112.1597 112.6353 105.0907 109.8906 114.2956 110.0616 105.2144 105.0194 107.5088 117.6905 116.4024 123.3153 112.6032 112.3686 133.1283 127.1999 122.3055 132.0124 133.2755 123.6836 131.4238 124.0441 125.7472 117.1849 115.3750 115.5867 115.9100
123.4000 123.2551 123.1792 123.1127 122.9431 123.8293 115.1962 112.3548 123.0479 122.5721 123.6709 124.6907 122.6595 117.7061 105.4890 105.4164 110.3444 108.6944 107.1243 108.0248 109.7391 118.9074 109.8210 102.4468 118.9198 116.0613 117.5504 108.0789 102.9677 120.1338 103.3121 102.5999 104.8486 125.7366 108.4674 106.3883 113.9972 112.2337 114.6537 111.5254 106.8626 107.1874 104.2631 103.0351 102.3116 113.7751 115.3024 118.5323 119.6758 128.9066 130.7172 129.6706 130.8794 129.8200 129.4991 129.7629 103.8180 136.7405 134.6254 127.2282 125.4180 123.6069 110.6874 115.8300
123.6300 123.5504 123.4721 123.4323 123.2528 123.1892 108.3777 125.5791 123.0902 123.1743 121.0807 119.0525 122.9293 118.4419 104.6653 109.7512 98.4064 110.7161 107.1654 112.6778 116.2363 105.7616 120.0232 114.2092 117.7702 105.9352 117.7610 105.4376 114.7820 110.3229 102.7265 105.7113 103.7902 110.2229 107.6921 104.8776 122.7156 112.4701 111.5699 116.5591 108.2464 109.3718 103.0450 103.3017 112.7398 117.6644 118.2674 118.8139 120.1689 117.6831 130.0715 131.8642 131.3860 131.6125 131.6132 123.7396 109.4484 120.5490 128.8956 133.9915 128.7176 125.0978 114.4826 106.5500
123.8600 123.4300 123.5163 123.2954 123.5145 124.5634 124.8421 123.2244 123.4328 123.4253 122.1202 121.1496 123.4927 118.5937 106.0379 111.7358 109.6426 111.6916 110.2941 113.5459 103.9678 115.9195 100.3945 104.4316 117.4704 121.8890 115.5735 105.9706 101.6542 101.6644 113.2969 102.9523 102.5818 108.6855 109.4446 103.6678 106.2217 109.3836 109.5459 107.5127 115.6897 109.9581 107.2299 102.7742 121.2068 112.8628 122.3057 119.9488 123.4064 120.5760 129.1693 120.8776 130.9267 131.4389 131.9496 134.1256 130.0781 111.7418 116.9392 125.1477 132.3406 132.4072 132.5665 106.5500
124.0900 124.1283 130.5385 123.6991 123.7878 123.5905 123.5359 123.7358 123.6793 123.6734 123.9337 123.9259 123.6927 124.8082 111.9805 114.0091 99.9568 122.8182 111.0070 113.6105 105.2604 118.6590 99.8542 101.8041 106.1551 126.9793 111.1252 111.4401 102.6914 103.3978 102.9725 100.6052 103.2438 109.7032 107.8160 111.6664 111.8680 95.8416 105.5325 118.1096 103.1479 104.7690 105.0383 108.2424 110.2297 116.5052 123.1588 125.9548 125.0840 129.0169 126.1066 118.6880 124.7526 129.4935 132.0829 131.9614 134.5316 133.1833 121.3780 122.5768 128.2945 126.3492 113.0931 134.1800
124.3000 123.5871 122.5163 122.5853 123.9703 124.0444 123.9930 123.9359 123.9167 123.9052 123.8665 123.8931 123.6355 120.1417 107.5172 114.6226 118.9419 123.0406 116.2888 105.4561 110.8206 111.6996 100.7912 116.7352 106.9884 106.3359 119.0712 104.9639 102.7046 102.7812 104.0512 115.8237 105.4641 106.6357 110.6545 110.4421 114.1747 103.8194 104.3712 115.5228 100.9544 104.0469 103.8428 109.7838 111.8846 118.1118 123.5135 123.5036 129.9783 129.5555 123.3318 123.8543 120.9962 123.3369 126.3848 133.5908 132.2575 133.8266 130.1702 131.0515 133.1495 135.8526 124.0155 106.7300
124.5100 124.5334 124.1166 124.3378 124.1653 124.2513 124.1956 124.1769 124.1545 124.1389 124.1291 123.9981 124.3322 125.1937 114.0494 121.6064 123.6272 109.9882 117.8211 111.7369 114.6111 116.3306 113.4030 107.2345 121.8342 122.7788 114.3425 106.0186 103.1321 106.0279 102.5298 108.0212 107.4606 105.1759 104.2882 104.6842 103.0541 103.1894 112.2175 124.3938 117.0267 107.5921 104.6697 115.7400 112.2128 114.1715 115.1256 127.7984 128.0649 126.7504 126.7439 124.4953 124.3954 121.8594 121.0507 132.6198 131.5836 130.1929 132.9286 133.9011 135.8163 135.0116 116.5743 106.8500
124.7200 124.5406 124.5621 124.5100 124.5086 124.4620 124.4267 124.3994 124.3834 124.3747 124.3627 124.0294 125.9617 109.6164 115.3554 115.0051 110.9507 110.7363 119.8743 117.0353 113.8676 114.5557 117.3219 100.8939 105.4092 115.1949 105.6473 101.6551 102.7448 103.5609 104.0423 105.0886 109.8395 103.9905 107.3086 104.9233 110.8765 118.0304 110.4786 118.3245 124.7812 108.6530 106.6893 117.1117 118.3313 112.5904 113.6893 118.0367 125.0774 129.3532 128.9015 125.4511 129.6336 126.2065 130.8879 131.2385 133.7009 131.2697 123.0943 112.3561 107.3557 135.5886 108.1527 111.3700
124.9200 124.8723 124.8049 124.7552 124.7076 124.6787 124.6484 124.6352 124.6152 124.5839 124.5547 125.8723 121.5719 112.1211 113.3690 123.0811 120.8523 109.0850 106.5916 119.1946 115.0968 116.9748 115.6418 106.4350 109.4485 104.7408 110.6080 102.9350 103.3100 105.8373 109.3300 122.4343 125.7516 107.4462 106.0990 112.9379 110.3744 108.5839 104.8090 108.8279 114.8688 110.0715 102.3851 105.6377 115.9904 117.4242 113.4662 130.0479 123.5410 129.3468 131.0259 124.6217 132.7384 132.4193 130.2515 132.4463 120.7070 129.5699 132.7155 136.8222 102.4547 107.7864 106.6775 107.0000
125.1200 125.0438 125.0009 124.9635 124.9233 124.8963 124.8457 124.8146 124.8062 124.7789 125.1998 117.4925 104.4035 117.7473 115.6657 113.4972 122.2534 109.1664 104.8702 118.3191 120.1717 106.6229 102.2568 102.1725 102.4183 102.7852 102.5616 104.3848 104.3489 119.9653 108.9003 114.6256 108.1953 116.6333 110.8915 109.4009 118.7732 115.4432 104.4254 107.1130 111.8427 103.4924 104.0331 106.1463 112.2287 121.8749 117.8335 113.6845 131.5395 107.2712 124.1303 128.9694 130.2975 132.4400 130.7850 132.6505 123.8155 125.6985 133.3936 134.4239 133.8474 133.6589 108.1000 108.4200
125.3100 125.2568 125.2115 125.1655 125.1407 125.0875 125.1071 125.1541 125.0434 124.7240 124.5643 109.5835 112.3265 112.0630 116.9504 114.2587 122.5413 113.2673 104.9358 118.8794 119.4724 103.3208 104.0539 106.7933 105.5653 106.4717 103.8495 103.4026 114.1373 118.4226 124.6736 112.7242 123.5936 106.9232 119.5921 106.9008 110.4957 107.3389 114.4333 122.0296 112.4982 113.3792 104.9401 105.2105 107.8375 107.6931 119.6808 116.0885 119.3437 125.6632 134.8197 109.0777 128.5140 132.4920 132.2098 133.5327 134.2267 134.2960 134.3921 135.5569 137.7847 114.0983 109.9558 109.6400
125.5000 125.4535 125.4060 125.3836 125.3354 125.2403 125.5375 124.8548 125.2396 125.0732 125.9921 126.9587 127.4864 111.8383 116.0296 103.1845 102.1708 121.2485 104.2466 123.2118 121.2861 120.5438 102.5145 103.4784 108.9013 104.2712 103.9330 104.0722 130.8791 119.4197 121.1980 113.0207 122.5695 114.6540 111.6580 108.3052 109.2793 116.5183 108.2210 115.0158 111.3499 113.2027 108.8583 106.6100 107.1055 115.3800 122.5971 121.6660 116.3371 117.2498 127.4316 133.0660 131.0357 130.9392 133.0190 132.9667 133.5358 133.6607 135.0614 136.9113 122.7102 127.8283 109.0927 107.1800
125.6800 125.6417 125.5990 125.5657 125.6716 124.9463 135.7839 124.2153 125.4774 125.3833 125.1438 125.0657 125.0259 112.7109 103.9726 102.5555 111.5472 111.8604 103.9542 124.0212 121.2666 123.0793 101.8239 103.3033 109.5772 107.7202 107.6157 103.3034 114.9991 119.5091 129.8359 123.0355 111.0299 119.3667 105.6971 119.3977 105.5262 114.0531 106.5085 114.3902 110.9099 106.9411 110.5811 104.8838 113.2196 108.1295 123.3337 121.6864 121.6755 116.7323 127.0594 130.1180 130.9789 131.7312 132.6897 133.8616 134.4326 135.8720 128.2752 127.8987 108.5982 105.1913 111.1628 107.2900
125.6800 125.7000 125.7300 125.7500 125.6000 125.6300 125.6400 125.6500 125.4900 125.5000 125.5000 125.5000 125.5000 119.8700 103.4900 103.6600 103.6400 103.6200 103.6100 125.6900 115.6500 123.3600 123.3600 103.8200 109.7200 108.2200 108.6100 105.1300 120.8000 120.8000 109.6200 116.8900 116.8900 130.2900 110.6400 120.2100 109.9200 111.5000 111.5000 105.1500 115.8500 123.1500 115.6800 115.8500 105.4900 108.5800 123.0100 117.4200 123.8300 113.7200 130.5000 130.5000 131.9000 131.9100 132.6700 133.1700 133.9000 135.2300 106.9000 107.0000 110.8800 107.1600 107.2400 107.3200
