126.0300 126.0500 125.9100 125.9300 125.7800 125.8000 125.8100 125.8300 125.8400 125.6800 125.6800 125.6800 125.6900 125.6800 125.6800 125.6700 125.8300 125.8200 125.8100 114.5600 125.9300 125.9200 125.9000 126.0300 126.0100 126.1300 126.1100 126.2300 126.3400 126.3400 126.4500 116.5300 114.0000 114.1500 104.7500 126.8400 126.8400 126.9300 127.0200 127.1400 127.2200 127.2100 127.4200 127.4200 127.6100 127.6100 127.6800 127.7900 127.8600 128.0700 128.0500 128.2400 128.2400 128.4100 128.5100 128.5900 128.6700 118.1300 119.8900 128.9300 120.8600 129.1900 129.2600 129.3400
125.8500 125.8289 125.8039 125.7962 125.7464 125.7196 125.6884 125.6741 125.6449 125.6354 125.6221 125.6168 125.6228 125.6292 125.6236 125.0557 124.9948 125.6447 126.3436 117.2196 120.1527 126.6528 122.5488 125.6590 126.9198 125.9450 125.9490 127.4728 111.9202 116.4073 126.5974 127.5494 109.2757 108.2688 107.7670 110.3136 128.1164 126.2507 126.2524 127.0175 120.3857 126.6425 127.5431 127.3369 127.4450 127.5439 127.6402 127.7316 127.8262 127.9223 128.0266 128.0967 128.1240 128.3623 128.9858 123.8671 123.3053 112.4182 115.9867 113.8449 114.1929 127.7509 129.1662 129.3400
128.8900 126.0978 126.0083 125.5060 125.5724 125.5227 125.4971 125.4667 125.4487 125.4362 125.4265 125.4165 125.4193 125.4206 125.4158 125.4870 125.5408 125.5458 122.2837 115.0693 119.8485 126.5712 118.5407 127.5652 115.0375 121.4074 126.2294 120.0477 115.8055 112.9218 119.3876 125.1416 102.4659 109.6946 120.2692 116.0053 125.4714 129.3400 130.9875 128.1249 125.4214 125.1389 127.1130 127.2403 127.3183 127.4185 127.5173 127.6205 127.7164 127.8090 127.9202 128.0564 128.3539 128.4432 126.5541 117.8090 117.2820 136.7251 124.4675 126.2490 123.6144 129.8303 128.9791 129.2200
125.4800 129.0089 126.9602 125.5495 125.3027 125.3339 125.2727 125.2761 125.2525 125.2327 125.2231 125.2128 125.2099 125.2181 125.2084 125.2184 125.2950 125.3808 121.0531 125.1784 126.9699 118.5721 121.1183 126.1293 123.7400 128.9278 125.5586 124.6661 128.7098 115.1448 108.1055 110.8871 104.9488 105.1057 119.1099 114.7286 127.5286 124.2649 126.9400 124.3243 119.1180 127.3165 126.7778 126.7240 127.2311 127.2881 127.3852 127.4898 127.5801 127.6728 127.7831 127.5557 129.4261 119.8807 118.1655 118.6110 125.9955 127.5322 123.2965 129.9102 129.4484 128.7564 129.0229 129.0700
125.2900 125.2437 123.8928 117.3600 126.5582 125.2338 125.1562 125.0422 125.0327 125.0240 125.0158 125.0039 125.0011 125.0089 125.0187 125.0276 125.0744 125.0580 125.5028 130.1728 125.3339 117.2396 114.8299 122.8960 124.4110 125.3738 125.7575 126.6065 125.7219 126.9018 108.9046 111.4842 109.3111 128.0520 125.6442 127.8169 127.1826 127.5274 126.1753 126.2879 126.0526 126.4756 128.7665 127.0395 127.1111 127.1397 127.2713 127.3632 127.5676 127.3731 127.3169 128.7056 130.1246 116.2837 118.6941 116.7457 122.4003 130.6050 119.0535 129.4914 128.6145 128.7651 128.9916 128.9600
125.1000 125.1365 125.5169 125.6822 125.5990 125.7872 124.9051 124.8846 124.8775 124.8072 124.7993 124.7877 124.7943 124.7914 124.7985 124.8149 124.8580 124.8912 124.7911 124.2858 126.6400 111.3718 119.8598 125.5796 125.5677 125.2402 125.1975 126.6088 123.7295 122.4684 116.1636 108.4672 109.0688 116.7675 126.5208 125.8138 126.1915 126.1640 126.2501 126.3485 126.7489 126.6356 126.6872 126.8569 126.9266 127.0247 127.1398 127.1677 127.3503 126.9642 129.0521 112.3345 112.9193 117.5210 120.8666 122.8372 125.3626 109.0378 121.5239 123.6845 130.6722 128.8150 128.8782 128.9200
124.9000 124.9981 117.2832 125.3971 124.5171 124.5844 124.6898 124.3784 124.2632 124.6048 124.5855 124.5672 124.5675 124.5730 124.5804 124.6013 124.6154 124.6346 124.6343 124.8181 126.9010 110.2000 123.0368 125.3126 122.8542 125.0345 125.0010 125.9619 103.5024 105.2286 116.1714 113.0665 116.7366 103.7889 121.9784 125.6312 125.9760 126.0556 126.1584 126.2447 126.3675 126.4658 126.5788 126.6819 126.7925 126.8968 126.9922 127.1448 127.2230 124.1793 111.1931 117.3057 115.7599 124.6099 127.7817 126.8157 117.6601 109.2956 126.2971 128.5655 128.6181 128.5739 128.7210 128.8000
116.0600 123.8631 124.4816 124.5604 124.1617 124.5276 124.4460 124.5835 127.3899 124.0664 124.3474 124.3597 124.3462 124.3512 124.3596 124.3768 124.4047 124.4286 124.4345 124.4304 127.2047 119.2096 117.0570 124.7904 124.0998 125.0699 124.6560 125.3640 112.7177 113.5289 130.8865 122.8423 126.8771 105.7400 122.7988 125.4529 125.8180 125.8717 125.9303 126.0428 126.1673 126.3197 126.4366 126.5477 126.6540 126.7727 126.8464 127.3955 124.2375 124.9124 116.0411 108.3149 127.8832 128.0228 128.5945 121.5511 117.6725 123.8751 128.1944 128.3858 128.5099 128.6961 128.0874 128.7700
114.3500 124.6764 124.0807 124.3009 124.2154 124.2647 124.1657 124.2850 121.4338 124.8799 124.1228 124.1080 124.1165 124.1209 124.1322 124.1440 124.1644 124.1888 124.2117 124.2596 124.9825 124.4133 125.8339 124.4139 124.6081 125.1023 125.3531 124.7621 133.8071 116.7442 120.5024 112.9816 123.1299 126.4492 125.3374 125.5688 125.6331 125.8512 122.6100 127.2225 125.8306 126.2686 126.2656 126.4078 126.5201 126.6305 126.7648 126.8393 127.2372 127.3365 117.4333 122.3347 130.4484 127.4473 125.5371 125.3167 129.4786 128.0888 128.1933 128.2899 128.2186 131.1698 118.6803 114.7400
113.7600 119.7449 124.9489 124.1100 124.1200 124.0109 123.9476 124.8304 118.6648 118.3510 124.0729 123.9421 123.8855 123.8842 123.8923 123.9164 123.9599 123.9733 123.9997 124.0296 124.1042 123.9609 124.6726 124.1859 124.9173 112.9118 124.1469 123.7129 123.6991 125.6818 126.1315 124.9501 125.0490 125.6959 125.3260 125.3908 125.3751 126.8987 117.0654 116.6088 127.5196 125.8737 126.1769 126.2671 126.3829 126.5021 126.6207 126.7552 126.4772 127.3105 124.3412 118.8602 127.1113 128.1749 116.7218 108.9783 126.8880 127.9218 128.0397 128.1841 128.1201 129.2909 117.9974 128.6100
116.5400 113.4691 125.6220 123.9727 123.6224 123.8253 123.6574 124.3371 113.7477 113.2970 123.0208 123.3514 123.6512 123.6395 123.6575 123.6948 123.6385 123.7257 123.7205 123.8507 122.7924 123.9743 123.9472 124.2178 124.7010 122.2657 125.3841 124.3954 124.3956 124.3576 124.4165 124.6638 124.9759 124.9921 125.0745 125.2673 125.5894 124.9535 124.6578 112.4333 125.3809 125.8055 125.9994 126.1287 126.2489 126.3692 126.4944 126.6244 126.7572 127.1584 117.8405 133.5227 126.9749 116.1331 124.9228 127.0193 127.9432 127.7447 128.0160 128.0847 128.0743 128.4738 119.5007 117.6100
123.8400 118.9512 109.0816 120.8417 123.7015 123.5429 123.5174 123.5462 123.0228 111.8089 122.8319 123.0236 123.4105 123.4008 123.4543 122.6554 123.7306 123.5306 123.4918 123.5670 123.4944 123.6668 123.0231 122.8095 123.6962 124.0485 124.0448 124.0930 124.2826 124.3592 124.4982 124.5972 124.6494 124.7761 124.8855 125.0313 124.6739 132.6583 125.4656 126.0529 126.8755 125.7175 125.8929 125.9826 126.1154 126.2388 126.3613 126.4851 126.6011 126.8546 126.9660 129.3110 127.5590 126.8841 118.8938 114.9577 127.5902 128.4604 127.7924 127.9905 128.0640 128.3833 123.3915 117.2400
123.6100 117.8753 115.5112 125.5538 123.3147 123.3172 123.2244 123.5581 115.8935 108.8009 126.7567 122.6499 123.1613 122.9884 123.5171 115.9207 123.6707 123.2065 123.2262 123.3164 123.3991 123.3809 121.4343 123.1316 124.4518 123.7571 123.7179 123.9522 124.0168 123.9265 124.6934 124.0538 124.5330 124.5812 124.7157 124.8727 124.6527 125.3888 124.6870 125.3983 125.4947 125.5222 125.7124 125.8453 125.9738 126.1061 126.2321 126.3623 126.5256 126.6162 126.6233 126.9323 127.1326 115.4405 120.7939 126.5528 119.9819 128.2978 127.6894 127.9433 128.0280 128.0755 127.0188 119.0200
110.9300 116.7915 121.1668 123.1933 123.0602 123.0485 123.0324 122.6062 123.1437 111.3749 128.2029 122.3080 122.9566 122.8125 123.5360 123.5548 122.8807 123.0211 123.0423 123.0869 123.0783 123.3480 123.3922 123.8389 114.4283 123.7498 123.6321 123.7377 123.8551 125.5127 122.5286 125.1070 124.1250 124.3959 124.5273 124.6446 124.8843 126.0538 120.9538 125.5433 125.1850 125.4644 125.5661 125.7036 125.8359 125.9693 126.1052 126.2376 126.2284 126.3910 126.6277 126.6628 127.7390 123.1906 128.3652 126.3311 122.4564 127.0695 127.5989 127.8204 127.8052 129.2231 118.0756 118.6200
108.6500 126.9246 123.4714 122.8449 122.8724 122.7736 122.7290 122.7427 122.4705 124.4358 122.3782 122.0046 122.6251 122.5542 122.4471 122.5109 122.6788 122.5258 122.5369 122.7502 123.5632 120.7496 124.0210 124.8950 107.4549 119.3939 123.2561 123.5657 123.5306 124.7512 109.2440 124.3394 123.9510 124.2471 124.3353 124.4004 124.7963 121.0629 122.2657 119.7644 126.0199 125.2442 125.4307 125.5622 125.6964 125.8360 125.9719 126.1460 126.2038 128.0120 127.7250 126.6288 126.7241 127.0065 127.0445 125.6270 128.3261 127.4481 127.6007 127.7502 127.6956 128.0271 117.3465 128.1400
112.1000 121.1620 122.4600 122.7729 122.5870 122.5155 122.4699 122.4001 122.4127 122.0929 122.2330 122.3979 122.3069 122.3236 122.3657 122.4031 122.0639 125.9840 122.1098 122.9360 122.2384 111.3322 118.5397 125.9595 105.7531 123.3498 123.1663 123.4706 123.0437 124.3765 123.7034 123.2825 123.8771 124.0175 124.1427 124.3210 124.3028 124.9862 122.7486 125.2919 124.9864 125.1015 125.2675 125.4186 125.5594 125.7058 125.8455 125.9836 126.3319 120.4304 124.9188 126.5210 126.6619 126.9635 127.2241 127.0933 127.0577 127.4071 127.4999 127.6442 127.6764 127.9044 127.0406 132.9900
122.6100 122.9554 122.4276 122.3578 122.3051 122.2614 122.1633 122.1285 122.0820 122.0958 122.0619 122.0146 122.0109 122.0122 122.0341 122.0777 121.8469 122.0843 122.2073 125.3476 130.1091 120.6207 121.6481 122.1680 110.0995 115.5051 121.3421 120.5450 123.0640 123.3125 123.3784 123.5598 123.6827 123.8168 123.9649 124.1160 124.2383 124.3794 124.7866 124.8432 124.7131 125.0157 125.1244 125.2819 125.4249 125.5666 125.7174 125.8684 126.0668 126.1858 126.2911 126.5081 126.4749 126.9329 118.4862 120.3587 127.5984 127.2871 127.4132 127.5451 127.6834 127.9249 128.0254 127.9900
122.3500 122.1740 122.1828 122.1805 122.0282 121.7816 121.9446 121.8319 121.7893 121.7472 121.7265 121.7161 121.7106 121.7202 121.7419 121.7363 121.8362 121.8928 121.7792 121.2212 121.9751 112.5538 122.1196 114.1130 108.5244 112.4836 116.4236 118.7857 123.4391 122.8857 123.1990 123.3377 123.4680 123.6271 123.7642 123.9248 123.9509 124.2371 124.4272 124.4741 124.6746 124.8285 124.9806 125.1328 125.2862 125.4359 125.5901 125.7395 125.8891 126.0473 126.1793 126.3208 126.4227 126.7423 127.2881 126.8111 126.9705 127.2121 127.3261 127.4677 127.6078 127.7446 127.8559 127.9500
122.0700 122.0508 121.9257 121.6588 121.7396 122.9454 121.4087 121.5940 121.5076 121.4336 121.4089 121.3971 121.3926 121.4061 121.3986 121.6823 121.6028 121.4061 121.7735 121.8883 122.0179 122.1581 110.8933 120.5440 119.9096 118.9499 122.0712 113.3291 122.1355 122.8208 122.9797 123.1248 123.2034 123.4414 123.4566 123.7198 124.2639 124.2215 124.8574 124.5986 124.5231 124.6770 124.8383 124.9926 125.1538 125.3120 125.4595 125.6146 125.7653 125.9281 126.0068 126.2670 124.4592 126.6549 126.7615 126.6564 126.9742 127.0844 127.2470 127.3804 127.5224 127.6544 127.7930 127.9200
121.7900 121.7986 121.6374 121.2211 120.8524 111.5770 123.2211 122.2642 121.1545 121.1087 121.1009 121.0668 121.0720 121.0406 121.3895 118.7919 121.4140 122.3806 120.9323 121.4450 121.3715 122.1671 121.9077 122.3229 119.3380 124.2285 109.4118 119.3106 122.8630 122.6464 122.7352 122.9194 123.4558 123.7591 123.6604 124.4364 122.0885 122.2165 114.3648 124.6644 123.6793 124.8972 124.6195 124.8596 125.0126 125.1810 125.3363 125.4962 125.6378 125.8024 125.7972 126.5157 117.4326 126.7465 125.2595 126.9506 127.1907 127.1849 127.1445 127.2994 127.4422 127.5814 127.7305 127.7900
121.4900 120.7942 121.6127 121.1575 114.8688 122.3558 121.4165 120.5983 120.8247 120.7692 120.7874 120.1076 120.7605 120.7273 120.8440 120.7721 120.6391 112.8329 123.0748 119.3431 121.2028 121.2513 121.4804 121.2341 122.6336 120.2528 111.4557 124.5281 122.2084 122.1953 122.5222 122.6154 120.7237 121.3986 115.0963 120.3460 112.6093 120.9428 127.4905 126.4393 124.9605 122.7826 124.6811 124.7009 124.8800 125.0428 125.2127 125.3337 125.7419 125.8975 125.6807 121.8325 125.9171 124.0943 119.1103 126.9495 125.1630 127.1595 127.2638 127.2015 127.3625 127.4908 127.5862 127.7700
121.1800 119.2805 121.1579 122.4074 120.7637 121.4881 120.6034 120.4006 120.5046 120.4420 120.4162 120.4578 120.4011 120.4958 118.9978 120.5853 118.4686 111.1817 114.7882 109.7055 114.0891 120.9875 121.0407 121.0846 115.6880 108.4636 111.7028 122.5915 121.9495 122.2006 122.2924 122.1564 121.0829 107.5126 122.3284 108.8332 114.4722 119.0644 123.0025 118.0514 121.0094 117.0929 124.5516 124.5934 124.7435 124.9286 125.0945 125.4237 123.7979 125.9115 119.5545 114.9288 117.7542 118.5908 122.1281 126.7795 139.6300 132.4001 126.9579 127.0952 127.2876 127.5173 127.9860 130.8300
120.8600 119.4031 121.1581 122.2736 120.3304 120.4340 120.3307 120.2058 120.1448 120.2174 120.2084 119.9400 119.9557 119.8640 118.9905 120.1980 119.1927 114.1504 115.6098 117.2159 117.4782 119.0488 121.3672 121.0670 121.4089 108.6377 109.2706 121.9708 113.4379 122.9044 122.1213 122.2178 125.5563 110.7054 119.9073 108.9679 118.9307 119.7657 113.6511 124.1033 131.9057 125.0432 124.1937 124.4886 124.5461 124.7455 125.0128 124.8710 120.7517 123.8043 108.4978 116.9222 123.2118 123.7918 125.5433 126.5358 140.8638 130.8717 126.9138 127.0202 127.2061 127.0426 127.4153 127.5800
107.7200 109.1094 120.4637 119.4794 120.2680 118.1641 119.9631 119.8337 119.7380 120.6767 115.2792 122.2971 119.3644 116.5845 117.2004 119.9676 105.7145 105.2819 103.9276 121.6094 120.5955 115.0832 120.2688 123.5621 130.2957 125.0533 112.1298 119.3870 108.0966 122.7734 122.7170 120.2052 120.2751 110.8956 113.6022 120.6894 112.3667 123.5541 123.1275 130.0614 125.9540 123.1169 124.1226 124.0992 125.1526 125.0345 124.7808 127.5100 124.6959 125.6173 107.4676 120.4188 124.1218 127.1596 122.0748 126.2976 125.0713 124.8765 126.9255 126.9617 127.1652 128.0157 128.8185 127.5500
120.1800 120.7473 120.5484 120.0380 126.7958 119.3440 119.6967 119.4766 119.3694 117.0215 104.1931 127.1411 118.5836 115.0283 113.5747 111.3172 98.8768 120.9581 112.2149 118.8449 119.9403 120.9734 120.2445 119.5606 121.7267 123.2503 120.8337 121.4039 115.6607 121.8581 121.4035 121.1139 125.0574 118.1851 120.4016 110.5882 108.1397 126.6365 108.9133 123.2612 123.1488 124.2921 124.9675 124.5612 123.1348 122.5233 123.8922 123.8533 112.2741 113.6611 112.7506 110.6428 118.6526 121.6298 127.2448 128.3320 127.0026 128.8859 126.6721 126.8771 127.1133 127.6366 127.4864 127.4200
120.1800 119.8663 119.6424 119.1202 119.3275 119.0574 119.1169 119.1036 119.0250 120.5330 118.1399 118.2965 118.2988 118.9927 113.9609 120.4376 114.9290 119.1676 110.4974 118.8474 119.2404 119.6080 118.8594 120.3075 120.2453 118.9977 118.5646 118.7243 120.7035 121.2845 121.2218 121.5236 118.5305 105.0199 112.4225 114.8158 120.6022 122.2788 107.4400 119.8273 123.3245 124.5081 114.0637 120.9581 124.0818 124.0256 128.3450 128.1165 115.0091 112.0565 112.9195 122.9533 118.0268 117.5503 125.8306 126.8794 125.8666 131.3879 126.2556 126.8390 126.9589 128.3413 127.1928 127.4000
119.8100 119.5249 119.3972 119.2569 119.0680 118.9475 118.7509 118.6305 118.5853 118.6334 121.8945 118.7296 118.5024 120.0423 118.6532 116.6364 98.7596 118.9524 117.0987 119.4623 118.8826 119.3982 117.9585 119.9417 119.8463 120.1466 120.3016 120.1868 120.5872 121.1412 123.8493 120.8852 122.0117 120.2724 117.1783 116.1470 123.2800 121.5073 122.1981 122.9992 123.6990 118.4560 120.7291 123.7684 126.2112 123.8966 124.0973 109.1016 116.1894 117.1234 120.8432 122.2798 125.2546 124.9250 125.9236 126.1391 126.2199 126.8133 126.6318 126.7685 126.9316 127.3321 127.2340 127.3700
119.3800 119.2056 118.9971 118.8094 118.6381 118.4612 118.3359 118.2141 118.0859 118.0357 117.5101 117.7369 117.9029 117.8282 117.6399 117.1530 106.7557 116.9980 113.9051 118.7551 118.7728 118.8792 119.1372 119.2455 119.3324 119.8972 119.8191 120.4143 120.2762 120.5051 120.7595 121.1225 121.3502 121.6395 120.6941 115.0294 132.6378 123.0086 123.0302 122.8383 123.0782 123.2503 123.8779 123.6253 123.9571 123.5732 125.8634 120.4291 116.1384 117.6604 116.8851 126.1295 125.3710 125.6918 125.8819 126.0409 126.2060 126.3584 126.5477 126.7157 126.8779 127.0209 127.1812 127.2400
119.0100 118.8363 118.6238 118.4183 118.2295 118.0525 117.8907 117.7539 117.6441 117.5400 117.5377 117.4759 117.4457 117.4236 117.8127 114.5593 117.2993 117.8147 117.9783 117.5258 118.3947 118.6429 119.8931 115.1002 118.9241 119.2023 118.8898 116.4847 120.2463 120.3442 120.6112 120.8143 121.1232 122.2694 111.4442 111.8944 119.6421 118.3154 122.7853 122.7848 122.9475 123.4368 123.3601 123.6493 124.5231 107.8068 121.7317 117.8250 117.8943 126.2374 125.3147 124.8662 125.4522 125.6065 125.4343 125.9643 126.1658 126.3734 126.6770 126.6528 126.8011 126.9809 127.4694 127.2100
118.6000 118.4763 118.2286 118.0128 117.8031 117.6076 117.4315 117.2755 117.1445 117.0485 116.9702 116.9950 116.7045 120.6472 110.9333 117.4830 117.0340 116.9804 117.4673 118.2171 116.9821 118.1931 112.5750 118.1017 119.5119 119.4017 114.6067 113.9845 119.9583 120.0055 120.3743 120.7302 121.2268 119.0020 123.6806 116.7255 120.5737 123.1561 122.3368 122.7043 122.6820 125.5387 122.7344 124.6097 107.3847 108.6083 113.3013 114.3426 127.1457 124.3873 115.5108 115.4539 124.5629 124.9444 122.3397 126.3399 125.2200 126.2394 125.1882 126.6906 126.7737 126.8211 124.1266 127.1900
118.1400 118.0878 117.8309 117.5900 117.3571 117.1397 116.9394 116.7729 116.6241 116.5118 116.4331 116.3855 116.2038 116.4644 115.1521 115.6793 116.2671 116.7649 117.0353 117.0186 117.5146 117.7817 118.0950 120.0914 115.6456 117.8684 119.0230 118.3810 125.2459 119.8599 120.4227 119.3207 115.9113 106.3911 106.4135 117.9313 121.6637 121.8880 122.2071 122.4688 122.6193 123.1358 123.6478 121.9936 114.1686 115.7795 126.2654 124.9996 118.9868 125.1153 106.5428 118.0334 122.2976 114.1596 124.6413 124.9620 124.3958 128.7036 122.1165 126.8056 126.6984 128.3319 109.5406 127.1700
118.0900 117.7052 117.4226 117.1461 116.8932 116.6508 116.4346 116.2424 116.0780 115.9504 115.8568 115.8191 115.8588 115.8151 115.2713 118.3122 112.8637 116.1857 116.5714 116.5815 117.1709 115.9277 117.5618 107.4994 106.6920 100.0088 117.5835 116.1945 111.6170 118.9117 118.9751 112.1143 106.7122 112.3702 127.3811 118.2411 122.2763 121.9018 122.0685 122.3132 122.5989 122.7336 122.3528 123.2980 124.8760 127.2477 124.6997 121.9526 102.3658 118.0849 118.6350 114.2514 114.1192 111.5571 123.7755 123.6596 127.7332 128.3941 126.7984 126.3855 126.7054 126.8595 127.8400 127.0200
117.6600 117.3063 116.9940 116.6962 116.4129 116.1437 115.8975 115.6791 115.4897 115.3488 115.2339 115.1186 115.0413 115.5647 116.0201 99.6413 114.6911 116.1612 115.9890 117.3587 115.5305 117.0785 117.0032 115.1041 112.1613 102.1952 119.6316 118.9416 119.0102 120.2388 127.1488 110.8154 115.8904 116.4652 132.7406 122.9219 121.1500 121.4939 121.9716 122.2345 122.4396 123.3438 125.2892 123.7194 123.9734 125.4071 116.1798 124.9138 98.8759 98.6123 99.4377 108.5012 122.9983 130.2582 121.2524 111.6996 126.4088 125.8532 126.1526 126.4326 126.6153 126.5865 126.7730 127.0000
117.1400 116.9021 116.5602 116.2296 115.9125 115.6141 115.3342 115.0809 114.8646 114.6974 114.5685 114.2819 114.8881 104.8201 106.0986 100.0705 109.3871 114.5934 115.4456 115.3304 116.8603 114.9848 94.5608 111.2023 120.3954 117.6258 118.7878 118.1635 118.4364 117.6351 112.0511 118.2690 119.4502 121.2807 101.9687 114.5102 123.1245 121.4642 121.3805 121.8878 122.0939 117.4830 109.0344 121.8128 122.1837 122.4466 93.1543 109.8989 111.6897 111.9131 114.9366 130.3020 121.7088 120.7541 126.2173 116.7310 126.0255 125.9868 126.1892 126.3660 126.5450 126.7630 126.9071 126.9800
116.5800 116.4936 116.1163 115.7459 115.3906 115.0581 114.7340 114.4512 114.1999 114.0038 113.8491 113.4749 114.3010 100.4278 105.9495 117.8134 113.8682 114.7962 114.7548 115.2068 115.1239 117.0832 110.5184 114.5882 116.8713 119.5752 119.9399 118.0065 120.1374 119.4841 104.1083 116.1914 119.6802 121.8480 110.9168 108.3353 111.2732 118.3734 121.9269 122.6107 123.2592 107.0267 109.0325 122.7588 124.4267 124.4458 135.4930 111.6901 119.1120 108.2841 119.5945 126.0166 125.2913 125.6765 126.3405 127.1826 125.7213 125.9593 126.1424 126.3174 126.4910 126.6562 126.8260 126.9600
116.5800 116.0704 115.6621 115.2515 114.8552 114.4731 114.1038 113.7746 113.4860 113.2509 113.0665 112.8624 113.1945 114.1228 115.9203 114.7454 113.3607 113.8308 114.2459 114.6727 113.3670 115.4038 110.5812 116.4981 117.6758 104.7008 112.7525 111.4854 106.9486 111.6041 117.9507 120.3715 119.4228 120.8148 119.0109 116.6339 117.3559 127.2549 119.8872 113.7958 123.4086 113.0504 107.7483 122.9109 112.4474 113.4935 95.9022 115.7274 115.8142 113.2006 114.9330 124.9105 124.4830 125.4503 125.1765 124.3966 125.7367 125.9236 126.0952 126.2700 126.4497 126.6195 126.7915 126.9500
115.9300 115.6613 115.2055 114.7508 114.2991 113.8560 113.4455 113.0539 112.7134 112.4249 112.2147 112.0822 112.1576 112.9546 110.8585 112.6766 112.8050 113.1874 113.5751 113.7756 115.2480 114.4223 115.7970 115.8108 117.6662 100.6972 116.7929 110.0646 115.1872 117.8281 119.3570 119.1635 119.8528 112.5947 120.6924 107.8648 119.5705 114.1268 121.1152 120.4854 122.6649 121.6840 123.7947 122.8245 111.0098 111.9103 112.1884 113.5179 125.0780 130.3022 117.5128 119.3814 124.0615 119.5878 125.3878 125.3341 125.6779 125.8659 126.0503 126.2345 126.4107 126.5895 126.7543 126.8200
115.3900 115.2435 114.7397 114.2333 113.7252 113.2281 112.7392 112.2848 111.8752 111.5286 111.2700 111.1105 111.0677 111.1677 111.5258 111.6338 111.9868 112.4335 112.8911 113.3965 113.8870 114.5168 114.3574 115.6217 107.8469 116.0562 122.3199 116.7449 118.1697 118.2168 118.5081 118.4852 121.0430 101.4081 105.9663 112.0455 108.0251 111.5093 120.9905 109.1063 121.6383 121.9888 122.4204 127.2973 120.5445 101.3679 101.3885 102.6329 106.5446 121.8268 120.4195 123.1740 124.6679 122.1300 124.4596 125.2878 125.6550 125.8224 126.0071 126.1940 126.3781 126.5427 126.7298 126.8000
115.2400 114.8343 114.2814 113.7228 113.1437 112.5711 112.0059 111.4694 110.9684 110.5393 110.2197 110.0189 109.9680 110.0648 110.2841 110.6880 111.1313 111.6469 112.2021 112.7619 113.3435 113.9184 113.3864 111.7782 115.8011 116.2591 120.4682 116.6072 117.4585 118.0880 118.0012 124.8857 112.5729 117.2004 103.5840 108.6225 108.9293 108.4523 120.9288 113.2940 119.7418 122.1348 116.6319 114.3314 97.5305 116.3327 114.5481 114.3861 116.7047 123.3804 124.5590 123.7591 125.3478 124.9930 125.3125 125.4120 125.5909 125.7911 125.9783 126.1642 126.3290 126.5177 126.7951 126.7900
114.6700 114.4426 113.8422 113.2061 112.5608 111.8979 111.2350 110.5872 109.9811 109.4464 109.0271 108.7567 108.6966 108.8350 109.1561 109.6191 110.1852 110.8059 111.4599 112.1302 112.7934 113.3873 114.4727 114.9825 115.0677 115.5451 112.4805 117.2408 117.2157 117.6889 118.2588 116.0562 118.0935 113.2942 106.8562 104.2975 120.9650 121.4244 117.1623 107.0976 123.5293 123.1054 116.5323 118.4499 113.4502 115.0365 116.8043 115.8166 115.9498 122.6470 122.5782 126.6205 126.7777 123.6253 125.2550 125.3575 125.5496 125.7487 125.9424 126.1320 126.3803 126.6078 124.9919 126.7800
114.5400 114.0710 113.4027 112.7067 111.9842 111.2274 110.4489 109.6584 108.9036 108.2132 107.6605 107.2944 107.2076 107.3943 107.8292 108.4391 109.1600 109.9310 110.7189 111.4898 112.2350 112.9501 113.5985 114.2792 114.9395 115.6277 116.2054 116.5206 117.1038 117.4710 117.0790 116.0263 119.1136 119.3564 126.5096 109.8632 120.7643 120.4177 122.0545 121.1502 123.2072 127.5823 107.0201 120.1039 117.9305 111.1965 113.7451 115.9296 123.8972 103.4610 117.2448 135.7677 129.1916 124.7134 125.3144 125.3640 125.5864 125.7568 125.9415 126.0199 125.7528 130.5249 115.8594 111.9300
114.4100 113.7213 113.0079 112.2449 111.4262 110.5576 109.6438 108.6961 107.7412 106.8292 106.0599 105.5507 105.4077 105.6872 106.3051 107.1317 108.0731 109.0259 109.9620 110.8568 111.7050 112.5171 113.2705 113.9620 114.6129 115.1800 115.7757 116.3790 116.8966 117.3271 118.1997 118.5696 118.9284 119.3601 111.3376 120.9648 120.5187 121.0327 120.6862 121.6169 121.5814 104.4622 99.2590 99.8066 102.0304 108.7921 109.3013 114.9009 124.8521 112.6544 118.9831 133.4022 135.9984 124.7769 124.9084 125.0893 125.2036 125.5492 125.8057 126.3706 128.3155 126.4184 126.9307 126.7600
113.7100 113.4129 112.6441 111.8112 110.9087 109.9299 108.8643 107.7186 106.5020 105.2835 104.1657 103.3548 103.1350 103.5860 104.5258 105.7021 106.9242 108.1210 109.2294 110.2661 111.2241 112.1039 112.9103 113.6710 114.3684 115.0372 115.6504 116.2020 116.7485 117.2725 117.4933 118.0286 118.7188 119.0938 126.6097 125.2042 112.6062 118.6099 122.8381 118.5289 113.2985 111.0964 102.4087 101.8116 103.2509 119.7817 125.0805 124.3263 124.7174 126.2058 129.8650 116.7468 117.2984 126.5041 126.6362 126.1466 126.6952 126.2672 125.9808 122.5988 126.6148 116.4169 125.3604 126.7500
113.6900 113.1575 112.3359 111.4360 110.4527 109.3569 108.1355 106.7664 105.2383 103.5658 101.8425 100.5233 100.0956 100.8876 102.4325 104.1548 105.7765 107.2521 108.5699 109.7446 110.8051 111.7621 112.6310 113.4219 114.1634 114.8358 115.4753 116.0715 116.6203 116.8849 118.6747 118.0129 119.5095 118.7681 121.7252 130.4588 105.6905 111.3329 121.2312 113.1606 112.8058 116.4238 108.2566 115.4808 113.6118 123.7285 122.6714 123.3057 124.0421 138.2213 134.1002 116.2547 112.9192 117.4527 118.9679 119.5133 119.7357 123.2727 124.3442 117.4520 116.6664 123.5536 124.8786 126.7400
113.5600 112.9613 112.1029 111.1428 110.0834 108.8838 107.5208 105.9235 104.0408 101.7710 99.1987 96.1899 95.0139 97.2042 100.0677 102.6049 104.7180 106.5021 108.0100 109.3203 110.4691 111.4880 112.4016 113.2360 114.0068 114.7052 115.3627 115.9744 116.4581 118.3445 105.9983 119.5560 110.4546 121.4434 108.1477 120.1595 111.7586 107.3354 114.2816 109.7930 114.9518 113.5994 115.9619 120.9560 124.3901 122.9067 123.2418 123.3891 124.5695 127.2972 127.6077 115.6233 120.2628 118.4869 122.5228 121.6276 122.6708 121.9209 125.8006 123.1462 124.0297 117.3311 127.1735 110.4000
113.5200 112.8320 111.9423 110.9549 109.8359 108.5666 107.0812 105.2985 103.0858 100.1499 95.9846 90.0695 88.6059 91.6305 97.7643 101.2608 103.9035 105.9527 107.6129 109.0241 110.2401 111.3064 112.2557 113.1177 113.8994 114.6209 115.2988 115.8830 115.4719 114.1475 118.1799 117.4734 104.8271 110.3294 111.9422 116.2955 112.1953 108.7593 113.4240 112.8935 111.9092 114.2231 114.8260 119.6808 115.7978 122.9171 123.0631 123.6431 123.9677 122.6643 121.7442 121.6551 126.2554 126.4262 122.4870 127.0131 125.7867 126.1101 126.0637 127.7314 127.2830 125.3162 126.6854 127.4900
113.5100 112.7781 111.8690 110.8675 109.7243 108.4200 106.8786 105.0014 102.6123 99.2868 93.6345 86.0538 84.1479 88.0889 96.1939 100.5659 103.5002 105.6952 107.4398 108.8887 110.1333 111.2253 112.1933 113.0668 113.8517 114.5789 115.2622 115.8880 116.2230 122.8190 110.8979 121.8699 110.2753 114.0808 114.4032 115.0824 111.7433 131.2455 116.5314 112.3895 111.9956 114.0345 113.8863 114.0496 112.3908 126.1514 122.5719 121.0027 120.6490 120.2777 121.0076 120.1985 119.0565 124.5564 119.0347 121.4072 125.5976 125.4191 125.8730 124.1399 126.8148 126.7672 126.7646 126.7300
113.5100 112.7909 111.8924 110.8972 109.7665 108.4691 106.9433 105.1085 102.7793 99.5837 94.5584 87.7786 86.0110 89.4011 96.7882 100.8101 103.6381 105.7838 107.5005 108.9395 110.1675 111.2554 112.2117 113.0804 113.8723 114.5889 115.2700 115.8752 116.1175 116.8206 119.0819 104.6056 112.5759 106.1657 116.2428 112.5795 112.1324 124.6797 112.2614 110.5789 112.2957 115.9077 113.2985 119.1179 113.4160 126.8452 122.5700 118.1858 121.5379 119.7415 119.8380 119.1316 120.3437 125.3632 119.5133 123.5720 125.3772 125.7542 125.7772 125.8843 123.1523 126.6578 126.4294 126.7300
113.5400 112.8855 112.0083 111.0420 109.9468 108.7046 107.2766 105.5819 103.5131 100.9598 97.3693 93.0843 91.4267 94.5350 98.9076 101.8964 104.2707 106.1926 107.7936 109.1512 110.3401 111.3823 112.3262 113.1713 113.9463 114.6529 115.3292 115.9748 115.1833 129.2911 121.2287 111.2797 106.5079 109.8314 106.6155 110.5552 120.9034 108.1135 110.4877 112.7647 111.3322 115.2460 114.4559 110.5658 101.0277 125.1039 121.2402 123.3896 121.2579 117.3970 101.2737 100.9828 115.0402 119.1269 124.6326 125.2823 125.4247 125.6749 126.7923 122.5968 124.8435 125.6204 126.3122 126.7300
113.5900 113.0549 112.2108 111.2841 110.2588 109.1122 107.8084 106.3267 104.6229 102.6818 100.7084 98.6630 97.9696 99.3026 101.2704 103.3797 105.2358 106.8636 108.2738 109.5219 110.6190 111.6131 112.5106 113.3207 114.0745 114.7691 115.4044 115.9822 116.8732 116.9896 107.0629 114.9993 98.4549 102.3365 108.6376 121.8367 113.9236 116.5011 109.2882 110.2193 101.2974 111.9524 106.8381 107.9212 98.8063 119.7561 120.4414 122.3602 116.3669 115.0224 108.5043 120.4254 119.8535 123.9480 124.7071 125.3105 125.4413 125.2414 134.1716 127.9985 109.8862 116.6810 112.6133 113.5600
113.6600 113.2845 112.4821 111.6177 110.6695 109.6311 108.4972 107.2463 105.8822 104.4237 103.0825 102.0114 101.7092 102.3118 103.5296 104.9473 106.3533 107.6819 108.8993 109.9675 110.9813 111.9408 112.7694 113.5398 114.2575 114.9250 115.5541 116.0725 116.5984 116.2716 112.4054 114.8560 111.6461 108.3058 113.2124 120.7001 113.5103 120.7859 119.4921 116.0693 120.4212 111.8750 107.0080 104.7233 100.5610 105.4741 122.8542 122.8273 122.0965 112.8289 122.4487 124.4436 124.7509 125.2942 124.9859 125.3344 127.0666 123.9195 125.3551 126.0541 120.9549 121.6399 122.6979 123.7100
114.3500 113.5652 112.8226 112.0211 111.1675 110.2433 109.2514 108.2221 107.1466 106.0964 105.1538 104.5116 104.3355 104.6941 105.4489 106.4484 107.5122 108.5747 109.5622 110.7903 111.6685 112.2129 113.0786 113.8060 114.4865 115.1313 115.7304 116.4006 117.2112 115.7095 105.3852 106.8884 115.1385 119.7928 119.8442 123.5967 119.8615 120.4050 120.1786 124.9899 109.5010 105.7942 121.4157 113.6227 102.0889 110.3313 120.8695 123.0308 123.7617 124.6950 124.6850 124.0629 128.2035 121.6132 124.5058 125.3395 129.3693 123.4513 126.4511 125.8961 126.3591 127.7985 122.9646 110.9600
114.3500 113.8952 113.2077 112.4718 111.7032 110.8944 110.0520 109.1942 108.3494 107.5478 106.8898 106.4530 106.3419 106.5727 107.0951 107.8072 108.6273 109.4918 110.3981 109.7644 111.7171 113.5264 113.4328 114.1204 114.7568 115.3551 115.9690 116.1774 117.2087 124.2065 104.9003 121.2467 119.4679 118.8566 119.3855 118.8668 120.9946 121.2440 122.0708 121.6443 114.3425 118.0964 121.2265 107.7319 119.2121 119.8551 115.5730 118.8008 123.8297 123.8567 124.1232 124.4384 128.5596 119.5486 130.1434 125.2496 124.5568 126.5759 126.4600 125.9803 126.0328 128.4098 112.5982 109.7600
114.4600 114.2535 113.6238 112.9628 112.2755 111.5650 110.8486 110.1344 109.4571 108.8433 108.3575 108.0560 107.9781 108.1359 108.5133 109.0453 109.6834 110.3689 111.0971 110.9335 112.2933 112.8266 113.8036 114.4869 115.0606 115.6068 116.1182 118.3924 118.0082 112.9563 99.1048 119.1264 118.5073 119.2833 120.2304 122.1661 124.4608 119.3277 111.6236 112.5610 109.3490 113.7236 112.1847 116.8700 113.9927 122.9673 124.0750 120.3270 123.8999 124.1386 124.3148 124.4925 124.2364 125.0044 100.1138 126.0701 125.0721 125.3980 125.8910 126.1160 126.5129 127.2337 118.9760 137.2200
115.2000 114.6413 114.0624 113.4668 112.8632 112.2401 111.6339 111.0365 110.4881 110.0054 109.6368 109.4038 109.3451 109.4621 109.7478 110.1587 110.6758 111.2120 111.7280 112.7353 113.2800 113.6722 114.2068 114.7779 115.4015 115.8937 116.2609 118.9445 122.7074 109.1157 111.0702 117.9570 119.1123 119.4916 119.3166 124.9786 118.4505 110.9181 106.7592 115.1561 118.6102 120.0089 117.2370 124.2269 117.5220 122.6403 123.1664 123.8154 123.7597 124.1157 124.3173 124.5411 124.8787 125.2354 133.7740 126.1923 125.4597 125.9804 125.9424 126.1211 126.3873 124.9902 130.8767 126.7600
115.2000 115.0437 114.5159 113.9840 113.4409 112.9059 112.3806 111.8818 111.4279 111.0518 110.7522 110.5798 110.5423 110.6398 110.8457 111.1609 111.5848 112.1608 111.7883 115.7871 113.5558 114.6961 115.4301 114.9362 115.7371 116.4478 116.9101 115.4659 105.8093 116.6568 119.3241 119.2242 119.2174 119.6612 119.5826 126.0250 110.3640 109.4119 110.8198 123.4417 121.9178 110.0555 130.2154 116.3778 123.5016 123.5198 123.4391 123.6321 123.8899 124.1581 124.3762 124.5912 124.7852 124.9670 123.4292 124.1013 125.5743 125.7667 126.0234 126.2227 126.5472 128.5631 124.7916 114.0300
115.8600 115.4537 114.9789 114.5038 114.0192 113.5493 113.0992 112.6773 112.3003 111.9880 111.7510 111.6137 111.5440 111.6107 111.8071 112.0989 112.4266 112.8214 110.3509 113.6898 114.1431 114.7770 110.3718 117.0861 116.5963 115.8260 119.6561 122.5638 120.2107 117.7405 119.0156 118.9072 119.3567 119.7270 119.7977 123.8869 126.0508 103.5229 114.5847 121.7667 122.6278 111.7740 114.8482 117.6307 122.9193 123.2404 123.4875 123.7527 123.9851 124.2063 124.4248 124.6444 124.8554 125.0735 125.5583 125.7331 125.7460 125.7947 126.0652 126.1501 126.1602 122.1381 116.3807 128.7900
115.8600 115.8747 115.4315 115.0066 114.5839 114.1686 113.7794 113.4175 113.1072 112.8390 112.6536 112.5480 112.4732 112.5084 112.7442 112.8573 113.2039 113.6772 113.9257 114.4408 114.8857 111.5279 113.1048 105.9501 105.8576 117.8612 119.6792 106.0086 113.0662 119.1832 118.8396 119.2036 119.5226 119.9257 122.1623 121.3249 122.1705 119.6563 120.8079 121.6296 122.6687 117.6047 120.7134 111.3726 123.4862 123.2732 123.5779 123.8140 124.0400 124.2645 124.4845 124.6981 124.9026 125.1071 125.3367 125.2200 125.4768 125.9840 125.8848 130.2151 126.3005 128.5464 109.4869 112.4700
116.5000 116.2689 115.9118 115.5103 115.1112 114.7553 114.4280 114.1155 113.8508 113.6230 113.4698 113.3955 113.2713 111.8648 111.5951 113.6735 113.9507 114.2129 114.5139 114.8782 115.2876 119.1159 107.1991 101.6579 114.8913 100.3019 115.3758 102.9155 100.2593 119.7393 118.8091 119.4277 119.7431 120.1227 120.0196 120.4867 120.8351 121.2489 116.5656 120.7046 122.4781 127.0667 129.3192 110.1279 124.8143 123.3919 123.6289 123.8899 124.1136 124.3306 124.5455 124.7584 124.9590 125.1428 125.5322 125.9124 127.7901 125.9222 126.2484 126.2891 126.9953 114.2741 116.5042 111.2800
116.9800 116.7529 116.3789 115.9828 115.6723 115.3331 115.0377 114.7724 114.5359 114.3528 114.2131 114.1429 114.1218 114.2597 114.4538 114.4895 114.6387 114.8516 115.1425 115.3275 115.8102 115.8942 115.1788 104.5770 112.2137 117.9390 118.6798 96.6279 109.5843 119.8238 119.2652 119.5962 119.9056 120.3419 120.2073 121.4905 119.8184 121.1750 113.2648 121.4665 108.9857 120.0878 117.6117 108.6162 121.9697 123.3463 123.7646 123.9591 124.1828 124.3988 124.6089 124.8212 125.0210 125.2087 125.4501 126.1357 115.7040 104.6670 126.3037 126.4031 126.5202 127.2145 133.4919 135.7100
117.1300 110.8058 117.7186 116.2788 116.1545 115.8806 115.6177 115.3886 115.1871 115.0209 114.9077 114.8340 114.8188 114.8746 114.0001 113.7463 113.0738 115.1429 113.6556 116.0906 116.2632 116.6275 116.4994 103.4412 115.7726 117.3551 120.0983 115.1600 119.5177 119.0255 119.5529 119.8280 120.1366 120.3711 122.0977 105.1203 105.4046 111.0969 108.2648 118.3300 121.9694 121.5159 121.7592 114.6799 124.3583 123.3480 123.8272 124.0526 124.2641 124.4763 124.6855 124.8867 125.0926 125.2906 125.4732 125.6554 126.8126 127.9622 126.9179 126.2259 125.9934 126.6214 130.3853 140.3200
117.5800 115.4218 116.9367 116.8388 116.6420 116.4053 116.1701 115.9634 115.7892 115.6453 115.5439 115.4876 115.4678 115.4942 116.2265 119.3237 109.2905 116.9774 116.3778 117.3348 115.9139 116.4539 117.3654 117.7371 98.2581 117.0000 117.7242 109.4407 120.2246 119.7041 119.7488 120.0646 120.3420 120.6603 120.8400 121.5447 122.4061 123.5359 109.1989 113.4246 106.7921 108.2848 123.8152 122.5768 123.6753 123.7069 123.9076 124.1364 124.3486 124.5573 124.7558 124.9598 125.1572 125.3499 125.5349 125.7280 125.6620 125.6121 126.0119 126.7206 129.6889 127.3152 126.2527 117.8900
118.0500 117.7571 117.2890 117.3595 117.1269 116.9000 116.6918 116.5063 116.3560 116.2304 116.1416 116.0878 116.1052 116.1952 116.0360 100.8243 103.4709 98.5672 101.5399 115.3598 113.7406 116.8840 118.0414 117.9648 113.5536 116.1115 119.1959 120.0494 117.0085 119.3218 119.8737 120.2447 120.5656 120.8411 121.1022 121.3955 121.4439 122.2726 116.2704 109.4092 103.6510 120.5430 122.0365 114.8688 123.9136 123.8431 123.9909 124.2250 124.4336 124.6404 124.8379 125.0434 125.2341 125.4157 125.6081 125.7901 126.0036 126.3492 126.9257 123.3936 132.4066 124.8457 113.3821 117.1700
118.1800 118.1800 117.8300 117.6000 117.3200 117.3400 117.0500 116.7200 116.7900 116.3800 116.4200 116.4500 116.4600 116.4500 116.3900 94.9100 98.5600 117.0700 117.0700 117.3600 116.1900 116.1900 118.1900 118.1400 118.4100 118.6700 118.9300 119.4200 107.6600 119.9000 120.1200 120.3600 120.5800 121.0100 121.2200 121.4100 121.8300 122.0200 122.2100 122.4000 111.2000 114.4900 123.1100 123.4400 123.6100 123.9300 124.0900 124.2400 124.5400 124.6900 124.8300 125.1200 125.2500 125.5200 125.6600 125.7900 126.0400 126.1700 126.2900 116.4800 120.7900 109.7100 120.0900 112.4900
