123.7300 123.7300 123.6200 123.6200 123.4500 123.4900 123.3100 123.3400 123.1400 123.1800 123.2000 123.2100 122.9900 122.9900 122.9900 122.9900 122.9800 123.2100 123.1800 106.2800 108.2900 123.3300 123.3100 123.4800 123.4500 123.6100 123.5700 123.7200 123.8600 123.8600 124.0000 106.9000 124.3000 109.0500 109.0500 111.6200 124.6900 124.7900 124.9000 125.0400 125.1900 125.2800 125.4300 125.5300 125.6500 125.7900 125.8900 126.1400 126.2300 126.3500 126.4600 126.5800 126.6800 126.9000 127.0100 127.1200 127.2100 127.3200 115.9400 117.0500 117.1300 116.0000 128.0200 128.1100
123.7100 123.5290 123.4900 123.3092 123.2949 123.2129 123.1526 123.0959 123.0414 123.0008 122.9727 122.9416 122.9246 122.9105 122.9037 122.9627 122.9355 122.8828 124.1228 108.1879 105.7060 121.2021 124.0313 123.2144 124.0078 123.4195 123.3156 123.6056 104.3981 102.4179 122.2019 116.3438 106.4064 117.2000 111.0534 106.8413 115.1953 117.2976 125.4050 124.5587 121.0406 121.4671 123.5690 125.6633 125.6781 125.7413 126.1046 121.1289 126.1846 126.1590 126.4581 126.2402 126.2552 108.5724 126.1733 126.8709 129.7744 117.2516 116.2434 115.6594 114.5784 115.3660 127.3113 128.1100
123.4800 123.3304 122.9747 123.5808 123.0545 122.9535 122.8975 122.8340 122.7821 122.7344 122.7015 122.6689 122.6510 122.6432 122.6445 122.6363 122.6487 122.7095 121.6421 111.1585 115.3800 124.3620 115.1760 124.1621 117.4334 123.4253 122.5962 128.5606 110.6454 113.9102 121.9529 101.8795 102.9199 111.0792 107.9562 109.3085 107.5709 113.5393 125.6478 124.7974 123.9288 125.2134 124.7176 124.8252 125.4277 125.6047 125.9569 122.5973 125.9105 126.1514 126.3174 126.3037 127.9708 131.1492 128.0023 125.7083 123.3481 106.0750 113.5240 116.5166 114.0241 123.3344 128.6005 127.9500
123.0000 124.8681 123.8851 119.7209 124.0446 122.5878 122.6120 122.5663 122.5076 122.4630 122.4203 122.3955 122.3751 122.3574 122.3630 122.3657 122.3675 122.2943 124.3034 104.8602 120.4656 118.0366 114.6180 111.8579 123.4306 124.0660 123.6299 116.4391 136.7128 113.6652 104.5078 103.4832 106.8321 108.1532 115.5760 116.8547 107.9539 110.6789 125.3715 124.5984 118.0104 124.6854 125.3326 129.4751 126.9034 125.1651 126.8698 126.7849 125.8481 126.0179 126.0391 126.4298 126.4002 127.6215 127.1648 106.4996 113.7186 115.3968 118.7087 111.0808 124.5102 128.1230 127.6836 127.8200
123.0000 122.8698 122.5010 113.8616 122.0047 122.3134 122.4679 122.2655 122.2253 122.1777 122.1365 122.1087 122.0846 122.0665 122.0712 122.0688 122.0834 122.0918 122.3199 123.5090 123.2822 113.0455 105.4277 119.4722 123.0004 122.2476 122.0140 117.0334 124.3509 119.6477 127.3544 110.6051 108.7213 125.9429 125.4091 112.2172 99.3734 123.6468 124.2333 125.3770 124.5602 124.7672 123.8098 113.1807 125.4975 124.9164 125.3395 105.9210 127.6814 125.7392 125.9506 127.1825 127.2264 118.3240 109.7239 106.0955 118.7784 113.2502 110.8763 105.0181 121.4709 127.8099 129.0775 127.7900
122.7400 122.5593 122.0988 125.9889 124.4618 124.3082 122.0930 121.9900 121.9378 121.8915 121.8424 121.8103 121.7835 121.7690 121.7660 121.7776 121.7922 121.8152 121.5315 122.4671 122.6850 117.3537 119.9831 122.6259 122.6317 122.3873 122.5909 123.0480 122.5265 123.9324 117.7130 118.8056 111.8918 116.7407 98.6038 109.2856 126.0837 123.7621 124.7632 115.3409 112.9278 125.7831 124.5812 124.3739 124.8551 125.0601 125.4676 124.4140 125.8191 125.7079 126.7365 116.3545 115.9054 110.2238 110.9415 111.3440 107.3722 105.7261 103.9043 112.8597 126.5462 127.9213 117.0290 105.6500
122.4700 122.2929 122.0801 123.0965 121.8485 121.6649 121.7901 121.6952 121.6477 121.5832 121.5367 121.4990 121.4684 121.4602 121.4514 121.4622 121.4780 121.5310 121.6112 121.5702 122.2206 110.4202 118.0797 122.1749 119.1081 122.0516 122.1947 122.1989 122.3533 122.0836 102.0498 101.0246 104.2917 101.5763 101.1792 112.5134 124.8948 123.4889 124.0915 126.4063 123.5581 124.9968 123.4616 124.8641 124.7134 125.1754 125.1035 125.4347 125.3548 125.7019 127.2828 104.8086 103.3944 107.9369 121.4157 104.7045 104.0177 105.1784 103.6195 128.8293 127.0258 127.2770 123.7901 126.4800
122.1600 122.0320 121.9060 121.7297 121.6744 121.6370 121.5047 121.3963 121.3270 121.2775 121.2166 121.1824 121.1528 121.1393 121.1322 121.1465 121.1617 121.1920 121.2168 121.2980 122.1213 123.5398 123.4255 121.8918 121.0975 122.6500 121.9475 121.9997 123.8713 114.9594 122.7244 122.3875 101.1423 101.7763 118.9827 124.1516 123.3134 123.5259 123.7126 123.9707 121.7609 115.8101 116.8392 125.6576 119.5963 125.0479 124.9361 125.3031 125.1060 125.6412 107.6486 102.8827 110.1350 106.1462 107.2499 120.2766 105.1955 118.5426 128.2435 127.3621 127.2185 127.2237 128.2938 105.5900
121.9000 121.8036 121.6413 121.4971 121.3939 121.2529 121.1701 121.0972 121.0329 120.8947 120.9050 120.8446 120.8174 120.8010 120.7938 120.8078 120.8236 120.8613 120.9147 120.9834 120.8549 118.6672 121.9989 121.3255 121.4433 121.5023 121.7732 121.7508 118.1463 97.4695 118.3096 108.7286 120.2592 122.2835 108.0745 123.6344 123.1465 122.8346 124.9868 120.4552 116.7017 108.8607 123.4601 124.2653 124.7120 125.0650 124.8829 125.0696 125.4802 122.0936 111.6255 116.2973 110.7375 110.0098 109.4200 104.2426 114.7123 116.7763 126.4863 126.7189 127.0745 127.1528 119.6708 108.9500
121.6100 121.0697 121.3788 121.2240 121.0835 120.9915 120.8557 120.8043 120.6550 121.0543 120.4678 120.5198 120.4677 120.4518 120.4534 120.4230 120.4948 120.5347 120.5678 120.6312 120.8997 120.9615 120.8659 121.0494 122.1641 121.2445 121.3393 121.5405 118.9493 119.2684 121.2817 122.7477 113.1626 125.8651 124.2896 122.6246 123.1371 123.0404 124.9906 97.8489 119.4983 117.2276 125.0899 124.1608 124.3659 124.5651 124.7724 124.9378 125.1390 124.3712 120.9276 117.2666 129.6590 130.2736 104.0476 105.0293 112.7890 128.2761 126.7020 126.9253 127.0188 127.1777 127.4463 105.5200
105.3200 121.7968 120.8566 120.9109 120.7864 120.5470 120.3834 119.9116 120.3818 116.7521 120.3749 119.9358 120.1228 120.0993 120.0800 120.6027 120.1817 120.1843 120.2147 120.3102 120.5093 120.3511 120.5708 121.9038 112.5822 121.7368 121.0900 122.5463 110.8370 121.9415 121.8987 122.4599 116.3995 108.2865 122.2454 122.5594 122.8610 121.3480 99.8766 104.9354 111.1816 119.8575 124.3920 124.1590 124.2861 124.4789 124.6317 124.8273 125.1993 120.4113 119.1269 112.4916 125.5685 107.5976 108.8343 118.4897 112.3744 124.9747 126.5067 126.7922 126.9714 126.8623 128.2655 127.4000
120.9800 121.5931 120.6522 120.6165 120.4479 120.3588 120.1351 120.2761 120.0187 111.6845 119.4973 119.3427 119.7756 119.5200 119.9941 115.0936 119.9500 119.8238 119.8461 119.9248 120.0480 120.1836 118.4682 119.9774 112.9586 121.6756 120.7732 121.0130 122.2810 121.1673 121.4410 121.0673 123.3979 127.5263 122.2039 122.4928 123.0912 117.3910 117.4624 112.8494 124.6216 124.2843 123.2639 123.9753 124.1395 124.3293 124.5110 124.6986 124.7764 125.7225 127.0480 109.7048 128.1621 115.3248 113.9938 112.2374 104.8992 125.4608 126.4251 126.7085 126.9563 126.9765 126.3334 128.8700
120.6200 120.2682 120.3509 120.2096 120.1301 120.0187 118.8456 108.6982 119.8335 117.5188 118.1783 119.2335 119.3367 119.2487 119.7459 109.8435 119.9519 119.4534 119.4425 119.5548 119.6859 119.6998 115.6304 118.4156 120.8935 120.3196 120.5105 120.6173 120.8678 120.5712 121.8906 121.6212 107.9881 121.2681 121.1710 122.2004 122.6437 119.8605 124.6960 119.1323 123.3433 123.5487 123.6573 123.8104 124.0061 124.1883 124.3808 124.5811 124.7243 124.3126 125.2617 121.9057 127.6885 112.3886 113.8673 117.6994 110.8470 127.1503 126.3708 126.6377 126.7791 126.6582 128.7334 115.0900
105.9600 112.6753 122.7393 119.9262 119.7832 119.4979 120.3189 108.2079 112.5510 118.9947 126.6724 118.0896 119.0045 118.9047 119.9128 119.9116 118.9453 118.9586 119.1158 119.1777 119.2845 119.2183 119.7200 119.6933 119.3653 119.9623 120.3509 120.3884 120.5914 120.7773 120.5647 109.4066 122.8282 121.3568 121.8794 122.0616 122.1178 126.2372 111.2921 107.9163 123.9833 122.9633 123.4946 123.6692 123.8648 124.0604 124.2479 124.4394 124.2738 126.8491 127.2768 111.7161 112.1424 124.4225 112.9020 122.0473 123.0380 125.6432 126.3811 126.5531 126.7428 125.9587 125.7648 115.0900
105.9600 109.1734 120.0349 119.5790 119.4233 119.3732 119.3814 117.6249 124.4877 125.7486 118.8360 118.2054 118.5191 118.4657 118.2213 118.3368 118.4520 119.1755 118.5251 118.7317 118.8583 119.0326 119.2143 121.1567 115.3616 121.1704 119.2443 119.9957 120.4055 120.2758 119.8068 113.9084 120.2601 121.2871 121.6102 121.8105 121.8319 121.3746 121.6593 115.9214 124.1330 123.0519 123.3148 123.5261 123.7265 123.9302 124.1301 124.2577 125.8759 115.9276 112.6254 121.1603 113.0746 123.9797 123.5897 110.2687 126.3938 126.0475 126.3512 126.4614 126.1934 132.3987 129.5205 112.9100
120.0600 120.1548 119.7206 119.1921 119.0539 118.8628 118.7344 117.9483 118.5762 117.4424 118.2409 118.2764 118.0603 118.0192 118.0620 118.0883 117.9053 122.1140 117.7032 118.4952 118.5681 118.7129 118.9371 111.0732 100.2458 114.3191 119.7215 120.8100 119.4305 120.5399 120.0411 120.6461 120.7570 121.1169 121.3702 121.6037 121.9555 122.0794 126.7820 122.5136 122.6118 122.9683 123.1611 123.3867 123.5956 123.7892 123.9605 125.0430 112.7458 106.9287 122.8132 121.6076 123.2279 120.7929 112.5597 113.6713 122.1754 126.1767 126.2497 126.3686 126.5164 128.8917 127.8495 126.3900
119.5100 119.1156 119.1745 118.8945 118.6767 118.4928 118.3208 117.8388 124.7424 117.9094 117.7481 117.6777 117.5547 117.5332 117.5214 117.5625 117.2741 117.3014 117.7773 117.5976 114.2793 118.4398 118.3088 119.0439 107.4542 100.5336 113.6967 119.3419 120.3097 119.7584 120.0651 120.4099 120.6608 120.8859 121.1463 121.4290 121.5483 122.0480 121.6777 122.3273 122.6057 122.8125 123.0352 123.2440 123.4656 123.6704 123.9220 124.1008 123.0387 122.9104 124.7078 111.1612 127.7960 109.8012 128.3292 117.2595 127.6665 125.5069 126.1721 126.3313 126.5121 126.6145 126.8620 126.8800
119.1200 119.0478 118.7617 118.5273 118.2971 118.0708 117.9271 117.5515 117.1886 116.8979 117.2367 117.1259 117.0627 117.0235 117.0172 117.0506 117.1559 117.2384 117.2638 117.6631 117.2388 121.3917 118.3830 113.2978 98.0552 104.4965 99.0485 99.2094 118.9310 119.6484 119.7599 120.2042 120.4083 120.6647 120.9462 121.1979 121.5516 121.3641 121.6203 122.1848 121.3859 123.0016 122.8728 123.1032 123.3373 123.5569 123.7732 123.9676 124.1786 123.9949 126.7106 108.1575 109.0646 123.4819 125.8160 117.0395 124.7008 125.6621 126.1226 126.2647 126.4326 126.5933 126.7510 126.8500
118.6800 118.6714 118.4136 118.1521 117.8999 117.6586 117.4230 117.2103 117.0221 116.9423 116.7103 116.6100 116.5270 116.4799 116.4697 116.4950 116.5454 116.6444 116.7777 116.8553 117.0091 116.9936 110.3078 109.8156 107.1574 117.5042 99.1403 103.6241 110.6032 110.0391 120.6111 119.7002 120.1891 120.3982 120.4918 120.9808 120.7272 113.9621 122.8182 122.4727 113.1589 123.3206 122.5513 122.9761 123.1769 123.5763 123.7620 123.9105 124.0012 124.7578 124.8708 125.4294 123.9267 124.1150 125.3145 125.7705 125.9357 125.8456 126.0231 126.1967 126.3725 126.5411 126.7147 126.8300
118.6400 118.4582 118.0987 117.7497 117.4901 117.2219 116.9675 116.7364 116.5181 116.3228 116.1800 116.0440 115.9573 115.9026 115.8989 115.9207 115.9939 116.1003 116.2379 116.4064 116.6097 116.9554 116.4887 114.4589 112.7916 107.8258 101.9793 100.4649 106.9653 105.5062 119.3404 119.6131 119.9612 120.1859 121.5331 123.1457 106.1193 121.2703 111.4972 115.0596 122.6338 122.3477 122.6134 123.0571 123.2300 121.6377 123.5937 123.7875 124.5654 125.6799 124.3639 125.4097 114.7675 114.6113 125.7283 125.0913 125.2818 125.7058 125.9690 126.1485 126.3327 126.5109 126.6427 126.8100
118.2100 119.3707 117.9694 117.3730 117.0350 116.7715 116.4900 116.2285 115.9845 115.7744 115.5907 115.4479 115.3416 115.2855 115.2695 115.3083 115.3846 115.4981 115.6474 115.9635 116.0533 116.3159 116.7514 116.7029 119.0461 97.0177 103.1708 100.7889 103.4549 108.6955 119.9229 119.2252 119.7099 117.4990 113.8449 113.1031 98.6432 109.0835 110.3887 113.0152 122.3901 121.7722 122.4897 121.2512 123.8478 116.5629 124.0100 123.7410 123.9336 123.8610 124.5029 124.5217 125.9766 126.4108 126.2699 126.3070 126.4177 126.0369 125.8476 125.9812 126.1189 126.2752 126.6143 126.6700
117.6900 106.4432 117.5203 117.1665 116.6268 116.3055 115.9989 115.6954 115.4206 115.1781 115.0097 114.8107 114.6915 114.6213 114.6035 114.6374 114.7375 114.9248 115.1920 114.4862 115.5896 115.8615 118.3830 116.2673 107.0097 99.8225 97.5047 108.6775 96.6052 115.6783 119.0918 119.0094 120.6123 115.9385 100.8487 103.7190 139.5590 111.5801 112.1927 105.9998 112.8654 123.0763 122.6146 119.1928 123.3818 124.3582 123.4710 123.5940 123.8224 123.8517 123.6894 123.9591 124.3751 124.7785 119.8904 119.2307 121.4324 125.9162 125.6330 126.4749 127.0500 127.0746 127.5165 126.0600
117.6900 118.2805 116.2633 116.6033 116.1606 115.8174 115.4703 115.1485 114.8386 114.5762 114.1369 114.1357 113.9825 113.9018 113.8771 114.0050 114.0064 113.8910 114.3964 113.9543 115.0211 116.0444 108.6187 97.1855 96.7592 102.0363 100.3197 112.4841 123.6232 118.6286 118.4877 120.0443 117.1591 106.2952 105.9481 107.4001 116.0931 104.0681 101.2363 103.9779 118.2818 114.8209 122.5591 122.7922 121.1162 118.1178 123.5814 123.4697 123.6771 124.8225 126.5584 118.8584 120.0348 112.5070 110.9840 119.5689 115.2180 126.9725 125.3161 123.1331 121.4709 121.7948 127.0657 126.6100
117.1300 116.9009 115.1891 116.0662 115.6903 115.5125 114.9352 114.5599 114.2065 113.4867 115.2538 113.5492 113.1953 113.1065 113.1426 112.6051 113.2795 115.1531 114.1440 114.1118 114.3030 113.8878 94.4078 101.8821 110.2225 106.1600 100.0451 101.1413 118.5857 118.5924 118.3696 112.3790 113.5741 109.7311 101.8370 114.8594 98.7201 113.3027 111.3314 122.9081 124.8854 118.6417 122.1275 122.2113 120.1584 119.4546 123.3087 123.2859 124.2377 111.4279 113.7832 118.1397 105.1931 110.2495 111.7466 121.9235 120.3755 115.0892 118.7405 116.3576 121.7273 121.6887 121.0480 126.6000
117.1300 116.6335 116.0992 116.4037 112.3576 114.8686 114.3526 113.9683 113.6742 112.8378 118.3098 112.0097 112.4137 112.3865 111.7667 116.4450 105.7314 102.6463 114.6069 113.2469 113.5013 113.2756 110.5183 111.1356 113.2306 103.6917 110.7316 111.9249 112.3195 112.9342 118.2365 117.0859 117.8389 122.5247 106.0926 108.4108 94.2761 121.1330 124.2841 110.0171 117.1258 122.5250 120.9346 123.0303 122.8001 123.2530 123.0427 123.2773 123.3106 125.3298 111.5166 111.2318 110.5380 112.4548 110.8084 109.2827 128.1150 123.0718 123.1660 123.0345 126.9141 125.0117 123.8678 126.5800
116.5400 116.2617 115.9109 113.2061 111.9474 114.6172 113.7757 113.4074 112.1326 112.5402 114.5160 111.5569 111.4845 111.3454 111.2573 114.8108 113.1198 110.8342 113.2781 112.6135 112.8673 114.6039 113.4481 114.7016 115.5579 116.4023 118.3937 122.8208 117.3764 116.7694 117.1344 117.9214 118.8054 110.1470 100.6548 114.3022 112.3777 119.7945 110.8283 107.7052 112.9661 122.9474 112.9905 116.2656 122.6542 122.7403 123.0457 122.9522 119.4072 130.6026 103.7920 108.2472 111.0954 115.1350 121.4695 123.5529 137.1634 129.4762 124.6965 126.0656 126.0607 126.6128 130.2482 126.4400
116.0500 115.9335 115.3869 114.6814 114.3261 113.7373 113.2918 112.5305 115.9550 116.8510 111.0587 110.6649 110.4154 110.2276 109.9549 110.2220 106.7122 110.6208 111.3000 111.8208 112.2120 113.3263 109.6535 114.0807 114.4978 115.2237 115.5715 116.6016 116.6370 117.2829 120.1463 123.5234 117.9535 118.1387 124.5308 99.8858 118.4083 118.3314 107.3035 116.3249 120.6951 121.6458 120.6171 121.8771 122.4196 122.6056 122.3023 126.1960 105.7746 111.4558 113.8274 103.4889 114.4646 112.9015 125.2469 117.7975 124.6729 121.1295 126.0650 125.5311 126.0031 123.1702 123.8032 126.4300
115.9300 115.6122 115.0576 114.5093 113.9205 113.2722 112.6401 112.0031 111.1447 111.0142 110.0550 109.6593 109.2366 108.9969 108.9878 109.5397 109.7602 109.9892 110.2872 110.9838 111.6224 112.2452 113.0828 113.7847 114.0908 114.7266 115.2886 115.7656 116.3462 116.8860 117.1907 117.5882 119.7896 101.7395 105.1952 100.9606 99.4775 122.0342 120.4189 120.9736 121.1603 121.4635 121.8065 122.0316 122.4083 122.5636 117.8065 117.4516 110.6673 102.2339 146.4374 109.0933 123.9706 118.5107 116.7099 116.3830 117.1227 117.6263 126.3708 125.6735 126.5586 122.8702 126.8452 126.4200
115.8300 115.3199 114.7329 114.1151 113.4526 112.7791 112.0574 111.3223 110.5717 109.8647 109.0907 108.4286 107.8983 107.5729 107.4932 107.6262 107.9064 109.1212 108.3841 110.1661 110.8850 111.4460 112.2889 112.8206 113.6003 114.3877 115.0855 115.5218 116.0982 116.6341 117.1399 117.6511 118.2400 119.1698 119.9458 121.4914 114.0748 105.1170 121.4232 120.7891 121.0658 121.3616 121.7220 122.1641 121.9067 108.8272 123.0959 106.2705 113.2947 112.3958 112.6369 113.3529 118.7701 116.9668 116.3095 117.0021 120.2053 126.3360 123.3054 102.1333 120.2639 124.8941 125.4784 122.4900
115.3200 115.0529 114.4254 113.7513 113.0433 112.2930 111.4902 110.6418 109.7563 108.8304 107.9244 107.0691 106.3468 105.8746 105.7642 106.0513 106.5363 105.8126 108.5987 109.4033 110.1758 111.1251 108.3557 107.8664 113.4791 113.9132 117.1386 115.3446 116.0497 116.3764 116.8814 117.4467 118.1742 117.6311 117.8361 99.2164 129.7242 119.9432 120.3610 120.5909 120.9782 122.0676 121.3276 121.2250 107.3499 110.7546 127.3579 116.3906 113.5392 114.9452 118.0950 110.6153 121.1752 118.2610 123.0268 116.4239 115.5315 115.4701 116.6244 120.1822 119.9578 120.4931 120.5185 126.4000
115.2100 114.8171 114.1525 113.4431 112.6758 111.8530 110.9577 110.0042 108.9664 107.8504 106.6901 105.5406 104.5006 103.7809 103.5963 104.0224 104.8673 106.5047 107.0099 108.2838 109.4283 110.1291 112.0162 109.3994 113.1758 113.7646 114.3287 114.6179 115.7278 116.2188 117.0074 117.4993 115.7763 114.6805 96.9547 112.9398 115.0950 120.5393 121.1668 121.1323 122.7337 121.9256 120.3941 110.2715 126.7222 101.1021 106.4488 110.1687 118.6498 112.8782 114.0661 112.3078 112.9589 121.6758 122.8198 119.8183 119.7869 120.1804 121.7862 126.5517 126.6950 126.9997 119.0791 126.3900
115.1500 114.6224 113.9252 113.1757 112.3606 111.4702 110.4896 109.4104 108.2163 106.8792 105.4140 103.8256 102.2480 101.0527 100.7269 101.4616 102.8927 104.4361 106.0021 107.4428 108.7086 109.8698 111.0563 112.1625 112.6773 113.5442 114.3919 112.1622 116.1673 115.9622 115.8112 117.9637 107.3481 99.8473 97.1199 102.8671 110.2902 115.2332 114.6699 117.8281 120.5555 121.4260 118.9408 126.7461 113.2583 110.4336 111.8853 116.1033 109.8469 107.9928 103.4683 102.1574 111.1339 105.8783 125.6175 123.4515 123.4681 124.8612 124.6703 124.2897 124.8444 115.8476 125.7441 126.3800
115.0900 114.4686 113.7467 112.9591 112.1044 111.1611 110.1092 108.9193 107.5694 106.0037 104.1729 102.0126 99.5941 97.1260 96.1846 98.0750 100.5734 102.9335 104.9651 106.6725 108.1371 109.4382 110.5425 111.5112 112.4734 113.2912 113.9694 114.8872 115.3079 116.1358 113.8638 122.1469 105.1157 102.1586 103.5247 104.8138 111.6769 105.5565 112.6449 115.3577 120.7230 121.3850 112.8231 115.3281 116.8563 114.9653 116.3680 115.1102 103.1897 100.4460 111.3175 100.6589 103.3465 113.9975 121.4024 121.7141 120.6948 121.0103 121.6413 125.0795 122.1986 119.5912 122.1664 123.4300
115.0200 114.3650 113.6296 112.8170 111.9288 110.9462 109.8357 108.5646 107.0850 105.3183 103.1519 100.2941 96.3925 90.9855 89.3708 92.9234 98.2745 101.5720 104.0943 106.0842 107.7245 109.1050 110.3117 111.3688 112.3199 113.2306 114.0010 114.7545 115.2885 116.1717 107.0850 108.3276 102.4781 100.4623 104.0302 109.7330 107.7134 104.3969 120.0135 112.3161 121.0340 109.8887 111.4948 108.6006 121.3754 107.1899 102.7135 114.6926 106.7098 100.4886 96.9951 112.8679 101.0594 111.9504 121.6827 116.7885 120.6251 121.4904 121.8875 123.7408 122.2878 116.6859 125.1993 123.4200
115.0200 114.3183 113.5689 112.7509 111.8486 110.8350 109.6987 108.3815 106.8380 104.9518 102.5590 99.2229 93.5516 86.2738 84.6724 88.6263 96.5031 100.7379 103.6218 105.7744 107.4973 108.9377 110.1738 111.2566 112.1518 112.8338 113.4815 114.0995 114.9117 115.0376 112.8086 96.9907 106.4080 100.6261 111.6109 100.7899 114.7723 114.5963 118.5426 116.1167 120.6879 116.5105 110.4410 118.2676 121.2679 116.5503 114.2535 105.8622 108.7986 108.8403 118.7135 117.7118 115.1408 117.4740 117.3770 123.8056 123.4846 124.4122 124.3217 123.2643 124.7055 123.4228 125.4786 126.3600
115.0000 114.3190 113.5712 112.7524 111.8510 110.8452 109.7048 108.3981 106.8562 104.9846 102.6017 99.3085 93.8802 86.8423 85.1553 89.0155 96.6879 100.8073 103.6577 105.7993 107.5440 108.9919 110.2082 111.3178 112.3040 113.8185 115.5602 116.2226 115.8595 115.7471 116.2822 114.1052 115.8118 116.7116 113.7783 103.1996 118.5544 105.0961 121.3045 120.9127 120.7641 126.8740 111.3894 125.4878 123.9549 125.8692 129.2520 104.2750 107.0227 111.9743 117.8076 114.0288 112.3533 121.6146 121.4357 127.3242 124.8537 126.1501 121.3511 119.8723 126.1642 126.0163 126.4183 126.3600
115.0200 114.3744 113.6415 112.8336 111.9508 110.9745 109.8666 108.6074 107.1440 105.4068 103.2683 100.5194 96.4645 91.7186 90.3715 93.7145 98.6060 101.7489 104.1967 106.1592 107.7281 109.0323 110.2411 111.3619 112.0318 108.6851 100.7554 98.9788 104.1988 116.6010 115.9796 117.4040 118.0727 117.9663 118.3105 117.1964 119.1838 117.7287 119.9171 120.3468 120.7722 122.2170 106.9702 107.2968 109.5279 111.3239 117.5973 109.7214 113.3909 112.9370 114.1659 121.7707 118.2558 120.8860 124.1616 117.7874 125.3254 125.0669 124.4572 125.6523 125.6332 126.2802 126.0925 126.3600
115.0600 114.4845 113.7714 112.9938 112.1359 111.2014 110.1570 108.9828 107.6577 106.1247 104.3569 102.2833 99.9825 97.8202 97.0139 98.6841 100.9181 103.1666 105.0987 106.7641 108.3158 109.8030 110.8664 111.4667 112.6301 118.7760 94.7695 107.6105 112.4452 115.6418 116.6372 117.0956 117.5306 118.1870 118.9136 119.6658 120.1309 119.7660 120.1761 120.4270 120.8243 121.3939 118.8568 128.0270 113.2771 115.6951 110.0050 115.8533 115.3368 112.0884 114.4206 120.9363 125.3372 123.0001 125.9280 117.5640 126.4019 125.4886 125.7265 125.9874 126.3549 115.5401 126.3724 126.3600
115.1100 114.6486 113.9607 113.2154 112.4039 111.5261 110.5596 109.4964 108.3248 107.0202 105.6013 104.0929 102.6011 101.4566 101.1618 101.8546 103.1971 104.7148 106.2297 107.3571 109.3268 101.7024 106.6814 111.9478 104.2387 110.0143 115.0858 117.7417 115.6128 115.8955 116.6879 117.3037 117.4219 116.8576 94.5514 112.2281 106.5606 119.6770 119.8413 118.1926 121.0838 121.0115 121.0617 113.9332 101.9268 107.3780 110.0693 107.4838 116.0080 110.9147 116.3034 112.1878 123.8429 119.4849 115.4603 115.0626 115.3963 115.6637 117.3309 122.7169 118.9994 123.1279 120.6849 120.0100
115.1700 114.8484 114.1954 113.4906 112.7354 111.9199 111.0379 110.0898 109.0775 107.9998 106.8669 105.7863 104.7786 104.0981 103.9259 104.3233 105.1617 106.2123 107.3554 108.4676 107.0229 106.7992 111.9193 104.3070 105.1168 111.4857 114.5809 115.0501 115.5628 116.1649 116.9313 118.2027 117.9368 116.5117 129.5898 109.2696 121.8091 106.1181 115.5976 104.9151 122.1197 121.0865 123.3313 109.6113 110.8640 108.0461 101.3205 103.7622 104.3416 107.9388 110.5172 105.7013 105.0181 104.2133 127.6561 119.3872 124.5765 116.4973 118.4969 118.5193 122.4436 121.4271 122.4591 120.5500
115.2500 115.0905 114.4721 113.8116 113.1107 112.3668 111.5780 110.7500 109.8817 108.9871 108.0975 107.2701 106.5770 106.1281 106.0138 106.2707 106.8383 107.5968 108.4606 109.3409 110.6553 107.3207 112.6106 98.5485 114.5387 89.0809 106.6237 112.1043 117.0574 117.1757 115.9731 114.6886 116.1049 97.3422 97.6322 96.3054 117.0501 119.3455 117.1699 112.6386 123.4197 122.1917 120.1638 105.0584 100.8163 102.8577 101.1522 115.6096 123.3989 111.0750 118.9237 116.3723 120.9851 118.9243 118.3694 125.1037 117.8878 108.0650 128.3242 112.8784 113.0905 125.3544 118.2905 126.3800
115.7600 115.3641 114.7774 114.1686 113.5216 112.8512 112.1526 111.4208 110.6791 109.9475 109.2478 108.6023 108.0998 107.7804 107.7050 107.8846 108.2818 108.8676 109.5062 110.1758 111.8331 109.3037 101.7873 115.9783 118.6580 94.9079 90.6076 92.6081 107.0083 112.0720 117.0763 114.2855 113.9266 106.1157 118.1688 100.5297 115.6181 114.1771 104.8099 117.9013 116.9180 115.1046 113.8271 110.9603 102.6218 105.0753 111.2747 105.7332 97.6878 101.4153 99.3611 100.6875 110.3124 120.7326 125.3842 125.3074 127.3699 128.4548 126.1136 127.1364 126.5698 133.1975 111.7615 111.6500
115.8600 115.6595 115.1165 114.5498 113.9635 113.3532 112.7336 112.1000 111.4716 110.8565 110.2868 109.7961 109.4118 109.1744 109.1165 109.2349 109.5639 109.9324 110.9119 111.1529 111.6686 110.4750 101.8709 113.6207 96.2569 99.6800 104.2419 107.3333 96.4774 99.6229 110.2160 111.1354 111.8928 103.5004 98.1173 98.9356 100.2433 106.2967 104.5720 109.5470 109.4866 102.4732 97.8616 106.5197 108.1745 110.4578 117.2987 118.9101 106.1686 109.4577 110.1389 108.8947 104.9534 116.0841 125.2645 126.3782 115.5197 125.3116 125.5599 125.3976 132.5461 123.4854 123.3601 111.1700
116.4500 115.9809 115.4715 114.9514 114.4218 113.8709 113.3208 112.7683 112.2342 111.7212 111.2501 110.8557 110.5592 110.3750 110.3362 110.4692 110.6646 110.9868 108.6125 111.6734 112.3863 114.2630 114.0999 114.9801 101.9933 121.3247 115.9754 107.1293 97.7654 99.3889 100.3381 98.8840 114.0036 123.2342 113.8131 108.5955 102.2177 104.5120 106.2719 109.8912 113.2948 97.3305 99.9449 99.3063 98.0459 111.4732 113.3760 112.0390 116.6377 113.8436 111.7448 116.9843 114.1108 121.6440 119.6172 118.0417 111.0603 127.5409 123.6727 127.8567 115.8872 124.7725 119.1095 126.5300
116.4800 116.3067 115.8402 115.3655 114.8753 114.3883 113.9019 113.4163 112.9578 112.5224 112.1416 111.8151 111.5727 111.4397 111.3922 111.4468 111.4367 113.8817 107.5569 112.4955 113.9635 113.4373 112.5816 109.2812 111.1494 101.0297 102.0642 98.8716 101.1940 102.4362 103.6644 102.7743 104.0095 104.3685 109.3160 116.3301 100.5696 105.7237 105.4962 106.7296 114.0524 105.7458 102.3491 98.7279 112.7677 115.2452 113.5979 112.8072 108.6528 107.8744 114.4192 104.5836 109.4238 108.3549 113.7119 115.2059 117.9765 121.9539 119.4882 123.4716 114.0364 106.6740 121.8247 104.5500
117.0400 116.6493 116.2171 115.7837 115.3407 114.8988 114.4639 114.0432 113.6528 113.2771 112.9559 112.7046 112.4934 112.3487 112.3369 112.4628 111.2103 99.5217 102.5323 99.7339 113.5793 114.1898 113.1714 110.1210 112.8772 110.6054 106.0469 101.2786 99.0997 104.1817 100.9531 104.4169 100.7646 100.7040 108.9812 110.7366 98.3113 101.6546 105.2736 112.5239 110.4773 110.0532 109.4278 107.3555 116.2203 113.6657 112.8476 112.2082 111.1355 113.8353 104.8447 102.8061 101.0631 117.5920 112.7816 118.5312 107.7997 110.3228 121.2465 111.4097 123.6879 115.9889 121.9043 122.2600
117.0700 116.9928 116.5976 116.2015 115.8008 115.4070 115.0182 114.6491 114.2927 114.0053 113.7144 113.3466 113.3141 113.3213 113.1999 112.9916 115.9507 103.1745 100.1138 99.6982 115.8794 114.5545 115.2457 116.0365 116.3880 116.3643 116.4286 115.2215 108.6952 103.6603 105.4809 106.7164 98.1187 100.9934 114.3982 107.1972 97.6761 100.9725 102.7305 107.4184 106.2798 111.5349 110.5662 110.3824 111.4634 112.0556 115.0044 114.6184 115.0236 115.7740 99.1159 101.2073 101.4990 104.3536 111.3121 111.0459 111.2787 119.5477 121.0570 116.0942 116.2687 120.4078 120.7771 121.2100
117.6100 117.3446 116.9771 116.6137 116.2521 115.8932 115.5498 115.2230 114.9222 114.7005 114.0801 115.0063 114.1021 113.6672 113.8625 113.9610 114.0280 104.0097 105.9228 94.1520 116.9424 114.8630 115.7646 116.0702 116.8549 110.7841 112.1599 117.8939 117.4783 115.3660 102.0785 103.5497 110.0944 97.8296 101.4531 103.4142 102.9602 106.7024 102.1704 103.1571 105.1275 106.4674 108.5364 102.4651 112.0377 109.9546 114.5059 113.2181 114.6087 115.8271 115.6563 114.9336 114.8077 116.8750 103.2440 111.4632 102.9418 111.9793 110.2878 105.9747 114.4006 122.1370 122.4499 122.0900
118.0200 117.6961 117.3607 117.0230 116.6947 116.3604 116.0438 115.7613 115.5150 114.9446 103.8609 115.1830 114.2954 120.2216 114.6740 114.5546 116.6521 102.6362 91.8036 94.2615 117.6737 116.4021 116.2344 116.4965 116.7875 117.3687 118.2729 118.4229 117.7390 111.9900 113.1307 102.3012 99.6603 108.1108 112.1749 106.9801 108.4093 113.2426 113.9724 113.6602 117.0666 118.4217 109.6282 115.0180 113.4909 110.8289 112.9054 113.3106 114.7256 111.8571 117.1034 102.7449 117.9084 116.3432 116.0119 122.4338 123.9458 124.8027 113.0516 113.5358 106.4601 106.5933 121.1356 126.7200
118.1500 118.0443 117.7343 117.4259 117.1348 116.8310 116.5997 116.3526 116.0371 116.8374 114.7598 115.5714 115.5869 105.8548 115.9241 115.5002 114.8499 116.0108 92.5007 109.9601 101.1711 116.6892 116.5369 117.0198 117.2683 117.4055 117.7029 117.9680 106.5741 112.6903 112.6165 98.9848 101.0019 111.7393 109.8925 110.3969 110.2614 113.1033 117.3956 116.4095 103.1677 119.9236 111.8831 116.1051 103.2176 109.6561 110.7652 123.3013 115.0726 110.9263 115.4815 116.0305 116.7945 117.5917 123.7095 122.9341 123.4589 127.4224 109.8416 113.5261 123.9624 126.0278 123.9079 125.9700
118.5800 118.3934 118.1032 117.8222 117.5175 117.3237 116.6546 116.8517 117.2000 115.7324 116.3612 115.9168 116.8747 116.6066 115.9368 116.0007 115.7964 113.5489 103.0765 119.2961 110.1925 114.0593 118.7365 117.2355 117.3288 119.6169 121.5343 119.2518 120.3433 100.7584 114.0804 107.6983 104.4240 107.0816 111.6685 112.6032 110.4543 115.5142 109.9580 108.7440 117.5189 118.1696 120.4754 106.8388 100.2861 104.4982 120.2795 119.7216 113.6422 106.1677 119.1429 120.5723 122.8273 121.8927 125.2937 122.5382 117.7772 123.3164 124.2365 126.7671 105.0860 109.6614 102.8976 126.1600
119.0600 118.7319 118.4675 118.2118 117.9374 117.7621 119.2702 118.5190 117.0860 109.7685 116.0563 116.4681 116.3915 116.4116 116.5841 116.7427 117.0947 118.0262 100.6667 111.6179 100.5400 101.5720 100.0626 113.7009 119.9607 109.9581 110.8413 107.4837 121.3165 113.4064 104.7020 99.5730 104.0487 98.9449 106.2152 110.1057 113.6561 112.1395 114.1037 113.9823 117.3018 112.3826 108.0964 110.9017 96.6295 112.1564 121.3591 121.7460 122.7886 122.9020 123.4977 124.7338 124.7141 123.1687 125.4616 125.0549 109.1758 113.0637 127.4077 125.9522 129.6654 108.9354 103.2432 104.7800
119.0600 119.0724 118.8258 118.5884 118.3230 118.2085 117.5521 117.7591 117.5617 118.0901 116.9483 117.2396 117.1896 117.1261 117.0881 117.3445 112.5491 117.6425 114.2965 118.6213 111.9669 107.3841 116.9525 103.2046 117.6194 118.9866 118.5504 94.3631 112.7921 108.7101 102.5061 101.7044 98.6782 101.3401 101.8078 104.9295 106.9260 106.6421 112.5808 110.9889 109.9363 104.7745 105.0994 101.2307 117.9475 125.1102 121.4570 122.4380 121.2302 121.5290 120.7234 121.6012 123.1402 124.7898 126.0631 127.0672 126.9370 115.4939 119.6398 126.4082 125.4781 125.8521 115.8931 104.9100
119.7700 119.3973 119.1708 118.9593 118.7418 118.5426 118.4130 118.2096 118.0427 117.8127 117.8063 117.6910 117.6127 117.5661 117.6189 117.6024 116.9134 117.9475 112.7841 104.9145 100.2518 107.1249 106.3328 101.4349 118.4082 111.6289 119.6941 105.5860 102.8184 103.0551 102.3312 107.1048 100.4503 101.5319 102.4518 109.0712 101.4064 101.2431 100.9483 98.1987 99.9903 116.0211 116.8561 100.6964 97.9306 111.4312 121.3753 120.7323 120.8756 121.2053 122.0446 121.5370 122.9849 123.0447 121.7545 120.1607 127.5121 117.0253 116.7231 126.9584 126.4951 127.0526 115.6366 104.9300
119.8200 119.7229 119.5174 119.3046 119.1138 118.9340 118.7774 118.5886 118.4605 118.3551 118.2397 118.1768 118.1741 118.1873 118.0779 118.1037 118.1446 118.1154 119.9545 102.6821 101.3461 102.5747 100.1009 99.2357 96.5608 96.1027 100.9225 118.1741 112.7162 102.7875 99.1499 100.3506 103.9370 99.8384 110.6545 115.9014 104.8129 100.3543 103.0718 111.1447 99.8802 104.3770 106.7349 100.2116 99.3723 105.6671 121.0167 120.7104 120.5843 120.8784 121.3994 121.7461 122.5782 122.9978 123.6485 118.0379 124.3449 126.2955 126.7450 126.3983 126.7143 127.5534 111.5935 110.8900
120.2200 120.0424 119.8541 119.6627 119.4755 119.2623 119.0708 119.0270 118.8853 118.7748 118.6916 118.5496 118.2851 118.1113 118.4647 118.5426 118.5577 118.5963 119.2424 103.6271 108.8684 103.2870 104.4189 109.8829 95.5108 106.1340 106.8612 103.6926 105.4679 103.5865 102.0840 118.8796 104.8098 104.3745 108.7587 107.5765 103.1504 100.1241 101.5303 114.9325 120.4996 101.8633 100.9317 105.1095 116.4489 121.9890 122.5787 120.0731 120.2220 121.2397 121.8532 122.4849 122.9081 123.1578 123.3142 125.0696 124.3212 124.6497 124.5883 125.2105 125.9272 127.3723 129.5533 127.1100
120.2200 120.3509 120.1707 119.9807 119.8315 120.0535 119.9990 119.2566 119.2786 119.2111 119.0111 119.2465 119.9469 120.0197 118.9717 118.9890 118.9517 119.0033 120.3138 101.5397 112.0170 110.0370 104.7420 102.4691 107.9312 115.7008 107.8406 101.6998 104.7859 102.3166 102.4957 115.5208 118.0179 120.9120 109.0088 112.2954 100.3249 107.3414 110.2081 108.9477 113.2322 103.3667 103.6339 116.5220 122.2947 106.7532 122.0510 123.7297 122.1952 120.5610 121.8556 122.3158 122.6996 123.7902 124.1264 124.0057 123.8520 124.6140 125.2970 126.7681 125.9219 127.6918 108.2968 117.0300
120.8500 120.6520 120.4825 120.3456 120.5388 113.2951 119.5614 119.6838 119.6583 119.6483 119.4379 112.2875 108.5386 112.8440 120.2122 119.2350 119.6482 118.9482 121.5261 101.9811 108.6784 116.0648 117.2293 114.7343 111.0504 112.7554 114.4836 101.7368 102.6201 98.4513 102.0402 108.4499 117.8107 113.6311 109.5151 114.1240 109.4663 112.0213 112.7822 111.3960 111.0341 111.6977 102.3700 125.9993 120.8750 118.5241 107.0636 125.3172 122.8570 122.9172 121.6626 122.7611 122.6082 123.2310 123.0348 123.3394 124.9878 125.9733 126.7843 120.7982 115.5632 127.5291 116.8090 105.1600
121.2200 120.9568 120.7947 120.6528 120.9902 119.4404 120.7549 120.0172 120.0349 120.0039 119.8872 112.0216 116.5586 118.7197 120.5664 120.0790 120.4623 115.1691 107.3391 119.7192 105.2105 115.5509 110.6809 103.1947 100.1796 101.6117 103.8559 104.9625 108.4219 117.3445 117.7514 122.8287 122.4485 118.7463 104.8680 109.4157 109.8024 110.6384 105.2212 112.9038 112.0360 102.0258 100.6546 117.7300 122.4502 123.5592 122.2265 123.2999 123.9711 123.5614 123.7002 124.5067 122.1368 122.8409 125.9910 125.4542 123.7878 124.3710 125.0275 125.6012 126.4540 116.8643 104.5781 112.4800
121.2200 121.2392 121.0889 120.9923 120.7493 120.7781 120.5108 120.4749 120.3774 120.3788 120.0033 117.8306 105.0335 107.7473 121.5574 115.3010 120.7568 121.1750 105.2816 120.1537 104.2100 103.0781 109.6018 101.2609 113.0552 101.3214 100.8754 108.5269 111.0834 121.9502 121.0155 122.1568 122.3177 106.5431 126.2780 107.8773 112.0693 109.9072 107.0652 112.0771 114.8329 104.5383 101.8775 101.3643 110.0779 122.9023 123.0948 122.5666 123.6215 124.8037 124.8729 124.5275 124.7808 123.5460 123.2202 124.3597 118.6258 123.8005 126.7277 125.5770 127.6499 111.9527 107.0757 113.0700
121.5400 121.5239 121.3885 121.2490 121.1498 120.9977 120.9184 120.8079 120.7268 120.7287 120.4509 116.9756 122.0450 102.3180 122.5966 117.4207 121.3870 120.6351 107.9721 120.6522 106.4779 100.6937 98.8810 99.3529 115.4392 118.0289 98.1259 104.3360 109.9872 118.3658 122.6107 121.7891 122.9833 114.0461 115.8088 119.8734 118.0325 107.7955 107.5249 114.2450 112.6819 115.1538 105.7690 103.7383 103.1453 119.6853 122.9233 123.5792 123.4092 124.4801 124.5847 125.4006 124.4922 125.7707 123.8656 124.1293 126.3802 106.1605 123.4504 126.8296 127.5647 123.5612 114.3933 116.4400
121.8300 121.8006 121.6709 121.5472 121.4265 121.3246 121.2251 121.1338 121.0563 121.0703 120.8271 115.4621 119.7367 110.8061 119.3447 100.5924 108.4142 121.4722 108.0981 120.6813 115.4489 108.6335 100.2918 99.9316 113.2244 104.8700 100.9316 103.5374 106.9739 122.3431 122.1721 122.2480 125.5818 116.6136 108.4995 109.5536 128.3692 117.1592 105.1131 108.3541 113.4939 114.6110 114.8258 115.3319 108.7226 102.0487 117.1190 124.5211 124.7440 124.4239 125.1818 124.9428 124.5930 125.8582 126.1692 125.1401 124.7322 126.2849 115.4339 123.7934 121.0418 115.5643 114.4979 105.4900
122.1000 122.0690 121.9430 121.8346 121.7277 121.6268 121.5283 121.4459 121.3661 121.3886 121.2294 116.8206 113.5157 100.0016 100.6758 100.7257 106.6415 106.2423 104.3748 121.2787 114.9065 109.7139 99.4786 102.1932 107.6496 106.8271 117.7504 103.4905 103.4009 117.3599 123.1541 122.4791 123.5577 121.8638 110.3393 109.0772 120.7865 122.1391 114.4916 106.9406 112.4543 114.3729 114.4611 116.1301 117.4638 116.1233 116.9987 123.4065 124.5907 124.2593 124.5122 124.2917 125.1166 125.6380 125.8073 126.5023 126.8186 126.0262 129.1812 118.5780 103.3378 104.8716 106.8811 105.6500
122.1300 122.1900 122.0300 122.0900 121.9100 121.9100 121.7200 121.7600 121.5500 121.5800 121.3400 112.8700 121.3900 121.4000 121.4000 101.8200 122.1200 101.3200 99.6100 121.5800 121.5500 109.7800 100.4500 115.7700 111.6700 116.6400 118.6700 105.1500 106.7000 108.5400 122.6800 122.8300 125.2400 123.1400 110.5000 111.1100 123.5700 123.7300 111.6400 102.6100 102.1600 114.1900 114.5100 115.7400 115.4200 116.5900 115.8700 121.6400 123.8100 123.8000 125.7400 125.8600 125.4100 126.2200 125.7300 126.3500 126.6800 126.9400 127.2400 108.9700 109.7700 114.1800 105.5500 105.6500
