119.5300 119.2300 119.0400 119.0400 118.4800 118.4800 118.2400 117.9500 118.0300 117.7100 117.7600 117.3800 117.4000 117.4200 117.4300 117.8200 125.1400 117.7500 117.7500 98.8500 98.8500 106.8700 102.2700 118.4800 118.8100 119.0300 118.9800 119.5200 119.4700 119.9600 120.2300 120.4000 120.6200 120.8700 121.0400 103.1500 121.6600 121.8700 122.0300 122.2200 122.5800 114.6100 114.9900 125.0400 120.2400 121.2400 121.1800 121.2800 122.4600 124.0800 117.7400 109.7400 108.2600 103.2400 103.3800 103.6400 131.8400 103.9000 111.2000 105.0700 116.0200 106.8400 126.4900 121.7200
119.4700 119.1199 118.8613 118.6320 118.3909 118.1777 117.9733 117.7880 117.6213 117.4757 117.3562 117.2534 117.1868 117.1436 117.1347 118.9819 117.8128 117.3811 117.3956 100.5524 102.6332 97.0927 115.1667 118.0645 118.5733 117.6845 118.8639 105.7045 120.9719 126.0023 124.4417 121.3398 119.4896 114.4897 109.3199 104.3446 119.9443 109.8529 112.3376 121.1602 109.5774 117.2251 120.1692 121.8068 119.2901 120.7311 110.6042 106.0324 119.5750 122.1626 117.0271 118.6292 107.7764 101.8874 121.0619 103.1659 116.4380 106.1919 108.1005 104.3575 108.8718 113.9980 125.8225 121.5000
119.1100 118.7548 118.4022 118.2005 117.9814 117.7577 117.5334 117.3276 117.1437 116.9818 116.8422 116.7346 116.6585 116.6100 116.6170 116.3276 116.7070 116.6637 119.1328 111.0593 98.9208 94.2122 119.8914 119.0289 118.2266 121.0677 121.0990 105.3669 117.3444 107.1838 106.1069 109.9891 98.9032 110.5469 109.5572 102.1006 105.5467 99.1939 105.4557 124.7839 117.1446 120.6577 119.2551 117.7292 118.7897 121.6377 116.0707 113.3774 116.7644 121.6787 116.2512 118.3381 105.8927 113.3664 117.3258 103.5850 102.6022 104.0619 103.8970 104.3888 103.3322 123.9015 119.0268 121.7100
118.6100 118.8682 118.8199 117.8519 117.6397 117.3500 117.0888 116.8545 116.6391 116.4619 116.3083 116.1804 116.0974 116.0453 116.0489 116.1063 116.1107 116.1207 117.6208 92.9927 99.0655 94.2942 99.1357 118.4409 118.9630 102.9595 105.7800 119.3965 119.9778 106.2008 103.8855 113.2677 106.2127 102.6098 115.6272 113.1395 100.6368 97.2832 104.5629 123.7505 117.6905 117.7136 116.0730 116.8625 109.7685 107.5470 111.1820 103.7190 124.6015 123.1767 126.4621 123.1002 119.0747 113.4056 106.3401 104.4230 108.5974 103.2643 104.0871 104.5196 104.5703 128.9381 126.9926 121.9600
118.2100 114.6631 117.2043 117.5963 116.8444 116.8208 116.5976 116.3497 116.1156 115.9102 115.7347 115.5927 115.4918 115.4368 115.4186 115.4545 115.5179 115.6438 116.0328 103.2881 111.3242 113.5643 118.9032 118.7430 113.4465 118.3942 121.9778 105.8680 118.0379 116.0563 118.6699 102.8753 116.1196 115.3454 119.0354 116.1962 118.2170 120.0294 118.1522 114.0092 112.3986 114.8773 112.4822 110.1371 101.6390 103.3792 106.1765 105.4623 125.0682 125.9565 123.4097 101.6250 123.4310 119.4569 122.4414 106.2020 107.3242 105.9259 103.6219 104.1889 107.1114 111.5764 111.3399 107.5000
117.7900 118.4315 117.0756 117.1664 118.3612 118.3772 116.0265 115.8444 115.5591 115.3285 115.1229 114.9692 114.8517 114.7841 114.7656 114.8114 114.8867 115.0125 115.6081 115.4947 110.8317 116.5930 116.6107 115.8943 117.3143 117.3187 117.7050 116.0983 117.8331 119.2287 109.0280 102.0838 101.1165 109.9727 117.5985 97.4114 120.4956 110.0691 109.3041 109.7344 111.1805 113.0931 100.0517 100.5355 102.5071 108.7326 105.2291 117.3276 119.9583 109.9549 116.2729 120.2445 107.1469 119.2718 114.3642 112.3243 115.0835 113.9260 104.5001 106.5162 108.8385 107.9510 107.5963 107.9300
117.6600 117.3686 116.7407 115.8438 116.5922 115.9344 115.6591 115.2808 114.9781 114.7059 114.4819 114.2916 114.1588 114.0755 114.0617 114.1048 114.1999 114.3841 114.4620 115.3397 114.7099 114.4085 100.7144 117.2518 115.9720 118.0985 116.7290 117.5824 117.9877 118.2772 118.0310 122.3650 108.3930 112.9771 106.7469 107.6128 105.7998 106.2944 107.9523 111.3743 115.0287 98.9099 99.8957 100.1505 101.9174 104.5722 111.8088 108.4781 101.1715 100.7676 121.1340 121.2539 121.4253 116.6688 101.5608 112.3322 107.8348 103.9813 109.2219 107.2050 107.1034 105.1073 117.7001 118.7700
117.1700 117.0253 116.5693 116.2935 115.8498 115.4558 115.0692 114.7022 114.3598 114.0485 113.7764 113.5613 113.3996 113.3058 113.2861 113.3413 113.4625 113.6475 113.8547 114.0366 114.2985 114.7061 113.5938 119.2680 104.8123 110.4867 117.5014 117.1664 117.4661 117.9506 116.9966 118.5604 118.8456 110.9196 100.9594 106.6367 107.3280 104.0679 111.9206 112.8732 100.3363 105.6564 112.3769 100.8924 105.7605 114.8352 110.7374 113.9362 108.3076 114.9572 119.5168 115.1279 100.5207 101.8508 104.3327 108.6739 109.0907 109.7727 109.2943 115.5993 116.1482 117.4423 108.4329 116.5500
117.0900 116.6840 116.2520 115.8329 115.3600 114.9482 114.5177 114.1067 113.7040 113.3504 113.0287 112.7679 112.5815 112.4719 112.4458 112.5053 112.6522 112.8690 113.1740 113.5059 114.1518 111.9019 116.5217 109.6863 116.7940 116.4979 116.2639 117.0463 116.7520 119.7958 101.4255 106.8488 104.9193 117.9991 109.2068 100.8665 101.9020 103.3457 106.2589 116.2306 109.1011 111.6822 104.4181 114.0779 113.0039 106.7917 107.4710 108.8512 118.7310 111.0416 108.7079 100.8142 105.1528 104.7666 108.2336 117.5439 114.9222 115.6166 109.6273 117.0027 124.4756 121.8058 116.3426 104.5900
116.5800 116.3321 115.8739 115.4000 114.9236 114.4252 113.9913 113.4781 113.0175 112.5993 112.2216 111.9085 111.6692 111.5314 111.5029 111.5811 111.7578 112.0240 112.3737 112.7760 113.1861 113.7111 113.4765 106.4674 116.2448 115.3951 116.0918 116.5747 117.7745 123.1681 106.3636 103.5764 104.0636 103.5076 103.0370 99.4722 103.3371 110.4176 107.1082 110.5011 104.5668 101.2426 102.5322 104.4832 102.9690 110.5917 107.7689 108.1621 121.2861 116.8760 117.8572 105.0904 112.4281 115.0510 118.3947 109.2431 105.4589 103.0719 122.7571 125.5354 118.7039 123.7622 114.7396 104.5800
116.5100 116.0139 115.5043 114.9829 114.4516 113.9439 113.0846 112.8440 112.3018 111.7945 111.3361 110.9512 110.6643 110.4908 110.4500 110.5474 110.7715 111.1070 111.5225 112.0056 112.4915 112.9119 117.9629 116.1596 114.4046 115.2008 115.6899 116.2603 116.0940 116.1448 119.4028 121.8718 113.6140 116.0380 99.8033 100.5130 105.7856 111.8408 114.9534 106.0433 99.1992 98.8691 101.5762 103.1980 106.6015 106.2937 106.3891 110.0854 118.8284 120.7537 120.6316 105.0749 100.0298 98.9087 110.2860 103.8513 104.7123 111.7444 122.3191 125.0329 125.2260 125.8895 115.6211 116.8400
115.9100 115.5760 115.1533 114.5875 113.9984 113.4026 112.0491 112.0838 111.5353 110.9414 110.3867 109.9013 109.5309 109.3093 109.2515 109.3845 109.6694 110.0942 110.6153 111.1951 111.8178 112.1290 110.6398 113.6784 114.4407 114.8041 115.3781 115.8892 116.4507 117.0399 115.4510 122.3673 104.8339 114.9045 94.3537 108.9119 100.2520 98.8558 107.4877 104.7137 99.4584 100.1512 102.0570 106.0713 104.6892 112.2098 111.9179 117.6047 116.3194 112.7790 117.6187 99.3697 111.3605 102.8495 105.0344 103.6361 105.5405 123.4889 126.0680 122.1075 126.0538 127.7976 117.9958 104.4200
115.8000 115.8874 114.8081 114.1895 113.5626 112.9013 112.2374 111.5135 110.7481 110.0298 109.3391 108.7229 108.2415 107.9339 107.8602 108.0398 108.4218 108.9720 109.6177 110.3344 110.9235 111.8077 108.5235 113.5622 113.8128 114.4588 115.0659 115.6173 116.0760 116.4750 110.9664 100.7118 113.2096 118.9628 111.9173 111.7915 111.3643 113.8260 107.3514 102.9051 104.4706 101.3671 106.2247 106.1141 107.1803 113.8790 117.4197 117.6729 119.3436 109.6466 116.2780 106.9363 115.9069 104.7174 105.1826 110.7376 107.1712 115.3238 121.0351 121.0120 126.0367 125.3862 111.6722 115.8500
115.8000 114.0219 114.4729 113.8593 113.1381 112.4002 111.6128 110.7889 109.9507 109.0711 108.2042 107.4048 106.7362 106.3103 106.2099 106.4552 107.0012 107.7249 108.5674 109.4430 110.3218 111.2887 112.1186 112.6815 113.4366 114.1206 114.7113 115.3965 115.6062 117.0412 113.7975 112.4142 110.3254 111.3818 109.3945 104.9370 109.6893 119.2795 115.6770 103.4251 101.1171 101.9875 106.3098 105.8420 107.2910 107.7622 111.4113 112.2465 112.4980 110.7885 105.6130 113.4439 101.6466 102.3014 109.7516 108.5268 104.3679 109.3914 127.3946 126.1799 126.2072 118.6962 111.9104 125.5600
115.2100 113.6057 114.1932 113.5232 112.7605 111.9483 111.0845 110.1439 109.1407 108.0883 106.9908 105.9155 104.9771 104.3286 104.1671 104.5457 105.3398 106.3587 107.4502 108.5360 109.5788 110.4938 111.4648 112.2924 113.0850 113.8022 114.5938 114.7718 115.0987 105.5167 101.7210 101.6157 97.1740 97.7873 97.9874 96.7626 100.7012 119.9768 106.3777 101.3787 101.6553 102.7044 104.3580 105.9134 106.1853 106.8059 106.2517 106.7447 111.3289 103.2474 105.9637 113.9050 106.0725 103.2190 105.4754 101.9238 103.6927 106.2154 111.1069 127.7344 125.5430 123.3755 105.1944 104.3900
115.1400 114.8097 113.9707 113.2347 112.4284 111.5530 110.5922 109.5446 108.3831 107.1048 105.7069 104.2645 102.8210 101.7526 101.4879 102.1310 103.4088 104.8613 106.3053 107.6583 108.8789 109.9983 111.0083 111.9322 112.7663 113.5883 113.7683 114.3506 114.6998 113.8957 110.3055 115.0737 103.7129 98.0522 120.1310 110.7979 118.8727 109.2216 103.7912 103.4760 102.5223 104.3823 108.3176 107.6786 119.7020 109.5908 121.0896 121.0692 114.3835 116.7721 99.9392 103.3970 103.5488 102.3502 103.2785 107.8328 108.5899 107.6178 109.9376 119.4347 127.1834 113.9233 119.5698 109.0900
115.0800 114.4818 113.7725 113.0019 112.1549 111.2229 110.1734 109.0081 107.6818 106.1962 104.4450 102.4397 100.2431 98.2751 97.6128 99.0865 101.1601 103.3165 105.2116 106.8482 108.2740 109.5219 110.6351 111.6207 112.5212 113.8264 115.1817 115.9041 115.6164 115.4394 116.2662 112.9889 94.8979 95.6805 97.3020 97.2337 104.3221 98.5478 100.5690 99.9859 100.1227 98.8668 99.9862 110.2026 122.8595 122.7401 123.3243 123.3379 124.9363 104.4421 105.0136 101.8239 102.2956 105.8356 111.3886 109.1446 109.7435 109.2405 109.5462 110.3984 110.6890 111.5508 113.5769 115.8200
115.0400 114.3828 113.6516 112.8434 111.9599 110.9840 109.8789 108.6121 107.2056 105.4490 103.3410 100.6441 97.2473 92.2721 91.0205 94.1522 98.8211 101.8721 104.2823 106.2136 107.8092 109.1713 110.3622 111.4323 112.2785 105.3602 91.4939 92.7033 108.2462 115.5092 116.7297 117.2234 117.8754 118.4399 118.9776 119.1033 119.5694 120.2040 101.6654 102.4117 98.7365 113.2825 103.6872 124.4490 121.5833 119.3027 109.9338 120.5054 99.9565 101.6377 101.2143 119.9027 108.8501 110.7223 110.3783 111.5227 109.1007 112.0299 109.3293 111.7628 110.6839 112.7498 113.5207 113.9000
114.5400 114.3189 113.5719 112.7531 111.8486 110.8372 109.7926 106.2474 105.2776 104.9956 102.6500 99.3641 93.9897 87.3444 85.6344 89.3690 96.8490 100.8765 103.7023 105.8311 107.5446 108.9686 110.2065 111.2840 112.2444 114.4052 118.4242 92.0506 93.2925 95.3177 118.7693 117.1247 117.4942 117.8721 118.5661 118.5128 116.4117 111.6424 101.6950 103.8724 99.6383 109.1176 102.7312 123.2546 122.4924 122.7587 123.2024 123.4016 125.0114 125.8937 112.4440 107.1728 105.2369 105.1410 109.4587 108.6150 110.3254 112.3523 111.5649 127.8476 110.8872 117.3169 118.7699 126.3700
114.5300 114.3068 113.5627 112.7448 111.8323 110.8160 109.7919 105.9694 105.2980 104.8814 102.5524 99.1680 93.3987 86.1279 84.3985 88.5076 96.4977 100.7233 103.6132 105.7729 107.5040 108.9466 110.1774 111.2797 112.2321 112.7337 111.6950 92.4356 93.7013 95.5922 113.9153 113.2456 113.2252 118.5579 116.1695 115.5696 116.0235 112.9972 101.3505 102.1571 100.9760 109.4839 105.1779 106.5533 120.3182 120.1811 122.7430 119.8604 120.9346 119.0504 115.3651 102.1533 105.4070 104.4907 108.5161 104.9978 121.7848 108.4915 108.5837 108.6217 109.8086 115.4300 125.7710 126.3700
115.0100 114.3506 113.6156 112.8053 111.9119 110.9264 109.8349 108.8609 107.1697 105.2695 103.0554 100.1561 96.0855 90.2999 88.9943 92.3691 98.0550 101.4790 104.0446 106.0520 107.7003 109.0849 110.2852 111.4216 112.0041 113.2834 103.7759 99.3780 95.1629 99.3410 95.5172 94.0220 93.5381 110.5023 102.7100 101.1552 96.7729 107.9768 96.6081 97.4957 107.0389 109.1260 109.8332 111.0148 108.4116 110.5672 117.4305 111.7121 113.0064 102.8860 116.8683 104.0107 105.5944 101.1025 100.3788 107.1474 105.8543 108.5998 109.2614 110.6433 111.4838 130.1303 128.4081 127.8200
115.0300 114.4435 113.7336 112.9556 112.0835 111.1349 110.0296 108.7609 107.4591 105.9272 104.0568 101.8294 99.2658 96.5410 95.5682 97.7145 100.3619 102.8252 104.8763 106.6150 108.1193 109.3799 110.5513 111.3387 113.3040 115.8887 124.9497 106.2401 103.5703 102.9273 103.4607 102.8664 102.1486 99.8265 115.4542 101.1126 111.9297 99.7720 99.8188 100.4659 101.3497 104.7967 109.2288 108.7955 106.8812 108.9327 111.8012 112.2337 112.8326 115.7149 116.9211 109.7174 110.1394 106.4826 108.2346 117.7410 122.2075 121.5496 123.4743 124.8073 128.9280 127.0439 119.2981 128.0700
115.0700 114.5986 113.9149 113.1262 112.3265 111.4330 110.4491 109.3678 108.1563 106.7919 105.2995 103.6673 102.0974 100.7298 100.3763 101.1665 102.6884 104.3472 105.9394 107.3683 108.6624 109.7161 110.5321 112.2284 117.4114 110.6709 111.6604 101.8651 100.3190 99.6290 103.1223 105.1296 106.7785 109.9815 107.9190 101.0228 101.3428 105.1380 104.3773 108.0972 108.1339 108.1363 111.2227 107.0557 108.1917 108.0073 117.0289 115.2556 115.1364 104.9257 112.7614 113.7096 111.4726 112.3541 116.2577 119.1372 114.9852 119.3433 119.6216 121.8039 124.2505 126.8092 117.8771 112.7000
115.1900 114.8342 114.3491 113.5758 112.6523 111.8071 110.9120 109.9398 108.8891 107.7516 106.5662 105.3807 104.2858 103.5327 103.3285 103.7989 104.7273 105.8689 107.0714 108.2373 109.2999 111.3763 113.5371 110.7703 109.5174 115.3227 101.6232 102.4793 103.7919 103.1030 104.1928 105.7332 107.6456 106.6557 109.1231 103.2801 104.7926 106.9288 106.3173 103.9296 105.7855 112.8757 111.7294 111.9140 107.3059 108.4873 111.8807 114.7561 119.0889 107.2815 115.2647 117.0003 114.4859 116.6421 119.2621 121.2072 118.3810 122.1641 123.4491 124.5086 121.5442 123.5444 129.7650 128.1000
115.2800 116.2273 112.2484 113.7359 112.9066 112.2658 111.4491 110.5881 109.6652 108.7501 107.8111 106.9272 106.1707 105.6821 105.5681 105.8319 106.4584 107.2784 108.2006 109.1372 110.0224 110.3819 102.7919 111.7817 114.9841 111.9691 94.9012 103.0066 101.5689 102.7153 106.6557 107.3711 108.8868 100.1053 98.7932 104.9197 99.9991 107.6162 109.9915 108.1905 111.3156 100.6499 112.2225 109.4672 109.1802 111.4089 110.1761 107.1472 107.3526 107.2341 117.0181 116.4816 119.6853 115.0633 122.6950 121.8898 126.3520 126.2998 124.8545 124.0019 120.7801 124.3234 125.5989 125.2200
94.1800 115.6019 113.5408 114.6455 113.8900 112.6286 111.9465 111.3511 110.4712 109.7155 108.9742 108.2902 107.7554 107.4094 107.3410 107.7077 108.0496 108.5452 109.2715 110.0808 110.8266 111.8101 112.3460 109.0773 105.4856 98.1727 94.4867 94.5758 95.8864 97.1814 100.9678 101.4529 106.1473 105.4449 106.0636 104.4466 100.6196 108.6362 110.6609 112.8003 114.2354 108.9278 103.0175 110.9786 112.9052 109.2753 114.9190 115.2959 111.4770 119.2310 104.1500 103.5052 104.8710 113.8108 104.5537 106.0931 107.2925 108.5518 118.4391 119.7705 117.3465 124.5435 125.3261 124.9400
115.8900 115.8394 115.0145 112.4806 110.2749 113.5061 112.6231 110.1209 111.3412 110.6293 110.0416 109.5232 109.1117 108.8531 108.8275 108.9870 109.7433 109.7309 110.2960 110.9066 111.5479 112.0696 112.8413 113.9527 102.4744 90.7311 93.1546 94.3886 98.2489 101.3111 99.0424 99.6278 102.2316 97.7978 108.5075 107.2048 104.2940 109.7188 99.6058 109.0042 99.5838 105.5551 113.5405 115.1303 115.3355 114.2482 114.6500 117.4554 113.4079 112.4826 100.5955 102.0580 102.1436 101.8336 103.2670 102.6657 103.2166 108.0610 116.9374 119.4443 117.0964 121.3966 118.2691 124.9500
116.3800 115.8615 115.3353 114.8910 114.2655 113.6996 113.1816 112.3730 112.0352 111.5097 111.0240 110.6117 110.3031 110.1066 110.0577 110.1715 110.3545 110.7928 111.2236 111.7261 112.2933 112.7805 106.5610 97.6626 111.2178 114.3210 94.8708 97.9794 100.5728 100.5597 106.2753 105.2131 102.4391 101.2302 114.0386 95.4124 106.2054 109.7302 105.6952 106.0174 109.6395 106.9169 111.7202 112.6242 114.4582 116.4436 110.2895 110.1464 108.0236 102.1064 102.1815 102.1312 102.3974 101.0453 114.9785 110.4869 103.7405 102.3705 118.0765 114.0429 119.4946 124.4580 124.2780 125.4000
116.4900 116.1905 115.7476 115.2552 114.7895 114.2484 113.7314 113.2906 112.7567 112.3290 111.9340 111.5861 111.2992 111.1634 111.1543 111.2368 111.4440 111.7222 112.0846 112.5727 112.7284 114.1763 100.4367 109.7564 91.9287 105.3863 94.2690 99.0250 98.0262 104.2233 100.2930 102.5334 102.8769 103.0900 103.8095 103.7961 97.0125 107.6997 112.5356 113.4616 112.1918 111.6254 114.5013 114.8759 114.2584 113.5275 109.1330 111.0668 100.2346 102.2014 102.0972 102.1853 100.9909 116.1222 116.7537 99.5347 122.1790 122.9116 113.5877 115.9299 122.2689 119.2774 120.5569 123.1400
116.6100 116.5756 116.1252 115.6889 115.2358 114.7772 114.3392 113.9031 113.4714 113.0981 112.7781 112.5261 112.4463 112.2409 112.1297 112.1957 112.3504 112.5949 112.8890 113.2117 115.3736 101.5995 117.7150 103.1199 95.8928 111.2291 99.0172 94.1997 100.7285 98.3955 108.5052 102.3241 109.3149 104.2943 104.2324 100.4911 99.9272 111.2436 112.2167 113.5330 113.5387 114.7952 114.6461 115.0349 114.3615 105.1175 100.2368 100.8101 101.8799 105.5824 104.8288 101.5659 106.8568 101.1766 109.9662 103.6726 121.4176 111.5667 111.5867 100.4471 120.4689 118.1381 119.8680 125.4300
117.0700 116.9168 116.5048 116.0948 115.6909 115.2960 114.8895 114.5119 114.1995 113.8176 113.3491 113.1615 112.7991 113.4786 112.9884 113.0659 113.1998 113.3866 113.6277 113.9891 114.7636 96.9352 114.9199 102.2871 100.2489 99.2479 96.3233 100.8429 115.8287 95.3839 106.4306 108.6885 110.7189 110.4186 103.7740 112.6561 101.8082 110.7382 112.3316 112.8484 113.7239 114.1375 115.5918 117.0987 107.3300 112.5797 99.5776 101.2135 101.6775 101.1349 101.3359 101.5855 116.0311 101.2712 102.6674 105.5464 102.9530 102.2894 118.1090 103.9290 102.9943 103.6782 105.7230 123.1800
117.5100 117.2573 116.8921 116.5085 116.1387 115.7712 115.3797 115.2405 114.7889 114.1153 115.4842 120.0330 114.3251 113.9163 113.7503 113.8369 113.9498 114.1678 114.3519 114.1692 115.9169 117.3122 92.5892 102.2878 100.1898 102.5171 103.6683 101.4168 107.3895 97.0769 101.7378 101.8813 109.9375 100.9448 104.0899 101.3104 105.1073 109.7291 110.0646 113.0659 112.7432 112.5973 111.6455 113.9448 100.0657 112.1574 107.4688 103.3814 101.2785 102.3091 102.3516 102.7216 101.7976 102.8389 105.1354 106.6107 110.0005 108.7875 107.7252 113.1685 116.3642 104.6183 115.0440 104.5800
118.0600 117.6316 117.2947 116.9475 116.6098 116.2513 116.0428 115.1434 115.0499 114.9037 112.8511 104.3448 111.5180 114.8296 114.4244 114.5848 114.6799 114.5772 114.7907 115.5426 115.5074 113.8976 105.4058 96.5472 98.4757 100.8568 101.9593 104.2797 113.2000 103.8646 106.7459 102.1372 102.7825 97.6860 98.0020 100.3680 111.9420 110.8090 111.2850 115.4777 115.0113 115.7663 109.3474 105.6440 100.1744 105.0868 120.0830 105.4984 112.2013 101.4609 102.4103 102.2903 102.6449 102.8852 104.0346 102.9471 104.3419 108.3430 121.2382 120.7658 120.5724 114.7894 118.0162 129.5800
118.1100 117.9228 117.5649 117.2707 116.8889 116.7864 115.5094 115.7806 119.9287 109.6739 115.1707 110.3938 115.5267 115.2983 115.1535 115.2326 115.2874 116.6119 116.1449 117.2527 116.7509 97.1538 121.3696 98.0243 100.0730 104.7508 104.0863 100.3448 105.4223 107.3800 106.1390 108.3550 101.3170 99.8032 98.2802 99.7126 105.8699 109.2127 115.4313 115.0970 115.6951 116.9022 109.3300 100.1501 99.7658 100.3358 109.4672 107.6513 109.8618 101.6244 103.0138 103.0515 103.5040 104.1801 103.6001 105.9677 107.8613 115.9052 102.8145 103.8812 104.3888 117.0113 112.4301 110.8600
118.5800 118.2930 118.7553 118.1213 117.8046 117.1797 116.8818 116.1255 114.3472 112.2168 116.7549 116.3800 115.8760 115.8387 115.8205 115.8497 115.8698 109.2836 105.6701 114.6689 103.8396 97.8661 116.5941 119.5580 111.1678 104.0679 104.8513 104.1215 102.0631 104.0964 107.6916 107.9822 108.5760 108.2415 102.5563 102.0607 108.2949 115.0747 114.4068 115.5762 115.4482 117.5438 115.8444 115.1170 111.1544 99.2259 100.0298 101.1106 100.6924 101.7461 103.0765 103.7172 104.1149 105.1304 105.5093 104.2923 123.1475 128.4981 103.3821 122.8453 117.8373 105.6209 120.4430 110.5300
118.9700 118.6369 113.4781 112.7842 118.1009 117.9629 117.3869 116.7664 117.4975 117.2052 116.5568 116.5306 116.4755 116.4228 116.4066 116.4091 116.8381 112.8284 114.2827 118.5769 116.0889 117.7723 118.6964 117.7066 119.0899 107.8122 104.5523 107.0364 104.6055 104.5587 114.7125 109.2090 109.2980 109.5980 109.4160 105.6433 107.1676 110.3233 115.4890 114.7882 116.5817 108.4730 113.3015 118.7275 120.0829 115.6715 109.1303 102.2380 103.4951 104.5297 104.0690 103.6286 104.5365 105.2202 106.1406 105.7933 124.5147 115.8747 107.2638 124.7571 107.7165 122.5433 128.1607 128.6500
119.0200 119.7163 118.0050 114.3530 113.9990 118.1165 117.8383 117.6808 117.3910 117.2662 117.1988 117.0834 117.0115 116.9697 116.9608 116.9845 117.0267 117.4875 117.5501 115.1553 118.0328 117.5126 117.8914 118.0154 117.8542 108.5573 111.0570 107.3520 105.7730 105.9275 100.3701 105.7103 111.6601 110.9009 109.3890 111.6256 111.1716 106.8143 112.8026 115.8048 116.0564 117.6873 99.2368 103.1016 110.0788 115.4389 106.6145 103.0871 102.2183 105.2042 105.3634 105.3828 104.8488 105.2556 105.0672 104.0933 110.9674 126.5434 108.6573 125.9632 122.6556 127.3920 128.5470 127.8400
119.4500 105.5168 119.4155 118.0054 110.4821 118.4414 118.2701 118.0635 117.9306 117.7976 117.6669 117.5820 117.5169 117.4825 117.4740 117.4959 117.5419 117.5538 118.0550 116.0293 118.1495 118.2134 118.5834 119.3013 118.5505 118.4045 101.5881 101.7442 109.3202 109.1224 106.8656 107.3533 109.0188 112.5350 110.2290 111.2832 112.1378 111.8107 111.8227 111.9649 115.9991 117.9629 105.2336 100.5899 101.4164 101.1334 101.7395 102.0759 102.2417 102.6767 106.0263 106.7622 106.7220 107.2054 108.2951 120.3139 122.2149 124.2501 122.7138 125.8022 125.1219 109.4420 110.9264 126.6500
119.8300 119.9624 127.2337 121.7464 118.6723 119.2297 118.6770 118.5087 118.3550 118.2338 118.1392 118.0559 118.0000 117.9697 117.9563 117.9802 118.0197 118.1001 118.1319 118.4685 118.4121 118.5445 119.2613 111.7688 114.4958 122.1627 101.5948 105.2325 104.2656 107.9442 107.8033 107.9298 109.2210 108.0350 105.1687 106.5533 110.1675 113.3527 111.8251 113.0879 113.3270 116.1964 111.3666 113.5284 102.2528 101.8420 102.0678 102.1385 102.4860 100.9019 121.7313 123.0175 106.9913 107.9607 107.5195 109.7367 110.6885 113.9779 124.8952 125.2879 118.4152 124.1034 125.1542 126.7000
120.2000 119.9851 119.2905 119.3392 119.2303 118.9069 119.0337 118.8016 118.8059 118.6713 118.5762 118.5056 118.4560 118.4249 118.4190 118.4353 118.4728 118.5341 118.6448 118.8331 118.8257 118.7928 118.5936 119.5736 118.8455 120.1026 109.6771 103.2042 108.9333 107.9344 110.1969 110.3079 112.1793 110.3262 102.8433 104.0983 115.1416 113.7729 102.0547 109.9959 113.7250 114.7939 111.7570 100.4347 101.8410 101.8990 102.0589 105.2425 102.9318 101.7990 119.6061 95.5209 121.0000 102.9307 111.8230 108.7748 109.2632 109.3887 110.8914 114.7915 126.9030 110.9927 117.8572 111.5600
120.2000 120.2867 120.1072 120.0185 120.1365 122.1932 118.8798 120.3770 119.1908 119.0833 119.0022 118.9315 118.8863 118.8591 118.8481 118.8691 118.9074 118.9610 118.9786 118.6127 119.7138 120.5402 119.3847 119.3217 119.8198 120.2449 116.9095 101.7693 111.5150 116.4812 111.1471 112.0009 110.3005 102.7264 108.2526 109.1580 113.8228 115.4332 104.3494 110.3662 117.5031 110.7260 115.9003 109.8290 101.8201 102.0591 101.1459 113.2512 103.6626 103.5873 99.9138 104.7473 103.7789 99.9039 127.4484 112.4074 114.6578 109.7420 110.2710 110.0196 110.1380 111.9100 105.9643 126.9900
120.6400 120.5828 120.4196 120.1746 115.5369 105.3275 103.1381 120.1421 119.5758 119.4790 119.4067 119.3429 119.2975 119.2787 119.2835 119.2927 119.3243 119.3707 119.3683 120.1057 117.4148 104.6823 120.7625 120.0665 120.1386 120.2893 120.7107 123.1847 107.6613 108.6796 108.9128 113.4295 113.8240 114.1310 100.1756 105.9123 114.7702 116.2765 116.7205 113.5334 110.5737 103.4144 111.4982 98.6948 101.2503 102.4030 102.6578 102.9012 103.3034 102.6584 120.1393 104.8475 103.7789 107.3639 129.2470 120.6949 129.3285 114.2225 117.1685 117.7223 122.5940 112.9207 114.3037 114.3900
121.2200 120.8771 120.7281 120.4019 121.4287 114.2270 121.5977 119.8940 119.9435 119.8629 119.7904 119.7337 119.6945 119.6712 119.6275 119.6329 119.6613 119.7571 119.3705 119.8162 102.5178 106.2067 121.8280 120.2331 119.8384 120.3644 120.7501 121.8876 120.5492 113.4130 107.2500 111.8592 107.5442 113.9970 103.1551 105.3335 110.6266 114.4734 117.6979 119.5966 107.1961 114.5725 99.8648 101.8287 102.3611 101.5946 100.3942 101.7689 105.4504 104.6270 104.1433 104.9265 111.7082 110.5792 121.2009 101.2092 116.8953 135.6975 130.5326 130.5663 118.9520 114.0804 113.2099 114.0700
121.2200 121.1767 121.0421 120.8874 120.6049 121.1837 120.3277 120.3692 120.3070 120.2310 120.1618 120.1141 120.0727 120.0620 120.2011 120.2110 120.2663 120.0637 122.0054 121.1781 103.8795 116.2497 121.2250 112.2191 127.8410 121.1951 120.8852 122.5688 122.1574 115.2745 110.5583 102.8900 98.3293 111.9853 99.3689 104.5626 103.2828 110.7477 116.3924 97.8791 103.0744 101.9975 102.0059 102.3360 101.2855 99.8514 116.4426 111.3868 104.2892 107.7747 105.0239 104.5642 108.8668 120.6933 127.6142 114.8078 113.9430 110.6404 117.2280 118.3130 129.9391 110.6424 116.0985 114.0700
121.5400 121.4593 121.3076 121.1949 121.0804 120.8642 120.8588 120.7281 120.6466 120.5740 120.5079 120.4695 120.4331 120.3871 119.9765 119.9698 119.9690 122.2720 116.6017 101.0513 115.6281 110.3925 107.7738 116.3622 127.1005 116.6133 106.9867 116.6020 122.5375 123.1732 108.4187 107.4685 106.9582 105.2343 108.2798 102.1397 101.9065 106.4139 114.1796 105.5235 101.6395 101.8377 102.2117 102.1062 104.0570 116.5109 122.9795 122.7048 114.2094 105.8493 104.1374 106.7945 106.2287 105.6836 116.2830 124.5827 127.2023 128.3560 104.4511 117.2698 103.3404 102.1429 108.7916 114.5800
121.8400 121.7329 121.6061 121.4733 121.3549 121.2492 121.1478 121.0640 120.9806 120.9154 120.8893 120.8483 120.7789 120.7240 121.5056 121.8542 120.6549 128.1416 107.4280 118.5063 112.8611 110.0441 103.5859 100.2711 108.5792 102.1938 113.4899 106.5568 110.7520 116.3731 111.7998 111.5926 107.8380 100.7887 104.7258 100.6888 100.6821 104.5224 106.4559 102.0463 102.1857 101.9875 102.1910 102.3923 103.6719 107.2789 103.0923 107.7870 108.8965 110.1487 110.1602 105.1376 108.1296 107.7511 106.3050 106.6750 127.9659 125.9744 128.8410 106.1358 128.4346 106.1265 107.4729 105.5000
122.1300 122.0087 121.8837 121.7631 121.6538 121.5544 121.4584 121.3796 121.3016 121.2606 120.9208 120.9460 121.0825 120.8694 122.8130 97.3281 115.2116 105.1695 103.4790 121.3632 118.5683 109.9441 118.3089 101.5549 111.0159 117.8716 119.2511 115.0762 102.5740 108.2267 103.5333 98.6893 101.0411 110.6001 105.1056 100.6918 103.3174 106.4211 106.8425 102.7795 101.1458 102.2655 102.8713 103.7470 103.0663 102.6397 103.0092 101.9805 101.3536 103.5735 105.0600 104.0810 107.5104 107.5303 116.2110 117.2750 109.1179 125.5973 126.6808 118.5003 126.9590 125.9296 125.6024 111.5500
122.3900 122.2749 122.1591 122.0471 121.9385 121.8422 121.7504 121.6637 121.6206 121.4376 123.1998 122.6028 121.3584 121.2701 121.7781 121.8867 125.1790 105.1364 106.6617 121.2506 121.7677 114.8779 119.4834 108.2525 125.4660 115.2528 122.8079 123.0115 118.6469 126.0357 123.5832 115.9547 101.8913 105.5066 101.6768 101.3656 101.5981 103.1858 106.1560 112.1548 112.1197 106.3824 101.5660 102.8736 103.9065 103.5215 104.1385 115.5868 105.1436 103.7421 104.0708 102.1290 120.0563 106.8505 107.9917 112.0088 110.0838 128.2736 127.1016 127.7445 128.0750 128.2519 128.4447 129.5500
122.6800 122.5267 122.4207 122.3201 122.2187 122.1362 122.0886 121.9907 121.8987 123.8777 106.4375 122.1664 121.5363 121.7671 120.5072 101.3181 117.4500 102.3335 99.8790 120.8612 122.8952 113.8615 117.6964 119.3023 123.4075 120.0281 122.4616 122.2539 121.5198 118.5607 103.7664 109.7486 101.6869 102.1213 101.5388 101.1656 101.4520 115.1806 120.9666 118.5853 111.8303 112.8230 113.0689 109.8104 102.9000 118.8860 123.0946 103.7978 105.8141 105.4605 103.9289 104.2784 103.0300 116.4287 125.0329 124.8049 117.4685 116.9696 112.0953 116.2450 129.5142 129.1951 129.5197 129.6100
122.9400 122.7832 122.6854 122.5741 122.5140 122.3071 122.0593 122.0373 121.8879 123.2066 115.7884 121.9839 122.3038 111.9354 95.4130 102.6481 100.5927 105.3103 95.9544 111.8936 120.9251 115.9407 114.8419 119.6166 120.7050 117.6560 118.1509 122.9525 125.8970 123.4537 101.7026 113.0665 105.5986 101.9535 105.0839 106.9833 107.5329 103.3442 101.4221 116.5563 122.1781 115.3535 110.6971 113.6972 102.5841 104.9595 117.5892 115.5013 107.3469 112.4695 107.0660 111.5028 108.2969 107.4229 125.2772 124.2944 125.8102 125.6443 114.9643 113.3858 127.5281 129.2439 127.4068 129.9000
123.2000 123.0306 122.9252 122.9228 122.6864 123.3846 124.3519 123.6539 123.3989 110.8289 123.2078 123.1610 122.8687 101.0348 106.7404 111.1772 113.7778 105.6196 104.7101 121.1978 115.5012 113.6312 118.0143 120.0409 117.0899 119.0312 118.5580 125.4963 121.9118 109.0763 110.6466 110.2875 98.7555 102.4362 103.2922 104.2791 106.8105 113.7371 106.5384 113.4402 118.6604 111.6298 111.8834 104.4705 104.8532 108.2820 124.1763 123.9238 116.6560 110.0637 107.2068 125.4469 125.0727 124.8863 124.0801 125.8387 125.7293 128.9554 129.2222 130.9075 122.3626 126.0100 114.8126 129.7800
123.4400 123.2720 123.1742 123.1059 124.0078 113.0616 112.8016 101.3788 121.9077 113.9253 100.7883 123.9662 124.0857 105.9942 126.9096 110.2586 109.9102 105.8108 109.4504 112.4708 115.9362 120.2558 118.9115 108.7768 124.0717 110.9290 122.5907 110.7850 111.2216 112.3582 107.0940 102.9425 109.3643 122.4928 114.3141 106.0677 106.7741 106.4334 107.5757 118.2941 105.7064 123.6053 106.7828 102.3817 108.0784 117.5348 119.7844 120.9005 126.8293 126.3119 118.7198 124.4342 123.3993 124.6824 126.2464 119.1206 101.7382 122.4388 126.3858 126.8899 127.9812 109.7084 117.3412 115.6100
123.6800 123.5040 123.4116 123.3405 123.9237 116.5363 112.7125 121.5803 123.9018 124.4078 119.3674 122.8349 124.1630 107.8609 112.9875 114.7646 112.3443 108.4182 109.4379 113.6128 114.9780 108.2711 115.4160 116.7765 124.7922 107.9943 109.4444 113.0037 116.6937 107.3761 102.8181 107.2286 106.6343 105.6080 114.7450 104.4834 108.2847 108.9340 108.8044 109.6197 101.8425 116.9799 101.9008 101.7398 115.9689 116.3783 119.5920 119.4841 124.9873 124.1461 126.7326 123.7904 124.6301 124.9590 124.7897 112.7530 107.1854 110.4722 128.4408 127.1890 130.8855 117.4282 110.1811 115.6100
123.9100 123.7388 123.6466 123.5910 123.2390 124.9861 123.9812 123.4619 123.0782 123.0871 123.1726 122.8237 124.5130 102.2910 102.5381 112.7724 123.0493 108.5935 113.2004 99.6947 109.8713 110.0100 100.1375 119.8162 119.3684 103.8556 126.3404 98.7489 103.1502 104.2683 107.1697 106.5194 114.5584 114.2693 126.1071 108.5949 107.6853 110.8567 107.2837 108.3119 110.3440 108.6699 110.7240 101.7677 124.2411 118.6525 124.6707 124.3307 124.3612 125.4902 125.5769 123.9791 124.9963 124.9195 125.6362 127.4821 108.9543 104.7466 113.8153 126.6321 124.9059 133.8507 127.1065 106.1800
124.1200 123.9720 123.9378 123.7404 123.7384 123.4404 123.5808 123.5866 123.5743 123.5420 123.4535 123.3179 123.5070 121.1190 106.0708 119.3881 115.4758 110.4957 112.3684 110.3124 108.2461 113.0700 100.9093 100.7074 109.0202 108.8252 107.4454 104.9761 102.1752 101.6642 106.4297 103.5436 113.6172 120.1660 112.4202 109.6447 108.0122 105.1389 106.6694 110.4561 102.9846 106.6143 106.2050 118.0625 103.2473 122.0944 124.0493 124.2960 124.6947 125.1100 125.5869 125.1196 126.9086 126.2288 125.3251 125.9978 123.1489 126.0533 117.3681 127.7886 126.6784 125.5966 109.3071 128.2000
124.1400 124.2108 124.1142 124.0695 123.9235 123.9541 123.8564 123.8048 123.7573 123.7312 123.6836 123.4129 124.6955 112.2390 115.7849 119.0819 117.7107 112.6761 113.7242 121.7194 97.9884 124.8730 100.2887 103.6208 112.1178 105.8165 114.5992 114.6732 101.8390 104.0145 109.7013 116.8516 107.5728 115.6259 120.0031 108.8019 104.5633 106.1354 101.4997 109.6283 104.9183 102.2994 105.0043 121.4329 118.5018 124.2557 124.4697 124.6957 125.0844 125.5798 125.9324 126.3956 126.8729 126.8558 126.6674 126.0161 125.9969 125.8091 126.3937 126.7663 126.4370 127.3995 103.7663 106.3300
124.3600 124.3605 120.3394 121.7590 124.1978 124.1569 124.0957 124.0445 124.0100 124.0038 123.8503 121.8572 124.0952 111.4950 115.7586 120.8608 119.6479 114.5064 116.2849 119.4990 119.9257 127.0490 98.1586 124.0487 114.2011 126.9977 105.9848 111.0668 102.5134 103.4983 106.5195 117.4203 115.1480 125.1598 112.8280 111.6364 103.5221 103.4307 111.4276 116.5230 107.7188 108.3199 114.3165 113.7181 122.6791 125.2384 122.7828 125.0477 125.6604 122.8001 125.9986 126.4432 126.9208 127.3648 127.8150 127.0196 126.4490 124.3866 125.3939 127.9669 129.9754 129.9577 121.3150 106.3600
124.5700 124.5596 124.8546 124.5541 124.2789 124.3926 124.3201 124.2697 124.2328 124.2522 124.2473 116.7557 123.5622 116.1698 112.2604 122.8429 121.8528 114.8002 116.5216 114.7831 131.6318 123.4860 108.3600 104.8167 111.0912 118.1436 107.0727 109.0960 102.8642 105.0485 105.7384 114.5622 103.5203 112.7995 111.9913 116.3064 108.3906 103.2960 112.7831 121.8371 110.8057 106.2083 105.0810 114.2296 112.8884 116.2589 124.9530 125.3396 125.6511 126.1244 126.2648 126.8682 126.8972 127.4102 126.2706 126.6638 128.8604 127.0885 124.0995 107.1223 104.3695 128.0740 113.0126 112.3300
124.7800 124.8264 124.6822 124.6850 124.6549 124.5885 124.5387 124.4972 124.4565 124.5243 124.0785 122.1989 110.4081 110.9143 115.1334 122.8753 124.1720 112.8407 119.6047 120.7421 116.7250 110.2031 100.8653 113.5632 104.1047 109.6664 108.8970 108.4673 102.5671 105.0145 108.5391 118.6440 113.3614 112.5791 117.1446 120.4200 124.1306 119.5198 103.2683 113.8784 115.0340 112.2181 106.7144 112.5527 113.2959 122.5272 125.9347 125.6599 126.0679 126.7550 126.2986 126.0606 126.4643 127.9509 126.8013 127.1979 128.6946 130.3223 113.4935 126.4779 105.9188 106.6187 107.2506 112.0600
124.9800 125.0177 124.9662 124.9013 124.8425 124.7984 124.7394 124.6959 124.6747 124.7069 124.6350 114.5567 118.9762 118.8799 115.7076 122.6272 123.2957 120.6203 121.1564 119.7618 120.2921 103.6239 102.3233 104.0913 104.4544 102.4388 102.0613 110.6586 102.2059 105.5633 118.2918 122.0128 115.7071 111.4512 111.0795 121.2740 125.2177 125.3998 107.8114 105.8210 116.1968 107.5450 103.2230 106.1787 108.4625 120.1272 127.0827 126.1376 127.2827 106.8887 126.3748 124.6880 126.1967 127.1165 127.5188 123.7454 129.2516 128.7457 128.3749 129.2005 129.3566 110.3070 107.0990 110.9500
125.1800 125.2166 125.1598 125.1026 125.0624 124.9941 125.0578 125.0371 124.8926 124.9208 124.7912 124.3624 119.5462 110.1314 111.7750 107.2287 128.5344 121.5863 123.1832 119.9201 118.8474 101.6356 105.9849 105.2031 106.1361 102.8097 103.2252 108.0322 120.3309 112.2850 110.4284 128.6335 120.2906 111.3004 124.0378 121.7845 110.9327 104.2230 104.9004 110.8726 117.9698 112.9583 104.9606 105.4538 107.0440 116.3992 117.5166 128.8659 122.3532 128.5139 128.4489 108.3476 126.3823 129.1832 128.7859 128.1610 130.5868 129.0926 129.8633 130.1995 129.8043 116.9801 110.4226 112.4300
125.3700 125.4183 125.3583 125.3107 125.2564 125.2206 124.6503 124.5998 125.1045 125.1073 124.9678 123.1591 119.7176 113.9973 115.1703 112.1112 113.5682 121.1416 108.2891 120.4533 120.7825 105.9028 102.8332 106.9325 108.1856 103.2445 103.5586 103.8960 121.1607 121.7844 112.3375 130.6486 125.9210 113.3674 109.2956 127.5302 114.3279 126.2690 111.2085 113.6981 104.3039 120.1591 112.0226 105.1430 106.1816 115.0839 115.7312 123.1000 104.4290 127.9899 127.8375 128.5885 126.8891 130.6781 128.1028 127.9869 128.6967 129.4945 130.8647 131.5735 126.4436 107.5472 106.9511 106.8000
125.5600 125.6015 125.5461 125.5009 125.5523 124.6026 134.5673 124.7039 125.3106 125.3110 125.2482 124.1210 124.3032 112.0461 108.2599 100.9569 107.9130 105.1818 102.7265 121.1094 117.3392 102.5339 103.1859 107.8988 109.1272 107.8554 102.8128 105.5227 111.1948 117.3325 108.4530 118.8348 117.2543 122.5082 107.0074 124.4663 121.6464 120.3245 108.2366 114.4255 105.1329 112.5047 109.8858 105.4213 114.6544 117.0265 118.4402 121.4930 116.7189 127.9187 127.6723 126.7370 127.0677 129.9614 128.9163 129.7964 131.3818 130.4592 127.6681 121.8112 102.2561 111.4142 106.9365 106.9600
125.7500 125.7800 125.6400 125.6700 125.5400 125.5600 125.5600 125.4300 125.4400 125.4700 125.4700 122.2600 124.3300 103.3200 103.3200 103.3200 116.7700 103.3000 103.4700 122.8500 116.3300 103.4100 103.5600 113.3200 109.5300 120.1600 103.7800 103.7800 114.5700 114.5700 120.0200 119.0500 115.8300 125.2200 122.3500 124.3300 124.3300 121.8300 120.9100 104.6800 105.6000 114.3900 116.6200 116.6200 105.0500 116.8900 117.9500 127.7800 128.0500 126.7000 127.2800 127.7200 129.1100 134.4100 128.6900 129.1800 135.9000 130.1200 106.5300 107.0900 106.7000 106.7900 106.8700 106.9600
