118.3000 118.3600 118.0200 117.8200 117.4400 117.2000 116.9200 116.9200 116.5900 116.2300 116.3000 115.8600 115.9000 115.9200 115.9300 121.2100 115.0700 116.2900 116.2900 98.9600 98.9600 97.7100 98.6900 98.6900 117.8000 117.8000 118.0300 118.3500 118.5800 119.1400 119.4300 119.6200 119.8600 115.4500 115.4500 120.7800 121.0000 121.2100 121.6200 121.8200 122.0300 115.9700 115.4600 116.2900 123.1200 118.4000 106.9800 101.7900 117.1700 124.2600 119.3600 112.3900 102.8500 103.0000 103.1400 103.4100 103.5500 108.1000 112.3700 104.0700 116.9100 104.4500 125.0700 126.5100
118.1800 118.0881 117.7797 117.4757 117.1803 116.8963 116.6264 116.3759 116.1392 115.9353 115.7612 115.6253 115.5219 115.5007 115.3728 115.3576 113.4350 115.6010 115.8391 102.4709 96.8331 95.7424 92.2046 112.8027 118.3320 117.5735 121.0209 108.3035 96.3499 116.5537 122.3432 120.3414 108.1349 105.3454 122.4560 120.7924 113.2751 111.7286 113.9983 122.6133 114.1157 114.1055 113.8184 120.3293 123.5896 110.2245 107.4118 106.9588 115.4125 119.1213 120.2330 114.6422 101.9635 103.0308 99.5927 103.3134 110.9503 105.4105 113.5761 110.7324 113.0769 105.1959 129.1758 126.5100
118.1800 117.7439 117.4034 117.1115 116.7728 116.4363 116.1291 115.8496 115.5834 115.3538 115.1506 114.9998 114.8805 114.8267 114.7529 114.3679 114.8299 115.0123 115.0845 113.6409 99.6733 95.8507 99.1698 113.2250 119.4283 119.6714 115.4167 94.3573 108.9161 119.8690 104.1032 105.2804 97.8648 98.4829 106.2054 104.6665 115.2371 105.6577 98.0963 116.5677 112.5078 118.2750 120.9414 121.7413 122.5674 115.4272 103.9704 101.9038 111.7287 116.9375 120.9018 121.1970 108.5340 106.3182 120.6059 105.6236 108.1038 104.2809 108.0774 108.1532 112.9843 121.8126 132.4361 130.6600
117.6300 117.3971 117.0431 116.6120 116.2968 115.8635 115.6202 115.3196 115.0033 114.7389 114.5030 114.3234 114.1918 114.1098 114.0766 114.1664 114.2321 114.3819 114.5317 94.9336 93.4984 107.4484 100.1943 114.2598 97.5937 97.7776 106.3712 107.0258 110.7092 112.8869 94.4852 112.7026 97.4190 103.5140 104.1660 122.7065 109.7210 97.5544 110.4899 114.1019 112.5135 120.0951 106.0528 115.2771 109.0075 107.8969 101.2265 103.8504 108.9619 111.0903 110.1676 119.5424 121.8151 118.4440 98.6558 106.1965 106.3475 103.4832 103.2959 101.0581 133.0268 118.5168 116.7566 133.9300
117.1700 116.9819 116.6321 116.2389 116.5178 116.5696 114.9328 114.7297 114.3830 114.0808 113.8082 113.5960 113.4346 113.3430 113.3311 113.3801 113.4890 113.6151 113.9640 99.2284 98.3320 102.0763 106.3424 116.9868 113.4825 116.3505 118.5367 106.5639 125.2390 117.1408 114.9362 117.7574 107.5148 116.4265 117.7312 111.5622 97.5524 114.6255 120.8559 117.0334 115.7599 117.4563 104.0638 112.6738 106.4229 101.3555 101.4149 104.9063 102.4206 119.0670 117.8645 106.9821 118.5369 123.7776 133.3889 113.0297 116.4957 106.5318 104.2367 104.2470 109.0305 127.3118 130.6523 134.5500
117.0600 116.6957 116.3413 116.4215 109.2031 112.4439 114.7653 114.1185 113.7409 113.3862 113.0625 112.8047 112.6215 112.5028 112.4824 112.5433 112.6897 112.8835 113.9105 114.3865 96.3600 93.4963 104.3553 115.7155 115.6853 116.5486 116.7473 115.9090 119.7142 117.3157 121.3734 117.2088 117.6371 120.5636 118.0099 102.6160 109.8148 118.9499 114.7996 115.0610 106.9632 111.3304 108.9152 100.9956 100.5223 101.3163 101.9342 116.1771 113.4546 103.4205 122.3332 123.0032 122.2496 126.5435 109.5449 112.7658 119.2297 110.4422 103.6948 103.3269 105.2142 108.4747 121.9584 126.2000
116.5800 116.2516 115.9366 111.7006 114.9660 114.4990 113.8614 113.5346 113.0439 112.6363 112.2574 111.9439 111.7105 111.5762 111.5489 111.6262 111.7952 112.1073 112.0338 112.8929 113.5961 114.4086 114.8272 114.7057 114.3378 116.2304 115.9215 116.6029 116.9532 117.5514 117.8154 118.1791 119.8803 104.7451 122.8470 117.8296 104.8704 112.6806 112.0437 112.6483 111.4096 98.7155 99.8784 99.7501 100.2561 103.7733 112.4233 120.6061 122.8601 101.4640 120.7012 108.2840 116.2495 133.0692 102.1279 114.8917 119.8237 101.7235 103.6086 106.1414 102.1226 124.1387 103.2794 106.3700
116.4800 116.0008 115.7165 114.5589 114.4603 113.9136 113.4143 112.8583 112.3310 111.8340 111.3763 110.9970 110.7113 110.5397 110.4997 110.5968 110.8176 111.1138 111.9839 112.0914 112.4987 113.1416 112.7337 115.1386 107.6895 112.8186 115.6660 116.2551 116.7104 117.1713 117.7090 118.2208 117.3563 116.9041 109.9531 104.2325 100.1518 105.7235 111.0121 107.2681 114.8485 114.1674 101.6924 105.8842 119.4595 119.9121 120.1418 101.5424 112.0448 124.7863 124.3572 125.2165 123.7691 100.3699 102.6596 103.3116 103.0032 106.2979 106.6513 104.3250 110.5194 128.1781 104.3454 108.7900
115.9900 115.7070 115.1137 114.5617 113.9939 113.4275 112.8131 112.1881 111.5772 110.9754 110.4309 109.9529 109.5805 109.3634 109.3112 109.4360 109.7200 110.1426 110.5869 107.3322 112.0460 112.7448 110.1288 112.4828 114.2043 115.4544 115.3069 115.9304 115.9193 116.9911 115.9714 114.2709 96.2142 118.5807 108.6317 100.1260 107.1316 106.2976 108.1924 106.8864 108.4725 108.9782 116.6464 111.7728 107.8927 116.9128 100.0943 122.0112 122.4783 121.6459 105.2606 112.2509 101.4609 103.0344 103.0516 113.6538 106.5583 106.6414 105.3958 104.6570 106.4340 106.1266 108.9688 107.4600
115.8800 115.3897 114.8243 114.2162 113.5777 112.9073 112.2212 111.5095 110.7883 110.0665 109.3890 108.7781 108.3066 108.0030 107.9274 108.0989 108.4797 109.0117 110.1182 110.1758 111.1787 111.7237 112.9003 112.1620 113.8635 114.4008 115.0725 116.0125 113.1903 117.7533 105.7664 116.0799 108.8140 117.0884 100.9935 109.0908 103.6410 104.6794 115.1754 103.8936 103.4112 104.3402 96.4622 114.0742 115.9810 120.9490 106.7997 104.1207 118.1828 121.1021 112.7437 102.0280 102.6630 105.8210 113.7643 104.1072 106.0769 105.3275 111.0869 109.0594 128.8407 113.9306 114.2206 104.4100
115.3700 115.1457 114.5011 113.8490 113.1614 112.4198 111.6473 110.8313 109.9817 109.1171 108.2524 107.4631 106.8148 106.3881 106.2913 106.5311 107.0696 107.7908 108.5755 109.4329 110.3419 111.1505 109.6135 111.9124 113.5083 114.1508 114.7750 115.3996 116.1190 116.3156 119.7547 104.0413 109.6487 117.1370 103.2612 107.4621 111.6224 101.3107 118.3029 99.5249 110.6518 119.8147 101.5750 99.6279 107.0077 105.7733 111.9513 121.2898 120.5221 104.0918 113.9229 102.7398 102.9253 104.7404 102.2874 102.8945 104.6545 105.9800 121.9631 121.5937 124.7096 114.9736 115.2868 104.4000
115.1900 114.7031 114.2328 113.5191 112.7784 111.9674 111.1020 110.1796 109.1754 108.1304 107.0544 105.9778 105.0647 104.4265 104.2694 104.6530 105.4154 106.4217 107.5193 108.5847 109.5018 111.2224 101.4231 107.8677 113.2529 113.8270 114.5078 115.0757 115.5800 116.4554 114.0720 121.4023 126.1497 105.2898 98.0513 97.8423 101.3025 104.8375 110.5221 99.8535 99.0952 102.0695 104.3030 106.1672 110.9823 110.0155 110.9412 115.4272 114.8210 110.9442 103.2599 101.0363 100.5905 108.2951 102.3226 102.9117 103.8842 114.7474 120.1044 116.7668 125.4941 128.0783 118.0421 115.4600
115.1200 115.5917 113.9714 113.2420 112.4440 111.5658 110.6115 109.5649 108.4141 107.1440 105.7660 104.3254 102.9289 101.8871 101.6206 102.2570 103.5083 104.9267 106.3597 107.6798 108.9247 110.5704 105.8268 110.0930 112.8097 113.5538 114.2908 115.0095 116.0239 115.6619 106.0347 107.0837 100.5376 112.1284 101.4993 104.3785 104.5670 107.0804 110.1468 99.0616 99.3764 98.8652 101.1756 103.8111 104.0289 105.8437 105.2527 111.0132 106.8980 108.3258 106.6312 107.0633 107.9654 109.1423 103.1987 112.4546 106.2992 111.9425 121.5154 122.5840 126.6816 126.7904 112.0476 114.7000
115.0700 109.0873 113.9061 113.0578 112.1610 111.2297 110.1994 109.0365 107.7307 106.2294 104.5036 102.5253 100.3558 98.4137 97.8360 99.2869 101.2428 103.3962 105.2575 106.8817 108.3207 109.4640 111.0962 111.8759 112.5383 113.3599 114.0279 114.2878 112.6542 126.8706 102.0462 108.2621 113.5758 109.3779 109.6736 101.5220 106.5100 116.7072 111.3924 107.3263 98.8784 99.4403 102.7724 105.2740 105.3353 107.0801 105.3312 106.5956 108.1604 110.2387 108.4900 110.7012 102.1612 102.6909 106.8089 110.8993 101.5303 111.7479 115.1801 127.9098 126.8739 123.8061 109.9085 112.1700
115.0300 110.5141 113.9941 112.8609 111.9640 110.9876 109.8928 108.6415 107.1906 105.4733 103.3945 100.7108 97.3216 92.6308 91.2598 94.4402 98.9209 101.9332 104.3204 106.2419 107.8392 109.1459 110.2857 111.3722 112.3360 113.1792 113.8895 113.4682 118.2653 99.3104 94.9831 100.7521 98.3922 101.0720 99.5842 100.8366 108.1603 117.7356 105.6751 101.7535 98.9863 100.0774 102.4687 103.9502 104.4828 106.1123 109.2978 106.0134 107.6832 101.3023 107.8210 116.0792 101.1596 104.9727 103.3442 116.5652 102.4911 104.6329 122.7324 124.0559 124.0033 120.6398 104.8436 104.3700
114.5400 114.8222 113.7006 112.7748 111.8552 110.8485 109.7131 108.4109 106.8692 105.0086 102.6628 99.4123 94.0336 87.5743 85.8624 89.5198 96.9476 100.9081 103.7164 105.8435 107.5494 108.9901 110.2286 111.2892 112.3057 113.2067 113.9778 114.6864 115.8358 111.8992 111.2639 113.6802 107.3283 98.5216 104.4322 100.5637 114.5345 109.8441 101.6874 100.9517 100.4711 104.2068 104.2219 104.8092 111.2773 113.4151 113.7792 113.1429 114.7305 115.4505 100.6626 118.1335 112.6358 118.3074 118.7697 108.1028 105.9799 123.5552 107.0229 123.8399 123.1959 116.4898 109.6445 104.3700
114.5300 114.2850 113.5345 112.7388 111.8396 110.8261 109.6862 108.3616 106.8108 104.9277 102.5072 99.1505 93.3245 85.9523 84.2604 88.4032 96.4689 100.7068 103.6010 105.7705 107.4989 108.9417 110.1744 111.2667 112.1126 112.9091 113.5992 114.4021 115.2847 116.4985 114.9782 118.4420 109.0141 98.5433 105.0953 100.1486 117.0371 107.1161 101.8720 101.3586 100.6916 111.0277 104.4013 104.0123 111.9481 113.4458 113.1241 114.3960 107.6630 113.3081 100.6263 102.2810 102.3959 102.4710 103.1533 103.0086 107.3243 112.6232 106.3276 124.9580 123.4665 114.7465 105.2825 104.3700
115.0100 114.3557 113.6157 112.8040 111.9069 110.9193 109.8016 108.5171 107.0229 105.2376 103.0169 100.0704 95.9142 90.1352 88.6529 92.1419 98.0394 101.4272 104.0179 106.0361 107.6857 109.0829 110.2901 111.3493 112.2775 112.7824 113.7280 114.3064 115.6343 116.0201 116.1494 115.0113 101.1932 97.2651 96.3670 100.5697 100.3105 106.0610 99.4026 103.7461 107.2125 106.8455 107.7497 110.6313 113.9735 114.4409 114.7492 116.5309 117.3445 100.8233 101.7567 102.2545 102.3869 101.9767 117.1699 105.6902 105.4688 105.2096 105.8856 113.3291 119.6857 119.3593 126.5647 115.7800
115.0400 114.4533 113.7205 112.9337 112.0781 111.0770 110.0823 108.8699 107.4725 105.8913 104.0003 101.7133 99.2261 96.2765 95.2276 97.4931 100.2413 102.7531 104.8313 106.5854 108.0855 109.3814 110.5171 111.5153 112.4560 102.6719 89.8043 90.3403 108.2153 113.9844 114.9847 115.5230 107.8786 117.4245 96.7346 117.3703 101.6350 116.0293 98.2462 104.0137 106.9801 106.9706 107.5936 108.1813 113.2237 113.7615 111.8649 117.4822 106.8553 103.3012 100.7337 109.6316 102.3417 105.1392 105.5075 106.0838 108.0712 105.6797 123.4939 105.7089 108.1402 108.7174 108.3388 126.7200
115.0800 114.5926 113.8990 113.1559 112.2597 112.0173 110.4750 108.7688 108.1890 106.7489 105.2367 103.5422 101.8782 100.5737 100.2002 101.0353 102.5860 104.2826 105.8797 107.3364 108.6397 109.8092 110.8545 111.8171 112.6482 120.9448 97.5761 95.0925 94.2459 92.7618 95.6515 96.0400 99.2554 98.7766 100.0715 99.3188 97.4922 108.3471 96.5607 98.2723 98.9700 100.9742 104.0420 112.4532 115.1587 109.5727 112.3076 111.7118 113.4956 120.2831 112.1695 102.3083 101.8898 102.2511 102.8680 101.3246 120.3488 105.9457 105.9561 111.2069 113.0453 113.7243 114.9417 110.9400
115.1500 114.7844 114.1047 113.3794 113.1963 104.4961 114.5515 107.1172 109.1493 107.6779 106.5041 105.3036 104.2047 103.4178 103.2148 103.6952 104.6413 105.8031 107.0210 108.1961 109.3042 110.3432 111.2914 112.0997 112.9115 112.4235 118.4060 100.3145 99.4077 98.3050 107.5872 99.6243 106.6534 101.2662 102.7838 103.2331 102.1190 109.4472 96.5093 99.0412 102.7350 105.4292 109.9432 113.2932 112.7522 103.0184 116.0113 112.6281 112.1631 104.4231 117.1993 107.5263 106.7275 102.1422 102.0500 103.1517 102.1000 103.3386 103.3798 111.6326 121.4789 127.7246 122.7945 127.1000
115.7200 115.0248 114.4184 113.4685 114.1452 96.6933 112.9972 110.5693 109.6160 108.7143 107.7574 106.8371 106.0961 105.5967 105.4703 105.7677 106.3902 107.2283 108.1458 109.1000 110.0224 110.9111 111.7207 112.6401 113.8020 113.1452 116.3816 97.8672 97.0194 97.9431 111.8588 98.8265 114.5506 97.1080 98.0021 101.1375 107.0672 96.4320 97.7852 98.2166 100.6882 104.9124 115.0017 112.0530 111.2836 110.4868 116.4566 110.0359 112.2355 115.4753 110.4243 101.3420 100.5650 105.3129 105.4864 106.9036 103.1720 109.5444 111.8267 112.3502 108.5667 110.0821 104.7538 108.6700
115.7200 115.2722 114.5327 113.9745 113.6572 113.7944 111.8444 111.2068 110.4421 109.6707 108.9228 108.2329 107.6861 107.3401 107.2560 107.4538 107.8932 108.5106 109.2318 109.9945 110.8007 111.4995 112.8023 113.7835 109.1727 115.9431 117.9418 100.2202 100.2440 98.5802 95.9055 101.5002 99.0097 104.8304 104.8324 98.2863 96.1099 97.3681 99.6190 100.9152 101.9266 102.8345 113.9921 112.4423 113.8538 118.7356 118.7359 119.5362 120.7522 121.8858 114.0151 114.9202 116.1131 118.8418 118.4241 117.1058 110.3138 113.3979 115.2053 120.0976 111.1175 120.0678 117.2013 109.6600
115.8100 115.5434 116.1523 115.6698 113.5577 112.8871 112.3816 111.9046 111.2564 110.5912 109.9793 109.4683 109.0579 108.7992 108.7381 108.8725 109.2020 109.6743 110.2365 110.8508 111.4623 112.2706 111.9425 110.1531 110.7797 102.8906 108.9763 99.9936 98.2744 99.1683 98.9796 102.8630 98.7621 111.6226 110.0632 99.8000 97.3212 105.1045 105.8189 103.7461 103.7921 104.0484 108.4440 116.5348 109.0391 111.1594 112.1110 111.5441 118.8755 119.9602 122.7459 108.8813 123.6743 124.3372 127.1350 124.2813 119.6973 119.9250 120.7146 119.9059 122.3914 126.1333 127.8880 126.1200
116.4000 115.9534 111.3899 111.5800 114.2669 113.7971 113.1824 112.5766 111.9718 111.6658 111.0703 110.5582 110.2416 110.0504 110.0032 110.2255 110.3491 110.7115 111.2059 111.7012 112.2567 113.1663 109.8288 109.0827 108.0369 98.1641 95.6776 98.8055 101.5442 100.2828 101.5302 103.1851 104.5563 117.2043 100.3833 96.6931 103.1785 105.0385 111.1698 109.5465 111.8137 111.3527 108.3576 113.4140 114.4544 105.2991 106.6406 108.5021 120.2323 120.5447 112.2503 121.2894 123.7771 125.6048 107.7948 121.1918 127.0505 126.7819 125.9967 126.5541 125.7583 125.7796 126.2842 126.4700
116.5200 116.1675 115.2258 114.8481 114.8605 114.2440 113.6871 113.7824 112.5574 112.9575 111.5236 111.5847 111.2920 111.1522 111.0864 110.3102 110.9138 111.6938 112.0636 112.4827 112.9962 113.0576 113.0111 94.8619 96.6003 100.3618 97.2850 96.0525 96.8650 101.1466 101.4923 102.6124 105.9550 101.9648 99.0338 108.7608 108.4914 108.2093 110.1803 106.0706 108.1694 99.7561 100.9015 111.7917 114.0874 113.0095 115.7849 113.7391 111.3742 111.1465 110.3736 112.7562 105.9629 104.5510 100.0376 102.0747 107.1282 120.4647 124.3814 125.3832 125.3122 126.2495 126.7433 126.9000
116.9800 116.4699 116.5234 115.6016 115.1649 114.7651 114.3165 113.7443 103.9383 107.6139 112.9859 112.4583 112.2386 112.1349 112.0047 112.1415 111.0604 112.5279 112.8696 113.2303 113.4997 115.0461 113.6133 116.5501 99.0399 98.9105 95.6530 103.5910 100.8772 101.4397 97.0207 103.7246 104.0459 100.0747 102.0972 106.5140 105.8656 107.4491 110.3360 110.6192 100.7937 112.0733 104.1914 99.8798 115.9016 114.8709 115.8921 118.2066 105.9824 107.9997 101.7789 102.6768 102.4439 103.7763 117.6370 123.2565 99.9691 111.6410 125.0522 125.3118 126.0984 117.2974 126.1039 126.5000
117.1000 116.9069 116.4939 116.0167 115.6574 115.2785 114.8283 114.8734 114.0873 108.3486 113.7367 113.2965 113.0880 112.9863 112.9803 112.9907 113.3142 113.3100 113.6064 114.0207 113.9690 115.3511 109.9151 118.3625 105.3567 93.1522 96.2086 97.5907 104.1961 102.5807 110.6653 96.7229 106.9632 104.1088 116.1723 97.4593 107.9852 107.8996 107.2624 107.5066 110.5665 111.3656 112.8046 113.2185 114.4718 115.0000 112.5005 116.2945 112.6267 107.3364 102.2414 101.7333 102.7533 102.8128 102.7818 103.7830 101.8878 114.8485 125.3348 125.1532 125.1436 126.6859 126.8004 126.9300
117.5400 117.2537 116.9063 116.2754 116.3084 115.7296 115.2023 114.4415 114.8528 114.6191 114.0926 114.0663 113.9019 113.7865 113.7634 113.8240 113.9075 114.1242 114.3842 114.1305 115.4598 114.2034 101.2836 101.3888 114.3959 94.0845 99.2598 101.6199 101.6087 100.8738 103.7267 102.2792 97.5820 97.4120 108.2545 101.3218 97.9676 108.7218 108.2476 109.2571 110.2491 110.3910 111.6812 112.2926 114.2917 114.0499 115.7057 112.2158 99.7763 101.8245 102.5837 100.6371 117.7648 101.0214 104.4253 103.6003 105.3779 103.5183 114.2880 122.1759 124.3714 125.6225 126.0955 126.5300
117.6700 117.5560 117.4633 114.8357 115.6817 116.2533 115.9228 115.6999 115.3369 114.9928 114.9035 114.7260 114.3992 114.5676 114.5143 114.5433 114.6366 114.7730 114.6737 116.7247 110.9773 113.4358 114.8664 98.3647 97.1678 102.7782 98.6674 100.6406 100.8055 102.1287 103.4549 104.8127 106.6929 109.8105 99.9278 108.0512 96.5954 106.3042 108.3553 109.7983 110.8186 111.2077 112.1808 112.8678 112.0489 106.3381 99.8718 104.3617 103.6460 102.3396 102.1476 102.5405 102.4116 101.8734 118.9715 108.4600 120.8748 117.6158 107.4912 102.4762 101.8441 115.0864 115.6159 118.6700
118.1100 117.9630 117.6164 117.4396 117.1140 116.7010 116.4050 116.1481 115.8975 115.7159 115.4631 115.3304 116.0850 114.7694 115.0022 115.1803 115.2968 115.4321 115.4450 113.7884 111.7830 117.0958 99.1657 99.8889 111.7217 103.8518 103.5366 97.7332 101.9628 104.3469 103.7871 104.7100 105.2013 107.0492 104.6192 98.9834 99.9533 108.6550 109.7991 109.6219 110.0634 111.5528 112.1567 113.1730 106.9274 109.8123 100.5965 101.6073 102.1398 102.2451 102.5652 102.5720 102.6714 104.2058 103.5693 104.7702 103.9929 104.1173 120.1418 105.8899 109.9736 104.5958 103.5090 124.4300
118.6100 118.2923 117.8523 117.6406 117.2611 117.0572 116.8402 116.6742 116.4677 114.7478 116.9332 116.7418 102.0914 130.0349 115.7254 115.7770 115.8827 115.8973 116.2735 116.5371 114.8260 118.7314 97.7299 100.1424 95.1334 102.5582 124.2934 97.1484 104.5264 109.4176 105.5634 105.1445 107.9901 109.5737 103.9971 98.4184 110.7663 97.3239 106.8084 114.0331 112.5260 112.0872 112.3262 113.6388 101.8157 109.1295 105.8271 100.3759 99.7159 102.2264 103.4021 104.5695 103.4803 104.1677 104.6688 104.5552 105.6839 106.2246 107.0406 112.7900 119.3568 112.2328 108.6735 104.7600
118.6100 118.6625 118.3791 119.4044 113.0873 115.7829 117.2434 117.1854 116.8338 116.1911 110.2966 111.0740 107.5660 108.4441 116.1896 116.4093 116.8242 117.5226 116.7115 114.8346 117.4694 118.8595 96.0539 96.2412 96.8607 108.6039 104.7253 98.4364 101.3670 105.1580 100.9157 101.7965 110.5035 103.2066 102.4490 97.7379 113.2058 106.5340 99.4360 104.5358 109.2313 114.5008 110.1579 111.3237 100.1754 105.9417 112.5677 102.1726 118.9849 101.9315 102.6569 103.8726 105.2208 105.9889 105.2126 104.9108 105.1471 111.7133 106.5636 104.5005 106.3080 106.4379 111.8958 107.5100
119.0200 118.9681 118.5784 118.1031 104.0120 113.7579 117.8923 117.7263 117.4451 113.5942 115.4052 113.3627 118.1053 117.1494 116.9660 116.9147 116.8264 107.7195 119.6760 115.7945 118.3368 105.2757 96.5643 100.6841 95.8918 100.2561 100.9312 101.8224 106.7169 104.5849 101.5744 97.3825 99.9205 97.6877 99.5488 108.2378 104.9374 111.9906 108.8887 102.1525 107.3489 107.0747 110.7660 101.9370 99.8258 100.8756 101.8813 102.7562 93.1969 101.4998 103.1255 102.8845 103.5566 104.5252 105.6067 107.4395 107.0189 109.5542 109.9537 115.8942 116.8239 110.7303 107.1370 110.3200
119.4300 119.3189 119.1853 118.9733 112.0971 112.6552 117.8818 119.0965 98.5610 97.6076 116.5018 117.5864 117.2295 117.3607 117.4501 117.4421 118.7202 107.6579 108.6251 116.4131 106.8054 111.2252 114.3824 100.1711 100.4607 95.8211 107.6172 101.3631 121.0878 108.1965 108.1489 104.9861 105.2683 101.0103 99.1505 105.6127 109.8301 112.4467 112.1993 118.6737 117.8050 109.4064 99.9048 101.7149 107.3723 101.1790 100.6133 101.1048 102.8447 103.1238 103.9392 104.0160 105.0448 105.0559 105.1892 105.6897 107.2753 107.6408 108.6541 113.8512 114.8624 108.1995 121.0206 108.7000
119.8300 119.7889 118.3660 116.6326 120.0618 119.0895 118.4849 119.7778 115.9246 120.4607 118.1852 117.9714 118.0577 117.9772 117.9486 117.9856 117.5047 118.0849 107.9192 120.1830 117.8398 119.7310 118.5103 106.3095 106.0128 98.1606 102.0941 103.4443 104.9908 105.8240 115.3524 109.7327 108.5843 108.9012 104.4692 106.3569 109.8932 112.0513 112.4924 115.5685 116.4051 110.7443 103.4924 106.8887 104.3272 102.5761 114.2059 103.4318 103.4749 103.2459 103.9109 104.4594 105.0523 105.8320 106.6353 106.6691 107.1443 109.8411 108.4024 108.9485 109.1790 110.8300 113.9413 112.2000
120.2000 120.6317 115.3791 112.7636 120.3701 118.9837 119.0545 118.7378 118.8413 118.3275 118.5471 118.4745 118.4210 118.3976 118.4012 118.4223 118.3455 118.5241 118.4788 115.3577 119.5916 118.5851 119.4400 105.9348 102.2033 107.1993 100.3568 107.5401 106.1089 112.4966 107.8737 101.3503 109.1498 110.0487 108.9605 111.7361 112.7629 112.6456 113.2700 114.1390 113.8767 118.0559 103.1900 102.8303 111.2332 115.1411 103.7739 102.6901 104.3930 105.1626 105.2016 104.6633 105.2443 105.8868 105.9988 106.8828 109.1589 108.6368 108.0722 108.0305 115.4816 110.5511 111.6033 112.4000
120.5600 116.5398 107.8187 110.5024 108.8675 120.7357 119.4543 119.2958 119.1650 119.1223 118.9836 118.9159 118.8696 118.8462 118.8318 118.8545 118.8892 118.8856 119.3953 116.4148 119.4475 119.4240 119.6353 119.9762 104.2890 109.4152 99.7603 104.4897 111.1087 106.8798 111.5206 111.3824 107.1280 108.9611 111.3455 111.8034 112.4314 113.0009 113.9008 114.4281 114.6719 121.0295 99.6377 102.1095 102.3096 102.7741 101.7531 103.1752 104.1106 104.9106 105.8228 106.2002 105.5746 105.6573 111.7824 108.7582 115.8535 112.9331 119.8965 110.3082 110.2226 109.3967 110.9332 111.8300
120.5600 117.1645 104.0103 120.4108 111.3435 121.4024 119.8247 119.6875 119.5535 119.4490 119.3889 119.3247 119.2789 119.2626 119.2516 119.2615 119.2968 119.3539 119.4743 120.0207 119.5865 119.6031 119.9027 117.2764 99.0663 109.6471 99.0153 100.1601 110.0227 106.2940 114.4148 119.8841 106.3134 100.3241 113.0324 112.1494 113.1431 112.9692 120.9723 114.0018 115.0689 117.8388 111.4738 101.4312 102.2335 102.2837 102.2900 102.1782 102.5620 104.2892 105.2808 106.3763 106.9353 107.5048 106.8724 107.5254 111.8099 115.0205 114.7381 116.5279 115.7520 111.2975 121.5636 118.3600
121.2100 122.8940 121.3787 120.3417 120.6591 119.9072 120.1407 119.8397 119.9506 119.8436 119.7746 119.7162 119.6766 119.6565 119.6536 119.6619 119.6952 119.7459 119.5598 119.0793 119.9949 120.3800 119.3207 120.9448 112.2437 114.8269 110.6997 100.4161 110.8003 111.2604 116.2137 105.0167 100.9622 99.5681 108.0135 112.7399 113.2743 113.9624 106.2888 105.2740 116.0359 116.0636 104.5571 101.4191 102.1769 102.4461 101.6364 108.7913 104.1038 102.7211 105.2868 106.5403 106.8564 107.5049 108.0551 108.0888 113.9325 109.7447 111.1409 115.3257 111.1172 112.9969 116.3707 112.9100
121.2100 120.8620 121.0096 120.4246 120.8214 122.2091 120.1267 121.8244 120.3009 120.2001 120.1442 120.0970 120.0556 120.0346 120.0312 120.0380 120.0715 120.1172 120.0257 123.9426 120.0661 119.9792 120.5655 120.1700 122.2115 114.3899 107.6340 112.2084 111.9365 112.8021 115.1597 114.3007 105.0735 100.0588 100.9436 109.1631 118.1472 115.8163 111.1818 113.0573 118.7208 112.4452 119.3023 104.4807 102.0594 101.2875 101.8972 118.1125 111.0222 105.9534 107.5912 107.6688 105.9694 108.1490 109.2987 109.7246 109.3668 108.4732 114.6532 110.9775 112.8563 107.4327 105.3338 124.4900
121.5000 121.5099 121.3432 121.0195 114.9869 113.3925 101.6735 121.6527 120.6447 120.5436 120.4974 120.4561 120.4177 120.4003 120.4107 120.4137 120.4467 120.4861 120.2845 121.1962 91.1322 125.6987 120.7029 120.8643 121.5813 117.7232 115.2081 105.0304 112.7879 113.8277 113.4380 117.0256 119.0624 99.6355 102.7285 108.5846 116.1075 122.6629 123.4831 121.8871 122.5306 100.3330 100.8826 109.4707 102.8445 108.6147 103.4297 101.7376 101.7092 113.2521 102.8660 103.2466 102.7886 112.6093 112.2114 109.8733 109.6694 109.4264 110.5066 112.5156 116.7756 123.7401 110.4639 112.9400
121.8400 121.7164 121.6133 121.4802 120.8520 122.9065 121.3386 121.1300 120.9941 120.8859 120.8380 120.8031 120.7676 120.7465 120.7191 120.7306 120.7790 120.8252 120.2733 120.8102 106.7729 104.8949 119.2337 122.3615 117.5467 122.9331 117.1222 114.4788 113.1859 102.5250 109.4187 109.9824 117.7131 111.4177 98.6226 103.4925 104.6978 123.4046 120.6399 116.7567 114.6830 109.4921 102.5903 102.2280 104.6101 111.5474 101.7284 103.2429 103.5024 103.9297 104.5393 104.5353 110.4306 109.8705 110.0325 111.9839 110.3072 121.0266 113.1105 111.9585 110.6471 117.1619 110.2168 112.9400
122.1300 121.9973 121.9023 121.6850 121.6400 121.1401 121.3861 121.4087 121.2868 121.2241 121.1681 121.1318 121.1065 121.0939 121.1281 121.1231 120.9518 120.8573 122.4109 122.4256 104.1835 100.0434 120.9432 112.8461 110.4729 123.1966 120.9752 116.8230 115.7069 118.0165 112.5218 100.5125 119.4306 111.7070 101.9647 113.0678 104.9928 112.8828 122.5092 109.2001 103.6369 103.5554 102.1872 102.6625 101.7811 109.8352 111.4253 114.4512 109.1918 102.8546 104.9905 104.5413 107.4527 124.8265 112.8366 111.0071 110.5418 120.1634 111.9894 112.5913 116.4825 115.9519 110.2172 113.2300
122.4100 122.2644 122.1381 122.0500 121.9272 121.8615 121.7561 121.6628 121.5942 121.5374 121.4823 121.4421 121.4203 121.3985 121.3946 121.6398 122.7246 123.1724 122.9900 100.9370 106.7942 102.5828 116.1359 115.2694 106.6934 127.6318 113.1536 117.9472 112.6216 113.8646 106.6195 104.8916 114.4125 103.3696 81.4938 104.1924 114.4671 106.9478 109.7883 101.7161 102.4224 102.0993 102.7003 102.6396 102.7356 115.0713 127.0432 126.0868 122.1723 103.3793 107.0397 105.4880 104.9348 134.1699 119.2522 116.1664 112.3261 110.5274 112.2583 130.0754 121.5871 106.3775 114.0084 105.6700
122.6700 122.5152 122.4124 122.3044 122.2101 122.1043 122.0423 121.9804 121.9150 121.8405 121.8191 121.8075 121.7497 121.5716 121.5823 119.3539 117.4418 119.0532 121.5869 122.0864 107.6614 105.5703 110.3983 103.8237 103.1618 119.4930 111.3984 101.0889 99.1648 112.1369 111.8170 103.7575 99.0863 103.1689 111.0976 102.2573 105.6165 106.9420 107.9904 109.8040 102.1631 102.6147 102.6901 102.7418 103.1453 101.3142 122.6730 120.9661 107.2481 111.4703 104.0644 107.0622 105.9665 130.0103 125.4352 124.9251 119.8456 115.2968 119.8783 116.8146 115.0434 119.8221 104.2597 105.7000
122.9200 122.7717 122.6719 122.5699 122.4714 122.4238 122.2806 122.1622 122.1290 122.1499 121.9410 121.8506 121.9362 122.7915 124.1475 109.2266 110.8769 107.5313 115.6061 100.9950 116.7537 105.4983 113.7978 102.1079 110.6237 116.0620 120.1858 110.5830 99.7632 106.7638 114.2961 108.4322 103.7697 101.8719 104.9673 101.5442 103.8299 107.5218 107.6575 104.3147 101.5663 102.7336 102.8691 102.9133 102.3800 114.8200 111.3104 106.0647 103.5410 106.9802 103.9806 105.3716 107.8459 111.7902 119.6142 105.4352 130.7464 128.4706 120.2942 116.8949 116.8888 118.1300 130.6111 114.3300
123.2000 123.0203 122.9241 122.8275 122.7688 122.4669 122.7448 122.7721 122.5220 122.5310 122.4919 123.8193 122.8809 114.1275 117.8519 118.0618 124.7090 107.1033 115.7690 106.4815 117.8031 107.0613 110.8253 106.2953 127.6594 104.3570 123.3002 124.3527 107.7668 113.7517 122.2603 110.1930 100.0752 101.8099 101.5120 102.4819 100.8098 106.5934 110.0295 107.8344 112.8354 105.2621 102.3236 103.5042 103.3272 104.6420 107.0306 126.0802 107.6946 103.6195 104.1576 104.9334 105.5963 107.4568 109.3466 118.4337 135.0185 133.3921 133.3043 129.6056 110.4802 116.0552 118.7595 113.9200
123.4400 123.2617 123.1691 123.0744 123.0004 122.8782 120.7946 118.3483 122.8030 124.7293 104.0225 123.8329 121.7753 113.4364 102.3260 102.6712 118.5733 113.1582 110.0110 123.3146 116.3499 107.7582 109.5408 107.1700 124.0430 122.0972 125.7068 121.9295 121.5879 104.7810 103.7785 109.5536 102.4582 103.1333 104.3320 101.8958 104.0228 123.7201 121.0906 106.6091 112.3968 109.3546 106.1373 109.8094 102.2076 104.5213 104.2225 106.1541 121.1009 109.4784 104.2461 104.0545 104.9132 128.4847 117.1081 108.1584 127.0790 133.5518 133.5507 134.0028 133.1828 118.1415 112.4963 110.4600
123.4400 123.4943 123.4106 123.3434 123.2444 123.2597 123.3551 123.0873 122.6051 122.2244 121.4953 122.2267 124.5069 110.3557 97.5352 104.7256 107.0946 112.5009 110.9449 121.8659 116.7006 110.1783 109.7998 121.0718 121.7059 108.3500 110.2572 123.1728 123.6123 117.2904 104.1247 115.2612 110.4772 109.6128 105.1278 105.6212 99.4493 119.5858 104.7349 110.1589 111.3298 113.1327 105.6312 110.6138 102.3604 112.8775 133.7114 112.6383 104.4009 104.9754 107.1196 116.6805 111.9557 124.4130 133.3950 133.5671 133.4800 133.7742 133.9571 134.1760 134.1146 136.7017 114.1867 123.1200
123.6800 123.7295 123.6480 123.5222 123.6378 122.4408 124.4971 123.3514 123.4854 108.6446 122.2022 123.4092 122.1905 116.2625 107.5360 105.3952 117.9262 107.4367 107.9233 125.1652 112.2965 110.6470 112.2938 111.7138 117.9997 111.0709 110.0660 121.1178 124.2809 106.8547 103.0592 101.5453 103.2717 101.1228 106.8749 107.4267 104.0174 113.5289 103.9944 108.0656 111.9762 113.1432 106.8230 104.0110 104.9631 109.0875 124.9254 127.2630 120.8653 130.9919 133.2910 132.0931 132.6523 133.9412 132.3778 133.1506 133.2866 133.6218 134.5518 134.9651 134.7685 135.5361 136.6293 135.5300
123.9100 123.9552 123.8778 123.8975 123.3555 127.0249 111.6578 113.0707 124.1402 112.9226 102.9758 125.3691 124.2624 111.7161 117.5171 106.1779 107.5712 108.5329 108.5370 115.2443 115.1587 112.4014 112.5661 116.2155 108.2218 114.5255 114.4888 107.7771 111.1193 113.7116 106.1610 102.0608 121.2683 126.0007 114.1580 107.3348 105.9729 107.6289 101.9396 109.3131 110.1163 112.7952 106.5521 104.1101 109.4051 122.2337 106.6434 125.6750 132.4969 130.9710 131.5186 128.2145 130.9290 133.0441 133.4339 119.1189 126.4147 136.9968 134.0334 134.5913 135.0693 135.4489 130.7200 135.8600
124.1400 124.1742 124.0870 124.0553 125.2696 109.2540 110.7899 126.0552 123.5350 126.3317 119.8961 123.8380 125.2922 107.6038 103.4203 109.6668 111.0361 109.1619 112.5979 110.0958 114.1073 113.5930 109.0635 115.6030 107.4077 101.3111 111.8508 101.2005 119.1310 115.2211 105.5633 105.6476 103.2829 116.0919 117.4553 111.5718 106.5974 106.0722 122.0331 126.7474 107.1347 108.6121 103.3228 103.8911 115.3020 104.2647 110.2599 127.7160 131.4048 131.2607 131.2470 132.1950 131.9684 130.1442 131.3483 114.5026 107.4462 123.1682 139.4787 134.3370 135.3734 136.8697 119.1124 106.3400
124.5600 124.3891 124.3108 124.2597 125.0758 121.3056 126.5755 123.3867 123.9776 123.8216 124.0936 125.2299 109.1921 107.2397 100.1695 110.5980 114.3815 109.8148 113.7287 107.4647 109.4382 106.5464 100.3249 113.4336 116.4282 99.3913 113.7900 99.4156 105.4512 114.8258 112.0621 101.8998 104.9893 121.3766 110.4460 108.7337 109.6872 107.6227 110.9579 110.3094 105.6355 103.5640 103.5637 102.9578 116.2215 118.1572 126.0031 129.6536 131.2350 131.5545 131.4975 129.5443 133.4365 133.9748 127.5606 139.0614 121.8717 107.6551 125.0587 134.6863 134.8051 135.3141 136.1550 106.3600
124.5700 124.6039 124.5220 124.4407 124.1590 124.6169 124.0761 124.3289 124.2330 124.2168 124.1613 124.2656 125.5842 111.2186 105.2280 113.8232 111.4387 111.0005 112.3387 100.8717 109.7848 106.3206 106.9582 99.3850 121.0549 105.4399 108.2033 110.7133 102.5857 107.6392 109.7650 115.2791 108.6538 120.9281 121.9518 105.3582 109.0684 103.4661 108.1287 103.9626 105.3919 112.6122 104.7642 108.3095 103.1571 116.1403 129.0591 125.3678 131.1358 131.2126 131.3668 130.6573 132.6207 132.7958 131.0733 132.9316 134.8352 130.0371 132.6094 135.0006 137.3712 119.3274 147.6130 136.9900
124.7800 124.7056 124.6863 124.7064 124.6471 124.5766 124.5930 124.4977 124.4473 124.4352 124.3365 123.8637 121.8003 111.9720 122.9772 113.3779 113.4504 112.5258 114.0956 112.5441 100.5606 119.6722 113.5490 102.4361 121.8542 113.3527 104.3552 113.2583 101.5119 107.3624 109.4221 106.1115 118.0559 123.1401 118.8360 102.1177 109.4810 103.7590 106.8661 106.6879 103.1597 103.1265 105.5519 126.2535 114.7394 115.3186 118.8407 121.4088 128.9020 125.9304 133.2506 132.2476 132.9142 133.0064 133.6732 134.2688 132.3822 133.0317 134.4568 133.4798 135.5252 117.0038 111.7176 106.5200
124.9800 124.9709 121.8755 123.0877 124.8456 124.7466 124.5353 124.6299 124.6637 124.7055 124.3142 118.3540 122.6613 113.6171 119.9911 117.0619 116.0589 113.9966 114.6131 103.7200 118.2893 121.6749 111.7520 119.6512 114.5179 117.0743 102.1778 108.4342 104.1661 107.0167 110.9439 114.2537 107.8418 111.3013 98.9525 112.4324 105.3909 103.2813 108.5519 122.1345 112.2944 106.1624 104.0440 111.0237 116.2236 120.7134 118.0532 126.0739 125.8337 125.4234 131.2981 133.2954 132.8542 133.2874 133.6741 133.9845 132.8502 132.5909 135.7307 135.5220 137.2663 135.9232 126.8099 106.6600
125.1800 125.1857 125.3943 125.2465 124.9374 125.1091 125.8316 124.8219 124.8859 124.7930 126.5603 122.0187 120.7151 113.7272 108.8726 116.7438 117.2678 111.9201 115.1895 114.8221 115.4661 120.6895 101.0753 102.6250 114.1641 112.9451 109.4624 105.5964 102.8271 103.9038 112.9673 112.2343 109.4457 120.8547 108.8097 104.0407 111.1920 114.1736 121.6719 121.7601 107.5334 103.8757 111.5226 112.7485 113.7657 116.6881 115.9347 125.2258 127.7685 126.9121 121.3248 132.4378 133.2853 133.3176 131.6617 133.1837 135.1349 132.4935 135.3848 105.7643 108.6041 128.2956 140.7136 136.9300
125.3800 125.4113 125.2986 125.3036 125.8553 115.3168 125.1992 124.9939 125.0345 126.9164 109.3568 118.2361 108.8425 110.7840 119.3118 122.8560 119.7288 112.0970 116.9801 119.9228 103.8446 107.5874 107.3875 114.9760 103.6260 109.0383 108.3704 104.7641 103.9149 107.7757 110.0644 111.7315 119.4634 104.0356 111.7978 120.3123 127.7410 122.9527 103.7594 106.3716 110.2779 104.5795 104.7637 106.4829 112.5522 137.0355 124.2913 118.5257 121.4649 127.4593 126.9951 128.9188 130.5438 132.1232 132.0810 132.9077 134.7949 136.0128 119.0316 129.9047 107.9088 106.1431 106.4290 110.1700
125.5600 125.5949 125.5509 125.4904 125.8804 125.7280 125.4369 125.2620 125.3202 125.1474 121.6375 100.9412 112.8866 119.0136 116.2748 117.5071 119.3219 119.7575 117.9692 116.9034 103.5383 105.1952 103.7899 103.0336 103.2149 103.3427 105.6762 115.7593 102.4446 106.9206 105.6062 113.3600 120.3253 106.7593 112.9479 123.7036 122.2846 115.6897 105.5794 116.8260 111.0017 109.5715 104.9007 104.4479 112.7900 125.7985 131.5109 123.8091 119.2001 113.0950 130.7285 126.7590 123.5299 133.1819 133.7725 128.2723 135.2159 134.2684 134.6832 137.0670 138.2650 116.4164 106.5452 106.9300
125.7500 125.7879 125.7257 125.6981 125.5458 125.5193 125.6270 125.6473 125.4938 125.3021 125.4958 121.3896 107.0576 105.2014 105.9481 109.4961 122.4397 118.7339 118.6296 118.1250 120.2817 102.8297 107.2089 102.8203 104.2234 103.8255 103.5550 105.6903 106.3767 102.8722 112.8627 111.7564 113.5462 112.0782 112.3157 119.2289 125.3260 104.5622 111.1422 116.0375 114.5636 105.8925 105.0940 105.4653 114.7273 114.0042 119.1562 121.0247 122.8570 125.4484 129.5446 109.6160 127.8375 132.3583 135.4010 133.0662 136.1531 134.9573 135.0322 135.6752 136.8876 126.6277 105.9450 110.0700
125.9300 125.9718 125.9127 125.8687 125.8400 125.8325 125.7250 125.0687 125.7191 125.6759 125.6602 123.1137 107.9680 117.2671 110.8433 107.5788 106.8881 116.8847 106.5902 119.2180 113.9263 105.2876 103.5552 105.5448 105.9963 105.5670 103.0906 111.7457 106.3145 117.9475 113.0490 116.2640 116.3713 110.0066 105.1150 119.5434 125.8051 123.1726 103.5034 120.8788 119.1130 111.8456 106.7004 103.1773 111.0426 113.3987 117.7414 124.0354 121.4801 123.4103 121.5937 132.1480 129.8638 129.6694 130.0534 132.2649 134.5679 135.8167 135.5033 137.8473 124.5592 108.8587 106.9624 107.0900
126.1100 126.1453 126.0980 126.0552 125.9977 125.7577 137.6016 124.6295 125.8882 125.9451 125.7854 123.5482 110.7452 105.8724 104.7736 102.4796 112.3588 103.3632 103.8395 119.8918 113.6968 103.1531 103.9982 106.5255 107.2098 101.9652 107.4148 111.5588 107.9399 114.5191 108.6022 113.1857 117.3003 113.5789 104.0887 106.9446 121.5789 128.1895 117.2733 117.5870 119.4389 115.8024 112.0247 105.8772 118.0525 115.5794 131.4888 120.2997 126.7868 126.0701 127.6696 129.5392 130.0880 131.2647 132.7441 129.0879 135.8600 135.8226 136.2340 127.0096 101.8063 110.2612 107.3466 107.2400
126.2800 126.3100 126.1800 126.2000 126.0700 126.0900 126.1100 125.9700 125.9800 126.0000 126.0100 126.0200 108.7500 103.8600 103.8600 103.8600 115.5200 104.0200 104.0100 121.3500 121.5500 104.1100 104.1100 106.6400 107.1300 128.5800 104.3100 104.2900 109.1000 109.1000 109.6100 114.2400 115.2600 117.9900 117.9900 108.6600 110.4100 129.1300 105.0700 129.7800 122.9900 117.4300 117.5300 105.4200 116.2400 114.0900 130.2000 130.9800 129.9100 116.3200 121.3700 128.0600 130.8700 130.8200 131.6500 124.6300 135.1700 136.2800 136.5000 106.9100 106.9900 107.0700 107.1600 107.2400
