121.5500 121.5800 110.7900 110.7900 121.2300 121.0300 120.8200 120.8700 120.5900 120.6700 120.6700 120.4300 120.4500 120.4700 114.6500 114.6400 98.4800 120.4700 120.4500 98.4000 99.8800 98.6200 100.2200 103.6200 109.6700 109.6700 106.9300 121.3900 121.3900 121.5600 121.7300 121.9400 120.8800 116.5100 100.4300 100.6200 117.3500 114.2800 120.4200 111.1800 101.5800 101.7600 101.8700 125.6700 123.8900 125.5800 121.7200 123.1400 122.6500 126.2400 124.7000 124.4100 123.7600 124.4400 125.4200 104.0400 127.5400 104.4000 104.5200 104.6400 107.7300 104.9800 139.4000 137.1400
121.5100 111.3795 109.9192 117.9278 121.1472 120.7015 120.7009 120.6209 120.3032 120.2718 120.1916 120.3301 119.9880 120.0341 120.1929 119.4166 99.0679 120.8767 109.7632 98.0929 99.6729 100.5776 113.0645 101.2533 104.7827 107.0160 113.0085 103.7822 105.4704 106.1038 113.0439 117.1372 108.5735 107.3457 101.8227 108.7269 100.2161 108.5344 105.9867 101.7015 110.6500 99.6691 116.0682 122.7738 124.9972 122.2447 109.3959 113.8990 122.1097 123.1085 124.3393 121.8442 124.6417 107.3953 128.6118 106.5948 113.0081 121.6684 103.7788 104.6203 107.9581 123.1069 144.2170 136.3300
105.5500 111.9459 109.7570 110.3934 126.7151 120.0839 120.2360 120.3229 120.4304 120.0460 120.4793 119.7685 119.5490 115.1453 115.5738 119.8604 119.9108 118.6555 95.9742 97.1801 100.9359 96.5178 99.5970 99.0464 99.7633 95.9153 115.1077 96.9055 101.1108 117.0904 101.6777 110.9487 99.8999 99.8830 103.7585 115.3967 104.6932 110.4555 102.4285 100.4591 103.2146 115.8305 129.6471 120.9914 118.3716 115.2578 106.2094 114.4785 120.7041 120.8018 121.3800 119.4951 116.7400 107.4853 133.1351 120.0562 107.6144 107.1359 104.1336 105.5631 106.8472 119.8668 117.8110 109.2100
120.8500 118.8470 106.6019 107.4577 113.1471 120.9155 120.3446 119.6639 119.7106 107.1749 117.2204 119.4492 119.2455 116.4674 115.3381 118.9867 118.7460 117.9759 96.3834 106.8439 102.9609 100.5859 99.1110 103.0823 113.8986 103.0932 116.1061 95.7709 121.1060 105.9254 105.9994 104.4408 98.6436 105.1753 112.5426 116.7804 101.1426 103.6290 100.5297 99.3207 101.5558 125.6294 103.3154 111.8594 110.4126 121.6563 119.2224 122.9635 118.9256 120.5201 121.1782 122.6473 120.2720 125.8426 123.7424 111.6557 107.1324 105.5118 106.0604 107.6606 107.6642 108.4200 105.3781 109.2100
120.5100 111.9533 103.1375 103.1537 107.4672 105.3508 118.8655 120.2538 119.3773 119.6806 120.2351 119.0203 119.0612 119.0166 119.4026 118.9255 118.7974 119.3073 117.7012 118.8376 96.9195 111.7522 95.7787 110.4711 106.9752 115.1870 121.2598 119.6823 118.9480 115.5732 117.9248 111.1716 99.1394 110.0423 108.0331 111.2407 103.7884 100.9495 96.4229 118.7581 120.7386 117.2536 116.7256 102.6762 100.2375 113.1931 127.3006 109.8481 126.9731 119.1837 126.5455 129.6771 125.2480 124.9513 122.8055 101.0922 104.3641 104.7223 107.4196 110.7592 111.2195 106.7349 134.5022 140.3400
120.5100 121.0143 118.2495 98.0239 103.6432 101.3194 103.9401 119.1403 119.0456 118.8085 118.4590 118.6080 118.5879 119.0720 117.8362 118.2627 118.1872 118.2708 118.6762 119.2681 116.7139 96.2482 96.9738 109.5745 117.3135 115.5933 118.9506 120.9669 116.5792 115.0639 102.8922 102.8410 108.3832 105.9548 105.9281 101.5373 99.3192 99.2372 120.8526 114.0833 100.7215 118.5691 112.8083 114.9041 119.5656 124.1640 126.0351 119.5160 120.0323 107.2735 131.4503 122.6016 120.4715 103.1468 105.1224 105.0402 106.5075 107.2715 110.6465 110.0485 103.9606 115.6054 143.5808 139.5600
104.1500 104.8656 100.1329 102.5752 105.1061 105.6052 121.3974 119.7538 118.6982 118.4334 118.4667 118.3606 118.0701 112.8592 119.8019 119.1756 119.6165 118.4532 118.2368 118.1380 119.4986 111.9205 100.1610 93.4926 101.4303 119.0430 119.4964 120.4042 113.0186 120.9227 103.2961 104.1018 113.1590 104.6362 99.3719 98.8271 105.3479 124.8003 110.1551 108.2090 100.3744 108.2179 113.5863 121.5915 123.8670 123.0751 126.2784 102.5533 130.7578 102.1479 122.3280 120.3231 102.3775 103.1171 103.1816 105.9991 110.2708 110.5689 106.9658 115.8685 143.5699 138.5621 126.8755 112.0400
108.8600 106.2668 105.8706 103.3803 103.1309 98.7427 103.7510 118.3857 117.3852 118.1847 117.7355 117.6731 118.1624 111.3014 99.0121 104.7587 108.9874 117.3630 117.7234 117.8003 118.2786 113.3879 102.5327 95.9482 112.7652 128.2632 117.2368 103.3461 118.1718 97.6110 105.7327 102.1159 100.5316 101.7067 98.4622 99.6870 96.5901 117.7964 118.5188 114.1757 111.3433 100.0684 124.2392 122.3232 108.8741 125.0616 122.3876 125.2788 118.5373 116.7578 106.1543 112.8565 102.2823 102.9183 108.5219 110.0223 106.2787 103.8919 102.7716 138.1425 132.0213 138.0410 108.4040 109.4200
108.6400 104.2976 105.7130 106.3323 99.2210 104.5977 119.0761 117.5109 122.9454 116.9216 117.4717 117.3618 110.5274 118.8642 98.2544 96.6335 108.2405 117.2013 117.2549 117.4303 118.1594 114.2501 108.8878 98.2998 119.3391 115.4513 103.1328 120.0635 116.9234 98.0562 113.4383 105.7559 103.8949 100.2262 98.5788 101.1949 121.9679 120.6486 104.4977 114.4747 117.2178 106.7350 119.6399 114.7670 110.0907 127.2639 102.0130 121.7162 126.2065 125.0117 111.6316 104.1175 103.1776 105.1392 103.1679 102.9640 103.7971 104.8843 137.9711 137.5574 138.6040 119.2975 116.6546 104.7500
119.3100 104.9556 104.5324 106.3171 104.2185 95.8098 101.2592 114.0169 102.8947 118.0661 116.9216 111.3520 90.1929 119.4870 102.8202 98.7058 109.7599 116.6094 116.8397 116.5606 117.1798 118.2192 112.8909 114.8620 118.0152 119.9544 118.0235 119.5358 106.4913 117.3610 114.4889 108.5742 102.8034 100.9469 107.7295 118.6071 119.3373 114.6956 112.5918 97.5856 112.6784 99.0107 97.1919 112.1968 119.2708 106.8422 99.2023 103.9894 121.7984 120.7335 110.6968 102.6453 101.7098 102.3110 105.4432 103.4795 102.6955 118.3597 141.2003 130.6907 129.7210 110.8272 109.1122 104.7200
118.9300 118.4204 110.6463 104.1588 100.3868 99.7095 96.6869 94.2966 108.1032 117.3166 116.0516 116.5211 109.6632 118.9699 98.6045 93.9663 108.4650 115.7193 115.2783 117.1861 111.2523 117.4288 111.3282 117.4468 118.0658 109.2742 117.3266 119.6948 118.2893 121.3090 119.8048 113.8373 108.7037 110.8710 108.1789 110.8340 113.6565 106.9804 100.1406 99.0941 110.1870 99.9897 101.6253 99.3975 97.3466 106.4375 115.2463 127.7683 122.5380 110.0320 118.8150 102.0853 112.5263 107.1693 104.1235 103.0686 103.5242 97.7792 128.6705 113.5473 111.1777 113.0175 105.9814 111.7900
118.4300 118.9988 101.9042 102.1127 100.2776 98.9694 94.2775 107.7207 113.4718 109.1944 116.2172 109.7364 111.5749 106.5555 99.4158 97.1877 117.6189 115.8720 99.8761 115.3343 112.6929 115.9300 109.9966 116.1738 111.2707 112.3425 114.2861 118.3489 118.3578 114.3200 100.1304 116.7140 107.9274 102.0532 95.6793 109.6184 111.7637 110.9498 107.7595 98.3296 113.1949 98.4123 100.0211 103.1235 109.7172 125.4317 132.9044 131.7116 135.2037 106.2912 130.2482 107.0538 117.4644 105.3967 102.7916 103.2798 102.7784 113.0800 118.2466 123.5429 121.4526 112.6575 109.8554 112.5200
118.4300 116.5285 115.1463 98.2530 100.8066 102.1457 96.5578 102.9867 92.5566 122.9592 115.3326 115.3960 115.5794 114.6613 99.2182 93.6426 101.0512 116.5969 103.9782 114.6624 115.1555 116.3106 115.2259 115.7104 115.4896 118.5344 107.8268 117.9639 119.4609 112.4272 116.6378 114.9643 100.4909 96.8910 98.0566 112.7992 114.4283 113.1042 112.1278 98.0826 97.7986 102.5860 109.4510 127.1609 119.5737 125.6289 133.9892 131.9547 134.8083 122.3074 127.3571 101.7649 99.2877 101.7863 103.3440 107.2986 102.0399 112.7394 125.8895 122.8914 125.0324 127.5605 112.6522 112.6400
114.1100 112.7381 120.0899 110.8369 112.8759 96.1055 94.6454 92.1809 95.5338 114.4146 114.5424 114.3200 114.1896 115.5362 96.5566 96.0427 117.3678 97.3619 106.6166 114.5282 114.6283 114.9445 115.4733 117.1933 110.7896 119.5261 116.5857 118.1235 109.2267 114.7198 107.5917 101.2539 98.1494 96.1604 107.2504 110.9343 114.3258 112.3626 100.3082 99.1523 108.3861 124.1782 123.1648 120.4208 126.9574 125.1695 131.6634 134.2754 137.7071 111.1403 110.5717 111.5157 100.1166 102.8179 103.5652 106.0246 102.6668 100.4002 126.6998 121.6111 123.8367 127.9096 106.5455 112.4000
102.0400 111.4972 117.1656 116.7108 111.6622 108.1221 93.0969 96.4499 110.8051 116.6774 113.8839 113.6790 113.4872 114.2098 102.5114 99.6557 113.8636 110.5453 105.4326 113.9205 113.4566 117.9124 116.0716 114.9901 96.6667 99.2428 109.0790 107.6576 105.5806 105.1421 108.0503 93.7284 96.9296 95.6846 116.4904 107.7563 115.2476 108.7728 100.1796 104.0416 112.1497 130.5156 129.9376 128.1344 134.8065 133.3251 121.9119 119.4014 121.1192 112.2249 102.0955 122.7890 101.0152 103.4965 102.8275 103.3741 103.7727 100.7861 122.3617 127.5403 128.6602 131.5967 109.6373 104.3600
118.1000 116.5083 116.4857 116.2214 115.6455 116.2871 88.9610 97.4520 97.0391 113.3295 113.3358 112.9235 112.6892 112.4491 113.4198 114.9315 111.2025 115.2753 109.1278 113.2211 114.7475 102.8281 104.2533 112.4442 104.2281 103.2608 105.9845 104.0448 101.4938 101.8381 104.2542 95.0456 111.2358 107.1948 110.3108 111.4238 111.8704 122.7198 98.1810 98.9999 131.4732 125.0059 132.6780 104.5561 116.8214 116.2274 113.1590 118.2670 115.4403 110.3081 101.1835 105.5183 100.3649 101.2225 102.1185 103.0480 99.8107 126.1492 128.8499 130.3618 126.7221 113.0436 110.8508 104.3500
116.9200 116.9884 116.2459 115.8310 115.3732 115.2256 112.3762 111.6152 110.7236 114.8701 112.3879 112.1139 111.8107 111.5724 111.2642 111.0181 110.8607 111.4601 111.7613 109.3606 112.5644 114.7139 109.1628 114.0978 95.9878 99.3778 102.6388 97.5836 104.0869 104.5591 106.3859 106.7107 107.6724 111.5189 111.2146 120.0305 119.9670 117.5346 99.5584 105.5567 114.4007 111.5250 113.3966 112.4442 115.2720 118.4946 120.5813 119.3423 117.7044 99.5691 101.3561 99.8513 124.2641 102.0319 111.7815 102.2390 112.8360 123.1923 123.0554 125.8582 126.5572 124.1409 122.6051 106.8700
116.8100 116.4560 115.9255 115.4415 115.0261 114.3741 114.1265 114.6171 111.1032 112.9174 111.7228 111.2111 110.8432 110.5501 110.3963 110.4232 110.4794 110.6859 111.2678 111.3485 111.9095 112.4061 112.9200 111.9852 93.7022 95.1910 111.8077 104.0602 109.2249 108.6314 104.1108 110.6485 110.0108 113.4080 118.2784 117.2048 124.1576 104.2944 97.8294 100.4119 111.6747 111.4180 111.6261 112.5845 114.7603 115.4922 104.1138 126.6789 122.8730 125.6846 105.4089 103.0130 102.5439 102.4154 102.5784 102.7790 102.4230 119.2158 125.0314 124.5265 122.9872 125.4965 104.3750 127.3400
116.3500 116.2342 115.5490 113.7110 114.6310 113.8551 113.5390 112.8045 112.0688 111.5059 110.8345 110.2879 109.7774 109.4002 109.1664 109.1008 109.2398 109.5509 109.9433 110.5147 110.8907 112.5671 102.5803 88.6860 96.0870 96.7474 103.1833 94.8338 106.5695 92.2752 104.5516 111.7118 115.9415 118.8209 113.5943 118.8998 106.5503 106.5388 98.5593 98.7775 98.8455 110.9486 111.9700 119.3305 119.0401 121.8621 119.8519 118.0973 117.1944 117.8972 107.8835 102.4598 102.8686 102.4334 103.1633 102.5607 125.3530 116.9180 119.2378 118.8297 120.5362 122.6543 126.5637 125.7900
116.2300 115.9746 115.5552 105.2825 110.1407 112.1663 112.8042 112.0832 111.3981 110.8623 110.0891 109.2691 108.5883 108.0867 107.7792 107.7031 107.8840 108.2856 108.8600 109.5382 110.2560 111.8123 105.5359 104.9820 109.0225 107.7427 115.2040 93.6602 94.6704 100.3538 122.3027 113.9637 113.8169 110.4125 103.8811 103.9442 99.2087 98.8874 98.1837 98.5477 118.4225 117.0130 119.3581 119.4817 116.1947 113.2287 118.0886 114.1862 101.8545 103.6376 123.9880 106.4252 106.6418 101.2182 103.8450 114.0833 118.8747 118.7757 117.9744 120.0522 122.6482 124.5579 125.2775 124.1500
116.1600 115.6569 115.1349 116.3936 114.4016 108.3227 111.6693 111.5048 110.8521 107.8505 110.0453 108.3537 107.2448 106.5659 106.1157 106.0169 106.2788 106.8384 107.6023 108.4588 109.3422 110.1413 112.2026 113.1292 117.5510 120.7662 102.0077 95.4573 105.1550 103.4881 105.2008 98.0939 102.3489 105.1355 107.2401 105.8929 102.9694 110.3569 96.4337 109.1260 108.2000 112.1210 113.7995 113.5076 112.1210 110.7457 116.5460 111.5851 113.2653 118.3721 117.4428 110.8479 112.8155 107.7764 110.0474 115.9039 121.0384 120.0058 119.3951 122.5835 120.3350 125.7045 122.4877 120.9400
116.0800 115.4029 114.7494 113.1629 113.3515 113.3960 112.3636 110.9014 110.0725 102.9319 100.2742 107.0215 105.6136 104.7661 104.0846 103.9209 104.3330 105.1619 106.2253 107.3377 108.4850 109.3830 110.4619 113.8311 106.8851 98.7708 107.3524 101.9367 107.3991 96.9729 107.6664 106.7633 104.6051 109.1877 112.6103 99.2169 96.4105 95.7497 97.1234 97.1999 107.4767 112.2292 114.8538 111.7688 112.3403 114.6498 114.4124 116.7577 113.6510 117.3738 116.7903 120.9865 125.0327 127.3721 124.5563 123.2947 122.6127 124.3304 119.0219 119.6622 119.6592 118.5407 109.1139 110.8500
115.5500 115.3974 114.3516 112.2571 113.1836 112.2439 111.4218 110.5574 109.5419 109.2233 107.6158 105.5138 104.0914 102.5420 101.4397 101.1646 101.8476 103.2082 104.7229 106.2039 107.5494 109.1986 107.4519 115.6280 111.1253 109.1525 95.6371 98.7401 100.3663 103.2915 110.3494 108.9183 107.6400 103.5960 103.3537 104.3549 95.8022 104.4923 103.5800 103.4788 101.7968 113.1110 116.5327 116.0878 113.3167 106.9051 109.7783 113.9228 114.9924 116.0192 110.6505 109.8588 110.5981 112.3380 112.2919 110.8498 121.7380 124.0631 123.8614 122.4234 118.1399 121.0655 121.4796 130.8900
93.5000 114.4305 107.5607 111.9185 113.1959 112.1589 111.2199 110.1080 108.8605 107.3158 105.8509 104.2533 102.2089 99.9255 97.7269 97.0361 98.7201 100.9185 103.1817 105.1310 106.7746 108.4548 106.6113 102.4481 103.5283 104.7368 96.9551 107.6176 100.6044 107.4720 108.6310 108.9455 109.1940 103.5640 94.3735 106.7416 102.6846 111.7017 112.8174 111.0990 105.2685 101.4946 108.0069 103.8864 117.6464 125.6112 129.1651 116.2170 118.2243 116.0767 118.8460 114.0034 118.2337 121.0732 102.8267 122.7057 129.3357 132.4806 131.4377 130.0198 131.3824 131.0378 133.7448 132.1200
93.8700 94.9663 95.7101 112.2847 119.0021 111.2253 110.7152 109.9158 108.7630 107.2159 105.4415 103.2346 100.4403 96.7772 91.5823 90.4092 93.6246 98.6651 101.7810 104.2265 106.2229 107.8951 111.3002 115.7768 97.0369 106.5827 97.8849 100.7572 104.4768 100.6517 97.1465 97.5510 109.5232 107.9966 96.6587 96.9446 99.9015 110.5842 113.8459 106.6019 106.3341 104.5738 107.1382 106.6358 120.1879 125.1048 116.6972 120.4608 116.6111 113.6514 107.3796 118.6697 112.0872 110.5827 102.8547 111.5944 110.6653 110.7540 122.8715 125.6812 130.4541 130.6497 119.8777 132.1100
93.4500 110.9134 109.0762 112.1491 114.6611 110.2083 110.7937 109.4829 107.6787 106.7279 104.6811 102.5545 99.2288 93.5743 86.6263 84.8524 89.0565 96.7616 100.8642 103.6970 105.7622 107.6338 113.7153 103.0277 98.0759 101.9545 105.3822 93.9041 96.1804 104.8486 106.4447 106.7237 111.0336 107.8224 95.3097 101.6766 94.7522 112.8232 115.5319 106.7095 109.3408 107.3464 110.7759 117.4332 111.5425 115.1471 113.2975 119.5543 118.4510 112.2002 100.2111 102.4836 100.4259 101.4132 102.5288 100.5930 101.2743 100.5995 119.3707 123.4605 126.8835 131.3892 131.1224 132.1100
93.4500 116.9094 115.2707 114.0548 107.5967 112.1919 110.8714 110.2008 109.3816 107.5518 105.2209 102.4765 99.1770 93.6143 86.8047 85.0093 88.7536 96.6660 100.7972 103.6715 105.7560 107.3087 113.9234 96.6751 97.9333 101.2117 107.9267 91.4321 93.9524 108.0381 109.6839 110.6623 110.7257 105.4313 94.5624 101.7997 94.7220 113.4824 102.3412 99.9188 102.6851 107.0505 111.4789 118.5146 113.7498 116.1855 115.0270 119.3115 110.5083 109.7383 101.3732 101.8611 101.9649 102.1386 102.7898 111.4012 107.1961 102.8442 120.4779 124.7623 126.0431 131.4747 120.1970 132.1000
115.4600 93.0555 116.8396 113.2561 114.9135 111.8596 111.4618 99.6699 89.5582 100.0355 104.3196 102.8955 100.3116 96.3492 90.8150 89.4261 93.0214 98.3311 101.6366 104.1254 106.1894 108.1717 103.1556 120.1101 100.0019 100.9087 90.8778 90.6595 108.0773 108.1619 109.9763 110.3768 110.7497 111.3813 110.6606 108.7676 108.6534 114.0622 110.0736 108.5872 110.9817 114.3650 110.0196 117.2654 116.9766 119.7860 113.9692 105.1610 100.4023 101.1556 101.3873 101.7187 101.9296 102.1405 102.4490 102.9912 103.2184 103.2800 100.7053 128.2073 131.0672 103.5021 104.3944 104.1100
115.4900 115.1833 114.2536 113.6620 112.8482 111.7700 111.1398 83.3310 106.6055 103.2359 107.2084 104.0894 101.9710 99.4038 96.9991 96.2583 98.1228 100.6283 103.0110 104.9970 106.7057 108.5937 105.4426 109.7928 105.1090 99.6632 100.8342 105.1892 106.5127 105.9173 108.6819 110.0908 110.4423 103.3808 97.8221 103.5849 95.3772 113.3859 112.2029 114.8006 115.4744 113.8559 115.4109 118.4290 118.7409 116.8647 112.2146 103.5169 100.3618 101.4129 101.4953 101.7119 101.9512 102.1865 102.4130 102.5810 104.0742 102.6030 121.2680 125.6523 126.6977 127.6377 130.8603 129.1900
115.5300 115.1771 114.6544 113.9401 113.1892 111.9220 113.8557 89.2506 105.6387 108.3479 106.7454 105.3747 103.8507 102.2425 101.0633 100.6617 101.4839 102.9499 104.5561 106.0691 107.4856 109.7104 113.8628 113.0897 95.3679 90.9582 92.8508 103.1900 103.1253 105.3401 108.5063 109.9069 111.0674 112.3325 114.0173 108.7306 97.8154 104.8958 114.0308 115.6591 106.1757 104.1414 105.0654 106.0060 118.2257 99.5786 111.2049 100.0309 100.6611 101.2304 101.4675 101.7233 101.9614 102.2127 102.3994 101.3596 116.5098 103.2111 111.9311 99.3277 105.9991 103.1364 101.0138 104.5900
116.0600 115.4651 114.8037 114.1468 113.5289 112.5526 105.5145 91.7811 116.7672 111.4195 102.9605 110.3413 106.8170 104.0801 103.7125 103.6710 104.0346 104.7794 106.0328 107.1948 108.3186 108.9956 95.0050 101.5506 89.4678 92.9922 108.0084 90.4232 92.5447 96.4976 103.0151 108.0418 107.3942 105.8771 108.7420 99.5083 101.5777 115.8455 113.5688 114.3910 115.9928 117.8040 120.3740 115.5956 104.1452 102.8063 99.8713 100.6699 100.3953 101.3030 101.5112 101.7395 101.9874 102.2233 102.4891 103.0013 101.8146 100.5173 101.1567 103.8641 129.9374 129.3006 105.6915 131.2800
116.0600 115.6212 115.0486 114.3827 113.4130 113.4781 114.1307 108.1355 105.1851 98.8453 87.2223 112.9461 104.1095 107.5309 105.7452 104.7957 103.1223 106.9615 107.0302 108.2251 109.5271 112.3446 103.2890 102.4876 91.7507 94.7446 96.7661 105.3335 97.4727 102.6568 97.2635 100.2170 102.5571 101.7435 101.2046 95.2837 112.7271 115.3793 115.4926 116.6073 116.5601 106.5535 111.2144 96.7246 100.1454 100.5269 100.4795 101.8269 105.8083 101.0060 101.5755 101.8175 102.0339 102.2618 102.5717 101.7245 101.0732 110.0120 111.6129 117.4224 117.0089 116.5886 107.3768 104.2600
116.1500 115.8814 115.3155 114.7792 115.9947 104.0952 104.3151 98.8194 88.1875 90.7853 90.6209 105.9367 90.5638 107.5727 107.4014 107.0864 108.5967 106.9837 108.3772 105.7540 108.2310 110.4072 105.4772 89.1886 92.4700 95.0757 95.8661 100.5207 105.4213 115.4140 99.1308 102.0053 105.7455 100.8138 100.4559 99.5663 99.4053 107.0863 106.9135 110.4987 115.1940 119.6499 102.9994 98.1514 98.3190 99.2914 100.7547 101.2144 107.2037 101.3128 101.6625 101.7190 101.9598 102.2519 102.7990 102.8459 113.5346 120.5062 120.5445 125.6401 102.2438 110.9630 117.1873 107.8100
116.6800 116.1732 115.5385 115.1408 105.5749 96.4548 90.7985 90.6937 101.8291 97.3554 90.6884 91.8726 108.3467 109.7712 108.9506 109.5935 97.9070 111.4199 103.4701 100.6069 119.2254 111.0673 92.6375 107.5335 90.4646 92.0309 94.7429 104.9889 100.7380 112.1139 103.5878 105.9019 104.9312 99.4990 105.7923 99.3733 100.5215 104.9013 104.9618 108.1937 107.4216 112.1498 112.5870 104.7170 111.1542 113.0806 99.6150 100.4456 98.9728 100.8982 101.7867 102.2210 102.6432 102.4927 102.5112 102.0311 113.2545 112.0665 101.2926 113.1222 115.4722 114.7455 134.1687 128.8800
116.7800 116.2685 115.7561 116.5933 102.3083 97.6810 92.5570 92.2767 98.2579 93.9493 90.0826 85.6509 109.6736 110.3239 110.3750 113.4562 100.4608 108.9372 89.6273 133.4040 117.5855 105.4089 88.9172 112.0063 99.6404 95.9358 95.4545 94.2508 101.9974 106.2938 101.1228 108.4803 109.3098 94.2432 97.3222 95.9464 108.2015 105.0662 104.8874 111.0298 111.2756 108.0101 106.2961 111.5014 114.6426 115.6359 104.6615 100.8037 109.3081 101.2257 101.6613 100.4934 99.5937 101.6452 102.7877 103.1983 102.4154 101.7545 103.0159 101.4923 113.4171 101.5432 112.2322 104.2900
116.7800 116.7039 116.6972 107.6464 102.6976 101.2720 95.1756 98.5939 98.9605 94.5519 88.8128 97.6152 112.3202 111.5235 111.5009 111.1187 105.7294 95.9799 112.0008 106.7927 100.3468 89.7302 96.0978 101.7484 114.0055 99.2604 94.7926 97.7192 100.4914 104.3489 106.0943 112.1614 97.4343 95.4500 108.9733 99.4088 106.0815 111.2979 111.3917 104.2748 103.6306 107.1065 108.3785 113.8035 113.3896 105.9258 108.6493 101.0493 104.8650 101.1005 101.0767 112.7171 119.0513 107.0961 102.4320 101.7318 101.4922 102.7031 103.9202 104.5563 103.2617 103.9443 103.4724 104.3000
117.3400 119.7185 98.1432 104.4084 103.8656 102.7878 101.5576 97.8875 94.9503 98.0448 93.1625 114.4747 112.6563 112.3833 112.2651 110.4949 100.1181 98.0900 96.3457 102.7117 103.2804 101.4836 111.0197 99.7609 101.0075 103.7609 108.2068 95.8640 98.7067 100.8237 108.7448 96.8972 96.4256 96.5769 99.3500 95.7382 111.1408 114.0889 114.5366 113.6804 116.0272 114.9143 98.8908 102.1047 102.3432 105.2241 101.5667 101.0501 101.0529 101.5324 102.0707 101.9790 111.9087 111.4565 107.5692 116.1930 123.5626 118.9310 103.2530 102.3298 103.1972 104.4531 104.6656 104.6000
100.8000 101.5062 101.4619 96.2154 102.4081 106.4766 97.5879 96.3843 96.9936 99.0645 102.2188 114.9936 113.3388 113.2281 112.8678 111.1326 101.5519 104.1112 119.4114 110.1860 107.0523 106.6913 111.8816 103.9553 94.1401 100.0686 98.3798 93.9807 95.1021 104.1177 102.3101 104.5616 96.1318 96.9672 97.3745 97.7660 98.7579 110.4727 114.8232 116.0447 115.7452 116.7828 107.8158 99.9391 100.3121 100.5250 100.8689 101.1336 101.4262 101.5860 102.2119 103.7341 115.2563 102.3859 114.2778 110.9357 112.0140 114.1401 123.9546 124.8839 128.7082 101.9004 103.8553 105.0300
117.8700 107.9993 106.5693 104.9427 104.5397 98.2723 103.0470 100.6743 97.0911 99.7942 113.9776 114.3230 114.1075 113.9987 113.6156 112.1560 102.7763 103.3528 111.3506 107.1525 98.3268 107.6129 106.1422 102.7327 107.5881 93.5328 105.0770 114.9766 103.6179 95.8461 104.0959 107.8819 106.1160 98.8360 97.7211 99.1628 98.6904 100.0204 98.3693 114.5774 116.9523 117.3487 117.3275 105.0016 100.1558 100.7786 101.0479 101.2593 101.5218 101.6203 102.1157 103.6850 103.1510 104.8334 119.4405 110.5262 116.2561 111.5162 114.9259 110.3280 103.1322 116.5282 127.7879 123.6800
118.2800 117.9293 101.7831 105.6987 108.9376 107.2478 109.7323 94.9699 101.3082 107.5922 115.8046 114.8973 114.7731 114.7513 114.5463 113.1150 103.2155 103.7238 105.6877 107.0691 100.1426 98.1309 110.2559 114.6957 102.5943 103.5917 102.2668 102.6126 98.7084 110.1873 100.7907 104.8802 104.9666 103.5838 97.0819 98.4931 99.4530 101.1413 101.5261 107.1376 112.0166 117.9736 98.0230 102.3028 100.6829 100.7685 100.9244 101.3527 101.7608 101.2326 108.1101 110.7670 116.6848 101.4409 100.8648 117.7425 95.5363 115.2175 114.4563 111.2429 118.2929 116.0206 116.1592 113.6200
118.3900 114.0148 107.0888 104.6129 93.8611 103.0109 101.7003 94.5566 104.6450 109.5804 115.7756 115.7536 115.7150 115.9555 114.5718 113.5448 103.8503 104.3824 111.8845 95.7236 110.3675 107.9574 112.8750 96.3009 105.8657 104.4515 100.4815 102.5272 107.1438 115.7414 113.3495 95.5204 95.9070 100.6281 98.0683 98.2269 103.0043 101.5721 102.6694 101.6547 101.7533 103.5121 101.7953 104.4949 100.5078 100.6711 102.3660 101.4176 101.6663 101.8954 101.9757 101.2698 100.8957 102.9091 105.3021 121.8482 108.2487 107.9238 117.5131 121.2689 120.5845 116.4628 117.7322 104.5000
118.7800 116.8449 110.3221 110.9056 96.6887 103.9476 93.9481 104.7461 105.5370 110.5599 116.4156 117.0113 111.2923 119.8445 115.0623 114.1077 105.1879 105.4240 105.9923 107.7907 97.7288 91.9245 102.2560 116.0299 114.8710 108.1851 105.7649 96.1262 107.9683 113.2115 101.7635 100.9479 107.3735 105.2257 97.6098 98.3225 112.0719 109.3777 105.3900 103.5588 103.1203 107.1533 107.5425 100.9583 102.4362 103.0558 107.8614 101.4930 101.7925 102.0414 102.2963 102.6782 102.9005 102.8623 104.3737 108.7222 109.3580 119.7074 119.8165 122.5813 122.5004 121.8018 107.7262 120.6100
119.2700 108.7240 111.3077 109.7139 97.7795 110.6672 96.0425 102.3034 105.3597 107.5816 117.1621 118.6669 93.4440 98.5559 112.8539 114.8255 104.9860 106.1739 106.0180 108.3134 93.8980 96.0386 99.8101 117.3608 97.4426 106.6241 109.8103 104.5736 102.8482 110.6651 110.1635 108.0206 99.2556 99.8715 98.6044 98.1936 103.1625 109.5505 109.1303 106.2966 107.4960 107.2854 104.8785 99.9970 100.5711 102.0075 101.6676 101.1787 101.3496 102.1010 102.3053 102.4466 102.6089 102.9011 102.7391 102.3979 102.3187 107.7060 114.0490 114.3661 116.2825 118.9872 114.0772 104.6600
110.3100 111.5571 110.2622 111.4647 109.7587 111.6504 106.3265 103.6156 117.0027 119.8072 114.7249 109.9280 116.7479 121.9602 112.6792 108.6293 106.6924 104.3039 110.5076 108.7572 94.4646 95.6701 94.2298 103.6917 96.2816 115.2710 109.6961 99.3657 96.9521 102.7691 110.3887 101.4951 113.8498 97.8228 98.3441 98.6669 98.7248 100.7383 100.3831 102.0708 104.5163 100.2974 100.1108 101.0614 101.3018 101.7189 104.9066 106.2087 105.6413 101.8020 102.2660 102.6384 102.7983 103.1029 103.4535 103.4663 104.0471 103.8840 108.6374 103.0938 108.1388 106.7317 113.1883 107.0400
110.3100 109.5093 110.7931 110.7566 109.9579 109.4095 97.4915 105.4687 117.5770 118.5930 112.7411 117.4796 121.4131 100.8678 114.9282 115.9027 106.9231 107.5872 104.8907 94.9503 95.2035 96.0770 95.9854 98.1021 99.3791 100.2572 96.9902 97.6243 112.5788 106.3065 110.7345 118.6650 118.7880 97.8271 103.9484 99.3089 99.7462 99.2669 100.1374 100.1181 100.2562 100.7083 100.9913 101.0216 101.0540 104.9829 110.7850 111.2336 111.8574 107.9619 103.5770 102.4717 103.1682 103.0998 103.2551 103.5958 103.5993 103.6456 103.0560 103.8764 106.5435 104.1125 104.1423 104.8400
110.7800 110.2890 111.4141 111.7366 110.5692 109.3635 97.4223 114.6598 119.8100 108.9086 116.9846 118.4468 110.9079 110.3600 118.7330 114.3804 101.7369 98.8538 97.9603 96.3616 96.1863 96.4299 96.5440 98.0236 96.1073 94.8127 100.2815 96.1543 99.3434 104.7096 104.6917 101.8659 99.0380 102.1644 101.4352 98.7205 99.7083 100.0093 100.4250 100.3157 100.4032 100.7285 100.9965 101.2961 100.7969 108.6680 102.3078 101.6845 105.6037 107.4549 104.5506 102.8098 102.0349 121.3836 103.0371 103.3443 103.9084 103.8644 104.0439 109.1343 102.5638 104.3674 104.9974 104.8700
111.0400 111.6880 112.6656 112.1749 110.8435 111.7038 109.2340 101.5827 118.5077 104.9640 116.8564 113.9844 119.7376 122.4931 105.0601 101.9282 95.0371 95.8291 96.4025 96.6391 99.1070 97.2042 97.1024 97.6348 103.0207 111.9091 102.4438 122.2196 102.4276 97.7720 98.5955 98.3545 98.9768 99.8986 101.8839 99.2652 99.9415 99.9889 100.2311 100.4569 102.6410 101.9288 100.9804 101.3346 101.5373 102.5343 108.0484 100.4109 102.0681 102.3587 102.6301 102.9755 103.9987 117.3303 109.3505 110.4453 104.9744 101.6393 103.1108 108.0105 108.0771 104.9521 105.6060 105.7200
111.8400 112.0829 112.8334 112.1276 111.8098 110.8616 113.1725 107.0714 119.9369 106.3009 124.9290 104.7865 111.7652 111.4633 111.4812 106.2826 96.0726 97.1119 96.9309 98.0629 99.7968 97.8140 97.4023 96.9102 106.8305 103.3107 113.3804 106.5115 100.7089 98.5074 99.4396 98.4963 99.9620 99.1925 99.6211 99.6839 100.0825 100.3030 100.3517 100.4614 102.6500 102.9782 103.5219 101.2028 101.4829 101.7019 103.5310 110.2383 110.8776 102.0843 103.1118 102.9950 103.2758 103.6681 102.6082 108.7028 112.3506 128.9760 126.7338 101.2387 104.5547 104.6882 103.9760 106.5200
105.4600 108.6943 112.8616 112.3218 111.7626 111.4386 119.8870 119.8106 119.8903 97.2829 110.5986 104.6579 115.4950 110.1286 94.2560 96.1558 96.7749 97.3411 97.0154 100.1243 97.2965 97.4940 97.9866 97.4466 100.1429 101.1162 96.6729 121.2946 118.8386 100.5671 101.1418 99.0346 104.4407 98.8008 100.0218 99.8504 99.9767 100.1350 100.5494 101.2824 101.0070 102.1230 104.8643 102.7939 102.2049 104.0692 102.2093 102.6043 108.7973 104.6170 103.1485 103.0011 103.1219 103.6225 103.1617 110.4224 116.4175 117.5921 106.6231 129.9355 124.2071 102.7761 133.8028 133.7300
106.3200 105.1937 106.7629 112.6252 112.1926 113.2019 106.8141 118.1988 117.6858 100.0189 95.0927 104.2064 107.2968 96.6827 99.0878 98.5600 97.7833 97.7539 97.8412 97.5656 102.1623 99.0614 98.0737 98.4267 99.3816 104.0281 97.5683 105.5506 104.8153 106.4709 99.3410 101.2714 102.6560 99.6632 100.4270 99.7341 109.5261 122.6713 103.0289 102.3805 101.1768 101.3398 102.3903 104.3708 101.6255 106.1773 106.7227 105.0777 102.9259 103.5708 105.9768 107.0383 104.2674 116.3795 115.1019 115.4331 115.7966 117.1574 105.4608 111.0974 107.4875 131.7763 129.5135 133.7700
108.1000 106.6311 105.6865 107.5461 111.2053 116.5334 105.7351 103.1093 110.8715 100.3008 108.1270 108.6542 114.1198 99.2987 103.5698 100.0699 98.0248 98.1136 97.9420 97.7930 98.2885 99.5106 99.3975 98.1341 98.7683 103.7153 103.3472 97.2973 105.6027 102.1447 99.1159 101.8426 100.5919 99.9060 109.7256 99.6519 126.7068 125.3062 99.1663 100.9269 101.7160 101.4302 102.2339 101.7853 102.5813 106.6143 107.0551 107.4138 109.5797 107.0549 103.4251 113.5895 113.7005 114.6735 114.8846 116.3369 114.3434 116.8988 118.3523 118.2720 118.1042 117.8754 107.9008 133.4100
108.1000 107.5300 106.9789 107.4217 104.2754 95.9466 102.6127 101.5990 108.2204 103.0028 101.8242 104.4370 97.3613 103.7675 105.8753 101.2028 98.2337 98.4795 97.9308 104.2189 96.6643 101.5459 102.1143 102.1968 98.2390 98.8666 104.8639 99.8353 99.4589 99.1683 101.0865 102.7189 98.3120 114.2822 112.9537 99.6953 115.5268 120.1349 116.1858 102.1546 102.2946 103.2318 102.5166 102.0156 102.1888 103.1994 107.7967 107.9649 107.8107 109.3508 114.2928 125.3039 117.6200 112.9030 115.7413 110.7564 108.9683 118.6708 117.8945 117.8462 114.2288 117.5118 104.0024 105.2500
108.8300 108.1838 107.4741 107.6163 111.0805 106.9936 97.9001 100.4452 113.6915 96.5633 108.5117 101.9588 102.2506 99.0116 101.5108 101.3281 108.4184 98.6410 98.4627 113.1583 106.1377 99.7119 104.1635 103.8697 99.2824 99.2813 104.2972 101.8547 100.1324 99.9837 99.9678 100.0034 100.1490 98.1055 101.0614 101.7685 108.7100 118.1567 112.7813 102.1270 102.3807 103.4296 103.7389 102.0477 103.7317 104.8505 108.9917 108.9585 109.5014 110.0399 112.3791 116.1338 109.7427 116.1758 116.7324 107.8711 112.6644 110.6068 114.8811 117.2801 119.0846 118.7428 109.9445 105.4100
109.3100 108.5892 108.1019 106.5672 106.9994 107.1832 112.2471 117.5952 102.4871 111.4181 114.5933 114.8822 99.4645 103.8355 102.7624 102.7573 98.1566 98.4363 99.3504 101.6664 99.0715 100.3639 99.5961 99.1456 100.7101 100.1672 99.2289 104.7777 99.8019 100.2754 100.3745 100.5598 101.2058 103.0844 127.9322 101.5134 100.1041 100.4379 106.3002 100.2547 103.3714 102.3074 102.2034 102.6407 105.5167 103.1767 104.0888 107.5347 110.8955 110.8396 111.7086 115.9117 109.0701 123.6422 107.5301 119.4305 115.9586 110.3530 106.6768 118.4265 117.3745 118.5564 121.2270 105.4100
110.0300 109.0393 108.7671 108.3913 120.6996 118.7284 120.5932 117.1155 100.9295 112.5358 116.8585 103.1785 104.4910 109.7730 104.1310 103.7890 99.0759 99.5822 98.4228 99.3824 99.6529 99.6650 99.7032 99.7535 102.0335 102.8403 102.5405 102.9553 100.3925 100.4529 100.6103 100.7022 100.7057 101.5262 99.6952 101.5730 101.8428 101.6135 103.3383 111.3784 99.5195 101.6144 102.5543 102.3337 104.4019 104.6779 102.1643 103.2305 106.2479 109.0582 110.7670 113.0521 113.1458 114.3182 126.9490 125.7031 120.7047 115.6996 111.5134 118.2314 118.1290 114.7882 119.5532 105.5700
110.4700 109.6522 110.8457 110.2516 122.4026 122.0068 122.7956 119.0591 99.4127 109.2096 116.7758 114.4016 101.6817 98.9951 105.0802 105.1971 99.3778 99.5777 107.3695 99.6297 100.2561 100.7879 99.8073 101.5600 99.9989 102.1970 108.9767 101.2973 100.5750 100.6899 100.8461 101.0195 101.1074 102.2064 103.6316 103.6276 102.4643 101.7113 100.2263 110.1257 104.3075 102.8741 102.4492 103.7953 106.6026 107.1286 106.2334 107.3803 110.7504 117.2020 111.5108 113.0190 112.0924 115.3974 112.5671 116.7627 122.2865 122.9117 119.2101 116.8369 117.5861 117.6103 107.1453 105.6000
110.5100 110.3976 108.6742 120.1820 114.5919 122.8364 122.0335 107.6995 112.7292 115.9808 116.8670 98.4318 103.5143 110.7166 107.6927 107.6457 98.4819 99.1786 100.7906 100.4497 99.3373 99.4865 100.1993 101.1601 101.9613 102.0710 102.5144 99.7248 101.0668 100.9197 101.0989 101.2328 101.2292 101.2197 101.7535 103.8164 101.8750 102.1064 108.0772 101.7711 109.1172 102.9198 102.7353 103.2754 106.6076 107.4711 107.7481 107.6307 106.4519 108.4117 112.2717 114.3598 112.2778 115.0153 114.0079 112.3397 118.9106 115.6693 119.7119 118.7137 113.5559 119.3451 116.0954 119.3100
111.2200 111.4973 113.9973 124.5848 122.6501 123.2328 123.2021 107.6027 115.1230 118.4354 107.2089 102.9694 104.5764 107.9107 107.7771 105.9495 99.1042 108.9661 99.5259 100.4541 103.1136 112.3310 99.7251 102.6416 102.0891 107.3589 109.2766 102.6982 100.9941 101.2199 101.2971 101.2712 101.7005 101.5353 101.8727 101.3773 101.2996 101.1124 104.8750 110.0687 104.4448 102.5587 102.9078 103.1316 103.2864 108.2453 108.0060 109.0710 108.8707 107.8737 105.9280 109.4250 113.0574 111.9748 116.5844 114.2064 114.2846 115.5933 117.8816 113.6556 111.7596 115.6295 114.3354 115.3800
111.5700 118.8751 118.9094 123.4601 123.1153 126.9964 122.8705 119.6772 118.4575 120.7548 108.9857 103.1850 109.7131 111.5306 113.7230 114.9880 100.1899 104.8294 100.4523 100.7202 108.0220 116.6943 102.0886 103.8679 102.3155 104.3494 100.4724 100.9706 101.2712 101.2211 101.5890 104.2857 100.3470 104.0666 100.9872 103.5875 109.1574 107.1028 103.2921 103.6047 102.6194 103.2862 102.8796 103.1278 103.6327 104.9152 107.4682 108.7579 109.6672 107.4458 109.0209 107.6336 111.7681 114.4126 123.9954 121.0075 115.9307 118.0440 114.9558 118.0714 105.4704 105.8742 105.1590 110.3900
113.2000 117.3137 123.6957 123.4317 123.3015 123.1315 123.5766 109.1339 107.5851 122.3517 109.8403 104.2716 107.9119 111.0713 112.9330 110.8947 100.7412 100.8264 100.9064 101.1083 102.2209 104.2032 100.6353 100.9966 101.2315 101.0572 101.5822 101.4329 102.4001 104.0731 101.7176 104.7007 104.4119 109.9932 101.1179 102.5639 108.2508 106.5948 102.7431 108.6669 103.1433 108.6551 102.8552 103.7428 101.8640 124.6919 120.8010 110.9801 108.4766 110.2694 110.3264 107.7065 109.2795 108.6369 111.6997 118.7742 115.1344 117.3535 119.0311 122.3460 124.2415 118.4703 106.2953 105.9300
118.7100 122.5034 124.0935 123.6371 123.6546 123.4763 123.8715 121.1824 120.4073 108.8003 110.1814 105.6711 109.2104 102.1236 109.0654 108.2287 99.8482 99.9616 101.1334 101.1956 101.2031 100.9909 101.6001 101.4891 101.4863 101.5974 101.6457 101.1335 104.5276 106.0762 104.9144 104.6662 104.5236 111.1948 102.4976 102.0225 102.3310 106.5659 103.7869 103.1673 109.8598 106.0621 103.4161 103.1770 103.8404 100.6824 98.6255 142.8476 108.1472 111.2832 111.0321 111.6261 107.3515 106.9666 113.7191 106.9413 123.5587 119.4566 123.7984 122.3529 123.1274 118.5845 111.2970 111.3500
124.0700 124.2960 123.8777 123.9221 123.6983 123.0496 122.5573 119.2831 121.0265 112.1997 109.5462 107.0027 109.5007 113.1873 104.9106 102.1973 99.5657 119.6714 109.8890 101.5223 102.1586 101.5839 101.5434 101.6488 101.7336 101.7956 101.9084 101.0520 106.1863 101.9632 104.0258 102.9865 101.9725 102.7002 103.0281 103.1713 103.2184 102.3384 102.6796 102.8596 104.1114 102.2618 105.5175 103.6517 103.3519 108.9550 102.1187 105.9206 105.8230 110.5675 111.1214 112.0242 112.8505 107.3188 114.6652 107.3338 119.4561 116.3806 126.3156 108.1874 118.6604 113.2206 105.3720 106.1000
124.2800 124.2386 124.2232 124.1316 124.0311 124.3073 109.3098 113.8917 117.0446 115.2115 112.1783 109.7097 107.9609 101.2613 101.5065 101.1064 112.0772 100.6886 100.7551 101.4627 102.9509 101.7918 101.8657 101.9159 101.9587 102.0260 102.1126 101.6612 106.7206 105.7381 110.1461 103.8368 103.8298 102.3548 102.6541 103.2201 103.6508 103.7344 103.3334 107.9070 104.7438 105.9315 110.9192 104.2758 104.9745 132.3900 147.3352 125.2733 102.0294 119.0342 116.2090 112.1228 112.7116 110.7354 110.9093 111.6050 113.1278 115.8354 126.3192 107.4969 107.5967 104.2461 106.0307 106.2600
124.5100 124.5100 124.3800 124.2400 124.2800 124.1200 124.1600 107.1400 117.9600 117.0300 115.5700 109.0300 111.0100 114.5800 101.9100 101.9100 101.9100 101.9000 101.8900 101.8700 101.8500 102.0300 102.0100 101.9900 102.1500 102.1300 102.2700 102.2400 102.3700 105.4400 105.4400 105.9300 113.0000 102.8500 102.8500 103.1800 103.5400 104.3900 105.6700 103.4400 105.1800 105.6200 112.2000 107.7200 104.0100 104.1200 134.7100 133.7700 136.7900 136.5700 111.9200 112.5900 113.2000 112.8500 112.7600 105.2900 109.8200 114.6700 115.8300 105.7800 105.9700 106.0700 106.1700 106.2600
